ISO-10303-21;
HEADER;
/* Generated by software containing ST-Developer
 * from STEP Tools, Inc. (www.steptools.com) 
 */

FILE_DESCRIPTION(
/* description */ (''),
/* implementation_level */ '2;1');

FILE_NAME(
/* name */ 
'G:\\Applications\\Altium\\CernLib\\StepLib\\BGA28C50P4X7_248X368X68.s
tp',
/* time_stamp */ '2016-03-08T13:13:48+01:00',
/* author */ ('riccim'),
/* organization */ (''),
/* preprocessor_version */ 'ST-DEVELOPER v15.5',
/* originating_system */ 'AutoCAD Mechanical',
/* authorisation */ ' ');

FILE_SCHEMA (('AUTOMOTIVE_DESIGN { 1 0 10303 214 3 1 1 }'));
ENDSEC;

DATA;
#10=MECHANICAL_DESIGN_GEOMETRIC_PRESENTATION_REPRESENTATION('',(#42,#43,
#44,#45,#46,#47,#48,#49,#50,#51,#52,#53,#54,#55,#56,#57,#58,#59,#60,#61,
#62,#63,#64,#65,#66,#67,#68,#69,#70),#1587);
#11=DIMENSIONAL_EXPONENTS(0.,0.,0.,0.,0.,0.,0.);
#12=(
CONVERSION_BASED_UNIT('degree',#13)
NAMED_UNIT(#11)
PLANE_ANGLE_UNIT()
);
#13=PLANE_ANGLE_MEASURE_WITH_UNIT(PLANE_ANGLE_MEASURE(0.01745329252),#1590);
#14=PRESENTATION_LAYER_ASSIGNMENT('3D','',(#861,#862,#863,#864,#865,#866,
#867,#868,#869,#870,#871,#872,#873,#874,#875,#876,#877,#878,#879,#880,#881,
#882,#883,#884,#885,#886,#887,#888,#889));
#15=LINE($,#1372,#27);
#16=LINE($,#1374,#28);
#17=LINE($,#1376,#29);
#18=LINE($,#1377,#30);
#19=LINE($,#1380,#31);
#20=LINE($,#1382,#32);
#21=LINE($,#1383,#33);
#22=LINE($,#1386,#34);
#23=LINE($,#1388,#35);
#24=LINE($,#1389,#36);
#25=LINE($,#1391,#37);
#26=LINE($,#1392,#38);
#27=VECTOR($,#1063,2.48);
#28=VECTOR($,#1064,0.44);
#29=VECTOR($,#1065,2.48);
#30=VECTOR($,#1066,0.44);
#31=VECTOR($,#1069,3.68);
#32=VECTOR($,#1070,3.68);
#33=VECTOR($,#1071,0.44);
#34=VECTOR($,#1074,2.48);
#35=VECTOR($,#1075,2.48);
#36=VECTOR($,#1076,0.44);
#37=VECTOR($,#1079,3.68);
#38=VECTOR($,#1080,3.68);
#39=CYLINDRICAL_SURFACE($,#896,0.2);
#40=SHAPE_REPRESENTATION_RELATIONSHIP('SRR','None',#1593,#41);
#41=ADVANCED_BREP_SHAPE_REPRESENTATION($,(#861,#862,#863,#864,#865,#866,
#867,#868,#869,#870,#871,#872,#873,#874,#875,#876,#877,#878,#879,#880,#881,
#882,#883,#884,#885,#886,#887,#888,#889),#1586);
#42=STYLED_ITEM($,(#1603),#861);
#43=STYLED_ITEM($,(#1604),#862);
#44=STYLED_ITEM($,(#1603),#863);
#45=STYLED_ITEM($,(#1603),#864);
#46=STYLED_ITEM($,(#1603),#865);
#47=STYLED_ITEM($,(#1603),#866);
#48=STYLED_ITEM($,(#1603),#867);
#49=STYLED_ITEM($,(#1603),#868);
#50=STYLED_ITEM($,(#1603),#869);
#51=STYLED_ITEM($,(#1603),#870);
#52=STYLED_ITEM($,(#1603),#871);
#53=STYLED_ITEM($,(#1603),#872);
#54=STYLED_ITEM($,(#1603),#873);
#55=STYLED_ITEM($,(#1603),#874);
#56=STYLED_ITEM($,(#1603),#875);
#57=STYLED_ITEM($,(#1603),#876);
#58=STYLED_ITEM($,(#1603),#877);
#59=STYLED_ITEM($,(#1603),#878);
#60=STYLED_ITEM($,(#1603),#879);
#61=STYLED_ITEM($,(#1603),#880);
#62=STYLED_ITEM($,(#1603),#881);
#63=STYLED_ITEM($,(#1603),#882);
#64=STYLED_ITEM($,(#1603),#883);
#65=STYLED_ITEM($,(#1603),#884);
#66=STYLED_ITEM($,(#1603),#885);
#67=STYLED_ITEM($,(#1603),#886);
#68=STYLED_ITEM($,(#1603),#887);
#69=STYLED_ITEM($,(#1603),#888);
#70=STYLED_ITEM($,(#1603),#889);
#71=FACE_BOUND($,#224,.T.);
#72=FACE_BOUND($,#226,.T.);
#73=FACE_BOUND($,#234,.T.);
#74=FACE_BOUND($,#238,.T.);
#75=FACE_BOUND($,#242,.T.);
#76=FACE_BOUND($,#246,.T.);
#77=FACE_BOUND($,#250,.T.);
#78=FACE_BOUND($,#254,.T.);
#79=FACE_BOUND($,#258,.T.);
#80=FACE_BOUND($,#262,.T.);
#81=FACE_BOUND($,#266,.T.);
#82=FACE_BOUND($,#270,.T.);
#83=FACE_BOUND($,#274,.T.);
#84=FACE_BOUND($,#278,.T.);
#85=FACE_BOUND($,#282,.T.);
#86=FACE_BOUND($,#286,.T.);
#87=FACE_BOUND($,#290,.T.);
#88=FACE_BOUND($,#294,.T.);
#89=FACE_BOUND($,#298,.T.);
#90=FACE_BOUND($,#302,.T.);
#91=FACE_BOUND($,#306,.T.);
#92=FACE_BOUND($,#310,.T.);
#93=FACE_BOUND($,#314,.T.);
#94=FACE_BOUND($,#318,.T.);
#95=FACE_BOUND($,#322,.T.);
#96=FACE_BOUND($,#326,.T.);
#97=FACE_BOUND($,#330,.T.);
#98=FACE_BOUND($,#334,.T.);
#99=FACE_BOUND($,#338,.T.);
#100=FACE_BOUND($,#342,.T.);
#101=SPHERICAL_SURFACE($,#895,0.16);
#102=SPHERICAL_SURFACE($,#910,0.16);
#103=SPHERICAL_SURFACE($,#915,0.16);
#104=SPHERICAL_SURFACE($,#920,0.16);
#105=SPHERICAL_SURFACE($,#925,0.16);
#106=SPHERICAL_SURFACE($,#930,0.16);
#107=SPHERICAL_SURFACE($,#935,0.16);
#108=SPHERICAL_SURFACE($,#940,0.16);
#109=SPHERICAL_SURFACE($,#945,0.16);
#110=SPHERICAL_SURFACE($,#950,0.16);
#111=SPHERICAL_SURFACE($,#955,0.16);
#112=SPHERICAL_SURFACE($,#960,0.16);
#113=SPHERICAL_SURFACE($,#965,0.16);
#114=SPHERICAL_SURFACE($,#970,0.16);
#115=SPHERICAL_SURFACE($,#975,0.16);
#116=SPHERICAL_SURFACE($,#980,0.16);
#117=SPHERICAL_SURFACE($,#985,0.16);
#118=SPHERICAL_SURFACE($,#990,0.16);
#119=SPHERICAL_SURFACE($,#995,0.16);
#120=SPHERICAL_SURFACE($,#1000,0.16);
#121=SPHERICAL_SURFACE($,#1005,0.16);
#122=SPHERICAL_SURFACE($,#1010,0.16);
#123=SPHERICAL_SURFACE($,#1015,0.16);
#124=SPHERICAL_SURFACE($,#1020,0.16);
#125=SPHERICAL_SURFACE($,#1025,0.16);
#126=SPHERICAL_SURFACE($,#1030,0.16);
#127=SPHERICAL_SURFACE($,#1035,0.16);
#128=SPHERICAL_SURFACE($,#1040,0.16);
#129=FACE_OUTER_BOUND($,#221,.T.);
#130=FACE_OUTER_BOUND($,#222,.T.);
#131=FACE_OUTER_BOUND($,#223,.T.);
#132=FACE_OUTER_BOUND($,#225,.T.);
#133=FACE_OUTER_BOUND($,#227,.T.);
#134=FACE_OUTER_BOUND($,#228,.T.);
#135=FACE_OUTER_BOUND($,#229,.T.);
#136=FACE_OUTER_BOUND($,#230,.T.);
#137=FACE_OUTER_BOUND($,#231,.T.);
#138=FACE_OUTER_BOUND($,#232,.T.);
#139=FACE_OUTER_BOUND($,#233,.T.);
#140=FACE_OUTER_BOUND($,#235,.T.);
#141=FACE_OUTER_BOUND($,#236,.T.);
#142=FACE_OUTER_BOUND($,#237,.T.);
#143=FACE_OUTER_BOUND($,#239,.T.);
#144=FACE_OUTER_BOUND($,#240,.T.);
#145=FACE_OUTER_BOUND($,#241,.T.);
#146=FACE_OUTER_BOUND($,#243,.T.);
#147=FACE_OUTER_BOUND($,#244,.T.);
#148=FACE_OUTER_BOUND($,#245,.T.);
#149=FACE_OUTER_BOUND($,#247,.T.);
#150=FACE_OUTER_BOUND($,#248,.T.);
#151=FACE_OUTER_BOUND($,#249,.T.);
#152=FACE_OUTER_BOUND($,#251,.T.);
#153=FACE_OUTER_BOUND($,#252,.T.);
#154=FACE_OUTER_BOUND($,#253,.T.);
#155=FACE_OUTER_BOUND($,#255,.T.);
#156=FACE_OUTER_BOUND($,#256,.T.);
#157=FACE_OUTER_BOUND($,#257,.T.);
#158=FACE_OUTER_BOUND($,#259,.T.);
#159=FACE_OUTER_BOUND($,#260,.T.);
#160=FACE_OUTER_BOUND($,#261,.T.);
#161=FACE_OUTER_BOUND($,#263,.T.);
#162=FACE_OUTER_BOUND($,#264,.T.);
#163=FACE_OUTER_BOUND($,#265,.T.);
#164=FACE_OUTER_BOUND($,#267,.T.);
#165=FACE_OUTER_BOUND($,#268,.T.);
#166=FACE_OUTER_BOUND($,#269,.T.);
#167=FACE_OUTER_BOUND($,#271,.T.);
#168=FACE_OUTER_BOUND($,#272,.T.);
#169=FACE_OUTER_BOUND($,#273,.T.);
#170=FACE_OUTER_BOUND($,#275,.T.);
#171=FACE_OUTER_BOUND($,#276,.T.);
#172=FACE_OUTER_BOUND($,#277,.T.);
#173=FACE_OUTER_BOUND($,#279,.T.);
#174=FACE_OUTER_BOUND($,#280,.T.);
#175=FACE_OUTER_BOUND($,#281,.T.);
#176=FACE_OUTER_BOUND($,#283,.T.);
#177=FACE_OUTER_BOUND($,#284,.T.);
#178=FACE_OUTER_BOUND($,#285,.T.);
#179=FACE_OUTER_BOUND($,#287,.T.);
#180=FACE_OUTER_BOUND($,#288,.T.);
#181=FACE_OUTER_BOUND($,#289,.T.);
#182=FACE_OUTER_BOUND($,#291,.T.);
#183=FACE_OUTER_BOUND($,#292,.T.);
#184=FACE_OUTER_BOUND($,#293,.T.);
#185=FACE_OUTER_BOUND($,#295,.T.);
#186=FACE_OUTER_BOUND($,#296,.T.);
#187=FACE_OUTER_BOUND($,#297,.T.);
#188=FACE_OUTER_BOUND($,#299,.T.);
#189=FACE_OUTER_BOUND($,#300,.T.);
#190=FACE_OUTER_BOUND($,#301,.T.);
#191=FACE_OUTER_BOUND($,#303,.T.);
#192=FACE_OUTER_BOUND($,#304,.T.);
#193=FACE_OUTER_BOUND($,#305,.T.);
#194=FACE_OUTER_BOUND($,#307,.T.);
#195=FACE_OUTER_BOUND($,#308,.T.);
#196=FACE_OUTER_BOUND($,#309,.T.);
#197=FACE_OUTER_BOUND($,#311,.T.);
#198=FACE_OUTER_BOUND($,#312,.T.);
#199=FACE_OUTER_BOUND($,#313,.T.);
#200=FACE_OUTER_BOUND($,#315,.T.);
#201=FACE_OUTER_BOUND($,#316,.T.);
#202=FACE_OUTER_BOUND($,#317,.T.);
#203=FACE_OUTER_BOUND($,#319,.T.);
#204=FACE_OUTER_BOUND($,#320,.T.);
#205=FACE_OUTER_BOUND($,#321,.T.);
#206=FACE_OUTER_BOUND($,#323,.T.);
#207=FACE_OUTER_BOUND($,#324,.T.);
#208=FACE_OUTER_BOUND($,#325,.T.);
#209=FACE_OUTER_BOUND($,#327,.T.);
#210=FACE_OUTER_BOUND($,#328,.T.);
#211=FACE_OUTER_BOUND($,#329,.T.);
#212=FACE_OUTER_BOUND($,#331,.T.);
#213=FACE_OUTER_BOUND($,#332,.T.);
#214=FACE_OUTER_BOUND($,#333,.T.);
#215=FACE_OUTER_BOUND($,#335,.T.);
#216=FACE_OUTER_BOUND($,#336,.T.);
#217=FACE_OUTER_BOUND($,#337,.T.);
#218=FACE_OUTER_BOUND($,#339,.T.);
#219=FACE_OUTER_BOUND($,#340,.T.);
#220=FACE_OUTER_BOUND($,#341,.T.);
#221=EDGE_LOOP($,(#537));
#222=EDGE_LOOP($,(#538));
#223=EDGE_LOOP($,(#539));
#224=EDGE_LOOP($,(#540));
#225=EDGE_LOOP($,(#541));
#226=EDGE_LOOP($,(#542));
#227=EDGE_LOOP($,(#543));
#228=EDGE_LOOP($,(#544,#545,#546,#547));
#229=EDGE_LOOP($,(#548,#549,#550,#551));
#230=EDGE_LOOP($,(#552,#553,#554,#555));
#231=EDGE_LOOP($,(#556,#557,#558,#559));
#232=EDGE_LOOP($,(#560,#561,#562,#563));
#233=EDGE_LOOP($,(#564,#565,#566,#567));
#234=EDGE_LOOP($,(#568));
#235=EDGE_LOOP($,(#569));
#236=EDGE_LOOP($,(#570));
#237=EDGE_LOOP($,(#571));
#238=EDGE_LOOP($,(#572));
#239=EDGE_LOOP($,(#573));
#240=EDGE_LOOP($,(#574));
#241=EDGE_LOOP($,(#575));
#242=EDGE_LOOP($,(#576));
#243=EDGE_LOOP($,(#577));
#244=EDGE_LOOP($,(#578));
#245=EDGE_LOOP($,(#579));
#246=EDGE_LOOP($,(#580));
#247=EDGE_LOOP($,(#581));
#248=EDGE_LOOP($,(#582));
#249=EDGE_LOOP($,(#583));
#250=EDGE_LOOP($,(#584));
#251=EDGE_LOOP($,(#585));
#252=EDGE_LOOP($,(#586));
#253=EDGE_LOOP($,(#587));
#254=EDGE_LOOP($,(#588));
#255=EDGE_LOOP($,(#589));
#256=EDGE_LOOP($,(#590));
#257=EDGE_LOOP($,(#591));
#258=EDGE_LOOP($,(#592));
#259=EDGE_LOOP($,(#593));
#260=EDGE_LOOP($,(#594));
#261=EDGE_LOOP($,(#595));
#262=EDGE_LOOP($,(#596));
#263=EDGE_LOOP($,(#597));
#264=EDGE_LOOP($,(#598));
#265=EDGE_LOOP($,(#599));
#266=EDGE_LOOP($,(#600));
#267=EDGE_LOOP($,(#601));
#268=EDGE_LOOP($,(#602));
#269=EDGE_LOOP($,(#603));
#270=EDGE_LOOP($,(#604));
#271=EDGE_LOOP($,(#605));
#272=EDGE_LOOP($,(#606));
#273=EDGE_LOOP($,(#607));
#274=EDGE_LOOP($,(#608));
#275=EDGE_LOOP($,(#609));
#276=EDGE_LOOP($,(#610));
#277=EDGE_LOOP($,(#611));
#278=EDGE_LOOP($,(#612));
#279=EDGE_LOOP($,(#613));
#280=EDGE_LOOP($,(#614));
#281=EDGE_LOOP($,(#615));
#282=EDGE_LOOP($,(#616));
#283=EDGE_LOOP($,(#617));
#284=EDGE_LOOP($,(#618));
#285=EDGE_LOOP($,(#619));
#286=EDGE_LOOP($,(#620));
#287=EDGE_LOOP($,(#621));
#288=EDGE_LOOP($,(#622));
#289=EDGE_LOOP($,(#623));
#290=EDGE_LOOP($,(#624));
#291=EDGE_LOOP($,(#625));
#292=EDGE_LOOP($,(#626));
#293=EDGE_LOOP($,(#627));
#294=EDGE_LOOP($,(#628));
#295=EDGE_LOOP($,(#629));
#296=EDGE_LOOP($,(#630));
#297=EDGE_LOOP($,(#631));
#298=EDGE_LOOP($,(#632));
#299=EDGE_LOOP($,(#633));
#300=EDGE_LOOP($,(#634));
#301=EDGE_LOOP($,(#635));
#302=EDGE_LOOP($,(#636));
#303=EDGE_LOOP($,(#637));
#304=EDGE_LOOP($,(#638));
#305=EDGE_LOOP($,(#639));
#306=EDGE_LOOP($,(#640));
#307=EDGE_LOOP($,(#641));
#308=EDGE_LOOP($,(#642));
#309=EDGE_LOOP($,(#643));
#310=EDGE_LOOP($,(#644));
#311=EDGE_LOOP($,(#645));
#312=EDGE_LOOP($,(#646));
#313=EDGE_LOOP($,(#647));
#314=EDGE_LOOP($,(#648));
#315=EDGE_LOOP($,(#649));
#316=EDGE_LOOP($,(#650));
#317=EDGE_LOOP($,(#651));
#318=EDGE_LOOP($,(#652));
#319=EDGE_LOOP($,(#653));
#320=EDGE_LOOP($,(#654));
#321=EDGE_LOOP($,(#655));
#322=EDGE_LOOP($,(#656));
#323=EDGE_LOOP($,(#657));
#324=EDGE_LOOP($,(#658));
#325=EDGE_LOOP($,(#659));
#326=EDGE_LOOP($,(#660));
#327=EDGE_LOOP($,(#661));
#328=EDGE_LOOP($,(#662));
#329=EDGE_LOOP($,(#663));
#330=EDGE_LOOP($,(#664));
#331=EDGE_LOOP($,(#665));
#332=EDGE_LOOP($,(#666));
#333=EDGE_LOOP($,(#667));
#334=EDGE_LOOP($,(#668));
#335=EDGE_LOOP($,(#669));
#336=EDGE_LOOP($,(#670));
#337=EDGE_LOOP($,(#671));
#338=EDGE_LOOP($,(#672));
#339=EDGE_LOOP($,(#673));
#340=EDGE_LOOP($,(#674));
#341=EDGE_LOOP($,(#675));
#342=EDGE_LOOP($,(#676));
#343=CIRCLE($,#892,0.105830052442584);
#344=CIRCLE($,#894,0.105830052442584);
#345=CIRCLE($,#897,0.2);
#346=CIRCLE($,#898,0.2);
#347=CIRCLE($,#907,0.105830052442584);
#348=CIRCLE($,#909,0.105830052442584);
#349=CIRCLE($,#912,0.105830052442584);
#350=CIRCLE($,#914,0.105830052442584);
#351=CIRCLE($,#917,0.105830052442584);
#352=CIRCLE($,#919,0.105830052442584);
#353=CIRCLE($,#922,0.105830052442584);
#354=CIRCLE($,#924,0.105830052442584);
#355=CIRCLE($,#927,0.105830052442584);
#356=CIRCLE($,#929,0.105830052442584);
#357=CIRCLE($,#932,0.105830052442584);
#358=CIRCLE($,#934,0.105830052442584);
#359=CIRCLE($,#937,0.105830052442584);
#360=CIRCLE($,#939,0.105830052442584);
#361=CIRCLE($,#942,0.105830052442584);
#362=CIRCLE($,#944,0.105830052442584);
#363=CIRCLE($,#947,0.105830052442584);
#364=CIRCLE($,#949,0.105830052442584);
#365=CIRCLE($,#952,0.105830052442584);
#366=CIRCLE($,#954,0.105830052442584);
#367=CIRCLE($,#957,0.105830052442584);
#368=CIRCLE($,#959,0.105830052442584);
#369=CIRCLE($,#962,0.105830052442584);
#370=CIRCLE($,#964,0.105830052442584);
#371=CIRCLE($,#967,0.105830052442584);
#372=CIRCLE($,#969,0.105830052442584);
#373=CIRCLE($,#972,0.105830052442584);
#374=CIRCLE($,#974,0.105830052442584);
#375=CIRCLE($,#977,0.105830052442584);
#376=CIRCLE($,#979,0.105830052442584);
#377=CIRCLE($,#982,0.105830052442584);
#378=CIRCLE($,#984,0.105830052442584);
#379=CIRCLE($,#987,0.105830052442584);
#380=CIRCLE($,#989,0.105830052442584);
#381=CIRCLE($,#992,0.105830052442584);
#382=CIRCLE($,#994,0.105830052442584);
#383=CIRCLE($,#997,0.105830052442584);
#384=CIRCLE($,#999,0.105830052442584);
#385=CIRCLE($,#1002,0.105830052442584);
#386=CIRCLE($,#1004,0.105830052442584);
#387=CIRCLE($,#1007,0.105830052442584);
#388=CIRCLE($,#1009,0.105830052442584);
#389=CIRCLE($,#1012,0.105830052442584);
#390=CIRCLE($,#1014,0.105830052442584);
#391=CIRCLE($,#1017,0.105830052442584);
#392=CIRCLE($,#1019,0.105830052442584);
#393=CIRCLE($,#1022,0.105830052442584);
#394=CIRCLE($,#1024,0.105830052442584);
#395=CIRCLE($,#1027,0.105830052442584);
#396=CIRCLE($,#1029,0.105830052442584);
#397=CIRCLE($,#1032,0.105830052442584);
#398=CIRCLE($,#1034,0.105830052442584);
#399=CIRCLE($,#1037,0.105830052442584);
#400=CIRCLE($,#1039,0.105830052442584);
#401=VERTEX_POINT($,#1357);
#402=VERTEX_POINT($,#1360);
#403=VERTEX_POINT($,#1364);
#404=VERTEX_POINT($,#1366);
#405=VERTEX_POINT($,#1370);
#406=VERTEX_POINT($,#1371);
#407=VERTEX_POINT($,#1373);
#408=VERTEX_POINT($,#1375);
#409=VERTEX_POINT($,#1379);
#410=VERTEX_POINT($,#1381);
#411=VERTEX_POINT($,#1385);
#412=VERTEX_POINT($,#1387);
#413=VERTEX_POINT($,#1396);
#414=VERTEX_POINT($,#1399);
#415=VERTEX_POINT($,#1403);
#416=VERTEX_POINT($,#1406);
#417=VERTEX_POINT($,#1410);
#418=VERTEX_POINT($,#1413);
#419=VERTEX_POINT($,#1417);
#420=VERTEX_POINT($,#1420);
#421=VERTEX_POINT($,#1424);
#422=VERTEX_POINT($,#1427);
#423=VERTEX_POINT($,#1431);
#424=VERTEX_POINT($,#1434);
#425=VERTEX_POINT($,#1438);
#426=VERTEX_POINT($,#1441);
#427=VERTEX_POINT($,#1445);
#428=VERTEX_POINT($,#1448);
#429=VERTEX_POINT($,#1452);
#430=VERTEX_POINT($,#1455);
#431=VERTEX_POINT($,#1459);
#432=VERTEX_POINT($,#1462);
#433=VERTEX_POINT($,#1466);
#434=VERTEX_POINT($,#1469);
#435=VERTEX_POINT($,#1473);
#436=VERTEX_POINT($,#1476);
#437=VERTEX_POINT($,#1480);
#438=VERTEX_POINT($,#1483);
#439=VERTEX_POINT($,#1487);
#440=VERTEX_POINT($,#1490);
#441=VERTEX_POINT($,#1494);
#442=VERTEX_POINT($,#1497);
#443=VERTEX_POINT($,#1501);
#444=VERTEX_POINT($,#1504);
#445=VERTEX_POINT($,#1508);
#446=VERTEX_POINT($,#1511);
#447=VERTEX_POINT($,#1515);
#448=VERTEX_POINT($,#1518);
#449=VERTEX_POINT($,#1522);
#450=VERTEX_POINT($,#1525);
#451=VERTEX_POINT($,#1529);
#452=VERTEX_POINT($,#1532);
#453=VERTEX_POINT($,#1536);
#454=VERTEX_POINT($,#1539);
#455=VERTEX_POINT($,#1543);
#456=VERTEX_POINT($,#1546);
#457=VERTEX_POINT($,#1550);
#458=VERTEX_POINT($,#1553);
#459=VERTEX_POINT($,#1557);
#460=VERTEX_POINT($,#1560);
#461=VERTEX_POINT($,#1564);
#462=VERTEX_POINT($,#1567);
#463=VERTEX_POINT($,#1571);
#464=VERTEX_POINT($,#1574);
#465=VERTEX_POINT($,#1578);
#466=VERTEX_POINT($,#1581);
#467=EDGE_CURVE($,#401,#401,#343,.T.);
#468=EDGE_CURVE($,#402,#402,#344,.T.);
#469=EDGE_CURVE($,#403,#403,#345,.T.);
#470=EDGE_CURVE($,#404,#404,#346,.T.);
#471=EDGE_CURVE($,#405,#406,#15,.T.);
#472=EDGE_CURVE($,#405,#407,#16,.T.);
#473=EDGE_CURVE($,#408,#407,#17,.T.);
#474=EDGE_CURVE($,#406,#408,#18,.T.);
#475=EDGE_CURVE($,#406,#409,#19,.T.);
#476=EDGE_CURVE($,#410,#408,#20,.T.);
#477=EDGE_CURVE($,#409,#410,#21,.T.);
#478=EDGE_CURVE($,#409,#411,#22,.T.);
#479=EDGE_CURVE($,#412,#410,#23,.T.);
#480=EDGE_CURVE($,#411,#412,#24,.T.);
#481=EDGE_CURVE($,#411,#405,#25,.T.);
#482=EDGE_CURVE($,#407,#412,#26,.T.);
#483=EDGE_CURVE($,#413,#413,#347,.T.);
#484=EDGE_CURVE($,#414,#414,#348,.T.);
#485=EDGE_CURVE($,#415,#415,#349,.T.);
#486=EDGE_CURVE($,#416,#416,#350,.T.);
#487=EDGE_CURVE($,#417,#417,#351,.T.);
#488=EDGE_CURVE($,#418,#418,#352,.T.);
#489=EDGE_CURVE($,#419,#419,#353,.T.);
#490=EDGE_CURVE($,#420,#420,#354,.T.);
#491=EDGE_CURVE($,#421,#421,#355,.T.);
#492=EDGE_CURVE($,#422,#422,#356,.T.);
#493=EDGE_CURVE($,#423,#423,#357,.T.);
#494=EDGE_CURVE($,#424,#424,#358,.T.);
#495=EDGE_CURVE($,#425,#425,#359,.T.);
#496=EDGE_CURVE($,#426,#426,#360,.T.);
#497=EDGE_CURVE($,#427,#427,#361,.T.);
#498=EDGE_CURVE($,#428,#428,#362,.T.);
#499=EDGE_CURVE($,#429,#429,#363,.T.);
#500=EDGE_CURVE($,#430,#430,#364,.T.);
#501=EDGE_CURVE($,#431,#431,#365,.T.);
#502=EDGE_CURVE($,#432,#432,#366,.T.);
#503=EDGE_CURVE($,#433,#433,#367,.T.);
#504=EDGE_CURVE($,#434,#434,#368,.T.);
#505=EDGE_CURVE($,#435,#435,#369,.T.);
#506=EDGE_CURVE($,#436,#436,#370,.T.);
#507=EDGE_CURVE($,#437,#437,#371,.T.);
#508=EDGE_CURVE($,#438,#438,#372,.T.);
#509=EDGE_CURVE($,#439,#439,#373,.T.);
#510=EDGE_CURVE($,#440,#440,#374,.T.);
#511=EDGE_CURVE($,#441,#441,#375,.T.);
#512=EDGE_CURVE($,#442,#442,#376,.T.);
#513=EDGE_CURVE($,#443,#443,#377,.T.);
#514=EDGE_CURVE($,#444,#444,#378,.T.);
#515=EDGE_CURVE($,#445,#445,#379,.T.);
#516=EDGE_CURVE($,#446,#446,#380,.T.);
#517=EDGE_CURVE($,#447,#447,#381,.T.);
#518=EDGE_CURVE($,#448,#448,#382,.T.);
#519=EDGE_CURVE($,#449,#449,#383,.T.);
#520=EDGE_CURVE($,#450,#450,#384,.T.);
#521=EDGE_CURVE($,#451,#451,#385,.T.);
#522=EDGE_CURVE($,#452,#452,#386,.T.);
#523=EDGE_CURVE($,#453,#453,#387,.T.);
#524=EDGE_CURVE($,#454,#454,#388,.T.);
#525=EDGE_CURVE($,#455,#455,#389,.T.);
#526=EDGE_CURVE($,#456,#456,#390,.T.);
#527=EDGE_CURVE($,#457,#457,#391,.T.);
#528=EDGE_CURVE($,#458,#458,#392,.T.);
#529=EDGE_CURVE($,#459,#459,#393,.T.);
#530=EDGE_CURVE($,#460,#460,#394,.T.);
#531=EDGE_CURVE($,#461,#461,#395,.T.);
#532=EDGE_CURVE($,#462,#462,#396,.T.);
#533=EDGE_CURVE($,#463,#463,#397,.T.);
#534=EDGE_CURVE($,#464,#464,#398,.T.);
#535=EDGE_CURVE($,#465,#465,#399,.T.);
#536=EDGE_CURVE($,#466,#466,#400,.T.);
#537=ORIENTED_EDGE($,*,*,#467,.F.);
#538=ORIENTED_EDGE($,*,*,#468,.F.);
#539=ORIENTED_EDGE($,*,*,#467,.T.);
#540=ORIENTED_EDGE($,*,*,#468,.T.);
#541=ORIENTED_EDGE($,*,*,#469,.T.);
#542=ORIENTED_EDGE($,*,*,#470,.F.);
#543=ORIENTED_EDGE($,*,*,#469,.F.);
#544=ORIENTED_EDGE($,*,*,#471,.F.);
#545=ORIENTED_EDGE($,*,*,#472,.T.);
#546=ORIENTED_EDGE($,*,*,#473,.F.);
#547=ORIENTED_EDGE($,*,*,#474,.F.);
#548=ORIENTED_EDGE($,*,*,#475,.F.);
#549=ORIENTED_EDGE($,*,*,#474,.T.);
#550=ORIENTED_EDGE($,*,*,#476,.F.);
#551=ORIENTED_EDGE($,*,*,#477,.F.);
#552=ORIENTED_EDGE($,*,*,#478,.F.);
#553=ORIENTED_EDGE($,*,*,#477,.T.);
#554=ORIENTED_EDGE($,*,*,#479,.F.);
#555=ORIENTED_EDGE($,*,*,#480,.F.);
#556=ORIENTED_EDGE($,*,*,#481,.F.);
#557=ORIENTED_EDGE($,*,*,#480,.T.);
#558=ORIENTED_EDGE($,*,*,#482,.F.);
#559=ORIENTED_EDGE($,*,*,#472,.F.);
#560=ORIENTED_EDGE($,*,*,#481,.T.);
#561=ORIENTED_EDGE($,*,*,#471,.T.);
#562=ORIENTED_EDGE($,*,*,#475,.T.);
#563=ORIENTED_EDGE($,*,*,#478,.T.);
#564=ORIENTED_EDGE($,*,*,#482,.T.);
#565=ORIENTED_EDGE($,*,*,#479,.T.);
#566=ORIENTED_EDGE($,*,*,#476,.T.);
#567=ORIENTED_EDGE($,*,*,#473,.T.);
#568=ORIENTED_EDGE($,*,*,#470,.T.);
#569=ORIENTED_EDGE($,*,*,#483,.F.);
#570=ORIENTED_EDGE($,*,*,#484,.F.);
#571=ORIENTED_EDGE($,*,*,#483,.T.);
#572=ORIENTED_EDGE($,*,*,#484,.T.);
#573=ORIENTED_EDGE($,*,*,#485,.F.);
#574=ORIENTED_EDGE($,*,*,#486,.F.);
#575=ORIENTED_EDGE($,*,*,#485,.T.);
#576=ORIENTED_EDGE($,*,*,#486,.T.);
#577=ORIENTED_EDGE($,*,*,#487,.F.);
#578=ORIENTED_EDGE($,*,*,#488,.F.);
#579=ORIENTED_EDGE($,*,*,#487,.T.);
#580=ORIENTED_EDGE($,*,*,#488,.T.);
#581=ORIENTED_EDGE($,*,*,#489,.F.);
#582=ORIENTED_EDGE($,*,*,#490,.F.);
#583=ORIENTED_EDGE($,*,*,#489,.T.);
#584=ORIENTED_EDGE($,*,*,#490,.T.);
#585=ORIENTED_EDGE($,*,*,#491,.F.);
#586=ORIENTED_EDGE($,*,*,#492,.F.);
#587=ORIENTED_EDGE($,*,*,#491,.T.);
#588=ORIENTED_EDGE($,*,*,#492,.T.);
#589=ORIENTED_EDGE($,*,*,#493,.F.);
#590=ORIENTED_EDGE($,*,*,#494,.F.);
#591=ORIENTED_EDGE($,*,*,#493,.T.);
#592=ORIENTED_EDGE($,*,*,#494,.T.);
#593=ORIENTED_EDGE($,*,*,#495,.F.);
#594=ORIENTED_EDGE($,*,*,#496,.F.);
#595=ORIENTED_EDGE($,*,*,#495,.T.);
#596=ORIENTED_EDGE($,*,*,#496,.T.);
#597=ORIENTED_EDGE($,*,*,#497,.F.);
#598=ORIENTED_EDGE($,*,*,#498,.F.);
#599=ORIENTED_EDGE($,*,*,#497,.T.);
#600=ORIENTED_EDGE($,*,*,#498,.T.);
#601=ORIENTED_EDGE($,*,*,#499,.F.);
#602=ORIENTED_EDGE($,*,*,#500,.F.);
#603=ORIENTED_EDGE($,*,*,#499,.T.);
#604=ORIENTED_EDGE($,*,*,#500,.T.);
#605=ORIENTED_EDGE($,*,*,#501,.F.);
#606=ORIENTED_EDGE($,*,*,#502,.F.);
#607=ORIENTED_EDGE($,*,*,#501,.T.);
#608=ORIENTED_EDGE($,*,*,#502,.T.);
#609=ORIENTED_EDGE($,*,*,#503,.F.);
#610=ORIENTED_EDGE($,*,*,#504,.F.);
#611=ORIENTED_EDGE($,*,*,#503,.T.);
#612=ORIENTED_EDGE($,*,*,#504,.T.);
#613=ORIENTED_EDGE($,*,*,#505,.F.);
#614=ORIENTED_EDGE($,*,*,#506,.F.);
#615=ORIENTED_EDGE($,*,*,#505,.T.);
#616=ORIENTED_EDGE($,*,*,#506,.T.);
#617=ORIENTED_EDGE($,*,*,#507,.F.);
#618=ORIENTED_EDGE($,*,*,#508,.F.);
#619=ORIENTED_EDGE($,*,*,#507,.T.);
#620=ORIENTED_EDGE($,*,*,#508,.T.);
#621=ORIENTED_EDGE($,*,*,#509,.F.);
#622=ORIENTED_EDGE($,*,*,#510,.F.);
#623=ORIENTED_EDGE($,*,*,#509,.T.);
#624=ORIENTED_EDGE($,*,*,#510,.T.);
#625=ORIENTED_EDGE($,*,*,#511,.F.);
#626=ORIENTED_EDGE($,*,*,#512,.F.);
#627=ORIENTED_EDGE($,*,*,#511,.T.);
#628=ORIENTED_EDGE($,*,*,#512,.T.);
#629=ORIENTED_EDGE($,*,*,#513,.F.);
#630=ORIENTED_EDGE($,*,*,#514,.F.);
#631=ORIENTED_EDGE($,*,*,#513,.T.);
#632=ORIENTED_EDGE($,*,*,#514,.T.);
#633=ORIENTED_EDGE($,*,*,#515,.F.);
#634=ORIENTED_EDGE($,*,*,#516,.F.);
#635=ORIENTED_EDGE($,*,*,#515,.T.);
#636=ORIENTED_EDGE($,*,*,#516,.T.);
#637=ORIENTED_EDGE($,*,*,#517,.F.);
#638=ORIENTED_EDGE($,*,*,#518,.F.);
#639=ORIENTED_EDGE($,*,*,#517,.T.);
#640=ORIENTED_EDGE($,*,*,#518,.T.);
#641=ORIENTED_EDGE($,*,*,#519,.F.);
#642=ORIENTED_EDGE($,*,*,#520,.F.);
#643=ORIENTED_EDGE($,*,*,#519,.T.);
#644=ORIENTED_EDGE($,*,*,#520,.T.);
#645=ORIENTED_EDGE($,*,*,#521,.F.);
#646=ORIENTED_EDGE($,*,*,#522,.F.);
#647=ORIENTED_EDGE($,*,*,#521,.T.);
#648=ORIENTED_EDGE($,*,*,#522,.T.);
#649=ORIENTED_EDGE($,*,*,#523,.F.);
#650=ORIENTED_EDGE($,*,*,#524,.F.);
#651=ORIENTED_EDGE($,*,*,#523,.T.);
#652=ORIENTED_EDGE($,*,*,#524,.T.);
#653=ORIENTED_EDGE($,*,*,#525,.F.);
#654=ORIENTED_EDGE($,*,*,#526,.F.);
#655=ORIENTED_EDGE($,*,*,#525,.T.);
#656=ORIENTED_EDGE($,*,*,#526,.T.);
#657=ORIENTED_EDGE($,*,*,#527,.F.);
#658=ORIENTED_EDGE($,*,*,#528,.F.);
#659=ORIENTED_EDGE($,*,*,#527,.T.);
#660=ORIENTED_EDGE($,*,*,#528,.T.);
#661=ORIENTED_EDGE($,*,*,#529,.F.);
#662=ORIENTED_EDGE($,*,*,#530,.F.);
#663=ORIENTED_EDGE($,*,*,#529,.T.);
#664=ORIENTED_EDGE($,*,*,#530,.T.);
#665=ORIENTED_EDGE($,*,*,#531,.F.);
#666=ORIENTED_EDGE($,*,*,#532,.F.);
#667=ORIENTED_EDGE($,*,*,#531,.T.);
#668=ORIENTED_EDGE($,*,*,#532,.T.);
#669=ORIENTED_EDGE($,*,*,#533,.F.);
#670=ORIENTED_EDGE($,*,*,#534,.F.);
#671=ORIENTED_EDGE($,*,*,#533,.T.);
#672=ORIENTED_EDGE($,*,*,#534,.T.);
#673=ORIENTED_EDGE($,*,*,#535,.F.);
#674=ORIENTED_EDGE($,*,*,#536,.F.);
#675=ORIENTED_EDGE($,*,*,#535,.T.);
#676=ORIENTED_EDGE($,*,*,#536,.T.);
#677=PLANE($,#891);
#678=PLANE($,#893);
#679=PLANE($,#899);
#680=PLANE($,#900);
#681=PLANE($,#901);
#682=PLANE($,#902);
#683=PLANE($,#903);
#684=PLANE($,#904);
#685=PLANE($,#905);
#686=PLANE($,#906);
#687=PLANE($,#908);
#688=PLANE($,#911);
#689=PLANE($,#913);
#690=PLANE($,#916);
#691=PLANE($,#918);
#692=PLANE($,#921);
#693=PLANE($,#923);
#694=PLANE($,#926);
#695=PLANE($,#928);
#696=PLANE($,#931);
#697=PLANE($,#933);
#698=PLANE($,#936);
#699=PLANE($,#938);
#700=PLANE($,#941);
#701=PLANE($,#943);
#702=PLANE($,#946);
#703=PLANE($,#948);
#704=PLANE($,#951);
#705=PLANE($,#953);
#706=PLANE($,#956);
#707=PLANE($,#958);
#708=PLANE($,#961);
#709=PLANE($,#963);
#710=PLANE($,#966);
#711=PLANE($,#968);
#712=PLANE($,#971);
#713=PLANE($,#973);
#714=PLANE($,#976);
#715=PLANE($,#978);
#716=PLANE($,#981);
#717=PLANE($,#983);
#718=PLANE($,#986);
#719=PLANE($,#988);
#720=PLANE($,#991);
#721=PLANE($,#993);
#722=PLANE($,#996);
#723=PLANE($,#998);
#724=PLANE($,#1001);
#725=PLANE($,#1003);
#726=PLANE($,#1006);
#727=PLANE($,#1008);
#728=PLANE($,#1011);
#729=PLANE($,#1013);
#730=PLANE($,#1016);
#731=PLANE($,#1018);
#732=PLANE($,#1021);
#733=PLANE($,#1023);
#734=PLANE($,#1026);
#735=PLANE($,#1028);
#736=PLANE($,#1031);
#737=PLANE($,#1033);
#738=PLANE($,#1036);
#739=PLANE($,#1038);
#740=ADVANCED_FACE($,(#129),#677,.F.);
#741=ADVANCED_FACE($,(#130),#678,.T.);
#742=ADVANCED_FACE($,(#131,#71),#101,.T.);
#743=ADVANCED_FACE($,(#132,#72),#39,.F.);
#744=ADVANCED_FACE($,(#133),#679,.T.);
#745=ADVANCED_FACE($,(#134),#680,.T.);
#746=ADVANCED_FACE($,(#135),#681,.T.);
#747=ADVANCED_FACE($,(#136),#682,.T.);
#748=ADVANCED_FACE($,(#137),#683,.T.);
#749=ADVANCED_FACE($,(#138),#684,.F.);
#750=ADVANCED_FACE($,(#139,#73),#685,.T.);
#751=ADVANCED_FACE($,(#140),#686,.F.);
#752=ADVANCED_FACE($,(#141),#687,.T.);
#753=ADVANCED_FACE($,(#142,#74),#102,.T.);
#754=ADVANCED_FACE($,(#143),#688,.F.);
#755=ADVANCED_FACE($,(#144),#689,.T.);
#756=ADVANCED_FACE($,(#145,#75),#103,.T.);
#757=ADVANCED_FACE($,(#146),#690,.F.);
#758=ADVANCED_FACE($,(#147),#691,.T.);
#759=ADVANCED_FACE($,(#148,#76),#104,.T.);
#760=ADVANCED_FACE($,(#149),#692,.F.);
#761=ADVANCED_FACE($,(#150),#693,.T.);
#762=ADVANCED_FACE($,(#151,#77),#105,.T.);
#763=ADVANCED_FACE($,(#152),#694,.F.);
#764=ADVANCED_FACE($,(#153),#695,.T.);
#765=ADVANCED_FACE($,(#154,#78),#106,.T.);
#766=ADVANCED_FACE($,(#155),#696,.F.);
#767=ADVANCED_FACE($,(#156),#697,.T.);
#768=ADVANCED_FACE($,(#157,#79),#107,.T.);
#769=ADVANCED_FACE($,(#158),#698,.F.);
#770=ADVANCED_FACE($,(#159),#699,.T.);
#771=ADVANCED_FACE($,(#160,#80),#108,.T.);
#772=ADVANCED_FACE($,(#161),#700,.F.);
#773=ADVANCED_FACE($,(#162),#701,.T.);
#774=ADVANCED_FACE($,(#163,#81),#109,.T.);
#775=ADVANCED_FACE($,(#164),#702,.F.);
#776=ADVANCED_FACE($,(#165),#703,.T.);
#777=ADVANCED_FACE($,(#166,#82),#110,.T.);
#778=ADVANCED_FACE($,(#167),#704,.F.);
#779=ADVANCED_FACE($,(#168),#705,.T.);
#780=ADVANCED_FACE($,(#169,#83),#111,.T.);
#781=ADVANCED_FACE($,(#170),#706,.F.);
#782=ADVANCED_FACE($,(#171),#707,.T.);
#783=ADVANCED_FACE($,(#172,#84),#112,.T.);
#784=ADVANCED_FACE($,(#173),#708,.F.);
#785=ADVANCED_FACE($,(#174),#709,.T.);
#786=ADVANCED_FACE($,(#175,#85),#113,.T.);
#787=ADVANCED_FACE($,(#176),#710,.F.);
#788=ADVANCED_FACE($,(#177),#711,.T.);
#789=ADVANCED_FACE($,(#178,#86),#114,.T.);
#790=ADVANCED_FACE($,(#179),#712,.F.);
#791=ADVANCED_FACE($,(#180),#713,.T.);
#792=ADVANCED_FACE($,(#181,#87),#115,.T.);
#793=ADVANCED_FACE($,(#182),#714,.F.);
#794=ADVANCED_FACE($,(#183),#715,.T.);
#795=ADVANCED_FACE($,(#184,#88),#116,.T.);
#796=ADVANCED_FACE($,(#185),#716,.F.);
#797=ADVANCED_FACE($,(#186),#717,.T.);
#798=ADVANCED_FACE($,(#187,#89),#117,.T.);
#799=ADVANCED_FACE($,(#188),#718,.F.);
#800=ADVANCED_FACE($,(#189),#719,.T.);
#801=ADVANCED_FACE($,(#190,#90),#118,.T.);
#802=ADVANCED_FACE($,(#191),#720,.F.);
#803=ADVANCED_FACE($,(#192),#721,.T.);
#804=ADVANCED_FACE($,(#193,#91),#119,.T.);
#805=ADVANCED_FACE($,(#194),#722,.F.);
#806=ADVANCED_FACE($,(#195),#723,.T.);
#807=ADVANCED_FACE($,(#196,#92),#120,.T.);
#808=ADVANCED_FACE($,(#197),#724,.F.);
#809=ADVANCED_FACE($,(#198),#725,.T.);
#810=ADVANCED_FACE($,(#199,#93),#121,.T.);
#811=ADVANCED_FACE($,(#200),#726,.F.);
#812=ADVANCED_FACE($,(#201),#727,.T.);
#813=ADVANCED_FACE($,(#202,#94),#122,.T.);
#814=ADVANCED_FACE($,(#203),#728,.F.);
#815=ADVANCED_FACE($,(#204),#729,.T.);
#816=ADVANCED_FACE($,(#205,#95),#123,.T.);
#817=ADVANCED_FACE($,(#206),#730,.F.);
#818=ADVANCED_FACE($,(#207),#731,.T.);
#819=ADVANCED_FACE($,(#208,#96),#124,.T.);
#820=ADVANCED_FACE($,(#209),#732,.F.);
#821=ADVANCED_FACE($,(#210),#733,.T.);
#822=ADVANCED_FACE($,(#211,#97),#125,.T.);
#823=ADVANCED_FACE($,(#212),#734,.F.);
#824=ADVANCED_FACE($,(#213),#735,.T.);
#825=ADVANCED_FACE($,(#214,#98),#126,.T.);
#826=ADVANCED_FACE($,(#215),#736,.F.);
#827=ADVANCED_FACE($,(#216),#737,.T.);
#828=ADVANCED_FACE($,(#217,#99),#127,.T.);
#829=ADVANCED_FACE($,(#218),#738,.F.);
#830=ADVANCED_FACE($,(#219),#739,.T.);
#831=ADVANCED_FACE($,(#220,#100),#128,.T.);
#832=CLOSED_SHELL($,(#740,#741,#742));
#833=CLOSED_SHELL($,(#743,#744,#745,#746,#747,#748,#749,#750));
#834=CLOSED_SHELL($,(#751,#752,#753));
#835=CLOSED_SHELL($,(#754,#755,#756));
#836=CLOSED_SHELL($,(#757,#758,#759));
#837=CLOSED_SHELL($,(#760,#761,#762));
#838=CLOSED_SHELL($,(#763,#764,#765));
#839=CLOSED_SHELL($,(#766,#767,#768));
#840=CLOSED_SHELL($,(#769,#770,#771));
#841=CLOSED_SHELL($,(#772,#773,#774));
#842=CLOSED_SHELL($,(#775,#776,#777));
#843=CLOSED_SHELL($,(#778,#779,#780));
#844=CLOSED_SHELL($,(#781,#782,#783));
#845=CLOSED_SHELL($,(#784,#785,#786));
#846=CLOSED_SHELL($,(#787,#788,#789));
#847=CLOSED_SHELL($,(#790,#791,#792));
#848=CLOSED_SHELL($,(#793,#794,#795));
#849=CLOSED_SHELL($,(#796,#797,#798));
#850=CLOSED_SHELL($,(#799,#800,#801));
#851=CLOSED_SHELL($,(#802,#803,#804));
#852=CLOSED_SHELL($,(#805,#806,#807));
#853=CLOSED_SHELL($,(#808,#809,#810));
#854=CLOSED_SHELL($,(#811,#812,#813));
#855=CLOSED_SHELL($,(#814,#815,#816));
#856=CLOSED_SHELL($,(#817,#818,#819));
#857=CLOSED_SHELL($,(#820,#821,#822));
#858=CLOSED_SHELL($,(#823,#824,#825));
#859=CLOSED_SHELL($,(#826,#827,#828));
#860=CLOSED_SHELL($,(#829,#830,#831));
#861=MANIFOLD_SOLID_BREP('16B4',#832);
#862=MANIFOLD_SOLID_BREP('16C5',#833);
#863=MANIFOLD_SOLID_BREP('1722',#834);
#864=MANIFOLD_SOLID_BREP('1725',#835);
#865=MANIFOLD_SOLID_BREP('1728',#836);
#866=MANIFOLD_SOLID_BREP('172B',#837);
#867=MANIFOLD_SOLID_BREP('172E',#838);
#868=MANIFOLD_SOLID_BREP('1731',#839);
#869=MANIFOLD_SOLID_BREP('1734',#840);
#870=MANIFOLD_SOLID_BREP('1737',#841);
#871=MANIFOLD_SOLID_BREP('173A',#842);
#872=MANIFOLD_SOLID_BREP('173D',#843);
#873=MANIFOLD_SOLID_BREP('1740',#844);
#874=MANIFOLD_SOLID_BREP('1743',#845);
#875=MANIFOLD_SOLID_BREP('1746',#846);
#876=MANIFOLD_SOLID_BREP('1749',#847);
#877=MANIFOLD_SOLID_BREP('174C',#848);
#878=MANIFOLD_SOLID_BREP('174F',#849);
#879=MANIFOLD_SOLID_BREP('1752',#850);
#880=MANIFOLD_SOLID_BREP('1755',#851);
#881=MANIFOLD_SOLID_BREP('1758',#852);
#882=MANIFOLD_SOLID_BREP('175B',#853);
#883=MANIFOLD_SOLID_BREP('175E',#854);
#884=MANIFOLD_SOLID_BREP('1761',#855);
#885=MANIFOLD_SOLID_BREP('1764',#856);
#886=MANIFOLD_SOLID_BREP('1767',#857);
#887=MANIFOLD_SOLID_BREP('176A',#858);
#888=MANIFOLD_SOLID_BREP('176D',#859);
#889=MANIFOLD_SOLID_BREP('1770',#860);
#890=AXIS2_PLACEMENT_3D('placement',#1355,#1041,#1042);
#891=AXIS2_PLACEMENT_3D($,#1356,#1043,#1044);
#892=AXIS2_PLACEMENT_3D($,#1358,#1045,#1046);
#893=AXIS2_PLACEMENT_3D($,#1359,#1047,#1048);
#894=AXIS2_PLACEMENT_3D($,#1361,#1049,#1050);
#895=AXIS2_PLACEMENT_3D($,#1362,#1051,#1052);
#896=AXIS2_PLACEMENT_3D($,#1363,#1053,#1054);
#897=AXIS2_PLACEMENT_3D($,#1365,#1055,#1056);
#898=AXIS2_PLACEMENT_3D($,#1367,#1057,#1058);
#899=AXIS2_PLACEMENT_3D($,#1368,#1059,#1060);
#900=AXIS2_PLACEMENT_3D($,#1369,#1061,#1062);
#901=AXIS2_PLACEMENT_3D($,#1378,#1067,#1068);
#902=AXIS2_PLACEMENT_3D($,#1384,#1072,#1073);
#903=AXIS2_PLACEMENT_3D($,#1390,#1077,#1078);
#904=AXIS2_PLACEMENT_3D($,#1393,#1081,#1082);
#905=AXIS2_PLACEMENT_3D($,#1394,#1083,#1084);
#906=AXIS2_PLACEMENT_3D($,#1395,#1085,#1086);
#907=AXIS2_PLACEMENT_3D($,#1397,#1087,#1088);
#908=AXIS2_PLACEMENT_3D($,#1398,#1089,#1090);
#909=AXIS2_PLACEMENT_3D($,#1400,#1091,#1092);
#910=AXIS2_PLACEMENT_3D($,#1401,#1093,#1094);
#911=AXIS2_PLACEMENT_3D($,#1402,#1095,#1096);
#912=AXIS2_PLACEMENT_3D($,#1404,#1097,#1098);
#913=AXIS2_PLACEMENT_3D($,#1405,#1099,#1100);
#914=AXIS2_PLACEMENT_3D($,#1407,#1101,#1102);
#915=AXIS2_PLACEMENT_3D($,#1408,#1103,#1104);
#916=AXIS2_PLACEMENT_3D($,#1409,#1105,#1106);
#917=AXIS2_PLACEMENT_3D($,#1411,#1107,#1108);
#918=AXIS2_PLACEMENT_3D($,#1412,#1109,#1110);
#919=AXIS2_PLACEMENT_3D($,#1414,#1111,#1112);
#920=AXIS2_PLACEMENT_3D($,#1415,#1113,#1114);
#921=AXIS2_PLACEMENT_3D($,#1416,#1115,#1116);
#922=AXIS2_PLACEMENT_3D($,#1418,#1117,#1118);
#923=AXIS2_PLACEMENT_3D($,#1419,#1119,#1120);
#924=AXIS2_PLACEMENT_3D($,#1421,#1121,#1122);
#925=AXIS2_PLACEMENT_3D($,#1422,#1123,#1124);
#926=AXIS2_PLACEMENT_3D($,#1423,#1125,#1126);
#927=AXIS2_PLACEMENT_3D($,#1425,#1127,#1128);
#928=AXIS2_PLACEMENT_3D($,#1426,#1129,#1130);
#929=AXIS2_PLACEMENT_3D($,#1428,#1131,#1132);
#930=AXIS2_PLACEMENT_3D($,#1429,#1133,#1134);
#931=AXIS2_PLACEMENT_3D($,#1430,#1135,#1136);
#932=AXIS2_PLACEMENT_3D($,#1432,#1137,#1138);
#933=AXIS2_PLACEMENT_3D($,#1433,#1139,#1140);
#934=AXIS2_PLACEMENT_3D($,#1435,#1141,#1142);
#935=AXIS2_PLACEMENT_3D($,#1436,#1143,#1144);
#936=AXIS2_PLACEMENT_3D($,#1437,#1145,#1146);
#937=AXIS2_PLACEMENT_3D($,#1439,#1147,#1148);
#938=AXIS2_PLACEMENT_3D($,#1440,#1149,#1150);
#939=AXIS2_PLACEMENT_3D($,#1442,#1151,#1152);
#940=AXIS2_PLACEMENT_3D($,#1443,#1153,#1154);
#941=AXIS2_PLACEMENT_3D($,#1444,#1155,#1156);
#942=AXIS2_PLACEMENT_3D($,#1446,#1157,#1158);
#943=AXIS2_PLACEMENT_3D($,#1447,#1159,#1160);
#944=AXIS2_PLACEMENT_3D($,#1449,#1161,#1162);
#945=AXIS2_PLACEMENT_3D($,#1450,#1163,#1164);
#946=AXIS2_PLACEMENT_3D($,#1451,#1165,#1166);
#947=AXIS2_PLACEMENT_3D($,#1453,#1167,#1168);
#948=AXIS2_PLACEMENT_3D($,#1454,#1169,#1170);
#949=AXIS2_PLACEMENT_3D($,#1456,#1171,#1172);
#950=AXIS2_PLACEMENT_3D($,#1457,#1173,#1174);
#951=AXIS2_PLACEMENT_3D($,#1458,#1175,#1176);
#952=AXIS2_PLACEMENT_3D($,#1460,#1177,#1178);
#953=AXIS2_PLACEMENT_3D($,#1461,#1179,#1180);
#954=AXIS2_PLACEMENT_3D($,#1463,#1181,#1182);
#955=AXIS2_PLACEMENT_3D($,#1464,#1183,#1184);
#956=AXIS2_PLACEMENT_3D($,#1465,#1185,#1186);
#957=AXIS2_PLACEMENT_3D($,#1467,#1187,#1188);
#958=AXIS2_PLACEMENT_3D($,#1468,#1189,#1190);
#959=AXIS2_PLACEMENT_3D($,#1470,#1191,#1192);
#960=AXIS2_PLACEMENT_3D($,#1471,#1193,#1194);
#961=AXIS2_PLACEMENT_3D($,#1472,#1195,#1196);
#962=AXIS2_PLACEMENT_3D($,#1474,#1197,#1198);
#963=AXIS2_PLACEMENT_3D($,#1475,#1199,#1200);
#964=AXIS2_PLACEMENT_3D($,#1477,#1201,#1202);
#965=AXIS2_PLACEMENT_3D($,#1478,#1203,#1204);
#966=AXIS2_PLACEMENT_3D($,#1479,#1205,#1206);
#967=AXIS2_PLACEMENT_3D($,#1481,#1207,#1208);
#968=AXIS2_PLACEMENT_3D($,#1482,#1209,#1210);
#969=AXIS2_PLACEMENT_3D($,#1484,#1211,#1212);
#970=AXIS2_PLACEMENT_3D($,#1485,#1213,#1214);
#971=AXIS2_PLACEMENT_3D($,#1486,#1215,#1216);
#972=AXIS2_PLACEMENT_3D($,#1488,#1217,#1218);
#973=AXIS2_PLACEMENT_3D($,#1489,#1219,#1220);
#974=AXIS2_PLACEMENT_3D($,#1491,#1221,#1222);
#975=AXIS2_PLACEMENT_3D($,#1492,#1223,#1224);
#976=AXIS2_PLACEMENT_3D($,#1493,#1225,#1226);
#977=AXIS2_PLACEMENT_3D($,#1495,#1227,#1228);
#978=AXIS2_PLACEMENT_3D($,#1496,#1229,#1230);
#979=AXIS2_PLACEMENT_3D($,#1498,#1231,#1232);
#980=AXIS2_PLACEMENT_3D($,#1499,#1233,#1234);
#981=AXIS2_PLACEMENT_3D($,#1500,#1235,#1236);
#982=AXIS2_PLACEMENT_3D($,#1502,#1237,#1238);
#983=AXIS2_PLACEMENT_3D($,#1503,#1239,#1240);
#984=AXIS2_PLACEMENT_3D($,#1505,#1241,#1242);
#985=AXIS2_PLACEMENT_3D($,#1506,#1243,#1244);
#986=AXIS2_PLACEMENT_3D($,#1507,#1245,#1246);
#987=AXIS2_PLACEMENT_3D($,#1509,#1247,#1248);
#988=AXIS2_PLACEMENT_3D($,#1510,#1249,#1250);
#989=AXIS2_PLACEMENT_3D($,#1512,#1251,#1252);
#990=AXIS2_PLACEMENT_3D($,#1513,#1253,#1254);
#991=AXIS2_PLACEMENT_3D($,#1514,#1255,#1256);
#992=AXIS2_PLACEMENT_3D($,#1516,#1257,#1258);
#993=AXIS2_PLACEMENT_3D($,#1517,#1259,#1260);
#994=AXIS2_PLACEMENT_3D($,#1519,#1261,#1262);
#995=AXIS2_PLACEMENT_3D($,#1520,#1263,#1264);
#996=AXIS2_PLACEMENT_3D($,#1521,#1265,#1266);
#997=AXIS2_PLACEMENT_3D($,#1523,#1267,#1268);
#998=AXIS2_PLACEMENT_3D($,#1524,#1269,#1270);
#999=AXIS2_PLACEMENT_3D($,#1526,#1271,#1272);
#1000=AXIS2_PLACEMENT_3D($,#1527,#1273,#1274);
#1001=AXIS2_PLACEMENT_3D($,#1528,#1275,#1276);
#1002=AXIS2_PLACEMENT_3D($,#1530,#1277,#1278);
#1003=AXIS2_PLACEMENT_3D($,#1531,#1279,#1280);
#1004=AXIS2_PLACEMENT_3D($,#1533,#1281,#1282);
#1005=AXIS2_PLACEMENT_3D($,#1534,#1283,#1284);
#1006=AXIS2_PLACEMENT_3D($,#1535,#1285,#1286);
#1007=AXIS2_PLACEMENT_3D($,#1537,#1287,#1288);
#1008=AXIS2_PLACEMENT_3D($,#1538,#1289,#1290);
#1009=AXIS2_PLACEMENT_3D($,#1540,#1291,#1292);
#1010=AXIS2_PLACEMENT_3D($,#1541,#1293,#1294);
#1011=AXIS2_PLACEMENT_3D($,#1542,#1295,#1296);
#1012=AXIS2_PLACEMENT_3D($,#1544,#1297,#1298);
#1013=AXIS2_PLACEMENT_3D($,#1545,#1299,#1300);
#1014=AXIS2_PLACEMENT_3D($,#1547,#1301,#1302);
#1015=AXIS2_PLACEMENT_3D($,#1548,#1303,#1304);
#1016=AXIS2_PLACEMENT_3D($,#1549,#1305,#1306);
#1017=AXIS2_PLACEMENT_3D($,#1551,#1307,#1308);
#1018=AXIS2_PLACEMENT_3D($,#1552,#1309,#1310);
#1019=AXIS2_PLACEMENT_3D($,#1554,#1311,#1312);
#1020=AXIS2_PLACEMENT_3D($,#1555,#1313,#1314);
#1021=AXIS2_PLACEMENT_3D($,#1556,#1315,#1316);
#1022=AXIS2_PLACEMENT_3D($,#1558,#1317,#1318);
#1023=AXIS2_PLACEMENT_3D($,#1559,#1319,#1320);
#1024=AXIS2_PLACEMENT_3D($,#1561,#1321,#1322);
#1025=AXIS2_PLACEMENT_3D($,#1562,#1323,#1324);
#1026=AXIS2_PLACEMENT_3D($,#1563,#1325,#1326);
#1027=AXIS2_PLACEMENT_3D($,#1565,#1327,#1328);
#1028=AXIS2_PLACEMENT_3D($,#1566,#1329,#1330);
#1029=AXIS2_PLACEMENT_3D($,#1568,#1331,#1332);
#1030=AXIS2_PLACEMENT_3D($,#1569,#1333,#1334);
#1031=AXIS2_PLACEMENT_3D($,#1570,#1335,#1336);
#1032=AXIS2_PLACEMENT_3D($,#1572,#1337,#1338);
#1033=AXIS2_PLACEMENT_3D($,#1573,#1339,#1340);
#1034=AXIS2_PLACEMENT_3D($,#1575,#1341,#1342);
#1035=AXIS2_PLACEMENT_3D($,#1576,#1343,#1344);
#1036=AXIS2_PLACEMENT_3D($,#1577,#1345,#1346);
#1037=AXIS2_PLACEMENT_3D($,#1579,#1347,#1348);
#1038=AXIS2_PLACEMENT_3D($,#1580,#1349,#1350);
#1039=AXIS2_PLACEMENT_3D($,#1582,#1351,#1352);
#1040=AXIS2_PLACEMENT_3D($,#1583,#1353,#1354);
#1041=DIRECTION('axis',(0.,0.,1.));
#1042=DIRECTION('refdir',(1.,0.,0.));
#1043=DIRECTION('center_axis',(0.,0.,1.));
#1044=DIRECTION('ref_axis',(1.,0.,0.));
#1045=DIRECTION('center_axis',(0.,0.,1.));
#1046=DIRECTION('ref_axis',(0.,1.,0.));
#1047=DIRECTION('center_axis',(0.,0.,1.));
#1048=DIRECTION('ref_axis',(1.,0.,0.));
#1049=DIRECTION('center_axis',(0.,0.,-1.));
#1050=DIRECTION('ref_axis',(0.,-1.,0.));
#1051=DIRECTION('center_axis',(0.,0.,1.));
#1052=DIRECTION('ref_axis',(1.,0.,0.));
#1053=DIRECTION('center_axis',(0.,0.,-1.));
#1054=DIRECTION('ref_axis',(-1.,0.,0.));
#1055=DIRECTION('center_axis',(0.,0.,-1.));
#1056=DIRECTION('ref_axis',(-1.,0.,0.));
#1057=DIRECTION('center_axis',(0.,0.,-1.));
#1058=DIRECTION('ref_axis',(-1.,0.,0.));
#1059=DIRECTION('center_axis',(0.,0.,1.));
#1060=DIRECTION('ref_axis',(1.,0.,0.));
#1061=DIRECTION('center_axis',(0.,-1.,0.));
#1062=DIRECTION('ref_axis',(1.,0.,0.));
#1063=DIRECTION($,(-1.,0.,0.));
#1064=DIRECTION($,(0.,0.,1.));
#1065=DIRECTION($,(1.,0.,0.));
#1066=DIRECTION($,(0.,0.,1.));
#1067=DIRECTION('center_axis',(-1.,0.,0.));
#1068=DIRECTION('ref_axis',(0.,-1.,0.));
#1069=DIRECTION($,(0.,1.,0.));
#1070=DIRECTION($,(0.,-1.,0.));
#1071=DIRECTION($,(0.,0.,1.));
#1072=DIRECTION('center_axis',(0.,1.,0.));
#1073=DIRECTION('ref_axis',(-1.,0.,0.));
#1074=DIRECTION($,(1.,0.,0.));
#1075=DIRECTION($,(-1.,0.,0.));
#1076=DIRECTION($,(0.,0.,1.));
#1077=DIRECTION('center_axis',(1.,0.,0.));
#1078=DIRECTION('ref_axis',(0.,1.,0.));
#1079=DIRECTION($,(0.,-1.,0.));
#1080=DIRECTION($,(0.,1.,0.));
#1081=DIRECTION('center_axis',(0.,0.,1.));
#1082=DIRECTION('ref_axis',(1.,0.,0.));
#1083=DIRECTION('center_axis',(0.,0.,1.));
#1084=DIRECTION('ref_axis',(1.,0.,0.));
#1085=DIRECTION('center_axis',(0.,0.,1.));
#1086=DIRECTION('ref_axis',(1.,0.,0.));
#1087=DIRECTION('center_axis',(0.,0.,1.));
#1088=DIRECTION('ref_axis',(0.,1.,0.));
#1089=DIRECTION('center_axis',(0.,0.,1.));
#1090=DIRECTION('ref_axis',(1.,0.,0.));
#1091=DIRECTION('center_axis',(0.,0.,-1.));
#1092=DIRECTION('ref_axis',(0.,-1.,0.));
#1093=DIRECTION('center_axis',(0.,0.,1.));
#1094=DIRECTION('ref_axis',(1.,0.,0.));
#1095=DIRECTION('center_axis',(0.,0.,1.));
#1096=DIRECTION('ref_axis',(1.,0.,0.));
#1097=DIRECTION('center_axis',(0.,0.,1.));
#1098=DIRECTION('ref_axis',(0.,1.,0.));
#1099=DIRECTION('center_axis',(0.,0.,1.));
#1100=DIRECTION('ref_axis',(1.,0.,0.));
#1101=DIRECTION('center_axis',(0.,0.,-1.));
#1102=DIRECTION('ref_axis',(0.,-1.,0.));
#1103=DIRECTION('center_axis',(0.,0.,1.));
#1104=DIRECTION('ref_axis',(1.,0.,0.));
#1105=DIRECTION('center_axis',(0.,0.,1.));
#1106=DIRECTION('ref_axis',(1.,0.,0.));
#1107=DIRECTION('center_axis',(0.,0.,1.));
#1108=DIRECTION('ref_axis',(0.,1.,0.));
#1109=DIRECTION('center_axis',(0.,0.,1.));
#1110=DIRECTION('ref_axis',(1.,0.,0.));
#1111=DIRECTION('center_axis',(0.,0.,-1.));
#1112=DIRECTION('ref_axis',(0.,-1.,0.));
#1113=DIRECTION('center_axis',(0.,0.,1.));
#1114=DIRECTION('ref_axis',(1.,0.,0.));
#1115=DIRECTION('center_axis',(0.,0.,1.));
#1116=DIRECTION('ref_axis',(1.,0.,0.));
#1117=DIRECTION('center_axis',(0.,0.,1.));
#1118=DIRECTION('ref_axis',(0.,1.,0.));
#1119=DIRECTION('center_axis',(0.,0.,1.));
#1120=DIRECTION('ref_axis',(1.,0.,0.));
#1121=DIRECTION('center_axis',(0.,0.,-1.));
#1122=DIRECTION('ref_axis',(0.,-1.,0.));
#1123=DIRECTION('center_axis',(0.,0.,1.));
#1124=DIRECTION('ref_axis',(1.,0.,0.));
#1125=DIRECTION('center_axis',(0.,0.,1.));
#1126=DIRECTION('ref_axis',(1.,0.,0.));
#1127=DIRECTION('center_axis',(0.,0.,1.));
#1128=DIRECTION('ref_axis',(0.,1.,0.));
#1129=DIRECTION('center_axis',(0.,0.,1.));
#1130=DIRECTION('ref_axis',(1.,0.,0.));
#1131=DIRECTION('center_axis',(0.,0.,-1.));
#1132=DIRECTION('ref_axis',(0.,-1.,0.));
#1133=DIRECTION('center_axis',(0.,0.,1.));
#1134=DIRECTION('ref_axis',(1.,0.,0.));
#1135=DIRECTION('center_axis',(0.,0.,1.));
#1136=DIRECTION('ref_axis',(1.,0.,0.));
#1137=DIRECTION('center_axis',(0.,0.,1.));
#1138=DIRECTION('ref_axis',(0.,1.,0.));
#1139=DIRECTION('center_axis',(0.,0.,1.));
#1140=DIRECTION('ref_axis',(1.,0.,0.));
#1141=DIRECTION('center_axis',(0.,0.,-1.));
#1142=DIRECTION('ref_axis',(0.,-1.,0.));
#1143=DIRECTION('center_axis',(0.,0.,1.));
#1144=DIRECTION('ref_axis',(1.,0.,0.));
#1145=DIRECTION('center_axis',(0.,0.,1.));
#1146=DIRECTION('ref_axis',(1.,0.,0.));
#1147=DIRECTION('center_axis',(0.,0.,1.));
#1148=DIRECTION('ref_axis',(0.,1.,0.));
#1149=DIRECTION('center_axis',(0.,0.,1.));
#1150=DIRECTION('ref_axis',(1.,0.,0.));
#1151=DIRECTION('center_axis',(0.,0.,-1.));
#1152=DIRECTION('ref_axis',(0.,-1.,0.));
#1153=DIRECTION('center_axis',(0.,0.,1.));
#1154=DIRECTION('ref_axis',(1.,0.,0.));
#1155=DIRECTION('center_axis',(0.,0.,1.));
#1156=DIRECTION('ref_axis',(1.,0.,0.));
#1157=DIRECTION('center_axis',(0.,0.,1.));
#1158=DIRECTION('ref_axis',(0.,1.,0.));
#1159=DIRECTION('center_axis',(0.,0.,1.));
#1160=DIRECTION('ref_axis',(1.,0.,0.));
#1161=DIRECTION('center_axis',(0.,0.,-1.));
#1162=DIRECTION('ref_axis',(0.,-1.,0.));
#1163=DIRECTION('center_axis',(0.,0.,1.));
#1164=DIRECTION('ref_axis',(1.,0.,0.));
#1165=DIRECTION('center_axis',(0.,0.,1.));
#1166=DIRECTION('ref_axis',(1.,0.,0.));
#1167=DIRECTION('center_axis',(0.,0.,1.));
#1168=DIRECTION('ref_axis',(0.,1.,0.));
#1169=DIRECTION('center_axis',(0.,0.,1.));
#1170=DIRECTION('ref_axis',(1.,0.,0.));
#1171=DIRECTION('center_axis',(0.,0.,-1.));
#1172=DIRECTION('ref_axis',(0.,-1.,0.));
#1173=DIRECTION('center_axis',(0.,0.,1.));
#1174=DIRECTION('ref_axis',(1.,0.,0.));
#1175=DIRECTION('center_axis',(0.,0.,1.));
#1176=DIRECTION('ref_axis',(1.,0.,0.));
#1177=DIRECTION('center_axis',(0.,0.,1.));
#1178=DIRECTION('ref_axis',(0.,1.,0.));
#1179=DIRECTION('center_axis',(0.,0.,1.));
#1180=DIRECTION('ref_axis',(1.,0.,0.));
#1181=DIRECTION('center_axis',(0.,0.,-1.));
#1182=DIRECTION('ref_axis',(0.,-1.,0.));
#1183=DIRECTION('center_axis',(0.,0.,1.));
#1184=DIRECTION('ref_axis',(1.,0.,0.));
#1185=DIRECTION('center_axis',(0.,0.,1.));
#1186=DIRECTION('ref_axis',(1.,0.,0.));
#1187=DIRECTION('center_axis',(0.,0.,1.));
#1188=DIRECTION('ref_axis',(0.,1.,0.));
#1189=DIRECTION('center_axis',(0.,0.,1.));
#1190=DIRECTION('ref_axis',(1.,0.,0.));
#1191=DIRECTION('center_axis',(0.,0.,-1.));
#1192=DIRECTION('ref_axis',(0.,-1.,0.));
#1193=DIRECTION('center_axis',(0.,0.,1.));
#1194=DIRECTION('ref_axis',(1.,0.,0.));
#1195=DIRECTION('center_axis',(0.,0.,1.));
#1196=DIRECTION('ref_axis',(1.,0.,0.));
#1197=DIRECTION('center_axis',(0.,0.,1.));
#1198=DIRECTION('ref_axis',(0.,1.,0.));
#1199=DIRECTION('center_axis',(0.,0.,1.));
#1200=DIRECTION('ref_axis',(1.,0.,0.));
#1201=DIRECTION('center_axis',(0.,0.,-1.));
#1202=DIRECTION('ref_axis',(0.,-1.,0.));
#1203=DIRECTION('center_axis',(0.,0.,1.));
#1204=DIRECTION('ref_axis',(1.,0.,0.));
#1205=DIRECTION('center_axis',(0.,0.,1.));
#1206=DIRECTION('ref_axis',(1.,0.,0.));
#1207=DIRECTION('center_axis',(0.,0.,1.));
#1208=DIRECTION('ref_axis',(0.,1.,0.));
#1209=DIRECTION('center_axis',(0.,0.,1.));
#1210=DIRECTION('ref_axis',(1.,0.,0.));
#1211=DIRECTION('center_axis',(0.,0.,-1.));
#1212=DIRECTION('ref_axis',(0.,-1.,0.));
#1213=DIRECTION('center_axis',(0.,0.,1.));
#1214=DIRECTION('ref_axis',(1.,0.,0.));
#1215=DIRECTION('center_axis',(0.,0.,1.));
#1216=DIRECTION('ref_axis',(1.,0.,0.));
#1217=DIRECTION('center_axis',(0.,0.,1.));
#1218=DIRECTION('ref_axis',(0.,1.,0.));
#1219=DIRECTION('center_axis',(0.,0.,1.));
#1220=DIRECTION('ref_axis',(1.,0.,0.));
#1221=DIRECTION('center_axis',(0.,0.,-1.));
#1222=DIRECTION('ref_axis',(0.,-1.,0.));
#1223=DIRECTION('center_axis',(0.,0.,1.));
#1224=DIRECTION('ref_axis',(1.,0.,0.));
#1225=DIRECTION('center_axis',(0.,0.,1.));
#1226=DIRECTION('ref_axis',(1.,0.,0.));
#1227=DIRECTION('center_axis',(0.,0.,1.));
#1228=DIRECTION('ref_axis',(0.,1.,0.));
#1229=DIRECTION('center_axis',(0.,0.,1.));
#1230=DIRECTION('ref_axis',(1.,0.,0.));
#1231=DIRECTION('center_axis',(0.,0.,-1.));
#1232=DIRECTION('ref_axis',(0.,-1.,0.));
#1233=DIRECTION('center_axis',(0.,0.,1.));
#1234=DIRECTION('ref_axis',(1.,0.,0.));
#1235=DIRECTION('center_axis',(0.,0.,1.));
#1236=DIRECTION('ref_axis',(1.,0.,0.));
#1237=DIRECTION('center_axis',(0.,0.,1.));
#1238=DIRECTION('ref_axis',(0.,1.,0.));
#1239=DIRECTION('center_axis',(0.,0.,1.));
#1240=DIRECTION('ref_axis',(1.,0.,0.));
#1241=DIRECTION('center_axis',(0.,0.,-1.));
#1242=DIRECTION('ref_axis',(0.,-1.,0.));
#1243=DIRECTION('center_axis',(0.,0.,1.));
#1244=DIRECTION('ref_axis',(1.,0.,0.));
#1245=DIRECTION('center_axis',(0.,0.,1.));
#1246=DIRECTION('ref_axis',(1.,0.,0.));
#1247=DIRECTION('center_axis',(0.,0.,1.));
#1248=DIRECTION('ref_axis',(0.,1.,0.));
#1249=DIRECTION('center_axis',(0.,0.,1.));
#1250=DIRECTION('ref_axis',(1.,0.,0.));
#1251=DIRECTION('center_axis',(0.,0.,-1.));
#1252=DIRECTION('ref_axis',(0.,-1.,0.));
#1253=DIRECTION('center_axis',(0.,0.,1.));
#1254=DIRECTION('ref_axis',(1.,0.,0.));
#1255=DIRECTION('center_axis',(0.,0.,1.));
#1256=DIRECTION('ref_axis',(1.,0.,0.));
#1257=DIRECTION('center_axis',(0.,0.,1.));
#1258=DIRECTION('ref_axis',(0.,1.,0.));
#1259=DIRECTION('center_axis',(0.,0.,1.));
#1260=DIRECTION('ref_axis',(1.,0.,0.));
#1261=DIRECTION('center_axis',(0.,0.,-1.));
#1262=DIRECTION('ref_axis',(0.,-1.,0.));
#1263=DIRECTION('center_axis',(0.,0.,1.));
#1264=DIRECTION('ref_axis',(1.,0.,0.));
#1265=DIRECTION('center_axis',(0.,0.,1.));
#1266=DIRECTION('ref_axis',(1.,0.,0.));
#1267=DIRECTION('center_axis',(0.,0.,1.));
#1268=DIRECTION('ref_axis',(0.,1.,0.));
#1269=DIRECTION('center_axis',(0.,0.,1.));
#1270=DIRECTION('ref_axis',(1.,0.,0.));
#1271=DIRECTION('center_axis',(0.,0.,-1.));
#1272=DIRECTION('ref_axis',(0.,-1.,0.));
#1273=DIRECTION('center_axis',(0.,0.,1.));
#1274=DIRECTION('ref_axis',(1.,0.,0.));
#1275=DIRECTION('center_axis',(0.,0.,1.));
#1276=DIRECTION('ref_axis',(1.,0.,0.));
#1277=DIRECTION('center_axis',(0.,0.,1.));
#1278=DIRECTION('ref_axis',(0.,1.,0.));
#1279=DIRECTION('center_axis',(0.,0.,1.));
#1280=DIRECTION('ref_axis',(1.,0.,0.));
#1281=DIRECTION('center_axis',(0.,0.,-1.));
#1282=DIRECTION('ref_axis',(0.,-1.,0.));
#1283=DIRECTION('center_axis',(0.,0.,1.));
#1284=DIRECTION('ref_axis',(1.,0.,0.));
#1285=DIRECTION('center_axis',(0.,0.,1.));
#1286=DIRECTION('ref_axis',(1.,0.,0.));
#1287=DIRECTION('center_axis',(0.,0.,1.));
#1288=DIRECTION('ref_axis',(0.,1.,0.));
#1289=DIRECTION('center_axis',(0.,0.,1.));
#1290=DIRECTION('ref_axis',(1.,0.,0.));
#1291=DIRECTION('center_axis',(0.,0.,-1.));
#1292=DIRECTION('ref_axis',(0.,-1.,0.));
#1293=DIRECTION('center_axis',(0.,0.,1.));
#1294=DIRECTION('ref_axis',(1.,0.,0.));
#1295=DIRECTION('center_axis',(0.,0.,1.));
#1296=DIRECTION('ref_axis',(1.,0.,0.));
#1297=DIRECTION('center_axis',(0.,0.,1.));
#1298=DIRECTION('ref_axis',(0.,1.,0.));
#1299=DIRECTION('center_axis',(0.,0.,1.));
#1300=DIRECTION('ref_axis',(1.,0.,0.));
#1301=DIRECTION('center_axis',(0.,0.,-1.));
#1302=DIRECTION('ref_axis',(0.,-1.,0.));
#1303=DIRECTION('center_axis',(0.,0.,1.));
#1304=DIRECTION('ref_axis',(1.,0.,0.));
#1305=DIRECTION('center_axis',(0.,0.,1.));
#1306=DIRECTION('ref_axis',(1.,0.,0.));
#1307=DIRECTION('center_axis',(0.,0.,1.));
#1308=DIRECTION('ref_axis',(0.,1.,0.));
#1309=DIRECTION('center_axis',(0.,0.,1.));
#1310=DIRECTION('ref_axis',(1.,0.,0.));
#1311=DIRECTION('center_axis',(0.,0.,-1.));
#1312=DIRECTION('ref_axis',(0.,-1.,0.));
#1313=DIRECTION('center_axis',(0.,0.,1.));
#1314=DIRECTION('ref_axis',(1.,0.,0.));
#1315=DIRECTION('center_axis',(0.,0.,1.));
#1316=DIRECTION('ref_axis',(1.,0.,0.));
#1317=DIRECTION('center_axis',(0.,0.,1.));
#1318=DIRECTION('ref_axis',(0.,1.,0.));
#1319=DIRECTION('center_axis',(0.,0.,1.));
#1320=DIRECTION('ref_axis',(1.,0.,0.));
#1321=DIRECTION('center_axis',(0.,0.,-1.));
#1322=DIRECTION('ref_axis',(0.,-1.,0.));
#1323=DIRECTION('center_axis',(0.,0.,1.));
#1324=DIRECTION('ref_axis',(1.,0.,0.));
#1325=DIRECTION('center_axis',(0.,0.,1.));
#1326=DIRECTION('ref_axis',(1.,0.,0.));
#1327=DIRECTION('center_axis',(0.,0.,1.));
#1328=DIRECTION('ref_axis',(0.,1.,0.));
#1329=DIRECTION('center_axis',(0.,0.,1.));
#1330=DIRECTION('ref_axis',(1.,0.,0.));
#1331=DIRECTION('center_axis',(0.,0.,-1.));
#1332=DIRECTION('ref_axis',(0.,-1.,0.));
#1333=DIRECTION('center_axis',(0.,0.,1.));
#1334=DIRECTION('ref_axis',(1.,0.,0.));
#1335=DIRECTION('center_axis',(0.,0.,1.));
#1336=DIRECTION('ref_axis',(1.,0.,0.));
#1337=DIRECTION('center_axis',(0.,0.,1.));
#1338=DIRECTION('ref_axis',(0.,1.,0.));
#1339=DIRECTION('center_axis',(0.,0.,1.));
#1340=DIRECTION('ref_axis',(1.,0.,0.));
#1341=DIRECTION('center_axis',(0.,0.,-1.));
#1342=DIRECTION('ref_axis',(0.,-1.,0.));
#1343=DIRECTION('center_axis',(0.,0.,1.));
#1344=DIRECTION('ref_axis',(1.,0.,0.));
#1345=DIRECTION('center_axis',(0.,0.,1.));
#1346=DIRECTION('ref_axis',(1.,0.,0.));
#1347=DIRECTION('center_axis',(0.,0.,1.));
#1348=DIRECTION('ref_axis',(0.,1.,0.));
#1349=DIRECTION('center_axis',(0.,0.,1.));
#1350=DIRECTION('ref_axis',(1.,0.,0.));
#1351=DIRECTION('center_axis',(0.,0.,-1.));
#1352=DIRECTION('ref_axis',(0.,-1.,0.));
#1353=DIRECTION('center_axis',(0.,0.,1.));
#1354=DIRECTION('ref_axis',(1.,0.,0.));
#1355=CARTESIAN_POINT('',(0.,0.,0.));
#1356=CARTESIAN_POINT('Origin',(-1.33226762955019E-15,0.,0.));
#1357=CARTESIAN_POINT('',(-0.75,1.35816994755742,0.));
#1358=CARTESIAN_POINT('Origin',(-0.75,1.464,0.));
#1359=CARTESIAN_POINT('Origin',(4.44089209850063E-16,0.,0.24));
#1360=CARTESIAN_POINT('',(-0.75,1.56983005244258,0.24));
#1361=CARTESIAN_POINT('Origin',(-0.75,1.464,0.24));
#1362=CARTESIAN_POINT('Origin',(-0.75,1.464,0.12));
#1363=CARTESIAN_POINT('Origin',(-0.79,1.39,0.68));
#1364=CARTESIAN_POINT('',(-0.59,1.39,0.63));
#1365=CARTESIAN_POINT('Origin',(-0.79,1.39,0.63));
#1366=CARTESIAN_POINT('',(-0.59,1.39,0.68));
#1367=CARTESIAN_POINT('Origin',(-0.79,1.39,0.68));
#1368=CARTESIAN_POINT('Origin',(-0.79,1.39,0.63));
#1369=CARTESIAN_POINT('Origin',(-1.24,-1.84,0.24));
#1370=CARTESIAN_POINT('',(1.24,-1.84,0.24));
#1371=CARTESIAN_POINT('',(-1.24,-1.84,0.24));
#1372=CARTESIAN_POINT($,(1.24,-1.84,0.24));
#1373=CARTESIAN_POINT('',(1.24,-1.84,0.68));
#1374=CARTESIAN_POINT($,(1.24,-1.84,0.24));
#1375=CARTESIAN_POINT('',(-1.24,-1.84,0.68));
#1376=CARTESIAN_POINT($,(1.24,-1.84,0.68));
#1377=CARTESIAN_POINT($,(-1.24,-1.84,0.24));
#1378=CARTESIAN_POINT('Origin',(-1.24,1.84,0.24));
#1379=CARTESIAN_POINT('',(-1.24,1.84,0.24));
#1380=CARTESIAN_POINT($,(-1.24,-1.84,0.24));
#1381=CARTESIAN_POINT('',(-1.24,1.84,0.68));
#1382=CARTESIAN_POINT($,(-1.24,-1.84,0.68));
#1383=CARTESIAN_POINT($,(-1.24,1.84,0.24));
#1384=CARTESIAN_POINT('Origin',(1.24,1.84,0.24));
#1385=CARTESIAN_POINT('',(1.24,1.84,0.24));
#1386=CARTESIAN_POINT($,(-1.24,1.84,0.24));
#1387=CARTESIAN_POINT('',(1.24,1.84,0.68));
#1388=CARTESIAN_POINT($,(-1.24,1.84,0.68));
#1389=CARTESIAN_POINT($,(1.24,1.84,0.24));
#1390=CARTESIAN_POINT('Origin',(1.24,-1.84,0.24));
#1391=CARTESIAN_POINT($,(1.24,1.84,0.24));
#1392=CARTESIAN_POINT($,(1.24,1.84,0.68));
#1393=CARTESIAN_POINT('Origin',(0.,0.,0.24));
#1394=CARTESIAN_POINT('Origin',(0.,0.,0.68));
#1395=CARTESIAN_POINT('Origin',(-1.33226762955019E-15,-0.5,0.));
#1396=CARTESIAN_POINT('',(-0.75,0.858169947557416,0.));
#1397=CARTESIAN_POINT('Origin',(-0.75,0.964,0.));
#1398=CARTESIAN_POINT('Origin',(4.44089209850063E-16,-0.5,0.24));
#1399=CARTESIAN_POINT('',(-0.75,1.06983005244258,0.24));
#1400=CARTESIAN_POINT('Origin',(-0.75,0.964,0.24));
#1401=CARTESIAN_POINT('Origin',(-0.75,0.964,0.12));
#1402=CARTESIAN_POINT('Origin',(-1.33226762955019E-15,-1.,0.));
#1403=CARTESIAN_POINT('',(-0.75,0.358169947557416,0.));
#1404=CARTESIAN_POINT('Origin',(-0.75,0.464,0.));
#1405=CARTESIAN_POINT('Origin',(4.44089209850063E-16,-1.,0.24));
#1406=CARTESIAN_POINT('',(-0.75,0.569830052442584,0.24));
#1407=CARTESIAN_POINT('Origin',(-0.75,0.464,0.24));
#1408=CARTESIAN_POINT('Origin',(-0.75,0.464,0.12));
#1409=CARTESIAN_POINT('Origin',(-1.33226762955019E-15,-1.5,0.));
#1410=CARTESIAN_POINT('',(-0.75,-0.141830052442584,0.));
#1411=CARTESIAN_POINT('Origin',(-0.75,-0.036,0.));
#1412=CARTESIAN_POINT('Origin',(4.44089209850063E-16,-1.5,0.24));
#1413=CARTESIAN_POINT('',(-0.75,0.0698300524425836,0.24));
#1414=CARTESIAN_POINT('Origin',(-0.75,-0.036,0.24));
#1415=CARTESIAN_POINT('Origin',(-0.75,-0.036,0.12));
#1416=CARTESIAN_POINT('Origin',(-1.33226762955019E-15,-2.,0.));
#1417=CARTESIAN_POINT('',(-0.75,-0.641830052442584,0.));
#1418=CARTESIAN_POINT('Origin',(-0.75,-0.536,0.));
#1419=CARTESIAN_POINT('Origin',(4.44089209850063E-16,-2.,0.24));
#1420=CARTESIAN_POINT('',(-0.75,-0.430169947557416,0.24));
#1421=CARTESIAN_POINT('Origin',(-0.75,-0.536,0.24));
#1422=CARTESIAN_POINT('Origin',(-0.75,-0.536,0.12));
#1423=CARTESIAN_POINT('Origin',(-1.33226762955019E-15,-2.5,0.));
#1424=CARTESIAN_POINT('',(-0.75,-1.14183005244258,0.));
#1425=CARTESIAN_POINT('Origin',(-0.75,-1.036,0.));
#1426=CARTESIAN_POINT('Origin',(4.44089209850063E-16,-2.5,0.24));
#1427=CARTESIAN_POINT('',(-0.75,-0.930169947557416,0.24));
#1428=CARTESIAN_POINT('Origin',(-0.75,-1.036,0.24));
#1429=CARTESIAN_POINT('Origin',(-0.75,-1.036,0.12));
#1430=CARTESIAN_POINT('Origin',(-1.33226762955019E-15,-3.,0.));
#1431=CARTESIAN_POINT('',(-0.75,-1.64183005244258,0.));
#1432=CARTESIAN_POINT('Origin',(-0.75,-1.536,0.));
#1433=CARTESIAN_POINT('Origin',(4.44089209850063E-16,-3.,0.24));
#1434=CARTESIAN_POINT('',(-0.75,-1.43016994755742,0.24));
#1435=CARTESIAN_POINT('Origin',(-0.75,-1.536,0.24));
#1436=CARTESIAN_POINT('Origin',(-0.75,-1.536,0.12));
#1437=CARTESIAN_POINT('Origin',(0.499999999999999,0.,0.));
#1438=CARTESIAN_POINT('',(-0.25,1.35816994755742,0.));
#1439=CARTESIAN_POINT('Origin',(-0.25,1.464,0.));
#1440=CARTESIAN_POINT('Origin',(0.5,0.,0.24));
#1441=CARTESIAN_POINT('',(-0.25,1.56983005244258,0.24));
#1442=CARTESIAN_POINT('Origin',(-0.25,1.464,0.24));
#1443=CARTESIAN_POINT('Origin',(-0.25,1.464,0.12));
#1444=CARTESIAN_POINT('Origin',(0.499999999999999,-0.5,0.));
#1445=CARTESIAN_POINT('',(-0.25,0.858169947557416,0.));
#1446=CARTESIAN_POINT('Origin',(-0.25,0.964,0.));
#1447=CARTESIAN_POINT('Origin',(0.5,-0.5,0.24));
#1448=CARTESIAN_POINT('',(-0.25,1.06983005244258,0.24));
#1449=CARTESIAN_POINT('Origin',(-0.25,0.964,0.24));
#1450=CARTESIAN_POINT('Origin',(-0.25,0.964,0.12));
#1451=CARTESIAN_POINT('Origin',(0.499999999999999,-1.,0.));
#1452=CARTESIAN_POINT('',(-0.25,0.358169947557416,0.));
#1453=CARTESIAN_POINT('Origin',(-0.25,0.464,0.));
#1454=CARTESIAN_POINT('Origin',(0.5,-1.,0.24));
#1455=CARTESIAN_POINT('',(-0.25,0.569830052442584,0.24));
#1456=CARTESIAN_POINT('Origin',(-0.25,0.464,0.24));
#1457=CARTESIAN_POINT('Origin',(-0.25,0.464,0.12));
#1458=CARTESIAN_POINT('Origin',(0.499999999999999,-1.5,0.));
#1459=CARTESIAN_POINT('',(-0.25,-0.141830052442584,0.));
#1460=CARTESIAN_POINT('Origin',(-0.25,-0.036,0.));
#1461=CARTESIAN_POINT('Origin',(0.5,-1.5,0.24));
#1462=CARTESIAN_POINT('',(-0.25,0.0698300524425836,0.24));
#1463=CARTESIAN_POINT('Origin',(-0.25,-0.036,0.24));
#1464=CARTESIAN_POINT('Origin',(-0.25,-0.036,0.12));
#1465=CARTESIAN_POINT('Origin',(0.499999999999999,-2.,0.));
#1466=CARTESIAN_POINT('',(-0.25,-0.641830052442584,0.));
#1467=CARTESIAN_POINT('Origin',(-0.25,-0.536,0.));
#1468=CARTESIAN_POINT('Origin',(0.5,-2.,0.24));
#1469=CARTESIAN_POINT('',(-0.25,-0.430169947557416,0.24));
#1470=CARTESIAN_POINT('Origin',(-0.25,-0.536,0.24));
#1471=CARTESIAN_POINT('Origin',(-0.25,-0.536,0.12));
#1472=CARTESIAN_POINT('Origin',(0.499999999999999,-2.5,0.));
#1473=CARTESIAN_POINT('',(-0.25,-1.14183005244258,0.));
#1474=CARTESIAN_POINT('Origin',(-0.25,-1.036,0.));
#1475=CARTESIAN_POINT('Origin',(0.5,-2.5,0.24));
#1476=CARTESIAN_POINT('',(-0.25,-0.930169947557416,0.24));
#1477=CARTESIAN_POINT('Origin',(-0.25,-1.036,0.24));
#1478=CARTESIAN_POINT('Origin',(-0.25,-1.036,0.12));
#1479=CARTESIAN_POINT('Origin',(0.499999999999999,-3.,0.));
#1480=CARTESIAN_POINT('',(-0.25,-1.64183005244258,0.));
#1481=CARTESIAN_POINT('Origin',(-0.25,-1.536,0.));
#1482=CARTESIAN_POINT('Origin',(0.5,-3.,0.24));
#1483=CARTESIAN_POINT('',(-0.25,-1.43016994755742,0.24));
#1484=CARTESIAN_POINT('Origin',(-0.25,-1.536,0.24));
#1485=CARTESIAN_POINT('Origin',(-0.25,-1.536,0.12));
#1486=CARTESIAN_POINT('Origin',(0.999999999999999,0.,0.));
#1487=CARTESIAN_POINT('',(0.25,1.35816994755742,0.));
#1488=CARTESIAN_POINT('Origin',(0.25,1.464,0.));
#1489=CARTESIAN_POINT('Origin',(1.,0.,0.24));
#1490=CARTESIAN_POINT('',(0.25,1.56983005244258,0.24));
#1491=CARTESIAN_POINT('Origin',(0.25,1.464,0.24));
#1492=CARTESIAN_POINT('Origin',(0.25,1.464,0.12));
#1493=CARTESIAN_POINT('Origin',(0.999999999999999,-0.5,0.));
#1494=CARTESIAN_POINT('',(0.25,0.858169947557416,0.));
#1495=CARTESIAN_POINT('Origin',(0.25,0.964,0.));
#1496=CARTESIAN_POINT('Origin',(1.,-0.5,0.24));
#1497=CARTESIAN_POINT('',(0.25,1.06983005244258,0.24));
#1498=CARTESIAN_POINT('Origin',(0.25,0.964,0.24));
#1499=CARTESIAN_POINT('Origin',(0.25,0.964,0.12));
#1500=CARTESIAN_POINT('Origin',(0.999999999999999,-1.,0.));
#1501=CARTESIAN_POINT('',(0.25,0.358169947557416,0.));
#1502=CARTESIAN_POINT('Origin',(0.25,0.464,0.));
#1503=CARTESIAN_POINT('Origin',(1.,-1.,0.24));
#1504=CARTESIAN_POINT('',(0.25,0.569830052442584,0.24));
#1505=CARTESIAN_POINT('Origin',(0.25,0.464,0.24));
#1506=CARTESIAN_POINT('Origin',(0.25,0.464,0.12));
#1507=CARTESIAN_POINT('Origin',(0.999999999999999,-1.5,0.));
#1508=CARTESIAN_POINT('',(0.25,-0.141830052442584,0.));
#1509=CARTESIAN_POINT('Origin',(0.25,-0.036,0.));
#1510=CARTESIAN_POINT('Origin',(1.,-1.5,0.24));
#1511=CARTESIAN_POINT('',(0.25,0.0698300524425836,0.24));
#1512=CARTESIAN_POINT('Origin',(0.25,-0.036,0.24));
#1513=CARTESIAN_POINT('Origin',(0.25,-0.036,0.12));
#1514=CARTESIAN_POINT('Origin',(0.999999999999999,-2.,0.));
#1515=CARTESIAN_POINT('',(0.25,-0.641830052442584,0.));
#1516=CARTESIAN_POINT('Origin',(0.25,-0.536,0.));
#1517=CARTESIAN_POINT('Origin',(1.,-2.,0.24));
#1518=CARTESIAN_POINT('',(0.25,-0.430169947557416,0.24));
#1519=CARTESIAN_POINT('Origin',(0.25,-0.536,0.24));
#1520=CARTESIAN_POINT('Origin',(0.25,-0.536,0.12));
#1521=CARTESIAN_POINT('Origin',(0.999999999999999,-2.5,0.));
#1522=CARTESIAN_POINT('',(0.25,-1.14183005244258,0.));
#1523=CARTESIAN_POINT('Origin',(0.25,-1.036,0.));
#1524=CARTESIAN_POINT('Origin',(1.,-2.5,0.24));
#1525=CARTESIAN_POINT('',(0.25,-0.930169947557416,0.24));
#1526=CARTESIAN_POINT('Origin',(0.25,-1.036,0.24));
#1527=CARTESIAN_POINT('Origin',(0.25,-1.036,0.12));
#1528=CARTESIAN_POINT('Origin',(0.999999999999999,-3.,0.));
#1529=CARTESIAN_POINT('',(0.25,-1.64183005244258,0.));
#1530=CARTESIAN_POINT('Origin',(0.25,-1.536,0.));
#1531=CARTESIAN_POINT('Origin',(1.,-3.,0.24));
#1532=CARTESIAN_POINT('',(0.25,-1.43016994755742,0.24));
#1533=CARTESIAN_POINT('Origin',(0.25,-1.536,0.24));
#1534=CARTESIAN_POINT('Origin',(0.25,-1.536,0.12));
#1535=CARTESIAN_POINT('Origin',(1.5,0.,0.));
#1536=CARTESIAN_POINT('',(0.750000000000001,1.35816994755742,0.));
#1537=CARTESIAN_POINT('Origin',(0.750000000000001,1.464,0.));
#1538=CARTESIAN_POINT('Origin',(1.5,0.,0.24));
#1539=CARTESIAN_POINT('',(0.750000000000001,1.56983005244258,0.24));
#1540=CARTESIAN_POINT('Origin',(0.750000000000001,1.464,0.24));
#1541=CARTESIAN_POINT('Origin',(0.750000000000001,1.464,0.12));
#1542=CARTESIAN_POINT('Origin',(1.5,-0.5,0.));
#1543=CARTESIAN_POINT('',(0.750000000000001,0.858169947557416,0.));
#1544=CARTESIAN_POINT('Origin',(0.750000000000001,0.964,0.));
#1545=CARTESIAN_POINT('Origin',(1.5,-0.5,0.24));
#1546=CARTESIAN_POINT('',(0.750000000000001,1.06983005244258,0.24));
#1547=CARTESIAN_POINT('Origin',(0.750000000000001,0.964,0.24));
#1548=CARTESIAN_POINT('Origin',(0.750000000000001,0.964,0.12));
#1549=CARTESIAN_POINT('Origin',(1.5,-1.,0.));
#1550=CARTESIAN_POINT('',(0.750000000000001,0.358169947557416,0.));
#1551=CARTESIAN_POINT('Origin',(0.750000000000001,0.464,0.));
#1552=CARTESIAN_POINT('Origin',(1.5,-1.,0.24));
#1553=CARTESIAN_POINT('',(0.750000000000001,0.569830052442584,0.24));
#1554=CARTESIAN_POINT('Origin',(0.750000000000001,0.464,0.24));
#1555=CARTESIAN_POINT('Origin',(0.750000000000001,0.464,0.12));
#1556=CARTESIAN_POINT('Origin',(1.5,-1.5,0.));
#1557=CARTESIAN_POINT('',(0.750000000000001,-0.141830052442584,0.));
#1558=CARTESIAN_POINT('Origin',(0.750000000000001,-0.036,0.));
#1559=CARTESIAN_POINT('Origin',(1.5,-1.5,0.24));
#1560=CARTESIAN_POINT('',(0.750000000000001,0.0698300524425836,0.24));
#1561=CARTESIAN_POINT('Origin',(0.750000000000001,-0.036,0.24));
#1562=CARTESIAN_POINT('Origin',(0.750000000000001,-0.036,0.12));
#1563=CARTESIAN_POINT('Origin',(1.5,-2.,0.));
#1564=CARTESIAN_POINT('',(0.750000000000001,-0.641830052442584,0.));
#1565=CARTESIAN_POINT('Origin',(0.750000000000001,-0.536,0.));
#1566=CARTESIAN_POINT('Origin',(1.5,-2.,0.24));
#1567=CARTESIAN_POINT('',(0.750000000000001,-0.430169947557416,0.24));
#1568=CARTESIAN_POINT('Origin',(0.750000000000001,-0.536,0.24));
#1569=CARTESIAN_POINT('Origin',(0.750000000000001,-0.536,0.12));
#1570=CARTESIAN_POINT('Origin',(1.5,-2.5,0.));
#1571=CARTESIAN_POINT('',(0.750000000000001,-1.14183005244258,0.));
#1572=CARTESIAN_POINT('Origin',(0.750000000000001,-1.036,0.));
#1573=CARTESIAN_POINT('Origin',(1.5,-2.5,0.24));
#1574=CARTESIAN_POINT('',(0.750000000000001,-0.930169947557416,0.24));
#1575=CARTESIAN_POINT('Origin',(0.750000000000001,-1.036,0.24));
#1576=CARTESIAN_POINT('Origin',(0.750000000000001,-1.036,0.12));
#1577=CARTESIAN_POINT('Origin',(1.5,-3.,0.));
#1578=CARTESIAN_POINT('',(0.750000000000001,-1.64183005244258,0.));
#1579=CARTESIAN_POINT('Origin',(0.750000000000001,-1.536,0.));
#1580=CARTESIAN_POINT('Origin',(1.5,-3.,0.24));
#1581=CARTESIAN_POINT('',(0.750000000000001,-1.43016994755742,0.24));
#1582=CARTESIAN_POINT('Origin',(0.750000000000001,-1.536,0.24));
#1583=CARTESIAN_POINT('Origin',(0.750000000000001,-1.536,0.12));
#1584=UNCERTAINTY_MEASURE_WITH_UNIT(LENGTH_MEASURE(0.01),#1588,
'DISTANCE_ACCURACY_VALUE',
'Maximum model space distance between geometric entities at asserted c
onnectivities');
#1585=UNCERTAINTY_MEASURE_WITH_UNIT(LENGTH_MEASURE(1.E-6),#1588,
'DISTANCE_ACCURACY_VALUE',
'Maximum model space distance between geometric entities at asserted c
onnectivities');
#1586=(
GEOMETRIC_REPRESENTATION_CONTEXT(3)
GLOBAL_UNCERTAINTY_ASSIGNED_CONTEXT((#1584))
GLOBAL_UNIT_ASSIGNED_CONTEXT((#1588,#1590,#1589))
REPRESENTATION_CONTEXT('','3D')
);
#1587=(
GEOMETRIC_REPRESENTATION_CONTEXT(3)
GLOBAL_UNCERTAINTY_ASSIGNED_CONTEXT((#1585))
GLOBAL_UNIT_ASSIGNED_CONTEXT((#1588,#12,#1589))
REPRESENTATION_CONTEXT('','3D')
);
#1588=(
LENGTH_UNIT()
NAMED_UNIT(*)
SI_UNIT(.MILLI.,.METRE.)
);
#1589=(
NAMED_UNIT(*)
SI_UNIT($,.STERADIAN.)
SOLID_ANGLE_UNIT()
);
#1590=(
NAMED_UNIT(*)
PLANE_ANGLE_UNIT()
SI_UNIT($,.RADIAN.)
);
#1591=SHAPE_DEFINITION_REPRESENTATION(#1592,#1593);
#1592=PRODUCT_DEFINITION_SHAPE('',$,#1595);
#1593=SHAPE_REPRESENTATION('',(#890),#1586);
#1594=PRODUCT_DEFINITION_CONTEXT('part definition',#1599,'design');
#1595=PRODUCT_DEFINITION('Product','Product',#1596,#1594);
#1596=PRODUCT_DEFINITION_FORMATION('',$,#1601);
#1597=PRODUCT_RELATED_PRODUCT_CATEGORY('Product','Product',(#1601));
#1598=APPLICATION_PROTOCOL_DEFINITION('international standard',
'automotive_design',2009,#1599);
#1599=APPLICATION_CONTEXT(
'Core Data for Automotive Mechanical Design Process');
#1600=PRODUCT_CONTEXT('part definition',#1599,'mechanical');
#1601=PRODUCT('Product','Product',$,(#1600));
#1602=PRESENTATION_STYLE_ASSIGNMENT((#1605));
#1603=PRESENTATION_STYLE_ASSIGNMENT((#1606));
#1604=PRESENTATION_STYLE_ASSIGNMENT((#1607));
#1605=SURFACE_STYLE_USAGE(.BOTH.,#1608);
#1606=SURFACE_STYLE_USAGE(.BOTH.,#1609);
#1607=SURFACE_STYLE_USAGE(.BOTH.,#1610);
#1608=SURFACE_SIDE_STYLE($,(#1611));
#1609=SURFACE_SIDE_STYLE($,(#1612));
#1610=SURFACE_SIDE_STYLE($,(#1613));
#1611=SURFACE_STYLE_FILL_AREA(#1614);
#1612=SURFACE_STYLE_FILL_AREA(#1615);
#1613=SURFACE_STYLE_FILL_AREA(#1616);
#1614=FILL_AREA_STYLE($,(#1617));
#1615=FILL_AREA_STYLE($,(#1618));
#1616=FILL_AREA_STYLE($,(#1619));
#1617=FILL_AREA_STYLE_COLOUR($,#1620);
#1618=FILL_AREA_STYLE_COLOUR($,#1621);
#1619=FILL_AREA_STYLE_COLOUR($,#1622);
#1620=COLOUR_RGB('',1.,1.,1.);
#1621=COLOUR_RGB('',0.866666666666667,0.866666666666667,0.866666666666667);
#1622=COLOUR_RGB('',0.329411764705882,0.329411764705882,0.329411764705882);
ENDSEC;
END-ISO-10303-21;
