ISO-10303-21;
HEADER;
/* Generated by software containing ST-Developer
 * from STEP Tools, Inc. (www.steptools.com) 
 */

FILE_DESCRIPTION(
/* description */ (''),
/* implementation_level */ '2;1');

FILE_NAME(
/* name */ 
'G:\\Applications\\Altium\\CernLib\\StepLib\\BGA4C40P2X2_88X88X68.stp',

/* time_stamp */ '2017-02-13T13:05:47+01:00',
/* author */ ('jchouvet'),
/* organization */ (''),
/* preprocessor_version */ 'ST-DEVELOPER v16.1',
/* originating_system */ 'AutoCAD Mechanical',
/* authorisation */ '');

FILE_SCHEMA (('AUTOMOTIVE_DESIGN { 1 0 10303 214 3 1 1 }'));
ENDSEC;

DATA;
#10=MECHANICAL_DESIGN_GEOMETRIC_PRESENTATION_REPRESENTATION('',(#42,#43,
#46,#45,#44),#411);
#11=DIMENSIONAL_EXPONENTS(0.,0.,0.,0.,0.,0.,0.);
#12=(
CONVERSION_BASED_UNIT('degree',#13)
NAMED_UNIT(#11)
PLANE_ANGLE_UNIT()
);
#13=PLANE_ANGLE_MEASURE_WITH_UNIT(PLANE_ANGLE_MEASURE(0.01745329252),#414);
#14=PRESENTATION_LAYER_ASSIGNMENT('1','3D',(#47,#48,#49,#50,#51));
#15=LINE('',#364,#27);
#16=LINE('',#366,#28);
#17=LINE('',#368,#29);
#18=LINE('',#369,#30);
#19=LINE('',#372,#31);
#20=LINE('',#374,#32);
#21=LINE('',#375,#33);
#22=LINE('',#378,#34);
#23=LINE('',#380,#35);
#24=LINE('',#381,#36);
#25=LINE('',#383,#37);
#26=LINE('',#384,#38);
#27=VECTOR('',#295,0.914);
#28=VECTOR('',#296,0.51);
#29=VECTOR('',#297,0.914);
#30=VECTOR('',#298,0.51);
#31=VECTOR('',#301,0.914);
#32=VECTOR('',#302,0.914);
#33=VECTOR('',#303,0.51);
#34=VECTOR('',#306,0.914);
#35=VECTOR('',#307,0.914);
#36=VECTOR('',#308,0.51);
#37=VECTOR('',#311,0.914);
#38=VECTOR('',#312,0.914);
#39=CYLINDRICAL_SURFACE('',#248,0.15);
#40=SHAPE_REPRESENTATION_RELATIONSHIP('SRR','None',#417,#41);
#41=ADVANCED_BREP_SHAPE_REPRESENTATION('',(#47,#48,#49,#50,#51),#410);
#42=STYLED_ITEM('',(#427),#47);
#43=STYLED_ITEM('',(#428),#48);
#44=STYLED_ITEM('',(#427),#49);
#45=STYLED_ITEM('',(#427),#50);
#46=STYLED_ITEM('',(#427),#51);
#47=MANIFOLD_SOLID_BREP('2D8C',#237);
#48=MANIFOLD_SOLID_BREP('2D90',#238);
#49=MANIFOLD_SOLID_BREP('2D9F',#239);
#50=MANIFOLD_SOLID_BREP('2DA7',#240);
#51=MANIFOLD_SOLID_BREP('2DAF',#241);
#52=FACE_BOUND('',#85,.T.);
#53=FACE_BOUND('',#87,.T.);
#54=FACE_BOUND('',#95,.T.);
#55=FACE_BOUND('',#99,.T.);
#56=FACE_BOUND('',#103,.T.);
#57=FACE_BOUND('',#107,.T.);
#58=SPHERICAL_SURFACE('',#247,0.12);
#59=SPHERICAL_SURFACE('',#262,0.12);
#60=SPHERICAL_SURFACE('',#267,0.12);
#61=SPHERICAL_SURFACE('',#272,0.12);
#62=FACE_OUTER_BOUND('',#82,.T.);
#63=FACE_OUTER_BOUND('',#83,.T.);
#64=FACE_OUTER_BOUND('',#84,.T.);
#65=FACE_OUTER_BOUND('',#86,.T.);
#66=FACE_OUTER_BOUND('',#88,.T.);
#67=FACE_OUTER_BOUND('',#89,.T.);
#68=FACE_OUTER_BOUND('',#90,.T.);
#69=FACE_OUTER_BOUND('',#91,.T.);
#70=FACE_OUTER_BOUND('',#92,.T.);
#71=FACE_OUTER_BOUND('',#93,.T.);
#72=FACE_OUTER_BOUND('',#94,.T.);
#73=FACE_OUTER_BOUND('',#96,.T.);
#74=FACE_OUTER_BOUND('',#97,.T.);
#75=FACE_OUTER_BOUND('',#98,.T.);
#76=FACE_OUTER_BOUND('',#100,.T.);
#77=FACE_OUTER_BOUND('',#101,.T.);
#78=FACE_OUTER_BOUND('',#102,.T.);
#79=FACE_OUTER_BOUND('',#104,.T.);
#80=FACE_OUTER_BOUND('',#105,.T.);
#81=FACE_OUTER_BOUND('',#106,.T.);
#82=EDGE_LOOP('',(#158));
#83=EDGE_LOOP('',(#159));
#84=EDGE_LOOP('',(#160));
#85=EDGE_LOOP('',(#161));
#86=EDGE_LOOP('',(#162));
#87=EDGE_LOOP('',(#163));
#88=EDGE_LOOP('',(#164));
#89=EDGE_LOOP('',(#165,#166,#167,#168));
#90=EDGE_LOOP('',(#169,#170,#171,#172));
#91=EDGE_LOOP('',(#173,#174,#175,#176));
#92=EDGE_LOOP('',(#177,#178,#179,#180));
#93=EDGE_LOOP('',(#181,#182,#183,#184));
#94=EDGE_LOOP('',(#185,#186,#187,#188));
#95=EDGE_LOOP('',(#189));
#96=EDGE_LOOP('',(#190));
#97=EDGE_LOOP('',(#191));
#98=EDGE_LOOP('',(#192));
#99=EDGE_LOOP('',(#193));
#100=EDGE_LOOP('',(#194));
#101=EDGE_LOOP('',(#195));
#102=EDGE_LOOP('',(#196));
#103=EDGE_LOOP('',(#197));
#104=EDGE_LOOP('',(#198));
#105=EDGE_LOOP('',(#199));
#106=EDGE_LOOP('',(#200));
#107=EDGE_LOOP('',(#201));
#108=CIRCLE('',#244,0.0871421252896669);
#109=CIRCLE('',#246,0.0871421252896669);
#110=CIRCLE('',#249,0.15);
#111=CIRCLE('',#250,0.15);
#112=CIRCLE('',#259,0.0871421252896669);
#113=CIRCLE('',#261,0.0871421252896669);
#114=CIRCLE('',#264,0.0871421252896669);
#115=CIRCLE('',#266,0.0871421252896669);
#116=CIRCLE('',#269,0.0871421252896669);
#117=CIRCLE('',#271,0.0871421252896669);
#118=VERTEX_POINT('',#349);
#119=VERTEX_POINT('',#352);
#120=VERTEX_POINT('',#356);
#121=VERTEX_POINT('',#358);
#122=VERTEX_POINT('',#362);
#123=VERTEX_POINT('',#363);
#124=VERTEX_POINT('',#365);
#125=VERTEX_POINT('',#367);
#126=VERTEX_POINT('',#371);
#127=VERTEX_POINT('',#373);
#128=VERTEX_POINT('',#377);
#129=VERTEX_POINT('',#379);
#130=VERTEX_POINT('',#388);
#131=VERTEX_POINT('',#391);
#132=VERTEX_POINT('',#395);
#133=VERTEX_POINT('',#398);
#134=VERTEX_POINT('',#402);
#135=VERTEX_POINT('',#405);
#136=EDGE_CURVE('',#118,#118,#108,.T.);
#137=EDGE_CURVE('',#119,#119,#109,.T.);
#138=EDGE_CURVE('',#120,#120,#110,.T.);
#139=EDGE_CURVE('',#121,#121,#111,.T.);
#140=EDGE_CURVE('',#122,#123,#15,.T.);
#141=EDGE_CURVE('',#122,#124,#16,.T.);
#142=EDGE_CURVE('',#125,#124,#17,.T.);
#143=EDGE_CURVE('',#123,#125,#18,.T.);
#144=EDGE_CURVE('',#123,#126,#19,.T.);
#145=EDGE_CURVE('',#127,#125,#20,.T.);
#146=EDGE_CURVE('',#126,#127,#21,.T.);
#147=EDGE_CURVE('',#126,#128,#22,.T.);
#148=EDGE_CURVE('',#129,#127,#23,.T.);
#149=EDGE_CURVE('',#128,#129,#24,.T.);
#150=EDGE_CURVE('',#128,#122,#25,.T.);
#151=EDGE_CURVE('',#124,#129,#26,.T.);
#152=EDGE_CURVE('',#130,#130,#112,.T.);
#153=EDGE_CURVE('',#131,#131,#113,.T.);
#154=EDGE_CURVE('',#132,#132,#114,.T.);
#155=EDGE_CURVE('',#133,#133,#115,.T.);
#156=EDGE_CURVE('',#134,#134,#116,.T.);
#157=EDGE_CURVE('',#135,#135,#117,.T.);
#158=ORIENTED_EDGE('',*,*,#136,.F.);
#159=ORIENTED_EDGE('',*,*,#137,.F.);
#160=ORIENTED_EDGE('',*,*,#136,.T.);
#161=ORIENTED_EDGE('',*,*,#137,.T.);
#162=ORIENTED_EDGE('',*,*,#138,.F.);
#163=ORIENTED_EDGE('',*,*,#139,.T.);
#164=ORIENTED_EDGE('',*,*,#139,.F.);
#165=ORIENTED_EDGE('',*,*,#140,.F.);
#166=ORIENTED_EDGE('',*,*,#141,.T.);
#167=ORIENTED_EDGE('',*,*,#142,.F.);
#168=ORIENTED_EDGE('',*,*,#143,.F.);
#169=ORIENTED_EDGE('',*,*,#144,.F.);
#170=ORIENTED_EDGE('',*,*,#143,.T.);
#171=ORIENTED_EDGE('',*,*,#145,.F.);
#172=ORIENTED_EDGE('',*,*,#146,.F.);
#173=ORIENTED_EDGE('',*,*,#147,.F.);
#174=ORIENTED_EDGE('',*,*,#146,.T.);
#175=ORIENTED_EDGE('',*,*,#148,.F.);
#176=ORIENTED_EDGE('',*,*,#149,.F.);
#177=ORIENTED_EDGE('',*,*,#150,.F.);
#178=ORIENTED_EDGE('',*,*,#149,.T.);
#179=ORIENTED_EDGE('',*,*,#151,.F.);
#180=ORIENTED_EDGE('',*,*,#141,.F.);
#181=ORIENTED_EDGE('',*,*,#150,.T.);
#182=ORIENTED_EDGE('',*,*,#140,.T.);
#183=ORIENTED_EDGE('',*,*,#144,.T.);
#184=ORIENTED_EDGE('',*,*,#147,.T.);
#185=ORIENTED_EDGE('',*,*,#151,.T.);
#186=ORIENTED_EDGE('',*,*,#148,.T.);
#187=ORIENTED_EDGE('',*,*,#145,.T.);
#188=ORIENTED_EDGE('',*,*,#142,.T.);
#189=ORIENTED_EDGE('',*,*,#138,.T.);
#190=ORIENTED_EDGE('',*,*,#152,.F.);
#191=ORIENTED_EDGE('',*,*,#153,.F.);
#192=ORIENTED_EDGE('',*,*,#152,.T.);
#193=ORIENTED_EDGE('',*,*,#153,.T.);
#194=ORIENTED_EDGE('',*,*,#154,.F.);
#195=ORIENTED_EDGE('',*,*,#155,.F.);
#196=ORIENTED_EDGE('',*,*,#154,.T.);
#197=ORIENTED_EDGE('',*,*,#155,.T.);
#198=ORIENTED_EDGE('',*,*,#156,.F.);
#199=ORIENTED_EDGE('',*,*,#157,.F.);
#200=ORIENTED_EDGE('',*,*,#156,.T.);
#201=ORIENTED_EDGE('',*,*,#157,.T.);
#202=PLANE('',#243);
#203=PLANE('',#245);
#204=PLANE('',#251);
#205=PLANE('',#252);
#206=PLANE('',#253);
#207=PLANE('',#254);
#208=PLANE('',#255);
#209=PLANE('',#256);
#210=PLANE('',#257);
#211=PLANE('',#258);
#212=PLANE('',#260);
#213=PLANE('',#263);
#214=PLANE('',#265);
#215=PLANE('',#268);
#216=PLANE('',#270);
#217=ADVANCED_FACE('',(#62),#202,.T.);
#218=ADVANCED_FACE('',(#63),#203,.F.);
#219=ADVANCED_FACE('',(#64,#52),#58,.T.);
#220=ADVANCED_FACE('',(#65,#53),#39,.F.);
#221=ADVANCED_FACE('',(#66),#204,.F.);
#222=ADVANCED_FACE('',(#67),#205,.T.);
#223=ADVANCED_FACE('',(#68),#206,.T.);
#224=ADVANCED_FACE('',(#69),#207,.T.);
#225=ADVANCED_FACE('',(#70),#208,.T.);
#226=ADVANCED_FACE('',(#71),#209,.F.);
#227=ADVANCED_FACE('',(#72,#54),#210,.T.);
#228=ADVANCED_FACE('',(#73),#211,.T.);
#229=ADVANCED_FACE('',(#74),#212,.F.);
#230=ADVANCED_FACE('',(#75,#55),#59,.T.);
#231=ADVANCED_FACE('',(#76),#213,.T.);
#232=ADVANCED_FACE('',(#77),#214,.F.);
#233=ADVANCED_FACE('',(#78,#56),#60,.T.);
#234=ADVANCED_FACE('',(#79),#215,.T.);
#235=ADVANCED_FACE('',(#80),#216,.F.);
#236=ADVANCED_FACE('',(#81,#57),#61,.T.);
#237=CLOSED_SHELL('',(#217,#218,#219));
#238=CLOSED_SHELL('',(#220,#221,#222,#223,#224,#225,#226,#227));
#239=CLOSED_SHELL('',(#228,#229,#230));
#240=CLOSED_SHELL('',(#231,#232,#233));
#241=CLOSED_SHELL('',(#234,#235,#236));
#242=AXIS2_PLACEMENT_3D('placement',#347,#273,#274);
#243=AXIS2_PLACEMENT_3D('',#348,#275,#276);
#244=AXIS2_PLACEMENT_3D('',#350,#277,#278);
#245=AXIS2_PLACEMENT_3D('',#351,#279,#280);
#246=AXIS2_PLACEMENT_3D('',#353,#281,#282);
#247=AXIS2_PLACEMENT_3D('',#354,#283,#284);
#248=AXIS2_PLACEMENT_3D('',#355,#285,#286);
#249=AXIS2_PLACEMENT_3D('',#357,#287,#288);
#250=AXIS2_PLACEMENT_3D('',#359,#289,#290);
#251=AXIS2_PLACEMENT_3D('',#360,#291,#292);
#252=AXIS2_PLACEMENT_3D('',#361,#293,#294);
#253=AXIS2_PLACEMENT_3D('',#370,#299,#300);
#254=AXIS2_PLACEMENT_3D('',#376,#304,#305);
#255=AXIS2_PLACEMENT_3D('',#382,#309,#310);
#256=AXIS2_PLACEMENT_3D('',#385,#313,#314);
#257=AXIS2_PLACEMENT_3D('',#386,#315,#316);
#258=AXIS2_PLACEMENT_3D('',#387,#317,#318);
#259=AXIS2_PLACEMENT_3D('',#389,#319,#320);
#260=AXIS2_PLACEMENT_3D('',#390,#321,#322);
#261=AXIS2_PLACEMENT_3D('',#392,#323,#324);
#262=AXIS2_PLACEMENT_3D('',#393,#325,#326);
#263=AXIS2_PLACEMENT_3D('',#394,#327,#328);
#264=AXIS2_PLACEMENT_3D('',#396,#329,#330);
#265=AXIS2_PLACEMENT_3D('',#397,#331,#332);
#266=AXIS2_PLACEMENT_3D('',#399,#333,#334);
#267=AXIS2_PLACEMENT_3D('',#400,#335,#336);
#268=AXIS2_PLACEMENT_3D('',#401,#337,#338);
#269=AXIS2_PLACEMENT_3D('',#403,#339,#340);
#270=AXIS2_PLACEMENT_3D('',#404,#341,#342);
#271=AXIS2_PLACEMENT_3D('',#406,#343,#344);
#272=AXIS2_PLACEMENT_3D('',#407,#345,#346);
#273=DIRECTION('axis',(0.,0.,1.));
#274=DIRECTION('refdir',(1.,0.,0.));
#275=DIRECTION('center_axis',(0.,0.,1.));
#276=DIRECTION('ref_axis',(1.,0.,0.));
#277=DIRECTION('center_axis',(0.,0.,-1.));
#278=DIRECTION('ref_axis',(0.,-1.,0.));
#279=DIRECTION('center_axis',(0.,0.,1.));
#280=DIRECTION('ref_axis',(1.,0.,0.));
#281=DIRECTION('center_axis',(0.,0.,1.));
#282=DIRECTION('ref_axis',(0.,1.,0.));
#283=DIRECTION('center_axis',(0.,0.,1.));
#284=DIRECTION('ref_axis',(1.,0.,0.));
#285=DIRECTION('center_axis',(0.,-1.22464679914735E-16,-1.));
#286=DIRECTION('ref_axis',(1.,0.,0.));
#287=DIRECTION('center_axis',(0.,0.,-1.));
#288=DIRECTION('ref_axis',(1.,0.,0.));
#289=DIRECTION('center_axis',(0.,-1.22464679914735E-16,-1.));
#290=DIRECTION('ref_axis',(1.,0.,0.));
#291=DIRECTION('center_axis',(0.,-1.22464679914735E-16,-1.));
#292=DIRECTION('ref_axis',(1.,0.,0.));
#293=DIRECTION('center_axis',(1.,0.,0.));
#294=DIRECTION('ref_axis',(0.,1.,0.));
#295=DIRECTION('',(0.,-1.,0.));
#296=DIRECTION('',(0.,0.,1.));
#297=DIRECTION('',(0.,1.,0.));
#298=DIRECTION('',(0.,0.,1.));
#299=DIRECTION('center_axis',(0.,-1.,0.));
#300=DIRECTION('ref_axis',(1.,0.,0.));
#301=DIRECTION('',(-1.,0.,0.));
#302=DIRECTION('',(1.,0.,0.));
#303=DIRECTION('',(0.,0.,1.));
#304=DIRECTION('center_axis',(-1.,0.,0.));
#305=DIRECTION('ref_axis',(0.,-1.,0.));
#306=DIRECTION('',(0.,1.,0.));
#307=DIRECTION('',(0.,-1.,0.));
#308=DIRECTION('',(0.,0.,1.));
#309=DIRECTION('center_axis',(0.,1.,0.));
#310=DIRECTION('ref_axis',(-1.,0.,0.));
#311=DIRECTION('',(1.,0.,0.));
#312=DIRECTION('',(-1.,0.,0.));
#313=DIRECTION('center_axis',(0.,0.,1.));
#314=DIRECTION('ref_axis',(1.,0.,0.));
#315=DIRECTION('center_axis',(0.,0.,1.));
#316=DIRECTION('ref_axis',(1.,0.,0.));
#317=DIRECTION('center_axis',(0.,0.,1.));
#318=DIRECTION('ref_axis',(1.,0.,0.));
#319=DIRECTION('center_axis',(0.,0.,-1.));
#320=DIRECTION('ref_axis',(0.,-1.,0.));
#321=DIRECTION('center_axis',(0.,0.,1.));
#322=DIRECTION('ref_axis',(1.,0.,0.));
#323=DIRECTION('center_axis',(0.,0.,1.));
#324=DIRECTION('ref_axis',(0.,1.,0.));
#325=DIRECTION('center_axis',(0.,0.,1.));
#326=DIRECTION('ref_axis',(1.,0.,0.));
#327=DIRECTION('center_axis',(0.,0.,1.));
#328=DIRECTION('ref_axis',(1.,0.,0.));
#329=DIRECTION('center_axis',(0.,0.,-1.));
#330=DIRECTION('ref_axis',(0.,-1.,0.));
#331=DIRECTION('center_axis',(0.,0.,1.));
#332=DIRECTION('ref_axis',(1.,0.,0.));
#333=DIRECTION('center_axis',(0.,0.,1.));
#334=DIRECTION('ref_axis',(0.,1.,0.));
#335=DIRECTION('center_axis',(0.,0.,1.));
#336=DIRECTION('ref_axis',(1.,0.,0.));
#337=DIRECTION('center_axis',(0.,0.,1.));
#338=DIRECTION('ref_axis',(1.,0.,0.));
#339=DIRECTION('center_axis',(0.,0.,-1.));
#340=DIRECTION('ref_axis',(0.,-1.,0.));
#341=DIRECTION('center_axis',(0.,0.,1.));
#342=DIRECTION('ref_axis',(1.,0.,0.));
#343=DIRECTION('center_axis',(0.,0.,1.));
#344=DIRECTION('ref_axis',(0.,1.,0.));
#345=DIRECTION('center_axis',(0.,0.,1.));
#346=DIRECTION('ref_axis',(1.,0.,0.));
#347=CARTESIAN_POINT('',(0.,0.,0.));
#348=CARTESIAN_POINT('Origin',(0.2,0.2,0.165));
#349=CARTESIAN_POINT('',(0.2,0.287142125289667,0.165));
#350=CARTESIAN_POINT('Origin',(0.2,0.2,0.165));
#351=CARTESIAN_POINT('Origin',(0.2,0.2,0.));
#352=CARTESIAN_POINT('',(0.2,0.112857874710333,0.));
#353=CARTESIAN_POINT('Origin',(0.2,0.2,0.));
#354=CARTESIAN_POINT('Origin',(0.2,0.2,0.0825));
#355=CARTESIAN_POINT('Origin',(-0.257,0.257,0.65));
#356=CARTESIAN_POINT('',(-0.107,0.257,0.675));
#357=CARTESIAN_POINT('Origin',(-0.257,0.257,0.675));
#358=CARTESIAN_POINT('',(-0.107,0.257,0.645));
#359=CARTESIAN_POINT('Origin',(-0.257,0.257,0.645));
#360=CARTESIAN_POINT('Origin',(-0.257,0.257,0.645));
#361=CARTESIAN_POINT('Origin',(0.457,-0.457,0.165));
#362=CARTESIAN_POINT('',(0.457,0.457,0.165));
#363=CARTESIAN_POINT('',(0.457,-0.457,0.165));
#364=CARTESIAN_POINT('',(0.457,0.457,0.165));
#365=CARTESIAN_POINT('',(0.457,0.457,0.675));
#366=CARTESIAN_POINT('',(0.457,0.457,0.165));
#367=CARTESIAN_POINT('',(0.457,-0.457,0.675));
#368=CARTESIAN_POINT('',(0.457,0.457,0.675));
#369=CARTESIAN_POINT('',(0.457,-0.457,0.165));
#370=CARTESIAN_POINT('Origin',(-0.457,-0.457,0.165));
#371=CARTESIAN_POINT('',(-0.457,-0.457,0.165));
#372=CARTESIAN_POINT('',(0.457,-0.457,0.165));
#373=CARTESIAN_POINT('',(-0.457,-0.457,0.675));
#374=CARTESIAN_POINT('',(0.457,-0.457,0.675));
#375=CARTESIAN_POINT('',(-0.457,-0.457,0.165));
#376=CARTESIAN_POINT('Origin',(-0.457,0.457,0.165));
#377=CARTESIAN_POINT('',(-0.457,0.457,0.165));
#378=CARTESIAN_POINT('',(-0.457,-0.457,0.165));
#379=CARTESIAN_POINT('',(-0.457,0.457,0.675));
#380=CARTESIAN_POINT('',(-0.457,-0.457,0.675));
#381=CARTESIAN_POINT('',(-0.457,0.457,0.165));
#382=CARTESIAN_POINT('Origin',(0.457,0.457,0.165));
#383=CARTESIAN_POINT('',(-0.457,0.457,0.165));
#384=CARTESIAN_POINT('',(-0.457,0.457,0.675));
#385=CARTESIAN_POINT('Origin',(0.,2.14938691693021E-16,0.165));
#386=CARTESIAN_POINT('Origin',(0.,2.22044604925031E-16,0.675));
#387=CARTESIAN_POINT('Origin',(-0.2,0.2,0.165));
#388=CARTESIAN_POINT('',(-0.2,0.287142125289667,0.165));
#389=CARTESIAN_POINT('Origin',(-0.2,0.2,0.165));
#390=CARTESIAN_POINT('Origin',(-0.2,0.2,0.));
#391=CARTESIAN_POINT('',(-0.2,0.112857874710333,0.));
#392=CARTESIAN_POINT('Origin',(-0.2,0.2,0.));
#393=CARTESIAN_POINT('Origin',(-0.2,0.2,0.0825));
#394=CARTESIAN_POINT('Origin',(0.2,-0.2,0.165));
#395=CARTESIAN_POINT('',(0.2,-0.112857874710333,0.165));
#396=CARTESIAN_POINT('Origin',(0.2,-0.2,0.165));
#397=CARTESIAN_POINT('Origin',(0.2,-0.2,0.));
#398=CARTESIAN_POINT('',(0.2,-0.287142125289667,0.));
#399=CARTESIAN_POINT('Origin',(0.2,-0.2,0.));
#400=CARTESIAN_POINT('Origin',(0.2,-0.2,0.0825));
#401=CARTESIAN_POINT('Origin',(-0.2,-0.2,0.165));
#402=CARTESIAN_POINT('',(-0.2,-0.112857874710333,0.165));
#403=CARTESIAN_POINT('Origin',(-0.2,-0.2,0.165));
#404=CARTESIAN_POINT('Origin',(-0.2,-0.2,0.));
#405=CARTESIAN_POINT('',(-0.2,-0.287142125289667,0.));
#406=CARTESIAN_POINT('Origin',(-0.2,-0.2,0.));
#407=CARTESIAN_POINT('Origin',(-0.2,-0.2,0.0825));
#408=UNCERTAINTY_MEASURE_WITH_UNIT(LENGTH_MEASURE(0.01),#412,
'DISTANCE_ACCURACY_VALUE',
'Maximum model space distance between geometric entities at asserted c
onnectivities');
#409=UNCERTAINTY_MEASURE_WITH_UNIT(LENGTH_MEASURE(1.E-6),#412,
'DISTANCE_ACCURACY_VALUE',
'Maximum model space distance between geometric entities at asserted c
onnectivities');
#410=(
GEOMETRIC_REPRESENTATION_CONTEXT(3)
GLOBAL_UNCERTAINTY_ASSIGNED_CONTEXT((#408))
GLOBAL_UNIT_ASSIGNED_CONTEXT((#412,#414,#413))
REPRESENTATION_CONTEXT('','3D')
);
#411=(
GEOMETRIC_REPRESENTATION_CONTEXT(3)
GLOBAL_UNCERTAINTY_ASSIGNED_CONTEXT((#409))
GLOBAL_UNIT_ASSIGNED_CONTEXT((#412,#12,#413))
REPRESENTATION_CONTEXT('','3D')
);
#412=(
LENGTH_UNIT()
NAMED_UNIT(*)
SI_UNIT(.MILLI.,.METRE.)
);
#413=(
NAMED_UNIT(*)
SI_UNIT($,.STERADIAN.)
SOLID_ANGLE_UNIT()
);
#414=(
NAMED_UNIT(*)
PLANE_ANGLE_UNIT()
SI_UNIT($,.RADIAN.)
);
#415=SHAPE_DEFINITION_REPRESENTATION(#416,#417);
#416=PRODUCT_DEFINITION_SHAPE('',$,#419);
#417=SHAPE_REPRESENTATION('',(#242),#410);
#418=PRODUCT_DEFINITION_CONTEXT('part definition',#423,'design');
#419=PRODUCT_DEFINITION('Product','Product',#420,#418);
#420=PRODUCT_DEFINITION_FORMATION('',$,#425);
#421=PRODUCT_RELATED_PRODUCT_CATEGORY('Product','Product',(#425));
#422=APPLICATION_PROTOCOL_DEFINITION('international standard',
'automotive_design',2009,#423);
#423=APPLICATION_CONTEXT(
'Core Data for Automotive Mechanical Design Process');
#424=PRODUCT_CONTEXT('part definition',#423,'mechanical');
#425=PRODUCT('Product','Product',$,(#424));
#426=PRESENTATION_STYLE_ASSIGNMENT((#429));
#427=PRESENTATION_STYLE_ASSIGNMENT((#430));
#428=PRESENTATION_STYLE_ASSIGNMENT((#431));
#429=SURFACE_STYLE_USAGE(.BOTH.,#432);
#430=SURFACE_STYLE_USAGE(.BOTH.,#433);
#431=SURFACE_STYLE_USAGE(.BOTH.,#434);
#432=SURFACE_SIDE_STYLE('',(#435));
#433=SURFACE_SIDE_STYLE('',(#436));
#434=SURFACE_SIDE_STYLE('',(#437));
#435=SURFACE_STYLE_FILL_AREA(#438);
#436=SURFACE_STYLE_FILL_AREA(#439);
#437=SURFACE_STYLE_FILL_AREA(#440);
#438=FILL_AREA_STYLE('',(#441));
#439=FILL_AREA_STYLE('',(#442));
#440=FILL_AREA_STYLE('',(#443));
#441=FILL_AREA_STYLE_COLOUR('',#444);
#442=FILL_AREA_STYLE_COLOUR('',#445);
#443=FILL_AREA_STYLE_COLOUR('',#446);
#444=COLOUR_RGB('',1.,1.,1.);
#445=COLOUR_RGB('',0.866666666666667,0.866666666666667,0.866666666666667);
#446=COLOUR_RGB('',0.329411764705882,0.329411764705882,0.329411764705882);
ENDSEC;
END-ISO-10303-21;
