ISO-10303-21;
HEADER;
/****************************************************************
 * Generated by software with PDElib inside                    *
 * PDElib Version v51a, created Fri 09/10/2010                  *
 * ITI Transcendata (http://www.transcendata.com/)              *
 ****************************************************************/
FILE_DESCRIPTION((''),'2;1');
FILE_NAME('BOSSARD_BN5687-3061600_h.stp','2012-10-23T10:16:43',(''),(''),'Mechanical Desktop 2011','Mechanical Desktop 2011',', , ');
FILE_SCHEMA(('AUTOMOTIVE_DESIGN { 1 2 10303 214 1 1 1 1 }'));
ENDSEC;
DATA;
#10=(NAMED_UNIT(*)PLANE_ANGLE_UNIT()SI_UNIT($,.RADIAN.));
#11=DIMENSIONAL_EXPONENTS(0.0,0.0,0.0,0.0,0.0,0.0,0.0);
#12=PLANE_ANGLE_MEASURE_WITH_UNIT(PLANE_ANGLE_MEASURE(0.0174532925),#10);
#16=(CONVERSION_BASED_UNIT('DEGREE',#12)NAMED_UNIT(#11)PLANE_ANGLE_UNIT());
#20=(NAMED_UNIT(*)SI_UNIT($,.STERADIAN.)SOLID_ANGLE_UNIT());
#24=(LENGTH_UNIT()NAMED_UNIT(*)SI_UNIT(.MILLI.,.METRE.));
#26=UNCERTAINTY_MEASURE_WITH_UNIT(LENGTH_MEASURE(0.000001),#24,'DISTANCE_ACCURACY_VALUE','');
#28=(GEOMETRIC_REPRESENTATION_CONTEXT(3)GLOBAL_UNCERTAINTY_ASSIGNED_CONTEXT((#26))GLOBAL_UNIT_ASSIGNED_CONTEXT((#16,#20,#24))REPRESENTATION_CONTEXT('','3D'));
#29=APPLICATION_CONTEXT('automotive design');
#30=APPLICATION_PROTOCOL_DEFINITION('INTERNATIONAL_STANDARD','automotive_design',1998,#29);
#31=PRODUCT_CONTEXT('3D Mechanical Parts',#29,'mechanical');
#32=PRODUCT('Product','Product','',(#31));
#33=PRODUCT_RELATED_PRODUCT_CATEGORY('part',$,(#32));
#34=PRODUCT_CATEGORY('part',$);
#35=PERSON('1','Design','Joe',$,$,$);
#36=ORGANIZATION($,'None','None');
#37=PERSON_AND_ORGANIZATION(#35,#36);
#38=PERSON_AND_ORGANIZATION_ROLE('design_owner');
#39=APPLIED_PERSON_AND_ORGANIZATION_ASSIGNMENT(#37,#38,(#32));
#40=PRODUCT_DEFINITION_FORMATION_WITH_SPECIFIED_SOURCE('None','',#32,.BOUGHT.);
#41=PERSON('2','Creator','Joe',$,$,$);
#42=ORGANIZATION($,'None','None');
#43=PERSON_AND_ORGANIZATION(#41,#42);
#44=PERSON_AND_ORGANIZATION_ROLE('creator');
#45=APPLIED_PERSON_AND_ORGANIZATION_ASSIGNMENT(#43,#44,(#40));
#46=PERSON('3','Supplier','Joe',$,$,$);
#47=ORGANIZATION($,'None','None');
#48=PERSON_AND_ORGANIZATION(#46,#47);
#49=PERSON_AND_ORGANIZATION_ROLE('design_supplier');
#50=APPLIED_PERSON_AND_ORGANIZATION_ASSIGNMENT(#48,#49,(#40));
#51=PRODUCT_DEFINITION_CONTEXT('part definition',#29,'design');
#52=PRODUCT_DEFINITION('None','',#40,#51);
#53=PERSON('4','Creator','Joe',$,$,$);
#54=ORGANIZATION($,'None','None');
#55=PERSON_AND_ORGANIZATION(#53,#54);
#56=PERSON_AND_ORGANIZATION_ROLE('creator');
#57=APPLIED_PERSON_AND_ORGANIZATION_ASSIGNMENT(#55,#56,(#52));
#58=CARTESIAN_POINT('NONE',(0.0,0.0,0.0));
#59=DIRECTION('NONE',(0.0,0.0,1.0));
#60=DIRECTION('NONE',(1.0,0.0,0.0));
#61=AXIS2_PLACEMENT_3D('NONE',#58,#59,#60);
#62=SHAPE_REPRESENTATION('SR1',(#61),#28);
#63=PRODUCT_DEFINITION_SHAPE('PDS1','Test Part',#52);
#64=SHAPE_DEFINITION_REPRESENTATION(#63,#62);
#65=CARTESIAN_POINT('',(-8.362,7.059270E-016,-8.144496E-016));
#66=DIRECTION('',(1.0,1.224586E-016,2.832769E-016));
#67=DIRECTION('',(0.0,0.0,1.0));
#68=AXIS2_PLACEMENT_3D('',#65,#66,#67);
#69=CYLINDRICAL_SURFACE('',#68,1.25);
#70=CARTESIAN_POINT('',(0.0,1.701330E-015,1.250000000000002));
#71=VERTEX_POINT('',#70);
#72=CARTESIAN_POINT('',(-9.724,5.105425E-016,1.249999999999999));
#73=VERTEX_POINT('',#72);
#74=CARTESIAN_POINT('',(0.0,1.701330E-015,1.250000000000002));
#75=DIRECTION('',(-1.0,0.0,0.0));
#76=VECTOR('',#75,9.723999999999998);
#77=LINE('',#74,#76);
#78=EDGE_CURVE('',#71,#73,#77,.T.);
#79=ORIENTED_EDGE('',*,*,#78,.F.);
#80=CARTESIAN_POINT('',(3.540962E-016,1.911598E-015,-1.249999999999998));
#81=VERTEX_POINT('',#80);
#82=CARTESIAN_POINT('',(1.075323E-032,1.729926E-015,1.554312E-015));
#83=DIRECTION('',(1.0,0.0,0.0));
#84=DIRECTION('',(0.0,0.0,1.0));
#85=AXIS2_PLACEMENT_3D('',#82,#83,#84);
#86=CIRCLE('',#85,1.25);
#87=EDGE_CURVE('',#81,#71,#86,.T.);
#88=ORIENTED_EDGE('',*,*,#87,.F.);
#89=CARTESIAN_POINT('',(-9.723999999999998,7.208150E-016,-1.250000000000002));
#90=VERTEX_POINT('',#89);
#91=CARTESIAN_POINT('',(0.0,1.911603E-015,-1.249999999999998));
#92=DIRECTION('',(-1.0,0.0,0.0));
#93=VECTOR('',#92,9.723999999999998);
#94=LINE('',#91,#93);
#95=EDGE_CURVE('',#81,#90,#94,.T.);
#96=ORIENTED_EDGE('',*,*,#95,.T.);
#97=CARTESIAN_POINT('',(-9.723999999999998,5.391383E-016,-1.200273E-015));
#98=DIRECTION('',(1.0,0.0,0.0));
#99=DIRECTION('',(0.0,0.0,1.0));
#100=AXIS2_PLACEMENT_3D('',#97,#98,#99);
#101=CIRCLE('',#100,1.25);
#102=EDGE_CURVE('',#90,#73,#101,.T.);
#103=ORIENTED_EDGE('',*,*,#102,.T.);
#104=EDGE_LOOP('',(#79,#88,#96,#103));
#105=FACE_OUTER_BOUND('',#104,.T.);
#106=ADVANCED_FACE('',(#105),#69,.T.);
#107=CARTESIAN_POINT('',(-9.861999999999998,5.222390E-016,-1.239365E-015));
#108=DIRECTION('',(1.0,1.224586E-016,2.832769E-016));
#109=DIRECTION('',(0.0,0.0,1.0));
#110=AXIS2_PLACEMENT_3D('',#107,#108,#109);
#111=CONICAL_SURFACE('',#110,1.112,45.000000000000028);
#112=CARTESIAN_POINT('',(-9.999999999999998,4.830579E-016,0.973999999999999));
#113=VERTEX_POINT('',#112);
#114=CARTESIAN_POINT('',(-9.724,5.105425E-016,1.249999999999998));
#115=DIRECTION('',(-0.707106781186546,-7.041507E-017,-0.707106781186549));
#116=VECTOR('',#115,0.390322943214972);
#117=LINE('',#114,#116);
#118=EDGE_CURVE('',#73,#113,#117,.T.);
#119=ORIENTED_EDGE('',*,*,#118,.F.);
#120=ORIENTED_EDGE('',*,*,#102,.F.);
#121=CARTESIAN_POINT('',(-9.999999999999998,6.469022E-016,-0.974000000000001));
#122=VERTEX_POINT('',#121);
#123=CARTESIAN_POINT('',(-9.723999999999998,7.208150E-016,-1.250000000000001));
#124=DIRECTION('',(-0.707106781186547,-1.893632E-016,0.707106781186548));
#125=VECTOR('',#124,0.390322943214974);
#126=LINE('',#123,#125);
#127=EDGE_CURVE('',#90,#122,#126,.T.);
#128=ORIENTED_EDGE('',*,*,#127,.T.);
#129=CARTESIAN_POINT('',(-9.999999999999998,5.053398E-016,-1.278457E-015));
#130=DIRECTION('',(1.0,0.0,0.0));
#131=DIRECTION('',(0.0,0.0,1.0));
#132=AXIS2_PLACEMENT_3D('',#129,#130,#131);
#133=CIRCLE('',#132,0.974);
#134=EDGE_CURVE('',#122,#113,#133,.T.);
#135=ORIENTED_EDGE('',*,*,#134,.T.);
#136=EDGE_LOOP('',(#119,#120,#128,#135));
#137=FACE_OUTER_BOUND('',#136,.T.);
#138=ADVANCED_FACE('',(#137),#111,.T.);
#139=CARTESIAN_POINT('',(2.048151831264575,6.949030E-016,5.801942E-016));
#140=DIRECTION('',(1.0,1.224586E-016,2.832769E-016));
#141=DIRECTION('',(0.0,0.0,1.0));
#142=AXIS2_PLACEMENT_3D('',#139,#140,#141);
#143=CONICAL_SURFACE('',#142,1.0565,74.999999999999147);
#144=CARTESIAN_POINT('',(2.1,6.726565E-016,1.250000000000001));
#145=VERTEX_POINT('',#144);
#146=CARTESIAN_POINT('',(2.086602540378443,7.142495E-016,1.200000000000001));
#147=VERTEX_POINT('',#146);
#148=CARTESIAN_POINT('',(2.1,6.726565E-016,1.250000000000001));
#149=DIRECTION('',(-0.25881904510254,-9.597459E-018,-0.965925826289063));
#150=VECTOR('',#149,0.051763809020504);
#151=LINE('',#148,#150);
#152=EDGE_CURVE('',#145,#147,#151,.T.);
#153=ORIENTED_EDGE('',*,*,#152,.F.);
#154=CARTESIAN_POINT('',(2.100000000000001,-1.249999999999999,-3.793678E-016));
#155=VERTEX_POINT('',#154);
#156=CARTESIAN_POINT('',(2.100000000000001,7.012523E-016,5.948816E-016));
#157=DIRECTION('',(1.0,0.0,0.0));
#158=DIRECTION('',(0.0,0.0,1.0));
#159=AXIS2_PLACEMENT_3D('',#156,#157,#158);
#160=CIRCLE('',#159,1.25);
#161=EDGE_CURVE('',#145,#155,#160,.T.);
#162=ORIENTED_EDGE('',*,*,#161,.T.);
#163=CARTESIAN_POINT('',(2.100000000000001,8.829290E-016,-1.249999999999999));
#164=VERTEX_POINT('',#163);
#165=CARTESIAN_POINT('',(2.100000000000001,7.012523E-016,5.948816E-016));
#166=DIRECTION('',(1.0,0.0,0.0));
#167=DIRECTION('',(0.0,0.0,1.0));
#168=AXIS2_PLACEMENT_3D('',#165,#166,#167);
#169=CIRCLE('',#168,1.25);
#170=EDGE_CURVE('',#155,#164,#169,.T.);
#171=ORIENTED_EDGE('',*,*,#170,.T.);
#172=CARTESIAN_POINT('',(2.086602540378444,1.002530E-015,-1.199999999999999));
#173=VERTEX_POINT('',#172);
#174=CARTESIAN_POINT('',(2.100000000000001,8.829290E-016,-1.249999999999999));
#175=DIRECTION('',(-0.258819045102539,-1.720836E-016,0.965925826289064));
#176=VECTOR('',#175,0.051763809020504);
#177=LINE('',#174,#176);
#178=EDGE_CURVE('',#164,#173,#177,.T.);
#179=ORIENTED_EDGE('',*,*,#178,.T.);
#180=CARTESIAN_POINT('',(2.044236960413534,-0.23352262623513,-1.015382154492645));
#181=VERTEX_POINT('',#180);
#182=CARTESIAN_POINT('',(2.086602540378444,1.131040E-015,-1.199999999999999));
#183=CARTESIAN_POINT('',(2.086602540378444,-0.035501861071346,-1.199999999999999));
#184=CARTESIAN_POINT('',(2.084830829705541,-0.072811557142151,-1.191665448037849));
#185=CARTESIAN_POINT('',(2.077701453945957,-0.139233412326175,-1.158958437647994));
#186=CARTESIAN_POINT('',(2.072325920276814,-0.168344151737993,-1.13458699347442));
#187=CARTESIAN_POINT('',(2.05999053098461,-0.210062584000462,-1.080728729013611));
#188=CARTESIAN_POINT('',(2.05251614431257,-0.225569710387767,-1.048916165798574));
#189=CARTESIAN_POINT('',(2.044236960413534,-0.23352262623513,-1.015382154492645));
#190=B_SPLINE_CURVE_WITH_KNOTS('',3,(#182,#183,#184,#185,#186,#187,#188,#189),.UNSPECIFIED.,.F.,.U.,(4,2,2,4),(0.43027951634477,0.536785099558812,0.643290682772854,0.74448613140851),.UNSPECIFIED.);
#191=EDGE_CURVE('',#173,#181,#190,.T.);
#192=ORIENTED_EDGE('',*,*,#191,.T.);
#193=CARTESIAN_POINT('',(2.044236961453669,-0.762585431370547,-0.709927605165601));
#194=VERTEX_POINT('',#193);
#195=CARTESIAN_POINT('',(2.044236960413534,-0.23352262623513,-1.015382154492645));
#196=CARTESIAN_POINT('',(2.037236984544333,-0.240246743842257,-0.987029448494157));
#197=CARTESIAN_POINT('',(2.030758085697202,-0.249908468908358,-0.959743975168564));
#198=CARTESIAN_POINT('',(2.016990840616348,-0.278515608575266,-0.898387832658256));
#199=CARTESIAN_POINT('',(2.009460567885408,-0.302560291230223,-0.861361084635526));
#200=CARTESIAN_POINT('',(1.999263057931921,-0.361623623924213,-0.796704145767237));
#201=CARTESIAN_POINT('',(1.996671946301311,-0.39666249795632,-0.769080447133083));
#202=CARTESIAN_POINT('',(1.996671946301311,-0.467711955792984,-0.728060023525308));
#203=CARTESIAN_POINT('',(1.999263057931921,-0.509154217572701,-0.711527317810578));
#204=CARTESIAN_POINT('',(2.009460567885408,-0.594680435510571,-0.692705440699555));
#205=CARTESIAN_POINT('',(2.016990840616348,-0.638768881245259,-0.690395508705792));
#206=CARTESIAN_POINT('',(2.030758085974212,-0.706208430527802,-0.696299070398579));
#207=CARTESIAN_POINT('',(2.03723698518717,-0.734669207575516,-0.70157450812042));
#208=CARTESIAN_POINT('',(2.044236961453669,-0.762585431370547,-0.709927605165601));
#209=B_SPLINE_CURVE_WITH_KNOTS('',3,(#195,#196,#197,#198,#199,#200,#201,#202,#203,#204,#205,#206,#207,#208),.UNSPECIFIED.,.F.,.U.,(4,2,2,2,2,2,4),(0.173634586803818,0.2578227678665,0.380884038689826,0.503945309513152,0.627006580336477,0.750067851159803,0.834256036392531),.UNSPECIFIED.);
#210=EDGE_CURVE('',#181,#194,#209,.T.);
#211=ORIENTED_EDGE('',*,*,#210,.T.);
#212=CARTESIAN_POINT('',(2.044236958623712,-0.996108048038968,-0.305454545454545));
#213=VERTEX_POINT('',#212);
#214=CARTESIAN_POINT('',(2.044236961453669,-0.762585431370547,-0.709927605165601));
#215=CARTESIAN_POINT('',(2.052516144941154,-0.795603193777198,-0.719807182652894));
#216=CARTESIAN_POINT('',(2.059990531236289,-0.830907243302463,-0.7222838984481));
#217=CARTESIAN_POINT('',(2.072325920276814,-0.898409083283259,-0.713083808720855));
#218=CARTESIAN_POINT('',(2.077701453945956,-0.934070742770398,-0.700058890954059));
#219=CARTESIAN_POINT('',(2.084830829705541,-0.995606772241866,-0.658889382193131));
#220=CARTESIAN_POINT('',(2.086602540378444,-1.021479554005652,-0.630745513569413));
#221=CARTESIAN_POINT('',(2.086602540378444,-1.056981415077,-0.569254486430587));
#222=CARTESIAN_POINT('',(2.084830829705541,-1.068418329384019,-0.532776065844718));
#223=CARTESIAN_POINT('',(2.077701453945956,-1.073304155096575,-0.458899546693935));
#224=CARTESIAN_POINT('',(2.072325920276814,-1.066753235021253,-0.421503184753564));
#225=CARTESIAN_POINT('',(2.059990530551532,-1.040969825020468,-0.35844482816391));
#226=CARTESIAN_POINT('',(2.052516143230926,-1.021172898330093,-0.3291089791849));
#227=CARTESIAN_POINT('',(2.044236958623712,-0.996108048038968,-0.305454545454545));
#228=B_SPLINE_CURVE_WITH_KNOTS('',3,(#214,#215,#216,#217,#218,#219,#220,#221,#222,#223,#224,#225,#226,#227),.UNSPECIFIED.,.F.,.U.,(4,2,2,2,2,2,4),(0.116072905518752,0.217268349916687,0.323773933130729,0.430279516344771,0.536785099558813,0.643290682772856,0.744486138700609),.UNSPECIFIED.);
#229=EDGE_CURVE('',#194,#213,#228,.T.);
#230=ORIENTED_EDGE('',*,*,#229,.T.);
#231=CARTESIAN_POINT('',(2.044236958623712,-0.996108048038967,0.305454545454546));
#232=VERTEX_POINT('',#231);
#233=CARTESIAN_POINT('',(2.044236958623712,-0.996108048038968,-0.305454545454545));
#234=CARTESIAN_POINT('',(2.037236983438058,-0.974915945387082,-0.28545493715992));
#235=CARTESIAN_POINT('',(2.03075808522062,-0.95611689673495,-0.263444902969159));
#236=CARTESIAN_POINT('',(2.016990840616348,-0.917284489820526,-0.207992323952464));
#237=CARTESIAN_POINT('',(2.009460567885409,-0.897240726740795,-0.168655643935971));
#238=CARTESIAN_POINT('',(1.999263057931922,-0.870777841496915,-0.085176827956659));
#239=CARTESIAN_POINT('',(1.996671946301311,-0.864374453749305,-0.041020423607775));
#240=CARTESIAN_POINT('',(1.996671946301311,-0.864374453749305,0.041020423607776));
#241=CARTESIAN_POINT('',(1.999263057931922,-0.870777841496915,0.085176827956661));
#242=CARTESIAN_POINT('',(2.009460567885409,-0.897240726740795,0.168655643935973));
#243=CARTESIAN_POINT('',(2.016990840616349,-0.917284489820526,0.207992323952466));
#244=CARTESIAN_POINT('',(2.030758085220669,-0.956116896735087,0.263444902969356));
#245=CARTESIAN_POINT('',(2.037236983437996,-0.974915945386892,0.285454937159742));
#246=CARTESIAN_POINT('',(2.044236958623712,-0.996108048038967,0.305454545454546));
#247=B_SPLINE_CURVE_WITH_KNOTS('',3,(#233,#234,#235,#236,#237,#238,#239,#240,#241,#242,#243,#244,#245,#246),.UNSPECIFIED.,.F.,.U.,(4,2,2,2,2,2,4),(0.173634593978204,0.257822767866501,0.380884038689827,0.503945309513153,0.627006580336479,0.750067851159805,0.834256025048833),.UNSPECIFIED.);
#248=EDGE_CURVE('',#213,#232,#247,.T.);
#249=ORIENTED_EDGE('',*,*,#248,.T.);
#250=CARTESIAN_POINT('',(2.044236960413534,-0.76258542722244,0.709927603924406));
#251=VERTEX_POINT('',#250);
#252=CARTESIAN_POINT('',(2.044236958623712,-0.996108048038967,0.305454545454546));
#253=CARTESIAN_POINT('',(2.052516143230926,-1.021172898330092,0.329108979184901));
#254=CARTESIAN_POINT('',(2.059990530551531,-1.040969825020467,0.358444828163911));
#255=CARTESIAN_POINT('',(2.072325920276814,-1.066753235021253,0.421503184753566));
#256=CARTESIAN_POINT('',(2.077701453945956,-1.073304155096574,0.458899546693936));
#257=CARTESIAN_POINT('',(2.084830829705541,-1.068418329384018,0.532776065844719));
#258=CARTESIAN_POINT('',(2.086602540378443,-1.056981415076999,0.569254486430588));
#259=CARTESIAN_POINT('',(2.086602540378443,-1.021479554005652,0.630745513569413));
#260=CARTESIAN_POINT('',(2.084830829705541,-0.995606772241866,0.658889382193132));
#261=CARTESIAN_POINT('',(2.077701453945956,-0.934070742770398,0.70005889095406));
#262=CARTESIAN_POINT('',(2.072325920276814,-0.898409083283259,0.713083808720856));
#263=CARTESIAN_POINT('',(2.05999053098461,-0.830907241925224,0.72228389863581));
#264=CARTESIAN_POINT('',(2.052516144312569,-0.79560319082785,0.719807182419394));
#265=CARTESIAN_POINT('',(2.044236960413534,-0.76258542722244,0.709927603924406));
#266=B_SPLINE_CURVE_WITH_KNOTS('',3,(#252,#253,#254,#255,#256,#257,#258,#259,#260,#261,#262,#263,#264,#265),.UNSPECIFIED.,.F.,.U.,(4,2,2,2,2,2,4),(0.116072893988932,0.217268349916686,0.323773933130728,0.43027951634477,0.536785099558812,0.643290682772854,0.74448613140851),.UNSPECIFIED.);
#267=EDGE_CURVE('',#232,#251,#266,.T.);
#268=ORIENTED_EDGE('',*,*,#267,.T.);
#269=CARTESIAN_POINT('',(2.044236958623711,-0.233522627954419,1.01538214724315));
#270=VERTEX_POINT('',#269);
#271=CARTESIAN_POINT('',(2.044236960413534,-0.76258542722244,0.709927603924406));
#272=CARTESIAN_POINT('',(2.037236984544333,-0.734669204758155,0.701574507590968));
#273=CARTESIAN_POINT('',(2.030758085697202,-0.706208429170858,0.696299070279796));
#274=CARTESIAN_POINT('',(2.016990840616349,-0.63876888124526,0.690395508705793));
#275=CARTESIAN_POINT('',(2.009460567885409,-0.594680435510572,0.692705440699556));
#276=CARTESIAN_POINT('',(1.999263057931922,-0.509154217572701,0.711527317810579));
#277=CARTESIAN_POINT('',(1.99667194630131,-0.467711955792985,0.728060023525309));
#278=CARTESIAN_POINT('',(1.99667194630131,-0.39666249795632,0.769080447133085));
#279=CARTESIAN_POINT('',(1.999263057931922,-0.361623623924214,0.796704145767239));
#280=CARTESIAN_POINT('',(2.009460567885409,-0.302560291230223,0.861361084635528));
#281=CARTESIAN_POINT('',(2.016990840616348,-0.278515608575266,0.898387832658257));
#282=CARTESIAN_POINT('',(2.030758085220668,-0.249908469898555,0.959743973044807));
#283=CARTESIAN_POINT('',(2.037236983437995,-0.24024674547742,0.987029443839442));
#284=CARTESIAN_POINT('',(2.044236958623711,-0.233522627954419,1.01538214724315));
#285=B_SPLINE_CURVE_WITH_KNOTS('',3,(#271,#272,#273,#274,#275,#276,#277,#278,#279,#280,#281,#282,#283,#284),.UNSPECIFIED.,.F.,.U.,(4,2,2,2,2,2,4),(0.173634586803819,0.2578227678665,0.380884038689826,0.503945309513152,0.627006580336477,0.750067851159803,0.834256025048832),.UNSPECIFIED.);
#286=EDGE_CURVE('',#251,#270,#285,.T.);
#287=ORIENTED_EDGE('',*,*,#286,.T.);
#288=CARTESIAN_POINT('',(2.044236958623711,-0.233522627954419,1.01538214724315));
#289=CARTESIAN_POINT('',(2.052516143230926,-0.225569712577358,1.048916161202495));
#290=CARTESIAN_POINT('',(2.059990530551531,-0.210062585465139,1.080728727122723));
#291=CARTESIAN_POINT('',(2.072325920276813,-0.168344151737993,1.134586993474421));
#292=CARTESIAN_POINT('',(2.077701453945956,-0.139233412326175,1.158958437647996));
#293=CARTESIAN_POINT('',(2.08483082970554,-0.072811557142151,1.191665448037851));
#294=CARTESIAN_POINT('',(2.086602540378443,-0.035501861071347,1.200000000000001));
#295=CARTESIAN_POINT('',(2.086602540378443,7.494005E-016,1.200000000000001));
#296=B_SPLINE_CURVE_WITH_KNOTS('',3,(#288,#289,#290,#291,#292,#293,#294,#295),.UNSPECIFIED.,.F.,.U.,(4,2,2,4),(0.116072893988932,0.217268349916686,0.323773933130728,0.43027951634477),.UNSPECIFIED.);
#297=EDGE_CURVE('',#270,#147,#296,.T.);
#298=ORIENTED_EDGE('',*,*,#297,.T.);
#299=EDGE_LOOP('',(#153,#162,#171,#179,#192,#211,#230,#249,#268,#287,#298));
#300=FACE_OUTER_BOUND('',#299,.T.);
#301=ADVANCED_FACE('',(#300),#143,.F.);
#302=CARTESIAN_POINT('',(-1.598214285714267,2.483741E-016,-4.527373E-016));
#303=DIRECTION('',(1.0,0.0,0.0));
#304=DIRECTION('',(0.0,1.0,0.0));
#305=AXIS2_PLACEMENT_3D('',#302,#303,#304);
#306=SPHERICAL_SURFACE('',#305,3.903753181626765);
#307=CARTESIAN_POINT('',(2.100000000000001,1.250000000000001,-2.262869E-016));
#308=VERTEX_POINT('',#307);
#309=CARTESIAN_POINT('',(1.483542352657225,2.396260612895504,-2.640341E-016));
#310=VERTEX_POINT('',#309);
#311=CARTESIAN_POINT('',(-1.598214285714267,2.483741E-016,-4.527373E-016));
#312=DIRECTION('',(0.0,0.0,1.0));
#313=DIRECTION('',(0.0,1.0,0.0));
#314=AXIS2_PLACEMENT_3D('',#311,#312,#313);
#315=CIRCLE('',#314,3.903753181626765);
#316=EDGE_CURVE('',#308,#310,#315,.T.);
#317=ORIENTED_EDGE('',*,*,#316,.F.);
#318=CARTESIAN_POINT('',(2.100000000000001,7.012523E-016,5.948816E-016));
#319=DIRECTION('',(1.0,0.0,0.0));
#320=DIRECTION('',(0.0,0.0,1.0));
#321=AXIS2_PLACEMENT_3D('',#318,#319,#320);
#322=CIRCLE('',#321,1.25);
#323=EDGE_CURVE('',#164,#308,#322,.T.);
#324=ORIENTED_EDGE('',*,*,#323,.F.);
#325=ORIENTED_EDGE('',*,*,#170,.F.);
#326=CARTESIAN_POINT('',(1.483542352657226,-2.396260612895504,-5.574914E-016));
#327=VERTEX_POINT('',#326);
#328=CARTESIAN_POINT('',(-1.598214285714267,2.483741E-016,-4.527373E-016));
#329=DIRECTION('',(0.0,0.0,-1.0));
#330=DIRECTION('',(0.0,-1.0,0.0));
#331=AXIS2_PLACEMENT_3D('',#328,#329,#330);
#332=CIRCLE('',#331,3.903753181626765);
#333=EDGE_CURVE('',#155,#327,#332,.T.);
#334=ORIENTED_EDGE('',*,*,#333,.T.);
#335=CARTESIAN_POINT('',(1.483542352657226,9.740375E-016,-2.396260612895504));
#336=VERTEX_POINT('',#335);
#337=CARTESIAN_POINT('',(1.483542352657225,6.257617E-016,4.202533E-016));
#338=DIRECTION('',(1.0,0.0,0.0));
#339=DIRECTION('',(0.0,0.0,1.0));
#340=AXIS2_PLACEMENT_3D('',#337,#338,#339);
#341=CIRCLE('',#340,2.396260612895504);
#342=EDGE_CURVE('',#327,#336,#341,.T.);
#343=ORIENTED_EDGE('',*,*,#342,.T.);
#344=CARTESIAN_POINT('',(1.483542352657225,6.257617E-016,4.202533E-016));
#345=DIRECTION('',(1.0,0.0,0.0));
#346=DIRECTION('',(0.0,0.0,1.0));
#347=AXIS2_PLACEMENT_3D('',#344,#345,#346);
#348=CIRCLE('',#347,2.396260612895504);
#349=EDGE_CURVE('',#336,#310,#348,.T.);
#350=ORIENTED_EDGE('',*,*,#349,.T.);
#351=EDGE_LOOP('',(#317,#324,#325,#334,#343,#350));
#352=FACE_OUTER_BOUND('',#351,.T.);
#353=ADVANCED_FACE('',(#352),#306,.T.);
#354=CARTESIAN_POINT('',(0.741771176328613,5.349255E-016,2.101267E-016));
#355=DIRECTION('',(-1.0,-1.224586E-016,-2.832769E-016));
#356=DIRECTION('',(0.0,0.0,1.0));
#357=AXIS2_PLACEMENT_3D('',#354,#355,#356);
#358=CONICAL_SURFACE('',#357,2.448130306447752,3.999999999999994);
#359=CARTESIAN_POINT('',(1.483542352657225,5.709433E-016,2.396260612895504));
#360=VERTEX_POINT('',#359);
#361=CARTESIAN_POINT('',(-7.081924E-016,3.868975E-016,2.5));
#362=VERTEX_POINT('',#361);
#363=CARTESIAN_POINT('',(1.483542352657225,5.709433E-016,2.396260612895505));
#364=DIRECTION('',(-0.997564050259824,-1.237561E-016,0.069756473744125));
#365=VECTOR('',#364,1.487165011881517);
#366=LINE('',#363,#365);
#367=EDGE_CURVE('',#360,#362,#366,.T.);
#368=ORIENTED_EDGE('',*,*,#367,.F.);
#369=CARTESIAN_POINT('',(1.483542352657225,6.257617E-016,4.202533E-016));
#370=DIRECTION('',(1.0,0.0,0.0));
#371=DIRECTION('',(0.0,0.0,1.0));
#372=AXIS2_PLACEMENT_3D('',#369,#370,#371);
#373=CIRCLE('',#372,2.396260612895504);
#374=EDGE_CURVE('',#310,#360,#373,.T.);
#375=ORIENTED_EDGE('',*,*,#374,.F.);
#376=ORIENTED_EDGE('',*,*,#349,.F.);
#377=CARTESIAN_POINT('',(5.551115E-016,8.074426E-016,-2.5));
#378=VERTEX_POINT('',#377);
#379=CARTESIAN_POINT('',(1.483542352657226,9.740375E-016,-2.396260612895504));
#380=DIRECTION('',(-0.997564050259824,-1.120218E-016,-0.069756473744126));
#381=VECTOR('',#380,1.487165011881517);
#382=LINE('',#379,#381);
#383=EDGE_CURVE('',#336,#378,#382,.T.);
#384=ORIENTED_EDGE('',*,*,#383,.T.);
#385=CARTESIAN_POINT('',(2.719262E-032,4.440892E-016,0.0));
#386=DIRECTION('',(1.0,0.0,0.0));
#387=DIRECTION('',(0.0,0.0,1.0));
#388=AXIS2_PLACEMENT_3D('',#385,#386,#387);
#389=CIRCLE('',#388,2.5);
#390=EDGE_CURVE('',#378,#362,#389,.T.);
#391=ORIENTED_EDGE('',*,*,#390,.T.);
#392=EDGE_LOOP('',(#368,#375,#376,#384,#391));
#393=FACE_OUTER_BOUND('',#392,.T.);
#394=ADVANCED_FACE('',(#393),#358,.T.);
#395=CARTESIAN_POINT('',(-9.752335E-016,4.011955E-016,1.875));
#396=DIRECTION('',(-1.0,0.0,0.0));
#397=DIRECTION('',(0.0,0.0,-1.0));
#398=AXIS2_PLACEMENT_3D('',#395,#396,#397);
#399=PLANE('',#398);
#400=CARTESIAN_POINT('',(2.719262E-032,4.440892E-016,0.0));
#401=DIRECTION('',(1.0,0.0,0.0));
#402=DIRECTION('',(0.0,0.0,1.0));
#403=AXIS2_PLACEMENT_3D('',#400,#401,#402);
#404=CIRCLE('',#403,2.5);
#405=EDGE_CURVE('',#362,#378,#404,.T.);
#406=ORIENTED_EDGE('',*,*,#405,.F.);
#407=ORIENTED_EDGE('',*,*,#390,.F.);
#408=EDGE_LOOP('',(#406,#407));
#409=FACE_OUTER_BOUND('',#408,.T.);
#410=ORIENTED_EDGE('',*,*,#87,.T.);
#411=CARTESIAN_POINT('',(1.075323E-032,1.729926E-015,1.554312E-015));
#412=DIRECTION('',(1.0,0.0,0.0));
#413=DIRECTION('',(0.0,0.0,1.0));
#414=AXIS2_PLACEMENT_3D('',#411,#412,#413);
#415=CIRCLE('',#414,1.25);
#416=EDGE_CURVE('',#71,#81,#415,.T.);
#417=ORIENTED_EDGE('',*,*,#416,.T.);
#418=EDGE_LOOP('',(#410,#417));
#419=FACE_BOUND('',#418,.T.);
#420=ADVANCED_FACE('',(#409,#419),#399,.T.);
#421=CARTESIAN_POINT('',(2.100000000000001,-1.284374453749306,8.800700E-016));
#422=DIRECTION('',(-1.0,-1.224586E-016,-2.832769E-016));
#423=DIRECTION('',(1.219703E-016,0.686348585024614,-0.727272727272727));
#424=AXIS2_PLACEMENT_3D('',#421,#422,#423);
#425=CYLINDRICAL_SURFACE('',#424,0.420000000000001);
#426=ORIENTED_EDGE('',*,*,#248,.F.);
#427=CARTESIAN_POINT('',(1.060000000000001,-0.996108048038968,-0.305454545454545));
#428=VERTEX_POINT('',#427);
#429=CARTESIAN_POINT('',(2.044236958623712,-0.996108048038968,-0.305454545454545));
#430=DIRECTION('',(-1.0,0.0,0.0));
#431=VECTOR('',#430,0.984236958623711);
#432=LINE('',#429,#431);
#433=EDGE_CURVE('',#213,#428,#432,.T.);
#434=ORIENTED_EDGE('',*,*,#433,.T.);
#435=CARTESIAN_POINT('',(1.060000000000001,-0.996108048038968,0.305454545454546));
#436=VERTEX_POINT('',#435);
#437=CARTESIAN_POINT('',(1.060000000000001,-1.284374453749306,5.854620E-016));
#438=DIRECTION('',(-1.0,8.371414E-017,-8.870567E-017));
#439=DIRECTION('',(1.219703E-016,0.686348585024614,-0.727272727272727));
#440=AXIS2_PLACEMENT_3D('',#437,#438,#439);
#441=CIRCLE('',#440,0.420000000000001);
#442=EDGE_CURVE('',#436,#428,#441,.T.);
#443=ORIENTED_EDGE('',*,*,#442,.F.);
#444=CARTESIAN_POINT('',(2.044236958623712,-0.996108048038967,0.305454545454546));
#445=DIRECTION('',(-1.0,0.0,0.0));
#446=VECTOR('',#445,0.984236958623711);
#447=LINE('',#444,#446);
#448=EDGE_CURVE('',#232,#436,#447,.T.);
#449=ORIENTED_EDGE('',*,*,#448,.F.);
#450=EDGE_LOOP('',(#426,#434,#443,#449));
#451=FACE_OUTER_BOUND('',#450,.T.);
#452=ADVANCED_FACE('',(#451),#425,.T.);
#453=CARTESIAN_POINT('',(2.100000000000001,-0.83138438763306,0.480000000000001));
#454=DIRECTION('',(-1.0,-1.224586E-016,-2.832769E-016));
#455=DIRECTION('',(2.900689E-016,-0.686348585024614,-0.727272727272727));
#456=AXIS2_PLACEMENT_3D('',#453,#454,#455);
#457=CYLINDRICAL_SURFACE('',#456,0.24);
#458=ORIENTED_EDGE('',*,*,#267,.F.);
#459=ORIENTED_EDGE('',*,*,#448,.T.);
#460=CARTESIAN_POINT('',(1.060000000000001,-0.762585427222441,0.709927603924406));
#461=VERTEX_POINT('',#460);
#462=CARTESIAN_POINT('',(1.060000000000001,-0.83138438763306,0.48));
#463=DIRECTION('',(1.0,1.990884E-016,2.109592E-016));
#464=DIRECTION('',(2.900689E-016,-0.686348585024614,-0.727272727272727));
#465=AXIS2_PLACEMENT_3D('',#462,#463,#464);
#466=CIRCLE('',#465,0.24);
#467=EDGE_CURVE('',#461,#436,#466,.T.);
#468=ORIENTED_EDGE('',*,*,#467,.F.);
#469=CARTESIAN_POINT('',(2.044236960413534,-0.76258542722244,0.709927603924406));
#470=DIRECTION('',(-1.0,0.0,0.0));
#471=VECTOR('',#470,0.984236960413533);
#472=LINE('',#469,#471);
#473=EDGE_CURVE('',#251,#461,#472,.T.);
#474=ORIENTED_EDGE('',*,*,#473,.F.);
#475=EDGE_LOOP('',(#458,#459,#468,#474));
#476=FACE_OUTER_BOUND('',#475,.T.);
#477=ADVANCED_FACE('',(#476),#457,.F.);
#478=CARTESIAN_POINT('',(2.1,-0.642187226874652,1.112300904918661));
#479=DIRECTION('',(-1.0,-1.224586E-016,-2.832769E-016));
#480=DIRECTION('',(3.064926E-016,-0.286662381780448,-0.958031669033942));
#481=AXIS2_PLACEMENT_3D('',#478,#479,#480);
#482=CYLINDRICAL_SURFACE('',#481,0.42);
#483=ORIENTED_EDGE('',*,*,#286,.F.);
#484=ORIENTED_EDGE('',*,*,#473,.T.);
#485=CARTESIAN_POINT('',(1.06,-0.233522627954419,1.01538214724315));
#486=VERTEX_POINT('',#485);
#487=CARTESIAN_POINT('',(1.060000000000001,-0.642187226874653,1.112300904918661));
#488=DIRECTION('',(-1.0,-8.785989E-017,-2.936296E-016));
#489=DIRECTION('',(3.064926E-016,-0.286662381780448,-0.958031669033942));
#490=AXIS2_PLACEMENT_3D('',#487,#488,#489);
#491=CIRCLE('',#490,0.42);
#492=EDGE_CURVE('',#486,#461,#491,.T.);
#493=ORIENTED_EDGE('',*,*,#492,.F.);
#494=CARTESIAN_POINT('',(2.044236958623711,-0.233522627954419,1.01538214724315));
#495=DIRECTION('',(-1.0,0.0,0.0));
#496=VECTOR('',#495,0.984236958623711);
#497=LINE('',#494,#496);
#498=EDGE_CURVE('',#270,#486,#497,.T.);
#499=ORIENTED_EDGE('',*,*,#498,.F.);
#500=EDGE_LOOP('',(#483,#484,#493,#499));
#501=FACE_OUTER_BOUND('',#500,.T.);
#502=ADVANCED_FACE('',(#501),#482,.T.);
#503=CARTESIAN_POINT('',(2.100000000000001,7.756372E-016,0.960000000000001));
#504=DIRECTION('',(-1.0,-1.224586E-016,-2.832769E-016));
#505=DIRECTION('',(5.378488E-017,-0.973010949810081,0.230758946846455));
#506=AXIS2_PLACEMENT_3D('',#503,#504,#505);
#507=CYLINDRICAL_SURFACE('',#506,0.24);
#508=ORIENTED_EDGE('',*,*,#297,.F.);
#509=ORIENTED_EDGE('',*,*,#498,.T.);
#510=CARTESIAN_POINT('',(1.06,0.233522626235132,1.015382154492646));
#511=VERTEX_POINT('',#510);
#512=CARTESIAN_POINT('',(1.06,6.482803E-016,0.960000000000001));
#513=DIRECTION('',(1.0,5.233328E-017,-1.241134E-017));
#514=DIRECTION('',(5.378488E-017,-0.973010949810081,0.230758946846455));
#515=AXIS2_PLACEMENT_3D('',#512,#513,#514);
#516=CIRCLE('',#515,0.24);
#517=EDGE_CURVE('',#511,#486,#516,.T.);
#518=ORIENTED_EDGE('',*,*,#517,.F.);
#519=CARTESIAN_POINT('',(2.044236960413533,0.233522626235132,1.015382154492647));
#520=VERTEX_POINT('',#519);
#521=CARTESIAN_POINT('',(2.044236960413533,0.233522626235132,1.015382154492647));
#522=DIRECTION('',(-1.0,0.0,0.0));
#523=VECTOR('',#522,0.984236960413533);
#524=LINE('',#521,#523);
#525=EDGE_CURVE('',#520,#511,#524,.T.);
#526=ORIENTED_EDGE('',*,*,#525,.F.);
#527=CARTESIAN_POINT('',(2.086602540378443,7.494005E-016,1.200000000000001));
#528=CARTESIAN_POINT('',(2.086602540378443,0.035501861071348,1.200000000000001));
#529=CARTESIAN_POINT('',(2.08483082970554,0.072811557142153,1.191665448037851));
#530=CARTESIAN_POINT('',(2.077701453945956,0.139233412326177,1.158958437647996));
#531=CARTESIAN_POINT('',(2.072325920276813,0.168344151737995,1.134586993474421));
#532=CARTESIAN_POINT('',(2.05999053098461,0.210062584000464,1.080728729013613));
#533=CARTESIAN_POINT('',(2.052516144312569,0.225569710387769,1.048916165798575));
#534=CARTESIAN_POINT('',(2.044236960413533,0.233522626235132,1.015382154492647));
#535=B_SPLINE_CURVE_WITH_KNOTS('',3,(#527,#528,#529,#530,#531,#532,#533,#534),.UNSPECIFIED.,.F.,.U.,(4,2,2,4),(0.43027951634477,0.536785099558812,0.643290682772854,0.74448613140851),.UNSPECIFIED.);
#536=EDGE_CURVE('',#147,#520,#535,.T.);
#537=ORIENTED_EDGE('',*,*,#536,.F.);
#538=EDGE_LOOP('',(#508,#509,#518,#526,#537));
#539=FACE_OUTER_BOUND('',#538,.T.);
#540=ADVANCED_FACE('',(#539),#507,.F.);
#541=CARTESIAN_POINT('',(2.1,0.642187226874653,1.112300904918661));
#542=DIRECTION('',(-1.0,-1.224586E-016,-2.832769E-016));
#543=DIRECTION('',(1.845223E-016,-0.973010953903623,-0.230758929585749));
#544=AXIS2_PLACEMENT_3D('',#541,#542,#543);
#545=CYLINDRICAL_SURFACE('',#544,0.42);
#546=CARTESIAN_POINT('',(2.044236958623712,0.762585420084549,0.709927601788605));
#547=VERTEX_POINT('',#546);
#548=CARTESIAN_POINT('',(2.044236960413533,0.233522626235132,1.015382154492647));
#549=CARTESIAN_POINT('',(2.037236984544333,0.240246743842259,0.987029448494158));
#550=CARTESIAN_POINT('',(2.030758085697202,0.24990846890836,0.959743975168565));
#551=CARTESIAN_POINT('',(2.016990840616349,0.278515608575267,0.898387832658258));
#552=CARTESIAN_POINT('',(2.009460567885409,0.302560291230224,0.861361084635528));
#553=CARTESIAN_POINT('',(1.999263057931922,0.361623623924214,0.796704145767239));
#554=CARTESIAN_POINT('',(1.99667194630131,0.396662497956321,0.769080447133085));
#555=CARTESIAN_POINT('',(1.99667194630131,0.467711955792986,0.72806002352531));
#556=CARTESIAN_POINT('',(1.999263057931921,0.509154217572702,0.711527317810579));
#557=CARTESIAN_POINT('',(2.009460567885408,0.594680435510573,0.692705440699556));
#558=CARTESIAN_POINT('',(2.016990840616348,0.638768881245261,0.690395508705793));
#559=CARTESIAN_POINT('',(2.030758085220668,0.706208426836532,0.696299070075452));
#560=CARTESIAN_POINT('',(2.037236983437995,0.734669199909473,0.701574506679702));
#561=CARTESIAN_POINT('',(2.044236958623712,0.762585420084549,0.709927601788605));
#562=B_SPLINE_CURVE_WITH_KNOTS('',3,(#548,#549,#550,#551,#552,#553,#554,#555,#556,#557,#558,#559,#560,#561),.UNSPECIFIED.,.F.,.U.,(4,2,2,2,2,2,4),(0.173634586803819,0.2578227678665,0.380884038689826,0.503945309513152,0.627006580336477,0.750067851159803,0.834256025048832),.UNSPECIFIED.);
#563=EDGE_CURVE('',#520,#547,#562,.T.);
#564=ORIENTED_EDGE('',*,*,#563,.F.);
#565=ORIENTED_EDGE('',*,*,#525,.T.);
#566=CARTESIAN_POINT('',(1.06,0.762585420084549,0.709927601788604));
#567=VERTEX_POINT('',#566);
#568=CARTESIAN_POINT('',(1.06,0.642187226874653,1.112300904918661));
#569=DIRECTION('',(-1.0,-1.795422E-016,-4.258016E-017));
#570=DIRECTION('',(1.845223E-016,-0.973010953903623,-0.230758929585749));
#571=AXIS2_PLACEMENT_3D('',#568,#569,#570);
#572=CIRCLE('',#571,0.42);
#573=EDGE_CURVE('',#567,#511,#572,.T.);
#574=ORIENTED_EDGE('',*,*,#573,.F.);
#575=CARTESIAN_POINT('',(2.044236958623712,0.762585420084549,0.709927601788605));
#576=DIRECTION('',(-1.0,0.0,0.0));
#577=VECTOR('',#576,0.984236958623711);
#578=LINE('',#575,#577);
#579=EDGE_CURVE('',#547,#567,#578,.T.);
#580=ORIENTED_EDGE('',*,*,#579,.F.);
#581=EDGE_LOOP('',(#564,#565,#574,#580));
#582=FACE_OUTER_BOUND('',#581,.T.);
#583=ADVANCED_FACE('',(#582),#545,.T.);
#584=CARTESIAN_POINT('',(2.100000000000001,0.831384387633062,0.480000000000001));
#585=DIRECTION('',(-1.0,-1.224586E-016,-2.832769E-016));
#586=DIRECTION('',(-2.362840E-016,-0.286662364785466,0.958031674119183));
#587=AXIS2_PLACEMENT_3D('',#584,#585,#586);
#588=CYLINDRICAL_SURFACE('',#587,0.24);
#589=CARTESIAN_POINT('',(2.044236960413534,0.996108053457573,0.305454550568242));
#590=VERTEX_POINT('',#589);
#591=CARTESIAN_POINT('',(2.044236958623712,0.762585420084549,0.709927601788605));
#592=CARTESIAN_POINT('',(2.052516143230926,0.795603185752735,0.719807182017595));
#593=CARTESIAN_POINT('',(2.059990530551531,0.830907239555328,0.722283898958813));
#594=CARTESIAN_POINT('',(2.072325920276814,0.89840908328326,0.713083808720856));
#595=CARTESIAN_POINT('',(2.077701453945956,0.934070742770399,0.70005889095406));
#596=CARTESIAN_POINT('',(2.084830829705541,0.995606772241867,0.658889382193132));
#597=CARTESIAN_POINT('',(2.086602540378443,1.021479554005653,0.630745513569413));
#598=CARTESIAN_POINT('',(2.086602540378443,1.056981415077,0.569254486430588));
#599=CARTESIAN_POINT('',(2.084830829705541,1.06841832938402,0.532776065844719));
#600=CARTESIAN_POINT('',(2.077701453945956,1.073304155096575,0.458899546693936));
#601=CARTESIAN_POINT('',(2.072325920276814,1.066753235021254,0.421503184753566));
#602=CARTESIAN_POINT('',(2.05999053098461,1.040969825925688,0.358444830377803));
#603=CARTESIAN_POINT('',(2.052516144312569,1.02117290121562,0.329108983379182));
#604=CARTESIAN_POINT('',(2.044236960413534,0.996108053457573,0.305454550568242));
#605=B_SPLINE_CURVE_WITH_KNOTS('',3,(#591,#592,#593,#594,#595,#596,#597,#598,#599,#600,#601,#602,#603,#604),.UNSPECIFIED.,.F.,.U.,(4,2,2,2,2,2,4),(0.116072893988932,0.217268349916686,0.323773933130728,0.43027951634477,0.536785099558812,0.643290682772854,0.74448613140851),.UNSPECIFIED.);
#606=EDGE_CURVE('',#547,#590,#605,.T.);
#607=ORIENTED_EDGE('',*,*,#606,.F.);
#608=ORIENTED_EDGE('',*,*,#579,.T.);
#609=CARTESIAN_POINT('',(1.06,0.996108053457573,0.305454550568242));
#610=VERTEX_POINT('',#609);
#611=CARTESIAN_POINT('',(1.06,0.831384387633061,0.48));
#612=DIRECTION('',(1.0,-6.773373E-017,2.263676E-016));
#613=DIRECTION('',(-2.362840E-016,-0.286662364785466,0.958031674119183));
#614=AXIS2_PLACEMENT_3D('',#611,#612,#613);
#615=CIRCLE('',#614,0.24);
#616=EDGE_CURVE('',#610,#567,#615,.T.);
#617=ORIENTED_EDGE('',*,*,#616,.F.);
#618=CARTESIAN_POINT('',(2.044236960413534,0.996108053457573,0.305454550568242));
#619=DIRECTION('',(-1.0,0.0,0.0));
#620=VECTOR('',#619,0.984236960413533);
#621=LINE('',#618,#620);
#622=EDGE_CURVE('',#590,#610,#621,.T.);
#623=ORIENTED_EDGE('',*,*,#622,.F.);
#624=EDGE_LOOP('',(#607,#608,#617,#623));
#625=FACE_OUTER_BOUND('',#624,.T.);
#626=ADVANCED_FACE('',(#625),#588,.F.);
#627=CARTESIAN_POINT('',(2.1,1.284374453749307,9.203158E-016));
#628=DIRECTION('',(-1.0,-1.224586E-016,-2.832769E-016));
#629=DIRECTION('',(-1.219703E-016,-0.686348572123176,0.727272739448192));
#630=AXIS2_PLACEMENT_3D('',#627,#628,#629);
#631=CYLINDRICAL_SURFACE('',#630,0.42);
#632=CARTESIAN_POINT('',(2.044236960815787,0.996108054675377,-0.305454551717517));
#633=VERTEX_POINT('',#632);
#634=CARTESIAN_POINT('',(2.044236960413534,0.996108053457573,0.305454550568242));
#635=CARTESIAN_POINT('',(2.037236984544333,0.974915948600414,0.285454940903192));
#636=CARTESIAN_POINT('',(2.030758085697203,0.956116898079219,0.26344490488877));
#637=CARTESIAN_POINT('',(2.016990840616348,0.917284489820528,0.207992323952465));
#638=CARTESIAN_POINT('',(2.009460567885409,0.897240726740797,0.168655643935973));
#639=CARTESIAN_POINT('',(1.999263057931922,0.870777841496916,0.085176827956661));
#640=CARTESIAN_POINT('',(1.99667194630131,0.864374453749307,0.041020423607776));
#641=CARTESIAN_POINT('',(1.99667194630131,0.864374453749307,-0.041020423607774));
#642=CARTESIAN_POINT('',(1.999263057931921,0.870777841496916,-0.085176827956659));
#643=CARTESIAN_POINT('',(2.009460567885408,0.897240726740797,-0.168655643935971));
#644=CARTESIAN_POINT('',(2.016990840616348,0.917284489820528,-0.207992323952464));
#645=CARTESIAN_POINT('',(2.030758085804361,0.956116898381473,-0.263444905320387));
#646=CARTESIAN_POINT('',(2.0372369847929,0.974915949322404,-0.285454941744291));
#647=CARTESIAN_POINT('',(2.044236960815787,0.996108054675377,-0.305454551717517));
#648=B_SPLINE_CURVE_WITH_KNOTS('',3,(#634,#635,#636,#637,#638,#639,#640,#641,#642,#643,#644,#645,#646,#647),.UNSPECIFIED.,.F.,.U.,(4,2,2,2,2,2,4),(0.173634586803819,0.2578227678665,0.380884038689826,0.503945309513152,0.627006580336478,0.750067851159803,0.834256033835624),.UNSPECIFIED.);
#649=EDGE_CURVE('',#590,#633,#648,.T.);
#650=ORIENTED_EDGE('',*,*,#649,.F.);
#651=ORIENTED_EDGE('',*,*,#622,.T.);
#652=CARTESIAN_POINT('',(1.06,0.996108054675376,-0.305454551717517));
#653=VERTEX_POINT('',#652);
#654=CARTESIAN_POINT('',(1.06,1.284374453749307,6.257078E-016));
#655=DIRECTION('',(-1.0,8.371415E-017,-8.870568E-017));
#656=DIRECTION('',(-1.219703E-016,-0.686348572123176,0.727272739448192));
#657=AXIS2_PLACEMENT_3D('',#654,#655,#656);
#658=CIRCLE('',#657,0.42);
#659=EDGE_CURVE('',#653,#610,#658,.T.);
#660=ORIENTED_EDGE('',*,*,#659,.F.);
#661=CARTESIAN_POINT('',(2.044236960815787,0.996108054675377,-0.305454551717517));
#662=DIRECTION('',(-1.0,0.0,0.0));
#663=VECTOR('',#662,0.984236960815787);
#664=LINE('',#661,#663);
#665=EDGE_CURVE('',#633,#653,#664,.T.);
#666=ORIENTED_EDGE('',*,*,#665,.F.);
#667=EDGE_LOOP('',(#650,#651,#660,#666));
#668=FACE_OUTER_BOUND('',#667,.T.);
#669=ADVANCED_FACE('',(#668),#631,.T.);
#670=CARTESIAN_POINT('',(2.100000000000001,-0.83138438763306,-0.48));
#671=DIRECTION('',(-1.0,-1.224586E-016,-2.832769E-016));
#672=DIRECTION('',(2.362840E-016,0.286662317760472,-0.958031688190007));
#673=AXIS2_PLACEMENT_3D('',#670,#671,#672);
#674=CYLINDRICAL_SURFACE('',#673,0.24);
#675=ORIENTED_EDGE('',*,*,#229,.F.);
#676=CARTESIAN_POINT('',(1.060000000000001,-0.762585431370547,-0.709927605165601));
#677=VERTEX_POINT('',#676);
#678=CARTESIAN_POINT('',(2.044236961453669,-0.762585431370547,-0.709927605165601));
#679=DIRECTION('',(-1.0,0.0,0.0));
#680=VECTOR('',#679,0.984236961453668);
#681=LINE('',#678,#680);
#682=EDGE_CURVE('',#194,#677,#681,.T.);
#683=ORIENTED_EDGE('',*,*,#682,.T.);
#684=CARTESIAN_POINT('',(1.060000000000001,-0.83138438763306,-0.48));
#685=DIRECTION('',(1.0,-6.773372E-017,2.263676E-016));
#686=DIRECTION('',(2.362840E-016,0.286662317760472,-0.958031688190007));
#687=AXIS2_PLACEMENT_3D('',#684,#685,#686);
#688=CIRCLE('',#687,0.24);
#689=EDGE_CURVE('',#428,#677,#688,.T.);
#690=ORIENTED_EDGE('',*,*,#689,.F.);
#691=ORIENTED_EDGE('',*,*,#433,.F.);
#692=EDGE_LOOP('',(#675,#683,#690,#691));
#693=FACE_OUTER_BOUND('',#692,.T.);
#694=ADVANCED_FACE('',(#693),#674,.F.);
#695=CARTESIAN_POINT('',(2.100000000000001,-0.642187226874652,-1.11230090491866));
#696=DIRECTION('',(-1.0,-1.224586E-016,-2.832769E-016));
#697=DIRECTION('',(-1.845223E-016,0.973010953903623,0.230758929585749));
#698=AXIS2_PLACEMENT_3D('',#695,#696,#697);
#699=CYLINDRICAL_SURFACE('',#698,0.42);
#700=ORIENTED_EDGE('',*,*,#210,.F.);
#701=CARTESIAN_POINT('',(1.060000000000001,-0.23352262623513,-1.015382154492646));
#702=VERTEX_POINT('',#701);
#703=CARTESIAN_POINT('',(2.044236960413534,-0.23352262623513,-1.015382154492645));
#704=DIRECTION('',(-1.0,0.0,0.0));
#705=VECTOR('',#704,0.984236960413533);
#706=LINE('',#703,#705);
#707=EDGE_CURVE('',#181,#702,#706,.T.);
#708=ORIENTED_EDGE('',*,*,#707,.T.);
#709=CARTESIAN_POINT('',(1.060000000000001,-0.642187226874652,-1.11230090491866));
#710=DIRECTION('',(-1.0,-1.795422E-016,-4.258016E-017));
#711=DIRECTION('',(-1.845223E-016,0.973010953903623,0.230758929585749));
#712=AXIS2_PLACEMENT_3D('',#709,#710,#711);
#713=CIRCLE('',#712,0.42);
#714=EDGE_CURVE('',#677,#702,#713,.T.);
#715=ORIENTED_EDGE('',*,*,#714,.F.);
#716=ORIENTED_EDGE('',*,*,#682,.F.);
#717=EDGE_LOOP('',(#700,#708,#715,#716));
#718=FACE_OUTER_BOUND('',#717,.T.);
#719=ADVANCED_FACE('',(#718),#699,.T.);
#720=CARTESIAN_POINT('',(2.100000000000001,1.070957E-015,-0.959999999999999));
#721=DIRECTION('',(-1.0,-1.224586E-016,-2.832769E-016));
#722=DIRECTION('',(-5.378487E-017,0.973010941036374,-0.230758983841388));
#723=AXIS2_PLACEMENT_3D('',#720,#721,#722);
#724=CYLINDRICAL_SURFACE('',#723,0.24);
#725=CARTESIAN_POINT('',(2.044236960815788,0.233522625848731,-1.015382156121932));
#726=VERTEX_POINT('',#725);
#727=CARTESIAN_POINT('',(2.044236960815788,0.233522625848731,-1.015382156121932));
#728=CARTESIAN_POINT('',(2.052516144555663,0.225569709895671,-1.048916166831519));
#729=CARTESIAN_POINT('',(2.059990531081943,0.210062583671286,-1.080728729438578));
#730=CARTESIAN_POINT('',(2.072325920276814,0.168344151737995,-1.134586993474419));
#731=CARTESIAN_POINT('',(2.077701453945957,0.139233412326178,-1.158958437647994));
#732=CARTESIAN_POINT('',(2.084830829705541,0.072811557142154,-1.191665448037849));
#733=CARTESIAN_POINT('',(2.086602540378444,0.035501861071348,-1.199999999999999));
#734=CARTESIAN_POINT('',(2.086602540378444,1.131040E-015,-1.199999999999999));
#735=B_SPLINE_CURVE_WITH_KNOTS('',3,(#727,#728,#729,#730,#731,#732,#733,#734),.UNSPECIFIED.,.F.,.U.,(4,2,2,4),(0.116072902919892,0.217268349916686,0.323773933130728,0.43027951634477),.UNSPECIFIED.);
#736=EDGE_CURVE('',#726,#173,#735,.T.);
#737=ORIENTED_EDGE('',*,*,#736,.F.);
#738=CARTESIAN_POINT('',(1.060000000000001,0.233522625848731,-1.015382156121933));
#739=VERTEX_POINT('',#738);
#740=CARTESIAN_POINT('',(2.044236960815788,0.233522625848731,-1.015382156121932));
#741=DIRECTION('',(-1.0,0.0,0.0));
#742=VECTOR('',#741,0.984236960815787);
#743=LINE('',#740,#742);
#744=EDGE_CURVE('',#726,#739,#743,.T.);
#745=ORIENTED_EDGE('',*,*,#744,.T.);
#746=CARTESIAN_POINT('',(1.060000000000001,9.435996E-016,-0.959999999999999));
#747=DIRECTION('',(1.0,5.233327E-017,-1.241134E-017));
#748=DIRECTION('',(-5.378487E-017,0.973010941036374,-0.230758983841388));
#749=AXIS2_PLACEMENT_3D('',#746,#747,#748);
#750=CIRCLE('',#749,0.24);
#751=EDGE_CURVE('',#702,#739,#750,.T.);
#752=ORIENTED_EDGE('',*,*,#751,.F.);
#753=ORIENTED_EDGE('',*,*,#707,.F.);
#754=ORIENTED_EDGE('',*,*,#191,.F.);
#755=EDGE_LOOP('',(#737,#745,#752,#753,#754));
#756=FACE_OUTER_BOUND('',#755,.T.);
#757=ADVANCED_FACE('',(#756),#724,.F.);
#758=CARTESIAN_POINT('',(2.100000000000001,0.642187226874654,-1.112300904918659));
#759=DIRECTION('',(-1.0,-1.224586E-016,-2.832769E-016));
#760=DIRECTION('',(-3.064926E-016,0.286662364785467,0.958031674119183));
#761=AXIS2_PLACEMENT_3D('',#758,#759,#760);
#762=CYLINDRICAL_SURFACE('',#761,0.42);
#763=CARTESIAN_POINT('',(2.044236958623712,0.76258542008455,-0.709927601788603));
#764=VERTEX_POINT('',#763);
#765=CARTESIAN_POINT('',(2.044236958623712,0.76258542008455,-0.709927601788603));
#766=CARTESIAN_POINT('',(2.037236983438058,0.734669199909724,-0.701574506679775));
#767=CARTESIAN_POINT('',(2.03075808522062,0.706208426836294,-0.69629907007543));
#768=CARTESIAN_POINT('',(2.016990840616348,0.638768881245261,-0.690395508705792));
#769=CARTESIAN_POINT('',(2.009460567885409,0.594680435510573,-0.692705440699555));
#770=CARTESIAN_POINT('',(1.999263057931922,0.509154217572703,-0.711527317810578));
#771=CARTESIAN_POINT('',(1.996671946301311,0.467711955792987,-0.728060023525308));
#772=CARTESIAN_POINT('',(1.996671946301311,0.396662497956322,-0.769080447133083));
#773=CARTESIAN_POINT('',(1.999263057931921,0.361623623924215,-0.796704145767237));
#774=CARTESIAN_POINT('',(2.009460567885408,0.302560291230225,-0.861361084635526));
#775=CARTESIAN_POINT('',(2.016990840616348,0.278515608575268,-0.898387832658256));
#776=CARTESIAN_POINT('',(2.030758085804361,0.249908468685695,-0.959743975646133));
#777=CARTESIAN_POINT('',(2.0372369847929,0.240246743474839,-0.987029449539969));
#778=CARTESIAN_POINT('',(2.044236960815788,0.233522625848731,-1.015382156121932));
#779=B_SPLINE_CURVE_WITH_KNOTS('',3,(#765,#766,#767,#768,#769,#770,#771,#772,#773,#774,#775,#776,#777,#778),.UNSPECIFIED.,.F.,.U.,(4,2,2,2,2,2,4),(0.173634593978204,0.2578227678665,0.380884038689826,0.503945309513152,0.627006580336477,0.750067851159803,0.834256033835623),.UNSPECIFIED.);
#780=EDGE_CURVE('',#764,#726,#779,.T.);
#781=ORIENTED_EDGE('',*,*,#780,.F.);
#782=CARTESIAN_POINT('',(1.060000000000001,0.76258542008455,-0.709927601788603));
#783=VERTEX_POINT('',#782);
#784=CARTESIAN_POINT('',(2.044236958623712,0.76258542008455,-0.709927601788603));
#785=DIRECTION('',(-1.0,0.0,0.0));
#786=VECTOR('',#785,0.984236958623711);
#787=LINE('',#784,#786);
#788=EDGE_CURVE('',#764,#783,#787,.T.);
#789=ORIENTED_EDGE('',*,*,#788,.T.);
#790=CARTESIAN_POINT('',(1.060000000000001,0.642187226874654,-1.11230090491866));
#791=DIRECTION('',(-1.0,-8.785988E-017,-2.936296E-016));
#792=DIRECTION('',(-3.064926E-016,0.286662364785467,0.958031674119183));
#793=AXIS2_PLACEMENT_3D('',#790,#791,#792);
#794=CIRCLE('',#793,0.42);
#795=EDGE_CURVE('',#739,#783,#794,.T.);
#796=ORIENTED_EDGE('',*,*,#795,.F.);
#797=ORIENTED_EDGE('',*,*,#744,.F.);
#798=EDGE_LOOP('',(#781,#789,#796,#797));
#799=FACE_OUTER_BOUND('',#798,.T.);
#800=ADVANCED_FACE('',(#799),#762,.T.);
#801=CARTESIAN_POINT('',(2.100000000000001,0.831384387633062,-0.479999999999999));
#802=DIRECTION('',(-1.0,-1.224586E-016,-2.832769E-016));
#803=DIRECTION('',(-2.900689E-016,0.686348612676311,0.727272701177009));
#804=AXIS2_PLACEMENT_3D('',#801,#802,#803);
#805=CYLINDRICAL_SURFACE('',#804,0.24);
#806=CARTESIAN_POINT('',(2.044236960815787,0.996108054675377,-0.305454551717517));
#807=CARTESIAN_POINT('',(2.052516144555663,1.021172901864128,-0.329108984321823));
#808=CARTESIAN_POINT('',(2.059990531081942,1.040969826129132,-0.358444830875362));
#809=CARTESIAN_POINT('',(2.072325920276814,1.066753235021255,-0.421503184753564));
#810=CARTESIAN_POINT('',(2.077701453945956,1.073304155096576,-0.458899546693934));
#811=CARTESIAN_POINT('',(2.084830829705541,1.06841832938402,-0.532776065844718));
#812=CARTESIAN_POINT('',(2.086602540378444,1.056981415077001,-0.569254486430587));
#813=CARTESIAN_POINT('',(2.086602540378444,1.021479554005653,-0.630745513569412));
#814=CARTESIAN_POINT('',(2.084830829705541,0.995606772241868,-0.65888938219313));
#815=CARTESIAN_POINT('',(2.077701453945956,0.9340707427704,-0.700058890954058));
#816=CARTESIAN_POINT('',(2.072325920276814,0.898409083283261,-0.713083808720854));
#817=CARTESIAN_POINT('',(2.059990530551532,0.830907239555329,-0.722283898958811));
#818=CARTESIAN_POINT('',(2.052516143230926,0.795603185752736,-0.719807182017593));
#819=CARTESIAN_POINT('',(2.044236958623712,0.76258542008455,-0.709927601788603));
#820=B_SPLINE_CURVE_WITH_KNOTS('',3,(#806,#807,#808,#809,#810,#811,#812,#813,#814,#815,#816,#817,#818,#819),.UNSPECIFIED.,.F.,.U.,(4,2,2,2,2,2,4),(0.116072902919892,0.217268349916686,0.323773933130728,0.43027951634477,0.536785099558812,0.643290682772854,0.744486138700608),.UNSPECIFIED.);
#821=EDGE_CURVE('',#633,#764,#820,.T.);
#822=ORIENTED_EDGE('',*,*,#821,.F.);
#823=ORIENTED_EDGE('',*,*,#665,.T.);
#824=CARTESIAN_POINT('',(1.06,0.831384387633062,-0.479999999999999));
#825=DIRECTION('',(1.0,1.990884E-016,2.109592E-016));
#826=DIRECTION('',(-2.900689E-016,0.686348612676311,0.727272701177009));
#827=AXIS2_PLACEMENT_3D('',#824,#825,#826);
#828=CIRCLE('',#827,0.24);
#829=EDGE_CURVE('',#783,#653,#828,.T.);
#830=ORIENTED_EDGE('',*,*,#829,.F.);
#831=ORIENTED_EDGE('',*,*,#788,.F.);
#832=EDGE_LOOP('',(#822,#823,#830,#831));
#833=FACE_OUTER_BOUND('',#832,.T.);
#834=ADVANCED_FACE('',(#833),#805,.F.);
#835=CARTESIAN_POINT('',(1.060000000000001,5.738953E-016,3.002736E-016));
#836=DIRECTION('',(-1.0,0.0,0.0));
#837=DIRECTION('',(0.0,-1.0,0.0));
#838=AXIS2_PLACEMENT_3D('',#835,#836,#837);
#839=PLANE('',#838);
#840=ORIENTED_EDGE('',*,*,#659,.T.);
#841=ORIENTED_EDGE('',*,*,#616,.T.);
#842=ORIENTED_EDGE('',*,*,#573,.T.);
#843=ORIENTED_EDGE('',*,*,#517,.T.);
#844=ORIENTED_EDGE('',*,*,#492,.T.);
#845=ORIENTED_EDGE('',*,*,#467,.T.);
#846=ORIENTED_EDGE('',*,*,#442,.T.);
#847=ORIENTED_EDGE('',*,*,#689,.T.);
#848=ORIENTED_EDGE('',*,*,#714,.T.);
#849=ORIENTED_EDGE('',*,*,#751,.T.);
#850=ORIENTED_EDGE('',*,*,#795,.T.);
#851=ORIENTED_EDGE('',*,*,#829,.T.);
#852=EDGE_LOOP('',(#840,#841,#842,#843,#844,#845,#846,#847,#848,#849,#850,#851));
#853=FACE_OUTER_BOUND('',#852,.T.);
#854=ADVANCED_FACE('',(#853),#839,.F.);
#855=CARTESIAN_POINT('',(0.741771176328613,5.349255E-016,2.101267E-016));
#856=DIRECTION('',(-1.0,-1.224586E-016,-2.832769E-016));
#857=DIRECTION('',(0.0,0.0,1.0));
#858=AXIS2_PLACEMENT_3D('',#855,#856,#857);
#859=CONICAL_SURFACE('',#858,2.448130306447752,3.999999999999994);
#860=ORIENTED_EDGE('',*,*,#367,.T.);
#861=ORIENTED_EDGE('',*,*,#405,.T.);
#862=ORIENTED_EDGE('',*,*,#383,.F.);
#863=ORIENTED_EDGE('',*,*,#342,.F.);
#864=CARTESIAN_POINT('',(1.483542352657225,6.257617E-016,4.202533E-016));
#865=DIRECTION('',(1.0,0.0,0.0));
#866=DIRECTION('',(0.0,0.0,1.0));
#867=AXIS2_PLACEMENT_3D('',#864,#865,#866);
#868=CIRCLE('',#867,2.396260612895504);
#869=EDGE_CURVE('',#360,#327,#868,.T.);
#870=ORIENTED_EDGE('',*,*,#869,.F.);
#871=EDGE_LOOP('',(#860,#861,#862,#863,#870));
#872=FACE_OUTER_BOUND('',#871,.T.);
#873=ADVANCED_FACE('',(#872),#859,.T.);
#874=CARTESIAN_POINT('',(-1.598214285714267,2.483741E-016,-4.527373E-016));
#875=DIRECTION('',(1.0,0.0,0.0));
#876=DIRECTION('',(0.0,1.0,0.0));
#877=AXIS2_PLACEMENT_3D('',#874,#875,#876);
#878=SPHERICAL_SURFACE('',#877,3.903753181626765);
#879=ORIENTED_EDGE('',*,*,#316,.T.);
#880=ORIENTED_EDGE('',*,*,#374,.T.);
#881=ORIENTED_EDGE('',*,*,#869,.T.);
#882=ORIENTED_EDGE('',*,*,#333,.F.);
#883=ORIENTED_EDGE('',*,*,#161,.F.);
#884=CARTESIAN_POINT('',(2.100000000000001,7.012523E-016,5.948816E-016));
#885=DIRECTION('',(1.0,0.0,0.0));
#886=DIRECTION('',(0.0,0.0,1.0));
#887=AXIS2_PLACEMENT_3D('',#884,#885,#886);
#888=CIRCLE('',#887,1.25);
#889=EDGE_CURVE('',#308,#145,#888,.T.);
#890=ORIENTED_EDGE('',*,*,#889,.F.);
#891=EDGE_LOOP('',(#879,#880,#881,#882,#883,#890));
#892=FACE_OUTER_BOUND('',#891,.T.);
#893=ADVANCED_FACE('',(#892),#878,.T.);
#894=CARTESIAN_POINT('',(2.048151831264575,6.949030E-016,5.801942E-016));
#895=DIRECTION('',(1.0,1.224586E-016,2.832769E-016));
#896=DIRECTION('',(0.0,0.0,1.0));
#897=AXIS2_PLACEMENT_3D('',#894,#895,#896);
#898=CONICAL_SURFACE('',#897,1.0565,74.999999999999147);
#899=ORIENTED_EDGE('',*,*,#152,.T.);
#900=ORIENTED_EDGE('',*,*,#536,.T.);
#901=ORIENTED_EDGE('',*,*,#563,.T.);
#902=ORIENTED_EDGE('',*,*,#606,.T.);
#903=ORIENTED_EDGE('',*,*,#649,.T.);
#904=ORIENTED_EDGE('',*,*,#821,.T.);
#905=ORIENTED_EDGE('',*,*,#780,.T.);
#906=ORIENTED_EDGE('',*,*,#736,.T.);
#907=ORIENTED_EDGE('',*,*,#178,.F.);
#908=ORIENTED_EDGE('',*,*,#323,.T.);
#909=ORIENTED_EDGE('',*,*,#889,.T.);
#910=EDGE_LOOP('',(#899,#900,#901,#902,#903,#904,#905,#906,#907,#908,#909));
#911=FACE_OUTER_BOUND('',#910,.T.);
#912=ADVANCED_FACE('',(#911),#898,.F.);
#913=CARTESIAN_POINT('',(-9.861999999999998,5.222390E-016,-1.239365E-015));
#914=DIRECTION('',(1.0,1.224586E-016,2.832769E-016));
#915=DIRECTION('',(0.0,0.0,1.0));
#916=AXIS2_PLACEMENT_3D('',#913,#914,#915);
#917=CONICAL_SURFACE('',#916,1.112,45.000000000000028);
#918=ORIENTED_EDGE('',*,*,#118,.T.);
#919=CARTESIAN_POINT('',(-9.999999999999998,5.053398E-016,-1.278457E-015));
#920=DIRECTION('',(1.0,0.0,0.0));
#921=DIRECTION('',(0.0,0.0,1.0));
#922=AXIS2_PLACEMENT_3D('',#919,#920,#921);
#923=CIRCLE('',#922,0.974);
#924=EDGE_CURVE('',#113,#122,#923,.T.);
#925=ORIENTED_EDGE('',*,*,#924,.T.);
#926=ORIENTED_EDGE('',*,*,#127,.F.);
#927=CARTESIAN_POINT('',(-9.723999999999998,5.391383E-016,-1.200273E-015));
#928=DIRECTION('',(1.0,0.0,0.0));
#929=DIRECTION('',(0.0,0.0,1.0));
#930=AXIS2_PLACEMENT_3D('',#927,#928,#929);
#931=CIRCLE('',#930,1.25);
#932=EDGE_CURVE('',#73,#90,#931,.T.);
#933=ORIENTED_EDGE('',*,*,#932,.F.);
#934=EDGE_LOOP('',(#918,#925,#926,#933));
#935=FACE_OUTER_BOUND('',#934,.T.);
#936=ADVANCED_FACE('',(#935),#917,.T.);
#937=CARTESIAN_POINT('',(-8.362,7.059270E-016,-8.144496E-016));
#938=DIRECTION('',(1.0,1.224586E-016,2.832769E-016));
#939=DIRECTION('',(0.0,0.0,1.0));
#940=AXIS2_PLACEMENT_3D('',#937,#938,#939);
#941=CYLINDRICAL_SURFACE('',#940,1.25);
#942=ORIENTED_EDGE('',*,*,#78,.T.);
#943=ORIENTED_EDGE('',*,*,#932,.T.);
#944=ORIENTED_EDGE('',*,*,#95,.F.);
#945=ORIENTED_EDGE('',*,*,#416,.F.);
#946=EDGE_LOOP('',(#942,#943,#944,#945));
#947=FACE_OUTER_BOUND('',#946,.T.);
#948=ADVANCED_FACE('',(#947),#941,.T.);
#949=CARTESIAN_POINT('',(-9.999999999999998,4.941988E-016,0.486999999999999));
#950=DIRECTION('',(-1.0,0.0,0.0));
#951=DIRECTION('',(0.0,0.0,-1.0));
#952=AXIS2_PLACEMENT_3D('',#949,#950,#951);
#953=PLANE('',#952);
#954=ORIENTED_EDGE('',*,*,#924,.F.);
#955=ORIENTED_EDGE('',*,*,#134,.F.);
#956=EDGE_LOOP('',(#954,#955));
#957=FACE_OUTER_BOUND('',#956,.T.);
#958=ADVANCED_FACE('',(#957),#953,.T.);
#959=CLOSED_SHELL('',(#106,#138,#301,#353,#394,#420,#452,#477,#502,#540,#583,#626,#669,#694,#719,#757,#800,#834,#854,#873,#893,#912,#936,#948,#958));
#960=MANIFOLD_SOLID_BREP('1BFC',#959);
#961=COLOUR_RGB('253',0.732,0.732,0.732);
#962=SURFACE_STYLE_USAGE(.BOTH.,#963);
#963=SURFACE_SIDE_STYLE('NONE',(#964));
#964=SURFACE_STYLE_FILL_AREA(#965);
#965=FILL_AREA_STYLE('NONE',(#966));
#966=FILL_AREA_STYLE_COLOUR('NONE',#961);
#967=PRESENTATION_STYLE_ASSIGNMENT((#962));
#968=STYLED_ITEM('NONE',(#967),#960);
#969=MECHANICAL_DESIGN_GEOMETRIC_PRESENTATION_REPRESENTATION('NONE',(#968),#28);
#970=PRESENTATION_LAYER_ASSIGNMENT('3D','None',(#960));
#971=ADVANCED_BREP_SHAPE_REPRESENTATION('ABSR1',(#960),#28);
#972=SHAPE_REPRESENTATION_RELATIONSHIP('SRRPL1','',#971,#62);
ENDSEC;
END-ISO-10303-21;
