ISO-10303-21;
HEADER;
/****************************************************************
 * Generated by software with PDElib inside                    *
 * PDElib Version v51a, created Fri 09/10/2010                  *
 * ITI Transcendata (http://www.transcendata.com/)              *
 ****************************************************************/
FILE_DESCRIPTION((''),'2;1');
FILE_NAME('BOSSARD_BN629-1348426_h.stp','2015-12-04T17:52:34',(''),(''),'Mechanical Desktop 2011','Mechanical Desktop 2011',', , ');
FILE_SCHEMA(('AUTOMOTIVE_DESIGN { 1 2 10303 214 1 1 1 1 }'));
ENDSEC;
DATA;
#10=(NAMED_UNIT(*)PLANE_ANGLE_UNIT()SI_UNIT($,.RADIAN.));
#11=DIMENSIONAL_EXPONENTS(0.0,0.0,0.0,0.0,0.0,0.0,0.0);
#12=PLANE_ANGLE_MEASURE_WITH_UNIT(PLANE_ANGLE_MEASURE(0.0174532925),#10);
#16=(CONVERSION_BASED_UNIT('DEGREE',#12)NAMED_UNIT(#11)PLANE_ANGLE_UNIT());
#20=(NAMED_UNIT(*)SI_UNIT($,.STERADIAN.)SOLID_ANGLE_UNIT());
#24=(LENGTH_UNIT()NAMED_UNIT(*)SI_UNIT(.MILLI.,.METRE.));
#26=UNCERTAINTY_MEASURE_WITH_UNIT(LENGTH_MEASURE(0.000001),#24,'DISTANCE_ACCURACY_VALUE','');
#28=(GEOMETRIC_REPRESENTATION_CONTEXT(3)GLOBAL_UNCERTAINTY_ASSIGNED_CONTEXT((#26))GLOBAL_UNIT_ASSIGNED_CONTEXT((#16,#20,#24))REPRESENTATION_CONTEXT('','3D'));
#29=APPLICATION_CONTEXT('automotive design');
#30=APPLICATION_PROTOCOL_DEFINITION('INTERNATIONAL_STANDARD','automotive_design',1998,#29);
#31=PRODUCT_CONTEXT('3D Mechanical Parts',#29,'mechanical');
#32=PRODUCT('Product','Product','',(#31));
#33=PRODUCT_RELATED_PRODUCT_CATEGORY('part',$,(#32));
#34=PRODUCT_CATEGORY('part',$);
#35=PERSON('1','Design','Joe',$,$,$);
#36=ORGANIZATION($,'None','None');
#37=PERSON_AND_ORGANIZATION(#35,#36);
#38=PERSON_AND_ORGANIZATION_ROLE('design_owner');
#39=APPLIED_PERSON_AND_ORGANIZATION_ASSIGNMENT(#37,#38,(#32));
#40=PRODUCT_DEFINITION_FORMATION_WITH_SPECIFIED_SOURCE('None','',#32,.BOUGHT.);
#41=PERSON('2','Creator','Joe',$,$,$);
#42=ORGANIZATION($,'None','None');
#43=PERSON_AND_ORGANIZATION(#41,#42);
#44=PERSON_AND_ORGANIZATION_ROLE('creator');
#45=APPLIED_PERSON_AND_ORGANIZATION_ASSIGNMENT(#43,#44,(#40));
#46=PERSON('3','Supplier','Joe',$,$,$);
#47=ORGANIZATION($,'None','None');
#48=PERSON_AND_ORGANIZATION(#46,#47);
#49=PERSON_AND_ORGANIZATION_ROLE('design_supplier');
#50=APPLIED_PERSON_AND_ORGANIZATION_ASSIGNMENT(#48,#49,(#40));
#51=PRODUCT_DEFINITION_CONTEXT('part definition',#29,'design');
#52=PRODUCT_DEFINITION('None','',#40,#51);
#53=PERSON('4','Creator','Joe',$,$,$);
#54=ORGANIZATION($,'None','None');
#55=PERSON_AND_ORGANIZATION(#53,#54);
#56=PERSON_AND_ORGANIZATION_ROLE('creator');
#57=APPLIED_PERSON_AND_ORGANIZATION_ASSIGNMENT(#55,#56,(#52));
#58=CARTESIAN_POINT('NONE',(0.0,0.0,0.0));
#59=DIRECTION('NONE',(0.0,0.0,1.0));
#60=DIRECTION('NONE',(1.0,0.0,0.0));
#61=AXIS2_PLACEMENT_3D('NONE',#58,#59,#60);
#62=SHAPE_REPRESENTATION('SR1',(#61),#28);
#63=PRODUCT_DEFINITION_SHAPE('PDS1','Test Part',#52);
#64=SHAPE_DEFINITION_REPRESENTATION(#63,#62);
#65=CARTESIAN_POINT('',(2.278312163512969,4.155737E-016,1.224647E-016));
#66=DIRECTION('',(1.0,0.0,0.0));
#67=DIRECTION('',(0.0,0.5,0.866025403784438));
#68=AXIS2_PLACEMENT_3D('',#65,#66,#67);
#69=CONICAL_SURFACE('',#68,1.732050807568884,60.000000000000099);
#70=CARTESIAN_POINT('',(1.859415209452326,0.503250000000001,0.871654568909037));
#71=VERTEX_POINT('',#70);
#72=CARTESIAN_POINT('',(1.999999999999999,0.625000000000002,1.082531754730549));
#73=VERTEX_POINT('',#72);
#74=CARTESIAN_POINT('',(1.859415209452326,0.503250000000001,0.871654568909038));
#75=DIRECTION('',(0.499999999999998,0.43301270189222,0.750000000000001));
#76=VECTOR('',#75,0.281169581095348);
#77=LINE('',#74,#76);
#78=EDGE_CURVE('',#71,#73,#77,.T.);
#79=ORIENTED_EDGE('',*,*,#78,.F.);
#80=CARTESIAN_POINT('',(1.859415209452326,-0.50325,-0.871654568909037));
#81=VERTEX_POINT('',#80);
#82=CARTESIAN_POINT('',(1.859415209452326,2.741676E-016,1.224647E-016));
#83=DIRECTION('',(1.0,0.0,0.0));
#84=DIRECTION('',(0.0,0.5,0.866025403784438));
#85=AXIS2_PLACEMENT_3D('',#82,#83,#84);
#86=CIRCLE('',#85,1.0065);
#87=EDGE_CURVE('',#81,#71,#86,.T.);
#88=ORIENTED_EDGE('',*,*,#87,.F.);
#89=CARTESIAN_POINT('',(2.0,-0.625,-1.082531754730548));
#90=VERTEX_POINT('',#89);
#91=CARTESIAN_POINT('',(1.859415209452326,-0.50325,-0.871654568909037));
#92=DIRECTION('',(0.499999999999999,-0.43301270189222,-0.750000000000001));
#93=VECTOR('',#92,0.281169581095348);
#94=LINE('',#91,#93);
#95=EDGE_CURVE('',#81,#90,#94,.T.);
#96=ORIENTED_EDGE('',*,*,#95,.T.);
#97=CARTESIAN_POINT('',(2.0,3.216245E-016,1.224647E-016));
#98=DIRECTION('',(-1.0,0.0,0.0));
#99=DIRECTION('',(0.0,0.5,0.866025403784438));
#100=AXIS2_PLACEMENT_3D('',#97,#98,#99);
#101=CIRCLE('',#100,1.25);
#102=EDGE_CURVE('',#73,#90,#101,.T.);
#103=ORIENTED_EDGE('',*,*,#102,.F.);
#104=EDGE_LOOP('',(#79,#88,#96,#103));
#105=FACE_OUTER_BOUND('',#104,.T.);
#106=ADVANCED_FACE('',(#105),#69,.F.);
#107=CARTESIAN_POINT('',(1.945356730397559,3.031787E-016,1.224647E-016));
#108=DIRECTION('',(-1.0,0.0,0.0));
#109=DIRECTION('',(0.0,0.5,0.866025403784438));
#110=AXIS2_PLACEMENT_3D('',#107,#108,#109);
#111=CYLINDRICAL_SURFACE('',#110,1.0065);
#112=CARTESIAN_POINT('',(0.140584790547676,0.503250000000002,0.87165456890904));
#113=VERTEX_POINT('',#112);
#114=CARTESIAN_POINT('',(1.859415209452326,0.503250000000001,0.871654568909037));
#115=DIRECTION('',(-1.0,0.0,0.0));
#116=VECTOR('',#115,1.71883041890465);
#117=LINE('',#114,#116);
#118=EDGE_CURVE('',#71,#113,#117,.T.);
#119=ORIENTED_EDGE('',*,*,#118,.F.);
#120=CARTESIAN_POINT('',(1.859415209452326,2.741676E-016,1.224647E-016));
#121=DIRECTION('',(1.0,0.0,0.0));
#122=DIRECTION('',(0.0,0.5,0.866025403784438));
#123=AXIS2_PLACEMENT_3D('',#120,#121,#122);
#124=CIRCLE('',#123,1.0065);
#125=EDGE_CURVE('',#71,#81,#124,.T.);
#126=ORIENTED_EDGE('',*,*,#125,.T.);
#127=CARTESIAN_POINT('',(0.14058479054767,-0.503250000000001,-0.871654568909037));
#128=VERTEX_POINT('',#127);
#129=CARTESIAN_POINT('',(1.859415209452326,-0.50325,-0.871654568909037));
#130=DIRECTION('',(-1.0,0.0,0.0));
#131=VECTOR('',#130,1.718830418904656);
#132=LINE('',#129,#131);
#133=EDGE_CURVE('',#81,#128,#132,.T.);
#134=ORIENTED_EDGE('',*,*,#133,.T.);
#135=CARTESIAN_POINT('',(0.14058479054767,-3.060542E-016,1.224647E-016));
#136=DIRECTION('',(1.0,0.0,0.0));
#137=DIRECTION('',(0.0,0.5,0.866025403784438));
#138=AXIS2_PLACEMENT_3D('',#135,#136,#137);
#139=CIRCLE('',#138,1.0065);
#140=EDGE_CURVE('',#113,#128,#139,.T.);
#141=ORIENTED_EDGE('',*,*,#140,.F.);
#142=EDGE_LOOP('',(#119,#126,#134,#141));
#143=FACE_OUTER_BOUND('',#142,.T.);
#144=ADVANCED_FACE('',(#143),#111,.F.);
#145=CARTESIAN_POINT('',(-0.278312163512966,-4.474604E-016,1.224647E-016));
#146=DIRECTION('',(-1.0,0.0,0.0));
#147=DIRECTION('',(0.0,0.5,0.866025403784438));
#148=AXIS2_PLACEMENT_3D('',#145,#146,#147);
#149=CONICAL_SURFACE('',#148,1.732050807568884,60.000000000000099);
#150=CARTESIAN_POINT('',(2.831069E-015,0.625000000000001,1.08253175473055));
#151=VERTEX_POINT('',#150);
#152=CARTESIAN_POINT('',(0.140584790547676,0.503250000000002,0.87165456890904));
#153=DIRECTION('',(-0.499999999999998,0.43301270189222,0.75));
#154=VECTOR('',#153,0.281169581095346);
#155=LINE('',#152,#154);
#156=EDGE_CURVE('',#113,#151,#155,.T.);
#157=ORIENTED_EDGE('',*,*,#156,.F.);
#158=ORIENTED_EDGE('',*,*,#140,.T.);
#159=CARTESIAN_POINT('',(2.220446E-016,-0.625000000000001,-1.082531754730548));
#160=VERTEX_POINT('',#159);
#161=CARTESIAN_POINT('',(0.140584790547676,-0.503250000000003,-0.87165456890904));
#162=DIRECTION('',(-0.499999999999999,-0.43301270189222,-0.750000000000001));
#163=VECTOR('',#162,0.281169581095346);
#164=LINE('',#161,#163);
#165=EDGE_CURVE('',#128,#160,#164,.T.);
#166=ORIENTED_EDGE('',*,*,#165,.T.);
#167=CARTESIAN_POINT('',(0.0,-3.535111E-016,1.224647E-016));
#168=DIRECTION('',(1.0,0.0,0.0));
#169=DIRECTION('',(0.0,0.5,0.866025403784438));
#170=AXIS2_PLACEMENT_3D('',#167,#168,#169);
#171=CIRCLE('',#170,1.25);
#172=EDGE_CURVE('',#151,#160,#171,.T.);
#173=ORIENTED_EDGE('',*,*,#172,.F.);
#174=EDGE_LOOP('',(#157,#158,#166,#173));
#175=FACE_OUTER_BOUND('',#174,.T.);
#176=ADVANCED_FACE('',(#175),#149,.F.);
#177=CARTESIAN_POINT('',(-0.278312163512966,-4.474604E-016,1.224647E-016));
#178=DIRECTION('',(-1.0,0.0,0.0));
#179=DIRECTION('',(0.0,0.5,0.866025403784438));
#180=AXIS2_PLACEMENT_3D('',#177,#178,#179);
#181=CONICAL_SURFACE('',#180,1.732050807568884,60.000000000000099);
#182=ORIENTED_EDGE('',*,*,#156,.T.);
#183=CARTESIAN_POINT('',(0.0,-3.535111E-016,1.224647E-016));
#184=DIRECTION('',(1.0,0.0,0.0));
#185=DIRECTION('',(0.0,0.5,0.866025403784438));
#186=AXIS2_PLACEMENT_3D('',#183,#184,#185);
#187=CIRCLE('',#186,1.25);
#188=EDGE_CURVE('',#160,#151,#187,.T.);
#189=ORIENTED_EDGE('',*,*,#188,.F.);
#190=ORIENTED_EDGE('',*,*,#165,.F.);
#191=CARTESIAN_POINT('',(0.14058479054767,-3.060542E-016,1.224647E-016));
#192=DIRECTION('',(1.0,0.0,0.0));
#193=DIRECTION('',(0.0,0.5,0.866025403784438));
#194=AXIS2_PLACEMENT_3D('',#191,#192,#193);
#195=CIRCLE('',#194,1.0065);
#196=EDGE_CURVE('',#128,#113,#195,.T.);
#197=ORIENTED_EDGE('',*,*,#196,.T.);
#198=EDGE_LOOP('',(#182,#189,#190,#197));
#199=FACE_OUTER_BOUND('',#198,.T.);
#200=ADVANCED_FACE('',(#199),#181,.F.);
#201=CARTESIAN_POINT('',(1.945356730397559,3.031787E-016,1.224647E-016));
#202=DIRECTION('',(-1.0,0.0,0.0));
#203=DIRECTION('',(0.0,0.5,0.866025403784438));
#204=AXIS2_PLACEMENT_3D('',#201,#202,#203);
#205=CYLINDRICAL_SURFACE('',#204,1.0065);
#206=ORIENTED_EDGE('',*,*,#118,.T.);
#207=ORIENTED_EDGE('',*,*,#196,.F.);
#208=ORIENTED_EDGE('',*,*,#133,.F.);
#209=ORIENTED_EDGE('',*,*,#87,.T.);
#210=EDGE_LOOP('',(#206,#207,#208,#209));
#211=FACE_OUTER_BOUND('',#210,.T.);
#212=ADVANCED_FACE('',(#211),#205,.F.);
#213=CARTESIAN_POINT('',(2.278312163512969,4.155737E-016,1.224647E-016));
#214=DIRECTION('',(1.0,0.0,0.0));
#215=DIRECTION('',(0.0,0.5,0.866025403784438));
#216=AXIS2_PLACEMENT_3D('',#213,#214,#215);
#217=CONICAL_SURFACE('',#216,1.732050807568884,60.000000000000099);
#218=ORIENTED_EDGE('',*,*,#78,.T.);
#219=CARTESIAN_POINT('',(2.0,3.216245E-016,1.224647E-016));
#220=DIRECTION('',(-1.0,0.0,0.0));
#221=DIRECTION('',(0.0,0.5,0.866025403784438));
#222=AXIS2_PLACEMENT_3D('',#219,#220,#221);
#223=CIRCLE('',#222,1.25);
#224=EDGE_CURVE('',#90,#73,#223,.T.);
#225=ORIENTED_EDGE('',*,*,#224,.F.);
#226=ORIENTED_EDGE('',*,*,#95,.F.);
#227=ORIENTED_EDGE('',*,*,#125,.F.);
#228=EDGE_LOOP('',(#218,#225,#226,#227));
#229=FACE_OUTER_BOUND('',#228,.T.);
#230=ADVANCED_FACE('',(#229),#217,.F.);
#231=CARTESIAN_POINT('',(-0.443375672974054,-5.031805E-016,1.224647E-016));
#232=DIRECTION('',(1.0,0.0,0.0));
#233=DIRECTION('',(0.0,0.5,0.866025403784438));
#234=AXIS2_PLACEMENT_3D('',#231,#232,#233);
#235=CONICAL_SURFACE('',#234,1.732050807568884,60.000000000000099);
#236=CARTESIAN_POINT('',(0.2232909936926,-1.443375672974066,-2.5));
#237=VERTEX_POINT('',#236);
#238=CARTESIAN_POINT('',(8.881784E-016,-2.1650635094611,-1.250000000000002));
#239=VERTEX_POINT('',#238);
#240=CARTESIAN_POINT('',(0.2232909936926,-1.443375672974066,-2.5));
#241=CARTESIAN_POINT('',(6.661338E-016,-1.830127018922075,-1.8301270189224));
#242=CARTESIAN_POINT('',(8.881784E-016,-2.1650635094611,-1.250000000000002));
#250=(BOUNDED_CURVE()B_SPLINE_CURVE(2,(#240,#241,#242),.UNSPECIFIED.,.F.,.U.)B_SPLINE_CURVE_WITH_KNOTS((3,3),(1.24183320163338,2.9020570714182),.UNSPECIFIED.)CURVE()GEOMETRIC_REPRESENTATION_ITEM()RATIONAL_B_SPLINE_CURVE((1.05779032035084,1.06752549682723,1.0))REPRESENTATION_ITEM(''));
#251=EDGE_CURVE('',#237,#239,#250,.T.);
#252=ORIENTED_EDGE('',*,*,#251,.T.);
#253=CARTESIAN_POINT('',(0.0,-3.009045E-015,-2.500000000000003));
#254=VERTEX_POINT('',#253);
#255=CARTESIAN_POINT('',(0.0,-3.535111E-016,1.224647E-016));
#256=DIRECTION('',(1.0,0.0,0.0));
#257=DIRECTION('',(0.0,0.5,0.866025403784438));
#258=AXIS2_PLACEMENT_3D('',#255,#256,#257);
#259=CIRCLE('',#258,2.5);
#260=EDGE_CURVE('',#239,#254,#259,.T.);
#261=ORIENTED_EDGE('',*,*,#260,.T.);
#262=CARTESIAN_POINT('',(0.0,-3.009045E-015,-2.500000000000003));
#263=CARTESIAN_POINT('',(2.220446E-016,-0.669872981081208,-2.5));
#264=CARTESIAN_POINT('',(0.2232909936926,-1.443375672974066,-2.5));
#272=(BOUNDED_CURVE()B_SPLINE_CURVE(2,(#262,#263,#264),.UNSPECIFIED.,.F.,.U.)B_SPLINE_CURVE_WITH_KNOTS((3,3),(2.9020570714182,4.5622809412114),.UNSPECIFIED.)CURVE()GEOMETRIC_REPRESENTATION_ITEM()RATIONAL_B_SPLINE_CURVE((1.0,1.06752549682757,1.05779032035075))REPRESENTATION_ITEM(''));
#273=EDGE_CURVE('',#254,#237,#272,.T.);
#274=ORIENTED_EDGE('',*,*,#273,.T.);
#275=EDGE_LOOP('',(#252,#261,#274));
#276=FACE_OUTER_BOUND('',#275,.T.);
#277=ADVANCED_FACE('',(#276),#235,.T.);
#278=CARTESIAN_POINT('',(-0.443375672974054,-5.031805E-016,1.224647E-016));
#279=DIRECTION('',(1.0,0.0,0.0));
#280=DIRECTION('',(0.0,0.5,0.866025403784438));
#281=AXIS2_PLACEMENT_3D('',#278,#279,#280);
#282=CONICAL_SURFACE('',#281,1.732050807568884,60.000000000000099);
#283=CARTESIAN_POINT('',(-8.881784E-016,2.165063509461099,1.250000000000002));
#284=VERTEX_POINT('',#283);
#285=CARTESIAN_POINT('',(0.0,2.320026E-015,2.500000000000003));
#286=VERTEX_POINT('',#285);
#287=CARTESIAN_POINT('',(0.0,-3.535111E-016,1.224647E-016));
#288=DIRECTION('',(1.0,0.0,0.0));
#289=DIRECTION('',(0.0,0.5,0.866025403784438));
#290=AXIS2_PLACEMENT_3D('',#287,#288,#289);
#291=CIRCLE('',#290,2.5);
#292=EDGE_CURVE('',#284,#286,#291,.T.);
#293=ORIENTED_EDGE('',*,*,#292,.T.);
#294=CARTESIAN_POINT('',(0.2232909936926,1.443375672974065,2.5));
#295=VERTEX_POINT('',#294);
#296=CARTESIAN_POINT('',(0.0,2.320026E-015,2.500000000000003));
#297=CARTESIAN_POINT('',(-4.440892E-016,0.669872981081208,2.5));
#298=CARTESIAN_POINT('',(0.2232909936926,1.443375672974065,2.5));
#306=(BOUNDED_CURVE()B_SPLINE_CURVE(2,(#296,#297,#298),.UNSPECIFIED.,.F.,.U.)B_SPLINE_CURVE_WITH_KNOTS((3,3),(2.9020570714182,4.5622809412114),.UNSPECIFIED.)CURVE()GEOMETRIC_REPRESENTATION_ITEM()RATIONAL_B_SPLINE_CURVE((1.0,1.06752549682757,1.05779032035075))REPRESENTATION_ITEM(''));
#307=EDGE_CURVE('',#286,#295,#306,.T.);
#308=ORIENTED_EDGE('',*,*,#307,.T.);
#309=CARTESIAN_POINT('',(0.2232909936926,1.443375672974065,2.5));
#310=CARTESIAN_POINT('',(-4.440892E-016,1.830127018922074,1.8301270189224));
#311=CARTESIAN_POINT('',(-8.881784E-016,2.165063509461099,1.250000000000002));
#319=(BOUNDED_CURVE()B_SPLINE_CURVE(2,(#309,#310,#311),.UNSPECIFIED.,.F.,.U.)B_SPLINE_CURVE_WITH_KNOTS((3,3),(1.24183320163338,2.9020570714182),.UNSPECIFIED.)CURVE()GEOMETRIC_REPRESENTATION_ITEM()RATIONAL_B_SPLINE_CURVE((1.05779032035084,1.06752549682723,1.0))REPRESENTATION_ITEM(''));
#320=EDGE_CURVE('',#295,#284,#319,.T.);
#321=ORIENTED_EDGE('',*,*,#320,.T.);
#322=EDGE_LOOP('',(#293,#308,#321));
#323=FACE_OUTER_BOUND('',#322,.T.);
#324=ADVANCED_FACE('',(#323),#282,.T.);
#325=CARTESIAN_POINT('',(2.443375672974058,4.712939E-016,1.224647E-016));
#326=DIRECTION('',(-1.0,0.0,0.0));
#327=DIRECTION('',(0.0,0.5,0.866025403784438));
#328=AXIS2_PLACEMENT_3D('',#325,#326,#327);
#329=CONICAL_SURFACE('',#328,1.732050807568884,60.000000000000099);
#330=CARTESIAN_POINT('',(2.000000000000001,-2.165063509461099,-1.250000000000002));
#331=VERTEX_POINT('',#330);
#332=CARTESIAN_POINT('',(2.0,-2.342911E-015,-2.500000000000003));
#333=VERTEX_POINT('',#332);
#334=CARTESIAN_POINT('',(2.0,3.216245E-016,1.224647E-016));
#335=DIRECTION('',(1.0,0.0,0.0));
#336=DIRECTION('',(0.0,0.5,0.866025403784438));
#337=AXIS2_PLACEMENT_3D('',#334,#335,#336);
#338=CIRCLE('',#337,2.5);
#339=EDGE_CURVE('',#331,#333,#338,.T.);
#340=ORIENTED_EDGE('',*,*,#339,.F.);
#341=CARTESIAN_POINT('',(1.776709006307399,-1.443375672974065,-2.5));
#342=VERTEX_POINT('',#341);
#343=CARTESIAN_POINT('',(2.000000000000001,-2.165063509461099,-1.250000000000002));
#344=CARTESIAN_POINT('',(2.0,-1.830127018920492,-1.830127018925138));
#345=CARTESIAN_POINT('',(1.776709006307399,-1.443375672974065,-2.5));
#353=(BOUNDED_CURVE()B_SPLINE_CURVE(2,(#343,#344,#345),.UNSPECIFIED.,.F.,.U.)B_SPLINE_CURVE_WITH_KNOTS((3,3),(2.9020570714182,4.5622809412114),.UNSPECIFIED.)CURVE()GEOMETRIC_REPRESENTATION_ITEM()RATIONAL_B_SPLINE_CURVE((1.0,1.06752549682757,1.05779032035075))REPRESENTATION_ITEM(''));
#354=EDGE_CURVE('',#331,#342,#353,.T.);
#355=ORIENTED_EDGE('',*,*,#354,.T.);
#356=CARTESIAN_POINT('',(1.776709006307399,-1.443375672974065,-2.5));
#357=CARTESIAN_POINT('',(2.0,-0.669872981078044,-2.500000000000002));
#358=CARTESIAN_POINT('',(2.0,-2.342911E-015,-2.500000000000003));
#366=(BOUNDED_CURVE()B_SPLINE_CURVE(2,(#356,#357,#358),.UNSPECIFIED.,.F.,.U.)B_SPLINE_CURVE_WITH_KNOTS((3,3),(1.24183320163338,2.9020570714182),.UNSPECIFIED.)CURVE()GEOMETRIC_REPRESENTATION_ITEM()RATIONAL_B_SPLINE_CURVE((1.05779032035084,1.06752549682723,1.0))REPRESENTATION_ITEM(''));
#367=EDGE_CURVE('',#342,#333,#366,.T.);
#368=ORIENTED_EDGE('',*,*,#367,.T.);
#369=EDGE_LOOP('',(#340,#355,#368));
#370=FACE_OUTER_BOUND('',#369,.T.);
#371=ADVANCED_FACE('',(#370),#329,.T.);
#372=CARTESIAN_POINT('',(2.443375672974058,4.712939E-016,1.224647E-016));
#373=DIRECTION('',(-1.0,0.0,0.0));
#374=DIRECTION('',(0.0,0.5,0.866025403784438));
#375=AXIS2_PLACEMENT_3D('',#372,#373,#374);
#376=CONICAL_SURFACE('',#375,1.732050807568884,60.000000000000099);
#377=CARTESIAN_POINT('',(1.776709006307398,1.443375672974066,2.5));
#378=VERTEX_POINT('',#377);
#379=CARTESIAN_POINT('',(2.0,2.986160E-015,2.500000000000003));
#380=VERTEX_POINT('',#379);
#381=CARTESIAN_POINT('',(1.776709006307398,1.443375672974066,2.5));
#382=CARTESIAN_POINT('',(2.0,0.669872981078045,2.500000000000002));
#383=CARTESIAN_POINT('',(2.0,2.986160E-015,2.500000000000003));
#391=(BOUNDED_CURVE()B_SPLINE_CURVE(2,(#381,#382,#383),.UNSPECIFIED.,.F.,.U.)B_SPLINE_CURVE_WITH_KNOTS((3,3),(1.24183320163338,2.9020570714182),.UNSPECIFIED.)CURVE()GEOMETRIC_REPRESENTATION_ITEM()RATIONAL_B_SPLINE_CURVE((1.05779032035084,1.06752549682723,1.0))REPRESENTATION_ITEM(''));
#392=EDGE_CURVE('',#378,#380,#391,.T.);
#393=ORIENTED_EDGE('',*,*,#392,.T.);
#394=CARTESIAN_POINT('',(1.999999999999999,2.1650635094611,1.250000000000002));
#395=VERTEX_POINT('',#394);
#396=CARTESIAN_POINT('',(2.0,3.216245E-016,1.224647E-016));
#397=DIRECTION('',(1.0,0.0,0.0));
#398=DIRECTION('',(0.0,0.5,0.866025403784438));
#399=AXIS2_PLACEMENT_3D('',#396,#397,#398);
#400=CIRCLE('',#399,2.5);
#401=EDGE_CURVE('',#395,#380,#400,.T.);
#402=ORIENTED_EDGE('',*,*,#401,.F.);
#403=CARTESIAN_POINT('',(1.999999999999999,2.1650635094611,1.250000000000002));
#404=CARTESIAN_POINT('',(1.999999999999999,1.830127018920493,1.830127018925138));
#405=CARTESIAN_POINT('',(1.776709006307398,1.443375672974066,2.5));
#413=(BOUNDED_CURVE()B_SPLINE_CURVE(2,(#403,#404,#405),.UNSPECIFIED.,.F.,.U.)B_SPLINE_CURVE_WITH_KNOTS((3,3),(2.9020570714182,4.5622809412114),.UNSPECIFIED.)CURVE()GEOMETRIC_REPRESENTATION_ITEM()RATIONAL_B_SPLINE_CURVE((1.0,1.06752549682757,1.05779032035075))REPRESENTATION_ITEM(''));
#414=EDGE_CURVE('',#395,#378,#413,.T.);
#415=ORIENTED_EDGE('',*,*,#414,.T.);
#416=EDGE_LOOP('',(#393,#402,#415));
#417=FACE_OUTER_BOUND('',#416,.T.);
#418=ADVANCED_FACE('',(#417),#376,.T.);
#419=CARTESIAN_POINT('',(2.100000000000001,-2.95892012959683,-0.124999999999994));
#420=DIRECTION('',(-2.923423E-016,0.866025403784438,-0.5));
#421=DIRECTION('',(-1.0,0.0,0.0));
#422=AXIS2_PLACEMENT_3D('',#419,#420,#421);
#423=PLANE('',#422);
#424=CARTESIAN_POINT('',(1.776709006307399,-1.443375672974066,2.499999999999997));
#425=VERTEX_POINT('',#424);
#426=CARTESIAN_POINT('',(2.000000000000001,-2.165063509461096,1.250000000000001));
#427=VERTEX_POINT('',#426);
#428=CARTESIAN_POINT('',(1.776709006307399,-1.443375672974066,2.499999999999997));
#429=CARTESIAN_POINT('',(2.0,-1.830127018922074,1.830127018922401));
#430=CARTESIAN_POINT('',(2.000000000000001,-2.165063509461096,1.250000000000001));
#438=(BOUNDED_CURVE()B_SPLINE_CURVE(2,(#428,#429,#430),.UNSPECIFIED.,.F.,.U.)B_SPLINE_CURVE_WITH_KNOTS((3,3),(1.24183320163338,2.9020570714182),.UNSPECIFIED.)CURVE()GEOMETRIC_REPRESENTATION_ITEM()RATIONAL_B_SPLINE_CURVE((1.05779032035084,1.06752549682723,1.0))REPRESENTATION_ITEM(''));
#439=EDGE_CURVE('',#425,#427,#438,.T.);
#440=ORIENTED_EDGE('',*,*,#439,.F.);
#441=CARTESIAN_POINT('',(0.2232909936926,-1.443375672974066,2.499999999999997));
#442=VERTEX_POINT('',#441);
#443=CARTESIAN_POINT('',(0.2232909936926,-1.443375672974066,2.499999999999997));
#444=DIRECTION('',(1.0,0.0,0.0));
#445=VECTOR('',#444,1.553418012614799);
#446=LINE('',#443,#445);
#447=EDGE_CURVE('',#442,#425,#446,.T.);
#448=ORIENTED_EDGE('',*,*,#447,.F.);
#449=CARTESIAN_POINT('',(6.661338E-016,-2.165063509461097,1.250000000000001));
#450=VERTEX_POINT('',#449);
#451=CARTESIAN_POINT('',(6.661338E-016,-2.165063509461097,1.250000000000001));
#452=CARTESIAN_POINT('',(6.661338E-016,-1.830127018920493,1.830127018925139));
#453=CARTESIAN_POINT('',(0.2232909936926,-1.443375672974066,2.499999999999997));
#461=(BOUNDED_CURVE()B_SPLINE_CURVE(2,(#451,#452,#453),.UNSPECIFIED.,.F.,.U.)B_SPLINE_CURVE_WITH_KNOTS((3,3),(2.9020570714182,4.5622809412114),.UNSPECIFIED.)CURVE()GEOMETRIC_REPRESENTATION_ITEM()RATIONAL_B_SPLINE_CURVE((1.0,1.06752549682757,1.05779032035074))REPRESENTATION_ITEM(''));
#462=EDGE_CURVE('',#450,#442,#461,.T.);
#463=ORIENTED_EDGE('',*,*,#462,.F.);
#464=CARTESIAN_POINT('',(0.223290993692601,-2.886751345948126,5.451535E-015));
#465=VERTEX_POINT('',#464);
#466=CARTESIAN_POINT('',(0.223290993692601,-2.886751345948126,5.451535E-015));
#467=CARTESIAN_POINT('',(8.881784E-016,-2.500000000000119,0.669872981077603));
#468=CARTESIAN_POINT('',(6.661338E-016,-2.165063509461097,1.250000000000001));
#476=(BOUNDED_CURVE()B_SPLINE_CURVE(2,(#466,#467,#468),.UNSPECIFIED.,.F.,.U.)B_SPLINE_CURVE_WITH_KNOTS((3,3),(1.24183320163338,2.9020570714182),.UNSPECIFIED.)CURVE()GEOMETRIC_REPRESENTATION_ITEM()RATIONAL_B_SPLINE_CURVE((1.05779032035084,1.06752549682723,1.0))REPRESENTATION_ITEM(''));
#477=EDGE_CURVE('',#465,#450,#476,.T.);
#478=ORIENTED_EDGE('',*,*,#477,.F.);
#479=CARTESIAN_POINT('',(1.776709006307399,-2.886751345948126,5.451535E-015));
#480=VERTEX_POINT('',#479);
#481=CARTESIAN_POINT('',(0.223290993692601,-2.886751345948126,5.451535E-015));
#482=DIRECTION('',(1.0,0.0,0.0));
#483=VECTOR('',#482,1.553418012614798);
#484=LINE('',#481,#483);
#485=EDGE_CURVE('',#465,#480,#484,.T.);
#486=ORIENTED_EDGE('',*,*,#485,.T.);
#487=CARTESIAN_POINT('',(2.000000000000001,-2.165063509461096,1.250000000000001));
#488=CARTESIAN_POINT('',(2.0,-2.5000000000017,0.669872981074863));
#489=CARTESIAN_POINT('',(1.776709006307399,-2.886751345948126,5.451535E-015));
#497=(BOUNDED_CURVE()B_SPLINE_CURVE(2,(#487,#488,#489),.UNSPECIFIED.,.F.,.U.)B_SPLINE_CURVE_WITH_KNOTS((3,3),(2.9020570714182,4.5622809412114),.UNSPECIFIED.)CURVE()GEOMETRIC_REPRESENTATION_ITEM()RATIONAL_B_SPLINE_CURVE((1.0,1.06752549682757,1.05779032035074))REPRESENTATION_ITEM(''));
#498=EDGE_CURVE('',#427,#480,#497,.T.);
#499=ORIENTED_EDGE('',*,*,#498,.F.);
#500=EDGE_LOOP('',(#440,#448,#463,#478,#486,#499));
#501=FACE_OUTER_BOUND('',#500,.T.);
#502=ADVANCED_FACE('',(#501),#423,.F.);
#503=CARTESIAN_POINT('',(2.100000000000001,-1.587713240271472,-2.5));
#504=DIRECTION('',(0.0,0.0,1.0));
#505=DIRECTION('',(1.0,0.0,0.0));
#506=AXIS2_PLACEMENT_3D('',#503,#504,#505);
#507=PLANE('',#506);
#508=ORIENTED_EDGE('',*,*,#367,.F.);
#509=CARTESIAN_POINT('',(0.2232909936926,-1.443375672974066,-2.5));
#510=DIRECTION('',(1.0,0.0,0.0));
#511=VECTOR('',#510,1.553418012614799);
#512=LINE('',#509,#511);
#513=EDGE_CURVE('',#237,#342,#512,.T.);
#514=ORIENTED_EDGE('',*,*,#513,.F.);
#515=ORIENTED_EDGE('',*,*,#273,.F.);
#516=CARTESIAN_POINT('',(0.2232909936926,1.443375672974065,-2.499999999999997));
#517=VERTEX_POINT('',#516);
#518=CARTESIAN_POINT('',(0.2232909936926,1.443375672974065,-2.499999999999997));
#519=CARTESIAN_POINT('',(-4.440892E-016,0.669872981078041,-2.500000000000006));
#520=CARTESIAN_POINT('',(0.0,-3.009045E-015,-2.500000000000003));
#528=(BOUNDED_CURVE()B_SPLINE_CURVE(2,(#518,#519,#520),.UNSPECIFIED.,.F.,.U.)B_SPLINE_CURVE_WITH_KNOTS((3,3),(1.24183320163338,2.9020570714182),.UNSPECIFIED.)CURVE()GEOMETRIC_REPRESENTATION_ITEM()RATIONAL_B_SPLINE_CURVE((1.05779032035084,1.06752549682723,1.0))REPRESENTATION_ITEM(''));
#529=EDGE_CURVE('',#517,#254,#528,.T.);
#530=ORIENTED_EDGE('',*,*,#529,.F.);
#531=CARTESIAN_POINT('',(1.776709006307398,1.443375672974066,-2.499999999999997));
#532=VERTEX_POINT('',#531);
#533=CARTESIAN_POINT('',(0.2232909936926,1.443375672974065,-2.499999999999997));
#534=DIRECTION('',(1.0,0.0,0.0));
#535=VECTOR('',#534,1.553418012614798);
#536=LINE('',#533,#535);
#537=EDGE_CURVE('',#517,#532,#536,.T.);
#538=ORIENTED_EDGE('',*,*,#537,.T.);
#539=CARTESIAN_POINT('',(2.0,-2.342911E-015,-2.500000000000003));
#540=CARTESIAN_POINT('',(2.0,0.66987298108121,-2.499999999999999));
#541=CARTESIAN_POINT('',(1.776709006307398,1.443375672974066,-2.499999999999997));
#549=(BOUNDED_CURVE()B_SPLINE_CURVE(2,(#539,#540,#541),.UNSPECIFIED.,.F.,.U.)B_SPLINE_CURVE_WITH_KNOTS((3,3),(2.9020570714182,4.56228094121139),.UNSPECIFIED.)CURVE()GEOMETRIC_REPRESENTATION_ITEM()RATIONAL_B_SPLINE_CURVE((1.0,1.06752549682756,1.05779032035074))REPRESENTATION_ITEM(''));
#550=EDGE_CURVE('',#333,#532,#549,.T.);
#551=ORIENTED_EDGE('',*,*,#550,.F.);
#552=EDGE_LOOP('',(#508,#514,#515,#530,#538,#551));
#553=FACE_OUTER_BOUND('',#552,.T.);
#554=ADVANCED_FACE('',(#553),#507,.F.);
#555=CARTESIAN_POINT('',(2.100000000000001,-2.958920129596829,0.125000000000005));
#556=DIRECTION('',(-2.923423E-016,0.866025403784439,0.5));
#557=DIRECTION('',(0.0,-0.5,0.866025403784439));
#558=AXIS2_PLACEMENT_3D('',#555,#556,#557);
#559=PLANE('',#558);
#560=CARTESIAN_POINT('',(1.776709006307399,-2.886751345948126,5.451535E-015));
#561=CARTESIAN_POINT('',(2.0,-2.500000000000118,-0.669872981077595));
#562=CARTESIAN_POINT('',(2.000000000000001,-2.165063509461099,-1.250000000000002));
#570=(BOUNDED_CURVE()B_SPLINE_CURVE(2,(#560,#561,#562),.UNSPECIFIED.,.F.,.U.)B_SPLINE_CURVE_WITH_KNOTS((3,3),(1.24183320163338,2.9020570714182),.UNSPECIFIED.)CURVE()GEOMETRIC_REPRESENTATION_ITEM()RATIONAL_B_SPLINE_CURVE((1.05779032035084,1.06752549682723,1.0))REPRESENTATION_ITEM(''));
#571=EDGE_CURVE('',#480,#331,#570,.T.);
#572=ORIENTED_EDGE('',*,*,#571,.F.);
#573=ORIENTED_EDGE('',*,*,#485,.F.);
#574=CARTESIAN_POINT('',(8.881784E-016,-2.1650635094611,-1.250000000000002));
#575=CARTESIAN_POINT('',(6.661338E-016,-2.500000000001701,-0.669872981074857));
#576=CARTESIAN_POINT('',(0.223290993692601,-2.886751345948126,5.451535E-015));
#584=(BOUNDED_CURVE()B_SPLINE_CURVE(2,(#574,#575,#576),.UNSPECIFIED.,.F.,.U.)B_SPLINE_CURVE_WITH_KNOTS((3,3),(2.9020570714182,4.5622809412114),.UNSPECIFIED.)CURVE()GEOMETRIC_REPRESENTATION_ITEM()RATIONAL_B_SPLINE_CURVE((1.0,1.06752549682757,1.05779032035075))REPRESENTATION_ITEM(''));
#585=EDGE_CURVE('',#239,#465,#584,.T.);
#586=ORIENTED_EDGE('',*,*,#585,.F.);
#587=ORIENTED_EDGE('',*,*,#251,.F.);
#588=ORIENTED_EDGE('',*,*,#513,.T.);
#589=ORIENTED_EDGE('',*,*,#354,.F.);
#590=EDGE_LOOP('',(#572,#573,#586,#587,#588,#589));
#591=FACE_OUTER_BOUND('',#590,.T.);
#592=ADVANCED_FACE('',(#591),#559,.F.);
#593=CARTESIAN_POINT('',(-0.100000000000001,1.371206889325362,-2.624999999999996));
#594=DIRECTION('',(2.923423E-016,-0.866025403784438,0.5));
#595=DIRECTION('',(1.0,0.0,0.0));
#596=AXIS2_PLACEMENT_3D('',#593,#594,#595);
#597=PLANE('',#596);
#598=CARTESIAN_POINT('',(1.999999999999999,2.165063509461097,-1.250000000000001));
#599=VERTEX_POINT('',#598);
#600=CARTESIAN_POINT('',(1.776709006307397,2.886751345948126,-5.206606E-015));
#601=VERTEX_POINT('',#600);
#602=CARTESIAN_POINT('',(1.999999999999999,2.165063509461097,-1.250000000000001));
#603=CARTESIAN_POINT('',(1.999999999999999,2.5000000000017,-0.669872981074863));
#604=CARTESIAN_POINT('',(1.776709006307397,2.886751345948126,-5.206606E-015));
#612=(BOUNDED_CURVE()B_SPLINE_CURVE(2,(#602,#603,#604),.UNSPECIFIED.,.F.,.U.)B_SPLINE_CURVE_WITH_KNOTS((3,3),(2.9020570714182,4.5622809412114),.UNSPECIFIED.)CURVE()GEOMETRIC_REPRESENTATION_ITEM()RATIONAL_B_SPLINE_CURVE((1.0,1.06752549682757,1.05779032035074))REPRESENTATION_ITEM(''));
#613=EDGE_CURVE('',#599,#601,#612,.T.);
#614=ORIENTED_EDGE('',*,*,#613,.F.);
#615=CARTESIAN_POINT('',(1.776709006307398,1.443375672974066,-2.499999999999997));
#616=CARTESIAN_POINT('',(1.999999999999999,1.830127018922074,-1.8301270189224));
#617=CARTESIAN_POINT('',(1.999999999999999,2.165063509461097,-1.250000000000001));
#625=(BOUNDED_CURVE()B_SPLINE_CURVE(2,(#615,#616,#617),.UNSPECIFIED.,.F.,.U.)B_SPLINE_CURVE_WITH_KNOTS((3,3),(1.24183320163338,2.9020570714182),.UNSPECIFIED.)CURVE()GEOMETRIC_REPRESENTATION_ITEM()RATIONAL_B_SPLINE_CURVE((1.05779032035084,1.06752549682723,1.0))REPRESENTATION_ITEM(''));
#626=EDGE_CURVE('',#532,#599,#625,.T.);
#627=ORIENTED_EDGE('',*,*,#626,.F.);
#628=ORIENTED_EDGE('',*,*,#537,.F.);
#629=CARTESIAN_POINT('',(-8.881784E-016,2.165063509461096,-1.250000000000001));
#630=VERTEX_POINT('',#629);
#631=CARTESIAN_POINT('',(-8.881784E-016,2.165063509461096,-1.250000000000001));
#632=CARTESIAN_POINT('',(-4.440892E-016,1.830127018920492,-1.830127018925139));
#633=CARTESIAN_POINT('',(0.2232909936926,1.443375672974065,-2.499999999999997));
#641=(BOUNDED_CURVE()B_SPLINE_CURVE(2,(#631,#632,#633),.UNSPECIFIED.,.F.,.U.)B_SPLINE_CURVE_WITH_KNOTS((3,3),(2.9020570714182,4.5622809412114),.UNSPECIFIED.)CURVE()GEOMETRIC_REPRESENTATION_ITEM()RATIONAL_B_SPLINE_CURVE((1.0,1.06752549682757,1.05779032035074))REPRESENTATION_ITEM(''));
#642=EDGE_CURVE('',#630,#517,#641,.T.);
#643=ORIENTED_EDGE('',*,*,#642,.F.);
#644=CARTESIAN_POINT('',(0.223290993692599,2.886751345948126,-5.206606E-015));
#645=VERTEX_POINT('',#644);
#646=CARTESIAN_POINT('',(0.223290993692599,2.886751345948126,-5.206606E-015));
#647=CARTESIAN_POINT('',(-8.881784E-016,2.500000000000119,-0.669872981077603));
#648=CARTESIAN_POINT('',(-8.881784E-016,2.165063509461096,-1.250000000000001));
#656=(BOUNDED_CURVE()B_SPLINE_CURVE(2,(#646,#647,#648),.UNSPECIFIED.,.F.,.U.)B_SPLINE_CURVE_WITH_KNOTS((3,3),(1.24183320163338,2.9020570714182),.UNSPECIFIED.)CURVE()GEOMETRIC_REPRESENTATION_ITEM()RATIONAL_B_SPLINE_CURVE((1.05779032035084,1.06752549682723,1.0))REPRESENTATION_ITEM(''));
#657=EDGE_CURVE('',#645,#630,#656,.T.);
#658=ORIENTED_EDGE('',*,*,#657,.F.);
#659=CARTESIAN_POINT('',(0.223290993692599,2.886751345948126,-5.206606E-015));
#660=DIRECTION('',(1.0,0.0,0.0));
#661=VECTOR('',#660,1.553418012614798);
#662=LINE('',#659,#661);
#663=EDGE_CURVE('',#645,#601,#662,.T.);
#664=ORIENTED_EDGE('',*,*,#663,.T.);
#665=EDGE_LOOP('',(#614,#627,#628,#643,#658,#664));
#666=FACE_OUTER_BOUND('',#665,.T.);
#667=ADVANCED_FACE('',(#666),#597,.F.);
#668=CARTESIAN_POINT('',(2.099999999999999,2.95892012959683,-0.125000000000005));
#669=DIRECTION('',(2.923423E-016,-0.866025403784439,-0.5));
#670=DIRECTION('',(0.0,0.5,-0.866025403784439));
#671=AXIS2_PLACEMENT_3D('',#668,#669,#670);
#672=PLANE('',#671);
#673=ORIENTED_EDGE('',*,*,#414,.F.);
#674=CARTESIAN_POINT('',(1.776709006307397,2.886751345948126,-5.206606E-015));
#675=CARTESIAN_POINT('',(1.999999999999999,2.500000000000119,0.669872981077595));
#676=CARTESIAN_POINT('',(1.999999999999999,2.1650635094611,1.250000000000002));
#684=(BOUNDED_CURVE()B_SPLINE_CURVE(2,(#674,#675,#676),.UNSPECIFIED.,.F.,.U.)B_SPLINE_CURVE_WITH_KNOTS((3,3),(1.24183320163338,2.9020570714182),.UNSPECIFIED.)CURVE()GEOMETRIC_REPRESENTATION_ITEM()RATIONAL_B_SPLINE_CURVE((1.05779032035084,1.06752549682723,1.0))REPRESENTATION_ITEM(''));
#685=EDGE_CURVE('',#601,#395,#684,.T.);
#686=ORIENTED_EDGE('',*,*,#685,.F.);
#687=ORIENTED_EDGE('',*,*,#663,.F.);
#688=CARTESIAN_POINT('',(-8.881784E-016,2.165063509461099,1.250000000000002));
#689=CARTESIAN_POINT('',(-8.881784E-016,2.500000000001701,0.669872981074857));
#690=CARTESIAN_POINT('',(0.223290993692599,2.886751345948126,-5.206606E-015));
#698=(BOUNDED_CURVE()B_SPLINE_CURVE(2,(#688,#689,#690),.UNSPECIFIED.,.F.,.U.)B_SPLINE_CURVE_WITH_KNOTS((3,3),(2.9020570714182,4.5622809412114),.UNSPECIFIED.)CURVE()GEOMETRIC_REPRESENTATION_ITEM()RATIONAL_B_SPLINE_CURVE((1.0,1.06752549682757,1.05779032035075))REPRESENTATION_ITEM(''));
#699=EDGE_CURVE('',#284,#645,#698,.T.);
#700=ORIENTED_EDGE('',*,*,#699,.F.);
#701=ORIENTED_EDGE('',*,*,#320,.F.);
#702=CARTESIAN_POINT('',(0.2232909936926,1.443375672974065,2.5));
#703=DIRECTION('',(1.0,0.0,0.0));
#704=VECTOR('',#703,1.553418012614798);
#705=LINE('',#702,#704);
#706=EDGE_CURVE('',#295,#378,#705,.T.);
#707=ORIENTED_EDGE('',*,*,#706,.T.);
#708=EDGE_LOOP('',(#673,#686,#687,#700,#701,#707));
#709=FACE_OUTER_BOUND('',#708,.T.);
#710=ADVANCED_FACE('',(#709),#672,.F.);
#711=CARTESIAN_POINT('',(2.1,1.587713240271473,2.5));
#712=DIRECTION('',(0.0,0.0,-1.0));
#713=DIRECTION('',(-1.0,0.0,0.0));
#714=AXIS2_PLACEMENT_3D('',#711,#712,#713);
#715=PLANE('',#714);
#716=CARTESIAN_POINT('',(2.0,2.986160E-015,2.500000000000003));
#717=CARTESIAN_POINT('',(2.0,-0.669872981081209,2.499999999999999));
#718=CARTESIAN_POINT('',(1.776709006307399,-1.443375672974066,2.499999999999997));
#726=(BOUNDED_CURVE()B_SPLINE_CURVE(2,(#716,#717,#718),.UNSPECIFIED.,.F.,.U.)B_SPLINE_CURVE_WITH_KNOTS((3,3),(2.9020570714182,4.56228094121139),.UNSPECIFIED.)CURVE()GEOMETRIC_REPRESENTATION_ITEM()RATIONAL_B_SPLINE_CURVE((1.0,1.06752549682756,1.05779032035074))REPRESENTATION_ITEM(''));
#727=EDGE_CURVE('',#380,#425,#726,.T.);
#728=ORIENTED_EDGE('',*,*,#727,.F.);
#729=ORIENTED_EDGE('',*,*,#392,.F.);
#730=ORIENTED_EDGE('',*,*,#706,.F.);
#731=ORIENTED_EDGE('',*,*,#307,.F.);
#732=CARTESIAN_POINT('',(0.2232909936926,-1.443375672974066,2.499999999999997));
#733=CARTESIAN_POINT('',(0.0,-0.669872981078042,2.500000000000006));
#734=CARTESIAN_POINT('',(0.0,2.320026E-015,2.500000000000003));
#742=(BOUNDED_CURVE()B_SPLINE_CURVE(2,(#732,#733,#734),.UNSPECIFIED.,.F.,.U.)B_SPLINE_CURVE_WITH_KNOTS((3,3),(1.24183320163338,2.9020570714182),.UNSPECIFIED.)CURVE()GEOMETRIC_REPRESENTATION_ITEM()RATIONAL_B_SPLINE_CURVE((1.05779032035084,1.06752549682723,1.0))REPRESENTATION_ITEM(''));
#743=EDGE_CURVE('',#442,#286,#742,.T.);
#744=ORIENTED_EDGE('',*,*,#743,.F.);
#745=ORIENTED_EDGE('',*,*,#447,.T.);
#746=EDGE_LOOP('',(#728,#729,#730,#731,#744,#745));
#747=FACE_OUTER_BOUND('',#746,.T.);
#748=ADVANCED_FACE('',(#747),#715,.F.);
#749=CARTESIAN_POINT('',(2.443375672974058,4.712939E-016,1.224647E-016));
#750=DIRECTION('',(-1.0,0.0,0.0));
#751=DIRECTION('',(0.0,0.5,0.866025403784438));
#752=AXIS2_PLACEMENT_3D('',#749,#750,#751);
#753=CONICAL_SURFACE('',#752,1.732050807568884,60.000000000000099);
#754=ORIENTED_EDGE('',*,*,#685,.T.);
#755=CARTESIAN_POINT('',(2.0,3.216245E-016,1.224647E-016));
#756=DIRECTION('',(1.0,0.0,0.0));
#757=DIRECTION('',(0.0,0.5,0.866025403784438));
#758=AXIS2_PLACEMENT_3D('',#755,#756,#757);
#759=CIRCLE('',#758,2.5);
#760=EDGE_CURVE('',#599,#395,#759,.T.);
#761=ORIENTED_EDGE('',*,*,#760,.F.);
#762=ORIENTED_EDGE('',*,*,#613,.T.);
#763=EDGE_LOOP('',(#754,#761,#762));
#764=FACE_OUTER_BOUND('',#763,.T.);
#765=ADVANCED_FACE('',(#764),#753,.T.);
#766=CARTESIAN_POINT('',(2.443375672974058,4.712939E-016,1.224647E-016));
#767=DIRECTION('',(-1.0,0.0,0.0));
#768=DIRECTION('',(0.0,0.5,0.866025403784438));
#769=AXIS2_PLACEMENT_3D('',#766,#767,#768);
#770=CONICAL_SURFACE('',#769,1.732050807568884,60.000000000000099);
#771=ORIENTED_EDGE('',*,*,#439,.T.);
#772=CARTESIAN_POINT('',(2.0,3.216245E-016,1.224647E-016));
#773=DIRECTION('',(1.0,0.0,0.0));
#774=DIRECTION('',(0.0,0.5,0.866025403784438));
#775=AXIS2_PLACEMENT_3D('',#772,#773,#774);
#776=CIRCLE('',#775,2.5);
#777=EDGE_CURVE('',#380,#427,#776,.T.);
#778=ORIENTED_EDGE('',*,*,#777,.F.);
#779=ORIENTED_EDGE('',*,*,#727,.T.);
#780=EDGE_LOOP('',(#771,#778,#779));
#781=FACE_OUTER_BOUND('',#780,.T.);
#782=ADVANCED_FACE('',(#781),#770,.T.);
#783=CARTESIAN_POINT('',(2.443375672974058,4.712939E-016,1.224647E-016));
#784=DIRECTION('',(-1.0,0.0,0.0));
#785=DIRECTION('',(0.0,0.5,0.866025403784438));
#786=AXIS2_PLACEMENT_3D('',#783,#784,#785);
#787=CONICAL_SURFACE('',#786,1.732050807568884,60.000000000000099);
#788=ORIENTED_EDGE('',*,*,#498,.T.);
#789=ORIENTED_EDGE('',*,*,#571,.T.);
#790=CARTESIAN_POINT('',(2.0,3.216245E-016,1.224647E-016));
#791=DIRECTION('',(1.0,0.0,0.0));
#792=DIRECTION('',(0.0,0.5,0.866025403784438));
#793=AXIS2_PLACEMENT_3D('',#790,#791,#792);
#794=CIRCLE('',#793,2.5);
#795=EDGE_CURVE('',#427,#331,#794,.T.);
#796=ORIENTED_EDGE('',*,*,#795,.F.);
#797=EDGE_LOOP('',(#788,#789,#796));
#798=FACE_OUTER_BOUND('',#797,.T.);
#799=ADVANCED_FACE('',(#798),#787,.T.);
#800=CARTESIAN_POINT('',(2.443375672974058,4.712939E-016,1.224647E-016));
#801=DIRECTION('',(-1.0,0.0,0.0));
#802=DIRECTION('',(0.0,0.5,0.866025403784438));
#803=AXIS2_PLACEMENT_3D('',#800,#801,#802);
#804=CONICAL_SURFACE('',#803,1.732050807568884,60.000000000000099);
#805=ORIENTED_EDGE('',*,*,#550,.T.);
#806=ORIENTED_EDGE('',*,*,#626,.T.);
#807=CARTESIAN_POINT('',(2.0,3.216245E-016,1.224647E-016));
#808=DIRECTION('',(1.0,0.0,0.0));
#809=DIRECTION('',(0.0,0.5,0.866025403784438));
#810=AXIS2_PLACEMENT_3D('',#807,#808,#809);
#811=CIRCLE('',#810,2.5);
#812=EDGE_CURVE('',#333,#599,#811,.T.);
#813=ORIENTED_EDGE('',*,*,#812,.F.);
#814=EDGE_LOOP('',(#805,#806,#813));
#815=FACE_OUTER_BOUND('',#814,.T.);
#816=ADVANCED_FACE('',(#815),#804,.T.);
#817=CARTESIAN_POINT('',(-0.443375672974054,-5.031805E-016,1.224647E-016));
#818=DIRECTION('',(1.0,0.0,0.0));
#819=DIRECTION('',(0.0,0.5,0.866025403784438));
#820=AXIS2_PLACEMENT_3D('',#817,#818,#819);
#821=CONICAL_SURFACE('',#820,1.732050807568884,60.000000000000099);
#822=ORIENTED_EDGE('',*,*,#477,.T.);
#823=CARTESIAN_POINT('',(0.0,-3.535111E-016,1.224647E-016));
#824=DIRECTION('',(1.0,0.0,0.0));
#825=DIRECTION('',(0.0,0.5,0.866025403784438));
#826=AXIS2_PLACEMENT_3D('',#823,#824,#825);
#827=CIRCLE('',#826,2.5);
#828=EDGE_CURVE('',#450,#239,#827,.T.);
#829=ORIENTED_EDGE('',*,*,#828,.T.);
#830=ORIENTED_EDGE('',*,*,#585,.T.);
#831=EDGE_LOOP('',(#822,#829,#830));
#832=FACE_OUTER_BOUND('',#831,.T.);
#833=ADVANCED_FACE('',(#832),#821,.T.);
#834=CARTESIAN_POINT('',(-0.443375672974054,-5.031805E-016,1.224647E-016));
#835=DIRECTION('',(1.0,0.0,0.0));
#836=DIRECTION('',(0.0,0.5,0.866025403784438));
#837=AXIS2_PLACEMENT_3D('',#834,#835,#836);
#838=CONICAL_SURFACE('',#837,1.732050807568884,60.000000000000099);
#839=ORIENTED_EDGE('',*,*,#743,.T.);
#840=CARTESIAN_POINT('',(0.0,-3.535111E-016,1.224647E-016));
#841=DIRECTION('',(1.0,0.0,0.0));
#842=DIRECTION('',(0.0,0.5,0.866025403784438));
#843=AXIS2_PLACEMENT_3D('',#840,#841,#842);
#844=CIRCLE('',#843,2.5);
#845=EDGE_CURVE('',#286,#450,#844,.T.);
#846=ORIENTED_EDGE('',*,*,#845,.T.);
#847=ORIENTED_EDGE('',*,*,#462,.T.);
#848=EDGE_LOOP('',(#839,#846,#847));
#849=FACE_OUTER_BOUND('',#848,.T.);
#850=ADVANCED_FACE('',(#849),#838,.T.);
#851=CARTESIAN_POINT('',(-0.443375672974054,-5.031805E-016,1.224647E-016));
#852=DIRECTION('',(1.0,0.0,0.0));
#853=DIRECTION('',(0.0,0.5,0.866025403784438));
#854=AXIS2_PLACEMENT_3D('',#851,#852,#853);
#855=CONICAL_SURFACE('',#854,1.732050807568884,60.000000000000099);
#856=ORIENTED_EDGE('',*,*,#699,.T.);
#857=ORIENTED_EDGE('',*,*,#657,.T.);
#858=CARTESIAN_POINT('',(0.0,-3.535111E-016,1.224647E-016));
#859=DIRECTION('',(1.0,0.0,0.0));
#860=DIRECTION('',(0.0,0.5,0.866025403784438));
#861=AXIS2_PLACEMENT_3D('',#858,#859,#860);
#862=CIRCLE('',#861,2.5);
#863=EDGE_CURVE('',#630,#284,#862,.T.);
#864=ORIENTED_EDGE('',*,*,#863,.T.);
#865=EDGE_LOOP('',(#856,#857,#864));
#866=FACE_OUTER_BOUND('',#865,.T.);
#867=ADVANCED_FACE('',(#866),#855,.T.);
#868=CARTESIAN_POINT('',(-0.443375672974054,-5.031805E-016,1.224647E-016));
#869=DIRECTION('',(1.0,0.0,0.0));
#870=DIRECTION('',(0.0,0.5,0.866025403784438));
#871=AXIS2_PLACEMENT_3D('',#868,#869,#870);
#872=CONICAL_SURFACE('',#871,1.732050807568884,60.000000000000099);
#873=ORIENTED_EDGE('',*,*,#642,.T.);
#874=ORIENTED_EDGE('',*,*,#529,.T.);
#875=CARTESIAN_POINT('',(0.0,-3.535111E-016,1.224647E-016));
#876=DIRECTION('',(1.0,0.0,0.0));
#877=DIRECTION('',(0.0,0.5,0.866025403784438));
#878=AXIS2_PLACEMENT_3D('',#875,#876,#877);
#879=CIRCLE('',#878,2.5);
#880=EDGE_CURVE('',#254,#630,#879,.T.);
#881=ORIENTED_EDGE('',*,*,#880,.T.);
#882=EDGE_LOOP('',(#873,#874,#881));
#883=FACE_OUTER_BOUND('',#882,.T.);
#884=ADVANCED_FACE('',(#883),#872,.T.);
#885=CARTESIAN_POINT('',(-4.440892E-016,1.006569860407204,-3.756569860407207));
#886=DIRECTION('',(-1.0,0.0,0.0));
#887=DIRECTION('',(0.0,0.0,1.0));
#888=AXIS2_PLACEMENT_3D('',#885,#886,#887);
#889=PLANE('',#888);
#890=ORIENTED_EDGE('',*,*,#292,.F.);
#891=ORIENTED_EDGE('',*,*,#863,.F.);
#892=ORIENTED_EDGE('',*,*,#880,.F.);
#893=ORIENTED_EDGE('',*,*,#260,.F.);
#894=ORIENTED_EDGE('',*,*,#828,.F.);
#895=ORIENTED_EDGE('',*,*,#845,.F.);
#896=EDGE_LOOP('',(#890,#891,#892,#893,#894,#895));
#897=FACE_OUTER_BOUND('',#896,.T.);
#898=ORIENTED_EDGE('',*,*,#188,.T.);
#899=ORIENTED_EDGE('',*,*,#172,.T.);
#900=EDGE_LOOP('',(#898,#899));
#901=FACE_BOUND('',#900,.T.);
#902=ADVANCED_FACE('',(#897,#901),#889,.T.);
#903=CARTESIAN_POINT('',(2.000000000000001,-3.756569860407207,-1.006569860407204));
#904=DIRECTION('',(1.0,0.0,0.0));
#905=DIRECTION('',(0.0,0.0,-1.0));
#906=AXIS2_PLACEMENT_3D('',#903,#904,#905);
#907=PLANE('',#906);
#908=ORIENTED_EDGE('',*,*,#401,.T.);
#909=ORIENTED_EDGE('',*,*,#777,.T.);
#910=ORIENTED_EDGE('',*,*,#795,.T.);
#911=ORIENTED_EDGE('',*,*,#339,.T.);
#912=ORIENTED_EDGE('',*,*,#812,.T.);
#913=ORIENTED_EDGE('',*,*,#760,.T.);
#914=EDGE_LOOP('',(#908,#909,#910,#911,#912,#913));
#915=FACE_OUTER_BOUND('',#914,.T.);
#916=ORIENTED_EDGE('',*,*,#224,.T.);
#917=ORIENTED_EDGE('',*,*,#102,.T.);
#918=EDGE_LOOP('',(#916,#917));
#919=FACE_BOUND('',#918,.T.);
#920=ADVANCED_FACE('',(#915,#919),#907,.T.);
#921=CLOSED_SHELL('',(#106,#144,#176,#200,#212,#230,#277,#324,#371,#418,#502,#554,#592,#667,#710,#748,#765,#782,#799,#816,#833,#850,#867,#884,#902,#920));
#922=MANIFOLD_SOLID_BREP('226',#921);
#923=COLOUR_RGB('254',0.866,0.866,0.866);
#924=SURFACE_STYLE_USAGE(.BOTH.,#925);
#925=SURFACE_SIDE_STYLE('NONE',(#926));
#926=SURFACE_STYLE_FILL_AREA(#927);
#927=FILL_AREA_STYLE('NONE',(#928));
#928=FILL_AREA_STYLE_COLOUR('NONE',#923);
#929=PRESENTATION_STYLE_ASSIGNMENT((#924));
#930=STYLED_ITEM('NONE',(#929),#922);
#931=MECHANICAL_DESIGN_GEOMETRIC_PRESENTATION_REPRESENTATION('NONE',(#930),#28);
#932=PRESENTATION_LAYER_ASSIGNMENT('3D','None',(#922));
#933=ADVANCED_BREP_SHAPE_REPRESENTATION('ABSR1',(#922),#28);
#934=SHAPE_REPRESENTATION_RELATIONSHIP('SRRPL1','',#933,#62);
ENDSEC;
END-ISO-10303-21;
