ISO-10303-21;
HEADER;
/****************************************************************
 * Generated by software with PDElib inside                    *
 * PDElib Version v51a, created Fri 09/10/2010                  *
 * ITI Transcendata (http://www.transcendata.com/)              *
 ****************************************************************/
FILE_DESCRIPTION((''),'2;1');
FILE_NAME('BOSSARD_BN5687-3061587_h.stp','2013-08-22T16:36:29',(''),(''),'Mechanical Desktop 2011','Mechanical Desktop 2011',', , ');
FILE_SCHEMA(('AUTOMOTIVE_DESIGN { 1 2 10303 214 1 1 1 1 }'));
ENDSEC;
DATA;
#10=(NAMED_UNIT(*)PLANE_ANGLE_UNIT()SI_UNIT($,.RADIAN.));
#11=DIMENSIONAL_EXPONENTS(0.0,0.0,0.0,0.0,0.0,0.0,0.0);
#12=PLANE_ANGLE_MEASURE_WITH_UNIT(PLANE_ANGLE_MEASURE(0.0174532925),#10);
#16=(CONVERSION_BASED_UNIT('DEGREE',#12)NAMED_UNIT(#11)PLANE_ANGLE_UNIT());
#20=(NAMED_UNIT(*)SI_UNIT($,.STERADIAN.)SOLID_ANGLE_UNIT());
#24=(LENGTH_UNIT()NAMED_UNIT(*)SI_UNIT(.MILLI.,.METRE.));
#26=UNCERTAINTY_MEASURE_WITH_UNIT(LENGTH_MEASURE(0.000001),#24,'DISTANCE_ACCURACY_VALUE','');
#28=(GEOMETRIC_REPRESENTATION_CONTEXT(3)GLOBAL_UNCERTAINTY_ASSIGNED_CONTEXT((#26))GLOBAL_UNIT_ASSIGNED_CONTEXT((#16,#20,#24))REPRESENTATION_CONTEXT('','3D'));
#29=APPLICATION_CONTEXT('automotive design');
#30=APPLICATION_PROTOCOL_DEFINITION('INTERNATIONAL_STANDARD','automotive_design',1998,#29);
#31=PRODUCT_CONTEXT('3D Mechanical Parts',#29,'mechanical');
#32=PRODUCT('Product','Product','',(#31));
#33=PRODUCT_RELATED_PRODUCT_CATEGORY('part',$,(#32));
#34=PRODUCT_CATEGORY('part',$);
#35=PERSON('1','Design','Joe',$,$,$);
#36=ORGANIZATION($,'None','None');
#37=PERSON_AND_ORGANIZATION(#35,#36);
#38=PERSON_AND_ORGANIZATION_ROLE('design_owner');
#39=APPLIED_PERSON_AND_ORGANIZATION_ASSIGNMENT(#37,#38,(#32));
#40=PRODUCT_DEFINITION_FORMATION_WITH_SPECIFIED_SOURCE('None','',#32,.BOUGHT.);
#41=PERSON('2','Creator','Joe',$,$,$);
#42=ORGANIZATION($,'None','None');
#43=PERSON_AND_ORGANIZATION(#41,#42);
#44=PERSON_AND_ORGANIZATION_ROLE('creator');
#45=APPLIED_PERSON_AND_ORGANIZATION_ASSIGNMENT(#43,#44,(#40));
#46=PERSON('3','Supplier','Joe',$,$,$);
#47=ORGANIZATION($,'None','None');
#48=PERSON_AND_ORGANIZATION(#46,#47);
#49=PERSON_AND_ORGANIZATION_ROLE('design_supplier');
#50=APPLIED_PERSON_AND_ORGANIZATION_ASSIGNMENT(#48,#49,(#40));
#51=PRODUCT_DEFINITION_CONTEXT('part definition',#29,'design');
#52=PRODUCT_DEFINITION('None','',#40,#51);
#53=PERSON('4','Creator','Joe',$,$,$);
#54=ORGANIZATION($,'None','None');
#55=PERSON_AND_ORGANIZATION(#53,#54);
#56=PERSON_AND_ORGANIZATION_ROLE('creator');
#57=APPLIED_PERSON_AND_ORGANIZATION_ASSIGNMENT(#55,#56,(#52));
#58=CARTESIAN_POINT('NONE',(0.0,0.0,0.0));
#59=DIRECTION('NONE',(0.0,0.0,1.0));
#60=DIRECTION('NONE',(1.0,0.0,0.0));
#61=AXIS2_PLACEMENT_3D('NONE',#58,#59,#60);
#62=SHAPE_REPRESENTATION('SR1',(#61),#28);
#63=PRODUCT_DEFINITION_SHAPE('PDS1','Test Part',#52);
#64=SHAPE_DEFINITION_REPRESENTATION(#63,#62);
#65=CARTESIAN_POINT('',(-8.362,7.059270E-016,-8.144496E-016));
#66=DIRECTION('',(1.0,1.224586E-016,2.832769E-016));
#67=DIRECTION('',(0.0,0.0,1.0));
#68=AXIS2_PLACEMENT_3D('',#65,#66,#67);
#69=CYLINDRICAL_SURFACE('',#68,1.25);
#70=CARTESIAN_POINT('',(0.0,1.701330E-015,1.250000000000002));
#71=VERTEX_POINT('',#70);
#72=CARTESIAN_POINT('',(-3.724,5.105425E-016,1.249999999999999));
#73=VERTEX_POINT('',#72);
#74=CARTESIAN_POINT('',(0.0,1.701330E-015,1.250000000000002));
#75=DIRECTION('',(-1.0,0.0,0.0));
#76=VECTOR('',#75,3.723999999999998);
#77=LINE('',#74,#76);
#78=EDGE_CURVE('',#71,#73,#77,.T.);
#79=ORIENTED_EDGE('',*,*,#78,.F.);
#80=CARTESIAN_POINT('',(3.540962E-016,1.911598E-015,-1.249999999999998));
#81=VERTEX_POINT('',#80);
#82=CARTESIAN_POINT('',(1.075323E-032,1.729926E-015,1.554312E-015));
#83=DIRECTION('',(1.0,0.0,0.0));
#84=DIRECTION('',(0.0,0.0,1.0));
#85=AXIS2_PLACEMENT_3D('',#82,#83,#84);
#86=CIRCLE('',#85,1.25);
#87=EDGE_CURVE('',#81,#71,#86,.T.);
#88=ORIENTED_EDGE('',*,*,#87,.F.);
#89=CARTESIAN_POINT('',(-3.723999999999998,7.208150E-016,-1.250000000000001));
#90=VERTEX_POINT('',#89);
#91=CARTESIAN_POINT('',(0.0,1.911603E-015,-1.249999999999998));
#92=DIRECTION('',(-1.0,0.0,0.0));
#93=VECTOR('',#92,3.723999999999998);
#94=LINE('',#91,#93);
#95=EDGE_CURVE('',#81,#90,#94,.T.);
#96=ORIENTED_EDGE('',*,*,#95,.T.);
#97=CARTESIAN_POINT('',(-3.723999999999998,5.391383E-016,-1.200273E-015));
#98=DIRECTION('',(1.0,0.0,0.0));
#99=DIRECTION('',(0.0,0.0,1.0));
#100=AXIS2_PLACEMENT_3D('',#97,#98,#99);
#101=CIRCLE('',#100,1.25);
#102=EDGE_CURVE('',#90,#73,#101,.T.);
#103=ORIENTED_EDGE('',*,*,#102,.T.);
#104=EDGE_LOOP('',(#79,#88,#96,#103));
#105=FACE_OUTER_BOUND('',#104,.T.);
#106=ADVANCED_FACE('',(#105),#69,.T.);
#107=CARTESIAN_POINT('',(-3.861999999999998,5.222390E-016,-1.239365E-015));
#108=DIRECTION('',(1.0,1.224586E-016,2.832769E-016));
#109=DIRECTION('',(0.0,0.0,1.0));
#110=AXIS2_PLACEMENT_3D('',#107,#108,#109);
#111=CONICAL_SURFACE('',#110,1.112,45.000000000000028);
#112=CARTESIAN_POINT('',(-3.999999999999998,4.830579E-016,0.973999999999999));
#113=VERTEX_POINT('',#112);
#114=CARTESIAN_POINT('',(-3.723999999999999,5.105425E-016,1.249999999999998));
#115=DIRECTION('',(-0.707106781186547,-7.041507E-017,-0.707106781186548));
#116=VECTOR('',#115,0.390322943214973);
#117=LINE('',#114,#116);
#118=EDGE_CURVE('',#73,#113,#117,.T.);
#119=ORIENTED_EDGE('',*,*,#118,.F.);
#120=ORIENTED_EDGE('',*,*,#102,.F.);
#121=CARTESIAN_POINT('',(-3.999999999999998,6.469022E-016,-0.974000000000001));
#122=VERTEX_POINT('',#121);
#123=CARTESIAN_POINT('',(-3.723999999999998,7.208150E-016,-1.250000000000001));
#124=DIRECTION('',(-0.707106781186547,-1.893632E-016,0.707106781186548));
#125=VECTOR('',#124,0.390322943214974);
#126=LINE('',#123,#125);
#127=EDGE_CURVE('',#90,#122,#126,.T.);
#128=ORIENTED_EDGE('',*,*,#127,.T.);
#129=CARTESIAN_POINT('',(-3.999999999999998,5.053398E-016,-1.278457E-015));
#130=DIRECTION('',(1.0,0.0,0.0));
#131=DIRECTION('',(0.0,0.0,1.0));
#132=AXIS2_PLACEMENT_3D('',#129,#130,#131);
#133=CIRCLE('',#132,0.974);
#134=EDGE_CURVE('',#122,#113,#133,.T.);
#135=ORIENTED_EDGE('',*,*,#134,.T.);
#136=EDGE_LOOP('',(#119,#120,#128,#135));
#137=FACE_OUTER_BOUND('',#136,.T.);
#138=ADVANCED_FACE('',(#137),#111,.T.);
#139=CARTESIAN_POINT('',(2.048151831264575,6.949030E-016,5.801942E-016));
#140=DIRECTION('',(1.0,1.224586E-016,2.832769E-016));
#141=DIRECTION('',(0.0,0.0,1.0));
#142=AXIS2_PLACEMENT_3D('',#139,#140,#141);
#143=CONICAL_SURFACE('',#142,1.0565,74.999999999999147);
#144=CARTESIAN_POINT('',(2.1,6.726565E-016,1.250000000000001));
#145=VERTEX_POINT('',#144);
#146=CARTESIAN_POINT('',(2.086602540378443,7.142495E-016,1.200000000000001));
#147=VERTEX_POINT('',#146);
#148=CARTESIAN_POINT('',(2.1,6.726565E-016,1.250000000000001));
#149=DIRECTION('',(-0.25881904510254,-9.597459E-018,-0.965925826289063));
#150=VECTOR('',#149,0.051763809020504);
#151=LINE('',#148,#150);
#152=EDGE_CURVE('',#145,#147,#151,.T.);
#153=ORIENTED_EDGE('',*,*,#152,.F.);
#154=CARTESIAN_POINT('',(2.100000000000001,8.829290E-016,-1.249999999999999));
#155=VERTEX_POINT('',#154);
#156=CARTESIAN_POINT('',(2.100000000000001,7.012523E-016,5.948816E-016));
#157=DIRECTION('',(1.0,0.0,0.0));
#158=DIRECTION('',(0.0,0.0,1.0));
#159=AXIS2_PLACEMENT_3D('',#156,#157,#158);
#160=CIRCLE('',#159,1.25);
#161=EDGE_CURVE('',#145,#155,#160,.T.);
#162=ORIENTED_EDGE('',*,*,#161,.T.);
#163=CARTESIAN_POINT('',(2.086602540378444,1.002530E-015,-1.199999999999999));
#164=VERTEX_POINT('',#163);
#165=CARTESIAN_POINT('',(2.100000000000001,8.829290E-016,-1.249999999999999));
#166=DIRECTION('',(-0.258819045102539,-1.720836E-016,0.965925826289064));
#167=VECTOR('',#166,0.051763809020504);
#168=LINE('',#165,#167);
#169=EDGE_CURVE('',#155,#164,#168,.T.);
#170=ORIENTED_EDGE('',*,*,#169,.T.);
#171=CARTESIAN_POINT('',(2.044236960413534,-0.23352262623513,-1.015382154492645));
#172=VERTEX_POINT('',#171);
#173=CARTESIAN_POINT('',(2.086602540378444,1.131040E-015,-1.199999999999999));
#174=CARTESIAN_POINT('',(2.086602540378444,-0.035501861071346,-1.199999999999999));
#175=CARTESIAN_POINT('',(2.084830829705541,-0.072811557142151,-1.191665448037849));
#176=CARTESIAN_POINT('',(2.077701453945957,-0.139233412326175,-1.158958437647994));
#177=CARTESIAN_POINT('',(2.072325920276814,-0.168344151737993,-1.13458699347442));
#178=CARTESIAN_POINT('',(2.05999053098461,-0.210062584000462,-1.080728729013611));
#179=CARTESIAN_POINT('',(2.05251614431257,-0.225569710387767,-1.048916165798574));
#180=CARTESIAN_POINT('',(2.044236960413534,-0.23352262623513,-1.015382154492645));
#181=B_SPLINE_CURVE_WITH_KNOTS('',3,(#173,#174,#175,#176,#177,#178,#179,#180),.UNSPECIFIED.,.F.,.U.,(4,2,2,4),(0.43027951634477,0.536785099558812,0.643290682772854,0.74448613140851),.UNSPECIFIED.);
#182=EDGE_CURVE('',#164,#172,#181,.T.);
#183=ORIENTED_EDGE('',*,*,#182,.T.);
#184=CARTESIAN_POINT('',(2.044236961453669,-0.762585431370547,-0.709927605165601));
#185=VERTEX_POINT('',#184);
#186=CARTESIAN_POINT('',(2.044236960413534,-0.23352262623513,-1.015382154492645));
#187=CARTESIAN_POINT('',(2.037236984544333,-0.240246743842257,-0.987029448494157));
#188=CARTESIAN_POINT('',(2.030758085697202,-0.249908468908358,-0.959743975168564));
#189=CARTESIAN_POINT('',(2.016990840616348,-0.278515608575266,-0.898387832658256));
#190=CARTESIAN_POINT('',(2.009460567885408,-0.302560291230223,-0.861361084635526));
#191=CARTESIAN_POINT('',(1.999263057931921,-0.361623623924213,-0.796704145767237));
#192=CARTESIAN_POINT('',(1.996671946301311,-0.39666249795632,-0.769080447133083));
#193=CARTESIAN_POINT('',(1.996671946301311,-0.467711955792984,-0.728060023525308));
#194=CARTESIAN_POINT('',(1.999263057931921,-0.509154217572701,-0.711527317810578));
#195=CARTESIAN_POINT('',(2.009460567885408,-0.594680435510571,-0.692705440699555));
#196=CARTESIAN_POINT('',(2.016990840616348,-0.638768881245259,-0.690395508705792));
#197=CARTESIAN_POINT('',(2.030758085974212,-0.706208430527802,-0.696299070398579));
#198=CARTESIAN_POINT('',(2.03723698518717,-0.734669207575516,-0.70157450812042));
#199=CARTESIAN_POINT('',(2.044236961453669,-0.762585431370547,-0.709927605165601));
#200=B_SPLINE_CURVE_WITH_KNOTS('',3,(#186,#187,#188,#189,#190,#191,#192,#193,#194,#195,#196,#197,#198,#199),.UNSPECIFIED.,.F.,.U.,(4,2,2,2,2,2,4),(0.173634586803818,0.2578227678665,0.380884038689826,0.503945309513152,0.627006580336477,0.750067851159803,0.834256036392531),.UNSPECIFIED.);
#201=EDGE_CURVE('',#172,#185,#200,.T.);
#202=ORIENTED_EDGE('',*,*,#201,.T.);
#203=CARTESIAN_POINT('',(2.044236958623712,-0.996108048038968,-0.305454545454545));
#204=VERTEX_POINT('',#203);
#205=CARTESIAN_POINT('',(2.044236961453669,-0.762585431370547,-0.709927605165601));
#206=CARTESIAN_POINT('',(2.052516144941154,-0.795603193777198,-0.719807182652894));
#207=CARTESIAN_POINT('',(2.059990531236289,-0.830907243302463,-0.7222838984481));
#208=CARTESIAN_POINT('',(2.072325920276814,-0.898409083283259,-0.713083808720855));
#209=CARTESIAN_POINT('',(2.077701453945956,-0.934070742770398,-0.700058890954059));
#210=CARTESIAN_POINT('',(2.084830829705541,-0.995606772241866,-0.658889382193131));
#211=CARTESIAN_POINT('',(2.086602540378444,-1.021479554005652,-0.630745513569413));
#212=CARTESIAN_POINT('',(2.086602540378444,-1.056981415077,-0.569254486430587));
#213=CARTESIAN_POINT('',(2.084830829705541,-1.068418329384019,-0.532776065844718));
#214=CARTESIAN_POINT('',(2.077701453945956,-1.073304155096575,-0.458899546693935));
#215=CARTESIAN_POINT('',(2.072325920276814,-1.066753235021253,-0.421503184753564));
#216=CARTESIAN_POINT('',(2.059990530551532,-1.040969825020468,-0.35844482816391));
#217=CARTESIAN_POINT('',(2.052516143230926,-1.021172898330093,-0.3291089791849));
#218=CARTESIAN_POINT('',(2.044236958623712,-0.996108048038968,-0.305454545454545));
#219=B_SPLINE_CURVE_WITH_KNOTS('',3,(#205,#206,#207,#208,#209,#210,#211,#212,#213,#214,#215,#216,#217,#218),.UNSPECIFIED.,.F.,.U.,(4,2,2,2,2,2,4),(0.116072905518752,0.217268349916687,0.323773933130729,0.430279516344771,0.536785099558813,0.643290682772856,0.744486138700609),.UNSPECIFIED.);
#220=EDGE_CURVE('',#185,#204,#219,.T.);
#221=ORIENTED_EDGE('',*,*,#220,.T.);
#222=CARTESIAN_POINT('',(2.044236958623712,-0.996108048038967,0.305454545454546));
#223=VERTEX_POINT('',#222);
#224=CARTESIAN_POINT('',(2.044236958623712,-0.996108048038968,-0.305454545454545));
#225=CARTESIAN_POINT('',(2.037236983438058,-0.974915945387082,-0.28545493715992));
#226=CARTESIAN_POINT('',(2.03075808522062,-0.95611689673495,-0.263444902969159));
#227=CARTESIAN_POINT('',(2.016990840616348,-0.917284489820526,-0.207992323952464));
#228=CARTESIAN_POINT('',(2.009460567885409,-0.897240726740795,-0.168655643935971));
#229=CARTESIAN_POINT('',(1.999263057931922,-0.870777841496915,-0.085176827956659));
#230=CARTESIAN_POINT('',(1.996671946301311,-0.864374453749305,-0.041020423607775));
#231=CARTESIAN_POINT('',(1.996671946301311,-0.864374453749305,0.041020423607776));
#232=CARTESIAN_POINT('',(1.999263057931922,-0.870777841496915,0.085176827956661));
#233=CARTESIAN_POINT('',(2.009460567885409,-0.897240726740795,0.168655643935973));
#234=CARTESIAN_POINT('',(2.016990840616349,-0.917284489820526,0.207992323952466));
#235=CARTESIAN_POINT('',(2.030758085220669,-0.956116896735087,0.263444902969356));
#236=CARTESIAN_POINT('',(2.037236983437996,-0.974915945386892,0.285454937159742));
#237=CARTESIAN_POINT('',(2.044236958623712,-0.996108048038967,0.305454545454546));
#238=B_SPLINE_CURVE_WITH_KNOTS('',3,(#224,#225,#226,#227,#228,#229,#230,#231,#232,#233,#234,#235,#236,#237),.UNSPECIFIED.,.F.,.U.,(4,2,2,2,2,2,4),(0.173634593978204,0.257822767866501,0.380884038689827,0.503945309513153,0.627006580336479,0.750067851159805,0.834256025048833),.UNSPECIFIED.);
#239=EDGE_CURVE('',#204,#223,#238,.T.);
#240=ORIENTED_EDGE('',*,*,#239,.T.);
#241=CARTESIAN_POINT('',(2.044236960413534,-0.76258542722244,0.709927603924406));
#242=VERTEX_POINT('',#241);
#243=CARTESIAN_POINT('',(2.044236958623712,-0.996108048038967,0.305454545454546));
#244=CARTESIAN_POINT('',(2.052516143230926,-1.021172898330092,0.329108979184901));
#245=CARTESIAN_POINT('',(2.059990530551531,-1.040969825020467,0.358444828163911));
#246=CARTESIAN_POINT('',(2.072325920276814,-1.066753235021253,0.421503184753566));
#247=CARTESIAN_POINT('',(2.077701453945956,-1.073304155096574,0.458899546693936));
#248=CARTESIAN_POINT('',(2.084830829705541,-1.068418329384018,0.532776065844719));
#249=CARTESIAN_POINT('',(2.086602540378443,-1.056981415076999,0.569254486430588));
#250=CARTESIAN_POINT('',(2.086602540378443,-1.021479554005652,0.630745513569413));
#251=CARTESIAN_POINT('',(2.084830829705541,-0.995606772241866,0.658889382193132));
#252=CARTESIAN_POINT('',(2.077701453945956,-0.934070742770398,0.70005889095406));
#253=CARTESIAN_POINT('',(2.072325920276814,-0.898409083283259,0.713083808720856));
#254=CARTESIAN_POINT('',(2.05999053098461,-0.830907241925224,0.72228389863581));
#255=CARTESIAN_POINT('',(2.052516144312569,-0.79560319082785,0.719807182419394));
#256=CARTESIAN_POINT('',(2.044236960413534,-0.76258542722244,0.709927603924406));
#257=B_SPLINE_CURVE_WITH_KNOTS('',3,(#243,#244,#245,#246,#247,#248,#249,#250,#251,#252,#253,#254,#255,#256),.UNSPECIFIED.,.F.,.U.,(4,2,2,2,2,2,4),(0.116072893988932,0.217268349916686,0.323773933130728,0.43027951634477,0.536785099558812,0.643290682772854,0.74448613140851),.UNSPECIFIED.);
#258=EDGE_CURVE('',#223,#242,#257,.T.);
#259=ORIENTED_EDGE('',*,*,#258,.T.);
#260=CARTESIAN_POINT('',(2.044236958623711,-0.233522627954419,1.01538214724315));
#261=VERTEX_POINT('',#260);
#262=CARTESIAN_POINT('',(2.044236960413534,-0.76258542722244,0.709927603924406));
#263=CARTESIAN_POINT('',(2.037236984544333,-0.734669204758155,0.701574507590968));
#264=CARTESIAN_POINT('',(2.030758085697202,-0.706208429170858,0.696299070279796));
#265=CARTESIAN_POINT('',(2.016990840616349,-0.63876888124526,0.690395508705793));
#266=CARTESIAN_POINT('',(2.009460567885409,-0.594680435510572,0.692705440699556));
#267=CARTESIAN_POINT('',(1.999263057931922,-0.509154217572701,0.711527317810579));
#268=CARTESIAN_POINT('',(1.99667194630131,-0.467711955792985,0.728060023525309));
#269=CARTESIAN_POINT('',(1.99667194630131,-0.39666249795632,0.769080447133085));
#270=CARTESIAN_POINT('',(1.999263057931922,-0.361623623924214,0.796704145767239));
#271=CARTESIAN_POINT('',(2.009460567885409,-0.302560291230223,0.861361084635528));
#272=CARTESIAN_POINT('',(2.016990840616348,-0.278515608575266,0.898387832658257));
#273=CARTESIAN_POINT('',(2.030758085220668,-0.249908469898555,0.959743973044807));
#274=CARTESIAN_POINT('',(2.037236983437995,-0.24024674547742,0.987029443839442));
#275=CARTESIAN_POINT('',(2.044236958623711,-0.233522627954419,1.01538214724315));
#276=B_SPLINE_CURVE_WITH_KNOTS('',3,(#262,#263,#264,#265,#266,#267,#268,#269,#270,#271,#272,#273,#274,#275),.UNSPECIFIED.,.F.,.U.,(4,2,2,2,2,2,4),(0.173634586803819,0.2578227678665,0.380884038689826,0.503945309513152,0.627006580336477,0.750067851159803,0.834256025048832),.UNSPECIFIED.);
#277=EDGE_CURVE('',#242,#261,#276,.T.);
#278=ORIENTED_EDGE('',*,*,#277,.T.);
#279=CARTESIAN_POINT('',(2.044236958623711,-0.233522627954419,1.01538214724315));
#280=CARTESIAN_POINT('',(2.052516143230926,-0.225569712577358,1.048916161202495));
#281=CARTESIAN_POINT('',(2.059990530551531,-0.210062585465139,1.080728727122723));
#282=CARTESIAN_POINT('',(2.072325920276813,-0.168344151737993,1.134586993474421));
#283=CARTESIAN_POINT('',(2.077701453945956,-0.139233412326175,1.158958437647996));
#284=CARTESIAN_POINT('',(2.08483082970554,-0.072811557142151,1.191665448037851));
#285=CARTESIAN_POINT('',(2.086602540378443,-0.035501861071347,1.200000000000001));
#286=CARTESIAN_POINT('',(2.086602540378443,7.494005E-016,1.200000000000001));
#287=B_SPLINE_CURVE_WITH_KNOTS('',3,(#279,#280,#281,#282,#283,#284,#285,#286),.UNSPECIFIED.,.F.,.U.,(4,2,2,4),(0.116072893988932,0.217268349916686,0.323773933130728,0.43027951634477),.UNSPECIFIED.);
#288=EDGE_CURVE('',#261,#147,#287,.T.);
#289=ORIENTED_EDGE('',*,*,#288,.T.);
#290=EDGE_LOOP('',(#153,#162,#170,#183,#202,#221,#240,#259,#278,#289));
#291=FACE_OUTER_BOUND('',#290,.T.);
#292=ADVANCED_FACE('',(#291),#143,.F.);
#293=CARTESIAN_POINT('',(0.741771176328613,5.349255E-016,2.101267E-016));
#294=DIRECTION('',(-1.0,-1.224586E-016,-2.832769E-016));
#295=DIRECTION('',(0.0,0.0,1.0));
#296=AXIS2_PLACEMENT_3D('',#293,#294,#295);
#297=CONICAL_SURFACE('',#296,2.448130306447752,3.999999999999994);
#298=CARTESIAN_POINT('',(1.483542352657225,5.709433E-016,2.396260612895504));
#299=VERTEX_POINT('',#298);
#300=CARTESIAN_POINT('',(-7.081924E-016,3.868975E-016,2.5));
#301=VERTEX_POINT('',#300);
#302=CARTESIAN_POINT('',(1.483542352657225,5.709433E-016,2.396260612895505));
#303=DIRECTION('',(-0.997564050259824,-1.237561E-016,0.069756473744125));
#304=VECTOR('',#303,1.487165011881517);
#305=LINE('',#302,#304);
#306=EDGE_CURVE('',#299,#301,#305,.T.);
#307=ORIENTED_EDGE('',*,*,#306,.F.);
#308=CARTESIAN_POINT('',(1.483542352657226,9.740375E-016,-2.396260612895504));
#309=VERTEX_POINT('',#308);
#310=CARTESIAN_POINT('',(1.483542352657225,6.257617E-016,4.202533E-016));
#311=DIRECTION('',(1.0,0.0,0.0));
#312=DIRECTION('',(0.0,0.0,1.0));
#313=AXIS2_PLACEMENT_3D('',#310,#311,#312);
#314=CIRCLE('',#313,2.396260612895504);
#315=EDGE_CURVE('',#309,#299,#314,.T.);
#316=ORIENTED_EDGE('',*,*,#315,.F.);
#317=CARTESIAN_POINT('',(5.551115E-016,8.074426E-016,-2.5));
#318=VERTEX_POINT('',#317);
#319=CARTESIAN_POINT('',(1.483542352657226,9.740375E-016,-2.396260612895504));
#320=DIRECTION('',(-0.997564050259824,-1.120218E-016,-0.069756473744126));
#321=VECTOR('',#320,1.487165011881517);
#322=LINE('',#319,#321);
#323=EDGE_CURVE('',#309,#318,#322,.T.);
#324=ORIENTED_EDGE('',*,*,#323,.T.);
#325=CARTESIAN_POINT('',(2.719262E-032,4.440892E-016,0.0));
#326=DIRECTION('',(1.0,0.0,0.0));
#327=DIRECTION('',(0.0,0.0,1.0));
#328=AXIS2_PLACEMENT_3D('',#325,#326,#327);
#329=CIRCLE('',#328,2.5);
#330=EDGE_CURVE('',#318,#301,#329,.T.);
#331=ORIENTED_EDGE('',*,*,#330,.T.);
#332=EDGE_LOOP('',(#307,#316,#324,#331));
#333=FACE_OUTER_BOUND('',#332,.T.);
#334=ADVANCED_FACE('',(#333),#297,.T.);
#335=CARTESIAN_POINT('',(-9.752335E-016,4.011955E-016,1.875));
#336=DIRECTION('',(-1.0,0.0,0.0));
#337=DIRECTION('',(0.0,0.0,-1.0));
#338=AXIS2_PLACEMENT_3D('',#335,#336,#337);
#339=PLANE('',#338);
#340=CARTESIAN_POINT('',(2.719262E-032,4.440892E-016,0.0));
#341=DIRECTION('',(1.0,0.0,0.0));
#342=DIRECTION('',(0.0,0.0,1.0));
#343=AXIS2_PLACEMENT_3D('',#340,#341,#342);
#344=CIRCLE('',#343,2.5);
#345=EDGE_CURVE('',#301,#318,#344,.T.);
#346=ORIENTED_EDGE('',*,*,#345,.F.);
#347=ORIENTED_EDGE('',*,*,#330,.F.);
#348=EDGE_LOOP('',(#346,#347));
#349=FACE_OUTER_BOUND('',#348,.T.);
#350=ORIENTED_EDGE('',*,*,#87,.T.);
#351=CARTESIAN_POINT('',(1.075323E-032,1.729926E-015,1.554312E-015));
#352=DIRECTION('',(1.0,0.0,0.0));
#353=DIRECTION('',(0.0,0.0,1.0));
#354=AXIS2_PLACEMENT_3D('',#351,#352,#353);
#355=CIRCLE('',#354,1.25);
#356=EDGE_CURVE('',#71,#81,#355,.T.);
#357=ORIENTED_EDGE('',*,*,#356,.T.);
#358=EDGE_LOOP('',(#350,#357));
#359=FACE_BOUND('',#358,.T.);
#360=ADVANCED_FACE('',(#349,#359),#339,.T.);
#361=CARTESIAN_POINT('',(2.100000000000001,-1.284374453749306,8.800700E-016));
#362=DIRECTION('',(-1.0,-1.224586E-016,-2.832769E-016));
#363=DIRECTION('',(1.219703E-016,0.686348585024614,-0.727272727272727));
#364=AXIS2_PLACEMENT_3D('',#361,#362,#363);
#365=CYLINDRICAL_SURFACE('',#364,0.420000000000001);
#366=ORIENTED_EDGE('',*,*,#239,.F.);
#367=CARTESIAN_POINT('',(1.060000000000001,-0.996108048038968,-0.305454545454545));
#368=VERTEX_POINT('',#367);
#369=CARTESIAN_POINT('',(2.044236958623712,-0.996108048038968,-0.305454545454545));
#370=DIRECTION('',(-1.0,0.0,0.0));
#371=VECTOR('',#370,0.984236958623711);
#372=LINE('',#369,#371);
#373=EDGE_CURVE('',#204,#368,#372,.T.);
#374=ORIENTED_EDGE('',*,*,#373,.T.);
#375=CARTESIAN_POINT('',(1.060000000000001,-0.996108048038968,0.305454545454546));
#376=VERTEX_POINT('',#375);
#377=CARTESIAN_POINT('',(1.060000000000001,-1.284374453749306,5.854620E-016));
#378=DIRECTION('',(-1.0,8.371414E-017,-8.870567E-017));
#379=DIRECTION('',(1.219703E-016,0.686348585024614,-0.727272727272727));
#380=AXIS2_PLACEMENT_3D('',#377,#378,#379);
#381=CIRCLE('',#380,0.420000000000001);
#382=EDGE_CURVE('',#376,#368,#381,.T.);
#383=ORIENTED_EDGE('',*,*,#382,.F.);
#384=CARTESIAN_POINT('',(2.044236958623712,-0.996108048038967,0.305454545454546));
#385=DIRECTION('',(-1.0,0.0,0.0));
#386=VECTOR('',#385,0.984236958623711);
#387=LINE('',#384,#386);
#388=EDGE_CURVE('',#223,#376,#387,.T.);
#389=ORIENTED_EDGE('',*,*,#388,.F.);
#390=EDGE_LOOP('',(#366,#374,#383,#389));
#391=FACE_OUTER_BOUND('',#390,.T.);
#392=ADVANCED_FACE('',(#391),#365,.T.);
#393=CARTESIAN_POINT('',(2.100000000000001,-0.83138438763306,0.480000000000001));
#394=DIRECTION('',(-1.0,-1.224586E-016,-2.832769E-016));
#395=DIRECTION('',(2.900689E-016,-0.686348585024614,-0.727272727272727));
#396=AXIS2_PLACEMENT_3D('',#393,#394,#395);
#397=CYLINDRICAL_SURFACE('',#396,0.24);
#398=ORIENTED_EDGE('',*,*,#258,.F.);
#399=ORIENTED_EDGE('',*,*,#388,.T.);
#400=CARTESIAN_POINT('',(1.060000000000001,-0.762585427222441,0.709927603924406));
#401=VERTEX_POINT('',#400);
#402=CARTESIAN_POINT('',(1.060000000000001,-0.83138438763306,0.48));
#403=DIRECTION('',(1.0,1.990884E-016,2.109592E-016));
#404=DIRECTION('',(2.900689E-016,-0.686348585024614,-0.727272727272727));
#405=AXIS2_PLACEMENT_3D('',#402,#403,#404);
#406=CIRCLE('',#405,0.24);
#407=EDGE_CURVE('',#401,#376,#406,.T.);
#408=ORIENTED_EDGE('',*,*,#407,.F.);
#409=CARTESIAN_POINT('',(2.044236960413534,-0.76258542722244,0.709927603924406));
#410=DIRECTION('',(-1.0,0.0,0.0));
#411=VECTOR('',#410,0.984236960413533);
#412=LINE('',#409,#411);
#413=EDGE_CURVE('',#242,#401,#412,.T.);
#414=ORIENTED_EDGE('',*,*,#413,.F.);
#415=EDGE_LOOP('',(#398,#399,#408,#414));
#416=FACE_OUTER_BOUND('',#415,.T.);
#417=ADVANCED_FACE('',(#416),#397,.F.);
#418=CARTESIAN_POINT('',(2.1,-0.642187226874652,1.112300904918661));
#419=DIRECTION('',(-1.0,-1.224586E-016,-2.832769E-016));
#420=DIRECTION('',(3.064926E-016,-0.286662381780448,-0.958031669033942));
#421=AXIS2_PLACEMENT_3D('',#418,#419,#420);
#422=CYLINDRICAL_SURFACE('',#421,0.42);
#423=ORIENTED_EDGE('',*,*,#277,.F.);
#424=ORIENTED_EDGE('',*,*,#413,.T.);
#425=CARTESIAN_POINT('',(1.06,-0.233522627954419,1.01538214724315));
#426=VERTEX_POINT('',#425);
#427=CARTESIAN_POINT('',(1.060000000000001,-0.642187226874653,1.112300904918661));
#428=DIRECTION('',(-1.0,-8.785989E-017,-2.936296E-016));
#429=DIRECTION('',(3.064926E-016,-0.286662381780448,-0.958031669033942));
#430=AXIS2_PLACEMENT_3D('',#427,#428,#429);
#431=CIRCLE('',#430,0.42);
#432=EDGE_CURVE('',#426,#401,#431,.T.);
#433=ORIENTED_EDGE('',*,*,#432,.F.);
#434=CARTESIAN_POINT('',(2.044236958623711,-0.233522627954419,1.01538214724315));
#435=DIRECTION('',(-1.0,0.0,0.0));
#436=VECTOR('',#435,0.984236958623711);
#437=LINE('',#434,#436);
#438=EDGE_CURVE('',#261,#426,#437,.T.);
#439=ORIENTED_EDGE('',*,*,#438,.F.);
#440=EDGE_LOOP('',(#423,#424,#433,#439));
#441=FACE_OUTER_BOUND('',#440,.T.);
#442=ADVANCED_FACE('',(#441),#422,.T.);
#443=CARTESIAN_POINT('',(2.100000000000001,7.756372E-016,0.960000000000001));
#444=DIRECTION('',(-1.0,-1.224586E-016,-2.832769E-016));
#445=DIRECTION('',(5.378488E-017,-0.973010949810081,0.230758946846455));
#446=AXIS2_PLACEMENT_3D('',#443,#444,#445);
#447=CYLINDRICAL_SURFACE('',#446,0.24);
#448=ORIENTED_EDGE('',*,*,#288,.F.);
#449=ORIENTED_EDGE('',*,*,#438,.T.);
#450=CARTESIAN_POINT('',(1.06,0.233522626235132,1.015382154492646));
#451=VERTEX_POINT('',#450);
#452=CARTESIAN_POINT('',(1.06,6.482803E-016,0.960000000000001));
#453=DIRECTION('',(1.0,5.233328E-017,-1.241134E-017));
#454=DIRECTION('',(5.378488E-017,-0.973010949810081,0.230758946846455));
#455=AXIS2_PLACEMENT_3D('',#452,#453,#454);
#456=CIRCLE('',#455,0.24);
#457=EDGE_CURVE('',#451,#426,#456,.T.);
#458=ORIENTED_EDGE('',*,*,#457,.F.);
#459=CARTESIAN_POINT('',(2.044236960413533,0.233522626235132,1.015382154492647));
#460=VERTEX_POINT('',#459);
#461=CARTESIAN_POINT('',(2.044236960413533,0.233522626235132,1.015382154492647));
#462=DIRECTION('',(-1.0,0.0,0.0));
#463=VECTOR('',#462,0.984236960413533);
#464=LINE('',#461,#463);
#465=EDGE_CURVE('',#460,#451,#464,.T.);
#466=ORIENTED_EDGE('',*,*,#465,.F.);
#467=CARTESIAN_POINT('',(2.086602540378443,7.494005E-016,1.200000000000001));
#468=CARTESIAN_POINT('',(2.086602540378443,0.035501861071348,1.200000000000001));
#469=CARTESIAN_POINT('',(2.08483082970554,0.072811557142153,1.191665448037851));
#470=CARTESIAN_POINT('',(2.077701453945956,0.139233412326177,1.158958437647996));
#471=CARTESIAN_POINT('',(2.072325920276813,0.168344151737995,1.134586993474421));
#472=CARTESIAN_POINT('',(2.05999053098461,0.210062584000464,1.080728729013613));
#473=CARTESIAN_POINT('',(2.052516144312569,0.225569710387769,1.048916165798575));
#474=CARTESIAN_POINT('',(2.044236960413533,0.233522626235132,1.015382154492647));
#475=B_SPLINE_CURVE_WITH_KNOTS('',3,(#467,#468,#469,#470,#471,#472,#473,#474),.UNSPECIFIED.,.F.,.U.,(4,2,2,4),(0.43027951634477,0.536785099558812,0.643290682772854,0.74448613140851),.UNSPECIFIED.);
#476=EDGE_CURVE('',#147,#460,#475,.T.);
#477=ORIENTED_EDGE('',*,*,#476,.F.);
#478=EDGE_LOOP('',(#448,#449,#458,#466,#477));
#479=FACE_OUTER_BOUND('',#478,.T.);
#480=ADVANCED_FACE('',(#479),#447,.F.);
#481=CARTESIAN_POINT('',(2.1,0.642187226874653,1.112300904918661));
#482=DIRECTION('',(-1.0,-1.224586E-016,-2.832769E-016));
#483=DIRECTION('',(1.845223E-016,-0.973010953903623,-0.230758929585749));
#484=AXIS2_PLACEMENT_3D('',#481,#482,#483);
#485=CYLINDRICAL_SURFACE('',#484,0.42);
#486=CARTESIAN_POINT('',(2.044236958623712,0.762585420084549,0.709927601788605));
#487=VERTEX_POINT('',#486);
#488=CARTESIAN_POINT('',(2.044236960413533,0.233522626235132,1.015382154492647));
#489=CARTESIAN_POINT('',(2.037236984544333,0.240246743842259,0.987029448494158));
#490=CARTESIAN_POINT('',(2.030758085697202,0.24990846890836,0.959743975168565));
#491=CARTESIAN_POINT('',(2.016990840616349,0.278515608575267,0.898387832658258));
#492=CARTESIAN_POINT('',(2.009460567885409,0.302560291230224,0.861361084635528));
#493=CARTESIAN_POINT('',(1.999263057931922,0.361623623924214,0.796704145767239));
#494=CARTESIAN_POINT('',(1.99667194630131,0.396662497956321,0.769080447133085));
#495=CARTESIAN_POINT('',(1.99667194630131,0.467711955792986,0.72806002352531));
#496=CARTESIAN_POINT('',(1.999263057931921,0.509154217572702,0.711527317810579));
#497=CARTESIAN_POINT('',(2.009460567885408,0.594680435510573,0.692705440699556));
#498=CARTESIAN_POINT('',(2.016990840616348,0.638768881245261,0.690395508705793));
#499=CARTESIAN_POINT('',(2.030758085220668,0.706208426836532,0.696299070075452));
#500=CARTESIAN_POINT('',(2.037236983437995,0.734669199909473,0.701574506679702));
#501=CARTESIAN_POINT('',(2.044236958623712,0.762585420084549,0.709927601788605));
#502=B_SPLINE_CURVE_WITH_KNOTS('',3,(#488,#489,#490,#491,#492,#493,#494,#495,#496,#497,#498,#499,#500,#501),.UNSPECIFIED.,.F.,.U.,(4,2,2,2,2,2,4),(0.173634586803819,0.2578227678665,0.380884038689826,0.503945309513152,0.627006580336477,0.750067851159803,0.834256025048832),.UNSPECIFIED.);
#503=EDGE_CURVE('',#460,#487,#502,.T.);
#504=ORIENTED_EDGE('',*,*,#503,.F.);
#505=ORIENTED_EDGE('',*,*,#465,.T.);
#506=CARTESIAN_POINT('',(1.06,0.762585420084549,0.709927601788604));
#507=VERTEX_POINT('',#506);
#508=CARTESIAN_POINT('',(1.06,0.642187226874653,1.112300904918661));
#509=DIRECTION('',(-1.0,-1.795422E-016,-4.258016E-017));
#510=DIRECTION('',(1.845223E-016,-0.973010953903623,-0.230758929585749));
#511=AXIS2_PLACEMENT_3D('',#508,#509,#510);
#512=CIRCLE('',#511,0.42);
#513=EDGE_CURVE('',#507,#451,#512,.T.);
#514=ORIENTED_EDGE('',*,*,#513,.F.);
#515=CARTESIAN_POINT('',(2.044236958623712,0.762585420084549,0.709927601788605));
#516=DIRECTION('',(-1.0,0.0,0.0));
#517=VECTOR('',#516,0.984236958623711);
#518=LINE('',#515,#517);
#519=EDGE_CURVE('',#487,#507,#518,.T.);
#520=ORIENTED_EDGE('',*,*,#519,.F.);
#521=EDGE_LOOP('',(#504,#505,#514,#520));
#522=FACE_OUTER_BOUND('',#521,.T.);
#523=ADVANCED_FACE('',(#522),#485,.T.);
#524=CARTESIAN_POINT('',(2.100000000000001,0.831384387633062,0.480000000000001));
#525=DIRECTION('',(-1.0,-1.224586E-016,-2.832769E-016));
#526=DIRECTION('',(-2.362840E-016,-0.286662364785466,0.958031674119183));
#527=AXIS2_PLACEMENT_3D('',#524,#525,#526);
#528=CYLINDRICAL_SURFACE('',#527,0.24);
#529=CARTESIAN_POINT('',(2.044236960413534,0.996108053457573,0.305454550568242));
#530=VERTEX_POINT('',#529);
#531=CARTESIAN_POINT('',(2.044236958623712,0.762585420084549,0.709927601788605));
#532=CARTESIAN_POINT('',(2.052516143230926,0.795603185752735,0.719807182017595));
#533=CARTESIAN_POINT('',(2.059990530551531,0.830907239555328,0.722283898958813));
#534=CARTESIAN_POINT('',(2.072325920276814,0.89840908328326,0.713083808720856));
#535=CARTESIAN_POINT('',(2.077701453945956,0.934070742770399,0.70005889095406));
#536=CARTESIAN_POINT('',(2.084830829705541,0.995606772241867,0.658889382193132));
#537=CARTESIAN_POINT('',(2.086602540378443,1.021479554005653,0.630745513569413));
#538=CARTESIAN_POINT('',(2.086602540378443,1.056981415077,0.569254486430588));
#539=CARTESIAN_POINT('',(2.084830829705541,1.06841832938402,0.532776065844719));
#540=CARTESIAN_POINT('',(2.077701453945956,1.073304155096575,0.458899546693936));
#541=CARTESIAN_POINT('',(2.072325920276814,1.066753235021254,0.421503184753566));
#542=CARTESIAN_POINT('',(2.05999053098461,1.040969825925688,0.358444830377803));
#543=CARTESIAN_POINT('',(2.052516144312569,1.02117290121562,0.329108983379182));
#544=CARTESIAN_POINT('',(2.044236960413534,0.996108053457573,0.305454550568242));
#545=B_SPLINE_CURVE_WITH_KNOTS('',3,(#531,#532,#533,#534,#535,#536,#537,#538,#539,#540,#541,#542,#543,#544),.UNSPECIFIED.,.F.,.U.,(4,2,2,2,2,2,4),(0.116072893988932,0.217268349916686,0.323773933130728,0.43027951634477,0.536785099558812,0.643290682772854,0.74448613140851),.UNSPECIFIED.);
#546=EDGE_CURVE('',#487,#530,#545,.T.);
#547=ORIENTED_EDGE('',*,*,#546,.F.);
#548=ORIENTED_EDGE('',*,*,#519,.T.);
#549=CARTESIAN_POINT('',(1.06,0.996108053457573,0.305454550568242));
#550=VERTEX_POINT('',#549);
#551=CARTESIAN_POINT('',(1.06,0.831384387633061,0.48));
#552=DIRECTION('',(1.0,-6.773373E-017,2.263676E-016));
#553=DIRECTION('',(-2.362840E-016,-0.286662364785466,0.958031674119183));
#554=AXIS2_PLACEMENT_3D('',#551,#552,#553);
#555=CIRCLE('',#554,0.24);
#556=EDGE_CURVE('',#550,#507,#555,.T.);
#557=ORIENTED_EDGE('',*,*,#556,.F.);
#558=CARTESIAN_POINT('',(2.044236960413534,0.996108053457573,0.305454550568242));
#559=DIRECTION('',(-1.0,0.0,0.0));
#560=VECTOR('',#559,0.984236960413533);
#561=LINE('',#558,#560);
#562=EDGE_CURVE('',#530,#550,#561,.T.);
#563=ORIENTED_EDGE('',*,*,#562,.F.);
#564=EDGE_LOOP('',(#547,#548,#557,#563));
#565=FACE_OUTER_BOUND('',#564,.T.);
#566=ADVANCED_FACE('',(#565),#528,.F.);
#567=CARTESIAN_POINT('',(2.1,1.284374453749307,9.203158E-016));
#568=DIRECTION('',(-1.0,-1.224586E-016,-2.832769E-016));
#569=DIRECTION('',(-1.219703E-016,-0.686348572123176,0.727272739448192));
#570=AXIS2_PLACEMENT_3D('',#567,#568,#569);
#571=CYLINDRICAL_SURFACE('',#570,0.42);
#572=CARTESIAN_POINT('',(2.044236960815787,0.996108054675377,-0.305454551717517));
#573=VERTEX_POINT('',#572);
#574=CARTESIAN_POINT('',(2.044236960413534,0.996108053457573,0.305454550568242));
#575=CARTESIAN_POINT('',(2.037236984544333,0.974915948600414,0.285454940903192));
#576=CARTESIAN_POINT('',(2.030758085697203,0.956116898079219,0.26344490488877));
#577=CARTESIAN_POINT('',(2.016990840616348,0.917284489820528,0.207992323952465));
#578=CARTESIAN_POINT('',(2.009460567885409,0.897240726740797,0.168655643935973));
#579=CARTESIAN_POINT('',(1.999263057931922,0.870777841496916,0.085176827956661));
#580=CARTESIAN_POINT('',(1.99667194630131,0.864374453749307,0.041020423607776));
#581=CARTESIAN_POINT('',(1.99667194630131,0.864374453749307,-0.041020423607774));
#582=CARTESIAN_POINT('',(1.999263057931921,0.870777841496916,-0.085176827956659));
#583=CARTESIAN_POINT('',(2.009460567885408,0.897240726740797,-0.168655643935971));
#584=CARTESIAN_POINT('',(2.016990840616348,0.917284489820528,-0.207992323952464));
#585=CARTESIAN_POINT('',(2.030758085804361,0.956116898381473,-0.263444905320387));
#586=CARTESIAN_POINT('',(2.0372369847929,0.974915949322404,-0.285454941744291));
#587=CARTESIAN_POINT('',(2.044236960815787,0.996108054675377,-0.305454551717517));
#588=B_SPLINE_CURVE_WITH_KNOTS('',3,(#574,#575,#576,#577,#578,#579,#580,#581,#582,#583,#584,#585,#586,#587),.UNSPECIFIED.,.F.,.U.,(4,2,2,2,2,2,4),(0.173634586803819,0.2578227678665,0.380884038689826,0.503945309513152,0.627006580336478,0.750067851159803,0.834256033835624),.UNSPECIFIED.);
#589=EDGE_CURVE('',#530,#573,#588,.T.);
#590=ORIENTED_EDGE('',*,*,#589,.F.);
#591=ORIENTED_EDGE('',*,*,#562,.T.);
#592=CARTESIAN_POINT('',(1.06,0.996108054675376,-0.305454551717517));
#593=VERTEX_POINT('',#592);
#594=CARTESIAN_POINT('',(1.06,1.284374453749307,6.257078E-016));
#595=DIRECTION('',(-1.0,8.371415E-017,-8.870568E-017));
#596=DIRECTION('',(-1.219703E-016,-0.686348572123176,0.727272739448192));
#597=AXIS2_PLACEMENT_3D('',#594,#595,#596);
#598=CIRCLE('',#597,0.42);
#599=EDGE_CURVE('',#593,#550,#598,.T.);
#600=ORIENTED_EDGE('',*,*,#599,.F.);
#601=CARTESIAN_POINT('',(2.044236960815787,0.996108054675377,-0.305454551717517));
#602=DIRECTION('',(-1.0,0.0,0.0));
#603=VECTOR('',#602,0.984236960815787);
#604=LINE('',#601,#603);
#605=EDGE_CURVE('',#573,#593,#604,.T.);
#606=ORIENTED_EDGE('',*,*,#605,.F.);
#607=EDGE_LOOP('',(#590,#591,#600,#606));
#608=FACE_OUTER_BOUND('',#607,.T.);
#609=ADVANCED_FACE('',(#608),#571,.T.);
#610=CARTESIAN_POINT('',(2.100000000000001,-0.83138438763306,-0.48));
#611=DIRECTION('',(-1.0,-1.224586E-016,-2.832769E-016));
#612=DIRECTION('',(2.362840E-016,0.286662317760472,-0.958031688190007));
#613=AXIS2_PLACEMENT_3D('',#610,#611,#612);
#614=CYLINDRICAL_SURFACE('',#613,0.24);
#615=ORIENTED_EDGE('',*,*,#220,.F.);
#616=CARTESIAN_POINT('',(1.060000000000001,-0.762585431370547,-0.709927605165601));
#617=VERTEX_POINT('',#616);
#618=CARTESIAN_POINT('',(2.044236961453669,-0.762585431370547,-0.709927605165601));
#619=DIRECTION('',(-1.0,0.0,0.0));
#620=VECTOR('',#619,0.984236961453668);
#621=LINE('',#618,#620);
#622=EDGE_CURVE('',#185,#617,#621,.T.);
#623=ORIENTED_EDGE('',*,*,#622,.T.);
#624=CARTESIAN_POINT('',(1.060000000000001,-0.83138438763306,-0.48));
#625=DIRECTION('',(1.0,-6.773372E-017,2.263676E-016));
#626=DIRECTION('',(2.362840E-016,0.286662317760472,-0.958031688190007));
#627=AXIS2_PLACEMENT_3D('',#624,#625,#626);
#628=CIRCLE('',#627,0.24);
#629=EDGE_CURVE('',#368,#617,#628,.T.);
#630=ORIENTED_EDGE('',*,*,#629,.F.);
#631=ORIENTED_EDGE('',*,*,#373,.F.);
#632=EDGE_LOOP('',(#615,#623,#630,#631));
#633=FACE_OUTER_BOUND('',#632,.T.);
#634=ADVANCED_FACE('',(#633),#614,.F.);
#635=CARTESIAN_POINT('',(2.100000000000001,-0.642187226874652,-1.11230090491866));
#636=DIRECTION('',(-1.0,-1.224586E-016,-2.832769E-016));
#637=DIRECTION('',(-1.845223E-016,0.973010953903623,0.230758929585749));
#638=AXIS2_PLACEMENT_3D('',#635,#636,#637);
#639=CYLINDRICAL_SURFACE('',#638,0.42);
#640=ORIENTED_EDGE('',*,*,#201,.F.);
#641=CARTESIAN_POINT('',(1.060000000000001,-0.23352262623513,-1.015382154492646));
#642=VERTEX_POINT('',#641);
#643=CARTESIAN_POINT('',(2.044236960413534,-0.23352262623513,-1.015382154492645));
#644=DIRECTION('',(-1.0,0.0,0.0));
#645=VECTOR('',#644,0.984236960413533);
#646=LINE('',#643,#645);
#647=EDGE_CURVE('',#172,#642,#646,.T.);
#648=ORIENTED_EDGE('',*,*,#647,.T.);
#649=CARTESIAN_POINT('',(1.060000000000001,-0.642187226874652,-1.11230090491866));
#650=DIRECTION('',(-1.0,-1.795422E-016,-4.258016E-017));
#651=DIRECTION('',(-1.845223E-016,0.973010953903623,0.230758929585749));
#652=AXIS2_PLACEMENT_3D('',#649,#650,#651);
#653=CIRCLE('',#652,0.42);
#654=EDGE_CURVE('',#617,#642,#653,.T.);
#655=ORIENTED_EDGE('',*,*,#654,.F.);
#656=ORIENTED_EDGE('',*,*,#622,.F.);
#657=EDGE_LOOP('',(#640,#648,#655,#656));
#658=FACE_OUTER_BOUND('',#657,.T.);
#659=ADVANCED_FACE('',(#658),#639,.T.);
#660=CARTESIAN_POINT('',(2.100000000000001,1.070957E-015,-0.959999999999999));
#661=DIRECTION('',(-1.0,-1.224586E-016,-2.832769E-016));
#662=DIRECTION('',(-5.378487E-017,0.973010941036374,-0.230758983841388));
#663=AXIS2_PLACEMENT_3D('',#660,#661,#662);
#664=CYLINDRICAL_SURFACE('',#663,0.24);
#665=CARTESIAN_POINT('',(2.044236960815788,0.233522625848731,-1.015382156121932));
#666=VERTEX_POINT('',#665);
#667=CARTESIAN_POINT('',(2.044236960815788,0.233522625848731,-1.015382156121932));
#668=CARTESIAN_POINT('',(2.052516144555663,0.225569709895671,-1.048916166831519));
#669=CARTESIAN_POINT('',(2.059990531081943,0.210062583671286,-1.080728729438578));
#670=CARTESIAN_POINT('',(2.072325920276814,0.168344151737995,-1.134586993474419));
#671=CARTESIAN_POINT('',(2.077701453945957,0.139233412326178,-1.158958437647994));
#672=CARTESIAN_POINT('',(2.084830829705541,0.072811557142154,-1.191665448037849));
#673=CARTESIAN_POINT('',(2.086602540378444,0.035501861071348,-1.199999999999999));
#674=CARTESIAN_POINT('',(2.086602540378444,1.131040E-015,-1.199999999999999));
#675=B_SPLINE_CURVE_WITH_KNOTS('',3,(#667,#668,#669,#670,#671,#672,#673,#674),.UNSPECIFIED.,.F.,.U.,(4,2,2,4),(0.116072902919892,0.217268349916686,0.323773933130728,0.43027951634477),.UNSPECIFIED.);
#676=EDGE_CURVE('',#666,#164,#675,.T.);
#677=ORIENTED_EDGE('',*,*,#676,.F.);
#678=CARTESIAN_POINT('',(1.060000000000001,0.233522625848731,-1.015382156121933));
#679=VERTEX_POINT('',#678);
#680=CARTESIAN_POINT('',(2.044236960815788,0.233522625848731,-1.015382156121932));
#681=DIRECTION('',(-1.0,0.0,0.0));
#682=VECTOR('',#681,0.984236960815787);
#683=LINE('',#680,#682);
#684=EDGE_CURVE('',#666,#679,#683,.T.);
#685=ORIENTED_EDGE('',*,*,#684,.T.);
#686=CARTESIAN_POINT('',(1.060000000000001,9.435996E-016,-0.959999999999999));
#687=DIRECTION('',(1.0,5.233327E-017,-1.241134E-017));
#688=DIRECTION('',(-5.378487E-017,0.973010941036374,-0.230758983841388));
#689=AXIS2_PLACEMENT_3D('',#686,#687,#688);
#690=CIRCLE('',#689,0.24);
#691=EDGE_CURVE('',#642,#679,#690,.T.);
#692=ORIENTED_EDGE('',*,*,#691,.F.);
#693=ORIENTED_EDGE('',*,*,#647,.F.);
#694=ORIENTED_EDGE('',*,*,#182,.F.);
#695=EDGE_LOOP('',(#677,#685,#692,#693,#694));
#696=FACE_OUTER_BOUND('',#695,.T.);
#697=ADVANCED_FACE('',(#696),#664,.F.);
#698=CARTESIAN_POINT('',(2.100000000000001,0.642187226874654,-1.112300904918659));
#699=DIRECTION('',(-1.0,-1.224586E-016,-2.832769E-016));
#700=DIRECTION('',(-3.064926E-016,0.286662364785467,0.958031674119183));
#701=AXIS2_PLACEMENT_3D('',#698,#699,#700);
#702=CYLINDRICAL_SURFACE('',#701,0.42);
#703=CARTESIAN_POINT('',(2.044236958623712,0.76258542008455,-0.709927601788603));
#704=VERTEX_POINT('',#703);
#705=CARTESIAN_POINT('',(2.044236958623712,0.76258542008455,-0.709927601788603));
#706=CARTESIAN_POINT('',(2.037236983438058,0.734669199909724,-0.701574506679775));
#707=CARTESIAN_POINT('',(2.03075808522062,0.706208426836294,-0.69629907007543));
#708=CARTESIAN_POINT('',(2.016990840616348,0.638768881245261,-0.690395508705792));
#709=CARTESIAN_POINT('',(2.009460567885409,0.594680435510573,-0.692705440699555));
#710=CARTESIAN_POINT('',(1.999263057931922,0.509154217572703,-0.711527317810578));
#711=CARTESIAN_POINT('',(1.996671946301311,0.467711955792987,-0.728060023525308));
#712=CARTESIAN_POINT('',(1.996671946301311,0.396662497956322,-0.769080447133083));
#713=CARTESIAN_POINT('',(1.999263057931921,0.361623623924215,-0.796704145767237));
#714=CARTESIAN_POINT('',(2.009460567885408,0.302560291230225,-0.861361084635526));
#715=CARTESIAN_POINT('',(2.016990840616348,0.278515608575268,-0.898387832658256));
#716=CARTESIAN_POINT('',(2.030758085804361,0.249908468685695,-0.959743975646133));
#717=CARTESIAN_POINT('',(2.0372369847929,0.240246743474839,-0.987029449539969));
#718=CARTESIAN_POINT('',(2.044236960815788,0.233522625848731,-1.015382156121932));
#719=B_SPLINE_CURVE_WITH_KNOTS('',3,(#705,#706,#707,#708,#709,#710,#711,#712,#713,#714,#715,#716,#717,#718),.UNSPECIFIED.,.F.,.U.,(4,2,2,2,2,2,4),(0.173634593978204,0.2578227678665,0.380884038689826,0.503945309513152,0.627006580336477,0.750067851159803,0.834256033835623),.UNSPECIFIED.);
#720=EDGE_CURVE('',#704,#666,#719,.T.);
#721=ORIENTED_EDGE('',*,*,#720,.F.);
#722=CARTESIAN_POINT('',(1.060000000000001,0.76258542008455,-0.709927601788603));
#723=VERTEX_POINT('',#722);
#724=CARTESIAN_POINT('',(2.044236958623712,0.76258542008455,-0.709927601788603));
#725=DIRECTION('',(-1.0,0.0,0.0));
#726=VECTOR('',#725,0.984236958623711);
#727=LINE('',#724,#726);
#728=EDGE_CURVE('',#704,#723,#727,.T.);
#729=ORIENTED_EDGE('',*,*,#728,.T.);
#730=CARTESIAN_POINT('',(1.060000000000001,0.642187226874654,-1.11230090491866));
#731=DIRECTION('',(-1.0,-8.785988E-017,-2.936296E-016));
#732=DIRECTION('',(-3.064926E-016,0.286662364785467,0.958031674119183));
#733=AXIS2_PLACEMENT_3D('',#730,#731,#732);
#734=CIRCLE('',#733,0.42);
#735=EDGE_CURVE('',#679,#723,#734,.T.);
#736=ORIENTED_EDGE('',*,*,#735,.F.);
#737=ORIENTED_EDGE('',*,*,#684,.F.);
#738=EDGE_LOOP('',(#721,#729,#736,#737));
#739=FACE_OUTER_BOUND('',#738,.T.);
#740=ADVANCED_FACE('',(#739),#702,.T.);
#741=CARTESIAN_POINT('',(2.100000000000001,0.831384387633062,-0.479999999999999));
#742=DIRECTION('',(-1.0,-1.224586E-016,-2.832769E-016));
#743=DIRECTION('',(-2.900689E-016,0.686348612676311,0.727272701177009));
#744=AXIS2_PLACEMENT_3D('',#741,#742,#743);
#745=CYLINDRICAL_SURFACE('',#744,0.24);
#746=CARTESIAN_POINT('',(2.044236960815787,0.996108054675377,-0.305454551717517));
#747=CARTESIAN_POINT('',(2.052516144555663,1.021172901864128,-0.329108984321823));
#748=CARTESIAN_POINT('',(2.059990531081942,1.040969826129132,-0.358444830875362));
#749=CARTESIAN_POINT('',(2.072325920276814,1.066753235021255,-0.421503184753564));
#750=CARTESIAN_POINT('',(2.077701453945956,1.073304155096576,-0.458899546693934));
#751=CARTESIAN_POINT('',(2.084830829705541,1.06841832938402,-0.532776065844718));
#752=CARTESIAN_POINT('',(2.086602540378444,1.056981415077001,-0.569254486430587));
#753=CARTESIAN_POINT('',(2.086602540378444,1.021479554005653,-0.630745513569412));
#754=CARTESIAN_POINT('',(2.084830829705541,0.995606772241868,-0.65888938219313));
#755=CARTESIAN_POINT('',(2.077701453945956,0.9340707427704,-0.700058890954058));
#756=CARTESIAN_POINT('',(2.072325920276814,0.898409083283261,-0.713083808720854));
#757=CARTESIAN_POINT('',(2.059990530551532,0.830907239555329,-0.722283898958811));
#758=CARTESIAN_POINT('',(2.052516143230926,0.795603185752736,-0.719807182017593));
#759=CARTESIAN_POINT('',(2.044236958623712,0.76258542008455,-0.709927601788603));
#760=B_SPLINE_CURVE_WITH_KNOTS('',3,(#746,#747,#748,#749,#750,#751,#752,#753,#754,#755,#756,#757,#758,#759),.UNSPECIFIED.,.F.,.U.,(4,2,2,2,2,2,4),(0.116072902919892,0.217268349916686,0.323773933130728,0.43027951634477,0.536785099558812,0.643290682772854,0.744486138700608),.UNSPECIFIED.);
#761=EDGE_CURVE('',#573,#704,#760,.T.);
#762=ORIENTED_EDGE('',*,*,#761,.F.);
#763=ORIENTED_EDGE('',*,*,#605,.T.);
#764=CARTESIAN_POINT('',(1.06,0.831384387633062,-0.479999999999999));
#765=DIRECTION('',(1.0,1.990884E-016,2.109592E-016));
#766=DIRECTION('',(-2.900689E-016,0.686348612676311,0.727272701177009));
#767=AXIS2_PLACEMENT_3D('',#764,#765,#766);
#768=CIRCLE('',#767,0.24);
#769=EDGE_CURVE('',#723,#593,#768,.T.);
#770=ORIENTED_EDGE('',*,*,#769,.F.);
#771=ORIENTED_EDGE('',*,*,#728,.F.);
#772=EDGE_LOOP('',(#762,#763,#770,#771));
#773=FACE_OUTER_BOUND('',#772,.T.);
#774=ADVANCED_FACE('',(#773),#745,.F.);
#775=CARTESIAN_POINT('',(1.060000000000001,5.738953E-016,3.002736E-016));
#776=DIRECTION('',(-1.0,0.0,0.0));
#777=DIRECTION('',(0.0,-1.0,0.0));
#778=AXIS2_PLACEMENT_3D('',#775,#776,#777);
#779=PLANE('',#778);
#780=ORIENTED_EDGE('',*,*,#599,.T.);
#781=ORIENTED_EDGE('',*,*,#556,.T.);
#782=ORIENTED_EDGE('',*,*,#513,.T.);
#783=ORIENTED_EDGE('',*,*,#457,.T.);
#784=ORIENTED_EDGE('',*,*,#432,.T.);
#785=ORIENTED_EDGE('',*,*,#407,.T.);
#786=ORIENTED_EDGE('',*,*,#382,.T.);
#787=ORIENTED_EDGE('',*,*,#629,.T.);
#788=ORIENTED_EDGE('',*,*,#654,.T.);
#789=ORIENTED_EDGE('',*,*,#691,.T.);
#790=ORIENTED_EDGE('',*,*,#735,.T.);
#791=ORIENTED_EDGE('',*,*,#769,.T.);
#792=EDGE_LOOP('',(#780,#781,#782,#783,#784,#785,#786,#787,#788,#789,#790,#791));
#793=FACE_OUTER_BOUND('',#792,.T.);
#794=ADVANCED_FACE('',(#793),#779,.F.);
#795=CARTESIAN_POINT('',(0.741771176328613,5.349255E-016,2.101267E-016));
#796=DIRECTION('',(-1.0,-1.224586E-016,-2.832769E-016));
#797=DIRECTION('',(0.0,0.0,1.0));
#798=AXIS2_PLACEMENT_3D('',#795,#796,#797);
#799=CONICAL_SURFACE('',#798,2.448130306447752,3.999999999999994);
#800=ORIENTED_EDGE('',*,*,#306,.T.);
#801=ORIENTED_EDGE('',*,*,#345,.T.);
#802=ORIENTED_EDGE('',*,*,#323,.F.);
#803=CARTESIAN_POINT('',(1.483542352657225,6.257617E-016,4.202533E-016));
#804=DIRECTION('',(1.0,0.0,0.0));
#805=DIRECTION('',(0.0,0.0,1.0));
#806=AXIS2_PLACEMENT_3D('',#803,#804,#805);
#807=CIRCLE('',#806,2.396260612895504);
#808=EDGE_CURVE('',#299,#309,#807,.T.);
#809=ORIENTED_EDGE('',*,*,#808,.F.);
#810=EDGE_LOOP('',(#800,#801,#802,#809));
#811=FACE_OUTER_BOUND('',#810,.T.);
#812=ADVANCED_FACE('',(#811),#799,.T.);
#813=CARTESIAN_POINT('',(-1.598214285714267,2.483741E-016,-4.527373E-016));
#814=DIRECTION('',(0.0,0.0,1.0));
#815=DIRECTION('',(1.0,0.0,0.0));
#816=AXIS2_PLACEMENT_3D('',#813,#814,#815);
#817=SPHERICAL_SURFACE('',#816,3.903753181626765);
#818=ORIENTED_EDGE('',*,*,#161,.F.);
#819=CARTESIAN_POINT('',(2.100000000000001,7.012523E-016,5.948816E-016));
#820=DIRECTION('',(1.0,0.0,0.0));
#821=DIRECTION('',(0.0,0.0,1.0));
#822=AXIS2_PLACEMENT_3D('',#819,#820,#821);
#823=CIRCLE('',#822,1.25);
#824=EDGE_CURVE('',#155,#145,#823,.T.);
#825=ORIENTED_EDGE('',*,*,#824,.F.);
#826=EDGE_LOOP('',(#818,#825));
#827=FACE_OUTER_BOUND('',#826,.T.);
#828=ORIENTED_EDGE('',*,*,#808,.T.);
#829=ORIENTED_EDGE('',*,*,#315,.T.);
#830=EDGE_LOOP('',(#828,#829));
#831=FACE_BOUND('',#830,.T.);
#832=ADVANCED_FACE('',(#827,#831),#817,.T.);
#833=CARTESIAN_POINT('',(2.048151831264575,6.949030E-016,5.801942E-016));
#834=DIRECTION('',(1.0,1.224586E-016,2.832769E-016));
#835=DIRECTION('',(0.0,0.0,1.0));
#836=AXIS2_PLACEMENT_3D('',#833,#834,#835);
#837=CONICAL_SURFACE('',#836,1.0565,74.999999999999147);
#838=ORIENTED_EDGE('',*,*,#152,.T.);
#839=ORIENTED_EDGE('',*,*,#476,.T.);
#840=ORIENTED_EDGE('',*,*,#503,.T.);
#841=ORIENTED_EDGE('',*,*,#546,.T.);
#842=ORIENTED_EDGE('',*,*,#589,.T.);
#843=ORIENTED_EDGE('',*,*,#761,.T.);
#844=ORIENTED_EDGE('',*,*,#720,.T.);
#845=ORIENTED_EDGE('',*,*,#676,.T.);
#846=ORIENTED_EDGE('',*,*,#169,.F.);
#847=ORIENTED_EDGE('',*,*,#824,.T.);
#848=EDGE_LOOP('',(#838,#839,#840,#841,#842,#843,#844,#845,#846,#847));
#849=FACE_OUTER_BOUND('',#848,.T.);
#850=ADVANCED_FACE('',(#849),#837,.F.);
#851=CARTESIAN_POINT('',(-3.861999999999998,5.222390E-016,-1.239365E-015));
#852=DIRECTION('',(1.0,1.224586E-016,2.832769E-016));
#853=DIRECTION('',(0.0,0.0,1.0));
#854=AXIS2_PLACEMENT_3D('',#851,#852,#853);
#855=CONICAL_SURFACE('',#854,1.112,45.000000000000028);
#856=ORIENTED_EDGE('',*,*,#118,.T.);
#857=CARTESIAN_POINT('',(-3.999999999999998,5.053398E-016,-1.278457E-015));
#858=DIRECTION('',(1.0,0.0,0.0));
#859=DIRECTION('',(0.0,0.0,1.0));
#860=AXIS2_PLACEMENT_3D('',#857,#858,#859);
#861=CIRCLE('',#860,0.974);
#862=EDGE_CURVE('',#113,#122,#861,.T.);
#863=ORIENTED_EDGE('',*,*,#862,.T.);
#864=ORIENTED_EDGE('',*,*,#127,.F.);
#865=CARTESIAN_POINT('',(-3.723999999999998,5.391383E-016,-1.200273E-015));
#866=DIRECTION('',(1.0,0.0,0.0));
#867=DIRECTION('',(0.0,0.0,1.0));
#868=AXIS2_PLACEMENT_3D('',#865,#866,#867);
#869=CIRCLE('',#868,1.25);
#870=EDGE_CURVE('',#73,#90,#869,.T.);
#871=ORIENTED_EDGE('',*,*,#870,.F.);
#872=EDGE_LOOP('',(#856,#863,#864,#871));
#873=FACE_OUTER_BOUND('',#872,.T.);
#874=ADVANCED_FACE('',(#873),#855,.T.);
#875=CARTESIAN_POINT('',(-8.362,7.059270E-016,-8.144496E-016));
#876=DIRECTION('',(1.0,1.224586E-016,2.832769E-016));
#877=DIRECTION('',(0.0,0.0,1.0));
#878=AXIS2_PLACEMENT_3D('',#875,#876,#877);
#879=CYLINDRICAL_SURFACE('',#878,1.25);
#880=ORIENTED_EDGE('',*,*,#78,.T.);
#881=ORIENTED_EDGE('',*,*,#870,.T.);
#882=ORIENTED_EDGE('',*,*,#95,.F.);
#883=ORIENTED_EDGE('',*,*,#356,.F.);
#884=EDGE_LOOP('',(#880,#881,#882,#883));
#885=FACE_OUTER_BOUND('',#884,.T.);
#886=ADVANCED_FACE('',(#885),#879,.T.);
#887=CARTESIAN_POINT('',(-3.999999999999998,4.941988E-016,0.486999999999999));
#888=DIRECTION('',(-1.0,0.0,0.0));
#889=DIRECTION('',(0.0,0.0,-1.0));
#890=AXIS2_PLACEMENT_3D('',#887,#888,#889);
#891=PLANE('',#890);
#892=ORIENTED_EDGE('',*,*,#862,.F.);
#893=ORIENTED_EDGE('',*,*,#134,.F.);
#894=EDGE_LOOP('',(#892,#893));
#895=FACE_OUTER_BOUND('',#894,.T.);
#896=ADVANCED_FACE('',(#895),#891,.T.);
#897=CLOSED_SHELL('',(#106,#138,#292,#334,#360,#392,#417,#442,#480,#523,#566,#609,#634,#659,#697,#740,#774,#794,#812,#832,#850,#874,#886,#896));
#898=MANIFOLD_SOLID_BREP('1BFC',#897);
#899=COLOUR_RGB('253',0.732,0.732,0.732);
#900=SURFACE_STYLE_USAGE(.BOTH.,#901);
#901=SURFACE_SIDE_STYLE('NONE',(#902));
#902=SURFACE_STYLE_FILL_AREA(#903);
#903=FILL_AREA_STYLE('NONE',(#904));
#904=FILL_AREA_STYLE_COLOUR('NONE',#899);
#905=PRESENTATION_STYLE_ASSIGNMENT((#900));
#906=STYLED_ITEM('NONE',(#905),#898);
#907=MECHANICAL_DESIGN_GEOMETRIC_PRESENTATION_REPRESENTATION('NONE',(#906),#28);
#908=PRESENTATION_LAYER_ASSIGNMENT('3D','None',(#898));
#909=ADVANCED_BREP_SHAPE_REPRESENTATION('ABSR1',(#898),#28);
#910=SHAPE_REPRESENTATION_RELATIONSHIP('SRRPL1','',#909,#62);
ENDSEC;
END-ISO-10303-21;
