ISO-10303-21;
HEADER;
/****************************************************************
 * Generated by software with PDE/Lib inside                    *
 * PDElib Version v51a, created Mon 11/03/2008                  *
 * International Technegroup Inc. (www.iti-oh.com)              *
 ****************************************************************/
FILE_DESCRIPTION((''),'2;1');
FILE_NAME('CAPAD6800-5800X3450.stp','2010-09-23T15:33:36',(''),(''),'Mechanical Desktop 2010','Mechanical Desktop 2010',', , ');
FILE_SCHEMA(('AUTOMOTIVE_DESIGN { 1 2 10303 214 1 1 1 1 }'));
ENDSEC;
DATA;
#8=(NAMED_UNIT(*)PLANE_ANGLE_UNIT()SI_UNIT($,.RADIAN.));
#9=DIMENSIONAL_EXPONENTS(0.0,0.0,0.0,0.0,0.0,0.0,0.0);
#10=PLANE_ANGLE_MEASURE_WITH_UNIT(PLANE_ANGLE_MEASURE(0.017453292500000),#8);
#14=(CONVERSION_BASED_UNIT('DEGREE',#10)NAMED_UNIT(#9)PLANE_ANGLE_UNIT());
#18=(NAMED_UNIT(*)SI_UNIT($,.STERADIAN.)SOLID_ANGLE_UNIT());
#22=(LENGTH_UNIT()NAMED_UNIT(*)SI_UNIT(.MILLI.,.METRE.));
#23=UNCERTAINTY_MEASURE_WITH_UNIT(LENGTH_MEASURE(0.000001000000000),#22,'DISTANCE_ACCURACY_VALUE','');
#28=(GEOMETRIC_REPRESENTATION_CONTEXT(3)GLOBAL_UNCERTAINTY_ASSIGNED_CONTEXT((#23))GLOBAL_UNIT_ASSIGNED_CONTEXT((#14,#18,#22))REPRESENTATION_CONTEXT('None','None'));
#29=APPLICATION_CONTEXT('automotive design');
#30=APPLICATION_PROTOCOL_DEFINITION('INTERNATIONAL_STANDARD','automotive_design',1998,#29);
#31=PRODUCT_CONTEXT('3D Mechanical Parts',#29,'mechanical');
#32=PRODUCT('Product','Product','',(#31));
#33=PRODUCT_RELATED_PRODUCT_CATEGORY('part',$,(#32));
#34=PRODUCT_CATEGORY('part',$);
#35=PERSON('1','Design','Joe',$,$,$);
#36=ORGANIZATION($,'None','None');
#37=PERSON_AND_ORGANIZATION(#35,#36);
#38=PERSON_AND_ORGANIZATION_ROLE('design_owner');
#39=APPLIED_PERSON_AND_ORGANIZATION_ASSIGNMENT(#37,#38,(#32));
#40=PRODUCT_DEFINITION_FORMATION_WITH_SPECIFIED_SOURCE('None','',#32,.BOUGHT.);
#41=PERSON('2','Creator','Joe',$,$,$);
#42=ORGANIZATION($,'None','None');
#43=PERSON_AND_ORGANIZATION(#41,#42);
#44=PERSON_AND_ORGANIZATION_ROLE('creator');
#45=APPLIED_PERSON_AND_ORGANIZATION_ASSIGNMENT(#43,#44,(#40));
#46=PERSON('3','Supplier','Joe',$,$,$);
#47=ORGANIZATION($,'None','None');
#48=PERSON_AND_ORGANIZATION(#46,#47);
#49=PERSON_AND_ORGANIZATION_ROLE('design_supplier');
#50=APPLIED_PERSON_AND_ORGANIZATION_ASSIGNMENT(#48,#49,(#40));
#51=PRODUCT_DEFINITION_CONTEXT('part definition',#29,'design');
#52=PRODUCT_DEFINITION('None','',#40,#51);
#53=PERSON('4','Creator','Joe',$,$,$);
#54=ORGANIZATION($,'None','None');
#55=PERSON_AND_ORGANIZATION(#53,#54);
#56=PERSON_AND_ORGANIZATION_ROLE('creator');
#57=APPLIED_PERSON_AND_ORGANIZATION_ASSIGNMENT(#55,#56,(#52));
#58=CARTESIAN_POINT('NONE',(0.0,0.0,0.0));
#59=DIRECTION('NONE',(0.0,0.0,1.0));
#60=DIRECTION('NONE',(1.0,0.0,0.0));
#61=AXIS2_PLACEMENT_3D('NONE',#58,#59,#60);
#62=SHAPE_REPRESENTATION('SR1',(#61),#28);
#63=PRODUCT_DEFINITION_SHAPE('PDS1','Test Part',#52);
#64=SHAPE_DEFINITION_REPRESENTATION(#63,#62);
#65=CARTESIAN_POINT('',(-33.400000000000006,-1.249507E-015,15.450000000000005));
#66=CARTESIAN_POINT('',(-33.400000000000006,-0.600000000000005,15.450000000000006));
#67=CARTESIAN_POINT('',(-34.000000000000007,-0.600000000000005,15.450000000000005));
#68=CARTESIAN_POINT('',(-34.600000000000009,-0.600000000000005,15.450000000000005));
#69=CARTESIAN_POINT('',(-34.600000000000009,-2.094890E-015,15.450000000000005));
#70=CARTESIAN_POINT('',(-33.400000000000006,-1.322984E-015,14.250000000000002));
#71=CARTESIAN_POINT('',(-33.400000000000006,-0.600000000000005,14.250000000000002));
#72=CARTESIAN_POINT('',(-34.000000000000007,-0.600000000000005,13.650000000000000));
#73=CARTESIAN_POINT('',(-34.600000000000009,-0.600000000000005,13.049999999999999));
#74=CARTESIAN_POINT('',(-34.600000000000009,-2.241843E-015,13.049999999999999));
#75=CARTESIAN_POINT('',(-32.200000000000003,-5.236233E-016,14.250000000000002));
#76=CARTESIAN_POINT('',(-32.200000000000003,-0.600000000000004,14.250000000000002));
#77=CARTESIAN_POINT('',(-32.200000000000003,-0.600000000000004,13.650000000000000));
#78=CARTESIAN_POINT('',(-32.200000000000003,-0.600000000000004,13.049999999999999));
#79=CARTESIAN_POINT('',(-32.200000000000003,-6.431216E-016,13.049999999999999));
#80=CARTESIAN_POINT('',(-31.000000000000004,2.757373E-016,14.250000000000002));
#81=CARTESIAN_POINT('',(-31.0,-0.600000000000003,14.250000000000002));
#82=CARTESIAN_POINT('',(-30.399999999999999,-0.600000000000003,13.650000000000000));
#83=CARTESIAN_POINT('',(-29.799999999999997,-0.600000000000002,13.049999999999999));
#84=CARTESIAN_POINT('',(-29.800000000000001,9.555995E-016,13.049999999999999));
#85=CARTESIAN_POINT('',(-31.0,3.492137E-016,15.450000000000005));
#86=CARTESIAN_POINT('',(-30.999999999999996,-0.600000000000003,15.450000000000006));
#87=CARTESIAN_POINT('',(-30.399999999999999,-0.600000000000002,15.450000000000005));
#88=CARTESIAN_POINT('',(-29.799999999999994,-0.600000000000002,15.450000000000005));
#89=CARTESIAN_POINT('',(-29.799999999999997,1.102552E-015,15.450000000000005));
#90=CARTESIAN_POINT('',(-31.000000000000004,4.226901E-016,16.650000000000006));
#91=CARTESIAN_POINT('',(-31.0,-0.600000000000003,16.650000000000006));
#92=CARTESIAN_POINT('',(-30.399999999999999,-0.600000000000002,17.250000000000007));
#93=CARTESIAN_POINT('',(-29.799999999999997,-0.600000000000002,17.850000000000009));
#94=CARTESIAN_POINT('',(-29.800000000000001,1.249505E-015,17.850000000000009));
#95=CARTESIAN_POINT('',(-32.200000000000003,-3.766705E-016,16.650000000000006));
#96=CARTESIAN_POINT('',(-32.200000000000003,-0.600000000000004,16.650000000000006));
#97=CARTESIAN_POINT('',(-32.200000000000003,-0.600000000000004,17.250000000000007));
#98=CARTESIAN_POINT('',(-32.200000000000003,-0.600000000000004,17.850000000000009));
#99=CARTESIAN_POINT('',(-32.200000000000003,-3.492161E-016,17.850000000000009));
#100=CARTESIAN_POINT('',(-33.400000000000006,-1.176031E-015,16.650000000000006));
#101=CARTESIAN_POINT('',(-33.400000000000006,-0.600000000000004,16.650000000000006));
#102=CARTESIAN_POINT('',(-34.000000000000007,-0.600000000000005,17.250000000000007));
#103=CARTESIAN_POINT('',(-34.600000000000009,-0.600000000000005,17.850000000000009));
#104=CARTESIAN_POINT('',(-34.600000000000009,-1.947937E-015,17.850000000000009));
#105=CARTESIAN_POINT('',(-33.400000000000006,-1.249507E-015,15.450000000000005));
#106=CARTESIAN_POINT('',(-33.400000000000006,-0.600000000000005,15.450000000000006));
#107=CARTESIAN_POINT('',(-34.000000000000007,-0.600000000000005,15.450000000000005));
#108=CARTESIAN_POINT('',(-34.600000000000009,-0.600000000000005,15.450000000000005));
#109=CARTESIAN_POINT('',(-34.600000000000009,-2.094890E-015,15.450000000000005));
#117=(BOUNDED_SURFACE()B_SPLINE_SURFACE(2,2,((#65,#70,#75,#80,#85,#90,#95,#100,#105),(#66,#71,#76,#81,#86,#91,#96,#101,#106),(#67,#72,#77,#82,#87,#92,#97,#102,#107),(#68,#73,#78,#83,#88,#93,#98,#103,#108),(#69,#74,#79,#84,#89,#94,#99,#104,#109)),.UNSPECIFIED.,.F.,.T.,.U.)B_SPLINE_SURFACE_WITH_KNOTS((3,2,3),(3,2,2,2,3),(-3.141592653589796,-1.570796326794897,2.909457E-015),(0.0,1.570796326794897,3.141592653589793,4.712388980384690,6.283185307179586),.UNSPECIFIED.)GEOMETRIC_REPRESENTATION_ITEM()RATIONAL_B_SPLINE_SURFACE(((1.0,0.707106781186548,1.0,0.707106781186548,1.0,0.707106781186548,1.0,0.707106781186548,1.0),(0.707106781186537,0.499999999999993,0.707106781186537,0.499999999999993,0.707106781186537,0.499999999999993,0.707106781186537,0.499999999999993,0.707106781186537),(1.0,0.707106781186548,1.0,0.707106781186548,1.0,0.707106781186548,1.0,0.707106781186548,1.0),(0.707106781186538,0.499999999999993,0.707106781186538,0.499999999999993,0.707106781186538,0.499999999999993,0.707106781186538,0.499999999999993,0.707106781186538),(1.0,0.707106781186548,1.0,0.707106781186548,1.0,0.707106781186548,1.0,0.707106781186548,1.0)))REPRESENTATION_ITEM('')SURFACE());
#118=CARTESIAN_POINT('',(-34.600000000000009,-3.840564E-015,15.450000000000006));
#119=VERTEX_POINT('',#118);
#120=CARTESIAN_POINT('',(-32.200000000000003,-2.094890E-015,17.850000000000009));
#121=VERTEX_POINT('',#120);
#122=CARTESIAN_POINT('',(-32.200000000000003,-2.241843E-015,15.450000000000005));
#123=DIRECTION('',(0.0,1.0,0.0));
#124=DIRECTION('',(1.0,0.0,0.0));
#125=AXIS2_PLACEMENT_3D('',#122,#123,#124);
#126=CIRCLE('',#125,2.400000000000002);
#127=EDGE_CURVE('',#119,#121,#126,.T.);
#128=ORIENTED_EDGE('',*,*,#127,.F.);
#129=CARTESIAN_POINT('',(-33.399999999999999,-2.967727E-015,15.450000000000001));
#130=VERTEX_POINT('',#129);
#131=CARTESIAN_POINT('',(-34.0,-3.440884E-015,15.450000000000003));
#132=DIRECTION('',(0.0,0.0,-1.0));
#133=DIRECTION('',(-1.0,0.0,0.0));
#134=AXIS2_PLACEMENT_3D('',#131,#132,#133);
#135=CIRCLE('',#134,0.600000000000000);
#136=EDGE_CURVE('',#130,#119,#135,.T.);
#137=ORIENTED_EDGE('',*,*,#136,.F.);
#138=CARTESIAN_POINT('',(-32.200000000000003,-2.094890E-015,16.650000000000006));
#139=VERTEX_POINT('',#138);
#140=CARTESIAN_POINT('',(-32.200000000000003,-2.315319E-015,15.450000000000005));
#141=DIRECTION('',(0.0,1.0,0.0));
#142=DIRECTION('',(1.0,0.0,0.0));
#143=AXIS2_PLACEMENT_3D('',#140,#141,#142);
#144=CIRCLE('',#143,1.200000000000003);
#145=EDGE_CURVE('',#130,#139,#144,.T.);
#146=ORIENTED_EDGE('',*,*,#145,.T.);
#147=CARTESIAN_POINT('',(-32.200000000000003,-2.131628E-015,17.250000000000007));
#148=DIRECTION('',(-1.0,0.0,0.0));
#149=DIRECTION('',(0.0,0.0,1.0));
#150=AXIS2_PLACEMENT_3D('',#147,#148,#149);
#151=CIRCLE('',#150,0.600000000000000);
#152=EDGE_CURVE('',#139,#121,#151,.T.);
#153=ORIENTED_EDGE('',*,*,#152,.T.);
#154=EDGE_LOOP('',(#128,#137,#146,#153));
#155=FACE_OUTER_BOUND('',#154,.T.);
#156=ADVANCED_FACE('',(#155),#117,.T.);
#157=CARTESIAN_POINT('',(-29.000000000000004,3.673819E-017,16.650000000000006));
#158=CARTESIAN_POINT('',(-32.200000000000003,-2.094890E-015,16.650000000000006));
#159=CARTESIAN_POINT('',(-29.0,0.600000000000001,16.650000000000006));
#160=CARTESIAN_POINT('',(-32.200000000000003,0.599999999999999,16.650000000000006));
#161=CARTESIAN_POINT('',(-29.000000000000004,0.600000000000001,17.250000000000007));
#162=CARTESIAN_POINT('',(-32.200000000000003,0.599999999999999,17.250000000000007));
#163=CARTESIAN_POINT('',(-29.0,0.600000000000001,17.850000000000009));
#164=CARTESIAN_POINT('',(-32.200000000000003,0.599999999999999,17.850000000000009));
#165=CARTESIAN_POINT('',(-29.000000000000004,-3.673819E-017,17.850000000000009));
#166=CARTESIAN_POINT('',(-32.200000000000003,-2.168366E-015,17.850000000000009));
#167=CARTESIAN_POINT('',(-29.0,-0.600000000000001,17.850000000000009));
#168=CARTESIAN_POINT('',(-32.200000000000003,-0.600000000000003,17.850000000000009));
#169=CARTESIAN_POINT('',(-29.000000000000004,-0.600000000000001,17.250000000000007));
#170=CARTESIAN_POINT('',(-32.200000000000003,-0.600000000000004,17.250000000000007));
#171=CARTESIAN_POINT('',(-29.0,-0.600000000000001,16.650000000000006));
#172=CARTESIAN_POINT('',(-32.200000000000003,-0.600000000000003,16.650000000000006));
#173=CARTESIAN_POINT('',(-29.000000000000004,3.673819E-017,16.650000000000006));
#174=CARTESIAN_POINT('',(-32.200000000000003,-2.094890E-015,16.650000000000006));
#182=(BOUNDED_SURFACE()B_SPLINE_SURFACE(1,2,((#157,#159,#161,#163,#165,#167,#169,#171,#173),(#158,#160,#162,#164,#166,#168,#170,#172,#174)),.UNSPECIFIED.,.F.,.T.,.U.)B_SPLINE_SURFACE_WITH_KNOTS((2,2),(3,2,2,2,3),(0.0,5.333333333333327),(0.0,0.942477796076938,1.884955592153876,2.827433388230814,3.769911184307752),.UNSPECIFIED.)GEOMETRIC_REPRESENTATION_ITEM()RATIONAL_B_SPLINE_SURFACE(((1.0,0.707106781186548,1.0,0.707106781186548,1.0,0.707106781186548,1.0,0.707106781186548,1.0),(1.0,0.707106781186548,1.0,0.707106781186548,1.0,0.707106781186548,1.0,0.707106781186548,1.0)))REPRESENTATION_ITEM('')SURFACE());
#183=CARTESIAN_POINT('',(-29.000000000000004,3.673819E-017,17.850000000000009));
#184=VERTEX_POINT('',#183);
#185=CARTESIAN_POINT('',(-32.200000000000003,-2.094890E-015,17.850000000000009));
#186=DIRECTION('',(1.0,0.0,0.0));
#187=VECTOR('',#186,3.199999999999999);
#188=LINE('',#185,#187);
#189=EDGE_CURVE('',#121,#184,#188,.T.);
#190=ORIENTED_EDGE('',*,*,#189,.F.);
#191=ORIENTED_EDGE('',*,*,#152,.F.);
#192=CARTESIAN_POINT('',(-29.000000000000004,3.673819E-017,16.650000000000006));
#193=VERTEX_POINT('',#192);
#194=CARTESIAN_POINT('',(-32.200000000000003,-2.094890E-015,16.650000000000006));
#195=DIRECTION('',(1.0,0.0,0.0));
#196=VECTOR('',#195,3.199999999999999);
#197=LINE('',#194,#196);
#198=EDGE_CURVE('',#139,#193,#197,.T.);
#199=ORIENTED_EDGE('',*,*,#198,.T.);
#200=CARTESIAN_POINT('',(-29.000000000000004,0.0,17.250000000000007));
#201=DIRECTION('',(1.0,0.0,0.0));
#202=DIRECTION('',(0.0,0.0,1.0));
#203=AXIS2_PLACEMENT_3D('',#200,#201,#202);
#204=CIRCLE('',#203,0.600000000000000);
#205=EDGE_CURVE('',#184,#193,#204,.T.);
#206=ORIENTED_EDGE('',*,*,#205,.F.);
#207=EDGE_LOOP('',(#190,#191,#199,#206));
#208=FACE_OUTER_BOUND('',#207,.T.);
#209=ADVANCED_FACE('',(#208),#182,.T.);
#210=CARTESIAN_POINT('',(-33.399999999999999,-2.967727E-015,15.450000000000006));
#211=CARTESIAN_POINT('',(-33.399999999999991,-4.143349E-015,-3.750000000000000));
#212=CARTESIAN_POINT('',(-33.399999999999999,0.599999999999998,15.450000000000006));
#213=CARTESIAN_POINT('',(-33.399999999999991,0.599999999999997,-3.750000000000000));
#214=CARTESIAN_POINT('',(-34.0,0.599999999999998,15.450000000000006));
#215=CARTESIAN_POINT('',(-33.999999999999993,0.599999999999997,-3.750000000000000));
#216=CARTESIAN_POINT('',(-34.600000000000001,0.599999999999997,15.450000000000006));
#217=CARTESIAN_POINT('',(-34.599999999999994,0.599999999999996,-3.750000000000000));
#218=CARTESIAN_POINT('',(-34.600000000000001,-3.914040E-015,15.450000000000006));
#219=CARTESIAN_POINT('',(-34.599999999999994,-5.089662E-015,-3.750000000000000));
#220=CARTESIAN_POINT('',(-34.600000000000001,-0.600000000000005,15.450000000000006));
#221=CARTESIAN_POINT('',(-34.599999999999994,-0.600000000000006,-3.750000000000000));
#222=CARTESIAN_POINT('',(-34.0,-0.600000000000005,15.450000000000006));
#223=CARTESIAN_POINT('',(-33.999999999999993,-0.600000000000006,-3.750000000000000));
#224=CARTESIAN_POINT('',(-33.399999999999999,-0.600000000000004,15.450000000000006));
#225=CARTESIAN_POINT('',(-33.399999999999991,-0.600000000000006,-3.750000000000000));
#226=CARTESIAN_POINT('',(-33.399999999999999,-2.967727E-015,15.450000000000006));
#227=CARTESIAN_POINT('',(-33.399999999999991,-4.143349E-015,-3.750000000000000));
#235=(BOUNDED_SURFACE()B_SPLINE_SURFACE(1,2,((#210,#212,#214,#216,#218,#220,#222,#224,#226),(#211,#213,#215,#217,#219,#221,#223,#225,#227)),.UNSPECIFIED.,.F.,.T.,.U.)B_SPLINE_SURFACE_WITH_KNOTS((2,2),(3,2,2,2,3),(-5.921189E-015,32.000000000000007),(0.0,0.942477796076938,1.884955592153876,2.827433388230814,3.769911184307752),.UNSPECIFIED.)GEOMETRIC_REPRESENTATION_ITEM()RATIONAL_B_SPLINE_SURFACE(((1.0,0.707106781186548,1.0,0.707106781186548,1.0,0.707106781186548,1.0,0.707106781186548,1.0),(1.0,0.707106781186548,1.0,0.707106781186548,1.0,0.707106781186548,1.0,0.707106781186548,1.0)))REPRESENTATION_ITEM('')SURFACE());
#236=CARTESIAN_POINT('',(-34.600000000000009,-5.016186E-015,-3.749999999999993));
#237=VERTEX_POINT('',#236);
#238=CARTESIAN_POINT('',(-34.599999999999994,-5.016186E-015,-3.749999999999993));
#239=DIRECTION('',(0.0,0.0,1.0));
#240=VECTOR('',#239,19.199999999999996);
#241=LINE('',#238,#240);
#242=EDGE_CURVE('',#237,#119,#241,.T.);
#243=ORIENTED_EDGE('',*,*,#242,.F.);
#244=CARTESIAN_POINT('',(-33.399999999999991,-4.143349E-015,-3.750000000000000));
#245=VERTEX_POINT('',#244);
#246=CARTESIAN_POINT('',(-34.0,-4.616506E-015,-3.749999999999996));
#247=DIRECTION('',(0.0,0.0,-1.0));
#248=DIRECTION('',(-1.0,0.0,0.0));
#249=AXIS2_PLACEMENT_3D('',#246,#247,#248);
#250=CIRCLE('',#249,0.600000000000000);
#251=EDGE_CURVE('',#245,#237,#250,.T.);
#252=ORIENTED_EDGE('',*,*,#251,.F.);
#253=CARTESIAN_POINT('',(-33.399999999999991,-4.143349E-015,-3.750000000000000));
#254=DIRECTION('',(0.0,0.0,1.0));
#255=VECTOR('',#254,19.200000000000003);
#256=LINE('',#253,#255);
#257=EDGE_CURVE('',#245,#130,#256,.T.);
#258=ORIENTED_EDGE('',*,*,#257,.T.);
#259=ORIENTED_EDGE('',*,*,#136,.T.);
#260=EDGE_LOOP('',(#243,#252,#258,#259));
#261=FACE_OUTER_BOUND('',#260,.T.);
#262=ADVANCED_FACE('',(#261),#235,.T.);
#263=CARTESIAN_POINT('',(-33.399999999999999,-2.967727E-015,15.450000000000006));
#264=CARTESIAN_POINT('',(-33.399999999999991,-4.143349E-015,-3.750000000000000));
#265=CARTESIAN_POINT('',(-33.399999999999999,0.599999999999998,15.450000000000006));
#266=CARTESIAN_POINT('',(-33.399999999999991,0.599999999999997,-3.750000000000000));
#267=CARTESIAN_POINT('',(-34.0,0.599999999999998,15.450000000000006));
#268=CARTESIAN_POINT('',(-33.999999999999993,0.599999999999997,-3.750000000000000));
#269=CARTESIAN_POINT('',(-34.600000000000001,0.599999999999997,15.450000000000006));
#270=CARTESIAN_POINT('',(-34.599999999999994,0.599999999999996,-3.750000000000000));
#271=CARTESIAN_POINT('',(-34.600000000000001,-3.914040E-015,15.450000000000006));
#272=CARTESIAN_POINT('',(-34.599999999999994,-5.089662E-015,-3.750000000000000));
#273=CARTESIAN_POINT('',(-34.600000000000001,-0.600000000000005,15.450000000000006));
#274=CARTESIAN_POINT('',(-34.599999999999994,-0.600000000000006,-3.750000000000000));
#275=CARTESIAN_POINT('',(-34.0,-0.600000000000005,15.450000000000006));
#276=CARTESIAN_POINT('',(-33.999999999999993,-0.600000000000006,-3.750000000000000));
#277=CARTESIAN_POINT('',(-33.399999999999999,-0.600000000000004,15.450000000000006));
#278=CARTESIAN_POINT('',(-33.399999999999991,-0.600000000000006,-3.750000000000000));
#279=CARTESIAN_POINT('',(-33.399999999999999,-2.967727E-015,15.450000000000006));
#280=CARTESIAN_POINT('',(-33.399999999999991,-4.143349E-015,-3.750000000000000));
#288=(BOUNDED_SURFACE()B_SPLINE_SURFACE(1,2,((#263,#265,#267,#269,#271,#273,#275,#277,#279),(#264,#266,#268,#270,#272,#274,#276,#278,#280)),.UNSPECIFIED.,.F.,.T.,.U.)B_SPLINE_SURFACE_WITH_KNOTS((2,2),(3,2,2,2,3),(-5.921189E-015,32.000000000000007),(0.0,0.942477796076938,1.884955592153876,2.827433388230814,3.769911184307752),.UNSPECIFIED.)GEOMETRIC_REPRESENTATION_ITEM()RATIONAL_B_SPLINE_SURFACE(((1.0,0.707106781186548,1.0,0.707106781186548,1.0,0.707106781186548,1.0,0.707106781186548,1.0),(1.0,0.707106781186548,1.0,0.707106781186548,1.0,0.707106781186548,1.0,0.707106781186548,1.0)))REPRESENTATION_ITEM('')SURFACE());
#289=ORIENTED_EDGE('',*,*,#242,.T.);
#290=CARTESIAN_POINT('',(-34.0,-3.440884E-015,15.450000000000003));
#291=DIRECTION('',(0.0,0.0,-1.0));
#292=DIRECTION('',(-1.0,0.0,0.0));
#293=AXIS2_PLACEMENT_3D('',#290,#291,#292);
#294=CIRCLE('',#293,0.600000000000000);
#295=EDGE_CURVE('',#119,#130,#294,.T.);
#296=ORIENTED_EDGE('',*,*,#295,.T.);
#297=ORIENTED_EDGE('',*,*,#257,.F.);
#298=CARTESIAN_POINT('',(-34.0,-4.616506E-015,-3.749999999999996));
#299=DIRECTION('',(0.0,0.0,-1.0));
#300=DIRECTION('',(-1.0,0.0,0.0));
#301=AXIS2_PLACEMENT_3D('',#298,#299,#300);
#302=CIRCLE('',#301,0.600000000000000);
#303=EDGE_CURVE('',#237,#245,#302,.T.);
#304=ORIENTED_EDGE('',*,*,#303,.F.);
#305=EDGE_LOOP('',(#289,#296,#297,#304));
#306=FACE_OUTER_BOUND('',#305,.T.);
#307=ADVANCED_FACE('',(#306),#288,.T.);
#308=CARTESIAN_POINT('',(-34.600000000000009,-5.586238E-015,15.450000000000005));
#309=CARTESIAN_POINT('',(-34.600000000000009,0.599999999999998,15.450000000000005));
#310=CARTESIAN_POINT('',(-34.000000000000007,0.599999999999998,15.450000000000005));
#311=CARTESIAN_POINT('',(-33.400000000000006,0.599999999999998,15.450000000000003));
#312=CARTESIAN_POINT('',(-33.400000000000006,-4.832899E-015,15.450000000000005));
#313=CARTESIAN_POINT('',(-34.600000000000009,-5.733191E-015,13.049999999999999));
#314=CARTESIAN_POINT('',(-34.600000000000009,0.599999999999997,13.049999999999999));
#315=CARTESIAN_POINT('',(-34.000000000000007,0.599999999999998,13.650000000000000));
#316=CARTESIAN_POINT('',(-33.400000000000006,0.599999999999998,14.250000000000002));
#317=CARTESIAN_POINT('',(-33.400000000000006,-4.906376E-015,14.250000000000002));
#318=CARTESIAN_POINT('',(-32.200000000000003,-4.134469E-015,13.049999999999999));
#319=CARTESIAN_POINT('',(-32.200000000000003,0.599999999999999,13.049999999999999));
#320=CARTESIAN_POINT('',(-32.200000000000003,0.599999999999999,13.650000000000000));
#321=CARTESIAN_POINT('',(-32.200000000000003,0.599999999999999,14.250000000000002));
#322=CARTESIAN_POINT('',(-32.200000000000003,-4.107015E-015,14.250000000000002));
#323=CARTESIAN_POINT('',(-29.800000000000001,-2.535748E-015,13.049999999999999));
#324=CARTESIAN_POINT('',(-29.799999999999997,0.600000000000001,13.049999999999999));
#325=CARTESIAN_POINT('',(-30.399999999999999,0.600000000000000,13.650000000000000));
#326=CARTESIAN_POINT('',(-31.0,0.600000000000000,14.250000000000002));
#327=CARTESIAN_POINT('',(-31.000000000000004,-3.307654E-015,14.250000000000002));
#328=CARTESIAN_POINT('',(-29.799999999999997,-2.388796E-015,15.450000000000005));
#329=CARTESIAN_POINT('',(-29.799999999999997,0.600000000000001,15.450000000000005));
#330=CARTESIAN_POINT('',(-30.399999999999999,0.600000000000000,15.450000000000005));
#331=CARTESIAN_POINT('',(-31.0,0.600000000000000,15.450000000000003));
#332=CARTESIAN_POINT('',(-31.0,-3.234178E-015,15.450000000000005));
#333=CARTESIAN_POINT('',(-29.800000000000001,-2.241843E-015,17.850000000000009));
#334=CARTESIAN_POINT('',(-29.799999999999997,0.600000000000001,17.850000000000009));
#335=CARTESIAN_POINT('',(-30.399999999999999,0.600000000000001,17.250000000000007));
#336=CARTESIAN_POINT('',(-31.0,0.600000000000000,16.650000000000006));
#337=CARTESIAN_POINT('',(-31.000000000000004,-3.160702E-015,16.650000000000006));
#338=CARTESIAN_POINT('',(-32.200000000000003,-3.840564E-015,17.850000000000009));
#339=CARTESIAN_POINT('',(-32.200000000000003,0.599999999999999,17.850000000000009));
#340=CARTESIAN_POINT('',(-32.200000000000003,0.599999999999999,17.250000000000007));
#341=CARTESIAN_POINT('',(-32.200000000000003,0.599999999999999,16.650000000000006));
#342=CARTESIAN_POINT('',(-32.200000000000003,-3.960062E-015,16.650000000000006));
#343=CARTESIAN_POINT('',(-34.600000000000009,-5.439285E-015,17.850000000000009));
#344=CARTESIAN_POINT('',(-34.600000000000009,0.599999999999998,17.850000000000009));
#345=CARTESIAN_POINT('',(-34.000000000000007,0.599999999999998,17.250000000000007));
#346=CARTESIAN_POINT('',(-33.400000000000006,0.599999999999999,16.650000000000006));
#347=CARTESIAN_POINT('',(-33.400000000000006,-4.759423E-015,16.650000000000006));
#348=CARTESIAN_POINT('',(-34.600000000000009,-5.586238E-015,15.450000000000005));
#349=CARTESIAN_POINT('',(-34.600000000000009,0.599999999999998,15.450000000000005));
#350=CARTESIAN_POINT('',(-34.000000000000007,0.599999999999998,15.450000000000005));
#351=CARTESIAN_POINT('',(-33.400000000000006,0.599999999999998,15.450000000000003));
#352=CARTESIAN_POINT('',(-33.400000000000006,-4.832899E-015,15.450000000000005));
#360=(BOUNDED_SURFACE()B_SPLINE_SURFACE(2,2,((#308,#313,#318,#323,#328,#333,#338,#343,#348),(#309,#314,#319,#324,#329,#334,#339,#344,#349),(#310,#315,#320,#325,#330,#335,#340,#345,#350),(#311,#316,#321,#326,#331,#336,#341,#346,#351),(#312,#317,#322,#327,#332,#337,#342,#347,#352)),.UNSPECIFIED.,.F.,.T.,.U.)B_SPLINE_SURFACE_WITH_KNOTS((3,2,3),(3,2,2,2,3),(-2.909457E-015,1.570796326794897,3.141592653589796),(0.0,1.570796326794897,3.141592653589793,4.712388980384690,6.283185307179586),.UNSPECIFIED.)GEOMETRIC_REPRESENTATION_ITEM()RATIONAL_B_SPLINE_SURFACE(((1.0,0.707106781186548,1.0,0.707106781186548,1.0,0.707106781186548,1.0,0.707106781186548,1.0),(0.707106781186538,0.499999999999993,0.707106781186538,0.499999999999993,0.707106781186538,0.499999999999993,0.707106781186538,0.499999999999993,0.707106781186538),(1.0,0.707106781186548,1.0,0.707106781186548,1.0,0.707106781186548,1.0,0.707106781186548,1.0),(0.707106781186538,0.499999999999993,0.707106781186538,0.499999999999993,0.707106781186538,0.499999999999993,0.707106781186538,0.499999999999993,0.707106781186538),(1.0,0.707106781186548,1.0,0.707106781186548,1.0,0.707106781186548,1.0,0.707106781186548,1.0)))REPRESENTATION_ITEM('')SURFACE());
#361=ORIENTED_EDGE('',*,*,#127,.T.);
#362=CARTESIAN_POINT('',(-32.200000000000003,-2.131628E-015,17.250000000000007));
#363=DIRECTION('',(-1.0,0.0,0.0));
#364=DIRECTION('',(0.0,0.0,1.0));
#365=AXIS2_PLACEMENT_3D('',#362,#363,#364);
#366=CIRCLE('',#365,0.600000000000000);
#367=EDGE_CURVE('',#121,#139,#366,.T.);
#368=ORIENTED_EDGE('',*,*,#367,.T.);
#369=ORIENTED_EDGE('',*,*,#145,.F.);
#370=ORIENTED_EDGE('',*,*,#295,.F.);
#371=EDGE_LOOP('',(#361,#368,#369,#370));
#372=FACE_OUTER_BOUND('',#371,.T.);
#373=ADVANCED_FACE('',(#372),#360,.T.);
#374=CARTESIAN_POINT('',(-29.000000000000004,3.673819E-017,16.650000000000006));
#375=CARTESIAN_POINT('',(-32.200000000000003,-2.094890E-015,16.650000000000006));
#376=CARTESIAN_POINT('',(-29.0,0.600000000000001,16.650000000000006));
#377=CARTESIAN_POINT('',(-32.200000000000003,0.599999999999999,16.650000000000006));
#378=CARTESIAN_POINT('',(-29.000000000000004,0.600000000000001,17.250000000000007));
#379=CARTESIAN_POINT('',(-32.200000000000003,0.599999999999999,17.250000000000007));
#380=CARTESIAN_POINT('',(-29.0,0.600000000000001,17.850000000000009));
#381=CARTESIAN_POINT('',(-32.200000000000003,0.599999999999999,17.850000000000009));
#382=CARTESIAN_POINT('',(-29.000000000000004,-3.673819E-017,17.850000000000009));
#383=CARTESIAN_POINT('',(-32.200000000000003,-2.168366E-015,17.850000000000009));
#384=CARTESIAN_POINT('',(-29.0,-0.600000000000001,17.850000000000009));
#385=CARTESIAN_POINT('',(-32.200000000000003,-0.600000000000003,17.850000000000009));
#386=CARTESIAN_POINT('',(-29.000000000000004,-0.600000000000001,17.250000000000007));
#387=CARTESIAN_POINT('',(-32.200000000000003,-0.600000000000004,17.250000000000007));
#388=CARTESIAN_POINT('',(-29.0,-0.600000000000001,16.650000000000006));
#389=CARTESIAN_POINT('',(-32.200000000000003,-0.600000000000003,16.650000000000006));
#390=CARTESIAN_POINT('',(-29.000000000000004,3.673819E-017,16.650000000000006));
#391=CARTESIAN_POINT('',(-32.200000000000003,-2.094890E-015,16.650000000000006));
#399=(BOUNDED_SURFACE()B_SPLINE_SURFACE(1,2,((#374,#376,#378,#380,#382,#384,#386,#388,#390),(#375,#377,#379,#381,#383,#385,#387,#389,#391)),.UNSPECIFIED.,.F.,.T.,.U.)B_SPLINE_SURFACE_WITH_KNOTS((2,2),(3,2,2,2,3),(0.0,5.333333333333327),(0.0,0.942477796076938,1.884955592153876,2.827433388230814,3.769911184307752),.UNSPECIFIED.)GEOMETRIC_REPRESENTATION_ITEM()RATIONAL_B_SPLINE_SURFACE(((1.0,0.707106781186548,1.0,0.707106781186548,1.0,0.707106781186548,1.0,0.707106781186548,1.0),(1.0,0.707106781186548,1.0,0.707106781186548,1.0,0.707106781186548,1.0,0.707106781186548,1.0)))REPRESENTATION_ITEM('')SURFACE());
#400=ORIENTED_EDGE('',*,*,#189,.T.);
#401=CARTESIAN_POINT('',(-29.000000000000004,0.0,17.250000000000007));
#402=DIRECTION('',(1.0,0.0,0.0));
#403=DIRECTION('',(0.0,0.0,1.0));
#404=AXIS2_PLACEMENT_3D('',#401,#402,#403);
#405=CIRCLE('',#404,0.600000000000000);
#406=EDGE_CURVE('',#193,#184,#405,.T.);
#407=ORIENTED_EDGE('',*,*,#406,.F.);
#408=ORIENTED_EDGE('',*,*,#198,.F.);
#409=ORIENTED_EDGE('',*,*,#367,.F.);
#410=EDGE_LOOP('',(#400,#407,#408,#409));
#411=FACE_OUTER_BOUND('',#410,.T.);
#412=ADVANCED_FACE('',(#411),#399,.T.);
#413=CARTESIAN_POINT('',(-29.000000000000004,-0.600000000000000,17.850000000000009));
#414=CARTESIAN_POINT('',(-29.000000000000004,0.600000000000000,17.850000000000009));
#415=CARTESIAN_POINT('',(-29.000000000000004,-0.600000000000000,16.650000000000006));
#416=CARTESIAN_POINT('',(-29.000000000000004,0.600000000000000,16.650000000000006));
#417=B_SPLINE_SURFACE_WITH_KNOTS('',1,1,((#413,#415),(#414,#416)),.UNSPECIFIED.,.F.,.F.,.U.,(2,2),(2,2),(0.0,1.200000000000000),(0.0,1.200000000000003),.UNSPECIFIED.);
#418=ORIENTED_EDGE('',*,*,#205,.T.);
#419=ORIENTED_EDGE('',*,*,#406,.T.);
#420=EDGE_LOOP('',(#418,#419));
#421=FACE_OUTER_BOUND('',#420,.T.);
#422=ADVANCED_FACE('',(#421),#417,.F.);
#423=CARTESIAN_POINT('',(-34.600000000000009,-0.600000000000005,-3.749999999999993));
#424=CARTESIAN_POINT('',(-34.600000000000009,0.599999999999995,-3.749999999999993));
#425=CARTESIAN_POINT('',(-33.399999999999999,-0.600000000000005,-3.749999999999993));
#426=CARTESIAN_POINT('',(-33.399999999999991,0.599999999999996,-3.749999999999993));
#427=B_SPLINE_SURFACE_WITH_KNOTS('',1,1,((#423,#425),(#424,#426)),.UNSPECIFIED.,.F.,.F.,.U.,(2,2),(2,2),(0.0,1.200000000000000),(0.0,1.200000000000010),.UNSPECIFIED.);
#428=ORIENTED_EDGE('',*,*,#303,.T.);
#429=ORIENTED_EDGE('',*,*,#251,.T.);
#430=EDGE_LOOP('',(#428,#429));
#431=FACE_OUTER_BOUND('',#430,.T.);
#432=ADVANCED_FACE('',(#431),#427,.T.);
#433=CLOSED_SHELL('',(#156,#209,#262,#307,#373,#412,#422,#432));
#434=MANIFOLD_SOLID_BREP('83F',#433);
#435=COLOUR_RGB('253',0.732000000000000,0.732000000000000,0.732000000000000);
#436=SURFACE_STYLE_USAGE(.BOTH.,#437);
#437=SURFACE_SIDE_STYLE('NONE',(#438));
#438=SURFACE_STYLE_FILL_AREA(#439);
#439=FILL_AREA_STYLE('NONE',(#440));
#440=FILL_AREA_STYLE_COLOUR('NONE',#435);
#441=PRESENTATION_STYLE_ASSIGNMENT((#436));
#442=STYLED_ITEM('NONE',(#441),#434);
#443=MECHANICAL_DESIGN_GEOMETRIC_PRESENTATION_REPRESENTATION('NONE',(#442,#635,#805,#901),#28);
#444=PRESENTATION_LAYER_ASSIGNMENT('3D','None',(#434,#634,#797,#893));
#445=CARTESIAN_POINT('',(32.200000000000003,9.837384E-015,15.450000000000026));
#446=DIRECTION('',(2.220446E-016,1.0,-6.123032E-017));
#447=DIRECTION('',(-1.0,0.0,0.0));
#448=AXIS2_PLACEMENT_3D('',#445,#446,#447);
#449=TOROIDAL_SURFACE('',#448,1.799999999999995,0.600000000000000);
#450=CARTESIAN_POINT('',(34.600000000000009,9.304477E-015,15.450000000000021));
#451=VERTEX_POINT('',#450);
#452=CARTESIAN_POINT('',(32.200000000000003,9.984336E-015,17.850000000000019));
#453=VERTEX_POINT('',#452);
#454=CARTESIAN_POINT('',(32.200000000000003,9.837384E-015,15.450000000000026));
#455=DIRECTION('',(0.0,-1.0,0.0));
#456=DIRECTION('',(-1.0,0.0,0.0));
#457=AXIS2_PLACEMENT_3D('',#454,#455,#456);
#458=CIRCLE('',#457,2.399999999999995);
#459=EDGE_CURVE('',#451,#453,#458,.T.);
#460=ORIENTED_EDGE('',*,*,#459,.F.);
#461=CARTESIAN_POINT('',(33.399999999999999,9.644407E-015,15.450000000000008));
#462=VERTEX_POINT('',#461);
#463=CARTESIAN_POINT('',(34.0,9.437703E-015,15.450000000000010));
#464=DIRECTION('',(0.0,0.0,1.0));
#465=DIRECTION('',(1.0,0.0,0.0));
#466=AXIS2_PLACEMENT_3D('',#463,#464,#465);
#467=CIRCLE('',#466,0.600000000000000);
#468=EDGE_CURVE('',#451,#462,#467,.T.);
#469=ORIENTED_EDGE('',*,*,#468,.T.);
#470=CARTESIAN_POINT('',(32.200000000000017,9.984336E-015,16.650000000000020));
#471=VERTEX_POINT('',#470);
#472=CARTESIAN_POINT('',(32.200000000000003,9.763907E-015,15.450000000000026));
#473=DIRECTION('',(0.0,-1.0,0.0));
#474=DIRECTION('',(-1.0,0.0,0.0));
#475=AXIS2_PLACEMENT_3D('',#472,#473,#474);
#476=CIRCLE('',#475,1.199999999999996);
#477=EDGE_CURVE('',#462,#471,#476,.T.);
#478=ORIENTED_EDGE('',*,*,#477,.T.);
#479=CARTESIAN_POINT('',(32.200000000000017,9.947598E-015,17.250000000000021));
#480=DIRECTION('',(-1.0,0.0,0.0));
#481=DIRECTION('',(0.0,0.0,1.0));
#482=AXIS2_PLACEMENT_3D('',#479,#480,#481);
#483=CIRCLE('',#482,0.600000000000000);
#484=EDGE_CURVE('',#453,#471,#483,.T.);
#485=ORIENTED_EDGE('',*,*,#484,.F.);
#486=EDGE_LOOP('',(#460,#469,#478,#485));
#487=FACE_OUTER_BOUND('',#486,.T.);
#488=ADVANCED_FACE('',(#487),#449,.T.);
#489=CARTESIAN_POINT('',(29.000000000000004,1.065814E-014,17.250000000000021));
#490=DIRECTION('',(1.0,-2.220446E-016,2.220446E-016));
#491=DIRECTION('',(0.0,0.0,1.0));
#492=AXIS2_PLACEMENT_3D('',#489,#490,#491);
#493=CYLINDRICAL_SURFACE('',#492,0.600000000000000);
#494=CARTESIAN_POINT('',(29.000000000000004,1.069488E-014,17.850000000000019));
#495=VERTEX_POINT('',#494);
#496=CARTESIAN_POINT('',(32.200000000000003,9.984336E-015,17.850000000000023));
#497=DIRECTION('',(-1.0,0.0,0.0));
#498=VECTOR('',#497,3.199999999999999);
#499=LINE('',#496,#498);
#500=EDGE_CURVE('',#453,#495,#499,.T.);
#501=ORIENTED_EDGE('',*,*,#500,.F.);
#502=ORIENTED_EDGE('',*,*,#484,.T.);
#503=CARTESIAN_POINT('',(29.000000000000004,1.069488E-014,16.650000000000020));
#504=VERTEX_POINT('',#503);
#505=CARTESIAN_POINT('',(32.200000000000017,9.984336E-015,16.650000000000020));
#506=DIRECTION('',(-1.0,0.0,0.0));
#507=VECTOR('',#506,3.200000000000014);
#508=LINE('',#505,#507);
#509=EDGE_CURVE('',#471,#504,#508,.T.);
#510=ORIENTED_EDGE('',*,*,#509,.T.);
#511=CARTESIAN_POINT('',(29.000000000000004,1.065814E-014,17.250000000000021));
#512=DIRECTION('',(1.0,0.0,0.0));
#513=DIRECTION('',(0.0,0.0,1.0));
#514=AXIS2_PLACEMENT_3D('',#511,#512,#513);
#515=CIRCLE('',#514,0.600000000000000);
#516=EDGE_CURVE('',#504,#495,#515,.T.);
#517=ORIENTED_EDGE('',*,*,#516,.T.);
#518=EDGE_LOOP('',(#501,#502,#510,#517));
#519=FACE_OUTER_BOUND('',#518,.T.);
#520=ADVANCED_FACE('',(#519),#493,.T.);
#521=CARTESIAN_POINT('',(34.0,9.437703E-015,15.450000000000010));
#522=DIRECTION('',(2.220446E-016,-6.123032E-017,-1.0));
#523=DIRECTION('',(1.0,0.0,0.0));
#524=AXIS2_PLACEMENT_3D('',#521,#522,#523);
#525=CYLINDRICAL_SURFACE('',#524,0.600000000000000);
#526=CARTESIAN_POINT('',(34.600000000000009,8.128855E-015,-3.749999999999979));
#527=VERTEX_POINT('',#526);
#528=CARTESIAN_POINT('',(34.600000000000009,8.128855E-015,-3.749999999999979));
#529=DIRECTION('',(0.0,0.0,1.0));
#530=VECTOR('',#529,19.199999999999989);
#531=LINE('',#528,#530);
#532=EDGE_CURVE('',#527,#451,#531,.T.);
#533=ORIENTED_EDGE('',*,*,#532,.F.);
#534=CARTESIAN_POINT('',(33.400000000000006,8.468784E-015,-3.749999999999993));
#535=VERTEX_POINT('',#534);
#536=CARTESIAN_POINT('',(34.0,8.262081E-015,-3.749999999999989));
#537=DIRECTION('',(0.0,0.0,1.0));
#538=DIRECTION('',(1.0,0.0,0.0));
#539=AXIS2_PLACEMENT_3D('',#536,#537,#538);
#540=CIRCLE('',#539,0.600000000000000);
#541=EDGE_CURVE('',#527,#535,#540,.T.);
#542=ORIENTED_EDGE('',*,*,#541,.T.);
#543=CARTESIAN_POINT('',(33.400000000000006,8.468784E-015,-3.749999999999993));
#544=DIRECTION('',(0.0,0.0,1.0));
#545=VECTOR('',#544,19.200000000000003);
#546=LINE('',#543,#545);
#547=EDGE_CURVE('',#535,#462,#546,.T.);
#548=ORIENTED_EDGE('',*,*,#547,.T.);
#549=ORIENTED_EDGE('',*,*,#468,.F.);
#550=EDGE_LOOP('',(#533,#542,#548,#549));
#551=FACE_OUTER_BOUND('',#550,.T.);
#552=ADVANCED_FACE('',(#551),#525,.T.);
#553=CARTESIAN_POINT('',(34.0,9.437703E-015,15.450000000000010));
#554=DIRECTION('',(2.220446E-016,-6.123032E-017,-1.0));
#555=DIRECTION('',(1.0,0.0,0.0));
#556=AXIS2_PLACEMENT_3D('',#553,#554,#555);
#557=CYLINDRICAL_SURFACE('',#556,0.600000000000000);
#558=ORIENTED_EDGE('',*,*,#532,.T.);
#559=CARTESIAN_POINT('',(34.0,9.437703E-015,15.450000000000010));
#560=DIRECTION('',(0.0,0.0,1.0));
#561=DIRECTION('',(1.0,0.0,0.0));
#562=AXIS2_PLACEMENT_3D('',#559,#560,#561);
#563=CIRCLE('',#562,0.600000000000000);
#564=EDGE_CURVE('',#462,#451,#563,.T.);
#565=ORIENTED_EDGE('',*,*,#564,.F.);
#566=ORIENTED_EDGE('',*,*,#547,.F.);
#567=CARTESIAN_POINT('',(34.0,8.262081E-015,-3.749999999999989));
#568=DIRECTION('',(0.0,0.0,1.0));
#569=DIRECTION('',(1.0,0.0,0.0));
#570=AXIS2_PLACEMENT_3D('',#567,#568,#569);
#571=CIRCLE('',#570,0.600000000000000);
#572=EDGE_CURVE('',#535,#527,#571,.T.);
#573=ORIENTED_EDGE('',*,*,#572,.T.);
#574=EDGE_LOOP('',(#558,#565,#566,#573));
#575=FACE_OUTER_BOUND('',#574,.T.);
#576=ADVANCED_FACE('',(#575),#557,.T.);
#577=CARTESIAN_POINT('',(32.200000000000003,9.837384E-015,15.450000000000026));
#578=DIRECTION('',(2.220446E-016,1.0,-6.123032E-017));
#579=DIRECTION('',(-1.0,0.0,0.0));
#580=AXIS2_PLACEMENT_3D('',#577,#578,#579);
#581=TOROIDAL_SURFACE('',#580,1.799999999999995,0.600000000000000);
#582=ORIENTED_EDGE('',*,*,#459,.T.);
#583=CARTESIAN_POINT('',(32.200000000000017,9.947598E-015,17.250000000000021));
#584=DIRECTION('',(-1.0,0.0,0.0));
#585=DIRECTION('',(0.0,0.0,1.0));
#586=AXIS2_PLACEMENT_3D('',#583,#584,#585);
#587=CIRCLE('',#586,0.600000000000000);
#588=EDGE_CURVE('',#471,#453,#587,.T.);
#589=ORIENTED_EDGE('',*,*,#588,.F.);
#590=ORIENTED_EDGE('',*,*,#477,.F.);
#591=ORIENTED_EDGE('',*,*,#564,.T.);
#592=EDGE_LOOP('',(#582,#589,#590,#591));
#593=FACE_OUTER_BOUND('',#592,.T.);
#594=ADVANCED_FACE('',(#593),#581,.T.);
#595=CARTESIAN_POINT('',(29.000000000000004,1.065814E-014,17.250000000000021));
#596=DIRECTION('',(1.0,-2.220446E-016,2.220446E-016));
#597=DIRECTION('',(0.0,0.0,1.0));
#598=AXIS2_PLACEMENT_3D('',#595,#596,#597);
#599=CYLINDRICAL_SURFACE('',#598,0.600000000000000);
#600=ORIENTED_EDGE('',*,*,#500,.T.);
#601=CARTESIAN_POINT('',(29.000000000000004,1.065814E-014,17.250000000000021));
#602=DIRECTION('',(1.0,0.0,0.0));
#603=DIRECTION('',(0.0,0.0,1.0));
#604=AXIS2_PLACEMENT_3D('',#601,#602,#603);
#605=CIRCLE('',#604,0.600000000000000);
#606=EDGE_CURVE('',#495,#504,#605,.T.);
#607=ORIENTED_EDGE('',*,*,#606,.T.);
#608=ORIENTED_EDGE('',*,*,#509,.F.);
#609=ORIENTED_EDGE('',*,*,#588,.T.);
#610=EDGE_LOOP('',(#600,#607,#608,#609));
#611=FACE_OUTER_BOUND('',#610,.T.);
#612=ADVANCED_FACE('',(#611),#599,.T.);
#613=CARTESIAN_POINT('',(29.000000000000004,1.065814E-014,17.250000000000021));
#614=DIRECTION('',(1.0,0.0,0.0));
#615=DIRECTION('',(0.0,1.0,0.0));
#616=AXIS2_PLACEMENT_3D('',#613,#614,#615);
#617=PLANE('',#616);
#618=ORIENTED_EDGE('',*,*,#606,.F.);
#619=ORIENTED_EDGE('',*,*,#516,.F.);
#620=EDGE_LOOP('',(#618,#619));
#621=FACE_OUTER_BOUND('',#620,.T.);
#622=ADVANCED_FACE('',(#621),#617,.F.);
#623=CARTESIAN_POINT('',(34.0,-4.616506E-015,-3.749999999999979));
#624=DIRECTION('',(0.0,0.0,-1.0));
#625=DIRECTION('',(0.0,1.0,0.0));
#626=AXIS2_PLACEMENT_3D('',#623,#624,#625);
#627=PLANE('',#626);
#628=ORIENTED_EDGE('',*,*,#541,.F.);
#629=ORIENTED_EDGE('',*,*,#572,.F.);
#630=EDGE_LOOP('',(#628,#629));
#631=FACE_OUTER_BOUND('',#630,.T.);
#632=ADVANCED_FACE('',(#631),#627,.T.);
#633=CLOSED_SHELL('',(#488,#520,#552,#576,#594,#612,#622,#632));
#634=MANIFOLD_SOLID_BREP('83A',#633);
#635=STYLED_ITEM('NONE',(#441),#634);
#636=CARTESIAN_POINT('',(-29.000000000000004,0.0,17.249999999999993));
#637=DIRECTION('',(1.0,0.0,2.220446E-016));
#638=DIRECTION('',(0.0,1.0,0.0));
#639=AXIS2_PLACEMENT_3D('',#636,#637,#638);
#640=CYLINDRICAL_SURFACE('',#639,17.250000000000000);
#641=CARTESIAN_POINT('',(28.999999999999996,17.250000000000000,17.250000000000007));
#642=VERTEX_POINT('',#641);
#643=CARTESIAN_POINT('',(-29.000000000000004,17.250000000000000,17.249999999999993));
#644=VERTEX_POINT('',#643);
#645=CARTESIAN_POINT('',(28.999999999999996,17.250000000000000,17.250000000000007));
#646=DIRECTION('',(-1.0,0.0,0.0));
#647=VECTOR('',#646,58.0);
#648=LINE('',#645,#647);
#649=EDGE_CURVE('',#642,#644,#648,.T.);
#650=ORIENTED_EDGE('',*,*,#649,.F.);
#651=CARTESIAN_POINT('',(28.999999999999996,-17.250000000000000,17.250000000000004));
#652=VERTEX_POINT('',#651);
#653=CARTESIAN_POINT('',(28.999999999999996,0.0,17.250000000000007));
#654=DIRECTION('',(-1.0,0.0,0.0));
#655=DIRECTION('',(0.0,1.0,0.0));
#656=AXIS2_PLACEMENT_3D('',#653,#654,#655);
#657=CIRCLE('',#656,17.250000000000000);
#658=EDGE_CURVE('',#642,#652,#657,.T.);
#659=ORIENTED_EDGE('',*,*,#658,.T.);
#660=CARTESIAN_POINT('',(-29.000000000000004,-17.250000000000000,17.249999999999989));
#661=VERTEX_POINT('',#660);
#662=CARTESIAN_POINT('',(28.999999999999996,-17.250000000000000,17.250000000000004));
#663=DIRECTION('',(-1.0,0.0,0.0));
#664=VECTOR('',#663,58.0);
#665=LINE('',#662,#664);
#666=EDGE_CURVE('',#652,#661,#665,.T.);
#667=ORIENTED_EDGE('',*,*,#666,.T.);
#668=CARTESIAN_POINT('',(-29.000000000000004,0.0,17.249999999999993));
#669=DIRECTION('',(1.0,0.0,0.0));
#670=DIRECTION('',(0.0,1.0,0.0));
#671=AXIS2_PLACEMENT_3D('',#668,#669,#670);
#672=CIRCLE('',#671,17.250000000000000);
#673=EDGE_CURVE('',#661,#644,#672,.T.);
#674=ORIENTED_EDGE('',*,*,#673,.T.);
#675=EDGE_LOOP('',(#650,#659,#667,#674));
#676=FACE_OUTER_BOUND('',#675,.T.);
#677=ADVANCED_FACE('',(#676),#640,.T.);
#678=CARTESIAN_POINT('',(-29.000000000000004,0.0,17.249999999999993));
#679=DIRECTION('',(1.0,0.0,2.220446E-016));
#680=DIRECTION('',(0.0,1.0,0.0));
#681=AXIS2_PLACEMENT_3D('',#678,#679,#680);
#682=CYLINDRICAL_SURFACE('',#681,16.750000000000000);
#683=CARTESIAN_POINT('',(-29.000000000000004,16.750000000000000,17.249999999999993));
#684=VERTEX_POINT('',#683);
#685=CARTESIAN_POINT('',(28.999999999999996,16.750000000000000,17.250000000000007));
#686=VERTEX_POINT('',#685);
#687=CARTESIAN_POINT('',(-29.000000000000004,16.750000000000000,17.249999999999993));
#688=DIRECTION('',(1.0,0.0,0.0));
#689=VECTOR('',#688,57.999999999999993);
#690=LINE('',#687,#689);
#691=EDGE_CURVE('',#684,#686,#690,.T.);
#692=ORIENTED_EDGE('',*,*,#691,.F.);
#693=CARTESIAN_POINT('',(-29.000000000000004,-16.750000000000000,17.249999999999989));
#694=VERTEX_POINT('',#693);
#695=CARTESIAN_POINT('',(-29.000000000000004,0.0,17.249999999999993));
#696=DIRECTION('',(1.0,0.0,0.0));
#697=DIRECTION('',(0.0,1.0,0.0));
#698=AXIS2_PLACEMENT_3D('',#695,#696,#697);
#699=CIRCLE('',#698,16.750000000000000);
#700=EDGE_CURVE('',#694,#684,#699,.T.);
#701=ORIENTED_EDGE('',*,*,#700,.F.);
#702=CARTESIAN_POINT('',(28.999999999999989,-16.750000000000000,17.250000000000004));
#703=VERTEX_POINT('',#702);
#704=CARTESIAN_POINT('',(-29.000000000000004,-16.750000000000000,17.249999999999989));
#705=DIRECTION('',(1.0,0.0,0.0));
#706=VECTOR('',#705,57.999999999999993);
#707=LINE('',#704,#706);
#708=EDGE_CURVE('',#694,#703,#707,.T.);
#709=ORIENTED_EDGE('',*,*,#708,.T.);
#710=CARTESIAN_POINT('',(28.999999999999996,0.0,17.250000000000007));
#711=DIRECTION('',(-1.0,0.0,0.0));
#712=DIRECTION('',(0.0,1.0,0.0));
#713=AXIS2_PLACEMENT_3D('',#710,#711,#712);
#714=CIRCLE('',#713,16.750000000000000);
#715=EDGE_CURVE('',#686,#703,#714,.T.);
#716=ORIENTED_EDGE('',*,*,#715,.F.);
#717=EDGE_LOOP('',(#692,#701,#709,#716));
#718=FACE_OUTER_BOUND('',#717,.T.);
#719=ADVANCED_FACE('',(#718),#682,.F.);
#720=CARTESIAN_POINT('',(-29.000000000000004,0.0,17.249999999999993));
#721=DIRECTION('',(1.0,0.0,2.220446E-016));
#722=DIRECTION('',(0.0,1.0,0.0));
#723=AXIS2_PLACEMENT_3D('',#720,#721,#722);
#724=CYLINDRICAL_SURFACE('',#723,16.750000000000000);
#725=ORIENTED_EDGE('',*,*,#691,.T.);
#726=CARTESIAN_POINT('',(28.999999999999996,0.0,17.250000000000007));
#727=DIRECTION('',(-1.0,0.0,0.0));
#728=DIRECTION('',(0.0,1.0,0.0));
#729=AXIS2_PLACEMENT_3D('',#726,#727,#728);
#730=CIRCLE('',#729,16.750000000000000);
#731=EDGE_CURVE('',#703,#686,#730,.T.);
#732=ORIENTED_EDGE('',*,*,#731,.F.);
#733=ORIENTED_EDGE('',*,*,#708,.F.);
#734=CARTESIAN_POINT('',(-29.000000000000004,0.0,17.249999999999993));
#735=DIRECTION('',(1.0,0.0,0.0));
#736=DIRECTION('',(0.0,1.0,0.0));
#737=AXIS2_PLACEMENT_3D('',#734,#735,#736);
#738=CIRCLE('',#737,16.750000000000000);
#739=EDGE_CURVE('',#684,#694,#738,.T.);
#740=ORIENTED_EDGE('',*,*,#739,.F.);
#741=EDGE_LOOP('',(#725,#732,#733,#740));
#742=FACE_OUTER_BOUND('',#741,.T.);
#743=ADVANCED_FACE('',(#742),#724,.F.);
#744=CARTESIAN_POINT('',(-29.000000000000004,0.0,17.249999999999993));
#745=DIRECTION('',(1.0,0.0,2.220446E-016));
#746=DIRECTION('',(0.0,1.0,0.0));
#747=AXIS2_PLACEMENT_3D('',#744,#745,#746);
#748=CYLINDRICAL_SURFACE('',#747,17.250000000000000);
#749=ORIENTED_EDGE('',*,*,#649,.T.);
#750=CARTESIAN_POINT('',(-29.000000000000004,0.0,17.249999999999993));
#751=DIRECTION('',(1.0,0.0,0.0));
#752=DIRECTION('',(0.0,1.0,0.0));
#753=AXIS2_PLACEMENT_3D('',#750,#751,#752);
#754=CIRCLE('',#753,17.250000000000000);
#755=EDGE_CURVE('',#644,#661,#754,.T.);
#756=ORIENTED_EDGE('',*,*,#755,.T.);
#757=ORIENTED_EDGE('',*,*,#666,.F.);
#758=CARTESIAN_POINT('',(28.999999999999996,0.0,17.250000000000007));
#759=DIRECTION('',(-1.0,0.0,0.0));
#760=DIRECTION('',(0.0,1.0,0.0));
#761=AXIS2_PLACEMENT_3D('',#758,#759,#760);
#762=CIRCLE('',#761,17.250000000000000);
#763=EDGE_CURVE('',#652,#642,#762,.T.);
#764=ORIENTED_EDGE('',*,*,#763,.T.);
#765=EDGE_LOOP('',(#749,#756,#757,#764));
#766=FACE_OUTER_BOUND('',#765,.T.);
#767=ADVANCED_FACE('',(#766),#748,.T.);
#768=CARTESIAN_POINT('',(-29.000000000000004,0.0,17.249999999999993));
#769=DIRECTION('',(1.0,0.0,0.0));
#770=DIRECTION('',(0.0,0.0,-1.0));
#771=AXIS2_PLACEMENT_3D('',#768,#769,#770);
#772=PLANE('',#771);
#773=ORIENTED_EDGE('',*,*,#755,.F.);
#774=ORIENTED_EDGE('',*,*,#673,.F.);
#775=EDGE_LOOP('',(#773,#774));
#776=FACE_OUTER_BOUND('',#775,.T.);
#777=ORIENTED_EDGE('',*,*,#739,.T.);
#778=ORIENTED_EDGE('',*,*,#700,.T.);
#779=EDGE_LOOP('',(#777,#778));
#780=FACE_BOUND('',#779,.T.);
#781=ADVANCED_FACE('',(#776,#780),#772,.F.);
#782=CARTESIAN_POINT('',(28.999999999999996,0.0,17.250000000000007));
#783=DIRECTION('',(1.0,0.0,0.0));
#784=DIRECTION('',(0.0,0.0,-1.0));
#785=AXIS2_PLACEMENT_3D('',#782,#783,#784);
#786=PLANE('',#785);
#787=ORIENTED_EDGE('',*,*,#658,.F.);
#788=ORIENTED_EDGE('',*,*,#763,.F.);
#789=EDGE_LOOP('',(#787,#788));
#790=FACE_OUTER_BOUND('',#789,.T.);
#791=ORIENTED_EDGE('',*,*,#715,.T.);
#792=ORIENTED_EDGE('',*,*,#731,.T.);
#793=EDGE_LOOP('',(#791,#792));
#794=FACE_BOUND('',#793,.T.);
#795=ADVANCED_FACE('',(#790,#794),#786,.T.);
#796=CLOSED_SHELL('',(#677,#719,#743,#767,#781,#795));
#797=MANIFOLD_SOLID_BREP('82C',#796);
#798=COLOUR_RGB('40',1.0,0.750000000000000,0.0);
#799=SURFACE_STYLE_USAGE(.BOTH.,#800);
#800=SURFACE_SIDE_STYLE('NONE',(#801));
#801=SURFACE_STYLE_FILL_AREA(#802);
#802=FILL_AREA_STYLE('NONE',(#803));
#803=FILL_AREA_STYLE_COLOUR('NONE',#798);
#804=PRESENTATION_STYLE_ASSIGNMENT((#799));
#805=STYLED_ITEM('NONE',(#804),#797);
#806=CARTESIAN_POINT('',(-29.000000000000004,0.0,17.249999999999993));
#807=DIRECTION('',(1.0,0.0,2.220446E-016));
#808=DIRECTION('',(0.0,1.0,0.0));
#809=AXIS2_PLACEMENT_3D('',#806,#807,#808);
#810=CYLINDRICAL_SURFACE('',#809,16.750000000000000);
#811=CARTESIAN_POINT('',(28.999999999999996,16.750000000000000,17.250000000000007));
#812=VERTEX_POINT('',#811);
#813=CARTESIAN_POINT('',(-29.000000000000004,16.750000000000000,17.249999999999993));
#814=VERTEX_POINT('',#813);
#815=CARTESIAN_POINT('',(28.999999999999989,16.750000000000000,17.250000000000007));
#816=DIRECTION('',(-1.0,0.0,0.0));
#817=VECTOR('',#816,57.999999999999993);
#818=LINE('',#815,#817);
#819=EDGE_CURVE('',#812,#814,#818,.T.);
#820=ORIENTED_EDGE('',*,*,#819,.F.);
#821=CARTESIAN_POINT('',(28.999999999999989,-16.750000000000000,17.250000000000004));
#822=VERTEX_POINT('',#821);
#823=CARTESIAN_POINT('',(28.999999999999996,0.0,17.250000000000007));
#824=DIRECTION('',(-1.0,0.0,0.0));
#825=DIRECTION('',(0.0,1.0,0.0));
#826=AXIS2_PLACEMENT_3D('',#823,#824,#825);
#827=CIRCLE('',#826,16.750000000000000);
#828=EDGE_CURVE('',#812,#822,#827,.T.);
#829=ORIENTED_EDGE('',*,*,#828,.T.);
#830=CARTESIAN_POINT('',(-29.000000000000004,-16.750000000000000,17.249999999999989));
#831=VERTEX_POINT('',#830);
#832=CARTESIAN_POINT('',(28.999999999999989,-16.750000000000000,17.250000000000004));
#833=DIRECTION('',(-1.0,0.0,0.0));
#834=VECTOR('',#833,57.999999999999993);
#835=LINE('',#832,#834);
#836=EDGE_CURVE('',#822,#831,#835,.T.);
#837=ORIENTED_EDGE('',*,*,#836,.T.);
#838=CARTESIAN_POINT('',(-29.000000000000004,0.0,17.249999999999993));
#839=DIRECTION('',(1.0,0.0,0.0));
#840=DIRECTION('',(0.0,1.0,0.0));
#841=AXIS2_PLACEMENT_3D('',#838,#839,#840);
#842=CIRCLE('',#841,16.750000000000000);
#843=EDGE_CURVE('',#831,#814,#842,.T.);
#844=ORIENTED_EDGE('',*,*,#843,.T.);
#845=EDGE_LOOP('',(#820,#829,#837,#844));
#846=FACE_OUTER_BOUND('',#845,.T.);
#847=ADVANCED_FACE('',(#846),#810,.T.);
#848=CARTESIAN_POINT('',(-29.000000000000004,0.0,17.249999999999993));
#849=DIRECTION('',(1.0,0.0,2.220446E-016));
#850=DIRECTION('',(0.0,1.0,0.0));
#851=AXIS2_PLACEMENT_3D('',#848,#849,#850);
#852=CYLINDRICAL_SURFACE('',#851,16.750000000000000);
#853=ORIENTED_EDGE('',*,*,#819,.T.);
#854=CARTESIAN_POINT('',(-29.000000000000004,0.0,17.249999999999993));
#855=DIRECTION('',(1.0,0.0,0.0));
#856=DIRECTION('',(0.0,1.0,0.0));
#857=AXIS2_PLACEMENT_3D('',#854,#855,#856);
#858=CIRCLE('',#857,16.750000000000000);
#859=EDGE_CURVE('',#814,#831,#858,.T.);
#860=ORIENTED_EDGE('',*,*,#859,.T.);
#861=ORIENTED_EDGE('',*,*,#836,.F.);
#862=CARTESIAN_POINT('',(28.999999999999996,0.0,17.250000000000007));
#863=DIRECTION('',(-1.0,0.0,0.0));
#864=DIRECTION('',(0.0,1.0,0.0));
#865=AXIS2_PLACEMENT_3D('',#862,#863,#864);
#866=CIRCLE('',#865,16.750000000000000);
#867=EDGE_CURVE('',#822,#812,#866,.T.);
#868=ORIENTED_EDGE('',*,*,#867,.T.);
#869=EDGE_LOOP('',(#853,#860,#861,#868));
#870=FACE_OUTER_BOUND('',#869,.T.);
#871=ADVANCED_FACE('',(#870),#852,.T.);
#872=CARTESIAN_POINT('',(-29.000000000000004,0.0,17.249999999999993));
#873=DIRECTION('',(1.0,0.0,0.0));
#874=DIRECTION('',(0.0,0.0,-1.0));
#875=AXIS2_PLACEMENT_3D('',#872,#873,#874);
#876=PLANE('',#875);
#877=ORIENTED_EDGE('',*,*,#859,.F.);
#878=ORIENTED_EDGE('',*,*,#843,.F.);
#879=EDGE_LOOP('',(#877,#878));
#880=FACE_OUTER_BOUND('',#879,.T.);
#881=ADVANCED_FACE('',(#880),#876,.F.);
#882=CARTESIAN_POINT('',(28.999999999999996,0.0,17.250000000000007));
#883=DIRECTION('',(1.0,0.0,0.0));
#884=DIRECTION('',(0.0,0.0,-1.0));
#885=AXIS2_PLACEMENT_3D('',#882,#883,#884);
#886=PLANE('',#885);
#887=ORIENTED_EDGE('',*,*,#828,.F.);
#888=ORIENTED_EDGE('',*,*,#867,.F.);
#889=EDGE_LOOP('',(#887,#888));
#890=FACE_OUTER_BOUND('',#889,.T.);
#891=ADVANCED_FACE('',(#890),#886,.T.);
#892=CLOSED_SHELL('',(#847,#871,#881,#891));
#893=MANIFOLD_SOLID_BREP('828',#892);
#894=COLOUR_RGB('254',0.866000000000000,0.866000000000000,0.866000000000000);
#895=SURFACE_STYLE_USAGE(.BOTH.,#896);
#896=SURFACE_SIDE_STYLE('NONE',(#897));
#897=SURFACE_STYLE_FILL_AREA(#898);
#898=FILL_AREA_STYLE('NONE',(#899));
#899=FILL_AREA_STYLE_COLOUR('NONE',#894);
#900=PRESENTATION_STYLE_ASSIGNMENT((#895));
#901=STYLED_ITEM('NONE',(#900),#893);
#902=ADVANCED_BREP_SHAPE_REPRESENTATION('ABSR1',(#434,#634,#797,#893),#28);
#903=SHAPE_REPRESENTATION_RELATIONSHIP('SRRPL1','',#902,#62);
ENDSEC;
END-ISO-10303-21;
