ISO-10303-21;
HEADER;
/****************************************************************
 * Generated by software with PDElib inside                    *
 * PDElib Version v51a, created Fri 09/10/2010                  *
 * ITI Transcendata (http://www.transcendata.com/)              *
 ****************************************************************/
FILE_DESCRIPTION((''),'2;1');
FILE_NAME('CAPADV1650-4400X2700_Part2.stp','2016-01-27T14:45:53',(''),(''),'Mechanical Desktop 2011','Mechanical Desktop 2011',', , ');
FILE_SCHEMA(('AUTOMOTIVE_DESIGN { 1 2 10303 214 1 1 1 1 }'));
ENDSEC;
DATA;
#10=(NAMED_UNIT(*)PLANE_ANGLE_UNIT()SI_UNIT($,.RADIAN.));
#11=DIMENSIONAL_EXPONENTS(0.0,0.0,0.0,0.0,0.0,0.0,0.0);
#12=PLANE_ANGLE_MEASURE_WITH_UNIT(PLANE_ANGLE_MEASURE(0.0174532925),#10);
#16=(CONVERSION_BASED_UNIT('DEGREE',#12)NAMED_UNIT(#11)PLANE_ANGLE_UNIT());
#20=(NAMED_UNIT(*)SI_UNIT($,.STERADIAN.)SOLID_ANGLE_UNIT());
#24=(LENGTH_UNIT()NAMED_UNIT(*)SI_UNIT(.MILLI.,.METRE.));
#26=UNCERTAINTY_MEASURE_WITH_UNIT(LENGTH_MEASURE(0.000001),#24,'DISTANCE_ACCURACY_VALUE','');
#28=(GEOMETRIC_REPRESENTATION_CONTEXT(3)GLOBAL_UNCERTAINTY_ASSIGNED_CONTEXT((#26))GLOBAL_UNIT_ASSIGNED_CONTEXT((#16,#20,#24))REPRESENTATION_CONTEXT('','3D'));
#29=APPLICATION_CONTEXT('automotive design');
#30=APPLICATION_PROTOCOL_DEFINITION('INTERNATIONAL_STANDARD','automotive_design',1998,#29);
#31=PRODUCT_CONTEXT('3D Mechanical Parts',#29,'mechanical');
#32=PRODUCT('Product','Product','',(#31));
#33=PRODUCT_RELATED_PRODUCT_CATEGORY('part',$,(#32));
#34=PRODUCT_CATEGORY('part',$);
#35=PERSON('1','Design','Joe',$,$,$);
#36=ORGANIZATION($,'None','None');
#37=PERSON_AND_ORGANIZATION(#35,#36);
#38=PERSON_AND_ORGANIZATION_ROLE('design_owner');
#39=APPLIED_PERSON_AND_ORGANIZATION_ASSIGNMENT(#37,#38,(#32));
#40=PRODUCT_DEFINITION_FORMATION_WITH_SPECIFIED_SOURCE('None','',#32,.BOUGHT.);
#41=PERSON('2','Creator','Joe',$,$,$);
#42=ORGANIZATION($,'None','None');
#43=PERSON_AND_ORGANIZATION(#41,#42);
#44=PERSON_AND_ORGANIZATION_ROLE('creator');
#45=APPLIED_PERSON_AND_ORGANIZATION_ASSIGNMENT(#43,#44,(#40));
#46=PERSON('3','Supplier','Joe',$,$,$);
#47=ORGANIZATION($,'None','None');
#48=PERSON_AND_ORGANIZATION(#46,#47);
#49=PERSON_AND_ORGANIZATION_ROLE('design_supplier');
#50=APPLIED_PERSON_AND_ORGANIZATION_ASSIGNMENT(#48,#49,(#40));
#51=PRODUCT_DEFINITION_CONTEXT('part definition',#29,'design');
#52=PRODUCT_DEFINITION('None','',#40,#51);
#53=PERSON('4','Creator','Joe',$,$,$);
#54=ORGANIZATION($,'None','None');
#55=PERSON_AND_ORGANIZATION(#53,#54);
#56=PERSON_AND_ORGANIZATION_ROLE('creator');
#57=APPLIED_PERSON_AND_ORGANIZATION_ASSIGNMENT(#55,#56,(#52));
#58=CARTESIAN_POINT('NONE',(0.0,0.0,0.0));
#59=DIRECTION('NONE',(0.0,0.0,1.0));
#60=DIRECTION('NONE',(1.0,0.0,0.0));
#61=AXIS2_PLACEMENT_3D('NONE',#58,#59,#60);
#62=SHAPE_REPRESENTATION('SR1',(#61),#28);
#63=PRODUCT_DEFINITION_SHAPE('PDS1','Test Part',#52);
#64=SHAPE_DEFINITION_REPRESENTATION(#63,#62);
#65=CARTESIAN_POINT('',(2.000000000000008,1.298961E-014,43.999999999999993));
#66=DIRECTION('',(-2.220446E-016,1.0,-5.951496E-032));
#67=DIRECTION('',(0.0,0.0,1.0));
#68=AXIS2_PLACEMENT_3D('',#65,#66,#67);
#69=TOROIDAL_SURFACE('',#68,2.000000000000004,0.4);
#70=CARTESIAN_POINT('',(2.000000000000006,1.279643E-014,46.399999999999999));
#71=VERTEX_POINT('',#70);
#72=CARTESIAN_POINT('',(-0.399999999999996,1.254552E-014,44.0));
#73=VERTEX_POINT('',#72);
#74=CARTESIAN_POINT('',(2.000000000000008,1.298961E-014,43.999999999999993));
#75=DIRECTION('',(0.0,-1.0,0.0));
#76=DIRECTION('',(0.0,0.0,1.0));
#77=AXIS2_PLACEMENT_3D('',#74,#75,#76);
#78=CIRCLE('',#77,2.400000000000006);
#79=EDGE_CURVE('',#71,#73,#78,.T.);
#80=ORIENTED_EDGE('',*,*,#79,.F.);
#81=CARTESIAN_POINT('',(2.000000000000005,1.294978E-014,45.600000000000001));
#82=VERTEX_POINT('',#81);
#83=CARTESIAN_POINT('',(2.000000000000004,1.298961E-014,46.0));
#84=DIRECTION('',(1.0,0.0,0.0));
#85=DIRECTION('',(0.0,0.0,1.0));
#86=AXIS2_PLACEMENT_3D('',#83,#84,#85);
#87=CIRCLE('',#86,0.4);
#88=EDGE_CURVE('',#82,#71,#87,.T.);
#89=ORIENTED_EDGE('',*,*,#88,.F.);
#90=CARTESIAN_POINT('',(0.400000000000004,1.259451E-014,44.0));
#91=VERTEX_POINT('',#90);
#92=CARTESIAN_POINT('',(2.000000000000008,1.294062E-014,43.999999999999993));
#93=DIRECTION('',(0.0,-1.0,0.0));
#94=DIRECTION('',(0.0,0.0,1.0));
#95=AXIS2_PLACEMENT_3D('',#92,#93,#94);
#96=CIRCLE('',#95,1.600000000000001);
#97=EDGE_CURVE('',#82,#91,#96,.T.);
#98=ORIENTED_EDGE('',*,*,#97,.T.);
#99=CARTESIAN_POINT('',(3.552714E-015,1.254552E-014,44.0));
#100=DIRECTION('',(0.0,0.0,1.0));
#101=DIRECTION('',(-1.0,0.0,0.0));
#102=AXIS2_PLACEMENT_3D('',#99,#100,#101);
#103=CIRCLE('',#102,0.4);
#104=EDGE_CURVE('',#91,#73,#103,.T.);
#105=ORIENTED_EDGE('',*,*,#104,.T.);
#106=EDGE_LOOP('',(#80,#89,#98,#105));
#107=FACE_OUTER_BOUND('',#106,.T.);
#108=ADVANCED_FACE('',(#107),#69,.T.);
#109=CARTESIAN_POINT('',(14.499999999999993,1.548539E-014,44.0));
#110=DIRECTION('',(-2.220446E-016,1.0,-5.972108E-046));
#111=DIRECTION('',(0.0,0.0,1.0));
#112=AXIS2_PLACEMENT_3D('',#109,#110,#111);
#113=TOROIDAL_SURFACE('',#112,2.0,0.4);
#114=CARTESIAN_POINT('',(16.899999999999984,1.610712E-014,44.000000000000007));
#115=VERTEX_POINT('',#114);
#116=CARTESIAN_POINT('',(14.5,1.557199E-014,46.399999999999999));
#117=VERTEX_POINT('',#116);
#118=CARTESIAN_POINT('',(14.499999999999993,1.548539E-014,44.0));
#119=DIRECTION('',(0.0,-1.0,0.0));
#120=DIRECTION('',(0.0,0.0,1.0));
#121=AXIS2_PLACEMENT_3D('',#118,#119,#120);
#122=CIRCLE('',#121,2.399999999999999);
#123=EDGE_CURVE('',#115,#117,#122,.T.);
#124=ORIENTED_EDGE('',*,*,#123,.F.);
#125=CARTESIAN_POINT('',(16.099999999999994,1.580083E-014,44.000000000000007));
#126=VERTEX_POINT('',#125);
#127=CARTESIAN_POINT('',(16.499999999999986,1.592948E-014,44.000000000000014));
#128=DIRECTION('',(0.0,0.0,-1.0));
#129=DIRECTION('',(1.0,0.0,0.0));
#130=AXIS2_PLACEMENT_3D('',#127,#128,#129);
#131=CIRCLE('',#130,0.4);
#132=EDGE_CURVE('',#126,#115,#131,.T.);
#133=ORIENTED_EDGE('',*,*,#132,.F.);
#134=CARTESIAN_POINT('',(14.5,1.544556E-014,45.600000000000001));
#135=VERTEX_POINT('',#134);
#136=CARTESIAN_POINT('',(14.499999999999993,1.543640E-014,44.0));
#137=DIRECTION('',(0.0,-1.0,0.0));
#138=DIRECTION('',(0.0,0.0,1.0));
#139=AXIS2_PLACEMENT_3D('',#136,#137,#138);
#140=CIRCLE('',#139,1.600000000000001);
#141=EDGE_CURVE('',#126,#135,#140,.T.);
#142=ORIENTED_EDGE('',*,*,#141,.T.);
#143=CARTESIAN_POINT('',(14.499999999999998,1.548539E-014,46.0));
#144=DIRECTION('',(1.0,0.0,0.0));
#145=DIRECTION('',(0.0,0.0,1.0));
#146=AXIS2_PLACEMENT_3D('',#143,#144,#145);
#147=CIRCLE('',#146,0.4);
#148=EDGE_CURVE('',#135,#117,#147,.T.);
#149=ORIENTED_EDGE('',*,*,#148,.T.);
#150=EDGE_LOOP('',(#124,#133,#142,#149));
#151=FACE_OUTER_BOUND('',#150,.T.);
#152=ADVANCED_FACE('',(#151),#113,.T.);
#153=CARTESIAN_POINT('',(3.552714E-015,1.254552E-014,43.000000000000014));
#154=DIRECTION('',(-3.643749E-027,4.930381E-032,1.0));
#155=DIRECTION('',(-1.0,0.0,0.0));
#156=AXIS2_PLACEMENT_3D('',#153,#154,#155);
#157=CYLINDRICAL_SURFACE('',#156,0.4);
#158=CARTESIAN_POINT('',(-0.399999999999996,1.254552E-014,43.000000000000014));
#159=VERTEX_POINT('',#158);
#160=CARTESIAN_POINT('',(-0.399999999999996,1.254552E-014,44.0));
#161=DIRECTION('',(0.0,0.0,-1.0));
#162=VECTOR('',#161,0.999999999999986);
#163=LINE('',#160,#162);
#164=EDGE_CURVE('',#73,#159,#163,.T.);
#165=ORIENTED_EDGE('',*,*,#164,.F.);
#166=ORIENTED_EDGE('',*,*,#104,.F.);
#167=CARTESIAN_POINT('',(0.400000000000004,1.259451E-014,43.000000000000014));
#168=VERTEX_POINT('',#167);
#169=CARTESIAN_POINT('',(0.400000000000004,1.259451E-014,44.0));
#170=DIRECTION('',(0.0,0.0,-1.0));
#171=VECTOR('',#170,0.999999999999986);
#172=LINE('',#169,#171);
#173=EDGE_CURVE('',#91,#168,#172,.T.);
#174=ORIENTED_EDGE('',*,*,#173,.T.);
#175=CARTESIAN_POINT('',(3.552714E-015,1.254552E-014,43.000000000000014));
#176=DIRECTION('',(0.0,0.0,1.0));
#177=DIRECTION('',(-1.0,0.0,0.0));
#178=AXIS2_PLACEMENT_3D('',#175,#176,#177);
#179=CIRCLE('',#178,0.4);
#180=EDGE_CURVE('',#168,#159,#179,.T.);
#181=ORIENTED_EDGE('',*,*,#180,.T.);
#182=EDGE_LOOP('',(#165,#166,#174,#181));
#183=FACE_OUTER_BOUND('',#182,.T.);
#184=ADVANCED_FACE('',(#183),#157,.T.);
#185=CARTESIAN_POINT('',(3.270000000000007,1.298961E-014,46.0));
#186=DIRECTION('',(1.0,2.220446E-016,0.0));
#187=DIRECTION('',(0.0,0.0,1.0));
#188=AXIS2_PLACEMENT_3D('',#185,#186,#187);
#189=CYLINDRICAL_SURFACE('',#188,0.4);
#190=CARTESIAN_POINT('',(14.5,1.557199E-014,46.399999999999999));
#191=DIRECTION('',(-1.0,0.0,0.0));
#192=VECTOR('',#191,12.499999999999995);
#193=LINE('',#190,#192);
#194=EDGE_CURVE('',#117,#71,#193,.T.);
#195=ORIENTED_EDGE('',*,*,#194,.F.);
#196=ORIENTED_EDGE('',*,*,#148,.F.);
#197=CARTESIAN_POINT('',(14.5,1.544334E-014,45.600000000000001));
#198=DIRECTION('',(-1.0,0.0,0.0));
#199=VECTOR('',#198,12.499999999999995);
#200=LINE('',#197,#199);
#201=EDGE_CURVE('',#135,#82,#200,.T.);
#202=ORIENTED_EDGE('',*,*,#201,.T.);
#203=ORIENTED_EDGE('',*,*,#88,.T.);
#204=EDGE_LOOP('',(#195,#196,#202,#203));
#205=FACE_OUTER_BOUND('',#204,.T.);
#206=ADVANCED_FACE('',(#205),#189,.T.);
#207=CARTESIAN_POINT('',(16.499999999999986,1.592948E-014,44.000000000000014));
#208=DIRECTION('',(0.0,-2.771161E-032,-1.0));
#209=DIRECTION('',(1.0,0.0,0.0));
#210=AXIS2_PLACEMENT_3D('',#207,#208,#209);
#211=CYLINDRICAL_SURFACE('',#210,0.4);
#212=CARTESIAN_POINT('',(16.899999999999984,1.610712E-014,-3.499999999999993));
#213=VERTEX_POINT('',#212);
#214=CARTESIAN_POINT('',(16.899999999999984,1.610712E-014,-3.499999999999993));
#215=DIRECTION('',(0.0,0.0,1.0));
#216=VECTOR('',#215,47.5);
#217=LINE('',#214,#216);
#218=EDGE_CURVE('',#213,#115,#217,.T.);
#219=ORIENTED_EDGE('',*,*,#218,.F.);
#220=CARTESIAN_POINT('',(16.099999999999994,1.580083E-014,-3.499999999999993));
#221=VERTEX_POINT('',#220);
#222=CARTESIAN_POINT('',(16.499999999999986,1.592948E-014,-3.499999999999986));
#223=DIRECTION('',(0.0,0.0,-1.0));
#224=DIRECTION('',(1.0,0.0,0.0));
#225=AXIS2_PLACEMENT_3D('',#222,#223,#224);
#226=CIRCLE('',#225,0.4);
#227=EDGE_CURVE('',#221,#213,#226,.T.);
#228=ORIENTED_EDGE('',*,*,#227,.F.);
#229=CARTESIAN_POINT('',(16.099999999999987,1.580083E-014,-3.499999999999993));
#230=DIRECTION('',(0.0,0.0,1.0));
#231=VECTOR('',#230,47.5);
#232=LINE('',#229,#231);
#233=EDGE_CURVE('',#221,#126,#232,.T.);
#234=ORIENTED_EDGE('',*,*,#233,.T.);
#235=ORIENTED_EDGE('',*,*,#132,.T.);
#236=EDGE_LOOP('',(#219,#228,#234,#235));
#237=FACE_OUTER_BOUND('',#236,.T.);
#238=ADVANCED_FACE('',(#237),#211,.T.);
#239=CARTESIAN_POINT('',(16.499999999999986,1.592948E-014,44.000000000000014));
#240=DIRECTION('',(0.0,-2.771161E-032,-1.0));
#241=DIRECTION('',(1.0,0.0,0.0));
#242=AXIS2_PLACEMENT_3D('',#239,#240,#241);
#243=CYLINDRICAL_SURFACE('',#242,0.4);
#244=ORIENTED_EDGE('',*,*,#218,.T.);
#245=CARTESIAN_POINT('',(16.499999999999986,1.592948E-014,44.000000000000014));
#246=DIRECTION('',(0.0,0.0,-1.0));
#247=DIRECTION('',(1.0,0.0,0.0));
#248=AXIS2_PLACEMENT_3D('',#245,#246,#247);
#249=CIRCLE('',#248,0.4);
#250=EDGE_CURVE('',#115,#126,#249,.T.);
#251=ORIENTED_EDGE('',*,*,#250,.T.);
#252=ORIENTED_EDGE('',*,*,#233,.F.);
#253=CARTESIAN_POINT('',(16.499999999999986,1.592948E-014,-3.499999999999986));
#254=DIRECTION('',(0.0,0.0,-1.0));
#255=DIRECTION('',(1.0,0.0,0.0));
#256=AXIS2_PLACEMENT_3D('',#253,#254,#255);
#257=CIRCLE('',#256,0.4);
#258=EDGE_CURVE('',#213,#221,#257,.T.);
#259=ORIENTED_EDGE('',*,*,#258,.F.);
#260=EDGE_LOOP('',(#244,#251,#252,#259));
#261=FACE_OUTER_BOUND('',#260,.T.);
#262=ADVANCED_FACE('',(#261),#243,.T.);
#263=CARTESIAN_POINT('',(14.499999999999993,1.548539E-014,44.0));
#264=DIRECTION('',(-2.220446E-016,1.0,-5.972108E-046));
#265=DIRECTION('',(0.0,0.0,1.0));
#266=AXIS2_PLACEMENT_3D('',#263,#264,#265);
#267=TOROIDAL_SURFACE('',#266,2.0,0.4);
#268=ORIENTED_EDGE('',*,*,#123,.T.);
#269=CARTESIAN_POINT('',(14.499999999999998,1.548539E-014,46.0));
#270=DIRECTION('',(1.0,0.0,0.0));
#271=DIRECTION('',(0.0,0.0,1.0));
#272=AXIS2_PLACEMENT_3D('',#269,#270,#271);
#273=CIRCLE('',#272,0.4);
#274=EDGE_CURVE('',#117,#135,#273,.T.);
#275=ORIENTED_EDGE('',*,*,#274,.T.);
#276=ORIENTED_EDGE('',*,*,#141,.F.);
#277=ORIENTED_EDGE('',*,*,#250,.F.);
#278=EDGE_LOOP('',(#268,#275,#276,#277));
#279=FACE_OUTER_BOUND('',#278,.T.);
#280=ADVANCED_FACE('',(#279),#267,.T.);
#281=CARTESIAN_POINT('',(3.270000000000007,1.298961E-014,46.0));
#282=DIRECTION('',(1.0,2.220446E-016,0.0));
#283=DIRECTION('',(0.0,0.0,1.0));
#284=AXIS2_PLACEMENT_3D('',#281,#282,#283);
#285=CYLINDRICAL_SURFACE('',#284,0.4);
#286=ORIENTED_EDGE('',*,*,#194,.T.);
#287=CARTESIAN_POINT('',(2.000000000000004,1.298961E-014,46.0));
#288=DIRECTION('',(1.0,0.0,0.0));
#289=DIRECTION('',(0.0,0.0,1.0));
#290=AXIS2_PLACEMENT_3D('',#287,#288,#289);
#291=CIRCLE('',#290,0.4);
#292=EDGE_CURVE('',#71,#82,#291,.T.);
#293=ORIENTED_EDGE('',*,*,#292,.T.);
#294=ORIENTED_EDGE('',*,*,#201,.F.);
#295=ORIENTED_EDGE('',*,*,#274,.F.);
#296=EDGE_LOOP('',(#286,#293,#294,#295));
#297=FACE_OUTER_BOUND('',#296,.T.);
#298=ADVANCED_FACE('',(#297),#285,.T.);
#299=CARTESIAN_POINT('',(2.000000000000008,1.298961E-014,43.999999999999993));
#300=DIRECTION('',(-2.220446E-016,1.0,-5.951496E-032));
#301=DIRECTION('',(0.0,0.0,1.0));
#302=AXIS2_PLACEMENT_3D('',#299,#300,#301);
#303=TOROIDAL_SURFACE('',#302,2.000000000000004,0.4);
#304=ORIENTED_EDGE('',*,*,#79,.T.);
#305=CARTESIAN_POINT('',(3.552714E-015,1.254552E-014,44.0));
#306=DIRECTION('',(0.0,0.0,1.0));
#307=DIRECTION('',(-1.0,0.0,0.0));
#308=AXIS2_PLACEMENT_3D('',#305,#306,#307);
#309=CIRCLE('',#308,0.4);
#310=EDGE_CURVE('',#73,#91,#309,.T.);
#311=ORIENTED_EDGE('',*,*,#310,.T.);
#312=ORIENTED_EDGE('',*,*,#97,.F.);
#313=ORIENTED_EDGE('',*,*,#292,.F.);
#314=EDGE_LOOP('',(#304,#311,#312,#313));
#315=FACE_OUTER_BOUND('',#314,.T.);
#316=ADVANCED_FACE('',(#315),#303,.T.);
#317=CARTESIAN_POINT('',(3.552714E-015,1.254552E-014,43.000000000000014));
#318=DIRECTION('',(-3.643749E-027,4.930381E-032,1.0));
#319=DIRECTION('',(-1.0,0.0,0.0));
#320=AXIS2_PLACEMENT_3D('',#317,#318,#319);
#321=CYLINDRICAL_SURFACE('',#320,0.4);
#322=ORIENTED_EDGE('',*,*,#164,.T.);
#323=CARTESIAN_POINT('',(3.552714E-015,1.254552E-014,43.000000000000014));
#324=DIRECTION('',(0.0,0.0,1.0));
#325=DIRECTION('',(-1.0,0.0,0.0));
#326=AXIS2_PLACEMENT_3D('',#323,#324,#325);
#327=CIRCLE('',#326,0.4);
#328=EDGE_CURVE('',#159,#168,#327,.T.);
#329=ORIENTED_EDGE('',*,*,#328,.T.);
#330=ORIENTED_EDGE('',*,*,#173,.F.);
#331=ORIENTED_EDGE('',*,*,#310,.F.);
#332=EDGE_LOOP('',(#322,#329,#330,#331));
#333=FACE_OUTER_BOUND('',#332,.T.);
#334=ADVANCED_FACE('',(#333),#321,.T.);
#335=CARTESIAN_POINT('',(16.509999999999994,1.592948E-014,-3.5));
#336=DIRECTION('',(0.0,0.0,-1.0));
#337=DIRECTION('',(-1.0,0.0,0.0));
#338=AXIS2_PLACEMENT_3D('',#335,#336,#337);
#339=PLANE('',#338);
#340=ORIENTED_EDGE('',*,*,#227,.T.);
#341=ORIENTED_EDGE('',*,*,#258,.T.);
#342=EDGE_LOOP('',(#340,#341));
#343=FACE_OUTER_BOUND('',#342,.T.);
#344=ADVANCED_FACE('',(#343),#339,.T.);
#345=CARTESIAN_POINT('',(1.270000000000007,1.254552E-014,43.000000000000014));
#346=DIRECTION('',(0.0,0.0,1.0));
#347=DIRECTION('',(1.0,0.0,0.0));
#348=AXIS2_PLACEMENT_3D('',#345,#346,#347);
#349=PLANE('',#348);
#350=ORIENTED_EDGE('',*,*,#180,.F.);
#351=ORIENTED_EDGE('',*,*,#328,.F.);
#352=EDGE_LOOP('',(#350,#351));
#353=FACE_OUTER_BOUND('',#352,.T.);
#354=ADVANCED_FACE('',(#353),#349,.F.);
#355=CLOSED_SHELL('',(#108,#152,#184,#206,#238,#262,#280,#298,#316,#334,#344,#354));
#356=MANIFOLD_SOLID_BREP('54C',#355);
#357=COLOUR_RGB('254',0.866,0.866,0.866);
#358=SURFACE_STYLE_USAGE(.BOTH.,#359);
#359=SURFACE_SIDE_STYLE('NONE',(#360));
#360=SURFACE_STYLE_FILL_AREA(#361);
#361=FILL_AREA_STYLE('NONE',(#362));
#362=FILL_AREA_STYLE_COLOUR('NONE',#357);
#363=PRESENTATION_STYLE_ASSIGNMENT((#358));
#364=STYLED_ITEM('NONE',(#363),#356);
#365=MECHANICAL_DESIGN_GEOMETRIC_PRESENTATION_REPRESENTATION('NONE',(#364),#28);
#366=PRESENTATION_LAYER_ASSIGNMENT('3D','None',(#356));
#367=ADVANCED_BREP_SHAPE_REPRESENTATION('ABSR1',(#356),#28);
#368=SHAPE_REPRESENTATION_RELATIONSHIP('SRRPL1','',#367,#62);
ENDSEC;
END-ISO-10303-21;
