ISO-10303-21;
HEADER;
/****************************************************************
 * Generated by software with PDElib inside                    *
 * PDElib Version v51a, created Wed 11/30/2011                  *
 * ITI Transcendata (http://www.transcendata.com/)              *
 ****************************************************************/
FILE_DESCRIPTION((''),'2;1');
FILE_NAME('CAPC4532X110N.stp','2014-11-06T10:30:58',(''),(''),'Mechanical Desktop 2011','Mechanical Desktop 2011',', , ');
FILE_SCHEMA(('AUTOMOTIVE_DESIGN { 1 2 10303 214 1 1 1 1 }'));
ENDSEC;
DATA;
#10=(NAMED_UNIT(*)PLANE_ANGLE_UNIT()SI_UNIT($,.RADIAN.));
#11=DIMENSIONAL_EXPONENTS(0.0,0.0,0.0,0.0,0.0,0.0,0.0);
#12=PLANE_ANGLE_MEASURE_WITH_UNIT(PLANE_ANGLE_MEASURE(0.0174532925),#10);
#16=(CONVERSION_BASED_UNIT('DEGREE',#12)NAMED_UNIT(#11)PLANE_ANGLE_UNIT());
#20=(NAMED_UNIT(*)SI_UNIT($,.STERADIAN.)SOLID_ANGLE_UNIT());
#24=(LENGTH_UNIT()NAMED_UNIT(*)SI_UNIT(.MILLI.,.METRE.));
#26=UNCERTAINTY_MEASURE_WITH_UNIT(LENGTH_MEASURE(0.000001),#24,'DISTANCE_ACCURACY_VALUE','');
#28=(GEOMETRIC_REPRESENTATION_CONTEXT(3)GLOBAL_UNCERTAINTY_ASSIGNED_CONTEXT((#26))GLOBAL_UNIT_ASSIGNED_CONTEXT((#16,#20,#24))REPRESENTATION_CONTEXT('','3D'));
#29=APPLICATION_CONTEXT('automotive design');
#30=APPLICATION_PROTOCOL_DEFINITION('INTERNATIONAL_STANDARD','automotive_design',1998,#29);
#31=PRODUCT_CONTEXT('3D Mechanical Parts',#29,'mechanical');
#32=PRODUCT('Product','Product','',(#31));
#33=PRODUCT_RELATED_PRODUCT_CATEGORY('part',$,(#32));
#34=PRODUCT_CATEGORY('part',$);
#35=PERSON('1','Design','Joe',$,$,$);
#36=ORGANIZATION($,'None','None');
#37=PERSON_AND_ORGANIZATION(#35,#36);
#38=PERSON_AND_ORGANIZATION_ROLE('design_owner');
#39=APPLIED_PERSON_AND_ORGANIZATION_ASSIGNMENT(#37,#38,(#32));
#40=PRODUCT_DEFINITION_FORMATION_WITH_SPECIFIED_SOURCE('None','',#32,.BOUGHT.);
#41=PERSON('2','Creator','Joe',$,$,$);
#42=ORGANIZATION($,'None','None');
#43=PERSON_AND_ORGANIZATION(#41,#42);
#44=PERSON_AND_ORGANIZATION_ROLE('creator');
#45=APPLIED_PERSON_AND_ORGANIZATION_ASSIGNMENT(#43,#44,(#40));
#46=PERSON('3','Supplier','Joe',$,$,$);
#47=ORGANIZATION($,'None','None');
#48=PERSON_AND_ORGANIZATION(#46,#47);
#49=PERSON_AND_ORGANIZATION_ROLE('design_supplier');
#50=APPLIED_PERSON_AND_ORGANIZATION_ASSIGNMENT(#48,#49,(#40));
#51=PRODUCT_DEFINITION_CONTEXT('part definition',#29,'design');
#52=PRODUCT_DEFINITION('None','',#40,#51);
#53=PERSON('4','Creator','Joe',$,$,$);
#54=ORGANIZATION($,'None','None');
#55=PERSON_AND_ORGANIZATION(#53,#54);
#56=PERSON_AND_ORGANIZATION_ROLE('creator');
#57=APPLIED_PERSON_AND_ORGANIZATION_ASSIGNMENT(#55,#56,(#52));
#58=CARTESIAN_POINT('NONE',(0.0,0.0,0.0));
#59=DIRECTION('NONE',(0.0,0.0,1.0));
#60=DIRECTION('NONE',(1.0,0.0,0.0));
#61=AXIS2_PLACEMENT_3D('NONE',#58,#59,#60);
#62=SHAPE_REPRESENTATION('SR1',(#61),#28);
#63=PRODUCT_DEFINITION_SHAPE('PDS1','Test Part',#52);
#64=SHAPE_DEFINITION_REPRESENTATION(#63,#62);
#65=CARTESIAN_POINT('',(-1.549999999999998,-1.45,0.15));
#66=DIRECTION('',(1.0,0.0,2.148819E-016));
#67=DIRECTION('',(0.0,-0.707106781186548,-0.707106781186547));
#68=AXIS2_PLACEMENT_3D('',#65,#66,#67);
#69=CYLINDRICAL_SURFACE('',#68,0.1);
#70=CARTESIAN_POINT('',(1.549999999999998,-1.45,0.05));
#71=VERTEX_POINT('',#70);
#72=CARTESIAN_POINT('',(1.549999999999998,-1.55,0.15));
#73=VERTEX_POINT('',#72);
#74=CARTESIAN_POINT('',(1.549999999999998,-1.45,0.15));
#75=DIRECTION('',(-1.0,0.0,0.0));
#76=DIRECTION('',(0.0,-0.707106781186548,-0.707106781186547));
#77=AXIS2_PLACEMENT_3D('',#74,#75,#76);
#78=CIRCLE('',#77,0.1);
#79=EDGE_CURVE('',#71,#73,#78,.T.);
#80=ORIENTED_EDGE('',*,*,#79,.T.);
#81=CARTESIAN_POINT('',(-1.549999999999997,-1.55,0.15));
#82=VERTEX_POINT('',#81);
#83=CARTESIAN_POINT('',(-1.549999999999997,-1.55,0.15));
#84=DIRECTION('',(1.0,0.0,0.0));
#85=VECTOR('',#84,3.099999999999995);
#86=LINE('',#83,#85);
#87=EDGE_CURVE('',#73,#82,#86,.F.);
#88=ORIENTED_EDGE('',*,*,#87,.T.);
#89=CARTESIAN_POINT('',(-1.549999999999998,-1.45,0.05));
#90=VERTEX_POINT('',#89);
#91=CARTESIAN_POINT('',(-1.549999999999997,-1.45,0.15));
#92=DIRECTION('',(1.0,0.0,0.0));
#93=DIRECTION('',(0.0,-0.707106781186548,-0.707106781186547));
#94=AXIS2_PLACEMENT_3D('',#91,#92,#93);
#95=CIRCLE('',#94,0.1);
#96=EDGE_CURVE('',#82,#90,#95,.T.);
#97=ORIENTED_EDGE('',*,*,#96,.T.);
#98=CARTESIAN_POINT('',(-1.549999999999998,-1.45,0.05));
#99=DIRECTION('',(1.0,0.0,0.0));
#100=VECTOR('',#99,3.099999999999995);
#101=LINE('',#98,#100);
#102=EDGE_CURVE('',#90,#71,#101,.T.);
#103=ORIENTED_EDGE('',*,*,#102,.T.);
#104=EDGE_LOOP('',(#80,#88,#97,#103));
#105=FACE_OUTER_BOUND('',#104,.T.);
#106=ADVANCED_FACE('',(#105),#69,.T.);
#107=CARTESIAN_POINT('',(-1.549999999999998,4.440892E-016,0.925));
#108=DIRECTION('',(1.0,0.0,0.0));
#109=DIRECTION('',(0.0,0.0,-1.0));
#110=AXIS2_PLACEMENT_3D('',#107,#108,#109);
#111=PLANE('',#110);
#112=ORIENTED_EDGE('',*,*,#96,.F.);
#113=CARTESIAN_POINT('',(-1.549999999999998,-1.55,0.949999999999999));
#114=VERTEX_POINT('',#113);
#115=CARTESIAN_POINT('',(-1.549999999999998,-1.55,0.15));
#116=DIRECTION('',(0.0,0.0,1.0));
#117=VECTOR('',#116,0.8);
#118=LINE('',#115,#117);
#119=EDGE_CURVE('',#82,#114,#118,.T.);
#120=ORIENTED_EDGE('',*,*,#119,.T.);
#121=CARTESIAN_POINT('',(-1.549999999999998,-1.45,1.049999999999999));
#122=VERTEX_POINT('',#121);
#123=CARTESIAN_POINT('',(-1.549999999999998,-1.45,0.949999999999999));
#124=DIRECTION('',(1.0,0.0,0.0));
#125=DIRECTION('',(0.0,-0.707106781186547,0.707106781186548));
#126=AXIS2_PLACEMENT_3D('',#123,#124,#125);
#127=CIRCLE('',#126,0.1);
#128=EDGE_CURVE('',#122,#114,#127,.T.);
#129=ORIENTED_EDGE('',*,*,#128,.F.);
#130=CARTESIAN_POINT('',(-1.549999999999998,1.45,1.05));
#131=VERTEX_POINT('',#130);
#132=CARTESIAN_POINT('',(-1.549999999999998,-1.45,1.049999999999999));
#133=DIRECTION('',(0.0,1.0,0.0));
#134=VECTOR('',#133,2.9);
#135=LINE('',#132,#134);
#136=EDGE_CURVE('',#122,#131,#135,.T.);
#137=ORIENTED_EDGE('',*,*,#136,.T.);
#138=CARTESIAN_POINT('',(-1.549999999999998,1.55,0.95));
#139=VERTEX_POINT('',#138);
#140=CARTESIAN_POINT('',(-1.549999999999998,1.45,0.95));
#141=DIRECTION('',(1.0,0.0,0.0));
#142=DIRECTION('',(0.0,0.707106781186546,0.707106781186549));
#143=AXIS2_PLACEMENT_3D('',#140,#141,#142);
#144=CIRCLE('',#143,0.1);
#145=EDGE_CURVE('',#139,#131,#144,.T.);
#146=ORIENTED_EDGE('',*,*,#145,.F.);
#147=CARTESIAN_POINT('',(-1.549999999999998,1.55,0.15));
#148=VERTEX_POINT('',#147);
#149=CARTESIAN_POINT('',(-1.549999999999998,1.55,0.95));
#150=DIRECTION('',(0.0,0.0,-1.0));
#151=VECTOR('',#150,0.8);
#152=LINE('',#149,#151);
#153=EDGE_CURVE('',#139,#148,#152,.T.);
#154=ORIENTED_EDGE('',*,*,#153,.T.);
#155=CARTESIAN_POINT('',(-1.549999999999998,1.45,0.05));
#156=VERTEX_POINT('',#155);
#157=CARTESIAN_POINT('',(-1.549999999999997,1.45,0.15));
#158=DIRECTION('',(1.0,0.0,0.0));
#159=DIRECTION('',(0.0,0.707106781186546,-0.707106781186549));
#160=AXIS2_PLACEMENT_3D('',#157,#158,#159);
#161=CIRCLE('',#160,0.1);
#162=EDGE_CURVE('',#156,#148,#161,.T.);
#163=ORIENTED_EDGE('',*,*,#162,.F.);
#164=CARTESIAN_POINT('',(-1.549999999999998,1.45,0.05));
#165=DIRECTION('',(0.0,-1.0,0.0));
#166=VECTOR('',#165,2.9);
#167=LINE('',#164,#166);
#168=EDGE_CURVE('',#156,#90,#167,.T.);
#169=ORIENTED_EDGE('',*,*,#168,.T.);
#170=EDGE_LOOP('',(#112,#120,#129,#137,#146,#154,#163,#169));
#171=FACE_OUTER_BOUND('',#170,.T.);
#172=ADVANCED_FACE('',(#171),#111,.F.);
#173=CARTESIAN_POINT('',(-1.549999999999998,-1.55,-0.7));
#174=DIRECTION('',(0.0,-1.0,0.0));
#175=DIRECTION('',(0.0,0.0,-1.0));
#176=AXIS2_PLACEMENT_3D('',#173,#174,#175);
#177=PLANE('',#176);
#178=ORIENTED_EDGE('',*,*,#87,.F.);
#179=CARTESIAN_POINT('',(1.549999999999998,-1.55,0.95));
#180=VERTEX_POINT('',#179);
#181=CARTESIAN_POINT('',(1.549999999999997,-1.55,0.15));
#182=DIRECTION('',(0.0,0.0,1.0));
#183=VECTOR('',#182,0.8);
#184=LINE('',#181,#183);
#185=EDGE_CURVE('',#73,#180,#184,.T.);
#186=ORIENTED_EDGE('',*,*,#185,.T.);
#187=CARTESIAN_POINT('',(-1.549999999999998,-1.55,0.949999999999999));
#188=DIRECTION('',(1.0,0.0,0.0));
#189=VECTOR('',#188,3.099999999999996);
#190=LINE('',#187,#189);
#191=EDGE_CURVE('',#114,#180,#190,.T.);
#192=ORIENTED_EDGE('',*,*,#191,.F.);
#193=ORIENTED_EDGE('',*,*,#119,.F.);
#194=EDGE_LOOP('',(#178,#186,#192,#193));
#195=FACE_OUTER_BOUND('',#194,.T.);
#196=ADVANCED_FACE('',(#195),#177,.T.);
#197=CARTESIAN_POINT('',(-1.549999999999998,-1.45,0.949999999999999));
#198=DIRECTION('',(1.0,0.0,2.148819E-016));
#199=DIRECTION('',(0.0,-0.707106781186547,0.707106781186548));
#200=AXIS2_PLACEMENT_3D('',#197,#198,#199);
#201=CYLINDRICAL_SURFACE('',#200,0.1);
#202=CARTESIAN_POINT('',(1.549999999999998,-1.45,1.05));
#203=VERTEX_POINT('',#202);
#204=CARTESIAN_POINT('',(1.549999999999998,-1.45,0.95));
#205=DIRECTION('',(-1.0,0.0,0.0));
#206=DIRECTION('',(0.0,-0.707106781186547,0.707106781186548));
#207=AXIS2_PLACEMENT_3D('',#204,#205,#206);
#208=CIRCLE('',#207,0.1);
#209=EDGE_CURVE('',#180,#203,#208,.T.);
#210=ORIENTED_EDGE('',*,*,#209,.T.);
#211=CARTESIAN_POINT('',(1.549999999999998,-1.45,1.05));
#212=DIRECTION('',(-1.0,0.0,0.0));
#213=VECTOR('',#212,3.099999999999996);
#214=LINE('',#211,#213);
#215=EDGE_CURVE('',#203,#122,#214,.T.);
#216=ORIENTED_EDGE('',*,*,#215,.T.);
#217=ORIENTED_EDGE('',*,*,#128,.T.);
#218=ORIENTED_EDGE('',*,*,#191,.T.);
#219=EDGE_LOOP('',(#210,#216,#217,#218));
#220=FACE_OUTER_BOUND('',#219,.T.);
#221=ADVANCED_FACE('',(#220),#201,.T.);
#222=CARTESIAN_POINT('',(-1.549999999999998,1.45,0.15));
#223=DIRECTION('',(1.0,0.0,2.148819E-016));
#224=DIRECTION('',(0.0,0.707106781186546,-0.707106781186549));
#225=AXIS2_PLACEMENT_3D('',#222,#223,#224);
#226=CYLINDRICAL_SURFACE('',#225,0.1);
#227=CARTESIAN_POINT('',(1.549999999999998,1.55,0.15));
#228=VERTEX_POINT('',#227);
#229=CARTESIAN_POINT('',(1.549999999999998,1.45,0.05));
#230=VERTEX_POINT('',#229);
#231=CARTESIAN_POINT('',(1.549999999999998,1.45,0.15));
#232=DIRECTION('',(-1.0,0.0,0.0));
#233=DIRECTION('',(0.0,0.707106781186546,-0.707106781186549));
#234=AXIS2_PLACEMENT_3D('',#231,#232,#233);
#235=CIRCLE('',#234,0.1);
#236=EDGE_CURVE('',#228,#230,#235,.T.);
#237=ORIENTED_EDGE('',*,*,#236,.T.);
#238=CARTESIAN_POINT('',(1.549999999999998,1.45,0.05));
#239=DIRECTION('',(-1.0,0.0,0.0));
#240=VECTOR('',#239,3.099999999999995);
#241=LINE('',#238,#240);
#242=EDGE_CURVE('',#230,#156,#241,.T.);
#243=ORIENTED_EDGE('',*,*,#242,.T.);
#244=ORIENTED_EDGE('',*,*,#162,.T.);
#245=CARTESIAN_POINT('',(-1.549999999999998,1.55,0.15));
#246=DIRECTION('',(1.0,0.0,0.0));
#247=VECTOR('',#246,3.099999999999995);
#248=LINE('',#245,#247);
#249=EDGE_CURVE('',#148,#228,#248,.T.);
#250=ORIENTED_EDGE('',*,*,#249,.T.);
#251=EDGE_LOOP('',(#237,#243,#244,#250));
#252=FACE_OUTER_BOUND('',#251,.T.);
#253=ADVANCED_FACE('',(#252),#226,.T.);
#254=CARTESIAN_POINT('',(-1.549999999999998,1.55,1.8));
#255=DIRECTION('',(0.0,1.0,0.0));
#256=DIRECTION('',(0.0,0.0,1.0));
#257=AXIS2_PLACEMENT_3D('',#254,#255,#256);
#258=PLANE('',#257);
#259=ORIENTED_EDGE('',*,*,#249,.F.);
#260=ORIENTED_EDGE('',*,*,#153,.F.);
#261=CARTESIAN_POINT('',(1.549999999999998,1.55,0.950000000000001));
#262=VERTEX_POINT('',#261);
#263=CARTESIAN_POINT('',(1.549999999999998,1.55,0.950000000000001));
#264=DIRECTION('',(-1.0,0.0,0.0));
#265=VECTOR('',#264,3.099999999999996);
#266=LINE('',#263,#265);
#267=EDGE_CURVE('',#262,#139,#266,.T.);
#268=ORIENTED_EDGE('',*,*,#267,.F.);
#269=CARTESIAN_POINT('',(1.549999999999998,1.55,0.950000000000001));
#270=DIRECTION('',(0.0,0.0,-1.0));
#271=VECTOR('',#270,0.8);
#272=LINE('',#269,#271);
#273=EDGE_CURVE('',#262,#228,#272,.T.);
#274=ORIENTED_EDGE('',*,*,#273,.T.);
#275=EDGE_LOOP('',(#259,#260,#268,#274));
#276=FACE_OUTER_BOUND('',#275,.T.);
#277=ADVANCED_FACE('',(#276),#258,.T.);
#278=CARTESIAN_POINT('',(-1.549999999999998,1.45,0.95));
#279=DIRECTION('',(1.0,0.0,2.148819E-016));
#280=DIRECTION('',(0.0,0.707106781186546,0.707106781186549));
#281=AXIS2_PLACEMENT_3D('',#278,#279,#280);
#282=CYLINDRICAL_SURFACE('',#281,0.1);
#283=CARTESIAN_POINT('',(1.549999999999998,1.45,1.050000000000001));
#284=VERTEX_POINT('',#283);
#285=CARTESIAN_POINT('',(1.549999999999998,1.45,0.950000000000001));
#286=DIRECTION('',(-1.0,0.0,0.0));
#287=DIRECTION('',(0.0,0.707106781186546,0.707106781186549));
#288=AXIS2_PLACEMENT_3D('',#285,#286,#287);
#289=CIRCLE('',#288,0.1);
#290=EDGE_CURVE('',#284,#262,#289,.T.);
#291=ORIENTED_EDGE('',*,*,#290,.T.);
#292=ORIENTED_EDGE('',*,*,#267,.T.);
#293=ORIENTED_EDGE('',*,*,#145,.T.);
#294=CARTESIAN_POINT('',(-1.549999999999998,1.45,1.05));
#295=DIRECTION('',(1.0,0.0,0.0));
#296=VECTOR('',#295,3.099999999999996);
#297=LINE('',#294,#296);
#298=EDGE_CURVE('',#131,#284,#297,.T.);
#299=ORIENTED_EDGE('',*,*,#298,.T.);
#300=EDGE_LOOP('',(#291,#292,#293,#299));
#301=FACE_OUTER_BOUND('',#300,.T.);
#302=ADVANCED_FACE('',(#301),#282,.T.);
#303=CARTESIAN_POINT('',(-1.549999999999998,1.55,0.05));
#304=DIRECTION('',(0.0,0.0,-1.0));
#305=DIRECTION('',(-1.0,0.0,0.0));
#306=AXIS2_PLACEMENT_3D('',#303,#304,#305);
#307=PLANE('',#306);
#308=ORIENTED_EDGE('',*,*,#102,.F.);
#309=ORIENTED_EDGE('',*,*,#168,.F.);
#310=ORIENTED_EDGE('',*,*,#242,.F.);
#311=CARTESIAN_POINT('',(1.549999999999998,1.45,0.05));
#312=DIRECTION('',(0.0,-1.0,0.0));
#313=VECTOR('',#312,2.9);
#314=LINE('',#311,#313);
#315=EDGE_CURVE('',#230,#71,#314,.T.);
#316=ORIENTED_EDGE('',*,*,#315,.T.);
#317=EDGE_LOOP('',(#308,#309,#310,#316));
#318=FACE_OUTER_BOUND('',#317,.T.);
#319=ADVANCED_FACE('',(#318),#307,.T.);
#320=CARTESIAN_POINT('',(-1.549999999999998,-1.55,1.049999999999999));
#321=DIRECTION('',(0.0,0.0,1.0));
#322=DIRECTION('',(1.0,0.0,0.0));
#323=AXIS2_PLACEMENT_3D('',#320,#321,#322);
#324=PLANE('',#323);
#325=ORIENTED_EDGE('',*,*,#215,.F.);
#326=CARTESIAN_POINT('',(1.549999999999998,-1.45,1.05));
#327=DIRECTION('',(0.0,1.0,0.0));
#328=VECTOR('',#327,2.9);
#329=LINE('',#326,#328);
#330=EDGE_CURVE('',#203,#284,#329,.T.);
#331=ORIENTED_EDGE('',*,*,#330,.T.);
#332=ORIENTED_EDGE('',*,*,#298,.F.);
#333=ORIENTED_EDGE('',*,*,#136,.F.);
#334=EDGE_LOOP('',(#325,#331,#332,#333));
#335=FACE_OUTER_BOUND('',#334,.T.);
#336=ADVANCED_FACE('',(#335),#324,.T.);
#337=CARTESIAN_POINT('',(1.549999999999998,4.440892E-016,0.925));
#338=DIRECTION('',(1.0,0.0,0.0));
#339=DIRECTION('',(0.0,0.0,-1.0));
#340=AXIS2_PLACEMENT_3D('',#337,#338,#339);
#341=PLANE('',#340);
#342=ORIENTED_EDGE('',*,*,#79,.F.);
#343=ORIENTED_EDGE('',*,*,#315,.F.);
#344=ORIENTED_EDGE('',*,*,#236,.F.);
#345=ORIENTED_EDGE('',*,*,#273,.F.);
#346=ORIENTED_EDGE('',*,*,#290,.F.);
#347=ORIENTED_EDGE('',*,*,#330,.F.);
#348=ORIENTED_EDGE('',*,*,#209,.F.);
#349=ORIENTED_EDGE('',*,*,#185,.F.);
#350=EDGE_LOOP('',(#342,#343,#344,#345,#346,#347,#348,#349));
#351=FACE_OUTER_BOUND('',#350,.T.);
#352=ADVANCED_FACE('',(#351),#341,.T.);
#353=CLOSED_SHELL('',(#106,#172,#196,#221,#253,#277,#302,#319,#336,#352));
#354=MANIFOLD_SOLID_BREP('5BC',#353);
#355=COLOUR_RGB('35',0.5,0.375,0.25);
#356=SURFACE_STYLE_USAGE(.BOTH.,#357);
#357=SURFACE_SIDE_STYLE('NONE',(#358));
#358=SURFACE_STYLE_FILL_AREA(#359);
#359=FILL_AREA_STYLE('NONE',(#360));
#360=FILL_AREA_STYLE_COLOUR('NONE',#355);
#361=PRESENTATION_STYLE_ASSIGNMENT((#356));
#362=STYLED_ITEM('NONE',(#361),#354);
#363=MECHANICAL_DESIGN_GEOMETRIC_PRESENTATION_REPRESENTATION('NONE',(#362,#1114,#1569),#28);
#364=PRESENTATION_LAYER_ASSIGNMENT('3D','None',(#354,#1106,#1568));
#365=CARTESIAN_POINT('',(2.249999999999999,1.5,1.0));
#366=CARTESIAN_POINT('',(2.249999999999999,1.5,1.1));
#367=CARTESIAN_POINT('',(2.149999999999999,1.5,1.1));
#368=CARTESIAN_POINT('',(2.249999999999999,1.4,1.0));
#369=CARTESIAN_POINT('',(2.249999999999999,1.4,1.1));
#370=CARTESIAN_POINT('',(2.149999999999999,1.5,1.1));
#371=CARTESIAN_POINT('',(2.149999999999999,1.4,1.0));
#372=CARTESIAN_POINT('',(2.149999999999999,1.4,1.1));
#373=CARTESIAN_POINT('',(2.149999999999999,1.5,1.1));
#374=CARTESIAN_POINT('',(2.049999999999999,1.4,1.0));
#375=CARTESIAN_POINT('',(2.049999999999999,1.4,1.1));
#376=CARTESIAN_POINT('',(2.149999999999999,1.5,1.1));
#377=CARTESIAN_POINT('',(2.049999999999999,1.5,1.0));
#378=CARTESIAN_POINT('',(2.049999999999999,1.5,1.1));
#379=CARTESIAN_POINT('',(2.149999999999999,1.5,1.1));
#380=CARTESIAN_POINT('',(2.049999999999999,1.6,1.0));
#381=CARTESIAN_POINT('',(2.049999999999999,1.6,1.1));
#382=CARTESIAN_POINT('',(2.149999999999999,1.5,1.1));
#383=CARTESIAN_POINT('',(2.149999999999999,1.6,1.0));
#384=CARTESIAN_POINT('',(2.149999999999999,1.6,1.1));
#385=CARTESIAN_POINT('',(2.149999999999999,1.5,1.1));
#386=CARTESIAN_POINT('',(2.249999999999999,1.6,1.0));
#387=CARTESIAN_POINT('',(2.249999999999999,1.6,1.1));
#388=CARTESIAN_POINT('',(2.149999999999999,1.5,1.1));
#389=CARTESIAN_POINT('',(2.249999999999999,1.5,1.0));
#390=CARTESIAN_POINT('',(2.249999999999999,1.5,1.1));
#391=CARTESIAN_POINT('',(2.149999999999999,1.5,1.1));
#399=(BOUNDED_SURFACE()B_SPLINE_SURFACE(2,2,((#365,#368,#371,#374,#377,#380,#383,#386,#389),(#366,#369,#372,#375,#378,#381,#384,#387,#390),(#367,#370,#373,#376,#379,#382,#385,#388,#391)),.UNSPECIFIED.,.F.,.T.,.U.)B_SPLINE_SURFACE_WITH_KNOTS((3,3),(3,2,2,2,3),(0.0,1.570796326794897),(0.0,1.570796326794897,3.141592653589793,4.71238898038469,6.283185307179586),.UNSPECIFIED.)GEOMETRIC_REPRESENTATION_ITEM()RATIONAL_B_SPLINE_SURFACE(((1.0,0.707106781186548,1.0,0.707106781186548,1.0,0.707106781186548,1.0,0.707106781186548,1.0),(0.707106781186542,0.499999999999996,0.707106781186542,0.499999999999996,0.707106781186542,0.499999999999996,0.707106781186542,0.499999999999996,0.707106781186542),(1.0,0.707106781186548,1.0,0.707106781186548,1.0,0.707106781186548,1.0,0.707106781186548,1.0)))REPRESENTATION_ITEM('')SURFACE());
#400=CARTESIAN_POINT('',(2.149999999999999,1.5,1.1));
#401=VERTEX_POINT('',#400);
#402=CARTESIAN_POINT('',(2.149999999999999,1.6,1.0));
#403=VERTEX_POINT('',#402);
#404=CARTESIAN_POINT('',(2.149999999999999,1.5,1.0));
#405=DIRECTION('',(-1.0,0.0,0.0));
#406=DIRECTION('',(0.0,0.707106781186546,0.707106781186549));
#407=AXIS2_PLACEMENT_3D('',#404,#405,#406);
#408=CIRCLE('',#407,0.1);
#409=EDGE_CURVE('',#401,#403,#408,.T.);
#410=ORIENTED_EDGE('',*,*,#409,.F.);
#411=CARTESIAN_POINT('',(2.249999999999999,1.5,1.0));
#412=VERTEX_POINT('',#411);
#413=CARTESIAN_POINT('',(2.149999999999999,1.5,1.0));
#414=DIRECTION('',(0.0,-1.0,0.0));
#415=DIRECTION('',(0.707106781186547,0.0,0.707106781186547));
#416=AXIS2_PLACEMENT_3D('',#413,#414,#415);
#417=CIRCLE('',#416,0.1);
#418=EDGE_CURVE('',#412,#401,#417,.T.);
#419=ORIENTED_EDGE('',*,*,#418,.F.);
#420=CARTESIAN_POINT('',(2.149999999999999,1.5,1.0));
#421=DIRECTION('',(0.0,0.0,-1.0));
#422=DIRECTION('',(1.0,0.0,0.0));
#423=AXIS2_PLACEMENT_3D('',#420,#421,#422);
#424=CIRCLE('',#423,0.1);
#425=EDGE_CURVE('',#412,#403,#424,.F.);
#426=ORIENTED_EDGE('',*,*,#425,.T.);
#427=EDGE_LOOP('',(#410,#419,#426));
#428=FACE_OUTER_BOUND('',#427,.T.);
#429=ADVANCED_FACE('',(#428),#399,.T.);
#430=CARTESIAN_POINT('',(2.25,-1.5,1.0));
#431=CARTESIAN_POINT('',(2.25,-1.5,1.1));
#432=CARTESIAN_POINT('',(2.15,-1.5,1.1));
#433=CARTESIAN_POINT('',(2.25,-1.6,1.0));
#434=CARTESIAN_POINT('',(2.25,-1.6,1.1));
#435=CARTESIAN_POINT('',(2.15,-1.5,1.1));
#436=CARTESIAN_POINT('',(2.15,-1.6,1.0));
#437=CARTESIAN_POINT('',(2.15,-1.6,1.1));
#438=CARTESIAN_POINT('',(2.15,-1.5,1.1));
#439=CARTESIAN_POINT('',(2.05,-1.6,1.0));
#440=CARTESIAN_POINT('',(2.05,-1.6,1.1));
#441=CARTESIAN_POINT('',(2.15,-1.5,1.1));
#442=CARTESIAN_POINT('',(2.05,-1.5,1.0));
#443=CARTESIAN_POINT('',(2.05,-1.5,1.1));
#444=CARTESIAN_POINT('',(2.15,-1.5,1.1));
#445=CARTESIAN_POINT('',(2.05,-1.4,1.0));
#446=CARTESIAN_POINT('',(2.05,-1.4,1.1));
#447=CARTESIAN_POINT('',(2.15,-1.5,1.1));
#448=CARTESIAN_POINT('',(2.15,-1.4,1.0));
#449=CARTESIAN_POINT('',(2.15,-1.4,1.1));
#450=CARTESIAN_POINT('',(2.15,-1.5,1.1));
#451=CARTESIAN_POINT('',(2.25,-1.4,1.0));
#452=CARTESIAN_POINT('',(2.25,-1.4,1.1));
#453=CARTESIAN_POINT('',(2.15,-1.5,1.1));
#454=CARTESIAN_POINT('',(2.25,-1.5,1.0));
#455=CARTESIAN_POINT('',(2.25,-1.5,1.1));
#456=CARTESIAN_POINT('',(2.15,-1.5,1.1));
#464=(BOUNDED_SURFACE()B_SPLINE_SURFACE(2,2,((#430,#433,#436,#439,#442,#445,#448,#451,#454),(#431,#434,#437,#440,#443,#446,#449,#452,#455),(#432,#435,#438,#441,#444,#447,#450,#453,#456)),.UNSPECIFIED.,.F.,.T.,.U.)B_SPLINE_SURFACE_WITH_KNOTS((3,3),(3,2,2,2,3),(0.0,1.570796326794897),(0.0,1.570796326794897,3.141592653589793,4.71238898038469,6.283185307179586),.UNSPECIFIED.)GEOMETRIC_REPRESENTATION_ITEM()RATIONAL_B_SPLINE_SURFACE(((1.0,0.707106781186548,1.0,0.707106781186548,1.0,0.707106781186548,1.0,0.707106781186548,1.0),(0.707106781186542,0.499999999999996,0.707106781186542,0.499999999999996,0.707106781186542,0.499999999999996,0.707106781186542,0.499999999999996,0.707106781186542),(1.0,0.707106781186548,1.0,0.707106781186548,1.0,0.707106781186548,1.0,0.707106781186548,1.0)))REPRESENTATION_ITEM('')SURFACE());
#465=CARTESIAN_POINT('',(2.15,-1.5,1.1));
#466=VERTEX_POINT('',#465);
#467=CARTESIAN_POINT('',(2.25,-1.5,1.0));
#468=VERTEX_POINT('',#467);
#469=CARTESIAN_POINT('',(2.15,-1.5,1.0));
#470=DIRECTION('',(0.0,1.0,0.0));
#471=DIRECTION('',(0.707106781186547,0.0,0.707106781186547));
#472=AXIS2_PLACEMENT_3D('',#469,#470,#471);
#473=CIRCLE('',#472,0.1);
#474=EDGE_CURVE('',#466,#468,#473,.T.);
#475=ORIENTED_EDGE('',*,*,#474,.F.);
#476=CARTESIAN_POINT('',(2.15,-1.6,1.0));
#477=VERTEX_POINT('',#476);
#478=CARTESIAN_POINT('',(2.15,-1.5,1.0));
#479=DIRECTION('',(-1.0,0.0,0.0));
#480=DIRECTION('',(0.0,-0.707106781186547,0.707106781186547));
#481=AXIS2_PLACEMENT_3D('',#478,#479,#480);
#482=CIRCLE('',#481,0.1);
#483=EDGE_CURVE('',#477,#466,#482,.T.);
#484=ORIENTED_EDGE('',*,*,#483,.F.);
#485=CARTESIAN_POINT('',(2.15,-1.5,1.0));
#486=DIRECTION('',(0.0,0.0,-1.0));
#487=DIRECTION('',(0.0,-1.0,0.0));
#488=AXIS2_PLACEMENT_3D('',#485,#486,#487);
#489=CIRCLE('',#488,0.1);
#490=EDGE_CURVE('',#477,#468,#489,.F.);
#491=ORIENTED_EDGE('',*,*,#490,.T.);
#492=EDGE_LOOP('',(#475,#484,#491));
#493=FACE_OUTER_BOUND('',#492,.T.);
#494=ADVANCED_FACE('',(#493),#464,.T.);
#495=CARTESIAN_POINT('',(2.149999999999999,1.5,-2.914335E-016));
#496=CARTESIAN_POINT('',(2.249999999999999,1.5,-2.883719E-016));
#497=CARTESIAN_POINT('',(2.249999999999999,1.5,0.1));
#498=CARTESIAN_POINT('',(2.149999999999999,1.5,-2.914335E-016));
#499=CARTESIAN_POINT('',(2.249999999999999,1.4,-2.883719E-016));
#500=CARTESIAN_POINT('',(2.249999999999999,1.4,0.1));
#501=CARTESIAN_POINT('',(2.149999999999999,1.5,-2.914335E-016));
#502=CARTESIAN_POINT('',(2.149999999999999,1.4,-2.914335E-016));
#503=CARTESIAN_POINT('',(2.149999999999999,1.4,0.1));
#504=CARTESIAN_POINT('',(2.149999999999999,1.5,-2.914335E-016));
#505=CARTESIAN_POINT('',(2.049999999999999,1.4,-2.944952E-016));
#506=CARTESIAN_POINT('',(2.049999999999999,1.4,0.1));
#507=CARTESIAN_POINT('',(2.149999999999999,1.5,-2.914335E-016));
#508=CARTESIAN_POINT('',(2.049999999999999,1.5,-2.944952E-016));
#509=CARTESIAN_POINT('',(2.049999999999999,1.5,0.1));
#510=CARTESIAN_POINT('',(2.149999999999999,1.5,-2.914335E-016));
#511=CARTESIAN_POINT('',(2.049999999999999,1.6,-2.944952E-016));
#512=CARTESIAN_POINT('',(2.049999999999999,1.6,0.1));
#513=CARTESIAN_POINT('',(2.149999999999999,1.5,-2.914335E-016));
#514=CARTESIAN_POINT('',(2.149999999999999,1.6,-2.914335E-016));
#515=CARTESIAN_POINT('',(2.149999999999999,1.6,0.1));
#516=CARTESIAN_POINT('',(2.149999999999999,1.5,-2.914335E-016));
#517=CARTESIAN_POINT('',(2.249999999999999,1.6,-2.883719E-016));
#518=CARTESIAN_POINT('',(2.249999999999999,1.6,0.1));
#519=CARTESIAN_POINT('',(2.149999999999999,1.5,-2.914335E-016));
#520=CARTESIAN_POINT('',(2.249999999999999,1.5,-2.883719E-016));
#521=CARTESIAN_POINT('',(2.249999999999999,1.5,0.1));
#529=(BOUNDED_SURFACE()B_SPLINE_SURFACE(2,2,((#495,#498,#501,#504,#507,#510,#513,#516,#519),(#496,#499,#502,#505,#508,#511,#514,#517,#520),(#497,#500,#503,#506,#509,#512,#515,#518,#521)),.UNSPECIFIED.,.F.,.T.,.U.)B_SPLINE_SURFACE_WITH_KNOTS((3,3),(3,2,2,2,3),(-1.570796326794897,5.551115E-016),(0.0,1.570796326794897,3.141592653589793,4.71238898038469,6.283185307179586),.UNSPECIFIED.)GEOMETRIC_REPRESENTATION_ITEM()RATIONAL_B_SPLINE_SURFACE(((1.0,0.707106781186548,1.0,0.707106781186548,1.0,0.707106781186548,1.0,0.707106781186548,1.0),(0.707106781186542,0.499999999999996,0.707106781186542,0.499999999999996,0.707106781186542,0.499999999999996,0.707106781186542,0.499999999999996,0.707106781186542),(1.0,0.707106781186548,1.0,0.707106781186548,1.0,0.707106781186548,1.0,0.707106781186548,1.0)))REPRESENTATION_ITEM('')SURFACE());
#530=CARTESIAN_POINT('',(2.149999999999999,1.6,0.1));
#531=VERTEX_POINT('',#530);
#532=CARTESIAN_POINT('',(2.149999999999999,1.5,-3.122502E-016));
#533=VERTEX_POINT('',#532);
#534=CARTESIAN_POINT('',(2.149999999999999,1.5,0.1));
#535=DIRECTION('',(-1.0,0.0,0.0));
#536=DIRECTION('',(0.0,0.707106781186546,-0.707106781186549));
#537=AXIS2_PLACEMENT_3D('',#534,#535,#536);
#538=CIRCLE('',#537,0.1);
#539=EDGE_CURVE('',#531,#533,#538,.T.);
#540=ORIENTED_EDGE('',*,*,#539,.F.);
#541=CARTESIAN_POINT('',(2.249999999999999,1.5,0.1));
#542=VERTEX_POINT('',#541);
#543=CARTESIAN_POINT('',(2.149999999999999,1.5,0.1));
#544=DIRECTION('',(2.775558E-016,2.775558E-016,1.0));
#545=DIRECTION('',(0.707106781186549,0.707106781186546,-3.925231E-016));
#546=AXIS2_PLACEMENT_3D('',#543,#544,#545);
#547=CIRCLE('',#546,0.1);
#548=EDGE_CURVE('',#542,#531,#547,.T.);
#549=ORIENTED_EDGE('',*,*,#548,.F.);
#550=CARTESIAN_POINT('',(2.149999999999999,1.5,0.1));
#551=DIRECTION('',(0.0,-1.0,0.0));
#552=DIRECTION('',(1.0,0.0,0.0));
#553=AXIS2_PLACEMENT_3D('',#550,#551,#552);
#554=CIRCLE('',#553,0.1);
#555=EDGE_CURVE('',#542,#533,#554,.F.);
#556=ORIENTED_EDGE('',*,*,#555,.T.);
#557=EDGE_LOOP('',(#540,#549,#556));
#558=FACE_OUTER_BOUND('',#557,.T.);
#559=ADVANCED_FACE('',(#558),#529,.T.);
#560=CARTESIAN_POINT('',(2.15,-1.5,-2.359224E-016));
#561=CARTESIAN_POINT('',(2.25,-1.5,-2.328608E-016));
#562=CARTESIAN_POINT('',(2.25,-1.5,0.1));
#563=CARTESIAN_POINT('',(2.15,-1.5,-2.359224E-016));
#564=CARTESIAN_POINT('',(2.25,-1.6,-2.328608E-016));
#565=CARTESIAN_POINT('',(2.25,-1.6,0.1));
#566=CARTESIAN_POINT('',(2.15,-1.5,-2.359224E-016));
#567=CARTESIAN_POINT('',(2.15,-1.6,-2.359224E-016));
#568=CARTESIAN_POINT('',(2.15,-1.6,0.1));
#569=CARTESIAN_POINT('',(2.15,-1.5,-2.359224E-016));
#570=CARTESIAN_POINT('',(2.05,-1.6,-2.389840E-016));
#571=CARTESIAN_POINT('',(2.05,-1.6,0.1));
#572=CARTESIAN_POINT('',(2.15,-1.5,-2.359224E-016));
#573=CARTESIAN_POINT('',(2.05,-1.5,-2.389840E-016));
#574=CARTESIAN_POINT('',(2.05,-1.5,0.1));
#575=CARTESIAN_POINT('',(2.15,-1.5,-2.359224E-016));
#576=CARTESIAN_POINT('',(2.05,-1.4,-2.389840E-016));
#577=CARTESIAN_POINT('',(2.05,-1.4,0.1));
#578=CARTESIAN_POINT('',(2.15,-1.5,-2.359224E-016));
#579=CARTESIAN_POINT('',(2.15,-1.4,-2.359224E-016));
#580=CARTESIAN_POINT('',(2.15,-1.4,0.1));
#581=CARTESIAN_POINT('',(2.15,-1.5,-2.359224E-016));
#582=CARTESIAN_POINT('',(2.25,-1.4,-2.328608E-016));
#583=CARTESIAN_POINT('',(2.25,-1.4,0.1));
#584=CARTESIAN_POINT('',(2.15,-1.5,-2.359224E-016));
#585=CARTESIAN_POINT('',(2.25,-1.5,-2.328608E-016));
#586=CARTESIAN_POINT('',(2.25,-1.5,0.1));
#594=(BOUNDED_SURFACE()B_SPLINE_SURFACE(2,2,((#560,#563,#566,#569,#572,#575,#578,#581,#584),(#561,#564,#567,#570,#573,#576,#579,#582,#585),(#562,#565,#568,#571,#574,#577,#580,#583,#586)),.UNSPECIFIED.,.F.,.T.,.U.)B_SPLINE_SURFACE_WITH_KNOTS((3,3),(3,2,2,2,3),(-1.570796326794897,0.0),(0.0,1.570796326794897,3.141592653589793,4.71238898038469,6.283185307179586),.UNSPECIFIED.)GEOMETRIC_REPRESENTATION_ITEM()RATIONAL_B_SPLINE_SURFACE(((1.0,0.707106781186548,1.0,0.707106781186548,1.0,0.707106781186548,1.0,0.707106781186548,1.0),(0.707106781186542,0.499999999999996,0.707106781186542,0.499999999999996,0.707106781186542,0.499999999999996,0.707106781186542,0.499999999999996,0.707106781186542),(1.0,0.707106781186548,1.0,0.707106781186548,1.0,0.707106781186548,1.0,0.707106781186548,1.0)))REPRESENTATION_ITEM('')SURFACE());
#595=CARTESIAN_POINT('',(2.15,-1.6,0.1));
#596=VERTEX_POINT('',#595);
#597=CARTESIAN_POINT('',(2.25,-1.5,0.1));
#598=VERTEX_POINT('',#597);
#599=CARTESIAN_POINT('',(2.15,-1.5,0.1));
#600=DIRECTION('',(2.775558E-016,-2.775558E-016,1.0));
#601=DIRECTION('',(0.707106781186548,-0.707106781186547,-3.925231E-016));
#602=AXIS2_PLACEMENT_3D('',#599,#600,#601);
#603=CIRCLE('',#602,0.1);
#604=EDGE_CURVE('',#596,#598,#603,.T.);
#605=ORIENTED_EDGE('',*,*,#604,.F.);
#606=CARTESIAN_POINT('',(2.15,-1.5,-3.122502E-016));
#607=VERTEX_POINT('',#606);
#608=CARTESIAN_POINT('',(2.15,-1.5,0.1));
#609=DIRECTION('',(-1.0,0.0,0.0));
#610=DIRECTION('',(0.0,-0.707106781186548,-0.707106781186547));
#611=AXIS2_PLACEMENT_3D('',#608,#609,#610);
#612=CIRCLE('',#611,0.1);
#613=EDGE_CURVE('',#607,#596,#612,.T.);
#614=ORIENTED_EDGE('',*,*,#613,.F.);
#615=CARTESIAN_POINT('',(2.15,-1.5,0.1));
#616=DIRECTION('',(0.0,1.0,0.0));
#617=DIRECTION('',(0.0,0.0,-1.0));
#618=AXIS2_PLACEMENT_3D('',#615,#616,#617);
#619=CIRCLE('',#618,0.1);
#620=EDGE_CURVE('',#607,#598,#619,.F.);
#621=ORIENTED_EDGE('',*,*,#620,.T.);
#622=EDGE_LOOP('',(#605,#614,#621));
#623=FACE_OUTER_BOUND('',#622,.T.);
#624=ADVANCED_FACE('',(#623),#594,.T.);
#625=CARTESIAN_POINT('',(2.079289321881345,-1.5,0.170710678118655));
#626=CARTESIAN_POINT('',(2.079289321881344,1.5,0.170710678118655));
#627=CARTESIAN_POINT('',(2.00857864376269,-1.5,0.1));
#628=CARTESIAN_POINT('',(2.008578643762689,1.5,0.1));
#629=CARTESIAN_POINT('',(2.079289321881344,-1.5,0.029289321881345));
#630=CARTESIAN_POINT('',(2.079289321881344,1.5,0.029289321881345));
#631=CARTESIAN_POINT('',(2.149999999999999,-1.5,-0.04142135623731));
#632=CARTESIAN_POINT('',(2.149999999999998,1.5,-0.04142135623731));
#633=CARTESIAN_POINT('',(2.220710678118654,-1.5,0.029289321881345));
#634=CARTESIAN_POINT('',(2.220710678118653,1.5,0.029289321881345));
#635=CARTESIAN_POINT('',(2.291421356237309,-1.5,0.099999999999999));
#636=CARTESIAN_POINT('',(2.291421356237308,1.5,0.099999999999999));
#637=CARTESIAN_POINT('',(2.220710678118655,-1.5,0.170710678118654));
#638=CARTESIAN_POINT('',(2.220710678118654,1.5,0.170710678118654));
#639=CARTESIAN_POINT('',(2.15,-1.5,0.241421356237309));
#640=CARTESIAN_POINT('',(2.149999999999999,1.5,0.241421356237309));
#641=CARTESIAN_POINT('',(2.079289321881345,-1.5,0.170710678118655));
#642=CARTESIAN_POINT('',(2.079289321881344,1.5,0.170710678118655));
#650=(BOUNDED_SURFACE()B_SPLINE_SURFACE(1,2,((#625,#627,#629,#631,#633,#635,#637,#639,#641),(#626,#628,#630,#632,#634,#636,#638,#640,#642)),.UNSPECIFIED.,.F.,.T.,.U.)B_SPLINE_SURFACE_WITH_KNOTS((2,2),(3,2,2,2,3),(-15.0,15.0),(0.0,0.15707963267949,0.314159265358979,0.471238898038469,0.628318530717959),.UNSPECIFIED.)GEOMETRIC_REPRESENTATION_ITEM()RATIONAL_B_SPLINE_SURFACE(((1.0,0.707106781186548,1.0,0.707106781186548,1.0,0.707106781186548,1.0,0.707106781186548,1.0),(1.0,0.707106781186548,1.0,0.707106781186548,1.0,0.707106781186548,1.0,0.707106781186548,1.0)))REPRESENTATION_ITEM('')SURFACE());
#651=ORIENTED_EDGE('',*,*,#555,.F.);
#652=CARTESIAN_POINT('',(2.25,-1.5,0.1));
#653=DIRECTION('',(0.0,1.0,0.0));
#654=VECTOR('',#653,3.0);
#655=LINE('',#652,#654);
#656=EDGE_CURVE('',#598,#542,#655,.T.);
#657=ORIENTED_EDGE('',*,*,#656,.F.);
#658=ORIENTED_EDGE('',*,*,#620,.F.);
#659=CARTESIAN_POINT('',(2.149999999999999,1.5,-3.122502E-016));
#660=DIRECTION('',(0.0,-1.0,0.0));
#661=VECTOR('',#660,3.0);
#662=LINE('',#659,#661);
#663=EDGE_CURVE('',#533,#607,#662,.T.);
#664=ORIENTED_EDGE('',*,*,#663,.F.);
#665=EDGE_LOOP('',(#651,#657,#658,#664));
#666=FACE_OUTER_BOUND('',#665,.T.);
#667=ADVANCED_FACE('',(#666),#650,.T.);
#668=CARTESIAN_POINT('',(2.079289321881345,-1.429289321881345,1.0));
#669=CARTESIAN_POINT('',(2.079289321881345,-1.429289321881345,0.1));
#670=CARTESIAN_POINT('',(2.008578643762691,-1.5,1.0));
#671=CARTESIAN_POINT('',(2.008578643762691,-1.5,0.1));
#672=CARTESIAN_POINT('',(2.079289321881345,-1.570710678118655,1.0));
#673=CARTESIAN_POINT('',(2.079289321881345,-1.570710678118655,0.1));
#674=CARTESIAN_POINT('',(2.15,-1.641421356237309,1.0));
#675=CARTESIAN_POINT('',(2.15,-1.641421356237309,0.1));
#676=CARTESIAN_POINT('',(2.220710678118655,-1.570710678118655,1.0));
#677=CARTESIAN_POINT('',(2.220710678118655,-1.570710678118655,0.1));
#678=CARTESIAN_POINT('',(2.291421356237309,-1.5,1.0));
#679=CARTESIAN_POINT('',(2.291421356237309,-1.5,0.1));
#680=CARTESIAN_POINT('',(2.220710678118655,-1.429289321881345,1.0));
#681=CARTESIAN_POINT('',(2.220710678118655,-1.429289321881345,0.1));
#682=CARTESIAN_POINT('',(2.15,-1.358578643762691,1.0));
#683=CARTESIAN_POINT('',(2.15,-1.358578643762691,0.1));
#684=CARTESIAN_POINT('',(2.079289321881345,-1.429289321881345,1.0));
#685=CARTESIAN_POINT('',(2.079289321881345,-1.429289321881345,0.1));
#693=(BOUNDED_SURFACE()B_SPLINE_SURFACE(1,2,((#668,#670,#672,#674,#676,#678,#680,#682,#684),(#669,#671,#673,#675,#677,#679,#681,#683,#685)),.UNSPECIFIED.,.F.,.T.,.U.)B_SPLINE_SURFACE_WITH_KNOTS((2,2),(3,2,2,2,3),(-0.750000000000001,8.249999999999998),(0.0,0.15707963267949,0.314159265358979,0.471238898038469,0.628318530717959),.UNSPECIFIED.)GEOMETRIC_REPRESENTATION_ITEM()RATIONAL_B_SPLINE_SURFACE(((1.0,0.707106781186548,1.0,0.707106781186548,1.0,0.707106781186548,1.0,0.707106781186548,1.0),(1.0,0.707106781186548,1.0,0.707106781186548,1.0,0.707106781186548,1.0,0.707106781186548,1.0)))REPRESENTATION_ITEM('')SURFACE());
#694=ORIENTED_EDGE('',*,*,#604,.T.);
#695=CARTESIAN_POINT('',(2.25,-1.5,1.0));
#696=DIRECTION('',(0.0,0.0,-1.0));
#697=VECTOR('',#696,0.9);
#698=LINE('',#695,#697);
#699=EDGE_CURVE('',#468,#598,#698,.T.);
#700=ORIENTED_EDGE('',*,*,#699,.F.);
#701=ORIENTED_EDGE('',*,*,#490,.F.);
#702=CARTESIAN_POINT('',(2.15,-1.6,0.1));
#703=DIRECTION('',(0.0,0.0,1.0));
#704=VECTOR('',#703,0.9);
#705=LINE('',#702,#704);
#706=EDGE_CURVE('',#596,#477,#705,.T.);
#707=ORIENTED_EDGE('',*,*,#706,.F.);
#708=EDGE_LOOP('',(#694,#700,#701,#707));
#709=FACE_OUTER_BOUND('',#708,.T.);
#710=ADVANCED_FACE('',(#709),#693,.T.);
#711=CARTESIAN_POINT('',(1.549999999999999,-1.429289321881345,0.170710678118654));
#712=CARTESIAN_POINT('',(2.15,-1.429289321881345,0.170710678118654));
#713=CARTESIAN_POINT('',(1.549999999999999,-1.358578643762691,0.1));
#714=CARTESIAN_POINT('',(2.15,-1.358578643762691,0.1));
#715=CARTESIAN_POINT('',(1.549999999999999,-1.429289321881345,0.029289321881345));
#716=CARTESIAN_POINT('',(2.15,-1.429289321881345,0.029289321881345));
#717=CARTESIAN_POINT('',(1.549999999999999,-1.5,-0.04142135623731));
#718=CARTESIAN_POINT('',(2.15,-1.5,-0.04142135623731));
#719=CARTESIAN_POINT('',(1.549999999999999,-1.570710678118655,0.029289321881345));
#720=CARTESIAN_POINT('',(2.15,-1.570710678118655,0.029289321881345));
#721=CARTESIAN_POINT('',(1.549999999999999,-1.641421356237309,0.1));
#722=CARTESIAN_POINT('',(2.15,-1.641421356237309,0.1));
#723=CARTESIAN_POINT('',(1.549999999999999,-1.570710678118655,0.170710678118655));
#724=CARTESIAN_POINT('',(2.15,-1.570710678118655,0.170710678118655));
#725=CARTESIAN_POINT('',(1.549999999999999,-1.5,0.241421356237309));
#726=CARTESIAN_POINT('',(2.15,-1.5,0.241421356237309));
#727=CARTESIAN_POINT('',(1.549999999999999,-1.429289321881345,0.170710678118654));
#728=CARTESIAN_POINT('',(2.15,-1.429289321881345,0.170710678118654));
#736=(BOUNDED_SURFACE()B_SPLINE_SURFACE(1,2,((#711,#713,#715,#717,#719,#721,#723,#725,#727),(#712,#714,#716,#718,#720,#722,#724,#726,#728)),.UNSPECIFIED.,.F.,.T.,.U.)B_SPLINE_SURFACE_WITH_KNOTS((2,2),(3,2,2,2,3),(-3.500000000000006,2.5),(0.0,0.15707963267949,0.314159265358979,0.471238898038469,0.628318530717959),.UNSPECIFIED.)GEOMETRIC_REPRESENTATION_ITEM()RATIONAL_B_SPLINE_SURFACE(((1.0,0.707106781186548,1.0,0.707106781186548,1.0,0.707106781186548,1.0,0.707106781186548,1.0),(1.0,0.707106781186548,1.0,0.707106781186548,1.0,0.707106781186548,1.0,0.707106781186548,1.0)))REPRESENTATION_ITEM('')SURFACE());
#737=CARTESIAN_POINT('',(1.549999999999999,-1.5,-3.122502E-016));
#738=VERTEX_POINT('',#737);
#739=CARTESIAN_POINT('',(1.549999999999999,-1.6,0.1));
#740=VERTEX_POINT('',#739);
#741=CARTESIAN_POINT('',(1.549999999999999,-1.5,0.1));
#742=DIRECTION('',(-1.0,0.0,0.0));
#743=DIRECTION('',(0.0,-0.707106781186547,-0.707106781186548));
#744=AXIS2_PLACEMENT_3D('',#741,#742,#743);
#745=CIRCLE('',#744,0.1);
#746=EDGE_CURVE('',#738,#740,#745,.T.);
#747=ORIENTED_EDGE('',*,*,#746,.F.);
#748=CARTESIAN_POINT('',(2.15,-1.5,-3.122502E-016));
#749=DIRECTION('',(-1.0,0.0,0.0));
#750=VECTOR('',#749,0.6);
#751=LINE('',#748,#750);
#752=EDGE_CURVE('',#607,#738,#751,.T.);
#753=ORIENTED_EDGE('',*,*,#752,.F.);
#754=ORIENTED_EDGE('',*,*,#613,.T.);
#755=CARTESIAN_POINT('',(1.55,-1.6,0.1));
#756=DIRECTION('',(1.0,0.0,0.0));
#757=VECTOR('',#756,0.6);
#758=LINE('',#755,#757);
#759=EDGE_CURVE('',#740,#596,#758,.T.);
#760=ORIENTED_EDGE('',*,*,#759,.F.);
#761=EDGE_LOOP('',(#747,#753,#754,#760));
#762=FACE_OUTER_BOUND('',#761,.T.);
#763=ADVANCED_FACE('',(#762),#736,.T.);
#764=CARTESIAN_POINT('',(2.149999999999999,1.429289321881345,0.170710678118655));
#765=CARTESIAN_POINT('',(1.549999999999999,1.429289321881345,0.170710678118655));
#766=CARTESIAN_POINT('',(2.149999999999999,1.358578643762691,0.1));
#767=CARTESIAN_POINT('',(1.549999999999999,1.358578643762691,0.1));
#768=CARTESIAN_POINT('',(2.149999999999999,1.429289321881345,0.029289321881345));
#769=CARTESIAN_POINT('',(1.549999999999999,1.429289321881345,0.029289321881345));
#770=CARTESIAN_POINT('',(2.149999999999999,1.5,-0.04142135623731));
#771=CARTESIAN_POINT('',(1.549999999999999,1.5,-0.04142135623731));
#772=CARTESIAN_POINT('',(2.149999999999999,1.570710678118655,0.029289321881345));
#773=CARTESIAN_POINT('',(1.549999999999999,1.570710678118655,0.029289321881345));
#774=CARTESIAN_POINT('',(2.149999999999999,1.641421356237309,0.099999999999999));
#775=CARTESIAN_POINT('',(1.549999999999999,1.641421356237309,0.099999999999999));
#776=CARTESIAN_POINT('',(2.149999999999999,1.570710678118655,0.170710678118654));
#777=CARTESIAN_POINT('',(1.549999999999999,1.570710678118655,0.170710678118654));
#778=CARTESIAN_POINT('',(2.149999999999999,1.5,0.241421356237309));
#779=CARTESIAN_POINT('',(1.549999999999999,1.5,0.241421356237309));
#780=CARTESIAN_POINT('',(2.149999999999999,1.429289321881345,0.170710678118655));
#781=CARTESIAN_POINT('',(1.549999999999999,1.429289321881345,0.170710678118655));
#789=(BOUNDED_SURFACE()B_SPLINE_SURFACE(1,2,((#764,#766,#768,#770,#772,#774,#776,#778,#780),(#765,#767,#769,#771,#773,#775,#777,#779,#781)),.UNSPECIFIED.,.F.,.T.,.U.)B_SPLINE_SURFACE_WITH_KNOTS((2,2),(3,2,2,2,3),(-2.5,3.500000000000002),(0.0,0.15707963267949,0.314159265358979,0.471238898038469,0.628318530717959),.UNSPECIFIED.)GEOMETRIC_REPRESENTATION_ITEM()RATIONAL_B_SPLINE_SURFACE(((1.0,0.707106781186548,1.0,0.707106781186548,1.0,0.707106781186548,1.0,0.707106781186548,1.0),(1.0,0.707106781186548,1.0,0.707106781186548,1.0,0.707106781186548,1.0,0.707106781186548,1.0)))REPRESENTATION_ITEM('')SURFACE());
#790=CARTESIAN_POINT('',(1.549999999999999,1.6,0.1));
#791=VERTEX_POINT('',#790);
#792=CARTESIAN_POINT('',(1.549999999999999,1.5,-3.122502E-016));
#793=VERTEX_POINT('',#792);
#794=CARTESIAN_POINT('',(1.549999999999999,1.5,0.1));
#795=DIRECTION('',(-1.0,0.0,0.0));
#796=DIRECTION('',(0.0,0.707106781186546,-0.707106781186549));
#797=AXIS2_PLACEMENT_3D('',#794,#795,#796);
#798=CIRCLE('',#797,0.1);
#799=EDGE_CURVE('',#791,#793,#798,.T.);
#800=ORIENTED_EDGE('',*,*,#799,.F.);
#801=CARTESIAN_POINT('',(2.149999999999999,1.6,0.1));
#802=DIRECTION('',(-1.0,0.0,0.0));
#803=VECTOR('',#802,0.6);
#804=LINE('',#801,#803);
#805=EDGE_CURVE('',#531,#791,#804,.T.);
#806=ORIENTED_EDGE('',*,*,#805,.F.);
#807=ORIENTED_EDGE('',*,*,#539,.T.);
#808=CARTESIAN_POINT('',(1.549999999999999,1.5,-3.122502E-016));
#809=DIRECTION('',(1.0,0.0,0.0));
#810=VECTOR('',#809,0.6);
#811=LINE('',#808,#810);
#812=EDGE_CURVE('',#793,#533,#811,.T.);
#813=ORIENTED_EDGE('',*,*,#812,.F.);
#814=EDGE_LOOP('',(#800,#806,#807,#813));
#815=FACE_OUTER_BOUND('',#814,.T.);
#816=ADVANCED_FACE('',(#815),#789,.T.);
#817=CARTESIAN_POINT('',(2.079289321881344,1.429289321881345,1.0));
#818=CARTESIAN_POINT('',(2.079289321881344,1.429289321881345,0.1));
#819=CARTESIAN_POINT('',(2.149999999999999,1.35857864376269,1.0));
#820=CARTESIAN_POINT('',(2.149999999999999,1.35857864376269,0.1));
#821=CARTESIAN_POINT('',(2.220710678118654,1.429289321881345,1.0));
#822=CARTESIAN_POINT('',(2.220710678118654,1.429289321881345,0.1));
#823=CARTESIAN_POINT('',(2.291421356237309,1.5,1.0));
#824=CARTESIAN_POINT('',(2.291421356237309,1.5,0.1));
#825=CARTESIAN_POINT('',(2.220710678118654,1.570710678118655,1.0));
#826=CARTESIAN_POINT('',(2.220710678118654,1.570710678118655,0.1));
#827=CARTESIAN_POINT('',(2.15,1.64142135623731,1.0));
#828=CARTESIAN_POINT('',(2.15,1.64142135623731,0.1));
#829=CARTESIAN_POINT('',(2.079289321881344,1.570710678118655,1.0));
#830=CARTESIAN_POINT('',(2.079289321881344,1.570710678118655,0.1));
#831=CARTESIAN_POINT('',(2.008578643762689,1.5,1.0));
#832=CARTESIAN_POINT('',(2.008578643762689,1.5,0.1));
#833=CARTESIAN_POINT('',(2.079289321881344,1.429289321881345,1.0));
#834=CARTESIAN_POINT('',(2.079289321881344,1.429289321881345,0.1));
#842=(BOUNDED_SURFACE()B_SPLINE_SURFACE(1,2,((#817,#819,#821,#823,#825,#827,#829,#831,#833),(#818,#820,#822,#824,#826,#828,#830,#832,#834)),.UNSPECIFIED.,.F.,.T.,.U.)B_SPLINE_SURFACE_WITH_KNOTS((2,2),(3,2,2,2,3),(-0.750000000000001,8.249999999999998),(0.0,0.15707963267949,0.314159265358979,0.471238898038469,0.628318530717959),.UNSPECIFIED.)GEOMETRIC_REPRESENTATION_ITEM()RATIONAL_B_SPLINE_SURFACE(((1.0,0.707106781186548,1.0,0.707106781186548,1.0,0.707106781186548,1.0,0.707106781186548,1.0),(1.0,0.707106781186548,1.0,0.707106781186548,1.0,0.707106781186548,1.0,0.707106781186548,1.0)))REPRESENTATION_ITEM('')SURFACE());
#843=ORIENTED_EDGE('',*,*,#548,.T.);
#844=CARTESIAN_POINT('',(2.149999999999999,1.6,1.0));
#845=DIRECTION('',(0.0,0.0,-1.0));
#846=VECTOR('',#845,0.9);
#847=LINE('',#844,#846);
#848=EDGE_CURVE('',#403,#531,#847,.T.);
#849=ORIENTED_EDGE('',*,*,#848,.F.);
#850=ORIENTED_EDGE('',*,*,#425,.F.);
#851=CARTESIAN_POINT('',(2.249999999999999,1.5,0.1));
#852=DIRECTION('',(0.0,0.0,1.0));
#853=VECTOR('',#852,0.9);
#854=LINE('',#851,#853);
#855=EDGE_CURVE('',#542,#412,#854,.T.);
#856=ORIENTED_EDGE('',*,*,#855,.F.);
#857=EDGE_LOOP('',(#843,#849,#850,#856));
#858=FACE_OUTER_BOUND('',#857,.T.);
#859=ADVANCED_FACE('',(#858),#842,.T.);
#860=CARTESIAN_POINT('',(2.15,-1.429289321881345,0.929289321881345));
#861=CARTESIAN_POINT('',(1.549999999999999,-1.429289321881345,0.929289321881345));
#862=CARTESIAN_POINT('',(2.15,-1.358578643762691,1.0));
#863=CARTESIAN_POINT('',(1.549999999999999,-1.358578643762691,1.0));
#864=CARTESIAN_POINT('',(2.15,-1.429289321881345,1.070710678118655));
#865=CARTESIAN_POINT('',(1.549999999999999,-1.429289321881345,1.070710678118655));
#866=CARTESIAN_POINT('',(2.15,-1.5,1.141421356237309));
#867=CARTESIAN_POINT('',(1.549999999999999,-1.5,1.141421356237309));
#868=CARTESIAN_POINT('',(2.15,-1.570710678118655,1.070710678118655));
#869=CARTESIAN_POINT('',(1.549999999999999,-1.570710678118655,1.070710678118655));
#870=CARTESIAN_POINT('',(2.15,-1.641421356237309,1.0));
#871=CARTESIAN_POINT('',(1.549999999999999,-1.641421356237309,1.0));
#872=CARTESIAN_POINT('',(2.15,-1.570710678118655,0.929289321881345));
#873=CARTESIAN_POINT('',(1.549999999999999,-1.570710678118655,0.929289321881345));
#874=CARTESIAN_POINT('',(2.15,-1.5,0.85857864376269));
#875=CARTESIAN_POINT('',(1.549999999999999,-1.5,0.85857864376269));
#876=CARTESIAN_POINT('',(2.15,-1.429289321881345,0.929289321881345));
#877=CARTESIAN_POINT('',(1.549999999999999,-1.429289321881345,0.929289321881345));
#885=(BOUNDED_SURFACE()B_SPLINE_SURFACE(1,2,((#860,#862,#864,#866,#868,#870,#872,#874,#876),(#861,#863,#865,#867,#869,#871,#873,#875,#877)),.UNSPECIFIED.,.F.,.T.,.U.)B_SPLINE_SURFACE_WITH_KNOTS((2,2),(3,2,2,2,3),(-2.5,3.500000000000004),(0.0,0.15707963267949,0.314159265358979,0.471238898038469,0.628318530717959),.UNSPECIFIED.)GEOMETRIC_REPRESENTATION_ITEM()RATIONAL_B_SPLINE_SURFACE(((1.0,0.707106781186548,1.0,0.707106781186548,1.0,0.707106781186548,1.0,0.707106781186548,1.0),(1.0,0.707106781186548,1.0,0.707106781186548,1.0,0.707106781186548,1.0,0.707106781186548,1.0)))REPRESENTATION_ITEM('')SURFACE());
#886=CARTESIAN_POINT('',(1.549999999999999,-1.6,1.0));
#887=VERTEX_POINT('',#886);
#888=CARTESIAN_POINT('',(1.549999999999999,-1.5,1.1));
#889=VERTEX_POINT('',#888);
#890=CARTESIAN_POINT('',(1.549999999999999,-1.5,1.0));
#891=DIRECTION('',(-1.0,0.0,0.0));
#892=DIRECTION('',(0.0,-0.707106781186547,0.707106781186548));
#893=AXIS2_PLACEMENT_3D('',#890,#891,#892);
#894=CIRCLE('',#893,0.1);
#895=EDGE_CURVE('',#887,#889,#894,.T.);
#896=ORIENTED_EDGE('',*,*,#895,.F.);
#897=CARTESIAN_POINT('',(2.15,-1.6,1.0));
#898=DIRECTION('',(-1.0,0.0,0.0));
#899=VECTOR('',#898,0.600000000000001);
#900=LINE('',#897,#899);
#901=EDGE_CURVE('',#477,#887,#900,.T.);
#902=ORIENTED_EDGE('',*,*,#901,.F.);
#903=ORIENTED_EDGE('',*,*,#483,.T.);
#904=CARTESIAN_POINT('',(1.549999999999999,-1.5,1.1));
#905=DIRECTION('',(1.0,0.0,0.0));
#906=VECTOR('',#905,0.600000000000001);
#907=LINE('',#904,#906);
#908=EDGE_CURVE('',#889,#466,#907,.T.);
#909=ORIENTED_EDGE('',*,*,#908,.F.);
#910=EDGE_LOOP('',(#896,#902,#903,#909));
#911=FACE_OUTER_BOUND('',#910,.T.);
#912=ADVANCED_FACE('',(#911),#885,.T.);
#913=CARTESIAN_POINT('',(2.079289321881344,1.5,0.929289321881345));
#914=CARTESIAN_POINT('',(2.079289321881345,-1.5,0.929289321881345));
#915=CARTESIAN_POINT('',(2.008578643762689,1.5,1.0));
#916=CARTESIAN_POINT('',(2.00857864376269,-1.5,1.0));
#917=CARTESIAN_POINT('',(2.079289321881344,1.5,1.070710678118654));
#918=CARTESIAN_POINT('',(2.079289321881345,-1.5,1.070710678118654));
#919=CARTESIAN_POINT('',(2.149999999999999,1.5,1.141421356237309));
#920=CARTESIAN_POINT('',(2.15,-1.5,1.141421356237309));
#921=CARTESIAN_POINT('',(2.220710678118653,1.5,1.070710678118655));
#922=CARTESIAN_POINT('',(2.220710678118654,-1.5,1.070710678118655));
#923=CARTESIAN_POINT('',(2.291421356237308,1.5,1.0));
#924=CARTESIAN_POINT('',(2.291421356237309,-1.5,1.0));
#925=CARTESIAN_POINT('',(2.220710678118653,1.5,0.929289321881345));
#926=CARTESIAN_POINT('',(2.220710678118654,-1.5,0.929289321881345));
#927=CARTESIAN_POINT('',(2.149999999999999,1.5,0.85857864376269));
#928=CARTESIAN_POINT('',(2.15,-1.5,0.85857864376269));
#929=CARTESIAN_POINT('',(2.079289321881344,1.5,0.929289321881345));
#930=CARTESIAN_POINT('',(2.079289321881345,-1.5,0.929289321881345));
#938=(BOUNDED_SURFACE()B_SPLINE_SURFACE(1,2,((#913,#915,#917,#919,#921,#923,#925,#927,#929),(#914,#916,#918,#920,#922,#924,#926,#928,#930)),.UNSPECIFIED.,.F.,.T.,.U.)B_SPLINE_SURFACE_WITH_KNOTS((2,2),(3,2,2,2,3),(-15.000000000000002,15.000000000000005),(0.0,0.15707963267949,0.314159265358979,0.471238898038469,0.628318530717959),.UNSPECIFIED.)GEOMETRIC_REPRESENTATION_ITEM()RATIONAL_B_SPLINE_SURFACE(((1.0,0.707106781186548,1.0,0.707106781186548,1.0,0.707106781186548,1.0,0.707106781186548,1.0),(1.0,0.707106781186548,1.0,0.707106781186548,1.0,0.707106781186548,1.0,0.707106781186548,1.0)))REPRESENTATION_ITEM('')SURFACE());
#939=ORIENTED_EDGE('',*,*,#474,.T.);
#940=CARTESIAN_POINT('',(2.249999999999999,1.5,1.0));
#941=DIRECTION('',(0.0,-1.0,0.0));
#942=VECTOR('',#941,3.0);
#943=LINE('',#940,#942);
#944=EDGE_CURVE('',#412,#468,#943,.T.);
#945=ORIENTED_EDGE('',*,*,#944,.F.);
#946=ORIENTED_EDGE('',*,*,#418,.T.);
#947=CARTESIAN_POINT('',(2.15,-1.5,1.1));
#948=DIRECTION('',(0.0,1.0,0.0));
#949=VECTOR('',#948,3.0);
#950=LINE('',#947,#949);
#951=EDGE_CURVE('',#466,#401,#950,.T.);
#952=ORIENTED_EDGE('',*,*,#951,.F.);
#953=EDGE_LOOP('',(#939,#945,#946,#952));
#954=FACE_OUTER_BOUND('',#953,.T.);
#955=ADVANCED_FACE('',(#954),#938,.T.);
#956=CARTESIAN_POINT('',(1.549999999999999,1.429289321881345,0.929289321881345));
#957=CARTESIAN_POINT('',(2.149999999999999,1.429289321881345,0.929289321881345));
#958=CARTESIAN_POINT('',(1.549999999999999,1.358578643762691,0.999999999999999));
#959=CARTESIAN_POINT('',(2.149999999999999,1.358578643762691,0.999999999999999));
#960=CARTESIAN_POINT('',(1.549999999999999,1.429289321881345,1.070710678118654));
#961=CARTESIAN_POINT('',(2.149999999999999,1.429289321881345,1.070710678118654));
#962=CARTESIAN_POINT('',(1.549999999999999,1.5,1.141421356237309));
#963=CARTESIAN_POINT('',(2.149999999999999,1.5,1.141421356237309));
#964=CARTESIAN_POINT('',(1.549999999999999,1.570710678118655,1.070710678118655));
#965=CARTESIAN_POINT('',(2.149999999999999,1.570710678118655,1.070710678118655));
#966=CARTESIAN_POINT('',(1.549999999999999,1.641421356237309,1.0));
#967=CARTESIAN_POINT('',(2.149999999999999,1.641421356237309,1.0));
#968=CARTESIAN_POINT('',(1.549999999999999,1.570710678118655,0.929289321881345));
#969=CARTESIAN_POINT('',(2.149999999999999,1.570710678118655,0.929289321881345));
#970=CARTESIAN_POINT('',(1.549999999999999,1.5,0.85857864376269));
#971=CARTESIAN_POINT('',(2.149999999999999,1.5,0.85857864376269));
#972=CARTESIAN_POINT('',(1.549999999999999,1.429289321881345,0.929289321881345));
#973=CARTESIAN_POINT('',(2.149999999999999,1.429289321881345,0.929289321881345));
#981=(BOUNDED_SURFACE()B_SPLINE_SURFACE(1,2,((#956,#958,#960,#962,#964,#966,#968,#970,#972),(#957,#959,#961,#963,#965,#967,#969,#971,#973)),.UNSPECIFIED.,.F.,.T.,.U.)B_SPLINE_SURFACE_WITH_KNOTS((2,2),(3,2,2,2,3),(-3.499999999999996,2.5),(0.0,0.15707963267949,0.314159265358979,0.471238898038469,0.628318530717959),.UNSPECIFIED.)GEOMETRIC_REPRESENTATION_ITEM()RATIONAL_B_SPLINE_SURFACE(((1.0,0.707106781186548,1.0,0.707106781186548,1.0,0.707106781186548,1.0,0.707106781186548,1.0),(1.0,0.707106781186548,1.0,0.707106781186548,1.0,0.707106781186548,1.0,0.707106781186548,1.0)))REPRESENTATION_ITEM('')SURFACE());
#982=CARTESIAN_POINT('',(1.549999999999999,1.5,1.1));
#983=VERTEX_POINT('',#982);
#984=CARTESIAN_POINT('',(1.549999999999999,1.6,1.0));
#985=VERTEX_POINT('',#984);
#986=CARTESIAN_POINT('',(1.549999999999999,1.5,1.0));
#987=DIRECTION('',(-1.0,0.0,0.0));
#988=DIRECTION('',(0.0,0.707106781186546,0.707106781186549));
#989=AXIS2_PLACEMENT_3D('',#986,#987,#988);
#990=CIRCLE('',#989,0.1);
#991=EDGE_CURVE('',#983,#985,#990,.T.);
#992=ORIENTED_EDGE('',*,*,#991,.F.);
#993=CARTESIAN_POINT('',(2.149999999999999,1.5,1.1));
#994=DIRECTION('',(-1.0,0.0,0.0));
#995=VECTOR('',#994,0.6);
#996=LINE('',#993,#995);
#997=EDGE_CURVE('',#401,#983,#996,.T.);
#998=ORIENTED_EDGE('',*,*,#997,.F.);
#999=ORIENTED_EDGE('',*,*,#409,.T.);
#1000=CARTESIAN_POINT('',(1.549999999999999,1.6,1.0));
#1001=DIRECTION('',(1.0,0.0,0.0));
#1002=VECTOR('',#1001,0.6);
#1003=LINE('',#1000,#1002);
#1004=EDGE_CURVE('',#985,#403,#1003,.T.);
#1005=ORIENTED_EDGE('',*,*,#1004,.F.);
#1006=EDGE_LOOP('',(#992,#998,#999,#1005));
#1007=FACE_OUTER_BOUND('',#1006,.T.);
#1008=ADVANCED_FACE('',(#1007),#981,.T.);
#1009=CARTESIAN_POINT('',(1.549999999999999,1.6,1.0));
#1010=CARTESIAN_POINT('',(1.549999999999999,1.6,0.1));
#1011=CARTESIAN_POINT('',(2.149999999999999,1.6,1.0));
#1012=CARTESIAN_POINT('',(2.15,1.6,0.1));
#1013=B_SPLINE_SURFACE_WITH_KNOTS('',1,1,((#1009,#1011),(#1010,#1012)),.UNSPECIFIED.,.F.,.F.,.U.,(2,2),(2,2),(0.0,0.9),(0.0,0.6),.UNSPECIFIED.);
#1014=ORIENTED_EDGE('',*,*,#805,.T.);
#1015=CARTESIAN_POINT('',(1.549999999999999,1.6,1.0));
#1016=DIRECTION('',(0.0,0.0,-1.0));
#1017=VECTOR('',#1016,0.9);
#1018=LINE('',#1015,#1017);
#1019=EDGE_CURVE('',#985,#791,#1018,.T.);
#1020=ORIENTED_EDGE('',*,*,#1019,.F.);
#1021=ORIENTED_EDGE('',*,*,#1004,.T.);
#1022=ORIENTED_EDGE('',*,*,#848,.T.);
#1023=EDGE_LOOP('',(#1014,#1020,#1021,#1022));
#1024=FACE_OUTER_BOUND('',#1023,.T.);
#1025=ADVANCED_FACE('',(#1024),#1013,.F.);
#1026=CARTESIAN_POINT('',(1.549999999999998,1.5,1.1));
#1027=CARTESIAN_POINT('',(1.549999999999999,-1.5,1.1));
#1028=CARTESIAN_POINT('',(2.15,1.5,1.1));
#1029=CARTESIAN_POINT('',(2.15,-1.5,1.1));
#1030=B_SPLINE_SURFACE_WITH_KNOTS('',1,1,((#1026,#1028),(#1027,#1029)),.UNSPECIFIED.,.F.,.F.,.U.,(2,2),(2,2),(0.0,3.0),(0.0,0.600000000000002),.UNSPECIFIED.);
#1031=ORIENTED_EDGE('',*,*,#997,.T.);
#1032=CARTESIAN_POINT('',(1.55,-1.5,1.1));
#1033=DIRECTION('',(0.0,1.0,0.0));
#1034=VECTOR('',#1033,3.0);
#1035=LINE('',#1032,#1034);
#1036=EDGE_CURVE('',#889,#983,#1035,.T.);
#1037=ORIENTED_EDGE('',*,*,#1036,.F.);
#1038=ORIENTED_EDGE('',*,*,#908,.T.);
#1039=ORIENTED_EDGE('',*,*,#951,.T.);
#1040=EDGE_LOOP('',(#1031,#1037,#1038,#1039));
#1041=FACE_OUTER_BOUND('',#1040,.T.);
#1042=ADVANCED_FACE('',(#1041),#1030,.T.);
#1043=CARTESIAN_POINT('',(1.55,-1.6,1.1));
#1044=CARTESIAN_POINT('',(1.55,-1.6,-2.220446E-016));
#1045=CARTESIAN_POINT('',(1.549999999999999,1.6,1.1));
#1046=CARTESIAN_POINT('',(1.549999999999999,1.6,-2.220446E-016));
#1047=B_SPLINE_SURFACE_WITH_KNOTS('',1,1,((#1043,#1045),(#1044,#1046)),.UNSPECIFIED.,.F.,.F.,.U.,(2,2),(2,2),(0.0,1.1),(0.0,3.2),.UNSPECIFIED.);
#1048=ORIENTED_EDGE('',*,*,#799,.T.);
#1049=CARTESIAN_POINT('',(1.549999999999999,1.5,-3.122502E-016));
#1050=DIRECTION('',(0.0,-1.0,0.0));
#1051=VECTOR('',#1050,3.0);
#1052=LINE('',#1049,#1051);
#1053=EDGE_CURVE('',#793,#738,#1052,.T.);
#1054=ORIENTED_EDGE('',*,*,#1053,.T.);
#1055=ORIENTED_EDGE('',*,*,#746,.T.);
#1056=CARTESIAN_POINT('',(1.549999999999999,-1.6,1.0));
#1057=DIRECTION('',(0.0,0.0,-1.0));
#1058=VECTOR('',#1057,0.9);
#1059=LINE('',#1056,#1058);
#1060=EDGE_CURVE('',#887,#740,#1059,.T.);
#1061=ORIENTED_EDGE('',*,*,#1060,.F.);
#1062=ORIENTED_EDGE('',*,*,#895,.T.);
#1063=ORIENTED_EDGE('',*,*,#1036,.T.);
#1064=ORIENTED_EDGE('',*,*,#991,.T.);
#1065=ORIENTED_EDGE('',*,*,#1019,.T.);
#1066=EDGE_LOOP('',(#1048,#1054,#1055,#1061,#1062,#1063,#1064,#1065));
#1067=FACE_OUTER_BOUND('',#1066,.T.);
#1068=ADVANCED_FACE('',(#1067),#1047,.F.);
#1069=CARTESIAN_POINT('',(2.25,-1.5,0.1));
#1070=CARTESIAN_POINT('',(2.25,-1.5,1.0));
#1071=CARTESIAN_POINT('',(2.249999999999999,1.5,0.1));
#1072=CARTESIAN_POINT('',(2.249999999999999,1.5,1.0));
#1073=B_SPLINE_SURFACE_WITH_KNOTS('',1,1,((#1069,#1071),(#1070,#1072)),.UNSPECIFIED.,.F.,.F.,.U.,(2,2),(2,2),(0.0,0.9),(0.0,3.0),.UNSPECIFIED.);
#1074=ORIENTED_EDGE('',*,*,#656,.T.);
#1075=ORIENTED_EDGE('',*,*,#855,.T.);
#1076=ORIENTED_EDGE('',*,*,#944,.T.);
#1077=ORIENTED_EDGE('',*,*,#699,.T.);
#1078=EDGE_LOOP('',(#1074,#1075,#1076,#1077));
#1079=FACE_OUTER_BOUND('',#1078,.T.);
#1080=ADVANCED_FACE('',(#1079),#1073,.F.);
#1081=CARTESIAN_POINT('',(1.549999999999998,1.5,-3.122502E-016));
#1082=CARTESIAN_POINT('',(1.549999999999999,-1.5,-3.122502E-016));
#1083=CARTESIAN_POINT('',(2.15,1.5,-3.122502E-016));
#1084=CARTESIAN_POINT('',(2.15,-1.5,-3.122502E-016));
#1085=B_SPLINE_SURFACE_WITH_KNOTS('',1,1,((#1081,#1083),(#1082,#1084)),.UNSPECIFIED.,.F.,.F.,.U.,(2,2),(2,2),(0.0,3.0),(0.0,0.600000000000002),.UNSPECIFIED.);
#1086=ORIENTED_EDGE('',*,*,#812,.T.);
#1087=ORIENTED_EDGE('',*,*,#663,.T.);
#1088=ORIENTED_EDGE('',*,*,#752,.T.);
#1089=ORIENTED_EDGE('',*,*,#1053,.F.);
#1090=EDGE_LOOP('',(#1086,#1087,#1088,#1089));
#1091=FACE_OUTER_BOUND('',#1090,.T.);
#1092=ADVANCED_FACE('',(#1091),#1085,.F.);
#1093=CARTESIAN_POINT('',(1.549999999999999,-1.6,0.1));
#1094=CARTESIAN_POINT('',(1.549999999999999,-1.6,1.0));
#1095=CARTESIAN_POINT('',(2.15,-1.6,0.1));
#1096=CARTESIAN_POINT('',(2.15,-1.6,1.0));
#1097=B_SPLINE_SURFACE_WITH_KNOTS('',1,1,((#1093,#1095),(#1094,#1096)),.UNSPECIFIED.,.F.,.F.,.U.,(2,2),(2,2),(0.0,0.9),(0.0,0.600000000000001),.UNSPECIFIED.);
#1098=ORIENTED_EDGE('',*,*,#759,.T.);
#1099=ORIENTED_EDGE('',*,*,#706,.T.);
#1100=ORIENTED_EDGE('',*,*,#901,.T.);
#1101=ORIENTED_EDGE('',*,*,#1060,.T.);
#1102=EDGE_LOOP('',(#1098,#1099,#1100,#1101));
#1103=FACE_OUTER_BOUND('',#1102,.T.);
#1104=ADVANCED_FACE('',(#1103),#1097,.F.);
#1105=CLOSED_SHELL('',(#429,#494,#559,#624,#667,#710,#763,#816,#859,#912,#955,#1008,#1025,#1042,#1068,#1080,#1092,#1104));
#1106=MANIFOLD_SOLID_BREP('5B7',#1105);
#1107=COLOUR_RGB('254',0.866,0.866,0.866);
#1108=SURFACE_STYLE_USAGE(.BOTH.,#1109);
#1109=SURFACE_SIDE_STYLE('NONE',(#1110));
#1110=SURFACE_STYLE_FILL_AREA(#1111);
#1111=FILL_AREA_STYLE('NONE',(#1112));
#1112=FILL_AREA_STYLE_COLOUR('NONE',#1107);
#1113=PRESENTATION_STYLE_ASSIGNMENT((#1108));
#1114=STYLED_ITEM('NONE',(#1113),#1106);
#1115=CARTESIAN_POINT('',(-2.149999999999998,1.5,1.0));
#1116=DIRECTION('',(0.0,0.0,1.0));
#1117=DIRECTION('',(1.0,0.0,0.0));
#1118=AXIS2_PLACEMENT_3D('',#1115,#1116,#1117);
#1119=SPHERICAL_SURFACE('',#1118,0.1);
#1120=CARTESIAN_POINT('',(-2.149999999999998,1.5,1.1));
#1121=VERTEX_POINT('',#1120);
#1122=CARTESIAN_POINT('',(-2.149999999999998,1.6,1.0));
#1123=VERTEX_POINT('',#1122);
#1124=CARTESIAN_POINT('',(-2.149999999999998,1.5,1.0));
#1125=DIRECTION('',(-1.0,0.0,0.0));
#1126=DIRECTION('',(0.0,0.707106781186546,0.707106781186549));
#1127=AXIS2_PLACEMENT_3D('',#1124,#1125,#1126);
#1128=CIRCLE('',#1127,0.1);
#1129=EDGE_CURVE('',#1121,#1123,#1128,.T.);
#1130=ORIENTED_EDGE('',*,*,#1129,.T.);
#1131=CARTESIAN_POINT('',(-2.249999999999998,1.5,1.0));
#1132=VERTEX_POINT('',#1131);
#1133=CARTESIAN_POINT('',(-2.149999999999998,1.5,1.0));
#1134=DIRECTION('',(0.0,0.0,1.0));
#1135=DIRECTION('',(-1.0,0.0,0.0));
#1136=AXIS2_PLACEMENT_3D('',#1133,#1134,#1135);
#1137=CIRCLE('',#1136,0.1);
#1138=EDGE_CURVE('',#1132,#1123,#1137,.F.);
#1139=ORIENTED_EDGE('',*,*,#1138,.F.);
#1140=CARTESIAN_POINT('',(-2.149999999999998,1.5,1.0));
#1141=DIRECTION('',(0.0,1.0,0.0));
#1142=DIRECTION('',(-0.707106781186547,0.0,0.707106781186547));
#1143=AXIS2_PLACEMENT_3D('',#1140,#1141,#1142);
#1144=CIRCLE('',#1143,0.1);
#1145=EDGE_CURVE('',#1132,#1121,#1144,.T.);
#1146=ORIENTED_EDGE('',*,*,#1145,.T.);
#1147=EDGE_LOOP('',(#1130,#1139,#1146));
#1148=FACE_OUTER_BOUND('',#1147,.T.);
#1149=ADVANCED_FACE('',(#1148),#1119,.T.);
#1150=CARTESIAN_POINT('',(-2.149999999999999,-1.5,1.0));
#1151=DIRECTION('',(0.0,0.0,1.0));
#1152=DIRECTION('',(1.0,0.0,0.0));
#1153=AXIS2_PLACEMENT_3D('',#1150,#1151,#1152);
#1154=SPHERICAL_SURFACE('',#1153,0.1);
#1155=CARTESIAN_POINT('',(-2.149999999999999,-1.5,1.1));
#1156=VERTEX_POINT('',#1155);
#1157=CARTESIAN_POINT('',(-2.249999999999999,-1.5,1.0));
#1158=VERTEX_POINT('',#1157);
#1159=CARTESIAN_POINT('',(-2.149999999999999,-1.5,1.0));
#1160=DIRECTION('',(0.0,-1.0,0.0));
#1161=DIRECTION('',(-0.707106781186547,0.0,0.707106781186547));
#1162=AXIS2_PLACEMENT_3D('',#1159,#1160,#1161);
#1163=CIRCLE('',#1162,0.1);
#1164=EDGE_CURVE('',#1156,#1158,#1163,.T.);
#1165=ORIENTED_EDGE('',*,*,#1164,.T.);
#1166=CARTESIAN_POINT('',(-2.149999999999999,-1.6,1.0));
#1167=VERTEX_POINT('',#1166);
#1168=CARTESIAN_POINT('',(-2.149999999999999,-1.5,1.0));
#1169=DIRECTION('',(0.0,0.0,1.0));
#1170=DIRECTION('',(0.0,-1.0,0.0));
#1171=AXIS2_PLACEMENT_3D('',#1168,#1169,#1170);
#1172=CIRCLE('',#1171,0.1);
#1173=EDGE_CURVE('',#1167,#1158,#1172,.F.);
#1174=ORIENTED_EDGE('',*,*,#1173,.F.);
#1175=CARTESIAN_POINT('',(-2.149999999999999,-1.5,1.0));
#1176=DIRECTION('',(-1.0,0.0,0.0));
#1177=DIRECTION('',(0.0,-0.707106781186547,0.707106781186547));
#1178=AXIS2_PLACEMENT_3D('',#1175,#1176,#1177);
#1179=CIRCLE('',#1178,0.1);
#1180=EDGE_CURVE('',#1167,#1156,#1179,.T.);
#1181=ORIENTED_EDGE('',*,*,#1180,.T.);
#1182=EDGE_LOOP('',(#1165,#1174,#1181));
#1183=FACE_OUTER_BOUND('',#1182,.T.);
#1184=ADVANCED_FACE('',(#1183),#1154,.T.);
#1185=CARTESIAN_POINT('',(-2.149999999999998,1.5,0.1));
#1186=DIRECTION('',(0.0,0.0,1.0));
#1187=DIRECTION('',(1.0,0.0,0.0));
#1188=AXIS2_PLACEMENT_3D('',#1185,#1186,#1187);
#1189=SPHERICAL_SURFACE('',#1188,0.1);
#1190=CARTESIAN_POINT('',(-2.149999999999998,1.6,0.1));
#1191=VERTEX_POINT('',#1190);
#1192=CARTESIAN_POINT('',(-2.149999999999998,1.5,-3.122502E-016));
#1193=VERTEX_POINT('',#1192);
#1194=CARTESIAN_POINT('',(-2.149999999999998,1.5,0.1));
#1195=DIRECTION('',(-1.0,0.0,0.0));
#1196=DIRECTION('',(0.0,0.707106781186546,-0.707106781186549));
#1197=AXIS2_PLACEMENT_3D('',#1194,#1195,#1196);
#1198=CIRCLE('',#1197,0.1);
#1199=EDGE_CURVE('',#1191,#1193,#1198,.T.);
#1200=ORIENTED_EDGE('',*,*,#1199,.T.);
#1201=CARTESIAN_POINT('',(-2.249999999999998,1.5,0.1));
#1202=VERTEX_POINT('',#1201);
#1203=CARTESIAN_POINT('',(-2.149999999999998,1.5,0.1));
#1204=DIRECTION('',(0.0,1.0,0.0));
#1205=DIRECTION('',(-1.0,0.0,0.0));
#1206=AXIS2_PLACEMENT_3D('',#1203,#1204,#1205);
#1207=CIRCLE('',#1206,0.1);
#1208=EDGE_CURVE('',#1202,#1193,#1207,.F.);
#1209=ORIENTED_EDGE('',*,*,#1208,.F.);
#1210=CARTESIAN_POINT('',(-2.149999999999998,1.5,0.1));
#1211=DIRECTION('',(2.775558E-016,-2.775558E-016,-1.0));
#1212=DIRECTION('',(-0.707106781186549,0.707106781186546,-3.925231E-016));
#1213=AXIS2_PLACEMENT_3D('',#1210,#1211,#1212);
#1214=CIRCLE('',#1213,0.1);
#1215=EDGE_CURVE('',#1202,#1191,#1214,.T.);
#1216=ORIENTED_EDGE('',*,*,#1215,.T.);
#1217=EDGE_LOOP('',(#1200,#1209,#1216));
#1218=FACE_OUTER_BOUND('',#1217,.T.);
#1219=ADVANCED_FACE('',(#1218),#1189,.T.);
#1220=CARTESIAN_POINT('',(-2.149999999999999,-1.5,0.1));
#1221=DIRECTION('',(0.0,0.0,1.0));
#1222=DIRECTION('',(1.0,0.0,0.0));
#1223=AXIS2_PLACEMENT_3D('',#1220,#1221,#1222);
#1224=SPHERICAL_SURFACE('',#1223,0.1);
#1225=CARTESIAN_POINT('',(-2.149999999999999,-1.6,0.1));
#1226=VERTEX_POINT('',#1225);
#1227=CARTESIAN_POINT('',(-2.249999999999999,-1.5,0.1));
#1228=VERTEX_POINT('',#1227);
#1229=CARTESIAN_POINT('',(-2.149999999999999,-1.5,0.1));
#1230=DIRECTION('',(2.775558E-016,2.775558E-016,-1.0));
#1231=DIRECTION('',(-0.707106781186548,-0.707106781186547,-3.925231E-016));
#1232=AXIS2_PLACEMENT_3D('',#1229,#1230,#1231);
#1233=CIRCLE('',#1232,0.1);
#1234=EDGE_CURVE('',#1226,#1228,#1233,.T.);
#1235=ORIENTED_EDGE('',*,*,#1234,.T.);
#1236=CARTESIAN_POINT('',(-2.149999999999999,-1.5,-3.122502E-016));
#1237=VERTEX_POINT('',#1236);
#1238=CARTESIAN_POINT('',(-2.149999999999999,-1.5,0.1));
#1239=DIRECTION('',(0.0,-1.0,0.0));
#1240=DIRECTION('',(0.0,0.0,-1.0));
#1241=AXIS2_PLACEMENT_3D('',#1238,#1239,#1240);
#1242=CIRCLE('',#1241,0.1);
#1243=EDGE_CURVE('',#1237,#1228,#1242,.F.);
#1244=ORIENTED_EDGE('',*,*,#1243,.F.);
#1245=CARTESIAN_POINT('',(-2.149999999999999,-1.5,0.1));
#1246=DIRECTION('',(-1.0,0.0,0.0));
#1247=DIRECTION('',(0.0,-0.707106781186548,-0.707106781186547));
#1248=AXIS2_PLACEMENT_3D('',#1245,#1246,#1247);
#1249=CIRCLE('',#1248,0.1);
#1250=EDGE_CURVE('',#1237,#1226,#1249,.T.);
#1251=ORIENTED_EDGE('',*,*,#1250,.T.);
#1252=EDGE_LOOP('',(#1235,#1244,#1251));
#1253=FACE_OUTER_BOUND('',#1252,.T.);
#1254=ADVANCED_FACE('',(#1253),#1224,.T.);
#1255=CARTESIAN_POINT('',(-2.149999999999999,0.0,0.1));
#1256=DIRECTION('',(2.220446E-016,1.0,0.0));
#1257=DIRECTION('',(-0.707106781186547,0.0,-0.707106781186548));
#1258=AXIS2_PLACEMENT_3D('',#1255,#1256,#1257);
#1259=CYLINDRICAL_SURFACE('',#1258,0.1);
#1260=ORIENTED_EDGE('',*,*,#1208,.T.);
#1261=CARTESIAN_POINT('',(-2.149999999999998,1.5,-3.122502E-016));
#1262=DIRECTION('',(0.0,-1.0,0.0));
#1263=VECTOR('',#1262,3.0);
#1264=LINE('',#1261,#1263);
#1265=EDGE_CURVE('',#1193,#1237,#1264,.T.);
#1266=ORIENTED_EDGE('',*,*,#1265,.T.);
#1267=ORIENTED_EDGE('',*,*,#1243,.T.);
#1268=CARTESIAN_POINT('',(-2.249999999999999,-1.5,0.1));
#1269=DIRECTION('',(0.0,1.0,0.0));
#1270=VECTOR('',#1269,3.0);
#1271=LINE('',#1268,#1270);
#1272=EDGE_CURVE('',#1228,#1202,#1271,.T.);
#1273=ORIENTED_EDGE('',*,*,#1272,.T.);
#1274=EDGE_LOOP('',(#1260,#1266,#1267,#1273));
#1275=FACE_OUTER_BOUND('',#1274,.T.);
#1276=ADVANCED_FACE('',(#1275),#1259,.T.);
#1277=CARTESIAN_POINT('',(-2.149999999999999,-1.5,0.925));
#1278=DIRECTION('',(0.0,0.0,-1.0));
#1279=DIRECTION('',(-0.707106781186548,-0.707106781186547,0.0));
#1280=AXIS2_PLACEMENT_3D('',#1277,#1278,#1279);
#1281=CYLINDRICAL_SURFACE('',#1280,0.1);
#1282=ORIENTED_EDGE('',*,*,#1234,.F.);
#1283=CARTESIAN_POINT('',(-2.149999999999999,-1.6,0.1));
#1284=DIRECTION('',(0.0,0.0,1.0));
#1285=VECTOR('',#1284,0.9);
#1286=LINE('',#1283,#1285);
#1287=EDGE_CURVE('',#1226,#1167,#1286,.T.);
#1288=ORIENTED_EDGE('',*,*,#1287,.T.);
#1289=ORIENTED_EDGE('',*,*,#1173,.T.);
#1290=CARTESIAN_POINT('',(-2.249999999999999,-1.5,1.0));
#1291=DIRECTION('',(0.0,0.0,-1.0));
#1292=VECTOR('',#1291,0.9);
#1293=LINE('',#1290,#1292);
#1294=EDGE_CURVE('',#1158,#1228,#1293,.T.);
#1295=ORIENTED_EDGE('',*,*,#1294,.T.);
#1296=EDGE_LOOP('',(#1282,#1288,#1289,#1295));
#1297=FACE_OUTER_BOUND('',#1296,.T.);
#1298=ADVANCED_FACE('',(#1297),#1281,.T.);
#1299=CARTESIAN_POINT('',(-1.899999999999999,-1.5,0.1));
#1300=DIRECTION('',(-1.0,2.220446E-016,0.0));
#1301=DIRECTION('',(0.0,-0.707106781186547,-0.707106781186548));
#1302=AXIS2_PLACEMENT_3D('',#1299,#1300,#1301);
#1303=CYLINDRICAL_SURFACE('',#1302,0.1);
#1304=CARTESIAN_POINT('',(-1.549999999999999,-1.5,-3.122502E-016));
#1305=VERTEX_POINT('',#1304);
#1306=CARTESIAN_POINT('',(-1.549999999999999,-1.6,0.1));
#1307=VERTEX_POINT('',#1306);
#1308=CARTESIAN_POINT('',(-1.549999999999999,-1.5,0.1));
#1309=DIRECTION('',(-1.0,0.0,0.0));
#1310=DIRECTION('',(0.0,-0.707106781186547,-0.707106781186548));
#1311=AXIS2_PLACEMENT_3D('',#1308,#1309,#1310);
#1312=CIRCLE('',#1311,0.1);
#1313=EDGE_CURVE('',#1305,#1307,#1312,.T.);
#1314=ORIENTED_EDGE('',*,*,#1313,.T.);
#1315=CARTESIAN_POINT('',(-1.549999999999999,-1.6,0.1));
#1316=DIRECTION('',(-1.0,0.0,0.0));
#1317=VECTOR('',#1316,0.6);
#1318=LINE('',#1315,#1317);
#1319=EDGE_CURVE('',#1307,#1226,#1318,.T.);
#1320=ORIENTED_EDGE('',*,*,#1319,.T.);
#1321=ORIENTED_EDGE('',*,*,#1250,.F.);
#1322=CARTESIAN_POINT('',(-2.149999999999999,-1.5,-3.122502E-016));
#1323=DIRECTION('',(1.0,0.0,0.0));
#1324=VECTOR('',#1323,0.6);
#1325=LINE('',#1322,#1324);
#1326=EDGE_CURVE('',#1237,#1305,#1325,.T.);
#1327=ORIENTED_EDGE('',*,*,#1326,.T.);
#1328=EDGE_LOOP('',(#1314,#1320,#1321,#1327));
#1329=FACE_OUTER_BOUND('',#1328,.T.);
#1330=ADVANCED_FACE('',(#1329),#1303,.T.);
#1331=CARTESIAN_POINT('',(-1.899999999999998,1.5,0.1));
#1332=DIRECTION('',(1.0,-2.220446E-016,0.0));
#1333=DIRECTION('',(0.0,0.707106781186546,-0.707106781186549));
#1334=AXIS2_PLACEMENT_3D('',#1331,#1332,#1333);
#1335=CYLINDRICAL_SURFACE('',#1334,0.1);
#1336=CARTESIAN_POINT('',(-1.549999999999998,1.6,0.1));
#1337=VERTEX_POINT('',#1336);
#1338=CARTESIAN_POINT('',(-1.549999999999999,1.5,-3.122502E-016));
#1339=VERTEX_POINT('',#1338);
#1340=CARTESIAN_POINT('',(-1.549999999999999,1.5,0.1));
#1341=DIRECTION('',(-1.0,0.0,0.0));
#1342=DIRECTION('',(0.0,0.707106781186546,-0.707106781186549));
#1343=AXIS2_PLACEMENT_3D('',#1340,#1341,#1342);
#1344=CIRCLE('',#1343,0.1);
#1345=EDGE_CURVE('',#1337,#1339,#1344,.T.);
#1346=ORIENTED_EDGE('',*,*,#1345,.T.);
#1347=CARTESIAN_POINT('',(-1.549999999999999,1.5,-3.122502E-016));
#1348=DIRECTION('',(-1.0,0.0,0.0));
#1349=VECTOR('',#1348,0.6);
#1350=LINE('',#1347,#1349);
#1351=EDGE_CURVE('',#1339,#1193,#1350,.T.);
#1352=ORIENTED_EDGE('',*,*,#1351,.T.);
#1353=ORIENTED_EDGE('',*,*,#1199,.F.);
#1354=CARTESIAN_POINT('',(-2.149999999999998,1.6,0.1));
#1355=DIRECTION('',(1.0,0.0,0.0));
#1356=VECTOR('',#1355,0.6);
#1357=LINE('',#1354,#1356);
#1358=EDGE_CURVE('',#1191,#1337,#1357,.T.);
#1359=ORIENTED_EDGE('',*,*,#1358,.T.);
#1360=EDGE_LOOP('',(#1346,#1352,#1353,#1359));
#1361=FACE_OUTER_BOUND('',#1360,.T.);
#1362=ADVANCED_FACE('',(#1361),#1335,.T.);
#1363=CARTESIAN_POINT('',(-2.149999999999998,1.5,0.925));
#1364=DIRECTION('',(0.0,0.0,-1.0));
#1365=DIRECTION('',(-0.707106781186549,0.707106781186546,0.0));
#1366=AXIS2_PLACEMENT_3D('',#1363,#1364,#1365);
#1367=CYLINDRICAL_SURFACE('',#1366,0.1);
#1368=ORIENTED_EDGE('',*,*,#1215,.F.);
#1369=CARTESIAN_POINT('',(-2.249999999999998,1.5,0.1));
#1370=DIRECTION('',(0.0,0.0,1.0));
#1371=VECTOR('',#1370,0.9);
#1372=LINE('',#1369,#1371);
#1373=EDGE_CURVE('',#1202,#1132,#1372,.T.);
#1374=ORIENTED_EDGE('',*,*,#1373,.T.);
#1375=ORIENTED_EDGE('',*,*,#1138,.T.);
#1376=CARTESIAN_POINT('',(-2.149999999999998,1.6,1.0));
#1377=DIRECTION('',(0.0,0.0,-1.0));
#1378=VECTOR('',#1377,0.9);
#1379=LINE('',#1376,#1378);
#1380=EDGE_CURVE('',#1123,#1191,#1379,.T.);
#1381=ORIENTED_EDGE('',*,*,#1380,.T.);
#1382=EDGE_LOOP('',(#1368,#1374,#1375,#1381));
#1383=FACE_OUTER_BOUND('',#1382,.T.);
#1384=ADVANCED_FACE('',(#1383),#1367,.T.);
#1385=CARTESIAN_POINT('',(-1.899999999999999,-1.5,1.0));
#1386=DIRECTION('',(1.0,-2.220446E-016,0.0));
#1387=DIRECTION('',(0.0,-0.707106781186547,0.707106781186548));
#1388=AXIS2_PLACEMENT_3D('',#1385,#1386,#1387);
#1389=CYLINDRICAL_SURFACE('',#1388,0.1);
#1390=CARTESIAN_POINT('',(-1.549999999999999,-1.6,1.0));
#1391=VERTEX_POINT('',#1390);
#1392=CARTESIAN_POINT('',(-1.549999999999999,-1.5,1.1));
#1393=VERTEX_POINT('',#1392);
#1394=CARTESIAN_POINT('',(-1.549999999999999,-1.5,1.0));
#1395=DIRECTION('',(-1.0,0.0,0.0));
#1396=DIRECTION('',(0.0,-0.707106781186547,0.707106781186548));
#1397=AXIS2_PLACEMENT_3D('',#1394,#1395,#1396);
#1398=CIRCLE('',#1397,0.1);
#1399=EDGE_CURVE('',#1391,#1393,#1398,.T.);
#1400=ORIENTED_EDGE('',*,*,#1399,.T.);
#1401=CARTESIAN_POINT('',(-1.549999999999999,-1.5,1.1));
#1402=DIRECTION('',(-1.0,0.0,0.0));
#1403=VECTOR('',#1402,0.6);
#1404=LINE('',#1401,#1403);
#1405=EDGE_CURVE('',#1393,#1156,#1404,.T.);
#1406=ORIENTED_EDGE('',*,*,#1405,.T.);
#1407=ORIENTED_EDGE('',*,*,#1180,.F.);
#1408=CARTESIAN_POINT('',(-2.149999999999999,-1.6,1.0));
#1409=DIRECTION('',(1.0,0.0,0.0));
#1410=VECTOR('',#1409,0.6);
#1411=LINE('',#1408,#1410);
#1412=EDGE_CURVE('',#1167,#1391,#1411,.T.);
#1413=ORIENTED_EDGE('',*,*,#1412,.T.);
#1414=EDGE_LOOP('',(#1400,#1406,#1407,#1413));
#1415=FACE_OUTER_BOUND('',#1414,.T.);
#1416=ADVANCED_FACE('',(#1415),#1389,.T.);
#1417=CARTESIAN_POINT('',(-2.149999999999999,0.0,1.0));
#1418=DIRECTION('',(-2.220446E-016,-1.0,0.0));
#1419=DIRECTION('',(-0.707106781186547,0.0,0.707106781186548));
#1420=AXIS2_PLACEMENT_3D('',#1417,#1418,#1419);
#1421=CYLINDRICAL_SURFACE('',#1420,0.1);
#1422=ORIENTED_EDGE('',*,*,#1164,.F.);
#1423=CARTESIAN_POINT('',(-2.149999999999999,-1.5,1.1));
#1424=DIRECTION('',(0.0,1.0,0.0));
#1425=VECTOR('',#1424,3.0);
#1426=LINE('',#1423,#1425);
#1427=EDGE_CURVE('',#1156,#1121,#1426,.T.);
#1428=ORIENTED_EDGE('',*,*,#1427,.T.);
#1429=ORIENTED_EDGE('',*,*,#1145,.F.);
#1430=CARTESIAN_POINT('',(-2.249999999999998,1.5,1.0));
#1431=DIRECTION('',(0.0,-1.0,0.0));
#1432=VECTOR('',#1431,3.0);
#1433=LINE('',#1430,#1432);
#1434=EDGE_CURVE('',#1132,#1158,#1433,.T.);
#1435=ORIENTED_EDGE('',*,*,#1434,.T.);
#1436=EDGE_LOOP('',(#1422,#1428,#1429,#1435));
#1437=FACE_OUTER_BOUND('',#1436,.T.);
#1438=ADVANCED_FACE('',(#1437),#1421,.T.);
#1439=CARTESIAN_POINT('',(-1.899999999999998,1.5,1.0));
#1440=DIRECTION('',(-1.0,2.220446E-016,0.0));
#1441=DIRECTION('',(0.0,0.707106781186546,0.707106781186549));
#1442=AXIS2_PLACEMENT_3D('',#1439,#1440,#1441);
#1443=CYLINDRICAL_SURFACE('',#1442,0.1);
#1444=CARTESIAN_POINT('',(-1.549999999999999,1.5,1.1));
#1445=VERTEX_POINT('',#1444);
#1446=CARTESIAN_POINT('',(-1.549999999999998,1.6,1.0));
#1447=VERTEX_POINT('',#1446);
#1448=CARTESIAN_POINT('',(-1.549999999999999,1.5,1.0));
#1449=DIRECTION('',(-1.0,0.0,0.0));
#1450=DIRECTION('',(0.0,0.707106781186546,0.707106781186549));
#1451=AXIS2_PLACEMENT_3D('',#1448,#1449,#1450);
#1452=CIRCLE('',#1451,0.1);
#1453=EDGE_CURVE('',#1445,#1447,#1452,.T.);
#1454=ORIENTED_EDGE('',*,*,#1453,.T.);
#1455=CARTESIAN_POINT('',(-1.549999999999998,1.6,1.0));
#1456=DIRECTION('',(-1.0,0.0,0.0));
#1457=VECTOR('',#1456,0.6);
#1458=LINE('',#1455,#1457);
#1459=EDGE_CURVE('',#1447,#1123,#1458,.T.);
#1460=ORIENTED_EDGE('',*,*,#1459,.T.);
#1461=ORIENTED_EDGE('',*,*,#1129,.F.);
#1462=CARTESIAN_POINT('',(-2.149999999999998,1.5,1.1));
#1463=DIRECTION('',(1.0,0.0,0.0));
#1464=VECTOR('',#1463,0.6);
#1465=LINE('',#1462,#1464);
#1466=EDGE_CURVE('',#1121,#1445,#1465,.T.);
#1467=ORIENTED_EDGE('',*,*,#1466,.T.);
#1468=EDGE_LOOP('',(#1454,#1460,#1461,#1467));
#1469=FACE_OUTER_BOUND('',#1468,.T.);
#1470=ADVANCED_FACE('',(#1469),#1443,.T.);
#1471=CARTESIAN_POINT('',(-1.899999999999998,1.6,0.925));
#1472=DIRECTION('',(0.0,-1.0,0.0));
#1473=DIRECTION('',(0.0,0.0,-1.0));
#1474=AXIS2_PLACEMENT_3D('',#1471,#1472,#1473);
#1475=PLANE('',#1474);
#1476=ORIENTED_EDGE('',*,*,#1358,.F.);
#1477=ORIENTED_EDGE('',*,*,#1380,.F.);
#1478=ORIENTED_EDGE('',*,*,#1459,.F.);
#1479=CARTESIAN_POINT('',(-1.549999999999998,1.6,1.0));
#1480=DIRECTION('',(0.0,0.0,-1.0));
#1481=VECTOR('',#1480,0.9);
#1482=LINE('',#1479,#1481);
#1483=EDGE_CURVE('',#1447,#1337,#1482,.T.);
#1484=ORIENTED_EDGE('',*,*,#1483,.T.);
#1485=EDGE_LOOP('',(#1476,#1477,#1478,#1484));
#1486=FACE_OUTER_BOUND('',#1485,.T.);
#1487=ADVANCED_FACE('',(#1486),#1475,.F.);
#1488=CARTESIAN_POINT('',(-1.899999999999999,0.0,1.1));
#1489=DIRECTION('',(0.0,0.0,1.0));
#1490=DIRECTION('',(0.0,-1.0,0.0));
#1491=AXIS2_PLACEMENT_3D('',#1488,#1489,#1490);
#1492=PLANE('',#1491);
#1493=ORIENTED_EDGE('',*,*,#1466,.F.);
#1494=ORIENTED_EDGE('',*,*,#1427,.F.);
#1495=ORIENTED_EDGE('',*,*,#1405,.F.);
#1496=CARTESIAN_POINT('',(-1.549999999999999,-1.5,1.1));
#1497=DIRECTION('',(0.0,1.0,0.0));
#1498=VECTOR('',#1497,3.0);
#1499=LINE('',#1496,#1498);
#1500=EDGE_CURVE('',#1393,#1445,#1499,.T.);
#1501=ORIENTED_EDGE('',*,*,#1500,.T.);
#1502=EDGE_LOOP('',(#1493,#1494,#1495,#1501));
#1503=FACE_OUTER_BOUND('',#1502,.T.);
#1504=ADVANCED_FACE('',(#1503),#1492,.T.);
#1505=CARTESIAN_POINT('',(-1.549999999999999,0.0,0.925));
#1506=DIRECTION('',(-1.0,0.0,0.0));
#1507=DIRECTION('',(0.0,0.0,-1.0));
#1508=AXIS2_PLACEMENT_3D('',#1505,#1506,#1507);
#1509=PLANE('',#1508);
#1510=ORIENTED_EDGE('',*,*,#1345,.F.);
#1511=ORIENTED_EDGE('',*,*,#1483,.F.);
#1512=ORIENTED_EDGE('',*,*,#1453,.F.);
#1513=ORIENTED_EDGE('',*,*,#1500,.F.);
#1514=ORIENTED_EDGE('',*,*,#1399,.F.);
#1515=CARTESIAN_POINT('',(-1.549999999999999,-1.6,1.0));
#1516=DIRECTION('',(0.0,0.0,-1.0));
#1517=VECTOR('',#1516,0.9);
#1518=LINE('',#1515,#1517);
#1519=EDGE_CURVE('',#1391,#1307,#1518,.T.);
#1520=ORIENTED_EDGE('',*,*,#1519,.T.);
#1521=ORIENTED_EDGE('',*,*,#1313,.F.);
#1522=CARTESIAN_POINT('',(-1.549999999999999,1.5,-3.122502E-016));
#1523=DIRECTION('',(0.0,-1.0,0.0));
#1524=VECTOR('',#1523,3.0);
#1525=LINE('',#1522,#1524);
#1526=EDGE_CURVE('',#1339,#1305,#1525,.T.);
#1527=ORIENTED_EDGE('',*,*,#1526,.F.);
#1528=EDGE_LOOP('',(#1510,#1511,#1512,#1513,#1514,#1520,#1521,#1527));
#1529=FACE_OUTER_BOUND('',#1528,.T.);
#1530=ADVANCED_FACE('',(#1529),#1509,.F.);
#1531=CARTESIAN_POINT('',(-2.249999999999998,0.0,0.925));
#1532=DIRECTION('',(1.0,0.0,0.0));
#1533=DIRECTION('',(0.0,0.0,1.0));
#1534=AXIS2_PLACEMENT_3D('',#1531,#1532,#1533);
#1535=PLANE('',#1534);
#1536=ORIENTED_EDGE('',*,*,#1272,.F.);
#1537=ORIENTED_EDGE('',*,*,#1294,.F.);
#1538=ORIENTED_EDGE('',*,*,#1434,.F.);
#1539=ORIENTED_EDGE('',*,*,#1373,.F.);
#1540=EDGE_LOOP('',(#1536,#1537,#1538,#1539));
#1541=FACE_OUTER_BOUND('',#1540,.T.);
#1542=ADVANCED_FACE('',(#1541),#1535,.F.);
#1543=CARTESIAN_POINT('',(-1.899999999999999,0.0,-3.122502E-016));
#1544=DIRECTION('',(0.0,0.0,1.0));
#1545=DIRECTION('',(0.0,-1.0,0.0));
#1546=AXIS2_PLACEMENT_3D('',#1543,#1544,#1545);
#1547=PLANE('',#1546);
#1548=ORIENTED_EDGE('',*,*,#1351,.F.);
#1549=ORIENTED_EDGE('',*,*,#1526,.T.);
#1550=ORIENTED_EDGE('',*,*,#1326,.F.);
#1551=ORIENTED_EDGE('',*,*,#1265,.F.);
#1552=EDGE_LOOP('',(#1548,#1549,#1550,#1551));
#1553=FACE_OUTER_BOUND('',#1552,.T.);
#1554=ADVANCED_FACE('',(#1553),#1547,.F.);
#1555=CARTESIAN_POINT('',(-1.899999999999999,-1.6,0.925));
#1556=DIRECTION('',(0.0,1.0,0.0));
#1557=DIRECTION('',(0.0,0.0,1.0));
#1558=AXIS2_PLACEMENT_3D('',#1555,#1556,#1557);
#1559=PLANE('',#1558);
#1560=ORIENTED_EDGE('',*,*,#1319,.F.);
#1561=ORIENTED_EDGE('',*,*,#1519,.F.);
#1562=ORIENTED_EDGE('',*,*,#1412,.F.);
#1563=ORIENTED_EDGE('',*,*,#1287,.F.);
#1564=EDGE_LOOP('',(#1560,#1561,#1562,#1563));
#1565=FACE_OUTER_BOUND('',#1564,.T.);
#1566=ADVANCED_FACE('',(#1565),#1559,.F.);
#1567=CLOSED_SHELL('',(#1149,#1184,#1219,#1254,#1276,#1298,#1330,#1362,#1384,#1416,#1438,#1470,#1487,#1504,#1530,#1542,#1554,#1566));
#1568=MANIFOLD_SOLID_BREP('5AC',#1567);
#1569=STYLED_ITEM('NONE',(#1113),#1568);
#1570=ADVANCED_BREP_SHAPE_REPRESENTATION('ABSR1',(#354,#1106,#1568),#28);
#1571=SHAPE_REPRESENTATION_RELATIONSHIP('SRRPL1','',#1570,#62);
ENDSEC;
END-ISO-10303-21;
