ISO-10303-21;
HEADER;
/****************************************************************
 * Generated by software with PDElib inside                    *
 * PDElib Version v51a, created Fri 09/10/2010                  *
 * ITI Transcendata (http://www.transcendata.com/)              *
 ****************************************************************/
FILE_DESCRIPTION((''),'2;1');
FILE_NAME('CAPC1709X95N.stp','2013-12-16T14:08:03',(''),(''),'Mechanical Desktop 2011','Mechanical Desktop 2011',', , ');
FILE_SCHEMA(('AUTOMOTIVE_DESIGN { 1 2 10303 214 1 1 1 1 }'));
ENDSEC;
DATA;
#10=(NAMED_UNIT(*)PLANE_ANGLE_UNIT()SI_UNIT($,.RADIAN.));
#11=DIMENSIONAL_EXPONENTS(0.0,0.0,0.0,0.0,0.0,0.0,0.0);
#12=PLANE_ANGLE_MEASURE_WITH_UNIT(PLANE_ANGLE_MEASURE(0.0174532925),#10);
#16=(CONVERSION_BASED_UNIT('DEGREE',#12)NAMED_UNIT(#11)PLANE_ANGLE_UNIT());
#20=(NAMED_UNIT(*)SI_UNIT($,.STERADIAN.)SOLID_ANGLE_UNIT());
#24=(LENGTH_UNIT()NAMED_UNIT(*)SI_UNIT(.MILLI.,.METRE.));
#26=UNCERTAINTY_MEASURE_WITH_UNIT(LENGTH_MEASURE(0.000001),#24,'DISTANCE_ACCURACY_VALUE','');
#28=(GEOMETRIC_REPRESENTATION_CONTEXT(3)GLOBAL_UNCERTAINTY_ASSIGNED_CONTEXT((#26))GLOBAL_UNIT_ASSIGNED_CONTEXT((#16,#20,#24))REPRESENTATION_CONTEXT('','3D'));
#29=APPLICATION_CONTEXT('automotive design');
#30=APPLICATION_PROTOCOL_DEFINITION('INTERNATIONAL_STANDARD','automotive_design',1998,#29);
#31=PRODUCT_CONTEXT('3D Mechanical Parts',#29,'mechanical');
#32=PRODUCT('Product','Product','',(#31));
#33=PRODUCT_RELATED_PRODUCT_CATEGORY('part',$,(#32));
#34=PRODUCT_CATEGORY('part',$);
#35=PERSON('1','Design','Joe',$,$,$);
#36=ORGANIZATION($,'None','None');
#37=PERSON_AND_ORGANIZATION(#35,#36);
#38=PERSON_AND_ORGANIZATION_ROLE('design_owner');
#39=APPLIED_PERSON_AND_ORGANIZATION_ASSIGNMENT(#37,#38,(#32));
#40=PRODUCT_DEFINITION_FORMATION_WITH_SPECIFIED_SOURCE('None','',#32,.BOUGHT.);
#41=PERSON('2','Creator','Joe',$,$,$);
#42=ORGANIZATION($,'None','None');
#43=PERSON_AND_ORGANIZATION(#41,#42);
#44=PERSON_AND_ORGANIZATION_ROLE('creator');
#45=APPLIED_PERSON_AND_ORGANIZATION_ASSIGNMENT(#43,#44,(#40));
#46=PERSON('3','Supplier','Joe',$,$,$);
#47=ORGANIZATION($,'None','None');
#48=PERSON_AND_ORGANIZATION(#46,#47);
#49=PERSON_AND_ORGANIZATION_ROLE('design_supplier');
#50=APPLIED_PERSON_AND_ORGANIZATION_ASSIGNMENT(#48,#49,(#40));
#51=PRODUCT_DEFINITION_CONTEXT('part definition',#29,'design');
#52=PRODUCT_DEFINITION('None','',#40,#51);
#53=PERSON('4','Creator','Joe',$,$,$);
#54=ORGANIZATION($,'None','None');
#55=PERSON_AND_ORGANIZATION(#53,#54);
#56=PERSON_AND_ORGANIZATION_ROLE('creator');
#57=APPLIED_PERSON_AND_ORGANIZATION_ASSIGNMENT(#55,#56,(#52));
#58=CARTESIAN_POINT('NONE',(0.0,0.0,0.0));
#59=DIRECTION('NONE',(0.0,0.0,1.0));
#60=DIRECTION('NONE',(1.0,0.0,0.0));
#61=AXIS2_PLACEMENT_3D('NONE',#58,#59,#60);
#62=SHAPE_REPRESENTATION('SR1',(#61),#28);
#63=PRODUCT_DEFINITION_SHAPE('PDS1','Test Part',#52);
#64=SHAPE_DEFINITION_REPRESENTATION(#63,#62);
#65=CARTESIAN_POINT('',(-0.1375,0.375,0.1));
#66=DIRECTION('',(1.0,1.009294E-016,0.0));
#67=DIRECTION('',(0.0,0.707106781186547,-0.707106781186548));
#68=AXIS2_PLACEMENT_3D('',#65,#66,#67);
#69=CYLINDRICAL_SURFACE('',#68,0.1);
#70=CARTESIAN_POINT('',(0.525,0.475,0.1));
#71=VERTEX_POINT('',#70);
#72=CARTESIAN_POINT('',(0.525,0.375,0.0));
#73=VERTEX_POINT('',#72);
#74=CARTESIAN_POINT('',(0.525,0.375,0.1));
#75=DIRECTION('',(-1.0,0.0,0.0));
#76=DIRECTION('',(0.0,0.707106781186547,-0.707106781186548));
#77=AXIS2_PLACEMENT_3D('',#74,#75,#76);
#78=CIRCLE('',#77,0.1);
#79=EDGE_CURVE('',#71,#73,#78,.T.);
#80=ORIENTED_EDGE('',*,*,#79,.T.);
#81=CARTESIAN_POINT('',(-0.525,0.375,0.0));
#82=VERTEX_POINT('',#81);
#83=CARTESIAN_POINT('',(0.525,0.375,0.0));
#84=DIRECTION('',(-1.0,0.0,0.0));
#85=VECTOR('',#84,1.05);
#86=LINE('',#83,#85);
#87=EDGE_CURVE('',#73,#82,#86,.T.);
#88=ORIENTED_EDGE('',*,*,#87,.T.);
#89=CARTESIAN_POINT('',(-0.525,0.475,0.1));
#90=VERTEX_POINT('',#89);
#91=CARTESIAN_POINT('',(-0.525,0.375,0.1));
#92=DIRECTION('',(1.0,0.0,0.0));
#93=DIRECTION('',(0.0,0.707106781186547,-0.707106781186548));
#94=AXIS2_PLACEMENT_3D('',#91,#92,#93);
#95=CIRCLE('',#94,0.1);
#96=EDGE_CURVE('',#82,#90,#95,.T.);
#97=ORIENTED_EDGE('',*,*,#96,.T.);
#98=CARTESIAN_POINT('',(-0.525,0.475,0.1));
#99=DIRECTION('',(1.0,0.0,0.0));
#100=VECTOR('',#99,1.05);
#101=LINE('',#98,#100);
#102=EDGE_CURVE('',#90,#71,#101,.T.);
#103=ORIENTED_EDGE('',*,*,#102,.T.);
#104=EDGE_LOOP('',(#80,#88,#97,#103));
#105=FACE_OUTER_BOUND('',#104,.T.);
#106=ADVANCED_FACE('',(#105),#69,.T.);
#107=CARTESIAN_POINT('',(0.525,0.475,0.0));
#108=DIRECTION('',(1.0,0.0,0.0));
#109=DIRECTION('',(0.0,0.0,-1.0));
#110=AXIS2_PLACEMENT_3D('',#107,#108,#109);
#111=PLANE('',#110);
#112=ORIENTED_EDGE('',*,*,#79,.F.);
#113=CARTESIAN_POINT('',(0.525,0.475,0.85));
#114=VERTEX_POINT('',#113);
#115=CARTESIAN_POINT('',(0.525,0.475,0.1));
#116=DIRECTION('',(0.0,0.0,1.0));
#117=VECTOR('',#116,0.75);
#118=LINE('',#115,#117);
#119=EDGE_CURVE('',#71,#114,#118,.T.);
#120=ORIENTED_EDGE('',*,*,#119,.T.);
#121=CARTESIAN_POINT('',(0.525,0.375,0.95));
#122=VERTEX_POINT('',#121);
#123=CARTESIAN_POINT('',(0.525,0.375,0.85));
#124=DIRECTION('',(-1.0,0.0,0.0));
#125=DIRECTION('',(0.0,0.707106781186548,0.707106781186547));
#126=AXIS2_PLACEMENT_3D('',#123,#124,#125);
#127=CIRCLE('',#126,0.1);
#128=EDGE_CURVE('',#122,#114,#127,.T.);
#129=ORIENTED_EDGE('',*,*,#128,.F.);
#130=CARTESIAN_POINT('',(0.525,-0.375,0.95));
#131=VERTEX_POINT('',#130);
#132=CARTESIAN_POINT('',(0.525,-0.375,0.95));
#133=DIRECTION('',(0.0,1.0,0.0));
#134=VECTOR('',#133,0.75);
#135=LINE('',#132,#134);
#136=EDGE_CURVE('',#122,#131,#135,.F.);
#137=ORIENTED_EDGE('',*,*,#136,.T.);
#138=CARTESIAN_POINT('',(0.525,-0.475,0.85));
#139=VERTEX_POINT('',#138);
#140=CARTESIAN_POINT('',(0.525,-0.375,0.85));
#141=DIRECTION('',(-1.0,0.0,0.0));
#142=DIRECTION('',(0.0,-0.707106781186548,0.707106781186547));
#143=AXIS2_PLACEMENT_3D('',#140,#141,#142);
#144=CIRCLE('',#143,0.1);
#145=EDGE_CURVE('',#139,#131,#144,.T.);
#146=ORIENTED_EDGE('',*,*,#145,.F.);
#147=CARTESIAN_POINT('',(0.525,-0.475,0.1));
#148=VERTEX_POINT('',#147);
#149=CARTESIAN_POINT('',(0.525,-0.475,0.1));
#150=DIRECTION('',(0.0,0.0,1.0));
#151=VECTOR('',#150,0.75);
#152=LINE('',#149,#151);
#153=EDGE_CURVE('',#148,#139,#152,.T.);
#154=ORIENTED_EDGE('',*,*,#153,.F.);
#155=CARTESIAN_POINT('',(0.525,-0.375,0.0));
#156=VERTEX_POINT('',#155);
#157=CARTESIAN_POINT('',(0.525,-0.375,0.1));
#158=DIRECTION('',(-1.0,0.0,0.0));
#159=DIRECTION('',(0.0,-0.707106781186548,-0.707106781186547));
#160=AXIS2_PLACEMENT_3D('',#157,#158,#159);
#161=CIRCLE('',#160,0.1);
#162=EDGE_CURVE('',#156,#148,#161,.T.);
#163=ORIENTED_EDGE('',*,*,#162,.F.);
#164=CARTESIAN_POINT('',(0.525,0.375,0.0));
#165=DIRECTION('',(0.0,-1.0,0.0));
#166=VECTOR('',#165,0.75);
#167=LINE('',#164,#166);
#168=EDGE_CURVE('',#73,#156,#167,.T.);
#169=ORIENTED_EDGE('',*,*,#168,.F.);
#170=EDGE_LOOP('',(#112,#120,#129,#137,#146,#154,#163,#169));
#171=FACE_OUTER_BOUND('',#170,.T.);
#172=ADVANCED_FACE('',(#171),#111,.T.);
#173=CARTESIAN_POINT('',(-0.275,0.475,0.0));
#174=DIRECTION('',(0.0,1.0,0.0));
#175=DIRECTION('',(0.0,0.0,1.0));
#176=AXIS2_PLACEMENT_3D('',#173,#174,#175);
#177=PLANE('',#176);
#178=ORIENTED_EDGE('',*,*,#102,.F.);
#179=CARTESIAN_POINT('',(-0.525,0.475,0.85));
#180=VERTEX_POINT('',#179);
#181=CARTESIAN_POINT('',(-0.525,0.475,0.1));
#182=DIRECTION('',(0.0,0.0,1.0));
#183=VECTOR('',#182,0.75);
#184=LINE('',#181,#183);
#185=EDGE_CURVE('',#90,#180,#184,.T.);
#186=ORIENTED_EDGE('',*,*,#185,.T.);
#187=CARTESIAN_POINT('',(0.525,0.475,0.85));
#188=DIRECTION('',(-1.0,0.0,0.0));
#189=VECTOR('',#188,1.05);
#190=LINE('',#187,#189);
#191=EDGE_CURVE('',#114,#180,#190,.T.);
#192=ORIENTED_EDGE('',*,*,#191,.F.);
#193=ORIENTED_EDGE('',*,*,#119,.F.);
#194=EDGE_LOOP('',(#178,#186,#192,#193));
#195=FACE_OUTER_BOUND('',#194,.T.);
#196=ADVANCED_FACE('',(#195),#177,.T.);
#197=CARTESIAN_POINT('',(-0.1375,0.375,0.85));
#198=DIRECTION('',(1.0,1.009294E-016,0.0));
#199=DIRECTION('',(0.0,0.707106781186548,0.707106781186547));
#200=AXIS2_PLACEMENT_3D('',#197,#198,#199);
#201=CYLINDRICAL_SURFACE('',#200,0.1);
#202=ORIENTED_EDGE('',*,*,#128,.T.);
#203=ORIENTED_EDGE('',*,*,#191,.T.);
#204=CARTESIAN_POINT('',(-0.525,0.375,0.95));
#205=VERTEX_POINT('',#204);
#206=CARTESIAN_POINT('',(-0.525,0.375,0.85));
#207=DIRECTION('',(1.0,0.0,0.0));
#208=DIRECTION('',(0.0,0.707106781186548,0.707106781186547));
#209=AXIS2_PLACEMENT_3D('',#206,#207,#208);
#210=CIRCLE('',#209,0.1);
#211=EDGE_CURVE('',#180,#205,#210,.T.);
#212=ORIENTED_EDGE('',*,*,#211,.T.);
#213=CARTESIAN_POINT('',(-0.525,0.375,0.95));
#214=DIRECTION('',(1.0,0.0,0.0));
#215=VECTOR('',#214,1.05);
#216=LINE('',#213,#215);
#217=EDGE_CURVE('',#205,#122,#216,.T.);
#218=ORIENTED_EDGE('',*,*,#217,.T.);
#219=EDGE_LOOP('',(#202,#203,#212,#218));
#220=FACE_OUTER_BOUND('',#219,.T.);
#221=ADVANCED_FACE('',(#220),#201,.T.);
#222=CARTESIAN_POINT('',(0.1375,-0.375,0.1));
#223=DIRECTION('',(-1.0,-1.009294E-016,0.0));
#224=DIRECTION('',(0.0,-0.707106781186548,-0.707106781186547));
#225=AXIS2_PLACEMENT_3D('',#222,#223,#224);
#226=CYLINDRICAL_SURFACE('',#225,0.1);
#227=CARTESIAN_POINT('',(-0.525,-0.475,0.1));
#228=VERTEX_POINT('',#227);
#229=CARTESIAN_POINT('',(-0.525,-0.375,0.0));
#230=VERTEX_POINT('',#229);
#231=CARTESIAN_POINT('',(-0.525,-0.375,0.1));
#232=DIRECTION('',(1.0,0.0,0.0));
#233=DIRECTION('',(0.0,-0.707106781186548,-0.707106781186547));
#234=AXIS2_PLACEMENT_3D('',#231,#232,#233);
#235=CIRCLE('',#234,0.1);
#236=EDGE_CURVE('',#228,#230,#235,.T.);
#237=ORIENTED_EDGE('',*,*,#236,.T.);
#238=CARTESIAN_POINT('',(-0.525,-0.375,0.0));
#239=DIRECTION('',(1.0,0.0,0.0));
#240=VECTOR('',#239,1.05);
#241=LINE('',#238,#240);
#242=EDGE_CURVE('',#230,#156,#241,.T.);
#243=ORIENTED_EDGE('',*,*,#242,.T.);
#244=ORIENTED_EDGE('',*,*,#162,.T.);
#245=CARTESIAN_POINT('',(0.525,-0.475,0.1));
#246=DIRECTION('',(-1.0,0.0,0.0));
#247=VECTOR('',#246,1.05);
#248=LINE('',#245,#247);
#249=EDGE_CURVE('',#148,#228,#248,.T.);
#250=ORIENTED_EDGE('',*,*,#249,.T.);
#251=EDGE_LOOP('',(#237,#243,#244,#250));
#252=FACE_OUTER_BOUND('',#251,.T.);
#253=ADVANCED_FACE('',(#252),#226,.T.);
#254=CARTESIAN_POINT('',(0.275,-0.475,0.0));
#255=DIRECTION('',(0.0,-1.0,0.0));
#256=DIRECTION('',(0.0,0.0,-1.0));
#257=AXIS2_PLACEMENT_3D('',#254,#255,#256);
#258=PLANE('',#257);
#259=ORIENTED_EDGE('',*,*,#249,.F.);
#260=ORIENTED_EDGE('',*,*,#153,.T.);
#261=CARTESIAN_POINT('',(-0.525,-0.475,0.85));
#262=VERTEX_POINT('',#261);
#263=CARTESIAN_POINT('',(-0.525,-0.475,0.85));
#264=DIRECTION('',(1.0,0.0,0.0));
#265=VECTOR('',#264,1.05);
#266=LINE('',#263,#265);
#267=EDGE_CURVE('',#262,#139,#266,.T.);
#268=ORIENTED_EDGE('',*,*,#267,.F.);
#269=CARTESIAN_POINT('',(-0.525,-0.475,0.1));
#270=DIRECTION('',(0.0,0.0,1.0));
#271=VECTOR('',#270,0.75);
#272=LINE('',#269,#271);
#273=EDGE_CURVE('',#228,#262,#272,.T.);
#274=ORIENTED_EDGE('',*,*,#273,.F.);
#275=EDGE_LOOP('',(#259,#260,#268,#274));
#276=FACE_OUTER_BOUND('',#275,.T.);
#277=ADVANCED_FACE('',(#276),#258,.T.);
#278=CARTESIAN_POINT('',(0.1375,-0.375,0.85));
#279=DIRECTION('',(-1.0,-1.009294E-016,0.0));
#280=DIRECTION('',(0.0,-0.707106781186548,0.707106781186547));
#281=AXIS2_PLACEMENT_3D('',#278,#279,#280);
#282=CYLINDRICAL_SURFACE('',#281,0.1);
#283=CARTESIAN_POINT('',(-0.525,-0.375,0.95));
#284=VERTEX_POINT('',#283);
#285=CARTESIAN_POINT('',(-0.525,-0.375,0.85));
#286=DIRECTION('',(1.0,0.0,0.0));
#287=DIRECTION('',(0.0,-0.707106781186548,0.707106781186547));
#288=AXIS2_PLACEMENT_3D('',#285,#286,#287);
#289=CIRCLE('',#288,0.1);
#290=EDGE_CURVE('',#284,#262,#289,.T.);
#291=ORIENTED_EDGE('',*,*,#290,.T.);
#292=ORIENTED_EDGE('',*,*,#267,.T.);
#293=ORIENTED_EDGE('',*,*,#145,.T.);
#294=CARTESIAN_POINT('',(0.525,-0.375,0.95));
#295=DIRECTION('',(-1.0,0.0,0.0));
#296=VECTOR('',#295,1.05);
#297=LINE('',#294,#296);
#298=EDGE_CURVE('',#131,#284,#297,.T.);
#299=ORIENTED_EDGE('',*,*,#298,.T.);
#300=EDGE_LOOP('',(#291,#292,#293,#299));
#301=FACE_OUTER_BOUND('',#300,.T.);
#302=ADVANCED_FACE('',(#301),#282,.T.);
#303=CARTESIAN_POINT('',(2.220446E-016,9.588290E-018,0.95));
#304=DIRECTION('',(0.0,0.0,1.0));
#305=DIRECTION('',(1.0,0.0,0.0));
#306=AXIS2_PLACEMENT_3D('',#303,#304,#305);
#307=PLANE('',#306);
#308=ORIENTED_EDGE('',*,*,#217,.F.);
#309=CARTESIAN_POINT('',(-0.525,0.375,0.95));
#310=DIRECTION('',(0.0,-1.0,0.0));
#311=VECTOR('',#310,0.75);
#312=LINE('',#309,#311);
#313=EDGE_CURVE('',#284,#205,#312,.F.);
#314=ORIENTED_EDGE('',*,*,#313,.F.);
#315=ORIENTED_EDGE('',*,*,#298,.F.);
#316=ORIENTED_EDGE('',*,*,#136,.F.);
#317=EDGE_LOOP('',(#308,#314,#315,#316));
#318=FACE_OUTER_BOUND('',#317,.T.);
#319=ADVANCED_FACE('',(#318),#307,.T.);
#320=CARTESIAN_POINT('',(-0.525,-0.475,0.0));
#321=DIRECTION('',(-1.0,0.0,0.0));
#322=DIRECTION('',(0.0,0.0,1.0));
#323=AXIS2_PLACEMENT_3D('',#320,#321,#322);
#324=PLANE('',#323);
#325=ORIENTED_EDGE('',*,*,#96,.F.);
#326=CARTESIAN_POINT('',(-0.525,-0.375,0.0));
#327=DIRECTION('',(0.0,1.0,0.0));
#328=VECTOR('',#327,0.75);
#329=LINE('',#326,#328);
#330=EDGE_CURVE('',#230,#82,#329,.T.);
#331=ORIENTED_EDGE('',*,*,#330,.F.);
#332=ORIENTED_EDGE('',*,*,#236,.F.);
#333=ORIENTED_EDGE('',*,*,#273,.T.);
#334=ORIENTED_EDGE('',*,*,#290,.F.);
#335=ORIENTED_EDGE('',*,*,#313,.T.);
#336=ORIENTED_EDGE('',*,*,#211,.F.);
#337=ORIENTED_EDGE('',*,*,#185,.F.);
#338=EDGE_LOOP('',(#325,#331,#332,#333,#334,#335,#336,#337));
#339=FACE_OUTER_BOUND('',#338,.T.);
#340=ADVANCED_FACE('',(#339),#324,.T.);
#341=CARTESIAN_POINT('',(1.249001E-016,9.588290E-018,0.0));
#342=DIRECTION('',(0.0,0.0,1.0));
#343=DIRECTION('',(1.0,0.0,0.0));
#344=AXIS2_PLACEMENT_3D('',#341,#342,#343);
#345=PLANE('',#344);
#346=ORIENTED_EDGE('',*,*,#87,.F.);
#347=ORIENTED_EDGE('',*,*,#168,.T.);
#348=ORIENTED_EDGE('',*,*,#242,.F.);
#349=ORIENTED_EDGE('',*,*,#330,.T.);
#350=EDGE_LOOP('',(#346,#347,#348,#349));
#351=FACE_OUTER_BOUND('',#350,.T.);
#352=ADVANCED_FACE('',(#351),#345,.F.);
#353=CLOSED_SHELL('',(#106,#172,#196,#221,#253,#277,#302,#319,#340,#352));
#354=MANIFOLD_SOLID_BREP('49C',#353);
#355=COLOUR_RGB('35',0.5,0.375,0.25);
#356=SURFACE_STYLE_USAGE(.BOTH.,#357);
#357=SURFACE_SIDE_STYLE('NONE',(#358));
#358=SURFACE_STYLE_FILL_AREA(#359);
#359=FILL_AREA_STYLE('NONE',(#360));
#360=FILL_AREA_STYLE_COLOUR('NONE',#355);
#361=PRESENTATION_STYLE_ASSIGNMENT((#356));
#362=STYLED_ITEM('NONE',(#361),#354);
#363=MECHANICAL_DESIGN_GEOMETRIC_PRESENTATION_REPRESENTATION('NONE',(#362,#826,#1281),#28);
#364=PRESENTATION_LAYER_ASSIGNMENT('3D','None',(#354,#818,#1280));
#365=CARTESIAN_POINT('',(0.775,-0.375,0.1));
#366=DIRECTION('',(0.0,0.0,1.0));
#367=DIRECTION('',(1.0,0.0,0.0));
#368=AXIS2_PLACEMENT_3D('',#365,#366,#367);
#369=SPHERICAL_SURFACE('',#368,0.1);
#370=CARTESIAN_POINT('',(0.775,-0.475,0.1));
#371=VERTEX_POINT('',#370);
#372=CARTESIAN_POINT('',(0.775,-0.375,0.0));
#373=VERTEX_POINT('',#372);
#374=CARTESIAN_POINT('',(0.775,-0.375,0.1));
#375=DIRECTION('',(1.0,0.0,0.0));
#376=DIRECTION('',(0.0,-0.707106781186547,-0.707106781186548));
#377=AXIS2_PLACEMENT_3D('',#374,#375,#376);
#378=CIRCLE('',#377,0.1);
#379=EDGE_CURVE('',#371,#373,#378,.T.);
#380=ORIENTED_EDGE('',*,*,#379,.T.);
#381=CARTESIAN_POINT('',(0.875,-0.375,0.1));
#382=VERTEX_POINT('',#381);
#383=CARTESIAN_POINT('',(0.775,-0.375,0.1));
#384=DIRECTION('',(0.0,-1.0,0.0));
#385=DIRECTION('',(1.0,0.0,0.0));
#386=AXIS2_PLACEMENT_3D('',#383,#384,#385);
#387=CIRCLE('',#386,0.1);
#388=EDGE_CURVE('',#382,#373,#387,.F.);
#389=ORIENTED_EDGE('',*,*,#388,.F.);
#390=CARTESIAN_POINT('',(0.775,-0.375,0.1));
#391=DIRECTION('',(0.0,0.0,-1.0));
#392=DIRECTION('',(0.0,-1.0,0.0));
#393=AXIS2_PLACEMENT_3D('',#390,#391,#392);
#394=CIRCLE('',#393,0.1);
#395=EDGE_CURVE('',#371,#382,#394,.F.);
#396=ORIENTED_EDGE('',*,*,#395,.F.);
#397=EDGE_LOOP('',(#380,#389,#396));
#398=FACE_OUTER_BOUND('',#397,.T.);
#399=ADVANCED_FACE('',(#398),#369,.T.);
#400=CARTESIAN_POINT('',(0.775,-0.375,0.85));
#401=DIRECTION('',(0.0,0.0,1.0));
#402=DIRECTION('',(1.0,0.0,0.0));
#403=AXIS2_PLACEMENT_3D('',#400,#401,#402);
#404=SPHERICAL_SURFACE('',#403,0.1);
#405=CARTESIAN_POINT('',(0.775,-0.475,0.85));
#406=VERTEX_POINT('',#405);
#407=CARTESIAN_POINT('',(0.875,-0.375,0.85));
#408=VERTEX_POINT('',#407);
#409=CARTESIAN_POINT('',(0.775,-0.375,0.85));
#410=DIRECTION('',(0.0,0.0,1.0));
#411=DIRECTION('',(0.707106781186547,-0.707106781186548,0.0));
#412=AXIS2_PLACEMENT_3D('',#409,#410,#411);
#413=CIRCLE('',#412,0.1);
#414=EDGE_CURVE('',#406,#408,#413,.T.);
#415=ORIENTED_EDGE('',*,*,#414,.T.);
#416=CARTESIAN_POINT('',(0.775,-0.375,0.95));
#417=VERTEX_POINT('',#416);
#418=CARTESIAN_POINT('',(0.775,-0.375,0.85));
#419=DIRECTION('',(0.0,-1.0,0.0));
#420=DIRECTION('',(0.0,0.0,1.0));
#421=AXIS2_PLACEMENT_3D('',#418,#419,#420);
#422=CIRCLE('',#421,0.1);
#423=EDGE_CURVE('',#417,#408,#422,.F.);
#424=ORIENTED_EDGE('',*,*,#423,.F.);
#425=CARTESIAN_POINT('',(0.775,-0.375,0.85));
#426=DIRECTION('',(1.0,0.0,0.0));
#427=DIRECTION('',(0.0,-0.707106781186548,0.707106781186547));
#428=AXIS2_PLACEMENT_3D('',#425,#426,#427);
#429=CIRCLE('',#428,0.1);
#430=EDGE_CURVE('',#417,#406,#429,.T.);
#431=ORIENTED_EDGE('',*,*,#430,.T.);
#432=EDGE_LOOP('',(#415,#424,#431));
#433=FACE_OUTER_BOUND('',#432,.T.);
#434=ADVANCED_FACE('',(#433),#404,.T.);
#435=CARTESIAN_POINT('',(0.775,0.375,0.1));
#436=DIRECTION('',(0.0,0.0,1.0));
#437=DIRECTION('',(1.0,0.0,0.0));
#438=AXIS2_PLACEMENT_3D('',#435,#436,#437);
#439=SPHERICAL_SURFACE('',#438,0.1);
#440=CARTESIAN_POINT('',(0.775,0.375,0.0));
#441=VERTEX_POINT('',#440);
#442=CARTESIAN_POINT('',(0.775,0.475,0.1));
#443=VERTEX_POINT('',#442);
#444=CARTESIAN_POINT('',(0.775,0.375,0.1));
#445=DIRECTION('',(1.0,0.0,0.0));
#446=DIRECTION('',(0.0,0.707106781186547,-0.707106781186548));
#447=AXIS2_PLACEMENT_3D('',#444,#445,#446);
#448=CIRCLE('',#447,0.1);
#449=EDGE_CURVE('',#441,#443,#448,.T.);
#450=ORIENTED_EDGE('',*,*,#449,.T.);
#451=CARTESIAN_POINT('',(0.875,0.375,0.1));
#452=VERTEX_POINT('',#451);
#453=CARTESIAN_POINT('',(0.775,0.375,0.1));
#454=DIRECTION('',(0.0,0.0,-1.0));
#455=DIRECTION('',(1.0,0.0,0.0));
#456=AXIS2_PLACEMENT_3D('',#453,#454,#455);
#457=CIRCLE('',#456,0.1);
#458=EDGE_CURVE('',#452,#443,#457,.F.);
#459=ORIENTED_EDGE('',*,*,#458,.F.);
#460=CARTESIAN_POINT('',(0.775,0.375,0.1));
#461=DIRECTION('',(0.0,1.0,0.0));
#462=DIRECTION('',(0.707106781186547,0.0,-0.707106781186548));
#463=AXIS2_PLACEMENT_3D('',#460,#461,#462);
#464=CIRCLE('',#463,0.1);
#465=EDGE_CURVE('',#452,#441,#464,.T.);
#466=ORIENTED_EDGE('',*,*,#465,.T.);
#467=EDGE_LOOP('',(#450,#459,#466));
#468=FACE_OUTER_BOUND('',#467,.T.);
#469=ADVANCED_FACE('',(#468),#439,.T.);
#470=CARTESIAN_POINT('',(0.775,0.375,0.85));
#471=DIRECTION('',(0.0,0.0,1.0));
#472=DIRECTION('',(1.0,0.0,0.0));
#473=AXIS2_PLACEMENT_3D('',#470,#471,#472);
#474=SPHERICAL_SURFACE('',#473,0.1);
#475=CARTESIAN_POINT('',(0.875,0.375,0.85));
#476=VERTEX_POINT('',#475);
#477=CARTESIAN_POINT('',(0.775,0.475,0.85));
#478=VERTEX_POINT('',#477);
#479=CARTESIAN_POINT('',(0.775,0.375,0.85));
#480=DIRECTION('',(0.0,0.0,1.0));
#481=DIRECTION('',(0.707106781186548,0.707106781186547,0.0));
#482=AXIS2_PLACEMENT_3D('',#479,#480,#481);
#483=CIRCLE('',#482,0.1);
#484=EDGE_CURVE('',#476,#478,#483,.T.);
#485=ORIENTED_EDGE('',*,*,#484,.T.);
#486=CARTESIAN_POINT('',(0.775,0.375,0.95));
#487=VERTEX_POINT('',#486);
#488=CARTESIAN_POINT('',(0.775,0.375,0.85));
#489=DIRECTION('',(1.0,0.0,0.0));
#490=DIRECTION('',(0.0,0.0,1.0));
#491=AXIS2_PLACEMENT_3D('',#488,#489,#490);
#492=CIRCLE('',#491,0.1);
#493=EDGE_CURVE('',#487,#478,#492,.F.);
#494=ORIENTED_EDGE('',*,*,#493,.F.);
#495=CARTESIAN_POINT('',(0.775,0.375,0.85));
#496=DIRECTION('',(0.0,1.0,0.0));
#497=DIRECTION('',(0.707106781186548,0.0,0.707106781186548));
#498=AXIS2_PLACEMENT_3D('',#495,#496,#497);
#499=CIRCLE('',#498,0.1);
#500=EDGE_CURVE('',#487,#476,#499,.T.);
#501=ORIENTED_EDGE('',*,*,#500,.T.);
#502=EDGE_LOOP('',(#485,#494,#501));
#503=FACE_OUTER_BOUND('',#502,.T.);
#504=ADVANCED_FACE('',(#503),#474,.T.);
#505=CARTESIAN_POINT('',(0.425,0.375,0.85));
#506=DIRECTION('',(1.0,0.0,0.0));
#507=DIRECTION('',(0.0,0.707106781186548,0.707106781186547));
#508=AXIS2_PLACEMENT_3D('',#505,#506,#507);
#509=CYLINDRICAL_SURFACE('',#508,0.1);
#510=CARTESIAN_POINT('',(0.525,0.475,0.85));
#511=VERTEX_POINT('',#510);
#512=CARTESIAN_POINT('',(0.525,0.375,0.95));
#513=VERTEX_POINT('',#512);
#514=CARTESIAN_POINT('',(0.525,0.375,0.85));
#515=DIRECTION('',(1.0,0.0,0.0));
#516=DIRECTION('',(0.0,0.707106781186548,0.707106781186547));
#517=AXIS2_PLACEMENT_3D('',#514,#515,#516);
#518=CIRCLE('',#517,0.1);
#519=EDGE_CURVE('',#511,#513,#518,.T.);
#520=ORIENTED_EDGE('',*,*,#519,.T.);
#521=CARTESIAN_POINT('',(0.525,0.375,0.95));
#522=DIRECTION('',(1.0,0.0,0.0));
#523=VECTOR('',#522,0.25);
#524=LINE('',#521,#523);
#525=EDGE_CURVE('',#513,#487,#524,.T.);
#526=ORIENTED_EDGE('',*,*,#525,.T.);
#527=ORIENTED_EDGE('',*,*,#493,.T.);
#528=CARTESIAN_POINT('',(0.775,0.475,0.85));
#529=DIRECTION('',(-1.0,0.0,0.0));
#530=VECTOR('',#529,0.25);
#531=LINE('',#528,#530);
#532=EDGE_CURVE('',#478,#511,#531,.T.);
#533=ORIENTED_EDGE('',*,*,#532,.T.);
#534=EDGE_LOOP('',(#520,#526,#527,#533));
#535=FACE_OUTER_BOUND('',#534,.T.);
#536=ADVANCED_FACE('',(#535),#509,.T.);
#537=CARTESIAN_POINT('',(0.775,0.375,0.0));
#538=DIRECTION('',(0.0,0.0,1.0));
#539=DIRECTION('',(0.707106781186548,0.707106781186547,0.0));
#540=AXIS2_PLACEMENT_3D('',#537,#538,#539);
#541=CYLINDRICAL_SURFACE('',#540,0.1);
#542=ORIENTED_EDGE('',*,*,#484,.F.);
#543=CARTESIAN_POINT('',(0.875,0.375,0.85));
#544=DIRECTION('',(0.0,0.0,-1.0));
#545=VECTOR('',#544,0.75);
#546=LINE('',#543,#545);
#547=EDGE_CURVE('',#476,#452,#546,.T.);
#548=ORIENTED_EDGE('',*,*,#547,.T.);
#549=ORIENTED_EDGE('',*,*,#458,.T.);
#550=CARTESIAN_POINT('',(0.775,0.475,0.1));
#551=DIRECTION('',(0.0,0.0,1.0));
#552=VECTOR('',#551,0.75);
#553=LINE('',#550,#552);
#554=EDGE_CURVE('',#443,#478,#553,.T.);
#555=ORIENTED_EDGE('',*,*,#554,.T.);
#556=EDGE_LOOP('',(#542,#548,#549,#555));
#557=FACE_OUTER_BOUND('',#556,.T.);
#558=ADVANCED_FACE('',(#557),#541,.T.);
#559=CARTESIAN_POINT('',(0.775,0.2375,0.85));
#560=DIRECTION('',(0.0,-1.0,0.0));
#561=DIRECTION('',(0.707106781186548,0.0,0.707106781186548));
#562=AXIS2_PLACEMENT_3D('',#559,#560,#561);
#563=CYLINDRICAL_SURFACE('',#562,0.1);
#564=ORIENTED_EDGE('',*,*,#423,.T.);
#565=CARTESIAN_POINT('',(0.875,-0.375,0.85));
#566=DIRECTION('',(0.0,1.0,0.0));
#567=VECTOR('',#566,0.75);
#568=LINE('',#565,#567);
#569=EDGE_CURVE('',#408,#476,#568,.T.);
#570=ORIENTED_EDGE('',*,*,#569,.T.);
#571=ORIENTED_EDGE('',*,*,#500,.F.);
#572=CARTESIAN_POINT('',(0.775,0.375,0.95));
#573=DIRECTION('',(0.0,-1.0,0.0));
#574=VECTOR('',#573,0.75);
#575=LINE('',#572,#574);
#576=EDGE_CURVE('',#487,#417,#575,.T.);
#577=ORIENTED_EDGE('',*,*,#576,.T.);
#578=EDGE_LOOP('',(#564,#570,#571,#577));
#579=FACE_OUTER_BOUND('',#578,.T.);
#580=ADVANCED_FACE('',(#579),#563,.T.);
#581=CARTESIAN_POINT('',(0.425,0.375,0.1));
#582=DIRECTION('',(-1.0,0.0,0.0));
#583=DIRECTION('',(0.0,0.707106781186547,-0.707106781186548));
#584=AXIS2_PLACEMENT_3D('',#581,#582,#583);
#585=CYLINDRICAL_SURFACE('',#584,0.1);
#586=CARTESIAN_POINT('',(0.525,0.375,0.0));
#587=VERTEX_POINT('',#586);
#588=CARTESIAN_POINT('',(0.525,0.475,0.1));
#589=VERTEX_POINT('',#588);
#590=CARTESIAN_POINT('',(0.525,0.375,0.1));
#591=DIRECTION('',(1.0,0.0,0.0));
#592=DIRECTION('',(0.0,0.707106781186547,-0.707106781186548));
#593=AXIS2_PLACEMENT_3D('',#590,#591,#592);
#594=CIRCLE('',#593,0.1);
#595=EDGE_CURVE('',#587,#589,#594,.T.);
#596=ORIENTED_EDGE('',*,*,#595,.T.);
#597=CARTESIAN_POINT('',(0.525,0.475,0.1));
#598=DIRECTION('',(1.0,0.0,0.0));
#599=VECTOR('',#598,0.25);
#600=LINE('',#597,#599);
#601=EDGE_CURVE('',#589,#443,#600,.T.);
#602=ORIENTED_EDGE('',*,*,#601,.T.);
#603=ORIENTED_EDGE('',*,*,#449,.F.);
#604=CARTESIAN_POINT('',(0.775,0.375,0.0));
#605=DIRECTION('',(-1.0,0.0,0.0));
#606=VECTOR('',#605,0.25);
#607=LINE('',#604,#606);
#608=EDGE_CURVE('',#441,#587,#607,.T.);
#609=ORIENTED_EDGE('',*,*,#608,.T.);
#610=EDGE_LOOP('',(#596,#602,#603,#609));
#611=FACE_OUTER_BOUND('',#610,.T.);
#612=ADVANCED_FACE('',(#611),#585,.T.);
#613=CARTESIAN_POINT('',(0.775,0.2375,0.1));
#614=DIRECTION('',(0.0,1.0,0.0));
#615=DIRECTION('',(0.707106781186547,0.0,-0.707106781186548));
#616=AXIS2_PLACEMENT_3D('',#613,#614,#615);
#617=CYLINDRICAL_SURFACE('',#616,0.1);
#618=ORIENTED_EDGE('',*,*,#465,.F.);
#619=CARTESIAN_POINT('',(0.875,0.375,0.1));
#620=DIRECTION('',(0.0,-1.0,0.0));
#621=VECTOR('',#620,0.75);
#622=LINE('',#619,#621);
#623=EDGE_CURVE('',#452,#382,#622,.T.);
#624=ORIENTED_EDGE('',*,*,#623,.T.);
#625=ORIENTED_EDGE('',*,*,#388,.T.);
#626=CARTESIAN_POINT('',(0.775,-0.375,0.0));
#627=DIRECTION('',(0.0,1.0,0.0));
#628=VECTOR('',#627,0.75);
#629=LINE('',#626,#628);
#630=EDGE_CURVE('',#373,#441,#629,.T.);
#631=ORIENTED_EDGE('',*,*,#630,.T.);
#632=EDGE_LOOP('',(#618,#624,#625,#631));
#633=FACE_OUTER_BOUND('',#632,.T.);
#634=ADVANCED_FACE('',(#633),#617,.T.);
#635=CARTESIAN_POINT('',(0.775,-0.375,0.0));
#636=DIRECTION('',(0.0,0.0,1.0));
#637=DIRECTION('',(0.707106781186547,-0.707106781186548,0.0));
#638=AXIS2_PLACEMENT_3D('',#635,#636,#637);
#639=CYLINDRICAL_SURFACE('',#638,0.1);
#640=ORIENTED_EDGE('',*,*,#414,.F.);
#641=CARTESIAN_POINT('',(0.775,-0.475,0.85));
#642=DIRECTION('',(0.0,0.0,-1.0));
#643=VECTOR('',#642,0.75);
#644=LINE('',#641,#643);
#645=EDGE_CURVE('',#406,#371,#644,.T.);
#646=ORIENTED_EDGE('',*,*,#645,.T.);
#647=ORIENTED_EDGE('',*,*,#395,.T.);
#648=CARTESIAN_POINT('',(0.875,-0.375,0.1));
#649=DIRECTION('',(0.0,0.0,1.0));
#650=VECTOR('',#649,0.75);
#651=LINE('',#648,#650);
#652=EDGE_CURVE('',#382,#408,#651,.T.);
#653=ORIENTED_EDGE('',*,*,#652,.T.);
#654=EDGE_LOOP('',(#640,#646,#647,#653));
#655=FACE_OUTER_BOUND('',#654,.T.);
#656=ADVANCED_FACE('',(#655),#639,.T.);
#657=CARTESIAN_POINT('',(0.725,-0.375,0.85));
#658=DIRECTION('',(-1.0,0.0,0.0));
#659=DIRECTION('',(0.0,-0.707106781186548,0.707106781186547));
#660=AXIS2_PLACEMENT_3D('',#657,#658,#659);
#661=CYLINDRICAL_SURFACE('',#660,0.1);
#662=CARTESIAN_POINT('',(0.525,-0.375,0.95));
#663=VERTEX_POINT('',#662);
#664=CARTESIAN_POINT('',(0.525,-0.475,0.85));
#665=VERTEX_POINT('',#664);
#666=CARTESIAN_POINT('',(0.525,-0.375,0.85));
#667=DIRECTION('',(1.0,0.0,0.0));
#668=DIRECTION('',(0.0,-0.707106781186548,0.707106781186547));
#669=AXIS2_PLACEMENT_3D('',#666,#667,#668);
#670=CIRCLE('',#669,0.1);
#671=EDGE_CURVE('',#663,#665,#670,.T.);
#672=ORIENTED_EDGE('',*,*,#671,.T.);
#673=CARTESIAN_POINT('',(0.525,-0.475,0.85));
#674=DIRECTION('',(1.0,0.0,0.0));
#675=VECTOR('',#674,0.25);
#676=LINE('',#673,#675);
#677=EDGE_CURVE('',#665,#406,#676,.T.);
#678=ORIENTED_EDGE('',*,*,#677,.T.);
#679=ORIENTED_EDGE('',*,*,#430,.F.);
#680=CARTESIAN_POINT('',(0.775,-0.375,0.95));
#681=DIRECTION('',(-1.0,0.0,0.0));
#682=VECTOR('',#681,0.25);
#683=LINE('',#680,#682);
#684=EDGE_CURVE('',#417,#663,#683,.T.);
#685=ORIENTED_EDGE('',*,*,#684,.T.);
#686=EDGE_LOOP('',(#672,#678,#679,#685));
#687=FACE_OUTER_BOUND('',#686,.T.);
#688=ADVANCED_FACE('',(#687),#661,.T.);
#689=CARTESIAN_POINT('',(0.725,-0.375,0.1));
#690=DIRECTION('',(1.0,0.0,0.0));
#691=DIRECTION('',(0.0,-0.707106781186547,-0.707106781186548));
#692=AXIS2_PLACEMENT_3D('',#689,#690,#691);
#693=CYLINDRICAL_SURFACE('',#692,0.1);
#694=CARTESIAN_POINT('',(0.525,-0.475,0.1));
#695=VERTEX_POINT('',#694);
#696=CARTESIAN_POINT('',(0.525,-0.375,0.0));
#697=VERTEX_POINT('',#696);
#698=CARTESIAN_POINT('',(0.525,-0.375,0.1));
#699=DIRECTION('',(1.0,0.0,0.0));
#700=DIRECTION('',(0.0,-0.707106781186547,-0.707106781186548));
#701=AXIS2_PLACEMENT_3D('',#698,#699,#700);
#702=CIRCLE('',#701,0.1);
#703=EDGE_CURVE('',#695,#697,#702,.T.);
#704=ORIENTED_EDGE('',*,*,#703,.T.);
#705=CARTESIAN_POINT('',(0.525,-0.375,0.0));
#706=DIRECTION('',(1.0,0.0,0.0));
#707=VECTOR('',#706,0.25);
#708=LINE('',#705,#707);
#709=EDGE_CURVE('',#697,#373,#708,.T.);
#710=ORIENTED_EDGE('',*,*,#709,.T.);
#711=ORIENTED_EDGE('',*,*,#379,.F.);
#712=CARTESIAN_POINT('',(0.775,-0.475,0.1));
#713=DIRECTION('',(-1.0,0.0,0.0));
#714=VECTOR('',#713,0.25);
#715=LINE('',#712,#714);
#716=EDGE_CURVE('',#371,#695,#715,.T.);
#717=ORIENTED_EDGE('',*,*,#716,.T.);
#718=EDGE_LOOP('',(#704,#710,#711,#717));
#719=FACE_OUTER_BOUND('',#718,.T.);
#720=ADVANCED_FACE('',(#719),#693,.T.);
#721=CARTESIAN_POINT('',(0.575,-9.278990E-018,0.0));
#722=DIRECTION('',(0.0,0.0,1.0));
#723=DIRECTION('',(1.0,0.0,0.0));
#724=AXIS2_PLACEMENT_3D('',#721,#722,#723);
#725=PLANE('',#724);
#726=ORIENTED_EDGE('',*,*,#608,.F.);
#727=ORIENTED_EDGE('',*,*,#630,.F.);
#728=ORIENTED_EDGE('',*,*,#709,.F.);
#729=CARTESIAN_POINT('',(0.525,0.375,0.0));
#730=DIRECTION('',(0.0,-1.0,0.0));
#731=VECTOR('',#730,0.75);
#732=LINE('',#729,#731);
#733=EDGE_CURVE('',#587,#697,#732,.T.);
#734=ORIENTED_EDGE('',*,*,#733,.F.);
#735=EDGE_LOOP('',(#726,#727,#728,#734));
#736=FACE_OUTER_BOUND('',#735,.T.);
#737=ADVANCED_FACE('',(#736),#725,.F.);
#738=CARTESIAN_POINT('',(0.525,-0.475,0.0));
#739=DIRECTION('',(-1.0,0.0,0.0));
#740=DIRECTION('',(0.0,0.0,1.0));
#741=AXIS2_PLACEMENT_3D('',#738,#739,#740);
#742=PLANE('',#741);
#743=ORIENTED_EDGE('',*,*,#595,.F.);
#744=ORIENTED_EDGE('',*,*,#733,.T.);
#745=ORIENTED_EDGE('',*,*,#703,.F.);
#746=CARTESIAN_POINT('',(0.525,-0.475,0.1));
#747=DIRECTION('',(0.0,0.0,1.0));
#748=VECTOR('',#747,0.75);
#749=LINE('',#746,#748);
#750=EDGE_CURVE('',#695,#665,#749,.T.);
#751=ORIENTED_EDGE('',*,*,#750,.T.);
#752=ORIENTED_EDGE('',*,*,#671,.F.);
#753=CARTESIAN_POINT('',(0.525,-0.375,0.95));
#754=DIRECTION('',(0.0,1.0,0.0));
#755=VECTOR('',#754,0.75);
#756=LINE('',#753,#755);
#757=EDGE_CURVE('',#663,#513,#756,.T.);
#758=ORIENTED_EDGE('',*,*,#757,.T.);
#759=ORIENTED_EDGE('',*,*,#519,.F.);
#760=CARTESIAN_POINT('',(0.525,0.475,0.1));
#761=DIRECTION('',(0.0,0.0,1.0));
#762=VECTOR('',#761,0.75);
#763=LINE('',#760,#762);
#764=EDGE_CURVE('',#589,#511,#763,.T.);
#765=ORIENTED_EDGE('',*,*,#764,.F.);
#766=EDGE_LOOP('',(#743,#744,#745,#751,#752,#758,#759,#765));
#767=FACE_OUTER_BOUND('',#766,.T.);
#768=ADVANCED_FACE('',(#767),#742,.T.);
#769=CARTESIAN_POINT('',(0.875,-0.475,0.0));
#770=DIRECTION('',(0.0,-1.0,0.0));
#771=DIRECTION('',(0.0,0.0,-1.0));
#772=AXIS2_PLACEMENT_3D('',#769,#770,#771);
#773=PLANE('',#772);
#774=ORIENTED_EDGE('',*,*,#716,.F.);
#775=ORIENTED_EDGE('',*,*,#645,.F.);
#776=ORIENTED_EDGE('',*,*,#677,.F.);
#777=ORIENTED_EDGE('',*,*,#750,.F.);
#778=EDGE_LOOP('',(#774,#775,#776,#777));
#779=FACE_OUTER_BOUND('',#778,.T.);
#780=ADVANCED_FACE('',(#779),#773,.T.);
#781=CARTESIAN_POINT('',(0.875,0.475,0.0));
#782=DIRECTION('',(1.0,0.0,0.0));
#783=DIRECTION('',(0.0,0.0,-1.0));
#784=AXIS2_PLACEMENT_3D('',#781,#782,#783);
#785=PLANE('',#784);
#786=ORIENTED_EDGE('',*,*,#547,.F.);
#787=ORIENTED_EDGE('',*,*,#569,.F.);
#788=ORIENTED_EDGE('',*,*,#652,.F.);
#789=ORIENTED_EDGE('',*,*,#623,.F.);
#790=EDGE_LOOP('',(#786,#787,#788,#789));
#791=FACE_OUTER_BOUND('',#790,.T.);
#792=ADVANCED_FACE('',(#791),#785,.T.);
#793=CARTESIAN_POINT('',(0.275,0.475,0.0));
#794=DIRECTION('',(0.0,1.0,0.0));
#795=DIRECTION('',(0.0,0.0,1.0));
#796=AXIS2_PLACEMENT_3D('',#793,#794,#795);
#797=PLANE('',#796);
#798=ORIENTED_EDGE('',*,*,#601,.F.);
#799=ORIENTED_EDGE('',*,*,#764,.T.);
#800=ORIENTED_EDGE('',*,*,#532,.F.);
#801=ORIENTED_EDGE('',*,*,#554,.F.);
#802=EDGE_LOOP('',(#798,#799,#800,#801));
#803=FACE_OUTER_BOUND('',#802,.T.);
#804=ADVANCED_FACE('',(#803),#797,.T.);
#805=CARTESIAN_POINT('',(0.825,-1.847659E-017,0.95));
#806=DIRECTION('',(0.0,0.0,1.0));
#807=DIRECTION('',(1.0,0.0,0.0));
#808=AXIS2_PLACEMENT_3D('',#805,#806,#807);
#809=PLANE('',#808);
#810=ORIENTED_EDGE('',*,*,#525,.F.);
#811=ORIENTED_EDGE('',*,*,#757,.F.);
#812=ORIENTED_EDGE('',*,*,#684,.F.);
#813=ORIENTED_EDGE('',*,*,#576,.F.);
#814=EDGE_LOOP('',(#810,#811,#812,#813));
#815=FACE_OUTER_BOUND('',#814,.T.);
#816=ADVANCED_FACE('',(#815),#809,.T.);
#817=CLOSED_SHELL('',(#399,#434,#469,#504,#536,#558,#580,#612,#634,#656,#688,#720,#737,#768,#780,#792,#804,#816));
#818=MANIFOLD_SOLID_BREP('498',#817);
#819=COLOUR_RGB('254',0.866,0.866,0.866);
#820=SURFACE_STYLE_USAGE(.BOTH.,#821);
#821=SURFACE_SIDE_STYLE('NONE',(#822));
#822=SURFACE_STYLE_FILL_AREA(#823);
#823=FILL_AREA_STYLE('NONE',(#824));
#824=FILL_AREA_STYLE_COLOUR('NONE',#819);
#825=PRESENTATION_STYLE_ASSIGNMENT((#820));
#826=STYLED_ITEM('NONE',(#825),#818);
#827=CARTESIAN_POINT('',(-0.775,0.375,0.1));
#828=DIRECTION('',(0.0,0.0,1.0));
#829=DIRECTION('',(1.0,0.0,0.0));
#830=AXIS2_PLACEMENT_3D('',#827,#828,#829);
#831=SPHERICAL_SURFACE('',#830,0.1);
#832=CARTESIAN_POINT('',(-0.775,0.375,0.0));
#833=VERTEX_POINT('',#832);
#834=CARTESIAN_POINT('',(-0.875,0.375,0.1));
#835=VERTEX_POINT('',#834);
#836=CARTESIAN_POINT('',(-0.775,0.375,0.1));
#837=DIRECTION('',(-5.551115E-016,1.0,-5.551115E-016));
#838=DIRECTION('',(-0.707106781186547,-7.850462E-016,-0.707106781186548));
#839=AXIS2_PLACEMENT_3D('',#836,#837,#838);
#840=CIRCLE('',#839,0.1);
#841=EDGE_CURVE('',#833,#835,#840,.T.);
#842=ORIENTED_EDGE('',*,*,#841,.T.);
#843=CARTESIAN_POINT('',(-0.775,0.475,0.1));
#844=VERTEX_POINT('',#843);
#845=CARTESIAN_POINT('',(-0.775,0.375,0.1));
#846=DIRECTION('',(0.0,0.0,-1.0));
#847=DIRECTION('',(0.0,1.0,0.0));
#848=AXIS2_PLACEMENT_3D('',#845,#846,#847);
#849=CIRCLE('',#848,0.1);
#850=EDGE_CURVE('',#844,#835,#849,.F.);
#851=ORIENTED_EDGE('',*,*,#850,.F.);
#852=CARTESIAN_POINT('',(-0.775,0.375,0.1));
#853=DIRECTION('',(-1.0,0.0,0.0));
#854=DIRECTION('',(0.0,0.707106781186547,-0.707106781186548));
#855=AXIS2_PLACEMENT_3D('',#852,#853,#854);
#856=CIRCLE('',#855,0.1);
#857=EDGE_CURVE('',#844,#833,#856,.T.);
#858=ORIENTED_EDGE('',*,*,#857,.T.);
#859=EDGE_LOOP('',(#842,#851,#858));
#860=FACE_OUTER_BOUND('',#859,.T.);
#861=ADVANCED_FACE('',(#860),#831,.T.);
#862=CARTESIAN_POINT('',(-0.775,-0.375,0.1));
#863=DIRECTION('',(0.0,0.0,1.0));
#864=DIRECTION('',(1.0,0.0,0.0));
#865=AXIS2_PLACEMENT_3D('',#862,#863,#864);
#866=SPHERICAL_SURFACE('',#865,0.1);
#867=CARTESIAN_POINT('',(-0.775,-0.375,0.0));
#868=VERTEX_POINT('',#867);
#869=CARTESIAN_POINT('',(-0.775,-0.475,0.1));
#870=VERTEX_POINT('',#869);
#871=CARTESIAN_POINT('',(-0.775,-0.375,0.1));
#872=DIRECTION('',(-1.0,0.0,0.0));
#873=DIRECTION('',(0.0,-0.707106781186547,-0.707106781186548));
#874=AXIS2_PLACEMENT_3D('',#871,#872,#873);
#875=CIRCLE('',#874,0.1);
#876=EDGE_CURVE('',#868,#870,#875,.T.);
#877=ORIENTED_EDGE('',*,*,#876,.T.);
#878=CARTESIAN_POINT('',(-0.875,-0.375,0.1));
#879=VERTEX_POINT('',#878);
#880=CARTESIAN_POINT('',(-0.775,-0.375,0.1));
#881=DIRECTION('',(0.0,0.0,-1.0));
#882=DIRECTION('',(-1.0,0.0,0.0));
#883=AXIS2_PLACEMENT_3D('',#880,#881,#882);
#884=CIRCLE('',#883,0.1);
#885=EDGE_CURVE('',#879,#870,#884,.F.);
#886=ORIENTED_EDGE('',*,*,#885,.F.);
#887=CARTESIAN_POINT('',(-0.775,-0.375,0.1));
#888=DIRECTION('',(0.0,-1.0,0.0));
#889=DIRECTION('',(-0.707106781186548,0.0,-0.707106781186547));
#890=AXIS2_PLACEMENT_3D('',#887,#888,#889);
#891=CIRCLE('',#890,0.1);
#892=EDGE_CURVE('',#879,#868,#891,.T.);
#893=ORIENTED_EDGE('',*,*,#892,.T.);
#894=EDGE_LOOP('',(#877,#886,#893));
#895=FACE_OUTER_BOUND('',#894,.T.);
#896=ADVANCED_FACE('',(#895),#866,.T.);
#897=CARTESIAN_POINT('',(-0.775,0.375,0.85));
#898=DIRECTION('',(0.0,0.0,1.0));
#899=DIRECTION('',(1.0,0.0,0.0));
#900=AXIS2_PLACEMENT_3D('',#897,#898,#899);
#901=SPHERICAL_SURFACE('',#900,0.1);
#902=CARTESIAN_POINT('',(-0.775,0.475,0.85));
#903=VERTEX_POINT('',#902);
#904=CARTESIAN_POINT('',(-0.875,0.375,0.85));
#905=VERTEX_POINT('',#904);
#906=CARTESIAN_POINT('',(-0.775,0.375,0.85));
#907=DIRECTION('',(0.0,0.0,1.0));
#908=DIRECTION('',(-0.707106781186547,0.707106781186548,0.0));
#909=AXIS2_PLACEMENT_3D('',#906,#907,#908);
#910=CIRCLE('',#909,0.1);
#911=EDGE_CURVE('',#903,#905,#910,.T.);
#912=ORIENTED_EDGE('',*,*,#911,.T.);
#913=CARTESIAN_POINT('',(-0.775,0.375,0.95));
#914=VERTEX_POINT('',#913);
#915=CARTESIAN_POINT('',(-0.775,0.375,0.85));
#916=DIRECTION('',(0.0,1.0,0.0));
#917=DIRECTION('',(0.0,0.0,1.0));
#918=AXIS2_PLACEMENT_3D('',#915,#916,#917);
#919=CIRCLE('',#918,0.1);
#920=EDGE_CURVE('',#914,#905,#919,.F.);
#921=ORIENTED_EDGE('',*,*,#920,.F.);
#922=CARTESIAN_POINT('',(-0.775,0.375,0.85));
#923=DIRECTION('',(-1.0,0.0,0.0));
#924=DIRECTION('',(0.0,0.707106781186548,0.707106781186547));
#925=AXIS2_PLACEMENT_3D('',#922,#923,#924);
#926=CIRCLE('',#925,0.1);
#927=EDGE_CURVE('',#914,#903,#926,.T.);
#928=ORIENTED_EDGE('',*,*,#927,.T.);
#929=EDGE_LOOP('',(#912,#921,#928));
#930=FACE_OUTER_BOUND('',#929,.T.);
#931=ADVANCED_FACE('',(#930),#901,.T.);
#932=CARTESIAN_POINT('',(-0.775,-0.375,0.85));
#933=DIRECTION('',(0.0,0.0,1.0));
#934=DIRECTION('',(1.0,0.0,0.0));
#935=AXIS2_PLACEMENT_3D('',#932,#933,#934);
#936=SPHERICAL_SURFACE('',#935,0.1);
#937=CARTESIAN_POINT('',(-0.775,-0.475,0.85));
#938=VERTEX_POINT('',#937);
#939=CARTESIAN_POINT('',(-0.775,-0.375,0.95));
#940=VERTEX_POINT('',#939);
#941=CARTESIAN_POINT('',(-0.775,-0.375,0.85));
#942=DIRECTION('',(-1.0,0.0,0.0));
#943=DIRECTION('',(0.0,-0.707106781186548,0.707106781186547));
#944=AXIS2_PLACEMENT_3D('',#941,#942,#943);
#945=CIRCLE('',#944,0.1);
#946=EDGE_CURVE('',#938,#940,#945,.T.);
#947=ORIENTED_EDGE('',*,*,#946,.T.);
#948=CARTESIAN_POINT('',(-0.875,-0.375,0.85));
#949=VERTEX_POINT('',#948);
#950=CARTESIAN_POINT('',(-0.775,-0.375,0.85));
#951=DIRECTION('',(0.0,-1.0,0.0));
#952=DIRECTION('',(-1.0,0.0,0.0));
#953=AXIS2_PLACEMENT_3D('',#950,#951,#952);
#954=CIRCLE('',#953,0.1);
#955=EDGE_CURVE('',#949,#940,#954,.F.);
#956=ORIENTED_EDGE('',*,*,#955,.F.);
#957=CARTESIAN_POINT('',(-0.775,-0.375,0.85));
#958=DIRECTION('',(0.0,0.0,1.0));
#959=DIRECTION('',(-0.707106781186548,-0.707106781186547,0.0));
#960=AXIS2_PLACEMENT_3D('',#957,#958,#959);
#961=CIRCLE('',#960,0.1);
#962=EDGE_CURVE('',#949,#938,#961,.T.);
#963=ORIENTED_EDGE('',*,*,#962,.T.);
#964=EDGE_LOOP('',(#947,#956,#963));
#965=FACE_OUTER_BOUND('',#964,.T.);
#966=ADVANCED_FACE('',(#965),#936,.T.);
#967=CARTESIAN_POINT('',(-0.775,-0.2375,0.85));
#968=DIRECTION('',(1.168656E-016,1.0,0.0));
#969=DIRECTION('',(-0.707106781186548,0.0,0.707106781186547));
#970=AXIS2_PLACEMENT_3D('',#967,#968,#969);
#971=CYLINDRICAL_SURFACE('',#970,0.1);
#972=ORIENTED_EDGE('',*,*,#920,.T.);
#973=CARTESIAN_POINT('',(-0.875,0.375,0.85));
#974=DIRECTION('',(0.0,-1.0,0.0));
#975=VECTOR('',#974,0.75);
#976=LINE('',#973,#975);
#977=EDGE_CURVE('',#905,#949,#976,.T.);
#978=ORIENTED_EDGE('',*,*,#977,.T.);
#979=ORIENTED_EDGE('',*,*,#955,.T.);
#980=CARTESIAN_POINT('',(-0.775,-0.375,0.95));
#981=DIRECTION('',(0.0,1.0,0.0));
#982=VECTOR('',#981,0.75);
#983=LINE('',#980,#982);
#984=EDGE_CURVE('',#940,#914,#983,.T.);
#985=ORIENTED_EDGE('',*,*,#984,.T.);
#986=EDGE_LOOP('',(#972,#978,#979,#985));
#987=FACE_OUTER_BOUND('',#986,.T.);
#988=ADVANCED_FACE('',(#987),#971,.T.);
#989=CARTESIAN_POINT('',(-0.775,-0.375,0.0));
#990=DIRECTION('',(0.0,0.0,1.0));
#991=DIRECTION('',(-0.707106781186548,-0.707106781186547,0.0));
#992=AXIS2_PLACEMENT_3D('',#989,#990,#991);
#993=CYLINDRICAL_SURFACE('',#992,0.1);
#994=ORIENTED_EDGE('',*,*,#962,.F.);
#995=CARTESIAN_POINT('',(-0.875,-0.375,0.85));
#996=DIRECTION('',(0.0,0.0,-1.0));
#997=VECTOR('',#996,0.75);
#998=LINE('',#995,#997);
#999=EDGE_CURVE('',#949,#879,#998,.T.);
#1000=ORIENTED_EDGE('',*,*,#999,.T.);
#1001=ORIENTED_EDGE('',*,*,#885,.T.);
#1002=CARTESIAN_POINT('',(-0.775,-0.475,0.1));
#1003=DIRECTION('',(0.0,0.0,1.0));
#1004=VECTOR('',#1003,0.75);
#1005=LINE('',#1002,#1004);
#1006=EDGE_CURVE('',#870,#938,#1005,.T.);
#1007=ORIENTED_EDGE('',*,*,#1006,.T.);
#1008=EDGE_LOOP('',(#994,#1000,#1001,#1007));
#1009=FACE_OUTER_BOUND('',#1008,.T.);
#1010=ADVANCED_FACE('',(#1009),#993,.T.);
#1011=CARTESIAN_POINT('',(-0.425,-0.375,0.85));
#1012=DIRECTION('',(-1.0,0.0,0.0));
#1013=DIRECTION('',(0.0,-0.707106781186548,0.707106781186547));
#1014=AXIS2_PLACEMENT_3D('',#1011,#1012,#1013);
#1015=CYLINDRICAL_SURFACE('',#1014,0.1);
#1016=CARTESIAN_POINT('',(-0.525,-0.475,0.85));
#1017=VERTEX_POINT('',#1016);
#1018=CARTESIAN_POINT('',(-0.525,-0.375,0.95));
#1019=VERTEX_POINT('',#1018);
#1020=CARTESIAN_POINT('',(-0.525,-0.375,0.85));
#1021=DIRECTION('',(-1.0,0.0,0.0));
#1022=DIRECTION('',(0.0,-0.707106781186548,0.707106781186547));
#1023=AXIS2_PLACEMENT_3D('',#1020,#1021,#1022);
#1024=CIRCLE('',#1023,0.1);
#1025=EDGE_CURVE('',#1017,#1019,#1024,.T.);
#1026=ORIENTED_EDGE('',*,*,#1025,.T.);
#1027=CARTESIAN_POINT('',(-0.525,-0.375,0.95));
#1028=DIRECTION('',(-1.0,0.0,0.0));
#1029=VECTOR('',#1028,0.25);
#1030=LINE('',#1027,#1029);
#1031=EDGE_CURVE('',#1019,#940,#1030,.T.);
#1032=ORIENTED_EDGE('',*,*,#1031,.T.);
#1033=ORIENTED_EDGE('',*,*,#946,.F.);
#1034=CARTESIAN_POINT('',(-0.775,-0.475,0.85));
#1035=DIRECTION('',(1.0,0.0,0.0));
#1036=VECTOR('',#1035,0.25);
#1037=LINE('',#1034,#1036);
#1038=EDGE_CURVE('',#938,#1017,#1037,.T.);
#1039=ORIENTED_EDGE('',*,*,#1038,.T.);
#1040=EDGE_LOOP('',(#1026,#1032,#1033,#1039));
#1041=FACE_OUTER_BOUND('',#1040,.T.);
#1042=ADVANCED_FACE('',(#1041),#1015,.T.);
#1043=CARTESIAN_POINT('',(-0.775,0.375,0.0));
#1044=DIRECTION('',(0.0,0.0,1.0));
#1045=DIRECTION('',(-0.707106781186547,0.707106781186548,0.0));
#1046=AXIS2_PLACEMENT_3D('',#1043,#1044,#1045);
#1047=CYLINDRICAL_SURFACE('',#1046,0.1);
#1048=ORIENTED_EDGE('',*,*,#911,.F.);
#1049=CARTESIAN_POINT('',(-0.775,0.475,0.85));
#1050=DIRECTION('',(0.0,0.0,-1.0));
#1051=VECTOR('',#1050,0.75);
#1052=LINE('',#1049,#1051);
#1053=EDGE_CURVE('',#903,#844,#1052,.T.);
#1054=ORIENTED_EDGE('',*,*,#1053,.T.);
#1055=ORIENTED_EDGE('',*,*,#850,.T.);
#1056=CARTESIAN_POINT('',(-0.875,0.375,0.1));
#1057=DIRECTION('',(0.0,0.0,1.0));
#1058=VECTOR('',#1057,0.75);
#1059=LINE('',#1056,#1058);
#1060=EDGE_CURVE('',#835,#905,#1059,.T.);
#1061=ORIENTED_EDGE('',*,*,#1060,.T.);
#1062=EDGE_LOOP('',(#1048,#1054,#1055,#1061));
#1063=FACE_OUTER_BOUND('',#1062,.T.);
#1064=ADVANCED_FACE('',(#1063),#1047,.T.);
#1065=CARTESIAN_POINT('',(-0.725,0.375,0.85));
#1066=DIRECTION('',(1.0,0.0,0.0));
#1067=DIRECTION('',(0.0,0.707106781186548,0.707106781186547));
#1068=AXIS2_PLACEMENT_3D('',#1065,#1066,#1067);
#1069=CYLINDRICAL_SURFACE('',#1068,0.1);
#1070=CARTESIAN_POINT('',(-0.525,0.375,0.95));
#1071=VERTEX_POINT('',#1070);
#1072=CARTESIAN_POINT('',(-0.525,0.475,0.85));
#1073=VERTEX_POINT('',#1072);
#1074=CARTESIAN_POINT('',(-0.525,0.375,0.85));
#1075=DIRECTION('',(-1.0,0.0,0.0));
#1076=DIRECTION('',(0.0,0.707106781186548,0.707106781186547));
#1077=AXIS2_PLACEMENT_3D('',#1074,#1075,#1076);
#1078=CIRCLE('',#1077,0.1);
#1079=EDGE_CURVE('',#1071,#1073,#1078,.T.);
#1080=ORIENTED_EDGE('',*,*,#1079,.T.);
#1081=CARTESIAN_POINT('',(-0.525,0.475,0.85));
#1082=DIRECTION('',(-1.0,0.0,0.0));
#1083=VECTOR('',#1082,0.25);
#1084=LINE('',#1081,#1083);
#1085=EDGE_CURVE('',#1073,#903,#1084,.T.);
#1086=ORIENTED_EDGE('',*,*,#1085,.T.);
#1087=ORIENTED_EDGE('',*,*,#927,.F.);
#1088=CARTESIAN_POINT('',(-0.775,0.375,0.95));
#1089=DIRECTION('',(1.0,0.0,0.0));
#1090=VECTOR('',#1089,0.25);
#1091=LINE('',#1088,#1090);
#1092=EDGE_CURVE('',#914,#1071,#1091,.T.);
#1093=ORIENTED_EDGE('',*,*,#1092,.T.);
#1094=EDGE_LOOP('',(#1080,#1086,#1087,#1093));
#1095=FACE_OUTER_BOUND('',#1094,.T.);
#1096=ADVANCED_FACE('',(#1095),#1069,.T.);
#1097=CARTESIAN_POINT('',(-0.775,-0.2375,0.1));
#1098=DIRECTION('',(-1.168656E-016,-1.0,0.0));
#1099=DIRECTION('',(-0.707106781186548,0.0,-0.707106781186547));
#1100=AXIS2_PLACEMENT_3D('',#1097,#1098,#1099);
#1101=CYLINDRICAL_SURFACE('',#1100,0.1);
#1102=ORIENTED_EDGE('',*,*,#892,.F.);
#1103=CARTESIAN_POINT('',(-0.875,-0.375,0.1));
#1104=DIRECTION('',(0.0,1.0,0.0));
#1105=VECTOR('',#1104,0.75);
#1106=LINE('',#1103,#1105);
#1107=EDGE_CURVE('',#879,#835,#1106,.T.);
#1108=ORIENTED_EDGE('',*,*,#1107,.T.);
#1109=ORIENTED_EDGE('',*,*,#841,.F.);
#1110=CARTESIAN_POINT('',(-0.775,0.375,0.0));
#1111=DIRECTION('',(0.0,-1.0,0.0));
#1112=VECTOR('',#1111,0.75);
#1113=LINE('',#1110,#1112);
#1114=EDGE_CURVE('',#833,#868,#1113,.T.);
#1115=ORIENTED_EDGE('',*,*,#1114,.T.);
#1116=EDGE_LOOP('',(#1102,#1108,#1109,#1115));
#1117=FACE_OUTER_BOUND('',#1116,.T.);
#1118=ADVANCED_FACE('',(#1117),#1101,.T.);
#1119=CARTESIAN_POINT('',(-0.425,-0.375,0.1));
#1120=DIRECTION('',(1.0,0.0,0.0));
#1121=DIRECTION('',(0.0,-0.707106781186547,-0.707106781186548));
#1122=AXIS2_PLACEMENT_3D('',#1119,#1120,#1121);
#1123=CYLINDRICAL_SURFACE('',#1122,0.1);
#1124=CARTESIAN_POINT('',(-0.525,-0.375,0.0));
#1125=VERTEX_POINT('',#1124);
#1126=CARTESIAN_POINT('',(-0.525,-0.475,0.1));
#1127=VERTEX_POINT('',#1126);
#1128=CARTESIAN_POINT('',(-0.525,-0.375,0.1));
#1129=DIRECTION('',(-1.0,0.0,0.0));
#1130=DIRECTION('',(0.0,-0.707106781186547,-0.707106781186548));
#1131=AXIS2_PLACEMENT_3D('',#1128,#1129,#1130);
#1132=CIRCLE('',#1131,0.1);
#1133=EDGE_CURVE('',#1125,#1127,#1132,.T.);
#1134=ORIENTED_EDGE('',*,*,#1133,.T.);
#1135=CARTESIAN_POINT('',(-0.525,-0.475,0.1));
#1136=DIRECTION('',(-1.0,0.0,0.0));
#1137=VECTOR('',#1136,0.25);
#1138=LINE('',#1135,#1137);
#1139=EDGE_CURVE('',#1127,#870,#1138,.T.);
#1140=ORIENTED_EDGE('',*,*,#1139,.T.);
#1141=ORIENTED_EDGE('',*,*,#876,.F.);
#1142=CARTESIAN_POINT('',(-0.775,-0.375,0.0));
#1143=DIRECTION('',(1.0,0.0,0.0));
#1144=VECTOR('',#1143,0.25);
#1145=LINE('',#1142,#1144);
#1146=EDGE_CURVE('',#868,#1125,#1145,.T.);
#1147=ORIENTED_EDGE('',*,*,#1146,.T.);
#1148=EDGE_LOOP('',(#1134,#1140,#1141,#1147));
#1149=FACE_OUTER_BOUND('',#1148,.T.);
#1150=ADVANCED_FACE('',(#1149),#1123,.T.);
#1151=CARTESIAN_POINT('',(-0.725,0.375,0.1));
#1152=DIRECTION('',(-1.0,0.0,0.0));
#1153=DIRECTION('',(0.0,0.707106781186547,-0.707106781186548));
#1154=AXIS2_PLACEMENT_3D('',#1151,#1152,#1153);
#1155=CYLINDRICAL_SURFACE('',#1154,0.1);
#1156=CARTESIAN_POINT('',(-0.525,0.475,0.1));
#1157=VERTEX_POINT('',#1156);
#1158=CARTESIAN_POINT('',(-0.525,0.375,0.0));
#1159=VERTEX_POINT('',#1158);
#1160=CARTESIAN_POINT('',(-0.525,0.375,0.1));
#1161=DIRECTION('',(-1.0,0.0,0.0));
#1162=DIRECTION('',(0.0,0.707106781186547,-0.707106781186548));
#1163=AXIS2_PLACEMENT_3D('',#1160,#1161,#1162);
#1164=CIRCLE('',#1163,0.1);
#1165=EDGE_CURVE('',#1157,#1159,#1164,.T.);
#1166=ORIENTED_EDGE('',*,*,#1165,.T.);
#1167=CARTESIAN_POINT('',(-0.525,0.375,0.0));
#1168=DIRECTION('',(-1.0,0.0,0.0));
#1169=VECTOR('',#1168,0.25);
#1170=LINE('',#1167,#1169);
#1171=EDGE_CURVE('',#1159,#833,#1170,.T.);
#1172=ORIENTED_EDGE('',*,*,#1171,.T.);
#1173=ORIENTED_EDGE('',*,*,#857,.F.);
#1174=CARTESIAN_POINT('',(-0.775,0.475,0.1));
#1175=DIRECTION('',(1.0,0.0,0.0));
#1176=VECTOR('',#1175,0.25);
#1177=LINE('',#1174,#1176);
#1178=EDGE_CURVE('',#844,#1157,#1177,.T.);
#1179=ORIENTED_EDGE('',*,*,#1178,.T.);
#1180=EDGE_LOOP('',(#1166,#1172,#1173,#1179));
#1181=FACE_OUTER_BOUND('',#1180,.T.);
#1182=ADVANCED_FACE('',(#1181),#1155,.T.);
#1183=CARTESIAN_POINT('',(-0.275,-0.475,0.0));
#1184=DIRECTION('',(0.0,-1.0,0.0));
#1185=DIRECTION('',(0.0,0.0,-1.0));
#1186=AXIS2_PLACEMENT_3D('',#1183,#1184,#1185);
#1187=PLANE('',#1186);
#1188=ORIENTED_EDGE('',*,*,#1038,.F.);
#1189=ORIENTED_EDGE('',*,*,#1006,.F.);
#1190=ORIENTED_EDGE('',*,*,#1139,.F.);
#1191=CARTESIAN_POINT('',(-0.525,-0.475,0.1));
#1192=DIRECTION('',(0.0,0.0,1.0));
#1193=VECTOR('',#1192,0.75);
#1194=LINE('',#1191,#1193);
#1195=EDGE_CURVE('',#1127,#1017,#1194,.T.);
#1196=ORIENTED_EDGE('',*,*,#1195,.T.);
#1197=EDGE_LOOP('',(#1188,#1189,#1190,#1196));
#1198=FACE_OUTER_BOUND('',#1197,.T.);
#1199=ADVANCED_FACE('',(#1198),#1187,.T.);
#1200=CARTESIAN_POINT('',(-0.575,-9.278990E-018,0.0));
#1201=DIRECTION('',(0.0,0.0,1.0));
#1202=DIRECTION('',(1.0,0.0,0.0));
#1203=AXIS2_PLACEMENT_3D('',#1200,#1201,#1202);
#1204=PLANE('',#1203);
#1205=ORIENTED_EDGE('',*,*,#1146,.F.);
#1206=ORIENTED_EDGE('',*,*,#1114,.F.);
#1207=ORIENTED_EDGE('',*,*,#1171,.F.);
#1208=CARTESIAN_POINT('',(-0.525,-0.375,0.0));
#1209=DIRECTION('',(0.0,1.0,0.0));
#1210=VECTOR('',#1209,0.75);
#1211=LINE('',#1208,#1210);
#1212=EDGE_CURVE('',#1125,#1159,#1211,.T.);
#1213=ORIENTED_EDGE('',*,*,#1212,.F.);
#1214=EDGE_LOOP('',(#1205,#1206,#1207,#1213));
#1215=FACE_OUTER_BOUND('',#1214,.T.);
#1216=ADVANCED_FACE('',(#1215),#1204,.F.);
#1217=CARTESIAN_POINT('',(-0.875,-0.475,0.0));
#1218=DIRECTION('',(-1.0,0.0,0.0));
#1219=DIRECTION('',(0.0,0.0,1.0));
#1220=AXIS2_PLACEMENT_3D('',#1217,#1218,#1219);
#1221=PLANE('',#1220);
#1222=ORIENTED_EDGE('',*,*,#977,.F.);
#1223=ORIENTED_EDGE('',*,*,#1060,.F.);
#1224=ORIENTED_EDGE('',*,*,#1107,.F.);
#1225=ORIENTED_EDGE('',*,*,#999,.F.);
#1226=EDGE_LOOP('',(#1222,#1223,#1224,#1225));
#1227=FACE_OUTER_BOUND('',#1226,.T.);
#1228=ADVANCED_FACE('',(#1227),#1221,.T.);
#1229=CARTESIAN_POINT('',(-0.525,0.475,0.0));
#1230=DIRECTION('',(1.0,0.0,0.0));
#1231=DIRECTION('',(0.0,0.0,-1.0));
#1232=AXIS2_PLACEMENT_3D('',#1229,#1230,#1231);
#1233=PLANE('',#1232);
#1234=ORIENTED_EDGE('',*,*,#1025,.F.);
#1235=ORIENTED_EDGE('',*,*,#1195,.F.);
#1236=ORIENTED_EDGE('',*,*,#1133,.F.);
#1237=ORIENTED_EDGE('',*,*,#1212,.T.);
#1238=ORIENTED_EDGE('',*,*,#1165,.F.);
#1239=CARTESIAN_POINT('',(-0.525,0.475,0.1));
#1240=DIRECTION('',(0.0,0.0,1.0));
#1241=VECTOR('',#1240,0.75);
#1242=LINE('',#1239,#1241);
#1243=EDGE_CURVE('',#1157,#1073,#1242,.T.);
#1244=ORIENTED_EDGE('',*,*,#1243,.T.);
#1245=ORIENTED_EDGE('',*,*,#1079,.F.);
#1246=CARTESIAN_POINT('',(-0.525,0.375,0.95));
#1247=DIRECTION('',(0.0,-1.0,0.0));
#1248=VECTOR('',#1247,0.75);
#1249=LINE('',#1246,#1248);
#1250=EDGE_CURVE('',#1071,#1019,#1249,.T.);
#1251=ORIENTED_EDGE('',*,*,#1250,.T.);
#1252=EDGE_LOOP('',(#1234,#1235,#1236,#1237,#1238,#1244,#1245,#1251));
#1253=FACE_OUTER_BOUND('',#1252,.T.);
#1254=ADVANCED_FACE('',(#1253),#1233,.T.);
#1255=CARTESIAN_POINT('',(-0.875,0.475,0.0));
#1256=DIRECTION('',(0.0,1.0,0.0));
#1257=DIRECTION('',(0.0,0.0,1.0));
#1258=AXIS2_PLACEMENT_3D('',#1255,#1256,#1257);
#1259=PLANE('',#1258);
#1260=ORIENTED_EDGE('',*,*,#1085,.F.);
#1261=ORIENTED_EDGE('',*,*,#1243,.F.);
#1262=ORIENTED_EDGE('',*,*,#1178,.F.);
#1263=ORIENTED_EDGE('',*,*,#1053,.F.);
#1264=EDGE_LOOP('',(#1260,#1261,#1262,#1263));
#1265=FACE_OUTER_BOUND('',#1264,.T.);
#1266=ADVANCED_FACE('',(#1265),#1259,.T.);
#1267=CARTESIAN_POINT('',(-0.825,-1.847659E-017,0.95));
#1268=DIRECTION('',(0.0,0.0,1.0));
#1269=DIRECTION('',(1.0,0.0,0.0));
#1270=AXIS2_PLACEMENT_3D('',#1267,#1268,#1269);
#1271=PLANE('',#1270);
#1272=ORIENTED_EDGE('',*,*,#1031,.F.);
#1273=ORIENTED_EDGE('',*,*,#1250,.F.);
#1274=ORIENTED_EDGE('',*,*,#1092,.F.);
#1275=ORIENTED_EDGE('',*,*,#984,.F.);
#1276=EDGE_LOOP('',(#1272,#1273,#1274,#1275));
#1277=FACE_OUTER_BOUND('',#1276,.T.);
#1278=ADVANCED_FACE('',(#1277),#1271,.T.);
#1279=CLOSED_SHELL('',(#861,#896,#931,#966,#988,#1010,#1042,#1064,#1096,#1118,#1150,#1182,#1199,#1216,#1228,#1254,#1266,#1278));
#1280=MANIFOLD_SOLID_BREP('494',#1279);
#1281=STYLED_ITEM('NONE',(#825),#1280);
#1282=ADVANCED_BREP_SHAPE_REPRESENTATION('ABSR1',(#354,#818,#1280),#28);
#1283=SHAPE_REPRESENTATION_RELATIONSHIP('SRRPL1','',#1282,#62);
ENDSEC;
END-ISO-10303-21;
