ISO-10303-21;
HEADER;
/* Generated by software containing ST-Developer
 * from STEP Tools, Inc. (www.steptools.com) 
 */

FILE_DESCRIPTION(
/* description */ (''),
/* implementation_level */ '2;1');

FILE_NAME(
/* name */ 'G:\\Applications\\Altium\\CernLib\\StepLib\\CAPC4520X150N.
stp',
/* time_stamp */ '2016-11-30T12:53:08+01:00',
/* author */ ('jchouvet'),
/* organization */ (''),
/* preprocessor_version */ 'ST-DEVELOPER v16.1',
/* originating_system */ 'AutoCAD Mechanical',
/* authorisation */ '');

FILE_SCHEMA (('AUTOMOTIVE_DESIGN { 1 0 10303 214 3 1 1 }'));
ENDSEC;

DATA;
#10=MECHANICAL_DESIGN_GEOMETRIC_PRESENTATION_REPRESENTATION('',(#17,#18,
#19),#1225);
#11=DIMENSIONAL_EXPONENTS(0.,0.,0.,0.,0.,0.,0.);
#12=(
CONVERSION_BASED_UNIT('degree',#13)
NAMED_UNIT(#11)
PLANE_ANGLE_UNIT()
);
#13=PLANE_ANGLE_MEASURE_WITH_UNIT(PLANE_ANGLE_MEASURE(0.01745329252),#1228);
#14=PRESENTATION_LAYER_ASSIGNMENT('1','3D',(#20,#21,#22));
#15=SHAPE_REPRESENTATION_RELATIONSHIP('SRR','None',#1231,#16);
#16=ADVANCED_BREP_SHAPE_REPRESENTATION('',(#20,#21,#22),#1224);
#17=STYLED_ITEM('',(#1241),#20);
#18=STYLED_ITEM('',(#1241),#21);
#19=STYLED_ITEM('',(#1242),#22);
#20=MANIFOLD_SOLID_BREP('2FD3',#703);
#21=MANIFOLD_SOLID_BREP('2FD8',#704);
#22=MANIFOLD_SOLID_BREP('2FE2',#705);
#23=PLANE('',#735);
#24=PLANE('',#736);
#25=PLANE('',#737);
#26=PLANE('',#738);
#27=PLANE('',#739);
#28=PLANE('',#740);
#29=PLANE('',#769);
#30=PLANE('',#770);
#31=PLANE('',#771);
#32=PLANE('',#772);
#33=PLANE('',#773);
#34=PLANE('',#774);
#35=PLANE('',#778);
#36=PLANE('',#779);
#37=PLANE('',#785);
#38=PLANE('',#788);
#39=PLANE('',#791);
#40=PLANE('',#792);
#41=LINE('',#1035,#97);
#42=LINE('',#1036,#98);
#43=LINE('',#1045,#99);
#44=LINE('',#1046,#100);
#45=LINE('',#1051,#101);
#46=LINE('',#1052,#102);
#47=LINE('',#1064,#103);
#48=LINE('',#1065,#104);
#49=LINE('',#1067,#105);
#50=LINE('',#1068,#106);
#51=LINE('',#1077,#107);
#52=LINE('',#1078,#108);
#53=LINE('',#1080,#109);
#54=LINE('',#1081,#110);
#55=LINE('',#1086,#111);
#56=LINE('',#1087,#112);
#57=LINE('',#1089,#113);
#58=LINE('',#1091,#114);
#59=LINE('',#1094,#115);
#60=LINE('',#1095,#116);
#61=LINE('',#1116,#117);
#62=LINE('',#1117,#118);
#63=LINE('',#1126,#119);
#64=LINE('',#1127,#120);
#65=LINE('',#1136,#121);
#66=LINE('',#1137,#122);
#67=LINE('',#1142,#123);
#68=LINE('',#1143,#124);
#69=LINE('',#1145,#125);
#70=LINE('',#1146,#126);
#71=LINE('',#1151,#127);
#72=LINE('',#1152,#128);
#73=LINE('',#1154,#129);
#74=LINE('',#1155,#130);
#75=LINE('',#1160,#131);
#76=LINE('',#1161,#132);
#77=LINE('',#1163,#133);
#78=LINE('',#1165,#134);
#79=LINE('',#1168,#135);
#80=LINE('',#1169,#136);
#81=LINE('',#1177,#137);
#82=LINE('',#1180,#138);
#83=LINE('',#1183,#139);
#84=LINE('',#1185,#140);
#85=LINE('',#1186,#141);
#86=LINE('',#1189,#142);
#87=LINE('',#1193,#143);
#88=LINE('',#1197,#144);
#89=LINE('',#1202,#145);
#90=LINE('',#1205,#146);
#91=LINE('',#1206,#147);
#92=LINE('',#1211,#148);
#93=LINE('',#1212,#149);
#94=LINE('',#1214,#150);
#95=LINE('',#1218,#151);
#96=LINE('',#1220,#152);
#97=VECTOR('',#807,0.5);
#98=VECTOR('',#808,0.5);
#99=VECTOR('',#819,1.3);
#100=VECTOR('',#820,1.3);
#101=VECTOR('',#825,0.5);
#102=VECTOR('',#826,0.5);
#103=VECTOR('',#839,0.5);
#104=VECTOR('',#840,0.5);
#105=VECTOR('',#843,1.8);
#106=VECTOR('',#844,1.8);
#107=VECTOR('',#855,1.3);
#108=VECTOR('',#856,1.3);
#109=VECTOR('',#859,1.8);
#110=VECTOR('',#860,1.8);
#111=VECTOR('',#865,0.5);
#112=VECTOR('',#866,0.5);
#113=VECTOR('',#869,1.8);
#114=VECTOR('',#872,1.3);
#115=VECTOR('',#877,1.8);
#116=VECTOR('',#878,1.3);
#117=VECTOR('',#903,0.5);
#118=VECTOR('',#904,0.5);
#119=VECTOR('',#915,1.3);
#120=VECTOR('',#916,1.3);
#121=VECTOR('',#927,1.3);
#122=VECTOR('',#928,1.3);
#123=VECTOR('',#933,0.5);
#124=VECTOR('',#934,0.5);
#125=VECTOR('',#937,1.8);
#126=VECTOR('',#938,1.8);
#127=VECTOR('',#943,0.5);
#128=VECTOR('',#944,0.5);
#129=VECTOR('',#947,1.8);
#130=VECTOR('',#948,1.8);
#131=VECTOR('',#953,0.5);
#132=VECTOR('',#954,0.5);
#133=VECTOR('',#957,1.3);
#134=VECTOR('',#960,1.8);
#135=VECTOR('',#965,1.3);
#136=VECTOR('',#966,1.8);
#137=VECTOR('',#975,3.3);
#138=VECTOR('',#978,3.3);
#139=VECTOR('',#981,1.34);
#140=VECTOR('',#982,3.3);
#141=VECTOR('',#983,1.34);
#142=VECTOR('',#986,1.84);
#143=VECTOR('',#989,1.34);
#144=VECTOR('',#992,1.84);
#145=VECTOR('',#999,3.3);
#146=VECTOR('',#1002,3.3);
#147=VECTOR('',#1003,1.84);
#148=VECTOR('',#1008,3.3);
#149=VECTOR('',#1009,3.3);
#150=VECTOR('',#1012,1.84);
#151=VECTOR('',#1017,3.3);
#152=VECTOR('',#1020,1.34);
#153=CYLINDRICAL_SURFACE('',#711,0.1);
#154=CYLINDRICAL_SURFACE('',#717,0.1);
#155=CYLINDRICAL_SURFACE('',#718,0.1);
#156=CYLINDRICAL_SURFACE('',#724,0.1);
#157=CYLINDRICAL_SURFACE('',#726,0.1);
#158=CYLINDRICAL_SURFACE('',#731,0.1);
#159=CYLINDRICAL_SURFACE('',#732,0.1);
#160=CYLINDRICAL_SURFACE('',#733,0.1);
#161=CYLINDRICAL_SURFACE('',#749,0.1);
#162=CYLINDRICAL_SURFACE('',#755,0.1);
#163=CYLINDRICAL_SURFACE('',#760,0.1);
#164=CYLINDRICAL_SURFACE('',#761,0.1);
#165=CYLINDRICAL_SURFACE('',#763,0.1);
#166=CYLINDRICAL_SURFACE('',#764,0.1);
#167=CYLINDRICAL_SURFACE('',#766,0.1);
#168=CYLINDRICAL_SURFACE('',#767,0.1);
#169=CYLINDRICAL_SURFACE('',#775,0.05);
#170=CYLINDRICAL_SURFACE('',#783,0.05);
#171=CYLINDRICAL_SURFACE('',#786,0.05);
#172=CYLINDRICAL_SURFACE('',#789,0.05);
#173=FACE_OUTER_BOUND('',#219,.T.);
#174=FACE_OUTER_BOUND('',#220,.T.);
#175=FACE_OUTER_BOUND('',#221,.T.);
#176=FACE_OUTER_BOUND('',#222,.T.);
#177=FACE_OUTER_BOUND('',#223,.T.);
#178=FACE_OUTER_BOUND('',#224,.T.);
#179=FACE_OUTER_BOUND('',#225,.T.);
#180=FACE_OUTER_BOUND('',#226,.T.);
#181=FACE_OUTER_BOUND('',#227,.T.);
#182=FACE_OUTER_BOUND('',#228,.T.);
#183=FACE_OUTER_BOUND('',#229,.T.);
#184=FACE_OUTER_BOUND('',#230,.T.);
#185=FACE_OUTER_BOUND('',#231,.T.);
#186=FACE_OUTER_BOUND('',#232,.T.);
#187=FACE_OUTER_BOUND('',#233,.T.);
#188=FACE_OUTER_BOUND('',#234,.T.);
#189=FACE_OUTER_BOUND('',#235,.T.);
#190=FACE_OUTER_BOUND('',#236,.T.);
#191=FACE_OUTER_BOUND('',#237,.T.);
#192=FACE_OUTER_BOUND('',#238,.T.);
#193=FACE_OUTER_BOUND('',#239,.T.);
#194=FACE_OUTER_BOUND('',#240,.T.);
#195=FACE_OUTER_BOUND('',#241,.T.);
#196=FACE_OUTER_BOUND('',#242,.T.);
#197=FACE_OUTER_BOUND('',#243,.T.);
#198=FACE_OUTER_BOUND('',#244,.T.);
#199=FACE_OUTER_BOUND('',#245,.T.);
#200=FACE_OUTER_BOUND('',#246,.T.);
#201=FACE_OUTER_BOUND('',#247,.T.);
#202=FACE_OUTER_BOUND('',#248,.T.);
#203=FACE_OUTER_BOUND('',#249,.T.);
#204=FACE_OUTER_BOUND('',#250,.T.);
#205=FACE_OUTER_BOUND('',#251,.T.);
#206=FACE_OUTER_BOUND('',#252,.T.);
#207=FACE_OUTER_BOUND('',#253,.T.);
#208=FACE_OUTER_BOUND('',#254,.T.);
#209=FACE_OUTER_BOUND('',#255,.T.);
#210=FACE_OUTER_BOUND('',#256,.T.);
#211=FACE_OUTER_BOUND('',#257,.T.);
#212=FACE_OUTER_BOUND('',#258,.T.);
#213=FACE_OUTER_BOUND('',#259,.T.);
#214=FACE_OUTER_BOUND('',#260,.T.);
#215=FACE_OUTER_BOUND('',#261,.T.);
#216=FACE_OUTER_BOUND('',#262,.T.);
#217=FACE_OUTER_BOUND('',#263,.T.);
#218=FACE_OUTER_BOUND('',#264,.T.);
#219=EDGE_LOOP('',(#457,#458,#459));
#220=EDGE_LOOP('',(#460,#461,#462,#463));
#221=EDGE_LOOP('',(#464,#465,#466));
#222=EDGE_LOOP('',(#467,#468,#469,#470));
#223=EDGE_LOOP('',(#471,#472,#473,#474));
#224=EDGE_LOOP('',(#475,#476,#477));
#225=EDGE_LOOP('',(#478,#479,#480,#481));
#226=EDGE_LOOP('',(#482,#483,#484,#485));
#227=EDGE_LOOP('',(#486,#487,#488));
#228=EDGE_LOOP('',(#489,#490,#491,#492));
#229=EDGE_LOOP('',(#493,#494,#495,#496));
#230=EDGE_LOOP('',(#497,#498,#499,#500));
#231=EDGE_LOOP('',(#501,#502,#503,#504));
#232=EDGE_LOOP('',(#505,#506,#507,#508));
#233=EDGE_LOOP('',(#509,#510,#511,#512));
#234=EDGE_LOOP('',(#513,#514,#515,#516,#517,#518,#519,#520));
#235=EDGE_LOOP('',(#521,#522,#523,#524));
#236=EDGE_LOOP('',(#525,#526,#527,#528));
#237=EDGE_LOOP('',(#529,#530,#531));
#238=EDGE_LOOP('',(#532,#533,#534));
#239=EDGE_LOOP('',(#535,#536,#537,#538));
#240=EDGE_LOOP('',(#539,#540,#541));
#241=EDGE_LOOP('',(#542,#543,#544,#545));
#242=EDGE_LOOP('',(#546,#547,#548));
#243=EDGE_LOOP('',(#549,#550,#551,#552));
#244=EDGE_LOOP('',(#553,#554,#555,#556));
#245=EDGE_LOOP('',(#557,#558,#559,#560));
#246=EDGE_LOOP('',(#561,#562,#563,#564));
#247=EDGE_LOOP('',(#565,#566,#567,#568));
#248=EDGE_LOOP('',(#569,#570,#571,#572));
#249=EDGE_LOOP('',(#573,#574,#575,#576));
#250=EDGE_LOOP('',(#577,#578,#579,#580));
#251=EDGE_LOOP('',(#581,#582,#583,#584));
#252=EDGE_LOOP('',(#585,#586,#587,#588,#589,#590,#591,#592));
#253=EDGE_LOOP('',(#593,#594,#595,#596));
#254=EDGE_LOOP('',(#597,#598,#599,#600));
#255=EDGE_LOOP('',(#601,#602,#603,#604));
#256=EDGE_LOOP('',(#605,#606,#607,#608));
#257=EDGE_LOOP('',(#609,#610,#611,#612,#613,#614,#615,#616));
#258=EDGE_LOOP('',(#617,#618,#619,#620));
#259=EDGE_LOOP('',(#621,#622,#623,#624));
#260=EDGE_LOOP('',(#625,#626,#627,#628));
#261=EDGE_LOOP('',(#629,#630,#631,#632));
#262=EDGE_LOOP('',(#633,#634,#635,#636));
#263=EDGE_LOOP('',(#637,#638,#639,#640));
#264=EDGE_LOOP('',(#641,#642,#643,#644,#645,#646,#647,#648));
#265=CIRCLE('',#708,0.1);
#266=CIRCLE('',#709,0.1);
#267=CIRCLE('',#710,0.1);
#268=CIRCLE('',#712,0.1);
#269=CIRCLE('',#714,0.1);
#270=CIRCLE('',#715,0.1);
#271=CIRCLE('',#716,0.1);
#272=CIRCLE('',#719,0.1);
#273=CIRCLE('',#721,0.1);
#274=CIRCLE('',#722,0.1);
#275=CIRCLE('',#723,0.1);
#276=CIRCLE('',#725,0.1);
#277=CIRCLE('',#728,0.1);
#278=CIRCLE('',#729,0.1);
#279=CIRCLE('',#730,0.1);
#280=CIRCLE('',#734,0.1);
#281=CIRCLE('',#742,0.1);
#282=CIRCLE('',#743,0.1);
#283=CIRCLE('',#744,0.1);
#284=CIRCLE('',#746,0.1);
#285=CIRCLE('',#747,0.1);
#286=CIRCLE('',#748,0.1);
#287=CIRCLE('',#750,0.1);
#288=CIRCLE('',#752,0.1);
#289=CIRCLE('',#753,0.1);
#290=CIRCLE('',#754,0.1);
#291=CIRCLE('',#757,0.1);
#292=CIRCLE('',#758,0.1);
#293=CIRCLE('',#759,0.1);
#294=CIRCLE('',#762,0.1);
#295=CIRCLE('',#765,0.1);
#296=CIRCLE('',#768,0.1);
#297=CIRCLE('',#776,0.05);
#298=CIRCLE('',#777,0.05);
#299=CIRCLE('',#780,0.05);
#300=CIRCLE('',#781,0.05);
#301=CIRCLE('',#782,0.05);
#302=CIRCLE('',#784,0.05);
#303=CIRCLE('',#787,0.05);
#304=CIRCLE('',#790,0.05);
#305=VERTEX_POINT('',#1025);
#306=VERTEX_POINT('',#1026);
#307=VERTEX_POINT('',#1028);
#308=VERTEX_POINT('',#1032);
#309=VERTEX_POINT('',#1033);
#310=VERTEX_POINT('',#1038);
#311=VERTEX_POINT('',#1039);
#312=VERTEX_POINT('',#1041);
#313=VERTEX_POINT('',#1048);
#314=VERTEX_POINT('',#1049);
#315=VERTEX_POINT('',#1054);
#316=VERTEX_POINT('',#1055);
#317=VERTEX_POINT('',#1057);
#318=VERTEX_POINT('',#1061);
#319=VERTEX_POINT('',#1062);
#320=VERTEX_POINT('',#1070);
#321=VERTEX_POINT('',#1071);
#322=VERTEX_POINT('',#1073);
#323=VERTEX_POINT('',#1083);
#324=VERTEX_POINT('',#1084);
#325=VERTEX_POINT('',#1099);
#326=VERTEX_POINT('',#1100);
#327=VERTEX_POINT('',#1102);
#328=VERTEX_POINT('',#1106);
#329=VERTEX_POINT('',#1107);
#330=VERTEX_POINT('',#1109);
#331=VERTEX_POINT('',#1113);
#332=VERTEX_POINT('',#1114);
#333=VERTEX_POINT('',#1119);
#334=VERTEX_POINT('',#1120);
#335=VERTEX_POINT('',#1122);
#336=VERTEX_POINT('',#1129);
#337=VERTEX_POINT('',#1130);
#338=VERTEX_POINT('',#1132);
#339=VERTEX_POINT('',#1139);
#340=VERTEX_POINT('',#1140);
#341=VERTEX_POINT('',#1148);
#342=VERTEX_POINT('',#1149);
#343=VERTEX_POINT('',#1157);
#344=VERTEX_POINT('',#1158);
#345=VERTEX_POINT('',#1173);
#346=VERTEX_POINT('',#1174);
#347=VERTEX_POINT('',#1176);
#348=VERTEX_POINT('',#1178);
#349=VERTEX_POINT('',#1182);
#350=VERTEX_POINT('',#1184);
#351=VERTEX_POINT('',#1188);
#352=VERTEX_POINT('',#1190);
#353=VERTEX_POINT('',#1192);
#354=VERTEX_POINT('',#1194);
#355=VERTEX_POINT('',#1196);
#356=VERTEX_POINT('',#1200);
#357=VERTEX_POINT('',#1204);
#358=VERTEX_POINT('',#1208);
#359=VERTEX_POINT('',#1209);
#360=VERTEX_POINT('',#1216);
#361=EDGE_CURVE('',#305,#306,#265,.F.);
#362=EDGE_CURVE('',#307,#305,#266,.F.);
#363=EDGE_CURVE('',#306,#307,#267,.F.);
#364=EDGE_CURVE('',#308,#309,#268,.T.);
#365=EDGE_CURVE('',#309,#307,#41,.T.);
#366=EDGE_CURVE('',#305,#308,#42,.T.);
#367=EDGE_CURVE('',#310,#311,#269,.F.);
#368=EDGE_CURVE('',#312,#310,#270,.F.);
#369=EDGE_CURVE('',#311,#312,#271,.F.);
#370=EDGE_CURVE('',#310,#306,#43,.T.);
#371=EDGE_CURVE('',#307,#312,#44,.T.);
#372=EDGE_CURVE('',#313,#314,#272,.T.);
#373=EDGE_CURVE('',#314,#311,#45,.T.);
#374=EDGE_CURVE('',#312,#313,#46,.T.);
#375=EDGE_CURVE('',#315,#316,#273,.F.);
#376=EDGE_CURVE('',#317,#315,#274,.F.);
#377=EDGE_CURVE('',#316,#317,#275,.F.);
#378=EDGE_CURVE('',#318,#319,#276,.T.);
#379=EDGE_CURVE('',#319,#317,#47,.T.);
#380=EDGE_CURVE('',#315,#318,#48,.T.);
#381=EDGE_CURVE('',#317,#305,#49,.T.);
#382=EDGE_CURVE('',#306,#316,#50,.T.);
#383=EDGE_CURVE('',#320,#321,#277,.F.);
#384=EDGE_CURVE('',#322,#320,#278,.F.);
#385=EDGE_CURVE('',#321,#322,#279,.F.);
#386=EDGE_CURVE('',#320,#315,#51,.T.);
#387=EDGE_CURVE('',#316,#322,#52,.T.);
#388=EDGE_CURVE('',#311,#321,#53,.T.);
#389=EDGE_CURVE('',#322,#310,#54,.T.);
#390=EDGE_CURVE('',#323,#324,#280,.T.);
#391=EDGE_CURVE('',#324,#320,#55,.T.);
#392=EDGE_CURVE('',#321,#323,#56,.T.);
#393=EDGE_CURVE('',#319,#308,#57,.T.);
#394=EDGE_CURVE('',#318,#324,#58,.T.);
#395=EDGE_CURVE('',#314,#323,#59,.T.);
#396=EDGE_CURVE('',#309,#313,#60,.T.);
#397=EDGE_CURVE('',#325,#326,#281,.F.);
#398=EDGE_CURVE('',#327,#325,#282,.F.);
#399=EDGE_CURVE('',#326,#327,#283,.F.);
#400=EDGE_CURVE('',#328,#329,#284,.F.);
#401=EDGE_CURVE('',#330,#328,#285,.F.);
#402=EDGE_CURVE('',#329,#330,#286,.F.);
#403=EDGE_CURVE('',#331,#332,#287,.T.);
#404=EDGE_CURVE('',#332,#330,#61,.T.);
#405=EDGE_CURVE('',#328,#331,#62,.T.);
#406=EDGE_CURVE('',#333,#334,#288,.F.);
#407=EDGE_CURVE('',#335,#333,#289,.F.);
#408=EDGE_CURVE('',#334,#335,#290,.F.);
#409=EDGE_CURVE('',#333,#326,#63,.T.);
#410=EDGE_CURVE('',#327,#335,#64,.T.);
#411=EDGE_CURVE('',#336,#337,#291,.F.);
#412=EDGE_CURVE('',#338,#336,#292,.F.);
#413=EDGE_CURVE('',#337,#338,#293,.F.);
#414=EDGE_CURVE('',#336,#329,#65,.T.);
#415=EDGE_CURVE('',#330,#338,#66,.T.);
#416=EDGE_CURVE('',#339,#340,#294,.T.);
#417=EDGE_CURVE('',#340,#337,#67,.T.);
#418=EDGE_CURVE('',#338,#339,#68,.T.);
#419=EDGE_CURVE('',#337,#334,#69,.T.);
#420=EDGE_CURVE('',#335,#336,#70,.T.);
#421=EDGE_CURVE('',#341,#342,#295,.T.);
#422=EDGE_CURVE('',#342,#333,#71,.T.);
#423=EDGE_CURVE('',#334,#341,#72,.T.);
#424=EDGE_CURVE('',#325,#328,#73,.T.);
#425=EDGE_CURVE('',#329,#327,#74,.T.);
#426=EDGE_CURVE('',#343,#344,#296,.T.);
#427=EDGE_CURVE('',#344,#325,#75,.T.);
#428=EDGE_CURVE('',#326,#343,#76,.T.);
#429=EDGE_CURVE('',#343,#342,#77,.T.);
#430=EDGE_CURVE('',#340,#341,#78,.T.);
#431=EDGE_CURVE('',#332,#339,#79,.T.);
#432=EDGE_CURVE('',#344,#331,#80,.T.);
#433=EDGE_CURVE('',#345,#346,#297,.T.);
#434=EDGE_CURVE('',#346,#347,#81,.T.);
#435=EDGE_CURVE('',#347,#348,#298,.T.);
#436=EDGE_CURVE('',#348,#345,#82,.T.);
#437=EDGE_CURVE('',#348,#349,#83,.T.);
#438=EDGE_CURVE('',#350,#349,#84,.T.);
#439=EDGE_CURVE('',#345,#350,#85,.T.);
#440=EDGE_CURVE('',#351,#347,#86,.T.);
#441=EDGE_CURVE('',#352,#351,#299,.T.);
#442=EDGE_CURVE('',#353,#352,#87,.T.);
#443=EDGE_CURVE('',#354,#353,#300,.T.);
#444=EDGE_CURVE('',#355,#354,#88,.T.);
#445=EDGE_CURVE('',#349,#355,#301,.T.);
#446=EDGE_CURVE('',#356,#350,#302,.T.);
#447=EDGE_CURVE('',#355,#356,#89,.T.);
#448=EDGE_CURVE('',#357,#354,#90,.T.);
#449=EDGE_CURVE('',#356,#357,#91,.T.);
#450=EDGE_CURVE('',#358,#359,#303,.T.);
#451=EDGE_CURVE('',#359,#352,#92,.T.);
#452=EDGE_CURVE('',#351,#358,#93,.T.);
#453=EDGE_CURVE('',#358,#346,#94,.T.);
#454=EDGE_CURVE('',#360,#357,#304,.T.);
#455=EDGE_CURVE('',#353,#360,#95,.T.);
#456=EDGE_CURVE('',#360,#359,#96,.T.);
#457=ORIENTED_EDGE('',*,*,#361,.F.);
#458=ORIENTED_EDGE('',*,*,#362,.F.);
#459=ORIENTED_EDGE('',*,*,#363,.F.);
#460=ORIENTED_EDGE('',*,*,#364,.T.);
#461=ORIENTED_EDGE('',*,*,#365,.T.);
#462=ORIENTED_EDGE('',*,*,#362,.T.);
#463=ORIENTED_EDGE('',*,*,#366,.T.);
#464=ORIENTED_EDGE('',*,*,#367,.F.);
#465=ORIENTED_EDGE('',*,*,#368,.F.);
#466=ORIENTED_EDGE('',*,*,#369,.F.);
#467=ORIENTED_EDGE('',*,*,#368,.T.);
#468=ORIENTED_EDGE('',*,*,#370,.T.);
#469=ORIENTED_EDGE('',*,*,#363,.T.);
#470=ORIENTED_EDGE('',*,*,#371,.T.);
#471=ORIENTED_EDGE('',*,*,#372,.T.);
#472=ORIENTED_EDGE('',*,*,#373,.T.);
#473=ORIENTED_EDGE('',*,*,#369,.T.);
#474=ORIENTED_EDGE('',*,*,#374,.T.);
#475=ORIENTED_EDGE('',*,*,#375,.F.);
#476=ORIENTED_EDGE('',*,*,#376,.F.);
#477=ORIENTED_EDGE('',*,*,#377,.F.);
#478=ORIENTED_EDGE('',*,*,#378,.T.);
#479=ORIENTED_EDGE('',*,*,#379,.T.);
#480=ORIENTED_EDGE('',*,*,#376,.T.);
#481=ORIENTED_EDGE('',*,*,#380,.T.);
#482=ORIENTED_EDGE('',*,*,#377,.T.);
#483=ORIENTED_EDGE('',*,*,#381,.T.);
#484=ORIENTED_EDGE('',*,*,#361,.T.);
#485=ORIENTED_EDGE('',*,*,#382,.T.);
#486=ORIENTED_EDGE('',*,*,#383,.F.);
#487=ORIENTED_EDGE('',*,*,#384,.F.);
#488=ORIENTED_EDGE('',*,*,#385,.F.);
#489=ORIENTED_EDGE('',*,*,#384,.T.);
#490=ORIENTED_EDGE('',*,*,#386,.T.);
#491=ORIENTED_EDGE('',*,*,#375,.T.);
#492=ORIENTED_EDGE('',*,*,#387,.T.);
#493=ORIENTED_EDGE('',*,*,#367,.T.);
#494=ORIENTED_EDGE('',*,*,#388,.T.);
#495=ORIENTED_EDGE('',*,*,#385,.T.);
#496=ORIENTED_EDGE('',*,*,#389,.T.);
#497=ORIENTED_EDGE('',*,*,#390,.T.);
#498=ORIENTED_EDGE('',*,*,#391,.T.);
#499=ORIENTED_EDGE('',*,*,#383,.T.);
#500=ORIENTED_EDGE('',*,*,#392,.T.);
#501=ORIENTED_EDGE('',*,*,#366,.F.);
#502=ORIENTED_EDGE('',*,*,#381,.F.);
#503=ORIENTED_EDGE('',*,*,#379,.F.);
#504=ORIENTED_EDGE('',*,*,#393,.T.);
#505=ORIENTED_EDGE('',*,*,#380,.F.);
#506=ORIENTED_EDGE('',*,*,#386,.F.);
#507=ORIENTED_EDGE('',*,*,#391,.F.);
#508=ORIENTED_EDGE('',*,*,#394,.F.);
#509=ORIENTED_EDGE('',*,*,#370,.F.);
#510=ORIENTED_EDGE('',*,*,#389,.F.);
#511=ORIENTED_EDGE('',*,*,#387,.F.);
#512=ORIENTED_EDGE('',*,*,#382,.F.);
#513=ORIENTED_EDGE('',*,*,#364,.F.);
#514=ORIENTED_EDGE('',*,*,#393,.F.);
#515=ORIENTED_EDGE('',*,*,#378,.F.);
#516=ORIENTED_EDGE('',*,*,#394,.T.);
#517=ORIENTED_EDGE('',*,*,#390,.F.);
#518=ORIENTED_EDGE('',*,*,#395,.F.);
#519=ORIENTED_EDGE('',*,*,#372,.F.);
#520=ORIENTED_EDGE('',*,*,#396,.F.);
#521=ORIENTED_EDGE('',*,*,#365,.F.);
#522=ORIENTED_EDGE('',*,*,#396,.T.);
#523=ORIENTED_EDGE('',*,*,#374,.F.);
#524=ORIENTED_EDGE('',*,*,#371,.F.);
#525=ORIENTED_EDGE('',*,*,#373,.F.);
#526=ORIENTED_EDGE('',*,*,#395,.T.);
#527=ORIENTED_EDGE('',*,*,#392,.F.);
#528=ORIENTED_EDGE('',*,*,#388,.F.);
#529=ORIENTED_EDGE('',*,*,#397,.F.);
#530=ORIENTED_EDGE('',*,*,#398,.F.);
#531=ORIENTED_EDGE('',*,*,#399,.F.);
#532=ORIENTED_EDGE('',*,*,#400,.F.);
#533=ORIENTED_EDGE('',*,*,#401,.F.);
#534=ORIENTED_EDGE('',*,*,#402,.F.);
#535=ORIENTED_EDGE('',*,*,#403,.T.);
#536=ORIENTED_EDGE('',*,*,#404,.T.);
#537=ORIENTED_EDGE('',*,*,#401,.T.);
#538=ORIENTED_EDGE('',*,*,#405,.T.);
#539=ORIENTED_EDGE('',*,*,#406,.F.);
#540=ORIENTED_EDGE('',*,*,#407,.F.);
#541=ORIENTED_EDGE('',*,*,#408,.F.);
#542=ORIENTED_EDGE('',*,*,#407,.T.);
#543=ORIENTED_EDGE('',*,*,#409,.T.);
#544=ORIENTED_EDGE('',*,*,#399,.T.);
#545=ORIENTED_EDGE('',*,*,#410,.T.);
#546=ORIENTED_EDGE('',*,*,#411,.F.);
#547=ORIENTED_EDGE('',*,*,#412,.F.);
#548=ORIENTED_EDGE('',*,*,#413,.F.);
#549=ORIENTED_EDGE('',*,*,#412,.T.);
#550=ORIENTED_EDGE('',*,*,#414,.T.);
#551=ORIENTED_EDGE('',*,*,#402,.T.);
#552=ORIENTED_EDGE('',*,*,#415,.T.);
#553=ORIENTED_EDGE('',*,*,#416,.T.);
#554=ORIENTED_EDGE('',*,*,#417,.T.);
#555=ORIENTED_EDGE('',*,*,#413,.T.);
#556=ORIENTED_EDGE('',*,*,#418,.T.);
#557=ORIENTED_EDGE('',*,*,#411,.T.);
#558=ORIENTED_EDGE('',*,*,#419,.T.);
#559=ORIENTED_EDGE('',*,*,#408,.T.);
#560=ORIENTED_EDGE('',*,*,#420,.T.);
#561=ORIENTED_EDGE('',*,*,#421,.T.);
#562=ORIENTED_EDGE('',*,*,#422,.T.);
#563=ORIENTED_EDGE('',*,*,#406,.T.);
#564=ORIENTED_EDGE('',*,*,#423,.T.);
#565=ORIENTED_EDGE('',*,*,#398,.T.);
#566=ORIENTED_EDGE('',*,*,#424,.T.);
#567=ORIENTED_EDGE('',*,*,#400,.T.);
#568=ORIENTED_EDGE('',*,*,#425,.T.);
#569=ORIENTED_EDGE('',*,*,#426,.T.);
#570=ORIENTED_EDGE('',*,*,#427,.T.);
#571=ORIENTED_EDGE('',*,*,#397,.T.);
#572=ORIENTED_EDGE('',*,*,#428,.T.);
#573=ORIENTED_EDGE('',*,*,#428,.F.);
#574=ORIENTED_EDGE('',*,*,#409,.F.);
#575=ORIENTED_EDGE('',*,*,#422,.F.);
#576=ORIENTED_EDGE('',*,*,#429,.F.);
#577=ORIENTED_EDGE('',*,*,#423,.F.);
#578=ORIENTED_EDGE('',*,*,#419,.F.);
#579=ORIENTED_EDGE('',*,*,#417,.F.);
#580=ORIENTED_EDGE('',*,*,#430,.T.);
#581=ORIENTED_EDGE('',*,*,#414,.F.);
#582=ORIENTED_EDGE('',*,*,#420,.F.);
#583=ORIENTED_EDGE('',*,*,#410,.F.);
#584=ORIENTED_EDGE('',*,*,#425,.F.);
#585=ORIENTED_EDGE('',*,*,#426,.F.);
#586=ORIENTED_EDGE('',*,*,#429,.T.);
#587=ORIENTED_EDGE('',*,*,#421,.F.);
#588=ORIENTED_EDGE('',*,*,#430,.F.);
#589=ORIENTED_EDGE('',*,*,#416,.F.);
#590=ORIENTED_EDGE('',*,*,#431,.F.);
#591=ORIENTED_EDGE('',*,*,#403,.F.);
#592=ORIENTED_EDGE('',*,*,#432,.F.);
#593=ORIENTED_EDGE('',*,*,#404,.F.);
#594=ORIENTED_EDGE('',*,*,#431,.T.);
#595=ORIENTED_EDGE('',*,*,#418,.F.);
#596=ORIENTED_EDGE('',*,*,#415,.F.);
#597=ORIENTED_EDGE('',*,*,#427,.F.);
#598=ORIENTED_EDGE('',*,*,#432,.T.);
#599=ORIENTED_EDGE('',*,*,#405,.F.);
#600=ORIENTED_EDGE('',*,*,#424,.F.);
#601=ORIENTED_EDGE('',*,*,#433,.T.);
#602=ORIENTED_EDGE('',*,*,#434,.T.);
#603=ORIENTED_EDGE('',*,*,#435,.T.);
#604=ORIENTED_EDGE('',*,*,#436,.T.);
#605=ORIENTED_EDGE('',*,*,#436,.F.);
#606=ORIENTED_EDGE('',*,*,#437,.T.);
#607=ORIENTED_EDGE('',*,*,#438,.F.);
#608=ORIENTED_EDGE('',*,*,#439,.F.);
#609=ORIENTED_EDGE('',*,*,#435,.F.);
#610=ORIENTED_EDGE('',*,*,#440,.F.);
#611=ORIENTED_EDGE('',*,*,#441,.F.);
#612=ORIENTED_EDGE('',*,*,#442,.F.);
#613=ORIENTED_EDGE('',*,*,#443,.F.);
#614=ORIENTED_EDGE('',*,*,#444,.F.);
#615=ORIENTED_EDGE('',*,*,#445,.F.);
#616=ORIENTED_EDGE('',*,*,#437,.F.);
#617=ORIENTED_EDGE('',*,*,#446,.T.);
#618=ORIENTED_EDGE('',*,*,#438,.T.);
#619=ORIENTED_EDGE('',*,*,#445,.T.);
#620=ORIENTED_EDGE('',*,*,#447,.T.);
#621=ORIENTED_EDGE('',*,*,#447,.F.);
#622=ORIENTED_EDGE('',*,*,#444,.T.);
#623=ORIENTED_EDGE('',*,*,#448,.F.);
#624=ORIENTED_EDGE('',*,*,#449,.F.);
#625=ORIENTED_EDGE('',*,*,#450,.T.);
#626=ORIENTED_EDGE('',*,*,#451,.T.);
#627=ORIENTED_EDGE('',*,*,#441,.T.);
#628=ORIENTED_EDGE('',*,*,#452,.T.);
#629=ORIENTED_EDGE('',*,*,#434,.F.);
#630=ORIENTED_EDGE('',*,*,#453,.F.);
#631=ORIENTED_EDGE('',*,*,#452,.F.);
#632=ORIENTED_EDGE('',*,*,#440,.T.);
#633=ORIENTED_EDGE('',*,*,#454,.T.);
#634=ORIENTED_EDGE('',*,*,#448,.T.);
#635=ORIENTED_EDGE('',*,*,#443,.T.);
#636=ORIENTED_EDGE('',*,*,#455,.T.);
#637=ORIENTED_EDGE('',*,*,#451,.F.);
#638=ORIENTED_EDGE('',*,*,#456,.F.);
#639=ORIENTED_EDGE('',*,*,#455,.F.);
#640=ORIENTED_EDGE('',*,*,#442,.T.);
#641=ORIENTED_EDGE('',*,*,#433,.F.);
#642=ORIENTED_EDGE('',*,*,#439,.T.);
#643=ORIENTED_EDGE('',*,*,#446,.F.);
#644=ORIENTED_EDGE('',*,*,#449,.T.);
#645=ORIENTED_EDGE('',*,*,#454,.F.);
#646=ORIENTED_EDGE('',*,*,#456,.T.);
#647=ORIENTED_EDGE('',*,*,#450,.F.);
#648=ORIENTED_EDGE('',*,*,#453,.T.);
#649=SPHERICAL_SURFACE('',#707,0.1);
#650=SPHERICAL_SURFACE('',#713,0.1);
#651=SPHERICAL_SURFACE('',#720,0.1);
#652=SPHERICAL_SURFACE('',#727,0.1);
#653=SPHERICAL_SURFACE('',#741,0.1);
#654=SPHERICAL_SURFACE('',#745,0.1);
#655=SPHERICAL_SURFACE('',#751,0.1);
#656=SPHERICAL_SURFACE('',#756,0.1);
#657=ADVANCED_FACE('',(#173),#649,.T.);
#658=ADVANCED_FACE('',(#174),#153,.T.);
#659=ADVANCED_FACE('',(#175),#650,.T.);
#660=ADVANCED_FACE('',(#176),#154,.T.);
#661=ADVANCED_FACE('',(#177),#155,.T.);
#662=ADVANCED_FACE('',(#178),#651,.T.);
#663=ADVANCED_FACE('',(#179),#156,.T.);
#664=ADVANCED_FACE('',(#180),#157,.T.);
#665=ADVANCED_FACE('',(#181),#652,.T.);
#666=ADVANCED_FACE('',(#182),#158,.T.);
#667=ADVANCED_FACE('',(#183),#159,.T.);
#668=ADVANCED_FACE('',(#184),#160,.T.);
#669=ADVANCED_FACE('',(#185),#23,.F.);
#670=ADVANCED_FACE('',(#186),#24,.T.);
#671=ADVANCED_FACE('',(#187),#25,.T.);
#672=ADVANCED_FACE('',(#188),#26,.T.);
#673=ADVANCED_FACE('',(#189),#27,.T.);
#674=ADVANCED_FACE('',(#190),#28,.T.);
#675=ADVANCED_FACE('',(#191),#653,.T.);
#676=ADVANCED_FACE('',(#192),#654,.T.);
#677=ADVANCED_FACE('',(#193),#161,.T.);
#678=ADVANCED_FACE('',(#194),#655,.T.);
#679=ADVANCED_FACE('',(#195),#162,.T.);
#680=ADVANCED_FACE('',(#196),#656,.T.);
#681=ADVANCED_FACE('',(#197),#163,.T.);
#682=ADVANCED_FACE('',(#198),#164,.T.);
#683=ADVANCED_FACE('',(#199),#165,.T.);
#684=ADVANCED_FACE('',(#200),#166,.T.);
#685=ADVANCED_FACE('',(#201),#167,.T.);
#686=ADVANCED_FACE('',(#202),#168,.T.);
#687=ADVANCED_FACE('',(#203),#29,.T.);
#688=ADVANCED_FACE('',(#204),#30,.T.);
#689=ADVANCED_FACE('',(#205),#31,.T.);
#690=ADVANCED_FACE('',(#206),#32,.T.);
#691=ADVANCED_FACE('',(#207),#33,.T.);
#692=ADVANCED_FACE('',(#208),#34,.F.);
#693=ADVANCED_FACE('',(#209),#169,.T.);
#694=ADVANCED_FACE('',(#210),#35,.T.);
#695=ADVANCED_FACE('',(#211),#36,.T.);
#696=ADVANCED_FACE('',(#212),#170,.T.);
#697=ADVANCED_FACE('',(#213),#37,.T.);
#698=ADVANCED_FACE('',(#214),#171,.T.);
#699=ADVANCED_FACE('',(#215),#38,.T.);
#700=ADVANCED_FACE('',(#216),#172,.T.);
#701=ADVANCED_FACE('',(#217),#39,.T.);
#702=ADVANCED_FACE('',(#218),#40,.T.);
#703=CLOSED_SHELL('',(#657,#658,#659,#660,#661,#662,#663,#664,#665,#666,
#667,#668,#669,#670,#671,#672,#673,#674));
#704=CLOSED_SHELL('',(#675,#676,#677,#678,#679,#680,#681,#682,#683,#684,
#685,#686,#687,#688,#689,#690,#691,#692));
#705=CLOSED_SHELL('',(#693,#694,#695,#696,#697,#698,#699,#700,#701,#702));
#706=AXIS2_PLACEMENT_3D('placement',#1023,#793,#794);
#707=AXIS2_PLACEMENT_3D('',#1024,#795,#796);
#708=AXIS2_PLACEMENT_3D('',#1027,#797,#798);
#709=AXIS2_PLACEMENT_3D('',#1029,#799,#800);
#710=AXIS2_PLACEMENT_3D('',#1030,#801,#802);
#711=AXIS2_PLACEMENT_3D('',#1031,#803,#804);
#712=AXIS2_PLACEMENT_3D('',#1034,#805,#806);
#713=AXIS2_PLACEMENT_3D('',#1037,#809,#810);
#714=AXIS2_PLACEMENT_3D('',#1040,#811,#812);
#715=AXIS2_PLACEMENT_3D('',#1042,#813,#814);
#716=AXIS2_PLACEMENT_3D('',#1043,#815,#816);
#717=AXIS2_PLACEMENT_3D('',#1044,#817,#818);
#718=AXIS2_PLACEMENT_3D('',#1047,#821,#822);
#719=AXIS2_PLACEMENT_3D('',#1050,#823,#824);
#720=AXIS2_PLACEMENT_3D('',#1053,#827,#828);
#721=AXIS2_PLACEMENT_3D('',#1056,#829,#830);
#722=AXIS2_PLACEMENT_3D('',#1058,#831,#832);
#723=AXIS2_PLACEMENT_3D('',#1059,#833,#834);
#724=AXIS2_PLACEMENT_3D('',#1060,#835,#836);
#725=AXIS2_PLACEMENT_3D('',#1063,#837,#838);
#726=AXIS2_PLACEMENT_3D('',#1066,#841,#842);
#727=AXIS2_PLACEMENT_3D('',#1069,#845,#846);
#728=AXIS2_PLACEMENT_3D('',#1072,#847,#848);
#729=AXIS2_PLACEMENT_3D('',#1074,#849,#850);
#730=AXIS2_PLACEMENT_3D('',#1075,#851,#852);
#731=AXIS2_PLACEMENT_3D('',#1076,#853,#854);
#732=AXIS2_PLACEMENT_3D('',#1079,#857,#858);
#733=AXIS2_PLACEMENT_3D('',#1082,#861,#862);
#734=AXIS2_PLACEMENT_3D('',#1085,#863,#864);
#735=AXIS2_PLACEMENT_3D('',#1088,#867,#868);
#736=AXIS2_PLACEMENT_3D('',#1090,#870,#871);
#737=AXIS2_PLACEMENT_3D('',#1092,#873,#874);
#738=AXIS2_PLACEMENT_3D('',#1093,#875,#876);
#739=AXIS2_PLACEMENT_3D('',#1096,#879,#880);
#740=AXIS2_PLACEMENT_3D('',#1097,#881,#882);
#741=AXIS2_PLACEMENT_3D('',#1098,#883,#884);
#742=AXIS2_PLACEMENT_3D('',#1101,#885,#886);
#743=AXIS2_PLACEMENT_3D('',#1103,#887,#888);
#744=AXIS2_PLACEMENT_3D('',#1104,#889,#890);
#745=AXIS2_PLACEMENT_3D('',#1105,#891,#892);
#746=AXIS2_PLACEMENT_3D('',#1108,#893,#894);
#747=AXIS2_PLACEMENT_3D('',#1110,#895,#896);
#748=AXIS2_PLACEMENT_3D('',#1111,#897,#898);
#749=AXIS2_PLACEMENT_3D('',#1112,#899,#900);
#750=AXIS2_PLACEMENT_3D('',#1115,#901,#902);
#751=AXIS2_PLACEMENT_3D('',#1118,#905,#906);
#752=AXIS2_PLACEMENT_3D('',#1121,#907,#908);
#753=AXIS2_PLACEMENT_3D('',#1123,#909,#910);
#754=AXIS2_PLACEMENT_3D('',#1124,#911,#912);
#755=AXIS2_PLACEMENT_3D('',#1125,#913,#914);
#756=AXIS2_PLACEMENT_3D('',#1128,#917,#918);
#757=AXIS2_PLACEMENT_3D('',#1131,#919,#920);
#758=AXIS2_PLACEMENT_3D('',#1133,#921,#922);
#759=AXIS2_PLACEMENT_3D('',#1134,#923,#924);
#760=AXIS2_PLACEMENT_3D('',#1135,#925,#926);
#761=AXIS2_PLACEMENT_3D('',#1138,#929,#930);
#762=AXIS2_PLACEMENT_3D('',#1141,#931,#932);
#763=AXIS2_PLACEMENT_3D('',#1144,#935,#936);
#764=AXIS2_PLACEMENT_3D('',#1147,#939,#940);
#765=AXIS2_PLACEMENT_3D('',#1150,#941,#942);
#766=AXIS2_PLACEMENT_3D('',#1153,#945,#946);
#767=AXIS2_PLACEMENT_3D('',#1156,#949,#950);
#768=AXIS2_PLACEMENT_3D('',#1159,#951,#952);
#769=AXIS2_PLACEMENT_3D('',#1162,#955,#956);
#770=AXIS2_PLACEMENT_3D('',#1164,#958,#959);
#771=AXIS2_PLACEMENT_3D('',#1166,#961,#962);
#772=AXIS2_PLACEMENT_3D('',#1167,#963,#964);
#773=AXIS2_PLACEMENT_3D('',#1170,#967,#968);
#774=AXIS2_PLACEMENT_3D('',#1171,#969,#970);
#775=AXIS2_PLACEMENT_3D('',#1172,#971,#972);
#776=AXIS2_PLACEMENT_3D('',#1175,#973,#974);
#777=AXIS2_PLACEMENT_3D('',#1179,#976,#977);
#778=AXIS2_PLACEMENT_3D('',#1181,#979,#980);
#779=AXIS2_PLACEMENT_3D('',#1187,#984,#985);
#780=AXIS2_PLACEMENT_3D('',#1191,#987,#988);
#781=AXIS2_PLACEMENT_3D('',#1195,#990,#991);
#782=AXIS2_PLACEMENT_3D('',#1198,#993,#994);
#783=AXIS2_PLACEMENT_3D('',#1199,#995,#996);
#784=AXIS2_PLACEMENT_3D('',#1201,#997,#998);
#785=AXIS2_PLACEMENT_3D('',#1203,#1000,#1001);
#786=AXIS2_PLACEMENT_3D('',#1207,#1004,#1005);
#787=AXIS2_PLACEMENT_3D('',#1210,#1006,#1007);
#788=AXIS2_PLACEMENT_3D('',#1213,#1010,#1011);
#789=AXIS2_PLACEMENT_3D('',#1215,#1013,#1014);
#790=AXIS2_PLACEMENT_3D('',#1217,#1015,#1016);
#791=AXIS2_PLACEMENT_3D('',#1219,#1018,#1019);
#792=AXIS2_PLACEMENT_3D('',#1221,#1021,#1022);
#793=DIRECTION('axis',(0.,0.,1.));
#794=DIRECTION('refdir',(1.,0.,0.));
#795=DIRECTION('center_axis',(0.408248290463864,0.408248290463863,-0.816496580927726));
#796=DIRECTION('ref_axis',(-0.577350269189627,-0.577350269189625,-0.577350269189626));
#797=DIRECTION('center_axis',(0.,-1.,0.));
#798=DIRECTION('ref_axis',(0.,0.,-1.));
#799=DIRECTION('center_axis',(-1.,0.,0.));
#800=DIRECTION('ref_axis',(0.,-1.,0.));
#801=DIRECTION('center_axis',(0.,0.,-1.));
#802=DIRECTION('ref_axis',(-1.,0.,0.));
#803=DIRECTION('center_axis',(-1.,0.,0.));
#804=DIRECTION('ref_axis',(0.,-0.707106781186547,-0.707106781186548));
#805=DIRECTION('center_axis',(-1.,0.,0.));
#806=DIRECTION('ref_axis',(0.,-0.707106781186547,-0.707106781186548));
#807=DIRECTION('',(-1.,0.,0.));
#808=DIRECTION('',(1.,0.,0.));
#809=DIRECTION('center_axis',(0.408248290463863,-0.816496580927726,-0.408248290463863));
#810=DIRECTION('ref_axis',(-0.577350269189626,-0.577350269189625,0.577350269189626));
#811=DIRECTION('center_axis',(0.,-1.,0.));
#812=DIRECTION('ref_axis',(-1.,0.,0.));
#813=DIRECTION('center_axis',(0.,0.,1.));
#814=DIRECTION('ref_axis',(0.,-1.,0.));
#815=DIRECTION('center_axis',(-1.,0.,0.));
#816=DIRECTION('ref_axis',(0.,0.,1.));
#817=DIRECTION('center_axis',(0.,0.,1.));
#818=DIRECTION('ref_axis',(-0.707106781186546,-0.707106781186549,0.));
#819=DIRECTION('',(0.,0.,-1.));
#820=DIRECTION('',(0.,0.,1.));
#821=DIRECTION('center_axis',(1.,0.,0.));
#822=DIRECTION('ref_axis',(0.,-0.707106781186547,0.707106781186548));
#823=DIRECTION('center_axis',(-1.,0.,0.));
#824=DIRECTION('ref_axis',(0.,-0.707106781186547,0.707106781186548));
#825=DIRECTION('',(-1.,0.,0.));
#826=DIRECTION('',(1.,0.,0.));
#827=DIRECTION('center_axis',(0.408248290463864,-0.408248290463863,-0.816496580927726));
#828=DIRECTION('ref_axis',(-0.577350269189627,0.577350269189625,-0.577350269189626));
#829=DIRECTION('center_axis',(0.,0.,-1.));
#830=DIRECTION('ref_axis',(0.,1.,0.));
#831=DIRECTION('center_axis',(-1.,0.,0.));
#832=DIRECTION('ref_axis',(0.,0.,-1.));
#833=DIRECTION('center_axis',(0.,1.,1.11022302462516E-15));
#834=DIRECTION('ref_axis',(-1.,0.,0.));
#835=DIRECTION('center_axis',(1.,0.,0.));
#836=DIRECTION('ref_axis',(0.,0.707106781186547,-0.707106781186548));
#837=DIRECTION('center_axis',(-1.,0.,0.));
#838=DIRECTION('ref_axis',(0.,0.707106781186547,-0.707106781186548));
#839=DIRECTION('',(-1.,0.,0.));
#840=DIRECTION('',(1.,0.,0.));
#841=DIRECTION('center_axis',(0.,1.,0.));
#842=DIRECTION('ref_axis',(-0.707106781186546,0.,-0.707106781186549));
#843=DIRECTION('',(0.,-1.,0.));
#844=DIRECTION('',(0.,1.,0.));
#845=DIRECTION('center_axis',(-0.816496580927726,-0.408248290463862,-0.408248290463863));
#846=DIRECTION('ref_axis',(-0.577350269189626,0.577350269189626,0.577350269189626));
#847=DIRECTION('center_axis',(-1.,0.,0.));
#848=DIRECTION('ref_axis',(0.,1.,0.));
#849=DIRECTION('center_axis',(0.,0.,1.));
#850=DIRECTION('ref_axis',(-1.,0.,0.));
#851=DIRECTION('center_axis',(-1.11022302462516E-15,1.,0.));
#852=DIRECTION('ref_axis',(0.,0.,1.));
#853=DIRECTION('center_axis',(0.,0.,1.));
#854=DIRECTION('ref_axis',(-0.707106781186546,0.707106781186549,0.));
#855=DIRECTION('',(0.,0.,-1.));
#856=DIRECTION('',(0.,0.,1.));
#857=DIRECTION('center_axis',(0.,-1.,0.));
#858=DIRECTION('ref_axis',(-0.707106781186546,0.,0.707106781186549));
#859=DIRECTION('',(0.,1.,0.));
#860=DIRECTION('',(0.,-1.,0.));
#861=DIRECTION('center_axis',(-1.,0.,0.));
#862=DIRECTION('ref_axis',(0.,0.707106781186547,0.707106781186548));
#863=DIRECTION('center_axis',(-1.,0.,0.));
#864=DIRECTION('ref_axis',(0.,0.707106781186547,0.707106781186548));
#865=DIRECTION('',(-1.,0.,0.));
#866=DIRECTION('',(1.,0.,0.));
#867=DIRECTION('center_axis',(0.,0.,1.));
#868=DIRECTION('ref_axis',(1.,0.,0.));
#869=DIRECTION('',(0.,-1.,0.));
#870=DIRECTION('center_axis',(0.,1.,0.));
#871=DIRECTION('ref_axis',(-1.,0.,0.));
#872=DIRECTION('',(0.,0.,1.));
#873=DIRECTION('center_axis',(-1.,0.,0.));
#874=DIRECTION('ref_axis',(0.,-1.,0.));
#875=DIRECTION('center_axis',(1.,0.,0.));
#876=DIRECTION('ref_axis',(0.,1.,0.));
#877=DIRECTION('',(0.,1.,0.));
#878=DIRECTION('',(0.,0.,1.));
#879=DIRECTION('center_axis',(0.,-1.,0.));
#880=DIRECTION('ref_axis',(1.,0.,0.));
#881=DIRECTION('center_axis',(0.,0.,1.));
#882=DIRECTION('ref_axis',(1.,0.,0.));
#883=DIRECTION('center_axis',(-0.816496580927726,-0.408248290463863,-0.408248290463862));
#884=DIRECTION('ref_axis',(0.577350269189626,-0.577350269189626,-0.577350269189625));
#885=DIRECTION('center_axis',(1.,0.,0.));
#886=DIRECTION('ref_axis',(0.,0.,-1.));
#887=DIRECTION('center_axis',(0.,-1.,1.11022302462516E-15));
#888=DIRECTION('ref_axis',(1.,0.,0.));
#889=DIRECTION('center_axis',(0.,0.,-1.));
#890=DIRECTION('ref_axis',(0.,-1.,0.));
#891=DIRECTION('center_axis',(-0.408248290463864,-0.408248290463863,-0.816496580927726));
#892=DIRECTION('ref_axis',(0.577350269189627,0.577350269189625,-0.577350269189626));
#893=DIRECTION('center_axis',(0.,1.,0.));
#894=DIRECTION('ref_axis',(0.,0.,-1.));
#895=DIRECTION('center_axis',(1.,0.,0.));
#896=DIRECTION('ref_axis',(0.,1.,0.));
#897=DIRECTION('center_axis',(0.,0.,-1.));
#898=DIRECTION('ref_axis',(1.,0.,0.));
#899=DIRECTION('center_axis',(1.,0.,0.));
#900=DIRECTION('ref_axis',(0.,0.707106781186547,-0.707106781186548));
#901=DIRECTION('center_axis',(1.,0.,0.));
#902=DIRECTION('ref_axis',(0.,0.707106781186547,-0.707106781186548));
#903=DIRECTION('',(1.,0.,0.));
#904=DIRECTION('',(-1.,0.,0.));
#905=DIRECTION('center_axis',(-0.816496580927726,-0.408248290463863,0.408248290463863));
#906=DIRECTION('ref_axis',(0.577350269189626,-0.577350269189626,0.577350269189626));
#907=DIRECTION('center_axis',(1.,0.,0.));
#908=DIRECTION('ref_axis',(0.,-1.,0.));
#909=DIRECTION('center_axis',(0.,0.,1.));
#910=DIRECTION('ref_axis',(1.,0.,0.));
#911=DIRECTION('center_axis',(1.11022302462516E-15,-1.,0.));
#912=DIRECTION('ref_axis',(0.,0.,1.));
#913=DIRECTION('center_axis',(0.,0.,1.));
#914=DIRECTION('ref_axis',(0.707106781186547,-0.707106781186547,0.));
#915=DIRECTION('',(0.,0.,-1.));
#916=DIRECTION('',(0.,0.,1.));
#917=DIRECTION('center_axis',(0.408248290463863,-0.816496580927726,0.408248290463863));
#918=DIRECTION('ref_axis',(0.577350269189626,0.577350269189625,0.577350269189626));
#919=DIRECTION('center_axis',(0.,1.,0.));
#920=DIRECTION('ref_axis',(1.,0.,0.));
#921=DIRECTION('center_axis',(0.,0.,1.));
#922=DIRECTION('ref_axis',(0.,1.,0.));
#923=DIRECTION('center_axis',(1.,0.,0.));
#924=DIRECTION('ref_axis',(0.,0.,1.));
#925=DIRECTION('center_axis',(0.,0.,1.));
#926=DIRECTION('ref_axis',(0.707106781186547,0.707106781186547,0.));
#927=DIRECTION('',(0.,0.,-1.));
#928=DIRECTION('',(0.,0.,1.));
#929=DIRECTION('center_axis',(-1.,0.,0.));
#930=DIRECTION('ref_axis',(0.,0.707106781186547,0.707106781186548));
#931=DIRECTION('center_axis',(1.,0.,0.));
#932=DIRECTION('ref_axis',(0.,0.707106781186547,0.707106781186548));
#933=DIRECTION('',(1.,0.,0.));
#934=DIRECTION('',(-1.,0.,0.));
#935=DIRECTION('center_axis',(0.,1.,0.));
#936=DIRECTION('ref_axis',(0.707106781186547,0.,0.707106781186547));
#937=DIRECTION('',(0.,-1.,0.));
#938=DIRECTION('',(0.,1.,0.));
#939=DIRECTION('center_axis',(1.,0.,0.));
#940=DIRECTION('ref_axis',(0.,-0.707106781186547,0.707106781186548));
#941=DIRECTION('center_axis',(1.,0.,0.));
#942=DIRECTION('ref_axis',(0.,-0.707106781186547,0.707106781186548));
#943=DIRECTION('',(1.,0.,0.));
#944=DIRECTION('',(-1.,0.,0.));
#945=DIRECTION('center_axis',(0.,-1.,0.));
#946=DIRECTION('ref_axis',(0.707106781186548,0.,-0.707106781186547));
#947=DIRECTION('',(0.,1.,0.));
#948=DIRECTION('',(0.,-1.,0.));
#949=DIRECTION('center_axis',(-1.,0.,0.));
#950=DIRECTION('ref_axis',(0.,-0.707106781186547,-0.707106781186548));
#951=DIRECTION('center_axis',(1.,0.,0.));
#952=DIRECTION('ref_axis',(0.,-0.707106781186547,-0.707106781186548));
#953=DIRECTION('',(1.,0.,0.));
#954=DIRECTION('',(-1.,0.,0.));
#955=DIRECTION('center_axis',(0.,-1.,0.));
#956=DIRECTION('ref_axis',(1.,0.,0.));
#957=DIRECTION('',(0.,0.,1.));
#958=DIRECTION('center_axis',(0.,0.,1.));
#959=DIRECTION('ref_axis',(1.,0.,0.));
#960=DIRECTION('',(0.,-1.,0.));
#961=DIRECTION('center_axis',(1.,0.,0.));
#962=DIRECTION('ref_axis',(0.,1.,0.));
#963=DIRECTION('center_axis',(-1.,0.,0.));
#964=DIRECTION('ref_axis',(0.,-1.,0.));
#965=DIRECTION('',(0.,0.,1.));
#966=DIRECTION('',(0.,1.,0.));
#967=DIRECTION('center_axis',(0.,1.,0.));
#968=DIRECTION('ref_axis',(-1.,0.,0.));
#969=DIRECTION('center_axis',(0.,0.,1.));
#970=DIRECTION('ref_axis',(1.,0.,0.));
#971=DIRECTION('center_axis',(-1.,0.,0.));
#972=DIRECTION('ref_axis',(0.,-0.707106781186548,-0.707106781186547));
#973=DIRECTION('center_axis',(1.,0.,0.));
#974=DIRECTION('ref_axis',(0.,-0.707106781186548,-0.707106781186547));
#975=DIRECTION('',(1.,0.,0.));
#976=DIRECTION('center_axis',(-1.,0.,0.));
#977=DIRECTION('ref_axis',(0.,-0.707106781186548,-0.707106781186547));
#978=DIRECTION('',(-1.,0.,0.));
#979=DIRECTION('center_axis',(0.,-1.,0.));
#980=DIRECTION('ref_axis',(0.,0.,1.));
#981=DIRECTION('',(0.,0.,1.));
#982=DIRECTION('',(1.,0.,0.));
#983=DIRECTION('',(0.,0.,1.));
#984=DIRECTION('center_axis',(1.,0.,0.));
#985=DIRECTION('ref_axis',(0.,0.,-1.));
#986=DIRECTION('',(0.,-1.,-1.43069977400149E-16));
#987=DIRECTION('center_axis',(-1.,0.,0.));
#988=DIRECTION('ref_axis',(0.,0.707106781186547,-0.707106781186547));
#989=DIRECTION('',(0.,0.,-1.));
#990=DIRECTION('center_axis',(-1.,0.,0.));
#991=DIRECTION('ref_axis',(0.,0.707106781186549,0.707106781186546));
#992=DIRECTION('',(0.,1.,0.));
#993=DIRECTION('center_axis',(-1.,0.,0.));
#994=DIRECTION('ref_axis',(0.,-0.707106781186549,0.707106781186546));
#995=DIRECTION('center_axis',(-1.,0.,0.));
#996=DIRECTION('ref_axis',(0.,-0.707106781186549,0.707106781186546));
#997=DIRECTION('center_axis',(1.,0.,0.));
#998=DIRECTION('ref_axis',(0.,-0.707106781186549,0.707106781186546));
#999=DIRECTION('',(-1.,0.,0.));
#1000=DIRECTION('center_axis',(0.,0.,1.));
#1001=DIRECTION('ref_axis',(0.,1.,0.));
#1002=DIRECTION('',(1.,0.,0.));
#1003=DIRECTION('',(0.,1.,0.));
#1004=DIRECTION('center_axis',(-1.,0.,0.));
#1005=DIRECTION('ref_axis',(0.,0.707106781186547,-0.707106781186547));
#1006=DIRECTION('center_axis',(1.,0.,0.));
#1007=DIRECTION('ref_axis',(0.,0.707106781186547,-0.707106781186547));
#1008=DIRECTION('',(1.,0.,0.));
#1009=DIRECTION('',(-1.,0.,0.));
#1010=DIRECTION('center_axis',(0.,1.43069977400149E-16,-1.));
#1011=DIRECTION('ref_axis',(0.,-1.,-1.42247325030098E-16));
#1012=DIRECTION('',(0.,-1.,-1.43069977400149E-16));
#1013=DIRECTION('center_axis',(-1.,0.,0.));
#1014=DIRECTION('ref_axis',(0.,0.707106781186549,0.707106781186546));
#1015=DIRECTION('center_axis',(1.,0.,0.));
#1016=DIRECTION('ref_axis',(0.,0.707106781186549,0.707106781186546));
#1017=DIRECTION('',(-1.,0.,0.));
#1018=DIRECTION('center_axis',(0.,1.,0.));
#1019=DIRECTION('ref_axis',(0.,0.,-1.));
#1020=DIRECTION('',(0.,0.,-1.));
#1021=DIRECTION('center_axis',(-1.,0.,0.));
#1022=DIRECTION('ref_axis',(0.,0.,1.));
#1023=CARTESIAN_POINT('',(0.,0.,0.));
#1024=CARTESIAN_POINT('Origin',(-2.15,-0.9,0.1));
#1025=CARTESIAN_POINT('',(-2.15,-0.9,-2.77555756156289E-17));
#1026=CARTESIAN_POINT('',(-2.25,-0.9,0.1));
#1027=CARTESIAN_POINT('Origin',(-2.15,-0.9,0.1));
#1028=CARTESIAN_POINT('',(-2.15,-1.,0.1));
#1029=CARTESIAN_POINT('Origin',(-2.15,-0.9,0.1));
#1030=CARTESIAN_POINT('Origin',(-2.15,-0.9,0.1));
#1031=CARTESIAN_POINT('Origin',(-2.1,-0.9,0.1));
#1032=CARTESIAN_POINT('',(-1.65,-0.9,-2.77555756156289E-17));
#1033=CARTESIAN_POINT('',(-1.65,-1.,0.1));
#1034=CARTESIAN_POINT('Origin',(-1.65,-0.9,0.1));
#1035=CARTESIAN_POINT('',(-2.1,-1.,0.1));
#1036=CARTESIAN_POINT('',(-2.1,-0.9,-2.77555756156289E-17));
#1037=CARTESIAN_POINT('Origin',(-2.15,-0.9,1.4));
#1038=CARTESIAN_POINT('',(-2.25,-0.9,1.4));
#1039=CARTESIAN_POINT('',(-2.15,-0.9,1.5));
#1040=CARTESIAN_POINT('Origin',(-2.15,-0.9,1.4));
#1041=CARTESIAN_POINT('',(-2.15,-1.,1.4));
#1042=CARTESIAN_POINT('Origin',(-2.15,-0.9,1.4));
#1043=CARTESIAN_POINT('Origin',(-2.15,-0.9,1.4));
#1044=CARTESIAN_POINT('Origin',(-2.15,-0.9,-2.77555756156289E-17));
#1045=CARTESIAN_POINT('',(-2.25,-0.9,-2.77555756156289E-17));
#1046=CARTESIAN_POINT('',(-2.15,-1.,-2.77555756156289E-17));
#1047=CARTESIAN_POINT('Origin',(-2.1,-0.9,1.4));
#1048=CARTESIAN_POINT('',(-1.65,-1.,1.4));
#1049=CARTESIAN_POINT('',(-1.65,-0.9,1.5));
#1050=CARTESIAN_POINT('Origin',(-1.65,-0.9,1.4));
#1051=CARTESIAN_POINT('',(-2.1,-0.9,1.5));
#1052=CARTESIAN_POINT('',(-2.1,-1.,1.4));
#1053=CARTESIAN_POINT('Origin',(-2.15,0.9,0.1));
#1054=CARTESIAN_POINT('',(-2.15,1.,0.1));
#1055=CARTESIAN_POINT('',(-2.25,0.9,0.1));
#1056=CARTESIAN_POINT('Origin',(-2.15,0.9,0.1));
#1057=CARTESIAN_POINT('',(-2.15,0.9,-2.77555756156289E-17));
#1058=CARTESIAN_POINT('Origin',(-2.15,0.9,0.1));
#1059=CARTESIAN_POINT('Origin',(-2.15,0.9,0.1));
#1060=CARTESIAN_POINT('Origin',(-1.8,0.9,0.1));
#1061=CARTESIAN_POINT('',(-1.65,1.,0.1));
#1062=CARTESIAN_POINT('',(-1.65,0.9,-2.77555756156289E-17));
#1063=CARTESIAN_POINT('Origin',(-1.65,0.9,0.1));
#1064=CARTESIAN_POINT('',(-1.8,0.9,-2.77555756156289E-17));
#1065=CARTESIAN_POINT('',(-1.8,1.,0.1));
#1066=CARTESIAN_POINT('Origin',(-2.15,0.5,0.1));
#1067=CARTESIAN_POINT('',(-2.15,0.5,-2.77555756156289E-17));
#1068=CARTESIAN_POINT('',(-2.25,0.5,0.1));
#1069=CARTESIAN_POINT('Origin',(-2.15,0.9,1.4));
#1070=CARTESIAN_POINT('',(-2.15,1.,1.4));
#1071=CARTESIAN_POINT('',(-2.15,0.9,1.5));
#1072=CARTESIAN_POINT('Origin',(-2.15,0.9,1.4));
#1073=CARTESIAN_POINT('',(-2.25,0.9,1.4));
#1074=CARTESIAN_POINT('Origin',(-2.15,0.9,1.4));
#1075=CARTESIAN_POINT('Origin',(-2.15,0.9,1.4));
#1076=CARTESIAN_POINT('Origin',(-2.15,0.9,-2.77555756156289E-17));
#1077=CARTESIAN_POINT('',(-2.15,1.,-2.77555756156289E-17));
#1078=CARTESIAN_POINT('',(-2.25,0.9,-2.77555756156289E-17));
#1079=CARTESIAN_POINT('Origin',(-2.15,0.5,1.4));
#1080=CARTESIAN_POINT('',(-2.15,0.5,1.5));
#1081=CARTESIAN_POINT('',(-2.25,0.5,1.4));
#1082=CARTESIAN_POINT('Origin',(-1.8,0.9,1.4));
#1083=CARTESIAN_POINT('',(-1.65,0.9,1.5));
#1084=CARTESIAN_POINT('',(-1.65,1.,1.4));
#1085=CARTESIAN_POINT('Origin',(-1.65,0.9,1.4));
#1086=CARTESIAN_POINT('',(-1.8,1.,1.4));
#1087=CARTESIAN_POINT('',(-1.8,0.9,1.5));
#1088=CARTESIAN_POINT('Origin',(-1.95,0.,-2.42861286636753E-17));
#1089=CARTESIAN_POINT('',(-1.65,1.,-2.77555756156289E-17));
#1090=CARTESIAN_POINT('Origin',(-1.65,1.,-2.77555756156289E-17));
#1091=CARTESIAN_POINT('',(-1.65,1.,-2.77555756156289E-17));
#1092=CARTESIAN_POINT('Origin',(-2.25,1.,-2.77555756156289E-17));
#1093=CARTESIAN_POINT('Origin',(-1.65,-1.,-2.77555756156289E-17));
#1094=CARTESIAN_POINT('',(-1.65,1.,1.5));
#1095=CARTESIAN_POINT('',(-1.65,-1.,-2.77555756156289E-17));
#1096=CARTESIAN_POINT('Origin',(-2.25,-1.,-2.77555756156289E-17));
#1097=CARTESIAN_POINT('Origin',(-1.95,0.,1.5));
#1098=CARTESIAN_POINT('Origin',(2.15,-0.9,0.1));
#1099=CARTESIAN_POINT('',(2.15,-0.9,-2.77555756156289E-17));
#1100=CARTESIAN_POINT('',(2.15,-1.,0.1));
#1101=CARTESIAN_POINT('Origin',(2.15,-0.9,0.1));
#1102=CARTESIAN_POINT('',(2.25,-0.9,0.1));
#1103=CARTESIAN_POINT('Origin',(2.15,-0.9,0.1));
#1104=CARTESIAN_POINT('Origin',(2.15,-0.9,0.1));
#1105=CARTESIAN_POINT('Origin',(2.15,0.9,0.1));
#1106=CARTESIAN_POINT('',(2.15,0.9,-2.77555756156289E-17));
#1107=CARTESIAN_POINT('',(2.25,0.9,0.1));
#1108=CARTESIAN_POINT('Origin',(2.15,0.9,0.1));
#1109=CARTESIAN_POINT('',(2.15,1.,0.1));
#1110=CARTESIAN_POINT('Origin',(2.15,0.9,0.1));
#1111=CARTESIAN_POINT('Origin',(2.15,0.9,0.1));
#1112=CARTESIAN_POINT('Origin',(2.1,0.9,0.1));
#1113=CARTESIAN_POINT('',(1.65,0.9,-2.77555756156289E-17));
#1114=CARTESIAN_POINT('',(1.65,1.,0.1));
#1115=CARTESIAN_POINT('Origin',(1.65,0.9,0.1));
#1116=CARTESIAN_POINT('',(2.1,1.,0.1));
#1117=CARTESIAN_POINT('',(2.1,0.9,-2.77555756156289E-17));
#1118=CARTESIAN_POINT('Origin',(2.15,-0.9,1.4));
#1119=CARTESIAN_POINT('',(2.15,-1.,1.4));
#1120=CARTESIAN_POINT('',(2.15,-0.9,1.5));
#1121=CARTESIAN_POINT('Origin',(2.15,-0.9,1.4));
#1122=CARTESIAN_POINT('',(2.25,-0.9,1.4));
#1123=CARTESIAN_POINT('Origin',(2.15,-0.9,1.4));
#1124=CARTESIAN_POINT('Origin',(2.15,-0.9,1.4));
#1125=CARTESIAN_POINT('Origin',(2.15,-0.9,-2.77555756156289E-17));
#1126=CARTESIAN_POINT('',(2.15,-1.,-2.77555756156289E-17));
#1127=CARTESIAN_POINT('',(2.25,-0.9,-2.77555756156289E-17));
#1128=CARTESIAN_POINT('Origin',(2.15,0.9,1.4));
#1129=CARTESIAN_POINT('',(2.25,0.9,1.4));
#1130=CARTESIAN_POINT('',(2.15,0.9,1.5));
#1131=CARTESIAN_POINT('Origin',(2.15,0.9,1.4));
#1132=CARTESIAN_POINT('',(2.15,1.,1.4));
#1133=CARTESIAN_POINT('Origin',(2.15,0.9,1.4));
#1134=CARTESIAN_POINT('Origin',(2.15,0.9,1.4));
#1135=CARTESIAN_POINT('Origin',(2.15,0.9,-2.77555756156289E-17));
#1136=CARTESIAN_POINT('',(2.25,0.9,-2.77555756156289E-17));
#1137=CARTESIAN_POINT('',(2.15,1.,-2.77555756156289E-17));
#1138=CARTESIAN_POINT('Origin',(2.1,0.9,1.4));
#1139=CARTESIAN_POINT('',(1.65,1.,1.4));
#1140=CARTESIAN_POINT('',(1.65,0.9,1.5));
#1141=CARTESIAN_POINT('Origin',(1.65,0.9,1.4));
#1142=CARTESIAN_POINT('',(2.1,0.9,1.5));
#1143=CARTESIAN_POINT('',(2.1,1.,1.4));
#1144=CARTESIAN_POINT('Origin',(2.15,-0.5,1.4));
#1145=CARTESIAN_POINT('',(2.15,-0.5,1.5));
#1146=CARTESIAN_POINT('',(2.25,-0.5,1.4));
#1147=CARTESIAN_POINT('Origin',(1.8,-0.9,1.4));
#1148=CARTESIAN_POINT('',(1.65,-0.9,1.5));
#1149=CARTESIAN_POINT('',(1.65,-1.,1.4));
#1150=CARTESIAN_POINT('Origin',(1.65,-0.9,1.4));
#1151=CARTESIAN_POINT('',(1.8,-1.,1.4));
#1152=CARTESIAN_POINT('',(1.8,-0.9,1.5));
#1153=CARTESIAN_POINT('Origin',(2.15,-0.5,0.1));
#1154=CARTESIAN_POINT('',(2.15,-0.5,-2.77555756156289E-17));
#1155=CARTESIAN_POINT('',(2.25,-0.5,0.1));
#1156=CARTESIAN_POINT('Origin',(1.8,-0.9,0.1));
#1157=CARTESIAN_POINT('',(1.65,-1.,0.1));
#1158=CARTESIAN_POINT('',(1.65,-0.9,-2.77555756156289E-17));
#1159=CARTESIAN_POINT('Origin',(1.65,-0.9,0.1));
#1160=CARTESIAN_POINT('',(1.8,-0.9,-2.77555756156289E-17));
#1161=CARTESIAN_POINT('',(1.8,-1.,0.1));
#1162=CARTESIAN_POINT('Origin',(1.65,-1.,-2.77555756156289E-17));
#1163=CARTESIAN_POINT('',(1.65,-1.,-2.77555756156289E-17));
#1164=CARTESIAN_POINT('Origin',(1.95,0.,1.5));
#1165=CARTESIAN_POINT('',(1.65,-1.,1.5));
#1166=CARTESIAN_POINT('Origin',(2.25,-1.,-2.77555756156289E-17));
#1167=CARTESIAN_POINT('Origin',(1.65,1.,-2.77555756156289E-17));
#1168=CARTESIAN_POINT('',(1.65,1.,-2.77555756156289E-17));
#1169=CARTESIAN_POINT('',(1.65,-1.,-2.77555756156289E-17));
#1170=CARTESIAN_POINT('Origin',(2.25,1.,-2.77555756156289E-17));
#1171=CARTESIAN_POINT('Origin',(1.95,0.,-2.42861286636753E-17));
#1172=CARTESIAN_POINT('Origin',(1.65,-0.92,0.08));
#1173=CARTESIAN_POINT('',(-1.65,-0.97,0.08));
#1174=CARTESIAN_POINT('',(-1.65,-0.92,0.03));
#1175=CARTESIAN_POINT('Origin',(-1.65,-0.92,0.08));
#1176=CARTESIAN_POINT('',(1.65,-0.92,0.03));
#1177=CARTESIAN_POINT('',(1.65,-0.92,0.03));
#1178=CARTESIAN_POINT('',(1.65,-0.97,0.08));
#1179=CARTESIAN_POINT('Origin',(1.65,-0.92,0.08));
#1180=CARTESIAN_POINT('',(1.65,-0.97,0.08));
#1181=CARTESIAN_POINT('Origin',(1.65,-0.97,0.03));
#1182=CARTESIAN_POINT('',(1.65,-0.97,1.42));
#1183=CARTESIAN_POINT('',(1.65,-0.97,0.03));
#1184=CARTESIAN_POINT('',(-1.65,-0.97,1.42));
#1185=CARTESIAN_POINT('',(1.65,-0.97,1.42));
#1186=CARTESIAN_POINT('',(-1.65,-0.97,0.03));
#1187=CARTESIAN_POINT('Origin',(1.65,-4.92702525721223E-17,0.75));
#1188=CARTESIAN_POINT('',(1.65,0.92,0.0300000000000002));
#1189=CARTESIAN_POINT('',(1.65,0.97,0.0300000000000002));
#1190=CARTESIAN_POINT('',(1.65,0.97,0.0800000000000003));
#1191=CARTESIAN_POINT('Origin',(1.65,0.92,0.0800000000000003));
#1192=CARTESIAN_POINT('',(1.65,0.97,1.42));
#1193=CARTESIAN_POINT('',(1.65,0.97,1.47));
#1194=CARTESIAN_POINT('',(1.65,0.92,1.47));
#1195=CARTESIAN_POINT('Origin',(1.65,0.92,1.42));
#1196=CARTESIAN_POINT('',(1.65,-0.92,1.47));
#1197=CARTESIAN_POINT('',(1.65,-0.97,1.47));
#1198=CARTESIAN_POINT('Origin',(1.65,-0.92,1.42));
#1199=CARTESIAN_POINT('Origin',(1.65,-0.92,1.42));
#1200=CARTESIAN_POINT('',(-1.65,-0.92,1.47));
#1201=CARTESIAN_POINT('Origin',(-1.65,-0.92,1.42));
#1202=CARTESIAN_POINT('',(1.65,-0.92,1.47));
#1203=CARTESIAN_POINT('Origin',(1.65,-0.97,1.47));
#1204=CARTESIAN_POINT('',(-1.65,0.92,1.47));
#1205=CARTESIAN_POINT('',(1.65,0.92,1.47));
#1206=CARTESIAN_POINT('',(-1.65,-0.97,1.47));
#1207=CARTESIAN_POINT('Origin',(1.65,0.92,0.0800000000000003));
#1208=CARTESIAN_POINT('',(-1.65,0.92,0.0300000000000002));
#1209=CARTESIAN_POINT('',(-1.65,0.97,0.0800000000000003));
#1210=CARTESIAN_POINT('Origin',(-1.65,0.92,0.0800000000000003));
#1211=CARTESIAN_POINT('',(1.65,0.97,0.0800000000000003));
#1212=CARTESIAN_POINT('',(1.65,0.92,0.0300000000000002));
#1213=CARTESIAN_POINT('Origin',(1.65,0.97,0.0300000000000002));
#1214=CARTESIAN_POINT('',(-1.65,0.97,0.0300000000000002));
#1215=CARTESIAN_POINT('Origin',(1.65,0.92,1.42));
#1216=CARTESIAN_POINT('',(-1.65,0.97,1.42));
#1217=CARTESIAN_POINT('Origin',(-1.65,0.92,1.42));
#1218=CARTESIAN_POINT('',(1.65,0.97,1.42));
#1219=CARTESIAN_POINT('Origin',(1.65,0.97,1.47));
#1220=CARTESIAN_POINT('',(-1.65,0.97,1.47));
#1221=CARTESIAN_POINT('Origin',(-1.65,0.,0.75));
#1222=UNCERTAINTY_MEASURE_WITH_UNIT(LENGTH_MEASURE(0.01),#1226,
'DISTANCE_ACCURACY_VALUE',
'Maximum model space distance between geometric entities at asserted c
onnectivities');
#1223=UNCERTAINTY_MEASURE_WITH_UNIT(LENGTH_MEASURE(1.E-6),#1226,
'DISTANCE_ACCURACY_VALUE',
'Maximum model space distance between geometric entities at asserted c
onnectivities');
#1224=(
GEOMETRIC_REPRESENTATION_CONTEXT(3)
GLOBAL_UNCERTAINTY_ASSIGNED_CONTEXT((#1222))
GLOBAL_UNIT_ASSIGNED_CONTEXT((#1226,#1228,#1227))
REPRESENTATION_CONTEXT('','3D')
);
#1225=(
GEOMETRIC_REPRESENTATION_CONTEXT(3)
GLOBAL_UNCERTAINTY_ASSIGNED_CONTEXT((#1223))
GLOBAL_UNIT_ASSIGNED_CONTEXT((#1226,#12,#1227))
REPRESENTATION_CONTEXT('','3D')
);
#1226=(
LENGTH_UNIT()
NAMED_UNIT(*)
SI_UNIT(.MILLI.,.METRE.)
);
#1227=(
NAMED_UNIT(*)
SI_UNIT($,.STERADIAN.)
SOLID_ANGLE_UNIT()
);
#1228=(
NAMED_UNIT(*)
PLANE_ANGLE_UNIT()
SI_UNIT($,.RADIAN.)
);
#1229=SHAPE_DEFINITION_REPRESENTATION(#1230,#1231);
#1230=PRODUCT_DEFINITION_SHAPE('',$,#1233);
#1231=SHAPE_REPRESENTATION('',(#706),#1224);
#1232=PRODUCT_DEFINITION_CONTEXT('part definition',#1237,'design');
#1233=PRODUCT_DEFINITION('Product','Product',#1234,#1232);
#1234=PRODUCT_DEFINITION_FORMATION('',$,#1239);
#1235=PRODUCT_RELATED_PRODUCT_CATEGORY('Product','Product',(#1239));
#1236=APPLICATION_PROTOCOL_DEFINITION('international standard',
'automotive_design',2009,#1237);
#1237=APPLICATION_CONTEXT(
'Core Data for Automotive Mechanical Design Process');
#1238=PRODUCT_CONTEXT('part definition',#1237,'mechanical');
#1239=PRODUCT('Product','Product',$,(#1238));
#1240=PRESENTATION_STYLE_ASSIGNMENT((#1243));
#1241=PRESENTATION_STYLE_ASSIGNMENT((#1244));
#1242=PRESENTATION_STYLE_ASSIGNMENT((#1245));
#1243=SURFACE_STYLE_USAGE(.BOTH.,#1246);
#1244=SURFACE_STYLE_USAGE(.BOTH.,#1247);
#1245=SURFACE_STYLE_USAGE(.BOTH.,#1248);
#1246=SURFACE_SIDE_STYLE('',(#1249));
#1247=SURFACE_SIDE_STYLE('',(#1250));
#1248=SURFACE_SIDE_STYLE('',(#1251));
#1249=SURFACE_STYLE_FILL_AREA(#1252);
#1250=SURFACE_STYLE_FILL_AREA(#1253);
#1251=SURFACE_STYLE_FILL_AREA(#1254);
#1252=FILL_AREA_STYLE('',(#1255));
#1253=FILL_AREA_STYLE('',(#1256));
#1254=FILL_AREA_STYLE('',(#1257));
#1255=FILL_AREA_STYLE_COLOUR('',#1258);
#1256=FILL_AREA_STYLE_COLOUR('',#1259);
#1257=FILL_AREA_STYLE_COLOUR('',#1260);
#1258=COLOUR_RGB('',1.,1.,1.);
#1259=COLOUR_RGB('',0.866666666666667,0.866666666666667,0.866666666666667);
#1260=COLOUR_RGB('',0.501960784313725,0.376470588235294,0.250980392156863);
ENDSEC;
END-ISO-10303-21;
