ISO-10303-21;
HEADER;
/* Generated by software containing ST-Developer
 * from STEP Tools, Inc. (www.steptools.com) 
 */

FILE_DESCRIPTION(
/* description */ (''),
/* implementation_level */ '2;1');

FILE_NAME(
/* name */ 'G:\\Applications\\Altium\\CernLib\\StepLib\\CAPC3216X125N.
stp',
/* time_stamp */ '2017-05-10T14:48:39+02:00',
/* author */ ('jchouvet'),
/* organization */ (''),
/* preprocessor_version */ 'ST-DEVELOPER v16.1',
/* originating_system */ 'AutoCAD Mechanical',
/* authorisation */ '');

FILE_SCHEMA (('AUTOMOTIVE_DESIGN { 1 0 10303 214 3 1 1 }'));
ENDSEC;

DATA;
#10=MECHANICAL_DESIGN_GEOMETRIC_PRESENTATION_REPRESENTATION('',(#17,#18,
#19),#1225);
#11=DIMENSIONAL_EXPONENTS(0.,0.,0.,0.,0.,0.,0.);
#12=(
CONVERSION_BASED_UNIT('degree',#13)
NAMED_UNIT(#11)
PLANE_ANGLE_UNIT()
);
#13=PLANE_ANGLE_MEASURE_WITH_UNIT(PLANE_ANGLE_MEASURE(0.01745329252),#1228);
#14=PRESENTATION_LAYER_ASSIGNMENT('1','3D',(#20,#21,#22));
#15=SHAPE_REPRESENTATION_RELATIONSHIP('SRR','None',#1231,#16);
#16=ADVANCED_BREP_SHAPE_REPRESENTATION('',(#20,#21,#22),#1224);
#17=STYLED_ITEM('',(#1241),#20);
#18=STYLED_ITEM('',(#1242),#21);
#19=STYLED_ITEM('',(#1241),#22);
#20=MANIFOLD_SOLID_BREP('39F',#703);
#21=MANIFOLD_SOLID_BREP('3A0',#704);
#22=MANIFOLD_SOLID_BREP('3A1',#705);
#23=PLANE('',#716);
#24=PLANE('',#720);
#25=PLANE('',#725);
#26=PLANE('',#726);
#27=PLANE('',#727);
#28=PLANE('',#733);
#29=PLANE('',#741);
#30=PLANE('',#746);
#31=PLANE('',#751);
#32=PLANE('',#754);
#33=PLANE('',#757);
#34=PLANE('',#758);
#35=PLANE('',#768);
#36=PLANE('',#772);
#37=PLANE('',#777);
#38=PLANE('',#778);
#39=PLANE('',#779);
#40=PLANE('',#790);
#41=LINE('',#1039,#97);
#42=LINE('',#1040,#98);
#43=LINE('',#1044,#99);
#44=LINE('',#1046,#100);
#45=LINE('',#1048,#101);
#46=LINE('',#1049,#102);
#47=LINE('',#1055,#103);
#48=LINE('',#1057,#104);
#49=LINE('',#1059,#105);
#50=LINE('',#1060,#106);
#51=LINE('',#1064,#107);
#52=LINE('',#1067,#108);
#53=LINE('',#1070,#109);
#54=LINE('',#1073,#110);
#55=LINE('',#1075,#111);
#56=LINE('',#1076,#112);
#57=LINE('',#1078,#113);
#58=LINE('',#1086,#114);
#59=LINE('',#1089,#115);
#60=LINE('',#1090,#116);
#61=LINE('',#1103,#117);
#62=LINE('',#1107,#118);
#63=LINE('',#1111,#119);
#64=LINE('',#1114,#120);
#65=LINE('',#1117,#121);
#66=LINE('',#1119,#122);
#67=LINE('',#1120,#123);
#68=LINE('',#1124,#124);
#69=LINE('',#1129,#125);
#70=LINE('',#1130,#126);
#71=LINE('',#1133,#127);
#72=LINE('',#1134,#128);
#73=LINE('',#1138,#129);
#74=LINE('',#1141,#130);
#75=LINE('',#1142,#131);
#76=LINE('',#1146,#132);
#77=LINE('',#1163,#133);
#78=LINE('',#1164,#134);
#79=LINE('',#1168,#135);
#80=LINE('',#1170,#136);
#81=LINE('',#1172,#137);
#82=LINE('',#1173,#138);
#83=LINE('',#1179,#139);
#84=LINE('',#1181,#140);
#85=LINE('',#1183,#141);
#86=LINE('',#1184,#142);
#87=LINE('',#1188,#143);
#88=LINE('',#1191,#144);
#89=LINE('',#1194,#145);
#90=LINE('',#1197,#146);
#91=LINE('',#1199,#147);
#92=LINE('',#1200,#148);
#93=LINE('',#1202,#149);
#94=LINE('',#1211,#150);
#95=LINE('',#1215,#151);
#96=LINE('',#1219,#152);
#97=VECTOR('',#813,1.6);
#98=VECTOR('',#814,1.6);
#99=VECTOR('',#817,0.55);
#100=VECTOR('',#818,1.6);
#101=VECTOR('',#819,0.55);
#102=VECTOR('',#820,1.6);
#103=VECTOR('',#827,0.55);
#104=VECTOR('',#830,1.05);
#105=VECTOR('',#831,1.05);
#106=VECTOR('',#832,0.55);
#107=VECTOR('',#837,0.55);
#108=VECTOR('',#840,0.55);
#109=VECTOR('',#843,0.55);
#110=VECTOR('',#846,1.05);
#111=VECTOR('',#847,1.05);
#112=VECTOR('',#848,0.55);
#113=VECTOR('',#851,1.6);
#114=VECTOR('',#864,1.05);
#115=VECTOR('',#867,1.05);
#116=VECTOR('',#868,1.6);
#117=VECTOR('',#887,0.95);
#118=VECTOR('',#890,1.6);
#119=VECTOR('',#893,0.95);
#120=VECTOR('',#896,1.6);
#121=VECTOR('',#899,2.1);
#122=VECTOR('',#900,0.95);
#123=VECTOR('',#901,2.1);
#124=VECTOR('',#906,2.1);
#125=VECTOR('',#911,2.1);
#126=VECTOR('',#912,2.1);
#127=VECTOR('',#915,2.1);
#128=VECTOR('',#916,0.95);
#129=VECTOR('',#921,2.1);
#130=VECTOR('',#924,2.1);
#131=VECTOR('',#925,1.6);
#132=VECTOR('',#932,1.6);
#133=VECTOR('',#953,1.6);
#134=VECTOR('',#954,1.6);
#135=VECTOR('',#957,0.55);
#136=VECTOR('',#958,1.6);
#137=VECTOR('',#959,0.55);
#138=VECTOR('',#960,1.6);
#139=VECTOR('',#967,0.55);
#140=VECTOR('',#970,1.05);
#141=VECTOR('',#971,1.05);
#142=VECTOR('',#972,0.55);
#143=VECTOR('',#977,0.55);
#144=VECTOR('',#980,0.55);
#145=VECTOR('',#983,0.55);
#146=VECTOR('',#986,1.05);
#147=VECTOR('',#987,1.05);
#148=VECTOR('',#988,0.55);
#149=VECTOR('',#991,1.6);
#150=VECTOR('',#1004,1.6);
#151=VECTOR('',#1011,1.05);
#152=VECTOR('',#1018,1.05);
#153=CYLINDRICAL_SURFACE('',#715,0.1);
#154=CYLINDRICAL_SURFACE('',#717,0.1);
#155=CYLINDRICAL_SURFACE('',#721,0.1);
#156=CYLINDRICAL_SURFACE('',#723,0.1);
#157=CYLINDRICAL_SURFACE('',#729,0.1);
#158=CYLINDRICAL_SURFACE('',#731,0.1);
#159=CYLINDRICAL_SURFACE('',#734,0.1);
#160=CYLINDRICAL_SURFACE('',#740,0.1);
#161=CYLINDRICAL_SURFACE('',#747,0.1);
#162=CYLINDRICAL_SURFACE('',#749,0.1);
#163=CYLINDRICAL_SURFACE('',#752,0.1);
#164=CYLINDRICAL_SURFACE('',#755,0.1);
#165=CYLINDRICAL_SURFACE('',#767,0.1);
#166=CYLINDRICAL_SURFACE('',#769,0.1);
#167=CYLINDRICAL_SURFACE('',#773,0.1);
#168=CYLINDRICAL_SURFACE('',#775,0.1);
#169=CYLINDRICAL_SURFACE('',#781,0.1);
#170=CYLINDRICAL_SURFACE('',#783,0.1);
#171=CYLINDRICAL_SURFACE('',#786,0.1);
#172=CYLINDRICAL_SURFACE('',#791,0.1);
#173=FACE_OUTER_BOUND('',#219,.T.);
#174=FACE_OUTER_BOUND('',#220,.T.);
#175=FACE_OUTER_BOUND('',#221,.T.);
#176=FACE_OUTER_BOUND('',#222,.T.);
#177=FACE_OUTER_BOUND('',#223,.T.);
#178=FACE_OUTER_BOUND('',#224,.T.);
#179=FACE_OUTER_BOUND('',#225,.T.);
#180=FACE_OUTER_BOUND('',#226,.T.);
#181=FACE_OUTER_BOUND('',#227,.T.);
#182=FACE_OUTER_BOUND('',#228,.T.);
#183=FACE_OUTER_BOUND('',#229,.T.);
#184=FACE_OUTER_BOUND('',#230,.T.);
#185=FACE_OUTER_BOUND('',#231,.T.);
#186=FACE_OUTER_BOUND('',#232,.T.);
#187=FACE_OUTER_BOUND('',#233,.T.);
#188=FACE_OUTER_BOUND('',#234,.T.);
#189=FACE_OUTER_BOUND('',#235,.T.);
#190=FACE_OUTER_BOUND('',#236,.T.);
#191=FACE_OUTER_BOUND('',#237,.T.);
#192=FACE_OUTER_BOUND('',#238,.T.);
#193=FACE_OUTER_BOUND('',#239,.T.);
#194=FACE_OUTER_BOUND('',#240,.T.);
#195=FACE_OUTER_BOUND('',#241,.T.);
#196=FACE_OUTER_BOUND('',#242,.T.);
#197=FACE_OUTER_BOUND('',#243,.T.);
#198=FACE_OUTER_BOUND('',#244,.T.);
#199=FACE_OUTER_BOUND('',#245,.T.);
#200=FACE_OUTER_BOUND('',#246,.T.);
#201=FACE_OUTER_BOUND('',#247,.T.);
#202=FACE_OUTER_BOUND('',#248,.T.);
#203=FACE_OUTER_BOUND('',#249,.T.);
#204=FACE_OUTER_BOUND('',#250,.T.);
#205=FACE_OUTER_BOUND('',#251,.T.);
#206=FACE_OUTER_BOUND('',#252,.T.);
#207=FACE_OUTER_BOUND('',#253,.T.);
#208=FACE_OUTER_BOUND('',#254,.T.);
#209=FACE_OUTER_BOUND('',#255,.T.);
#210=FACE_OUTER_BOUND('',#256,.T.);
#211=FACE_OUTER_BOUND('',#257,.T.);
#212=FACE_OUTER_BOUND('',#258,.T.);
#213=FACE_OUTER_BOUND('',#259,.T.);
#214=FACE_OUTER_BOUND('',#260,.T.);
#215=FACE_OUTER_BOUND('',#261,.T.);
#216=FACE_OUTER_BOUND('',#262,.T.);
#217=FACE_OUTER_BOUND('',#263,.T.);
#218=FACE_OUTER_BOUND('',#264,.T.);
#219=EDGE_LOOP('',(#457,#458,#459));
#220=EDGE_LOOP('',(#460,#461,#462));
#221=EDGE_LOOP('',(#463,#464,#465,#466));
#222=EDGE_LOOP('',(#467,#468,#469,#470));
#223=EDGE_LOOP('',(#471,#472,#473,#474));
#224=EDGE_LOOP('',(#475,#476,#477,#478));
#225=EDGE_LOOP('',(#479,#480,#481,#482));
#226=EDGE_LOOP('',(#483,#484,#485,#486));
#227=EDGE_LOOP('',(#487,#488,#489,#490));
#228=EDGE_LOOP('',(#491,#492,#493,#494));
#229=EDGE_LOOP('',(#495,#496,#497,#498,#499,#500,#501,#502));
#230=EDGE_LOOP('',(#503,#504,#505,#506));
#231=EDGE_LOOP('',(#507,#508,#509,#510));
#232=EDGE_LOOP('',(#511,#512,#513,#514));
#233=EDGE_LOOP('',(#515,#516,#517,#518));
#234=EDGE_LOOP('',(#519,#520,#521));
#235=EDGE_LOOP('',(#522,#523,#524));
#236=EDGE_LOOP('',(#525,#526,#527,#528));
#237=EDGE_LOOP('',(#529,#530,#531,#532,#533,#534,#535,#536));
#238=EDGE_LOOP('',(#537,#538,#539,#540));
#239=EDGE_LOOP('',(#541,#542,#543,#544));
#240=EDGE_LOOP('',(#545,#546,#547,#548));
#241=EDGE_LOOP('',(#549,#550,#551,#552));
#242=EDGE_LOOP('',(#553,#554,#555,#556));
#243=EDGE_LOOP('',(#557,#558,#559,#560));
#244=EDGE_LOOP('',(#561,#562,#563,#564));
#245=EDGE_LOOP('',(#565,#566,#567,#568));
#246=EDGE_LOOP('',(#569,#570,#571,#572,#573,#574,#575,#576));
#247=EDGE_LOOP('',(#577,#578,#579));
#248=EDGE_LOOP('',(#580,#581,#582));
#249=EDGE_LOOP('',(#583,#584,#585,#586));
#250=EDGE_LOOP('',(#587,#588,#589,#590));
#251=EDGE_LOOP('',(#591,#592,#593,#594));
#252=EDGE_LOOP('',(#595,#596,#597,#598));
#253=EDGE_LOOP('',(#599,#600,#601,#602));
#254=EDGE_LOOP('',(#603,#604,#605,#606));
#255=EDGE_LOOP('',(#607,#608,#609,#610));
#256=EDGE_LOOP('',(#611,#612,#613,#614));
#257=EDGE_LOOP('',(#615,#616,#617,#618,#619,#620,#621,#622));
#258=EDGE_LOOP('',(#623,#624,#625,#626));
#259=EDGE_LOOP('',(#627,#628,#629,#630));
#260=EDGE_LOOP('',(#631,#632,#633,#634));
#261=EDGE_LOOP('',(#635,#636,#637));
#262=EDGE_LOOP('',(#638,#639,#640,#641));
#263=EDGE_LOOP('',(#642,#643,#644,#645));
#264=EDGE_LOOP('',(#646,#647,#648));
#265=CIRCLE('',#708,0.1);
#266=CIRCLE('',#709,0.1);
#267=CIRCLE('',#710,0.1);
#268=CIRCLE('',#712,0.1);
#269=CIRCLE('',#713,0.1);
#270=CIRCLE('',#714,0.1);
#271=CIRCLE('',#718,0.1);
#272=CIRCLE('',#719,0.1);
#273=CIRCLE('',#722,0.1);
#274=CIRCLE('',#724,0.1);
#275=CIRCLE('',#728,0.1);
#276=CIRCLE('',#730,0.1);
#277=CIRCLE('',#732,0.1);
#278=CIRCLE('',#735,0.0999999999999999);
#279=CIRCLE('',#737,0.1);
#280=CIRCLE('',#739,0.1);
#281=CIRCLE('',#742,0.1);
#282=CIRCLE('',#743,0.1);
#283=CIRCLE('',#744,0.1);
#284=CIRCLE('',#745,0.1);
#285=CIRCLE('',#748,0.1);
#286=CIRCLE('',#750,0.1);
#287=CIRCLE('',#753,0.1);
#288=CIRCLE('',#756,0.1);
#289=CIRCLE('',#760,0.1);
#290=CIRCLE('',#761,0.1);
#291=CIRCLE('',#762,0.1);
#292=CIRCLE('',#764,0.1);
#293=CIRCLE('',#765,0.1);
#294=CIRCLE('',#766,0.1);
#295=CIRCLE('',#770,0.1);
#296=CIRCLE('',#771,0.1);
#297=CIRCLE('',#774,0.1);
#298=CIRCLE('',#776,0.1);
#299=CIRCLE('',#780,0.1);
#300=CIRCLE('',#782,0.1);
#301=CIRCLE('',#784,0.1);
#302=CIRCLE('',#785,0.1);
#303=CIRCLE('',#787,0.0999999999999999);
#304=CIRCLE('',#789,0.1);
#305=VERTEX_POINT('',#1025);
#306=VERTEX_POINT('',#1026);
#307=VERTEX_POINT('',#1028);
#308=VERTEX_POINT('',#1032);
#309=VERTEX_POINT('',#1033);
#310=VERTEX_POINT('',#1035);
#311=VERTEX_POINT('',#1042);
#312=VERTEX_POINT('',#1043);
#313=VERTEX_POINT('',#1045);
#314=VERTEX_POINT('',#1047);
#315=VERTEX_POINT('',#1051);
#316=VERTEX_POINT('',#1053);
#317=VERTEX_POINT('',#1058);
#318=VERTEX_POINT('',#1062);
#319=VERTEX_POINT('',#1066);
#320=VERTEX_POINT('',#1068);
#321=VERTEX_POINT('',#1072);
#322=VERTEX_POINT('',#1074);
#323=VERTEX_POINT('',#1084);
#324=VERTEX_POINT('',#1088);
#325=VERTEX_POINT('',#1099);
#326=VERTEX_POINT('',#1100);
#327=VERTEX_POINT('',#1102);
#328=VERTEX_POINT('',#1104);
#329=VERTEX_POINT('',#1106);
#330=VERTEX_POINT('',#1108);
#331=VERTEX_POINT('',#1110);
#332=VERTEX_POINT('',#1112);
#333=VERTEX_POINT('',#1116);
#334=VERTEX_POINT('',#1118);
#335=VERTEX_POINT('',#1122);
#336=VERTEX_POINT('',#1126);
#337=VERTEX_POINT('',#1127);
#338=VERTEX_POINT('',#1132);
#339=VERTEX_POINT('',#1136);
#340=VERTEX_POINT('',#1140);
#341=VERTEX_POINT('',#1149);
#342=VERTEX_POINT('',#1150);
#343=VERTEX_POINT('',#1152);
#344=VERTEX_POINT('',#1156);
#345=VERTEX_POINT('',#1157);
#346=VERTEX_POINT('',#1159);
#347=VERTEX_POINT('',#1166);
#348=VERTEX_POINT('',#1167);
#349=VERTEX_POINT('',#1169);
#350=VERTEX_POINT('',#1171);
#351=VERTEX_POINT('',#1175);
#352=VERTEX_POINT('',#1177);
#353=VERTEX_POINT('',#1182);
#354=VERTEX_POINT('',#1186);
#355=VERTEX_POINT('',#1190);
#356=VERTEX_POINT('',#1192);
#357=VERTEX_POINT('',#1196);
#358=VERTEX_POINT('',#1198);
#359=VERTEX_POINT('',#1208);
#360=VERTEX_POINT('',#1210);
#361=EDGE_CURVE('',#305,#306,#265,.T.);
#362=EDGE_CURVE('',#305,#307,#266,.T.);
#363=EDGE_CURVE('',#307,#306,#267,.T.);
#364=EDGE_CURVE('',#308,#309,#268,.T.);
#365=EDGE_CURVE('',#308,#310,#269,.T.);
#366=EDGE_CURVE('',#310,#309,#270,.T.);
#367=EDGE_CURVE('',#308,#306,#41,.T.);
#368=EDGE_CURVE('',#307,#310,#42,.T.);
#369=EDGE_CURVE('',#311,#312,#43,.T.);
#370=EDGE_CURVE('',#313,#311,#44,.T.);
#371=EDGE_CURVE('',#314,#313,#45,.T.);
#372=EDGE_CURVE('',#312,#314,#46,.T.);
#373=EDGE_CURVE('',#314,#315,#271,.T.);
#374=EDGE_CURVE('',#313,#316,#272,.T.);
#375=EDGE_CURVE('',#316,#315,#47,.T.);
#376=EDGE_CURVE('',#315,#305,#48,.T.);
#377=EDGE_CURVE('',#316,#317,#49,.T.);
#378=EDGE_CURVE('',#305,#317,#50,.T.);
#379=EDGE_CURVE('',#317,#318,#273,.T.);
#380=EDGE_CURVE('',#318,#307,#51,.T.);
#381=EDGE_CURVE('',#310,#319,#52,.T.);
#382=EDGE_CURVE('',#319,#320,#274,.T.);
#383=EDGE_CURVE('',#320,#309,#53,.T.);
#384=EDGE_CURVE('',#309,#321,#54,.T.);
#385=EDGE_CURVE('',#322,#320,#55,.T.);
#386=EDGE_CURVE('',#321,#322,#56,.T.);
#387=EDGE_CURVE('',#319,#318,#57,.T.);
#388=EDGE_CURVE('',#322,#311,#275,.T.);
#389=EDGE_CURVE('',#321,#312,#276,.T.);
#390=EDGE_CURVE('',#315,#323,#277,.T.);
#391=EDGE_CURVE('',#306,#323,#58,.T.);
#392=EDGE_CURVE('',#324,#308,#59,.T.);
#393=EDGE_CURVE('',#323,#324,#60,.T.);
#394=EDGE_CURVE('',#321,#324,#278,.T.);
#395=EDGE_CURVE('',#312,#324,#279,.T.);
#396=EDGE_CURVE('',#323,#314,#280,.T.);
#397=EDGE_CURVE('',#325,#326,#281,.T.);
#398=EDGE_CURVE('',#325,#327,#61,.T.);
#399=EDGE_CURVE('',#328,#327,#282,.T.);
#400=EDGE_CURVE('',#328,#329,#62,.F.);
#401=EDGE_CURVE('',#330,#329,#283,.T.);
#402=EDGE_CURVE('',#331,#330,#63,.T.);
#403=EDGE_CURVE('',#332,#331,#284,.T.);
#404=EDGE_CURVE('',#326,#332,#64,.T.);
#405=EDGE_CURVE('',#333,#325,#65,.T.);
#406=EDGE_CURVE('',#333,#334,#66,.T.);
#407=EDGE_CURVE('',#327,#334,#67,.T.);
#408=EDGE_CURVE('',#334,#335,#285,.T.);
#409=EDGE_CURVE('',#335,#328,#68,.T.);
#410=EDGE_CURVE('',#336,#337,#286,.T.);
#411=EDGE_CURVE('',#337,#330,#69,.T.);
#412=EDGE_CURVE('',#329,#336,#70,.T.);
#413=EDGE_CURVE('',#331,#338,#71,.T.);
#414=EDGE_CURVE('',#338,#337,#72,.T.);
#415=EDGE_CURVE('',#338,#339,#287,.T.);
#416=EDGE_CURVE('',#339,#332,#73,.T.);
#417=EDGE_CURVE('',#326,#340,#74,.T.);
#418=EDGE_CURVE('',#339,#340,#75,.T.);
#419=EDGE_CURVE('',#340,#333,#288,.T.);
#420=EDGE_CURVE('',#336,#335,#76,.F.);
#421=EDGE_CURVE('',#341,#342,#289,.T.);
#422=EDGE_CURVE('',#341,#343,#290,.T.);
#423=EDGE_CURVE('',#343,#342,#291,.T.);
#424=EDGE_CURVE('',#344,#345,#292,.T.);
#425=EDGE_CURVE('',#344,#346,#293,.T.);
#426=EDGE_CURVE('',#346,#345,#294,.T.);
#427=EDGE_CURVE('',#343,#346,#77,.T.);
#428=EDGE_CURVE('',#344,#342,#78,.T.);
#429=EDGE_CURVE('',#347,#348,#79,.T.);
#430=EDGE_CURVE('',#349,#347,#80,.F.);
#431=EDGE_CURVE('',#350,#349,#81,.T.);
#432=EDGE_CURVE('',#348,#350,#82,.T.);
#433=EDGE_CURVE('',#350,#351,#295,.T.);
#434=EDGE_CURVE('',#349,#352,#296,.F.);
#435=EDGE_CURVE('',#352,#351,#83,.F.);
#436=EDGE_CURVE('',#351,#341,#84,.T.);
#437=EDGE_CURVE('',#352,#353,#85,.T.);
#438=EDGE_CURVE('',#341,#353,#86,.T.);
#439=EDGE_CURVE('',#353,#354,#297,.T.);
#440=EDGE_CURVE('',#354,#343,#87,.T.);
#441=EDGE_CURVE('',#346,#355,#88,.T.);
#442=EDGE_CURVE('',#355,#356,#298,.T.);
#443=EDGE_CURVE('',#356,#345,#89,.T.);
#444=EDGE_CURVE('',#345,#357,#90,.T.);
#445=EDGE_CURVE('',#358,#356,#91,.T.);
#446=EDGE_CURVE('',#357,#358,#92,.T.);
#447=EDGE_CURVE('',#355,#354,#93,.T.);
#448=EDGE_CURVE('',#358,#347,#299,.F.);
#449=EDGE_CURVE('',#357,#348,#300,.T.);
#450=EDGE_CURVE('',#359,#350,#301,.T.);
#451=EDGE_CURVE('',#359,#360,#94,.T.);
#452=EDGE_CURVE('',#348,#360,#302,.T.);
#453=EDGE_CURVE('',#357,#360,#303,.T.);
#454=EDGE_CURVE('',#360,#344,#95,.T.);
#455=EDGE_CURVE('',#359,#351,#304,.T.);
#456=EDGE_CURVE('',#342,#359,#96,.T.);
#457=ORIENTED_EDGE('',*,*,#361,.F.);
#458=ORIENTED_EDGE('',*,*,#362,.T.);
#459=ORIENTED_EDGE('',*,*,#363,.T.);
#460=ORIENTED_EDGE('',*,*,#364,.F.);
#461=ORIENTED_EDGE('',*,*,#365,.T.);
#462=ORIENTED_EDGE('',*,*,#366,.T.);
#463=ORIENTED_EDGE('',*,*,#365,.F.);
#464=ORIENTED_EDGE('',*,*,#367,.T.);
#465=ORIENTED_EDGE('',*,*,#363,.F.);
#466=ORIENTED_EDGE('',*,*,#368,.T.);
#467=ORIENTED_EDGE('',*,*,#369,.F.);
#468=ORIENTED_EDGE('',*,*,#370,.F.);
#469=ORIENTED_EDGE('',*,*,#371,.F.);
#470=ORIENTED_EDGE('',*,*,#372,.F.);
#471=ORIENTED_EDGE('',*,*,#373,.F.);
#472=ORIENTED_EDGE('',*,*,#371,.T.);
#473=ORIENTED_EDGE('',*,*,#374,.T.);
#474=ORIENTED_EDGE('',*,*,#375,.T.);
#475=ORIENTED_EDGE('',*,*,#376,.F.);
#476=ORIENTED_EDGE('',*,*,#375,.F.);
#477=ORIENTED_EDGE('',*,*,#377,.T.);
#478=ORIENTED_EDGE('',*,*,#378,.F.);
#479=ORIENTED_EDGE('',*,*,#362,.F.);
#480=ORIENTED_EDGE('',*,*,#378,.T.);
#481=ORIENTED_EDGE('',*,*,#379,.T.);
#482=ORIENTED_EDGE('',*,*,#380,.T.);
#483=ORIENTED_EDGE('',*,*,#366,.F.);
#484=ORIENTED_EDGE('',*,*,#381,.T.);
#485=ORIENTED_EDGE('',*,*,#382,.T.);
#486=ORIENTED_EDGE('',*,*,#383,.T.);
#487=ORIENTED_EDGE('',*,*,#384,.F.);
#488=ORIENTED_EDGE('',*,*,#383,.F.);
#489=ORIENTED_EDGE('',*,*,#385,.F.);
#490=ORIENTED_EDGE('',*,*,#386,.F.);
#491=ORIENTED_EDGE('',*,*,#381,.F.);
#492=ORIENTED_EDGE('',*,*,#368,.F.);
#493=ORIENTED_EDGE('',*,*,#380,.F.);
#494=ORIENTED_EDGE('',*,*,#387,.F.);
#495=ORIENTED_EDGE('',*,*,#388,.F.);
#496=ORIENTED_EDGE('',*,*,#385,.T.);
#497=ORIENTED_EDGE('',*,*,#382,.F.);
#498=ORIENTED_EDGE('',*,*,#387,.T.);
#499=ORIENTED_EDGE('',*,*,#379,.F.);
#500=ORIENTED_EDGE('',*,*,#377,.F.);
#501=ORIENTED_EDGE('',*,*,#374,.F.);
#502=ORIENTED_EDGE('',*,*,#370,.T.);
#503=ORIENTED_EDGE('',*,*,#389,.F.);
#504=ORIENTED_EDGE('',*,*,#386,.T.);
#505=ORIENTED_EDGE('',*,*,#388,.T.);
#506=ORIENTED_EDGE('',*,*,#369,.T.);
#507=ORIENTED_EDGE('',*,*,#390,.F.);
#508=ORIENTED_EDGE('',*,*,#376,.T.);
#509=ORIENTED_EDGE('',*,*,#361,.T.);
#510=ORIENTED_EDGE('',*,*,#391,.T.);
#511=ORIENTED_EDGE('',*,*,#392,.F.);
#512=ORIENTED_EDGE('',*,*,#393,.F.);
#513=ORIENTED_EDGE('',*,*,#391,.F.);
#514=ORIENTED_EDGE('',*,*,#367,.F.);
#515=ORIENTED_EDGE('',*,*,#394,.T.);
#516=ORIENTED_EDGE('',*,*,#392,.T.);
#517=ORIENTED_EDGE('',*,*,#364,.T.);
#518=ORIENTED_EDGE('',*,*,#384,.T.);
#519=ORIENTED_EDGE('',*,*,#394,.F.);
#520=ORIENTED_EDGE('',*,*,#389,.T.);
#521=ORIENTED_EDGE('',*,*,#395,.T.);
#522=ORIENTED_EDGE('',*,*,#390,.T.);
#523=ORIENTED_EDGE('',*,*,#396,.T.);
#524=ORIENTED_EDGE('',*,*,#373,.T.);
#525=ORIENTED_EDGE('',*,*,#395,.F.);
#526=ORIENTED_EDGE('',*,*,#372,.T.);
#527=ORIENTED_EDGE('',*,*,#396,.F.);
#528=ORIENTED_EDGE('',*,*,#393,.T.);
#529=ORIENTED_EDGE('',*,*,#397,.F.);
#530=ORIENTED_EDGE('',*,*,#398,.T.);
#531=ORIENTED_EDGE('',*,*,#399,.F.);
#532=ORIENTED_EDGE('',*,*,#400,.T.);
#533=ORIENTED_EDGE('',*,*,#401,.F.);
#534=ORIENTED_EDGE('',*,*,#402,.F.);
#535=ORIENTED_EDGE('',*,*,#403,.F.);
#536=ORIENTED_EDGE('',*,*,#404,.F.);
#537=ORIENTED_EDGE('',*,*,#405,.F.);
#538=ORIENTED_EDGE('',*,*,#406,.T.);
#539=ORIENTED_EDGE('',*,*,#407,.F.);
#540=ORIENTED_EDGE('',*,*,#398,.F.);
#541=ORIENTED_EDGE('',*,*,#399,.T.);
#542=ORIENTED_EDGE('',*,*,#407,.T.);
#543=ORIENTED_EDGE('',*,*,#408,.T.);
#544=ORIENTED_EDGE('',*,*,#409,.T.);
#545=ORIENTED_EDGE('',*,*,#410,.T.);
#546=ORIENTED_EDGE('',*,*,#411,.T.);
#547=ORIENTED_EDGE('',*,*,#401,.T.);
#548=ORIENTED_EDGE('',*,*,#412,.T.);
#549=ORIENTED_EDGE('',*,*,#413,.F.);
#550=ORIENTED_EDGE('',*,*,#402,.T.);
#551=ORIENTED_EDGE('',*,*,#411,.F.);
#552=ORIENTED_EDGE('',*,*,#414,.F.);
#553=ORIENTED_EDGE('',*,*,#415,.T.);
#554=ORIENTED_EDGE('',*,*,#416,.T.);
#555=ORIENTED_EDGE('',*,*,#403,.T.);
#556=ORIENTED_EDGE('',*,*,#413,.T.);
#557=ORIENTED_EDGE('',*,*,#417,.F.);
#558=ORIENTED_EDGE('',*,*,#404,.T.);
#559=ORIENTED_EDGE('',*,*,#416,.F.);
#560=ORIENTED_EDGE('',*,*,#418,.T.);
#561=ORIENTED_EDGE('',*,*,#397,.T.);
#562=ORIENTED_EDGE('',*,*,#417,.T.);
#563=ORIENTED_EDGE('',*,*,#419,.T.);
#564=ORIENTED_EDGE('',*,*,#405,.T.);
#565=ORIENTED_EDGE('',*,*,#409,.F.);
#566=ORIENTED_EDGE('',*,*,#420,.F.);
#567=ORIENTED_EDGE('',*,*,#412,.F.);
#568=ORIENTED_EDGE('',*,*,#400,.F.);
#569=ORIENTED_EDGE('',*,*,#419,.F.);
#570=ORIENTED_EDGE('',*,*,#418,.F.);
#571=ORIENTED_EDGE('',*,*,#415,.F.);
#572=ORIENTED_EDGE('',*,*,#414,.T.);
#573=ORIENTED_EDGE('',*,*,#410,.F.);
#574=ORIENTED_EDGE('',*,*,#420,.T.);
#575=ORIENTED_EDGE('',*,*,#408,.F.);
#576=ORIENTED_EDGE('',*,*,#406,.F.);
#577=ORIENTED_EDGE('',*,*,#421,.F.);
#578=ORIENTED_EDGE('',*,*,#422,.T.);
#579=ORIENTED_EDGE('',*,*,#423,.T.);
#580=ORIENTED_EDGE('',*,*,#424,.F.);
#581=ORIENTED_EDGE('',*,*,#425,.T.);
#582=ORIENTED_EDGE('',*,*,#426,.T.);
#583=ORIENTED_EDGE('',*,*,#423,.F.);
#584=ORIENTED_EDGE('',*,*,#427,.T.);
#585=ORIENTED_EDGE('',*,*,#425,.F.);
#586=ORIENTED_EDGE('',*,*,#428,.T.);
#587=ORIENTED_EDGE('',*,*,#429,.F.);
#588=ORIENTED_EDGE('',*,*,#430,.F.);
#589=ORIENTED_EDGE('',*,*,#431,.F.);
#590=ORIENTED_EDGE('',*,*,#432,.F.);
#591=ORIENTED_EDGE('',*,*,#433,.F.);
#592=ORIENTED_EDGE('',*,*,#431,.T.);
#593=ORIENTED_EDGE('',*,*,#434,.T.);
#594=ORIENTED_EDGE('',*,*,#435,.T.);
#595=ORIENTED_EDGE('',*,*,#436,.F.);
#596=ORIENTED_EDGE('',*,*,#435,.F.);
#597=ORIENTED_EDGE('',*,*,#437,.T.);
#598=ORIENTED_EDGE('',*,*,#438,.F.);
#599=ORIENTED_EDGE('',*,*,#422,.F.);
#600=ORIENTED_EDGE('',*,*,#438,.T.);
#601=ORIENTED_EDGE('',*,*,#439,.T.);
#602=ORIENTED_EDGE('',*,*,#440,.T.);
#603=ORIENTED_EDGE('',*,*,#426,.F.);
#604=ORIENTED_EDGE('',*,*,#441,.T.);
#605=ORIENTED_EDGE('',*,*,#442,.T.);
#606=ORIENTED_EDGE('',*,*,#443,.T.);
#607=ORIENTED_EDGE('',*,*,#444,.F.);
#608=ORIENTED_EDGE('',*,*,#443,.F.);
#609=ORIENTED_EDGE('',*,*,#445,.F.);
#610=ORIENTED_EDGE('',*,*,#446,.F.);
#611=ORIENTED_EDGE('',*,*,#441,.F.);
#612=ORIENTED_EDGE('',*,*,#427,.F.);
#613=ORIENTED_EDGE('',*,*,#440,.F.);
#614=ORIENTED_EDGE('',*,*,#447,.F.);
#615=ORIENTED_EDGE('',*,*,#448,.F.);
#616=ORIENTED_EDGE('',*,*,#445,.T.);
#617=ORIENTED_EDGE('',*,*,#442,.F.);
#618=ORIENTED_EDGE('',*,*,#447,.T.);
#619=ORIENTED_EDGE('',*,*,#439,.F.);
#620=ORIENTED_EDGE('',*,*,#437,.F.);
#621=ORIENTED_EDGE('',*,*,#434,.F.);
#622=ORIENTED_EDGE('',*,*,#430,.T.);
#623=ORIENTED_EDGE('',*,*,#449,.F.);
#624=ORIENTED_EDGE('',*,*,#446,.T.);
#625=ORIENTED_EDGE('',*,*,#448,.T.);
#626=ORIENTED_EDGE('',*,*,#429,.T.);
#627=ORIENTED_EDGE('',*,*,#450,.F.);
#628=ORIENTED_EDGE('',*,*,#451,.T.);
#629=ORIENTED_EDGE('',*,*,#452,.F.);
#630=ORIENTED_EDGE('',*,*,#432,.T.);
#631=ORIENTED_EDGE('',*,*,#453,.T.);
#632=ORIENTED_EDGE('',*,*,#454,.T.);
#633=ORIENTED_EDGE('',*,*,#424,.T.);
#634=ORIENTED_EDGE('',*,*,#444,.T.);
#635=ORIENTED_EDGE('',*,*,#455,.F.);
#636=ORIENTED_EDGE('',*,*,#450,.T.);
#637=ORIENTED_EDGE('',*,*,#433,.T.);
#638=ORIENTED_EDGE('',*,*,#456,.F.);
#639=ORIENTED_EDGE('',*,*,#428,.F.);
#640=ORIENTED_EDGE('',*,*,#454,.F.);
#641=ORIENTED_EDGE('',*,*,#451,.F.);
#642=ORIENTED_EDGE('',*,*,#455,.T.);
#643=ORIENTED_EDGE('',*,*,#436,.T.);
#644=ORIENTED_EDGE('',*,*,#421,.T.);
#645=ORIENTED_EDGE('',*,*,#456,.T.);
#646=ORIENTED_EDGE('',*,*,#453,.F.);
#647=ORIENTED_EDGE('',*,*,#449,.T.);
#648=ORIENTED_EDGE('',*,*,#452,.T.);
#649=SPHERICAL_SURFACE('',#707,0.1);
#650=SPHERICAL_SURFACE('',#711,0.1);
#651=SPHERICAL_SURFACE('',#736,0.1);
#652=SPHERICAL_SURFACE('',#738,0.1);
#653=SPHERICAL_SURFACE('',#759,0.1);
#654=SPHERICAL_SURFACE('',#763,0.1);
#655=SPHERICAL_SURFACE('',#788,0.1);
#656=SPHERICAL_SURFACE('',#792,0.1);
#657=ADVANCED_FACE('',(#173),#649,.T.);
#658=ADVANCED_FACE('',(#174),#650,.T.);
#659=ADVANCED_FACE('',(#175),#153,.T.);
#660=ADVANCED_FACE('',(#176),#23,.F.);
#661=ADVANCED_FACE('',(#177),#154,.T.);
#662=ADVANCED_FACE('',(#178),#24,.T.);
#663=ADVANCED_FACE('',(#179),#155,.T.);
#664=ADVANCED_FACE('',(#180),#156,.T.);
#665=ADVANCED_FACE('',(#181),#25,.T.);
#666=ADVANCED_FACE('',(#182),#26,.T.);
#667=ADVANCED_FACE('',(#183),#27,.T.);
#668=ADVANCED_FACE('',(#184),#157,.T.);
#669=ADVANCED_FACE('',(#185),#158,.T.);
#670=ADVANCED_FACE('',(#186),#28,.T.);
#671=ADVANCED_FACE('',(#187),#159,.T.);
#672=ADVANCED_FACE('',(#188),#651,.T.);
#673=ADVANCED_FACE('',(#189),#652,.T.);
#674=ADVANCED_FACE('',(#190),#160,.T.);
#675=ADVANCED_FACE('',(#191),#29,.T.);
#676=ADVANCED_FACE('',(#192),#30,.T.);
#677=ADVANCED_FACE('',(#193),#161,.T.);
#678=ADVANCED_FACE('',(#194),#162,.T.);
#679=ADVANCED_FACE('',(#195),#31,.T.);
#680=ADVANCED_FACE('',(#196),#163,.T.);
#681=ADVANCED_FACE('',(#197),#32,.F.);
#682=ADVANCED_FACE('',(#198),#164,.T.);
#683=ADVANCED_FACE('',(#199),#33,.T.);
#684=ADVANCED_FACE('',(#200),#34,.T.);
#685=ADVANCED_FACE('',(#201),#653,.T.);
#686=ADVANCED_FACE('',(#202),#654,.T.);
#687=ADVANCED_FACE('',(#203),#165,.T.);
#688=ADVANCED_FACE('',(#204),#35,.F.);
#689=ADVANCED_FACE('',(#205),#166,.T.);
#690=ADVANCED_FACE('',(#206),#36,.T.);
#691=ADVANCED_FACE('',(#207),#167,.T.);
#692=ADVANCED_FACE('',(#208),#168,.T.);
#693=ADVANCED_FACE('',(#209),#37,.T.);
#694=ADVANCED_FACE('',(#210),#38,.T.);
#695=ADVANCED_FACE('',(#211),#39,.T.);
#696=ADVANCED_FACE('',(#212),#169,.T.);
#697=ADVANCED_FACE('',(#213),#170,.T.);
#698=ADVANCED_FACE('',(#214),#171,.T.);
#699=ADVANCED_FACE('',(#215),#655,.T.);
#700=ADVANCED_FACE('',(#216),#40,.T.);
#701=ADVANCED_FACE('',(#217),#172,.T.);
#702=ADVANCED_FACE('',(#218),#656,.T.);
#703=CLOSED_SHELL('',(#657,#658,#659,#660,#661,#662,#663,#664,#665,#666,
#667,#668,#669,#670,#671,#672,#673,#674));
#704=CLOSED_SHELL('',(#675,#676,#677,#678,#679,#680,#681,#682,#683,#684));
#705=CLOSED_SHELL('',(#685,#686,#687,#688,#689,#690,#691,#692,#693,#694,
#695,#696,#697,#698,#699,#700,#701,#702));
#706=AXIS2_PLACEMENT_3D('placement',#1023,#793,#794);
#707=AXIS2_PLACEMENT_3D('',#1024,#795,#796);
#708=AXIS2_PLACEMENT_3D('',#1027,#797,#798);
#709=AXIS2_PLACEMENT_3D('',#1029,#799,#800);
#710=AXIS2_PLACEMENT_3D('',#1030,#801,#802);
#711=AXIS2_PLACEMENT_3D('',#1031,#803,#804);
#712=AXIS2_PLACEMENT_3D('',#1034,#805,#806);
#713=AXIS2_PLACEMENT_3D('',#1036,#807,#808);
#714=AXIS2_PLACEMENT_3D('',#1037,#809,#810);
#715=AXIS2_PLACEMENT_3D('',#1038,#811,#812);
#716=AXIS2_PLACEMENT_3D('',#1041,#815,#816);
#717=AXIS2_PLACEMENT_3D('',#1050,#821,#822);
#718=AXIS2_PLACEMENT_3D('',#1052,#823,#824);
#719=AXIS2_PLACEMENT_3D('',#1054,#825,#826);
#720=AXIS2_PLACEMENT_3D('',#1056,#828,#829);
#721=AXIS2_PLACEMENT_3D('',#1061,#833,#834);
#722=AXIS2_PLACEMENT_3D('',#1063,#835,#836);
#723=AXIS2_PLACEMENT_3D('',#1065,#838,#839);
#724=AXIS2_PLACEMENT_3D('',#1069,#841,#842);
#725=AXIS2_PLACEMENT_3D('',#1071,#844,#845);
#726=AXIS2_PLACEMENT_3D('',#1077,#849,#850);
#727=AXIS2_PLACEMENT_3D('',#1079,#852,#853);
#728=AXIS2_PLACEMENT_3D('',#1080,#854,#855);
#729=AXIS2_PLACEMENT_3D('',#1081,#856,#857);
#730=AXIS2_PLACEMENT_3D('',#1082,#858,#859);
#731=AXIS2_PLACEMENT_3D('',#1083,#860,#861);
#732=AXIS2_PLACEMENT_3D('',#1085,#862,#863);
#733=AXIS2_PLACEMENT_3D('',#1087,#865,#866);
#734=AXIS2_PLACEMENT_3D('',#1091,#869,#870);
#735=AXIS2_PLACEMENT_3D('',#1092,#871,#872);
#736=AXIS2_PLACEMENT_3D('',#1093,#873,#874);
#737=AXIS2_PLACEMENT_3D('',#1094,#875,#876);
#738=AXIS2_PLACEMENT_3D('',#1095,#877,#878);
#739=AXIS2_PLACEMENT_3D('',#1096,#879,#880);
#740=AXIS2_PLACEMENT_3D('',#1097,#881,#882);
#741=AXIS2_PLACEMENT_3D('',#1098,#883,#884);
#742=AXIS2_PLACEMENT_3D('',#1101,#885,#886);
#743=AXIS2_PLACEMENT_3D('',#1105,#888,#889);
#744=AXIS2_PLACEMENT_3D('',#1109,#891,#892);
#745=AXIS2_PLACEMENT_3D('',#1113,#894,#895);
#746=AXIS2_PLACEMENT_3D('',#1115,#897,#898);
#747=AXIS2_PLACEMENT_3D('',#1121,#902,#903);
#748=AXIS2_PLACEMENT_3D('',#1123,#904,#905);
#749=AXIS2_PLACEMENT_3D('',#1125,#907,#908);
#750=AXIS2_PLACEMENT_3D('',#1128,#909,#910);
#751=AXIS2_PLACEMENT_3D('',#1131,#913,#914);
#752=AXIS2_PLACEMENT_3D('',#1135,#917,#918);
#753=AXIS2_PLACEMENT_3D('',#1137,#919,#920);
#754=AXIS2_PLACEMENT_3D('',#1139,#922,#923);
#755=AXIS2_PLACEMENT_3D('',#1143,#926,#927);
#756=AXIS2_PLACEMENT_3D('',#1144,#928,#929);
#757=AXIS2_PLACEMENT_3D('',#1145,#930,#931);
#758=AXIS2_PLACEMENT_3D('',#1147,#933,#934);
#759=AXIS2_PLACEMENT_3D('',#1148,#935,#936);
#760=AXIS2_PLACEMENT_3D('',#1151,#937,#938);
#761=AXIS2_PLACEMENT_3D('',#1153,#939,#940);
#762=AXIS2_PLACEMENT_3D('',#1154,#941,#942);
#763=AXIS2_PLACEMENT_3D('',#1155,#943,#944);
#764=AXIS2_PLACEMENT_3D('',#1158,#945,#946);
#765=AXIS2_PLACEMENT_3D('',#1160,#947,#948);
#766=AXIS2_PLACEMENT_3D('',#1161,#949,#950);
#767=AXIS2_PLACEMENT_3D('',#1162,#951,#952);
#768=AXIS2_PLACEMENT_3D('',#1165,#955,#956);
#769=AXIS2_PLACEMENT_3D('',#1174,#961,#962);
#770=AXIS2_PLACEMENT_3D('',#1176,#963,#964);
#771=AXIS2_PLACEMENT_3D('',#1178,#965,#966);
#772=AXIS2_PLACEMENT_3D('',#1180,#968,#969);
#773=AXIS2_PLACEMENT_3D('',#1185,#973,#974);
#774=AXIS2_PLACEMENT_3D('',#1187,#975,#976);
#775=AXIS2_PLACEMENT_3D('',#1189,#978,#979);
#776=AXIS2_PLACEMENT_3D('',#1193,#981,#982);
#777=AXIS2_PLACEMENT_3D('',#1195,#984,#985);
#778=AXIS2_PLACEMENT_3D('',#1201,#989,#990);
#779=AXIS2_PLACEMENT_3D('',#1203,#992,#993);
#780=AXIS2_PLACEMENT_3D('',#1204,#994,#995);
#781=AXIS2_PLACEMENT_3D('',#1205,#996,#997);
#782=AXIS2_PLACEMENT_3D('',#1206,#998,#999);
#783=AXIS2_PLACEMENT_3D('',#1207,#1000,#1001);
#784=AXIS2_PLACEMENT_3D('',#1209,#1002,#1003);
#785=AXIS2_PLACEMENT_3D('',#1212,#1005,#1006);
#786=AXIS2_PLACEMENT_3D('',#1213,#1007,#1008);
#787=AXIS2_PLACEMENT_3D('',#1214,#1009,#1010);
#788=AXIS2_PLACEMENT_3D('',#1216,#1012,#1013);
#789=AXIS2_PLACEMENT_3D('',#1217,#1014,#1015);
#790=AXIS2_PLACEMENT_3D('',#1218,#1016,#1017);
#791=AXIS2_PLACEMENT_3D('',#1220,#1019,#1020);
#792=AXIS2_PLACEMENT_3D('',#1221,#1021,#1022);
#793=DIRECTION('axis',(0.,0.,1.));
#794=DIRECTION('refdir',(1.,0.,0.));
#795=DIRECTION('center_axis',(0.,0.,1.));
#796=DIRECTION('ref_axis',(1.,0.,0.));
#797=DIRECTION('center_axis',(0.,0.,-1.));
#798=DIRECTION('ref_axis',(0.,-1.,0.));
#799=DIRECTION('center_axis',(-1.,0.,0.));
#800=DIRECTION('ref_axis',(0.,-0.707106781186547,0.707106781186547));
#801=DIRECTION('center_axis',(0.,-1.,0.));
#802=DIRECTION('ref_axis',(-0.707106781186548,0.,0.707106781186547));
#803=DIRECTION('center_axis',(0.,0.,1.));
#804=DIRECTION('ref_axis',(1.,0.,0.));
#805=DIRECTION('center_axis',(0.,0.,-1.));
#806=DIRECTION('ref_axis',(-1.,0.,0.));
#807=DIRECTION('center_axis',(0.,1.,0.));
#808=DIRECTION('ref_axis',(-0.707106781186548,0.,0.707106781186547));
#809=DIRECTION('center_axis',(-1.,0.,0.));
#810=DIRECTION('ref_axis',(0.,0.707106781186547,0.707106781186547));
#811=DIRECTION('center_axis',(0.,1.,0.));
#812=DIRECTION('ref_axis',(-0.707106781186548,0.,0.707106781186547));
#813=DIRECTION('',(0.,-1.,0.));
#814=DIRECTION('',(0.,1.,0.));
#815=DIRECTION('center_axis',(0.,0.,1.));
#816=DIRECTION('ref_axis',(1.,0.,0.));
#817=DIRECTION('',(-1.,0.,0.));
#818=DIRECTION('',(0.,1.,0.));
#819=DIRECTION('',(1.,0.,0.));
#820=DIRECTION('',(0.,-1.,0.));
#821=DIRECTION('center_axis',(1.,0.,0.));
#822=DIRECTION('ref_axis',(0.,-0.707106781186547,-0.707106781186548));
#823=DIRECTION('center_axis',(-1.,0.,0.));
#824=DIRECTION('ref_axis',(0.,-0.707106781186547,-0.707106781186548));
#825=DIRECTION('center_axis',(-1.,0.,0.));
#826=DIRECTION('ref_axis',(0.,-0.707106781186547,-0.707106781186548));
#827=DIRECTION('',(-1.,0.,0.));
#828=DIRECTION('center_axis',(0.,-1.,0.));
#829=DIRECTION('ref_axis',(0.,0.,-1.));
#830=DIRECTION('',(0.,0.,1.));
#831=DIRECTION('',(0.,0.,1.));
#832=DIRECTION('',(1.,0.,0.));
#833=DIRECTION('center_axis',(-1.,0.,0.));
#834=DIRECTION('ref_axis',(0.,-0.707106781186548,0.707106781186548));
#835=DIRECTION('center_axis',(-1.,0.,0.));
#836=DIRECTION('ref_axis',(0.,-0.707106781186548,0.707106781186548));
#837=DIRECTION('',(-1.,0.,0.));
#838=DIRECTION('center_axis',(1.,0.,0.));
#839=DIRECTION('ref_axis',(0.,0.707106781186548,0.707106781186548));
#840=DIRECTION('',(1.,0.,0.));
#841=DIRECTION('center_axis',(-1.,0.,0.));
#842=DIRECTION('ref_axis',(0.,0.707106781186548,0.707106781186548));
#843=DIRECTION('',(-1.,0.,0.));
#844=DIRECTION('center_axis',(0.,1.,0.));
#845=DIRECTION('ref_axis',(0.,0.,1.));
#846=DIRECTION('',(0.,0.,-1.));
#847=DIRECTION('',(0.,0.,1.));
#848=DIRECTION('',(1.,0.,0.));
#849=DIRECTION('center_axis',(0.,0.,1.));
#850=DIRECTION('ref_axis',(1.,0.,0.));
#851=DIRECTION('',(0.,-1.,0.));
#852=DIRECTION('center_axis',(1.,0.,0.));
#853=DIRECTION('ref_axis',(0.,0.,-1.));
#854=DIRECTION('center_axis',(-1.,0.,0.));
#855=DIRECTION('ref_axis',(0.,0.707106781186547,-0.707106781186548));
#856=DIRECTION('center_axis',(-1.,0.,0.));
#857=DIRECTION('ref_axis',(0.,0.707106781186547,-0.707106781186548));
#858=DIRECTION('center_axis',(-1.,0.,0.));
#859=DIRECTION('ref_axis',(0.,0.707106781186547,-0.707106781186548));
#860=DIRECTION('center_axis',(0.,0.,1.));
#861=DIRECTION('ref_axis',(-0.707106781186548,-0.707106781186547,0.));
#862=DIRECTION('center_axis',(0.,0.,-1.));
#863=DIRECTION('ref_axis',(0.,-1.,0.));
#864=DIRECTION('',(0.,0.,-1.));
#865=DIRECTION('center_axis',(-1.,0.,0.));
#866=DIRECTION('ref_axis',(0.,0.,1.));
#867=DIRECTION('',(0.,0.,1.));
#868=DIRECTION('',(0.,1.,0.));
#869=DIRECTION('center_axis',(0.,0.,1.));
#870=DIRECTION('ref_axis',(-0.707106781186548,0.707106781186547,0.));
#871=DIRECTION('center_axis',(0.,0.,1.));
#872=DIRECTION('ref_axis',(0.,1.,0.));
#873=DIRECTION('center_axis',(0.,0.,1.));
#874=DIRECTION('ref_axis',(1.,0.,0.));
#875=DIRECTION('center_axis',(0.,1.,0.));
#876=DIRECTION('ref_axis',(-0.707106781186548,0.,-0.707106781186547));
#877=DIRECTION('center_axis',(0.,0.,1.));
#878=DIRECTION('ref_axis',(1.,0.,0.));
#879=DIRECTION('center_axis',(0.,-1.,0.));
#880=DIRECTION('ref_axis',(-0.707106781186548,0.,-0.707106781186547));
#881=DIRECTION('center_axis',(0.,-1.,0.));
#882=DIRECTION('ref_axis',(-0.707106781186548,0.,-0.707106781186547));
#883=DIRECTION('center_axis',(-1.,0.,0.));
#884=DIRECTION('ref_axis',(0.,0.,1.));
#885=DIRECTION('center_axis',(1.,0.,0.));
#886=DIRECTION('ref_axis',(0.,-0.707106781186547,-0.707106781186548));
#887=DIRECTION('',(0.,0.,1.));
#888=DIRECTION('center_axis',(1.,0.,0.));
#889=DIRECTION('ref_axis',(0.,-0.707106781186548,0.707106781186548));
#890=DIRECTION('',(0.,-1.,0.));
#891=DIRECTION('center_axis',(1.,0.,0.));
#892=DIRECTION('ref_axis',(0.,0.707106781186548,0.707106781186548));
#893=DIRECTION('',(0.,0.,1.));
#894=DIRECTION('center_axis',(1.,0.,0.));
#895=DIRECTION('ref_axis',(0.,0.707106781186547,-0.707106781186548));
#896=DIRECTION('',(0.,1.,0.));
#897=DIRECTION('center_axis',(0.,-1.,0.));
#898=DIRECTION('ref_axis',(0.,0.,-1.));
#899=DIRECTION('',(-1.,0.,0.));
#900=DIRECTION('',(0.,0.,1.));
#901=DIRECTION('',(1.,0.,0.));
#902=DIRECTION('center_axis',(-1.,0.,0.));
#903=DIRECTION('ref_axis',(0.,-0.707106781186548,0.707106781186548));
#904=DIRECTION('center_axis',(-1.,0.,0.));
#905=DIRECTION('ref_axis',(0.,-0.707106781186548,0.707106781186548));
#906=DIRECTION('',(-1.,0.,0.));
#907=DIRECTION('center_axis',(1.,5.84327907697451E-17,0.));
#908=DIRECTION('ref_axis',(0.,0.707106781186548,0.707106781186548));
#909=DIRECTION('center_axis',(-1.,0.,0.));
#910=DIRECTION('ref_axis',(0.,0.707106781186548,0.707106781186548));
#911=DIRECTION('',(-1.,-5.84327907697451E-17,0.));
#912=DIRECTION('',(1.,5.84327907697451E-17,0.));
#913=DIRECTION('center_axis',(-5.84327907697451E-17,1.,0.));
#914=DIRECTION('ref_axis',(0.,0.,1.));
#915=DIRECTION('',(1.,5.84327907697451E-17,0.));
#916=DIRECTION('',(0.,0.,1.));
#917=DIRECTION('center_axis',(1.,5.84327907697451E-17,0.));
#918=DIRECTION('ref_axis',(0.,0.707106781186547,-0.707106781186548));
#919=DIRECTION('center_axis',(-1.,0.,0.));
#920=DIRECTION('ref_axis',(0.,0.707106781186547,-0.707106781186548));
#921=DIRECTION('',(-1.,-5.84327907697451E-17,0.));
#922=DIRECTION('center_axis',(0.,0.,1.));
#923=DIRECTION('ref_axis',(1.,0.,0.));
#924=DIRECTION('',(1.,0.,0.));
#925=DIRECTION('',(0.,-1.,0.));
#926=DIRECTION('center_axis',(-1.,0.,0.));
#927=DIRECTION('ref_axis',(0.,-0.707106781186547,-0.707106781186548));
#928=DIRECTION('center_axis',(-1.,0.,0.));
#929=DIRECTION('ref_axis',(0.,-0.707106781186547,-0.707106781186548));
#930=DIRECTION('center_axis',(0.,0.,1.));
#931=DIRECTION('ref_axis',(1.,0.,0.));
#932=DIRECTION('',(0.,1.,0.));
#933=DIRECTION('center_axis',(1.,0.,0.));
#934=DIRECTION('ref_axis',(0.,0.,-1.));
#935=DIRECTION('center_axis',(0.,0.,1.));
#936=DIRECTION('ref_axis',(1.,0.,0.));
#937=DIRECTION('center_axis',(0.,0.,-1.));
#938=DIRECTION('ref_axis',(0.,1.,0.));
#939=DIRECTION('center_axis',(1.,-1.48029736616688E-16,0.));
#940=DIRECTION('ref_axis',(0.,0.707106781186548,0.707106781186547));
#941=DIRECTION('center_axis',(0.,1.,0.));
#942=DIRECTION('ref_axis',(0.707106781186548,0.,0.707106781186547));
#943=DIRECTION('center_axis',(0.,0.,1.));
#944=DIRECTION('ref_axis',(1.,0.,0.));
#945=DIRECTION('center_axis',(0.,0.,-1.));
#946=DIRECTION('ref_axis',(1.,0.,0.));
#947=DIRECTION('center_axis',(0.,-1.,0.));
#948=DIRECTION('ref_axis',(0.707106781186548,0.,0.707106781186547));
#949=DIRECTION('center_axis',(1.,0.,0.));
#950=DIRECTION('ref_axis',(0.,-0.707106781186547,0.707106781186547));
#951=DIRECTION('center_axis',(0.,-1.,0.));
#952=DIRECTION('ref_axis',(0.707106781186548,0.,0.707106781186547));
#953=DIRECTION('',(0.,-1.,0.));
#954=DIRECTION('',(0.,1.,0.));
#955=DIRECTION('center_axis',(0.,0.,1.));
#956=DIRECTION('ref_axis',(1.,0.,0.));
#957=DIRECTION('',(1.,0.,0.));
#958=DIRECTION('',(1.2335811384724E-16,1.,0.));
#959=DIRECTION('',(-1.,1.48029736616688E-16,0.));
#960=DIRECTION('',(0.,1.,0.));
#961=DIRECTION('center_axis',(-1.,1.48029736616688E-16,0.));
#962=DIRECTION('ref_axis',(0.,0.707106781186548,-0.707106781186547));
#963=DIRECTION('center_axis',(1.,-1.48029736616688E-16,0.));
#964=DIRECTION('ref_axis',(0.,0.707106781186548,-0.707106781186547));
#965=DIRECTION('center_axis',(-1.,1.2335811384724E-16,0.));
#966=DIRECTION('ref_axis',(0.,0.707106781186548,-0.707106781186547));
#967=DIRECTION('',(-1.,1.48029736616688E-16,0.));
#968=DIRECTION('center_axis',(1.48029736616688E-16,1.,0.));
#969=DIRECTION('ref_axis',(0.,0.,1.));
#970=DIRECTION('',(0.,0.,1.));
#971=DIRECTION('',(0.,0.,1.));
#972=DIRECTION('',(-1.,1.48029736616688E-16,0.));
#973=DIRECTION('center_axis',(1.,-1.48029736616688E-16,0.));
#974=DIRECTION('ref_axis',(0.,0.707106781186548,0.707106781186547));
#975=DIRECTION('center_axis',(1.,-1.2335811384724E-16,0.));
#976=DIRECTION('ref_axis',(0.,0.707106781186548,0.707106781186547));
#977=DIRECTION('',(1.,-1.48029736616688E-16,0.));
#978=DIRECTION('center_axis',(-1.,0.,0.));
#979=DIRECTION('ref_axis',(0.,-0.707106781186548,0.707106781186548));
#980=DIRECTION('',(-1.,0.,0.));
#981=DIRECTION('center_axis',(1.,-1.2335811384724E-16,0.));
#982=DIRECTION('ref_axis',(0.,-0.707106781186548,0.707106781186548));
#983=DIRECTION('',(1.,0.,0.));
#984=DIRECTION('center_axis',(0.,-1.,0.));
#985=DIRECTION('ref_axis',(0.,0.,-1.));
#986=DIRECTION('',(0.,0.,-1.));
#987=DIRECTION('',(0.,0.,1.));
#988=DIRECTION('',(-1.,0.,0.));
#989=DIRECTION('center_axis',(0.,0.,1.));
#990=DIRECTION('ref_axis',(1.,0.,0.));
#991=DIRECTION('',(1.2335811384724E-16,1.,0.));
#992=DIRECTION('center_axis',(-1.,1.2335811384724E-16,0.));
#993=DIRECTION('ref_axis',(0.,0.,1.));
#994=DIRECTION('center_axis',(-1.,1.2335811384724E-16,0.));
#995=DIRECTION('ref_axis',(0.,-0.707106781186547,-0.707106781186548));
#996=DIRECTION('center_axis',(1.,0.,0.));
#997=DIRECTION('ref_axis',(0.,-0.707106781186547,-0.707106781186548));
#998=DIRECTION('center_axis',(1.,0.,0.));
#999=DIRECTION('ref_axis',(0.,-0.707106781186547,-0.707106781186548));
#1000=DIRECTION('center_axis',(0.,1.,0.));
#1001=DIRECTION('ref_axis',(0.707106781186548,0.,-0.707106781186547));
#1002=DIRECTION('center_axis',(0.,1.,0.));
#1003=DIRECTION('ref_axis',(0.707106781186548,0.,-0.707106781186547));
#1004=DIRECTION('',(0.,-1.,0.));
#1005=DIRECTION('center_axis',(0.,-1.,0.));
#1006=DIRECTION('ref_axis',(0.707106781186548,0.,-0.707106781186547));
#1007=DIRECTION('center_axis',(0.,0.,1.));
#1008=DIRECTION('ref_axis',(0.707106781186548,-0.707106781186547,0.));
#1009=DIRECTION('center_axis',(0.,0.,1.));
#1010=DIRECTION('ref_axis',(0.,-1.,0.));
#1011=DIRECTION('',(0.,0.,1.));
#1012=DIRECTION('center_axis',(0.,0.,1.));
#1013=DIRECTION('ref_axis',(1.,0.,0.));
#1014=DIRECTION('center_axis',(0.,0.,1.));
#1015=DIRECTION('ref_axis',(0.707106781186548,0.707106781186547,1.38777878078145E-16));
#1016=DIRECTION('center_axis',(1.,0.,0.));
#1017=DIRECTION('ref_axis',(0.,0.,-1.));
#1018=DIRECTION('',(0.,0.,-1.));
#1019=DIRECTION('center_axis',(0.,0.,1.));
#1020=DIRECTION('ref_axis',(0.707106781186548,0.707106781186547,0.));
#1021=DIRECTION('center_axis',(0.,0.,1.));
#1022=DIRECTION('ref_axis',(1.,0.,0.));
#1023=CARTESIAN_POINT('',(0.,0.,0.));
#1024=CARTESIAN_POINT('Origin',(-1.6,-0.8,1.15));
#1025=CARTESIAN_POINT('',(-1.6,-0.9,1.15));
#1026=CARTESIAN_POINT('',(-1.7,-0.8,1.15));
#1027=CARTESIAN_POINT('Origin',(-1.6,-0.8,1.15));
#1028=CARTESIAN_POINT('',(-1.6,-0.8,1.25));
#1029=CARTESIAN_POINT('Origin',(-1.6,-0.8,1.15));
#1030=CARTESIAN_POINT('Origin',(-1.6,-0.8,1.15));
#1031=CARTESIAN_POINT('Origin',(-1.6,0.8,1.15));
#1032=CARTESIAN_POINT('',(-1.7,0.8,1.15));
#1033=CARTESIAN_POINT('',(-1.6,0.9,1.15));
#1034=CARTESIAN_POINT('Origin',(-1.6,0.8,1.15));
#1035=CARTESIAN_POINT('',(-1.6,0.8,1.25));
#1036=CARTESIAN_POINT('Origin',(-1.6,0.8,1.15));
#1037=CARTESIAN_POINT('Origin',(-1.6,0.8,1.15));
#1038=CARTESIAN_POINT('Origin',(-1.6,-0.45,1.15));
#1039=CARTESIAN_POINT('',(-1.7,-0.45,1.15));
#1040=CARTESIAN_POINT('',(-1.6,-0.45,1.25));
#1041=CARTESIAN_POINT('Origin',(-1.325,4.44089209850063E-16,0.));
#1042=CARTESIAN_POINT('',(-1.05,0.8,0.));
#1043=CARTESIAN_POINT('',(-1.6,0.8,0.));
#1044=CARTESIAN_POINT('',(-1.5125,0.8,0.));
#1045=CARTESIAN_POINT('',(-1.05,-0.8,0.));
#1046=CARTESIAN_POINT('',(-1.05,-0.9,0.));
#1047=CARTESIAN_POINT('',(-1.6,-0.8,0.));
#1048=CARTESIAN_POINT('',(-1.1375,-0.8,0.));
#1049=CARTESIAN_POINT('',(-1.6,-0.45,0.));
#1050=CARTESIAN_POINT('Origin',(-1.1375,-0.8,0.1));
#1051=CARTESIAN_POINT('',(-1.6,-0.9,0.1));
#1052=CARTESIAN_POINT('Origin',(-1.6,-0.8,0.1));
#1053=CARTESIAN_POINT('',(-1.05,-0.9,0.1));
#1054=CARTESIAN_POINT('Origin',(-1.05,-0.8,0.1));
#1055=CARTESIAN_POINT('',(-1.1375,-0.9,0.1));
#1056=CARTESIAN_POINT('Origin',(-0.95,-0.9,0.));
#1057=CARTESIAN_POINT('',(-1.6,-0.9,0.));
#1058=CARTESIAN_POINT('',(-1.05,-0.9,1.15));
#1059=CARTESIAN_POINT('',(-1.05,-0.9,0.));
#1060=CARTESIAN_POINT('',(-1.1375,-0.9,1.15));
#1061=CARTESIAN_POINT('Origin',(-1.1375,-0.8,1.15));
#1062=CARTESIAN_POINT('',(-1.05,-0.8,1.25));
#1063=CARTESIAN_POINT('Origin',(-1.05,-0.8,1.15));
#1064=CARTESIAN_POINT('',(-0.9875,-0.8,1.25));
#1065=CARTESIAN_POINT('Origin',(-1.5125,0.8,1.15));
#1066=CARTESIAN_POINT('',(-1.05,0.8,1.25));
#1067=CARTESIAN_POINT('',(-1.3625,0.8,1.25));
#1068=CARTESIAN_POINT('',(-1.05,0.9,1.15));
#1069=CARTESIAN_POINT('Origin',(-1.05,0.8,1.15));
#1070=CARTESIAN_POINT('',(-1.5125,0.9,1.15));
#1071=CARTESIAN_POINT('Origin',(-1.7,0.9,0.));
#1072=CARTESIAN_POINT('',(-1.6,0.9,0.1));
#1073=CARTESIAN_POINT('',(-1.6,0.9,0.));
#1074=CARTESIAN_POINT('',(-1.05,0.9,0.1));
#1075=CARTESIAN_POINT('',(-1.05,0.9,0.));
#1076=CARTESIAN_POINT('',(-1.5125,0.9,0.1));
#1077=CARTESIAN_POINT('Origin',(-1.175,5.46229728115577E-16,1.25));
#1078=CARTESIAN_POINT('',(-1.05,-0.9,1.25));
#1079=CARTESIAN_POINT('Origin',(-1.05,0.9,0.));
#1080=CARTESIAN_POINT('Origin',(-1.05,0.8,0.1));
#1081=CARTESIAN_POINT('Origin',(-1.5125,0.8,0.1));
#1082=CARTESIAN_POINT('Origin',(-1.6,0.8,0.1));
#1083=CARTESIAN_POINT('Origin',(-1.6,-0.8,0.));
#1084=CARTESIAN_POINT('',(-1.7,-0.8,0.1));
#1085=CARTESIAN_POINT('Origin',(-1.6,-0.8,0.1));
#1086=CARTESIAN_POINT('',(-1.7,-0.8,0.));
#1087=CARTESIAN_POINT('Origin',(-1.7,-0.9,0.));
#1088=CARTESIAN_POINT('',(-1.7,0.8,0.1));
#1089=CARTESIAN_POINT('',(-1.7,0.8,0.));
#1090=CARTESIAN_POINT('',(-1.7,-0.45,0.1));
#1091=CARTESIAN_POINT('Origin',(-1.6,0.8,0.));
#1092=CARTESIAN_POINT('Origin',(-1.6,0.8,0.1));
#1093=CARTESIAN_POINT('Origin',(-1.6,0.8,0.1));
#1094=CARTESIAN_POINT('Origin',(-1.6,0.8,0.1));
#1095=CARTESIAN_POINT('Origin',(-1.6,-0.8,0.1));
#1096=CARTESIAN_POINT('Origin',(-1.6,-0.8,0.1));
#1097=CARTESIAN_POINT('Origin',(-1.6,-0.45,0.1));
#1098=CARTESIAN_POINT('Origin',(-1.05,-0.9,0.));
#1099=CARTESIAN_POINT('',(-1.05,-0.9,0.15));
#1100=CARTESIAN_POINT('',(-1.05,-0.8,0.05));
#1101=CARTESIAN_POINT('Origin',(-1.05,-0.8,0.15));
#1102=CARTESIAN_POINT('',(-1.05,-0.9,1.1));
#1103=CARTESIAN_POINT('',(-1.05,-0.9,0.));
#1104=CARTESIAN_POINT('',(-1.05,-0.8,1.2));
#1105=CARTESIAN_POINT('Origin',(-1.05,-0.8,1.1));
#1106=CARTESIAN_POINT('',(-1.05,0.8,1.2));
#1107=CARTESIAN_POINT('',(-1.05,-0.45,1.2));
#1108=CARTESIAN_POINT('',(-1.05,0.9,1.1));
#1109=CARTESIAN_POINT('Origin',(-1.05,0.8,1.1));
#1110=CARTESIAN_POINT('',(-1.05,0.9,0.15));
#1111=CARTESIAN_POINT('',(-1.05,0.9,0.));
#1112=CARTESIAN_POINT('',(-1.05,0.8,0.05));
#1113=CARTESIAN_POINT('Origin',(-1.05,0.8,0.15));
#1114=CARTESIAN_POINT('',(-1.05,-0.9,0.05));
#1115=CARTESIAN_POINT('Origin',(0.95,-0.9,0.));
#1116=CARTESIAN_POINT('',(1.05,-0.9,0.15));
#1117=CARTESIAN_POINT('',(0.475,-0.9,0.15));
#1118=CARTESIAN_POINT('',(1.05,-0.9,1.1));
#1119=CARTESIAN_POINT('',(1.05,-0.9,0.));
#1120=CARTESIAN_POINT('',(0.475,-0.9,1.1));
#1121=CARTESIAN_POINT('Origin',(0.475,-0.8,1.1));
#1122=CARTESIAN_POINT('',(1.05,-0.8,1.2));
#1123=CARTESIAN_POINT('Origin',(1.05,-0.8,1.1));
#1124=CARTESIAN_POINT('',(0.475,-0.8,1.2));
#1125=CARTESIAN_POINT('Origin',(-0.475,0.8,1.1));
#1126=CARTESIAN_POINT('',(1.05,0.8,1.2));
#1127=CARTESIAN_POINT('',(1.05,0.9,1.1));
#1128=CARTESIAN_POINT('Origin',(1.05,0.8,1.1));
#1129=CARTESIAN_POINT('',(-0.475,0.9,1.1));
#1130=CARTESIAN_POINT('',(-0.475,0.8,1.2));
#1131=CARTESIAN_POINT('Origin',(-0.95,0.9,0.));
#1132=CARTESIAN_POINT('',(1.05,0.9,0.15));
#1133=CARTESIAN_POINT('',(-0.475,0.9,0.15));
#1134=CARTESIAN_POINT('',(1.05,0.9,0.));
#1135=CARTESIAN_POINT('Origin',(-0.475,0.8,0.15));
#1136=CARTESIAN_POINT('',(1.05,0.8,0.05));
#1137=CARTESIAN_POINT('Origin',(1.05,0.8,0.15));
#1138=CARTESIAN_POINT('',(-0.475,0.8,0.05));
#1139=CARTESIAN_POINT('Origin',(1.11022302462516E-16,2.22044604925031E-16,
0.05));
#1140=CARTESIAN_POINT('',(1.05,-0.8,0.05));
#1141=CARTESIAN_POINT('',(0.475,-0.8,0.05));
#1142=CARTESIAN_POINT('',(1.05,0.9,0.05));
#1143=CARTESIAN_POINT('Origin',(0.475,-0.8,0.15));
#1144=CARTESIAN_POINT('Origin',(1.05,-0.8,0.15));
#1145=CARTESIAN_POINT('Origin',(2.22044604925031E-16,3.24185123190546E-16,
1.2));
#1146=CARTESIAN_POINT('',(1.05,0.45,1.2));
#1147=CARTESIAN_POINT('Origin',(1.05,0.9,0.));
#1148=CARTESIAN_POINT('Origin',(1.6,0.8,1.15));
#1149=CARTESIAN_POINT('',(1.6,0.9,1.15));
#1150=CARTESIAN_POINT('',(1.7,0.8,1.15));
#1151=CARTESIAN_POINT('Origin',(1.6,0.8,1.15));
#1152=CARTESIAN_POINT('',(1.6,0.8,1.25));
#1153=CARTESIAN_POINT('Origin',(1.6,0.8,1.15));
#1154=CARTESIAN_POINT('Origin',(1.6,0.8,1.15));
#1155=CARTESIAN_POINT('Origin',(1.6,-0.8,1.15));
#1156=CARTESIAN_POINT('',(1.7,-0.8,1.15));
#1157=CARTESIAN_POINT('',(1.6,-0.9,1.15));
#1158=CARTESIAN_POINT('Origin',(1.6,-0.8,1.15));
#1159=CARTESIAN_POINT('',(1.6,-0.8,1.25));
#1160=CARTESIAN_POINT('Origin',(1.6,-0.8,1.15));
#1161=CARTESIAN_POINT('Origin',(1.6,-0.8,1.15));
#1162=CARTESIAN_POINT('Origin',(1.6,0.45,1.15));
#1163=CARTESIAN_POINT('',(1.6,0.45,1.25));
#1164=CARTESIAN_POINT('',(1.7,0.45,1.15));
#1165=CARTESIAN_POINT('Origin',(1.325,2.22044604925031E-16,0.));
#1166=CARTESIAN_POINT('',(1.05,-0.8,0.));
#1167=CARTESIAN_POINT('',(1.6,-0.8,0.));
#1168=CARTESIAN_POINT('',(1.5125,-0.8,0.));
#1169=CARTESIAN_POINT('',(1.05,0.8,0.));
#1170=CARTESIAN_POINT('',(1.05,-0.45,0.));
#1171=CARTESIAN_POINT('',(1.6,0.8,0.));
#1172=CARTESIAN_POINT('',(1.1375,0.8,0.));
#1173=CARTESIAN_POINT('',(1.6,0.45,0.));
#1174=CARTESIAN_POINT('Origin',(1.1375,0.8,0.1));
#1175=CARTESIAN_POINT('',(1.6,0.9,0.1));
#1176=CARTESIAN_POINT('Origin',(1.6,0.8,0.1));
#1177=CARTESIAN_POINT('',(1.05,0.9,0.1));
#1178=CARTESIAN_POINT('Origin',(1.05,0.8,0.1));
#1179=CARTESIAN_POINT('',(1.1375,0.9,0.1));
#1180=CARTESIAN_POINT('Origin',(0.95,0.9,-0.1));
#1181=CARTESIAN_POINT('',(1.6,0.9,-0.1));
#1182=CARTESIAN_POINT('',(1.05,0.9,1.15));
#1183=CARTESIAN_POINT('',(1.05,0.9,-0.1));
#1184=CARTESIAN_POINT('',(1.1375,0.9,1.15));
#1185=CARTESIAN_POINT('Origin',(1.1375,0.8,1.15));
#1186=CARTESIAN_POINT('',(1.05,0.8,1.25));
#1187=CARTESIAN_POINT('Origin',(1.05,0.8,1.15));
#1188=CARTESIAN_POINT('',(0.9875,0.8,1.25));
#1189=CARTESIAN_POINT('Origin',(1.5125,-0.8,1.15));
#1190=CARTESIAN_POINT('',(1.05,-0.8,1.25));
#1191=CARTESIAN_POINT('',(1.3625,-0.8,1.25));
#1192=CARTESIAN_POINT('',(1.05,-0.9,1.15));
#1193=CARTESIAN_POINT('Origin',(1.05,-0.8,1.15));
#1194=CARTESIAN_POINT('',(1.5125,-0.9,1.15));
#1195=CARTESIAN_POINT('Origin',(1.7,-0.9,0.));
#1196=CARTESIAN_POINT('',(1.6,-0.9,0.1));
#1197=CARTESIAN_POINT('',(1.6,-0.9,0.));
#1198=CARTESIAN_POINT('',(1.05,-0.9,0.1));
#1199=CARTESIAN_POINT('',(1.05,-0.9,-0.1));
#1200=CARTESIAN_POINT('',(1.5125,-0.9,0.1));
#1201=CARTESIAN_POINT('Origin',(1.175,3.24185123190546E-16,1.25));
#1202=CARTESIAN_POINT('',(1.05,0.9,1.25));
#1203=CARTESIAN_POINT('Origin',(1.05,-0.9,-0.1));
#1204=CARTESIAN_POINT('Origin',(1.05,-0.8,0.1));
#1205=CARTESIAN_POINT('Origin',(1.5125,-0.8,0.1));
#1206=CARTESIAN_POINT('Origin',(1.6,-0.8,0.1));
#1207=CARTESIAN_POINT('Origin',(1.6,0.45,0.1));
#1208=CARTESIAN_POINT('',(1.7,0.8,0.1));
#1209=CARTESIAN_POINT('Origin',(1.6,0.8,0.1));
#1210=CARTESIAN_POINT('',(1.7,-0.8,0.1));
#1211=CARTESIAN_POINT('',(1.7,0.45,0.1));
#1212=CARTESIAN_POINT('Origin',(1.6,-0.8,0.1));
#1213=CARTESIAN_POINT('Origin',(1.6,-0.8,0.));
#1214=CARTESIAN_POINT('Origin',(1.6,-0.8,0.1));
#1215=CARTESIAN_POINT('',(1.7,-0.8,0.));
#1216=CARTESIAN_POINT('Origin',(1.6,0.8,0.1));
#1217=CARTESIAN_POINT('Origin',(1.6,0.8,0.1));
#1218=CARTESIAN_POINT('Origin',(1.7,0.9,0.));
#1219=CARTESIAN_POINT('',(1.7,0.8,-0.1));
#1220=CARTESIAN_POINT('Origin',(1.6,0.8,-0.1));
#1221=CARTESIAN_POINT('Origin',(1.6,-0.8,0.1));
#1222=UNCERTAINTY_MEASURE_WITH_UNIT(LENGTH_MEASURE(0.01),#1226,
'DISTANCE_ACCURACY_VALUE',
'Maximum model space distance between geometric entities at asserted c
onnectivities');
#1223=UNCERTAINTY_MEASURE_WITH_UNIT(LENGTH_MEASURE(1.E-6),#1226,
'DISTANCE_ACCURACY_VALUE',
'Maximum model space distance between geometric entities at asserted c
onnectivities');
#1224=(
GEOMETRIC_REPRESENTATION_CONTEXT(3)
GLOBAL_UNCERTAINTY_ASSIGNED_CONTEXT((#1222))
GLOBAL_UNIT_ASSIGNED_CONTEXT((#1226,#1228,#1227))
REPRESENTATION_CONTEXT('','3D')
);
#1225=(
GEOMETRIC_REPRESENTATION_CONTEXT(3)
GLOBAL_UNCERTAINTY_ASSIGNED_CONTEXT((#1223))
GLOBAL_UNIT_ASSIGNED_CONTEXT((#1226,#12,#1227))
REPRESENTATION_CONTEXT('','3D')
);
#1226=(
LENGTH_UNIT()
NAMED_UNIT(*)
SI_UNIT(.MILLI.,.METRE.)
);
#1227=(
NAMED_UNIT(*)
SI_UNIT($,.STERADIAN.)
SOLID_ANGLE_UNIT()
);
#1228=(
NAMED_UNIT(*)
PLANE_ANGLE_UNIT()
SI_UNIT($,.RADIAN.)
);
#1229=SHAPE_DEFINITION_REPRESENTATION(#1230,#1231);
#1230=PRODUCT_DEFINITION_SHAPE('',$,#1233);
#1231=SHAPE_REPRESENTATION('',(#706),#1224);
#1232=PRODUCT_DEFINITION_CONTEXT('part definition',#1237,'design');
#1233=PRODUCT_DEFINITION('Product','Product',#1234,#1232);
#1234=PRODUCT_DEFINITION_FORMATION('',$,#1239);
#1235=PRODUCT_RELATED_PRODUCT_CATEGORY('Product','Product',(#1239));
#1236=APPLICATION_PROTOCOL_DEFINITION('international standard',
'automotive_design',2009,#1237);
#1237=APPLICATION_CONTEXT(
'Core Data for Automotive Mechanical Design Process');
#1238=PRODUCT_CONTEXT('part definition',#1237,'mechanical');
#1239=PRODUCT('Product','Product',$,(#1238));
#1240=PRESENTATION_STYLE_ASSIGNMENT((#1243));
#1241=PRESENTATION_STYLE_ASSIGNMENT((#1244));
#1242=PRESENTATION_STYLE_ASSIGNMENT((#1245));
#1243=SURFACE_STYLE_USAGE(.BOTH.,#1246);
#1244=SURFACE_STYLE_USAGE(.BOTH.,#1247);
#1245=SURFACE_STYLE_USAGE(.BOTH.,#1248);
#1246=SURFACE_SIDE_STYLE('',(#1249));
#1247=SURFACE_SIDE_STYLE('',(#1250));
#1248=SURFACE_SIDE_STYLE('',(#1251));
#1249=SURFACE_STYLE_FILL_AREA(#1252);
#1250=SURFACE_STYLE_FILL_AREA(#1253);
#1251=SURFACE_STYLE_FILL_AREA(#1254);
#1252=FILL_AREA_STYLE('',(#1255));
#1253=FILL_AREA_STYLE('',(#1256));
#1254=FILL_AREA_STYLE('',(#1257));
#1255=FILL_AREA_STYLE_COLOUR('',#1258);
#1256=FILL_AREA_STYLE_COLOUR('',#1259);
#1257=FILL_AREA_STYLE_COLOUR('',#1260);
#1258=COLOUR_RGB('',1.,1.,1.);
#1259=COLOUR_RGB('',0.866666666666667,0.866666666666667,0.866666666666667);
#1260=COLOUR_RGB('',0.501960784313725,0.376470588235294,0.250980392156863);
ENDSEC;
END-ISO-10303-21;
