ISO-10303-21;
HEADER;
/****************************************************************
 * Generated by software with PDElib inside                    *
 * PDElib Version v51a, created Wed 11/30/2011                  *
 * ITI Transcendata (http://www.transcendata.com/)              *
 ****************************************************************/
FILE_DESCRIPTION((''),'2;1');
FILE_NAME('CAPC4620X203N.stp','2014-11-25T09:02:53',(''),(''),'Mechanical Desktop 2011','Mechanical Desktop 2011',', , ');
FILE_SCHEMA(('AUTOMOTIVE_DESIGN { 1 2 10303 214 1 1 1 1 }'));
ENDSEC;
DATA;
#10=(NAMED_UNIT(*)PLANE_ANGLE_UNIT()SI_UNIT($,.RADIAN.));
#11=DIMENSIONAL_EXPONENTS(0.0,0.0,0.0,0.0,0.0,0.0,0.0);
#12=PLANE_ANGLE_MEASURE_WITH_UNIT(PLANE_ANGLE_MEASURE(0.0174532925),#10);
#16=(CONVERSION_BASED_UNIT('DEGREE',#12)NAMED_UNIT(#11)PLANE_ANGLE_UNIT());
#20=(NAMED_UNIT(*)SI_UNIT($,.STERADIAN.)SOLID_ANGLE_UNIT());
#24=(LENGTH_UNIT()NAMED_UNIT(*)SI_UNIT(.MILLI.,.METRE.));
#26=UNCERTAINTY_MEASURE_WITH_UNIT(LENGTH_MEASURE(0.000001),#24,'DISTANCE_ACCURACY_VALUE','');
#28=(GEOMETRIC_REPRESENTATION_CONTEXT(3)GLOBAL_UNCERTAINTY_ASSIGNED_CONTEXT((#26))GLOBAL_UNIT_ASSIGNED_CONTEXT((#16,#20,#24))REPRESENTATION_CONTEXT('','3D'));
#29=APPLICATION_CONTEXT('automotive design');
#30=APPLICATION_PROTOCOL_DEFINITION('INTERNATIONAL_STANDARD','automotive_design',1998,#29);
#31=PRODUCT_CONTEXT('3D Mechanical Parts',#29,'mechanical');
#32=PRODUCT('Product','Product','',(#31));
#33=PRODUCT_RELATED_PRODUCT_CATEGORY('part',$,(#32));
#34=PRODUCT_CATEGORY('part',$);
#35=PERSON('1','Design','Joe',$,$,$);
#36=ORGANIZATION($,'None','None');
#37=PERSON_AND_ORGANIZATION(#35,#36);
#38=PERSON_AND_ORGANIZATION_ROLE('design_owner');
#39=APPLIED_PERSON_AND_ORGANIZATION_ASSIGNMENT(#37,#38,(#32));
#40=PRODUCT_DEFINITION_FORMATION_WITH_SPECIFIED_SOURCE('None','',#32,.BOUGHT.);
#41=PERSON('2','Creator','Joe',$,$,$);
#42=ORGANIZATION($,'None','None');
#43=PERSON_AND_ORGANIZATION(#41,#42);
#44=PERSON_AND_ORGANIZATION_ROLE('creator');
#45=APPLIED_PERSON_AND_ORGANIZATION_ASSIGNMENT(#43,#44,(#40));
#46=PERSON('3','Supplier','Joe',$,$,$);
#47=ORGANIZATION($,'None','None');
#48=PERSON_AND_ORGANIZATION(#46,#47);
#49=PERSON_AND_ORGANIZATION_ROLE('design_supplier');
#50=APPLIED_PERSON_AND_ORGANIZATION_ASSIGNMENT(#48,#49,(#40));
#51=PRODUCT_DEFINITION_CONTEXT('part definition',#29,'design');
#52=PRODUCT_DEFINITION('None','',#40,#51);
#53=PERSON('4','Creator','Joe',$,$,$);
#54=ORGANIZATION($,'None','None');
#55=PERSON_AND_ORGANIZATION(#53,#54);
#56=PERSON_AND_ORGANIZATION_ROLE('creator');
#57=APPLIED_PERSON_AND_ORGANIZATION_ASSIGNMENT(#55,#56,(#52));
#58=CARTESIAN_POINT('NONE',(0.0,0.0,0.0));
#59=DIRECTION('NONE',(0.0,0.0,1.0));
#60=DIRECTION('NONE',(1.0,0.0,0.0));
#61=AXIS2_PLACEMENT_3D('NONE',#58,#59,#60);
#62=SHAPE_REPRESENTATION('SR1',(#61),#28);
#63=PRODUCT_DEFINITION_SHAPE('PDS1','Test Part',#52);
#64=SHAPE_DEFINITION_REPRESENTATION(#63,#62);
#65=CARTESIAN_POINT('',(2.185,0.915,0.1));
#66=DIRECTION('',(0.0,0.0,1.0));
#67=DIRECTION('',(1.0,0.0,0.0));
#68=AXIS2_PLACEMENT_3D('',#65,#66,#67);
#69=SPHERICAL_SURFACE('',#68,0.1);
#70=CARTESIAN_POINT('',(2.185,0.915,0.0));
#71=VERTEX_POINT('',#70);
#72=CARTESIAN_POINT('',(2.185,1.015,0.1));
#73=VERTEX_POINT('',#72);
#74=CARTESIAN_POINT('',(2.185,0.915,0.1));
#75=DIRECTION('',(1.0,0.0,0.0));
#76=DIRECTION('',(0.0,0.707106781186547,-0.707106781186548));
#77=AXIS2_PLACEMENT_3D('',#74,#75,#76);
#78=CIRCLE('',#77,0.1);
#79=EDGE_CURVE('',#71,#73,#78,.T.);
#80=ORIENTED_EDGE('',*,*,#79,.T.);
#81=CARTESIAN_POINT('',(2.285,0.915,0.1));
#82=VERTEX_POINT('',#81);
#83=CARTESIAN_POINT('',(2.185,0.915,0.1));
#84=DIRECTION('',(0.0,0.0,-1.0));
#85=DIRECTION('',(1.0,0.0,0.0));
#86=AXIS2_PLACEMENT_3D('',#83,#84,#85);
#87=CIRCLE('',#86,0.1);
#88=EDGE_CURVE('',#82,#73,#87,.F.);
#89=ORIENTED_EDGE('',*,*,#88,.F.);
#90=CARTESIAN_POINT('',(2.185,0.915,0.1));
#91=DIRECTION('',(0.0,1.0,0.0));
#92=DIRECTION('',(0.0,0.0,-1.0));
#93=AXIS2_PLACEMENT_3D('',#90,#91,#92);
#94=CIRCLE('',#93,0.1);
#95=EDGE_CURVE('',#71,#82,#94,.F.);
#96=ORIENTED_EDGE('',*,*,#95,.F.);
#97=EDGE_LOOP('',(#80,#89,#96));
#98=FACE_OUTER_BOUND('',#97,.T.);
#99=ADVANCED_FACE('',(#98),#69,.T.);
#100=CARTESIAN_POINT('',(2.185,0.915,1.93));
#101=DIRECTION('',(0.0,0.0,1.0));
#102=DIRECTION('',(1.0,0.0,0.0));
#103=AXIS2_PLACEMENT_3D('',#100,#101,#102);
#104=SPHERICAL_SURFACE('',#103,0.1);
#105=CARTESIAN_POINT('',(2.185,1.015,1.93));
#106=VERTEX_POINT('',#105);
#107=CARTESIAN_POINT('',(2.185,0.915,2.03));
#108=VERTEX_POINT('',#107);
#109=CARTESIAN_POINT('',(2.185,0.915,1.93));
#110=DIRECTION('',(1.0,4.440892E-015,4.440892E-015));
#111=DIRECTION('',(-6.280370E-015,0.707106781186547,0.707106781186548));
#112=AXIS2_PLACEMENT_3D('',#109,#110,#111);
#113=CIRCLE('',#112,0.1);
#114=EDGE_CURVE('',#106,#108,#113,.T.);
#115=ORIENTED_EDGE('',*,*,#114,.T.);
#116=CARTESIAN_POINT('',(2.285,0.915,1.93));
#117=VERTEX_POINT('',#116);
#118=CARTESIAN_POINT('',(2.185,0.915,1.93));
#119=DIRECTION('',(0.0,1.0,0.0));
#120=DIRECTION('',(1.0,0.0,0.0));
#121=AXIS2_PLACEMENT_3D('',#118,#119,#120);
#122=CIRCLE('',#121,0.100000000000001);
#123=EDGE_CURVE('',#117,#108,#122,.F.);
#124=ORIENTED_EDGE('',*,*,#123,.F.);
#125=CARTESIAN_POINT('',(2.185,0.915,1.93));
#126=DIRECTION('',(0.0,0.0,1.0));
#127=DIRECTION('',(0.70710678118655,0.707106781186545,0.0));
#128=AXIS2_PLACEMENT_3D('',#125,#126,#127);
#129=CIRCLE('',#128,0.1);
#130=EDGE_CURVE('',#117,#106,#129,.T.);
#131=ORIENTED_EDGE('',*,*,#130,.T.);
#132=EDGE_LOOP('',(#115,#124,#131));
#133=FACE_OUTER_BOUND('',#132,.T.);
#134=ADVANCED_FACE('',(#133),#104,.T.);
#135=CARTESIAN_POINT('',(2.185,-0.915,0.1));
#136=DIRECTION('',(0.0,0.0,1.0));
#137=DIRECTION('',(1.0,0.0,0.0));
#138=AXIS2_PLACEMENT_3D('',#135,#136,#137);
#139=SPHERICAL_SURFACE('',#138,0.1);
#140=CARTESIAN_POINT('',(2.185,-0.915,0.0));
#141=VERTEX_POINT('',#140);
#142=CARTESIAN_POINT('',(2.285,-0.915,0.1));
#143=VERTEX_POINT('',#142);
#144=CARTESIAN_POINT('',(2.185,-0.915,0.1));
#145=DIRECTION('',(0.0,-1.0,0.0));
#146=DIRECTION('',(0.707106781186549,0.0,-0.707106781186546));
#147=AXIS2_PLACEMENT_3D('',#144,#145,#146);
#148=CIRCLE('',#147,0.1);
#149=EDGE_CURVE('',#141,#143,#148,.T.);
#150=ORIENTED_EDGE('',*,*,#149,.T.);
#151=CARTESIAN_POINT('',(2.185,-1.015,0.1));
#152=VERTEX_POINT('',#151);
#153=CARTESIAN_POINT('',(2.185,-0.915,0.1));
#154=DIRECTION('',(0.0,0.0,-1.0));
#155=DIRECTION('',(0.0,-1.0,0.0));
#156=AXIS2_PLACEMENT_3D('',#153,#154,#155);
#157=CIRCLE('',#156,0.1);
#158=EDGE_CURVE('',#152,#143,#157,.F.);
#159=ORIENTED_EDGE('',*,*,#158,.F.);
#160=CARTESIAN_POINT('',(2.185,-0.915,0.1));
#161=DIRECTION('',(1.0,0.0,0.0));
#162=DIRECTION('',(0.0,-0.707106781186547,-0.707106781186548));
#163=AXIS2_PLACEMENT_3D('',#160,#161,#162);
#164=CIRCLE('',#163,0.1);
#165=EDGE_CURVE('',#152,#141,#164,.T.);
#166=ORIENTED_EDGE('',*,*,#165,.T.);
#167=EDGE_LOOP('',(#150,#159,#166));
#168=FACE_OUTER_BOUND('',#167,.T.);
#169=ADVANCED_FACE('',(#168),#139,.T.);
#170=CARTESIAN_POINT('',(2.185,-0.915,1.93));
#171=DIRECTION('',(0.0,0.0,1.0));
#172=DIRECTION('',(1.0,0.0,0.0));
#173=AXIS2_PLACEMENT_3D('',#170,#171,#172);
#174=SPHERICAL_SURFACE('',#173,0.1);
#175=CARTESIAN_POINT('',(2.285,-0.915,1.93));
#176=VERTEX_POINT('',#175);
#177=CARTESIAN_POINT('',(2.185,-0.915,2.03));
#178=VERTEX_POINT('',#177);
#179=CARTESIAN_POINT('',(2.185,-0.915,1.93));
#180=DIRECTION('',(1.110223E-015,-1.0,1.110223E-015));
#181=DIRECTION('',(0.707106781186549,1.570092E-015,0.707106781186546));
#182=AXIS2_PLACEMENT_3D('',#179,#180,#181);
#183=CIRCLE('',#182,0.1);
#184=EDGE_CURVE('',#176,#178,#183,.T.);
#185=ORIENTED_EDGE('',*,*,#184,.T.);
#186=CARTESIAN_POINT('',(2.185,-1.015,1.93));
#187=VERTEX_POINT('',#186);
#188=CARTESIAN_POINT('',(2.185,-0.915,1.93));
#189=DIRECTION('',(1.0,0.0,0.0));
#190=DIRECTION('',(0.0,-1.0,0.0));
#191=AXIS2_PLACEMENT_3D('',#188,#189,#190);
#192=CIRCLE('',#191,0.1);
#193=EDGE_CURVE('',#187,#178,#192,.F.);
#194=ORIENTED_EDGE('',*,*,#193,.F.);
#195=CARTESIAN_POINT('',(2.185,-0.915,1.93));
#196=DIRECTION('',(0.0,0.0,1.0));
#197=DIRECTION('',(0.707106781186549,-0.707106781186546,0.0));
#198=AXIS2_PLACEMENT_3D('',#195,#196,#197);
#199=CIRCLE('',#198,0.1);
#200=EDGE_CURVE('',#187,#176,#199,.T.);
#201=ORIENTED_EDGE('',*,*,#200,.T.);
#202=EDGE_LOOP('',(#185,#194,#201));
#203=FACE_OUTER_BOUND('',#202,.T.);
#204=ADVANCED_FACE('',(#203),#174,.T.);
#205=CARTESIAN_POINT('',(2.12625,-0.915,1.93));
#206=DIRECTION('',(-1.0,0.0,0.0));
#207=DIRECTION('',(0.0,-0.707106781186547,0.707106781186548));
#208=AXIS2_PLACEMENT_3D('',#205,#206,#207);
#209=CYLINDRICAL_SURFACE('',#208,0.1);
#210=CARTESIAN_POINT('',(1.65,-0.915,2.03));
#211=VERTEX_POINT('',#210);
#212=CARTESIAN_POINT('',(1.65,-1.015,1.93));
#213=VERTEX_POINT('',#212);
#214=CARTESIAN_POINT('',(1.65,-0.915,1.93));
#215=DIRECTION('',(1.0,0.0,0.0));
#216=DIRECTION('',(0.0,-0.707106781186547,0.707106781186548));
#217=AXIS2_PLACEMENT_3D('',#214,#215,#216);
#218=CIRCLE('',#217,0.1);
#219=EDGE_CURVE('',#211,#213,#218,.T.);
#220=ORIENTED_EDGE('',*,*,#219,.T.);
#221=CARTESIAN_POINT('',(1.65,-1.015,1.93));
#222=DIRECTION('',(1.0,0.0,0.0));
#223=VECTOR('',#222,0.535);
#224=LINE('',#221,#223);
#225=EDGE_CURVE('',#213,#187,#224,.T.);
#226=ORIENTED_EDGE('',*,*,#225,.T.);
#227=ORIENTED_EDGE('',*,*,#193,.T.);
#228=CARTESIAN_POINT('',(2.185,-0.915,2.03));
#229=DIRECTION('',(-1.0,0.0,0.0));
#230=VECTOR('',#229,0.535);
#231=LINE('',#228,#230);
#232=EDGE_CURVE('',#178,#211,#231,.T.);
#233=ORIENTED_EDGE('',*,*,#232,.T.);
#234=EDGE_LOOP('',(#220,#226,#227,#233));
#235=FACE_OUTER_BOUND('',#234,.T.);
#236=ADVANCED_FACE('',(#235),#209,.T.);
#237=CARTESIAN_POINT('',(2.185,-0.915,0.0));
#238=DIRECTION('',(0.0,0.0,1.0));
#239=DIRECTION('',(0.707106781186549,-0.707106781186546,0.0));
#240=AXIS2_PLACEMENT_3D('',#237,#238,#239);
#241=CYLINDRICAL_SURFACE('',#240,0.1);
#242=ORIENTED_EDGE('',*,*,#200,.F.);
#243=CARTESIAN_POINT('',(2.185,-1.015,1.93));
#244=DIRECTION('',(0.0,0.0,-1.0));
#245=VECTOR('',#244,1.83);
#246=LINE('',#243,#245);
#247=EDGE_CURVE('',#187,#152,#246,.T.);
#248=ORIENTED_EDGE('',*,*,#247,.T.);
#249=ORIENTED_EDGE('',*,*,#158,.T.);
#250=CARTESIAN_POINT('',(2.285,-0.915,0.1));
#251=DIRECTION('',(0.0,0.0,1.0));
#252=VECTOR('',#251,1.83);
#253=LINE('',#250,#252);
#254=EDGE_CURVE('',#143,#176,#253,.T.);
#255=ORIENTED_EDGE('',*,*,#254,.T.);
#256=EDGE_LOOP('',(#242,#248,#249,#255));
#257=FACE_OUTER_BOUND('',#256,.T.);
#258=ADVANCED_FACE('',(#257),#241,.T.);
#259=CARTESIAN_POINT('',(2.185,0.5075,1.93));
#260=DIRECTION('',(0.0,-1.0,0.0));
#261=DIRECTION('',(0.707106781186549,0.0,0.707106781186546));
#262=AXIS2_PLACEMENT_3D('',#259,#260,#261);
#263=CYLINDRICAL_SURFACE('',#262,0.1);
#264=ORIENTED_EDGE('',*,*,#184,.F.);
#265=CARTESIAN_POINT('',(2.285,-0.915,1.93));
#266=DIRECTION('',(0.0,1.0,0.0));
#267=VECTOR('',#266,1.83);
#268=LINE('',#265,#267);
#269=EDGE_CURVE('',#176,#117,#268,.T.);
#270=ORIENTED_EDGE('',*,*,#269,.T.);
#271=ORIENTED_EDGE('',*,*,#123,.T.);
#272=CARTESIAN_POINT('',(2.185,0.915,2.03));
#273=DIRECTION('',(0.0,-1.0,0.0));
#274=VECTOR('',#273,1.83);
#275=LINE('',#272,#274);
#276=EDGE_CURVE('',#108,#178,#275,.T.);
#277=ORIENTED_EDGE('',*,*,#276,.T.);
#278=EDGE_LOOP('',(#264,#270,#271,#277));
#279=FACE_OUTER_BOUND('',#278,.T.);
#280=ADVANCED_FACE('',(#279),#263,.T.);
#281=CARTESIAN_POINT('',(2.185,0.5075,0.1));
#282=DIRECTION('',(0.0,-1.0,0.0));
#283=DIRECTION('',(0.707106781186549,0.0,-0.707106781186546));
#284=AXIS2_PLACEMENT_3D('',#281,#282,#283);
#285=CYLINDRICAL_SURFACE('',#284,0.1);
#286=ORIENTED_EDGE('',*,*,#149,.F.);
#287=CARTESIAN_POINT('',(2.185,-0.915,0.0));
#288=DIRECTION('',(0.0,1.0,0.0));
#289=VECTOR('',#288,1.83);
#290=LINE('',#287,#289);
#291=EDGE_CURVE('',#141,#71,#290,.T.);
#292=ORIENTED_EDGE('',*,*,#291,.T.);
#293=ORIENTED_EDGE('',*,*,#95,.T.);
#294=CARTESIAN_POINT('',(2.285,0.915,0.1));
#295=DIRECTION('',(0.0,-1.0,0.0));
#296=VECTOR('',#295,1.83);
#297=LINE('',#294,#296);
#298=EDGE_CURVE('',#82,#143,#297,.T.);
#299=ORIENTED_EDGE('',*,*,#298,.T.);
#300=EDGE_LOOP('',(#286,#292,#293,#299));
#301=FACE_OUTER_BOUND('',#300,.T.);
#302=ADVANCED_FACE('',(#301),#285,.T.);
#303=CARTESIAN_POINT('',(2.12625,-0.915,0.1));
#304=DIRECTION('',(-1.0,0.0,0.0));
#305=DIRECTION('',(0.0,-0.707106781186547,-0.707106781186548));
#306=AXIS2_PLACEMENT_3D('',#303,#304,#305);
#307=CYLINDRICAL_SURFACE('',#306,0.1);
#308=CARTESIAN_POINT('',(1.65,-1.015,0.1));
#309=VERTEX_POINT('',#308);
#310=CARTESIAN_POINT('',(1.65,-0.915,0.0));
#311=VERTEX_POINT('',#310);
#312=CARTESIAN_POINT('',(1.65,-0.915,0.1));
#313=DIRECTION('',(1.0,0.0,0.0));
#314=DIRECTION('',(0.0,-0.707106781186547,-0.707106781186548));
#315=AXIS2_PLACEMENT_3D('',#312,#313,#314);
#316=CIRCLE('',#315,0.1);
#317=EDGE_CURVE('',#309,#311,#316,.T.);
#318=ORIENTED_EDGE('',*,*,#317,.T.);
#319=CARTESIAN_POINT('',(1.65,-0.915,0.0));
#320=DIRECTION('',(1.0,0.0,0.0));
#321=VECTOR('',#320,0.535);
#322=LINE('',#319,#321);
#323=EDGE_CURVE('',#311,#141,#322,.T.);
#324=ORIENTED_EDGE('',*,*,#323,.T.);
#325=ORIENTED_EDGE('',*,*,#165,.F.);
#326=CARTESIAN_POINT('',(2.185,-1.015,0.1));
#327=DIRECTION('',(-1.0,0.0,0.0));
#328=VECTOR('',#327,0.535);
#329=LINE('',#326,#328);
#330=EDGE_CURVE('',#152,#309,#329,.T.);
#331=ORIENTED_EDGE('',*,*,#330,.T.);
#332=EDGE_LOOP('',(#318,#324,#325,#331));
#333=FACE_OUTER_BOUND('',#332,.T.);
#334=ADVANCED_FACE('',(#333),#307,.T.);
#335=CARTESIAN_POINT('',(2.185,0.915,0.0));
#336=DIRECTION('',(0.0,0.0,1.0));
#337=DIRECTION('',(0.70710678118655,0.707106781186545,0.0));
#338=AXIS2_PLACEMENT_3D('',#335,#336,#337);
#339=CYLINDRICAL_SURFACE('',#338,0.1);
#340=ORIENTED_EDGE('',*,*,#130,.F.);
#341=CARTESIAN_POINT('',(2.285,0.915,1.93));
#342=DIRECTION('',(0.0,0.0,-1.0));
#343=VECTOR('',#342,1.83);
#344=LINE('',#341,#343);
#345=EDGE_CURVE('',#117,#82,#344,.T.);
#346=ORIENTED_EDGE('',*,*,#345,.T.);
#347=ORIENTED_EDGE('',*,*,#88,.T.);
#348=CARTESIAN_POINT('',(2.185,1.015,0.1));
#349=DIRECTION('',(0.0,0.0,1.0));
#350=VECTOR('',#349,1.83);
#351=LINE('',#348,#350);
#352=EDGE_CURVE('',#73,#106,#351,.T.);
#353=ORIENTED_EDGE('',*,*,#352,.T.);
#354=EDGE_LOOP('',(#340,#346,#347,#353));
#355=FACE_OUTER_BOUND('',#354,.T.);
#356=ADVANCED_FACE('',(#355),#339,.T.);
#357=CARTESIAN_POINT('',(1.80875,0.915,1.93));
#358=DIRECTION('',(1.0,0.0,0.0));
#359=DIRECTION('',(0.0,0.707106781186547,0.707106781186548));
#360=AXIS2_PLACEMENT_3D('',#357,#358,#359);
#361=CYLINDRICAL_SURFACE('',#360,0.1);
#362=CARTESIAN_POINT('',(1.65,1.015,1.93));
#363=VERTEX_POINT('',#362);
#364=CARTESIAN_POINT('',(1.65,0.915,2.03));
#365=VERTEX_POINT('',#364);
#366=CARTESIAN_POINT('',(1.65,0.915,1.93));
#367=DIRECTION('',(1.0,0.0,0.0));
#368=DIRECTION('',(0.0,0.707106781186547,0.707106781186548));
#369=AXIS2_PLACEMENT_3D('',#366,#367,#368);
#370=CIRCLE('',#369,0.1);
#371=EDGE_CURVE('',#363,#365,#370,.T.);
#372=ORIENTED_EDGE('',*,*,#371,.T.);
#373=CARTESIAN_POINT('',(1.65,0.915,2.03));
#374=DIRECTION('',(1.0,0.0,0.0));
#375=VECTOR('',#374,0.535);
#376=LINE('',#373,#375);
#377=EDGE_CURVE('',#365,#108,#376,.T.);
#378=ORIENTED_EDGE('',*,*,#377,.T.);
#379=ORIENTED_EDGE('',*,*,#114,.F.);
#380=CARTESIAN_POINT('',(2.185,1.015,1.93));
#381=DIRECTION('',(-1.0,0.0,0.0));
#382=VECTOR('',#381,0.535);
#383=LINE('',#380,#382);
#384=EDGE_CURVE('',#106,#363,#383,.T.);
#385=ORIENTED_EDGE('',*,*,#384,.T.);
#386=EDGE_LOOP('',(#372,#378,#379,#385));
#387=FACE_OUTER_BOUND('',#386,.T.);
#388=ADVANCED_FACE('',(#387),#361,.T.);
#389=CARTESIAN_POINT('',(1.80875,0.915,0.1));
#390=DIRECTION('',(1.0,0.0,0.0));
#391=DIRECTION('',(0.0,0.707106781186547,-0.707106781186548));
#392=AXIS2_PLACEMENT_3D('',#389,#390,#391);
#393=CYLINDRICAL_SURFACE('',#392,0.1);
#394=CARTESIAN_POINT('',(1.65,0.915,0.0));
#395=VERTEX_POINT('',#394);
#396=CARTESIAN_POINT('',(1.65,1.015,0.1));
#397=VERTEX_POINT('',#396);
#398=CARTESIAN_POINT('',(1.65,0.915,0.1));
#399=DIRECTION('',(1.0,0.0,0.0));
#400=DIRECTION('',(0.0,0.707106781186547,-0.707106781186548));
#401=AXIS2_PLACEMENT_3D('',#398,#399,#400);
#402=CIRCLE('',#401,0.1);
#403=EDGE_CURVE('',#395,#397,#402,.T.);
#404=ORIENTED_EDGE('',*,*,#403,.T.);
#405=CARTESIAN_POINT('',(1.65,1.015,0.1));
#406=DIRECTION('',(1.0,0.0,0.0));
#407=VECTOR('',#406,0.535);
#408=LINE('',#405,#407);
#409=EDGE_CURVE('',#397,#73,#408,.T.);
#410=ORIENTED_EDGE('',*,*,#409,.T.);
#411=ORIENTED_EDGE('',*,*,#79,.F.);
#412=CARTESIAN_POINT('',(2.185,0.915,0.0));
#413=DIRECTION('',(-1.0,0.0,0.0));
#414=VECTOR('',#413,0.535);
#415=LINE('',#412,#414);
#416=EDGE_CURVE('',#71,#395,#415,.T.);
#417=ORIENTED_EDGE('',*,*,#416,.T.);
#418=EDGE_LOOP('',(#404,#410,#411,#417));
#419=FACE_OUTER_BOUND('',#418,.T.);
#420=ADVANCED_FACE('',(#419),#393,.T.);
#421=CARTESIAN_POINT('',(1.9675,0.0,2.03));
#422=DIRECTION('',(0.0,0.0,1.0));
#423=DIRECTION('',(1.0,0.0,0.0));
#424=AXIS2_PLACEMENT_3D('',#421,#422,#423);
#425=PLANE('',#424);
#426=ORIENTED_EDGE('',*,*,#232,.F.);
#427=ORIENTED_EDGE('',*,*,#276,.F.);
#428=ORIENTED_EDGE('',*,*,#377,.F.);
#429=CARTESIAN_POINT('',(1.65,-0.915,2.03));
#430=DIRECTION('',(0.0,1.0,0.0));
#431=VECTOR('',#430,1.83);
#432=LINE('',#429,#431);
#433=EDGE_CURVE('',#211,#365,#432,.T.);
#434=ORIENTED_EDGE('',*,*,#433,.F.);
#435=EDGE_LOOP('',(#426,#427,#428,#434));
#436=FACE_OUTER_BOUND('',#435,.T.);
#437=ADVANCED_FACE('',(#436),#425,.T.);
#438=CARTESIAN_POINT('',(1.65,1.015,0.0));
#439=DIRECTION('',(0.0,1.0,0.0));
#440=DIRECTION('',(0.0,0.0,1.0));
#441=AXIS2_PLACEMENT_3D('',#438,#439,#440);
#442=PLANE('',#441);
#443=ORIENTED_EDGE('',*,*,#384,.F.);
#444=ORIENTED_EDGE('',*,*,#352,.F.);
#445=ORIENTED_EDGE('',*,*,#409,.F.);
#446=CARTESIAN_POINT('',(1.65,1.015,0.1));
#447=DIRECTION('',(0.0,0.0,1.0));
#448=VECTOR('',#447,1.83);
#449=LINE('',#446,#448);
#450=EDGE_CURVE('',#397,#363,#449,.T.);
#451=ORIENTED_EDGE('',*,*,#450,.T.);
#452=EDGE_LOOP('',(#443,#444,#445,#451));
#453=FACE_OUTER_BOUND('',#452,.T.);
#454=ADVANCED_FACE('',(#453),#442,.T.);
#455=CARTESIAN_POINT('',(2.285,1.015,0.0));
#456=DIRECTION('',(1.0,0.0,0.0));
#457=DIRECTION('',(0.0,0.0,-1.0));
#458=AXIS2_PLACEMENT_3D('',#455,#456,#457);
#459=PLANE('',#458);
#460=ORIENTED_EDGE('',*,*,#254,.F.);
#461=ORIENTED_EDGE('',*,*,#298,.F.);
#462=ORIENTED_EDGE('',*,*,#345,.F.);
#463=ORIENTED_EDGE('',*,*,#269,.F.);
#464=EDGE_LOOP('',(#460,#461,#462,#463));
#465=FACE_OUTER_BOUND('',#464,.T.);
#466=ADVANCED_FACE('',(#465),#459,.T.);
#467=CARTESIAN_POINT('',(2.285,-1.015,0.0));
#468=DIRECTION('',(0.0,-1.0,0.0));
#469=DIRECTION('',(0.0,0.0,-1.0));
#470=AXIS2_PLACEMENT_3D('',#467,#468,#469);
#471=PLANE('',#470);
#472=ORIENTED_EDGE('',*,*,#225,.F.);
#473=CARTESIAN_POINT('',(1.65,-1.015,0.1));
#474=DIRECTION('',(0.0,0.0,1.0));
#475=VECTOR('',#474,1.83);
#476=LINE('',#473,#475);
#477=EDGE_CURVE('',#309,#213,#476,.T.);
#478=ORIENTED_EDGE('',*,*,#477,.F.);
#479=ORIENTED_EDGE('',*,*,#330,.F.);
#480=ORIENTED_EDGE('',*,*,#247,.F.);
#481=EDGE_LOOP('',(#472,#478,#479,#480));
#482=FACE_OUTER_BOUND('',#481,.T.);
#483=ADVANCED_FACE('',(#482),#471,.T.);
#484=CARTESIAN_POINT('',(1.65,-1.015,0.0));
#485=DIRECTION('',(-1.0,0.0,0.0));
#486=DIRECTION('',(0.0,0.0,1.0));
#487=AXIS2_PLACEMENT_3D('',#484,#485,#486);
#488=PLANE('',#487);
#489=ORIENTED_EDGE('',*,*,#219,.F.);
#490=ORIENTED_EDGE('',*,*,#433,.T.);
#491=ORIENTED_EDGE('',*,*,#371,.F.);
#492=ORIENTED_EDGE('',*,*,#450,.F.);
#493=ORIENTED_EDGE('',*,*,#403,.F.);
#494=CARTESIAN_POINT('',(1.65,-0.915,0.0));
#495=DIRECTION('',(0.0,1.0,0.0));
#496=VECTOR('',#495,1.83);
#497=LINE('',#494,#496);
#498=EDGE_CURVE('',#311,#395,#497,.T.);
#499=ORIENTED_EDGE('',*,*,#498,.F.);
#500=ORIENTED_EDGE('',*,*,#317,.F.);
#501=ORIENTED_EDGE('',*,*,#477,.T.);
#502=EDGE_LOOP('',(#489,#490,#491,#492,#493,#499,#500,#501));
#503=FACE_OUTER_BOUND('',#502,.T.);
#504=ADVANCED_FACE('',(#503),#488,.T.);
#505=CARTESIAN_POINT('',(1.9675,0.0,0.0));
#506=DIRECTION('',(0.0,0.0,1.0));
#507=DIRECTION('',(1.0,0.0,0.0));
#508=AXIS2_PLACEMENT_3D('',#505,#506,#507);
#509=PLANE('',#508);
#510=ORIENTED_EDGE('',*,*,#323,.F.);
#511=ORIENTED_EDGE('',*,*,#498,.T.);
#512=ORIENTED_EDGE('',*,*,#416,.F.);
#513=ORIENTED_EDGE('',*,*,#291,.F.);
#514=EDGE_LOOP('',(#510,#511,#512,#513));
#515=FACE_OUTER_BOUND('',#514,.T.);
#516=ADVANCED_FACE('',(#515),#509,.F.);
#517=CLOSED_SHELL('',(#99,#134,#169,#204,#236,#258,#280,#302,#334,#356,#388,#420,#437,#454,#466,#483,#504,#516));
#518=MANIFOLD_SOLID_BREP('2BB5',#517);
#519=COLOUR_RGB('254',0.866,0.866,0.866);
#520=SURFACE_STYLE_USAGE(.BOTH.,#521);
#521=SURFACE_SIDE_STYLE('NONE',(#522));
#522=SURFACE_STYLE_FILL_AREA(#523);
#523=FILL_AREA_STYLE('NONE',(#524));
#524=FILL_AREA_STYLE_COLOUR('NONE',#519);
#525=PRESENTATION_STYLE_ASSIGNMENT((#520));
#526=STYLED_ITEM('NONE',(#525),#518);
#527=MECHANICAL_DESIGN_GEOMETRIC_PRESENTATION_REPRESENTATION('NONE',(#526,#826,#1281),#28);
#528=PRESENTATION_LAYER_ASSIGNMENT('3D','None',(#518,#818,#1280));
#529=CARTESIAN_POINT('',(0.825,-0.915,0.1));
#530=DIRECTION('',(-1.0,0.0,0.0));
#531=DIRECTION('',(0.0,-0.707106781186547,-0.707106781186548));
#532=AXIS2_PLACEMENT_3D('',#529,#530,#531);
#533=CYLINDRICAL_SURFACE('',#532,0.1);
#534=CARTESIAN_POINT('',(-1.65,-1.015,0.1));
#535=VERTEX_POINT('',#534);
#536=CARTESIAN_POINT('',(-1.65,-0.915,0.0));
#537=VERTEX_POINT('',#536);
#538=CARTESIAN_POINT('',(-1.65,-0.915,0.1));
#539=DIRECTION('',(1.0,0.0,0.0));
#540=DIRECTION('',(0.0,-0.707106781186547,-0.707106781186548));
#541=AXIS2_PLACEMENT_3D('',#538,#539,#540);
#542=CIRCLE('',#541,0.1);
#543=EDGE_CURVE('',#535,#537,#542,.T.);
#544=ORIENTED_EDGE('',*,*,#543,.T.);
#545=CARTESIAN_POINT('',(1.65,-0.915,0.0));
#546=VERTEX_POINT('',#545);
#547=CARTESIAN_POINT('',(-1.65,-0.915,0.0));
#548=DIRECTION('',(1.0,0.0,0.0));
#549=VECTOR('',#548,3.3);
#550=LINE('',#547,#549);
#551=EDGE_CURVE('',#537,#546,#550,.T.);
#552=ORIENTED_EDGE('',*,*,#551,.T.);
#553=CARTESIAN_POINT('',(1.65,-1.015,0.1));
#554=VERTEX_POINT('',#553);
#555=CARTESIAN_POINT('',(1.65,-0.915,0.1));
#556=DIRECTION('',(-1.0,0.0,0.0));
#557=DIRECTION('',(0.0,-0.707106781186547,-0.707106781186548));
#558=AXIS2_PLACEMENT_3D('',#555,#556,#557);
#559=CIRCLE('',#558,0.1);
#560=EDGE_CURVE('',#546,#554,#559,.T.);
#561=ORIENTED_EDGE('',*,*,#560,.T.);
#562=CARTESIAN_POINT('',(1.65,-1.015,0.1));
#563=DIRECTION('',(-1.0,0.0,0.0));
#564=VECTOR('',#563,3.3);
#565=LINE('',#562,#564);
#566=EDGE_CURVE('',#554,#535,#565,.T.);
#567=ORIENTED_EDGE('',*,*,#566,.T.);
#568=EDGE_LOOP('',(#544,#552,#561,#567));
#569=FACE_OUTER_BOUND('',#568,.T.);
#570=ADVANCED_FACE('',(#569),#533,.T.);
#571=CARTESIAN_POINT('',(1.65,-1.015,0.0));
#572=DIRECTION('',(0.0,-1.0,0.0));
#573=DIRECTION('',(0.0,0.0,-1.0));
#574=AXIS2_PLACEMENT_3D('',#571,#572,#573);
#575=PLANE('',#574);
#576=ORIENTED_EDGE('',*,*,#566,.F.);
#577=CARTESIAN_POINT('',(1.65,-1.015,1.93));
#578=VERTEX_POINT('',#577);
#579=CARTESIAN_POINT('',(1.65,-1.015,0.1));
#580=DIRECTION('',(0.0,0.0,1.0));
#581=VECTOR('',#580,1.83);
#582=LINE('',#579,#581);
#583=EDGE_CURVE('',#554,#578,#582,.T.);
#584=ORIENTED_EDGE('',*,*,#583,.T.);
#585=CARTESIAN_POINT('',(-1.65,-1.015,1.93));
#586=VERTEX_POINT('',#585);
#587=CARTESIAN_POINT('',(-1.65,-1.015,1.93));
#588=DIRECTION('',(1.0,0.0,0.0));
#589=VECTOR('',#588,3.3);
#590=LINE('',#587,#589);
#591=EDGE_CURVE('',#586,#578,#590,.T.);
#592=ORIENTED_EDGE('',*,*,#591,.F.);
#593=CARTESIAN_POINT('',(-1.65,-1.015,0.1));
#594=DIRECTION('',(0.0,0.0,1.0));
#595=VECTOR('',#594,1.83);
#596=LINE('',#593,#595);
#597=EDGE_CURVE('',#535,#586,#596,.T.);
#598=ORIENTED_EDGE('',*,*,#597,.F.);
#599=EDGE_LOOP('',(#576,#584,#592,#598));
#600=FACE_OUTER_BOUND('',#599,.T.);
#601=ADVANCED_FACE('',(#600),#575,.T.);
#602=CARTESIAN_POINT('',(1.65,1.015,0.0));
#603=DIRECTION('',(1.0,0.0,0.0));
#604=DIRECTION('',(0.0,0.0,-1.0));
#605=AXIS2_PLACEMENT_3D('',#602,#603,#604);
#606=PLANE('',#605);
#607=ORIENTED_EDGE('',*,*,#560,.F.);
#608=CARTESIAN_POINT('',(1.65,0.915,0.0));
#609=VERTEX_POINT('',#608);
#610=CARTESIAN_POINT('',(1.65,0.915,0.0));
#611=DIRECTION('',(0.0,-1.0,0.0));
#612=VECTOR('',#611,1.83);
#613=LINE('',#610,#612);
#614=EDGE_CURVE('',#609,#546,#613,.T.);
#615=ORIENTED_EDGE('',*,*,#614,.F.);
#616=CARTESIAN_POINT('',(1.65,1.015,0.1));
#617=VERTEX_POINT('',#616);
#618=CARTESIAN_POINT('',(1.65,0.915,0.1));
#619=DIRECTION('',(-1.0,0.0,0.0));
#620=DIRECTION('',(0.0,0.707106781186547,-0.707106781186548));
#621=AXIS2_PLACEMENT_3D('',#618,#619,#620);
#622=CIRCLE('',#621,0.1);
#623=EDGE_CURVE('',#617,#609,#622,.T.);
#624=ORIENTED_EDGE('',*,*,#623,.F.);
#625=CARTESIAN_POINT('',(1.65,1.015,1.93));
#626=VERTEX_POINT('',#625);
#627=CARTESIAN_POINT('',(1.65,1.015,0.1));
#628=DIRECTION('',(0.0,0.0,1.0));
#629=VECTOR('',#628,1.83);
#630=LINE('',#627,#629);
#631=EDGE_CURVE('',#617,#626,#630,.T.);
#632=ORIENTED_EDGE('',*,*,#631,.T.);
#633=CARTESIAN_POINT('',(1.65,0.915,2.03));
#634=VERTEX_POINT('',#633);
#635=CARTESIAN_POINT('',(1.65,0.915,1.93));
#636=DIRECTION('',(-1.0,0.0,0.0));
#637=DIRECTION('',(0.0,0.707106781186547,0.707106781186548));
#638=AXIS2_PLACEMENT_3D('',#635,#636,#637);
#639=CIRCLE('',#638,0.1);
#640=EDGE_CURVE('',#634,#626,#639,.T.);
#641=ORIENTED_EDGE('',*,*,#640,.F.);
#642=CARTESIAN_POINT('',(1.65,-0.915,2.03));
#643=VERTEX_POINT('',#642);
#644=CARTESIAN_POINT('',(1.65,0.915,2.03));
#645=DIRECTION('',(0.0,-1.0,0.0));
#646=VECTOR('',#645,1.83);
#647=LINE('',#644,#646);
#648=EDGE_CURVE('',#634,#643,#647,.T.);
#649=ORIENTED_EDGE('',*,*,#648,.T.);
#650=CARTESIAN_POINT('',(1.65,-0.915,1.93));
#651=DIRECTION('',(-1.0,0.0,0.0));
#652=DIRECTION('',(0.0,-0.707106781186547,0.707106781186548));
#653=AXIS2_PLACEMENT_3D('',#650,#651,#652);
#654=CIRCLE('',#653,0.1);
#655=EDGE_CURVE('',#578,#643,#654,.T.);
#656=ORIENTED_EDGE('',*,*,#655,.F.);
#657=ORIENTED_EDGE('',*,*,#583,.F.);
#658=EDGE_LOOP('',(#607,#615,#624,#632,#641,#649,#656,#657));
#659=FACE_OUTER_BOUND('',#658,.T.);
#660=ADVANCED_FACE('',(#659),#606,.T.);
#661=CARTESIAN_POINT('',(-0.825,0.915,0.1));
#662=DIRECTION('',(1.0,0.0,0.0));
#663=DIRECTION('',(0.0,0.707106781186547,-0.707106781186548));
#664=AXIS2_PLACEMENT_3D('',#661,#662,#663);
#665=CYLINDRICAL_SURFACE('',#664,0.1);
#666=ORIENTED_EDGE('',*,*,#623,.T.);
#667=CARTESIAN_POINT('',(-1.65,0.915,0.0));
#668=VERTEX_POINT('',#667);
#669=CARTESIAN_POINT('',(1.65,0.915,0.0));
#670=DIRECTION('',(-1.0,0.0,0.0));
#671=VECTOR('',#670,3.3);
#672=LINE('',#669,#671);
#673=EDGE_CURVE('',#609,#668,#672,.T.);
#674=ORIENTED_EDGE('',*,*,#673,.T.);
#675=CARTESIAN_POINT('',(-1.65,1.015,0.1));
#676=VERTEX_POINT('',#675);
#677=CARTESIAN_POINT('',(-1.65,0.915,0.1));
#678=DIRECTION('',(1.0,0.0,0.0));
#679=DIRECTION('',(0.0,0.707106781186547,-0.707106781186548));
#680=AXIS2_PLACEMENT_3D('',#677,#678,#679);
#681=CIRCLE('',#680,0.1);
#682=EDGE_CURVE('',#668,#676,#681,.T.);
#683=ORIENTED_EDGE('',*,*,#682,.T.);
#684=CARTESIAN_POINT('',(-1.65,1.015,0.1));
#685=DIRECTION('',(1.0,0.0,0.0));
#686=VECTOR('',#685,3.3);
#687=LINE('',#684,#686);
#688=EDGE_CURVE('',#676,#617,#687,.T.);
#689=ORIENTED_EDGE('',*,*,#688,.T.);
#690=EDGE_LOOP('',(#666,#674,#683,#689));
#691=FACE_OUTER_BOUND('',#690,.T.);
#692=ADVANCED_FACE('',(#691),#665,.T.);
#693=CARTESIAN_POINT('',(-1.65,1.015,0.0));
#694=DIRECTION('',(0.0,1.0,0.0));
#695=DIRECTION('',(0.0,0.0,1.0));
#696=AXIS2_PLACEMENT_3D('',#693,#694,#695);
#697=PLANE('',#696);
#698=ORIENTED_EDGE('',*,*,#688,.F.);
#699=CARTESIAN_POINT('',(-1.65,1.015,1.93));
#700=VERTEX_POINT('',#699);
#701=CARTESIAN_POINT('',(-1.65,1.015,0.1));
#702=DIRECTION('',(0.0,0.0,1.0));
#703=VECTOR('',#702,1.83);
#704=LINE('',#701,#703);
#705=EDGE_CURVE('',#676,#700,#704,.T.);
#706=ORIENTED_EDGE('',*,*,#705,.T.);
#707=CARTESIAN_POINT('',(1.65,1.015,1.93));
#708=DIRECTION('',(-1.0,0.0,0.0));
#709=VECTOR('',#708,3.3);
#710=LINE('',#707,#709);
#711=EDGE_CURVE('',#626,#700,#710,.T.);
#712=ORIENTED_EDGE('',*,*,#711,.F.);
#713=ORIENTED_EDGE('',*,*,#631,.F.);
#714=EDGE_LOOP('',(#698,#706,#712,#713));
#715=FACE_OUTER_BOUND('',#714,.T.);
#716=ADVANCED_FACE('',(#715),#697,.T.);
#717=CARTESIAN_POINT('',(-1.65,-1.015,0.0));
#718=DIRECTION('',(-1.0,0.0,0.0));
#719=DIRECTION('',(0.0,0.0,1.0));
#720=AXIS2_PLACEMENT_3D('',#717,#718,#719);
#721=PLANE('',#720);
#722=ORIENTED_EDGE('',*,*,#543,.F.);
#723=ORIENTED_EDGE('',*,*,#597,.T.);
#724=CARTESIAN_POINT('',(-1.65,-0.915,2.03));
#725=VERTEX_POINT('',#724);
#726=CARTESIAN_POINT('',(-1.65,-0.915,1.93));
#727=DIRECTION('',(1.0,0.0,0.0));
#728=DIRECTION('',(0.0,-0.707106781186547,0.707106781186548));
#729=AXIS2_PLACEMENT_3D('',#726,#727,#728);
#730=CIRCLE('',#729,0.1);
#731=EDGE_CURVE('',#725,#586,#730,.T.);
#732=ORIENTED_EDGE('',*,*,#731,.F.);
#733=CARTESIAN_POINT('',(-1.65,0.915,2.03));
#734=VERTEX_POINT('',#733);
#735=CARTESIAN_POINT('',(-1.65,-0.915,2.03));
#736=DIRECTION('',(0.0,1.0,0.0));
#737=VECTOR('',#736,1.83);
#738=LINE('',#735,#737);
#739=EDGE_CURVE('',#725,#734,#738,.T.);
#740=ORIENTED_EDGE('',*,*,#739,.T.);
#741=CARTESIAN_POINT('',(-1.65,0.915,1.93));
#742=DIRECTION('',(1.0,0.0,0.0));
#743=DIRECTION('',(0.0,0.707106781186547,0.707106781186548));
#744=AXIS2_PLACEMENT_3D('',#741,#742,#743);
#745=CIRCLE('',#744,0.1);
#746=EDGE_CURVE('',#700,#734,#745,.T.);
#747=ORIENTED_EDGE('',*,*,#746,.F.);
#748=ORIENTED_EDGE('',*,*,#705,.F.);
#749=ORIENTED_EDGE('',*,*,#682,.F.);
#750=CARTESIAN_POINT('',(-1.65,-0.915,0.0));
#751=DIRECTION('',(0.0,1.0,0.0));
#752=VECTOR('',#751,1.83);
#753=LINE('',#750,#752);
#754=EDGE_CURVE('',#537,#668,#753,.T.);
#755=ORIENTED_EDGE('',*,*,#754,.F.);
#756=EDGE_LOOP('',(#722,#723,#732,#740,#747,#748,#749,#755));
#757=FACE_OUTER_BOUND('',#756,.T.);
#758=ADVANCED_FACE('',(#757),#721,.T.);
#759=CARTESIAN_POINT('',(-0.825,0.915,1.93));
#760=DIRECTION('',(1.0,0.0,0.0));
#761=DIRECTION('',(0.0,0.707106781186547,0.707106781186548));
#762=AXIS2_PLACEMENT_3D('',#759,#760,#761);
#763=CYLINDRICAL_SURFACE('',#762,0.1);
#764=ORIENTED_EDGE('',*,*,#640,.T.);
#765=ORIENTED_EDGE('',*,*,#711,.T.);
#766=ORIENTED_EDGE('',*,*,#746,.T.);
#767=CARTESIAN_POINT('',(-1.65,0.915,2.03));
#768=DIRECTION('',(1.0,0.0,0.0));
#769=VECTOR('',#768,3.3);
#770=LINE('',#767,#769);
#771=EDGE_CURVE('',#734,#634,#770,.T.);
#772=ORIENTED_EDGE('',*,*,#771,.T.);
#773=EDGE_LOOP('',(#764,#765,#766,#772));
#774=FACE_OUTER_BOUND('',#773,.T.);
#775=ADVANCED_FACE('',(#774),#763,.T.);
#776=CARTESIAN_POINT('',(0.0,0.0,2.03));
#777=DIRECTION('',(0.0,0.0,1.0));
#778=DIRECTION('',(1.0,0.0,0.0));
#779=AXIS2_PLACEMENT_3D('',#776,#777,#778);
#780=PLANE('',#779);
#781=ORIENTED_EDGE('',*,*,#771,.F.);
#782=ORIENTED_EDGE('',*,*,#739,.F.);
#783=CARTESIAN_POINT('',(1.65,-0.915,2.03));
#784=DIRECTION('',(-1.0,0.0,0.0));
#785=VECTOR('',#784,3.3);
#786=LINE('',#783,#785);
#787=EDGE_CURVE('',#643,#725,#786,.T.);
#788=ORIENTED_EDGE('',*,*,#787,.F.);
#789=ORIENTED_EDGE('',*,*,#648,.F.);
#790=EDGE_LOOP('',(#781,#782,#788,#789));
#791=FACE_OUTER_BOUND('',#790,.T.);
#792=ADVANCED_FACE('',(#791),#780,.T.);
#793=CARTESIAN_POINT('',(0.825,-0.915,1.93));
#794=DIRECTION('',(-1.0,0.0,0.0));
#795=DIRECTION('',(0.0,-0.707106781186547,0.707106781186548));
#796=AXIS2_PLACEMENT_3D('',#793,#794,#795);
#797=CYLINDRICAL_SURFACE('',#796,0.1);
#798=ORIENTED_EDGE('',*,*,#731,.T.);
#799=ORIENTED_EDGE('',*,*,#591,.T.);
#800=ORIENTED_EDGE('',*,*,#655,.T.);
#801=ORIENTED_EDGE('',*,*,#787,.T.);
#802=EDGE_LOOP('',(#798,#799,#800,#801));
#803=FACE_OUTER_BOUND('',#802,.T.);
#804=ADVANCED_FACE('',(#803),#797,.T.);
#805=CARTESIAN_POINT('',(0.0,0.0,0.0));
#806=DIRECTION('',(0.0,0.0,1.0));
#807=DIRECTION('',(1.0,0.0,0.0));
#808=AXIS2_PLACEMENT_3D('',#805,#806,#807);
#809=PLANE('',#808);
#810=ORIENTED_EDGE('',*,*,#551,.F.);
#811=ORIENTED_EDGE('',*,*,#754,.T.);
#812=ORIENTED_EDGE('',*,*,#673,.F.);
#813=ORIENTED_EDGE('',*,*,#614,.T.);
#814=EDGE_LOOP('',(#810,#811,#812,#813));
#815=FACE_OUTER_BOUND('',#814,.T.);
#816=ADVANCED_FACE('',(#815),#809,.F.);
#817=CLOSED_SHELL('',(#570,#601,#660,#692,#716,#758,#775,#792,#804,#816));
#818=MANIFOLD_SOLID_BREP('2BB1',#817);
#819=COLOUR_RGB('35',0.5,0.375,0.25);
#820=SURFACE_STYLE_USAGE(.BOTH.,#821);
#821=SURFACE_SIDE_STYLE('NONE',(#822));
#822=SURFACE_STYLE_FILL_AREA(#823);
#823=FILL_AREA_STYLE('NONE',(#824));
#824=FILL_AREA_STYLE_COLOUR('NONE',#819);
#825=PRESENTATION_STYLE_ASSIGNMENT((#820));
#826=STYLED_ITEM('NONE',(#825),#818);
#827=CARTESIAN_POINT('',(-2.185,0.915,0.1));
#828=DIRECTION('',(0.0,0.0,1.0));
#829=DIRECTION('',(1.0,0.0,0.0));
#830=AXIS2_PLACEMENT_3D('',#827,#828,#829);
#831=SPHERICAL_SURFACE('',#830,0.1);
#832=CARTESIAN_POINT('',(-2.185,0.915,0.0));
#833=VERTEX_POINT('',#832);
#834=CARTESIAN_POINT('',(-2.285,0.915,0.1));
#835=VERTEX_POINT('',#834);
#836=CARTESIAN_POINT('',(-2.185,0.915,0.1));
#837=DIRECTION('',(0.0,1.0,0.0));
#838=DIRECTION('',(-0.707106781186549,0.0,-0.707106781186546));
#839=AXIS2_PLACEMENT_3D('',#836,#837,#838);
#840=CIRCLE('',#839,0.1);
#841=EDGE_CURVE('',#833,#835,#840,.T.);
#842=ORIENTED_EDGE('',*,*,#841,.T.);
#843=CARTESIAN_POINT('',(-2.185,1.015,0.1));
#844=VERTEX_POINT('',#843);
#845=CARTESIAN_POINT('',(-2.185,0.915,0.1));
#846=DIRECTION('',(0.0,0.0,-1.0));
#847=DIRECTION('',(0.0,1.0,0.0));
#848=AXIS2_PLACEMENT_3D('',#845,#846,#847);
#849=CIRCLE('',#848,0.1);
#850=EDGE_CURVE('',#844,#835,#849,.F.);
#851=ORIENTED_EDGE('',*,*,#850,.F.);
#852=CARTESIAN_POINT('',(-2.185,0.915,0.1));
#853=DIRECTION('',(-1.0,0.0,0.0));
#854=DIRECTION('',(0.0,0.707106781186547,-0.707106781186548));
#855=AXIS2_PLACEMENT_3D('',#852,#853,#854);
#856=CIRCLE('',#855,0.1);
#857=EDGE_CURVE('',#844,#833,#856,.T.);
#858=ORIENTED_EDGE('',*,*,#857,.T.);
#859=EDGE_LOOP('',(#842,#851,#858));
#860=FACE_OUTER_BOUND('',#859,.T.);
#861=ADVANCED_FACE('',(#860),#831,.T.);
#862=CARTESIAN_POINT('',(-2.185,-0.915,0.1));
#863=DIRECTION('',(0.0,0.0,1.0));
#864=DIRECTION('',(1.0,0.0,0.0));
#865=AXIS2_PLACEMENT_3D('',#862,#863,#864);
#866=SPHERICAL_SURFACE('',#865,0.1);
#867=CARTESIAN_POINT('',(-2.185,-0.915,0.0));
#868=VERTEX_POINT('',#867);
#869=CARTESIAN_POINT('',(-2.185,-1.015,0.1));
#870=VERTEX_POINT('',#869);
#871=CARTESIAN_POINT('',(-2.185,-0.915,0.1));
#872=DIRECTION('',(-1.0,0.0,0.0));
#873=DIRECTION('',(0.0,-0.707106781186547,-0.707106781186548));
#874=AXIS2_PLACEMENT_3D('',#871,#872,#873);
#875=CIRCLE('',#874,0.1);
#876=EDGE_CURVE('',#868,#870,#875,.T.);
#877=ORIENTED_EDGE('',*,*,#876,.T.);
#878=CARTESIAN_POINT('',(-2.285,-0.915,0.1));
#879=VERTEX_POINT('',#878);
#880=CARTESIAN_POINT('',(-2.185,-0.915,0.1));
#881=DIRECTION('',(0.0,0.0,-1.0));
#882=DIRECTION('',(-1.0,0.0,0.0));
#883=AXIS2_PLACEMENT_3D('',#880,#881,#882);
#884=CIRCLE('',#883,0.1);
#885=EDGE_CURVE('',#879,#870,#884,.F.);
#886=ORIENTED_EDGE('',*,*,#885,.F.);
#887=CARTESIAN_POINT('',(-2.185,-0.915,0.1));
#888=DIRECTION('',(0.0,-1.0,0.0));
#889=DIRECTION('',(-0.707106781186549,0.0,-0.707106781186546));
#890=AXIS2_PLACEMENT_3D('',#887,#888,#889);
#891=CIRCLE('',#890,0.1);
#892=EDGE_CURVE('',#879,#868,#891,.T.);
#893=ORIENTED_EDGE('',*,*,#892,.T.);
#894=EDGE_LOOP('',(#877,#886,#893));
#895=FACE_OUTER_BOUND('',#894,.T.);
#896=ADVANCED_FACE('',(#895),#866,.T.);
#897=CARTESIAN_POINT('',(-2.185,0.915,1.93));
#898=DIRECTION('',(0.0,0.0,1.0));
#899=DIRECTION('',(1.0,0.0,0.0));
#900=AXIS2_PLACEMENT_3D('',#897,#898,#899);
#901=SPHERICAL_SURFACE('',#900,0.1);
#902=CARTESIAN_POINT('',(-2.185,1.015,1.93));
#903=VERTEX_POINT('',#902);
#904=CARTESIAN_POINT('',(-2.285,0.915,1.93));
#905=VERTEX_POINT('',#904);
#906=CARTESIAN_POINT('',(-2.185,0.915,1.93));
#907=DIRECTION('',(0.0,0.0,1.0));
#908=DIRECTION('',(-0.707106781186549,0.707106781186546,0.0));
#909=AXIS2_PLACEMENT_3D('',#906,#907,#908);
#910=CIRCLE('',#909,0.1);
#911=EDGE_CURVE('',#903,#905,#910,.T.);
#912=ORIENTED_EDGE('',*,*,#911,.T.);
#913=CARTESIAN_POINT('',(-2.185,0.915,2.03));
#914=VERTEX_POINT('',#913);
#915=CARTESIAN_POINT('',(-2.185,0.915,1.93));
#916=DIRECTION('',(0.0,1.0,0.0));
#917=DIRECTION('',(0.0,0.0,1.0));
#918=AXIS2_PLACEMENT_3D('',#915,#916,#917);
#919=CIRCLE('',#918,0.1);
#920=EDGE_CURVE('',#914,#905,#919,.F.);
#921=ORIENTED_EDGE('',*,*,#920,.F.);
#922=CARTESIAN_POINT('',(-2.185,0.915,1.93));
#923=DIRECTION('',(-1.0,4.440892E-015,4.440892E-015));
#924=DIRECTION('',(6.280370E-015,0.707106781186547,0.707106781186548));
#925=AXIS2_PLACEMENT_3D('',#922,#923,#924);
#926=CIRCLE('',#925,0.1);
#927=EDGE_CURVE('',#914,#903,#926,.T.);
#928=ORIENTED_EDGE('',*,*,#927,.T.);
#929=EDGE_LOOP('',(#912,#921,#928));
#930=FACE_OUTER_BOUND('',#929,.T.);
#931=ADVANCED_FACE('',(#930),#901,.T.);
#932=CARTESIAN_POINT('',(-2.185,-0.915,1.93));
#933=DIRECTION('',(0.0,0.0,1.0));
#934=DIRECTION('',(1.0,0.0,0.0));
#935=AXIS2_PLACEMENT_3D('',#932,#933,#934);
#936=SPHERICAL_SURFACE('',#935,0.1);
#937=CARTESIAN_POINT('',(-2.185,-1.015,1.93));
#938=VERTEX_POINT('',#937);
#939=CARTESIAN_POINT('',(-2.185,-0.915,2.03));
#940=VERTEX_POINT('',#939);
#941=CARTESIAN_POINT('',(-2.185,-0.915,1.93));
#942=DIRECTION('',(-1.0,-4.440892E-015,4.440892E-015));
#943=DIRECTION('',(6.280370E-015,-0.707106781186547,0.707106781186548));
#944=AXIS2_PLACEMENT_3D('',#941,#942,#943);
#945=CIRCLE('',#944,0.1);
#946=EDGE_CURVE('',#938,#940,#945,.T.);
#947=ORIENTED_EDGE('',*,*,#946,.T.);
#948=CARTESIAN_POINT('',(-2.285,-0.915,1.93));
#949=VERTEX_POINT('',#948);
#950=CARTESIAN_POINT('',(-2.185,-0.915,1.93));
#951=DIRECTION('',(0.0,-1.0,0.0));
#952=DIRECTION('',(-1.0,0.0,0.0));
#953=AXIS2_PLACEMENT_3D('',#950,#951,#952);
#954=CIRCLE('',#953,0.100000000000001);
#955=EDGE_CURVE('',#949,#940,#954,.F.);
#956=ORIENTED_EDGE('',*,*,#955,.F.);
#957=CARTESIAN_POINT('',(-2.185,-0.915,1.93));
#958=DIRECTION('',(0.0,0.0,1.0));
#959=DIRECTION('',(-0.70710678118655,-0.707106781186545,0.0));
#960=AXIS2_PLACEMENT_3D('',#957,#958,#959);
#961=CIRCLE('',#960,0.1);
#962=EDGE_CURVE('',#949,#938,#961,.T.);
#963=ORIENTED_EDGE('',*,*,#962,.T.);
#964=EDGE_LOOP('',(#947,#956,#963));
#965=FACE_OUTER_BOUND('',#964,.T.);
#966=ADVANCED_FACE('',(#965),#936,.T.);
#967=CARTESIAN_POINT('',(-2.185,-0.5075,1.93));
#968=DIRECTION('',(0.0,1.0,0.0));
#969=DIRECTION('',(-0.707106781186549,0.0,0.707106781186546));
#970=AXIS2_PLACEMENT_3D('',#967,#968,#969);
#971=CYLINDRICAL_SURFACE('',#970,0.1);
#972=ORIENTED_EDGE('',*,*,#920,.T.);
#973=CARTESIAN_POINT('',(-2.285,0.915,1.93));
#974=DIRECTION('',(0.0,-1.0,0.0));
#975=VECTOR('',#974,1.83);
#976=LINE('',#973,#975);
#977=EDGE_CURVE('',#905,#949,#976,.T.);
#978=ORIENTED_EDGE('',*,*,#977,.T.);
#979=ORIENTED_EDGE('',*,*,#955,.T.);
#980=CARTESIAN_POINT('',(-2.185,-0.915,2.03));
#981=DIRECTION('',(0.0,1.0,0.0));
#982=VECTOR('',#981,1.83);
#983=LINE('',#980,#982);
#984=EDGE_CURVE('',#940,#914,#983,.T.);
#985=ORIENTED_EDGE('',*,*,#984,.T.);
#986=EDGE_LOOP('',(#972,#978,#979,#985));
#987=FACE_OUTER_BOUND('',#986,.T.);
#988=ADVANCED_FACE('',(#987),#971,.T.);
#989=CARTESIAN_POINT('',(-2.185,-0.915,0.0));
#990=DIRECTION('',(0.0,0.0,1.0));
#991=DIRECTION('',(-0.70710678118655,-0.707106781186545,0.0));
#992=AXIS2_PLACEMENT_3D('',#989,#990,#991);
#993=CYLINDRICAL_SURFACE('',#992,0.1);
#994=ORIENTED_EDGE('',*,*,#962,.F.);
#995=CARTESIAN_POINT('',(-2.285,-0.915,1.93));
#996=DIRECTION('',(0.0,0.0,-1.0));
#997=VECTOR('',#996,1.83);
#998=LINE('',#995,#997);
#999=EDGE_CURVE('',#949,#879,#998,.T.);
#1000=ORIENTED_EDGE('',*,*,#999,.T.);
#1001=ORIENTED_EDGE('',*,*,#885,.T.);
#1002=CARTESIAN_POINT('',(-2.185,-1.015,0.1));
#1003=DIRECTION('',(0.0,0.0,1.0));
#1004=VECTOR('',#1003,1.83);
#1005=LINE('',#1002,#1004);
#1006=EDGE_CURVE('',#870,#938,#1005,.T.);
#1007=ORIENTED_EDGE('',*,*,#1006,.T.);
#1008=EDGE_LOOP('',(#994,#1000,#1001,#1007));
#1009=FACE_OUTER_BOUND('',#1008,.T.);
#1010=ADVANCED_FACE('',(#1009),#993,.T.);
#1011=CARTESIAN_POINT('',(-1.80875,-0.915,1.93));
#1012=DIRECTION('',(-1.0,0.0,0.0));
#1013=DIRECTION('',(0.0,-0.707106781186547,0.707106781186548));
#1014=AXIS2_PLACEMENT_3D('',#1011,#1012,#1013);
#1015=CYLINDRICAL_SURFACE('',#1014,0.1);
#1016=CARTESIAN_POINT('',(-1.65,-1.015,1.93));
#1017=VERTEX_POINT('',#1016);
#1018=CARTESIAN_POINT('',(-1.65,-0.915,2.03));
#1019=VERTEX_POINT('',#1018);
#1020=CARTESIAN_POINT('',(-1.65,-0.915,1.93));
#1021=DIRECTION('',(-1.0,0.0,0.0));
#1022=DIRECTION('',(0.0,-0.707106781186547,0.707106781186548));
#1023=AXIS2_PLACEMENT_3D('',#1020,#1021,#1022);
#1024=CIRCLE('',#1023,0.1);
#1025=EDGE_CURVE('',#1017,#1019,#1024,.T.);
#1026=ORIENTED_EDGE('',*,*,#1025,.T.);
#1027=CARTESIAN_POINT('',(-1.65,-0.915,2.03));
#1028=DIRECTION('',(-1.0,0.0,0.0));
#1029=VECTOR('',#1028,0.535);
#1030=LINE('',#1027,#1029);
#1031=EDGE_CURVE('',#1019,#940,#1030,.T.);
#1032=ORIENTED_EDGE('',*,*,#1031,.T.);
#1033=ORIENTED_EDGE('',*,*,#946,.F.);
#1034=CARTESIAN_POINT('',(-2.185,-1.015,1.93));
#1035=DIRECTION('',(1.0,0.0,0.0));
#1036=VECTOR('',#1035,0.535);
#1037=LINE('',#1034,#1036);
#1038=EDGE_CURVE('',#938,#1017,#1037,.T.);
#1039=ORIENTED_EDGE('',*,*,#1038,.T.);
#1040=EDGE_LOOP('',(#1026,#1032,#1033,#1039));
#1041=FACE_OUTER_BOUND('',#1040,.T.);
#1042=ADVANCED_FACE('',(#1041),#1015,.T.);
#1043=CARTESIAN_POINT('',(-2.185,0.915,0.0));
#1044=DIRECTION('',(0.0,0.0,1.0));
#1045=DIRECTION('',(-0.707106781186549,0.707106781186546,0.0));
#1046=AXIS2_PLACEMENT_3D('',#1043,#1044,#1045);
#1047=CYLINDRICAL_SURFACE('',#1046,0.1);
#1048=ORIENTED_EDGE('',*,*,#911,.F.);
#1049=CARTESIAN_POINT('',(-2.185,1.015,1.93));
#1050=DIRECTION('',(0.0,0.0,-1.0));
#1051=VECTOR('',#1050,1.83);
#1052=LINE('',#1049,#1051);
#1053=EDGE_CURVE('',#903,#844,#1052,.T.);
#1054=ORIENTED_EDGE('',*,*,#1053,.T.);
#1055=ORIENTED_EDGE('',*,*,#850,.T.);
#1056=CARTESIAN_POINT('',(-2.285,0.915,0.1));
#1057=DIRECTION('',(0.0,0.0,1.0));
#1058=VECTOR('',#1057,1.83);
#1059=LINE('',#1056,#1058);
#1060=EDGE_CURVE('',#835,#905,#1059,.T.);
#1061=ORIENTED_EDGE('',*,*,#1060,.T.);
#1062=EDGE_LOOP('',(#1048,#1054,#1055,#1061));
#1063=FACE_OUTER_BOUND('',#1062,.T.);
#1064=ADVANCED_FACE('',(#1063),#1047,.T.);
#1065=CARTESIAN_POINT('',(-2.12625,0.915,1.93));
#1066=DIRECTION('',(1.0,0.0,0.0));
#1067=DIRECTION('',(0.0,0.707106781186547,0.707106781186548));
#1068=AXIS2_PLACEMENT_3D('',#1065,#1066,#1067);
#1069=CYLINDRICAL_SURFACE('',#1068,0.1);
#1070=CARTESIAN_POINT('',(-1.65,0.915,2.03));
#1071=VERTEX_POINT('',#1070);
#1072=CARTESIAN_POINT('',(-1.65,1.015,1.93));
#1073=VERTEX_POINT('',#1072);
#1074=CARTESIAN_POINT('',(-1.65,0.915,1.93));
#1075=DIRECTION('',(-1.0,0.0,0.0));
#1076=DIRECTION('',(0.0,0.707106781186547,0.707106781186548));
#1077=AXIS2_PLACEMENT_3D('',#1074,#1075,#1076);
#1078=CIRCLE('',#1077,0.1);
#1079=EDGE_CURVE('',#1071,#1073,#1078,.T.);
#1080=ORIENTED_EDGE('',*,*,#1079,.T.);
#1081=CARTESIAN_POINT('',(-1.65,1.015,1.93));
#1082=DIRECTION('',(-1.0,0.0,0.0));
#1083=VECTOR('',#1082,0.535);
#1084=LINE('',#1081,#1083);
#1085=EDGE_CURVE('',#1073,#903,#1084,.T.);
#1086=ORIENTED_EDGE('',*,*,#1085,.T.);
#1087=ORIENTED_EDGE('',*,*,#927,.F.);
#1088=CARTESIAN_POINT('',(-2.185,0.915,2.03));
#1089=DIRECTION('',(1.0,0.0,0.0));
#1090=VECTOR('',#1089,0.535);
#1091=LINE('',#1088,#1090);
#1092=EDGE_CURVE('',#914,#1071,#1091,.T.);
#1093=ORIENTED_EDGE('',*,*,#1092,.T.);
#1094=EDGE_LOOP('',(#1080,#1086,#1087,#1093));
#1095=FACE_OUTER_BOUND('',#1094,.T.);
#1096=ADVANCED_FACE('',(#1095),#1069,.T.);
#1097=CARTESIAN_POINT('',(-1.80875,-0.915,0.1));
#1098=DIRECTION('',(-1.0,0.0,0.0));
#1099=DIRECTION('',(0.0,-0.707106781186547,-0.707106781186548));
#1100=AXIS2_PLACEMENT_3D('',#1097,#1098,#1099);
#1101=CYLINDRICAL_SURFACE('',#1100,0.1);
#1102=CARTESIAN_POINT('',(-1.65,-0.915,0.0));
#1103=VERTEX_POINT('',#1102);
#1104=CARTESIAN_POINT('',(-1.65,-1.015,0.1));
#1105=VERTEX_POINT('',#1104);
#1106=CARTESIAN_POINT('',(-1.65,-0.915,0.1));
#1107=DIRECTION('',(-1.0,0.0,0.0));
#1108=DIRECTION('',(0.0,-0.707106781186547,-0.707106781186548));
#1109=AXIS2_PLACEMENT_3D('',#1106,#1107,#1108);
#1110=CIRCLE('',#1109,0.1);
#1111=EDGE_CURVE('',#1103,#1105,#1110,.T.);
#1112=ORIENTED_EDGE('',*,*,#1111,.T.);
#1113=CARTESIAN_POINT('',(-1.65,-1.015,0.1));
#1114=DIRECTION('',(-1.0,0.0,0.0));
#1115=VECTOR('',#1114,0.535);
#1116=LINE('',#1113,#1115);
#1117=EDGE_CURVE('',#1105,#870,#1116,.T.);
#1118=ORIENTED_EDGE('',*,*,#1117,.T.);
#1119=ORIENTED_EDGE('',*,*,#876,.F.);
#1120=CARTESIAN_POINT('',(-2.185,-0.915,0.0));
#1121=DIRECTION('',(1.0,0.0,0.0));
#1122=VECTOR('',#1121,0.535);
#1123=LINE('',#1120,#1122);
#1124=EDGE_CURVE('',#868,#1103,#1123,.T.);
#1125=ORIENTED_EDGE('',*,*,#1124,.T.);
#1126=EDGE_LOOP('',(#1112,#1118,#1119,#1125));
#1127=FACE_OUTER_BOUND('',#1126,.T.);
#1128=ADVANCED_FACE('',(#1127),#1101,.T.);
#1129=CARTESIAN_POINT('',(-2.185,-0.5075,0.1));
#1130=DIRECTION('',(0.0,1.0,0.0));
#1131=DIRECTION('',(-0.707106781186549,0.0,-0.707106781186546));
#1132=AXIS2_PLACEMENT_3D('',#1129,#1130,#1131);
#1133=CYLINDRICAL_SURFACE('',#1132,0.1);
#1134=ORIENTED_EDGE('',*,*,#841,.F.);
#1135=CARTESIAN_POINT('',(-2.185,0.915,0.0));
#1136=DIRECTION('',(0.0,-1.0,0.0));
#1137=VECTOR('',#1136,1.83);
#1138=LINE('',#1135,#1137);
#1139=EDGE_CURVE('',#833,#868,#1138,.T.);
#1140=ORIENTED_EDGE('',*,*,#1139,.T.);
#1141=ORIENTED_EDGE('',*,*,#892,.F.);
#1142=CARTESIAN_POINT('',(-2.285,-0.915,0.1));
#1143=DIRECTION('',(0.0,1.0,0.0));
#1144=VECTOR('',#1143,1.83);
#1145=LINE('',#1142,#1144);
#1146=EDGE_CURVE('',#879,#835,#1145,.T.);
#1147=ORIENTED_EDGE('',*,*,#1146,.T.);
#1148=EDGE_LOOP('',(#1134,#1140,#1141,#1147));
#1149=FACE_OUTER_BOUND('',#1148,.T.);
#1150=ADVANCED_FACE('',(#1149),#1133,.T.);
#1151=CARTESIAN_POINT('',(-2.12625,0.915,0.1));
#1152=DIRECTION('',(1.0,0.0,0.0));
#1153=DIRECTION('',(0.0,0.707106781186547,-0.707106781186548));
#1154=AXIS2_PLACEMENT_3D('',#1151,#1152,#1153);
#1155=CYLINDRICAL_SURFACE('',#1154,0.1);
#1156=CARTESIAN_POINT('',(-1.65,1.015,0.1));
#1157=VERTEX_POINT('',#1156);
#1158=CARTESIAN_POINT('',(-1.65,0.915,0.0));
#1159=VERTEX_POINT('',#1158);
#1160=CARTESIAN_POINT('',(-1.65,0.915,0.1));
#1161=DIRECTION('',(-1.0,0.0,0.0));
#1162=DIRECTION('',(0.0,0.707106781186547,-0.707106781186548));
#1163=AXIS2_PLACEMENT_3D('',#1160,#1161,#1162);
#1164=CIRCLE('',#1163,0.1);
#1165=EDGE_CURVE('',#1157,#1159,#1164,.T.);
#1166=ORIENTED_EDGE('',*,*,#1165,.T.);
#1167=CARTESIAN_POINT('',(-1.65,0.915,0.0));
#1168=DIRECTION('',(-1.0,0.0,0.0));
#1169=VECTOR('',#1168,0.535);
#1170=LINE('',#1167,#1169);
#1171=EDGE_CURVE('',#1159,#833,#1170,.T.);
#1172=ORIENTED_EDGE('',*,*,#1171,.T.);
#1173=ORIENTED_EDGE('',*,*,#857,.F.);
#1174=CARTESIAN_POINT('',(-2.185,1.015,0.1));
#1175=DIRECTION('',(1.0,0.0,0.0));
#1176=VECTOR('',#1175,0.535);
#1177=LINE('',#1174,#1176);
#1178=EDGE_CURVE('',#844,#1157,#1177,.T.);
#1179=ORIENTED_EDGE('',*,*,#1178,.T.);
#1180=EDGE_LOOP('',(#1166,#1172,#1173,#1179));
#1181=FACE_OUTER_BOUND('',#1180,.T.);
#1182=ADVANCED_FACE('',(#1181),#1155,.T.);
#1183=CARTESIAN_POINT('',(-1.65,-1.015,0.0));
#1184=DIRECTION('',(0.0,-1.0,0.0));
#1185=DIRECTION('',(0.0,0.0,-1.0));
#1186=AXIS2_PLACEMENT_3D('',#1183,#1184,#1185);
#1187=PLANE('',#1186);
#1188=ORIENTED_EDGE('',*,*,#1038,.F.);
#1189=ORIENTED_EDGE('',*,*,#1006,.F.);
#1190=ORIENTED_EDGE('',*,*,#1117,.F.);
#1191=CARTESIAN_POINT('',(-1.65,-1.015,0.1));
#1192=DIRECTION('',(0.0,0.0,1.0));
#1193=VECTOR('',#1192,1.83);
#1194=LINE('',#1191,#1193);
#1195=EDGE_CURVE('',#1105,#1017,#1194,.T.);
#1196=ORIENTED_EDGE('',*,*,#1195,.T.);
#1197=EDGE_LOOP('',(#1188,#1189,#1190,#1196));
#1198=FACE_OUTER_BOUND('',#1197,.T.);
#1199=ADVANCED_FACE('',(#1198),#1187,.T.);
#1200=CARTESIAN_POINT('',(-1.9675,0.0,0.0));
#1201=DIRECTION('',(0.0,0.0,1.0));
#1202=DIRECTION('',(1.0,0.0,0.0));
#1203=AXIS2_PLACEMENT_3D('',#1200,#1201,#1202);
#1204=PLANE('',#1203);
#1205=ORIENTED_EDGE('',*,*,#1124,.F.);
#1206=ORIENTED_EDGE('',*,*,#1139,.F.);
#1207=ORIENTED_EDGE('',*,*,#1171,.F.);
#1208=CARTESIAN_POINT('',(-1.65,0.915,0.0));
#1209=DIRECTION('',(0.0,-1.0,0.0));
#1210=VECTOR('',#1209,1.83);
#1211=LINE('',#1208,#1210);
#1212=EDGE_CURVE('',#1159,#1103,#1211,.T.);
#1213=ORIENTED_EDGE('',*,*,#1212,.T.);
#1214=EDGE_LOOP('',(#1205,#1206,#1207,#1213));
#1215=FACE_OUTER_BOUND('',#1214,.T.);
#1216=ADVANCED_FACE('',(#1215),#1204,.F.);
#1217=CARTESIAN_POINT('',(-2.285,-1.015,0.0));
#1218=DIRECTION('',(-1.0,0.0,0.0));
#1219=DIRECTION('',(0.0,0.0,1.0));
#1220=AXIS2_PLACEMENT_3D('',#1217,#1218,#1219);
#1221=PLANE('',#1220);
#1222=ORIENTED_EDGE('',*,*,#977,.F.);
#1223=ORIENTED_EDGE('',*,*,#1060,.F.);
#1224=ORIENTED_EDGE('',*,*,#1146,.F.);
#1225=ORIENTED_EDGE('',*,*,#999,.F.);
#1226=EDGE_LOOP('',(#1222,#1223,#1224,#1225));
#1227=FACE_OUTER_BOUND('',#1226,.T.);
#1228=ADVANCED_FACE('',(#1227),#1221,.T.);
#1229=CARTESIAN_POINT('',(-1.65,1.015,0.0));
#1230=DIRECTION('',(1.0,0.0,0.0));
#1231=DIRECTION('',(0.0,0.0,-1.0));
#1232=AXIS2_PLACEMENT_3D('',#1229,#1230,#1231);
#1233=PLANE('',#1232);
#1234=ORIENTED_EDGE('',*,*,#1025,.F.);
#1235=ORIENTED_EDGE('',*,*,#1195,.F.);
#1236=ORIENTED_EDGE('',*,*,#1111,.F.);
#1237=ORIENTED_EDGE('',*,*,#1212,.F.);
#1238=ORIENTED_EDGE('',*,*,#1165,.F.);
#1239=CARTESIAN_POINT('',(-1.65,1.015,0.1));
#1240=DIRECTION('',(0.0,0.0,1.0));
#1241=VECTOR('',#1240,1.83);
#1242=LINE('',#1239,#1241);
#1243=EDGE_CURVE('',#1157,#1073,#1242,.T.);
#1244=ORIENTED_EDGE('',*,*,#1243,.T.);
#1245=ORIENTED_EDGE('',*,*,#1079,.F.);
#1246=CARTESIAN_POINT('',(-1.65,0.915,2.03));
#1247=DIRECTION('',(0.0,-1.0,0.0));
#1248=VECTOR('',#1247,1.83);
#1249=LINE('',#1246,#1248);
#1250=EDGE_CURVE('',#1071,#1019,#1249,.T.);
#1251=ORIENTED_EDGE('',*,*,#1250,.T.);
#1252=EDGE_LOOP('',(#1234,#1235,#1236,#1237,#1238,#1244,#1245,#1251));
#1253=FACE_OUTER_BOUND('',#1252,.T.);
#1254=ADVANCED_FACE('',(#1253),#1233,.T.);
#1255=CARTESIAN_POINT('',(-2.285,1.015,0.0));
#1256=DIRECTION('',(0.0,1.0,0.0));
#1257=DIRECTION('',(0.0,0.0,1.0));
#1258=AXIS2_PLACEMENT_3D('',#1255,#1256,#1257);
#1259=PLANE('',#1258);
#1260=ORIENTED_EDGE('',*,*,#1085,.F.);
#1261=ORIENTED_EDGE('',*,*,#1243,.F.);
#1262=ORIENTED_EDGE('',*,*,#1178,.F.);
#1263=ORIENTED_EDGE('',*,*,#1053,.F.);
#1264=EDGE_LOOP('',(#1260,#1261,#1262,#1263));
#1265=FACE_OUTER_BOUND('',#1264,.T.);
#1266=ADVANCED_FACE('',(#1265),#1259,.T.);
#1267=CARTESIAN_POINT('',(-1.9675,0.0,2.03));
#1268=DIRECTION('',(0.0,0.0,1.0));
#1269=DIRECTION('',(1.0,0.0,0.0));
#1270=AXIS2_PLACEMENT_3D('',#1267,#1268,#1269);
#1271=PLANE('',#1270);
#1272=ORIENTED_EDGE('',*,*,#1031,.F.);
#1273=ORIENTED_EDGE('',*,*,#1250,.F.);
#1274=ORIENTED_EDGE('',*,*,#1092,.F.);
#1275=ORIENTED_EDGE('',*,*,#984,.F.);
#1276=EDGE_LOOP('',(#1272,#1273,#1274,#1275));
#1277=FACE_OUTER_BOUND('',#1276,.T.);
#1278=ADVANCED_FACE('',(#1277),#1271,.T.);
#1279=CLOSED_SHELL('',(#861,#896,#931,#966,#988,#1010,#1042,#1064,#1096,#1128,#1150,#1182,#1199,#1216,#1228,#1254,#1266,#1278));
#1280=MANIFOLD_SOLID_BREP('2BAD',#1279);
#1281=STYLED_ITEM('NONE',(#525),#1280);
#1282=ADVANCED_BREP_SHAPE_REPRESENTATION('ABSR1',(#518,#818,#1280),#28);
#1283=SHAPE_REPRESENTATION_RELATIONSHIP('SRRPL1','',#1282,#62);
ENDSEC;
END-ISO-10303-21;
