ISO-10303-21;
HEADER;
/****************************************************************
 * Generated by software with PDElib inside                    *
 * PDElib Version v51a, created Fri 09/10/2010                  *
 * ITI Transcendata (http://www.transcendata.com/)              *
 ****************************************************************/
FILE_DESCRIPTION((''),'2;1');
FILE_NAME('CAPMP7362X380N.stp','2012-01-11T15:41:49',(''),(''),'Mechanical Desktop 2011','Mechanical Desktop 2011',', , ');
FILE_SCHEMA(('AUTOMOTIVE_DESIGN { 1 2 10303 214 1 1 1 1 }'));
ENDSEC;
DATA;
#10=(NAMED_UNIT(*)PLANE_ANGLE_UNIT()SI_UNIT($,.RADIAN.));
#11=DIMENSIONAL_EXPONENTS(0.0,0.0,0.0,0.0,0.0,0.0,0.0);
#12=PLANE_ANGLE_MEASURE_WITH_UNIT(PLANE_ANGLE_MEASURE(0.0174532925),#10);
#16=(CONVERSION_BASED_UNIT('DEGREE',#12)NAMED_UNIT(#11)PLANE_ANGLE_UNIT());
#20=(NAMED_UNIT(*)SI_UNIT($,.STERADIAN.)SOLID_ANGLE_UNIT());
#24=(LENGTH_UNIT()NAMED_UNIT(*)SI_UNIT(.MILLI.,.METRE.));
#26=UNCERTAINTY_MEASURE_WITH_UNIT(LENGTH_MEASURE(0.000001),#24,'DISTANCE_ACCURACY_VALUE','');
#28=(GEOMETRIC_REPRESENTATION_CONTEXT(3)GLOBAL_UNCERTAINTY_ASSIGNED_CONTEXT((#26))GLOBAL_UNIT_ASSIGNED_CONTEXT((#16,#20,#24))REPRESENTATION_CONTEXT('','3D'));
#29=APPLICATION_CONTEXT('automotive design');
#30=APPLICATION_PROTOCOL_DEFINITION('INTERNATIONAL_STANDARD','automotive_design',1998,#29);
#31=PRODUCT_CONTEXT('3D Mechanical Parts',#29,'mechanical');
#32=PRODUCT('Product','Product','',(#31));
#33=PRODUCT_RELATED_PRODUCT_CATEGORY('part',$,(#32));
#34=PRODUCT_CATEGORY('part',$);
#35=PERSON('1','Design','Joe',$,$,$);
#36=ORGANIZATION($,'None','None');
#37=PERSON_AND_ORGANIZATION(#35,#36);
#38=PERSON_AND_ORGANIZATION_ROLE('design_owner');
#39=APPLIED_PERSON_AND_ORGANIZATION_ASSIGNMENT(#37,#38,(#32));
#40=PRODUCT_DEFINITION_FORMATION_WITH_SPECIFIED_SOURCE('None','',#32,.BOUGHT.);
#41=PERSON('2','Creator','Joe',$,$,$);
#42=ORGANIZATION($,'None','None');
#43=PERSON_AND_ORGANIZATION(#41,#42);
#44=PERSON_AND_ORGANIZATION_ROLE('creator');
#45=APPLIED_PERSON_AND_ORGANIZATION_ASSIGNMENT(#43,#44,(#40));
#46=PERSON('3','Supplier','Joe',$,$,$);
#47=ORGANIZATION($,'None','None');
#48=PERSON_AND_ORGANIZATION(#46,#47);
#49=PERSON_AND_ORGANIZATION_ROLE('design_supplier');
#50=APPLIED_PERSON_AND_ORGANIZATION_ASSIGNMENT(#48,#49,(#40));
#51=PRODUCT_DEFINITION_CONTEXT('part definition',#29,'design');
#52=PRODUCT_DEFINITION('None','',#40,#51);
#53=PERSON('4','Creator','Joe',$,$,$);
#54=ORGANIZATION($,'None','None');
#55=PERSON_AND_ORGANIZATION(#53,#54);
#56=PERSON_AND_ORGANIZATION_ROLE('creator');
#57=APPLIED_PERSON_AND_ORGANIZATION_ASSIGNMENT(#55,#56,(#52));
#58=CARTESIAN_POINT('NONE',(0.0,0.0,0.0));
#59=DIRECTION('NONE',(0.0,0.0,1.0));
#60=DIRECTION('NONE',(1.0,0.0,0.0));
#61=AXIS2_PLACEMENT_3D('NONE',#58,#59,#60);
#62=SHAPE_REPRESENTATION('SR1',(#61),#28);
#63=PRODUCT_DEFINITION_SHAPE('PDS1','Test Part',#52);
#64=SHAPE_DEFINITION_REPRESENTATION(#63,#62);
#65=CARTESIAN_POINT('',(-2.849999999999999,-3.050000000000002,3.8));
#66=DIRECTION('',(0.0,-1.0,0.0));
#67=DIRECTION('',(0.0,0.0,-1.0));
#68=AXIS2_PLACEMENT_3D('',#65,#66,#67);
#69=PLANE('',#68);
#70=CARTESIAN_POINT('',(-2.849999999999999,-3.050000000000002,3.699999999999999));
#71=VERTEX_POINT('',#70);
#72=CARTESIAN_POINT('',(-2.049999999999999,-3.050000000000002,3.699999999999999));
#73=VERTEX_POINT('',#72);
#74=CARTESIAN_POINT('',(-2.849999999999999,-3.050000000000002,3.7));
#75=DIRECTION('',(1.0,0.0,0.0));
#76=VECTOR('',#75,0.8);
#77=LINE('',#74,#76);
#78=EDGE_CURVE('',#71,#73,#77,.T.);
#79=ORIENTED_EDGE('',*,*,#78,.T.);
#80=CARTESIAN_POINT('',(-2.049999999999999,-3.050000000000002,3.8));
#81=VERTEX_POINT('',#80);
#82=CARTESIAN_POINT('',(-2.049999999999999,-3.050000000000002,3.8));
#83=DIRECTION('',(0.0,0.0,-1.0));
#84=VECTOR('',#83,0.100000000000001);
#85=LINE('',#82,#84);
#86=EDGE_CURVE('',#81,#73,#85,.T.);
#87=ORIENTED_EDGE('',*,*,#86,.F.);
#88=CARTESIAN_POINT('',(-2.849999999999999,-3.050000000000002,3.8));
#89=VERTEX_POINT('',#88);
#90=CARTESIAN_POINT('',(-2.049999999999999,-3.050000000000002,3.8));
#91=DIRECTION('',(-1.0,0.0,0.0));
#92=VECTOR('',#91,0.8);
#93=LINE('',#90,#92);
#94=EDGE_CURVE('',#81,#89,#93,.T.);
#95=ORIENTED_EDGE('',*,*,#94,.T.);
#96=CARTESIAN_POINT('',(-2.849999999999999,-3.050000000000002,3.8));
#97=DIRECTION('',(0.0,0.0,-1.0));
#98=VECTOR('',#97,0.100000000000001);
#99=LINE('',#96,#98);
#100=EDGE_CURVE('',#89,#71,#99,.T.);
#101=ORIENTED_EDGE('',*,*,#100,.T.);
#102=EDGE_LOOP('',(#79,#87,#95,#101));
#103=FACE_OUTER_BOUND('',#102,.T.);
#104=ADVANCED_FACE('',(#103),#69,.T.);
#105=CARTESIAN_POINT('',(-2.049999999999999,-3.050000000000002,3.8));
#106=DIRECTION('',(1.0,0.0,0.0));
#107=DIRECTION('',(0.0,0.0,-1.0));
#108=AXIS2_PLACEMENT_3D('',#105,#106,#107);
#109=PLANE('',#108);
#110=CARTESIAN_POINT('',(-2.05,3.049999999999999,3.699999999999999));
#111=VERTEX_POINT('',#110);
#112=CARTESIAN_POINT('',(-2.049999999999999,-3.050000000000002,3.7));
#113=DIRECTION('',(0.0,1.0,0.0));
#114=VECTOR('',#113,6.100000000000001);
#115=LINE('',#112,#114);
#116=EDGE_CURVE('',#73,#111,#115,.T.);
#117=ORIENTED_EDGE('',*,*,#116,.T.);
#118=CARTESIAN_POINT('',(-2.05,3.049999999999999,3.8));
#119=VERTEX_POINT('',#118);
#120=CARTESIAN_POINT('',(-2.05,3.049999999999999,3.8));
#121=DIRECTION('',(0.0,0.0,-1.0));
#122=VECTOR('',#121,0.100000000000001);
#123=LINE('',#120,#122);
#124=EDGE_CURVE('',#119,#111,#123,.T.);
#125=ORIENTED_EDGE('',*,*,#124,.F.);
#126=CARTESIAN_POINT('',(-2.05,3.049999999999999,3.8));
#127=DIRECTION('',(0.0,-1.0,0.0));
#128=VECTOR('',#127,6.100000000000001);
#129=LINE('',#126,#128);
#130=EDGE_CURVE('',#119,#81,#129,.T.);
#131=ORIENTED_EDGE('',*,*,#130,.T.);
#132=ORIENTED_EDGE('',*,*,#86,.T.);
#133=EDGE_LOOP('',(#117,#125,#131,#132));
#134=FACE_OUTER_BOUND('',#133,.T.);
#135=ADVANCED_FACE('',(#134),#109,.T.);
#136=CARTESIAN_POINT('',(-2.05,3.049999999999999,3.8));
#137=DIRECTION('',(0.0,1.0,0.0));
#138=DIRECTION('',(0.0,0.0,1.0));
#139=AXIS2_PLACEMENT_3D('',#136,#137,#138);
#140=PLANE('',#139);
#141=CARTESIAN_POINT('',(-2.85,3.049999999999999,3.699999999999999));
#142=VERTEX_POINT('',#141);
#143=CARTESIAN_POINT('',(-2.05,3.049999999999999,3.7));
#144=DIRECTION('',(-1.0,0.0,0.0));
#145=VECTOR('',#144,0.8);
#146=LINE('',#143,#145);
#147=EDGE_CURVE('',#111,#142,#146,.T.);
#148=ORIENTED_EDGE('',*,*,#147,.T.);
#149=CARTESIAN_POINT('',(-2.85,3.049999999999999,3.8));
#150=VERTEX_POINT('',#149);
#151=CARTESIAN_POINT('',(-2.85,3.049999999999999,3.8));
#152=DIRECTION('',(0.0,0.0,-1.0));
#153=VECTOR('',#152,0.100000000000001);
#154=LINE('',#151,#153);
#155=EDGE_CURVE('',#150,#142,#154,.T.);
#156=ORIENTED_EDGE('',*,*,#155,.F.);
#157=CARTESIAN_POINT('',(-2.85,3.049999999999999,3.8));
#158=DIRECTION('',(1.0,0.0,0.0));
#159=VECTOR('',#158,0.8);
#160=LINE('',#157,#159);
#161=EDGE_CURVE('',#150,#119,#160,.T.);
#162=ORIENTED_EDGE('',*,*,#161,.T.);
#163=ORIENTED_EDGE('',*,*,#124,.T.);
#164=EDGE_LOOP('',(#148,#156,#162,#163));
#165=FACE_OUTER_BOUND('',#164,.T.);
#166=ADVANCED_FACE('',(#165),#140,.T.);
#167=CARTESIAN_POINT('',(-2.85,3.049999999999999,3.8));
#168=DIRECTION('',(-1.0,0.0,0.0));
#169=DIRECTION('',(0.0,0.0,1.0));
#170=AXIS2_PLACEMENT_3D('',#167,#168,#169);
#171=PLANE('',#170);
#172=CARTESIAN_POINT('',(-2.85,3.049999999999999,3.7));
#173=DIRECTION('',(0.0,-1.0,0.0));
#174=VECTOR('',#173,6.100000000000001);
#175=LINE('',#172,#174);
#176=EDGE_CURVE('',#142,#71,#175,.T.);
#177=ORIENTED_EDGE('',*,*,#176,.T.);
#178=ORIENTED_EDGE('',*,*,#100,.F.);
#179=CARTESIAN_POINT('',(-2.849999999999999,-3.050000000000002,3.8));
#180=DIRECTION('',(0.0,1.0,0.0));
#181=VECTOR('',#180,6.100000000000001);
#182=LINE('',#179,#181);
#183=EDGE_CURVE('',#89,#150,#182,.T.);
#184=ORIENTED_EDGE('',*,*,#183,.T.);
#185=ORIENTED_EDGE('',*,*,#155,.T.);
#186=EDGE_LOOP('',(#177,#178,#184,#185));
#187=FACE_OUTER_BOUND('',#186,.T.);
#188=ADVANCED_FACE('',(#187),#171,.T.);
#189=CARTESIAN_POINT('',(-2.449999999999999,-1.332268E-015,3.699999999999999));
#190=DIRECTION('',(0.0,0.0,1.0));
#191=DIRECTION('',(1.0,0.0,0.0));
#192=AXIS2_PLACEMENT_3D('',#189,#190,#191);
#193=PLANE('',#192);
#194=ORIENTED_EDGE('',*,*,#78,.F.);
#195=ORIENTED_EDGE('',*,*,#176,.F.);
#196=ORIENTED_EDGE('',*,*,#147,.F.);
#197=ORIENTED_EDGE('',*,*,#116,.F.);
#198=EDGE_LOOP('',(#194,#195,#196,#197));
#199=FACE_OUTER_BOUND('',#198,.T.);
#200=ADVANCED_FACE('',(#199),#193,.F.);
#201=CARTESIAN_POINT('',(-2.449999999999999,-1.332268E-015,3.799999999999999));
#202=DIRECTION('',(0.0,0.0,1.0));
#203=DIRECTION('',(1.0,0.0,0.0));
#204=AXIS2_PLACEMENT_3D('',#201,#202,#203);
#205=PLANE('',#204);
#206=ORIENTED_EDGE('',*,*,#183,.F.);
#207=ORIENTED_EDGE('',*,*,#94,.F.);
#208=ORIENTED_EDGE('',*,*,#130,.F.);
#209=ORIENTED_EDGE('',*,*,#161,.F.);
#210=EDGE_LOOP('',(#206,#207,#208,#209));
#211=FACE_OUTER_BOUND('',#210,.T.);
#212=ADVANCED_FACE('',(#211),#205,.T.);
#213=CLOSED_SHELL('',(#104,#135,#166,#188,#200,#212));
#214=MANIFOLD_SOLID_BREP('577',#213);
#215=COLOUR_RGB('254',0.866,0.866,0.866);
#216=SURFACE_STYLE_USAGE(.BOTH.,#217);
#217=SURFACE_SIDE_STYLE('NONE',(#218));
#218=SURFACE_STYLE_FILL_AREA(#219);
#219=FILL_AREA_STYLE('NONE',(#220));
#220=FILL_AREA_STYLE_COLOUR('NONE',#215);
#221=PRESENTATION_STYLE_ASSIGNMENT((#216));
#222=STYLED_ITEM('NONE',(#221),#214);
#223=MECHANICAL_DESIGN_GEOMETRIC_PRESENTATION_REPRESENTATION('NONE',(#222,#382,#533,#684,#835,#1155,#1306),#28);
#224=PRESENTATION_LAYER_ASSIGNMENT('3D','None',(#214,#374,#532,#683,#834,#1147,#1305));
#225=CARTESIAN_POINT('',(3.649999999999998,1.649999999999999,2.575717E-015));
#226=CARTESIAN_POINT('',(3.649999999999997,1.65,1.100000000000003));
#227=CARTESIAN_POINT('',(3.75,1.649999999999999,2.664535E-015));
#228=CARTESIAN_POINT('',(3.75,1.65,1.100000000000003));
#229=B_SPLINE_SURFACE_WITH_KNOTS('',1,1,((#225,#227),(#226,#228)),.UNSPECIFIED.,.F.,.F.,.U.,(2,2),(2,2),(0.0,1.1),(0.0,0.100000000000002),.UNSPECIFIED.);
#230=CARTESIAN_POINT('',(3.649999999999998,1.65,1.100000000000003));
#231=VERTEX_POINT('',#230);
#232=CARTESIAN_POINT('',(3.649999999999999,1.649999999999999,2.797762E-015));
#233=VERTEX_POINT('',#232);
#234=CARTESIAN_POINT('',(3.649999999999999,1.65,1.100000000000003));
#235=DIRECTION('',(0.0,0.0,-1.0));
#236=VECTOR('',#235,1.1);
#237=LINE('',#234,#236);
#238=EDGE_CURVE('',#231,#233,#237,.T.);
#239=ORIENTED_EDGE('',*,*,#238,.F.);
#240=CARTESIAN_POINT('',(3.749999999999999,1.65,1.100000000000003));
#241=VERTEX_POINT('',#240);
#242=CARTESIAN_POINT('',(3.749999999999999,1.65,1.100000000000003));
#243=DIRECTION('',(-1.0,0.0,0.0));
#244=VECTOR('',#243,0.100000000000001);
#245=LINE('',#242,#244);
#246=EDGE_CURVE('',#241,#231,#245,.T.);
#247=ORIENTED_EDGE('',*,*,#246,.F.);
#248=CARTESIAN_POINT('',(3.75,1.649999999999999,2.886580E-015));
#249=VERTEX_POINT('',#248);
#250=CARTESIAN_POINT('',(3.749999999999999,1.65,1.100000000000003));
#251=DIRECTION('',(0.0,0.0,-1.0));
#252=VECTOR('',#251,1.1);
#253=LINE('',#250,#252);
#254=EDGE_CURVE('',#241,#249,#253,.T.);
#255=ORIENTED_EDGE('',*,*,#254,.T.);
#256=CARTESIAN_POINT('',(3.75,1.649999999999999,2.886580E-015));
#257=DIRECTION('',(-1.0,0.0,0.0));
#258=VECTOR('',#257,0.100000000000001);
#259=LINE('',#256,#258);
#260=EDGE_CURVE('',#249,#233,#259,.T.);
#261=ORIENTED_EDGE('',*,*,#260,.T.);
#262=EDGE_LOOP('',(#239,#247,#255,#261));
#263=FACE_OUTER_BOUND('',#262,.T.);
#264=ADVANCED_FACE('',(#263),#229,.T.);
#265=CARTESIAN_POINT('',(3.649999999999999,1.649999999999999,2.797762E-015));
#266=CARTESIAN_POINT('',(3.75,1.649999999999999,2.886580E-015));
#267=CARTESIAN_POINT('',(3.649999999999999,-1.650000000000001,3.463896E-015));
#268=CARTESIAN_POINT('',(3.75,-1.650000000000001,3.552714E-015));
#269=B_SPLINE_SURFACE_WITH_KNOTS('',1,1,((#265,#267),(#266,#268)),.UNSPECIFIED.,.F.,.F.,.U.,(2,2),(2,2),(0.0,0.100000000000001),(0.0,3.3),.UNSPECIFIED.);
#270=CARTESIAN_POINT('',(3.65,-1.650000000000001,3.463896E-015));
#271=VERTEX_POINT('',#270);
#272=CARTESIAN_POINT('',(3.65,1.649999999999999,2.797762E-015));
#273=DIRECTION('',(0.0,-1.0,0.0));
#274=VECTOR('',#273,3.3);
#275=LINE('',#272,#274);
#276=EDGE_CURVE('',#233,#271,#275,.T.);
#277=ORIENTED_EDGE('',*,*,#276,.F.);
#278=ORIENTED_EDGE('',*,*,#260,.F.);
#279=CARTESIAN_POINT('',(3.75,-1.650000000000001,3.552714E-015));
#280=VERTEX_POINT('',#279);
#281=CARTESIAN_POINT('',(3.75,1.649999999999999,2.886580E-015));
#282=DIRECTION('',(0.0,-1.0,0.0));
#283=VECTOR('',#282,3.3);
#284=LINE('',#281,#283);
#285=EDGE_CURVE('',#249,#280,#284,.T.);
#286=ORIENTED_EDGE('',*,*,#285,.T.);
#287=CARTESIAN_POINT('',(3.75,-1.650000000000001,3.552714E-015));
#288=DIRECTION('',(-1.0,0.0,0.0));
#289=VECTOR('',#288,0.100000000000001);
#290=LINE('',#287,#289);
#291=EDGE_CURVE('',#280,#271,#290,.T.);
#292=ORIENTED_EDGE('',*,*,#291,.T.);
#293=EDGE_LOOP('',(#277,#278,#286,#292));
#294=FACE_OUTER_BOUND('',#293,.T.);
#295=ADVANCED_FACE('',(#294),#269,.T.);
#296=CARTESIAN_POINT('',(3.649999999999998,-1.650000000000001,1.100000000000004));
#297=CARTESIAN_POINT('',(3.649999999999999,-1.650000000000001,3.552714E-015));
#298=CARTESIAN_POINT('',(3.75,-1.650000000000001,1.100000000000004));
#299=CARTESIAN_POINT('',(3.750000000000001,-1.650000000000001,3.552714E-015));
#300=B_SPLINE_SURFACE_WITH_KNOTS('',1,1,((#296,#298),(#297,#299)),.UNSPECIFIED.,.F.,.F.,.U.,(2,2),(2,2),(0.0,1.1),(0.0,0.100000000000002),.UNSPECIFIED.);
#301=CARTESIAN_POINT('',(3.649999999999999,-1.650000000000001,1.100000000000004));
#302=VERTEX_POINT('',#301);
#303=CARTESIAN_POINT('',(3.65,-1.650000000000001,3.463896E-015));
#304=DIRECTION('',(0.0,0.0,1.0));
#305=VECTOR('',#304,1.1);
#306=LINE('',#303,#305);
#307=EDGE_CURVE('',#271,#302,#306,.T.);
#308=ORIENTED_EDGE('',*,*,#307,.F.);
#309=ORIENTED_EDGE('',*,*,#291,.F.);
#310=CARTESIAN_POINT('',(3.75,-1.650000000000001,1.100000000000004));
#311=VERTEX_POINT('',#310);
#312=CARTESIAN_POINT('',(3.75,-1.650000000000001,3.552714E-015));
#313=DIRECTION('',(0.0,0.0,1.0));
#314=VECTOR('',#313,1.1);
#315=LINE('',#312,#314);
#316=EDGE_CURVE('',#280,#311,#315,.T.);
#317=ORIENTED_EDGE('',*,*,#316,.T.);
#318=CARTESIAN_POINT('',(3.75,-1.650000000000001,1.100000000000004));
#319=DIRECTION('',(-1.0,0.0,0.0));
#320=VECTOR('',#319,0.100000000000001);
#321=LINE('',#318,#320);
#322=EDGE_CURVE('',#311,#302,#321,.T.);
#323=ORIENTED_EDGE('',*,*,#322,.T.);
#324=EDGE_LOOP('',(#308,#309,#317,#323));
#325=FACE_OUTER_BOUND('',#324,.T.);
#326=ADVANCED_FACE('',(#325),#300,.T.);
#327=CARTESIAN_POINT('',(3.75,1.649999999999999,1.100000000000003));
#328=CARTESIAN_POINT('',(3.649999999999998,1.649999999999999,1.100000000000003));
#329=CARTESIAN_POINT('',(3.75,-1.650000000000001,1.100000000000004));
#330=CARTESIAN_POINT('',(3.649999999999998,-1.650000000000001,1.100000000000003));
#331=B_SPLINE_SURFACE_WITH_KNOTS('',1,1,((#327,#329),(#328,#330)),.UNSPECIFIED.,.F.,.F.,.U.,(2,2),(2,2),(0.0,0.100000000000001),(0.0,3.3),.UNSPECIFIED.);
#332=CARTESIAN_POINT('',(3.65,-1.650000000000001,1.100000000000004));
#333=DIRECTION('',(0.0,1.0,0.0));
#334=VECTOR('',#333,3.3);
#335=LINE('',#332,#334);
#336=EDGE_CURVE('',#302,#231,#335,.T.);
#337=ORIENTED_EDGE('',*,*,#336,.F.);
#338=ORIENTED_EDGE('',*,*,#322,.F.);
#339=CARTESIAN_POINT('',(3.75,-1.650000000000001,1.100000000000004));
#340=DIRECTION('',(0.0,1.0,0.0));
#341=VECTOR('',#340,3.3);
#342=LINE('',#339,#341);
#343=EDGE_CURVE('',#311,#241,#342,.T.);
#344=ORIENTED_EDGE('',*,*,#343,.T.);
#345=ORIENTED_EDGE('',*,*,#246,.T.);
#346=EDGE_LOOP('',(#337,#338,#344,#345));
#347=FACE_OUTER_BOUND('',#346,.T.);
#348=ADVANCED_FACE('',(#347),#331,.T.);
#349=CARTESIAN_POINT('',(3.649999999999998,1.65,1.100000000000004));
#350=CARTESIAN_POINT('',(3.649999999999999,1.65,2.886580E-015));
#351=CARTESIAN_POINT('',(3.649999999999999,-1.650000000000001,1.100000000000004));
#352=CARTESIAN_POINT('',(3.65,-1.650000000000001,2.886580E-015));
#353=B_SPLINE_SURFACE_WITH_KNOTS('',1,1,((#349,#351),(#350,#352)),.UNSPECIFIED.,.F.,.F.,.U.,(2,2),(2,2),(0.0,1.100000000000001),(0.0,3.3),.UNSPECIFIED.);
#354=ORIENTED_EDGE('',*,*,#238,.T.);
#355=ORIENTED_EDGE('',*,*,#276,.T.);
#356=ORIENTED_EDGE('',*,*,#307,.T.);
#357=ORIENTED_EDGE('',*,*,#336,.T.);
#358=EDGE_LOOP('',(#354,#355,#356,#357));
#359=FACE_OUTER_BOUND('',#358,.T.);
#360=ADVANCED_FACE('',(#359),#353,.T.);
#361=CARTESIAN_POINT('',(3.749999999999998,1.65,1.100000000000004));
#362=CARTESIAN_POINT('',(3.749999999999999,1.65,2.886580E-015));
#363=CARTESIAN_POINT('',(3.749999999999999,-1.650000000000001,1.100000000000004));
#364=CARTESIAN_POINT('',(3.75,-1.650000000000001,2.886580E-015));
#365=B_SPLINE_SURFACE_WITH_KNOTS('',1,1,((#361,#363),(#362,#364)),.UNSPECIFIED.,.F.,.F.,.U.,(2,2),(2,2),(0.0,1.100000000000001),(0.0,3.3),.UNSPECIFIED.);
#366=ORIENTED_EDGE('',*,*,#343,.F.);
#367=ORIENTED_EDGE('',*,*,#316,.F.);
#368=ORIENTED_EDGE('',*,*,#285,.F.);
#369=ORIENTED_EDGE('',*,*,#254,.F.);
#370=EDGE_LOOP('',(#366,#367,#368,#369));
#371=FACE_OUTER_BOUND('',#370,.T.);
#372=ADVANCED_FACE('',(#371),#365,.F.);
#373=CLOSED_SHELL('',(#264,#295,#326,#348,#360,#372));
#374=MANIFOLD_SOLID_BREP('513',#373);
#375=COLOUR_RGB('253',0.732,0.732,0.732);
#376=SURFACE_STYLE_USAGE(.BOTH.,#377);
#377=SURFACE_SIDE_STYLE('NONE',(#378));
#378=SURFACE_STYLE_FILL_AREA(#379);
#379=FILL_AREA_STYLE('NONE',(#380));
#380=FILL_AREA_STYLE_COLOUR('NONE',#375);
#381=PRESENTATION_STYLE_ASSIGNMENT((#376));
#382=STYLED_ITEM('NONE',(#381),#374);
#383=CARTESIAN_POINT('',(3.75,1.649999999999999,2.131628E-015));
#384=CARTESIAN_POINT('',(3.75,1.649999999999999,0.100000000000003));
#385=CARTESIAN_POINT('',(3.75,-1.650000000000001,2.131628E-015));
#386=CARTESIAN_POINT('',(3.75,-1.650000000000001,0.100000000000003));
#387=B_SPLINE_SURFACE_WITH_KNOTS('',1,1,((#383,#385),(#384,#386)),.UNSPECIFIED.,.F.,.F.,.U.,(2,2),(2,2),(0.0,0.100000000000001),(0.0,3.3),.UNSPECIFIED.);
#388=CARTESIAN_POINT('',(3.75,-1.650000000000001,0.100000000000003));
#389=VERTEX_POINT('',#388);
#390=CARTESIAN_POINT('',(3.75,1.649999999999999,0.100000000000002));
#391=VERTEX_POINT('',#390);
#392=CARTESIAN_POINT('',(3.75,-1.650000000000001,0.100000000000003));
#393=DIRECTION('',(0.0,1.0,0.0));
#394=VECTOR('',#393,3.3);
#395=LINE('',#392,#394);
#396=EDGE_CURVE('',#389,#391,#395,.T.);
#397=ORIENTED_EDGE('',*,*,#396,.F.);
#398=CARTESIAN_POINT('',(3.75,-1.650000000000001,2.864375E-015));
#399=VERTEX_POINT('',#398);
#400=CARTESIAN_POINT('',(3.75,-1.650000000000001,2.864375E-015));
#401=DIRECTION('',(0.0,0.0,1.0));
#402=VECTOR('',#401,0.1);
#403=LINE('',#400,#402);
#404=EDGE_CURVE('',#399,#389,#403,.T.);
#405=ORIENTED_EDGE('',*,*,#404,.F.);
#406=CARTESIAN_POINT('',(3.75,1.649999999999999,2.131628E-015));
#407=VERTEX_POINT('',#406);
#408=CARTESIAN_POINT('',(3.75,-1.650000000000001,2.864375E-015));
#409=DIRECTION('',(0.0,1.0,0.0));
#410=VECTOR('',#409,3.3);
#411=LINE('',#408,#410);
#412=EDGE_CURVE('',#399,#407,#411,.T.);
#413=ORIENTED_EDGE('',*,*,#412,.T.);
#414=CARTESIAN_POINT('',(3.75,1.649999999999999,2.131628E-015));
#415=DIRECTION('',(0.0,0.0,1.0));
#416=VECTOR('',#415,0.1);
#417=LINE('',#414,#416);
#418=EDGE_CURVE('',#407,#391,#417,.T.);
#419=ORIENTED_EDGE('',*,*,#418,.T.);
#420=EDGE_LOOP('',(#397,#405,#413,#419));
#421=FACE_OUTER_BOUND('',#420,.T.);
#422=ADVANCED_FACE('',(#421),#387,.T.);
#423=CARTESIAN_POINT('',(2.05,1.649999999999999,-5.107026E-016));
#424=CARTESIAN_POINT('',(2.05,1.649999999999999,0.100000000000002));
#425=CARTESIAN_POINT('',(3.75,1.649999999999999,9.992007E-016));
#426=CARTESIAN_POINT('',(3.749999999999999,1.649999999999999,0.100000000000004));
#427=B_SPLINE_SURFACE_WITH_KNOTS('',1,1,((#423,#425),(#424,#426)),.UNSPECIFIED.,.F.,.F.,.U.,(2,2),(2,2),(0.0,0.100000000000003),(0.0,1.7),.UNSPECIFIED.);
#428=CARTESIAN_POINT('',(2.05,1.649999999999999,0.100000000000001));
#429=VERTEX_POINT('',#428);
#430=CARTESIAN_POINT('',(3.75,1.649999999999999,0.100000000000002));
#431=DIRECTION('',(-1.0,0.0,0.0));
#432=VECTOR('',#431,1.7);
#433=LINE('',#430,#432);
#434=EDGE_CURVE('',#391,#429,#433,.T.);
#435=ORIENTED_EDGE('',*,*,#434,.F.);
#436=ORIENTED_EDGE('',*,*,#418,.F.);
#437=CARTESIAN_POINT('',(2.05,1.649999999999999,9.992007E-016));
#438=VERTEX_POINT('',#437);
#439=CARTESIAN_POINT('',(3.75,1.649999999999999,2.131628E-015));
#440=DIRECTION('',(-1.0,0.0,0.0));
#441=VECTOR('',#440,1.7);
#442=LINE('',#439,#441);
#443=EDGE_CURVE('',#407,#438,#442,.T.);
#444=ORIENTED_EDGE('',*,*,#443,.T.);
#445=CARTESIAN_POINT('',(2.05,1.649999999999999,9.992007E-016));
#446=DIRECTION('',(0.0,0.0,1.0));
#447=VECTOR('',#446,0.1);
#448=LINE('',#445,#447);
#449=EDGE_CURVE('',#438,#429,#448,.T.);
#450=ORIENTED_EDGE('',*,*,#449,.T.);
#451=EDGE_LOOP('',(#435,#436,#444,#450));
#452=FACE_OUTER_BOUND('',#451,.T.);
#453=ADVANCED_FACE('',(#452),#427,.T.);
#454=CARTESIAN_POINT('',(2.05,1.649999999999999,0.100000000000002));
#455=CARTESIAN_POINT('',(2.05,1.649999999999999,9.992007E-016));
#456=CARTESIAN_POINT('',(2.050000000000001,-1.650000000000001,0.100000000000002));
#457=CARTESIAN_POINT('',(2.050000000000001,-1.650000000000001,9.992007E-016));
#458=B_SPLINE_SURFACE_WITH_KNOTS('',1,1,((#454,#456),(#455,#457)),.UNSPECIFIED.,.F.,.F.,.U.,(2,2),(2,2),(0.0,0.100000000000001),(0.0,3.3),.UNSPECIFIED.);
#459=CARTESIAN_POINT('',(2.050000000000001,-1.650000000000001,0.100000000000002));
#460=VERTEX_POINT('',#459);
#461=CARTESIAN_POINT('',(2.05,1.649999999999999,0.100000000000001));
#462=DIRECTION('',(0.0,-1.0,0.0));
#463=VECTOR('',#462,3.3);
#464=LINE('',#461,#463);
#465=EDGE_CURVE('',#429,#460,#464,.T.);
#466=ORIENTED_EDGE('',*,*,#465,.F.);
#467=ORIENTED_EDGE('',*,*,#449,.F.);
#468=CARTESIAN_POINT('',(2.050000000000001,-1.650000000000001,1.731948E-015));
#469=VERTEX_POINT('',#468);
#470=CARTESIAN_POINT('',(2.05,1.649999999999999,9.992007E-016));
#471=DIRECTION('',(0.0,-1.0,0.0));
#472=VECTOR('',#471,3.3);
#473=LINE('',#470,#472);
#474=EDGE_CURVE('',#438,#469,#473,.T.);
#475=ORIENTED_EDGE('',*,*,#474,.T.);
#476=CARTESIAN_POINT('',(2.050000000000001,-1.650000000000001,1.731948E-015));
#477=DIRECTION('',(0.0,0.0,1.0));
#478=VECTOR('',#477,0.1);
#479=LINE('',#476,#478);
#480=EDGE_CURVE('',#469,#460,#479,.T.);
#481=ORIENTED_EDGE('',*,*,#480,.T.);
#482=EDGE_LOOP('',(#466,#467,#475,#481));
#483=FACE_OUTER_BOUND('',#482,.T.);
#484=ADVANCED_FACE('',(#483),#458,.T.);
#485=CARTESIAN_POINT('',(2.050000000000001,-1.650000000000001,0.100000000000003));
#486=CARTESIAN_POINT('',(2.050000000000001,-1.650000000000001,2.220446E-016));
#487=CARTESIAN_POINT('',(3.75,-1.650000000000001,0.100000000000004));
#488=CARTESIAN_POINT('',(3.75,-1.650000000000001,1.734723E-015));
#489=B_SPLINE_SURFACE_WITH_KNOTS('',1,1,((#485,#487),(#486,#488)),.UNSPECIFIED.,.F.,.F.,.U.,(2,2),(2,2),(0.0,0.100000000000003),(0.0,1.7),.UNSPECIFIED.);
#490=CARTESIAN_POINT('',(2.050000000000001,-1.650000000000001,0.100000000000002));
#491=DIRECTION('',(1.0,0.0,0.0));
#492=VECTOR('',#491,1.7);
#493=LINE('',#490,#492);
#494=EDGE_CURVE('',#460,#389,#493,.T.);
#495=ORIENTED_EDGE('',*,*,#494,.F.);
#496=ORIENTED_EDGE('',*,*,#480,.F.);
#497=CARTESIAN_POINT('',(2.050000000000001,-1.650000000000001,1.731948E-015));
#498=DIRECTION('',(1.0,0.0,0.0));
#499=VECTOR('',#498,1.7);
#500=LINE('',#497,#499);
#501=EDGE_CURVE('',#469,#399,#500,.T.);
#502=ORIENTED_EDGE('',*,*,#501,.T.);
#503=ORIENTED_EDGE('',*,*,#404,.T.);
#504=EDGE_LOOP('',(#495,#496,#502,#503));
#505=FACE_OUTER_BOUND('',#504,.T.);
#506=ADVANCED_FACE('',(#505),#489,.T.);
#507=CARTESIAN_POINT('',(3.75,1.65,0.100000000000002));
#508=CARTESIAN_POINT('',(2.05,1.65,0.100000000000001));
#509=CARTESIAN_POINT('',(3.75,-1.650000000000001,0.100000000000003));
#510=CARTESIAN_POINT('',(2.05,-1.650000000000001,0.100000000000002));
#511=B_SPLINE_SURFACE_WITH_KNOTS('',1,1,((#507,#509),(#508,#510)),.UNSPECIFIED.,.F.,.F.,.U.,(2,2),(2,2),(0.0,1.700000000000001),(0.0,3.3),.UNSPECIFIED.);
#512=ORIENTED_EDGE('',*,*,#396,.T.);
#513=ORIENTED_EDGE('',*,*,#434,.T.);
#514=ORIENTED_EDGE('',*,*,#465,.T.);
#515=ORIENTED_EDGE('',*,*,#494,.T.);
#516=EDGE_LOOP('',(#512,#513,#514,#515));
#517=FACE_OUTER_BOUND('',#516,.T.);
#518=ADVANCED_FACE('',(#517),#511,.T.);
#519=CARTESIAN_POINT('',(3.75,1.65,2.131628E-015));
#520=CARTESIAN_POINT('',(2.05,1.65,9.992007E-016));
#521=CARTESIAN_POINT('',(3.75,-1.650000000000001,2.864375E-015));
#522=CARTESIAN_POINT('',(2.05,-1.650000000000001,1.731948E-015));
#523=B_SPLINE_SURFACE_WITH_KNOTS('',1,1,((#519,#521),(#520,#522)),.UNSPECIFIED.,.F.,.F.,.U.,(2,2),(2,2),(0.0,1.700000000000001),(0.0,3.3),.UNSPECIFIED.);
#524=ORIENTED_EDGE('',*,*,#501,.F.);
#525=ORIENTED_EDGE('',*,*,#474,.F.);
#526=ORIENTED_EDGE('',*,*,#443,.F.);
#527=ORIENTED_EDGE('',*,*,#412,.F.);
#528=EDGE_LOOP('',(#524,#525,#526,#527));
#529=FACE_OUTER_BOUND('',#528,.T.);
#530=ADVANCED_FACE('',(#529),#523,.F.);
#531=CLOSED_SHELL('',(#422,#453,#484,#506,#518,#530));
#532=MANIFOLD_SOLID_BREP('512',#531);
#533=STYLED_ITEM('NONE',(#381),#532);
#534=CARTESIAN_POINT('',(-3.75,1.65,1.1));
#535=DIRECTION('',(0.0,1.0,0.0));
#536=DIRECTION('',(0.0,0.0,1.0));
#537=AXIS2_PLACEMENT_3D('',#534,#535,#536);
#538=PLANE('',#537);
#539=CARTESIAN_POINT('',(-3.649999999999999,1.65,1.1));
#540=VERTEX_POINT('',#539);
#541=CARTESIAN_POINT('',(-3.649999999999999,1.649999999999999,-4.440892E-016));
#542=VERTEX_POINT('',#541);
#543=CARTESIAN_POINT('',(-3.65,1.65,1.1));
#544=DIRECTION('',(0.0,0.0,-1.0));
#545=VECTOR('',#544,1.1);
#546=LINE('',#543,#545);
#547=EDGE_CURVE('',#540,#542,#546,.T.);
#548=ORIENTED_EDGE('',*,*,#547,.T.);
#549=CARTESIAN_POINT('',(-3.75,1.649999999999999,-4.440892E-016));
#550=VERTEX_POINT('',#549);
#551=CARTESIAN_POINT('',(-3.75,1.649999999999999,-4.440892E-016));
#552=DIRECTION('',(1.0,0.0,0.0));
#553=VECTOR('',#552,0.100000000000001);
#554=LINE('',#551,#553);
#555=EDGE_CURVE('',#550,#542,#554,.T.);
#556=ORIENTED_EDGE('',*,*,#555,.F.);
#557=CARTESIAN_POINT('',(-3.75,1.65,1.1));
#558=VERTEX_POINT('',#557);
#559=CARTESIAN_POINT('',(-3.75,1.65,1.1));
#560=DIRECTION('',(0.0,0.0,-1.0));
#561=VECTOR('',#560,1.1);
#562=LINE('',#559,#561);
#563=EDGE_CURVE('',#558,#550,#562,.T.);
#564=ORIENTED_EDGE('',*,*,#563,.F.);
#565=CARTESIAN_POINT('',(-3.75,1.65,1.1));
#566=DIRECTION('',(1.0,0.0,0.0));
#567=VECTOR('',#566,0.100000000000001);
#568=LINE('',#565,#567);
#569=EDGE_CURVE('',#558,#540,#568,.T.);
#570=ORIENTED_EDGE('',*,*,#569,.T.);
#571=EDGE_LOOP('',(#548,#556,#564,#570));
#572=FACE_OUTER_BOUND('',#571,.T.);
#573=ADVANCED_FACE('',(#572),#538,.T.);
#574=CARTESIAN_POINT('',(-3.75,1.649999999999999,-4.440892E-016));
#575=DIRECTION('',(0.0,0.0,-1.0));
#576=DIRECTION('',(-1.0,0.0,0.0));
#577=AXIS2_PLACEMENT_3D('',#574,#575,#576);
#578=PLANE('',#577);
#579=CARTESIAN_POINT('',(-3.65,-1.650000000000001,2.220446E-016));
#580=VERTEX_POINT('',#579);
#581=CARTESIAN_POINT('',(-3.65,1.649999999999999,-4.440892E-016));
#582=DIRECTION('',(0.0,-1.0,0.0));
#583=VECTOR('',#582,3.3);
#584=LINE('',#581,#583);
#585=EDGE_CURVE('',#542,#580,#584,.T.);
#586=ORIENTED_EDGE('',*,*,#585,.T.);
#587=CARTESIAN_POINT('',(-3.75,-1.650000000000001,2.220446E-016));
#588=VERTEX_POINT('',#587);
#589=CARTESIAN_POINT('',(-3.75,-1.650000000000001,2.220446E-016));
#590=DIRECTION('',(1.0,0.0,0.0));
#591=VECTOR('',#590,0.100000000000001);
#592=LINE('',#589,#591);
#593=EDGE_CURVE('',#588,#580,#592,.T.);
#594=ORIENTED_EDGE('',*,*,#593,.F.);
#595=CARTESIAN_POINT('',(-3.75,1.649999999999999,-4.440892E-016));
#596=DIRECTION('',(0.0,-1.0,0.0));
#597=VECTOR('',#596,3.3);
#598=LINE('',#595,#597);
#599=EDGE_CURVE('',#550,#588,#598,.T.);
#600=ORIENTED_EDGE('',*,*,#599,.F.);
#601=ORIENTED_EDGE('',*,*,#555,.T.);
#602=EDGE_LOOP('',(#586,#594,#600,#601));
#603=FACE_OUTER_BOUND('',#602,.T.);
#604=ADVANCED_FACE('',(#603),#578,.T.);
#605=CARTESIAN_POINT('',(-3.75,-1.650000000000001,2.220446E-016));
#606=DIRECTION('',(0.0,-1.0,0.0));
#607=DIRECTION('',(0.0,0.0,-1.0));
#608=AXIS2_PLACEMENT_3D('',#605,#606,#607);
#609=PLANE('',#608);
#610=CARTESIAN_POINT('',(-3.65,-1.650000000000001,1.1));
#611=VERTEX_POINT('',#610);
#612=CARTESIAN_POINT('',(-3.65,-1.650000000000001,2.220446E-016));
#613=DIRECTION('',(0.0,0.0,1.0));
#614=VECTOR('',#613,1.1);
#615=LINE('',#612,#614);
#616=EDGE_CURVE('',#580,#611,#615,.T.);
#617=ORIENTED_EDGE('',*,*,#616,.T.);
#618=CARTESIAN_POINT('',(-3.75,-1.650000000000001,1.1));
#619=VERTEX_POINT('',#618);
#620=CARTESIAN_POINT('',(-3.75,-1.650000000000001,1.1));
#621=DIRECTION('',(1.0,0.0,0.0));
#622=VECTOR('',#621,0.100000000000001);
#623=LINE('',#620,#622);
#624=EDGE_CURVE('',#619,#611,#623,.T.);
#625=ORIENTED_EDGE('',*,*,#624,.F.);
#626=CARTESIAN_POINT('',(-3.75,-1.650000000000001,2.220446E-016));
#627=DIRECTION('',(0.0,0.0,1.0));
#628=VECTOR('',#627,1.1);
#629=LINE('',#626,#628);
#630=EDGE_CURVE('',#588,#619,#629,.T.);
#631=ORIENTED_EDGE('',*,*,#630,.F.);
#632=ORIENTED_EDGE('',*,*,#593,.T.);
#633=EDGE_LOOP('',(#617,#625,#631,#632));
#634=FACE_OUTER_BOUND('',#633,.T.);
#635=ADVANCED_FACE('',(#634),#609,.T.);
#636=CARTESIAN_POINT('',(-3.75,-1.650000000000001,1.1));
#637=DIRECTION('',(0.0,0.0,1.0));
#638=DIRECTION('',(1.0,0.0,0.0));
#639=AXIS2_PLACEMENT_3D('',#636,#637,#638);
#640=PLANE('',#639);
#641=CARTESIAN_POINT('',(-3.65,-1.650000000000001,1.1));
#642=DIRECTION('',(0.0,1.0,0.0));
#643=VECTOR('',#642,3.3);
#644=LINE('',#641,#643);
#645=EDGE_CURVE('',#611,#540,#644,.T.);
#646=ORIENTED_EDGE('',*,*,#645,.T.);
#647=ORIENTED_EDGE('',*,*,#569,.F.);
#648=CARTESIAN_POINT('',(-3.75,-1.650000000000001,1.1));
#649=DIRECTION('',(0.0,1.0,0.0));
#650=VECTOR('',#649,3.3);
#651=LINE('',#648,#650);
#652=EDGE_CURVE('',#619,#558,#651,.T.);
#653=ORIENTED_EDGE('',*,*,#652,.F.);
#654=ORIENTED_EDGE('',*,*,#624,.T.);
#655=EDGE_LOOP('',(#646,#647,#653,#654));
#656=FACE_OUTER_BOUND('',#655,.T.);
#657=ADVANCED_FACE('',(#656),#640,.T.);
#658=CARTESIAN_POINT('',(-3.65,-7.216450E-016,0.55));
#659=DIRECTION('',(1.0,0.0,0.0));
#660=DIRECTION('',(0.0,0.0,-1.0));
#661=AXIS2_PLACEMENT_3D('',#658,#659,#660);
#662=PLANE('',#661);
#663=ORIENTED_EDGE('',*,*,#547,.F.);
#664=ORIENTED_EDGE('',*,*,#645,.F.);
#665=ORIENTED_EDGE('',*,*,#616,.F.);
#666=ORIENTED_EDGE('',*,*,#585,.F.);
#667=EDGE_LOOP('',(#663,#664,#665,#666));
#668=FACE_OUTER_BOUND('',#667,.T.);
#669=ADVANCED_FACE('',(#668),#662,.T.);
#670=CARTESIAN_POINT('',(-3.75,-7.216450E-016,0.55));
#671=DIRECTION('',(1.0,0.0,0.0));
#672=DIRECTION('',(0.0,0.0,-1.0));
#673=AXIS2_PLACEMENT_3D('',#670,#671,#672);
#674=PLANE('',#673);
#675=ORIENTED_EDGE('',*,*,#652,.T.);
#676=ORIENTED_EDGE('',*,*,#563,.T.);
#677=ORIENTED_EDGE('',*,*,#599,.T.);
#678=ORIENTED_EDGE('',*,*,#630,.T.);
#679=EDGE_LOOP('',(#675,#676,#677,#678));
#680=FACE_OUTER_BOUND('',#679,.T.);
#681=ADVANCED_FACE('',(#680),#674,.F.);
#682=CLOSED_SHELL('',(#573,#604,#635,#657,#669,#681));
#683=MANIFOLD_SOLID_BREP('510',#682);
#684=STYLED_ITEM('NONE',(#381),#683);
#685=CARTESIAN_POINT('',(-3.75,-1.650000000000001,-4.662937E-016));
#686=DIRECTION('',(-1.0,0.0,0.0));
#687=DIRECTION('',(0.0,0.0,1.0));
#688=AXIS2_PLACEMENT_3D('',#685,#686,#687);
#689=PLANE('',#688);
#690=CARTESIAN_POINT('',(-3.75,-1.650000000000001,0.1));
#691=VERTEX_POINT('',#690);
#692=CARTESIAN_POINT('',(-3.75,1.649999999999999,0.099999999999999));
#693=VERTEX_POINT('',#692);
#694=CARTESIAN_POINT('',(-3.75,-1.650000000000001,0.1));
#695=DIRECTION('',(0.0,1.0,0.0));
#696=VECTOR('',#695,3.3);
#697=LINE('',#694,#696);
#698=EDGE_CURVE('',#691,#693,#697,.T.);
#699=ORIENTED_EDGE('',*,*,#698,.T.);
#700=CARTESIAN_POINT('',(-3.75,1.649999999999999,-1.199041E-015));
#701=VERTEX_POINT('',#700);
#702=CARTESIAN_POINT('',(-3.75,1.649999999999999,-1.199041E-015));
#703=DIRECTION('',(0.0,0.0,1.0));
#704=VECTOR('',#703,0.1);
#705=LINE('',#702,#704);
#706=EDGE_CURVE('',#701,#693,#705,.T.);
#707=ORIENTED_EDGE('',*,*,#706,.F.);
#708=CARTESIAN_POINT('',(-3.75,-1.650000000000001,-4.662937E-016));
#709=VERTEX_POINT('',#708);
#710=CARTESIAN_POINT('',(-3.75,-1.650000000000001,-4.662937E-016));
#711=DIRECTION('',(0.0,1.0,0.0));
#712=VECTOR('',#711,3.3);
#713=LINE('',#710,#712);
#714=EDGE_CURVE('',#709,#701,#713,.T.);
#715=ORIENTED_EDGE('',*,*,#714,.F.);
#716=CARTESIAN_POINT('',(-3.75,-1.650000000000001,-4.662937E-016));
#717=DIRECTION('',(0.0,0.0,1.0));
#718=VECTOR('',#717,0.1);
#719=LINE('',#716,#718);
#720=EDGE_CURVE('',#709,#691,#719,.T.);
#721=ORIENTED_EDGE('',*,*,#720,.T.);
#722=EDGE_LOOP('',(#699,#707,#715,#721));
#723=FACE_OUTER_BOUND('',#722,.T.);
#724=ADVANCED_FACE('',(#723),#689,.T.);
#725=CARTESIAN_POINT('',(-3.75,1.649999999999999,-1.199041E-015));
#726=DIRECTION('',(0.0,1.0,0.0));
#727=DIRECTION('',(0.0,0.0,1.0));
#728=AXIS2_PLACEMENT_3D('',#725,#726,#727);
#729=PLANE('',#728);
#730=CARTESIAN_POINT('',(-2.05,1.649999999999999,0.099999999999999));
#731=VERTEX_POINT('',#730);
#732=CARTESIAN_POINT('',(-3.75,1.649999999999999,0.099999999999999));
#733=DIRECTION('',(1.0,0.0,0.0));
#734=VECTOR('',#733,1.7);
#735=LINE('',#732,#734);
#736=EDGE_CURVE('',#693,#731,#735,.T.);
#737=ORIENTED_EDGE('',*,*,#736,.T.);
#738=CARTESIAN_POINT('',(-2.05,1.649999999999999,-8.215650E-016));
#739=VERTEX_POINT('',#738);
#740=CARTESIAN_POINT('',(-2.05,1.649999999999999,-8.215650E-016));
#741=DIRECTION('',(0.0,0.0,1.0));
#742=VECTOR('',#741,0.1);
#743=LINE('',#740,#742);
#744=EDGE_CURVE('',#739,#731,#743,.T.);
#745=ORIENTED_EDGE('',*,*,#744,.F.);
#746=CARTESIAN_POINT('',(-3.75,1.649999999999999,-1.199041E-015));
#747=DIRECTION('',(1.0,0.0,0.0));
#748=VECTOR('',#747,1.7);
#749=LINE('',#746,#748);
#750=EDGE_CURVE('',#701,#739,#749,.T.);
#751=ORIENTED_EDGE('',*,*,#750,.F.);
#752=ORIENTED_EDGE('',*,*,#706,.T.);
#753=EDGE_LOOP('',(#737,#745,#751,#752));
#754=FACE_OUTER_BOUND('',#753,.T.);
#755=ADVANCED_FACE('',(#754),#729,.T.);
#756=CARTESIAN_POINT('',(-2.05,1.649999999999999,-8.215650E-016));
#757=DIRECTION('',(1.0,0.0,0.0));
#758=DIRECTION('',(0.0,0.0,-1.0));
#759=AXIS2_PLACEMENT_3D('',#756,#757,#758);
#760=PLANE('',#759);
#761=CARTESIAN_POINT('',(-2.050000000000001,-1.650000000000001,0.1));
#762=VERTEX_POINT('',#761);
#763=CARTESIAN_POINT('',(-2.05,1.649999999999999,0.099999999999999));
#764=DIRECTION('',(0.0,-1.0,0.0));
#765=VECTOR('',#764,3.3);
#766=LINE('',#763,#765);
#767=EDGE_CURVE('',#731,#762,#766,.T.);
#768=ORIENTED_EDGE('',*,*,#767,.T.);
#769=CARTESIAN_POINT('',(-2.050000000000001,-1.650000000000001,-8.881784E-017));
#770=VERTEX_POINT('',#769);
#771=CARTESIAN_POINT('',(-2.050000000000001,-1.650000000000001,-8.881784E-017));
#772=DIRECTION('',(0.0,0.0,1.0));
#773=VECTOR('',#772,0.1);
#774=LINE('',#771,#773);
#775=EDGE_CURVE('',#770,#762,#774,.T.);
#776=ORIENTED_EDGE('',*,*,#775,.F.);
#777=CARTESIAN_POINT('',(-2.05,1.649999999999999,-8.215650E-016));
#778=DIRECTION('',(0.0,-1.0,0.0));
#779=VECTOR('',#778,3.3);
#780=LINE('',#777,#779);
#781=EDGE_CURVE('',#739,#770,#780,.T.);
#782=ORIENTED_EDGE('',*,*,#781,.F.);
#783=ORIENTED_EDGE('',*,*,#744,.T.);
#784=EDGE_LOOP('',(#768,#776,#782,#783));
#785=FACE_OUTER_BOUND('',#784,.T.);
#786=ADVANCED_FACE('',(#785),#760,.T.);
#787=CARTESIAN_POINT('',(-2.050000000000001,-1.650000000000001,-8.881784E-017));
#788=DIRECTION('',(0.0,-1.0,0.0));
#789=DIRECTION('',(0.0,0.0,-1.0));
#790=AXIS2_PLACEMENT_3D('',#787,#788,#789);
#791=PLANE('',#790);
#792=CARTESIAN_POINT('',(-2.050000000000001,-1.650000000000001,0.1));
#793=DIRECTION('',(-1.0,0.0,0.0));
#794=VECTOR('',#793,1.7);
#795=LINE('',#792,#794);
#796=EDGE_CURVE('',#762,#691,#795,.T.);
#797=ORIENTED_EDGE('',*,*,#796,.T.);
#798=ORIENTED_EDGE('',*,*,#720,.F.);
#799=CARTESIAN_POINT('',(-2.050000000000001,-1.650000000000001,-8.881784E-017));
#800=DIRECTION('',(-1.0,0.0,0.0));
#801=VECTOR('',#800,1.7);
#802=LINE('',#799,#801);
#803=EDGE_CURVE('',#770,#709,#802,.T.);
#804=ORIENTED_EDGE('',*,*,#803,.F.);
#805=ORIENTED_EDGE('',*,*,#775,.T.);
#806=EDGE_LOOP('',(#797,#798,#804,#805));
#807=FACE_OUTER_BOUND('',#806,.T.);
#808=ADVANCED_FACE('',(#807),#791,.T.);
#809=CARTESIAN_POINT('',(-2.9,-9.992007E-016,0.099999999999999));
#810=DIRECTION('',(0.0,0.0,1.0));
#811=DIRECTION('',(1.0,0.0,0.0));
#812=AXIS2_PLACEMENT_3D('',#809,#810,#811);
#813=PLANE('',#812);
#814=ORIENTED_EDGE('',*,*,#698,.F.);
#815=ORIENTED_EDGE('',*,*,#796,.F.);
#816=ORIENTED_EDGE('',*,*,#767,.F.);
#817=ORIENTED_EDGE('',*,*,#736,.F.);
#818=EDGE_LOOP('',(#814,#815,#816,#817));
#819=FACE_OUTER_BOUND('',#818,.T.);
#820=ADVANCED_FACE('',(#819),#813,.T.);
#821=CARTESIAN_POINT('',(-2.9,-9.992007E-016,-6.439294E-016));
#822=DIRECTION('',(0.0,0.0,1.0));
#823=DIRECTION('',(1.0,0.0,0.0));
#824=AXIS2_PLACEMENT_3D('',#821,#822,#823);
#825=PLANE('',#824);
#826=ORIENTED_EDGE('',*,*,#803,.T.);
#827=ORIENTED_EDGE('',*,*,#714,.T.);
#828=ORIENTED_EDGE('',*,*,#750,.T.);
#829=ORIENTED_EDGE('',*,*,#781,.T.);
#830=EDGE_LOOP('',(#826,#827,#828,#829));
#831=FACE_OUTER_BOUND('',#830,.T.);
#832=ADVANCED_FACE('',(#831),#825,.F.);
#833=CLOSED_SHELL('',(#724,#755,#786,#808,#820,#832));
#834=MANIFOLD_SOLID_BREP('50F',#833);
#835=STYLED_ITEM('NONE',(#381),#834);
#836=CARTESIAN_POINT('',(-2.849999999999999,-3.050000000000002,3.8));
#837=DIRECTION('',(0.0,-1.0,0.0));
#838=DIRECTION('',(0.0,0.0,-1.0));
#839=AXIS2_PLACEMENT_3D('',#836,#837,#838);
#840=PLANE('',#839);
#841=CARTESIAN_POINT('',(-2.849999999999999,-3.050000000000002,3.699999999999999));
#842=VERTEX_POINT('',#841);
#843=CARTESIAN_POINT('',(-2.049999999999999,-3.050000000000002,3.699999999999999));
#844=VERTEX_POINT('',#843);
#845=CARTESIAN_POINT('',(-2.849999999999999,-3.050000000000002,3.7));
#846=DIRECTION('',(1.0,0.0,0.0));
#847=VECTOR('',#846,0.8);
#848=LINE('',#845,#847);
#849=EDGE_CURVE('',#842,#844,#848,.T.);
#850=ORIENTED_EDGE('',*,*,#849,.F.);
#851=CARTESIAN_POINT('',(-2.849999999999999,-3.050000000000002,3.8));
#852=VERTEX_POINT('',#851);
#853=CARTESIAN_POINT('',(-2.849999999999999,-3.050000000000002,3.8));
#854=DIRECTION('',(0.0,0.0,-1.0));
#855=VECTOR('',#854,0.100000000000001);
#856=LINE('',#853,#855);
#857=EDGE_CURVE('',#852,#842,#856,.T.);
#858=ORIENTED_EDGE('',*,*,#857,.F.);
#859=CARTESIAN_POINT('',(-2.049999999999999,-3.050000000000002,3.8));
#860=VERTEX_POINT('',#859);
#861=CARTESIAN_POINT('',(-2.049999999999999,-3.05,3.8));
#862=DIRECTION('',(-1.0,0.0,0.0));
#863=VECTOR('',#862,0.8);
#864=LINE('',#861,#863);
#865=EDGE_CURVE('',#860,#852,#864,.T.);
#866=ORIENTED_EDGE('',*,*,#865,.F.);
#867=CARTESIAN_POINT('',(-2.049999999999999,-3.050000000000002,3.8));
#868=DIRECTION('',(0.0,0.0,-1.0));
#869=VECTOR('',#868,0.100000000000001);
#870=LINE('',#867,#869);
#871=EDGE_CURVE('',#860,#844,#870,.T.);
#872=ORIENTED_EDGE('',*,*,#871,.T.);
#873=EDGE_LOOP('',(#850,#858,#866,#872));
#874=FACE_OUTER_BOUND('',#873,.T.);
#875=ADVANCED_FACE('',(#874),#840,.F.);
#876=CARTESIAN_POINT('',(-2.049999999999999,-3.050000000000002,3.8));
#877=DIRECTION('',(1.0,0.0,0.0));
#878=DIRECTION('',(0.0,0.0,-1.0));
#879=AXIS2_PLACEMENT_3D('',#876,#877,#878);
#880=PLANE('',#879);
#881=CARTESIAN_POINT('',(-2.05,3.049999999999999,3.699999999999999));
#882=VERTEX_POINT('',#881);
#883=CARTESIAN_POINT('',(-2.049999999999999,-3.050000000000002,3.7));
#884=DIRECTION('',(0.0,1.0,0.0));
#885=VECTOR('',#884,6.100000000000001);
#886=LINE('',#883,#885);
#887=EDGE_CURVE('',#844,#882,#886,.T.);
#888=ORIENTED_EDGE('',*,*,#887,.F.);
#889=ORIENTED_EDGE('',*,*,#871,.F.);
#890=CARTESIAN_POINT('',(-2.05,3.049999999999999,3.8));
#891=VERTEX_POINT('',#890);
#892=CARTESIAN_POINT('',(-2.05,3.05,3.8));
#893=DIRECTION('',(0.0,-1.0,0.0));
#894=VECTOR('',#893,6.100000000000001);
#895=LINE('',#892,#894);
#896=EDGE_CURVE('',#891,#860,#895,.T.);
#897=ORIENTED_EDGE('',*,*,#896,.F.);
#898=CARTESIAN_POINT('',(-2.05,3.049999999999999,3.8));
#899=DIRECTION('',(0.0,0.0,-1.0));
#900=VECTOR('',#899,0.100000000000001);
#901=LINE('',#898,#900);
#902=EDGE_CURVE('',#891,#882,#901,.T.);
#903=ORIENTED_EDGE('',*,*,#902,.T.);
#904=EDGE_LOOP('',(#888,#889,#897,#903));
#905=FACE_OUTER_BOUND('',#904,.T.);
#906=ADVANCED_FACE('',(#905),#880,.F.);
#907=CARTESIAN_POINT('',(-2.05,3.049999999999999,3.8));
#908=DIRECTION('',(0.0,1.0,0.0));
#909=DIRECTION('',(0.0,0.0,1.0));
#910=AXIS2_PLACEMENT_3D('',#907,#908,#909);
#911=PLANE('',#910);
#912=CARTESIAN_POINT('',(-2.85,3.049999999999999,3.699999999999999));
#913=VERTEX_POINT('',#912);
#914=CARTESIAN_POINT('',(-2.05,3.049999999999999,3.7));
#915=DIRECTION('',(-1.0,0.0,0.0));
#916=VECTOR('',#915,0.8);
#917=LINE('',#914,#916);
#918=EDGE_CURVE('',#882,#913,#917,.T.);
#919=ORIENTED_EDGE('',*,*,#918,.F.);
#920=ORIENTED_EDGE('',*,*,#902,.F.);
#921=CARTESIAN_POINT('',(-2.85,3.049999999999999,3.8));
#922=VERTEX_POINT('',#921);
#923=CARTESIAN_POINT('',(-2.85,3.049999999999999,3.8));
#924=DIRECTION('',(1.0,0.0,0.0));
#925=VECTOR('',#924,0.8);
#926=LINE('',#923,#925);
#927=EDGE_CURVE('',#922,#891,#926,.T.);
#928=ORIENTED_EDGE('',*,*,#927,.F.);
#929=CARTESIAN_POINT('',(-2.85,3.049999999999999,3.8));
#930=DIRECTION('',(0.0,0.0,-1.0));
#931=VECTOR('',#930,0.100000000000001);
#932=LINE('',#929,#931);
#933=EDGE_CURVE('',#922,#913,#932,.T.);
#934=ORIENTED_EDGE('',*,*,#933,.T.);
#935=EDGE_LOOP('',(#919,#920,#928,#934));
#936=FACE_OUTER_BOUND('',#935,.T.);
#937=ADVANCED_FACE('',(#936),#911,.F.);
#938=CARTESIAN_POINT('',(-2.85,3.049999999999999,3.8));
#939=DIRECTION('',(-1.0,0.0,0.0));
#940=DIRECTION('',(0.0,0.0,1.0));
#941=AXIS2_PLACEMENT_3D('',#938,#939,#940);
#942=PLANE('',#941);
#943=CARTESIAN_POINT('',(-2.85,3.049999999999999,3.7));
#944=DIRECTION('',(0.0,-1.0,0.0));
#945=VECTOR('',#944,6.100000000000001);
#946=LINE('',#943,#945);
#947=EDGE_CURVE('',#913,#842,#946,.T.);
#948=ORIENTED_EDGE('',*,*,#947,.F.);
#949=ORIENTED_EDGE('',*,*,#933,.F.);
#950=CARTESIAN_POINT('',(-2.849999999999999,-3.050000000000002,3.8));
#951=DIRECTION('',(0.0,1.0,0.0));
#952=VECTOR('',#951,6.100000000000001);
#953=LINE('',#950,#952);
#954=EDGE_CURVE('',#852,#922,#953,.T.);
#955=ORIENTED_EDGE('',*,*,#954,.F.);
#956=ORIENTED_EDGE('',*,*,#857,.T.);
#957=EDGE_LOOP('',(#948,#949,#955,#956));
#958=FACE_OUTER_BOUND('',#957,.T.);
#959=ADVANCED_FACE('',(#958),#942,.F.);
#960=CARTESIAN_POINT('',(-2.449999999999999,-1.332268E-015,3.699999999999999));
#961=DIRECTION('',(0.0,0.0,1.0));
#962=DIRECTION('',(1.0,0.0,0.0));
#963=AXIS2_PLACEMENT_3D('',#960,#961,#962);
#964=PLANE('',#963);
#965=ORIENTED_EDGE('',*,*,#849,.T.);
#966=ORIENTED_EDGE('',*,*,#887,.T.);
#967=ORIENTED_EDGE('',*,*,#918,.T.);
#968=ORIENTED_EDGE('',*,*,#947,.T.);
#969=EDGE_LOOP('',(#965,#966,#967,#968));
#970=FACE_OUTER_BOUND('',#969,.T.);
#971=ADVANCED_FACE('',(#970),#964,.T.);
#972=CARTESIAN_POINT('',(0.0,-5.551115E-016,3.8));
#973=DIRECTION('',(0.0,0.0,1.0));
#974=DIRECTION('',(1.0,0.0,0.0));
#975=AXIS2_PLACEMENT_3D('',#972,#973,#974);
#976=PLANE('',#975);
#977=ORIENTED_EDGE('',*,*,#954,.T.);
#978=CARTESIAN_POINT('',(-3.65,3.049999999999999,3.8));
#979=VERTEX_POINT('',#978);
#980=CARTESIAN_POINT('',(-3.65,3.049999999999999,3.8));
#981=DIRECTION('',(1.0,0.0,0.0));
#982=VECTOR('',#981,0.800000000000001);
#983=LINE('',#980,#982);
#984=EDGE_CURVE('',#979,#922,#983,.T.);
#985=ORIENTED_EDGE('',*,*,#984,.F.);
#986=CARTESIAN_POINT('',(-3.650000000000001,-3.05,3.8));
#987=VERTEX_POINT('',#986);
#988=CARTESIAN_POINT('',(-3.65,-3.05,3.8));
#989=DIRECTION('',(0.0,1.0,0.0));
#990=VECTOR('',#989,6.1);
#991=LINE('',#988,#990);
#992=EDGE_CURVE('',#987,#979,#991,.T.);
#993=ORIENTED_EDGE('',*,*,#992,.F.);
#994=CARTESIAN_POINT('',(-2.849999999999999,-3.05,3.8));
#995=DIRECTION('',(-1.0,0.0,0.0));
#996=VECTOR('',#995,0.800000000000002);
#997=LINE('',#994,#996);
#998=EDGE_CURVE('',#852,#987,#997,.T.);
#999=ORIENTED_EDGE('',*,*,#998,.F.);
#1000=EDGE_LOOP('',(#977,#985,#993,#999));
#1001=FACE_OUTER_BOUND('',#1000,.T.);
#1002=ADVANCED_FACE('',(#1001),#976,.T.);
#1003=CARTESIAN_POINT('',(0.0,-5.551115E-016,3.8));
#1004=DIRECTION('',(0.0,0.0,1.0));
#1005=DIRECTION('',(1.0,0.0,0.0));
#1006=AXIS2_PLACEMENT_3D('',#1003,#1004,#1005);
#1007=PLANE('',#1006);
#1008=ORIENTED_EDGE('',*,*,#896,.T.);
#1009=CARTESIAN_POINT('',(3.65,-3.05,3.8));
#1010=VERTEX_POINT('',#1009);
#1011=CARTESIAN_POINT('',(3.65,-3.05,3.8));
#1012=DIRECTION('',(-1.0,0.0,0.0));
#1013=VECTOR('',#1012,5.699999999999998);
#1014=LINE('',#1011,#1013);
#1015=EDGE_CURVE('',#1010,#860,#1014,.T.);
#1016=ORIENTED_EDGE('',*,*,#1015,.F.);
#1017=CARTESIAN_POINT('',(3.65,3.049999999999999,3.8));
#1018=VERTEX_POINT('',#1017);
#1019=CARTESIAN_POINT('',(3.65,3.049999999999999,3.8));
#1020=DIRECTION('',(0.0,-1.0,0.0));
#1021=VECTOR('',#1020,6.1);
#1022=LINE('',#1019,#1021);
#1023=EDGE_CURVE('',#1018,#1010,#1022,.T.);
#1024=ORIENTED_EDGE('',*,*,#1023,.F.);
#1025=CARTESIAN_POINT('',(-2.05,3.049999999999999,3.8));
#1026=DIRECTION('',(1.0,0.0,0.0));
#1027=VECTOR('',#1026,5.7);
#1028=LINE('',#1025,#1027);
#1029=EDGE_CURVE('',#891,#1018,#1028,.T.);
#1030=ORIENTED_EDGE('',*,*,#1029,.F.);
#1031=EDGE_LOOP('',(#1008,#1016,#1024,#1030));
#1032=FACE_OUTER_BOUND('',#1031,.T.);
#1033=ADVANCED_FACE('',(#1032),#1007,.T.);
#1034=CARTESIAN_POINT('',(1.875,-3.100000000000001,2.45));
#1035=DIRECTION('',(0.0,-0.999314833766767,0.03701166050988));
#1036=DIRECTION('',(0.0,-0.03701166050988,-0.999314833766767));
#1037=AXIS2_PLACEMENT_3D('',#1034,#1035,#1036);
#1038=PLANE('',#1037);
#1039=ORIENTED_EDGE('',*,*,#1015,.T.);
#1040=ORIENTED_EDGE('',*,*,#865,.T.);
#1041=ORIENTED_EDGE('',*,*,#998,.T.);
#1042=CARTESIAN_POINT('',(-3.75,-3.15,1.1));
#1043=VERTEX_POINT('',#1042);
#1044=CARTESIAN_POINT('',(-3.750000000000001,-3.150000000000001,1.1));
#1045=DIRECTION('',(0.036986336072765,0.036986336072765,0.998631073964667));
#1046=VECTOR('',#1045,2.703701166919155);
#1047=LINE('',#1044,#1046);
#1048=EDGE_CURVE('',#1043,#987,#1047,.T.);
#1049=ORIENTED_EDGE('',*,*,#1048,.F.);
#1050=CARTESIAN_POINT('',(3.75,-3.15,1.1));
#1051=VERTEX_POINT('',#1050);
#1052=CARTESIAN_POINT('',(3.75,-3.15,1.1));
#1053=DIRECTION('',(-1.0,0.0,0.0));
#1054=VECTOR('',#1053,7.5);
#1055=LINE('',#1052,#1054);
#1056=EDGE_CURVE('',#1051,#1043,#1055,.T.);
#1057=ORIENTED_EDGE('',*,*,#1056,.F.);
#1058=CARTESIAN_POINT('',(3.65,-3.05,3.8));
#1059=DIRECTION('',(0.036986336072765,-0.036986336072765,-0.998631073964667));
#1060=VECTOR('',#1059,2.703701166919154);
#1061=LINE('',#1058,#1060);
#1062=EDGE_CURVE('',#1010,#1051,#1061,.T.);
#1063=ORIENTED_EDGE('',*,*,#1062,.F.);
#1064=EDGE_LOOP('',(#1039,#1040,#1041,#1049,#1057,#1063));
#1065=FACE_OUTER_BOUND('',#1064,.T.);
#1066=ADVANCED_FACE('',(#1065),#1038,.T.);
#1067=CARTESIAN_POINT('',(3.7,1.575,2.45));
#1068=DIRECTION('',(0.999314833766767,0.0,0.03701166050988));
#1069=DIRECTION('',(0.03701166050988,0.0,-0.999314833766767));
#1070=AXIS2_PLACEMENT_3D('',#1067,#1068,#1069);
#1071=PLANE('',#1070);
#1072=ORIENTED_EDGE('',*,*,#1062,.T.);
#1073=CARTESIAN_POINT('',(3.75,3.15,1.1));
#1074=VERTEX_POINT('',#1073);
#1075=CARTESIAN_POINT('',(3.75,3.15,1.1));
#1076=DIRECTION('',(0.0,-1.0,0.0));
#1077=VECTOR('',#1076,6.3);
#1078=LINE('',#1075,#1077);
#1079=EDGE_CURVE('',#1074,#1051,#1078,.T.);
#1080=ORIENTED_EDGE('',*,*,#1079,.F.);
#1081=CARTESIAN_POINT('',(3.750000000000001,3.15,1.1));
#1082=DIRECTION('',(-0.036986336072765,-0.036986336072765,0.998631073964667));
#1083=VECTOR('',#1082,2.703701166919155);
#1084=LINE('',#1081,#1083);
#1085=EDGE_CURVE('',#1074,#1018,#1084,.T.);
#1086=ORIENTED_EDGE('',*,*,#1085,.T.);
#1087=ORIENTED_EDGE('',*,*,#1023,.T.);
#1088=EDGE_LOOP('',(#1072,#1080,#1086,#1087));
#1089=FACE_OUTER_BOUND('',#1088,.T.);
#1090=ADVANCED_FACE('',(#1089),#1071,.T.);
#1091=CARTESIAN_POINT('',(-3.7,-1.575,2.45));
#1092=DIRECTION('',(-0.999314833766767,0.0,0.03701166050988));
#1093=DIRECTION('',(0.03701166050988,0.0,0.999314833766767));
#1094=AXIS2_PLACEMENT_3D('',#1091,#1092,#1093);
#1095=PLANE('',#1094);
#1096=ORIENTED_EDGE('',*,*,#992,.T.);
#1097=CARTESIAN_POINT('',(-3.75,3.15,1.1));
#1098=VERTEX_POINT('',#1097);
#1099=CARTESIAN_POINT('',(-3.65,3.049999999999999,3.8));
#1100=DIRECTION('',(-0.036986336072765,0.036986336072765,-0.998631073964667));
#1101=VECTOR('',#1100,2.703701166919155);
#1102=LINE('',#1099,#1101);
#1103=EDGE_CURVE('',#979,#1098,#1102,.T.);
#1104=ORIENTED_EDGE('',*,*,#1103,.T.);
#1105=CARTESIAN_POINT('',(-3.75,-3.15,1.1));
#1106=DIRECTION('',(0.0,1.0,0.0));
#1107=VECTOR('',#1106,6.3);
#1108=LINE('',#1105,#1107);
#1109=EDGE_CURVE('',#1043,#1098,#1108,.T.);
#1110=ORIENTED_EDGE('',*,*,#1109,.F.);
#1111=ORIENTED_EDGE('',*,*,#1048,.T.);
#1112=EDGE_LOOP('',(#1096,#1104,#1110,#1111));
#1113=FACE_OUTER_BOUND('',#1112,.T.);
#1114=ADVANCED_FACE('',(#1113),#1095,.T.);
#1115=CARTESIAN_POINT('',(-1.875,3.1,2.45));
#1116=DIRECTION('',(0.0,0.999314833766767,0.03701166050988));
#1117=DIRECTION('',(0.0,-0.03701166050988,0.999314833766767));
#1118=AXIS2_PLACEMENT_3D('',#1115,#1116,#1117);
#1119=PLANE('',#1118);
#1120=ORIENTED_EDGE('',*,*,#1103,.F.);
#1121=ORIENTED_EDGE('',*,*,#984,.T.);
#1122=ORIENTED_EDGE('',*,*,#927,.T.);
#1123=ORIENTED_EDGE('',*,*,#1029,.T.);
#1124=ORIENTED_EDGE('',*,*,#1085,.F.);
#1125=CARTESIAN_POINT('',(-3.75,3.15,1.1));
#1126=DIRECTION('',(1.0,0.0,0.0));
#1127=VECTOR('',#1126,7.5);
#1128=LINE('',#1125,#1127);
#1129=EDGE_CURVE('',#1098,#1074,#1128,.T.);
#1130=ORIENTED_EDGE('',*,*,#1129,.F.);
#1131=EDGE_LOOP('',(#1120,#1121,#1122,#1123,#1124,#1130));
#1132=FACE_OUTER_BOUND('',#1131,.T.);
#1133=ADVANCED_FACE('',(#1132),#1119,.T.);
#1134=CARTESIAN_POINT('',(0.0,-5.551115E-016,1.1));
#1135=DIRECTION('',(0.0,0.0,1.0));
#1136=DIRECTION('',(1.0,0.0,0.0));
#1137=AXIS2_PLACEMENT_3D('',#1134,#1135,#1136);
#1138=PLANE('',#1137);
#1139=ORIENTED_EDGE('',*,*,#1109,.T.);
#1140=ORIENTED_EDGE('',*,*,#1129,.T.);
#1141=ORIENTED_EDGE('',*,*,#1079,.T.);
#1142=ORIENTED_EDGE('',*,*,#1056,.T.);
#1143=EDGE_LOOP('',(#1139,#1140,#1141,#1142));
#1144=FACE_OUTER_BOUND('',#1143,.T.);
#1145=ADVANCED_FACE('',(#1144),#1138,.F.);
#1146=CLOSED_SHELL('',(#875,#906,#937,#959,#971,#1002,#1033,#1066,#1090,#1114,#1133,#1145));
#1147=MANIFOLD_SOLID_BREP('4FC',#1146);
#1148=COLOUR_RGB('250',0.33,0.33,0.33);
#1149=SURFACE_STYLE_USAGE(.BOTH.,#1150);
#1150=SURFACE_SIDE_STYLE('NONE',(#1151));
#1151=SURFACE_STYLE_FILL_AREA(#1152);
#1152=FILL_AREA_STYLE('NONE',(#1153));
#1153=FILL_AREA_STYLE_COLOUR('NONE',#1148);
#1154=PRESENTATION_STYLE_ASSIGNMENT((#1149));
#1155=STYLED_ITEM('NONE',(#1154),#1147);
#1156=CARTESIAN_POINT('',(0.0,-5.329071E-016,1.1));
#1157=DIRECTION('',(0.0,0.0,1.0));
#1158=DIRECTION('',(1.0,0.0,0.0));
#1159=AXIS2_PLACEMENT_3D('',#1156,#1157,#1158);
#1160=PLANE('',#1159);
#1161=CARTESIAN_POINT('',(-3.65,3.15,1.1));
#1162=VERTEX_POINT('',#1161);
#1163=CARTESIAN_POINT('',(3.65,3.15,1.1));
#1164=VERTEX_POINT('',#1163);
#1165=CARTESIAN_POINT('',(-3.65,3.15,1.1));
#1166=DIRECTION('',(1.0,0.0,0.0));
#1167=VECTOR('',#1166,7.300000000000001);
#1168=LINE('',#1165,#1167);
#1169=EDGE_CURVE('',#1162,#1164,#1168,.T.);
#1170=ORIENTED_EDGE('',*,*,#1169,.F.);
#1171=CARTESIAN_POINT('',(-3.65,-3.15,1.1));
#1172=VERTEX_POINT('',#1171);
#1173=CARTESIAN_POINT('',(-3.65,-3.15,1.1));
#1174=DIRECTION('',(0.0,1.0,0.0));
#1175=VECTOR('',#1174,6.3);
#1176=LINE('',#1173,#1175);
#1177=EDGE_CURVE('',#1172,#1162,#1176,.T.);
#1178=ORIENTED_EDGE('',*,*,#1177,.F.);
#1179=CARTESIAN_POINT('',(3.65,-3.15,1.1));
#1180=VERTEX_POINT('',#1179);
#1181=CARTESIAN_POINT('',(3.65,-3.15,1.1));
#1182=DIRECTION('',(-1.0,0.0,0.0));
#1183=VECTOR('',#1182,7.300000000000001);
#1184=LINE('',#1181,#1183);
#1185=EDGE_CURVE('',#1180,#1172,#1184,.T.);
#1186=ORIENTED_EDGE('',*,*,#1185,.F.);
#1187=CARTESIAN_POINT('',(3.65,3.15,1.1));
#1188=DIRECTION('',(0.0,-1.0,0.0));
#1189=VECTOR('',#1188,6.3);
#1190=LINE('',#1187,#1189);
#1191=EDGE_CURVE('',#1164,#1180,#1190,.T.);
#1192=ORIENTED_EDGE('',*,*,#1191,.F.);
#1193=EDGE_LOOP('',(#1170,#1178,#1186,#1192));
#1194=FACE_OUTER_BOUND('',#1193,.T.);
#1195=ADVANCED_FACE('',(#1194),#1160,.T.);
#1196=CARTESIAN_POINT('',(1.875,-3.100000000000001,0.6));
#1197=DIRECTION('',(0.0,-0.995037190209989,-0.099503719020999));
#1198=DIRECTION('',(0.0,0.099503719020999,-0.995037190209989));
#1199=AXIS2_PLACEMENT_3D('',#1196,#1197,#1198);
#1200=PLANE('',#1199);
#1201=CARTESIAN_POINT('',(3.55,-3.05,0.1));
#1202=VERTEX_POINT('',#1201);
#1203=CARTESIAN_POINT('',(3.65,-3.150000000000001,1.1));
#1204=DIRECTION('',(-0.099014754297668,0.099014754297668,-0.990147542976674));
#1205=VECTOR('',#1204,1.009950493836208);
#1206=LINE('',#1203,#1205);
#1207=EDGE_CURVE('',#1180,#1202,#1206,.T.);
#1208=ORIENTED_EDGE('',*,*,#1207,.F.);
#1209=ORIENTED_EDGE('',*,*,#1185,.T.);
#1210=CARTESIAN_POINT('',(-3.55,-3.05,0.1));
#1211=VERTEX_POINT('',#1210);
#1212=CARTESIAN_POINT('',(-3.550000000000001,-3.05,0.1));
#1213=DIRECTION('',(-0.099014754297668,-0.099014754297668,0.990147542976674));
#1214=VECTOR('',#1213,1.009950493836208);
#1215=LINE('',#1212,#1214);
#1216=EDGE_CURVE('',#1211,#1172,#1215,.T.);
#1217=ORIENTED_EDGE('',*,*,#1216,.F.);
#1218=CARTESIAN_POINT('',(-3.550000000000001,-3.05,0.1));
#1219=DIRECTION('',(1.0,0.0,0.0));
#1220=VECTOR('',#1219,7.100000000000001);
#1221=LINE('',#1218,#1220);
#1222=EDGE_CURVE('',#1211,#1202,#1221,.T.);
#1223=ORIENTED_EDGE('',*,*,#1222,.T.);
#1224=EDGE_LOOP('',(#1208,#1209,#1217,#1223));
#1225=FACE_OUTER_BOUND('',#1224,.T.);
#1226=ADVANCED_FACE('',(#1225),#1200,.T.);
#1227=CARTESIAN_POINT('',(0.0,-5.329071E-016,0.1));
#1228=DIRECTION('',(0.0,0.0,1.0));
#1229=DIRECTION('',(1.0,0.0,0.0));
#1230=AXIS2_PLACEMENT_3D('',#1227,#1228,#1229);
#1231=PLANE('',#1230);
#1232=CARTESIAN_POINT('',(3.55,3.049999999999999,0.1));
#1233=VERTEX_POINT('',#1232);
#1234=CARTESIAN_POINT('',(3.55,-3.050000000000001,0.1));
#1235=DIRECTION('',(0.0,1.0,0.0));
#1236=VECTOR('',#1235,6.1);
#1237=LINE('',#1234,#1236);
#1238=EDGE_CURVE('',#1202,#1233,#1237,.T.);
#1239=ORIENTED_EDGE('',*,*,#1238,.F.);
#1240=ORIENTED_EDGE('',*,*,#1222,.F.);
#1241=CARTESIAN_POINT('',(-3.55,3.05,0.1));
#1242=VERTEX_POINT('',#1241);
#1243=CARTESIAN_POINT('',(-3.55,3.05,0.1));
#1244=DIRECTION('',(0.0,-1.0,0.0));
#1245=VECTOR('',#1244,6.1);
#1246=LINE('',#1243,#1245);
#1247=EDGE_CURVE('',#1242,#1211,#1246,.T.);
#1248=ORIENTED_EDGE('',*,*,#1247,.F.);
#1249=CARTESIAN_POINT('',(3.550000000000001,3.049999999999999,0.1));
#1250=DIRECTION('',(-1.0,0.0,0.0));
#1251=VECTOR('',#1250,7.100000000000001);
#1252=LINE('',#1249,#1251);
#1253=EDGE_CURVE('',#1233,#1242,#1252,.T.);
#1254=ORIENTED_EDGE('',*,*,#1253,.F.);
#1255=EDGE_LOOP('',(#1239,#1240,#1248,#1254));
#1256=FACE_OUTER_BOUND('',#1255,.T.);
#1257=ADVANCED_FACE('',(#1256),#1231,.F.);
#1258=CARTESIAN_POINT('',(-3.6,-1.575,0.6));
#1259=DIRECTION('',(-0.995037190209989,0.0,-0.099503719020999));
#1260=DIRECTION('',(-0.099503719020999,0.0,0.995037190209989));
#1261=AXIS2_PLACEMENT_3D('',#1258,#1259,#1260);
#1262=PLANE('',#1261);
#1263=CARTESIAN_POINT('',(-3.55,3.05,0.1));
#1264=DIRECTION('',(-0.099014754297668,0.099014754297668,0.990147542976674));
#1265=VECTOR('',#1264,1.009950493836208);
#1266=LINE('',#1263,#1265);
#1267=EDGE_CURVE('',#1242,#1162,#1266,.T.);
#1268=ORIENTED_EDGE('',*,*,#1267,.F.);
#1269=ORIENTED_EDGE('',*,*,#1247,.T.);
#1270=ORIENTED_EDGE('',*,*,#1216,.T.);
#1271=ORIENTED_EDGE('',*,*,#1177,.T.);
#1272=EDGE_LOOP('',(#1268,#1269,#1270,#1271));
#1273=FACE_OUTER_BOUND('',#1272,.T.);
#1274=ADVANCED_FACE('',(#1273),#1262,.T.);
#1275=CARTESIAN_POINT('',(-1.875,3.1,0.6));
#1276=DIRECTION('',(0.0,0.995037190209989,-0.099503719020999));
#1277=DIRECTION('',(0.0,0.099503719020999,0.995037190209989));
#1278=AXIS2_PLACEMENT_3D('',#1275,#1276,#1277);
#1279=PLANE('',#1278);
#1280=CARTESIAN_POINT('',(3.550000000000001,3.049999999999999,0.1));
#1281=DIRECTION('',(0.099014754297668,0.099014754297668,0.990147542976674));
#1282=VECTOR('',#1281,1.009950493836208);
#1283=LINE('',#1280,#1282);
#1284=EDGE_CURVE('',#1233,#1164,#1283,.T.);
#1285=ORIENTED_EDGE('',*,*,#1284,.F.);
#1286=ORIENTED_EDGE('',*,*,#1253,.T.);
#1287=ORIENTED_EDGE('',*,*,#1267,.T.);
#1288=ORIENTED_EDGE('',*,*,#1169,.T.);
#1289=EDGE_LOOP('',(#1285,#1286,#1287,#1288));
#1290=FACE_OUTER_BOUND('',#1289,.T.);
#1291=ADVANCED_FACE('',(#1290),#1279,.T.);
#1292=CARTESIAN_POINT('',(3.6,1.575,0.6));
#1293=DIRECTION('',(0.995037190209989,0.0,-0.099503719020999));
#1294=DIRECTION('',(-0.099503719020999,0.0,-0.995037190209989));
#1295=AXIS2_PLACEMENT_3D('',#1292,#1293,#1294);
#1296=PLANE('',#1295);
#1297=ORIENTED_EDGE('',*,*,#1207,.T.);
#1298=ORIENTED_EDGE('',*,*,#1238,.T.);
#1299=ORIENTED_EDGE('',*,*,#1284,.T.);
#1300=ORIENTED_EDGE('',*,*,#1191,.T.);
#1301=EDGE_LOOP('',(#1297,#1298,#1299,#1300));
#1302=FACE_OUTER_BOUND('',#1301,.T.);
#1303=ADVANCED_FACE('',(#1302),#1296,.T.);
#1304=CLOSED_SHELL('',(#1195,#1226,#1257,#1274,#1291,#1303));
#1305=MANIFOLD_SOLID_BREP('4F4',#1304);
#1306=STYLED_ITEM('NONE',(#1154),#1305);
#1307=ADVANCED_BREP_SHAPE_REPRESENTATION('ABSR1',(#214,#374,#532,#683,#834,#1147,#1305),#28);
#1308=SHAPE_REPRESENTATION_RELATIONSHIP('SRRPL1','',#1307,#62);
ENDSEC;
END-ISO-10303-21;
