ISO-10303-21;
HEADER;
/****************************************************************
 * Generated by software with PDE/Lib inside                    *
 * PDElib Version v51a, created Mon 11/23/2009                  *
 * ITI Transcendata (http://www.transcendata.com/)              *
 ****************************************************************/
FILE_DESCRIPTION((''),'2;1');
FILE_NAME('CAPPR500-1000X800.stp','2011-03-07T14:05:24',(''),(''),'Mechanical Desktop 2011','Mechanical Desktop 2011',', , ');
FILE_SCHEMA(('AUTOMOTIVE_DESIGN { 1 2 10303 214 1 1 1 1 }'));
ENDSEC;
DATA;
#10=(NAMED_UNIT(*)PLANE_ANGLE_UNIT()SI_UNIT($,.RADIAN.));
#11=DIMENSIONAL_EXPONENTS(0.0,0.0,0.0,0.0,0.0,0.0,0.0);
#12=PLANE_ANGLE_MEASURE_WITH_UNIT(PLANE_ANGLE_MEASURE(0.017453292500000),#10);
#16=(CONVERSION_BASED_UNIT('DEGREE',#12)NAMED_UNIT(#11)PLANE_ANGLE_UNIT());
#20=(NAMED_UNIT(*)SI_UNIT($,.STERADIAN.)SOLID_ANGLE_UNIT());
#24=(LENGTH_UNIT()NAMED_UNIT(*)SI_UNIT(.MILLI.,.METRE.));
#26=UNCERTAINTY_MEASURE_WITH_UNIT(LENGTH_MEASURE(0.000001000000000),#24,'DISTANCE_ACCURACY_VALUE','');
#28=(GEOMETRIC_REPRESENTATION_CONTEXT(3)GLOBAL_UNCERTAINTY_ASSIGNED_CONTEXT((#26))GLOBAL_UNIT_ASSIGNED_CONTEXT((#16,#20,#24))REPRESENTATION_CONTEXT('','3D'));
#29=APPLICATION_CONTEXT('automotive design');
#30=APPLICATION_PROTOCOL_DEFINITION('INTERNATIONAL_STANDARD','automotive_design',1998,#29);
#31=PRODUCT_CONTEXT('3D Mechanical Parts',#29,'mechanical');
#32=PRODUCT('Product','Product','',(#31));
#33=PRODUCT_RELATED_PRODUCT_CATEGORY('part',$,(#32));
#34=PRODUCT_CATEGORY('part',$);
#35=PERSON('1','Design','Joe',$,$,$);
#36=ORGANIZATION($,'None','None');
#37=PERSON_AND_ORGANIZATION(#35,#36);
#38=PERSON_AND_ORGANIZATION_ROLE('design_owner');
#39=APPLIED_PERSON_AND_ORGANIZATION_ASSIGNMENT(#37,#38,(#32));
#40=PRODUCT_DEFINITION_FORMATION_WITH_SPECIFIED_SOURCE('None','',#32,.BOUGHT.);
#41=PERSON('2','Creator','Joe',$,$,$);
#42=ORGANIZATION($,'None','None');
#43=PERSON_AND_ORGANIZATION(#41,#42);
#44=PERSON_AND_ORGANIZATION_ROLE('creator');
#45=APPLIED_PERSON_AND_ORGANIZATION_ASSIGNMENT(#43,#44,(#40));
#46=PERSON('3','Supplier','Joe',$,$,$);
#47=ORGANIZATION($,'None','None');
#48=PERSON_AND_ORGANIZATION(#46,#47);
#49=PERSON_AND_ORGANIZATION_ROLE('design_supplier');
#50=APPLIED_PERSON_AND_ORGANIZATION_ASSIGNMENT(#48,#49,(#40));
#51=PRODUCT_DEFINITION_CONTEXT('part definition',#29,'design');
#52=PRODUCT_DEFINITION('None','',#40,#51);
#53=PERSON('4','Creator','Joe',$,$,$);
#54=ORGANIZATION($,'None','None');
#55=PERSON_AND_ORGANIZATION(#53,#54);
#56=PERSON_AND_ORGANIZATION_ROLE('creator');
#57=APPLIED_PERSON_AND_ORGANIZATION_ASSIGNMENT(#55,#56,(#52));
#58=CARTESIAN_POINT('NONE',(0.0,0.0,0.0));
#59=DIRECTION('NONE',(0.0,0.0,1.0));
#60=DIRECTION('NONE',(1.0,0.0,0.0));
#61=AXIS2_PLACEMENT_3D('NONE',#58,#59,#60);
#62=SHAPE_REPRESENTATION('SR1',(#61),#28);
#63=PRODUCT_DEFINITION_SHAPE('PDS1','Test Part',#52);
#64=SHAPE_DEFINITION_REPRESENTATION(#63,#62);
#65=CARTESIAN_POINT('',(-1.243450E-014,-2.367626E-016,3.860174351338296));
#66=DIRECTION('',(0.0,0.0,-1.0));
#67=DIRECTION('',(1.0,0.0,0.0));
#68=AXIS2_PLACEMENT_3D('',#65,#66,#67);
#69=CYLINDRICAL_SURFACE('',#68,5.000000000000012);
#70=CARTESIAN_POINT('',(4.962730758206613,-0.609346717025738,1.860174351338296));
#71=VERTEX_POINT('',#70);
#72=CARTESIAN_POINT('',(4.962730758206613,0.609346717025736,1.860174351338296));
#73=VERTEX_POINT('',#72);
#74=CARTESIAN_POINT('',(-1.243450E-014,-2.367626E-016,1.860174351338296));
#75=DIRECTION('',(0.0,0.0,1.0));
#76=DIRECTION('',(1.0,0.0,0.0));
#77=AXIS2_PLACEMENT_3D('',#74,#75,#76);
#78=CIRCLE('',#77,5.000000000000012);
#79=EDGE_CURVE('',#71,#73,#78,.T.);
#80=ORIENTED_EDGE('',*,*,#79,.T.);
#81=CARTESIAN_POINT('',(4.962730758206613,0.609346717025736,3.860174351338296));
#82=VERTEX_POINT('',#81);
#83=CARTESIAN_POINT('',(4.962730758206613,0.609346717025736,3.860174351338296));
#84=DIRECTION('',(0.0,0.0,-1.0));
#85=VECTOR('',#84,2.0);
#86=LINE('',#83,#85);
#87=EDGE_CURVE('',#82,#73,#86,.T.);
#88=ORIENTED_EDGE('',*,*,#87,.F.);
#89=CARTESIAN_POINT('',(4.962730758206613,-0.609346717025738,3.860174351338296));
#90=VERTEX_POINT('',#89);
#91=CARTESIAN_POINT('',(-1.243450E-014,-2.367626E-016,3.860174351338296));
#92=DIRECTION('',(0.0,0.0,-1.0));
#93=DIRECTION('',(1.0,0.0,0.0));
#94=AXIS2_PLACEMENT_3D('',#91,#92,#93);
#95=CIRCLE('',#94,5.000000000000012);
#96=EDGE_CURVE('',#82,#90,#95,.T.);
#97=ORIENTED_EDGE('',*,*,#96,.T.);
#98=CARTESIAN_POINT('',(4.962730758206613,-0.609346717025738,3.860174351338296));
#99=DIRECTION('',(0.0,0.0,-1.0));
#100=VECTOR('',#99,2.0);
#101=LINE('',#98,#100);
#102=EDGE_CURVE('',#90,#71,#101,.T.);
#103=ORIENTED_EDGE('',*,*,#102,.T.);
#104=EDGE_LOOP('',(#80,#88,#97,#103));
#105=FACE_OUTER_BOUND('',#104,.T.);
#106=ADVANCED_FACE('',(#105),#69,.T.);
#107=CARTESIAN_POINT('',(4.962730758206613,0.609346717025736,3.860174351338296));
#108=DIRECTION('',(-0.121869343405120,0.992546151641325,0.0));
#109=DIRECTION('',(0.0,0.0,1.0));
#110=AXIS2_PLACEMENT_3D('',#107,#108,#109);
#111=PLANE('',#110);
#112=CARTESIAN_POINT('',(4.863476143042478,0.597159782685224,1.860174351338296));
#113=VERTEX_POINT('',#112);
#114=CARTESIAN_POINT('',(4.962730758206613,0.609346717025736,1.860174351338296));
#115=DIRECTION('',(-0.992546151641325,-0.121869343405120,0.0));
#116=VECTOR('',#115,0.100000000000002);
#117=LINE('',#114,#116);
#118=EDGE_CURVE('',#73,#113,#117,.T.);
#119=ORIENTED_EDGE('',*,*,#118,.T.);
#120=CARTESIAN_POINT('',(4.863476143042478,0.597159782685224,3.860174351338296));
#121=VERTEX_POINT('',#120);
#122=CARTESIAN_POINT('',(4.863476143042478,0.597159782685224,3.860174351338296));
#123=DIRECTION('',(0.0,0.0,-1.0));
#124=VECTOR('',#123,2.0);
#125=LINE('',#122,#124);
#126=EDGE_CURVE('',#121,#113,#125,.T.);
#127=ORIENTED_EDGE('',*,*,#126,.F.);
#128=CARTESIAN_POINT('',(4.863476143042478,0.597159782685224,3.860174351338296));
#129=DIRECTION('',(0.992546151641325,0.121869343405120,0.0));
#130=VECTOR('',#129,0.100000000000002);
#131=LINE('',#128,#130);
#132=EDGE_CURVE('',#121,#82,#131,.T.);
#133=ORIENTED_EDGE('',*,*,#132,.T.);
#134=ORIENTED_EDGE('',*,*,#87,.T.);
#135=EDGE_LOOP('',(#119,#127,#133,#134));
#136=FACE_OUTER_BOUND('',#135,.T.);
#137=ADVANCED_FACE('',(#136),#111,.T.);
#138=CARTESIAN_POINT('',(-5.329071E-015,-2.367626E-016,3.860174351338296));
#139=DIRECTION('',(0.0,0.0,-1.0));
#140=DIRECTION('',(1.0,0.0,0.0));
#141=AXIS2_PLACEMENT_3D('',#138,#139,#140);
#142=CYLINDRICAL_SURFACE('',#141,4.900000000000005);
#143=CARTESIAN_POINT('',(4.863476143042478,-0.597159782685226,1.860174351338296));
#144=VERTEX_POINT('',#143);
#145=CARTESIAN_POINT('',(-5.329071E-015,-2.367626E-016,1.860174351338296));
#146=DIRECTION('',(0.0,0.0,-1.0));
#147=DIRECTION('',(1.0,0.0,0.0));
#148=AXIS2_PLACEMENT_3D('',#145,#146,#147);
#149=CIRCLE('',#148,4.900000000000005);
#150=EDGE_CURVE('',#113,#144,#149,.T.);
#151=ORIENTED_EDGE('',*,*,#150,.T.);
#152=CARTESIAN_POINT('',(4.863476143042478,-0.597159782685226,3.860174351338296));
#153=VERTEX_POINT('',#152);
#154=CARTESIAN_POINT('',(4.863476143042478,-0.597159782685226,3.860174351338296));
#155=DIRECTION('',(0.0,0.0,-1.0));
#156=VECTOR('',#155,2.0);
#157=LINE('',#154,#156);
#158=EDGE_CURVE('',#153,#144,#157,.T.);
#159=ORIENTED_EDGE('',*,*,#158,.F.);
#160=CARTESIAN_POINT('',(-5.329071E-015,-2.367626E-016,3.860174351338296));
#161=DIRECTION('',(0.0,0.0,1.0));
#162=DIRECTION('',(1.0,0.0,0.0));
#163=AXIS2_PLACEMENT_3D('',#160,#161,#162);
#164=CIRCLE('',#163,4.900000000000005);
#165=EDGE_CURVE('',#153,#121,#164,.T.);
#166=ORIENTED_EDGE('',*,*,#165,.T.);
#167=ORIENTED_EDGE('',*,*,#126,.T.);
#168=EDGE_LOOP('',(#151,#159,#166,#167));
#169=FACE_OUTER_BOUND('',#168,.T.);
#170=ADVANCED_FACE('',(#169),#142,.F.);
#171=CARTESIAN_POINT('',(4.863476143042478,-0.597159782685226,3.860174351338296));
#172=DIRECTION('',(-0.121869343405121,-0.992546151641325,0.0));
#173=DIRECTION('',(0.0,0.0,-1.0));
#174=AXIS2_PLACEMENT_3D('',#171,#172,#173);
#175=PLANE('',#174);
#176=CARTESIAN_POINT('',(4.863476143042478,-0.597159782685226,1.860174351338296));
#177=DIRECTION('',(0.992546151641325,-0.121869343405120,0.0));
#178=VECTOR('',#177,0.100000000000002);
#179=LINE('',#176,#178);
#180=EDGE_CURVE('',#144,#71,#179,.T.);
#181=ORIENTED_EDGE('',*,*,#180,.T.);
#182=ORIENTED_EDGE('',*,*,#102,.F.);
#183=CARTESIAN_POINT('',(4.962730758206613,-0.609346717025738,3.860174351338296));
#184=DIRECTION('',(-0.992546151641325,0.121869343405120,0.0));
#185=VECTOR('',#184,0.100000000000002);
#186=LINE('',#183,#185);
#187=EDGE_CURVE('',#90,#153,#186,.T.);
#188=ORIENTED_EDGE('',*,*,#187,.T.);
#189=ORIENTED_EDGE('',*,*,#158,.T.);
#190=EDGE_LOOP('',(#181,#182,#188,#189));
#191=FACE_OUTER_BOUND('',#190,.T.);
#192=ADVANCED_FACE('',(#191),#175,.T.);
#193=CARTESIAN_POINT('',(4.934011039153434,5.962332E-015,1.860174351338296));
#194=DIRECTION('',(0.0,0.0,1.0));
#195=DIRECTION('',(0.0,-1.0,0.0));
#196=AXIS2_PLACEMENT_3D('',#193,#194,#195);
#197=PLANE('',#196);
#198=ORIENTED_EDGE('',*,*,#79,.F.);
#199=ORIENTED_EDGE('',*,*,#180,.F.);
#200=ORIENTED_EDGE('',*,*,#150,.F.);
#201=ORIENTED_EDGE('',*,*,#118,.F.);
#202=EDGE_LOOP('',(#198,#199,#200,#201));
#203=FACE_OUTER_BOUND('',#202,.T.);
#204=ADVANCED_FACE('',(#203),#197,.F.);
#205=CARTESIAN_POINT('',(4.934011039153434,5.962332E-015,3.860174351338296));
#206=DIRECTION('',(0.0,0.0,1.0));
#207=DIRECTION('',(0.0,-1.0,0.0));
#208=AXIS2_PLACEMENT_3D('',#205,#206,#207);
#209=PLANE('',#208);
#210=ORIENTED_EDGE('',*,*,#187,.F.);
#211=ORIENTED_EDGE('',*,*,#96,.F.);
#212=ORIENTED_EDGE('',*,*,#132,.F.);
#213=ORIENTED_EDGE('',*,*,#165,.F.);
#214=EDGE_LOOP('',(#210,#211,#212,#213));
#215=FACE_OUTER_BOUND('',#214,.T.);
#216=ADVANCED_FACE('',(#215),#209,.T.);
#217=CLOSED_SHELL('',(#106,#137,#170,#192,#204,#216));
#218=MANIFOLD_SOLID_BREP('96C',#217);
#219=COLOUR_RGB('255',1.0,1.0,1.0);
#220=SURFACE_STYLE_USAGE(.BOTH.,#221);
#221=SURFACE_SIDE_STYLE('NONE',(#222));
#222=SURFACE_STYLE_FILL_AREA(#223);
#223=FILL_AREA_STYLE('NONE',(#224));
#224=FILL_AREA_STYLE_COLOUR('NONE',#219);
#225=PRESENTATION_STYLE_ASSIGNMENT((#220));
#226=STYLED_ITEM('NONE',(#225),#218);
#227=MECHANICAL_DESIGN_GEOMETRIC_PRESENTATION_REPRESENTATION('NONE',(#226,#383,#479,#568,#1261,#1350,#1439),#28);
#228=PRESENTATION_LAYER_ASSIGNMENT('3D','None',(#218,#382,#471,#567,#1253,#1349,#1438));
#229=CARTESIAN_POINT('',(-1.154632E-014,-2.367626E-016,7.500000000000000));
#230=DIRECTION('',(0.0,0.0,-1.0));
#231=DIRECTION('',(1.0,0.0,0.0));
#232=AXIS2_PLACEMENT_3D('',#229,#230,#231);
#233=CYLINDRICAL_SURFACE('',#232,5.000000000000012);
#234=CARTESIAN_POINT('',(4.962730758206615,-0.609346717025738,5.500000000000000));
#235=VERTEX_POINT('',#234);
#236=CARTESIAN_POINT('',(4.962730758206615,0.609346717025736,5.500000000000000));
#237=VERTEX_POINT('',#236);
#238=CARTESIAN_POINT('',(-1.154632E-014,-2.367626E-016,5.500000000000000));
#239=DIRECTION('',(0.0,0.0,1.0));
#240=DIRECTION('',(1.0,0.0,0.0));
#241=AXIS2_PLACEMENT_3D('',#238,#239,#240);
#242=CIRCLE('',#241,5.000000000000012);
#243=EDGE_CURVE('',#235,#237,#242,.T.);
#244=ORIENTED_EDGE('',*,*,#243,.T.);
#245=CARTESIAN_POINT('',(4.962730758206615,0.609346717025736,7.500000000000000));
#246=VERTEX_POINT('',#245);
#247=CARTESIAN_POINT('',(4.962730758206615,0.609346717025736,7.500000000000000));
#248=DIRECTION('',(0.0,0.0,-1.0));
#249=VECTOR('',#248,2.0);
#250=LINE('',#247,#249);
#251=EDGE_CURVE('',#246,#237,#250,.T.);
#252=ORIENTED_EDGE('',*,*,#251,.F.);
#253=CARTESIAN_POINT('',(4.962730758206615,-0.609346717025738,7.500000000000000));
#254=VERTEX_POINT('',#253);
#255=CARTESIAN_POINT('',(-1.154632E-014,-2.367626E-016,7.500000000000000));
#256=DIRECTION('',(0.0,0.0,-1.0));
#257=DIRECTION('',(1.0,0.0,0.0));
#258=AXIS2_PLACEMENT_3D('',#255,#256,#257);
#259=CIRCLE('',#258,5.000000000000012);
#260=EDGE_CURVE('',#246,#254,#259,.T.);
#261=ORIENTED_EDGE('',*,*,#260,.T.);
#262=CARTESIAN_POINT('',(4.962730758206615,-0.609346717025738,7.500000000000000));
#263=DIRECTION('',(0.0,0.0,-1.0));
#264=VECTOR('',#263,2.0);
#265=LINE('',#262,#264);
#266=EDGE_CURVE('',#254,#235,#265,.T.);
#267=ORIENTED_EDGE('',*,*,#266,.T.);
#268=EDGE_LOOP('',(#244,#252,#261,#267));
#269=FACE_OUTER_BOUND('',#268,.T.);
#270=ADVANCED_FACE('',(#269),#233,.T.);
#271=CARTESIAN_POINT('',(4.962730758206615,0.609346717025736,7.500000000000000));
#272=DIRECTION('',(-0.121869343405120,0.992546151641325,0.0));
#273=DIRECTION('',(0.0,0.0,1.0));
#274=AXIS2_PLACEMENT_3D('',#271,#272,#273);
#275=PLANE('',#274);
#276=CARTESIAN_POINT('',(4.863476143042480,0.597159782685224,5.500000000000000));
#277=VERTEX_POINT('',#276);
#278=CARTESIAN_POINT('',(4.962730758206615,0.609346717025736,5.500000000000000));
#279=DIRECTION('',(-0.992546151641325,-0.121869343405120,0.0));
#280=VECTOR('',#279,0.100000000000002);
#281=LINE('',#278,#280);
#282=EDGE_CURVE('',#237,#277,#281,.T.);
#283=ORIENTED_EDGE('',*,*,#282,.T.);
#284=CARTESIAN_POINT('',(4.863476143042480,0.597159782685224,7.500000000000000));
#285=VERTEX_POINT('',#284);
#286=CARTESIAN_POINT('',(4.863476143042480,0.597159782685224,7.500000000000000));
#287=DIRECTION('',(0.0,0.0,-1.0));
#288=VECTOR('',#287,2.0);
#289=LINE('',#286,#288);
#290=EDGE_CURVE('',#285,#277,#289,.T.);
#291=ORIENTED_EDGE('',*,*,#290,.F.);
#292=CARTESIAN_POINT('',(4.863476143042480,0.597159782685224,7.500000000000000));
#293=DIRECTION('',(0.992546151641325,0.121869343405120,0.0));
#294=VECTOR('',#293,0.100000000000002);
#295=LINE('',#292,#294);
#296=EDGE_CURVE('',#285,#246,#295,.T.);
#297=ORIENTED_EDGE('',*,*,#296,.T.);
#298=ORIENTED_EDGE('',*,*,#251,.T.);
#299=EDGE_LOOP('',(#283,#291,#297,#298));
#300=FACE_OUTER_BOUND('',#299,.T.);
#301=ADVANCED_FACE('',(#300),#275,.T.);
#302=CARTESIAN_POINT('',(-4.440892E-015,-2.367626E-016,7.500000000000000));
#303=DIRECTION('',(0.0,0.0,-1.0));
#304=DIRECTION('',(1.0,0.0,0.0));
#305=AXIS2_PLACEMENT_3D('',#302,#303,#304);
#306=CYLINDRICAL_SURFACE('',#305,4.900000000000005);
#307=CARTESIAN_POINT('',(4.863476143042480,-0.597159782685226,5.500000000000000));
#308=VERTEX_POINT('',#307);
#309=CARTESIAN_POINT('',(-4.440892E-015,-2.367626E-016,5.500000000000000));
#310=DIRECTION('',(0.0,0.0,-1.0));
#311=DIRECTION('',(1.0,0.0,0.0));
#312=AXIS2_PLACEMENT_3D('',#309,#310,#311);
#313=CIRCLE('',#312,4.900000000000005);
#314=EDGE_CURVE('',#277,#308,#313,.T.);
#315=ORIENTED_EDGE('',*,*,#314,.T.);
#316=CARTESIAN_POINT('',(4.863476143042480,-0.597159782685226,7.500000000000000));
#317=VERTEX_POINT('',#316);
#318=CARTESIAN_POINT('',(4.863476143042480,-0.597159782685226,7.500000000000000));
#319=DIRECTION('',(0.0,0.0,-1.0));
#320=VECTOR('',#319,2.0);
#321=LINE('',#318,#320);
#322=EDGE_CURVE('',#317,#308,#321,.T.);
#323=ORIENTED_EDGE('',*,*,#322,.F.);
#324=CARTESIAN_POINT('',(-4.440892E-015,-2.367626E-016,7.500000000000000));
#325=DIRECTION('',(0.0,0.0,1.0));
#326=DIRECTION('',(1.0,0.0,0.0));
#327=AXIS2_PLACEMENT_3D('',#324,#325,#326);
#328=CIRCLE('',#327,4.900000000000005);
#329=EDGE_CURVE('',#317,#285,#328,.T.);
#330=ORIENTED_EDGE('',*,*,#329,.T.);
#331=ORIENTED_EDGE('',*,*,#290,.T.);
#332=EDGE_LOOP('',(#315,#323,#330,#331));
#333=FACE_OUTER_BOUND('',#332,.T.);
#334=ADVANCED_FACE('',(#333),#306,.F.);
#335=CARTESIAN_POINT('',(4.863476143042480,-0.597159782685226,7.500000000000000));
#336=DIRECTION('',(-0.121869343405121,-0.992546151641325,0.0));
#337=DIRECTION('',(0.0,0.0,-1.0));
#338=AXIS2_PLACEMENT_3D('',#335,#336,#337);
#339=PLANE('',#338);
#340=CARTESIAN_POINT('',(4.863476143042480,-0.597159782685226,5.500000000000000));
#341=DIRECTION('',(0.992546151641325,-0.121869343405120,0.0));
#342=VECTOR('',#341,0.100000000000002);
#343=LINE('',#340,#342);
#344=EDGE_CURVE('',#308,#235,#343,.T.);
#345=ORIENTED_EDGE('',*,*,#344,.T.);
#346=ORIENTED_EDGE('',*,*,#266,.F.);
#347=CARTESIAN_POINT('',(4.962730758206615,-0.609346717025738,7.500000000000000));
#348=DIRECTION('',(-0.992546151641325,0.121869343405120,0.0));
#349=VECTOR('',#348,0.100000000000002);
#350=LINE('',#347,#349);
#351=EDGE_CURVE('',#254,#317,#350,.T.);
#352=ORIENTED_EDGE('',*,*,#351,.T.);
#353=ORIENTED_EDGE('',*,*,#322,.T.);
#354=EDGE_LOOP('',(#345,#346,#352,#353));
#355=FACE_OUTER_BOUND('',#354,.T.);
#356=ADVANCED_FACE('',(#355),#339,.T.);
#357=CARTESIAN_POINT('',(4.934011039153436,5.962332E-015,5.500000000000000));
#358=DIRECTION('',(0.0,0.0,1.0));
#359=DIRECTION('',(0.0,-1.0,0.0));
#360=AXIS2_PLACEMENT_3D('',#357,#358,#359);
#361=PLANE('',#360);
#362=ORIENTED_EDGE('',*,*,#243,.F.);
#363=ORIENTED_EDGE('',*,*,#344,.F.);
#364=ORIENTED_EDGE('',*,*,#314,.F.);
#365=ORIENTED_EDGE('',*,*,#282,.F.);
#366=EDGE_LOOP('',(#362,#363,#364,#365));
#367=FACE_OUTER_BOUND('',#366,.T.);
#368=ADVANCED_FACE('',(#367),#361,.F.);
#369=CARTESIAN_POINT('',(4.934011039153436,5.962332E-015,7.500000000000000));
#370=DIRECTION('',(0.0,0.0,1.0));
#371=DIRECTION('',(0.0,-1.0,0.0));
#372=AXIS2_PLACEMENT_3D('',#369,#370,#371);
#373=PLANE('',#372);
#374=ORIENTED_EDGE('',*,*,#351,.F.);
#375=ORIENTED_EDGE('',*,*,#260,.F.);
#376=ORIENTED_EDGE('',*,*,#296,.F.);
#377=ORIENTED_EDGE('',*,*,#329,.F.);
#378=EDGE_LOOP('',(#374,#375,#376,#377));
#379=FACE_OUTER_BOUND('',#378,.T.);
#380=ADVANCED_FACE('',(#379),#373,.T.);
#381=CLOSED_SHELL('',(#270,#301,#334,#356,#368,#380));
#382=MANIFOLD_SOLID_BREP('96B',#381);
#383=STYLED_ITEM('NONE',(#225),#382);
#384=CARTESIAN_POINT('',(0.0,0.0,0.200000000000000));
#385=DIRECTION('',(0.0,0.0,1.0));
#386=DIRECTION('',(1.0,0.0,0.0));
#387=AXIS2_PLACEMENT_3D('',#384,#385,#386);
#388=CYLINDRICAL_SURFACE('',#387,4.0);
#389=CARTESIAN_POINT('',(4.0,0.0,0.300000000000000));
#390=VERTEX_POINT('',#389);
#391=CARTESIAN_POINT('',(4.0,0.0,0.200000000000000));
#392=VERTEX_POINT('',#391);
#393=CARTESIAN_POINT('',(4.0,0.0,0.300000000000000));
#394=DIRECTION('',(0.0,0.0,-1.0));
#395=VECTOR('',#394,0.100000000000000);
#396=LINE('',#393,#395);
#397=EDGE_CURVE('',#390,#392,#396,.T.);
#398=ORIENTED_EDGE('',*,*,#397,.F.);
#399=CARTESIAN_POINT('',(-4.0,-4.898425E-016,0.300000000000000));
#400=VERTEX_POINT('',#399);
#401=CARTESIAN_POINT('',(0.0,0.0,0.300000000000000));
#402=DIRECTION('',(0.0,0.0,-1.0));
#403=DIRECTION('',(1.0,0.0,0.0));
#404=AXIS2_PLACEMENT_3D('',#401,#402,#403);
#405=CIRCLE('',#404,4.0);
#406=EDGE_CURVE('',#390,#400,#405,.T.);
#407=ORIENTED_EDGE('',*,*,#406,.T.);
#408=CARTESIAN_POINT('',(-4.0,-4.898425E-016,0.200000000000000));
#409=VERTEX_POINT('',#408);
#410=CARTESIAN_POINT('',(-4.0,-4.898425E-016,0.300000000000000));
#411=DIRECTION('',(0.0,0.0,-1.0));
#412=VECTOR('',#411,0.100000000000000);
#413=LINE('',#410,#412);
#414=EDGE_CURVE('',#400,#409,#413,.T.);
#415=ORIENTED_EDGE('',*,*,#414,.T.);
#416=CARTESIAN_POINT('',(0.0,0.0,0.200000000000000));
#417=DIRECTION('',(0.0,0.0,1.0));
#418=DIRECTION('',(1.0,0.0,0.0));
#419=AXIS2_PLACEMENT_3D('',#416,#417,#418);
#420=CIRCLE('',#419,4.0);
#421=EDGE_CURVE('',#409,#392,#420,.T.);
#422=ORIENTED_EDGE('',*,*,#421,.T.);
#423=EDGE_LOOP('',(#398,#407,#415,#422));
#424=FACE_OUTER_BOUND('',#423,.T.);
#425=ADVANCED_FACE('',(#424),#388,.T.);
#426=CARTESIAN_POINT('',(0.0,0.0,0.200000000000000));
#427=DIRECTION('',(0.0,0.0,1.0));
#428=DIRECTION('',(1.0,0.0,0.0));
#429=AXIS2_PLACEMENT_3D('',#426,#427,#428);
#430=CYLINDRICAL_SURFACE('',#429,4.0);
#431=ORIENTED_EDGE('',*,*,#397,.T.);
#432=CARTESIAN_POINT('',(0.0,0.0,0.200000000000000));
#433=DIRECTION('',(0.0,0.0,1.0));
#434=DIRECTION('',(1.0,0.0,0.0));
#435=AXIS2_PLACEMENT_3D('',#432,#433,#434);
#436=CIRCLE('',#435,4.0);
#437=EDGE_CURVE('',#392,#409,#436,.T.);
#438=ORIENTED_EDGE('',*,*,#437,.T.);
#439=ORIENTED_EDGE('',*,*,#414,.F.);
#440=CARTESIAN_POINT('',(0.0,0.0,0.300000000000000));
#441=DIRECTION('',(0.0,0.0,-1.0));
#442=DIRECTION('',(1.0,0.0,0.0));
#443=AXIS2_PLACEMENT_3D('',#440,#441,#442);
#444=CIRCLE('',#443,4.0);
#445=EDGE_CURVE('',#400,#390,#444,.T.);
#446=ORIENTED_EDGE('',*,*,#445,.T.);
#447=EDGE_LOOP('',(#431,#438,#439,#446));
#448=FACE_OUTER_BOUND('',#447,.T.);
#449=ADVANCED_FACE('',(#448),#430,.T.);
#450=CARTESIAN_POINT('',(0.0,0.0,0.300000000000000));
#451=DIRECTION('',(0.0,0.0,1.0));
#452=DIRECTION('',(1.0,0.0,0.0));
#453=AXIS2_PLACEMENT_3D('',#450,#451,#452);
#454=PLANE('',#453);
#455=ORIENTED_EDGE('',*,*,#406,.F.);
#456=ORIENTED_EDGE('',*,*,#445,.F.);
#457=EDGE_LOOP('',(#455,#456));
#458=FACE_OUTER_BOUND('',#457,.T.);
#459=ADVANCED_FACE('',(#458),#454,.T.);
#460=CARTESIAN_POINT('',(0.0,0.0,0.200000000000000));
#461=DIRECTION('',(0.0,0.0,1.0));
#462=DIRECTION('',(1.0,0.0,0.0));
#463=AXIS2_PLACEMENT_3D('',#460,#461,#462);
#464=PLANE('',#463);
#465=ORIENTED_EDGE('',*,*,#437,.F.);
#466=ORIENTED_EDGE('',*,*,#421,.F.);
#467=EDGE_LOOP('',(#465,#466));
#468=FACE_OUTER_BOUND('',#467,.T.);
#469=ADVANCED_FACE('',(#468),#464,.F.);
#470=CLOSED_SHELL('',(#425,#449,#459,#469));
#471=MANIFOLD_SOLID_BREP('8CE',#470);
#472=COLOUR_RGB('254',0.866000000000000,0.866000000000000,0.866000000000000);
#473=SURFACE_STYLE_USAGE(.BOTH.,#474);
#474=SURFACE_SIDE_STYLE('NONE',(#475));
#475=SURFACE_STYLE_FILL_AREA(#476);
#476=FILL_AREA_STYLE('NONE',(#477));
#477=FILL_AREA_STYLE_COLOUR('NONE',#472);
#478=PRESENTATION_STYLE_ASSIGNMENT((#473));
#479=STYLED_ITEM('NONE',(#478),#471);
#480=CARTESIAN_POINT('',(0.0,0.0,7.900000000000000));
#481=DIRECTION('',(0.0,0.0,-1.0));
#482=DIRECTION('',(1.0,0.0,0.0));
#483=AXIS2_PLACEMENT_3D('',#480,#481,#482);
#484=CYLINDRICAL_SURFACE('',#483,4.0);
#485=CARTESIAN_POINT('',(4.0,0.0,7.800000000000000));
#486=VERTEX_POINT('',#485);
#487=CARTESIAN_POINT('',(4.0,0.0,7.900000000000000));
#488=VERTEX_POINT('',#487);
#489=CARTESIAN_POINT('',(4.0,0.0,7.800000000000000));
#490=DIRECTION('',(0.0,0.0,1.0));
#491=VECTOR('',#490,0.100000000000000);
#492=LINE('',#489,#491);
#493=EDGE_CURVE('',#486,#488,#492,.T.);
#494=ORIENTED_EDGE('',*,*,#493,.F.);
#495=CARTESIAN_POINT('',(-4.0,4.898425E-016,7.800000000000000));
#496=VERTEX_POINT('',#495);
#497=CARTESIAN_POINT('',(0.0,0.0,7.800000000000000));
#498=DIRECTION('',(0.0,0.0,1.0));
#499=DIRECTION('',(1.0,0.0,0.0));
#500=AXIS2_PLACEMENT_3D('',#497,#498,#499);
#501=CIRCLE('',#500,4.0);
#502=EDGE_CURVE('',#486,#496,#501,.T.);
#503=ORIENTED_EDGE('',*,*,#502,.T.);
#504=CARTESIAN_POINT('',(-4.0,4.898425E-016,7.900000000000000));
#505=VERTEX_POINT('',#504);
#506=CARTESIAN_POINT('',(-4.0,4.898425E-016,7.800000000000000));
#507=DIRECTION('',(0.0,0.0,1.0));
#508=VECTOR('',#507,0.100000000000000);
#509=LINE('',#506,#508);
#510=EDGE_CURVE('',#496,#505,#509,.T.);
#511=ORIENTED_EDGE('',*,*,#510,.T.);
#512=CARTESIAN_POINT('',(0.0,0.0,7.900000000000000));
#513=DIRECTION('',(0.0,0.0,1.0));
#514=DIRECTION('',(1.0,0.0,0.0));
#515=AXIS2_PLACEMENT_3D('',#512,#513,#514);
#516=CIRCLE('',#515,4.0);
#517=EDGE_CURVE('',#488,#505,#516,.T.);
#518=ORIENTED_EDGE('',*,*,#517,.F.);
#519=EDGE_LOOP('',(#494,#503,#511,#518));
#520=FACE_OUTER_BOUND('',#519,.T.);
#521=ADVANCED_FACE('',(#520),#484,.T.);
#522=CARTESIAN_POINT('',(0.0,0.0,7.900000000000000));
#523=DIRECTION('',(0.0,0.0,-1.0));
#524=DIRECTION('',(1.0,0.0,0.0));
#525=AXIS2_PLACEMENT_3D('',#522,#523,#524);
#526=CYLINDRICAL_SURFACE('',#525,4.0);
#527=ORIENTED_EDGE('',*,*,#493,.T.);
#528=CARTESIAN_POINT('',(0.0,0.0,7.900000000000000));
#529=DIRECTION('',(0.0,0.0,1.0));
#530=DIRECTION('',(1.0,0.0,0.0));
#531=AXIS2_PLACEMENT_3D('',#528,#529,#530);
#532=CIRCLE('',#531,4.0);
#533=EDGE_CURVE('',#505,#488,#532,.T.);
#534=ORIENTED_EDGE('',*,*,#533,.F.);
#535=ORIENTED_EDGE('',*,*,#510,.F.);
#536=CARTESIAN_POINT('',(0.0,0.0,7.800000000000000));
#537=DIRECTION('',(0.0,0.0,1.0));
#538=DIRECTION('',(1.0,0.0,0.0));
#539=AXIS2_PLACEMENT_3D('',#536,#537,#538);
#540=CIRCLE('',#539,4.0);
#541=EDGE_CURVE('',#496,#486,#540,.T.);
#542=ORIENTED_EDGE('',*,*,#541,.T.);
#543=EDGE_LOOP('',(#527,#534,#535,#542));
#544=FACE_OUTER_BOUND('',#543,.T.);
#545=ADVANCED_FACE('',(#544),#526,.T.);
#546=CARTESIAN_POINT('',(0.0,0.0,7.800000000000000));
#547=DIRECTION('',(0.0,0.0,1.0));
#548=DIRECTION('',(1.0,0.0,0.0));
#549=AXIS2_PLACEMENT_3D('',#546,#547,#548);
#550=PLANE('',#549);
#551=ORIENTED_EDGE('',*,*,#502,.F.);
#552=ORIENTED_EDGE('',*,*,#541,.F.);
#553=EDGE_LOOP('',(#551,#552));
#554=FACE_OUTER_BOUND('',#553,.T.);
#555=ADVANCED_FACE('',(#554),#550,.F.);
#556=CARTESIAN_POINT('',(0.0,0.0,7.900000000000000));
#557=DIRECTION('',(0.0,0.0,1.0));
#558=DIRECTION('',(1.0,0.0,0.0));
#559=AXIS2_PLACEMENT_3D('',#556,#557,#558);
#560=PLANE('',#559);
#561=ORIENTED_EDGE('',*,*,#517,.T.);
#562=ORIENTED_EDGE('',*,*,#533,.T.);
#563=EDGE_LOOP('',(#561,#562));
#564=FACE_OUTER_BOUND('',#563,.T.);
#565=ADVANCED_FACE('',(#564),#560,.T.);
#566=CLOSED_SHELL('',(#521,#545,#555,#565));
#567=MANIFOLD_SOLID_BREP('8CA',#566);
#568=STYLED_ITEM('NONE',(#478),#567);
#569=CARTESIAN_POINT('',(0.0,0.0,0.0));
#570=DIRECTION('',(0.0,0.0,1.0));
#571=DIRECTION('',(1.0,0.0,0.0));
#572=AXIS2_PLACEMENT_3D('',#569,#570,#571);
#573=CYLINDRICAL_SURFACE('',#572,4.0);
#574=CARTESIAN_POINT('',(4.0,-9.796851E-016,0.0));
#575=VERTEX_POINT('',#574);
#576=CARTESIAN_POINT('',(4.0,-9.796851E-016,0.300000000000000));
#577=VERTEX_POINT('',#576);
#578=CARTESIAN_POINT('',(4.0,-9.796851E-016,0.0));
#579=DIRECTION('',(0.0,0.0,1.0));
#580=VECTOR('',#579,0.300000000000000);
#581=LINE('',#578,#580);
#582=EDGE_CURVE('',#575,#577,#581,.T.);
#583=ORIENTED_EDGE('',*,*,#582,.F.);
#584=CARTESIAN_POINT('',(-4.0,4.898425E-016,0.0));
#585=VERTEX_POINT('',#584);
#586=CARTESIAN_POINT('',(0.0,0.0,0.0));
#587=DIRECTION('',(0.0,0.0,1.0));
#588=DIRECTION('',(1.0,0.0,0.0));
#589=AXIS2_PLACEMENT_3D('',#586,#587,#588);
#590=CIRCLE('',#589,4.0);
#591=EDGE_CURVE('',#585,#575,#590,.T.);
#592=ORIENTED_EDGE('',*,*,#591,.F.);
#593=CARTESIAN_POINT('',(-4.0,4.898425E-016,0.300000000000000));
#594=VERTEX_POINT('',#593);
#595=CARTESIAN_POINT('',(-4.0,4.898425E-016,0.0));
#596=DIRECTION('',(0.0,0.0,1.0));
#597=VECTOR('',#596,0.300000000000000);
#598=LINE('',#595,#597);
#599=EDGE_CURVE('',#585,#594,#598,.T.);
#600=ORIENTED_EDGE('',*,*,#599,.T.);
#601=CARTESIAN_POINT('',(0.0,0.0,0.300000000000000));
#602=DIRECTION('',(0.0,0.0,-1.0));
#603=DIRECTION('',(1.0,0.0,0.0));
#604=AXIS2_PLACEMENT_3D('',#601,#602,#603);
#605=CIRCLE('',#604,4.0);
#606=EDGE_CURVE('',#577,#594,#605,.T.);
#607=ORIENTED_EDGE('',*,*,#606,.F.);
#608=EDGE_LOOP('',(#583,#592,#600,#607));
#609=FACE_OUTER_BOUND('',#608,.T.);
#610=ADVANCED_FACE('',(#609),#573,.F.);
#611=CARTESIAN_POINT('',(0.0,0.0,0.0));
#612=DIRECTION('',(0.0,0.0,1.0));
#613=DIRECTION('',(1.0,0.0,0.0));
#614=AXIS2_PLACEMENT_3D('',#611,#612,#613);
#615=CYLINDRICAL_SURFACE('',#614,5.0);
#616=CARTESIAN_POINT('',(5.0,-1.224606E-015,5.500000000000000));
#617=VERTEX_POINT('',#616);
#618=CARTESIAN_POINT('',(5.0,-1.224606E-015,3.860174351338296));
#619=VERTEX_POINT('',#618);
#620=CARTESIAN_POINT('',(5.0,-1.224606E-015,5.500000000000000));
#621=DIRECTION('',(0.0,0.0,-1.0));
#622=VECTOR('',#621,1.639825648661704);
#623=LINE('',#620,#622);
#624=EDGE_CURVE('',#617,#619,#623,.T.);
#625=ORIENTED_EDGE('',*,*,#624,.F.);
#626=CARTESIAN_POINT('',(4.962730758206615,-0.609346717025738,5.500000000000000));
#627=VERTEX_POINT('',#626);
#628=CARTESIAN_POINT('',(0.0,0.0,5.500000000000000));
#629=DIRECTION('',(0.0,0.0,-1.0));
#630=DIRECTION('',(1.0,0.0,0.0));
#631=AXIS2_PLACEMENT_3D('',#628,#629,#630);
#632=CIRCLE('',#631,5.0);
#633=EDGE_CURVE('',#617,#627,#632,.T.);
#634=ORIENTED_EDGE('',*,*,#633,.T.);
#635=CARTESIAN_POINT('',(4.962730758206615,-0.609346717025738,7.500000000000000));
#636=VERTEX_POINT('',#635);
#637=CARTESIAN_POINT('',(4.962730758206610,-0.609346717025738,5.500000000000000));
#638=DIRECTION('',(0.0,0.0,1.0));
#639=VECTOR('',#638,2.0);
#640=LINE('',#637,#639);
#641=EDGE_CURVE('',#627,#636,#640,.T.);
#642=ORIENTED_EDGE('',*,*,#641,.T.);
#643=CARTESIAN_POINT('',(-5.0,0.0,7.500000000000000));
#644=VERTEX_POINT('',#643);
#645=CARTESIAN_POINT('',(0.0,0.0,7.500000000000000));
#646=DIRECTION('',(0.0,0.0,1.0));
#647=DIRECTION('',(-1.0,0.0,0.0));
#648=AXIS2_PLACEMENT_3D('',#645,#646,#647);
#649=CIRCLE('',#648,5.0);
#650=EDGE_CURVE('',#644,#636,#649,.T.);
#651=ORIENTED_EDGE('',*,*,#650,.F.);
#652=CARTESIAN_POINT('',(-5.0,-6.123032E-016,0.500000000000000));
#653=VERTEX_POINT('',#652);
#654=CARTESIAN_POINT('',(-5.0,6.123032E-016,7.500000000000000));
#655=DIRECTION('',(0.0,0.0,-1.0));
#656=VECTOR('',#655,7.0);
#657=LINE('',#654,#656);
#658=EDGE_CURVE('',#644,#653,#657,.T.);
#659=ORIENTED_EDGE('',*,*,#658,.T.);
#660=CARTESIAN_POINT('',(5.0,-2.449213E-015,0.500000000000000));
#661=VERTEX_POINT('',#660);
#662=CARTESIAN_POINT('',(0.0,0.0,0.500000000000000));
#663=DIRECTION('',(0.0,0.0,-1.0));
#664=DIRECTION('',(-1.0,0.0,0.0));
#665=AXIS2_PLACEMENT_3D('',#662,#663,#664);
#666=CIRCLE('',#665,5.0);
#667=EDGE_CURVE('',#661,#653,#666,.T.);
#668=ORIENTED_EDGE('',*,*,#667,.F.);
#669=CARTESIAN_POINT('',(5.0,-1.224606E-015,1.860174351338296));
#670=VERTEX_POINT('',#669);
#671=CARTESIAN_POINT('',(5.0,-1.224606E-015,1.860174351338296));
#672=DIRECTION('',(0.0,0.0,-1.0));
#673=VECTOR('',#672,1.360174351338296);
#674=LINE('',#671,#673);
#675=EDGE_CURVE('',#670,#661,#674,.T.);
#676=ORIENTED_EDGE('',*,*,#675,.F.);
#677=CARTESIAN_POINT('',(4.962730758206613,-0.609346717025738,1.860174351338296));
#678=VERTEX_POINT('',#677);
#679=CARTESIAN_POINT('',(0.0,0.0,1.860174351338296));
#680=DIRECTION('',(0.0,0.0,-1.0));
#681=DIRECTION('',(1.0,0.0,0.0));
#682=AXIS2_PLACEMENT_3D('',#679,#680,#681);
#683=CIRCLE('',#682,5.0);
#684=EDGE_CURVE('',#670,#678,#683,.T.);
#685=ORIENTED_EDGE('',*,*,#684,.T.);
#686=CARTESIAN_POINT('',(4.962730758206613,-0.609346717025738,3.860174351338296));
#687=VERTEX_POINT('',#686);
#688=CARTESIAN_POINT('',(4.962730758206610,-0.609346717025738,1.860174351338296));
#689=DIRECTION('',(0.0,0.0,1.0));
#690=VECTOR('',#689,2.0);
#691=LINE('',#688,#690);
#692=EDGE_CURVE('',#678,#687,#691,.T.);
#693=ORIENTED_EDGE('',*,*,#692,.T.);
#694=CARTESIAN_POINT('',(0.0,0.0,3.860174351338296));
#695=DIRECTION('',(0.0,0.0,1.0));
#696=DIRECTION('',(1.0,0.0,0.0));
#697=AXIS2_PLACEMENT_3D('',#694,#695,#696);
#698=CIRCLE('',#697,5.0);
#699=EDGE_CURVE('',#687,#619,#698,.T.);
#700=ORIENTED_EDGE('',*,*,#699,.T.);
#701=EDGE_LOOP('',(#625,#634,#642,#651,#659,#668,#676,#685,#693,#700));
#702=FACE_OUTER_BOUND('',#701,.T.);
#703=ADVANCED_FACE('',(#702),#615,.T.);
#704=CARTESIAN_POINT('',(0.0,0.0,0.500000000000000));
#705=DIRECTION('',(0.0,0.0,1.0));
#706=DIRECTION('',(1.0,0.0,0.0));
#707=AXIS2_PLACEMENT_3D('',#704,#705,#706);
#708=TOROIDAL_SURFACE('',#707,4.500000000000000,0.500000000000000);
#709=CARTESIAN_POINT('',(4.500000000000000,-1.102146E-015,0.0));
#710=VERTEX_POINT('',#709);
#711=CARTESIAN_POINT('',(4.500000000000000,0.0,0.500000000000000));
#712=DIRECTION('',(0.0,1.0,0.0));
#713=DIRECTION('',(1.0,0.0,0.0));
#714=AXIS2_PLACEMENT_3D('',#711,#712,#713);
#715=CIRCLE('',#714,0.500000000000000);
#716=EDGE_CURVE('',#661,#710,#715,.T.);
#717=ORIENTED_EDGE('',*,*,#716,.F.);
#718=ORIENTED_EDGE('',*,*,#667,.T.);
#719=CARTESIAN_POINT('',(-4.500000000000000,-5.510729E-016,0.0));
#720=VERTEX_POINT('',#719);
#721=CARTESIAN_POINT('',(-4.500000000000000,-5.510729E-016,0.500000000000000));
#722=DIRECTION('',(0.0,-1.0,0.0));
#723=DIRECTION('',(-1.0,0.0,0.0));
#724=AXIS2_PLACEMENT_3D('',#721,#722,#723);
#725=CIRCLE('',#724,0.500000000000000);
#726=EDGE_CURVE('',#653,#720,#725,.T.);
#727=ORIENTED_EDGE('',*,*,#726,.T.);
#728=CARTESIAN_POINT('',(0.0,0.0,0.0));
#729=DIRECTION('',(0.0,0.0,1.0));
#730=DIRECTION('',(-1.0,0.0,0.0));
#731=AXIS2_PLACEMENT_3D('',#728,#729,#730);
#732=CIRCLE('',#731,4.500000000000000);
#733=EDGE_CURVE('',#720,#710,#732,.T.);
#734=ORIENTED_EDGE('',*,*,#733,.T.);
#735=EDGE_LOOP('',(#717,#718,#727,#734));
#736=FACE_OUTER_BOUND('',#735,.T.);
#737=ADVANCED_FACE('',(#736),#708,.T.);
#738=CARTESIAN_POINT('',(0.0,0.0,7.500000000000000));
#739=DIRECTION('',(0.0,0.0,-1.0));
#740=DIRECTION('',(-1.0,0.0,0.0));
#741=AXIS2_PLACEMENT_3D('',#738,#739,#740);
#742=TOROIDAL_SURFACE('',#741,4.500000000000000,0.500000000000000);
#743=CARTESIAN_POINT('',(-4.500000000000000,0.0,8.0));
#744=VERTEX_POINT('',#743);
#745=CARTESIAN_POINT('',(-4.500000000000000,0.0,7.500000000000000));
#746=DIRECTION('',(0.0,1.0,0.0));
#747=DIRECTION('',(-1.0,0.0,0.0));
#748=AXIS2_PLACEMENT_3D('',#745,#746,#747);
#749=CIRCLE('',#748,0.500000000000000);
#750=EDGE_CURVE('',#644,#744,#749,.T.);
#751=ORIENTED_EDGE('',*,*,#750,.F.);
#752=ORIENTED_EDGE('',*,*,#650,.T.);
#753=CARTESIAN_POINT('',(5.0,-6.123032E-016,7.500000000000000));
#754=VERTEX_POINT('',#753);
#755=CARTESIAN_POINT('',(0.0,0.0,7.500000000000000));
#756=DIRECTION('',(0.0,0.0,1.0));
#757=DIRECTION('',(-1.0,0.0,0.0));
#758=AXIS2_PLACEMENT_3D('',#755,#756,#757);
#759=CIRCLE('',#758,5.0);
#760=EDGE_CURVE('',#636,#754,#759,.T.);
#761=ORIENTED_EDGE('',*,*,#760,.T.);
#762=CARTESIAN_POINT('',(4.500000000000000,-1.102146E-015,8.0));
#763=VERTEX_POINT('',#762);
#764=CARTESIAN_POINT('',(4.500000000000000,-5.510729E-016,7.500000000000000));
#765=DIRECTION('',(0.0,-1.0,0.0));
#766=DIRECTION('',(1.0,0.0,0.0));
#767=AXIS2_PLACEMENT_3D('',#764,#765,#766);
#768=CIRCLE('',#767,0.500000000000000);
#769=EDGE_CURVE('',#754,#763,#768,.T.);
#770=ORIENTED_EDGE('',*,*,#769,.T.);
#771=CARTESIAN_POINT('',(0.0,0.0,8.0));
#772=DIRECTION('',(0.0,0.0,-1.0));
#773=DIRECTION('',(-1.0,0.0,0.0));
#774=AXIS2_PLACEMENT_3D('',#771,#772,#773);
#775=CIRCLE('',#774,4.500000000000000);
#776=EDGE_CURVE('',#763,#744,#775,.T.);
#777=ORIENTED_EDGE('',*,*,#776,.T.);
#778=EDGE_LOOP('',(#751,#752,#761,#770,#777));
#779=FACE_OUTER_BOUND('',#778,.T.);
#780=ADVANCED_FACE('',(#779),#742,.T.);
#781=CARTESIAN_POINT('',(0.0,0.0,7.900000000000000));
#782=DIRECTION('',(0.0,0.0,1.0));
#783=DIRECTION('',(1.0,0.0,0.0));
#784=AXIS2_PLACEMENT_3D('',#781,#782,#783);
#785=CYLINDRICAL_SURFACE('',#784,4.0);
#786=CARTESIAN_POINT('',(4.0,-9.796851E-016,7.800000000000001));
#787=VERTEX_POINT('',#786);
#788=CARTESIAN_POINT('',(4.0,-9.796851E-016,8.0));
#789=VERTEX_POINT('',#788);
#790=CARTESIAN_POINT('',(4.0,-9.796851E-016,7.800000000000001));
#791=DIRECTION('',(0.0,0.0,1.0));
#792=VECTOR('',#791,0.199999999999999);
#793=LINE('',#790,#792);
#794=EDGE_CURVE('',#787,#789,#793,.T.);
#795=ORIENTED_EDGE('',*,*,#794,.F.);
#796=CARTESIAN_POINT('',(-4.0,4.898425E-016,7.800000000000001));
#797=VERTEX_POINT('',#796);
#798=CARTESIAN_POINT('',(0.0,0.0,7.800000000000001));
#799=DIRECTION('',(0.0,0.0,1.0));
#800=DIRECTION('',(1.0,0.0,0.0));
#801=AXIS2_PLACEMENT_3D('',#798,#799,#800);
#802=CIRCLE('',#801,4.0);
#803=EDGE_CURVE('',#797,#787,#802,.T.);
#804=ORIENTED_EDGE('',*,*,#803,.F.);
#805=CARTESIAN_POINT('',(-4.0,1.469528E-015,8.0));
#806=VERTEX_POINT('',#805);
#807=CARTESIAN_POINT('',(-4.0,4.898425E-016,7.800000000000001));
#808=DIRECTION('',(0.0,0.0,1.0));
#809=VECTOR('',#808,0.199999999999999);
#810=LINE('',#807,#809);
#811=EDGE_CURVE('',#797,#806,#810,.T.);
#812=ORIENTED_EDGE('',*,*,#811,.T.);
#813=CARTESIAN_POINT('',(0.0,0.0,8.0));
#814=DIRECTION('',(0.0,0.0,-1.0));
#815=DIRECTION('',(1.0,0.0,0.0));
#816=AXIS2_PLACEMENT_3D('',#813,#814,#815);
#817=CIRCLE('',#816,4.0);
#818=EDGE_CURVE('',#789,#806,#817,.T.);
#819=ORIENTED_EDGE('',*,*,#818,.F.);
#820=EDGE_LOOP('',(#795,#804,#812,#819));
#821=FACE_OUTER_BOUND('',#820,.T.);
#822=ADVANCED_FACE('',(#821),#785,.F.);
#823=CARTESIAN_POINT('',(4.962730758206613,0.609346717025736,3.860174351338296));
#824=DIRECTION('',(-0.121869343405120,0.992546151641325,0.0));
#825=DIRECTION('',(0.0,0.0,1.0));
#826=AXIS2_PLACEMENT_3D('',#823,#824,#825);
#827=PLANE('',#826);
#828=CARTESIAN_POINT('',(4.962730758206613,0.609346717025736,1.860174351338296));
#829=VERTEX_POINT('',#828);
#830=CARTESIAN_POINT('',(4.863476143042478,0.597159782685224,1.860174351338296));
#831=VERTEX_POINT('',#830);
#832=CARTESIAN_POINT('',(4.962730758206613,0.609346717025736,1.860174351338296));
#833=DIRECTION('',(-0.992546151641325,-0.121869343405120,0.0));
#834=VECTOR('',#833,0.100000000000002);
#835=LINE('',#832,#834);
#836=EDGE_CURVE('',#829,#831,#835,.T.);
#837=ORIENTED_EDGE('',*,*,#836,.F.);
#838=CARTESIAN_POINT('',(4.962730758206613,0.609346717025736,3.860174351338296));
#839=VERTEX_POINT('',#838);
#840=CARTESIAN_POINT('',(4.962730758206611,0.609346717025736,3.860174351338296));
#841=DIRECTION('',(0.0,0.0,-1.0));
#842=VECTOR('',#841,2.0);
#843=LINE('',#840,#842);
#844=EDGE_CURVE('',#839,#829,#843,.T.);
#845=ORIENTED_EDGE('',*,*,#844,.F.);
#846=CARTESIAN_POINT('',(4.863476143042478,0.597159782685224,3.860174351338296));
#847=VERTEX_POINT('',#846);
#848=CARTESIAN_POINT('',(4.863476143042478,0.597159782685224,3.860174351338296));
#849=DIRECTION('',(0.992546151641325,0.121869343405120,0.0));
#850=VECTOR('',#849,0.100000000000002);
#851=LINE('',#848,#850);
#852=EDGE_CURVE('',#847,#839,#851,.T.);
#853=ORIENTED_EDGE('',*,*,#852,.F.);
#854=CARTESIAN_POINT('',(4.863476143042478,0.597159782685224,3.860174351338296));
#855=DIRECTION('',(0.0,0.0,-1.0));
#856=VECTOR('',#855,2.0);
#857=LINE('',#854,#856);
#858=EDGE_CURVE('',#847,#831,#857,.T.);
#859=ORIENTED_EDGE('',*,*,#858,.T.);
#860=EDGE_LOOP('',(#837,#845,#853,#859));
#861=FACE_OUTER_BOUND('',#860,.T.);
#862=ADVANCED_FACE('',(#861),#827,.F.);
#863=CARTESIAN_POINT('',(-5.329071E-015,-2.367626E-016,3.860174351338296));
#864=DIRECTION('',(0.0,0.0,-1.0));
#865=DIRECTION('',(1.0,0.0,0.0));
#866=AXIS2_PLACEMENT_3D('',#863,#864,#865);
#867=CYLINDRICAL_SURFACE('',#866,4.900000000000005);
#868=CARTESIAN_POINT('',(4.863476143042478,-0.597159782685226,1.860174351338296));
#869=VERTEX_POINT('',#868);
#870=CARTESIAN_POINT('',(-5.329071E-015,-2.367626E-016,1.860174351338296));
#871=DIRECTION('',(0.0,0.0,-1.0));
#872=DIRECTION('',(1.0,0.0,0.0));
#873=AXIS2_PLACEMENT_3D('',#870,#871,#872);
#874=CIRCLE('',#873,4.900000000000005);
#875=EDGE_CURVE('',#831,#869,#874,.T.);
#876=ORIENTED_EDGE('',*,*,#875,.F.);
#877=ORIENTED_EDGE('',*,*,#858,.F.);
#878=CARTESIAN_POINT('',(4.863476143042478,-0.597159782685226,3.860174351338296));
#879=VERTEX_POINT('',#878);
#880=CARTESIAN_POINT('',(-5.329071E-015,-2.367626E-016,3.860174351338296));
#881=DIRECTION('',(0.0,0.0,1.0));
#882=DIRECTION('',(1.0,0.0,0.0));
#883=AXIS2_PLACEMENT_3D('',#880,#881,#882);
#884=CIRCLE('',#883,4.900000000000005);
#885=EDGE_CURVE('',#879,#847,#884,.T.);
#886=ORIENTED_EDGE('',*,*,#885,.F.);
#887=CARTESIAN_POINT('',(4.863476143042478,-0.597159782685226,3.860174351338296));
#888=DIRECTION('',(0.0,0.0,-1.0));
#889=VECTOR('',#888,2.0);
#890=LINE('',#887,#889);
#891=EDGE_CURVE('',#879,#869,#890,.T.);
#892=ORIENTED_EDGE('',*,*,#891,.T.);
#893=EDGE_LOOP('',(#876,#877,#886,#892));
#894=FACE_OUTER_BOUND('',#893,.T.);
#895=ADVANCED_FACE('',(#894),#867,.T.);
#896=CARTESIAN_POINT('',(4.863476143042478,-0.597159782685226,3.860174351338296));
#897=DIRECTION('',(-0.121869343405121,-0.992546151641325,0.0));
#898=DIRECTION('',(0.0,0.0,-1.0));
#899=AXIS2_PLACEMENT_3D('',#896,#897,#898);
#900=PLANE('',#899);
#901=CARTESIAN_POINT('',(4.863476143042478,-0.597159782685226,1.860174351338296));
#902=DIRECTION('',(0.992546151641325,-0.121869343405120,0.0));
#903=VECTOR('',#902,0.100000000000002);
#904=LINE('',#901,#903);
#905=EDGE_CURVE('',#869,#678,#904,.T.);
#906=ORIENTED_EDGE('',*,*,#905,.F.);
#907=ORIENTED_EDGE('',*,*,#891,.F.);
#908=CARTESIAN_POINT('',(4.962730758206613,-0.609346717025738,3.860174351338296));
#909=DIRECTION('',(-0.992546151641325,0.121869343405120,0.0));
#910=VECTOR('',#909,0.100000000000002);
#911=LINE('',#908,#910);
#912=EDGE_CURVE('',#687,#879,#911,.T.);
#913=ORIENTED_EDGE('',*,*,#912,.F.);
#914=ORIENTED_EDGE('',*,*,#692,.F.);
#915=EDGE_LOOP('',(#906,#907,#913,#914));
#916=FACE_OUTER_BOUND('',#915,.T.);
#917=ADVANCED_FACE('',(#916),#900,.F.);
#918=CARTESIAN_POINT('',(4.934011039153434,5.962332E-015,1.860174351338296));
#919=DIRECTION('',(0.0,0.0,1.0));
#920=DIRECTION('',(0.0,-1.0,0.0));
#921=AXIS2_PLACEMENT_3D('',#918,#919,#920);
#922=PLANE('',#921);
#923=CARTESIAN_POINT('',(0.0,0.0,1.860174351338296));
#924=DIRECTION('',(0.0,0.0,-1.0));
#925=DIRECTION('',(1.0,0.0,0.0));
#926=AXIS2_PLACEMENT_3D('',#923,#924,#925);
#927=CIRCLE('',#926,5.0);
#928=EDGE_CURVE('',#829,#670,#927,.T.);
#929=ORIENTED_EDGE('',*,*,#928,.F.);
#930=ORIENTED_EDGE('',*,*,#836,.T.);
#931=ORIENTED_EDGE('',*,*,#875,.T.);
#932=ORIENTED_EDGE('',*,*,#905,.T.);
#933=ORIENTED_EDGE('',*,*,#684,.F.);
#934=EDGE_LOOP('',(#929,#930,#931,#932,#933));
#935=FACE_OUTER_BOUND('',#934,.T.);
#936=ADVANCED_FACE('',(#935),#922,.T.);
#937=CARTESIAN_POINT('',(4.934011039153434,5.962332E-015,3.860174351338296));
#938=DIRECTION('',(0.0,0.0,1.0));
#939=DIRECTION('',(0.0,-1.0,0.0));
#940=AXIS2_PLACEMENT_3D('',#937,#938,#939);
#941=PLANE('',#940);
#942=ORIENTED_EDGE('',*,*,#912,.T.);
#943=ORIENTED_EDGE('',*,*,#885,.T.);
#944=ORIENTED_EDGE('',*,*,#852,.T.);
#945=CARTESIAN_POINT('',(0.0,0.0,3.860174351338296));
#946=DIRECTION('',(0.0,0.0,1.0));
#947=DIRECTION('',(1.0,0.0,0.0));
#948=AXIS2_PLACEMENT_3D('',#945,#946,#947);
#949=CIRCLE('',#948,5.0);
#950=EDGE_CURVE('',#619,#839,#949,.T.);
#951=ORIENTED_EDGE('',*,*,#950,.F.);
#952=ORIENTED_EDGE('',*,*,#699,.F.);
#953=EDGE_LOOP('',(#942,#943,#944,#951,#952));
#954=FACE_OUTER_BOUND('',#953,.T.);
#955=ADVANCED_FACE('',(#954),#941,.F.);
#956=CARTESIAN_POINT('',(4.962730758206615,0.609346717025736,7.500000000000000));
#957=DIRECTION('',(-0.121869343405120,0.992546151641325,0.0));
#958=DIRECTION('',(0.0,0.0,1.0));
#959=AXIS2_PLACEMENT_3D('',#956,#957,#958);
#960=PLANE('',#959);
#961=CARTESIAN_POINT('',(4.962730758206615,0.609346717025736,5.500000000000000));
#962=VERTEX_POINT('',#961);
#963=CARTESIAN_POINT('',(4.863476143042480,0.597159782685224,5.500000000000000));
#964=VERTEX_POINT('',#963);
#965=CARTESIAN_POINT('',(4.962730758206615,0.609346717025736,5.500000000000000));
#966=DIRECTION('',(-0.992546151641325,-0.121869343405120,0.0));
#967=VECTOR('',#966,0.100000000000002);
#968=LINE('',#965,#967);
#969=EDGE_CURVE('',#962,#964,#968,.T.);
#970=ORIENTED_EDGE('',*,*,#969,.F.);
#971=CARTESIAN_POINT('',(4.962730758206615,0.609346717025736,7.500000000000000));
#972=VERTEX_POINT('',#971);
#973=CARTESIAN_POINT('',(4.962730758206611,0.609346717025735,7.500000000000000));
#974=DIRECTION('',(0.0,0.0,-1.0));
#975=VECTOR('',#974,2.0);
#976=LINE('',#973,#975);
#977=EDGE_CURVE('',#972,#962,#976,.T.);
#978=ORIENTED_EDGE('',*,*,#977,.F.);
#979=CARTESIAN_POINT('',(4.863476143042480,0.597159782685224,7.500000000000000));
#980=VERTEX_POINT('',#979);
#981=CARTESIAN_POINT('',(4.863476143042480,0.597159782685224,7.500000000000000));
#982=DIRECTION('',(0.992546151641325,0.121869343405120,0.0));
#983=VECTOR('',#982,0.100000000000002);
#984=LINE('',#981,#983);
#985=EDGE_CURVE('',#980,#972,#984,.T.);
#986=ORIENTED_EDGE('',*,*,#985,.F.);
#987=CARTESIAN_POINT('',(4.863476143042480,0.597159782685224,7.500000000000000));
#988=DIRECTION('',(0.0,0.0,-1.0));
#989=VECTOR('',#988,2.0);
#990=LINE('',#987,#989);
#991=EDGE_CURVE('',#980,#964,#990,.T.);
#992=ORIENTED_EDGE('',*,*,#991,.T.);
#993=EDGE_LOOP('',(#970,#978,#986,#992));
#994=FACE_OUTER_BOUND('',#993,.T.);
#995=ADVANCED_FACE('',(#994),#960,.F.);
#996=CARTESIAN_POINT('',(-4.440892E-015,-2.367626E-016,7.500000000000000));
#997=DIRECTION('',(0.0,0.0,-1.0));
#998=DIRECTION('',(1.0,0.0,0.0));
#999=AXIS2_PLACEMENT_3D('',#996,#997,#998);
#1000=CYLINDRICAL_SURFACE('',#999,4.900000000000005);
#1001=CARTESIAN_POINT('',(4.863476143042480,-0.597159782685226,5.500000000000000));
#1002=VERTEX_POINT('',#1001);
#1003=CARTESIAN_POINT('',(-4.440892E-015,-2.367626E-016,5.500000000000000));
#1004=DIRECTION('',(0.0,0.0,-1.0));
#1005=DIRECTION('',(1.0,0.0,0.0));
#1006=AXIS2_PLACEMENT_3D('',#1003,#1004,#1005);
#1007=CIRCLE('',#1006,4.900000000000005);
#1008=EDGE_CURVE('',#964,#1002,#1007,.T.);
#1009=ORIENTED_EDGE('',*,*,#1008,.F.);
#1010=ORIENTED_EDGE('',*,*,#991,.F.);
#1011=CARTESIAN_POINT('',(4.863476143042480,-0.597159782685226,7.500000000000000));
#1012=VERTEX_POINT('',#1011);
#1013=CARTESIAN_POINT('',(-4.440892E-015,-2.367626E-016,7.500000000000000));
#1014=DIRECTION('',(0.0,0.0,1.0));
#1015=DIRECTION('',(1.0,0.0,0.0));
#1016=AXIS2_PLACEMENT_3D('',#1013,#1014,#1015);
#1017=CIRCLE('',#1016,4.900000000000005);
#1018=EDGE_CURVE('',#1012,#980,#1017,.T.);
#1019=ORIENTED_EDGE('',*,*,#1018,.F.);
#1020=CARTESIAN_POINT('',(4.863476143042480,-0.597159782685226,7.500000000000000));
#1021=DIRECTION('',(0.0,0.0,-1.0));
#1022=VECTOR('',#1021,2.0);
#1023=LINE('',#1020,#1022);
#1024=EDGE_CURVE('',#1012,#1002,#1023,.T.);
#1025=ORIENTED_EDGE('',*,*,#1024,.T.);
#1026=EDGE_LOOP('',(#1009,#1010,#1019,#1025));
#1027=FACE_OUTER_BOUND('',#1026,.T.);
#1028=ADVANCED_FACE('',(#1027),#1000,.T.);
#1029=CARTESIAN_POINT('',(4.863476143042480,-0.597159782685226,7.500000000000000));
#1030=DIRECTION('',(-0.121869343405121,-0.992546151641325,0.0));
#1031=DIRECTION('',(0.0,0.0,-1.0));
#1032=AXIS2_PLACEMENT_3D('',#1029,#1030,#1031);
#1033=PLANE('',#1032);
#1034=CARTESIAN_POINT('',(4.863476143042480,-0.597159782685226,5.500000000000000));
#1035=DIRECTION('',(0.992546151641325,-0.121869343405120,0.0));
#1036=VECTOR('',#1035,0.100000000000002);
#1037=LINE('',#1034,#1036);
#1038=EDGE_CURVE('',#1002,#627,#1037,.T.);
#1039=ORIENTED_EDGE('',*,*,#1038,.F.);
#1040=ORIENTED_EDGE('',*,*,#1024,.F.);
#1041=CARTESIAN_POINT('',(4.962730758206615,-0.609346717025738,7.500000000000000));
#1042=DIRECTION('',(-0.992546151641325,0.121869343405120,0.0));
#1043=VECTOR('',#1042,0.100000000000002);
#1044=LINE('',#1041,#1043);
#1045=EDGE_CURVE('',#636,#1012,#1044,.T.);
#1046=ORIENTED_EDGE('',*,*,#1045,.F.);
#1047=ORIENTED_EDGE('',*,*,#641,.F.);
#1048=EDGE_LOOP('',(#1039,#1040,#1046,#1047));
#1049=FACE_OUTER_BOUND('',#1048,.T.);
#1050=ADVANCED_FACE('',(#1049),#1033,.F.);
#1051=CARTESIAN_POINT('',(4.934011039153436,5.962332E-015,5.500000000000000));
#1052=DIRECTION('',(0.0,0.0,1.0));
#1053=DIRECTION('',(0.0,-1.0,0.0));
#1054=AXIS2_PLACEMENT_3D('',#1051,#1052,#1053);
#1055=PLANE('',#1054);
#1056=CARTESIAN_POINT('',(0.0,0.0,5.500000000000000));
#1057=DIRECTION('',(0.0,0.0,-1.0));
#1058=DIRECTION('',(1.0,0.0,0.0));
#1059=AXIS2_PLACEMENT_3D('',#1056,#1057,#1058);
#1060=CIRCLE('',#1059,5.0);
#1061=EDGE_CURVE('',#962,#617,#1060,.T.);
#1062=ORIENTED_EDGE('',*,*,#1061,.F.);
#1063=ORIENTED_EDGE('',*,*,#969,.T.);
#1064=ORIENTED_EDGE('',*,*,#1008,.T.);
#1065=ORIENTED_EDGE('',*,*,#1038,.T.);
#1066=ORIENTED_EDGE('',*,*,#633,.F.);
#1067=EDGE_LOOP('',(#1062,#1063,#1064,#1065,#1066));
#1068=FACE_OUTER_BOUND('',#1067,.T.);
#1069=ADVANCED_FACE('',(#1068),#1055,.T.);
#1070=CARTESIAN_POINT('',(4.934011039153436,5.962332E-015,7.500000000000000));
#1071=DIRECTION('',(0.0,0.0,1.0));
#1072=DIRECTION('',(0.0,-1.0,0.0));
#1073=AXIS2_PLACEMENT_3D('',#1070,#1071,#1072);
#1074=PLANE('',#1073);
#1075=ORIENTED_EDGE('',*,*,#1045,.T.);
#1076=ORIENTED_EDGE('',*,*,#1018,.T.);
#1077=ORIENTED_EDGE('',*,*,#985,.T.);
#1078=CARTESIAN_POINT('',(0.0,0.0,7.500000000000000));
#1079=DIRECTION('',(0.0,0.0,1.0));
#1080=DIRECTION('',(-1.0,0.0,0.0));
#1081=AXIS2_PLACEMENT_3D('',#1078,#1079,#1080);
#1082=CIRCLE('',#1081,5.0);
#1083=EDGE_CURVE('',#754,#972,#1082,.T.);
#1084=ORIENTED_EDGE('',*,*,#1083,.F.);
#1085=ORIENTED_EDGE('',*,*,#760,.F.);
#1086=EDGE_LOOP('',(#1075,#1076,#1077,#1084,#1085));
#1087=FACE_OUTER_BOUND('',#1086,.T.);
#1088=ADVANCED_FACE('',(#1087),#1074,.F.);
#1089=CARTESIAN_POINT('',(0.0,0.0,7.900000000000000));
#1090=DIRECTION('',(0.0,0.0,1.0));
#1091=DIRECTION('',(1.0,0.0,0.0));
#1092=AXIS2_PLACEMENT_3D('',#1089,#1090,#1091);
#1093=CYLINDRICAL_SURFACE('',#1092,4.0);
#1094=ORIENTED_EDGE('',*,*,#794,.T.);
#1095=CARTESIAN_POINT('',(0.0,0.0,8.0));
#1096=DIRECTION('',(0.0,0.0,-1.0));
#1097=DIRECTION('',(1.0,0.0,0.0));
#1098=AXIS2_PLACEMENT_3D('',#1095,#1096,#1097);
#1099=CIRCLE('',#1098,4.0);
#1100=EDGE_CURVE('',#806,#789,#1099,.T.);
#1101=ORIENTED_EDGE('',*,*,#1100,.F.);
#1102=ORIENTED_EDGE('',*,*,#811,.F.);
#1103=CARTESIAN_POINT('',(0.0,0.0,7.800000000000001));
#1104=DIRECTION('',(0.0,0.0,1.0));
#1105=DIRECTION('',(1.0,0.0,0.0));
#1106=AXIS2_PLACEMENT_3D('',#1103,#1104,#1105);
#1107=CIRCLE('',#1106,4.0);
#1108=EDGE_CURVE('',#787,#797,#1107,.T.);
#1109=ORIENTED_EDGE('',*,*,#1108,.F.);
#1110=EDGE_LOOP('',(#1094,#1101,#1102,#1109));
#1111=FACE_OUTER_BOUND('',#1110,.T.);
#1112=ADVANCED_FACE('',(#1111),#1093,.F.);
#1113=CARTESIAN_POINT('',(0.0,0.0,7.800000000000001));
#1114=DIRECTION('',(0.0,0.0,1.0));
#1115=DIRECTION('',(1.0,0.0,0.0));
#1116=AXIS2_PLACEMENT_3D('',#1113,#1114,#1115);
#1117=PLANE('',#1116);
#1118=ORIENTED_EDGE('',*,*,#1108,.T.);
#1119=ORIENTED_EDGE('',*,*,#803,.T.);
#1120=EDGE_LOOP('',(#1118,#1119));
#1121=FACE_OUTER_BOUND('',#1120,.T.);
#1122=ADVANCED_FACE('',(#1121),#1117,.T.);
#1123=CARTESIAN_POINT('',(0.0,0.0,8.0));
#1124=DIRECTION('',(0.0,0.0,1.0));
#1125=DIRECTION('',(1.0,0.0,0.0));
#1126=AXIS2_PLACEMENT_3D('',#1123,#1124,#1125);
#1127=PLANE('',#1126);
#1128=ORIENTED_EDGE('',*,*,#776,.F.);
#1129=CARTESIAN_POINT('',(0.0,0.0,8.0));
#1130=DIRECTION('',(0.0,0.0,-1.0));
#1131=DIRECTION('',(-1.0,0.0,0.0));
#1132=AXIS2_PLACEMENT_3D('',#1129,#1130,#1131);
#1133=CIRCLE('',#1132,4.500000000000000);
#1134=EDGE_CURVE('',#744,#763,#1133,.T.);
#1135=ORIENTED_EDGE('',*,*,#1134,.F.);
#1136=EDGE_LOOP('',(#1128,#1135));
#1137=FACE_OUTER_BOUND('',#1136,.T.);
#1138=ORIENTED_EDGE('',*,*,#1100,.T.);
#1139=ORIENTED_EDGE('',*,*,#818,.T.);
#1140=EDGE_LOOP('',(#1138,#1139));
#1141=FACE_BOUND('',#1140,.T.);
#1142=ADVANCED_FACE('',(#1137,#1141),#1127,.T.);
#1143=CARTESIAN_POINT('',(0.0,0.0,7.500000000000000));
#1144=DIRECTION('',(0.0,0.0,-1.0));
#1145=DIRECTION('',(-1.0,0.0,0.0));
#1146=AXIS2_PLACEMENT_3D('',#1143,#1144,#1145);
#1147=TOROIDAL_SURFACE('',#1146,4.500000000000000,0.500000000000000);
#1148=ORIENTED_EDGE('',*,*,#750,.T.);
#1149=ORIENTED_EDGE('',*,*,#1134,.T.);
#1150=ORIENTED_EDGE('',*,*,#769,.F.);
#1151=ORIENTED_EDGE('',*,*,#1083,.T.);
#1152=CARTESIAN_POINT('',(0.0,0.0,7.500000000000000));
#1153=DIRECTION('',(0.0,0.0,1.0));
#1154=DIRECTION('',(-1.0,0.0,0.0));
#1155=AXIS2_PLACEMENT_3D('',#1152,#1153,#1154);
#1156=CIRCLE('',#1155,5.0);
#1157=EDGE_CURVE('',#972,#644,#1156,.T.);
#1158=ORIENTED_EDGE('',*,*,#1157,.T.);
#1159=EDGE_LOOP('',(#1148,#1149,#1150,#1151,#1158));
#1160=FACE_OUTER_BOUND('',#1159,.T.);
#1161=ADVANCED_FACE('',(#1160),#1147,.T.);
#1162=CARTESIAN_POINT('',(0.0,0.0,0.500000000000000));
#1163=DIRECTION('',(0.0,0.0,1.0));
#1164=DIRECTION('',(1.0,0.0,0.0));
#1165=AXIS2_PLACEMENT_3D('',#1162,#1163,#1164);
#1166=TOROIDAL_SURFACE('',#1165,4.500000000000000,0.500000000000000);
#1167=ORIENTED_EDGE('',*,*,#716,.T.);
#1168=CARTESIAN_POINT('',(0.0,0.0,0.0));
#1169=DIRECTION('',(0.0,0.0,1.0));
#1170=DIRECTION('',(-1.0,0.0,0.0));
#1171=AXIS2_PLACEMENT_3D('',#1168,#1169,#1170);
#1172=CIRCLE('',#1171,4.500000000000000);
#1173=EDGE_CURVE('',#710,#720,#1172,.T.);
#1174=ORIENTED_EDGE('',*,*,#1173,.T.);
#1175=ORIENTED_EDGE('',*,*,#726,.F.);
#1176=CARTESIAN_POINT('',(0.0,0.0,0.500000000000000));
#1177=DIRECTION('',(0.0,0.0,-1.0));
#1178=DIRECTION('',(-1.0,0.0,0.0));
#1179=AXIS2_PLACEMENT_3D('',#1176,#1177,#1178);
#1180=CIRCLE('',#1179,5.0);
#1181=EDGE_CURVE('',#653,#661,#1180,.T.);
#1182=ORIENTED_EDGE('',*,*,#1181,.T.);
#1183=EDGE_LOOP('',(#1167,#1174,#1175,#1182));
#1184=FACE_OUTER_BOUND('',#1183,.T.);
#1185=ADVANCED_FACE('',(#1184),#1166,.T.);
#1186=CARTESIAN_POINT('',(0.0,0.0,0.0));
#1187=DIRECTION('',(0.0,0.0,1.0));
#1188=DIRECTION('',(1.0,0.0,0.0));
#1189=AXIS2_PLACEMENT_3D('',#1186,#1187,#1188);
#1190=CYLINDRICAL_SURFACE('',#1189,5.0);
#1191=ORIENTED_EDGE('',*,*,#624,.T.);
#1192=ORIENTED_EDGE('',*,*,#950,.T.);
#1193=ORIENTED_EDGE('',*,*,#844,.T.);
#1194=ORIENTED_EDGE('',*,*,#928,.T.);
#1195=ORIENTED_EDGE('',*,*,#675,.T.);
#1196=ORIENTED_EDGE('',*,*,#1181,.F.);
#1197=ORIENTED_EDGE('',*,*,#658,.F.);
#1198=ORIENTED_EDGE('',*,*,#1157,.F.);
#1199=ORIENTED_EDGE('',*,*,#977,.T.);
#1200=ORIENTED_EDGE('',*,*,#1061,.T.);
#1201=EDGE_LOOP('',(#1191,#1192,#1193,#1194,#1195,#1196,#1197,#1198,#1199,#1200));
#1202=FACE_OUTER_BOUND('',#1201,.T.);
#1203=ADVANCED_FACE('',(#1202),#1190,.T.);
#1204=CARTESIAN_POINT('',(0.0,0.0,0.0));
#1205=DIRECTION('',(0.0,0.0,1.0));
#1206=DIRECTION('',(1.0,0.0,0.0));
#1207=AXIS2_PLACEMENT_3D('',#1204,#1205,#1206);
#1208=PLANE('',#1207);
#1209=ORIENTED_EDGE('',*,*,#1173,.F.);
#1210=ORIENTED_EDGE('',*,*,#733,.F.);
#1211=EDGE_LOOP('',(#1209,#1210));
#1212=FACE_OUTER_BOUND('',#1211,.T.);
#1213=CARTESIAN_POINT('',(0.0,0.0,0.0));
#1214=DIRECTION('',(0.0,0.0,1.0));
#1215=DIRECTION('',(1.0,0.0,0.0));
#1216=AXIS2_PLACEMENT_3D('',#1213,#1214,#1215);
#1217=CIRCLE('',#1216,4.0);
#1218=EDGE_CURVE('',#575,#585,#1217,.T.);
#1219=ORIENTED_EDGE('',*,*,#1218,.T.);
#1220=ORIENTED_EDGE('',*,*,#591,.T.);
#1221=EDGE_LOOP('',(#1219,#1220));
#1222=FACE_BOUND('',#1221,.T.);
#1223=ADVANCED_FACE('',(#1212,#1222),#1208,.F.);
#1224=CARTESIAN_POINT('',(0.0,0.0,0.300000000000000));
#1225=DIRECTION('',(0.0,0.0,1.0));
#1226=DIRECTION('',(1.0,0.0,0.0));
#1227=AXIS2_PLACEMENT_3D('',#1224,#1225,#1226);
#1228=PLANE('',#1227);
#1229=ORIENTED_EDGE('',*,*,#606,.T.);
#1230=CARTESIAN_POINT('',(0.0,0.0,0.300000000000000));
#1231=DIRECTION('',(0.0,0.0,-1.0));
#1232=DIRECTION('',(1.0,0.0,0.0));
#1233=AXIS2_PLACEMENT_3D('',#1230,#1231,#1232);
#1234=CIRCLE('',#1233,4.0);
#1235=EDGE_CURVE('',#594,#577,#1234,.T.);
#1236=ORIENTED_EDGE('',*,*,#1235,.T.);
#1237=EDGE_LOOP('',(#1229,#1236));
#1238=FACE_OUTER_BOUND('',#1237,.T.);
#1239=ADVANCED_FACE('',(#1238),#1228,.F.);
#1240=CARTESIAN_POINT('',(0.0,0.0,0.0));
#1241=DIRECTION('',(0.0,0.0,1.0));
#1242=DIRECTION('',(1.0,0.0,0.0));
#1243=AXIS2_PLACEMENT_3D('',#1240,#1241,#1242);
#1244=CYLINDRICAL_SURFACE('',#1243,4.0);
#1245=ORIENTED_EDGE('',*,*,#582,.T.);
#1246=ORIENTED_EDGE('',*,*,#1235,.F.);
#1247=ORIENTED_EDGE('',*,*,#599,.F.);
#1248=ORIENTED_EDGE('',*,*,#1218,.F.);
#1249=EDGE_LOOP('',(#1245,#1246,#1247,#1248));
#1250=FACE_OUTER_BOUND('',#1249,.T.);
#1251=ADVANCED_FACE('',(#1250),#1244,.F.);
#1252=CLOSED_SHELL('',(#610,#703,#737,#780,#822,#862,#895,#917,#936,#955,#995,#1028,#1050,#1069,#1088,#1112,#1122,#1142,#1161,#1185,#1203,#1223,#1239,#1251));
#1253=MANIFOLD_SOLID_BREP('8C6',#1252);
#1254=COLOUR_RGB('250',0.330000000000000,0.330000000000000,0.330000000000000);
#1255=SURFACE_STYLE_USAGE(.BOTH.,#1256);
#1256=SURFACE_SIDE_STYLE('NONE',(#1257));
#1257=SURFACE_STYLE_FILL_AREA(#1258);
#1258=FILL_AREA_STYLE('NONE',(#1259));
#1259=FILL_AREA_STYLE_COLOUR('NONE',#1254);
#1260=PRESENTATION_STYLE_ASSIGNMENT((#1255));
#1261=STYLED_ITEM('NONE',(#1260),#1253);
#1262=CARTESIAN_POINT('',(-2.500000000000000,0.0,0.0));
#1263=DIRECTION('',(0.0,0.0,-1.0));
#1264=DIRECTION('',(1.0,0.0,0.0));
#1265=AXIS2_PLACEMENT_3D('',#1262,#1263,#1264);
#1266=CYLINDRICAL_SURFACE('',#1265,0.250000000000000);
#1267=CARTESIAN_POINT('',(-2.250000000000000,0.0,-3.600000000000000));
#1268=VERTEX_POINT('',#1267);
#1269=CARTESIAN_POINT('',(-2.250000000000000,0.0,0.0));
#1270=VERTEX_POINT('',#1269);
#1271=CARTESIAN_POINT('',(-2.250000000000000,0.0,-3.600000000000000));
#1272=DIRECTION('',(0.0,0.0,1.0));
#1273=VECTOR('',#1272,3.600000000000000);
#1274=LINE('',#1271,#1273);
#1275=EDGE_CURVE('',#1268,#1270,#1274,.T.);
#1276=ORIENTED_EDGE('',*,*,#1275,.F.);
#1277=CARTESIAN_POINT('',(-2.750000000000000,3.061516E-017,-3.600000000000000));
#1278=VERTEX_POINT('',#1277);
#1279=CARTESIAN_POINT('',(-2.500000000000000,0.0,-3.600000000000000));
#1280=DIRECTION('',(0.0,0.0,1.0));
#1281=DIRECTION('',(1.0,0.0,0.0));
#1282=AXIS2_PLACEMENT_3D('',#1279,#1280,#1281);
#1283=CIRCLE('',#1282,0.250000000000000);
#1284=EDGE_CURVE('',#1268,#1278,#1283,.T.);
#1285=ORIENTED_EDGE('',*,*,#1284,.T.);
#1286=CARTESIAN_POINT('',(-2.750000000000000,3.061516E-017,0.0));
#1287=VERTEX_POINT('',#1286);
#1288=CARTESIAN_POINT('',(-2.750000000000000,3.061516E-017,-3.600000000000000));
#1289=DIRECTION('',(0.0,0.0,1.0));
#1290=VECTOR('',#1289,3.600000000000000);
#1291=LINE('',#1288,#1290);
#1292=EDGE_CURVE('',#1278,#1287,#1291,.T.);
#1293=ORIENTED_EDGE('',*,*,#1292,.T.);
#1294=CARTESIAN_POINT('',(-2.500000000000000,0.0,0.0));
#1295=DIRECTION('',(0.0,0.0,1.0));
#1296=DIRECTION('',(1.0,0.0,0.0));
#1297=AXIS2_PLACEMENT_3D('',#1294,#1295,#1296);
#1298=CIRCLE('',#1297,0.250000000000000);
#1299=EDGE_CURVE('',#1270,#1287,#1298,.T.);
#1300=ORIENTED_EDGE('',*,*,#1299,.F.);
#1301=EDGE_LOOP('',(#1276,#1285,#1293,#1300));
#1302=FACE_OUTER_BOUND('',#1301,.T.);
#1303=ADVANCED_FACE('',(#1302),#1266,.T.);
#1304=CARTESIAN_POINT('',(-2.500000000000000,0.0,0.0));
#1305=DIRECTION('',(0.0,0.0,-1.0));
#1306=DIRECTION('',(1.0,0.0,0.0));
#1307=AXIS2_PLACEMENT_3D('',#1304,#1305,#1306);
#1308=CYLINDRICAL_SURFACE('',#1307,0.250000000000000);
#1309=ORIENTED_EDGE('',*,*,#1275,.T.);
#1310=CARTESIAN_POINT('',(-2.500000000000000,0.0,0.0));
#1311=DIRECTION('',(0.0,0.0,1.0));
#1312=DIRECTION('',(1.0,0.0,0.0));
#1313=AXIS2_PLACEMENT_3D('',#1310,#1311,#1312);
#1314=CIRCLE('',#1313,0.250000000000000);
#1315=EDGE_CURVE('',#1287,#1270,#1314,.T.);
#1316=ORIENTED_EDGE('',*,*,#1315,.F.);
#1317=ORIENTED_EDGE('',*,*,#1292,.F.);
#1318=CARTESIAN_POINT('',(-2.500000000000000,0.0,-3.600000000000000));
#1319=DIRECTION('',(0.0,0.0,1.0));
#1320=DIRECTION('',(1.0,0.0,0.0));
#1321=AXIS2_PLACEMENT_3D('',#1318,#1319,#1320);
#1322=CIRCLE('',#1321,0.250000000000000);
#1323=EDGE_CURVE('',#1278,#1268,#1322,.T.);
#1324=ORIENTED_EDGE('',*,*,#1323,.T.);
#1325=EDGE_LOOP('',(#1309,#1316,#1317,#1324));
#1326=FACE_OUTER_BOUND('',#1325,.T.);
#1327=ADVANCED_FACE('',(#1326),#1308,.T.);
#1328=CARTESIAN_POINT('',(-2.500000000000000,0.0,-3.600000000000000));
#1329=DIRECTION('',(0.0,0.0,1.0));
#1330=DIRECTION('',(1.0,0.0,0.0));
#1331=AXIS2_PLACEMENT_3D('',#1328,#1329,#1330);
#1332=PLANE('',#1331);
#1333=ORIENTED_EDGE('',*,*,#1284,.F.);
#1334=ORIENTED_EDGE('',*,*,#1323,.F.);
#1335=EDGE_LOOP('',(#1333,#1334));
#1336=FACE_OUTER_BOUND('',#1335,.T.);
#1337=ADVANCED_FACE('',(#1336),#1332,.F.);
#1338=CARTESIAN_POINT('',(-2.500000000000000,0.0,0.0));
#1339=DIRECTION('',(0.0,0.0,1.0));
#1340=DIRECTION('',(1.0,0.0,0.0));
#1341=AXIS2_PLACEMENT_3D('',#1338,#1339,#1340);
#1342=PLANE('',#1341);
#1343=ORIENTED_EDGE('',*,*,#1299,.T.);
#1344=ORIENTED_EDGE('',*,*,#1315,.T.);
#1345=EDGE_LOOP('',(#1343,#1344));
#1346=FACE_OUTER_BOUND('',#1345,.T.);
#1347=ADVANCED_FACE('',(#1346),#1342,.T.);
#1348=CLOSED_SHELL('',(#1303,#1327,#1337,#1347));
#1349=MANIFOLD_SOLID_BREP('768',#1348);
#1350=STYLED_ITEM('NONE',(#478),#1349);
#1351=CARTESIAN_POINT('',(2.500000000000000,0.0,0.0));
#1352=DIRECTION('',(0.0,0.0,-1.0));
#1353=DIRECTION('',(1.0,0.0,0.0));
#1354=AXIS2_PLACEMENT_3D('',#1351,#1352,#1353);
#1355=CYLINDRICAL_SURFACE('',#1354,0.250000000000000);
#1356=CARTESIAN_POINT('',(2.750000000000000,0.0,-3.600000000000000));
#1357=VERTEX_POINT('',#1356);
#1358=CARTESIAN_POINT('',(2.750000000000000,0.0,0.0));
#1359=VERTEX_POINT('',#1358);
#1360=CARTESIAN_POINT('',(2.750000000000000,0.0,-3.600000000000000));
#1361=DIRECTION('',(0.0,0.0,1.0));
#1362=VECTOR('',#1361,3.600000000000000);
#1363=LINE('',#1360,#1362);
#1364=EDGE_CURVE('',#1357,#1359,#1363,.T.);
#1365=ORIENTED_EDGE('',*,*,#1364,.F.);
#1366=CARTESIAN_POINT('',(2.250000000000000,3.061516E-017,-3.600000000000000));
#1367=VERTEX_POINT('',#1366);
#1368=CARTESIAN_POINT('',(2.500000000000000,0.0,-3.600000000000000));
#1369=DIRECTION('',(0.0,0.0,1.0));
#1370=DIRECTION('',(1.0,0.0,0.0));
#1371=AXIS2_PLACEMENT_3D('',#1368,#1369,#1370);
#1372=CIRCLE('',#1371,0.250000000000000);
#1373=EDGE_CURVE('',#1357,#1367,#1372,.T.);
#1374=ORIENTED_EDGE('',*,*,#1373,.T.);
#1375=CARTESIAN_POINT('',(2.250000000000000,3.061516E-017,0.0));
#1376=VERTEX_POINT('',#1375);
#1377=CARTESIAN_POINT('',(2.250000000000000,3.061516E-017,-3.600000000000000));
#1378=DIRECTION('',(0.0,0.0,1.0));
#1379=VECTOR('',#1378,3.600000000000000);
#1380=LINE('',#1377,#1379);
#1381=EDGE_CURVE('',#1367,#1376,#1380,.T.);
#1382=ORIENTED_EDGE('',*,*,#1381,.T.);
#1383=CARTESIAN_POINT('',(2.500000000000000,0.0,0.0));
#1384=DIRECTION('',(0.0,0.0,1.0));
#1385=DIRECTION('',(1.0,0.0,0.0));
#1386=AXIS2_PLACEMENT_3D('',#1383,#1384,#1385);
#1387=CIRCLE('',#1386,0.250000000000000);
#1388=EDGE_CURVE('',#1359,#1376,#1387,.T.);
#1389=ORIENTED_EDGE('',*,*,#1388,.F.);
#1390=EDGE_LOOP('',(#1365,#1374,#1382,#1389));
#1391=FACE_OUTER_BOUND('',#1390,.T.);
#1392=ADVANCED_FACE('',(#1391),#1355,.T.);
#1393=CARTESIAN_POINT('',(2.500000000000000,0.0,0.0));
#1394=DIRECTION('',(0.0,0.0,-1.0));
#1395=DIRECTION('',(1.0,0.0,0.0));
#1396=AXIS2_PLACEMENT_3D('',#1393,#1394,#1395);
#1397=CYLINDRICAL_SURFACE('',#1396,0.250000000000000);
#1398=ORIENTED_EDGE('',*,*,#1364,.T.);
#1399=CARTESIAN_POINT('',(2.500000000000000,0.0,0.0));
#1400=DIRECTION('',(0.0,0.0,1.0));
#1401=DIRECTION('',(1.0,0.0,0.0));
#1402=AXIS2_PLACEMENT_3D('',#1399,#1400,#1401);
#1403=CIRCLE('',#1402,0.250000000000000);
#1404=EDGE_CURVE('',#1376,#1359,#1403,.T.);
#1405=ORIENTED_EDGE('',*,*,#1404,.F.);
#1406=ORIENTED_EDGE('',*,*,#1381,.F.);
#1407=CARTESIAN_POINT('',(2.500000000000000,0.0,-3.600000000000000));
#1408=DIRECTION('',(0.0,0.0,1.0));
#1409=DIRECTION('',(1.0,0.0,0.0));
#1410=AXIS2_PLACEMENT_3D('',#1407,#1408,#1409);
#1411=CIRCLE('',#1410,0.250000000000000);
#1412=EDGE_CURVE('',#1367,#1357,#1411,.T.);
#1413=ORIENTED_EDGE('',*,*,#1412,.T.);
#1414=EDGE_LOOP('',(#1398,#1405,#1406,#1413));
#1415=FACE_OUTER_BOUND('',#1414,.T.);
#1416=ADVANCED_FACE('',(#1415),#1397,.T.);
#1417=CARTESIAN_POINT('',(2.500000000000000,0.0,-3.600000000000000));
#1418=DIRECTION('',(0.0,0.0,1.0));
#1419=DIRECTION('',(1.0,0.0,0.0));
#1420=AXIS2_PLACEMENT_3D('',#1417,#1418,#1419);
#1421=PLANE('',#1420);
#1422=ORIENTED_EDGE('',*,*,#1373,.F.);
#1423=ORIENTED_EDGE('',*,*,#1412,.F.);
#1424=EDGE_LOOP('',(#1422,#1423));
#1425=FACE_OUTER_BOUND('',#1424,.T.);
#1426=ADVANCED_FACE('',(#1425),#1421,.F.);
#1427=CARTESIAN_POINT('',(2.500000000000000,0.0,0.0));
#1428=DIRECTION('',(0.0,0.0,1.0));
#1429=DIRECTION('',(1.0,0.0,0.0));
#1430=AXIS2_PLACEMENT_3D('',#1427,#1428,#1429);
#1431=PLANE('',#1430);
#1432=ORIENTED_EDGE('',*,*,#1388,.T.);
#1433=ORIENTED_EDGE('',*,*,#1404,.T.);
#1434=EDGE_LOOP('',(#1432,#1433));
#1435=FACE_OUTER_BOUND('',#1434,.T.);
#1436=ADVANCED_FACE('',(#1435),#1431,.T.);
#1437=CLOSED_SHELL('',(#1392,#1416,#1426,#1436));
#1438=MANIFOLD_SOLID_BREP('767',#1437);
#1439=STYLED_ITEM('NONE',(#478),#1438);
#1440=ADVANCED_BREP_SHAPE_REPRESENTATION('ABSR1',(#218,#382,#471,#567,#1253,#1349,#1438),#28);
#1441=SHAPE_REPRESENTATION_RELATIONSHIP('SRRPL1','',#1440,#62);
ENDSEC;
END-ISO-10303-21;
