ISO-10303-21;
HEADER;
/****************************************************************
 * Generated by software with PDE/Lib inside                    *
 * PDElib Version v51a, created Mon 11/23/2009                  *
 * ITI Transcendata (http://www.transcendata.com/)              *
 ****************************************************************/
FILE_DESCRIPTION((''),'2;1');
FILE_NAME('CAPR500-450X720X600.stp','2011-08-04T13:42:05',(''),(''),'Mechanical Desktop 2011','Mechanical Desktop 2011',', , ');
FILE_SCHEMA(('AUTOMOTIVE_DESIGN { 1 2 10303 214 1 1 1 1 }'));
ENDSEC;
DATA;
#10=(NAMED_UNIT(*)PLANE_ANGLE_UNIT()SI_UNIT($,.RADIAN.));
#11=DIMENSIONAL_EXPONENTS(0.0,0.0,0.0,0.0,0.0,0.0,0.0);
#12=PLANE_ANGLE_MEASURE_WITH_UNIT(PLANE_ANGLE_MEASURE(0.017453292500000),#10);
#16=(CONVERSION_BASED_UNIT('DEGREE',#12)NAMED_UNIT(#11)PLANE_ANGLE_UNIT());
#20=(NAMED_UNIT(*)SI_UNIT($,.STERADIAN.)SOLID_ANGLE_UNIT());
#24=(LENGTH_UNIT()NAMED_UNIT(*)SI_UNIT(.MILLI.,.METRE.));
#26=UNCERTAINTY_MEASURE_WITH_UNIT(LENGTH_MEASURE(0.000001000000000),#24,'DISTANCE_ACCURACY_VALUE','');
#28=(GEOMETRIC_REPRESENTATION_CONTEXT(3)GLOBAL_UNCERTAINTY_ASSIGNED_CONTEXT((#26))GLOBAL_UNIT_ASSIGNED_CONTEXT((#16,#20,#24))REPRESENTATION_CONTEXT('','3D'));
#29=APPLICATION_CONTEXT('automotive design');
#30=APPLICATION_PROTOCOL_DEFINITION('INTERNATIONAL_STANDARD','automotive_design',1998,#29);
#31=PRODUCT_CONTEXT('3D Mechanical Parts',#29,'mechanical');
#32=PRODUCT('Product','Product','',(#31));
#33=PRODUCT_RELATED_PRODUCT_CATEGORY('part',$,(#32));
#34=PRODUCT_CATEGORY('part',$);
#35=PERSON('1','Design','Joe',$,$,$);
#36=ORGANIZATION($,'None','None');
#37=PERSON_AND_ORGANIZATION(#35,#36);
#38=PERSON_AND_ORGANIZATION_ROLE('design_owner');
#39=APPLIED_PERSON_AND_ORGANIZATION_ASSIGNMENT(#37,#38,(#32));
#40=PRODUCT_DEFINITION_FORMATION_WITH_SPECIFIED_SOURCE('None','',#32,.BOUGHT.);
#41=PERSON('2','Creator','Joe',$,$,$);
#42=ORGANIZATION($,'None','None');
#43=PERSON_AND_ORGANIZATION(#41,#42);
#44=PERSON_AND_ORGANIZATION_ROLE('creator');
#45=APPLIED_PERSON_AND_ORGANIZATION_ASSIGNMENT(#43,#44,(#40));
#46=PERSON('3','Supplier','Joe',$,$,$);
#47=ORGANIZATION($,'None','None');
#48=PERSON_AND_ORGANIZATION(#46,#47);
#49=PERSON_AND_ORGANIZATION_ROLE('design_supplier');
#50=APPLIED_PERSON_AND_ORGANIZATION_ASSIGNMENT(#48,#49,(#40));
#51=PRODUCT_DEFINITION_CONTEXT('part definition',#29,'design');
#52=PRODUCT_DEFINITION('None','',#40,#51);
#53=PERSON('4','Creator','Joe',$,$,$);
#54=ORGANIZATION($,'None','None');
#55=PERSON_AND_ORGANIZATION(#53,#54);
#56=PERSON_AND_ORGANIZATION_ROLE('creator');
#57=APPLIED_PERSON_AND_ORGANIZATION_ASSIGNMENT(#55,#56,(#52));
#58=CARTESIAN_POINT('NONE',(0.0,0.0,0.0));
#59=DIRECTION('NONE',(0.0,0.0,1.0));
#60=DIRECTION('NONE',(1.0,0.0,0.0));
#61=AXIS2_PLACEMENT_3D('NONE',#58,#59,#60);
#62=SHAPE_REPRESENTATION('SR1',(#61),#28);
#63=PRODUCT_DEFINITION_SHAPE('PDS1','Test Part',#52);
#64=SHAPE_DEFINITION_REPRESENTATION(#63,#62);
#65=CARTESIAN_POINT('',(2.250000000000000,-2.250000000000000,0.500000000000000));
#66=CARTESIAN_POINT('',(2.250000000000000,-1.750000000000000,0.500000000000000));
#67=CARTESIAN_POINT('',(2.250000000000000,-2.250000000000000,1.0));
#68=CARTESIAN_POINT('',(2.250000000000000,-1.750000000000000,1.0));
#69=CARTESIAN_POINT('',(1.750000000000000,-2.250000000000000,1.000000000000000));
#70=CARTESIAN_POINT('',(1.750000000000000,-1.750000000000000,1.0));
#71=CARTESIAN_POINT('',(1.250000000000000,-2.250000000000000,1.000000000000000));
#72=CARTESIAN_POINT('',(1.250000000000000,-1.750000000000000,1.000000000000000));
#73=CARTESIAN_POINT('',(1.250000000000000,-2.250000000000000,0.500000000000000));
#74=CARTESIAN_POINT('',(1.250000000000000,-1.750000000000000,0.500000000000000));
#75=CARTESIAN_POINT('',(1.250000000000000,-2.250000000000000,2.220446E-016));
#76=CARTESIAN_POINT('',(1.250000000000000,-1.750000000000000,2.465190E-032));
#77=CARTESIAN_POINT('',(1.750000000000000,-2.250000000000000,2.220446E-016));
#78=CARTESIAN_POINT('',(1.750000000000000,-1.750000000000000,0.0));
#79=CARTESIAN_POINT('',(2.250000000000000,-2.250000000000000,4.440892E-016));
#80=CARTESIAN_POINT('',(2.250000000000000,-1.750000000000000,2.220446E-016));
#81=CARTESIAN_POINT('',(2.250000000000000,-2.250000000000000,0.500000000000000));
#82=CARTESIAN_POINT('',(2.250000000000000,-1.750000000000000,0.500000000000000));
#90=(BOUNDED_SURFACE()B_SPLINE_SURFACE(1,2,((#65,#67,#69,#71,#73,#75,#77,#79,#81),(#66,#68,#70,#72,#74,#76,#78,#80,#82)),.UNSPECIFIED.,.F.,.T.,.U.)B_SPLINE_SURFACE_WITH_KNOTS((2,2),(3,2,2,2,3),(3.500000000000000,4.500000000000000),(0.0,0.785398163397448,1.570796326794897,2.356194490192345,3.141592653589793),.UNSPECIFIED.)GEOMETRIC_REPRESENTATION_ITEM()RATIONAL_B_SPLINE_SURFACE(((1.0,0.707106781186548,1.0,0.707106781186548,1.0,0.707106781186548,1.0,0.707106781186548,1.0),(1.0,0.707106781186548,1.0,0.707106781186548,1.0,0.707106781186548,1.0,0.707106781186548,1.0)))REPRESENTATION_ITEM('')SURFACE());
#91=CARTESIAN_POINT('',(2.250000000000000,-2.250000000000000,0.500000000000001));
#92=VERTEX_POINT('',#91);
#93=CARTESIAN_POINT('',(1.250000000000000,-2.250000000000000,0.500000000000001));
#94=VERTEX_POINT('',#93);
#95=CARTESIAN_POINT('',(1.750000000000000,-2.250000000000000,0.500000000000000));
#96=DIRECTION('',(0.0,1.0,0.0));
#97=DIRECTION('',(-1.0,0.0,0.0));
#98=AXIS2_PLACEMENT_3D('',#95,#96,#97);
#99=CIRCLE('',#98,0.500000000000000);
#100=EDGE_CURVE('',#92,#94,#99,.T.);
#101=ORIENTED_EDGE('',*,*,#100,.T.);
#102=CARTESIAN_POINT('',(1.250000000000000,-1.750000000000000,0.500000000000000));
#103=VERTEX_POINT('',#102);
#104=CARTESIAN_POINT('',(1.250000000000000,-2.250000000000000,0.500000000000001));
#105=DIRECTION('',(0.0,1.0,0.0));
#106=VECTOR('',#105,0.500000000000000);
#107=LINE('',#104,#106);
#108=EDGE_CURVE('',#94,#103,#107,.T.);
#109=ORIENTED_EDGE('',*,*,#108,.T.);
#110=CARTESIAN_POINT('',(2.250000000000000,-1.750000000000000,0.500000000000001));
#111=VERTEX_POINT('',#110);
#112=CARTESIAN_POINT('',(1.750000000000000,-1.750000000000000,0.500000000000000));
#113=DIRECTION('',(0.0,-1.0,0.0));
#114=DIRECTION('',(-1.0,0.0,0.0));
#115=AXIS2_PLACEMENT_3D('',#112,#113,#114);
#116=CIRCLE('',#115,0.500000000000000);
#117=EDGE_CURVE('',#103,#111,#116,.T.);
#118=ORIENTED_EDGE('',*,*,#117,.T.);
#119=CARTESIAN_POINT('',(2.250000000000000,-1.750000000000000,0.500000000000000));
#120=DIRECTION('',(0.0,-1.0,0.0));
#121=VECTOR('',#120,0.500000000000000);
#122=LINE('',#119,#121);
#123=EDGE_CURVE('',#111,#92,#122,.T.);
#124=ORIENTED_EDGE('',*,*,#123,.T.);
#125=EDGE_LOOP('',(#101,#109,#118,#124));
#126=FACE_OUTER_BOUND('',#125,.T.);
#127=ADVANCED_FACE('',(#126),#90,.T.);
#128=CARTESIAN_POINT('',(2.250000000000000,-1.750000000000000,-5.551115E-017));
#129=CARTESIAN_POINT('',(1.250000000000000,-1.750000000000000,-5.551115E-017));
#130=CARTESIAN_POINT('',(2.250000000000000,-1.750000000000000,0.500000000000001));
#131=CARTESIAN_POINT('',(1.250000000000000,-1.750000000000000,0.500000000000001));
#132=B_SPLINE_SURFACE_WITH_KNOTS('',1,1,((#128,#130),(#129,#131)),.UNSPECIFIED.,.F.,.F.,.U.,(2,2),(2,2),(0.0,1.0),(0.0,0.500000000000001),.UNSPECIFIED.);
#133=CARTESIAN_POINT('',(1.250000000000000,-1.750000000000000,0.500000000000001));
#134=DIRECTION('',(1.0,0.0,0.0));
#135=VECTOR('',#134,1.0);
#136=LINE('',#133,#135);
#137=EDGE_CURVE('',#103,#111,#136,.T.);
#138=ORIENTED_EDGE('',*,*,#137,.T.);
#139=ORIENTED_EDGE('',*,*,#117,.F.);
#140=EDGE_LOOP('',(#138,#139));
#141=FACE_OUTER_BOUND('',#140,.T.);
#142=ADVANCED_FACE('',(#141),#132,.T.);
#143=CARTESIAN_POINT('',(1.250000000000000,-2.250000000000000,0.500000000000001));
#144=CARTESIAN_POINT('',(2.250000000000000,-2.250000000000000,0.500000000000001));
#145=CARTESIAN_POINT('',(1.250000000000000,-1.750000000000000,0.500000000000001));
#146=CARTESIAN_POINT('',(2.250000000000000,-1.750000000000000,0.500000000000001));
#147=B_SPLINE_SURFACE_WITH_KNOTS('',1,1,((#143,#145),(#144,#146)),.UNSPECIFIED.,.F.,.F.,.U.,(2,2),(2,2),(0.0,1.0),(0.0,0.500000000000000),.UNSPECIFIED.);
#148=CARTESIAN_POINT('',(1.250000000000000,-2.250000000000000,0.500000000000001));
#149=DIRECTION('',(1.0,0.0,0.0));
#150=VECTOR('',#149,1.0);
#151=LINE('',#148,#150);
#152=EDGE_CURVE('',#94,#92,#151,.T.);
#153=ORIENTED_EDGE('',*,*,#152,.T.);
#154=ORIENTED_EDGE('',*,*,#123,.F.);
#155=ORIENTED_EDGE('',*,*,#137,.F.);
#156=ORIENTED_EDGE('',*,*,#108,.F.);
#157=EDGE_LOOP('',(#153,#154,#155,#156));
#158=FACE_OUTER_BOUND('',#157,.T.);
#159=ADVANCED_FACE('',(#158),#147,.T.);
#160=CARTESIAN_POINT('',(2.250000000000000,-2.250000000000000,1.110223E-016));
#161=CARTESIAN_POINT('',(2.250000000000000,-2.250000000000000,0.500000000000001));
#162=CARTESIAN_POINT('',(1.250000000000000,-2.250000000000000,1.110223E-016));
#163=CARTESIAN_POINT('',(1.250000000000000,-2.250000000000000,0.500000000000001));
#164=B_SPLINE_SURFACE_WITH_KNOTS('',1,1,((#160,#162),(#161,#163)),.UNSPECIFIED.,.F.,.F.,.U.,(2,2),(2,2),(0.0,0.500000000000001),(0.0,1.000000000000000),.UNSPECIFIED.);
#165=ORIENTED_EDGE('',*,*,#100,.F.);
#166=ORIENTED_EDGE('',*,*,#152,.F.);
#167=EDGE_LOOP('',(#165,#166));
#168=FACE_OUTER_BOUND('',#167,.T.);
#169=ADVANCED_FACE('',(#168),#164,.T.);
#170=CLOSED_SHELL('',(#127,#142,#159,#169));
#171=MANIFOLD_SOLID_BREP('B3D',#170);
#172=COLOUR_RGB('152',0.0,0.325000000000000,0.650000000000000);
#173=SURFACE_STYLE_USAGE(.BOTH.,#174);
#174=SURFACE_SIDE_STYLE('NONE',(#175));
#175=SURFACE_STYLE_FILL_AREA(#176);
#176=FILL_AREA_STYLE('NONE',(#177));
#177=FILL_AREA_STYLE_COLOUR('NONE',#172);
#178=PRESENTATION_STYLE_ASSIGNMENT((#173));
#179=STYLED_ITEM('NONE',(#178),#171);
#180=MECHANICAL_DESIGN_GEOMETRIC_PRESENTATION_REPRESENTATION('NONE',(#179,#268,#364,#453,#561,#648,#1103),#28);
#181=PRESENTATION_LAYER_ASSIGNMENT('3D','None',(#171,#267,#356,#452,#560,#647,#1102));
#182=CARTESIAN_POINT('',(-1.250000000000000,-2.250000000000000,1.110223E-016));
#183=CARTESIAN_POINT('',(-1.250000000000000,-2.250000000000000,0.500000000000001));
#184=CARTESIAN_POINT('',(-2.250000000000000,-2.250000000000000,1.110223E-016));
#185=CARTESIAN_POINT('',(-2.250000000000000,-2.250000000000000,0.500000000000001));
#186=B_SPLINE_SURFACE_WITH_KNOTS('',1,1,((#182,#184),(#183,#185)),.UNSPECIFIED.,.F.,.F.,.U.,(2,2),(2,2),(0.0,0.500000000000001),(0.0,1.0),.UNSPECIFIED.);
#187=CARTESIAN_POINT('',(-1.250000000000000,-2.250000000000000,0.500000000000001));
#188=VERTEX_POINT('',#187);
#189=CARTESIAN_POINT('',(-2.250000000000000,-2.250000000000000,0.500000000000001));
#190=VERTEX_POINT('',#189);
#191=CARTESIAN_POINT('',(-1.750000000000000,-2.250000000000000,0.500000000000000));
#192=DIRECTION('',(0.0,1.0,0.0));
#193=DIRECTION('',(1.0,0.0,0.0));
#194=AXIS2_PLACEMENT_3D('',#191,#192,#193);
#195=CIRCLE('',#194,0.500000000000000);
#196=EDGE_CURVE('',#188,#190,#195,.T.);
#197=ORIENTED_EDGE('',*,*,#196,.F.);
#198=CARTESIAN_POINT('',(-2.250000000000000,-2.250000000000000,0.500000000000001));
#199=DIRECTION('',(1.0,0.0,0.0));
#200=VECTOR('',#199,1.0);
#201=LINE('',#198,#200);
#202=EDGE_CURVE('',#190,#188,#201,.T.);
#203=ORIENTED_EDGE('',*,*,#202,.F.);
#204=EDGE_LOOP('',(#197,#203));
#205=FACE_OUTER_BOUND('',#204,.T.);
#206=ADVANCED_FACE('',(#205),#186,.T.);
#207=CARTESIAN_POINT('',(-2.250000000000000,-2.250000000000000,0.500000000000001));
#208=CARTESIAN_POINT('',(-1.250000000000000,-2.250000000000000,0.500000000000001));
#209=CARTESIAN_POINT('',(-2.250000000000000,-1.750000000000000,0.500000000000001));
#210=CARTESIAN_POINT('',(-1.250000000000000,-1.750000000000000,0.500000000000001));
#211=B_SPLINE_SURFACE_WITH_KNOTS('',1,1,((#207,#209),(#208,#210)),.UNSPECIFIED.,.F.,.F.,.U.,(2,2),(2,2),(0.0,1.0),(0.0,0.500000000000000),.UNSPECIFIED.);
#212=ORIENTED_EDGE('',*,*,#202,.T.);
#213=CARTESIAN_POINT('',(-1.250000000000000,-1.750000000000000,0.500000000000000));
#214=VERTEX_POINT('',#213);
#215=CARTESIAN_POINT('',(-1.250000000000000,-1.750000000000000,0.500000000000000));
#216=DIRECTION('',(0.0,-1.0,0.0));
#217=VECTOR('',#216,0.500000000000000);
#218=LINE('',#215,#217);
#219=EDGE_CURVE('',#214,#188,#218,.T.);
#220=ORIENTED_EDGE('',*,*,#219,.F.);
#221=CARTESIAN_POINT('',(-2.250000000000000,-1.750000000000000,0.500000000000001));
#222=VERTEX_POINT('',#221);
#223=CARTESIAN_POINT('',(-2.250000000000000,-1.750000000000000,0.500000000000001));
#224=DIRECTION('',(1.0,0.0,0.0));
#225=VECTOR('',#224,1.0);
#226=LINE('',#223,#225);
#227=EDGE_CURVE('',#222,#214,#226,.T.);
#228=ORIENTED_EDGE('',*,*,#227,.F.);
#229=CARTESIAN_POINT('',(-2.250000000000000,-2.250000000000000,0.500000000000001));
#230=DIRECTION('',(0.0,1.0,0.0));
#231=VECTOR('',#230,0.500000000000000);
#232=LINE('',#229,#231);
#233=EDGE_CURVE('',#190,#222,#232,.T.);
#234=ORIENTED_EDGE('',*,*,#233,.F.);
#235=EDGE_LOOP('',(#212,#220,#228,#234));
#236=FACE_OUTER_BOUND('',#235,.T.);
#237=ADVANCED_FACE('',(#236),#211,.T.);
#238=CARTESIAN_POINT('',(-1.750000000000000,-4.0,0.500000000000001));
#239=DIRECTION('',(0.0,1.0,-3.445052E-016));
#240=DIRECTION('',(1.0,0.0,0.0));
#241=AXIS2_PLACEMENT_3D('',#238,#239,#240);
#242=CYLINDRICAL_SURFACE('',#241,0.500000000000000);
#243=ORIENTED_EDGE('',*,*,#196,.T.);
#244=ORIENTED_EDGE('',*,*,#233,.T.);
#245=CARTESIAN_POINT('',(-1.750000000000000,-1.750000000000000,0.500000000000000));
#246=DIRECTION('',(0.0,1.0,0.0));
#247=DIRECTION('',(1.0,0.0,0.0));
#248=AXIS2_PLACEMENT_3D('',#245,#246,#247);
#249=CIRCLE('',#248,0.500000000000000);
#250=EDGE_CURVE('',#214,#222,#249,.T.);
#251=ORIENTED_EDGE('',*,*,#250,.F.);
#252=ORIENTED_EDGE('',*,*,#219,.T.);
#253=EDGE_LOOP('',(#243,#244,#251,#252));
#254=FACE_OUTER_BOUND('',#253,.T.);
#255=ADVANCED_FACE('',(#254),#242,.T.);
#256=CARTESIAN_POINT('',(-1.750000000000000,-1.750000000000000,0.500000000000000));
#257=DIRECTION('',(0.0,1.0,0.0));
#258=DIRECTION('',(1.0,0.0,0.0));
#259=AXIS2_PLACEMENT_3D('',#256,#257,#258);
#260=PLANE('',#259);
#261=ORIENTED_EDGE('',*,*,#227,.T.);
#262=ORIENTED_EDGE('',*,*,#250,.T.);
#263=EDGE_LOOP('',(#261,#262));
#264=FACE_OUTER_BOUND('',#263,.T.);
#265=ADVANCED_FACE('',(#264),#260,.T.);
#266=CLOSED_SHELL('',(#206,#237,#255,#265));
#267=MANIFOLD_SOLID_BREP('B33',#266);
#268=STYLED_ITEM('NONE',(#178),#267);
#269=CARTESIAN_POINT('',(2.500000000000000,-2.265522E-016,-1.350000000000000));
#270=DIRECTION('',(0.0,-1.224606E-016,-1.0));
#271=DIRECTION('',(1.0,0.0,0.0));
#272=AXIS2_PLACEMENT_3D('',#269,#270,#271);
#273=CYLINDRICAL_SURFACE('',#272,0.250000000000000);
#274=CARTESIAN_POINT('',(2.750000000000000,-4.531044E-016,-3.200000000000000));
#275=VERTEX_POINT('',#274);
#276=CARTESIAN_POINT('',(2.750000000000000,0.0,0.500000000000000));
#277=VERTEX_POINT('',#276);
#278=CARTESIAN_POINT('',(2.750000000000000,-4.531044E-016,-3.200000000000000));
#279=DIRECTION('',(0.0,0.0,1.0));
#280=VECTOR('',#279,3.700000000000000);
#281=LINE('',#278,#280);
#282=EDGE_CURVE('',#275,#277,#281,.T.);
#283=ORIENTED_EDGE('',*,*,#282,.F.);
#284=CARTESIAN_POINT('',(2.250000000000000,-4.224892E-016,-3.200000000000000));
#285=VERTEX_POINT('',#284);
#286=CARTESIAN_POINT('',(2.500000000000000,-4.531044E-016,-3.200000000000000));
#287=DIRECTION('',(0.0,0.0,-1.0));
#288=DIRECTION('',(1.0,0.0,0.0));
#289=AXIS2_PLACEMENT_3D('',#286,#287,#288);
#290=CIRCLE('',#289,0.250000000000000);
#291=EDGE_CURVE('',#285,#275,#290,.T.);
#292=ORIENTED_EDGE('',*,*,#291,.F.);
#293=CARTESIAN_POINT('',(2.250000000000000,3.061516E-017,0.500000000000000));
#294=VERTEX_POINT('',#293);
#295=CARTESIAN_POINT('',(2.250000000000000,-4.224892E-016,-3.200000000000000));
#296=DIRECTION('',(0.0,0.0,1.0));
#297=VECTOR('',#296,3.700000000000000);
#298=LINE('',#295,#297);
#299=EDGE_CURVE('',#285,#294,#298,.T.);
#300=ORIENTED_EDGE('',*,*,#299,.T.);
#301=CARTESIAN_POINT('',(2.500000000000000,0.0,0.500000000000000));
#302=DIRECTION('',(0.0,0.0,1.0));
#303=DIRECTION('',(1.0,0.0,0.0));
#304=AXIS2_PLACEMENT_3D('',#301,#302,#303);
#305=CIRCLE('',#304,0.250000000000000);
#306=EDGE_CURVE('',#277,#294,#305,.T.);
#307=ORIENTED_EDGE('',*,*,#306,.F.);
#308=EDGE_LOOP('',(#283,#292,#300,#307));
#309=FACE_OUTER_BOUND('',#308,.T.);
#310=ADVANCED_FACE('',(#309),#273,.T.);
#311=CARTESIAN_POINT('',(2.500000000000000,-2.265522E-016,-1.350000000000000));
#312=DIRECTION('',(0.0,-1.224606E-016,-1.0));
#313=DIRECTION('',(1.0,0.0,0.0));
#314=AXIS2_PLACEMENT_3D('',#311,#312,#313);
#315=CYLINDRICAL_SURFACE('',#314,0.250000000000000);
#316=ORIENTED_EDGE('',*,*,#282,.T.);
#317=CARTESIAN_POINT('',(2.500000000000000,0.0,0.500000000000000));
#318=DIRECTION('',(0.0,0.0,1.0));
#319=DIRECTION('',(1.0,0.0,0.0));
#320=AXIS2_PLACEMENT_3D('',#317,#318,#319);
#321=CIRCLE('',#320,0.250000000000000);
#322=EDGE_CURVE('',#294,#277,#321,.T.);
#323=ORIENTED_EDGE('',*,*,#322,.F.);
#324=ORIENTED_EDGE('',*,*,#299,.F.);
#325=CARTESIAN_POINT('',(2.500000000000000,-4.531044E-016,-3.200000000000000));
#326=DIRECTION('',(0.0,0.0,-1.0));
#327=DIRECTION('',(1.0,0.0,0.0));
#328=AXIS2_PLACEMENT_3D('',#325,#326,#327);
#329=CIRCLE('',#328,0.250000000000000);
#330=EDGE_CURVE('',#275,#285,#329,.T.);
#331=ORIENTED_EDGE('',*,*,#330,.F.);
#332=EDGE_LOOP('',(#316,#323,#324,#331));
#333=FACE_OUTER_BOUND('',#332,.T.);
#334=ADVANCED_FACE('',(#333),#315,.T.);
#335=CARTESIAN_POINT('',(2.500000000000000,0.0,0.500000000000000));
#336=DIRECTION('',(0.0,0.0,1.0));
#337=DIRECTION('',(-1.0,0.0,0.0));
#338=AXIS2_PLACEMENT_3D('',#335,#336,#337);
#339=PLANE('',#338);
#340=ORIENTED_EDGE('',*,*,#306,.T.);
#341=ORIENTED_EDGE('',*,*,#322,.T.);
#342=EDGE_LOOP('',(#340,#341));
#343=FACE_OUTER_BOUND('',#342,.T.);
#344=ADVANCED_FACE('',(#343),#339,.T.);
#345=CARTESIAN_POINT('',(2.500000000000000,-4.531044E-016,-3.200000000000000));
#346=DIRECTION('',(0.0,0.0,-1.0));
#347=DIRECTION('',(1.0,0.0,0.0));
#348=AXIS2_PLACEMENT_3D('',#345,#346,#347);
#349=PLANE('',#348);
#350=ORIENTED_EDGE('',*,*,#330,.T.);
#351=ORIENTED_EDGE('',*,*,#291,.T.);
#352=EDGE_LOOP('',(#350,#351));
#353=FACE_OUTER_BOUND('',#352,.T.);
#354=ADVANCED_FACE('',(#353),#349,.T.);
#355=CLOSED_SHELL('',(#310,#334,#344,#354));
#356=MANIFOLD_SOLID_BREP('B24',#355);
#357=COLOUR_RGB('254',0.866000000000000,0.866000000000000,0.866000000000000);
#358=SURFACE_STYLE_USAGE(.BOTH.,#359);
#359=SURFACE_SIDE_STYLE('NONE',(#360));
#360=SURFACE_STYLE_FILL_AREA(#361);
#361=FILL_AREA_STYLE('NONE',(#362));
#362=FILL_AREA_STYLE_COLOUR('NONE',#357);
#363=PRESENTATION_STYLE_ASSIGNMENT((#358));
#364=STYLED_ITEM('NONE',(#363),#356);
#365=CARTESIAN_POINT('',(-2.500000000000000,0.0,-1.350000000000000));
#366=DIRECTION('',(0.0,-1.224606E-016,-1.0));
#367=DIRECTION('',(1.0,0.0,0.0));
#368=AXIS2_PLACEMENT_3D('',#365,#366,#367);
#369=CYLINDRICAL_SURFACE('',#368,0.250000000000000);
#370=CARTESIAN_POINT('',(-2.250000000000000,-2.265522E-016,-3.200000000000000));
#371=VERTEX_POINT('',#370);
#372=CARTESIAN_POINT('',(-2.250000000000000,2.265522E-016,0.500000000000000));
#373=VERTEX_POINT('',#372);
#374=CARTESIAN_POINT('',(-2.250000000000000,-2.265522E-016,-3.200000000000000));
#375=DIRECTION('',(0.0,0.0,1.0));
#376=VECTOR('',#375,3.700000000000000);
#377=LINE('',#374,#376);
#378=EDGE_CURVE('',#371,#373,#377,.T.);
#379=ORIENTED_EDGE('',*,*,#378,.F.);
#380=CARTESIAN_POINT('',(-2.750000000000000,-1.959370E-016,-3.200000000000000));
#381=VERTEX_POINT('',#380);
#382=CARTESIAN_POINT('',(-2.500000000000000,-2.265522E-016,-3.200000000000000));
#383=DIRECTION('',(0.0,0.0,-1.0));
#384=DIRECTION('',(1.0,0.0,0.0));
#385=AXIS2_PLACEMENT_3D('',#382,#383,#384);
#386=CIRCLE('',#385,0.250000000000000);
#387=EDGE_CURVE('',#381,#371,#386,.T.);
#388=ORIENTED_EDGE('',*,*,#387,.F.);
#389=CARTESIAN_POINT('',(-2.750000000000000,2.571673E-016,0.500000000000000));
#390=VERTEX_POINT('',#389);
#391=CARTESIAN_POINT('',(-2.750000000000000,-1.959370E-016,-3.200000000000000));
#392=DIRECTION('',(0.0,0.0,1.0));
#393=VECTOR('',#392,3.700000000000000);
#394=LINE('',#391,#393);
#395=EDGE_CURVE('',#381,#390,#394,.T.);
#396=ORIENTED_EDGE('',*,*,#395,.T.);
#397=CARTESIAN_POINT('',(-2.500000000000000,2.265522E-016,0.500000000000000));
#398=DIRECTION('',(0.0,0.0,1.0));
#399=DIRECTION('',(1.0,0.0,0.0));
#400=AXIS2_PLACEMENT_3D('',#397,#398,#399);
#401=CIRCLE('',#400,0.250000000000000);
#402=EDGE_CURVE('',#373,#390,#401,.T.);
#403=ORIENTED_EDGE('',*,*,#402,.F.);
#404=EDGE_LOOP('',(#379,#388,#396,#403));
#405=FACE_OUTER_BOUND('',#404,.T.);
#406=ADVANCED_FACE('',(#405),#369,.T.);
#407=CARTESIAN_POINT('',(-2.500000000000000,0.0,-1.350000000000000));
#408=DIRECTION('',(0.0,-1.224606E-016,-1.0));
#409=DIRECTION('',(1.0,0.0,0.0));
#410=AXIS2_PLACEMENT_3D('',#407,#408,#409);
#411=CYLINDRICAL_SURFACE('',#410,0.250000000000000);
#412=ORIENTED_EDGE('',*,*,#378,.T.);
#413=CARTESIAN_POINT('',(-2.500000000000000,2.265522E-016,0.500000000000000));
#414=DIRECTION('',(0.0,0.0,1.0));
#415=DIRECTION('',(1.0,0.0,0.0));
#416=AXIS2_PLACEMENT_3D('',#413,#414,#415);
#417=CIRCLE('',#416,0.250000000000000);
#418=EDGE_CURVE('',#390,#373,#417,.T.);
#419=ORIENTED_EDGE('',*,*,#418,.F.);
#420=ORIENTED_EDGE('',*,*,#395,.F.);
#421=CARTESIAN_POINT('',(-2.500000000000000,-2.265522E-016,-3.200000000000000));
#422=DIRECTION('',(0.0,0.0,-1.0));
#423=DIRECTION('',(1.0,0.0,0.0));
#424=AXIS2_PLACEMENT_3D('',#421,#422,#423);
#425=CIRCLE('',#424,0.250000000000000);
#426=EDGE_CURVE('',#371,#381,#425,.T.);
#427=ORIENTED_EDGE('',*,*,#426,.F.);
#428=EDGE_LOOP('',(#412,#419,#420,#427));
#429=FACE_OUTER_BOUND('',#428,.T.);
#430=ADVANCED_FACE('',(#429),#411,.T.);
#431=CARTESIAN_POINT('',(-2.500000000000000,2.265522E-016,0.500000000000000));
#432=DIRECTION('',(0.0,0.0,1.0));
#433=DIRECTION('',(-1.0,0.0,0.0));
#434=AXIS2_PLACEMENT_3D('',#431,#432,#433);
#435=PLANE('',#434);
#436=ORIENTED_EDGE('',*,*,#402,.T.);
#437=ORIENTED_EDGE('',*,*,#418,.T.);
#438=EDGE_LOOP('',(#436,#437));
#439=FACE_OUTER_BOUND('',#438,.T.);
#440=ADVANCED_FACE('',(#439),#435,.T.);
#441=CARTESIAN_POINT('',(-2.500000000000000,-2.265522E-016,-3.200000000000000));
#442=DIRECTION('',(0.0,0.0,-1.0));
#443=DIRECTION('',(1.0,0.0,0.0));
#444=AXIS2_PLACEMENT_3D('',#441,#442,#443);
#445=PLANE('',#444);
#446=ORIENTED_EDGE('',*,*,#426,.T.);
#447=ORIENTED_EDGE('',*,*,#387,.T.);
#448=EDGE_LOOP('',(#446,#447));
#449=FACE_OUTER_BOUND('',#448,.T.);
#450=ADVANCED_FACE('',(#449),#445,.T.);
#451=CLOSED_SHELL('',(#406,#430,#440,#450));
#452=MANIFOLD_SOLID_BREP('B20',#451);
#453=STYLED_ITEM('NONE',(#363),#452);
#454=CARTESIAN_POINT('',(2.250000000000000,1.750000000000000,0.499999999999999));
#455=CARTESIAN_POINT('',(2.250000000000000,2.250000000000000,0.499999999999999));
#456=CARTESIAN_POINT('',(2.250000000000000,1.750000000000000,0.999999999999999));
#457=CARTESIAN_POINT('',(2.250000000000000,2.250000000000000,0.999999999999999));
#458=CARTESIAN_POINT('',(1.750000000000000,1.750000000000000,0.999999999999999));
#459=CARTESIAN_POINT('',(1.750000000000000,2.250000000000000,0.999999999999999));
#460=CARTESIAN_POINT('',(1.250000000000000,1.750000000000000,0.999999999999999));
#461=CARTESIAN_POINT('',(1.250000000000000,2.250000000000000,0.999999999999999));
#462=CARTESIAN_POINT('',(1.250000000000000,1.750000000000000,0.499999999999999));
#463=CARTESIAN_POINT('',(1.250000000000000,2.250000000000000,0.499999999999999));
#464=CARTESIAN_POINT('',(1.250000000000000,1.750000000000000,-1.054712E-015));
#465=CARTESIAN_POINT('',(1.250000000000000,2.250000000000000,-1.221245E-015));
#466=CARTESIAN_POINT('',(1.750000000000000,1.750000000000000,-1.110223E-015));
#467=CARTESIAN_POINT('',(1.750000000000000,2.250000000000000,-1.276756E-015));
#468=CARTESIAN_POINT('',(2.250000000000000,1.750000000000000,-9.436896E-016));
#469=CARTESIAN_POINT('',(2.250000000000000,2.250000000000000,-1.110223E-015));
#470=CARTESIAN_POINT('',(2.250000000000000,1.750000000000000,0.499999999999999));
#471=CARTESIAN_POINT('',(2.250000000000000,2.250000000000000,0.499999999999999));
#479=(BOUNDED_SURFACE()B_SPLINE_SURFACE(1,2,((#454,#456,#458,#460,#462,#464,#466,#468,#470),(#455,#457,#459,#461,#463,#465,#467,#469,#471)),.UNSPECIFIED.,.F.,.T.,.U.)B_SPLINE_SURFACE_WITH_KNOTS((2,2),(3,2,2,2,3),(3.500000000000000,4.500000000000000),(0.0,0.785398163397448,1.570796326794897,2.356194490192345,3.141592653589793),.UNSPECIFIED.)GEOMETRIC_REPRESENTATION_ITEM()RATIONAL_B_SPLINE_SURFACE(((1.0,0.707106781186548,1.0,0.707106781186548,1.0,0.707106781186548,1.0,0.707106781186548,1.0),(1.0,0.707106781186548,1.0,0.707106781186548,1.0,0.707106781186548,1.0,0.707106781186548,1.0)))REPRESENTATION_ITEM('')SURFACE());
#480=CARTESIAN_POINT('',(2.250000000000000,1.750000000000000,0.500000000000000));
#481=VERTEX_POINT('',#480);
#482=CARTESIAN_POINT('',(1.250000000000000,1.750000000000000,0.500000000000000));
#483=VERTEX_POINT('',#482);
#484=CARTESIAN_POINT('',(1.750000000000000,1.750000000000000,0.499999999999999));
#485=DIRECTION('',(0.0,1.0,0.0));
#486=DIRECTION('',(-1.0,0.0,0.0));
#487=AXIS2_PLACEMENT_3D('',#484,#485,#486);
#488=CIRCLE('',#487,0.500000000000000);
#489=EDGE_CURVE('',#481,#483,#488,.T.);
#490=ORIENTED_EDGE('',*,*,#489,.T.);
#491=CARTESIAN_POINT('',(1.250000000000000,2.250000000000000,0.499999999999999));
#492=VERTEX_POINT('',#491);
#493=CARTESIAN_POINT('',(1.250000000000000,1.750000000000000,0.499999999999999));
#494=DIRECTION('',(0.0,1.0,0.0));
#495=VECTOR('',#494,0.500000000000000);
#496=LINE('',#493,#495);
#497=EDGE_CURVE('',#483,#492,#496,.T.);
#498=ORIENTED_EDGE('',*,*,#497,.T.);
#499=CARTESIAN_POINT('',(2.250000000000000,2.250000000000000,0.500000000000000));
#500=VERTEX_POINT('',#499);
#501=CARTESIAN_POINT('',(1.750000000000000,2.250000000000000,0.499999999999999));
#502=DIRECTION('',(0.0,-1.0,0.0));
#503=DIRECTION('',(-1.0,0.0,0.0));
#504=AXIS2_PLACEMENT_3D('',#501,#502,#503);
#505=CIRCLE('',#504,0.500000000000000);
#506=EDGE_CURVE('',#492,#500,#505,.T.);
#507=ORIENTED_EDGE('',*,*,#506,.T.);
#508=CARTESIAN_POINT('',(2.250000000000000,2.250000000000000,0.499999999999999));
#509=DIRECTION('',(0.0,-1.0,0.0));
#510=VECTOR('',#509,0.500000000000000);
#511=LINE('',#508,#510);
#512=EDGE_CURVE('',#500,#481,#511,.T.);
#513=ORIENTED_EDGE('',*,*,#512,.T.);
#514=EDGE_LOOP('',(#490,#498,#507,#513));
#515=FACE_OUTER_BOUND('',#514,.T.);
#516=ADVANCED_FACE('',(#515),#479,.T.);
#517=CARTESIAN_POINT('',(2.250000000000000,2.250000000000000,-1.276756E-015));
#518=CARTESIAN_POINT('',(1.250000000000000,2.250000000000000,-1.276756E-015));
#519=CARTESIAN_POINT('',(2.250000000000000,2.250000000000000,0.500000000000000));
#520=CARTESIAN_POINT('',(1.250000000000000,2.250000000000000,0.500000000000000));
#521=B_SPLINE_SURFACE_WITH_KNOTS('',1,1,((#517,#519),(#518,#520)),.UNSPECIFIED.,.F.,.F.,.U.,(2,2),(2,2),(0.0,1.0),(0.0,0.500000000000001),.UNSPECIFIED.);
#522=CARTESIAN_POINT('',(1.250000000000000,2.250000000000000,0.500000000000000));
#523=DIRECTION('',(1.0,0.0,0.0));
#524=VECTOR('',#523,1.0);
#525=LINE('',#522,#524);
#526=EDGE_CURVE('',#492,#500,#525,.T.);
#527=ORIENTED_EDGE('',*,*,#526,.T.);
#528=ORIENTED_EDGE('',*,*,#506,.F.);
#529=EDGE_LOOP('',(#527,#528));
#530=FACE_OUTER_BOUND('',#529,.T.);
#531=ADVANCED_FACE('',(#530),#521,.T.);
#532=CARTESIAN_POINT('',(1.250000000000000,1.750000000000000,0.500000000000000));
#533=CARTESIAN_POINT('',(2.250000000000000,1.750000000000000,0.500000000000000));
#534=CARTESIAN_POINT('',(1.250000000000000,2.250000000000000,0.500000000000000));
#535=CARTESIAN_POINT('',(2.250000000000000,2.250000000000000,0.500000000000000));
#536=B_SPLINE_SURFACE_WITH_KNOTS('',1,1,((#532,#534),(#533,#535)),.UNSPECIFIED.,.F.,.F.,.U.,(2,2),(2,2),(0.0,1.0),(0.0,0.500000000000000),.UNSPECIFIED.);
#537=CARTESIAN_POINT('',(1.250000000000000,1.750000000000000,0.500000000000000));
#538=DIRECTION('',(1.0,0.0,0.0));
#539=VECTOR('',#538,1.0);
#540=LINE('',#537,#539);
#541=EDGE_CURVE('',#483,#481,#540,.T.);
#542=ORIENTED_EDGE('',*,*,#541,.T.);
#543=ORIENTED_EDGE('',*,*,#512,.F.);
#544=ORIENTED_EDGE('',*,*,#526,.F.);
#545=ORIENTED_EDGE('',*,*,#497,.F.);
#546=EDGE_LOOP('',(#542,#543,#544,#545));
#547=FACE_OUTER_BOUND('',#546,.T.);
#548=ADVANCED_FACE('',(#547),#536,.T.);
#549=CARTESIAN_POINT('',(2.250000000000000,1.750000000000000,-1.110223E-015));
#550=CARTESIAN_POINT('',(2.250000000000000,1.750000000000000,0.500000000000000));
#551=CARTESIAN_POINT('',(1.250000000000000,1.750000000000000,-1.110223E-015));
#552=CARTESIAN_POINT('',(1.250000000000000,1.750000000000000,0.500000000000000));
#553=B_SPLINE_SURFACE_WITH_KNOTS('',1,1,((#549,#551),(#550,#552)),.UNSPECIFIED.,.F.,.F.,.U.,(2,2),(2,2),(0.0,0.500000000000001),(0.0,1.000000000000000),.UNSPECIFIED.);
#554=ORIENTED_EDGE('',*,*,#489,.F.);
#555=ORIENTED_EDGE('',*,*,#541,.F.);
#556=EDGE_LOOP('',(#554,#555));
#557=FACE_OUTER_BOUND('',#556,.T.);
#558=ADVANCED_FACE('',(#557),#553,.T.);
#559=CLOSED_SHELL('',(#516,#531,#548,#558));
#560=MANIFOLD_SOLID_BREP('AFB',#559);
#561=STYLED_ITEM('NONE',(#178),#560);
#562=CARTESIAN_POINT('',(-1.250000000000000,1.750000000000000,-1.110223E-015));
#563=CARTESIAN_POINT('',(-1.250000000000000,1.750000000000000,0.500000000000000));
#564=CARTESIAN_POINT('',(-2.250000000000000,1.750000000000000,-1.110223E-015));
#565=CARTESIAN_POINT('',(-2.250000000000000,1.750000000000000,0.500000000000000));
#566=B_SPLINE_SURFACE_WITH_KNOTS('',1,1,((#562,#564),(#563,#565)),.UNSPECIFIED.,.F.,.F.,.U.,(2,2),(2,2),(0.0,0.500000000000001),(0.0,1.0),.UNSPECIFIED.);
#567=CARTESIAN_POINT('',(-1.250000000000000,1.750000000000000,0.500000000000000));
#568=VERTEX_POINT('',#567);
#569=CARTESIAN_POINT('',(-2.250000000000000,1.750000000000000,0.500000000000000));
#570=VERTEX_POINT('',#569);
#571=CARTESIAN_POINT('',(-1.750000000000000,1.750000000000000,0.499999999999999));
#572=DIRECTION('',(0.0,1.0,0.0));
#573=DIRECTION('',(1.0,0.0,0.0));
#574=AXIS2_PLACEMENT_3D('',#571,#572,#573);
#575=CIRCLE('',#574,0.500000000000000);
#576=EDGE_CURVE('',#568,#570,#575,.T.);
#577=ORIENTED_EDGE('',*,*,#576,.F.);
#578=CARTESIAN_POINT('',(-2.250000000000000,1.750000000000000,0.500000000000000));
#579=DIRECTION('',(1.0,0.0,0.0));
#580=VECTOR('',#579,1.0);
#581=LINE('',#578,#580);
#582=EDGE_CURVE('',#570,#568,#581,.T.);
#583=ORIENTED_EDGE('',*,*,#582,.F.);
#584=EDGE_LOOP('',(#577,#583));
#585=FACE_OUTER_BOUND('',#584,.T.);
#586=ADVANCED_FACE('',(#585),#566,.T.);
#587=CARTESIAN_POINT('',(-2.250000000000000,1.750000000000000,0.500000000000000));
#588=CARTESIAN_POINT('',(-1.250000000000000,1.750000000000000,0.500000000000000));
#589=CARTESIAN_POINT('',(-2.250000000000000,2.250000000000000,0.500000000000000));
#590=CARTESIAN_POINT('',(-1.250000000000000,2.250000000000000,0.500000000000000));
#591=B_SPLINE_SURFACE_WITH_KNOTS('',1,1,((#587,#589),(#588,#590)),.UNSPECIFIED.,.F.,.F.,.U.,(2,2),(2,2),(0.0,1.0),(0.0,0.500000000000000),.UNSPECIFIED.);
#592=ORIENTED_EDGE('',*,*,#582,.T.);
#593=CARTESIAN_POINT('',(-1.250000000000000,2.250000000000000,0.499999999999999));
#594=VERTEX_POINT('',#593);
#595=CARTESIAN_POINT('',(-1.250000000000000,2.250000000000000,0.499999999999999));
#596=DIRECTION('',(0.0,-1.0,0.0));
#597=VECTOR('',#596,0.500000000000000);
#598=LINE('',#595,#597);
#599=EDGE_CURVE('',#594,#568,#598,.T.);
#600=ORIENTED_EDGE('',*,*,#599,.F.);
#601=CARTESIAN_POINT('',(-2.250000000000000,2.250000000000000,0.500000000000000));
#602=VERTEX_POINT('',#601);
#603=CARTESIAN_POINT('',(-2.250000000000000,2.250000000000000,0.500000000000000));
#604=DIRECTION('',(1.0,0.0,0.0));
#605=VECTOR('',#604,1.0);
#606=LINE('',#603,#605);
#607=EDGE_CURVE('',#602,#594,#606,.T.);
#608=ORIENTED_EDGE('',*,*,#607,.F.);
#609=CARTESIAN_POINT('',(-2.250000000000000,1.750000000000000,0.499999999999999));
#610=DIRECTION('',(0.0,1.0,0.0));
#611=VECTOR('',#610,0.500000000000000);
#612=LINE('',#609,#611);
#613=EDGE_CURVE('',#570,#602,#612,.T.);
#614=ORIENTED_EDGE('',*,*,#613,.F.);
#615=EDGE_LOOP('',(#592,#600,#608,#614));
#616=FACE_OUTER_BOUND('',#615,.T.);
#617=ADVANCED_FACE('',(#616),#591,.T.);
#618=CARTESIAN_POINT('',(-1.750000000000000,-1.109336E-031,0.500000000000000));
#619=DIRECTION('',(0.0,1.0,-3.445052E-016));
#620=DIRECTION('',(1.0,0.0,0.0));
#621=AXIS2_PLACEMENT_3D('',#618,#619,#620);
#622=CYLINDRICAL_SURFACE('',#621,0.500000000000000);
#623=ORIENTED_EDGE('',*,*,#576,.T.);
#624=ORIENTED_EDGE('',*,*,#613,.T.);
#625=CARTESIAN_POINT('',(-1.750000000000000,2.250000000000000,0.499999999999999));
#626=DIRECTION('',(0.0,1.0,0.0));
#627=DIRECTION('',(1.0,0.0,0.0));
#628=AXIS2_PLACEMENT_3D('',#625,#626,#627);
#629=CIRCLE('',#628,0.500000000000000);
#630=EDGE_CURVE('',#594,#602,#629,.T.);
#631=ORIENTED_EDGE('',*,*,#630,.F.);
#632=ORIENTED_EDGE('',*,*,#599,.T.);
#633=EDGE_LOOP('',(#623,#624,#631,#632));
#634=FACE_OUTER_BOUND('',#633,.T.);
#635=ADVANCED_FACE('',(#634),#622,.T.);
#636=CARTESIAN_POINT('',(-1.750000000000000,2.250000000000000,0.499999999999999));
#637=DIRECTION('',(0.0,1.0,0.0));
#638=DIRECTION('',(1.0,0.0,0.0));
#639=AXIS2_PLACEMENT_3D('',#636,#637,#638);
#640=PLANE('',#639);
#641=ORIENTED_EDGE('',*,*,#607,.T.);
#642=ORIENTED_EDGE('',*,*,#630,.T.);
#643=EDGE_LOOP('',(#641,#642));
#644=FACE_OUTER_BOUND('',#643,.T.);
#645=ADVANCED_FACE('',(#644),#640,.T.);
#646=CLOSED_SHELL('',(#586,#617,#635,#645));
#647=MANIFOLD_SOLID_BREP('AF7',#646);
#648=STYLED_ITEM('NONE',(#178),#647);
#649=CARTESIAN_POINT('',(3.400000000000000,-2.050000000000000,5.800000000000000));
#650=DIRECTION('',(0.0,0.0,1.0));
#651=DIRECTION('',(1.0,0.0,0.0));
#652=AXIS2_PLACEMENT_3D('',#649,#650,#651);
#653=SPHERICAL_SURFACE('',#652,0.200000000000000);
#654=CARTESIAN_POINT('',(3.400000000000000,-2.250000000000000,5.800000000000000));
#655=VERTEX_POINT('',#654);
#656=CARTESIAN_POINT('',(3.600000000000000,-2.050000000000000,5.800000000000000));
#657=VERTEX_POINT('',#656);
#658=CARTESIAN_POINT('',(3.400000000000000,-2.050000000000000,5.800000000000000));
#659=DIRECTION('',(0.0,0.0,1.000000000000000));
#660=DIRECTION('',(0.707106781186547,-0.707106781186547,0.0));
#661=AXIS2_PLACEMENT_3D('',#658,#659,#660);
#662=CIRCLE('',#661,0.200000000000000);
#663=EDGE_CURVE('',#655,#657,#662,.T.);
#664=ORIENTED_EDGE('',*,*,#663,.T.);
#665=CARTESIAN_POINT('',(3.400000000000000,-2.050000000000000,6.0));
#666=VERTEX_POINT('',#665);
#667=CARTESIAN_POINT('',(3.400000000000000,-2.050000000000000,5.800000000000000));
#668=DIRECTION('',(0.0,-1.0,0.0));
#669=DIRECTION('',(0.0,0.0,1.0));
#670=AXIS2_PLACEMENT_3D('',#667,#668,#669);
#671=CIRCLE('',#670,0.200000000000000);
#672=EDGE_CURVE('',#666,#657,#671,.F.);
#673=ORIENTED_EDGE('',*,*,#672,.F.);
#674=CARTESIAN_POINT('',(3.400000000000000,-2.050000000000000,5.800000000000000));
#675=DIRECTION('',(1.0,0.0,0.0));
#676=DIRECTION('',(0.0,-1.0,0.0));
#677=AXIS2_PLACEMENT_3D('',#674,#675,#676);
#678=CIRCLE('',#677,0.200000000000000);
#679=EDGE_CURVE('',#655,#666,#678,.F.);
#680=ORIENTED_EDGE('',*,*,#679,.F.);
#681=EDGE_LOOP('',(#664,#673,#680));
#682=FACE_OUTER_BOUND('',#681,.T.);
#683=ADVANCED_FACE('',(#682),#653,.T.);
#684=CARTESIAN_POINT('',(3.400000000000000,2.050000000000000,5.800000000000000));
#685=DIRECTION('',(0.0,0.0,1.0));
#686=DIRECTION('',(1.0,0.0,0.0));
#687=AXIS2_PLACEMENT_3D('',#684,#685,#686);
#688=SPHERICAL_SURFACE('',#687,0.200000000000000);
#689=CARTESIAN_POINT('',(3.600000000000000,2.050000000000000,5.800000000000000));
#690=VERTEX_POINT('',#689);
#691=CARTESIAN_POINT('',(3.400000000000000,2.250000000000000,5.800000000000000));
#692=VERTEX_POINT('',#691);
#693=CARTESIAN_POINT('',(3.400000000000000,2.050000000000000,5.800000000000000));
#694=DIRECTION('',(0.0,0.0,1.000000000000000));
#695=DIRECTION('',(0.707106781186547,0.707106781186547,0.0));
#696=AXIS2_PLACEMENT_3D('',#693,#694,#695);
#697=CIRCLE('',#696,0.200000000000000);
#698=EDGE_CURVE('',#690,#692,#697,.T.);
#699=ORIENTED_EDGE('',*,*,#698,.T.);
#700=CARTESIAN_POINT('',(3.400000000000000,2.050000000000000,6.0));
#701=VERTEX_POINT('',#700);
#702=CARTESIAN_POINT('',(3.400000000000000,2.050000000000000,5.800000000000000));
#703=DIRECTION('',(1.0,0.0,0.0));
#704=DIRECTION('',(0.0,0.0,1.0));
#705=AXIS2_PLACEMENT_3D('',#702,#703,#704);
#706=CIRCLE('',#705,0.200000000000000);
#707=EDGE_CURVE('',#701,#692,#706,.F.);
#708=ORIENTED_EDGE('',*,*,#707,.F.);
#709=CARTESIAN_POINT('',(3.400000000000000,2.050000000000000,5.800000000000000));
#710=DIRECTION('',(0.0,1.0,0.0));
#711=DIRECTION('',(0.707106781186546,0.0,0.707106781186549));
#712=AXIS2_PLACEMENT_3D('',#709,#710,#711);
#713=CIRCLE('',#712,0.200000000000000);
#714=EDGE_CURVE('',#701,#690,#713,.T.);
#715=ORIENTED_EDGE('',*,*,#714,.T.);
#716=EDGE_LOOP('',(#699,#708,#715));
#717=FACE_OUTER_BOUND('',#716,.T.);
#718=ADVANCED_FACE('',(#717),#688,.T.);
#719=CARTESIAN_POINT('',(-3.400000000000000,-2.050000000000000,5.800000000000000));
#720=DIRECTION('',(0.0,0.0,1.0));
#721=DIRECTION('',(1.0,0.0,0.0));
#722=AXIS2_PLACEMENT_3D('',#719,#720,#721);
#723=SPHERICAL_SURFACE('',#722,0.200000000000000);
#724=CARTESIAN_POINT('',(-3.400000000000000,-2.250000000000000,5.800000000000000));
#725=VERTEX_POINT('',#724);
#726=CARTESIAN_POINT('',(-3.400000000000000,-2.050000000000000,6.0));
#727=VERTEX_POINT('',#726);
#728=CARTESIAN_POINT('',(-3.400000000000000,-2.050000000000000,5.800000000000000));
#729=DIRECTION('',(-1.0,0.0,0.0));
#730=DIRECTION('',(0.0,-0.707106781186546,0.707106781186549));
#731=AXIS2_PLACEMENT_3D('',#728,#729,#730);
#732=CIRCLE('',#731,0.200000000000000);
#733=EDGE_CURVE('',#725,#727,#732,.T.);
#734=ORIENTED_EDGE('',*,*,#733,.T.);
#735=CARTESIAN_POINT('',(-3.600000000000000,-2.050000000000000,5.800000000000000));
#736=VERTEX_POINT('',#735);
#737=CARTESIAN_POINT('',(-3.400000000000000,-2.050000000000000,5.800000000000000));
#738=DIRECTION('',(0.0,-1.0,0.0));
#739=DIRECTION('',(-1.0,0.0,0.0));
#740=AXIS2_PLACEMENT_3D('',#737,#738,#739);
#741=CIRCLE('',#740,0.200000000000000);
#742=EDGE_CURVE('',#736,#727,#741,.F.);
#743=ORIENTED_EDGE('',*,*,#742,.F.);
#744=CARTESIAN_POINT('',(-3.400000000000000,-2.050000000000000,5.800000000000000));
#745=DIRECTION('',(0.0,0.0,1.000000000000000));
#746=DIRECTION('',(-0.707106781186547,-0.707106781186547,0.0));
#747=AXIS2_PLACEMENT_3D('',#744,#745,#746);
#748=CIRCLE('',#747,0.200000000000000);
#749=EDGE_CURVE('',#736,#725,#748,.T.);
#750=ORIENTED_EDGE('',*,*,#749,.T.);
#751=EDGE_LOOP('',(#734,#743,#750));
#752=FACE_OUTER_BOUND('',#751,.T.);
#753=ADVANCED_FACE('',(#752),#723,.T.);
#754=CARTESIAN_POINT('',(-3.400000000000000,2.050000000000000,5.800000000000000));
#755=DIRECTION('',(0.0,0.0,1.0));
#756=DIRECTION('',(1.0,0.0,0.0));
#757=AXIS2_PLACEMENT_3D('',#754,#755,#756);
#758=SPHERICAL_SURFACE('',#757,0.200000000000000);
#759=CARTESIAN_POINT('',(-3.400000000000000,2.050000000000000,6.0));
#760=VERTEX_POINT('',#759);
#761=CARTESIAN_POINT('',(-3.400000000000000,2.250000000000000,5.800000000000000));
#762=VERTEX_POINT('',#761);
#763=CARTESIAN_POINT('',(-3.400000000000000,2.050000000000000,5.800000000000000));
#764=DIRECTION('',(-1.0,0.0,0.0));
#765=DIRECTION('',(0.0,0.707106781186546,0.707106781186549));
#766=AXIS2_PLACEMENT_3D('',#763,#764,#765);
#767=CIRCLE('',#766,0.200000000000000);
#768=EDGE_CURVE('',#760,#762,#767,.T.);
#769=ORIENTED_EDGE('',*,*,#768,.T.);
#770=CARTESIAN_POINT('',(-3.600000000000000,2.050000000000000,5.800000000000000));
#771=VERTEX_POINT('',#770);
#772=CARTESIAN_POINT('',(-3.400000000000000,2.050000000000000,5.800000000000000));
#773=DIRECTION('',(0.0,0.0,1.0));
#774=DIRECTION('',(-1.0,0.0,0.0));
#775=AXIS2_PLACEMENT_3D('',#772,#773,#774);
#776=CIRCLE('',#775,0.200000000000000);
#777=EDGE_CURVE('',#771,#762,#776,.F.);
#778=ORIENTED_EDGE('',*,*,#777,.F.);
#779=CARTESIAN_POINT('',(-3.400000000000000,2.050000000000000,5.800000000000000));
#780=DIRECTION('',(0.0,1.0,0.0));
#781=DIRECTION('',(-0.707106781186546,0.0,0.707106781186549));
#782=AXIS2_PLACEMENT_3D('',#779,#780,#781);
#783=CIRCLE('',#782,0.200000000000000);
#784=EDGE_CURVE('',#771,#760,#783,.T.);
#785=ORIENTED_EDGE('',*,*,#784,.T.);
#786=EDGE_LOOP('',(#769,#778,#785));
#787=FACE_OUTER_BOUND('',#786,.T.);
#788=ADVANCED_FACE('',(#787),#758,.T.);
#789=CARTESIAN_POINT('',(-3.400000000000000,2.050000000000000,3.250000000000000));
#790=DIRECTION('',(0.0,0.0,-1.0));
#791=DIRECTION('',(-0.707106781186547,0.707106781186547,0.0));
#792=AXIS2_PLACEMENT_3D('',#789,#790,#791);
#793=CYLINDRICAL_SURFACE('',#792,0.200000000000000);
#794=CARTESIAN_POINT('',(-3.400000000000000,2.250000000000000,0.500000000000000));
#795=VERTEX_POINT('',#794);
#796=CARTESIAN_POINT('',(-3.600000000000000,2.050000000000000,0.500000000000000));
#797=VERTEX_POINT('',#796);
#798=CARTESIAN_POINT('',(-3.400000000000000,2.050000000000000,0.500000000000000));
#799=DIRECTION('',(0.0,0.0,1.000000000000000));
#800=DIRECTION('',(-0.707106781186547,0.707106781186547,0.0));
#801=AXIS2_PLACEMENT_3D('',#798,#799,#800);
#802=CIRCLE('',#801,0.200000000000000);
#803=EDGE_CURVE('',#795,#797,#802,.T.);
#804=ORIENTED_EDGE('',*,*,#803,.T.);
#805=CARTESIAN_POINT('',(-3.600000000000000,2.050000000000000,0.500000000000000));
#806=DIRECTION('',(0.0,0.0,1.0));
#807=VECTOR('',#806,5.300000000000000);
#808=LINE('',#805,#807);
#809=EDGE_CURVE('',#797,#771,#808,.T.);
#810=ORIENTED_EDGE('',*,*,#809,.T.);
#811=ORIENTED_EDGE('',*,*,#777,.T.);
#812=CARTESIAN_POINT('',(-3.400000000000000,2.250000000000000,5.800000000000000));
#813=DIRECTION('',(0.0,0.0,-1.0));
#814=VECTOR('',#813,5.300000000000000);
#815=LINE('',#812,#814);
#816=EDGE_CURVE('',#762,#795,#815,.T.);
#817=ORIENTED_EDGE('',*,*,#816,.T.);
#818=EDGE_LOOP('',(#804,#810,#811,#817));
#819=FACE_OUTER_BOUND('',#818,.T.);
#820=ADVANCED_FACE('',(#819),#793,.T.);
#821=CARTESIAN_POINT('',(-3.400000000000000,0.0,5.800000000000000));
#822=DIRECTION('',(0.0,1.0,0.0));
#823=DIRECTION('',(-0.707106781186546,0.0,0.707106781186549));
#824=AXIS2_PLACEMENT_3D('',#821,#822,#823);
#825=CYLINDRICAL_SURFACE('',#824,0.200000000000000);
#826=ORIENTED_EDGE('',*,*,#784,.F.);
#827=CARTESIAN_POINT('',(-3.600000000000000,2.050000000000000,5.800000000000000));
#828=DIRECTION('',(0.0,-1.0,0.0));
#829=VECTOR('',#828,4.100000000000000);
#830=LINE('',#827,#829);
#831=EDGE_CURVE('',#771,#736,#830,.T.);
#832=ORIENTED_EDGE('',*,*,#831,.T.);
#833=ORIENTED_EDGE('',*,*,#742,.T.);
#834=CARTESIAN_POINT('',(-3.400000000000000,-2.050000000000000,6.0));
#835=DIRECTION('',(0.0,1.0,0.0));
#836=VECTOR('',#835,4.100000000000000);
#837=LINE('',#834,#836);
#838=EDGE_CURVE('',#727,#760,#837,.T.);
#839=ORIENTED_EDGE('',*,*,#838,.T.);
#840=EDGE_LOOP('',(#826,#832,#833,#839));
#841=FACE_OUTER_BOUND('',#840,.T.);
#842=ADVANCED_FACE('',(#841),#825,.T.);
#843=CARTESIAN_POINT('',(0.0,2.050000000000000,5.800000000000000));
#844=DIRECTION('',(1.0,0.0,0.0));
#845=DIRECTION('',(0.0,0.707106781186546,0.707106781186549));
#846=AXIS2_PLACEMENT_3D('',#843,#844,#845);
#847=CYLINDRICAL_SURFACE('',#846,0.200000000000000);
#848=ORIENTED_EDGE('',*,*,#707,.T.);
#849=CARTESIAN_POINT('',(3.400000000000000,2.250000000000000,5.800000000000000));
#850=DIRECTION('',(-1.0,0.0,0.0));
#851=VECTOR('',#850,6.800000000000000);
#852=LINE('',#849,#851);
#853=EDGE_CURVE('',#692,#762,#852,.T.);
#854=ORIENTED_EDGE('',*,*,#853,.T.);
#855=ORIENTED_EDGE('',*,*,#768,.F.);
#856=CARTESIAN_POINT('',(-3.400000000000000,2.050000000000000,6.0));
#857=DIRECTION('',(1.0,0.0,0.0));
#858=VECTOR('',#857,6.800000000000000);
#859=LINE('',#856,#858);
#860=EDGE_CURVE('',#760,#701,#859,.T.);
#861=ORIENTED_EDGE('',*,*,#860,.T.);
#862=EDGE_LOOP('',(#848,#854,#855,#861));
#863=FACE_OUTER_BOUND('',#862,.T.);
#864=ADVANCED_FACE('',(#863),#847,.T.);
#865=CARTESIAN_POINT('',(0.0,-2.050000000000000,5.800000000000000));
#866=DIRECTION('',(-1.0,0.0,0.0));
#867=DIRECTION('',(0.0,-0.707106781186546,0.707106781186549));
#868=AXIS2_PLACEMENT_3D('',#865,#866,#867);
#869=CYLINDRICAL_SURFACE('',#868,0.200000000000000);
#870=ORIENTED_EDGE('',*,*,#733,.F.);
#871=CARTESIAN_POINT('',(-3.400000000000000,-2.250000000000000,5.800000000000000));
#872=DIRECTION('',(1.0,0.0,0.0));
#873=VECTOR('',#872,6.800000000000000);
#874=LINE('',#871,#873);
#875=EDGE_CURVE('',#725,#655,#874,.T.);
#876=ORIENTED_EDGE('',*,*,#875,.T.);
#877=ORIENTED_EDGE('',*,*,#679,.T.);
#878=CARTESIAN_POINT('',(3.400000000000000,-2.050000000000000,6.0));
#879=DIRECTION('',(-1.0,0.0,0.0));
#880=VECTOR('',#879,6.800000000000000);
#881=LINE('',#878,#880);
#882=EDGE_CURVE('',#666,#727,#881,.T.);
#883=ORIENTED_EDGE('',*,*,#882,.T.);
#884=EDGE_LOOP('',(#870,#876,#877,#883));
#885=FACE_OUTER_BOUND('',#884,.T.);
#886=ADVANCED_FACE('',(#885),#869,.T.);
#887=CARTESIAN_POINT('',(-3.400000000000000,-2.050000000000000,3.250000000000000));
#888=DIRECTION('',(0.0,0.0,-1.0));
#889=DIRECTION('',(-0.707106781186547,-0.707106781186547,0.0));
#890=AXIS2_PLACEMENT_3D('',#887,#888,#889);
#891=CYLINDRICAL_SURFACE('',#890,0.200000000000000);
#892=CARTESIAN_POINT('',(-3.600000000000000,-2.050000000000000,0.500000000000000));
#893=VERTEX_POINT('',#892);
#894=CARTESIAN_POINT('',(-3.400000000000000,-2.250000000000000,0.500000000000000));
#895=VERTEX_POINT('',#894);
#896=CARTESIAN_POINT('',(-3.400000000000000,-2.050000000000000,0.500000000000000));
#897=DIRECTION('',(0.0,0.0,1.000000000000000));
#898=DIRECTION('',(-0.707106781186547,-0.707106781186547,0.0));
#899=AXIS2_PLACEMENT_3D('',#896,#897,#898);
#900=CIRCLE('',#899,0.200000000000000);
#901=EDGE_CURVE('',#893,#895,#900,.T.);
#902=ORIENTED_EDGE('',*,*,#901,.T.);
#903=CARTESIAN_POINT('',(-3.400000000000000,-2.250000000000000,0.500000000000000));
#904=DIRECTION('',(0.0,0.0,1.0));
#905=VECTOR('',#904,5.300000000000000);
#906=LINE('',#903,#905);
#907=EDGE_CURVE('',#895,#725,#906,.T.);
#908=ORIENTED_EDGE('',*,*,#907,.T.);
#909=ORIENTED_EDGE('',*,*,#749,.F.);
#910=CARTESIAN_POINT('',(-3.600000000000000,-2.050000000000000,5.800000000000000));
#911=DIRECTION('',(0.0,0.0,-1.0));
#912=VECTOR('',#911,5.300000000000000);
#913=LINE('',#910,#912);
#914=EDGE_CURVE('',#736,#893,#913,.T.);
#915=ORIENTED_EDGE('',*,*,#914,.T.);
#916=EDGE_LOOP('',(#902,#908,#909,#915));
#917=FACE_OUTER_BOUND('',#916,.T.);
#918=ADVANCED_FACE('',(#917),#891,.T.);
#919=CARTESIAN_POINT('',(3.400000000000000,0.0,5.800000000000000));
#920=DIRECTION('',(0.0,-1.0,0.0));
#921=DIRECTION('',(0.707106781186546,0.0,0.707106781186549));
#922=AXIS2_PLACEMENT_3D('',#919,#920,#921);
#923=CYLINDRICAL_SURFACE('',#922,0.200000000000000);
#924=ORIENTED_EDGE('',*,*,#672,.T.);
#925=CARTESIAN_POINT('',(3.600000000000000,-2.050000000000000,5.800000000000000));
#926=DIRECTION('',(0.0,1.0,0.0));
#927=VECTOR('',#926,4.100000000000000);
#928=LINE('',#925,#927);
#929=EDGE_CURVE('',#657,#690,#928,.T.);
#930=ORIENTED_EDGE('',*,*,#929,.T.);
#931=ORIENTED_EDGE('',*,*,#714,.F.);
#932=CARTESIAN_POINT('',(3.400000000000000,2.050000000000000,6.0));
#933=DIRECTION('',(0.0,-1.0,0.0));
#934=VECTOR('',#933,4.100000000000000);
#935=LINE('',#932,#934);
#936=EDGE_CURVE('',#701,#666,#935,.T.);
#937=ORIENTED_EDGE('',*,*,#936,.T.);
#938=EDGE_LOOP('',(#924,#930,#931,#937));
#939=FACE_OUTER_BOUND('',#938,.T.);
#940=ADVANCED_FACE('',(#939),#923,.T.);
#941=CARTESIAN_POINT('',(3.400000000000000,2.050000000000000,3.250000000000000));
#942=DIRECTION('',(0.0,0.0,-1.0));
#943=DIRECTION('',(0.707106781186547,0.707106781186547,0.0));
#944=AXIS2_PLACEMENT_3D('',#941,#942,#943);
#945=CYLINDRICAL_SURFACE('',#944,0.200000000000000);
#946=CARTESIAN_POINT('',(3.600000000000000,2.050000000000000,0.500000000000000));
#947=VERTEX_POINT('',#946);
#948=CARTESIAN_POINT('',(3.400000000000000,2.250000000000000,0.500000000000000));
#949=VERTEX_POINT('',#948);
#950=CARTESIAN_POINT('',(3.400000000000000,2.050000000000000,0.500000000000000));
#951=DIRECTION('',(0.0,0.0,1.000000000000000));
#952=DIRECTION('',(0.707106781186547,0.707106781186547,0.0));
#953=AXIS2_PLACEMENT_3D('',#950,#951,#952);
#954=CIRCLE('',#953,0.200000000000000);
#955=EDGE_CURVE('',#947,#949,#954,.T.);
#956=ORIENTED_EDGE('',*,*,#955,.T.);
#957=CARTESIAN_POINT('',(3.400000000000000,2.250000000000000,0.500000000000000));
#958=DIRECTION('',(0.0,0.0,1.0));
#959=VECTOR('',#958,5.300000000000000);
#960=LINE('',#957,#959);
#961=EDGE_CURVE('',#949,#692,#960,.T.);
#962=ORIENTED_EDGE('',*,*,#961,.T.);
#963=ORIENTED_EDGE('',*,*,#698,.F.);
#964=CARTESIAN_POINT('',(3.600000000000000,2.050000000000000,5.800000000000000));
#965=DIRECTION('',(0.0,0.0,-1.0));
#966=VECTOR('',#965,5.300000000000000);
#967=LINE('',#964,#966);
#968=EDGE_CURVE('',#690,#947,#967,.T.);
#969=ORIENTED_EDGE('',*,*,#968,.T.);
#970=EDGE_LOOP('',(#956,#962,#963,#969));
#971=FACE_OUTER_BOUND('',#970,.T.);
#972=ADVANCED_FACE('',(#971),#945,.T.);
#973=CARTESIAN_POINT('',(3.400000000000000,-2.050000000000000,3.250000000000000));
#974=DIRECTION('',(0.0,0.0,-1.0));
#975=DIRECTION('',(0.707106781186547,-0.707106781186547,0.0));
#976=AXIS2_PLACEMENT_3D('',#973,#974,#975);
#977=CYLINDRICAL_SURFACE('',#976,0.200000000000000);
#978=CARTESIAN_POINT('',(3.400000000000000,-2.250000000000000,0.500000000000000));
#979=VERTEX_POINT('',#978);
#980=CARTESIAN_POINT('',(3.600000000000000,-2.050000000000000,0.500000000000000));
#981=VERTEX_POINT('',#980);
#982=CARTESIAN_POINT('',(3.400000000000000,-2.050000000000000,0.500000000000000));
#983=DIRECTION('',(0.0,0.0,1.000000000000000));
#984=DIRECTION('',(0.707106781186547,-0.707106781186547,0.0));
#985=AXIS2_PLACEMENT_3D('',#982,#983,#984);
#986=CIRCLE('',#985,0.200000000000000);
#987=EDGE_CURVE('',#979,#981,#986,.T.);
#988=ORIENTED_EDGE('',*,*,#987,.T.);
#989=CARTESIAN_POINT('',(3.600000000000000,-2.050000000000000,0.500000000000000));
#990=DIRECTION('',(0.0,0.0,1.0));
#991=VECTOR('',#990,5.300000000000000);
#992=LINE('',#989,#991);
#993=EDGE_CURVE('',#981,#657,#992,.T.);
#994=ORIENTED_EDGE('',*,*,#993,.T.);
#995=ORIENTED_EDGE('',*,*,#663,.F.);
#996=CARTESIAN_POINT('',(3.400000000000000,-2.250000000000000,5.800000000000000));
#997=DIRECTION('',(0.0,0.0,-1.0));
#998=VECTOR('',#997,5.300000000000000);
#999=LINE('',#996,#998);
#1000=EDGE_CURVE('',#655,#979,#999,.T.);
#1001=ORIENTED_EDGE('',*,*,#1000,.T.);
#1002=EDGE_LOOP('',(#988,#994,#995,#1001));
#1003=FACE_OUTER_BOUND('',#1002,.T.);
#1004=ADVANCED_FACE('',(#1003),#977,.T.);
#1005=CARTESIAN_POINT('',(3.400000000000000,2.250000000000000,0.500000000000000));
#1006=CARTESIAN_POINT('',(3.400000000000000,2.250000000000000,5.800000000000000));
#1007=CARTESIAN_POINT('',(-3.400000000000000,2.250000000000000,0.500000000000000));
#1008=CARTESIAN_POINT('',(-3.400000000000000,2.250000000000000,5.800000000000000));
#1009=B_SPLINE_SURFACE_WITH_KNOTS('',1,1,((#1005,#1007),(#1006,#1008)),.UNSPECIFIED.,.F.,.F.,.U.,(2,2),(2,2),(0.0,5.300000000000000),(0.0,6.800000000000000),.UNSPECIFIED.);
#1010=ORIENTED_EDGE('',*,*,#816,.F.);
#1011=ORIENTED_EDGE('',*,*,#853,.F.);
#1012=ORIENTED_EDGE('',*,*,#961,.F.);
#1013=CARTESIAN_POINT('',(3.400000000000000,2.250000000000000,0.500000000000000));
#1014=DIRECTION('',(-1.0,0.0,0.0));
#1015=VECTOR('',#1014,6.800000000000000);
#1016=LINE('',#1013,#1015);
#1017=EDGE_CURVE('',#949,#795,#1016,.T.);
#1018=ORIENTED_EDGE('',*,*,#1017,.T.);
#1019=EDGE_LOOP('',(#1010,#1011,#1012,#1018));
#1020=FACE_OUTER_BOUND('',#1019,.T.);
#1021=ADVANCED_FACE('',(#1020),#1009,.F.);
#1022=CARTESIAN_POINT('',(3.600000000000000,-2.050000000000000,0.500000000000000));
#1023=CARTESIAN_POINT('',(3.600000000000000,-2.050000000000000,5.800000000000000));
#1024=CARTESIAN_POINT('',(3.600000000000000,2.050000000000000,0.500000000000000));
#1025=CARTESIAN_POINT('',(3.600000000000000,2.050000000000000,5.800000000000000));
#1026=B_SPLINE_SURFACE_WITH_KNOTS('',1,1,((#1022,#1024),(#1023,#1025)),.UNSPECIFIED.,.F.,.F.,.U.,(2,2),(2,2),(0.0,5.300000000000000),(0.0,4.100000000000000),.UNSPECIFIED.);
#1027=ORIENTED_EDGE('',*,*,#968,.F.);
#1028=ORIENTED_EDGE('',*,*,#929,.F.);
#1029=ORIENTED_EDGE('',*,*,#993,.F.);
#1030=CARTESIAN_POINT('',(3.600000000000000,-2.050000000000000,0.500000000000000));
#1031=DIRECTION('',(0.0,1.0,0.0));
#1032=VECTOR('',#1031,4.100000000000000);
#1033=LINE('',#1030,#1032);
#1034=EDGE_CURVE('',#981,#947,#1033,.T.);
#1035=ORIENTED_EDGE('',*,*,#1034,.T.);
#1036=EDGE_LOOP('',(#1027,#1028,#1029,#1035));
#1037=FACE_OUTER_BOUND('',#1036,.T.);
#1038=ADVANCED_FACE('',(#1037),#1026,.F.);
#1039=CARTESIAN_POINT('',(-3.400000000000000,-2.050000000000000,6.0));
#1040=CARTESIAN_POINT('',(3.400000000000000,-2.050000000000000,6.0));
#1041=CARTESIAN_POINT('',(-3.400000000000000,2.050000000000000,6.0));
#1042=CARTESIAN_POINT('',(3.400000000000000,2.050000000000000,6.0));
#1043=B_SPLINE_SURFACE_WITH_KNOTS('',1,1,((#1039,#1041),(#1040,#1042)),.UNSPECIFIED.,.F.,.F.,.U.,(2,2),(2,2),(0.0,6.800000000000000),(0.0,4.100000000000000),.UNSPECIFIED.);
#1044=ORIENTED_EDGE('',*,*,#838,.F.);
#1045=ORIENTED_EDGE('',*,*,#882,.F.);
#1046=ORIENTED_EDGE('',*,*,#936,.F.);
#1047=ORIENTED_EDGE('',*,*,#860,.F.);
#1048=EDGE_LOOP('',(#1044,#1045,#1046,#1047));
#1049=FACE_OUTER_BOUND('',#1048,.T.);
#1050=ADVANCED_FACE('',(#1049),#1043,.T.);
#1051=CARTESIAN_POINT('',(-3.600000000000000,-2.250000000000000,0.500000000000000));
#1052=CARTESIAN_POINT('',(3.600000000000000,-2.250000000000000,0.500000000000000));
#1053=CARTESIAN_POINT('',(-3.600000000000000,2.250000000000000,0.500000000000000));
#1054=CARTESIAN_POINT('',(3.600000000000000,2.250000000000000,0.500000000000000));
#1055=B_SPLINE_SURFACE_WITH_KNOTS('',1,1,((#1051,#1053),(#1052,#1054)),.UNSPECIFIED.,.F.,.F.,.U.,(2,2),(2,2),(0.0,7.200000000000000),(0.0,4.500000000000000),.UNSPECIFIED.);
#1056=ORIENTED_EDGE('',*,*,#803,.F.);
#1057=ORIENTED_EDGE('',*,*,#1017,.F.);
#1058=ORIENTED_EDGE('',*,*,#955,.F.);
#1059=ORIENTED_EDGE('',*,*,#1034,.F.);
#1060=ORIENTED_EDGE('',*,*,#987,.F.);
#1061=CARTESIAN_POINT('',(-3.400000000000000,-2.250000000000000,0.500000000000000));
#1062=DIRECTION('',(1.0,0.0,0.0));
#1063=VECTOR('',#1062,6.800000000000000);
#1064=LINE('',#1061,#1063);
#1065=EDGE_CURVE('',#895,#979,#1064,.T.);
#1066=ORIENTED_EDGE('',*,*,#1065,.F.);
#1067=ORIENTED_EDGE('',*,*,#901,.F.);
#1068=CARTESIAN_POINT('',(-3.600000000000000,2.050000000000000,0.500000000000000));
#1069=DIRECTION('',(0.0,-1.0,0.0));
#1070=VECTOR('',#1069,4.100000000000000);
#1071=LINE('',#1068,#1070);
#1072=EDGE_CURVE('',#797,#893,#1071,.T.);
#1073=ORIENTED_EDGE('',*,*,#1072,.F.);
#1074=EDGE_LOOP('',(#1056,#1057,#1058,#1059,#1060,#1066,#1067,#1073));
#1075=FACE_OUTER_BOUND('',#1074,.T.);
#1076=ADVANCED_FACE('',(#1075),#1055,.F.);
#1077=CARTESIAN_POINT('',(-3.600000000000000,-2.050000000000000,5.800000000000000));
#1078=CARTESIAN_POINT('',(-3.600000000000000,-2.050000000000000,0.500000000000000));
#1079=CARTESIAN_POINT('',(-3.600000000000000,2.050000000000000,5.800000000000000));
#1080=CARTESIAN_POINT('',(-3.600000000000000,2.050000000000000,0.500000000000000));
#1081=B_SPLINE_SURFACE_WITH_KNOTS('',1,1,((#1077,#1079),(#1078,#1080)),.UNSPECIFIED.,.F.,.F.,.U.,(2,2),(2,2),(0.0,5.300000000000000),(0.0,4.100000000000000),.UNSPECIFIED.);
#1082=ORIENTED_EDGE('',*,*,#809,.F.);
#1083=ORIENTED_EDGE('',*,*,#1072,.T.);
#1084=ORIENTED_EDGE('',*,*,#914,.F.);
#1085=ORIENTED_EDGE('',*,*,#831,.F.);
#1086=EDGE_LOOP('',(#1082,#1083,#1084,#1085));
#1087=FACE_OUTER_BOUND('',#1086,.T.);
#1088=ADVANCED_FACE('',(#1087),#1081,.F.);
#1089=CARTESIAN_POINT('',(3.400000000000000,-2.250000000000000,5.800000000000000));
#1090=CARTESIAN_POINT('',(3.400000000000000,-2.250000000000000,0.500000000000000));
#1091=CARTESIAN_POINT('',(-3.400000000000000,-2.250000000000000,5.800000000000000));
#1092=CARTESIAN_POINT('',(-3.400000000000000,-2.250000000000000,0.500000000000000));
#1093=B_SPLINE_SURFACE_WITH_KNOTS('',1,1,((#1089,#1091),(#1090,#1092)),.UNSPECIFIED.,.F.,.F.,.U.,(2,2),(2,2),(0.0,5.300000000000000),(0.0,6.800000000000000),.UNSPECIFIED.);
#1094=ORIENTED_EDGE('',*,*,#907,.F.);
#1095=ORIENTED_EDGE('',*,*,#1065,.T.);
#1096=ORIENTED_EDGE('',*,*,#1000,.F.);
#1097=ORIENTED_EDGE('',*,*,#875,.F.);
#1098=EDGE_LOOP('',(#1094,#1095,#1096,#1097));
#1099=FACE_OUTER_BOUND('',#1098,.T.);
#1100=ADVANCED_FACE('',(#1099),#1093,.F.);
#1101=CLOSED_SHELL('',(#683,#718,#753,#788,#820,#842,#864,#886,#918,#940,#972,#1004,#1021,#1038,#1050,#1076,#1088,#1100));
#1102=MANIFOLD_SOLID_BREP('AEF',#1101);
#1103=STYLED_ITEM('NONE',(#178),#1102);
#1104=ADVANCED_BREP_SHAPE_REPRESENTATION('ABSR1',(#171,#267,#356,#452,#560,#647,#1102),#28);
#1105=SHAPE_REPRESENTATION_RELATIONSHIP('SRRPL1','',#1104,#62);
ENDSEC;
END-ISO-10303-21;
