ISO-10303-21;
HEADER;
/****************************************************************
 * Generated by software with PDE/Lib inside                    *
 * PDElib Version v51a, created Mon 11/23/2009                  *
 * ITI Transcendata (http://www.transcendata.com/)              *
 ****************************************************************/
FILE_DESCRIPTION((''),'2;1');
FILE_NAME('COMATEL_331.0600.1.02.500.stp','2010-12-16T13:54:02',(''),(''),'Mechanical Desktop 2011','Mechanical Desktop 2011',', , ');
FILE_SCHEMA(('AUTOMOTIVE_DESIGN { 1 2 10303 214 1 1 1 1 }'));
ENDSEC;
DATA;
#10=(NAMED_UNIT(*)PLANE_ANGLE_UNIT()SI_UNIT($,.RADIAN.));
#11=DIMENSIONAL_EXPONENTS(0.0,0.0,0.0,0.0,0.0,0.0,0.0);
#12=PLANE_ANGLE_MEASURE_WITH_UNIT(PLANE_ANGLE_MEASURE(0.017453292500000),#10);
#16=(CONVERSION_BASED_UNIT('DEGREE',#12)NAMED_UNIT(#11)PLANE_ANGLE_UNIT());
#20=(NAMED_UNIT(*)SI_UNIT($,.STERADIAN.)SOLID_ANGLE_UNIT());
#24=(LENGTH_UNIT()NAMED_UNIT(*)SI_UNIT(.MILLI.,.METRE.));
#26=UNCERTAINTY_MEASURE_WITH_UNIT(LENGTH_MEASURE(0.000001000000000),#24,'DISTANCE_ACCURACY_VALUE','');
#28=(GEOMETRIC_REPRESENTATION_CONTEXT(3)GLOBAL_UNCERTAINTY_ASSIGNED_CONTEXT((#26))GLOBAL_UNIT_ASSIGNED_CONTEXT((#16,#20,#24))REPRESENTATION_CONTEXT('','3D'));
#29=APPLICATION_CONTEXT('automotive design');
#30=APPLICATION_PROTOCOL_DEFINITION('INTERNATIONAL_STANDARD','automotive_design',1998,#29);
#31=PRODUCT_CONTEXT('3D Mechanical Parts',#29,'mechanical');
#32=PRODUCT('Product','Product','',(#31));
#33=PRODUCT_RELATED_PRODUCT_CATEGORY('part',$,(#32));
#34=PRODUCT_CATEGORY('part',$);
#35=PERSON('1','Design','Joe',$,$,$);
#36=ORGANIZATION($,'None','None');
#37=PERSON_AND_ORGANIZATION(#35,#36);
#38=PERSON_AND_ORGANIZATION_ROLE('design_owner');
#39=APPLIED_PERSON_AND_ORGANIZATION_ASSIGNMENT(#37,#38,(#32));
#40=PRODUCT_DEFINITION_FORMATION_WITH_SPECIFIED_SOURCE('None','',#32,.BOUGHT.);
#41=PERSON('2','Creator','Joe',$,$,$);
#42=ORGANIZATION($,'None','None');
#43=PERSON_AND_ORGANIZATION(#41,#42);
#44=PERSON_AND_ORGANIZATION_ROLE('creator');
#45=APPLIED_PERSON_AND_ORGANIZATION_ASSIGNMENT(#43,#44,(#40));
#46=PERSON('3','Supplier','Joe',$,$,$);
#47=ORGANIZATION($,'None','None');
#48=PERSON_AND_ORGANIZATION(#46,#47);
#49=PERSON_AND_ORGANIZATION_ROLE('design_supplier');
#50=APPLIED_PERSON_AND_ORGANIZATION_ASSIGNMENT(#48,#49,(#40));
#51=PRODUCT_DEFINITION_CONTEXT('part definition',#29,'design');
#52=PRODUCT_DEFINITION('None','',#40,#51);
#53=PERSON('4','Creator','Joe',$,$,$);
#54=ORGANIZATION($,'None','None');
#55=PERSON_AND_ORGANIZATION(#53,#54);
#56=PERSON_AND_ORGANIZATION_ROLE('creator');
#57=APPLIED_PERSON_AND_ORGANIZATION_ASSIGNMENT(#55,#56,(#52));
#58=CARTESIAN_POINT('NONE',(0.0,0.0,0.0));
#59=DIRECTION('NONE',(0.0,0.0,1.0));
#60=DIRECTION('NONE',(1.0,0.0,0.0));
#61=AXIS2_PLACEMENT_3D('NONE',#58,#59,#60);
#62=SHAPE_REPRESENTATION('SR1',(#61),#28);
#63=PRODUCT_DEFINITION_SHAPE('PDS1','Test Part',#52);
#64=SHAPE_DEFINITION_REPRESENTATION(#63,#62);
#65=CARTESIAN_POINT('',(2.540000000000000,0.0,-2.800000000000000));
#66=DIRECTION('',(0.0,0.0,1.0));
#67=DIRECTION('',(-1.0,0.0,0.0));
#68=AXIS2_PLACEMENT_3D('',#65,#66,#67);
#69=CONICAL_SURFACE('',#68,0.200000000000000,26.565051177077994);
#70=CARTESIAN_POINT('',(2.240000000000000,3.673819E-017,-2.600000000000000));
#71=VERTEX_POINT('',#70);
#72=CARTESIAN_POINT('',(2.440000000000000,0.0,-3.0));
#73=VERTEX_POINT('',#72);
#74=CARTESIAN_POINT('',(2.240000000000000,0.0,-2.600000000000000));
#75=DIRECTION('',(0.447213595499958,0.0,-0.894427190999916));
#76=VECTOR('',#75,0.447213595499958);
#77=LINE('',#74,#76);
#78=EDGE_CURVE('',#71,#73,#77,.T.);
#79=ORIENTED_EDGE('',*,*,#78,.F.);
#80=CARTESIAN_POINT('',(2.840000000000000,-3.673819E-017,-2.600000000000000));
#81=VERTEX_POINT('',#80);
#82=CARTESIAN_POINT('',(2.540000000000000,0.0,-2.600000000000000));
#83=DIRECTION('',(0.0,0.0,-1.0));
#84=DIRECTION('',(-1.0,0.0,0.0));
#85=AXIS2_PLACEMENT_3D('',#82,#83,#84);
#86=CIRCLE('',#85,0.300000000000000);
#87=EDGE_CURVE('',#71,#81,#86,.T.);
#88=ORIENTED_EDGE('',*,*,#87,.T.);
#89=CARTESIAN_POINT('',(2.640000000000000,1.224606E-017,-3.0));
#90=VERTEX_POINT('',#89);
#91=CARTESIAN_POINT('',(2.840000000000000,3.673819E-017,-2.600000000000000));
#92=DIRECTION('',(-0.447213595499958,-5.476606E-017,-0.894427190999916));
#93=VECTOR('',#92,0.447213595499958);
#94=LINE('',#91,#93);
#95=EDGE_CURVE('',#81,#90,#94,.T.);
#96=ORIENTED_EDGE('',*,*,#95,.T.);
#97=CARTESIAN_POINT('',(2.540000000000000,0.0,-3.0));
#98=DIRECTION('',(0.0,0.0,1.0));
#99=DIRECTION('',(-1.0,0.0,0.0));
#100=AXIS2_PLACEMENT_3D('',#97,#98,#99);
#101=CIRCLE('',#100,0.100000000000000);
#102=EDGE_CURVE('',#90,#73,#101,.T.);
#103=ORIENTED_EDGE('',*,*,#102,.T.);
#104=EDGE_LOOP('',(#79,#88,#96,#103));
#105=FACE_OUTER_BOUND('',#104,.T.);
#106=ADVANCED_FACE('',(#105),#69,.T.);
#107=CARTESIAN_POINT('',(2.540000000000000,0.0,0.0));
#108=DIRECTION('',(0.0,0.0,-1.0));
#109=DIRECTION('',(1.0,0.0,0.0));
#110=AXIS2_PLACEMENT_3D('',#107,#108,#109);
#111=CYLINDRICAL_SURFACE('',#110,0.300000000000000);
#112=CARTESIAN_POINT('',(2.840000000000000,1.154632E-016,0.520000000000000));
#113=VERTEX_POINT('',#112);
#114=CARTESIAN_POINT('',(2.840000000000000,0.0,-2.600000000000000));
#115=DIRECTION('',(0.0,0.0,1.0));
#116=VECTOR('',#115,3.120000000000000);
#117=LINE('',#114,#116);
#118=EDGE_CURVE('',#81,#113,#117,.T.);
#119=ORIENTED_EDGE('',*,*,#118,.F.);
#120=ORIENTED_EDGE('',*,*,#87,.F.);
#121=CARTESIAN_POINT('',(2.240000000000000,3.673819E-017,0.520000000000000));
#122=VERTEX_POINT('',#121);
#123=CARTESIAN_POINT('',(2.240000000000000,3.673819E-017,-2.600000000000000));
#124=DIRECTION('',(0.0,0.0,1.0));
#125=VECTOR('',#124,3.120000000000000);
#126=LINE('',#123,#125);
#127=EDGE_CURVE('',#71,#122,#126,.T.);
#128=ORIENTED_EDGE('',*,*,#127,.T.);
#129=CARTESIAN_POINT('',(2.540000000000000,1.154632E-016,0.520000000000000));
#130=DIRECTION('',(0.0,0.0,1.0));
#131=DIRECTION('',(1.0,0.0,0.0));
#132=AXIS2_PLACEMENT_3D('',#129,#130,#131);
#133=CIRCLE('',#132,0.300000000000000);
#134=EDGE_CURVE('',#113,#122,#133,.T.);
#135=ORIENTED_EDGE('',*,*,#134,.F.);
#136=EDGE_LOOP('',(#119,#120,#128,#135));
#137=FACE_OUTER_BOUND('',#136,.T.);
#138=ADVANCED_FACE('',(#137),#111,.T.);
#139=CARTESIAN_POINT('',(2.540000000000000,0.0,0.0));
#140=DIRECTION('',(0.0,0.0,-1.0));
#141=DIRECTION('',(1.0,0.0,0.0));
#142=AXIS2_PLACEMENT_3D('',#139,#140,#141);
#143=CYLINDRICAL_SURFACE('',#142,0.300000000000000);
#144=ORIENTED_EDGE('',*,*,#118,.T.);
#145=CARTESIAN_POINT('',(2.540000000000000,1.154632E-016,0.520000000000000));
#146=DIRECTION('',(0.0,0.0,1.0));
#147=DIRECTION('',(1.0,0.0,0.0));
#148=AXIS2_PLACEMENT_3D('',#145,#146,#147);
#149=CIRCLE('',#148,0.300000000000000);
#150=EDGE_CURVE('',#122,#113,#149,.T.);
#151=ORIENTED_EDGE('',*,*,#150,.F.);
#152=ORIENTED_EDGE('',*,*,#127,.F.);
#153=CARTESIAN_POINT('',(2.540000000000000,0.0,-2.600000000000000));
#154=DIRECTION('',(0.0,0.0,-1.0));
#155=DIRECTION('',(-1.0,0.0,0.0));
#156=AXIS2_PLACEMENT_3D('',#153,#154,#155);
#157=CIRCLE('',#156,0.300000000000000);
#158=EDGE_CURVE('',#81,#71,#157,.T.);
#159=ORIENTED_EDGE('',*,*,#158,.F.);
#160=EDGE_LOOP('',(#144,#151,#152,#159));
#161=FACE_OUTER_BOUND('',#160,.T.);
#162=ADVANCED_FACE('',(#161),#143,.T.);
#163=CARTESIAN_POINT('',(2.540000000000000,1.154632E-016,0.520000000000000));
#164=DIRECTION('',(0.0,0.0,1.0));
#165=DIRECTION('',(1.0,0.0,0.0));
#166=AXIS2_PLACEMENT_3D('',#163,#164,#165);
#167=PLANE('',#166);
#168=ORIENTED_EDGE('',*,*,#134,.T.);
#169=ORIENTED_EDGE('',*,*,#150,.T.);
#170=EDGE_LOOP('',(#168,#169));
#171=FACE_OUTER_BOUND('',#170,.T.);
#172=ADVANCED_FACE('',(#171),#167,.T.);
#173=CARTESIAN_POINT('',(2.540000000000000,0.0,-2.800000000000000));
#174=DIRECTION('',(0.0,0.0,1.0));
#175=DIRECTION('',(-1.0,0.0,0.0));
#176=AXIS2_PLACEMENT_3D('',#173,#174,#175);
#177=CONICAL_SURFACE('',#176,0.200000000000000,26.565051177077994);
#178=ORIENTED_EDGE('',*,*,#78,.T.);
#179=CARTESIAN_POINT('',(2.540000000000000,0.0,-3.0));
#180=DIRECTION('',(0.0,0.0,1.0));
#181=DIRECTION('',(-1.0,0.0,0.0));
#182=AXIS2_PLACEMENT_3D('',#179,#180,#181);
#183=CIRCLE('',#182,0.100000000000000);
#184=EDGE_CURVE('',#73,#90,#183,.T.);
#185=ORIENTED_EDGE('',*,*,#184,.T.);
#186=ORIENTED_EDGE('',*,*,#95,.F.);
#187=ORIENTED_EDGE('',*,*,#158,.T.);
#188=EDGE_LOOP('',(#178,#185,#186,#187));
#189=FACE_OUTER_BOUND('',#188,.T.);
#190=ADVANCED_FACE('',(#189),#177,.T.);
#191=CARTESIAN_POINT('',(2.540000000000000,0.0,-3.0));
#192=DIRECTION('',(0.0,0.0,1.0));
#193=DIRECTION('',(1.0,0.0,0.0));
#194=AXIS2_PLACEMENT_3D('',#191,#192,#193);
#195=PLANE('',#194);
#196=ORIENTED_EDGE('',*,*,#102,.F.);
#197=ORIENTED_EDGE('',*,*,#184,.F.);
#198=EDGE_LOOP('',(#196,#197));
#199=FACE_OUTER_BOUND('',#198,.T.);
#200=ADVANCED_FACE('',(#199),#195,.F.);
#201=CLOSED_SHELL('',(#106,#138,#162,#172,#190,#200));
#202=MANIFOLD_SOLID_BREP('46C',#201);
#203=COLOUR_RGB('40',1.0,0.750000000000000,0.0);
#204=SURFACE_STYLE_USAGE(.BOTH.,#205);
#205=SURFACE_SIDE_STYLE('NONE',(#206));
#206=SURFACE_STYLE_FILL_AREA(#207);
#207=FILL_AREA_STYLE('NONE',(#208));
#208=FILL_AREA_STYLE_COLOUR('NONE',#203);
#209=PRESENTATION_STYLE_ASSIGNMENT((#204));
#210=STYLED_ITEM('NONE',(#209),#202);
#211=MECHANICAL_DESIGN_GEOMETRIC_PRESENTATION_REPRESENTATION('NONE',(#210,#437,#526,#948,#1087,#1312,#1401,#1816),#28);
#212=PRESENTATION_LAYER_ASSIGNMENT('3D','None',(#202,#436,#525,#940,#1086,#1311,#1400,#1815));
#213=CARTESIAN_POINT('',(2.540000000000000,-1.110223E-016,2.700000000000000));
#214=DIRECTION('',(0.0,0.0,1.0));
#215=DIRECTION('',(1.0,0.0,0.0));
#216=AXIS2_PLACEMENT_3D('',#213,#214,#215);
#217=CYLINDRICAL_SURFACE('',#216,0.900000000000000);
#218=CARTESIAN_POINT('',(3.440000000000000,-1.110223E-016,5.700000000000000));
#219=VERTEX_POINT('',#218);
#220=CARTESIAN_POINT('',(3.440000000000000,-1.110223E-016,2.700000000000000));
#221=VERTEX_POINT('',#220);
#222=CARTESIAN_POINT('',(3.440000000000000,-1.110223E-016,5.700000000000000));
#223=DIRECTION('',(0.0,0.0,-1.0));
#224=VECTOR('',#223,3.0);
#225=LINE('',#222,#224);
#226=EDGE_CURVE('',#219,#221,#225,.T.);
#227=ORIENTED_EDGE('',*,*,#226,.F.);
#228=CARTESIAN_POINT('',(2.990000000000000,-0.779422863405995,5.700000000000000));
#229=VERTEX_POINT('',#228);
#230=CARTESIAN_POINT('',(2.540000000000000,0.0,5.700000000000000));
#231=DIRECTION('',(0.0,0.0,-1.0));
#232=DIRECTION('',(1.0,0.0,0.0));
#233=AXIS2_PLACEMENT_3D('',#230,#231,#232);
#234=CIRCLE('',#233,0.900000000000000);
#235=EDGE_CURVE('',#219,#229,#234,.T.);
#236=ORIENTED_EDGE('',*,*,#235,.T.);
#237=CARTESIAN_POINT('',(2.990000000000000,-0.779422863405995,4.200000000000002));
#238=VERTEX_POINT('',#237);
#239=CARTESIAN_POINT('',(2.990000000000000,-0.779422863405995,5.700000000000000));
#240=DIRECTION('',(0.0,0.0,-1.0));
#241=VECTOR('',#240,1.499999999999998);
#242=LINE('',#239,#241);
#243=EDGE_CURVE('',#229,#238,#242,.T.);
#244=ORIENTED_EDGE('',*,*,#243,.T.);
#245=CARTESIAN_POINT('',(2.090000000000000,-0.779422863405995,4.200000000000002));
#246=VERTEX_POINT('',#245);
#247=CARTESIAN_POINT('',(2.540000000000000,-1.110223E-016,4.200000000000002));
#248=DIRECTION('',(0.0,0.0,-1.0));
#249=DIRECTION('',(1.0,0.0,0.0));
#250=AXIS2_PLACEMENT_3D('',#247,#248,#249);
#251=CIRCLE('',#250,0.900000000000000);
#252=EDGE_CURVE('',#238,#246,#251,.T.);
#253=ORIENTED_EDGE('',*,*,#252,.T.);
#254=CARTESIAN_POINT('',(2.090000000000000,-0.779422863405995,5.700000000000000));
#255=VERTEX_POINT('',#254);
#256=CARTESIAN_POINT('',(2.090000000000000,-0.779422863405995,4.200000000000002));
#257=DIRECTION('',(0.0,0.0,1.0));
#258=VECTOR('',#257,1.499999999999998);
#259=LINE('',#256,#258);
#260=EDGE_CURVE('',#246,#255,#259,.T.);
#261=ORIENTED_EDGE('',*,*,#260,.T.);
#262=CARTESIAN_POINT('',(1.640000000000000,-2.212369E-016,5.700000000000000));
#263=VERTEX_POINT('',#262);
#264=CARTESIAN_POINT('',(2.540000000000000,0.0,5.700000000000000));
#265=DIRECTION('',(0.0,0.0,-1.0));
#266=DIRECTION('',(1.0,0.0,0.0));
#267=AXIS2_PLACEMENT_3D('',#264,#265,#266);
#268=CIRCLE('',#267,0.900000000000000);
#269=EDGE_CURVE('',#255,#263,#268,.T.);
#270=ORIENTED_EDGE('',*,*,#269,.T.);
#271=CARTESIAN_POINT('',(1.640000000000000,-2.212369E-016,2.700000000000000));
#272=VERTEX_POINT('',#271);
#273=CARTESIAN_POINT('',(1.640000000000000,-2.212369E-016,5.700000000000000));
#274=DIRECTION('',(0.0,0.0,-1.0));
#275=VECTOR('',#274,3.0);
#276=LINE('',#273,#275);
#277=EDGE_CURVE('',#263,#272,#276,.T.);
#278=ORIENTED_EDGE('',*,*,#277,.T.);
#279=CARTESIAN_POINT('',(2.540000000000000,-1.110223E-016,2.700000000000000));
#280=DIRECTION('',(0.0,0.0,1.0));
#281=DIRECTION('',(1.0,0.0,0.0));
#282=AXIS2_PLACEMENT_3D('',#279,#280,#281);
#283=CIRCLE('',#282,0.900000000000000);
#284=EDGE_CURVE('',#272,#221,#283,.T.);
#285=ORIENTED_EDGE('',*,*,#284,.T.);
#286=EDGE_LOOP('',(#227,#236,#244,#253,#261,#270,#278,#285));
#287=FACE_OUTER_BOUND('',#286,.T.);
#288=ADVANCED_FACE('',(#287),#217,.T.);
#289=CARTESIAN_POINT('',(2.990000000000000,-0.779422863405995,5.700000000000000));
#290=DIRECTION('',(1.0,0.0,0.0));
#291=DIRECTION('',(0.0,0.0,-1.0));
#292=AXIS2_PLACEMENT_3D('',#289,#290,#291);
#293=PLANE('',#292);
#294=CARTESIAN_POINT('',(2.989999999999999,0.779422863405995,4.200000000000002));
#295=VERTEX_POINT('',#294);
#296=CARTESIAN_POINT('',(2.990000000000000,-0.779422863405995,4.200000000000000));
#297=DIRECTION('',(0.0,1.0,0.0));
#298=VECTOR('',#297,1.558845726811990);
#299=LINE('',#296,#298);
#300=EDGE_CURVE('',#238,#295,#299,.T.);
#301=ORIENTED_EDGE('',*,*,#300,.F.);
#302=ORIENTED_EDGE('',*,*,#243,.F.);
#303=CARTESIAN_POINT('',(2.989999999999999,0.779422863405995,5.700000000000000));
#304=VERTEX_POINT('',#303);
#305=CARTESIAN_POINT('',(2.990000000000000,0.779422863405995,5.700000000000000));
#306=DIRECTION('',(0.0,-1.0,0.0));
#307=VECTOR('',#306,1.558845726811990);
#308=LINE('',#305,#307);
#309=EDGE_CURVE('',#304,#229,#308,.T.);
#310=ORIENTED_EDGE('',*,*,#309,.F.);
#311=CARTESIAN_POINT('',(2.989999999999999,0.779422863405995,4.200000000000002));
#312=DIRECTION('',(0.0,0.0,1.0));
#313=VECTOR('',#312,1.499999999999998);
#314=LINE('',#311,#313);
#315=EDGE_CURVE('',#295,#304,#314,.T.);
#316=ORIENTED_EDGE('',*,*,#315,.F.);
#317=EDGE_LOOP('',(#301,#302,#310,#316));
#318=FACE_OUTER_BOUND('',#317,.T.);
#319=ADVANCED_FACE('',(#318),#293,.F.);
#320=CARTESIAN_POINT('',(2.090000000000000,0.779422863405995,5.700000000000000));
#321=DIRECTION('',(-1.0,0.0,0.0));
#322=DIRECTION('',(0.0,0.0,1.0));
#323=AXIS2_PLACEMENT_3D('',#320,#321,#322);
#324=PLANE('',#323);
#325=CARTESIAN_POINT('',(2.090000000000000,0.779422863405995,4.200000000000002));
#326=VERTEX_POINT('',#325);
#327=CARTESIAN_POINT('',(2.090000000000000,0.779422863405995,4.200000000000000));
#328=DIRECTION('',(0.0,-1.0,0.0));
#329=VECTOR('',#328,1.558845726811990);
#330=LINE('',#327,#329);
#331=EDGE_CURVE('',#326,#246,#330,.T.);
#332=ORIENTED_EDGE('',*,*,#331,.F.);
#333=CARTESIAN_POINT('',(2.090000000000000,0.779422863405995,5.700000000000000));
#334=VERTEX_POINT('',#333);
#335=CARTESIAN_POINT('',(2.090000000000000,0.779422863405995,5.700000000000000));
#336=DIRECTION('',(0.0,0.0,-1.0));
#337=VECTOR('',#336,1.499999999999998);
#338=LINE('',#335,#337);
#339=EDGE_CURVE('',#334,#326,#338,.T.);
#340=ORIENTED_EDGE('',*,*,#339,.F.);
#341=CARTESIAN_POINT('',(2.090000000000000,-0.779422863405995,5.700000000000000));
#342=DIRECTION('',(0.0,1.0,0.0));
#343=VECTOR('',#342,1.558845726811990);
#344=LINE('',#341,#343);
#345=EDGE_CURVE('',#255,#334,#344,.T.);
#346=ORIENTED_EDGE('',*,*,#345,.F.);
#347=ORIENTED_EDGE('',*,*,#260,.F.);
#348=EDGE_LOOP('',(#332,#340,#346,#347));
#349=FACE_OUTER_BOUND('',#348,.T.);
#350=ADVANCED_FACE('',(#349),#324,.F.);
#351=CARTESIAN_POINT('',(2.540000000000000,-8.067116E-017,4.200000000000002));
#352=DIRECTION('',(0.0,0.0,1.0));
#353=DIRECTION('',(1.0,0.0,0.0));
#354=AXIS2_PLACEMENT_3D('',#351,#352,#353);
#355=PLANE('',#354);
#356=ORIENTED_EDGE('',*,*,#300,.T.);
#357=CARTESIAN_POINT('',(2.540000000000000,-1.110223E-016,4.200000000000002));
#358=DIRECTION('',(0.0,0.0,-1.0));
#359=DIRECTION('',(1.0,0.0,0.0));
#360=AXIS2_PLACEMENT_3D('',#357,#358,#359);
#361=CIRCLE('',#360,0.900000000000000);
#362=EDGE_CURVE('',#326,#295,#361,.T.);
#363=ORIENTED_EDGE('',*,*,#362,.F.);
#364=ORIENTED_EDGE('',*,*,#331,.T.);
#365=ORIENTED_EDGE('',*,*,#252,.F.);
#366=EDGE_LOOP('',(#356,#363,#364,#365));
#367=FACE_OUTER_BOUND('',#366,.T.);
#368=ADVANCED_FACE('',(#367),#355,.T.);
#369=CARTESIAN_POINT('',(2.540000000000000,0.0,5.700000000000000));
#370=DIRECTION('',(0.0,0.0,1.0));
#371=DIRECTION('',(1.0,0.0,0.0));
#372=AXIS2_PLACEMENT_3D('',#369,#370,#371);
#373=PLANE('',#372);
#374=ORIENTED_EDGE('',*,*,#345,.T.);
#375=CARTESIAN_POINT('',(2.540000000000000,0.0,5.700000000000000));
#376=DIRECTION('',(0.0,0.0,-1.0));
#377=DIRECTION('',(1.0,0.0,0.0));
#378=AXIS2_PLACEMENT_3D('',#375,#376,#377);
#379=CIRCLE('',#378,0.900000000000000);
#380=EDGE_CURVE('',#263,#334,#379,.T.);
#381=ORIENTED_EDGE('',*,*,#380,.F.);
#382=ORIENTED_EDGE('',*,*,#269,.F.);
#383=EDGE_LOOP('',(#374,#381,#382));
#384=FACE_OUTER_BOUND('',#383,.T.);
#385=ADVANCED_FACE('',(#384),#373,.T.);
#386=CARTESIAN_POINT('',(2.540000000000000,0.0,5.700000000000000));
#387=DIRECTION('',(0.0,0.0,1.0));
#388=DIRECTION('',(1.0,0.0,0.0));
#389=AXIS2_PLACEMENT_3D('',#386,#387,#388);
#390=PLANE('',#389);
#391=ORIENTED_EDGE('',*,*,#309,.T.);
#392=ORIENTED_EDGE('',*,*,#235,.F.);
#393=CARTESIAN_POINT('',(2.540000000000000,0.0,5.700000000000000));
#394=DIRECTION('',(0.0,0.0,-1.0));
#395=DIRECTION('',(1.0,0.0,0.0));
#396=AXIS2_PLACEMENT_3D('',#393,#394,#395);
#397=CIRCLE('',#396,0.900000000000000);
#398=EDGE_CURVE('',#304,#219,#397,.T.);
#399=ORIENTED_EDGE('',*,*,#398,.F.);
#400=EDGE_LOOP('',(#391,#392,#399));
#401=FACE_OUTER_BOUND('',#400,.T.);
#402=ADVANCED_FACE('',(#401),#390,.T.);
#403=CARTESIAN_POINT('',(2.540000000000000,-1.110223E-016,2.700000000000000));
#404=DIRECTION('',(0.0,0.0,1.0));
#405=DIRECTION('',(1.0,0.0,0.0));
#406=AXIS2_PLACEMENT_3D('',#403,#404,#405);
#407=CYLINDRICAL_SURFACE('',#406,0.900000000000000);
#408=ORIENTED_EDGE('',*,*,#226,.T.);
#409=CARTESIAN_POINT('',(2.540000000000000,-1.110223E-016,2.700000000000000));
#410=DIRECTION('',(0.0,0.0,1.0));
#411=DIRECTION('',(1.0,0.0,0.0));
#412=AXIS2_PLACEMENT_3D('',#409,#410,#411);
#413=CIRCLE('',#412,0.900000000000000);
#414=EDGE_CURVE('',#221,#272,#413,.T.);
#415=ORIENTED_EDGE('',*,*,#414,.T.);
#416=ORIENTED_EDGE('',*,*,#277,.F.);
#417=ORIENTED_EDGE('',*,*,#380,.T.);
#418=ORIENTED_EDGE('',*,*,#339,.T.);
#419=ORIENTED_EDGE('',*,*,#362,.T.);
#420=ORIENTED_EDGE('',*,*,#315,.T.);
#421=ORIENTED_EDGE('',*,*,#398,.T.);
#422=EDGE_LOOP('',(#408,#415,#416,#417,#418,#419,#420,#421));
#423=FACE_OUTER_BOUND('',#422,.T.);
#424=ADVANCED_FACE('',(#423),#407,.T.);
#425=CARTESIAN_POINT('',(2.540000000000000,-1.110223E-016,2.700000000000000));
#426=DIRECTION('',(0.0,0.0,1.0));
#427=DIRECTION('',(1.0,0.0,0.0));
#428=AXIS2_PLACEMENT_3D('',#425,#426,#427);
#429=PLANE('',#428);
#430=ORIENTED_EDGE('',*,*,#414,.F.);
#431=ORIENTED_EDGE('',*,*,#284,.F.);
#432=EDGE_LOOP('',(#430,#431));
#433=FACE_OUTER_BOUND('',#432,.T.);
#434=ADVANCED_FACE('',(#433),#429,.F.);
#435=CLOSED_SHELL('',(#288,#319,#350,#368,#385,#402,#424,#434));
#436=MANIFOLD_SOLID_BREP('46B',#435);
#437=STYLED_ITEM('NONE',(#209),#436);
#438=CARTESIAN_POINT('',(2.540000000000000,0.0,1.700000000000000));
#439=DIRECTION('',(0.0,0.0,1.0));
#440=DIRECTION('',(1.0,0.0,0.0));
#441=AXIS2_PLACEMENT_3D('',#438,#439,#440);
#442=CYLINDRICAL_SURFACE('',#441,0.700000000000000);
#443=CARTESIAN_POINT('',(3.240000000000000,-1.110223E-016,2.700000000000000));
#444=VERTEX_POINT('',#443);
#445=CARTESIAN_POINT('',(3.240000000000000,0.0,1.700000000000000));
#446=VERTEX_POINT('',#445);
#447=CARTESIAN_POINT('',(3.240000000000000,0.0,2.700000000000000));
#448=DIRECTION('',(0.0,0.0,-1.0));
#449=VECTOR('',#448,1.000000000000000);
#450=LINE('',#447,#449);
#451=EDGE_CURVE('',#444,#446,#450,.T.);
#452=ORIENTED_EDGE('',*,*,#451,.F.);
#453=CARTESIAN_POINT('',(1.840000000000000,-8.572244E-017,2.700000000000000));
#454=VERTEX_POINT('',#453);
#455=CARTESIAN_POINT('',(2.540000000000000,-1.110223E-016,2.700000000000000));
#456=DIRECTION('',(0.0,0.0,-1.0));
#457=DIRECTION('',(1.0,0.0,0.0));
#458=AXIS2_PLACEMENT_3D('',#455,#456,#457);
#459=CIRCLE('',#458,0.700000000000000);
#460=EDGE_CURVE('',#444,#454,#459,.T.);
#461=ORIENTED_EDGE('',*,*,#460,.T.);
#462=CARTESIAN_POINT('',(1.840000000000000,-8.572244E-017,1.700000000000000));
#463=VERTEX_POINT('',#462);
#464=CARTESIAN_POINT('',(1.840000000000000,-8.572244E-017,2.700000000000000));
#465=DIRECTION('',(0.0,0.0,-1.0));
#466=VECTOR('',#465,1.000000000000000);
#467=LINE('',#464,#466);
#468=EDGE_CURVE('',#454,#463,#467,.T.);
#469=ORIENTED_EDGE('',*,*,#468,.T.);
#470=CARTESIAN_POINT('',(2.540000000000000,0.0,1.700000000000000));
#471=DIRECTION('',(0.0,0.0,1.0));
#472=DIRECTION('',(1.0,0.0,0.0));
#473=AXIS2_PLACEMENT_3D('',#470,#471,#472);
#474=CIRCLE('',#473,0.700000000000000);
#475=EDGE_CURVE('',#463,#446,#474,.T.);
#476=ORIENTED_EDGE('',*,*,#475,.T.);
#477=EDGE_LOOP('',(#452,#461,#469,#476));
#478=FACE_OUTER_BOUND('',#477,.T.);
#479=ADVANCED_FACE('',(#478),#442,.T.);
#480=CARTESIAN_POINT('',(2.540000000000000,0.0,1.700000000000000));
#481=DIRECTION('',(0.0,0.0,1.0));
#482=DIRECTION('',(1.0,0.0,0.0));
#483=AXIS2_PLACEMENT_3D('',#480,#481,#482);
#484=CYLINDRICAL_SURFACE('',#483,0.700000000000000);
#485=ORIENTED_EDGE('',*,*,#451,.T.);
#486=CARTESIAN_POINT('',(2.540000000000000,0.0,1.700000000000000));
#487=DIRECTION('',(0.0,0.0,1.0));
#488=DIRECTION('',(1.0,0.0,0.0));
#489=AXIS2_PLACEMENT_3D('',#486,#487,#488);
#490=CIRCLE('',#489,0.700000000000000);
#491=EDGE_CURVE('',#446,#463,#490,.T.);
#492=ORIENTED_EDGE('',*,*,#491,.T.);
#493=ORIENTED_EDGE('',*,*,#468,.F.);
#494=CARTESIAN_POINT('',(2.540000000000000,-1.110223E-016,2.700000000000000));
#495=DIRECTION('',(0.0,0.0,-1.0));
#496=DIRECTION('',(1.0,0.0,0.0));
#497=AXIS2_PLACEMENT_3D('',#494,#495,#496);
#498=CIRCLE('',#497,0.700000000000000);
#499=EDGE_CURVE('',#454,#444,#498,.T.);
#500=ORIENTED_EDGE('',*,*,#499,.T.);
#501=EDGE_LOOP('',(#485,#492,#493,#500));
#502=FACE_OUTER_BOUND('',#501,.T.);
#503=ADVANCED_FACE('',(#502),#484,.T.);
#504=CARTESIAN_POINT('',(2.540000000000000,-1.110223E-016,2.700000000000000));
#505=DIRECTION('',(0.0,0.0,1.0));
#506=DIRECTION('',(1.0,0.0,0.0));
#507=AXIS2_PLACEMENT_3D('',#504,#505,#506);
#508=PLANE('',#507);
#509=ORIENTED_EDGE('',*,*,#460,.F.);
#510=ORIENTED_EDGE('',*,*,#499,.F.);
#511=EDGE_LOOP('',(#509,#510));
#512=FACE_OUTER_BOUND('',#511,.T.);
#513=ADVANCED_FACE('',(#512),#508,.T.);
#514=CARTESIAN_POINT('',(2.540000000000000,0.0,1.700000000000000));
#515=DIRECTION('',(0.0,0.0,1.0));
#516=DIRECTION('',(1.0,0.0,0.0));
#517=AXIS2_PLACEMENT_3D('',#514,#515,#516);
#518=PLANE('',#517);
#519=ORIENTED_EDGE('',*,*,#491,.F.);
#520=ORIENTED_EDGE('',*,*,#475,.F.);
#521=EDGE_LOOP('',(#519,#520));
#522=FACE_OUTER_BOUND('',#521,.T.);
#523=ADVANCED_FACE('',(#522),#518,.F.);
#524=CLOSED_SHELL('',(#479,#503,#513,#523));
#525=MANIFOLD_SOLID_BREP('46A',#524);
#526=STYLED_ITEM('NONE',(#209),#525);
#527=CARTESIAN_POINT('',(3.410000000000000,-1.224999999999999,8.628166E-033));
#528=DIRECTION('',(0.866025403784438,7.395209E-016,0.500000000000001));
#529=DIRECTION('',(0.500000000000001,0.0,-0.866025403784438));
#530=AXIS2_PLACEMENT_3D('',#527,#528,#529);
#531=PLANE('',#530);
#532=CARTESIAN_POINT('',(3.409999999999998,1.225000000000001,-5.469123E-016));
#533=VERTEX_POINT('',#532);
#534=CARTESIAN_POINT('',(3.109999999999998,1.225000000000001,0.519615242270662));
#535=VERTEX_POINT('',#534);
#536=CARTESIAN_POINT('',(3.409999999999998,1.225000000000000,-6.106227E-016));
#537=DIRECTION('',(-0.500000000000001,0.0,0.866025403784438));
#538=VECTOR('',#537,0.600000000000000);
#539=LINE('',#536,#538);
#540=EDGE_CURVE('',#533,#535,#539,.T.);
#541=ORIENTED_EDGE('',*,*,#540,.F.);
#542=CARTESIAN_POINT('',(3.410000000000000,-1.224999999999999,8.628166E-033));
#543=VERTEX_POINT('',#542);
#544=CARTESIAN_POINT('',(3.410000000000000,-1.224999999999999,2.775558E-017));
#545=DIRECTION('',(0.0,1.0,0.0));
#546=VECTOR('',#545,2.450000000000000);
#547=LINE('',#544,#546);
#548=EDGE_CURVE('',#543,#533,#547,.T.);
#549=ORIENTED_EDGE('',*,*,#548,.F.);
#550=CARTESIAN_POINT('',(3.110000000000000,-1.224999999999999,0.519615242270663));
#551=VERTEX_POINT('',#550);
#552=CARTESIAN_POINT('',(3.110000000000000,-1.225000000000000,0.519615242270663));
#553=DIRECTION('',(0.500000000000000,0.0,-0.866025403784438));
#554=VECTOR('',#553,0.600000000000000);
#555=LINE('',#552,#554);
#556=EDGE_CURVE('',#551,#543,#555,.T.);
#557=ORIENTED_EDGE('',*,*,#556,.F.);
#558=CARTESIAN_POINT('',(3.110000000000000,-1.224999999999999,0.519615242270663));
#559=DIRECTION('',(0.0,1.0,0.0));
#560=VECTOR('',#559,2.450000000000000);
#561=LINE('',#558,#560);
#562=EDGE_CURVE('',#551,#535,#561,.T.);
#563=ORIENTED_EDGE('',*,*,#562,.T.);
#564=EDGE_LOOP('',(#541,#549,#557,#563));
#565=FACE_OUTER_BOUND('',#564,.T.);
#566=ADVANCED_FACE('',(#565),#531,.F.);
#567=CARTESIAN_POINT('',(3.110000000000000,-1.224999999999999,0.519615242270663));
#568=DIRECTION('',(0.0,0.0,1.0));
#569=DIRECTION('',(1.0,0.0,0.0));
#570=AXIS2_PLACEMENT_3D('',#567,#568,#569);
#571=PLANE('',#570);
#572=CARTESIAN_POINT('',(1.969999999999998,1.225000000000000,0.519615242270662));
#573=VERTEX_POINT('',#572);
#574=CARTESIAN_POINT('',(3.109999999999999,1.225000000000000,0.519615242270662));
#575=DIRECTION('',(-1.0,0.0,0.0));
#576=VECTOR('',#575,1.140000000000001);
#577=LINE('',#574,#576);
#578=EDGE_CURVE('',#535,#573,#577,.T.);
#579=ORIENTED_EDGE('',*,*,#578,.F.);
#580=ORIENTED_EDGE('',*,*,#562,.F.);
#581=CARTESIAN_POINT('',(1.969999999999999,-1.225000000000000,0.519615242270663));
#582=VERTEX_POINT('',#581);
#583=CARTESIAN_POINT('',(1.969999999999999,-1.225000000000000,0.519615242270663));
#584=DIRECTION('',(1.0,0.0,0.0));
#585=VECTOR('',#584,1.140000000000001);
#586=LINE('',#583,#585);
#587=EDGE_CURVE('',#582,#551,#586,.T.);
#588=ORIENTED_EDGE('',*,*,#587,.F.);
#589=CARTESIAN_POINT('',(1.969999999999999,-1.225000000000000,0.519615242270663));
#590=DIRECTION('',(0.0,1.0,0.0));
#591=VECTOR('',#590,2.450000000000000);
#592=LINE('',#589,#591);
#593=EDGE_CURVE('',#582,#573,#592,.T.);
#594=ORIENTED_EDGE('',*,*,#593,.T.);
#595=EDGE_LOOP('',(#579,#580,#588,#594));
#596=FACE_OUTER_BOUND('',#595,.T.);
#597=ADVANCED_FACE('',(#596),#571,.F.);
#598=CARTESIAN_POINT('',(1.969999999999999,-1.225000000000000,0.519615242270663));
#599=DIRECTION('',(-0.866025403784439,-5.162914E-016,0.500000000000000));
#600=DIRECTION('',(0.500000000000000,0.0,0.866025403784439));
#601=AXIS2_PLACEMENT_3D('',#598,#599,#600);
#602=PLANE('',#601);
#603=CARTESIAN_POINT('',(1.669999999999998,1.225000000000001,-5.469123E-016));
#604=VERTEX_POINT('',#603);
#605=CARTESIAN_POINT('',(1.969999999999997,1.225000000000000,0.519615242270662));
#606=DIRECTION('',(-0.499999999999999,0.0,-0.866025403784439));
#607=VECTOR('',#606,0.599999999999999);
#608=LINE('',#605,#607);
#609=EDGE_CURVE('',#573,#604,#608,.T.);
#610=ORIENTED_EDGE('',*,*,#609,.F.);
#611=ORIENTED_EDGE('',*,*,#593,.F.);
#612=CARTESIAN_POINT('',(1.670000000000000,-1.225000000000000,8.628166E-033));
#613=VERTEX_POINT('',#612);
#614=CARTESIAN_POINT('',(1.670000000000000,-1.225000000000000,-1.110223E-016));
#615=DIRECTION('',(0.500000000000000,0.0,0.866025403784439));
#616=VECTOR('',#615,0.599999999999999);
#617=LINE('',#614,#616);
#618=EDGE_CURVE('',#613,#582,#617,.T.);
#619=ORIENTED_EDGE('',*,*,#618,.F.);
#620=CARTESIAN_POINT('',(1.669999999999999,1.225000000000001,0.0));
#621=DIRECTION('',(0.0,-1.0,0.0));
#622=VECTOR('',#621,2.450000000000001);
#623=LINE('',#620,#622);
#624=EDGE_CURVE('',#604,#613,#623,.T.);
#625=ORIENTED_EDGE('',*,*,#624,.F.);
#626=EDGE_LOOP('',(#610,#611,#619,#625));
#627=FACE_OUTER_BOUND('',#626,.T.);
#628=ADVANCED_FACE('',(#627),#602,.F.);
#629=CARTESIAN_POINT('',(2.540000000000000,0.0,0.0));
#630=DIRECTION('',(0.0,0.0,1.0));
#631=DIRECTION('',(1.0,0.0,0.0));
#632=AXIS2_PLACEMENT_3D('',#629,#630,#631);
#633=PLANE('',#632);
#634=ORIENTED_EDGE('',*,*,#548,.T.);
#635=CARTESIAN_POINT('',(3.510000000000000,1.225000000000000,0.0));
#636=VERTEX_POINT('',#635);
#637=CARTESIAN_POINT('',(3.409999999999998,1.225000000000000,0.0));
#638=DIRECTION('',(1.0,0.0,0.0));
#639=VECTOR('',#638,0.100000000000001);
#640=LINE('',#637,#639);
#641=EDGE_CURVE('',#533,#636,#640,.T.);
#642=ORIENTED_EDGE('',*,*,#641,.T.);
#643=CARTESIAN_POINT('',(3.810000000000000,0.705384757729336,0.0));
#644=VERTEX_POINT('',#643);
#645=CARTESIAN_POINT('',(3.510000000000000,1.225000000000000,0.0));
#646=DIRECTION('',(0.499999999999999,-0.866025403784439,0.0));
#647=VECTOR('',#646,0.600000000000001);
#648=LINE('',#645,#647);
#649=EDGE_CURVE('',#636,#644,#648,.T.);
#650=ORIENTED_EDGE('',*,*,#649,.T.);
#651=CARTESIAN_POINT('',(3.810000000000000,-0.705384757729337,0.0));
#652=VERTEX_POINT('',#651);
#653=CARTESIAN_POINT('',(3.810000000000000,0.705384757729336,0.0));
#654=DIRECTION('',(0.0,-1.0,0.0));
#655=VECTOR('',#654,1.410769515458673);
#656=LINE('',#653,#655);
#657=EDGE_CURVE('',#644,#652,#656,.T.);
#658=ORIENTED_EDGE('',*,*,#657,.T.);
#659=CARTESIAN_POINT('',(3.510000000000000,-1.225000000000000,0.0));
#660=VERTEX_POINT('',#659);
#661=CARTESIAN_POINT('',(3.810000000000000,-0.705384757729337,0.0));
#662=DIRECTION('',(-0.500000000000000,-0.866025403784439,0.0));
#663=VECTOR('',#662,0.600000000000000);
#664=LINE('',#661,#663);
#665=EDGE_CURVE('',#652,#660,#664,.T.);
#666=ORIENTED_EDGE('',*,*,#665,.T.);
#667=CARTESIAN_POINT('',(3.510000000000000,-1.225000000000000,0.0));
#668=DIRECTION('',(-1.0,0.0,0.0));
#669=VECTOR('',#668,0.100000000000000);
#670=LINE('',#667,#669);
#671=EDGE_CURVE('',#660,#543,#670,.T.);
#672=ORIENTED_EDGE('',*,*,#671,.T.);
#673=EDGE_LOOP('',(#634,#642,#650,#658,#666,#672));
#674=FACE_OUTER_BOUND('',#673,.T.);
#675=ADVANCED_FACE('',(#674),#633,.F.);
#676=CARTESIAN_POINT('',(2.540000000000000,0.0,0.0));
#677=DIRECTION('',(0.0,0.0,1.0));
#678=DIRECTION('',(1.0,0.0,0.0));
#679=AXIS2_PLACEMENT_3D('',#676,#677,#678);
#680=PLANE('',#679);
#681=ORIENTED_EDGE('',*,*,#624,.T.);
#682=CARTESIAN_POINT('',(1.570000000000000,-1.225000000000000,0.0));
#683=VERTEX_POINT('',#682);
#684=CARTESIAN_POINT('',(1.670000000000000,-1.225000000000000,0.0));
#685=DIRECTION('',(-1.0,0.0,0.0));
#686=VECTOR('',#685,0.100000000000000);
#687=LINE('',#684,#686);
#688=EDGE_CURVE('',#613,#683,#687,.T.);
#689=ORIENTED_EDGE('',*,*,#688,.T.);
#690=CARTESIAN_POINT('',(1.270000000000000,-0.705384757729338,0.0));
#691=VERTEX_POINT('',#690);
#692=CARTESIAN_POINT('',(1.570000000000000,-1.225000000000000,0.0));
#693=DIRECTION('',(-0.500000000000000,0.866025403784438,0.0));
#694=VECTOR('',#693,0.599999999999999);
#695=LINE('',#692,#694);
#696=EDGE_CURVE('',#683,#691,#695,.T.);
#697=ORIENTED_EDGE('',*,*,#696,.T.);
#698=CARTESIAN_POINT('',(1.270000000000000,0.705384757729336,0.0));
#699=VERTEX_POINT('',#698);
#700=CARTESIAN_POINT('',(1.270000000000000,-0.705384757729338,0.0));
#701=DIRECTION('',(0.0,1.0,0.0));
#702=VECTOR('',#701,1.410769515458674);
#703=LINE('',#700,#702);
#704=EDGE_CURVE('',#691,#699,#703,.T.);
#705=ORIENTED_EDGE('',*,*,#704,.T.);
#706=CARTESIAN_POINT('',(1.570000000000000,1.225000000000000,0.0));
#707=VERTEX_POINT('',#706);
#708=CARTESIAN_POINT('',(1.270000000000000,0.705384757729336,0.0));
#709=DIRECTION('',(0.499999999999999,0.866025403784439,0.0));
#710=VECTOR('',#709,0.600000000000001);
#711=LINE('',#708,#710);
#712=EDGE_CURVE('',#699,#707,#711,.T.);
#713=ORIENTED_EDGE('',*,*,#712,.T.);
#714=CARTESIAN_POINT('',(1.570000000000000,1.225000000000000,0.0));
#715=DIRECTION('',(1.0,0.0,0.0));
#716=VECTOR('',#715,0.099999999999999);
#717=LINE('',#714,#716);
#718=EDGE_CURVE('',#707,#604,#717,.T.);
#719=ORIENTED_EDGE('',*,*,#718,.T.);
#720=EDGE_LOOP('',(#681,#689,#697,#705,#713,#719));
#721=FACE_OUTER_BOUND('',#720,.T.);
#722=ADVANCED_FACE('',(#721),#680,.F.);
#723=CARTESIAN_POINT('',(3.510000000000000,-1.225000000000000,0.0));
#724=DIRECTION('',(0.0,-1.0,0.0));
#725=DIRECTION('',(0.0,0.0,-1.0));
#726=AXIS2_PLACEMENT_3D('',#723,#724,#725);
#727=PLANE('',#726);
#728=ORIENTED_EDGE('',*,*,#618,.T.);
#729=ORIENTED_EDGE('',*,*,#587,.T.);
#730=ORIENTED_EDGE('',*,*,#556,.T.);
#731=ORIENTED_EDGE('',*,*,#671,.F.);
#732=CARTESIAN_POINT('',(3.510000000000000,-1.225000000000000,1.700000000000000));
#733=VERTEX_POINT('',#732);
#734=CARTESIAN_POINT('',(3.510000000000000,-1.225000000000000,0.0));
#735=DIRECTION('',(0.0,0.0,1.0));
#736=VECTOR('',#735,1.700000000000000);
#737=LINE('',#734,#736);
#738=EDGE_CURVE('',#660,#733,#737,.T.);
#739=ORIENTED_EDGE('',*,*,#738,.T.);
#740=CARTESIAN_POINT('',(1.570000000000000,-1.225000000000000,1.700000000000000));
#741=VERTEX_POINT('',#740);
#742=CARTESIAN_POINT('',(3.510000000000000,-1.225000000000000,1.700000000000000));
#743=DIRECTION('',(-1.0,0.0,0.0));
#744=VECTOR('',#743,1.940000000000000);
#745=LINE('',#742,#744);
#746=EDGE_CURVE('',#733,#741,#745,.T.);
#747=ORIENTED_EDGE('',*,*,#746,.T.);
#748=CARTESIAN_POINT('',(1.570000000000000,-1.225000000000000,0.0));
#749=DIRECTION('',(0.0,0.0,1.0));
#750=VECTOR('',#749,1.700000000000000);
#751=LINE('',#748,#750);
#752=EDGE_CURVE('',#683,#741,#751,.T.);
#753=ORIENTED_EDGE('',*,*,#752,.F.);
#754=ORIENTED_EDGE('',*,*,#688,.F.);
#755=EDGE_LOOP('',(#728,#729,#730,#731,#739,#747,#753,#754));
#756=FACE_OUTER_BOUND('',#755,.T.);
#757=ADVANCED_FACE('',(#756),#727,.T.);
#758=CARTESIAN_POINT('',(1.570000000000000,-1.225000000000000,0.0));
#759=DIRECTION('',(-0.866025403784438,-0.500000000000000,0.0));
#760=DIRECTION('',(0.0,0.0,1.0));
#761=AXIS2_PLACEMENT_3D('',#758,#759,#760);
#762=PLANE('',#761);
#763=CARTESIAN_POINT('',(1.270000000000000,-0.705384757729338,1.700000000000000));
#764=VERTEX_POINT('',#763);
#765=CARTESIAN_POINT('',(1.570000000000000,-1.225000000000000,1.700000000000000));
#766=DIRECTION('',(-0.500000000000000,0.866025403784438,0.0));
#767=VECTOR('',#766,0.599999999999999);
#768=LINE('',#765,#767);
#769=EDGE_CURVE('',#741,#764,#768,.T.);
#770=ORIENTED_EDGE('',*,*,#769,.T.);
#771=CARTESIAN_POINT('',(1.270000000000000,-0.705384757729338,0.0));
#772=DIRECTION('',(0.0,0.0,1.0));
#773=VECTOR('',#772,1.700000000000000);
#774=LINE('',#771,#773);
#775=EDGE_CURVE('',#691,#764,#774,.T.);
#776=ORIENTED_EDGE('',*,*,#775,.F.);
#777=ORIENTED_EDGE('',*,*,#696,.F.);
#778=ORIENTED_EDGE('',*,*,#752,.T.);
#779=EDGE_LOOP('',(#770,#776,#777,#778));
#780=FACE_OUTER_BOUND('',#779,.T.);
#781=ADVANCED_FACE('',(#780),#762,.T.);
#782=CARTESIAN_POINT('',(1.270000000000000,-0.705384757729338,0.0));
#783=DIRECTION('',(-1.0,0.0,0.0));
#784=DIRECTION('',(0.0,0.0,1.0));
#785=AXIS2_PLACEMENT_3D('',#782,#783,#784);
#786=PLANE('',#785);
#787=CARTESIAN_POINT('',(1.270000000000000,0.705384757729336,1.700000000000000));
#788=VERTEX_POINT('',#787);
#789=CARTESIAN_POINT('',(1.270000000000000,-0.705384757729338,1.700000000000000));
#790=DIRECTION('',(0.0,1.0,0.0));
#791=VECTOR('',#790,1.410769515458674);
#792=LINE('',#789,#791);
#793=EDGE_CURVE('',#764,#788,#792,.T.);
#794=ORIENTED_EDGE('',*,*,#793,.T.);
#795=CARTESIAN_POINT('',(1.270000000000000,0.705384757729336,0.0));
#796=DIRECTION('',(0.0,0.0,1.0));
#797=VECTOR('',#796,1.700000000000000);
#798=LINE('',#795,#797);
#799=EDGE_CURVE('',#699,#788,#798,.T.);
#800=ORIENTED_EDGE('',*,*,#799,.F.);
#801=ORIENTED_EDGE('',*,*,#704,.F.);
#802=ORIENTED_EDGE('',*,*,#775,.T.);
#803=EDGE_LOOP('',(#794,#800,#801,#802));
#804=FACE_OUTER_BOUND('',#803,.T.);
#805=ADVANCED_FACE('',(#804),#786,.T.);
#806=CARTESIAN_POINT('',(1.270000000000000,0.705384757729336,0.0));
#807=DIRECTION('',(-0.866025403784439,0.499999999999999,0.0));
#808=DIRECTION('',(0.0,0.0,1.0));
#809=AXIS2_PLACEMENT_3D('',#806,#807,#808);
#810=PLANE('',#809);
#811=CARTESIAN_POINT('',(1.570000000000000,1.225000000000000,1.700000000000000));
#812=VERTEX_POINT('',#811);
#813=CARTESIAN_POINT('',(1.270000000000000,0.705384757729336,1.700000000000000));
#814=DIRECTION('',(0.499999999999999,0.866025403784439,0.0));
#815=VECTOR('',#814,0.600000000000001);
#816=LINE('',#813,#815);
#817=EDGE_CURVE('',#788,#812,#816,.T.);
#818=ORIENTED_EDGE('',*,*,#817,.T.);
#819=CARTESIAN_POINT('',(1.570000000000000,1.225000000000000,0.0));
#820=DIRECTION('',(0.0,0.0,1.0));
#821=VECTOR('',#820,1.700000000000000);
#822=LINE('',#819,#821);
#823=EDGE_CURVE('',#707,#812,#822,.T.);
#824=ORIENTED_EDGE('',*,*,#823,.F.);
#825=ORIENTED_EDGE('',*,*,#712,.F.);
#826=ORIENTED_EDGE('',*,*,#799,.T.);
#827=EDGE_LOOP('',(#818,#824,#825,#826));
#828=FACE_OUTER_BOUND('',#827,.T.);
#829=ADVANCED_FACE('',(#828),#810,.T.);
#830=CARTESIAN_POINT('',(1.570000000000000,1.225000000000000,0.0));
#831=DIRECTION('',(0.0,1.0,0.0));
#832=DIRECTION('',(0.0,0.0,1.0));
#833=AXIS2_PLACEMENT_3D('',#830,#831,#832);
#834=PLANE('',#833);
#835=ORIENTED_EDGE('',*,*,#609,.T.);
#836=ORIENTED_EDGE('',*,*,#718,.F.);
#837=ORIENTED_EDGE('',*,*,#823,.T.);
#838=CARTESIAN_POINT('',(3.510000000000000,1.225000000000000,1.700000000000000));
#839=VERTEX_POINT('',#838);
#840=CARTESIAN_POINT('',(1.570000000000000,1.225000000000000,1.700000000000000));
#841=DIRECTION('',(1.0,0.0,0.0));
#842=VECTOR('',#841,1.940000000000000);
#843=LINE('',#840,#842);
#844=EDGE_CURVE('',#812,#839,#843,.T.);
#845=ORIENTED_EDGE('',*,*,#844,.T.);
#846=CARTESIAN_POINT('',(3.510000000000000,1.225000000000000,0.0));
#847=DIRECTION('',(0.0,0.0,1.0));
#848=VECTOR('',#847,1.700000000000000);
#849=LINE('',#846,#848);
#850=EDGE_CURVE('',#636,#839,#849,.T.);
#851=ORIENTED_EDGE('',*,*,#850,.F.);
#852=ORIENTED_EDGE('',*,*,#641,.F.);
#853=ORIENTED_EDGE('',*,*,#540,.T.);
#854=ORIENTED_EDGE('',*,*,#578,.T.);
#855=EDGE_LOOP('',(#835,#836,#837,#845,#851,#852,#853,#854));
#856=FACE_OUTER_BOUND('',#855,.T.);
#857=ADVANCED_FACE('',(#856),#834,.T.);
#858=CARTESIAN_POINT('',(3.510000000000000,1.225000000000000,0.0));
#859=DIRECTION('',(0.866025403784439,0.500000000000000,0.0));
#860=DIRECTION('',(0.0,0.0,-1.0));
#861=AXIS2_PLACEMENT_3D('',#858,#859,#860);
#862=PLANE('',#861);
#863=CARTESIAN_POINT('',(3.810000000000000,0.705384757729336,1.700000000000000));
#864=VERTEX_POINT('',#863);
#865=CARTESIAN_POINT('',(3.510000000000000,1.225000000000000,1.700000000000000));
#866=DIRECTION('',(0.499999999999999,-0.866025403784439,0.0));
#867=VECTOR('',#866,0.600000000000001);
#868=LINE('',#865,#867);
#869=EDGE_CURVE('',#839,#864,#868,.T.);
#870=ORIENTED_EDGE('',*,*,#869,.T.);
#871=CARTESIAN_POINT('',(3.810000000000000,0.705384757729336,0.0));
#872=DIRECTION('',(0.0,0.0,1.0));
#873=VECTOR('',#872,1.700000000000000);
#874=LINE('',#871,#873);
#875=EDGE_CURVE('',#644,#864,#874,.T.);
#876=ORIENTED_EDGE('',*,*,#875,.F.);
#877=ORIENTED_EDGE('',*,*,#649,.F.);
#878=ORIENTED_EDGE('',*,*,#850,.T.);
#879=EDGE_LOOP('',(#870,#876,#877,#878));
#880=FACE_OUTER_BOUND('',#879,.T.);
#881=ADVANCED_FACE('',(#880),#862,.T.);
#882=CARTESIAN_POINT('',(3.810000000000000,0.705384757729336,0.0));
#883=DIRECTION('',(1.0,0.0,0.0));
#884=DIRECTION('',(0.0,0.0,-1.0));
#885=AXIS2_PLACEMENT_3D('',#882,#883,#884);
#886=PLANE('',#885);
#887=CARTESIAN_POINT('',(3.810000000000000,-0.705384757729337,1.700000000000000));
#888=VERTEX_POINT('',#887);
#889=CARTESIAN_POINT('',(3.810000000000000,0.705384757729336,1.700000000000000));
#890=DIRECTION('',(0.0,-1.0,0.0));
#891=VECTOR('',#890,1.410769515458673);
#892=LINE('',#889,#891);
#893=EDGE_CURVE('',#864,#888,#892,.T.);
#894=ORIENTED_EDGE('',*,*,#893,.T.);
#895=CARTESIAN_POINT('',(3.810000000000000,-0.705384757729337,0.0));
#896=DIRECTION('',(0.0,0.0,1.0));
#897=VECTOR('',#896,1.700000000000000);
#898=LINE('',#895,#897);
#899=EDGE_CURVE('',#652,#888,#898,.T.);
#900=ORIENTED_EDGE('',*,*,#899,.F.);
#901=ORIENTED_EDGE('',*,*,#657,.F.);
#902=ORIENTED_EDGE('',*,*,#875,.T.);
#903=EDGE_LOOP('',(#894,#900,#901,#902));
#904=FACE_OUTER_BOUND('',#903,.T.);
#905=ADVANCED_FACE('',(#904),#886,.T.);
#906=CARTESIAN_POINT('',(3.810000000000000,-0.705384757729337,0.0));
#907=DIRECTION('',(0.866025403784439,-0.500000000000000,0.0));
#908=DIRECTION('',(0.0,0.0,-1.0));
#909=AXIS2_PLACEMENT_3D('',#906,#907,#908);
#910=PLANE('',#909);
#911=CARTESIAN_POINT('',(3.810000000000000,-0.705384757729337,1.700000000000000));
#912=DIRECTION('',(-0.500000000000000,-0.866025403784439,0.0));
#913=VECTOR('',#912,0.600000000000000);
#914=LINE('',#911,#913);
#915=EDGE_CURVE('',#888,#733,#914,.T.);
#916=ORIENTED_EDGE('',*,*,#915,.T.);
#917=ORIENTED_EDGE('',*,*,#738,.F.);
#918=ORIENTED_EDGE('',*,*,#665,.F.);
#919=ORIENTED_EDGE('',*,*,#899,.T.);
#920=EDGE_LOOP('',(#916,#917,#918,#919));
#921=FACE_OUTER_BOUND('',#920,.T.);
#922=ADVANCED_FACE('',(#921),#910,.T.);
#923=CARTESIAN_POINT('',(2.540000000000000,0.0,1.700000000000000));
#924=DIRECTION('',(0.0,0.0,1.0));
#925=DIRECTION('',(1.0,0.0,0.0));
#926=AXIS2_PLACEMENT_3D('',#923,#924,#925);
#927=PLANE('',#926);
#928=ORIENTED_EDGE('',*,*,#769,.F.);
#929=ORIENTED_EDGE('',*,*,#746,.F.);
#930=ORIENTED_EDGE('',*,*,#915,.F.);
#931=ORIENTED_EDGE('',*,*,#893,.F.);
#932=ORIENTED_EDGE('',*,*,#869,.F.);
#933=ORIENTED_EDGE('',*,*,#844,.F.);
#934=ORIENTED_EDGE('',*,*,#817,.F.);
#935=ORIENTED_EDGE('',*,*,#793,.F.);
#936=EDGE_LOOP('',(#928,#929,#930,#931,#932,#933,#934,#935));
#937=FACE_OUTER_BOUND('',#936,.T.);
#938=ADVANCED_FACE('',(#937),#927,.T.);
#939=CLOSED_SHELL('',(#566,#597,#628,#675,#722,#757,#781,#805,#829,#857,#881,#905,#922,#938));
#940=MANIFOLD_SOLID_BREP('469',#939);
#941=COLOUR_RGB('250',0.330000000000000,0.330000000000000,0.330000000000000);
#942=SURFACE_STYLE_USAGE(.BOTH.,#943);
#943=SURFACE_SIDE_STYLE('NONE',(#944));
#944=SURFACE_STYLE_FILL_AREA(#945);
#945=FILL_AREA_STYLE('NONE',(#946));
#946=FILL_AREA_STYLE_COLOUR('NONE',#941);
#947=PRESENTATION_STYLE_ASSIGNMENT((#942));
#948=STYLED_ITEM('NONE',(#947),#940);
#949=CARTESIAN_POINT('',(0.0,0.0,-2.800000000000000));
#950=DIRECTION('',(0.0,0.0,1.0));
#951=DIRECTION('',(-1.0,0.0,0.0));
#952=AXIS2_PLACEMENT_3D('',#949,#950,#951);
#953=CONICAL_SURFACE('',#952,0.200000000000000,26.565051177077994);
#954=CARTESIAN_POINT('',(-0.300000000000000,3.673819E-017,-2.600000000000000));
#955=VERTEX_POINT('',#954);
#956=CARTESIAN_POINT('',(-0.100000000000000,0.0,-3.0));
#957=VERTEX_POINT('',#956);
#958=CARTESIAN_POINT('',(-0.300000000000000,0.0,-2.600000000000000));
#959=DIRECTION('',(0.447213595499958,0.0,-0.894427190999916));
#960=VECTOR('',#959,0.447213595499958);
#961=LINE('',#958,#960);
#962=EDGE_CURVE('',#955,#957,#961,.T.);
#963=ORIENTED_EDGE('',*,*,#962,.F.);
#964=CARTESIAN_POINT('',(0.300000000000000,-3.673819E-017,-2.600000000000000));
#965=VERTEX_POINT('',#964);
#966=CARTESIAN_POINT('',(0.0,0.0,-2.600000000000000));
#967=DIRECTION('',(0.0,0.0,-1.0));
#968=DIRECTION('',(-1.0,0.0,0.0));
#969=AXIS2_PLACEMENT_3D('',#966,#967,#968);
#970=CIRCLE('',#969,0.300000000000000);
#971=EDGE_CURVE('',#955,#965,#970,.T.);
#972=ORIENTED_EDGE('',*,*,#971,.T.);
#973=CARTESIAN_POINT('',(0.100000000000000,1.224606E-017,-3.0));
#974=VERTEX_POINT('',#973);
#975=CARTESIAN_POINT('',(0.300000000000000,3.673819E-017,-2.600000000000000));
#976=DIRECTION('',(-0.447213595499958,-5.476606E-017,-0.894427190999916));
#977=VECTOR('',#976,0.447213595499958);
#978=LINE('',#975,#977);
#979=EDGE_CURVE('',#965,#974,#978,.T.);
#980=ORIENTED_EDGE('',*,*,#979,.T.);
#981=CARTESIAN_POINT('',(0.0,0.0,-3.0));
#982=DIRECTION('',(0.0,0.0,1.0));
#983=DIRECTION('',(-1.0,0.0,0.0));
#984=AXIS2_PLACEMENT_3D('',#981,#982,#983);
#985=CIRCLE('',#984,0.100000000000000);
#986=EDGE_CURVE('',#974,#957,#985,.T.);
#987=ORIENTED_EDGE('',*,*,#986,.T.);
#988=EDGE_LOOP('',(#963,#972,#980,#987));
#989=FACE_OUTER_BOUND('',#988,.T.);
#990=ADVANCED_FACE('',(#989),#953,.T.);
#991=CARTESIAN_POINT('',(0.0,0.0,0.0));
#992=DIRECTION('',(0.0,0.0,-1.0));
#993=DIRECTION('',(1.0,0.0,0.0));
#994=AXIS2_PLACEMENT_3D('',#991,#992,#993);
#995=CYLINDRICAL_SURFACE('',#994,0.300000000000000);
#996=CARTESIAN_POINT('',(0.300000000000000,1.154632E-016,0.520000000000000));
#997=VERTEX_POINT('',#996);
#998=CARTESIAN_POINT('',(0.300000000000000,0.0,-2.600000000000000));
#999=DIRECTION('',(0.0,0.0,1.0));
#1000=VECTOR('',#999,3.120000000000000);
#1001=LINE('',#998,#1000);
#1002=EDGE_CURVE('',#965,#997,#1001,.T.);
#1003=ORIENTED_EDGE('',*,*,#1002,.F.);
#1004=ORIENTED_EDGE('',*,*,#971,.F.);
#1005=CARTESIAN_POINT('',(-0.300000000000000,3.673819E-017,0.520000000000000));
#1006=VERTEX_POINT('',#1005);
#1007=CARTESIAN_POINT('',(-0.300000000000000,3.673819E-017,-2.600000000000000));
#1008=DIRECTION('',(0.0,0.0,1.0));
#1009=VECTOR('',#1008,3.120000000000000);
#1010=LINE('',#1007,#1009);
#1011=EDGE_CURVE('',#955,#1006,#1010,.T.);
#1012=ORIENTED_EDGE('',*,*,#1011,.T.);
#1013=CARTESIAN_POINT('',(0.0,1.154632E-016,0.520000000000000));
#1014=DIRECTION('',(0.0,0.0,1.0));
#1015=DIRECTION('',(1.0,0.0,0.0));
#1016=AXIS2_PLACEMENT_3D('',#1013,#1014,#1015);
#1017=CIRCLE('',#1016,0.300000000000000);
#1018=EDGE_CURVE('',#997,#1006,#1017,.T.);
#1019=ORIENTED_EDGE('',*,*,#1018,.F.);
#1020=EDGE_LOOP('',(#1003,#1004,#1012,#1019));
#1021=FACE_OUTER_BOUND('',#1020,.T.);
#1022=ADVANCED_FACE('',(#1021),#995,.T.);
#1023=CARTESIAN_POINT('',(0.0,0.0,0.0));
#1024=DIRECTION('',(0.0,0.0,-1.0));
#1025=DIRECTION('',(1.0,0.0,0.0));
#1026=AXIS2_PLACEMENT_3D('',#1023,#1024,#1025);
#1027=CYLINDRICAL_SURFACE('',#1026,0.300000000000000);
#1028=ORIENTED_EDGE('',*,*,#1002,.T.);
#1029=CARTESIAN_POINT('',(0.0,1.154632E-016,0.520000000000000));
#1030=DIRECTION('',(0.0,0.0,1.0));
#1031=DIRECTION('',(1.0,0.0,0.0));
#1032=AXIS2_PLACEMENT_3D('',#1029,#1030,#1031);
#1033=CIRCLE('',#1032,0.300000000000000);
#1034=EDGE_CURVE('',#1006,#997,#1033,.T.);
#1035=ORIENTED_EDGE('',*,*,#1034,.F.);
#1036=ORIENTED_EDGE('',*,*,#1011,.F.);
#1037=CARTESIAN_POINT('',(0.0,0.0,-2.600000000000000));
#1038=DIRECTION('',(0.0,0.0,-1.0));
#1039=DIRECTION('',(-1.0,0.0,0.0));
#1040=AXIS2_PLACEMENT_3D('',#1037,#1038,#1039);
#1041=CIRCLE('',#1040,0.300000000000000);
#1042=EDGE_CURVE('',#965,#955,#1041,.T.);
#1043=ORIENTED_EDGE('',*,*,#1042,.F.);
#1044=EDGE_LOOP('',(#1028,#1035,#1036,#1043));
#1045=FACE_OUTER_BOUND('',#1044,.T.);
#1046=ADVANCED_FACE('',(#1045),#1027,.T.);
#1047=CARTESIAN_POINT('',(0.0,1.154632E-016,0.520000000000000));
#1048=DIRECTION('',(0.0,0.0,1.0));
#1049=DIRECTION('',(1.0,0.0,0.0));
#1050=AXIS2_PLACEMENT_3D('',#1047,#1048,#1049);
#1051=PLANE('',#1050);
#1052=ORIENTED_EDGE('',*,*,#1018,.T.);
#1053=ORIENTED_EDGE('',*,*,#1034,.T.);
#1054=EDGE_LOOP('',(#1052,#1053));
#1055=FACE_OUTER_BOUND('',#1054,.T.);
#1056=ADVANCED_FACE('',(#1055),#1051,.T.);
#1057=CARTESIAN_POINT('',(0.0,0.0,-2.800000000000000));
#1058=DIRECTION('',(0.0,0.0,1.0));
#1059=DIRECTION('',(-1.0,0.0,0.0));
#1060=AXIS2_PLACEMENT_3D('',#1057,#1058,#1059);
#1061=CONICAL_SURFACE('',#1060,0.200000000000000,26.565051177077994);
#1062=ORIENTED_EDGE('',*,*,#962,.T.);
#1063=CARTESIAN_POINT('',(0.0,0.0,-3.0));
#1064=DIRECTION('',(0.0,0.0,1.0));
#1065=DIRECTION('',(-1.0,0.0,0.0));
#1066=AXIS2_PLACEMENT_3D('',#1063,#1064,#1065);
#1067=CIRCLE('',#1066,0.100000000000000);
#1068=EDGE_CURVE('',#957,#974,#1067,.T.);
#1069=ORIENTED_EDGE('',*,*,#1068,.T.);
#1070=ORIENTED_EDGE('',*,*,#979,.F.);
#1071=ORIENTED_EDGE('',*,*,#1042,.T.);
#1072=EDGE_LOOP('',(#1062,#1069,#1070,#1071));
#1073=FACE_OUTER_BOUND('',#1072,.T.);
#1074=ADVANCED_FACE('',(#1073),#1061,.T.);
#1075=CARTESIAN_POINT('',(0.0,0.0,-3.0));
#1076=DIRECTION('',(0.0,0.0,1.0));
#1077=DIRECTION('',(1.0,0.0,0.0));
#1078=AXIS2_PLACEMENT_3D('',#1075,#1076,#1077);
#1079=PLANE('',#1078);
#1080=ORIENTED_EDGE('',*,*,#986,.F.);
#1081=ORIENTED_EDGE('',*,*,#1068,.F.);
#1082=EDGE_LOOP('',(#1080,#1081));
#1083=FACE_OUTER_BOUND('',#1082,.T.);
#1084=ADVANCED_FACE('',(#1083),#1079,.F.);
#1085=CLOSED_SHELL('',(#990,#1022,#1046,#1056,#1074,#1084));
#1086=MANIFOLD_SOLID_BREP('3EF',#1085);
#1087=STYLED_ITEM('NONE',(#209),#1086);
#1088=CARTESIAN_POINT('',(0.0,-1.110223E-016,2.700000000000000));
#1089=DIRECTION('',(0.0,0.0,1.0));
#1090=DIRECTION('',(1.0,0.0,0.0));
#1091=AXIS2_PLACEMENT_3D('',#1088,#1089,#1090);
#1092=CYLINDRICAL_SURFACE('',#1091,0.900000000000000);
#1093=CARTESIAN_POINT('',(0.900000000000000,-1.110223E-016,5.700000000000000));
#1094=VERTEX_POINT('',#1093);
#1095=CARTESIAN_POINT('',(0.899999999999999,-1.110223E-016,2.700000000000000));
#1096=VERTEX_POINT('',#1095);
#1097=CARTESIAN_POINT('',(0.900000000000000,-1.110223E-016,5.700000000000000));
#1098=DIRECTION('',(0.0,0.0,-1.0));
#1099=VECTOR('',#1098,3.0);
#1100=LINE('',#1097,#1099);
#1101=EDGE_CURVE('',#1094,#1096,#1100,.T.);
#1102=ORIENTED_EDGE('',*,*,#1101,.F.);
#1103=CARTESIAN_POINT('',(0.450000000000000,-0.779422863405995,5.700000000000000));
#1104=VERTEX_POINT('',#1103);
#1105=CARTESIAN_POINT('',(0.0,0.0,5.700000000000000));
#1106=DIRECTION('',(0.0,0.0,-1.0));
#1107=DIRECTION('',(1.0,0.0,0.0));
#1108=AXIS2_PLACEMENT_3D('',#1105,#1106,#1107);
#1109=CIRCLE('',#1108,0.900000000000000);
#1110=EDGE_CURVE('',#1094,#1104,#1109,.T.);
#1111=ORIENTED_EDGE('',*,*,#1110,.T.);
#1112=CARTESIAN_POINT('',(0.450000000000000,-0.779422863405995,4.200000000000002));
#1113=VERTEX_POINT('',#1112);
#1114=CARTESIAN_POINT('',(0.450000000000000,-0.779422863405995,5.700000000000000));
#1115=DIRECTION('',(0.0,0.0,-1.0));
#1116=VECTOR('',#1115,1.499999999999998);
#1117=LINE('',#1114,#1116);
#1118=EDGE_CURVE('',#1104,#1113,#1117,.T.);
#1119=ORIENTED_EDGE('',*,*,#1118,.T.);
#1120=CARTESIAN_POINT('',(-0.450000000000000,-0.779422863405995,4.200000000000002));
#1121=VERTEX_POINT('',#1120);
#1122=CARTESIAN_POINT('',(0.0,-1.110223E-016,4.200000000000002));
#1123=DIRECTION('',(0.0,0.0,-1.0));
#1124=DIRECTION('',(1.0,0.0,0.0));
#1125=AXIS2_PLACEMENT_3D('',#1122,#1123,#1124);
#1126=CIRCLE('',#1125,0.900000000000000);
#1127=EDGE_CURVE('',#1113,#1121,#1126,.T.);
#1128=ORIENTED_EDGE('',*,*,#1127,.T.);
#1129=CARTESIAN_POINT('',(-0.450000000000000,-0.779422863405995,5.700000000000000));
#1130=VERTEX_POINT('',#1129);
#1131=CARTESIAN_POINT('',(-0.450000000000000,-0.779422863405995,4.200000000000002));
#1132=DIRECTION('',(0.0,0.0,1.0));
#1133=VECTOR('',#1132,1.499999999999998);
#1134=LINE('',#1131,#1133);
#1135=EDGE_CURVE('',#1121,#1130,#1134,.T.);
#1136=ORIENTED_EDGE('',*,*,#1135,.T.);
#1137=CARTESIAN_POINT('',(-0.900000000000000,-2.212369E-016,5.700000000000000));
#1138=VERTEX_POINT('',#1137);
#1139=CARTESIAN_POINT('',(0.0,0.0,5.700000000000000));
#1140=DIRECTION('',(0.0,0.0,-1.0));
#1141=DIRECTION('',(1.0,0.0,0.0));
#1142=AXIS2_PLACEMENT_3D('',#1139,#1140,#1141);
#1143=CIRCLE('',#1142,0.900000000000000);
#1144=EDGE_CURVE('',#1130,#1138,#1143,.T.);
#1145=ORIENTED_EDGE('',*,*,#1144,.T.);
#1146=CARTESIAN_POINT('',(-0.900000000000000,-2.212369E-016,2.700000000000000));
#1147=VERTEX_POINT('',#1146);
#1148=CARTESIAN_POINT('',(-0.900000000000000,-2.212369E-016,5.700000000000000));
#1149=DIRECTION('',(0.0,0.0,-1.0));
#1150=VECTOR('',#1149,3.0);
#1151=LINE('',#1148,#1150);
#1152=EDGE_CURVE('',#1138,#1147,#1151,.T.);
#1153=ORIENTED_EDGE('',*,*,#1152,.T.);
#1154=CARTESIAN_POINT('',(0.0,-1.110223E-016,2.700000000000000));
#1155=DIRECTION('',(0.0,0.0,1.0));
#1156=DIRECTION('',(1.0,0.0,0.0));
#1157=AXIS2_PLACEMENT_3D('',#1154,#1155,#1156);
#1158=CIRCLE('',#1157,0.900000000000000);
#1159=EDGE_CURVE('',#1147,#1096,#1158,.T.);
#1160=ORIENTED_EDGE('',*,*,#1159,.T.);
#1161=EDGE_LOOP('',(#1102,#1111,#1119,#1128,#1136,#1145,#1153,#1160));
#1162=FACE_OUTER_BOUND('',#1161,.T.);
#1163=ADVANCED_FACE('',(#1162),#1092,.T.);
#1164=CARTESIAN_POINT('',(0.450000000000000,-0.779422863405995,5.700000000000000));
#1165=DIRECTION('',(1.0,0.0,0.0));
#1166=DIRECTION('',(0.0,0.0,-1.0));
#1167=AXIS2_PLACEMENT_3D('',#1164,#1165,#1166);
#1168=PLANE('',#1167);
#1169=CARTESIAN_POINT('',(0.449999999999999,0.779422863405995,4.200000000000002));
#1170=VERTEX_POINT('',#1169);
#1171=CARTESIAN_POINT('',(0.450000000000000,-0.779422863405995,4.200000000000000));
#1172=DIRECTION('',(0.0,1.0,0.0));
#1173=VECTOR('',#1172,1.558845726811990);
#1174=LINE('',#1171,#1173);
#1175=EDGE_CURVE('',#1113,#1170,#1174,.T.);
#1176=ORIENTED_EDGE('',*,*,#1175,.F.);
#1177=ORIENTED_EDGE('',*,*,#1118,.F.);
#1178=CARTESIAN_POINT('',(0.449999999999999,0.779422863405995,5.700000000000000));
#1179=VERTEX_POINT('',#1178);
#1180=CARTESIAN_POINT('',(0.449999999999999,0.779422863405995,5.700000000000000));
#1181=DIRECTION('',(0.0,-1.0,0.0));
#1182=VECTOR('',#1181,1.558845726811990);
#1183=LINE('',#1180,#1182);
#1184=EDGE_CURVE('',#1179,#1104,#1183,.T.);
#1185=ORIENTED_EDGE('',*,*,#1184,.F.);
#1186=CARTESIAN_POINT('',(0.449999999999999,0.779422863405995,4.200000000000002));
#1187=DIRECTION('',(0.0,0.0,1.0));
#1188=VECTOR('',#1187,1.499999999999998);
#1189=LINE('',#1186,#1188);
#1190=EDGE_CURVE('',#1170,#1179,#1189,.T.);
#1191=ORIENTED_EDGE('',*,*,#1190,.F.);
#1192=EDGE_LOOP('',(#1176,#1177,#1185,#1191));
#1193=FACE_OUTER_BOUND('',#1192,.T.);
#1194=ADVANCED_FACE('',(#1193),#1168,.F.);
#1195=CARTESIAN_POINT('',(-0.450000000000000,0.779422863405995,5.700000000000000));
#1196=DIRECTION('',(-1.0,0.0,0.0));
#1197=DIRECTION('',(0.0,0.0,1.0));
#1198=AXIS2_PLACEMENT_3D('',#1195,#1196,#1197);
#1199=PLANE('',#1198);
#1200=CARTESIAN_POINT('',(-0.450000000000000,0.779422863405995,4.200000000000002));
#1201=VERTEX_POINT('',#1200);
#1202=CARTESIAN_POINT('',(-0.450000000000000,0.779422863405995,4.200000000000000));
#1203=DIRECTION('',(0.0,-1.0,0.0));
#1204=VECTOR('',#1203,1.558845726811990);
#1205=LINE('',#1202,#1204);
#1206=EDGE_CURVE('',#1201,#1121,#1205,.T.);
#1207=ORIENTED_EDGE('',*,*,#1206,.F.);
#1208=CARTESIAN_POINT('',(-0.450000000000000,0.779422863405995,5.700000000000000));
#1209=VERTEX_POINT('',#1208);
#1210=CARTESIAN_POINT('',(-0.450000000000000,0.779422863405995,5.700000000000000));
#1211=DIRECTION('',(0.0,0.0,-1.0));
#1212=VECTOR('',#1211,1.499999999999998);
#1213=LINE('',#1210,#1212);
#1214=EDGE_CURVE('',#1209,#1201,#1213,.T.);
#1215=ORIENTED_EDGE('',*,*,#1214,.F.);
#1216=CARTESIAN_POINT('',(-0.450000000000000,-0.779422863405995,5.700000000000000));
#1217=DIRECTION('',(0.0,1.0,0.0));
#1218=VECTOR('',#1217,1.558845726811990);
#1219=LINE('',#1216,#1218);
#1220=EDGE_CURVE('',#1130,#1209,#1219,.T.);
#1221=ORIENTED_EDGE('',*,*,#1220,.F.);
#1222=ORIENTED_EDGE('',*,*,#1135,.F.);
#1223=EDGE_LOOP('',(#1207,#1215,#1221,#1222));
#1224=FACE_OUTER_BOUND('',#1223,.T.);
#1225=ADVANCED_FACE('',(#1224),#1199,.F.);
#1226=CARTESIAN_POINT('',(-1.387779E-016,-8.067116E-017,4.200000000000002));
#1227=DIRECTION('',(0.0,0.0,1.0));
#1228=DIRECTION('',(1.0,0.0,0.0));
#1229=AXIS2_PLACEMENT_3D('',#1226,#1227,#1228);
#1230=PLANE('',#1229);
#1231=ORIENTED_EDGE('',*,*,#1175,.T.);
#1232=CARTESIAN_POINT('',(0.0,-1.110223E-016,4.200000000000002));
#1233=DIRECTION('',(0.0,0.0,-1.0));
#1234=DIRECTION('',(1.0,0.0,0.0));
#1235=AXIS2_PLACEMENT_3D('',#1232,#1233,#1234);
#1236=CIRCLE('',#1235,0.900000000000000);
#1237=EDGE_CURVE('',#1201,#1170,#1236,.T.);
#1238=ORIENTED_EDGE('',*,*,#1237,.F.);
#1239=ORIENTED_EDGE('',*,*,#1206,.T.);
#1240=ORIENTED_EDGE('',*,*,#1127,.F.);
#1241=EDGE_LOOP('',(#1231,#1238,#1239,#1240));
#1242=FACE_OUTER_BOUND('',#1241,.T.);
#1243=ADVANCED_FACE('',(#1242),#1230,.T.);
#1244=CARTESIAN_POINT('',(0.0,0.0,5.700000000000000));
#1245=DIRECTION('',(0.0,0.0,1.0));
#1246=DIRECTION('',(1.0,0.0,0.0));
#1247=AXIS2_PLACEMENT_3D('',#1244,#1245,#1246);
#1248=PLANE('',#1247);
#1249=ORIENTED_EDGE('',*,*,#1220,.T.);
#1250=CARTESIAN_POINT('',(0.0,0.0,5.700000000000000));
#1251=DIRECTION('',(0.0,0.0,-1.0));
#1252=DIRECTION('',(1.0,0.0,0.0));
#1253=AXIS2_PLACEMENT_3D('',#1250,#1251,#1252);
#1254=CIRCLE('',#1253,0.900000000000000);
#1255=EDGE_CURVE('',#1138,#1209,#1254,.T.);
#1256=ORIENTED_EDGE('',*,*,#1255,.F.);
#1257=ORIENTED_EDGE('',*,*,#1144,.F.);
#1258=EDGE_LOOP('',(#1249,#1256,#1257));
#1259=FACE_OUTER_BOUND('',#1258,.T.);
#1260=ADVANCED_FACE('',(#1259),#1248,.T.);
#1261=CARTESIAN_POINT('',(0.0,0.0,5.700000000000000));
#1262=DIRECTION('',(0.0,0.0,1.0));
#1263=DIRECTION('',(1.0,0.0,0.0));
#1264=AXIS2_PLACEMENT_3D('',#1261,#1262,#1263);
#1265=PLANE('',#1264);
#1266=ORIENTED_EDGE('',*,*,#1184,.T.);
#1267=ORIENTED_EDGE('',*,*,#1110,.F.);
#1268=CARTESIAN_POINT('',(0.0,0.0,5.700000000000000));
#1269=DIRECTION('',(0.0,0.0,-1.0));
#1270=DIRECTION('',(1.0,0.0,0.0));
#1271=AXIS2_PLACEMENT_3D('',#1268,#1269,#1270);
#1272=CIRCLE('',#1271,0.900000000000000);
#1273=EDGE_CURVE('',#1179,#1094,#1272,.T.);
#1274=ORIENTED_EDGE('',*,*,#1273,.F.);
#1275=EDGE_LOOP('',(#1266,#1267,#1274));
#1276=FACE_OUTER_BOUND('',#1275,.T.);
#1277=ADVANCED_FACE('',(#1276),#1265,.T.);
#1278=CARTESIAN_POINT('',(0.0,-1.110223E-016,2.700000000000000));
#1279=DIRECTION('',(0.0,0.0,1.0));
#1280=DIRECTION('',(1.0,0.0,0.0));
#1281=AXIS2_PLACEMENT_3D('',#1278,#1279,#1280);
#1282=CYLINDRICAL_SURFACE('',#1281,0.900000000000000);
#1283=ORIENTED_EDGE('',*,*,#1101,.T.);
#1284=CARTESIAN_POINT('',(0.0,-1.110223E-016,2.700000000000000));
#1285=DIRECTION('',(0.0,0.0,1.0));
#1286=DIRECTION('',(1.0,0.0,0.0));
#1287=AXIS2_PLACEMENT_3D('',#1284,#1285,#1286);
#1288=CIRCLE('',#1287,0.900000000000000);
#1289=EDGE_CURVE('',#1096,#1147,#1288,.T.);
#1290=ORIENTED_EDGE('',*,*,#1289,.T.);
#1291=ORIENTED_EDGE('',*,*,#1152,.F.);
#1292=ORIENTED_EDGE('',*,*,#1255,.T.);
#1293=ORIENTED_EDGE('',*,*,#1214,.T.);
#1294=ORIENTED_EDGE('',*,*,#1237,.T.);
#1295=ORIENTED_EDGE('',*,*,#1190,.T.);
#1296=ORIENTED_EDGE('',*,*,#1273,.T.);
#1297=EDGE_LOOP('',(#1283,#1290,#1291,#1292,#1293,#1294,#1295,#1296));
#1298=FACE_OUTER_BOUND('',#1297,.T.);
#1299=ADVANCED_FACE('',(#1298),#1282,.T.);
#1300=CARTESIAN_POINT('',(0.0,-1.110223E-016,2.700000000000000));
#1301=DIRECTION('',(0.0,0.0,1.0));
#1302=DIRECTION('',(1.0,0.0,0.0));
#1303=AXIS2_PLACEMENT_3D('',#1300,#1301,#1302);
#1304=PLANE('',#1303);
#1305=ORIENTED_EDGE('',*,*,#1289,.F.);
#1306=ORIENTED_EDGE('',*,*,#1159,.F.);
#1307=EDGE_LOOP('',(#1305,#1306));
#1308=FACE_OUTER_BOUND('',#1307,.T.);
#1309=ADVANCED_FACE('',(#1308),#1304,.F.);
#1310=CLOSED_SHELL('',(#1163,#1194,#1225,#1243,#1260,#1277,#1299,#1309));
#1311=MANIFOLD_SOLID_BREP('3DD',#1310);
#1312=STYLED_ITEM('NONE',(#209),#1311);
#1313=CARTESIAN_POINT('',(-1.665335E-016,0.0,1.700000000000000));
#1314=DIRECTION('',(0.0,0.0,1.0));
#1315=DIRECTION('',(1.0,0.0,0.0));
#1316=AXIS2_PLACEMENT_3D('',#1313,#1314,#1315);
#1317=CYLINDRICAL_SURFACE('',#1316,0.700000000000000);
#1318=CARTESIAN_POINT('',(0.700000000000000,-1.110223E-016,2.700000000000000));
#1319=VERTEX_POINT('',#1318);
#1320=CARTESIAN_POINT('',(0.700000000000000,0.0,1.700000000000000));
#1321=VERTEX_POINT('',#1320);
#1322=CARTESIAN_POINT('',(0.700000000000000,0.0,2.700000000000000));
#1323=DIRECTION('',(0.0,0.0,-1.0));
#1324=VECTOR('',#1323,1.000000000000000);
#1325=LINE('',#1322,#1324);
#1326=EDGE_CURVE('',#1319,#1321,#1325,.T.);
#1327=ORIENTED_EDGE('',*,*,#1326,.F.);
#1328=CARTESIAN_POINT('',(-0.700000000000000,-8.572244E-017,2.700000000000000));
#1329=VERTEX_POINT('',#1328);
#1330=CARTESIAN_POINT('',(-1.665335E-016,-1.110223E-016,2.700000000000000));
#1331=DIRECTION('',(0.0,0.0,-1.0));
#1332=DIRECTION('',(1.0,0.0,0.0));
#1333=AXIS2_PLACEMENT_3D('',#1330,#1331,#1332);
#1334=CIRCLE('',#1333,0.700000000000000);
#1335=EDGE_CURVE('',#1319,#1329,#1334,.T.);
#1336=ORIENTED_EDGE('',*,*,#1335,.T.);
#1337=CARTESIAN_POINT('',(-0.700000000000000,-8.572244E-017,1.700000000000000));
#1338=VERTEX_POINT('',#1337);
#1339=CARTESIAN_POINT('',(-0.700000000000000,-8.572244E-017,2.700000000000000));
#1340=DIRECTION('',(0.0,0.0,-1.0));
#1341=VECTOR('',#1340,1.000000000000000);
#1342=LINE('',#1339,#1341);
#1343=EDGE_CURVE('',#1329,#1338,#1342,.T.);
#1344=ORIENTED_EDGE('',*,*,#1343,.T.);
#1345=CARTESIAN_POINT('',(-1.665335E-016,0.0,1.700000000000000));
#1346=DIRECTION('',(0.0,0.0,1.0));
#1347=DIRECTION('',(1.0,0.0,0.0));
#1348=AXIS2_PLACEMENT_3D('',#1345,#1346,#1347);
#1349=CIRCLE('',#1348,0.700000000000000);
#1350=EDGE_CURVE('',#1338,#1321,#1349,.T.);
#1351=ORIENTED_EDGE('',*,*,#1350,.T.);
#1352=EDGE_LOOP('',(#1327,#1336,#1344,#1351));
#1353=FACE_OUTER_BOUND('',#1352,.T.);
#1354=ADVANCED_FACE('',(#1353),#1317,.T.);
#1355=CARTESIAN_POINT('',(-1.665335E-016,0.0,1.700000000000000));
#1356=DIRECTION('',(0.0,0.0,1.0));
#1357=DIRECTION('',(1.0,0.0,0.0));
#1358=AXIS2_PLACEMENT_3D('',#1355,#1356,#1357);
#1359=CYLINDRICAL_SURFACE('',#1358,0.700000000000000);
#1360=ORIENTED_EDGE('',*,*,#1326,.T.);
#1361=CARTESIAN_POINT('',(-1.665335E-016,0.0,1.700000000000000));
#1362=DIRECTION('',(0.0,0.0,1.0));
#1363=DIRECTION('',(1.0,0.0,0.0));
#1364=AXIS2_PLACEMENT_3D('',#1361,#1362,#1363);
#1365=CIRCLE('',#1364,0.700000000000000);
#1366=EDGE_CURVE('',#1321,#1338,#1365,.T.);
#1367=ORIENTED_EDGE('',*,*,#1366,.T.);
#1368=ORIENTED_EDGE('',*,*,#1343,.F.);
#1369=CARTESIAN_POINT('',(-1.665335E-016,-1.110223E-016,2.700000000000000));
#1370=DIRECTION('',(0.0,0.0,-1.0));
#1371=DIRECTION('',(1.0,0.0,0.0));
#1372=AXIS2_PLACEMENT_3D('',#1369,#1370,#1371);
#1373=CIRCLE('',#1372,0.700000000000000);
#1374=EDGE_CURVE('',#1329,#1319,#1373,.T.);
#1375=ORIENTED_EDGE('',*,*,#1374,.T.);
#1376=EDGE_LOOP('',(#1360,#1367,#1368,#1375));
#1377=FACE_OUTER_BOUND('',#1376,.T.);
#1378=ADVANCED_FACE('',(#1377),#1359,.T.);
#1379=CARTESIAN_POINT('',(-1.665335E-016,-1.110223E-016,2.700000000000000));
#1380=DIRECTION('',(0.0,0.0,1.0));
#1381=DIRECTION('',(1.0,0.0,0.0));
#1382=AXIS2_PLACEMENT_3D('',#1379,#1380,#1381);
#1383=PLANE('',#1382);
#1384=ORIENTED_EDGE('',*,*,#1335,.F.);
#1385=ORIENTED_EDGE('',*,*,#1374,.F.);
#1386=EDGE_LOOP('',(#1384,#1385));
#1387=FACE_OUTER_BOUND('',#1386,.T.);
#1388=ADVANCED_FACE('',(#1387),#1383,.T.);
#1389=CARTESIAN_POINT('',(-1.665335E-016,0.0,1.700000000000000));
#1390=DIRECTION('',(0.0,0.0,1.0));
#1391=DIRECTION('',(1.0,0.0,0.0));
#1392=AXIS2_PLACEMENT_3D('',#1389,#1390,#1391);
#1393=PLANE('',#1392);
#1394=ORIENTED_EDGE('',*,*,#1366,.F.);
#1395=ORIENTED_EDGE('',*,*,#1350,.F.);
#1396=EDGE_LOOP('',(#1394,#1395));
#1397=FACE_OUTER_BOUND('',#1396,.T.);
#1398=ADVANCED_FACE('',(#1397),#1393,.F.);
#1399=CLOSED_SHELL('',(#1354,#1378,#1388,#1398));
#1400=MANIFOLD_SOLID_BREP('3DB',#1399);
#1401=STYLED_ITEM('NONE',(#209),#1400);
#1402=CARTESIAN_POINT('',(0.870000000000000,-1.224999999999999,8.628166E-033));
#1403=DIRECTION('',(0.866025403784438,7.395209E-016,0.500000000000001));
#1404=DIRECTION('',(0.500000000000001,0.0,-0.866025403784438));
#1405=AXIS2_PLACEMENT_3D('',#1402,#1403,#1404);
#1406=PLANE('',#1405);
#1407=CARTESIAN_POINT('',(0.869999999999998,1.225000000000001,-5.469123E-016));
#1408=VERTEX_POINT('',#1407);
#1409=CARTESIAN_POINT('',(0.569999999999998,1.225000000000001,0.519615242270662));
#1410=VERTEX_POINT('',#1409);
#1411=CARTESIAN_POINT('',(0.869999999999998,1.225000000000000,-6.106227E-016));
#1412=DIRECTION('',(-0.500000000000000,0.0,0.866025403784438));
#1413=VECTOR('',#1412,0.600000000000000);
#1414=LINE('',#1411,#1413);
#1415=EDGE_CURVE('',#1408,#1410,#1414,.T.);
#1416=ORIENTED_EDGE('',*,*,#1415,.F.);
#1417=CARTESIAN_POINT('',(0.870000000000000,-1.224999999999999,8.628166E-033));
#1418=VERTEX_POINT('',#1417);
#1419=CARTESIAN_POINT('',(0.870000000000000,-1.224999999999999,2.775558E-017));
#1420=DIRECTION('',(0.0,1.0,0.0));
#1421=VECTOR('',#1420,2.450000000000000);
#1422=LINE('',#1419,#1421);
#1423=EDGE_CURVE('',#1418,#1408,#1422,.T.);
#1424=ORIENTED_EDGE('',*,*,#1423,.F.);
#1425=CARTESIAN_POINT('',(0.570000000000000,-1.224999999999999,0.519615242270663));
#1426=VERTEX_POINT('',#1425);
#1427=CARTESIAN_POINT('',(0.570000000000000,-1.225000000000000,0.519615242270663));
#1428=DIRECTION('',(0.500000000000001,0.0,-0.866025403784438));
#1429=VECTOR('',#1428,0.600000000000000);
#1430=LINE('',#1427,#1429);
#1431=EDGE_CURVE('',#1426,#1418,#1430,.T.);
#1432=ORIENTED_EDGE('',*,*,#1431,.F.);
#1433=CARTESIAN_POINT('',(0.570000000000000,-1.224999999999999,0.519615242270663));
#1434=DIRECTION('',(0.0,1.0,0.0));
#1435=VECTOR('',#1434,2.450000000000000);
#1436=LINE('',#1433,#1435);
#1437=EDGE_CURVE('',#1426,#1410,#1436,.T.);
#1438=ORIENTED_EDGE('',*,*,#1437,.T.);
#1439=EDGE_LOOP('',(#1416,#1424,#1432,#1438));
#1440=FACE_OUTER_BOUND('',#1439,.T.);
#1441=ADVANCED_FACE('',(#1440),#1406,.F.);
#1442=CARTESIAN_POINT('',(0.570000000000000,-1.224999999999999,0.519615242270663));
#1443=DIRECTION('',(0.0,0.0,1.0));
#1444=DIRECTION('',(1.0,0.0,0.0));
#1445=AXIS2_PLACEMENT_3D('',#1442,#1443,#1444);
#1446=PLANE('',#1445);
#1447=CARTESIAN_POINT('',(-0.570000000000003,1.225000000000000,0.519615242270662));
#1448=VERTEX_POINT('',#1447);
#1449=CARTESIAN_POINT('',(0.569999999999998,1.225000000000000,0.519615242270662));
#1450=DIRECTION('',(-1.0,0.0,0.0));
#1451=VECTOR('',#1450,1.140000000000001);
#1452=LINE('',#1449,#1451);
#1453=EDGE_CURVE('',#1410,#1448,#1452,.T.);
#1454=ORIENTED_EDGE('',*,*,#1453,.F.);
#1455=ORIENTED_EDGE('',*,*,#1437,.F.);
#1456=CARTESIAN_POINT('',(-0.570000000000001,-1.225000000000000,0.519615242270663));
#1457=VERTEX_POINT('',#1456);
#1458=CARTESIAN_POINT('',(-0.570000000000001,-1.225000000000000,0.519615242270663));
#1459=DIRECTION('',(1.0,0.0,0.0));
#1460=VECTOR('',#1459,1.140000000000001);
#1461=LINE('',#1458,#1460);
#1462=EDGE_CURVE('',#1457,#1426,#1461,.T.);
#1463=ORIENTED_EDGE('',*,*,#1462,.F.);
#1464=CARTESIAN_POINT('',(-0.570000000000001,-1.225000000000000,0.519615242270663));
#1465=DIRECTION('',(0.0,1.0,0.0));
#1466=VECTOR('',#1465,2.450000000000000);
#1467=LINE('',#1464,#1466);
#1468=EDGE_CURVE('',#1457,#1448,#1467,.T.);
#1469=ORIENTED_EDGE('',*,*,#1468,.T.);
#1470=EDGE_LOOP('',(#1454,#1455,#1463,#1469));
#1471=FACE_OUTER_BOUND('',#1470,.T.);
#1472=ADVANCED_FACE('',(#1471),#1446,.F.);
#1473=CARTESIAN_POINT('',(-0.570000000000001,-1.225000000000000,0.519615242270663));
#1474=DIRECTION('',(-0.866025403784439,-5.162914E-016,0.500000000000000));
#1475=DIRECTION('',(0.500000000000000,0.0,0.866025403784439));
#1476=AXIS2_PLACEMENT_3D('',#1473,#1474,#1475);
#1477=PLANE('',#1476);
#1478=CARTESIAN_POINT('',(-0.870000000000002,1.225000000000001,-5.469123E-016));
#1479=VERTEX_POINT('',#1478);
#1480=CARTESIAN_POINT('',(-0.570000000000003,1.225000000000000,0.519615242270662));
#1481=DIRECTION('',(-0.500000000000000,0.0,-0.866025403784439));
#1482=VECTOR('',#1481,0.599999999999999);
#1483=LINE('',#1480,#1482);
#1484=EDGE_CURVE('',#1448,#1479,#1483,.T.);
#1485=ORIENTED_EDGE('',*,*,#1484,.F.);
#1486=ORIENTED_EDGE('',*,*,#1468,.F.);
#1487=CARTESIAN_POINT('',(-0.870000000000000,-1.225000000000000,8.628166E-033));
#1488=VERTEX_POINT('',#1487);
#1489=CARTESIAN_POINT('',(-0.870000000000000,-1.225000000000000,-1.110223E-016));
#1490=DIRECTION('',(0.500000000000000,0.0,0.866025403784439));
#1491=VECTOR('',#1490,0.599999999999999);
#1492=LINE('',#1489,#1491);
#1493=EDGE_CURVE('',#1488,#1457,#1492,.T.);
#1494=ORIENTED_EDGE('',*,*,#1493,.F.);
#1495=CARTESIAN_POINT('',(-0.870000000000001,1.225000000000001,0.0));
#1496=DIRECTION('',(0.0,-1.0,0.0));
#1497=VECTOR('',#1496,2.450000000000001);
#1498=LINE('',#1495,#1497);
#1499=EDGE_CURVE('',#1479,#1488,#1498,.T.);
#1500=ORIENTED_EDGE('',*,*,#1499,.F.);
#1501=EDGE_LOOP('',(#1485,#1486,#1494,#1500));
#1502=FACE_OUTER_BOUND('',#1501,.T.);
#1503=ADVANCED_FACE('',(#1502),#1477,.F.);
#1504=CARTESIAN_POINT('',(-1.665335E-016,0.0,0.0));
#1505=DIRECTION('',(0.0,0.0,1.0));
#1506=DIRECTION('',(1.0,0.0,0.0));
#1507=AXIS2_PLACEMENT_3D('',#1504,#1505,#1506);
#1508=PLANE('',#1507);
#1509=ORIENTED_EDGE('',*,*,#1423,.T.);
#1510=CARTESIAN_POINT('',(0.970000000000000,1.225000000000000,0.0));
#1511=VERTEX_POINT('',#1510);
#1512=CARTESIAN_POINT('',(0.869999999999998,1.225000000000000,0.0));
#1513=DIRECTION('',(1.0,0.0,0.0));
#1514=VECTOR('',#1513,0.100000000000002);
#1515=LINE('',#1512,#1514);
#1516=EDGE_CURVE('',#1408,#1511,#1515,.T.);
#1517=ORIENTED_EDGE('',*,*,#1516,.T.);
#1518=CARTESIAN_POINT('',(1.270000000000000,0.705384757729336,0.0));
#1519=VERTEX_POINT('',#1518);
#1520=CARTESIAN_POINT('',(0.970000000000000,1.225000000000000,0.0));
#1521=DIRECTION('',(0.500000000000000,-0.866025403784439,0.0));
#1522=VECTOR('',#1521,0.600000000000001);
#1523=LINE('',#1520,#1522);
#1524=EDGE_CURVE('',#1511,#1519,#1523,.T.);
#1525=ORIENTED_EDGE('',*,*,#1524,.T.);
#1526=CARTESIAN_POINT('',(1.270000000000000,-0.705384757729337,0.0));
#1527=VERTEX_POINT('',#1526);
#1528=CARTESIAN_POINT('',(1.270000000000000,0.705384757729336,0.0));
#1529=DIRECTION('',(0.0,-1.0,0.0));
#1530=VECTOR('',#1529,1.410769515458673);
#1531=LINE('',#1528,#1530);
#1532=EDGE_CURVE('',#1519,#1527,#1531,.T.);
#1533=ORIENTED_EDGE('',*,*,#1532,.T.);
#1534=CARTESIAN_POINT('',(0.970000000000000,-1.225000000000000,0.0));
#1535=VERTEX_POINT('',#1534);
#1536=CARTESIAN_POINT('',(1.270000000000000,-0.705384757729337,0.0));
#1537=DIRECTION('',(-0.500000000000000,-0.866025403784439,0.0));
#1538=VECTOR('',#1537,0.600000000000000);
#1539=LINE('',#1536,#1538);
#1540=EDGE_CURVE('',#1527,#1535,#1539,.T.);
#1541=ORIENTED_EDGE('',*,*,#1540,.T.);
#1542=CARTESIAN_POINT('',(0.970000000000000,-1.225000000000000,0.0));
#1543=DIRECTION('',(-1.0,0.0,0.0));
#1544=VECTOR('',#1543,0.100000000000000);
#1545=LINE('',#1542,#1544);
#1546=EDGE_CURVE('',#1535,#1418,#1545,.T.);
#1547=ORIENTED_EDGE('',*,*,#1546,.T.);
#1548=EDGE_LOOP('',(#1509,#1517,#1525,#1533,#1541,#1547));
#1549=FACE_OUTER_BOUND('',#1548,.T.);
#1550=ADVANCED_FACE('',(#1549),#1508,.F.);
#1551=CARTESIAN_POINT('',(-1.665335E-016,0.0,0.0));
#1552=DIRECTION('',(0.0,0.0,1.0));
#1553=DIRECTION('',(1.0,0.0,0.0));
#1554=AXIS2_PLACEMENT_3D('',#1551,#1552,#1553);
#1555=PLANE('',#1554);
#1556=ORIENTED_EDGE('',*,*,#1499,.T.);
#1557=CARTESIAN_POINT('',(-0.970000000000000,-1.225000000000000,0.0));
#1558=VERTEX_POINT('',#1557);
#1559=CARTESIAN_POINT('',(-0.870000000000000,-1.225000000000000,0.0));
#1560=DIRECTION('',(-1.0,0.0,0.0));
#1561=VECTOR('',#1560,0.100000000000000);
#1562=LINE('',#1559,#1561);
#1563=EDGE_CURVE('',#1488,#1558,#1562,.T.);
#1564=ORIENTED_EDGE('',*,*,#1563,.T.);
#1565=CARTESIAN_POINT('',(-1.270000000000000,-0.705384757729338,0.0));
#1566=VERTEX_POINT('',#1565);
#1567=CARTESIAN_POINT('',(-0.970000000000000,-1.225000000000000,0.0));
#1568=DIRECTION('',(-0.500000000000000,0.866025403784438,0.0));
#1569=VECTOR('',#1568,0.599999999999999);
#1570=LINE('',#1567,#1569);
#1571=EDGE_CURVE('',#1558,#1566,#1570,.T.);
#1572=ORIENTED_EDGE('',*,*,#1571,.T.);
#1573=CARTESIAN_POINT('',(-1.270000000000000,0.705384757729336,0.0));
#1574=VERTEX_POINT('',#1573);
#1575=CARTESIAN_POINT('',(-1.270000000000000,-0.705384757729338,0.0));
#1576=DIRECTION('',(0.0,1.0,0.0));
#1577=VECTOR('',#1576,1.410769515458674);
#1578=LINE('',#1575,#1577);
#1579=EDGE_CURVE('',#1566,#1574,#1578,.T.);
#1580=ORIENTED_EDGE('',*,*,#1579,.T.);
#1581=CARTESIAN_POINT('',(-0.970000000000000,1.225000000000000,0.0));
#1582=VERTEX_POINT('',#1581);
#1583=CARTESIAN_POINT('',(-1.270000000000000,0.705384757729336,0.0));
#1584=DIRECTION('',(0.499999999999999,0.866025403784439,0.0));
#1585=VECTOR('',#1584,0.600000000000001);
#1586=LINE('',#1583,#1585);
#1587=EDGE_CURVE('',#1574,#1582,#1586,.T.);
#1588=ORIENTED_EDGE('',*,*,#1587,.T.);
#1589=CARTESIAN_POINT('',(-0.970000000000000,1.225000000000000,0.0));
#1590=DIRECTION('',(1.0,0.0,0.0));
#1591=VECTOR('',#1590,0.099999999999999);
#1592=LINE('',#1589,#1591);
#1593=EDGE_CURVE('',#1582,#1479,#1592,.T.);
#1594=ORIENTED_EDGE('',*,*,#1593,.T.);
#1595=EDGE_LOOP('',(#1556,#1564,#1572,#1580,#1588,#1594));
#1596=FACE_OUTER_BOUND('',#1595,.T.);
#1597=ADVANCED_FACE('',(#1596),#1555,.F.);
#1598=CARTESIAN_POINT('',(0.970000000000000,-1.225000000000000,0.0));
#1599=DIRECTION('',(0.0,-1.0,0.0));
#1600=DIRECTION('',(0.0,0.0,-1.0));
#1601=AXIS2_PLACEMENT_3D('',#1598,#1599,#1600);
#1602=PLANE('',#1601);
#1603=ORIENTED_EDGE('',*,*,#1493,.T.);
#1604=ORIENTED_EDGE('',*,*,#1462,.T.);
#1605=ORIENTED_EDGE('',*,*,#1431,.T.);
#1606=ORIENTED_EDGE('',*,*,#1546,.F.);
#1607=CARTESIAN_POINT('',(0.970000000000000,-1.225000000000000,1.700000000000000));
#1608=VERTEX_POINT('',#1607);
#1609=CARTESIAN_POINT('',(0.970000000000000,-1.225000000000000,0.0));
#1610=DIRECTION('',(0.0,0.0,1.0));
#1611=VECTOR('',#1610,1.700000000000000);
#1612=LINE('',#1609,#1611);
#1613=EDGE_CURVE('',#1535,#1608,#1612,.T.);
#1614=ORIENTED_EDGE('',*,*,#1613,.T.);
#1615=CARTESIAN_POINT('',(-0.970000000000000,-1.225000000000000,1.700000000000000));
#1616=VERTEX_POINT('',#1615);
#1617=CARTESIAN_POINT('',(0.970000000000000,-1.225000000000000,1.700000000000000));
#1618=DIRECTION('',(-1.0,0.0,0.0));
#1619=VECTOR('',#1618,1.940000000000000);
#1620=LINE('',#1617,#1619);
#1621=EDGE_CURVE('',#1608,#1616,#1620,.T.);
#1622=ORIENTED_EDGE('',*,*,#1621,.T.);
#1623=CARTESIAN_POINT('',(-0.970000000000000,-1.225000000000000,0.0));
#1624=DIRECTION('',(0.0,0.0,1.0));
#1625=VECTOR('',#1624,1.700000000000000);
#1626=LINE('',#1623,#1625);
#1627=EDGE_CURVE('',#1558,#1616,#1626,.T.);
#1628=ORIENTED_EDGE('',*,*,#1627,.F.);
#1629=ORIENTED_EDGE('',*,*,#1563,.F.);
#1630=EDGE_LOOP('',(#1603,#1604,#1605,#1606,#1614,#1622,#1628,#1629));
#1631=FACE_OUTER_BOUND('',#1630,.T.);
#1632=ADVANCED_FACE('',(#1631),#1602,.T.);
#1633=CARTESIAN_POINT('',(-0.970000000000000,-1.225000000000000,0.0));
#1634=DIRECTION('',(-0.866025403784438,-0.500000000000000,0.0));
#1635=DIRECTION('',(0.0,0.0,1.0));
#1636=AXIS2_PLACEMENT_3D('',#1633,#1634,#1635);
#1637=PLANE('',#1636);
#1638=CARTESIAN_POINT('',(-1.270000000000000,-0.705384757729338,1.700000000000000));
#1639=VERTEX_POINT('',#1638);
#1640=CARTESIAN_POINT('',(-0.970000000000000,-1.225000000000000,1.700000000000000));
#1641=DIRECTION('',(-0.500000000000000,0.866025403784438,0.0));
#1642=VECTOR('',#1641,0.599999999999999);
#1643=LINE('',#1640,#1642);
#1644=EDGE_CURVE('',#1616,#1639,#1643,.T.);
#1645=ORIENTED_EDGE('',*,*,#1644,.T.);
#1646=CARTESIAN_POINT('',(-1.270000000000000,-0.705384757729338,0.0));
#1647=DIRECTION('',(0.0,0.0,1.0));
#1648=VECTOR('',#1647,1.700000000000000);
#1649=LINE('',#1646,#1648);
#1650=EDGE_CURVE('',#1566,#1639,#1649,.T.);
#1651=ORIENTED_EDGE('',*,*,#1650,.F.);
#1652=ORIENTED_EDGE('',*,*,#1571,.F.);
#1653=ORIENTED_EDGE('',*,*,#1627,.T.);
#1654=EDGE_LOOP('',(#1645,#1651,#1652,#1653));
#1655=FACE_OUTER_BOUND('',#1654,.T.);
#1656=ADVANCED_FACE('',(#1655),#1637,.T.);
#1657=CARTESIAN_POINT('',(-1.270000000000000,-0.705384757729338,0.0));
#1658=DIRECTION('',(-1.0,0.0,0.0));
#1659=DIRECTION('',(0.0,0.0,1.0));
#1660=AXIS2_PLACEMENT_3D('',#1657,#1658,#1659);
#1661=PLANE('',#1660);
#1662=CARTESIAN_POINT('',(-1.270000000000000,0.705384757729336,1.700000000000000));
#1663=VERTEX_POINT('',#1662);
#1664=CARTESIAN_POINT('',(-1.270000000000000,-0.705384757729338,1.700000000000000));
#1665=DIRECTION('',(0.0,1.0,0.0));
#1666=VECTOR('',#1665,1.410769515458674);
#1667=LINE('',#1664,#1666);
#1668=EDGE_CURVE('',#1639,#1663,#1667,.T.);
#1669=ORIENTED_EDGE('',*,*,#1668,.T.);
#1670=CARTESIAN_POINT('',(-1.270000000000000,0.705384757729336,0.0));
#1671=DIRECTION('',(0.0,0.0,1.0));
#1672=VECTOR('',#1671,1.700000000000000);
#1673=LINE('',#1670,#1672);
#1674=EDGE_CURVE('',#1574,#1663,#1673,.T.);
#1675=ORIENTED_EDGE('',*,*,#1674,.F.);
#1676=ORIENTED_EDGE('',*,*,#1579,.F.);
#1677=ORIENTED_EDGE('',*,*,#1650,.T.);
#1678=EDGE_LOOP('',(#1669,#1675,#1676,#1677));
#1679=FACE_OUTER_BOUND('',#1678,.T.);
#1680=ADVANCED_FACE('',(#1679),#1661,.T.);
#1681=CARTESIAN_POINT('',(-1.270000000000000,0.705384757729336,0.0));
#1682=DIRECTION('',(-0.866025403784439,0.499999999999999,0.0));
#1683=DIRECTION('',(0.0,0.0,1.0));
#1684=AXIS2_PLACEMENT_3D('',#1681,#1682,#1683);
#1685=PLANE('',#1684);
#1686=CARTESIAN_POINT('',(-0.970000000000000,1.225000000000000,1.700000000000000));
#1687=VERTEX_POINT('',#1686);
#1688=CARTESIAN_POINT('',(-1.270000000000000,0.705384757729336,1.700000000000000));
#1689=DIRECTION('',(0.499999999999999,0.866025403784439,0.0));
#1690=VECTOR('',#1689,0.600000000000001);
#1691=LINE('',#1688,#1690);
#1692=EDGE_CURVE('',#1663,#1687,#1691,.T.);
#1693=ORIENTED_EDGE('',*,*,#1692,.T.);
#1694=CARTESIAN_POINT('',(-0.970000000000000,1.225000000000000,0.0));
#1695=DIRECTION('',(0.0,0.0,1.0));
#1696=VECTOR('',#1695,1.700000000000000);
#1697=LINE('',#1694,#1696);
#1698=EDGE_CURVE('',#1582,#1687,#1697,.T.);
#1699=ORIENTED_EDGE('',*,*,#1698,.F.);
#1700=ORIENTED_EDGE('',*,*,#1587,.F.);
#1701=ORIENTED_EDGE('',*,*,#1674,.T.);
#1702=EDGE_LOOP('',(#1693,#1699,#1700,#1701));
#1703=FACE_OUTER_BOUND('',#1702,.T.);
#1704=ADVANCED_FACE('',(#1703),#1685,.T.);
#1705=CARTESIAN_POINT('',(-0.970000000000000,1.225000000000000,0.0));
#1706=DIRECTION('',(0.0,1.0,0.0));
#1707=DIRECTION('',(0.0,0.0,1.0));
#1708=AXIS2_PLACEMENT_3D('',#1705,#1706,#1707);
#1709=PLANE('',#1708);
#1710=ORIENTED_EDGE('',*,*,#1484,.T.);
#1711=ORIENTED_EDGE('',*,*,#1593,.F.);
#1712=ORIENTED_EDGE('',*,*,#1698,.T.);
#1713=CARTESIAN_POINT('',(0.970000000000000,1.225000000000000,1.700000000000000));
#1714=VERTEX_POINT('',#1713);
#1715=CARTESIAN_POINT('',(-0.970000000000000,1.225000000000000,1.700000000000000));
#1716=DIRECTION('',(1.0,0.0,0.0));
#1717=VECTOR('',#1716,1.940000000000000);
#1718=LINE('',#1715,#1717);
#1719=EDGE_CURVE('',#1687,#1714,#1718,.T.);
#1720=ORIENTED_EDGE('',*,*,#1719,.T.);
#1721=CARTESIAN_POINT('',(0.970000000000000,1.225000000000000,0.0));
#1722=DIRECTION('',(0.0,0.0,1.0));
#1723=VECTOR('',#1722,1.700000000000000);
#1724=LINE('',#1721,#1723);
#1725=EDGE_CURVE('',#1511,#1714,#1724,.T.);
#1726=ORIENTED_EDGE('',*,*,#1725,.F.);
#1727=ORIENTED_EDGE('',*,*,#1516,.F.);
#1728=ORIENTED_EDGE('',*,*,#1415,.T.);
#1729=ORIENTED_EDGE('',*,*,#1453,.T.);
#1730=EDGE_LOOP('',(#1710,#1711,#1712,#1720,#1726,#1727,#1728,#1729));
#1731=FACE_OUTER_BOUND('',#1730,.T.);
#1732=ADVANCED_FACE('',(#1731),#1709,.T.);
#1733=CARTESIAN_POINT('',(0.970000000000000,1.225000000000000,0.0));
#1734=DIRECTION('',(0.866025403784439,0.500000000000000,0.0));
#1735=DIRECTION('',(0.0,0.0,-1.0));
#1736=AXIS2_PLACEMENT_3D('',#1733,#1734,#1735);
#1737=PLANE('',#1736);
#1738=CARTESIAN_POINT('',(1.270000000000000,0.705384757729336,1.700000000000000));
#1739=VERTEX_POINT('',#1738);
#1740=CARTESIAN_POINT('',(0.970000000000000,1.225000000000000,1.700000000000000));
#1741=DIRECTION('',(0.500000000000000,-0.866025403784439,0.0));
#1742=VECTOR('',#1741,0.600000000000001);
#1743=LINE('',#1740,#1742);
#1744=EDGE_CURVE('',#1714,#1739,#1743,.T.);
#1745=ORIENTED_EDGE('',*,*,#1744,.T.);
#1746=CARTESIAN_POINT('',(1.270000000000000,0.705384757729336,0.0));
#1747=DIRECTION('',(0.0,0.0,1.0));
#1748=VECTOR('',#1747,1.700000000000000);
#1749=LINE('',#1746,#1748);
#1750=EDGE_CURVE('',#1519,#1739,#1749,.T.);
#1751=ORIENTED_EDGE('',*,*,#1750,.F.);
#1752=ORIENTED_EDGE('',*,*,#1524,.F.);
#1753=ORIENTED_EDGE('',*,*,#1725,.T.);
#1754=EDGE_LOOP('',(#1745,#1751,#1752,#1753));
#1755=FACE_OUTER_BOUND('',#1754,.T.);
#1756=ADVANCED_FACE('',(#1755),#1737,.T.);
#1757=CARTESIAN_POINT('',(1.270000000000000,0.705384757729336,0.0));
#1758=DIRECTION('',(1.0,0.0,0.0));
#1759=DIRECTION('',(0.0,0.0,-1.0));
#1760=AXIS2_PLACEMENT_3D('',#1757,#1758,#1759);
#1761=PLANE('',#1760);
#1762=CARTESIAN_POINT('',(1.270000000000000,-0.705384757729337,1.700000000000000));
#1763=VERTEX_POINT('',#1762);
#1764=CARTESIAN_POINT('',(1.270000000000000,0.705384757729336,1.700000000000000));
#1765=DIRECTION('',(0.0,-1.0,0.0));
#1766=VECTOR('',#1765,1.410769515458673);
#1767=LINE('',#1764,#1766);
#1768=EDGE_CURVE('',#1739,#1763,#1767,.T.);
#1769=ORIENTED_EDGE('',*,*,#1768,.T.);
#1770=CARTESIAN_POINT('',(1.270000000000000,-0.705384757729337,0.0));
#1771=DIRECTION('',(0.0,0.0,1.0));
#1772=VECTOR('',#1771,1.700000000000000);
#1773=LINE('',#1770,#1772);
#1774=EDGE_CURVE('',#1527,#1763,#1773,.T.);
#1775=ORIENTED_EDGE('',*,*,#1774,.F.);
#1776=ORIENTED_EDGE('',*,*,#1532,.F.);
#1777=ORIENTED_EDGE('',*,*,#1750,.T.);
#1778=EDGE_LOOP('',(#1769,#1775,#1776,#1777));
#1779=FACE_OUTER_BOUND('',#1778,.T.);
#1780=ADVANCED_FACE('',(#1779),#1761,.T.);
#1781=CARTESIAN_POINT('',(1.270000000000000,-0.705384757729337,0.0));
#1782=DIRECTION('',(0.866025403784439,-0.500000000000000,0.0));
#1783=DIRECTION('',(0.0,0.0,-1.0));
#1784=AXIS2_PLACEMENT_3D('',#1781,#1782,#1783);
#1785=PLANE('',#1784);
#1786=CARTESIAN_POINT('',(1.270000000000000,-0.705384757729337,1.700000000000000));
#1787=DIRECTION('',(-0.500000000000000,-0.866025403784439,0.0));
#1788=VECTOR('',#1787,0.600000000000000);
#1789=LINE('',#1786,#1788);
#1790=EDGE_CURVE('',#1763,#1608,#1789,.T.);
#1791=ORIENTED_EDGE('',*,*,#1790,.T.);
#1792=ORIENTED_EDGE('',*,*,#1613,.F.);
#1793=ORIENTED_EDGE('',*,*,#1540,.F.);
#1794=ORIENTED_EDGE('',*,*,#1774,.T.);
#1795=EDGE_LOOP('',(#1791,#1792,#1793,#1794));
#1796=FACE_OUTER_BOUND('',#1795,.T.);
#1797=ADVANCED_FACE('',(#1796),#1785,.T.);
#1798=CARTESIAN_POINT('',(-1.665335E-016,0.0,1.700000000000000));
#1799=DIRECTION('',(0.0,0.0,1.0));
#1800=DIRECTION('',(1.0,0.0,0.0));
#1801=AXIS2_PLACEMENT_3D('',#1798,#1799,#1800);
#1802=PLANE('',#1801);
#1803=ORIENTED_EDGE('',*,*,#1644,.F.);
#1804=ORIENTED_EDGE('',*,*,#1621,.F.);
#1805=ORIENTED_EDGE('',*,*,#1790,.F.);
#1806=ORIENTED_EDGE('',*,*,#1768,.F.);
#1807=ORIENTED_EDGE('',*,*,#1744,.F.);
#1808=ORIENTED_EDGE('',*,*,#1719,.F.);
#1809=ORIENTED_EDGE('',*,*,#1692,.F.);
#1810=ORIENTED_EDGE('',*,*,#1668,.F.);
#1811=EDGE_LOOP('',(#1803,#1804,#1805,#1806,#1807,#1808,#1809,#1810));
#1812=FACE_OUTER_BOUND('',#1811,.T.);
#1813=ADVANCED_FACE('',(#1812),#1802,.T.);
#1814=CLOSED_SHELL('',(#1441,#1472,#1503,#1550,#1597,#1632,#1656,#1680,#1704,#1732,#1756,#1780,#1797,#1813));
#1815=MANIFOLD_SOLID_BREP('3CB',#1814);
#1816=STYLED_ITEM('NONE',(#947),#1815);
#1817=ADVANCED_BREP_SHAPE_REPRESENTATION('ABSR1',(#202,#436,#525,#940,#1086,#1311,#1400,#1815),#28);
#1818=SHAPE_REPRESENTATION_RELATIONSHIP('SRRPL1','',#1817,#62);
ENDSEC;
END-ISO-10303-21;
