ISO-10303-21;
HEADER;
/****************************************************************
 * Generated by software with PDElib inside                    *
 * PDElib Version v51a, created Fri 09/10/2010                  *
 * ITI Transcendata (http://www.transcendata.com/)              *
 ****************************************************************/
FILE_DESCRIPTION((''),'2;1');
FILE_NAME('DCDC_TRACO_TEN3.stp','2013-09-24T16:49:54',(''),(''),'Mechanical Desktop 2011','Mechanical Desktop 2011',', , ');
FILE_SCHEMA(('AUTOMOTIVE_DESIGN { 1 2 10303 214 1 1 1 1 }'));
ENDSEC;
DATA;
#10=(NAMED_UNIT(*)PLANE_ANGLE_UNIT()SI_UNIT($,.RADIAN.));
#11=DIMENSIONAL_EXPONENTS(0.0,0.0,0.0,0.0,0.0,0.0,0.0);
#12=PLANE_ANGLE_MEASURE_WITH_UNIT(PLANE_ANGLE_MEASURE(0.0174532925),#10);
#16=(CONVERSION_BASED_UNIT('DEGREE',#12)NAMED_UNIT(#11)PLANE_ANGLE_UNIT());
#20=(NAMED_UNIT(*)SI_UNIT($,.STERADIAN.)SOLID_ANGLE_UNIT());
#24=(LENGTH_UNIT()NAMED_UNIT(*)SI_UNIT(.MILLI.,.METRE.));
#26=UNCERTAINTY_MEASURE_WITH_UNIT(LENGTH_MEASURE(0.000001),#24,'DISTANCE_ACCURACY_VALUE','');
#28=(GEOMETRIC_REPRESENTATION_CONTEXT(3)GLOBAL_UNCERTAINTY_ASSIGNED_CONTEXT((#26))GLOBAL_UNIT_ASSIGNED_CONTEXT((#16,#20,#24))REPRESENTATION_CONTEXT('','3D'));
#29=APPLICATION_CONTEXT('automotive design');
#30=APPLICATION_PROTOCOL_DEFINITION('INTERNATIONAL_STANDARD','automotive_design',1998,#29);
#31=PRODUCT_CONTEXT('3D Mechanical Parts',#29,'mechanical');
#32=PRODUCT('Product','Product','',(#31));
#33=PRODUCT_RELATED_PRODUCT_CATEGORY('part',$,(#32));
#34=PRODUCT_CATEGORY('part',$);
#35=PERSON('1','Design','Joe',$,$,$);
#36=ORGANIZATION($,'None','None');
#37=PERSON_AND_ORGANIZATION(#35,#36);
#38=PERSON_AND_ORGANIZATION_ROLE('design_owner');
#39=APPLIED_PERSON_AND_ORGANIZATION_ASSIGNMENT(#37,#38,(#32));
#40=PRODUCT_DEFINITION_FORMATION_WITH_SPECIFIED_SOURCE('None','',#32,.BOUGHT.);
#41=PERSON('2','Creator','Joe',$,$,$);
#42=ORGANIZATION($,'None','None');
#43=PERSON_AND_ORGANIZATION(#41,#42);
#44=PERSON_AND_ORGANIZATION_ROLE('creator');
#45=APPLIED_PERSON_AND_ORGANIZATION_ASSIGNMENT(#43,#44,(#40));
#46=PERSON('3','Supplier','Joe',$,$,$);
#47=ORGANIZATION($,'None','None');
#48=PERSON_AND_ORGANIZATION(#46,#47);
#49=PERSON_AND_ORGANIZATION_ROLE('design_supplier');
#50=APPLIED_PERSON_AND_ORGANIZATION_ASSIGNMENT(#48,#49,(#40));
#51=PRODUCT_DEFINITION_CONTEXT('part definition',#29,'design');
#52=PRODUCT_DEFINITION('None','',#40,#51);
#53=PERSON('4','Creator','Joe',$,$,$);
#54=ORGANIZATION($,'None','None');
#55=PERSON_AND_ORGANIZATION(#53,#54);
#56=PERSON_AND_ORGANIZATION_ROLE('creator');
#57=APPLIED_PERSON_AND_ORGANIZATION_ASSIGNMENT(#55,#56,(#52));
#58=CARTESIAN_POINT('NONE',(0.0,0.0,0.0));
#59=DIRECTION('NONE',(0.0,0.0,1.0));
#60=DIRECTION('NONE',(1.0,0.0,0.0));
#61=AXIS2_PLACEMENT_3D('NONE',#58,#59,#60);
#62=SHAPE_REPRESENTATION('SR1',(#61),#28);
#63=PRODUCT_DEFINITION_SHAPE('PDS1','Test Part',#52);
#64=SHAPE_DEFINITION_REPRESENTATION(#63,#62);
#65=CARTESIAN_POINT('',(-11.43,7.620000000000001,0.0));
#66=DIRECTION('',(0.0,0.0,-1.0));
#67=DIRECTION('',(1.0,0.0,0.0));
#68=AXIS2_PLACEMENT_3D('',#65,#66,#67);
#69=CYLINDRICAL_SURFACE('',#68,0.25);
#70=CARTESIAN_POINT('',(-11.18,7.620000000000001,-3.8));
#71=VERTEX_POINT('',#70);
#72=CARTESIAN_POINT('',(-11.18,7.620000000000001,0.0));
#73=VERTEX_POINT('',#72);
#74=CARTESIAN_POINT('',(-11.18,7.620000000000001,-3.8));
#75=DIRECTION('',(0.0,0.0,1.0));
#76=VECTOR('',#75,3.8);
#77=LINE('',#74,#76);
#78=EDGE_CURVE('',#71,#73,#77,.T.);
#79=ORIENTED_EDGE('',*,*,#78,.F.);
#80=CARTESIAN_POINT('',(-11.68,7.620000000000001,-3.8));
#81=VERTEX_POINT('',#80);
#82=CARTESIAN_POINT('',(-11.43,7.620000000000001,-3.8));
#83=DIRECTION('',(0.0,0.0,1.0));
#84=DIRECTION('',(1.0,0.0,0.0));
#85=AXIS2_PLACEMENT_3D('',#82,#83,#84);
#86=CIRCLE('',#85,0.25);
#87=EDGE_CURVE('',#71,#81,#86,.T.);
#88=ORIENTED_EDGE('',*,*,#87,.T.);
#89=CARTESIAN_POINT('',(-11.68,7.620000000000001,0.0));
#90=VERTEX_POINT('',#89);
#91=CARTESIAN_POINT('',(-11.68,7.620000000000001,-3.8));
#92=DIRECTION('',(0.0,0.0,1.0));
#93=VECTOR('',#92,3.8);
#94=LINE('',#91,#93);
#95=EDGE_CURVE('',#81,#90,#94,.T.);
#96=ORIENTED_EDGE('',*,*,#95,.T.);
#97=CARTESIAN_POINT('',(-11.43,7.620000000000001,0.0));
#98=DIRECTION('',(0.0,0.0,1.0));
#99=DIRECTION('',(1.0,0.0,0.0));
#100=AXIS2_PLACEMENT_3D('',#97,#98,#99);
#101=CIRCLE('',#100,0.25);
#102=EDGE_CURVE('',#73,#90,#101,.T.);
#103=ORIENTED_EDGE('',*,*,#102,.F.);
#104=EDGE_LOOP('',(#79,#88,#96,#103));
#105=FACE_OUTER_BOUND('',#104,.T.);
#106=ADVANCED_FACE('',(#105),#69,.T.);
#107=CARTESIAN_POINT('',(-11.43,7.620000000000001,0.0));
#108=DIRECTION('',(0.0,0.0,-1.0));
#109=DIRECTION('',(1.0,0.0,0.0));
#110=AXIS2_PLACEMENT_3D('',#107,#108,#109);
#111=CYLINDRICAL_SURFACE('',#110,0.25);
#112=ORIENTED_EDGE('',*,*,#78,.T.);
#113=CARTESIAN_POINT('',(-11.43,7.620000000000001,0.0));
#114=DIRECTION('',(0.0,0.0,1.0));
#115=DIRECTION('',(1.0,0.0,0.0));
#116=AXIS2_PLACEMENT_3D('',#113,#114,#115);
#117=CIRCLE('',#116,0.25);
#118=EDGE_CURVE('',#90,#73,#117,.T.);
#119=ORIENTED_EDGE('',*,*,#118,.F.);
#120=ORIENTED_EDGE('',*,*,#95,.F.);
#121=CARTESIAN_POINT('',(-11.43,7.620000000000001,-3.8));
#122=DIRECTION('',(0.0,0.0,1.0));
#123=DIRECTION('',(1.0,0.0,0.0));
#124=AXIS2_PLACEMENT_3D('',#121,#122,#123);
#125=CIRCLE('',#124,0.25);
#126=EDGE_CURVE('',#81,#71,#125,.T.);
#127=ORIENTED_EDGE('',*,*,#126,.T.);
#128=EDGE_LOOP('',(#112,#119,#120,#127));
#129=FACE_OUTER_BOUND('',#128,.T.);
#130=ADVANCED_FACE('',(#129),#111,.T.);
#131=CARTESIAN_POINT('',(-11.43,7.620000000000001,-3.8));
#132=DIRECTION('',(0.0,0.0,1.0));
#133=DIRECTION('',(1.0,0.0,0.0));
#134=AXIS2_PLACEMENT_3D('',#131,#132,#133);
#135=PLANE('',#134);
#136=ORIENTED_EDGE('',*,*,#87,.F.);
#137=ORIENTED_EDGE('',*,*,#126,.F.);
#138=EDGE_LOOP('',(#136,#137));
#139=FACE_OUTER_BOUND('',#138,.T.);
#140=ADVANCED_FACE('',(#139),#135,.F.);
#141=CARTESIAN_POINT('',(-11.43,7.620000000000001,0.0));
#142=DIRECTION('',(0.0,0.0,1.0));
#143=DIRECTION('',(1.0,0.0,0.0));
#144=AXIS2_PLACEMENT_3D('',#141,#142,#143);
#145=PLANE('',#144);
#146=ORIENTED_EDGE('',*,*,#102,.T.);
#147=ORIENTED_EDGE('',*,*,#118,.T.);
#148=EDGE_LOOP('',(#146,#147));
#149=FACE_OUTER_BOUND('',#148,.T.);
#150=ADVANCED_FACE('',(#149),#145,.T.);
#151=CLOSED_SHELL('',(#106,#130,#140,#150));
#152=MANIFOLD_SOLID_BREP('4E10',#151);
#153=COLOUR_RGB('254',0.866,0.866,0.866);
#154=SURFACE_STYLE_USAGE(.BOTH.,#155);
#155=SURFACE_SIDE_STYLE('NONE',(#156));
#156=SURFACE_STYLE_FILL_AREA(#157);
#157=FILL_AREA_STYLE('NONE',(#158));
#158=FILL_AREA_STYLE_COLOUR('NONE',#153);
#159=PRESENTATION_STYLE_ASSIGNMENT((#154));
#160=STYLED_ITEM('NONE',(#159),#152);
#161=MECHANICAL_DESIGN_GEOMETRIC_PRESENTATION_REPRESENTATION('NONE',(#160,#251,#340,#429,#518,#607,#696,#785,#1247,#1545),#28);
#162=PRESENTATION_LAYER_ASSIGNMENT('3D','None',(#152,#250,#339,#428,#517,#606,#695,#784,#1239,#1537));
#163=CARTESIAN_POINT('',(-8.890000000000001,7.620000000000001,0.0));
#164=DIRECTION('',(0.0,0.0,-1.0));
#165=DIRECTION('',(1.0,0.0,0.0));
#166=AXIS2_PLACEMENT_3D('',#163,#164,#165);
#167=CYLINDRICAL_SURFACE('',#166,0.25);
#168=CARTESIAN_POINT('',(-8.640000000000001,7.620000000000001,-3.8));
#169=VERTEX_POINT('',#168);
#170=CARTESIAN_POINT('',(-8.640000000000001,7.620000000000001,0.0));
#171=VERTEX_POINT('',#170);
#172=CARTESIAN_POINT('',(-8.640000000000001,7.620000000000001,-3.8));
#173=DIRECTION('',(0.0,0.0,1.0));
#174=VECTOR('',#173,3.8);
#175=LINE('',#172,#174);
#176=EDGE_CURVE('',#169,#171,#175,.T.);
#177=ORIENTED_EDGE('',*,*,#176,.F.);
#178=CARTESIAN_POINT('',(-9.140000000000001,7.620000000000001,-3.8));
#179=VERTEX_POINT('',#178);
#180=CARTESIAN_POINT('',(-8.890000000000001,7.620000000000001,-3.8));
#181=DIRECTION('',(0.0,0.0,1.0));
#182=DIRECTION('',(1.0,0.0,0.0));
#183=AXIS2_PLACEMENT_3D('',#180,#181,#182);
#184=CIRCLE('',#183,0.25);
#185=EDGE_CURVE('',#169,#179,#184,.T.);
#186=ORIENTED_EDGE('',*,*,#185,.T.);
#187=CARTESIAN_POINT('',(-9.140000000000001,7.620000000000001,0.0));
#188=VERTEX_POINT('',#187);
#189=CARTESIAN_POINT('',(-9.140000000000001,7.620000000000001,-3.8));
#190=DIRECTION('',(0.0,0.0,1.0));
#191=VECTOR('',#190,3.8);
#192=LINE('',#189,#191);
#193=EDGE_CURVE('',#179,#188,#192,.T.);
#194=ORIENTED_EDGE('',*,*,#193,.T.);
#195=CARTESIAN_POINT('',(-8.890000000000001,7.620000000000001,0.0));
#196=DIRECTION('',(0.0,0.0,1.0));
#197=DIRECTION('',(1.0,0.0,0.0));
#198=AXIS2_PLACEMENT_3D('',#195,#196,#197);
#199=CIRCLE('',#198,0.25);
#200=EDGE_CURVE('',#171,#188,#199,.T.);
#201=ORIENTED_EDGE('',*,*,#200,.F.);
#202=EDGE_LOOP('',(#177,#186,#194,#201));
#203=FACE_OUTER_BOUND('',#202,.T.);
#204=ADVANCED_FACE('',(#203),#167,.T.);
#205=CARTESIAN_POINT('',(-8.890000000000001,7.620000000000001,0.0));
#206=DIRECTION('',(0.0,0.0,-1.0));
#207=DIRECTION('',(1.0,0.0,0.0));
#208=AXIS2_PLACEMENT_3D('',#205,#206,#207);
#209=CYLINDRICAL_SURFACE('',#208,0.25);
#210=ORIENTED_EDGE('',*,*,#176,.T.);
#211=CARTESIAN_POINT('',(-8.890000000000001,7.620000000000001,0.0));
#212=DIRECTION('',(0.0,0.0,1.0));
#213=DIRECTION('',(1.0,0.0,0.0));
#214=AXIS2_PLACEMENT_3D('',#211,#212,#213);
#215=CIRCLE('',#214,0.25);
#216=EDGE_CURVE('',#188,#171,#215,.T.);
#217=ORIENTED_EDGE('',*,*,#216,.F.);
#218=ORIENTED_EDGE('',*,*,#193,.F.);
#219=CARTESIAN_POINT('',(-8.890000000000001,7.620000000000001,-3.8));
#220=DIRECTION('',(0.0,0.0,1.0));
#221=DIRECTION('',(1.0,0.0,0.0));
#222=AXIS2_PLACEMENT_3D('',#219,#220,#221);
#223=CIRCLE('',#222,0.25);
#224=EDGE_CURVE('',#179,#169,#223,.T.);
#225=ORIENTED_EDGE('',*,*,#224,.T.);
#226=EDGE_LOOP('',(#210,#217,#218,#225));
#227=FACE_OUTER_BOUND('',#226,.T.);
#228=ADVANCED_FACE('',(#227),#209,.T.);
#229=CARTESIAN_POINT('',(-8.890000000000001,7.620000000000001,-3.8));
#230=DIRECTION('',(0.0,0.0,1.0));
#231=DIRECTION('',(1.0,0.0,0.0));
#232=AXIS2_PLACEMENT_3D('',#229,#230,#231);
#233=PLANE('',#232);
#234=ORIENTED_EDGE('',*,*,#185,.F.);
#235=ORIENTED_EDGE('',*,*,#224,.F.);
#236=EDGE_LOOP('',(#234,#235));
#237=FACE_OUTER_BOUND('',#236,.T.);
#238=ADVANCED_FACE('',(#237),#233,.F.);
#239=CARTESIAN_POINT('',(-8.890000000000001,7.620000000000001,0.0));
#240=DIRECTION('',(0.0,0.0,1.0));
#241=DIRECTION('',(1.0,0.0,0.0));
#242=AXIS2_PLACEMENT_3D('',#239,#240,#241);
#243=PLANE('',#242);
#244=ORIENTED_EDGE('',*,*,#200,.T.);
#245=ORIENTED_EDGE('',*,*,#216,.T.);
#246=EDGE_LOOP('',(#244,#245));
#247=FACE_OUTER_BOUND('',#246,.T.);
#248=ADVANCED_FACE('',(#247),#243,.T.);
#249=CLOSED_SHELL('',(#204,#228,#238,#248));
#250=MANIFOLD_SOLID_BREP('4E0C',#249);
#251=STYLED_ITEM('NONE',(#159),#250);
#252=CARTESIAN_POINT('',(6.349999999999998,7.620000000000001,0.0));
#253=DIRECTION('',(0.0,0.0,-1.0));
#254=DIRECTION('',(1.0,0.0,0.0));
#255=AXIS2_PLACEMENT_3D('',#252,#253,#254);
#256=CYLINDRICAL_SURFACE('',#255,0.25);
#257=CARTESIAN_POINT('',(6.599999999999998,7.620000000000001,-3.8));
#258=VERTEX_POINT('',#257);
#259=CARTESIAN_POINT('',(6.599999999999998,7.620000000000001,0.0));
#260=VERTEX_POINT('',#259);
#261=CARTESIAN_POINT('',(6.599999999999998,7.620000000000001,-3.8));
#262=DIRECTION('',(0.0,0.0,1.0));
#263=VECTOR('',#262,3.8);
#264=LINE('',#261,#263);
#265=EDGE_CURVE('',#258,#260,#264,.T.);
#266=ORIENTED_EDGE('',*,*,#265,.F.);
#267=CARTESIAN_POINT('',(6.099999999999998,7.620000000000001,-3.8));
#268=VERTEX_POINT('',#267);
#269=CARTESIAN_POINT('',(6.349999999999998,7.620000000000001,-3.8));
#270=DIRECTION('',(0.0,0.0,1.0));
#271=DIRECTION('',(1.0,0.0,0.0));
#272=AXIS2_PLACEMENT_3D('',#269,#270,#271);
#273=CIRCLE('',#272,0.25);
#274=EDGE_CURVE('',#258,#268,#273,.T.);
#275=ORIENTED_EDGE('',*,*,#274,.T.);
#276=CARTESIAN_POINT('',(6.099999999999998,7.620000000000001,0.0));
#277=VERTEX_POINT('',#276);
#278=CARTESIAN_POINT('',(6.099999999999998,7.620000000000001,-3.8));
#279=DIRECTION('',(0.0,0.0,1.0));
#280=VECTOR('',#279,3.8);
#281=LINE('',#278,#280);
#282=EDGE_CURVE('',#268,#277,#281,.T.);
#283=ORIENTED_EDGE('',*,*,#282,.T.);
#284=CARTESIAN_POINT('',(6.349999999999998,7.620000000000001,0.0));
#285=DIRECTION('',(0.0,0.0,1.0));
#286=DIRECTION('',(1.0,0.0,0.0));
#287=AXIS2_PLACEMENT_3D('',#284,#285,#286);
#288=CIRCLE('',#287,0.25);
#289=EDGE_CURVE('',#260,#277,#288,.T.);
#290=ORIENTED_EDGE('',*,*,#289,.F.);
#291=EDGE_LOOP('',(#266,#275,#283,#290));
#292=FACE_OUTER_BOUND('',#291,.T.);
#293=ADVANCED_FACE('',(#292),#256,.T.);
#294=CARTESIAN_POINT('',(6.349999999999998,7.620000000000001,0.0));
#295=DIRECTION('',(0.0,0.0,-1.0));
#296=DIRECTION('',(1.0,0.0,0.0));
#297=AXIS2_PLACEMENT_3D('',#294,#295,#296);
#298=CYLINDRICAL_SURFACE('',#297,0.25);
#299=ORIENTED_EDGE('',*,*,#265,.T.);
#300=CARTESIAN_POINT('',(6.349999999999998,7.620000000000001,0.0));
#301=DIRECTION('',(0.0,0.0,1.0));
#302=DIRECTION('',(1.0,0.0,0.0));
#303=AXIS2_PLACEMENT_3D('',#300,#301,#302);
#304=CIRCLE('',#303,0.25);
#305=EDGE_CURVE('',#277,#260,#304,.T.);
#306=ORIENTED_EDGE('',*,*,#305,.F.);
#307=ORIENTED_EDGE('',*,*,#282,.F.);
#308=CARTESIAN_POINT('',(6.349999999999998,7.620000000000001,-3.8));
#309=DIRECTION('',(0.0,0.0,1.0));
#310=DIRECTION('',(1.0,0.0,0.0));
#311=AXIS2_PLACEMENT_3D('',#308,#309,#310);
#312=CIRCLE('',#311,0.25);
#313=EDGE_CURVE('',#268,#258,#312,.T.);
#314=ORIENTED_EDGE('',*,*,#313,.T.);
#315=EDGE_LOOP('',(#299,#306,#307,#314));
#316=FACE_OUTER_BOUND('',#315,.T.);
#317=ADVANCED_FACE('',(#316),#298,.T.);
#318=CARTESIAN_POINT('',(6.349999999999998,7.620000000000001,-3.8));
#319=DIRECTION('',(0.0,0.0,1.0));
#320=DIRECTION('',(1.0,0.0,0.0));
#321=AXIS2_PLACEMENT_3D('',#318,#319,#320);
#322=PLANE('',#321);
#323=ORIENTED_EDGE('',*,*,#274,.F.);
#324=ORIENTED_EDGE('',*,*,#313,.F.);
#325=EDGE_LOOP('',(#323,#324));
#326=FACE_OUTER_BOUND('',#325,.T.);
#327=ADVANCED_FACE('',(#326),#322,.F.);
#328=CARTESIAN_POINT('',(6.349999999999998,7.620000000000001,0.0));
#329=DIRECTION('',(0.0,0.0,1.0));
#330=DIRECTION('',(1.0,0.0,0.0));
#331=AXIS2_PLACEMENT_3D('',#328,#329,#330);
#332=PLANE('',#331);
#333=ORIENTED_EDGE('',*,*,#289,.T.);
#334=ORIENTED_EDGE('',*,*,#305,.T.);
#335=EDGE_LOOP('',(#333,#334));
#336=FACE_OUTER_BOUND('',#335,.T.);
#337=ADVANCED_FACE('',(#336),#332,.T.);
#338=CLOSED_SHELL('',(#293,#317,#327,#337));
#339=MANIFOLD_SOLID_BREP('4E08',#338);
#340=STYLED_ITEM('NONE',(#159),#339);
#341=CARTESIAN_POINT('',(11.43,7.620000000000001,0.0));
#342=DIRECTION('',(0.0,0.0,-1.0));
#343=DIRECTION('',(1.0,0.0,0.0));
#344=AXIS2_PLACEMENT_3D('',#341,#342,#343);
#345=CYLINDRICAL_SURFACE('',#344,0.25);
#346=CARTESIAN_POINT('',(11.68,7.620000000000001,-3.8));
#347=VERTEX_POINT('',#346);
#348=CARTESIAN_POINT('',(11.68,7.620000000000001,0.0));
#349=VERTEX_POINT('',#348);
#350=CARTESIAN_POINT('',(11.68,7.620000000000001,-3.8));
#351=DIRECTION('',(0.0,0.0,1.0));
#352=VECTOR('',#351,3.8);
#353=LINE('',#350,#352);
#354=EDGE_CURVE('',#347,#349,#353,.T.);
#355=ORIENTED_EDGE('',*,*,#354,.F.);
#356=CARTESIAN_POINT('',(11.18,7.620000000000001,-3.8));
#357=VERTEX_POINT('',#356);
#358=CARTESIAN_POINT('',(11.43,7.620000000000001,-3.8));
#359=DIRECTION('',(0.0,0.0,1.0));
#360=DIRECTION('',(1.0,0.0,0.0));
#361=AXIS2_PLACEMENT_3D('',#358,#359,#360);
#362=CIRCLE('',#361,0.25);
#363=EDGE_CURVE('',#347,#357,#362,.T.);
#364=ORIENTED_EDGE('',*,*,#363,.T.);
#365=CARTESIAN_POINT('',(11.18,7.620000000000001,0.0));
#366=VERTEX_POINT('',#365);
#367=CARTESIAN_POINT('',(11.18,7.620000000000001,-3.8));
#368=DIRECTION('',(0.0,0.0,1.0));
#369=VECTOR('',#368,3.8);
#370=LINE('',#367,#369);
#371=EDGE_CURVE('',#357,#366,#370,.T.);
#372=ORIENTED_EDGE('',*,*,#371,.T.);
#373=CARTESIAN_POINT('',(11.43,7.620000000000001,0.0));
#374=DIRECTION('',(0.0,0.0,1.0));
#375=DIRECTION('',(1.0,0.0,0.0));
#376=AXIS2_PLACEMENT_3D('',#373,#374,#375);
#377=CIRCLE('',#376,0.25);
#378=EDGE_CURVE('',#349,#366,#377,.T.);
#379=ORIENTED_EDGE('',*,*,#378,.F.);
#380=EDGE_LOOP('',(#355,#364,#372,#379));
#381=FACE_OUTER_BOUND('',#380,.T.);
#382=ADVANCED_FACE('',(#381),#345,.T.);
#383=CARTESIAN_POINT('',(11.43,7.620000000000001,0.0));
#384=DIRECTION('',(0.0,0.0,-1.0));
#385=DIRECTION('',(1.0,0.0,0.0));
#386=AXIS2_PLACEMENT_3D('',#383,#384,#385);
#387=CYLINDRICAL_SURFACE('',#386,0.25);
#388=ORIENTED_EDGE('',*,*,#354,.T.);
#389=CARTESIAN_POINT('',(11.43,7.620000000000001,0.0));
#390=DIRECTION('',(0.0,0.0,1.0));
#391=DIRECTION('',(1.0,0.0,0.0));
#392=AXIS2_PLACEMENT_3D('',#389,#390,#391);
#393=CIRCLE('',#392,0.25);
#394=EDGE_CURVE('',#366,#349,#393,.T.);
#395=ORIENTED_EDGE('',*,*,#394,.F.);
#396=ORIENTED_EDGE('',*,*,#371,.F.);
#397=CARTESIAN_POINT('',(11.43,7.620000000000001,-3.8));
#398=DIRECTION('',(0.0,0.0,1.0));
#399=DIRECTION('',(1.0,0.0,0.0));
#400=AXIS2_PLACEMENT_3D('',#397,#398,#399);
#401=CIRCLE('',#400,0.25);
#402=EDGE_CURVE('',#357,#347,#401,.T.);
#403=ORIENTED_EDGE('',*,*,#402,.T.);
#404=EDGE_LOOP('',(#388,#395,#396,#403));
#405=FACE_OUTER_BOUND('',#404,.T.);
#406=ADVANCED_FACE('',(#405),#387,.T.);
#407=CARTESIAN_POINT('',(11.43,7.620000000000001,-3.8));
#408=DIRECTION('',(0.0,0.0,1.0));
#409=DIRECTION('',(1.0,0.0,0.0));
#410=AXIS2_PLACEMENT_3D('',#407,#408,#409);
#411=PLANE('',#410);
#412=ORIENTED_EDGE('',*,*,#363,.F.);
#413=ORIENTED_EDGE('',*,*,#402,.F.);
#414=EDGE_LOOP('',(#412,#413));
#415=FACE_OUTER_BOUND('',#414,.T.);
#416=ADVANCED_FACE('',(#415),#411,.F.);
#417=CARTESIAN_POINT('',(11.43,7.620000000000001,0.0));
#418=DIRECTION('',(0.0,0.0,1.0));
#419=DIRECTION('',(1.0,0.0,0.0));
#420=AXIS2_PLACEMENT_3D('',#417,#418,#419);
#421=PLANE('',#420);
#422=ORIENTED_EDGE('',*,*,#378,.T.);
#423=ORIENTED_EDGE('',*,*,#394,.T.);
#424=EDGE_LOOP('',(#422,#423));
#425=FACE_OUTER_BOUND('',#424,.T.);
#426=ADVANCED_FACE('',(#425),#421,.T.);
#427=CLOSED_SHELL('',(#382,#406,#416,#426));
#428=MANIFOLD_SOLID_BREP('4E04',#427);
#429=STYLED_ITEM('NONE',(#159),#428);
#430=CARTESIAN_POINT('',(11.43,-7.620000000000001,0.0));
#431=DIRECTION('',(0.0,0.0,-1.0));
#432=DIRECTION('',(1.0,0.0,0.0));
#433=AXIS2_PLACEMENT_3D('',#430,#431,#432);
#434=CYLINDRICAL_SURFACE('',#433,0.25);
#435=CARTESIAN_POINT('',(11.68,-7.620000000000001,-3.8));
#436=VERTEX_POINT('',#435);
#437=CARTESIAN_POINT('',(11.68,-7.620000000000001,0.0));
#438=VERTEX_POINT('',#437);
#439=CARTESIAN_POINT('',(11.68,-7.620000000000001,-3.8));
#440=DIRECTION('',(0.0,0.0,1.0));
#441=VECTOR('',#440,3.8);
#442=LINE('',#439,#441);
#443=EDGE_CURVE('',#436,#438,#442,.T.);
#444=ORIENTED_EDGE('',*,*,#443,.F.);
#445=CARTESIAN_POINT('',(11.18,-7.620000000000001,-3.8));
#446=VERTEX_POINT('',#445);
#447=CARTESIAN_POINT('',(11.43,-7.620000000000001,-3.8));
#448=DIRECTION('',(0.0,0.0,1.0));
#449=DIRECTION('',(1.0,0.0,0.0));
#450=AXIS2_PLACEMENT_3D('',#447,#448,#449);
#451=CIRCLE('',#450,0.25);
#452=EDGE_CURVE('',#436,#446,#451,.T.);
#453=ORIENTED_EDGE('',*,*,#452,.T.);
#454=CARTESIAN_POINT('',(11.18,-7.620000000000001,0.0));
#455=VERTEX_POINT('',#454);
#456=CARTESIAN_POINT('',(11.18,-7.620000000000001,-3.8));
#457=DIRECTION('',(0.0,0.0,1.0));
#458=VECTOR('',#457,3.8);
#459=LINE('',#456,#458);
#460=EDGE_CURVE('',#446,#455,#459,.T.);
#461=ORIENTED_EDGE('',*,*,#460,.T.);
#462=CARTESIAN_POINT('',(11.43,-7.620000000000001,0.0));
#463=DIRECTION('',(0.0,0.0,1.0));
#464=DIRECTION('',(1.0,0.0,0.0));
#465=AXIS2_PLACEMENT_3D('',#462,#463,#464);
#466=CIRCLE('',#465,0.25);
#467=EDGE_CURVE('',#438,#455,#466,.T.);
#468=ORIENTED_EDGE('',*,*,#467,.F.);
#469=EDGE_LOOP('',(#444,#453,#461,#468));
#470=FACE_OUTER_BOUND('',#469,.T.);
#471=ADVANCED_FACE('',(#470),#434,.T.);
#472=CARTESIAN_POINT('',(11.43,-7.620000000000001,0.0));
#473=DIRECTION('',(0.0,0.0,-1.0));
#474=DIRECTION('',(1.0,0.0,0.0));
#475=AXIS2_PLACEMENT_3D('',#472,#473,#474);
#476=CYLINDRICAL_SURFACE('',#475,0.25);
#477=ORIENTED_EDGE('',*,*,#443,.T.);
#478=CARTESIAN_POINT('',(11.43,-7.620000000000001,0.0));
#479=DIRECTION('',(0.0,0.0,1.0));
#480=DIRECTION('',(1.0,0.0,0.0));
#481=AXIS2_PLACEMENT_3D('',#478,#479,#480);
#482=CIRCLE('',#481,0.25);
#483=EDGE_CURVE('',#455,#438,#482,.T.);
#484=ORIENTED_EDGE('',*,*,#483,.F.);
#485=ORIENTED_EDGE('',*,*,#460,.F.);
#486=CARTESIAN_POINT('',(11.43,-7.620000000000001,-3.8));
#487=DIRECTION('',(0.0,0.0,1.0));
#488=DIRECTION('',(1.0,0.0,0.0));
#489=AXIS2_PLACEMENT_3D('',#486,#487,#488);
#490=CIRCLE('',#489,0.25);
#491=EDGE_CURVE('',#446,#436,#490,.T.);
#492=ORIENTED_EDGE('',*,*,#491,.T.);
#493=EDGE_LOOP('',(#477,#484,#485,#492));
#494=FACE_OUTER_BOUND('',#493,.T.);
#495=ADVANCED_FACE('',(#494),#476,.T.);
#496=CARTESIAN_POINT('',(11.43,-7.620000000000001,-3.8));
#497=DIRECTION('',(0.0,0.0,1.0));
#498=DIRECTION('',(1.0,0.0,0.0));
#499=AXIS2_PLACEMENT_3D('',#496,#497,#498);
#500=PLANE('',#499);
#501=ORIENTED_EDGE('',*,*,#452,.F.);
#502=ORIENTED_EDGE('',*,*,#491,.F.);
#503=EDGE_LOOP('',(#501,#502));
#504=FACE_OUTER_BOUND('',#503,.T.);
#505=ADVANCED_FACE('',(#504),#500,.F.);
#506=CARTESIAN_POINT('',(11.43,-7.620000000000001,0.0));
#507=DIRECTION('',(0.0,0.0,1.0));
#508=DIRECTION('',(1.0,0.0,0.0));
#509=AXIS2_PLACEMENT_3D('',#506,#507,#508);
#510=PLANE('',#509);
#511=ORIENTED_EDGE('',*,*,#467,.T.);
#512=ORIENTED_EDGE('',*,*,#483,.T.);
#513=EDGE_LOOP('',(#511,#512));
#514=FACE_OUTER_BOUND('',#513,.T.);
#515=ADVANCED_FACE('',(#514),#510,.T.);
#516=CLOSED_SHELL('',(#471,#495,#505,#515));
#517=MANIFOLD_SOLID_BREP('4E00',#516);
#518=STYLED_ITEM('NONE',(#159),#517);
#519=CARTESIAN_POINT('',(6.349999999999998,-7.620000000000001,0.0));
#520=DIRECTION('',(0.0,0.0,-1.0));
#521=DIRECTION('',(1.0,0.0,0.0));
#522=AXIS2_PLACEMENT_3D('',#519,#520,#521);
#523=CYLINDRICAL_SURFACE('',#522,0.25);
#524=CARTESIAN_POINT('',(6.599999999999998,-7.620000000000001,-3.8));
#525=VERTEX_POINT('',#524);
#526=CARTESIAN_POINT('',(6.599999999999998,-7.620000000000001,0.0));
#527=VERTEX_POINT('',#526);
#528=CARTESIAN_POINT('',(6.599999999999998,-7.620000000000001,-3.8));
#529=DIRECTION('',(0.0,0.0,1.0));
#530=VECTOR('',#529,3.8);
#531=LINE('',#528,#530);
#532=EDGE_CURVE('',#525,#527,#531,.T.);
#533=ORIENTED_EDGE('',*,*,#532,.F.);
#534=CARTESIAN_POINT('',(6.099999999999998,-7.620000000000001,-3.8));
#535=VERTEX_POINT('',#534);
#536=CARTESIAN_POINT('',(6.349999999999998,-7.620000000000001,-3.8));
#537=DIRECTION('',(0.0,0.0,1.0));
#538=DIRECTION('',(1.0,0.0,0.0));
#539=AXIS2_PLACEMENT_3D('',#536,#537,#538);
#540=CIRCLE('',#539,0.25);
#541=EDGE_CURVE('',#525,#535,#540,.T.);
#542=ORIENTED_EDGE('',*,*,#541,.T.);
#543=CARTESIAN_POINT('',(6.099999999999998,-7.620000000000001,0.0));
#544=VERTEX_POINT('',#543);
#545=CARTESIAN_POINT('',(6.099999999999998,-7.620000000000001,-3.8));
#546=DIRECTION('',(0.0,0.0,1.0));
#547=VECTOR('',#546,3.8);
#548=LINE('',#545,#547);
#549=EDGE_CURVE('',#535,#544,#548,.T.);
#550=ORIENTED_EDGE('',*,*,#549,.T.);
#551=CARTESIAN_POINT('',(6.349999999999998,-7.620000000000001,0.0));
#552=DIRECTION('',(0.0,0.0,1.0));
#553=DIRECTION('',(1.0,0.0,0.0));
#554=AXIS2_PLACEMENT_3D('',#551,#552,#553);
#555=CIRCLE('',#554,0.25);
#556=EDGE_CURVE('',#527,#544,#555,.T.);
#557=ORIENTED_EDGE('',*,*,#556,.F.);
#558=EDGE_LOOP('',(#533,#542,#550,#557));
#559=FACE_OUTER_BOUND('',#558,.T.);
#560=ADVANCED_FACE('',(#559),#523,.T.);
#561=CARTESIAN_POINT('',(6.349999999999998,-7.620000000000001,0.0));
#562=DIRECTION('',(0.0,0.0,-1.0));
#563=DIRECTION('',(1.0,0.0,0.0));
#564=AXIS2_PLACEMENT_3D('',#561,#562,#563);
#565=CYLINDRICAL_SURFACE('',#564,0.25);
#566=ORIENTED_EDGE('',*,*,#532,.T.);
#567=CARTESIAN_POINT('',(6.349999999999998,-7.620000000000001,0.0));
#568=DIRECTION('',(0.0,0.0,1.0));
#569=DIRECTION('',(1.0,0.0,0.0));
#570=AXIS2_PLACEMENT_3D('',#567,#568,#569);
#571=CIRCLE('',#570,0.25);
#572=EDGE_CURVE('',#544,#527,#571,.T.);
#573=ORIENTED_EDGE('',*,*,#572,.F.);
#574=ORIENTED_EDGE('',*,*,#549,.F.);
#575=CARTESIAN_POINT('',(6.349999999999998,-7.620000000000001,-3.8));
#576=DIRECTION('',(0.0,0.0,1.0));
#577=DIRECTION('',(1.0,0.0,0.0));
#578=AXIS2_PLACEMENT_3D('',#575,#576,#577);
#579=CIRCLE('',#578,0.25);
#580=EDGE_CURVE('',#535,#525,#579,.T.);
#581=ORIENTED_EDGE('',*,*,#580,.T.);
#582=EDGE_LOOP('',(#566,#573,#574,#581));
#583=FACE_OUTER_BOUND('',#582,.T.);
#584=ADVANCED_FACE('',(#583),#565,.T.);
#585=CARTESIAN_POINT('',(6.349999999999998,-7.620000000000001,-3.8));
#586=DIRECTION('',(0.0,0.0,1.0));
#587=DIRECTION('',(1.0,0.0,0.0));
#588=AXIS2_PLACEMENT_3D('',#585,#586,#587);
#589=PLANE('',#588);
#590=ORIENTED_EDGE('',*,*,#541,.F.);
#591=ORIENTED_EDGE('',*,*,#580,.F.);
#592=EDGE_LOOP('',(#590,#591));
#593=FACE_OUTER_BOUND('',#592,.T.);
#594=ADVANCED_FACE('',(#593),#589,.F.);
#595=CARTESIAN_POINT('',(6.349999999999998,-7.620000000000001,0.0));
#596=DIRECTION('',(0.0,0.0,1.0));
#597=DIRECTION('',(1.0,0.0,0.0));
#598=AXIS2_PLACEMENT_3D('',#595,#596,#597);
#599=PLANE('',#598);
#600=ORIENTED_EDGE('',*,*,#556,.T.);
#601=ORIENTED_EDGE('',*,*,#572,.T.);
#602=EDGE_LOOP('',(#600,#601));
#603=FACE_OUTER_BOUND('',#602,.T.);
#604=ADVANCED_FACE('',(#603),#599,.T.);
#605=CLOSED_SHELL('',(#560,#584,#594,#604));
#606=MANIFOLD_SOLID_BREP('4DFC',#605);
#607=STYLED_ITEM('NONE',(#159),#606);
#608=CARTESIAN_POINT('',(-8.890000000000001,-7.620000000000001,0.0));
#609=DIRECTION('',(0.0,0.0,-1.0));
#610=DIRECTION('',(1.0,0.0,0.0));
#611=AXIS2_PLACEMENT_3D('',#608,#609,#610);
#612=CYLINDRICAL_SURFACE('',#611,0.25);
#613=CARTESIAN_POINT('',(-8.640000000000001,-7.620000000000001,-3.8));
#614=VERTEX_POINT('',#613);
#615=CARTESIAN_POINT('',(-8.640000000000001,-7.620000000000001,0.0));
#616=VERTEX_POINT('',#615);
#617=CARTESIAN_POINT('',(-8.640000000000001,-7.620000000000001,-3.8));
#618=DIRECTION('',(0.0,0.0,1.0));
#619=VECTOR('',#618,3.8);
#620=LINE('',#617,#619);
#621=EDGE_CURVE('',#614,#616,#620,.T.);
#622=ORIENTED_EDGE('',*,*,#621,.F.);
#623=CARTESIAN_POINT('',(-9.140000000000001,-7.620000000000001,-3.8));
#624=VERTEX_POINT('',#623);
#625=CARTESIAN_POINT('',(-8.890000000000001,-7.620000000000001,-3.8));
#626=DIRECTION('',(0.0,0.0,1.0));
#627=DIRECTION('',(1.0,0.0,0.0));
#628=AXIS2_PLACEMENT_3D('',#625,#626,#627);
#629=CIRCLE('',#628,0.25);
#630=EDGE_CURVE('',#614,#624,#629,.T.);
#631=ORIENTED_EDGE('',*,*,#630,.T.);
#632=CARTESIAN_POINT('',(-9.140000000000001,-7.620000000000001,0.0));
#633=VERTEX_POINT('',#632);
#634=CARTESIAN_POINT('',(-9.140000000000001,-7.620000000000001,-3.8));
#635=DIRECTION('',(0.0,0.0,1.0));
#636=VECTOR('',#635,3.8);
#637=LINE('',#634,#636);
#638=EDGE_CURVE('',#624,#633,#637,.T.);
#639=ORIENTED_EDGE('',*,*,#638,.T.);
#640=CARTESIAN_POINT('',(-8.890000000000001,-7.620000000000001,0.0));
#641=DIRECTION('',(0.0,0.0,1.0));
#642=DIRECTION('',(1.0,0.0,0.0));
#643=AXIS2_PLACEMENT_3D('',#640,#641,#642);
#644=CIRCLE('',#643,0.25);
#645=EDGE_CURVE('',#616,#633,#644,.T.);
#646=ORIENTED_EDGE('',*,*,#645,.F.);
#647=EDGE_LOOP('',(#622,#631,#639,#646));
#648=FACE_OUTER_BOUND('',#647,.T.);
#649=ADVANCED_FACE('',(#648),#612,.T.);
#650=CARTESIAN_POINT('',(-8.890000000000001,-7.620000000000001,0.0));
#651=DIRECTION('',(0.0,0.0,-1.0));
#652=DIRECTION('',(1.0,0.0,0.0));
#653=AXIS2_PLACEMENT_3D('',#650,#651,#652);
#654=CYLINDRICAL_SURFACE('',#653,0.25);
#655=ORIENTED_EDGE('',*,*,#621,.T.);
#656=CARTESIAN_POINT('',(-8.890000000000001,-7.620000000000001,0.0));
#657=DIRECTION('',(0.0,0.0,1.0));
#658=DIRECTION('',(1.0,0.0,0.0));
#659=AXIS2_PLACEMENT_3D('',#656,#657,#658);
#660=CIRCLE('',#659,0.25);
#661=EDGE_CURVE('',#633,#616,#660,.T.);
#662=ORIENTED_EDGE('',*,*,#661,.F.);
#663=ORIENTED_EDGE('',*,*,#638,.F.);
#664=CARTESIAN_POINT('',(-8.890000000000001,-7.620000000000001,-3.8));
#665=DIRECTION('',(0.0,0.0,1.0));
#666=DIRECTION('',(1.0,0.0,0.0));
#667=AXIS2_PLACEMENT_3D('',#664,#665,#666);
#668=CIRCLE('',#667,0.25);
#669=EDGE_CURVE('',#624,#614,#668,.T.);
#670=ORIENTED_EDGE('',*,*,#669,.T.);
#671=EDGE_LOOP('',(#655,#662,#663,#670));
#672=FACE_OUTER_BOUND('',#671,.T.);
#673=ADVANCED_FACE('',(#672),#654,.T.);
#674=CARTESIAN_POINT('',(-8.890000000000001,-7.620000000000001,-3.8));
#675=DIRECTION('',(0.0,0.0,1.0));
#676=DIRECTION('',(1.0,0.0,0.0));
#677=AXIS2_PLACEMENT_3D('',#674,#675,#676);
#678=PLANE('',#677);
#679=ORIENTED_EDGE('',*,*,#630,.F.);
#680=ORIENTED_EDGE('',*,*,#669,.F.);
#681=EDGE_LOOP('',(#679,#680));
#682=FACE_OUTER_BOUND('',#681,.T.);
#683=ADVANCED_FACE('',(#682),#678,.F.);
#684=CARTESIAN_POINT('',(-8.890000000000001,-7.620000000000001,0.0));
#685=DIRECTION('',(0.0,0.0,1.0));
#686=DIRECTION('',(1.0,0.0,0.0));
#687=AXIS2_PLACEMENT_3D('',#684,#685,#686);
#688=PLANE('',#687);
#689=ORIENTED_EDGE('',*,*,#645,.T.);
#690=ORIENTED_EDGE('',*,*,#661,.T.);
#691=EDGE_LOOP('',(#689,#690));
#692=FACE_OUTER_BOUND('',#691,.T.);
#693=ADVANCED_FACE('',(#692),#688,.T.);
#694=CLOSED_SHELL('',(#649,#673,#683,#693));
#695=MANIFOLD_SOLID_BREP('4DF8',#694);
#696=STYLED_ITEM('NONE',(#159),#695);
#697=CARTESIAN_POINT('',(-11.43,-7.620000000000001,0.0));
#698=DIRECTION('',(0.0,0.0,-1.0));
#699=DIRECTION('',(1.0,0.0,0.0));
#700=AXIS2_PLACEMENT_3D('',#697,#698,#699);
#701=CYLINDRICAL_SURFACE('',#700,0.25);
#702=CARTESIAN_POINT('',(-11.18,-7.620000000000001,-3.8));
#703=VERTEX_POINT('',#702);
#704=CARTESIAN_POINT('',(-11.18,-7.620000000000001,0.0));
#705=VERTEX_POINT('',#704);
#706=CARTESIAN_POINT('',(-11.18,-7.620000000000001,-3.8));
#707=DIRECTION('',(0.0,0.0,1.0));
#708=VECTOR('',#707,3.8);
#709=LINE('',#706,#708);
#710=EDGE_CURVE('',#703,#705,#709,.T.);
#711=ORIENTED_EDGE('',*,*,#710,.F.);
#712=CARTESIAN_POINT('',(-11.68,-7.620000000000001,-3.8));
#713=VERTEX_POINT('',#712);
#714=CARTESIAN_POINT('',(-11.43,-7.620000000000001,-3.8));
#715=DIRECTION('',(0.0,0.0,1.0));
#716=DIRECTION('',(1.0,0.0,0.0));
#717=AXIS2_PLACEMENT_3D('',#714,#715,#716);
#718=CIRCLE('',#717,0.25);
#719=EDGE_CURVE('',#703,#713,#718,.T.);
#720=ORIENTED_EDGE('',*,*,#719,.T.);
#721=CARTESIAN_POINT('',(-11.68,-7.620000000000001,0.0));
#722=VERTEX_POINT('',#721);
#723=CARTESIAN_POINT('',(-11.68,-7.620000000000001,-3.8));
#724=DIRECTION('',(0.0,0.0,1.0));
#725=VECTOR('',#724,3.8);
#726=LINE('',#723,#725);
#727=EDGE_CURVE('',#713,#722,#726,.T.);
#728=ORIENTED_EDGE('',*,*,#727,.T.);
#729=CARTESIAN_POINT('',(-11.43,-7.620000000000001,0.0));
#730=DIRECTION('',(0.0,0.0,1.0));
#731=DIRECTION('',(1.0,0.0,0.0));
#732=AXIS2_PLACEMENT_3D('',#729,#730,#731);
#733=CIRCLE('',#732,0.25);
#734=EDGE_CURVE('',#705,#722,#733,.T.);
#735=ORIENTED_EDGE('',*,*,#734,.F.);
#736=EDGE_LOOP('',(#711,#720,#728,#735));
#737=FACE_OUTER_BOUND('',#736,.T.);
#738=ADVANCED_FACE('',(#737),#701,.T.);
#739=CARTESIAN_POINT('',(-11.43,-7.620000000000001,0.0));
#740=DIRECTION('',(0.0,0.0,-1.0));
#741=DIRECTION('',(1.0,0.0,0.0));
#742=AXIS2_PLACEMENT_3D('',#739,#740,#741);
#743=CYLINDRICAL_SURFACE('',#742,0.25);
#744=ORIENTED_EDGE('',*,*,#710,.T.);
#745=CARTESIAN_POINT('',(-11.43,-7.620000000000001,0.0));
#746=DIRECTION('',(0.0,0.0,1.0));
#747=DIRECTION('',(1.0,0.0,0.0));
#748=AXIS2_PLACEMENT_3D('',#745,#746,#747);
#749=CIRCLE('',#748,0.25);
#750=EDGE_CURVE('',#722,#705,#749,.T.);
#751=ORIENTED_EDGE('',*,*,#750,.F.);
#752=ORIENTED_EDGE('',*,*,#727,.F.);
#753=CARTESIAN_POINT('',(-11.43,-7.620000000000001,-3.8));
#754=DIRECTION('',(0.0,0.0,1.0));
#755=DIRECTION('',(1.0,0.0,0.0));
#756=AXIS2_PLACEMENT_3D('',#753,#754,#755);
#757=CIRCLE('',#756,0.25);
#758=EDGE_CURVE('',#713,#703,#757,.T.);
#759=ORIENTED_EDGE('',*,*,#758,.T.);
#760=EDGE_LOOP('',(#744,#751,#752,#759));
#761=FACE_OUTER_BOUND('',#760,.T.);
#762=ADVANCED_FACE('',(#761),#743,.T.);
#763=CARTESIAN_POINT('',(-11.43,-7.620000000000001,-3.8));
#764=DIRECTION('',(0.0,0.0,1.0));
#765=DIRECTION('',(1.0,0.0,0.0));
#766=AXIS2_PLACEMENT_3D('',#763,#764,#765);
#767=PLANE('',#766);
#768=ORIENTED_EDGE('',*,*,#719,.F.);
#769=ORIENTED_EDGE('',*,*,#758,.F.);
#770=EDGE_LOOP('',(#768,#769));
#771=FACE_OUTER_BOUND('',#770,.T.);
#772=ADVANCED_FACE('',(#771),#767,.F.);
#773=CARTESIAN_POINT('',(-11.43,-7.620000000000001,0.0));
#774=DIRECTION('',(0.0,0.0,1.0));
#775=DIRECTION('',(1.0,0.0,0.0));
#776=AXIS2_PLACEMENT_3D('',#773,#774,#775);
#777=PLANE('',#776);
#778=ORIENTED_EDGE('',*,*,#734,.T.);
#779=ORIENTED_EDGE('',*,*,#750,.T.);
#780=EDGE_LOOP('',(#778,#779));
#781=FACE_OUTER_BOUND('',#780,.T.);
#782=ADVANCED_FACE('',(#781),#777,.T.);
#783=CLOSED_SHELL('',(#738,#762,#772,#782));
#784=MANIFOLD_SOLID_BREP('4DF4',#783);
#785=STYLED_ITEM('NONE',(#159),#784);
#786=CARTESIAN_POINT('',(15.749999999999996,4.950000000000002,12.15));
#787=DIRECTION('',(1.794300E-016,-1.0,0.0));
#788=DIRECTION('',(0.707106781186548,0.0,0.707106781186548));
#789=AXIS2_PLACEMENT_3D('',#786,#787,#788);
#790=CYLINDRICAL_SURFACE('',#789,0.5);
#791=CARTESIAN_POINT('',(16.249999999999996,9.9,12.15));
#792=VERTEX_POINT('',#791);
#793=CARTESIAN_POINT('',(15.749999999999996,9.9,12.65));
#794=VERTEX_POINT('',#793);
#795=CARTESIAN_POINT('',(15.749999999999996,9.9,12.15));
#796=DIRECTION('',(0.0,-1.0,0.0));
#797=DIRECTION('',(1.0,0.0,0.0));
#798=AXIS2_PLACEMENT_3D('',#795,#796,#797);
#799=CIRCLE('',#798,0.5);
#800=EDGE_CURVE('',#792,#794,#799,.T.);
#801=ORIENTED_EDGE('',*,*,#800,.T.);
#802=CARTESIAN_POINT('',(15.75,-9.899999999999999,12.65));
#803=VERTEX_POINT('',#802);
#804=CARTESIAN_POINT('',(15.749999999999996,9.9,12.65));
#805=DIRECTION('',(0.0,-1.0,0.0));
#806=VECTOR('',#805,19.799999999999997);
#807=LINE('',#804,#806);
#808=EDGE_CURVE('',#794,#803,#807,.T.);
#809=ORIENTED_EDGE('',*,*,#808,.T.);
#810=CARTESIAN_POINT('',(16.25,-9.9,12.15));
#811=VERTEX_POINT('',#810);
#812=CARTESIAN_POINT('',(15.75,-9.899999999999999,12.15));
#813=DIRECTION('',(0.0,1.0,0.0));
#814=DIRECTION('',(0.0,0.0,1.0));
#815=AXIS2_PLACEMENT_3D('',#812,#813,#814);
#816=CIRCLE('',#815,0.5);
#817=EDGE_CURVE('',#803,#811,#816,.T.);
#818=ORIENTED_EDGE('',*,*,#817,.T.);
#819=CARTESIAN_POINT('',(16.25,-9.899999999999999,12.15));
#820=DIRECTION('',(0.0,1.0,0.0));
#821=VECTOR('',#820,19.799999999999997);
#822=LINE('',#819,#821);
#823=EDGE_CURVE('',#811,#792,#822,.T.);
#824=ORIENTED_EDGE('',*,*,#823,.T.);
#825=EDGE_LOOP('',(#801,#809,#818,#824));
#826=FACE_OUTER_BOUND('',#825,.T.);
#827=ADVANCED_FACE('',(#826),#790,.T.);
#828=CARTESIAN_POINT('',(7.874999999999999,-9.9,12.15));
#829=DIRECTION('',(-1.0,0.0,0.0));
#830=DIRECTION('',(0.0,-0.707106781186548,0.707106781186548));
#831=AXIS2_PLACEMENT_3D('',#828,#829,#830);
#832=CYLINDRICAL_SURFACE('',#831,0.5);
#833=CARTESIAN_POINT('',(15.75,-10.4,12.15));
#834=VERTEX_POINT('',#833);
#835=CARTESIAN_POINT('',(15.75,-9.9,12.15));
#836=DIRECTION('',(-1.0,0.0,0.0));
#837=DIRECTION('',(0.0,-1.0,0.0));
#838=AXIS2_PLACEMENT_3D('',#835,#836,#837);
#839=CIRCLE('',#838,0.5);
#840=EDGE_CURVE('',#834,#803,#839,.T.);
#841=ORIENTED_EDGE('',*,*,#840,.T.);
#842=CARTESIAN_POINT('',(-15.75,-9.9,12.65));
#843=VERTEX_POINT('',#842);
#844=CARTESIAN_POINT('',(15.75,-9.9,12.65));
#845=DIRECTION('',(-1.0,0.0,0.0));
#846=VECTOR('',#845,31.5);
#847=LINE('',#844,#846);
#848=EDGE_CURVE('',#803,#843,#847,.T.);
#849=ORIENTED_EDGE('',*,*,#848,.T.);
#850=CARTESIAN_POINT('',(-15.75,-10.4,12.15));
#851=VERTEX_POINT('',#850);
#852=CARTESIAN_POINT('',(-15.75,-9.9,12.15));
#853=DIRECTION('',(1.0,0.0,0.0));
#854=DIRECTION('',(0.0,0.0,1.0));
#855=AXIS2_PLACEMENT_3D('',#852,#853,#854);
#856=CIRCLE('',#855,0.5);
#857=EDGE_CURVE('',#843,#851,#856,.T.);
#858=ORIENTED_EDGE('',*,*,#857,.T.);
#859=CARTESIAN_POINT('',(-15.75,-10.4,12.15));
#860=DIRECTION('',(1.0,0.0,0.0));
#861=VECTOR('',#860,31.5);
#862=LINE('',#859,#861);
#863=EDGE_CURVE('',#851,#834,#862,.T.);
#864=ORIENTED_EDGE('',*,*,#863,.T.);
#865=EDGE_LOOP('',(#841,#849,#858,#864));
#866=FACE_OUTER_BOUND('',#865,.T.);
#867=ADVANCED_FACE('',(#866),#832,.T.);
#868=CARTESIAN_POINT('',(-15.75,-4.950000000000002,12.15));
#869=DIRECTION('',(-1.794300E-016,1.0,0.0));
#870=DIRECTION('',(-0.707106781186548,0.0,0.707106781186548));
#871=AXIS2_PLACEMENT_3D('',#868,#869,#870);
#872=CYLINDRICAL_SURFACE('',#871,0.5);
#873=CARTESIAN_POINT('',(-16.25,-9.9,12.15));
#874=VERTEX_POINT('',#873);
#875=CARTESIAN_POINT('',(-15.75,-9.9,12.15));
#876=DIRECTION('',(0.0,1.0,0.0));
#877=DIRECTION('',(-1.0,0.0,0.0));
#878=AXIS2_PLACEMENT_3D('',#875,#876,#877);
#879=CIRCLE('',#878,0.5);
#880=EDGE_CURVE('',#874,#843,#879,.T.);
#881=ORIENTED_EDGE('',*,*,#880,.T.);
#882=CARTESIAN_POINT('',(-15.750000000000004,9.899999999999999,12.65));
#883=VERTEX_POINT('',#882);
#884=CARTESIAN_POINT('',(-15.75,-9.9,12.65));
#885=DIRECTION('',(0.0,1.0,0.0));
#886=VECTOR('',#885,19.799999999999997);
#887=LINE('',#884,#886);
#888=EDGE_CURVE('',#843,#883,#887,.T.);
#889=ORIENTED_EDGE('',*,*,#888,.T.);
#890=CARTESIAN_POINT('',(-16.250000000000004,9.9,12.15));
#891=VERTEX_POINT('',#890);
#892=CARTESIAN_POINT('',(-15.750000000000004,9.899999999999999,12.15));
#893=DIRECTION('',(0.0,-1.0,0.0));
#894=DIRECTION('',(0.0,0.0,1.0));
#895=AXIS2_PLACEMENT_3D('',#892,#893,#894);
#896=CIRCLE('',#895,0.5);
#897=EDGE_CURVE('',#883,#891,#896,.T.);
#898=ORIENTED_EDGE('',*,*,#897,.T.);
#899=CARTESIAN_POINT('',(-16.250000000000004,9.899999999999999,12.15));
#900=DIRECTION('',(0.0,-1.0,0.0));
#901=VECTOR('',#900,19.799999999999997);
#902=LINE('',#899,#901);
#903=EDGE_CURVE('',#891,#874,#902,.T.);
#904=ORIENTED_EDGE('',*,*,#903,.T.);
#905=EDGE_LOOP('',(#881,#889,#898,#904));
#906=FACE_OUTER_BOUND('',#905,.T.);
#907=ADVANCED_FACE('',(#906),#872,.T.);
#908=CARTESIAN_POINT('',(-15.75,-9.9,12.15));
#909=DIRECTION('',(0.0,0.0,1.0));
#910=DIRECTION('',(1.0,0.0,0.0));
#911=AXIS2_PLACEMENT_3D('',#908,#909,#910);
#912=SPHERICAL_SURFACE('',#911,0.5);
#913=ORIENTED_EDGE('',*,*,#880,.F.);
#914=CARTESIAN_POINT('',(-15.75,-9.9,12.15));
#915=DIRECTION('',(0.0,0.0,1.0));
#916=DIRECTION('',(-0.707106781186548,-0.707106781186548,0.0));
#917=AXIS2_PLACEMENT_3D('',#914,#915,#916);
#918=CIRCLE('',#917,0.499999999999999);
#919=EDGE_CURVE('',#874,#851,#918,.T.);
#920=ORIENTED_EDGE('',*,*,#919,.T.);
#921=ORIENTED_EDGE('',*,*,#857,.F.);
#922=EDGE_LOOP('',(#913,#920,#921));
#923=FACE_OUTER_BOUND('',#922,.T.);
#924=ADVANCED_FACE('',(#923),#912,.T.);
#925=CARTESIAN_POINT('',(-7.875000000000003,9.9,12.15));
#926=DIRECTION('',(1.0,0.0,0.0));
#927=DIRECTION('',(0.0,0.707106781186548,0.707106781186548));
#928=AXIS2_PLACEMENT_3D('',#925,#926,#927);
#929=CYLINDRICAL_SURFACE('',#928,0.5);
#930=CARTESIAN_POINT('',(-15.750000000000004,10.4,12.15));
#931=VERTEX_POINT('',#930);
#932=CARTESIAN_POINT('',(-15.750000000000004,9.9,12.15));
#933=DIRECTION('',(1.0,0.0,0.0));
#934=DIRECTION('',(0.0,1.0,0.0));
#935=AXIS2_PLACEMENT_3D('',#932,#933,#934);
#936=CIRCLE('',#935,0.5);
#937=EDGE_CURVE('',#931,#883,#936,.T.);
#938=ORIENTED_EDGE('',*,*,#937,.T.);
#939=CARTESIAN_POINT('',(-15.750000000000004,9.9,12.65));
#940=DIRECTION('',(1.0,0.0,0.0));
#941=VECTOR('',#940,31.5);
#942=LINE('',#939,#941);
#943=EDGE_CURVE('',#883,#794,#942,.T.);
#944=ORIENTED_EDGE('',*,*,#943,.T.);
#945=CARTESIAN_POINT('',(15.749999999999996,10.4,12.15));
#946=VERTEX_POINT('',#945);
#947=CARTESIAN_POINT('',(15.749999999999996,9.9,12.15));
#948=DIRECTION('',(-1.0,0.0,0.0));
#949=DIRECTION('',(0.0,0.0,1.0));
#950=AXIS2_PLACEMENT_3D('',#947,#948,#949);
#951=CIRCLE('',#950,0.5);
#952=EDGE_CURVE('',#794,#946,#951,.T.);
#953=ORIENTED_EDGE('',*,*,#952,.T.);
#954=CARTESIAN_POINT('',(15.749999999999996,10.4,12.15));
#955=DIRECTION('',(-1.0,0.0,0.0));
#956=VECTOR('',#955,31.5);
#957=LINE('',#954,#956);
#958=EDGE_CURVE('',#946,#931,#957,.T.);
#959=ORIENTED_EDGE('',*,*,#958,.T.);
#960=EDGE_LOOP('',(#938,#944,#953,#959));
#961=FACE_OUTER_BOUND('',#960,.T.);
#962=ADVANCED_FACE('',(#961),#929,.T.);
#963=CARTESIAN_POINT('',(-15.750000000000004,9.9,12.15));
#964=DIRECTION('',(0.0,0.0,1.0));
#965=DIRECTION('',(1.0,0.0,0.0));
#966=AXIS2_PLACEMENT_3D('',#963,#964,#965);
#967=SPHERICAL_SURFACE('',#966,0.5);
#968=ORIENTED_EDGE('',*,*,#937,.F.);
#969=CARTESIAN_POINT('',(-15.750000000000004,9.9,12.15));
#970=DIRECTION('',(0.0,0.0,1.0));
#971=DIRECTION('',(-0.707106781186548,0.707106781186548,0.0));
#972=AXIS2_PLACEMENT_3D('',#969,#970,#971);
#973=CIRCLE('',#972,0.499999999999999);
#974=EDGE_CURVE('',#931,#891,#973,.T.);
#975=ORIENTED_EDGE('',*,*,#974,.T.);
#976=ORIENTED_EDGE('',*,*,#897,.F.);
#977=EDGE_LOOP('',(#968,#975,#976));
#978=FACE_OUTER_BOUND('',#977,.T.);
#979=ADVANCED_FACE('',(#978),#967,.T.);
#980=CARTESIAN_POINT('',(15.75,-9.9,12.15));
#981=DIRECTION('',(0.0,0.0,1.0));
#982=DIRECTION('',(1.0,0.0,0.0));
#983=AXIS2_PLACEMENT_3D('',#980,#981,#982);
#984=SPHERICAL_SURFACE('',#983,0.5);
#985=ORIENTED_EDGE('',*,*,#840,.F.);
#986=CARTESIAN_POINT('',(15.75,-9.9,12.15));
#987=DIRECTION('',(0.0,0.0,1.0));
#988=DIRECTION('',(0.707106781186548,-0.707106781186548,0.0));
#989=AXIS2_PLACEMENT_3D('',#986,#987,#988);
#990=CIRCLE('',#989,0.499999999999999);
#991=EDGE_CURVE('',#834,#811,#990,.T.);
#992=ORIENTED_EDGE('',*,*,#991,.T.);
#993=ORIENTED_EDGE('',*,*,#817,.F.);
#994=EDGE_LOOP('',(#985,#992,#993));
#995=FACE_OUTER_BOUND('',#994,.T.);
#996=ADVANCED_FACE('',(#995),#984,.T.);
#997=CARTESIAN_POINT('',(15.749999999999996,9.9,12.15));
#998=DIRECTION('',(0.0,0.0,1.0));
#999=DIRECTION('',(1.0,0.0,0.0));
#1000=AXIS2_PLACEMENT_3D('',#997,#998,#999);
#1001=SPHERICAL_SURFACE('',#1000,0.5);
#1002=ORIENTED_EDGE('',*,*,#800,.F.);
#1003=CARTESIAN_POINT('',(15.749999999999996,9.9,12.15));
#1004=DIRECTION('',(0.0,0.0,1.0));
#1005=DIRECTION('',(0.707106781186548,0.707106781186548,0.0));
#1006=AXIS2_PLACEMENT_3D('',#1003,#1004,#1005);
#1007=CIRCLE('',#1006,0.499999999999999);
#1008=EDGE_CURVE('',#792,#946,#1007,.T.);
#1009=ORIENTED_EDGE('',*,*,#1008,.T.);
#1010=ORIENTED_EDGE('',*,*,#952,.F.);
#1011=EDGE_LOOP('',(#1002,#1009,#1010));
#1012=FACE_OUTER_BOUND('',#1011,.T.);
#1013=ADVANCED_FACE('',(#1012),#1001,.T.);
#1014=CARTESIAN_POINT('',(-15.75,-9.9,0.0));
#1015=DIRECTION('',(0.0,0.0,1.0));
#1016=DIRECTION('',(-0.707106781186548,-0.707106781186548,0.0));
#1017=AXIS2_PLACEMENT_3D('',#1014,#1015,#1016);
#1018=CYLINDRICAL_SURFACE('',#1017,0.5);
#1019=ORIENTED_EDGE('',*,*,#919,.F.);
#1020=CARTESIAN_POINT('',(-16.25,-9.9,0.0));
#1021=VERTEX_POINT('',#1020);
#1022=CARTESIAN_POINT('',(-16.25,-9.9,0.0));
#1023=DIRECTION('',(0.0,0.0,1.0));
#1024=VECTOR('',#1023,12.15);
#1025=LINE('',#1022,#1024);
#1026=EDGE_CURVE('',#1021,#874,#1025,.T.);
#1027=ORIENTED_EDGE('',*,*,#1026,.F.);
#1028=CARTESIAN_POINT('',(-15.75,-10.4,0.0));
#1029=VERTEX_POINT('',#1028);
#1030=CARTESIAN_POINT('',(-15.75,-9.9,0.0));
#1031=DIRECTION('',(0.0,0.0,-1.0));
#1032=DIRECTION('',(-0.707106781186548,-0.707106781186548,0.0));
#1033=AXIS2_PLACEMENT_3D('',#1030,#1031,#1032);
#1034=CIRCLE('',#1033,0.5);
#1035=EDGE_CURVE('',#1029,#1021,#1034,.T.);
#1036=ORIENTED_EDGE('',*,*,#1035,.F.);
#1037=CARTESIAN_POINT('',(-15.75,-10.4,0.0));
#1038=DIRECTION('',(0.0,0.0,1.0));
#1039=VECTOR('',#1038,12.15);
#1040=LINE('',#1037,#1039);
#1041=EDGE_CURVE('',#1029,#851,#1040,.T.);
#1042=ORIENTED_EDGE('',*,*,#1041,.T.);
#1043=EDGE_LOOP('',(#1019,#1027,#1036,#1042));
#1044=FACE_OUTER_BOUND('',#1043,.T.);
#1045=ADVANCED_FACE('',(#1044),#1018,.T.);
#1046=CARTESIAN_POINT('',(-16.25,-9.9,0.0));
#1047=DIRECTION('',(-1.0,0.0,0.0));
#1048=DIRECTION('',(0.0,0.0,1.0));
#1049=AXIS2_PLACEMENT_3D('',#1046,#1047,#1048);
#1050=PLANE('',#1049);
#1051=ORIENTED_EDGE('',*,*,#903,.F.);
#1052=CARTESIAN_POINT('',(-16.250000000000004,9.9,0.0));
#1053=VERTEX_POINT('',#1052);
#1054=CARTESIAN_POINT('',(-16.250000000000004,9.9,0.0));
#1055=DIRECTION('',(0.0,0.0,1.0));
#1056=VECTOR('',#1055,12.15);
#1057=LINE('',#1054,#1056);
#1058=EDGE_CURVE('',#1053,#891,#1057,.T.);
#1059=ORIENTED_EDGE('',*,*,#1058,.F.);
#1060=CARTESIAN_POINT('',(-16.25,-9.9,0.0));
#1061=DIRECTION('',(0.0,1.0,0.0));
#1062=VECTOR('',#1061,19.800000000000001);
#1063=LINE('',#1060,#1062);
#1064=EDGE_CURVE('',#1021,#1053,#1063,.T.);
#1065=ORIENTED_EDGE('',*,*,#1064,.F.);
#1066=ORIENTED_EDGE('',*,*,#1026,.T.);
#1067=EDGE_LOOP('',(#1051,#1059,#1065,#1066));
#1068=FACE_OUTER_BOUND('',#1067,.T.);
#1069=ADVANCED_FACE('',(#1068),#1050,.T.);
#1070=CARTESIAN_POINT('',(-15.750000000000004,9.9,0.0));
#1071=DIRECTION('',(0.0,0.0,1.0));
#1072=DIRECTION('',(-0.707106781186548,0.707106781186548,0.0));
#1073=AXIS2_PLACEMENT_3D('',#1070,#1071,#1072);
#1074=CYLINDRICAL_SURFACE('',#1073,0.5);
#1075=ORIENTED_EDGE('',*,*,#974,.F.);
#1076=CARTESIAN_POINT('',(-15.750000000000004,10.4,0.0));
#1077=VERTEX_POINT('',#1076);
#1078=CARTESIAN_POINT('',(-15.750000000000004,10.4,0.0));
#1079=DIRECTION('',(0.0,0.0,1.0));
#1080=VECTOR('',#1079,12.15);
#1081=LINE('',#1078,#1080);
#1082=EDGE_CURVE('',#1077,#931,#1081,.T.);
#1083=ORIENTED_EDGE('',*,*,#1082,.F.);
#1084=CARTESIAN_POINT('',(-15.750000000000004,9.9,0.0));
#1085=DIRECTION('',(0.0,0.0,-1.0));
#1086=DIRECTION('',(-0.707106781186548,0.707106781186548,0.0));
#1087=AXIS2_PLACEMENT_3D('',#1084,#1085,#1086);
#1088=CIRCLE('',#1087,0.5);
#1089=EDGE_CURVE('',#1053,#1077,#1088,.T.);
#1090=ORIENTED_EDGE('',*,*,#1089,.F.);
#1091=ORIENTED_EDGE('',*,*,#1058,.T.);
#1092=EDGE_LOOP('',(#1075,#1083,#1090,#1091));
#1093=FACE_OUTER_BOUND('',#1092,.T.);
#1094=ADVANCED_FACE('',(#1093),#1074,.T.);
#1095=CARTESIAN_POINT('',(-15.750000000000004,10.4,0.0));
#1096=DIRECTION('',(0.0,1.0,0.0));
#1097=DIRECTION('',(0.0,0.0,1.0));
#1098=AXIS2_PLACEMENT_3D('',#1095,#1096,#1097);
#1099=PLANE('',#1098);
#1100=ORIENTED_EDGE('',*,*,#958,.F.);
#1101=CARTESIAN_POINT('',(15.749999999999996,10.4,0.0));
#1102=VERTEX_POINT('',#1101);
#1103=CARTESIAN_POINT('',(15.749999999999996,10.4,0.0));
#1104=DIRECTION('',(0.0,0.0,1.0));
#1105=VECTOR('',#1104,12.15);
#1106=LINE('',#1103,#1105);
#1107=EDGE_CURVE('',#1102,#946,#1106,.T.);
#1108=ORIENTED_EDGE('',*,*,#1107,.F.);
#1109=CARTESIAN_POINT('',(-15.750000000000004,10.4,0.0));
#1110=DIRECTION('',(1.0,0.0,0.0));
#1111=VECTOR('',#1110,31.5);
#1112=LINE('',#1109,#1111);
#1113=EDGE_CURVE('',#1077,#1102,#1112,.T.);
#1114=ORIENTED_EDGE('',*,*,#1113,.F.);
#1115=ORIENTED_EDGE('',*,*,#1082,.T.);
#1116=EDGE_LOOP('',(#1100,#1108,#1114,#1115));
#1117=FACE_OUTER_BOUND('',#1116,.T.);
#1118=ADVANCED_FACE('',(#1117),#1099,.T.);
#1119=CARTESIAN_POINT('',(-1.595946E-015,1.249001E-016,12.65));
#1120=DIRECTION('',(0.0,0.0,1.0));
#1121=DIRECTION('',(1.0,0.0,0.0));
#1122=AXIS2_PLACEMENT_3D('',#1119,#1120,#1121);
#1123=PLANE('',#1122);
#1124=ORIENTED_EDGE('',*,*,#808,.F.);
#1125=ORIENTED_EDGE('',*,*,#943,.F.);
#1126=ORIENTED_EDGE('',*,*,#888,.F.);
#1127=ORIENTED_EDGE('',*,*,#848,.F.);
#1128=EDGE_LOOP('',(#1124,#1125,#1126,#1127));
#1129=FACE_OUTER_BOUND('',#1128,.T.);
#1130=ADVANCED_FACE('',(#1129),#1123,.T.);
#1131=CARTESIAN_POINT('',(15.749999999999996,9.9,0.0));
#1132=DIRECTION('',(0.0,0.0,1.0));
#1133=DIRECTION('',(0.707106781186548,0.707106781186548,0.0));
#1134=AXIS2_PLACEMENT_3D('',#1131,#1132,#1133);
#1135=CYLINDRICAL_SURFACE('',#1134,0.5);
#1136=ORIENTED_EDGE('',*,*,#1008,.F.);
#1137=CARTESIAN_POINT('',(16.249999999999996,9.9,0.0));
#1138=VERTEX_POINT('',#1137);
#1139=CARTESIAN_POINT('',(16.249999999999996,9.9,0.0));
#1140=DIRECTION('',(0.0,0.0,1.0));
#1141=VECTOR('',#1140,12.15);
#1142=LINE('',#1139,#1141);
#1143=EDGE_CURVE('',#1138,#792,#1142,.T.);
#1144=ORIENTED_EDGE('',*,*,#1143,.F.);
#1145=CARTESIAN_POINT('',(15.749999999999996,9.9,0.0));
#1146=DIRECTION('',(0.0,0.0,-1.0));
#1147=DIRECTION('',(0.707106781186548,0.707106781186548,0.0));
#1148=AXIS2_PLACEMENT_3D('',#1145,#1146,#1147);
#1149=CIRCLE('',#1148,0.5);
#1150=EDGE_CURVE('',#1102,#1138,#1149,.T.);
#1151=ORIENTED_EDGE('',*,*,#1150,.F.);
#1152=ORIENTED_EDGE('',*,*,#1107,.T.);
#1153=EDGE_LOOP('',(#1136,#1144,#1151,#1152));
#1154=FACE_OUTER_BOUND('',#1153,.T.);
#1155=ADVANCED_FACE('',(#1154),#1135,.T.);
#1156=CARTESIAN_POINT('',(16.249999999999996,9.9,0.0));
#1157=DIRECTION('',(1.0,0.0,0.0));
#1158=DIRECTION('',(0.0,0.0,-1.0));
#1159=AXIS2_PLACEMENT_3D('',#1156,#1157,#1158);
#1160=PLANE('',#1159);
#1161=ORIENTED_EDGE('',*,*,#823,.F.);
#1162=CARTESIAN_POINT('',(16.25,-9.9,0.0));
#1163=VERTEX_POINT('',#1162);
#1164=CARTESIAN_POINT('',(16.25,-9.9,0.0));
#1165=DIRECTION('',(0.0,0.0,1.0));
#1166=VECTOR('',#1165,12.15);
#1167=LINE('',#1164,#1166);
#1168=EDGE_CURVE('',#1163,#811,#1167,.T.);
#1169=ORIENTED_EDGE('',*,*,#1168,.F.);
#1170=CARTESIAN_POINT('',(16.249999999999996,9.9,0.0));
#1171=DIRECTION('',(0.0,-1.0,0.0));
#1172=VECTOR('',#1171,19.800000000000001);
#1173=LINE('',#1170,#1172);
#1174=EDGE_CURVE('',#1138,#1163,#1173,.T.);
#1175=ORIENTED_EDGE('',*,*,#1174,.F.);
#1176=ORIENTED_EDGE('',*,*,#1143,.T.);
#1177=EDGE_LOOP('',(#1161,#1169,#1175,#1176));
#1178=FACE_OUTER_BOUND('',#1177,.T.);
#1179=ADVANCED_FACE('',(#1178),#1160,.T.);
#1180=CARTESIAN_POINT('',(15.75,-9.9,0.0));
#1181=DIRECTION('',(0.0,0.0,1.0));
#1182=DIRECTION('',(0.707106781186548,-0.707106781186548,0.0));
#1183=AXIS2_PLACEMENT_3D('',#1180,#1181,#1182);
#1184=CYLINDRICAL_SURFACE('',#1183,0.5);
#1185=ORIENTED_EDGE('',*,*,#991,.F.);
#1186=CARTESIAN_POINT('',(15.75,-10.4,0.0));
#1187=VERTEX_POINT('',#1186);
#1188=CARTESIAN_POINT('',(15.75,-10.4,0.0));
#1189=DIRECTION('',(0.0,0.0,1.0));
#1190=VECTOR('',#1189,12.15);
#1191=LINE('',#1188,#1190);
#1192=EDGE_CURVE('',#1187,#834,#1191,.T.);
#1193=ORIENTED_EDGE('',*,*,#1192,.F.);
#1194=CARTESIAN_POINT('',(15.75,-9.9,0.0));
#1195=DIRECTION('',(0.0,0.0,-1.0));
#1196=DIRECTION('',(0.707106781186548,-0.707106781186548,0.0));
#1197=AXIS2_PLACEMENT_3D('',#1194,#1195,#1196);
#1198=CIRCLE('',#1197,0.5);
#1199=EDGE_CURVE('',#1163,#1187,#1198,.T.);
#1200=ORIENTED_EDGE('',*,*,#1199,.F.);
#1201=ORIENTED_EDGE('',*,*,#1168,.T.);
#1202=EDGE_LOOP('',(#1185,#1193,#1200,#1201));
#1203=FACE_OUTER_BOUND('',#1202,.T.);
#1204=ADVANCED_FACE('',(#1203),#1184,.T.);
#1205=CARTESIAN_POINT('',(15.75,-10.4,0.0));
#1206=DIRECTION('',(0.0,-1.0,0.0));
#1207=DIRECTION('',(0.0,0.0,-1.0));
#1208=AXIS2_PLACEMENT_3D('',#1205,#1206,#1207);
#1209=PLANE('',#1208);
#1210=ORIENTED_EDGE('',*,*,#863,.F.);
#1211=ORIENTED_EDGE('',*,*,#1041,.F.);
#1212=CARTESIAN_POINT('',(15.75,-10.4,0.0));
#1213=DIRECTION('',(-1.0,0.0,0.0));
#1214=VECTOR('',#1213,31.5);
#1215=LINE('',#1212,#1214);
#1216=EDGE_CURVE('',#1187,#1029,#1215,.T.);
#1217=ORIENTED_EDGE('',*,*,#1216,.F.);
#1218=ORIENTED_EDGE('',*,*,#1192,.T.);
#1219=EDGE_LOOP('',(#1210,#1211,#1217,#1218));
#1220=FACE_OUTER_BOUND('',#1219,.T.);
#1221=ADVANCED_FACE('',(#1220),#1209,.T.);
#1222=CARTESIAN_POINT('',(-1.582068E-015,-1.249001E-016,0.0));
#1223=DIRECTION('',(0.0,0.0,1.0));
#1224=DIRECTION('',(1.0,0.0,0.0));
#1225=AXIS2_PLACEMENT_3D('',#1222,#1223,#1224);
#1226=PLANE('',#1225);
#1227=ORIENTED_EDGE('',*,*,#1113,.T.);
#1228=ORIENTED_EDGE('',*,*,#1150,.T.);
#1229=ORIENTED_EDGE('',*,*,#1174,.T.);
#1230=ORIENTED_EDGE('',*,*,#1199,.T.);
#1231=ORIENTED_EDGE('',*,*,#1216,.T.);
#1232=ORIENTED_EDGE('',*,*,#1035,.T.);
#1233=ORIENTED_EDGE('',*,*,#1064,.T.);
#1234=ORIENTED_EDGE('',*,*,#1089,.T.);
#1235=EDGE_LOOP('',(#1227,#1228,#1229,#1230,#1231,#1232,#1233,#1234));
#1236=FACE_OUTER_BOUND('',#1235,.T.);
#1237=ADVANCED_FACE('',(#1236),#1226,.F.);
#1238=CLOSED_SHELL('',(#827,#867,#907,#924,#962,#979,#996,#1013,#1045,#1069,#1094,#1118,#1130,#1155,#1179,#1204,#1221,#1237));
#1239=MANIFOLD_SOLID_BREP('4DEC',#1238);
#1240=COLOUR_RGB('250',0.33,0.33,0.33);
#1241=SURFACE_STYLE_USAGE(.BOTH.,#1242);
#1242=SURFACE_SIDE_STYLE('NONE',(#1243));
#1243=SURFACE_STYLE_FILL_AREA(#1244);
#1244=FILL_AREA_STYLE('NONE',(#1245));
#1245=FILL_AREA_STYLE_COLOUR('NONE',#1240);
#1246=PRESENTATION_STYLE_ASSIGNMENT((#1241));
#1247=STYLED_ITEM('NONE',(#1246),#1239);
#1248=CARTESIAN_POINT('',(13.25,7.4,12.65));
#1249=DIRECTION('',(0.0,0.0,1.0));
#1250=DIRECTION('',(0.707106781186548,0.707106781186548,0.0));
#1251=AXIS2_PLACEMENT_3D('',#1248,#1249,#1250);
#1252=CYLINDRICAL_SURFACE('',#1251,1.5);
#1253=CARTESIAN_POINT('',(13.25,8.9,12.700000000000006));
#1254=VERTEX_POINT('',#1253);
#1255=CARTESIAN_POINT('',(14.75,7.4,12.700000000000006));
#1256=VERTEX_POINT('',#1255);
#1257=CARTESIAN_POINT('',(13.25,7.4,12.700000000000001));
#1258=DIRECTION('',(0.0,0.0,-1.0));
#1259=DIRECTION('',(0.707106781186548,0.707106781186548,0.0));
#1260=AXIS2_PLACEMENT_3D('',#1257,#1258,#1259);
#1261=CIRCLE('',#1260,1.5);
#1262=EDGE_CURVE('',#1254,#1256,#1261,.T.);
#1263=ORIENTED_EDGE('',*,*,#1262,.T.);
#1264=CARTESIAN_POINT('',(14.75,7.4,12.65));
#1265=VERTEX_POINT('',#1264);
#1266=CARTESIAN_POINT('',(14.75,7.4,12.65));
#1267=DIRECTION('',(0.0,0.0,1.0));
#1268=VECTOR('',#1267,0.050000000000006);
#1269=LINE('',#1266,#1268);
#1270=EDGE_CURVE('',#1265,#1256,#1269,.T.);
#1271=ORIENTED_EDGE('',*,*,#1270,.F.);
#1272=CARTESIAN_POINT('',(13.25,8.9,12.65));
#1273=VERTEX_POINT('',#1272);
#1274=CARTESIAN_POINT('',(13.25,7.4,12.65));
#1275=DIRECTION('',(0.0,0.0,-1.0));
#1276=DIRECTION('',(0.707106781186548,0.707106781186548,0.0));
#1277=AXIS2_PLACEMENT_3D('',#1274,#1275,#1276);
#1278=CIRCLE('',#1277,1.5);
#1279=EDGE_CURVE('',#1273,#1265,#1278,.T.);
#1280=ORIENTED_EDGE('',*,*,#1279,.F.);
#1281=CARTESIAN_POINT('',(13.25,8.9,12.65));
#1282=DIRECTION('',(0.0,0.0,1.0));
#1283=VECTOR('',#1282,0.050000000000006);
#1284=LINE('',#1281,#1283);
#1285=EDGE_CURVE('',#1273,#1254,#1284,.T.);
#1286=ORIENTED_EDGE('',*,*,#1285,.T.);
#1287=EDGE_LOOP('',(#1263,#1271,#1280,#1286));
#1288=FACE_OUTER_BOUND('',#1287,.T.);
#1289=ADVANCED_FACE('',(#1288),#1252,.T.);
#1290=CARTESIAN_POINT('',(14.75,7.4,12.65));
#1291=DIRECTION('',(1.0,0.0,0.0));
#1292=DIRECTION('',(0.0,0.0,-1.0));
#1293=AXIS2_PLACEMENT_3D('',#1290,#1291,#1292);
#1294=PLANE('',#1293);
#1295=CARTESIAN_POINT('',(14.75,-7.4,12.700000000000006));
#1296=VERTEX_POINT('',#1295);
#1297=CARTESIAN_POINT('',(14.75,7.4,12.700000000000001));
#1298=DIRECTION('',(0.0,-1.0,0.0));
#1299=VECTOR('',#1298,14.800000000000001);
#1300=LINE('',#1297,#1299);
#1301=EDGE_CURVE('',#1256,#1296,#1300,.T.);
#1302=ORIENTED_EDGE('',*,*,#1301,.T.);
#1303=CARTESIAN_POINT('',(14.75,-7.4,12.65));
#1304=VERTEX_POINT('',#1303);
#1305=CARTESIAN_POINT('',(14.75,-7.4,12.65));
#1306=DIRECTION('',(0.0,0.0,1.0));
#1307=VECTOR('',#1306,0.050000000000006);
#1308=LINE('',#1305,#1307);
#1309=EDGE_CURVE('',#1304,#1296,#1308,.T.);
#1310=ORIENTED_EDGE('',*,*,#1309,.F.);
#1311=CARTESIAN_POINT('',(14.75,7.4,12.65));
#1312=DIRECTION('',(0.0,-1.0,0.0));
#1313=VECTOR('',#1312,14.800000000000001);
#1314=LINE('',#1311,#1313);
#1315=EDGE_CURVE('',#1265,#1304,#1314,.T.);
#1316=ORIENTED_EDGE('',*,*,#1315,.F.);
#1317=ORIENTED_EDGE('',*,*,#1270,.T.);
#1318=EDGE_LOOP('',(#1302,#1310,#1316,#1317));
#1319=FACE_OUTER_BOUND('',#1318,.T.);
#1320=ADVANCED_FACE('',(#1319),#1294,.T.);
#1321=CARTESIAN_POINT('',(13.25,-7.4,12.65));
#1322=DIRECTION('',(0.0,0.0,1.0));
#1323=DIRECTION('',(0.707106781186548,-0.707106781186548,0.0));
#1324=AXIS2_PLACEMENT_3D('',#1321,#1322,#1323);
#1325=CYLINDRICAL_SURFACE('',#1324,1.5);
#1326=CARTESIAN_POINT('',(13.25,-8.9,12.700000000000006));
#1327=VERTEX_POINT('',#1326);
#1328=CARTESIAN_POINT('',(13.25,-7.4,12.700000000000001));
#1329=DIRECTION('',(0.0,0.0,-1.0));
#1330=DIRECTION('',(0.707106781186548,-0.707106781186548,0.0));
#1331=AXIS2_PLACEMENT_3D('',#1328,#1329,#1330);
#1332=CIRCLE('',#1331,1.5);
#1333=EDGE_CURVE('',#1296,#1327,#1332,.T.);
#1334=ORIENTED_EDGE('',*,*,#1333,.T.);
#1335=CARTESIAN_POINT('',(13.25,-8.9,12.65));
#1336=VERTEX_POINT('',#1335);
#1337=CARTESIAN_POINT('',(13.25,-8.9,12.65));
#1338=DIRECTION('',(0.0,0.0,1.0));
#1339=VECTOR('',#1338,0.050000000000006);
#1340=LINE('',#1337,#1339);
#1341=EDGE_CURVE('',#1336,#1327,#1340,.T.);
#1342=ORIENTED_EDGE('',*,*,#1341,.F.);
#1343=CARTESIAN_POINT('',(13.25,-7.4,12.65));
#1344=DIRECTION('',(0.0,0.0,-1.0));
#1345=DIRECTION('',(0.707106781186548,-0.707106781186548,0.0));
#1346=AXIS2_PLACEMENT_3D('',#1343,#1344,#1345);
#1347=CIRCLE('',#1346,1.5);
#1348=EDGE_CURVE('',#1304,#1336,#1347,.T.);
#1349=ORIENTED_EDGE('',*,*,#1348,.F.);
#1350=ORIENTED_EDGE('',*,*,#1309,.T.);
#1351=EDGE_LOOP('',(#1334,#1342,#1349,#1350));
#1352=FACE_OUTER_BOUND('',#1351,.T.);
#1353=ADVANCED_FACE('',(#1352),#1325,.T.);
#1354=CARTESIAN_POINT('',(13.25,-8.9,12.65));
#1355=DIRECTION('',(0.0,-1.0,0.0));
#1356=DIRECTION('',(0.0,0.0,-1.0));
#1357=AXIS2_PLACEMENT_3D('',#1354,#1355,#1356);
#1358=PLANE('',#1357);
#1359=CARTESIAN_POINT('',(-13.250000000000007,-8.9,12.700000000000006));
#1360=VERTEX_POINT('',#1359);
#1361=CARTESIAN_POINT('',(13.25,-8.9,12.700000000000001));
#1362=DIRECTION('',(-1.0,0.0,0.0));
#1363=VECTOR('',#1362,26.500000000000007);
#1364=LINE('',#1361,#1363);
#1365=EDGE_CURVE('',#1327,#1360,#1364,.T.);
#1366=ORIENTED_EDGE('',*,*,#1365,.T.);
#1367=CARTESIAN_POINT('',(-13.250000000000007,-8.9,12.65));
#1368=VERTEX_POINT('',#1367);
#1369=CARTESIAN_POINT('',(-13.250000000000007,-8.9,12.65));
#1370=DIRECTION('',(0.0,0.0,1.0));
#1371=VECTOR('',#1370,0.050000000000006);
#1372=LINE('',#1369,#1371);
#1373=EDGE_CURVE('',#1368,#1360,#1372,.T.);
#1374=ORIENTED_EDGE('',*,*,#1373,.F.);
#1375=CARTESIAN_POINT('',(13.25,-8.9,12.65));
#1376=DIRECTION('',(-1.0,0.0,0.0));
#1377=VECTOR('',#1376,26.500000000000007);
#1378=LINE('',#1375,#1377);
#1379=EDGE_CURVE('',#1336,#1368,#1378,.T.);
#1380=ORIENTED_EDGE('',*,*,#1379,.F.);
#1381=ORIENTED_EDGE('',*,*,#1341,.T.);
#1382=EDGE_LOOP('',(#1366,#1374,#1380,#1381));
#1383=FACE_OUTER_BOUND('',#1382,.T.);
#1384=ADVANCED_FACE('',(#1383),#1358,.T.);
#1385=CARTESIAN_POINT('',(-13.250000000000007,-7.4,12.65));
#1386=DIRECTION('',(0.0,0.0,1.0));
#1387=DIRECTION('',(-0.707106781186548,-0.707106781186547,0.0));
#1388=AXIS2_PLACEMENT_3D('',#1385,#1386,#1387);
#1389=CYLINDRICAL_SURFACE('',#1388,1.5);
#1390=CARTESIAN_POINT('',(-14.750000000000007,-7.4,12.700000000000006));
#1391=VERTEX_POINT('',#1390);
#1392=CARTESIAN_POINT('',(-13.250000000000007,-7.4,12.700000000000001));
#1393=DIRECTION('',(0.0,0.0,-1.0));
#1394=DIRECTION('',(-0.707106781186548,-0.707106781186547,0.0));
#1395=AXIS2_PLACEMENT_3D('',#1392,#1393,#1394);
#1396=CIRCLE('',#1395,1.5);
#1397=EDGE_CURVE('',#1360,#1391,#1396,.T.);
#1398=ORIENTED_EDGE('',*,*,#1397,.T.);
#1399=CARTESIAN_POINT('',(-14.750000000000007,-7.4,12.65));
#1400=VERTEX_POINT('',#1399);
#1401=CARTESIAN_POINT('',(-14.750000000000007,-7.4,12.65));
#1402=DIRECTION('',(0.0,0.0,1.0));
#1403=VECTOR('',#1402,0.050000000000006);
#1404=LINE('',#1401,#1403);
#1405=EDGE_CURVE('',#1400,#1391,#1404,.T.);
#1406=ORIENTED_EDGE('',*,*,#1405,.F.);
#1407=CARTESIAN_POINT('',(-13.250000000000007,-7.4,12.65));
#1408=DIRECTION('',(0.0,0.0,-1.0));
#1409=DIRECTION('',(-0.707106781186548,-0.707106781186547,0.0));
#1410=AXIS2_PLACEMENT_3D('',#1407,#1408,#1409);
#1411=CIRCLE('',#1410,1.5);
#1412=EDGE_CURVE('',#1368,#1400,#1411,.T.);
#1413=ORIENTED_EDGE('',*,*,#1412,.F.);
#1414=ORIENTED_EDGE('',*,*,#1373,.T.);
#1415=EDGE_LOOP('',(#1398,#1406,#1413,#1414));
#1416=FACE_OUTER_BOUND('',#1415,.T.);
#1417=ADVANCED_FACE('',(#1416),#1389,.T.);
#1418=CARTESIAN_POINT('',(-14.750000000000007,-7.4,12.65));
#1419=DIRECTION('',(-1.0,0.0,0.0));
#1420=DIRECTION('',(0.0,0.0,1.0));
#1421=AXIS2_PLACEMENT_3D('',#1418,#1419,#1420);
#1422=PLANE('',#1421);
#1423=CARTESIAN_POINT('',(-14.750000000000004,7.4,12.700000000000006));
#1424=VERTEX_POINT('',#1423);
#1425=CARTESIAN_POINT('',(-14.750000000000007,-7.4,12.700000000000001));
#1426=DIRECTION('',(0.0,1.0,0.0));
#1427=VECTOR('',#1426,14.800000000000001);
#1428=LINE('',#1425,#1427);
#1429=EDGE_CURVE('',#1391,#1424,#1428,.T.);
#1430=ORIENTED_EDGE('',*,*,#1429,.T.);
#1431=CARTESIAN_POINT('',(-14.750000000000004,7.4,12.65));
#1432=VERTEX_POINT('',#1431);
#1433=CARTESIAN_POINT('',(-14.750000000000004,7.4,12.65));
#1434=DIRECTION('',(0.0,0.0,1.0));
#1435=VECTOR('',#1434,0.050000000000006);
#1436=LINE('',#1433,#1435);
#1437=EDGE_CURVE('',#1432,#1424,#1436,.T.);
#1438=ORIENTED_EDGE('',*,*,#1437,.F.);
#1439=CARTESIAN_POINT('',(-14.750000000000007,-7.4,12.65));
#1440=DIRECTION('',(0.0,1.0,0.0));
#1441=VECTOR('',#1440,14.800000000000001);
#1442=LINE('',#1439,#1441);
#1443=EDGE_CURVE('',#1400,#1432,#1442,.T.);
#1444=ORIENTED_EDGE('',*,*,#1443,.F.);
#1445=ORIENTED_EDGE('',*,*,#1405,.T.);
#1446=EDGE_LOOP('',(#1430,#1438,#1444,#1445));
#1447=FACE_OUTER_BOUND('',#1446,.T.);
#1448=ADVANCED_FACE('',(#1447),#1422,.T.);
#1449=CARTESIAN_POINT('',(-13.250000000000004,7.4,12.65));
#1450=DIRECTION('',(0.0,0.0,1.0));
#1451=DIRECTION('',(-0.707106781186548,0.707106781186548,0.0));
#1452=AXIS2_PLACEMENT_3D('',#1449,#1450,#1451);
#1453=CYLINDRICAL_SURFACE('',#1452,1.5);
#1454=CARTESIAN_POINT('',(-13.250000000000004,8.9,12.700000000000006));
#1455=VERTEX_POINT('',#1454);
#1456=CARTESIAN_POINT('',(-13.250000000000004,7.4,12.700000000000001));
#1457=DIRECTION('',(0.0,0.0,-1.0));
#1458=DIRECTION('',(-0.707106781186548,0.707106781186548,0.0));
#1459=AXIS2_PLACEMENT_3D('',#1456,#1457,#1458);
#1460=CIRCLE('',#1459,1.5);
#1461=EDGE_CURVE('',#1424,#1455,#1460,.T.);
#1462=ORIENTED_EDGE('',*,*,#1461,.T.);
#1463=CARTESIAN_POINT('',(-13.250000000000004,8.9,12.65));
#1464=VERTEX_POINT('',#1463);
#1465=CARTESIAN_POINT('',(-13.250000000000004,8.9,12.65));
#1466=DIRECTION('',(0.0,0.0,1.0));
#1467=VECTOR('',#1466,0.050000000000006);
#1468=LINE('',#1465,#1467);
#1469=EDGE_CURVE('',#1464,#1455,#1468,.T.);
#1470=ORIENTED_EDGE('',*,*,#1469,.F.);
#1471=CARTESIAN_POINT('',(-13.250000000000004,7.4,12.65));
#1472=DIRECTION('',(0.0,0.0,-1.0));
#1473=DIRECTION('',(-0.707106781186548,0.707106781186548,0.0));
#1474=AXIS2_PLACEMENT_3D('',#1471,#1472,#1473);
#1475=CIRCLE('',#1474,1.5);
#1476=EDGE_CURVE('',#1432,#1464,#1475,.T.);
#1477=ORIENTED_EDGE('',*,*,#1476,.F.);
#1478=ORIENTED_EDGE('',*,*,#1437,.T.);
#1479=EDGE_LOOP('',(#1462,#1470,#1477,#1478));
#1480=FACE_OUTER_BOUND('',#1479,.T.);
#1481=ADVANCED_FACE('',(#1480),#1453,.T.);
#1482=CARTESIAN_POINT('',(-13.250000000000004,8.9,12.65));
#1483=DIRECTION('',(0.0,1.0,0.0));
#1484=DIRECTION('',(0.0,0.0,1.0));
#1485=AXIS2_PLACEMENT_3D('',#1482,#1483,#1484);
#1486=PLANE('',#1485);
#1487=CARTESIAN_POINT('',(-13.250000000000004,8.9,12.700000000000001));
#1488=DIRECTION('',(1.0,0.0,0.0));
#1489=VECTOR('',#1488,26.500000000000004);
#1490=LINE('',#1487,#1489);
#1491=EDGE_CURVE('',#1455,#1254,#1490,.T.);
#1492=ORIENTED_EDGE('',*,*,#1491,.T.);
#1493=ORIENTED_EDGE('',*,*,#1285,.F.);
#1494=CARTESIAN_POINT('',(-13.250000000000004,8.9,12.65));
#1495=DIRECTION('',(1.0,0.0,0.0));
#1496=VECTOR('',#1495,26.500000000000004);
#1497=LINE('',#1494,#1496);
#1498=EDGE_CURVE('',#1464,#1273,#1497,.T.);
#1499=ORIENTED_EDGE('',*,*,#1498,.F.);
#1500=ORIENTED_EDGE('',*,*,#1469,.T.);
#1501=EDGE_LOOP('',(#1492,#1493,#1499,#1500));
#1502=FACE_OUTER_BOUND('',#1501,.T.);
#1503=ADVANCED_FACE('',(#1502),#1486,.T.);
#1504=CARTESIAN_POINT('',(-2.331468E-015,-3.608225E-016,12.700000000000006));
#1505=DIRECTION('',(0.0,0.0,1.0));
#1506=DIRECTION('',(1.0,0.0,0.0));
#1507=AXIS2_PLACEMENT_3D('',#1504,#1505,#1506);
#1508=PLANE('',#1507);
#1509=ORIENTED_EDGE('',*,*,#1262,.F.);
#1510=ORIENTED_EDGE('',*,*,#1491,.F.);
#1511=ORIENTED_EDGE('',*,*,#1461,.F.);
#1512=ORIENTED_EDGE('',*,*,#1429,.F.);
#1513=ORIENTED_EDGE('',*,*,#1397,.F.);
#1514=ORIENTED_EDGE('',*,*,#1365,.F.);
#1515=ORIENTED_EDGE('',*,*,#1333,.F.);
#1516=ORIENTED_EDGE('',*,*,#1301,.F.);
#1517=EDGE_LOOP('',(#1509,#1510,#1511,#1512,#1513,#1514,#1515,#1516));
#1518=FACE_OUTER_BOUND('',#1517,.T.);
#1519=ADVANCED_FACE('',(#1518),#1508,.T.);
#1520=CARTESIAN_POINT('',(-2.164935E-015,-5.273559E-016,12.650000000000006));
#1521=DIRECTION('',(0.0,0.0,1.0));
#1522=DIRECTION('',(1.0,0.0,0.0));
#1523=AXIS2_PLACEMENT_3D('',#1520,#1521,#1522);
#1524=PLANE('',#1523);
#1525=ORIENTED_EDGE('',*,*,#1498,.T.);
#1526=ORIENTED_EDGE('',*,*,#1279,.T.);
#1527=ORIENTED_EDGE('',*,*,#1315,.T.);
#1528=ORIENTED_EDGE('',*,*,#1348,.T.);
#1529=ORIENTED_EDGE('',*,*,#1379,.T.);
#1530=ORIENTED_EDGE('',*,*,#1412,.T.);
#1531=ORIENTED_EDGE('',*,*,#1443,.T.);
#1532=ORIENTED_EDGE('',*,*,#1476,.T.);
#1533=EDGE_LOOP('',(#1525,#1526,#1527,#1528,#1529,#1530,#1531,#1532));
#1534=FACE_OUTER_BOUND('',#1533,.T.);
#1535=ADVANCED_FACE('',(#1534),#1524,.F.);
#1536=CLOSED_SHELL('',(#1289,#1320,#1353,#1384,#1417,#1448,#1481,#1503,#1519,#1535));
#1537=MANIFOLD_SOLID_BREP('4DE8',#1536);
#1538=COLOUR_RGB('230',1.0,0.0,0.5);
#1539=SURFACE_STYLE_USAGE(.BOTH.,#1540);
#1540=SURFACE_SIDE_STYLE('NONE',(#1541));
#1541=SURFACE_STYLE_FILL_AREA(#1542);
#1542=FILL_AREA_STYLE('NONE',(#1543));
#1543=FILL_AREA_STYLE_COLOUR('NONE',#1538);
#1544=PRESENTATION_STYLE_ASSIGNMENT((#1539));
#1545=STYLED_ITEM('NONE',(#1544),#1537);
#1546=ADVANCED_BREP_SHAPE_REPRESENTATION('ABSR1',(#152,#250,#339,#428,#517,#606,#695,#784,#1239,#1537),#28);
#1547=SHAPE_REPRESENTATION_RELATIONSHIP('SRRPL1','',#1546,#62);
ENDSEC;
END-ISO-10303-21;
