ISO-10303-21;
HEADER;
/****************************************************************
 * Generated by software with PDElib inside                    *
 * PDElib Version v51a, created Fri 09/10/2010                  *
 * ITI Transcendata (http://www.transcendata.com/)              *
 ****************************************************************/
FILE_DESCRIPTION((''),'2;1');
FILE_NAME('DCDC_TRACO_TMR2WI.stp','2012-06-20T11:25:49',(''),(''),'Mechanical Desktop 2011','Mechanical Desktop 2011',', , ');
FILE_SCHEMA(('AUTOMOTIVE_DESIGN { 1 2 10303 214 1 1 1 1 }'));
ENDSEC;
DATA;
#10=(NAMED_UNIT(*)PLANE_ANGLE_UNIT()SI_UNIT($,.RADIAN.));
#11=DIMENSIONAL_EXPONENTS(0.0,0.0,0.0,0.0,0.0,0.0,0.0);
#12=PLANE_ANGLE_MEASURE_WITH_UNIT(PLANE_ANGLE_MEASURE(0.0174532925),#10);
#16=(CONVERSION_BASED_UNIT('DEGREE',#12)NAMED_UNIT(#11)PLANE_ANGLE_UNIT());
#20=(NAMED_UNIT(*)SI_UNIT($,.STERADIAN.)SOLID_ANGLE_UNIT());
#24=(LENGTH_UNIT()NAMED_UNIT(*)SI_UNIT(.MILLI.,.METRE.));
#26=UNCERTAINTY_MEASURE_WITH_UNIT(LENGTH_MEASURE(0.000001),#24,'DISTANCE_ACCURACY_VALUE','');
#28=(GEOMETRIC_REPRESENTATION_CONTEXT(3)GLOBAL_UNCERTAINTY_ASSIGNED_CONTEXT((#26))GLOBAL_UNIT_ASSIGNED_CONTEXT((#16,#20,#24))REPRESENTATION_CONTEXT('','3D'));
#29=APPLICATION_CONTEXT('automotive design');
#30=APPLICATION_PROTOCOL_DEFINITION('INTERNATIONAL_STANDARD','automotive_design',1998,#29);
#31=PRODUCT_CONTEXT('3D Mechanical Parts',#29,'mechanical');
#32=PRODUCT('Product','Product','',(#31));
#33=PRODUCT_RELATED_PRODUCT_CATEGORY('part',$,(#32));
#34=PRODUCT_CATEGORY('part',$);
#35=PERSON('1','Design','Joe',$,$,$);
#36=ORGANIZATION($,'None','None');
#37=PERSON_AND_ORGANIZATION(#35,#36);
#38=PERSON_AND_ORGANIZATION_ROLE('design_owner');
#39=APPLIED_PERSON_AND_ORGANIZATION_ASSIGNMENT(#37,#38,(#32));
#40=PRODUCT_DEFINITION_FORMATION_WITH_SPECIFIED_SOURCE('None','',#32,.BOUGHT.);
#41=PERSON('2','Creator','Joe',$,$,$);
#42=ORGANIZATION($,'None','None');
#43=PERSON_AND_ORGANIZATION(#41,#42);
#44=PERSON_AND_ORGANIZATION_ROLE('creator');
#45=APPLIED_PERSON_AND_ORGANIZATION_ASSIGNMENT(#43,#44,(#40));
#46=PERSON('3','Supplier','Joe',$,$,$);
#47=ORGANIZATION($,'None','None');
#48=PERSON_AND_ORGANIZATION(#46,#47);
#49=PERSON_AND_ORGANIZATION_ROLE('design_supplier');
#50=APPLIED_PERSON_AND_ORGANIZATION_ASSIGNMENT(#48,#49,(#40));
#51=PRODUCT_DEFINITION_CONTEXT('part definition',#29,'design');
#52=PRODUCT_DEFINITION('None','',#40,#51);
#53=PERSON('4','Creator','Joe',$,$,$);
#54=ORGANIZATION($,'None','None');
#55=PERSON_AND_ORGANIZATION(#53,#54);
#56=PERSON_AND_ORGANIZATION_ROLE('creator');
#57=APPLIED_PERSON_AND_ORGANIZATION_ASSIGNMENT(#55,#56,(#52));
#58=CARTESIAN_POINT('NONE',(0.0,0.0,0.0));
#59=DIRECTION('NONE',(0.0,0.0,1.0));
#60=DIRECTION('NONE',(1.0,0.0,0.0));
#61=AXIS2_PLACEMENT_3D('NONE',#58,#59,#60);
#62=SHAPE_REPRESENTATION('SR1',(#61),#28);
#63=PRODUCT_DEFINITION_SHAPE('PDS1','Test Part',#52);
#64=SHAPE_DEFINITION_REPRESENTATION(#63,#62);
#65=CARTESIAN_POINT('',(-11.200000000000003,-4.850000000000004,1.5));
#66=DIRECTION('',(2.449294E-016,-1.0,0.0));
#67=DIRECTION('',(1.0,0.0,0.0));
#68=AXIS2_PLACEMENT_3D('',#65,#66,#67);
#69=CYLINDRICAL_SURFACE('',#68,0.5);
#70=CARTESIAN_POINT('',(-10.700000000000003,-4.900000000000002,1.5));
#71=VERTEX_POINT('',#70);
#72=CARTESIAN_POINT('',(-10.700000000000003,-4.800000000000003,1.5));
#73=VERTEX_POINT('',#72);
#74=CARTESIAN_POINT('',(-10.700000000000003,-4.900000000000002,1.5));
#75=DIRECTION('',(0.0,1.0,0.0));
#76=VECTOR('',#75,0.099999999999998);
#77=LINE('',#74,#76);
#78=EDGE_CURVE('',#71,#73,#77,.T.);
#79=ORIENTED_EDGE('',*,*,#78,.F.);
#80=CARTESIAN_POINT('',(-11.700000000000003,-4.900000000000004,1.5));
#81=VERTEX_POINT('',#80);
#82=CARTESIAN_POINT('',(-11.200000000000003,-4.900000000000004,1.5));
#83=DIRECTION('',(0.0,-1.0,0.0));
#84=DIRECTION('',(1.0,0.0,0.0));
#85=AXIS2_PLACEMENT_3D('',#82,#83,#84);
#86=CIRCLE('',#85,0.5);
#87=EDGE_CURVE('',#81,#71,#86,.T.);
#88=ORIENTED_EDGE('',*,*,#87,.F.);
#89=CARTESIAN_POINT('',(-11.700000000000003,-4.800000000000004,1.5));
#90=VERTEX_POINT('',#89);
#91=CARTESIAN_POINT('',(-11.700000000000003,-4.900000000000004,1.5));
#92=DIRECTION('',(0.0,1.0,0.0));
#93=VECTOR('',#92,0.1);
#94=LINE('',#91,#93);
#95=EDGE_CURVE('',#81,#90,#94,.T.);
#96=ORIENTED_EDGE('',*,*,#95,.T.);
#97=CARTESIAN_POINT('',(-11.200000000000003,-4.800000000000004,1.5));
#98=DIRECTION('',(0.0,1.0,0.0));
#99=DIRECTION('',(1.0,0.0,0.0));
#100=AXIS2_PLACEMENT_3D('',#97,#98,#99);
#101=CIRCLE('',#100,0.5);
#102=EDGE_CURVE('',#73,#90,#101,.T.);
#103=ORIENTED_EDGE('',*,*,#102,.F.);
#104=EDGE_LOOP('',(#79,#88,#96,#103));
#105=FACE_OUTER_BOUND('',#104,.T.);
#106=ADVANCED_FACE('',(#105),#69,.T.);
#107=CARTESIAN_POINT('',(-11.200000000000003,-4.850000000000004,1.5));
#108=DIRECTION('',(2.449294E-016,-1.0,0.0));
#109=DIRECTION('',(1.0,0.0,0.0));
#110=AXIS2_PLACEMENT_3D('',#107,#108,#109);
#111=CYLINDRICAL_SURFACE('',#110,0.5);
#112=ORIENTED_EDGE('',*,*,#78,.T.);
#113=CARTESIAN_POINT('',(-11.200000000000003,-4.800000000000004,1.5));
#114=DIRECTION('',(0.0,1.0,0.0));
#115=DIRECTION('',(1.0,0.0,0.0));
#116=AXIS2_PLACEMENT_3D('',#113,#114,#115);
#117=CIRCLE('',#116,0.5);
#118=EDGE_CURVE('',#90,#73,#117,.T.);
#119=ORIENTED_EDGE('',*,*,#118,.F.);
#120=ORIENTED_EDGE('',*,*,#95,.F.);
#121=CARTESIAN_POINT('',(-11.200000000000003,-4.900000000000004,1.5));
#122=DIRECTION('',(0.0,-1.0,0.0));
#123=DIRECTION('',(1.0,0.0,0.0));
#124=AXIS2_PLACEMENT_3D('',#121,#122,#123);
#125=CIRCLE('',#124,0.5);
#126=EDGE_CURVE('',#71,#81,#125,.T.);
#127=ORIENTED_EDGE('',*,*,#126,.F.);
#128=EDGE_LOOP('',(#112,#119,#120,#127));
#129=FACE_OUTER_BOUND('',#128,.T.);
#130=ADVANCED_FACE('',(#129),#111,.T.);
#131=CARTESIAN_POINT('',(-11.200000000000003,-4.800000000000004,1.5));
#132=DIRECTION('',(0.0,1.0,0.0));
#133=DIRECTION('',(-1.0,0.0,0.0));
#134=AXIS2_PLACEMENT_3D('',#131,#132,#133);
#135=PLANE('',#134);
#136=ORIENTED_EDGE('',*,*,#102,.T.);
#137=ORIENTED_EDGE('',*,*,#118,.T.);
#138=EDGE_LOOP('',(#136,#137));
#139=FACE_OUTER_BOUND('',#138,.T.);
#140=ADVANCED_FACE('',(#139),#135,.T.);
#141=CARTESIAN_POINT('',(-11.200000000000003,-4.900000000000004,1.5));
#142=DIRECTION('',(0.0,-1.0,0.0));
#143=DIRECTION('',(1.0,0.0,0.0));
#144=AXIS2_PLACEMENT_3D('',#141,#142,#143);
#145=PLANE('',#144);
#146=ORIENTED_EDGE('',*,*,#126,.T.);
#147=ORIENTED_EDGE('',*,*,#87,.T.);
#148=EDGE_LOOP('',(#146,#147));
#149=FACE_OUTER_BOUND('',#148,.T.);
#150=ADVANCED_FACE('',(#149),#145,.T.);
#151=CLOSED_SHELL('',(#106,#130,#140,#150));
#152=MANIFOLD_SOLID_BREP('14F5',#151);
#153=DRAUGHTING_PRE_DEFINED_COLOUR('white');
#154=SURFACE_STYLE_USAGE(.BOTH.,#155);
#155=SURFACE_SIDE_STYLE('NONE',(#156));
#156=SURFACE_STYLE_FILL_AREA(#157);
#157=FILL_AREA_STYLE('NONE',(#158));
#158=FILL_AREA_STYLE_COLOUR('NONE',#153);
#159=PRESENTATION_STYLE_ASSIGNMENT((#154));
#160=STYLED_ITEM('NONE',(#159),#152);
#161=MECHANICAL_DESIGN_GEOMETRIC_PRESENTATION_REPRESENTATION('NONE',(#160,#532,#690,#841,#992,#1143,#1294,#1445,#1596),#28);
#162=PRESENTATION_LAYER_ASSIGNMENT('3D','None',(#152,#524,#682,#840,#991,#1142,#1293,#1444,#1595));
#163=CARTESIAN_POINT('',(-11.200000000000003,-4.900000000000004,1.5));
#164=DIRECTION('',(-2.449294E-016,1.0,0.0));
#165=DIRECTION('',(1.0,0.0,0.0));
#166=AXIS2_PLACEMENT_3D('',#163,#164,#165);
#167=CYLINDRICAL_SURFACE('',#166,0.5);
#168=CARTESIAN_POINT('',(-10.700000000000003,-4.900000000000002,1.5));
#169=VERTEX_POINT('',#168);
#170=CARTESIAN_POINT('',(-10.700000000000003,-4.800000000000003,1.5));
#171=VERTEX_POINT('',#170);
#172=CARTESIAN_POINT('',(-10.700000000000003,-4.900000000000002,1.5));
#173=DIRECTION('',(0.0,1.0,0.0));
#174=VECTOR('',#173,0.099999999999998);
#175=LINE('',#172,#174);
#176=EDGE_CURVE('',#169,#171,#175,.T.);
#177=ORIENTED_EDGE('',*,*,#176,.F.);
#178=CARTESIAN_POINT('',(-11.700000000000003,-4.900000000000004,1.5));
#179=VERTEX_POINT('',#178);
#180=CARTESIAN_POINT('',(-11.200000000000003,-4.900000000000004,1.5));
#181=DIRECTION('',(0.0,1.0,0.0));
#182=DIRECTION('',(1.0,0.0,0.0));
#183=AXIS2_PLACEMENT_3D('',#180,#181,#182);
#184=CIRCLE('',#183,0.5);
#185=EDGE_CURVE('',#179,#169,#184,.T.);
#186=ORIENTED_EDGE('',*,*,#185,.F.);
#187=CARTESIAN_POINT('',(-11.700000000000003,-4.800000000000004,1.5));
#188=VERTEX_POINT('',#187);
#189=CARTESIAN_POINT('',(-11.700000000000003,-4.900000000000004,1.5));
#190=DIRECTION('',(0.0,1.0,0.0));
#191=VECTOR('',#190,0.1);
#192=LINE('',#189,#191);
#193=EDGE_CURVE('',#179,#188,#192,.T.);
#194=ORIENTED_EDGE('',*,*,#193,.T.);
#195=CARTESIAN_POINT('',(-11.200000000000003,-4.800000000000004,1.5));
#196=DIRECTION('',(0.0,-1.0,0.0));
#197=DIRECTION('',(1.0,0.0,0.0));
#198=AXIS2_PLACEMENT_3D('',#195,#196,#197);
#199=CIRCLE('',#198,0.5);
#200=EDGE_CURVE('',#171,#188,#199,.T.);
#201=ORIENTED_EDGE('',*,*,#200,.F.);
#202=EDGE_LOOP('',(#177,#186,#194,#201));
#203=FACE_OUTER_BOUND('',#202,.T.);
#204=ADVANCED_FACE('',(#203),#167,.F.);
#205=CARTESIAN_POINT('',(-11.200000000000003,-4.900000000000004,1.5));
#206=DIRECTION('',(-2.449294E-016,1.0,0.0));
#207=DIRECTION('',(1.0,0.0,0.0));
#208=AXIS2_PLACEMENT_3D('',#205,#206,#207);
#209=CYLINDRICAL_SURFACE('',#208,0.5);
#210=ORIENTED_EDGE('',*,*,#176,.T.);
#211=CARTESIAN_POINT('',(-11.200000000000003,-4.800000000000004,1.5));
#212=DIRECTION('',(0.0,-1.0,0.0));
#213=DIRECTION('',(1.0,0.0,0.0));
#214=AXIS2_PLACEMENT_3D('',#211,#212,#213);
#215=CIRCLE('',#214,0.5);
#216=EDGE_CURVE('',#188,#171,#215,.T.);
#217=ORIENTED_EDGE('',*,*,#216,.F.);
#218=ORIENTED_EDGE('',*,*,#193,.F.);
#219=CARTESIAN_POINT('',(-11.200000000000003,-4.900000000000004,1.5));
#220=DIRECTION('',(0.0,1.0,0.0));
#221=DIRECTION('',(1.0,0.0,0.0));
#222=AXIS2_PLACEMENT_3D('',#219,#220,#221);
#223=CIRCLE('',#222,0.5);
#224=EDGE_CURVE('',#169,#179,#223,.T.);
#225=ORIENTED_EDGE('',*,*,#224,.F.);
#226=EDGE_LOOP('',(#210,#217,#218,#225));
#227=FACE_OUTER_BOUND('',#226,.T.);
#228=ADVANCED_FACE('',(#227),#209,.F.);
#229=CARTESIAN_POINT('',(-11.200000000000003,-4.800000000000004,1.5));
#230=DIRECTION('',(0.0,-1.0,0.0));
#231=DIRECTION('',(0.0,0.0,-1.0));
#232=AXIS2_PLACEMENT_3D('',#229,#230,#231);
#233=PLANE('',#232);
#234=ORIENTED_EDGE('',*,*,#200,.T.);
#235=ORIENTED_EDGE('',*,*,#216,.T.);
#236=EDGE_LOOP('',(#234,#235));
#237=FACE_OUTER_BOUND('',#236,.T.);
#238=ADVANCED_FACE('',(#237),#233,.T.);
#239=CARTESIAN_POINT('',(-12.750000000000005,-4.900000000000011,0.5));
#240=CARTESIAN_POINT('',(12.750000000000005,-4.900000000000005,0.5));
#241=CARTESIAN_POINT('',(-12.750000000000007,4.900000000000004,0.5));
#242=CARTESIAN_POINT('',(12.750000000000004,4.90000000000001,0.5));
#243=B_SPLINE_SURFACE_WITH_KNOTS('',1,1,((#239,#241),(#240,#242)),.UNSPECIFIED.,.F.,.F.,.U.,(2,2),(2,2),(0.0,25.500000000000011),(0.0,9.800000000000015),.UNSPECIFIED.);
#244=CARTESIAN_POINT('',(12.75,4.900000000000004,0.5));
#245=VERTEX_POINT('',#244);
#246=CARTESIAN_POINT('',(12.75,-4.899999999999997,0.5));
#247=VERTEX_POINT('',#246);
#248=CARTESIAN_POINT('',(12.749999999999998,4.900000000000004,0.5));
#249=DIRECTION('',(0.0,-1.0,0.0));
#250=VECTOR('',#249,9.800000000000001);
#251=LINE('',#248,#250);
#252=EDGE_CURVE('',#245,#247,#251,.T.);
#253=ORIENTED_EDGE('',*,*,#252,.T.);
#254=CARTESIAN_POINT('',(-12.750000000000004,-4.900000000000004,0.5));
#255=VERTEX_POINT('',#254);
#256=CARTESIAN_POINT('',(-12.750000000000004,-4.900000000000003,0.5));
#257=DIRECTION('',(1.0,0.0,0.0));
#258=VECTOR('',#257,25.500000000000007);
#259=LINE('',#256,#258);
#260=EDGE_CURVE('',#255,#247,#259,.T.);
#261=ORIENTED_EDGE('',*,*,#260,.F.);
#262=CARTESIAN_POINT('',(-12.750000000000004,4.899999999999997,0.5));
#263=VERTEX_POINT('',#262);
#264=CARTESIAN_POINT('',(-12.750000000000002,-4.900000000000004,0.5));
#265=DIRECTION('',(0.0,1.0,0.0));
#266=VECTOR('',#265,9.800000000000001);
#267=LINE('',#264,#266);
#268=EDGE_CURVE('',#255,#263,#267,.T.);
#269=ORIENTED_EDGE('',*,*,#268,.T.);
#270=CARTESIAN_POINT('',(12.75,4.900000000000003,0.5));
#271=DIRECTION('',(-1.0,0.0,0.0));
#272=VECTOR('',#271,25.500000000000007);
#273=LINE('',#270,#272);
#274=EDGE_CURVE('',#245,#263,#273,.T.);
#275=ORIENTED_EDGE('',*,*,#274,.F.);
#276=EDGE_LOOP('',(#253,#261,#269,#275));
#277=FACE_OUTER_BOUND('',#276,.T.);
#278=ADVANCED_FACE('',(#277),#243,.F.);
#279=CARTESIAN_POINT('',(-12.750000000000002,-4.900000000000004,0.5));
#280=CARTESIAN_POINT('',(-12.750000000000002,-4.900000000000004,0.0));
#281=CARTESIAN_POINT('',(-12.750000000000004,4.899999999999997,0.5));
#282=CARTESIAN_POINT('',(-12.750000000000005,4.899999999999997,0.0));
#283=B_SPLINE_SURFACE_WITH_KNOTS('',1,1,((#279,#281),(#280,#282)),.UNSPECIFIED.,.F.,.F.,.U.,(2,2),(2,2),(0.0,0.5),(0.0,9.800000000000001),.UNSPECIFIED.);
#284=CARTESIAN_POINT('',(-12.750000000000004,-4.900000000000004,0.0));
#285=VERTEX_POINT('',#284);
#286=CARTESIAN_POINT('',(-12.750000000000004,-4.900000000000004,0.0));
#287=DIRECTION('',(0.0,0.0,1.0));
#288=VECTOR('',#287,0.5);
#289=LINE('',#286,#288);
#290=EDGE_CURVE('',#285,#255,#289,.T.);
#291=ORIENTED_EDGE('',*,*,#290,.F.);
#292=CARTESIAN_POINT('',(-12.750000000000004,4.899999999999997,0.0));
#293=VERTEX_POINT('',#292);
#294=CARTESIAN_POINT('',(-12.750000000000005,4.899999999999998,0.0));
#295=DIRECTION('',(0.0,-1.0,0.0));
#296=VECTOR('',#295,9.800000000000001);
#297=LINE('',#294,#296);
#298=EDGE_CURVE('',#293,#285,#297,.T.);
#299=ORIENTED_EDGE('',*,*,#298,.F.);
#300=CARTESIAN_POINT('',(-12.750000000000004,4.899999999999997,0.5));
#301=DIRECTION('',(0.0,0.0,-1.0));
#302=VECTOR('',#301,0.5);
#303=LINE('',#300,#302);
#304=EDGE_CURVE('',#263,#293,#303,.T.);
#305=ORIENTED_EDGE('',*,*,#304,.F.);
#306=ORIENTED_EDGE('',*,*,#268,.F.);
#307=EDGE_LOOP('',(#291,#299,#305,#306));
#308=FACE_OUTER_BOUND('',#307,.T.);
#309=ADVANCED_FACE('',(#308),#283,.T.);
#310=CARTESIAN_POINT('',(12.750000000000002,-4.899999999999997,0.0));
#311=CARTESIAN_POINT('',(12.750000000000002,-4.899999999999997,0.5));
#312=CARTESIAN_POINT('',(12.75,4.900000000000004,0.0));
#313=CARTESIAN_POINT('',(12.749999999999998,4.900000000000004,0.5));
#314=B_SPLINE_SURFACE_WITH_KNOTS('',1,1,((#310,#312),(#311,#313)),.UNSPECIFIED.,.F.,.F.,.U.,(2,2),(2,2),(0.0,0.5),(0.0,9.800000000000001),.UNSPECIFIED.);
#315=CARTESIAN_POINT('',(12.75,4.900000000000004,0.0));
#316=VERTEX_POINT('',#315);
#317=CARTESIAN_POINT('',(12.75,4.900000000000004,0.0));
#318=DIRECTION('',(0.0,0.0,1.0));
#319=VECTOR('',#318,0.5);
#320=LINE('',#317,#319);
#321=EDGE_CURVE('',#316,#245,#320,.T.);
#322=ORIENTED_EDGE('',*,*,#321,.F.);
#323=CARTESIAN_POINT('',(12.75,-4.899999999999997,0.0));
#324=VERTEX_POINT('',#323);
#325=CARTESIAN_POINT('',(12.750000000000002,-4.899999999999997,0.0));
#326=DIRECTION('',(0.0,1.0,0.0));
#327=VECTOR('',#326,9.800000000000001);
#328=LINE('',#325,#327);
#329=EDGE_CURVE('',#324,#316,#328,.T.);
#330=ORIENTED_EDGE('',*,*,#329,.F.);
#331=CARTESIAN_POINT('',(12.75,-4.899999999999997,0.5));
#332=DIRECTION('',(0.0,0.0,-1.0));
#333=VECTOR('',#332,0.5);
#334=LINE('',#331,#333);
#335=EDGE_CURVE('',#247,#324,#334,.T.);
#336=ORIENTED_EDGE('',*,*,#335,.F.);
#337=ORIENTED_EDGE('',*,*,#252,.F.);
#338=EDGE_LOOP('',(#322,#330,#336,#337));
#339=FACE_OUTER_BOUND('',#338,.T.);
#340=ADVANCED_FACE('',(#339),#314,.T.);
#341=CARTESIAN_POINT('',(-8.881784E-016,2.220446E-016,0.0));
#342=DIRECTION('',(0.0,0.0,1.0));
#343=DIRECTION('',(1.0,0.0,0.0));
#344=AXIS2_PLACEMENT_3D('',#341,#342,#343);
#345=PLANE('',#344);
#346=ORIENTED_EDGE('',*,*,#329,.T.);
#347=CARTESIAN_POINT('',(13.25,4.900000000000004,0.0));
#348=VERTEX_POINT('',#347);
#349=CARTESIAN_POINT('',(13.25,4.900000000000004,0.0));
#350=DIRECTION('',(-1.0,0.0,0.0));
#351=VECTOR('',#350,0.5);
#352=LINE('',#349,#351);
#353=EDGE_CURVE('',#348,#316,#352,.T.);
#354=ORIENTED_EDGE('',*,*,#353,.F.);
#355=CARTESIAN_POINT('',(13.25,-4.899999999999997,0.0));
#356=VERTEX_POINT('',#355);
#357=CARTESIAN_POINT('',(13.25,-4.899999999999997,0.0));
#358=DIRECTION('',(0.0,1.0,0.0));
#359=VECTOR('',#358,9.800000000000001);
#360=LINE('',#357,#359);
#361=EDGE_CURVE('',#356,#348,#360,.T.);
#362=ORIENTED_EDGE('',*,*,#361,.F.);
#363=CARTESIAN_POINT('',(12.75,-4.899999999999998,0.0));
#364=DIRECTION('',(1.0,0.0,0.0));
#365=VECTOR('',#364,0.5);
#366=LINE('',#363,#365);
#367=EDGE_CURVE('',#324,#356,#366,.T.);
#368=ORIENTED_EDGE('',*,*,#367,.F.);
#369=EDGE_LOOP('',(#346,#354,#362,#368));
#370=FACE_OUTER_BOUND('',#369,.T.);
#371=ADVANCED_FACE('',(#370),#345,.F.);
#372=CARTESIAN_POINT('',(-8.881784E-016,2.220446E-016,0.0));
#373=DIRECTION('',(0.0,0.0,1.0));
#374=DIRECTION('',(1.0,0.0,0.0));
#375=AXIS2_PLACEMENT_3D('',#372,#373,#374);
#376=PLANE('',#375);
#377=ORIENTED_EDGE('',*,*,#298,.T.);
#378=CARTESIAN_POINT('',(-13.25,-4.900000000000004,0.0));
#379=VERTEX_POINT('',#378);
#380=CARTESIAN_POINT('',(-13.25,-4.900000000000004,0.0));
#381=DIRECTION('',(1.0,0.0,0.0));
#382=VECTOR('',#381,0.499999999999996);
#383=LINE('',#380,#382);
#384=EDGE_CURVE('',#379,#285,#383,.T.);
#385=ORIENTED_EDGE('',*,*,#384,.F.);
#386=CARTESIAN_POINT('',(-13.250000000000004,4.899999999999997,0.0));
#387=VERTEX_POINT('',#386);
#388=CARTESIAN_POINT('',(-13.250000000000004,4.899999999999997,0.0));
#389=DIRECTION('',(0.0,-1.0,0.0));
#390=VECTOR('',#389,9.800000000000001);
#391=LINE('',#388,#390);
#392=EDGE_CURVE('',#387,#379,#391,.T.);
#393=ORIENTED_EDGE('',*,*,#392,.F.);
#394=CARTESIAN_POINT('',(-12.750000000000004,4.899999999999998,0.0));
#395=DIRECTION('',(-1.0,0.0,0.0));
#396=VECTOR('',#395,0.5);
#397=LINE('',#394,#396);
#398=EDGE_CURVE('',#293,#387,#397,.T.);
#399=ORIENTED_EDGE('',*,*,#398,.F.);
#400=EDGE_LOOP('',(#377,#385,#393,#399));
#401=FACE_OUTER_BOUND('',#400,.T.);
#402=ADVANCED_FACE('',(#401),#376,.F.);
#403=CARTESIAN_POINT('',(13.25,-4.899999999999997,0.0));
#404=DIRECTION('',(0.0,-1.0,0.0));
#405=DIRECTION('',(0.0,0.0,-1.0));
#406=AXIS2_PLACEMENT_3D('',#403,#404,#405);
#407=PLANE('',#406);
#408=ORIENTED_EDGE('',*,*,#290,.T.);
#409=ORIENTED_EDGE('',*,*,#260,.T.);
#410=ORIENTED_EDGE('',*,*,#335,.T.);
#411=ORIENTED_EDGE('',*,*,#367,.T.);
#412=CARTESIAN_POINT('',(13.25,-4.899999999999997,13.0));
#413=VERTEX_POINT('',#412);
#414=CARTESIAN_POINT('',(13.25,-4.899999999999997,0.0));
#415=DIRECTION('',(0.0,0.0,1.0));
#416=VECTOR('',#415,13.0);
#417=LINE('',#414,#416);
#418=EDGE_CURVE('',#356,#413,#417,.T.);
#419=ORIENTED_EDGE('',*,*,#418,.T.);
#420=CARTESIAN_POINT('',(-13.25,-4.900000000000004,13.0));
#421=VERTEX_POINT('',#420);
#422=CARTESIAN_POINT('',(13.25,-4.899999999999998,13.0));
#423=DIRECTION('',(-1.0,0.0,0.0));
#424=VECTOR('',#423,26.5);
#425=LINE('',#422,#424);
#426=EDGE_CURVE('',#413,#421,#425,.T.);
#427=ORIENTED_EDGE('',*,*,#426,.T.);
#428=CARTESIAN_POINT('',(-13.25,-4.900000000000004,0.0));
#429=DIRECTION('',(0.0,0.0,1.0));
#430=VECTOR('',#429,13.0);
#431=LINE('',#428,#430);
#432=EDGE_CURVE('',#379,#421,#431,.T.);
#433=ORIENTED_EDGE('',*,*,#432,.F.);
#434=ORIENTED_EDGE('',*,*,#384,.T.);
#435=EDGE_LOOP('',(#408,#409,#410,#411,#419,#427,#433,#434));
#436=FACE_OUTER_BOUND('',#435,.T.);
#437=ORIENTED_EDGE('',*,*,#224,.T.);
#438=ORIENTED_EDGE('',*,*,#185,.T.);
#439=EDGE_LOOP('',(#437,#438));
#440=FACE_BOUND('',#439,.T.);
#441=ADVANCED_FACE('',(#436,#440),#407,.T.);
#442=CARTESIAN_POINT('',(-13.25,-4.900000000000004,0.0));
#443=DIRECTION('',(-1.0,0.0,0.0));
#444=DIRECTION('',(0.0,0.0,1.0));
#445=AXIS2_PLACEMENT_3D('',#442,#443,#444);
#446=PLANE('',#445);
#447=CARTESIAN_POINT('',(-13.250000000000004,4.899999999999997,13.0));
#448=VERTEX_POINT('',#447);
#449=CARTESIAN_POINT('',(-13.249999999999998,-4.900000000000004,13.0));
#450=DIRECTION('',(0.0,1.0,0.0));
#451=VECTOR('',#450,9.800000000000001);
#452=LINE('',#449,#451);
#453=EDGE_CURVE('',#421,#448,#452,.T.);
#454=ORIENTED_EDGE('',*,*,#453,.T.);
#455=CARTESIAN_POINT('',(-13.250000000000004,4.899999999999997,0.0));
#456=DIRECTION('',(0.0,0.0,1.0));
#457=VECTOR('',#456,13.0);
#458=LINE('',#455,#457);
#459=EDGE_CURVE('',#387,#448,#458,.T.);
#460=ORIENTED_EDGE('',*,*,#459,.F.);
#461=ORIENTED_EDGE('',*,*,#392,.T.);
#462=ORIENTED_EDGE('',*,*,#432,.T.);
#463=EDGE_LOOP('',(#454,#460,#461,#462));
#464=FACE_OUTER_BOUND('',#463,.T.);
#465=ADVANCED_FACE('',(#464),#446,.T.);
#466=CARTESIAN_POINT('',(-13.250000000000004,4.899999999999997,0.0));
#467=DIRECTION('',(0.0,1.0,0.0));
#468=DIRECTION('',(0.0,0.0,1.0));
#469=AXIS2_PLACEMENT_3D('',#466,#467,#468);
#470=PLANE('',#469);
#471=ORIENTED_EDGE('',*,*,#304,.T.);
#472=ORIENTED_EDGE('',*,*,#398,.T.);
#473=ORIENTED_EDGE('',*,*,#459,.T.);
#474=CARTESIAN_POINT('',(13.25,4.900000000000004,13.0));
#475=VERTEX_POINT('',#474);
#476=CARTESIAN_POINT('',(-13.250000000000004,4.899999999999998,13.0));
#477=DIRECTION('',(1.0,0.0,0.0));
#478=VECTOR('',#477,26.500000000000004);
#479=LINE('',#476,#478);
#480=EDGE_CURVE('',#448,#475,#479,.T.);
#481=ORIENTED_EDGE('',*,*,#480,.T.);
#482=CARTESIAN_POINT('',(13.25,4.900000000000004,0.0));
#483=DIRECTION('',(0.0,0.0,1.0));
#484=VECTOR('',#483,13.0);
#485=LINE('',#482,#484);
#486=EDGE_CURVE('',#348,#475,#485,.T.);
#487=ORIENTED_EDGE('',*,*,#486,.F.);
#488=ORIENTED_EDGE('',*,*,#353,.T.);
#489=ORIENTED_EDGE('',*,*,#321,.T.);
#490=ORIENTED_EDGE('',*,*,#274,.T.);
#491=EDGE_LOOP('',(#471,#472,#473,#481,#487,#488,#489,#490));
#492=FACE_OUTER_BOUND('',#491,.T.);
#493=ADVANCED_FACE('',(#492),#470,.T.);
#494=CARTESIAN_POINT('',(13.25,4.900000000000004,0.0));
#495=DIRECTION('',(1.0,0.0,0.0));
#496=DIRECTION('',(0.0,0.0,-1.0));
#497=AXIS2_PLACEMENT_3D('',#494,#495,#496);
#498=PLANE('',#497);
#499=CARTESIAN_POINT('',(13.249999999999998,4.900000000000004,13.0));
#500=DIRECTION('',(0.0,-1.0,0.0));
#501=VECTOR('',#500,9.800000000000001);
#502=LINE('',#499,#501);
#503=EDGE_CURVE('',#475,#413,#502,.T.);
#504=ORIENTED_EDGE('',*,*,#503,.T.);
#505=ORIENTED_EDGE('',*,*,#418,.F.);
#506=ORIENTED_EDGE('',*,*,#361,.T.);
#507=ORIENTED_EDGE('',*,*,#486,.T.);
#508=EDGE_LOOP('',(#504,#505,#506,#507));
#509=FACE_OUTER_BOUND('',#508,.T.);
#510=ADVANCED_FACE('',(#509),#498,.T.);
#511=CARTESIAN_POINT('',(-8.881784E-016,2.220446E-016,13.0));
#512=DIRECTION('',(0.0,0.0,1.0));
#513=DIRECTION('',(1.0,0.0,0.0));
#514=AXIS2_PLACEMENT_3D('',#511,#512,#513);
#515=PLANE('',#514);
#516=ORIENTED_EDGE('',*,*,#453,.F.);
#517=ORIENTED_EDGE('',*,*,#426,.F.);
#518=ORIENTED_EDGE('',*,*,#503,.F.);
#519=ORIENTED_EDGE('',*,*,#480,.F.);
#520=EDGE_LOOP('',(#516,#517,#518,#519));
#521=FACE_OUTER_BOUND('',#520,.T.);
#522=ADVANCED_FACE('',(#521),#515,.T.);
#523=CLOSED_SHELL('',(#204,#228,#238,#278,#309,#340,#371,#402,#441,#465,#493,#510,#522));
#524=MANIFOLD_SOLID_BREP('14DE',#523);
#525=COLOUR_RGB('250',0.33,0.33,0.33);
#526=SURFACE_STYLE_USAGE(.BOTH.,#527);
#527=SURFACE_SIDE_STYLE('NONE',(#528));
#528=SURFACE_STYLE_FILL_AREA(#529);
#529=FILL_AREA_STYLE('NONE',(#530));
#530=FILL_AREA_STYLE_COLOUR('NONE',#525);
#531=PRESENTATION_STYLE_ASSIGNMENT((#526));
#532=STYLED_ITEM('NONE',(#531),#524);
#533=CARTESIAN_POINT('',(8.869999999999997,1.750000000000002,0.5));
#534=CARTESIAN_POINT('',(9.369999999999997,1.750000000000003,0.5));
#535=CARTESIAN_POINT('',(8.869999999999997,2.050000000000003,0.5));
#536=CARTESIAN_POINT('',(9.369999999999997,2.050000000000003,0.5));
#537=B_SPLINE_SURFACE_WITH_KNOTS('',1,1,((#533,#535),(#534,#536)),.UNSPECIFIED.,.F.,.F.,.U.,(2,2),(2,2),(0.0,0.5),(0.0,0.3),.UNSPECIFIED.);
#538=CARTESIAN_POINT('',(9.369999999999997,2.050000000000003,0.5));
#539=VERTEX_POINT('',#538);
#540=CARTESIAN_POINT('',(9.369999999999997,1.750000000000002,0.5));
#541=VERTEX_POINT('',#540);
#542=CARTESIAN_POINT('',(9.369999999999997,2.050000000000003,0.5));
#543=DIRECTION('',(0.0,-1.0,0.0));
#544=VECTOR('',#543,0.3);
#545=LINE('',#542,#544);
#546=EDGE_CURVE('',#539,#541,#545,.T.);
#547=ORIENTED_EDGE('',*,*,#546,.F.);
#548=CARTESIAN_POINT('',(8.869999999999997,2.050000000000002,0.5));
#549=VERTEX_POINT('',#548);
#550=CARTESIAN_POINT('',(8.869999999999997,2.050000000000003,0.5));
#551=DIRECTION('',(1.0,0.0,0.0));
#552=VECTOR('',#551,0.5);
#553=LINE('',#550,#552);
#554=EDGE_CURVE('',#549,#539,#553,.T.);
#555=ORIENTED_EDGE('',*,*,#554,.F.);
#556=CARTESIAN_POINT('',(8.869999999999997,1.750000000000002,0.5));
#557=VERTEX_POINT('',#556);
#558=CARTESIAN_POINT('',(8.869999999999997,1.750000000000003,0.5));
#559=DIRECTION('',(0.0,1.0,0.0));
#560=VECTOR('',#559,0.3);
#561=LINE('',#558,#560);
#562=EDGE_CURVE('',#557,#549,#561,.T.);
#563=ORIENTED_EDGE('',*,*,#562,.F.);
#564=CARTESIAN_POINT('',(9.369999999999997,1.750000000000002,0.5));
#565=DIRECTION('',(-1.0,0.0,0.0));
#566=VECTOR('',#565,0.5);
#567=LINE('',#564,#566);
#568=EDGE_CURVE('',#541,#557,#567,.T.);
#569=ORIENTED_EDGE('',*,*,#568,.F.);
#570=EDGE_LOOP('',(#547,#555,#563,#569));
#571=FACE_OUTER_BOUND('',#570,.T.);
#572=ADVANCED_FACE('',(#571),#537,.T.);
#573=CARTESIAN_POINT('',(8.869999999999997,1.750000000000002,-3.2));
#574=CARTESIAN_POINT('',(9.369999999999997,1.750000000000003,-3.2));
#575=CARTESIAN_POINT('',(8.869999999999997,2.050000000000003,-3.2));
#576=CARTESIAN_POINT('',(9.369999999999997,2.050000000000003,-3.2));
#577=B_SPLINE_SURFACE_WITH_KNOTS('',1,1,((#573,#575),(#574,#576)),.UNSPECIFIED.,.F.,.F.,.U.,(2,2),(2,2),(0.0,0.5),(0.0,0.3),.UNSPECIFIED.);
#578=CARTESIAN_POINT('',(9.369999999999997,1.750000000000002,-3.2));
#579=VERTEX_POINT('',#578);
#580=CARTESIAN_POINT('',(9.369999999999997,2.050000000000003,-3.2));
#581=VERTEX_POINT('',#580);
#582=CARTESIAN_POINT('',(9.369999999999997,1.750000000000003,-3.2));
#583=DIRECTION('',(0.0,1.0,0.0));
#584=VECTOR('',#583,0.3);
#585=LINE('',#582,#584);
#586=EDGE_CURVE('',#579,#581,#585,.T.);
#587=ORIENTED_EDGE('',*,*,#586,.F.);
#588=CARTESIAN_POINT('',(8.869999999999997,1.750000000000002,-3.2));
#589=VERTEX_POINT('',#588);
#590=CARTESIAN_POINT('',(8.869999999999997,1.750000000000002,-3.2));
#591=DIRECTION('',(1.0,0.0,0.0));
#592=VECTOR('',#591,0.5);
#593=LINE('',#590,#592);
#594=EDGE_CURVE('',#589,#579,#593,.T.);
#595=ORIENTED_EDGE('',*,*,#594,.F.);
#596=CARTESIAN_POINT('',(8.869999999999997,2.050000000000002,-3.2));
#597=VERTEX_POINT('',#596);
#598=CARTESIAN_POINT('',(8.869999999999997,2.050000000000003,-3.2));
#599=DIRECTION('',(0.0,-1.0,0.0));
#600=VECTOR('',#599,0.3);
#601=LINE('',#598,#600);
#602=EDGE_CURVE('',#597,#589,#601,.T.);
#603=ORIENTED_EDGE('',*,*,#602,.F.);
#604=CARTESIAN_POINT('',(9.369999999999997,2.050000000000003,-3.2));
#605=DIRECTION('',(-1.0,0.0,0.0));
#606=VECTOR('',#605,0.5);
#607=LINE('',#604,#606);
#608=EDGE_CURVE('',#581,#597,#607,.T.);
#609=ORIENTED_EDGE('',*,*,#608,.F.);
#610=EDGE_LOOP('',(#587,#595,#603,#609));
#611=FACE_OUTER_BOUND('',#610,.T.);
#612=ADVANCED_FACE('',(#611),#577,.F.);
#613=CARTESIAN_POINT('',(9.369999999999997,2.050000000000003,-3.2));
#614=CARTESIAN_POINT('',(9.369999999999997,2.050000000000003,0.5));
#615=CARTESIAN_POINT('',(8.869999999999997,2.050000000000003,-3.2));
#616=CARTESIAN_POINT('',(8.869999999999997,2.050000000000003,0.5));
#617=B_SPLINE_SURFACE_WITH_KNOTS('',1,1,((#613,#615),(#614,#616)),.UNSPECIFIED.,.F.,.F.,.U.,(2,2),(2,2),(0.0,3.7),(0.0,0.5),.UNSPECIFIED.);
#618=CARTESIAN_POINT('',(8.869999999999997,2.050000000000002,0.5));
#619=DIRECTION('',(0.0,0.0,-1.0));
#620=VECTOR('',#619,3.7);
#621=LINE('',#618,#620);
#622=EDGE_CURVE('',#549,#597,#621,.T.);
#623=ORIENTED_EDGE('',*,*,#622,.F.);
#624=ORIENTED_EDGE('',*,*,#554,.T.);
#625=CARTESIAN_POINT('',(9.369999999999997,2.050000000000003,0.5));
#626=DIRECTION('',(0.0,0.0,-1.0));
#627=VECTOR('',#626,3.7);
#628=LINE('',#625,#627);
#629=EDGE_CURVE('',#539,#581,#628,.T.);
#630=ORIENTED_EDGE('',*,*,#629,.T.);
#631=ORIENTED_EDGE('',*,*,#608,.T.);
#632=EDGE_LOOP('',(#623,#624,#630,#631));
#633=FACE_OUTER_BOUND('',#632,.T.);
#634=ADVANCED_FACE('',(#633),#617,.F.);
#635=CARTESIAN_POINT('',(8.869999999999997,1.750000000000002,0.5));
#636=CARTESIAN_POINT('',(8.869999999999997,1.750000000000002,-3.2));
#637=CARTESIAN_POINT('',(8.869999999999997,2.050000000000003,0.5));
#638=CARTESIAN_POINT('',(8.869999999999997,2.050000000000003,-3.2));
#639=B_SPLINE_SURFACE_WITH_KNOTS('',1,1,((#635,#637),(#636,#638)),.UNSPECIFIED.,.F.,.F.,.U.,(2,2),(2,2),(0.0,3.7),(0.0,0.3),.UNSPECIFIED.);
#640=CARTESIAN_POINT('',(8.869999999999997,1.750000000000002,0.5));
#641=DIRECTION('',(0.0,0.0,-1.0));
#642=VECTOR('',#641,3.7);
#643=LINE('',#640,#642);
#644=EDGE_CURVE('',#557,#589,#643,.T.);
#645=ORIENTED_EDGE('',*,*,#644,.F.);
#646=ORIENTED_EDGE('',*,*,#562,.T.);
#647=ORIENTED_EDGE('',*,*,#622,.T.);
#648=ORIENTED_EDGE('',*,*,#602,.T.);
#649=EDGE_LOOP('',(#645,#646,#647,#648));
#650=FACE_OUTER_BOUND('',#649,.T.);
#651=ADVANCED_FACE('',(#650),#639,.F.);
#652=CARTESIAN_POINT('',(9.369999999999997,1.750000000000002,0.5));
#653=CARTESIAN_POINT('',(9.369999999999997,1.750000000000002,-3.2));
#654=CARTESIAN_POINT('',(8.869999999999997,1.750000000000002,0.5));
#655=CARTESIAN_POINT('',(8.869999999999997,1.750000000000002,-3.2));
#656=B_SPLINE_SURFACE_WITH_KNOTS('',1,1,((#652,#654),(#653,#655)),.UNSPECIFIED.,.F.,.F.,.U.,(2,2),(2,2),(0.0,3.7),(0.0,0.5),.UNSPECIFIED.);
#657=CARTESIAN_POINT('',(9.369999999999997,1.750000000000002,0.5));
#658=DIRECTION('',(0.0,0.0,-1.0));
#659=VECTOR('',#658,3.7);
#660=LINE('',#657,#659);
#661=EDGE_CURVE('',#541,#579,#660,.T.);
#662=ORIENTED_EDGE('',*,*,#661,.F.);
#663=ORIENTED_EDGE('',*,*,#568,.T.);
#664=ORIENTED_EDGE('',*,*,#644,.T.);
#665=ORIENTED_EDGE('',*,*,#594,.T.);
#666=EDGE_LOOP('',(#662,#663,#664,#665));
#667=FACE_OUTER_BOUND('',#666,.T.);
#668=ADVANCED_FACE('',(#667),#656,.F.);
#669=CARTESIAN_POINT('',(9.369999999999997,1.750000000000002,-3.2));
#670=CARTESIAN_POINT('',(9.369999999999997,1.750000000000002,0.5));
#671=CARTESIAN_POINT('',(9.369999999999997,2.050000000000003,-3.2));
#672=CARTESIAN_POINT('',(9.369999999999997,2.050000000000003,0.5));
#673=B_SPLINE_SURFACE_WITH_KNOTS('',1,1,((#669,#671),(#670,#672)),.UNSPECIFIED.,.F.,.F.,.U.,(2,2),(2,2),(0.0,3.7),(0.0,0.3),.UNSPECIFIED.);
#674=ORIENTED_EDGE('',*,*,#629,.F.);
#675=ORIENTED_EDGE('',*,*,#546,.T.);
#676=ORIENTED_EDGE('',*,*,#661,.T.);
#677=ORIENTED_EDGE('',*,*,#586,.T.);
#678=EDGE_LOOP('',(#674,#675,#676,#677));
#679=FACE_OUTER_BOUND('',#678,.T.);
#680=ADVANCED_FACE('',(#679),#673,.F.);
#681=CLOSED_SHELL('',(#572,#612,#634,#651,#668,#680));
#682=MANIFOLD_SOLID_BREP('14C7',#681);
#683=COLOUR_RGB('254',0.866,0.866,0.866);
#684=SURFACE_STYLE_USAGE(.BOTH.,#685);
#685=SURFACE_SIDE_STYLE('NONE',(#686));
#686=SURFACE_STYLE_FILL_AREA(#687);
#687=FILL_AREA_STYLE('NONE',(#688));
#688=FILL_AREA_STYLE_COLOUR('NONE',#683);
#689=PRESENTATION_STYLE_ASSIGNMENT((#684));
#690=STYLED_ITEM('NONE',(#689),#682);
#691=CARTESIAN_POINT('',(6.329999999999997,1.750000000000001,0.5));
#692=CARTESIAN_POINT('',(6.829999999999998,1.750000000000002,0.5));
#693=CARTESIAN_POINT('',(6.329999999999997,2.050000000000003,0.5));
#694=CARTESIAN_POINT('',(6.829999999999999,2.050000000000003,0.5));
#695=B_SPLINE_SURFACE_WITH_KNOTS('',1,1,((#691,#693),(#692,#694)),.UNSPECIFIED.,.F.,.F.,.U.,(2,2),(2,2),(0.0,0.500000000000001),(0.0,0.300000000000001),.UNSPECIFIED.);
#696=CARTESIAN_POINT('',(6.829999999999998,2.050000000000002,0.5));
#697=VERTEX_POINT('',#696);
#698=CARTESIAN_POINT('',(6.829999999999998,1.750000000000002,0.5));
#699=VERTEX_POINT('',#698);
#700=CARTESIAN_POINT('',(6.829999999999998,2.050000000000002,0.5));
#701=DIRECTION('',(0.0,-1.0,0.0));
#702=VECTOR('',#701,0.3);
#703=LINE('',#700,#702);
#704=EDGE_CURVE('',#697,#699,#703,.T.);
#705=ORIENTED_EDGE('',*,*,#704,.F.);
#706=CARTESIAN_POINT('',(6.329999999999998,2.050000000000002,0.5));
#707=VERTEX_POINT('',#706);
#708=CARTESIAN_POINT('',(6.329999999999998,2.050000000000002,0.5));
#709=DIRECTION('',(1.0,0.0,0.0));
#710=VECTOR('',#709,0.5);
#711=LINE('',#708,#710);
#712=EDGE_CURVE('',#707,#697,#711,.T.);
#713=ORIENTED_EDGE('',*,*,#712,.F.);
#714=CARTESIAN_POINT('',(6.329999999999998,1.750000000000002,0.5));
#715=VERTEX_POINT('',#714);
#716=CARTESIAN_POINT('',(6.329999999999998,1.750000000000002,0.5));
#717=DIRECTION('',(0.0,1.0,0.0));
#718=VECTOR('',#717,0.3);
#719=LINE('',#716,#718);
#720=EDGE_CURVE('',#715,#707,#719,.T.);
#721=ORIENTED_EDGE('',*,*,#720,.F.);
#722=CARTESIAN_POINT('',(6.829999999999998,1.750000000000002,0.5));
#723=DIRECTION('',(-1.0,0.0,0.0));
#724=VECTOR('',#723,0.5);
#725=LINE('',#722,#724);
#726=EDGE_CURVE('',#699,#715,#725,.T.);
#727=ORIENTED_EDGE('',*,*,#726,.F.);
#728=EDGE_LOOP('',(#705,#713,#721,#727));
#729=FACE_OUTER_BOUND('',#728,.T.);
#730=ADVANCED_FACE('',(#729),#695,.T.);
#731=CARTESIAN_POINT('',(6.329999999999997,1.750000000000001,-3.2));
#732=CARTESIAN_POINT('',(6.829999999999998,1.750000000000002,-3.2));
#733=CARTESIAN_POINT('',(6.329999999999997,2.050000000000003,-3.2));
#734=CARTESIAN_POINT('',(6.829999999999999,2.050000000000003,-3.2));
#735=B_SPLINE_SURFACE_WITH_KNOTS('',1,1,((#731,#733),(#732,#734)),.UNSPECIFIED.,.F.,.F.,.U.,(2,2),(2,2),(0.0,0.500000000000001),(0.0,0.300000000000001),.UNSPECIFIED.);
#736=CARTESIAN_POINT('',(6.829999999999998,1.750000000000002,-3.2));
#737=VERTEX_POINT('',#736);
#738=CARTESIAN_POINT('',(6.829999999999998,2.050000000000002,-3.2));
#739=VERTEX_POINT('',#738);
#740=CARTESIAN_POINT('',(6.829999999999998,1.750000000000002,-3.2));
#741=DIRECTION('',(0.0,1.0,0.0));
#742=VECTOR('',#741,0.3);
#743=LINE('',#740,#742);
#744=EDGE_CURVE('',#737,#739,#743,.T.);
#745=ORIENTED_EDGE('',*,*,#744,.F.);
#746=CARTESIAN_POINT('',(6.329999999999998,1.750000000000002,-3.2));
#747=VERTEX_POINT('',#746);
#748=CARTESIAN_POINT('',(6.329999999999998,1.750000000000002,-3.2));
#749=DIRECTION('',(1.0,0.0,0.0));
#750=VECTOR('',#749,0.5);
#751=LINE('',#748,#750);
#752=EDGE_CURVE('',#747,#737,#751,.T.);
#753=ORIENTED_EDGE('',*,*,#752,.F.);
#754=CARTESIAN_POINT('',(6.329999999999998,2.050000000000002,-3.2));
#755=VERTEX_POINT('',#754);
#756=CARTESIAN_POINT('',(6.329999999999998,2.050000000000002,-3.2));
#757=DIRECTION('',(0.0,-1.0,0.0));
#758=VECTOR('',#757,0.3);
#759=LINE('',#756,#758);
#760=EDGE_CURVE('',#755,#747,#759,.T.);
#761=ORIENTED_EDGE('',*,*,#760,.F.);
#762=CARTESIAN_POINT('',(6.829999999999998,2.050000000000002,-3.2));
#763=DIRECTION('',(-1.0,0.0,0.0));
#764=VECTOR('',#763,0.5);
#765=LINE('',#762,#764);
#766=EDGE_CURVE('',#739,#755,#765,.T.);
#767=ORIENTED_EDGE('',*,*,#766,.F.);
#768=EDGE_LOOP('',(#745,#753,#761,#767));
#769=FACE_OUTER_BOUND('',#768,.T.);
#770=ADVANCED_FACE('',(#769),#735,.F.);
#771=CARTESIAN_POINT('',(6.829999999999998,2.050000000000002,-3.2));
#772=CARTESIAN_POINT('',(6.829999999999998,2.050000000000002,0.5));
#773=CARTESIAN_POINT('',(6.329999999999998,2.050000000000002,-3.2));
#774=CARTESIAN_POINT('',(6.329999999999998,2.050000000000002,0.5));
#775=B_SPLINE_SURFACE_WITH_KNOTS('',1,1,((#771,#773),(#772,#774)),.UNSPECIFIED.,.F.,.F.,.U.,(2,2),(2,2),(0.0,3.7),(0.0,0.5),.UNSPECIFIED.);
#776=CARTESIAN_POINT('',(6.329999999999998,2.050000000000002,0.5));
#777=DIRECTION('',(0.0,0.0,-1.0));
#778=VECTOR('',#777,3.7);
#779=LINE('',#776,#778);
#780=EDGE_CURVE('',#707,#755,#779,.T.);
#781=ORIENTED_EDGE('',*,*,#780,.F.);
#782=ORIENTED_EDGE('',*,*,#712,.T.);
#783=CARTESIAN_POINT('',(6.829999999999998,2.050000000000002,0.5));
#784=DIRECTION('',(0.0,0.0,-1.0));
#785=VECTOR('',#784,3.7);
#786=LINE('',#783,#785);
#787=EDGE_CURVE('',#697,#739,#786,.T.);
#788=ORIENTED_EDGE('',*,*,#787,.T.);
#789=ORIENTED_EDGE('',*,*,#766,.T.);
#790=EDGE_LOOP('',(#781,#782,#788,#789));
#791=FACE_OUTER_BOUND('',#790,.T.);
#792=ADVANCED_FACE('',(#791),#775,.F.);
#793=CARTESIAN_POINT('',(6.329999999999998,1.750000000000002,0.5));
#794=CARTESIAN_POINT('',(6.329999999999998,1.750000000000002,-3.2));
#795=CARTESIAN_POINT('',(6.329999999999998,2.050000000000003,0.5));
#796=CARTESIAN_POINT('',(6.329999999999998,2.050000000000003,-3.2));
#797=B_SPLINE_SURFACE_WITH_KNOTS('',1,1,((#793,#795),(#794,#796)),.UNSPECIFIED.,.F.,.F.,.U.,(2,2),(2,2),(0.0,3.7),(0.0,0.300000000000001),.UNSPECIFIED.);
#798=CARTESIAN_POINT('',(6.329999999999998,1.750000000000002,0.5));
#799=DIRECTION('',(0.0,0.0,-1.0));
#800=VECTOR('',#799,3.7);
#801=LINE('',#798,#800);
#802=EDGE_CURVE('',#715,#747,#801,.T.);
#803=ORIENTED_EDGE('',*,*,#802,.F.);
#804=ORIENTED_EDGE('',*,*,#720,.T.);
#805=ORIENTED_EDGE('',*,*,#780,.T.);
#806=ORIENTED_EDGE('',*,*,#760,.T.);
#807=EDGE_LOOP('',(#803,#804,#805,#806));
#808=FACE_OUTER_BOUND('',#807,.T.);
#809=ADVANCED_FACE('',(#808),#797,.F.);
#810=CARTESIAN_POINT('',(6.829999999999998,1.750000000000002,0.5));
#811=CARTESIAN_POINT('',(6.829999999999998,1.750000000000002,-3.2));
#812=CARTESIAN_POINT('',(6.329999999999998,1.750000000000002,0.5));
#813=CARTESIAN_POINT('',(6.329999999999998,1.750000000000002,-3.2));
#814=B_SPLINE_SURFACE_WITH_KNOTS('',1,1,((#810,#812),(#811,#813)),.UNSPECIFIED.,.F.,.F.,.U.,(2,2),(2,2),(0.0,3.7),(0.0,0.5),.UNSPECIFIED.);
#815=CARTESIAN_POINT('',(6.829999999999998,1.750000000000002,0.5));
#816=DIRECTION('',(0.0,0.0,-1.0));
#817=VECTOR('',#816,3.7);
#818=LINE('',#815,#817);
#819=EDGE_CURVE('',#699,#737,#818,.T.);
#820=ORIENTED_EDGE('',*,*,#819,.F.);
#821=ORIENTED_EDGE('',*,*,#726,.T.);
#822=ORIENTED_EDGE('',*,*,#802,.T.);
#823=ORIENTED_EDGE('',*,*,#752,.T.);
#824=EDGE_LOOP('',(#820,#821,#822,#823));
#825=FACE_OUTER_BOUND('',#824,.T.);
#826=ADVANCED_FACE('',(#825),#814,.F.);
#827=CARTESIAN_POINT('',(6.829999999999998,1.750000000000002,-3.2));
#828=CARTESIAN_POINT('',(6.829999999999998,1.750000000000002,0.5));
#829=CARTESIAN_POINT('',(6.829999999999998,2.050000000000002,-3.2));
#830=CARTESIAN_POINT('',(6.829999999999998,2.050000000000003,0.5));
#831=B_SPLINE_SURFACE_WITH_KNOTS('',1,1,((#827,#829),(#828,#830)),.UNSPECIFIED.,.F.,.F.,.U.,(2,2),(2,2),(0.0,3.7),(0.0,0.3),.UNSPECIFIED.);
#832=ORIENTED_EDGE('',*,*,#787,.F.);
#833=ORIENTED_EDGE('',*,*,#704,.T.);
#834=ORIENTED_EDGE('',*,*,#819,.T.);
#835=ORIENTED_EDGE('',*,*,#744,.T.);
#836=EDGE_LOOP('',(#832,#833,#834,#835));
#837=FACE_OUTER_BOUND('',#836,.T.);
#838=ADVANCED_FACE('',(#837),#831,.F.);
#839=CLOSED_SHELL('',(#730,#770,#792,#809,#826,#838));
#840=MANIFOLD_SOLID_BREP('14C3',#839);
#841=STYLED_ITEM('NONE',(#689),#840);
#842=CARTESIAN_POINT('',(3.789999999999996,1.750000000000001,0.5));
#843=CARTESIAN_POINT('',(4.289999999999997,1.750000000000001,0.5));
#844=CARTESIAN_POINT('',(3.789999999999996,2.050000000000001,0.5));
#845=CARTESIAN_POINT('',(4.289999999999997,2.050000000000002,0.5));
#846=B_SPLINE_SURFACE_WITH_KNOTS('',1,1,((#842,#844),(#843,#845)),.UNSPECIFIED.,.F.,.F.,.U.,(2,2),(2,2),(0.0,0.500000000000001),(0.0,0.3),.UNSPECIFIED.);
#847=CARTESIAN_POINT('',(4.289999999999997,2.050000000000001,0.5));
#848=VERTEX_POINT('',#847);
#849=CARTESIAN_POINT('',(4.289999999999997,1.750000000000001,0.5));
#850=VERTEX_POINT('',#849);
#851=CARTESIAN_POINT('',(4.289999999999997,2.050000000000001,0.5));
#852=DIRECTION('',(0.0,-1.0,0.0));
#853=VECTOR('',#852,0.3);
#854=LINE('',#851,#853);
#855=EDGE_CURVE('',#848,#850,#854,.T.);
#856=ORIENTED_EDGE('',*,*,#855,.F.);
#857=CARTESIAN_POINT('',(3.789999999999997,2.050000000000001,0.5));
#858=VERTEX_POINT('',#857);
#859=CARTESIAN_POINT('',(3.789999999999997,2.050000000000001,0.5));
#860=DIRECTION('',(1.0,0.0,0.0));
#861=VECTOR('',#860,0.5);
#862=LINE('',#859,#861);
#863=EDGE_CURVE('',#858,#848,#862,.T.);
#864=ORIENTED_EDGE('',*,*,#863,.F.);
#865=CARTESIAN_POINT('',(3.789999999999997,1.750000000000001,0.5));
#866=VERTEX_POINT('',#865);
#867=CARTESIAN_POINT('',(3.789999999999997,1.750000000000001,0.5));
#868=DIRECTION('',(0.0,1.0,0.0));
#869=VECTOR('',#868,0.3);
#870=LINE('',#867,#869);
#871=EDGE_CURVE('',#866,#858,#870,.T.);
#872=ORIENTED_EDGE('',*,*,#871,.F.);
#873=CARTESIAN_POINT('',(4.289999999999997,1.750000000000001,0.5));
#874=DIRECTION('',(-1.0,0.0,0.0));
#875=VECTOR('',#874,0.5);
#876=LINE('',#873,#875);
#877=EDGE_CURVE('',#850,#866,#876,.T.);
#878=ORIENTED_EDGE('',*,*,#877,.F.);
#879=EDGE_LOOP('',(#856,#864,#872,#878));
#880=FACE_OUTER_BOUND('',#879,.T.);
#881=ADVANCED_FACE('',(#880),#846,.T.);
#882=CARTESIAN_POINT('',(3.789999999999996,1.750000000000001,-3.2));
#883=CARTESIAN_POINT('',(4.289999999999997,1.750000000000001,-3.2));
#884=CARTESIAN_POINT('',(3.789999999999996,2.050000000000001,-3.2));
#885=CARTESIAN_POINT('',(4.289999999999997,2.050000000000002,-3.2));
#886=B_SPLINE_SURFACE_WITH_KNOTS('',1,1,((#882,#884),(#883,#885)),.UNSPECIFIED.,.F.,.F.,.U.,(2,2),(2,2),(0.0,0.500000000000001),(0.0,0.3),.UNSPECIFIED.);
#887=CARTESIAN_POINT('',(4.289999999999997,1.750000000000001,-3.2));
#888=VERTEX_POINT('',#887);
#889=CARTESIAN_POINT('',(4.289999999999997,2.050000000000001,-3.2));
#890=VERTEX_POINT('',#889);
#891=CARTESIAN_POINT('',(4.289999999999997,1.750000000000001,-3.2));
#892=DIRECTION('',(0.0,1.0,0.0));
#893=VECTOR('',#892,0.3);
#894=LINE('',#891,#893);
#895=EDGE_CURVE('',#888,#890,#894,.T.);
#896=ORIENTED_EDGE('',*,*,#895,.F.);
#897=CARTESIAN_POINT('',(3.789999999999997,1.750000000000001,-3.2));
#898=VERTEX_POINT('',#897);
#899=CARTESIAN_POINT('',(3.789999999999997,1.750000000000001,-3.2));
#900=DIRECTION('',(1.0,0.0,0.0));
#901=VECTOR('',#900,0.5);
#902=LINE('',#899,#901);
#903=EDGE_CURVE('',#898,#888,#902,.T.);
#904=ORIENTED_EDGE('',*,*,#903,.F.);
#905=CARTESIAN_POINT('',(3.789999999999997,2.050000000000001,-3.2));
#906=VERTEX_POINT('',#905);
#907=CARTESIAN_POINT('',(3.789999999999997,2.050000000000001,-3.2));
#908=DIRECTION('',(0.0,-1.0,0.0));
#909=VECTOR('',#908,0.3);
#910=LINE('',#907,#909);
#911=EDGE_CURVE('',#906,#898,#910,.T.);
#912=ORIENTED_EDGE('',*,*,#911,.F.);
#913=CARTESIAN_POINT('',(4.289999999999997,2.050000000000001,-3.2));
#914=DIRECTION('',(-1.0,0.0,0.0));
#915=VECTOR('',#914,0.5);
#916=LINE('',#913,#915);
#917=EDGE_CURVE('',#890,#906,#916,.T.);
#918=ORIENTED_EDGE('',*,*,#917,.F.);
#919=EDGE_LOOP('',(#896,#904,#912,#918));
#920=FACE_OUTER_BOUND('',#919,.T.);
#921=ADVANCED_FACE('',(#920),#886,.F.);
#922=CARTESIAN_POINT('',(4.289999999999997,2.050000000000001,-3.2));
#923=CARTESIAN_POINT('',(4.289999999999997,2.050000000000001,0.5));
#924=CARTESIAN_POINT('',(3.789999999999996,2.050000000000001,-3.2));
#925=CARTESIAN_POINT('',(3.789999999999996,2.050000000000001,0.5));
#926=B_SPLINE_SURFACE_WITH_KNOTS('',1,1,((#922,#924),(#923,#925)),.UNSPECIFIED.,.F.,.F.,.U.,(2,2),(2,2),(0.0,3.7),(0.0,0.500000000000001),.UNSPECIFIED.);
#927=CARTESIAN_POINT('',(3.789999999999997,2.050000000000001,0.5));
#928=DIRECTION('',(0.0,0.0,-1.0));
#929=VECTOR('',#928,3.7);
#930=LINE('',#927,#929);
#931=EDGE_CURVE('',#858,#906,#930,.T.);
#932=ORIENTED_EDGE('',*,*,#931,.F.);
#933=ORIENTED_EDGE('',*,*,#863,.T.);
#934=CARTESIAN_POINT('',(4.289999999999997,2.050000000000001,0.5));
#935=DIRECTION('',(0.0,0.0,-1.0));
#936=VECTOR('',#935,3.7);
#937=LINE('',#934,#936);
#938=EDGE_CURVE('',#848,#890,#937,.T.);
#939=ORIENTED_EDGE('',*,*,#938,.T.);
#940=ORIENTED_EDGE('',*,*,#917,.T.);
#941=EDGE_LOOP('',(#932,#933,#939,#940));
#942=FACE_OUTER_BOUND('',#941,.T.);
#943=ADVANCED_FACE('',(#942),#926,.F.);
#944=CARTESIAN_POINT('',(3.789999999999997,1.750000000000001,0.5));
#945=CARTESIAN_POINT('',(3.789999999999997,1.750000000000001,-3.2));
#946=CARTESIAN_POINT('',(3.789999999999997,2.050000000000001,0.5));
#947=CARTESIAN_POINT('',(3.789999999999997,2.050000000000002,-3.2));
#948=B_SPLINE_SURFACE_WITH_KNOTS('',1,1,((#944,#946),(#945,#947)),.UNSPECIFIED.,.F.,.F.,.U.,(2,2),(2,2),(0.0,3.7),(0.0,0.3),.UNSPECIFIED.);
#949=CARTESIAN_POINT('',(3.789999999999997,1.750000000000001,0.5));
#950=DIRECTION('',(0.0,0.0,-1.0));
#951=VECTOR('',#950,3.7);
#952=LINE('',#949,#951);
#953=EDGE_CURVE('',#866,#898,#952,.T.);
#954=ORIENTED_EDGE('',*,*,#953,.F.);
#955=ORIENTED_EDGE('',*,*,#871,.T.);
#956=ORIENTED_EDGE('',*,*,#931,.T.);
#957=ORIENTED_EDGE('',*,*,#911,.T.);
#958=EDGE_LOOP('',(#954,#955,#956,#957));
#959=FACE_OUTER_BOUND('',#958,.T.);
#960=ADVANCED_FACE('',(#959),#948,.F.);
#961=CARTESIAN_POINT('',(4.289999999999997,1.750000000000001,0.5));
#962=CARTESIAN_POINT('',(4.289999999999997,1.750000000000001,-3.2));
#963=CARTESIAN_POINT('',(3.789999999999998,1.750000000000001,0.5));
#964=CARTESIAN_POINT('',(3.789999999999997,1.750000000000001,-3.2));
#965=B_SPLINE_SURFACE_WITH_KNOTS('',1,1,((#961,#963),(#962,#964)),.UNSPECIFIED.,.F.,.F.,.U.,(2,2),(2,2),(0.0,3.7),(0.0,0.5),.UNSPECIFIED.);
#966=CARTESIAN_POINT('',(4.289999999999997,1.750000000000001,0.5));
#967=DIRECTION('',(0.0,0.0,-1.0));
#968=VECTOR('',#967,3.7);
#969=LINE('',#966,#968);
#970=EDGE_CURVE('',#850,#888,#969,.T.);
#971=ORIENTED_EDGE('',*,*,#970,.F.);
#972=ORIENTED_EDGE('',*,*,#877,.T.);
#973=ORIENTED_EDGE('',*,*,#953,.T.);
#974=ORIENTED_EDGE('',*,*,#903,.T.);
#975=EDGE_LOOP('',(#971,#972,#973,#974));
#976=FACE_OUTER_BOUND('',#975,.T.);
#977=ADVANCED_FACE('',(#976),#965,.F.);
#978=CARTESIAN_POINT('',(4.289999999999997,1.750000000000001,-3.2));
#979=CARTESIAN_POINT('',(4.289999999999997,1.750000000000001,0.5));
#980=CARTESIAN_POINT('',(4.289999999999997,2.050000000000002,-3.2));
#981=CARTESIAN_POINT('',(4.289999999999997,2.050000000000002,0.5));
#982=B_SPLINE_SURFACE_WITH_KNOTS('',1,1,((#978,#980),(#979,#981)),.UNSPECIFIED.,.F.,.F.,.U.,(2,2),(2,2),(0.0,3.7),(0.0,0.3),.UNSPECIFIED.);
#983=ORIENTED_EDGE('',*,*,#938,.F.);
#984=ORIENTED_EDGE('',*,*,#855,.T.);
#985=ORIENTED_EDGE('',*,*,#970,.T.);
#986=ORIENTED_EDGE('',*,*,#895,.T.);
#987=EDGE_LOOP('',(#983,#984,#985,#986));
#988=FACE_OUTER_BOUND('',#987,.T.);
#989=ADVANCED_FACE('',(#988),#982,.F.);
#990=CLOSED_SHELL('',(#881,#921,#943,#960,#977,#989));
#991=MANIFOLD_SOLID_BREP('14BF',#990);
#992=STYLED_ITEM('NONE',(#689),#991);
#993=CARTESIAN_POINT('',(1.249999999999996,1.750000000000001,0.5));
#994=CARTESIAN_POINT('',(1.749999999999996,1.750000000000001,0.5));
#995=CARTESIAN_POINT('',(1.249999999999996,2.050000000000001,0.5));
#996=CARTESIAN_POINT('',(1.749999999999996,2.050000000000001,0.5));
#997=B_SPLINE_SURFACE_WITH_KNOTS('',1,1,((#993,#995),(#994,#996)),.UNSPECIFIED.,.F.,.F.,.U.,(2,2),(2,2),(0.0,0.5),(0.0,0.3),.UNSPECIFIED.);
#998=CARTESIAN_POINT('',(1.749999999999996,2.05,0.5));
#999=VERTEX_POINT('',#998);
#1000=CARTESIAN_POINT('',(1.749999999999996,1.750000000000001,0.5));
#1001=VERTEX_POINT('',#1000);
#1002=CARTESIAN_POINT('',(1.749999999999996,2.050000000000001,0.5));
#1003=DIRECTION('',(0.0,-1.0,0.0));
#1004=VECTOR('',#1003,0.3);
#1005=LINE('',#1002,#1004);
#1006=EDGE_CURVE('',#999,#1001,#1005,.T.);
#1007=ORIENTED_EDGE('',*,*,#1006,.F.);
#1008=CARTESIAN_POINT('',(1.249999999999996,2.05,0.5));
#1009=VERTEX_POINT('',#1008);
#1010=CARTESIAN_POINT('',(1.249999999999996,2.05,0.5));
#1011=DIRECTION('',(1.0,0.0,0.0));
#1012=VECTOR('',#1011,0.5);
#1013=LINE('',#1010,#1012);
#1014=EDGE_CURVE('',#1009,#999,#1013,.T.);
#1015=ORIENTED_EDGE('',*,*,#1014,.F.);
#1016=CARTESIAN_POINT('',(1.249999999999996,1.750000000000001,0.5));
#1017=VERTEX_POINT('',#1016);
#1018=CARTESIAN_POINT('',(1.249999999999996,1.750000000000001,0.5));
#1019=DIRECTION('',(0.0,1.0,0.0));
#1020=VECTOR('',#1019,0.3);
#1021=LINE('',#1018,#1020);
#1022=EDGE_CURVE('',#1017,#1009,#1021,.T.);
#1023=ORIENTED_EDGE('',*,*,#1022,.F.);
#1024=CARTESIAN_POINT('',(1.749999999999996,1.750000000000001,0.5));
#1025=DIRECTION('',(-1.0,0.0,0.0));
#1026=VECTOR('',#1025,0.5);
#1027=LINE('',#1024,#1026);
#1028=EDGE_CURVE('',#1001,#1017,#1027,.T.);
#1029=ORIENTED_EDGE('',*,*,#1028,.F.);
#1030=EDGE_LOOP('',(#1007,#1015,#1023,#1029));
#1031=FACE_OUTER_BOUND('',#1030,.T.);
#1032=ADVANCED_FACE('',(#1031),#997,.T.);
#1033=CARTESIAN_POINT('',(1.249999999999996,1.750000000000001,-3.2));
#1034=CARTESIAN_POINT('',(1.749999999999996,1.750000000000001,-3.2));
#1035=CARTESIAN_POINT('',(1.249999999999996,2.050000000000001,-3.2));
#1036=CARTESIAN_POINT('',(1.749999999999996,2.050000000000001,-3.2));
#1037=B_SPLINE_SURFACE_WITH_KNOTS('',1,1,((#1033,#1035),(#1034,#1036)),.UNSPECIFIED.,.F.,.F.,.U.,(2,2),(2,2),(0.0,0.5),(0.0,0.3),.UNSPECIFIED.);
#1038=CARTESIAN_POINT('',(1.749999999999996,1.750000000000001,-3.2));
#1039=VERTEX_POINT('',#1038);
#1040=CARTESIAN_POINT('',(1.749999999999996,2.05,-3.2));
#1041=VERTEX_POINT('',#1040);
#1042=CARTESIAN_POINT('',(1.749999999999996,1.750000000000001,-3.2));
#1043=DIRECTION('',(0.0,1.0,0.0));
#1044=VECTOR('',#1043,0.3);
#1045=LINE('',#1042,#1044);
#1046=EDGE_CURVE('',#1039,#1041,#1045,.T.);
#1047=ORIENTED_EDGE('',*,*,#1046,.F.);
#1048=CARTESIAN_POINT('',(1.249999999999996,1.750000000000001,-3.2));
#1049=VERTEX_POINT('',#1048);
#1050=CARTESIAN_POINT('',(1.249999999999996,1.750000000000001,-3.2));
#1051=DIRECTION('',(1.0,0.0,0.0));
#1052=VECTOR('',#1051,0.5);
#1053=LINE('',#1050,#1052);
#1054=EDGE_CURVE('',#1049,#1039,#1053,.T.);
#1055=ORIENTED_EDGE('',*,*,#1054,.F.);
#1056=CARTESIAN_POINT('',(1.249999999999996,2.05,-3.2));
#1057=VERTEX_POINT('',#1056);
#1058=CARTESIAN_POINT('',(1.249999999999996,2.050000000000001,-3.2));
#1059=DIRECTION('',(0.0,-1.0,0.0));
#1060=VECTOR('',#1059,0.3);
#1061=LINE('',#1058,#1060);
#1062=EDGE_CURVE('',#1057,#1049,#1061,.T.);
#1063=ORIENTED_EDGE('',*,*,#1062,.F.);
#1064=CARTESIAN_POINT('',(1.749999999999996,2.05,-3.2));
#1065=DIRECTION('',(-1.0,0.0,0.0));
#1066=VECTOR('',#1065,0.5);
#1067=LINE('',#1064,#1066);
#1068=EDGE_CURVE('',#1041,#1057,#1067,.T.);
#1069=ORIENTED_EDGE('',*,*,#1068,.F.);
#1070=EDGE_LOOP('',(#1047,#1055,#1063,#1069));
#1071=FACE_OUTER_BOUND('',#1070,.T.);
#1072=ADVANCED_FACE('',(#1071),#1037,.F.);
#1073=CARTESIAN_POINT('',(1.749999999999996,2.05,-3.2));
#1074=CARTESIAN_POINT('',(1.749999999999996,2.05,0.5));
#1075=CARTESIAN_POINT('',(1.249999999999996,2.05,-3.2));
#1076=CARTESIAN_POINT('',(1.249999999999996,2.05,0.5));
#1077=B_SPLINE_SURFACE_WITH_KNOTS('',1,1,((#1073,#1075),(#1074,#1076)),.UNSPECIFIED.,.F.,.F.,.U.,(2,2),(2,2),(0.0,3.7),(0.0,0.5),.UNSPECIFIED.);
#1078=CARTESIAN_POINT('',(1.249999999999996,2.05,0.5));
#1079=DIRECTION('',(0.0,0.0,-1.0));
#1080=VECTOR('',#1079,3.7);
#1081=LINE('',#1078,#1080);
#1082=EDGE_CURVE('',#1009,#1057,#1081,.T.);
#1083=ORIENTED_EDGE('',*,*,#1082,.F.);
#1084=ORIENTED_EDGE('',*,*,#1014,.T.);
#1085=CARTESIAN_POINT('',(1.749999999999996,2.05,0.5));
#1086=DIRECTION('',(0.0,0.0,-1.0));
#1087=VECTOR('',#1086,3.7);
#1088=LINE('',#1085,#1087);
#1089=EDGE_CURVE('',#999,#1041,#1088,.T.);
#1090=ORIENTED_EDGE('',*,*,#1089,.T.);
#1091=ORIENTED_EDGE('',*,*,#1068,.T.);
#1092=EDGE_LOOP('',(#1083,#1084,#1090,#1091));
#1093=FACE_OUTER_BOUND('',#1092,.T.);
#1094=ADVANCED_FACE('',(#1093),#1077,.F.);
#1095=CARTESIAN_POINT('',(1.249999999999996,1.750000000000001,0.5));
#1096=CARTESIAN_POINT('',(1.249999999999996,1.750000000000001,-3.2));
#1097=CARTESIAN_POINT('',(1.249999999999996,2.050000000000001,0.5));
#1098=CARTESIAN_POINT('',(1.249999999999996,2.050000000000001,-3.2));
#1099=B_SPLINE_SURFACE_WITH_KNOTS('',1,1,((#1095,#1097),(#1096,#1098)),.UNSPECIFIED.,.F.,.F.,.U.,(2,2),(2,2),(0.0,3.7),(0.0,0.3),.UNSPECIFIED.);
#1100=CARTESIAN_POINT('',(1.249999999999996,1.750000000000001,0.5));
#1101=DIRECTION('',(0.0,0.0,-1.0));
#1102=VECTOR('',#1101,3.7);
#1103=LINE('',#1100,#1102);
#1104=EDGE_CURVE('',#1017,#1049,#1103,.T.);
#1105=ORIENTED_EDGE('',*,*,#1104,.F.);
#1106=ORIENTED_EDGE('',*,*,#1022,.T.);
#1107=ORIENTED_EDGE('',*,*,#1082,.T.);
#1108=ORIENTED_EDGE('',*,*,#1062,.T.);
#1109=EDGE_LOOP('',(#1105,#1106,#1107,#1108));
#1110=FACE_OUTER_BOUND('',#1109,.T.);
#1111=ADVANCED_FACE('',(#1110),#1099,.F.);
#1112=CARTESIAN_POINT('',(1.749999999999996,1.750000000000001,0.5));
#1113=CARTESIAN_POINT('',(1.749999999999996,1.750000000000001,-3.2));
#1114=CARTESIAN_POINT('',(1.249999999999996,1.75,0.5));
#1115=CARTESIAN_POINT('',(1.249999999999996,1.75,-3.2));
#1116=B_SPLINE_SURFACE_WITH_KNOTS('',1,1,((#1112,#1114),(#1113,#1115)),.UNSPECIFIED.,.F.,.F.,.U.,(2,2),(2,2),(0.0,3.7),(0.0,0.5),.UNSPECIFIED.);
#1117=CARTESIAN_POINT('',(1.749999999999996,1.750000000000001,0.5));
#1118=DIRECTION('',(0.0,0.0,-1.0));
#1119=VECTOR('',#1118,3.7);
#1120=LINE('',#1117,#1119);
#1121=EDGE_CURVE('',#1001,#1039,#1120,.T.);
#1122=ORIENTED_EDGE('',*,*,#1121,.F.);
#1123=ORIENTED_EDGE('',*,*,#1028,.T.);
#1124=ORIENTED_EDGE('',*,*,#1104,.T.);
#1125=ORIENTED_EDGE('',*,*,#1054,.T.);
#1126=EDGE_LOOP('',(#1122,#1123,#1124,#1125));
#1127=FACE_OUTER_BOUND('',#1126,.T.);
#1128=ADVANCED_FACE('',(#1127),#1116,.F.);
#1129=CARTESIAN_POINT('',(1.749999999999996,1.750000000000001,-3.2));
#1130=CARTESIAN_POINT('',(1.749999999999996,1.750000000000001,0.5));
#1131=CARTESIAN_POINT('',(1.749999999999996,2.050000000000001,-3.2));
#1132=CARTESIAN_POINT('',(1.749999999999996,2.050000000000001,0.5));
#1133=B_SPLINE_SURFACE_WITH_KNOTS('',1,1,((#1129,#1131),(#1130,#1132)),.UNSPECIFIED.,.F.,.F.,.U.,(2,2),(2,2),(0.0,3.7),(0.0,0.3),.UNSPECIFIED.);
#1134=ORIENTED_EDGE('',*,*,#1089,.F.);
#1135=ORIENTED_EDGE('',*,*,#1006,.T.);
#1136=ORIENTED_EDGE('',*,*,#1121,.T.);
#1137=ORIENTED_EDGE('',*,*,#1046,.T.);
#1138=EDGE_LOOP('',(#1134,#1135,#1136,#1137));
#1139=FACE_OUTER_BOUND('',#1138,.T.);
#1140=ADVANCED_FACE('',(#1139),#1133,.F.);
#1141=CLOSED_SHELL('',(#1032,#1072,#1094,#1111,#1128,#1140));
#1142=MANIFOLD_SOLID_BREP('14BB',#1141);
#1143=STYLED_ITEM('NONE',(#689),#1142);
#1144=CARTESIAN_POINT('',(-6.370000000000005,1.749999999999998,0.5));
#1145=CARTESIAN_POINT('',(-5.870000000000004,1.749999999999998,0.5));
#1146=CARTESIAN_POINT('',(-6.370000000000005,2.049999999999999,0.5));
#1147=CARTESIAN_POINT('',(-5.870000000000005,2.049999999999999,0.5));
#1148=B_SPLINE_SURFACE_WITH_KNOTS('',1,1,((#1144,#1146),(#1145,#1147)),.UNSPECIFIED.,.F.,.F.,.U.,(2,2),(2,2),(0.0,0.500000000000001),(0.0,0.300000000000001),.UNSPECIFIED.);
#1149=CARTESIAN_POINT('',(-5.870000000000004,2.049999999999999,0.5));
#1150=VERTEX_POINT('',#1149);
#1151=CARTESIAN_POINT('',(-5.870000000000004,1.749999999999999,0.5));
#1152=VERTEX_POINT('',#1151);
#1153=CARTESIAN_POINT('',(-5.870000000000004,2.049999999999999,0.5));
#1154=DIRECTION('',(0.0,-1.0,0.0));
#1155=VECTOR('',#1154,0.3);
#1156=LINE('',#1153,#1155);
#1157=EDGE_CURVE('',#1150,#1152,#1156,.T.);
#1158=ORIENTED_EDGE('',*,*,#1157,.F.);
#1159=CARTESIAN_POINT('',(-6.370000000000004,2.049999999999999,0.5));
#1160=VERTEX_POINT('',#1159);
#1161=CARTESIAN_POINT('',(-6.370000000000004,2.049999999999999,0.5));
#1162=DIRECTION('',(1.0,0.0,0.0));
#1163=VECTOR('',#1162,0.5);
#1164=LINE('',#1161,#1163);
#1165=EDGE_CURVE('',#1160,#1150,#1164,.T.);
#1166=ORIENTED_EDGE('',*,*,#1165,.F.);
#1167=CARTESIAN_POINT('',(-6.370000000000004,1.749999999999998,0.5));
#1168=VERTEX_POINT('',#1167);
#1169=CARTESIAN_POINT('',(-6.370000000000004,1.749999999999999,0.5));
#1170=DIRECTION('',(0.0,1.0,0.0));
#1171=VECTOR('',#1170,0.3);
#1172=LINE('',#1169,#1171);
#1173=EDGE_CURVE('',#1168,#1160,#1172,.T.);
#1174=ORIENTED_EDGE('',*,*,#1173,.F.);
#1175=CARTESIAN_POINT('',(-5.870000000000004,1.749999999999999,0.5));
#1176=DIRECTION('',(-1.0,0.0,0.0));
#1177=VECTOR('',#1176,0.5);
#1178=LINE('',#1175,#1177);
#1179=EDGE_CURVE('',#1152,#1168,#1178,.T.);
#1180=ORIENTED_EDGE('',*,*,#1179,.F.);
#1181=EDGE_LOOP('',(#1158,#1166,#1174,#1180));
#1182=FACE_OUTER_BOUND('',#1181,.T.);
#1183=ADVANCED_FACE('',(#1182),#1148,.T.);
#1184=CARTESIAN_POINT('',(-6.370000000000005,1.749999999999998,-3.2));
#1185=CARTESIAN_POINT('',(-5.870000000000004,1.749999999999998,-3.2));
#1186=CARTESIAN_POINT('',(-6.370000000000005,2.049999999999999,-3.2));
#1187=CARTESIAN_POINT('',(-5.870000000000005,2.049999999999999,-3.2));
#1188=B_SPLINE_SURFACE_WITH_KNOTS('',1,1,((#1184,#1186),(#1185,#1187)),.UNSPECIFIED.,.F.,.F.,.U.,(2,2),(2,2),(0.0,0.500000000000001),(0.0,0.300000000000001),.UNSPECIFIED.);
#1189=CARTESIAN_POINT('',(-5.870000000000004,1.749999999999999,-3.2));
#1190=VERTEX_POINT('',#1189);
#1191=CARTESIAN_POINT('',(-5.870000000000004,2.049999999999999,-3.2));
#1192=VERTEX_POINT('',#1191);
#1193=CARTESIAN_POINT('',(-5.870000000000004,1.749999999999999,-3.2));
#1194=DIRECTION('',(0.0,1.0,0.0));
#1195=VECTOR('',#1194,0.3);
#1196=LINE('',#1193,#1195);
#1197=EDGE_CURVE('',#1190,#1192,#1196,.T.);
#1198=ORIENTED_EDGE('',*,*,#1197,.F.);
#1199=CARTESIAN_POINT('',(-6.370000000000004,1.749999999999998,-3.2));
#1200=VERTEX_POINT('',#1199);
#1201=CARTESIAN_POINT('',(-6.370000000000004,1.749999999999999,-3.2));
#1202=DIRECTION('',(1.0,0.0,0.0));
#1203=VECTOR('',#1202,0.5);
#1204=LINE('',#1201,#1203);
#1205=EDGE_CURVE('',#1200,#1190,#1204,.T.);
#1206=ORIENTED_EDGE('',*,*,#1205,.F.);
#1207=CARTESIAN_POINT('',(-6.370000000000004,2.049999999999999,-3.2));
#1208=VERTEX_POINT('',#1207);
#1209=CARTESIAN_POINT('',(-6.370000000000004,2.049999999999999,-3.2));
#1210=DIRECTION('',(0.0,-1.0,0.0));
#1211=VECTOR('',#1210,0.3);
#1212=LINE('',#1209,#1211);
#1213=EDGE_CURVE('',#1208,#1200,#1212,.T.);
#1214=ORIENTED_EDGE('',*,*,#1213,.F.);
#1215=CARTESIAN_POINT('',(-5.870000000000004,2.049999999999999,-3.2));
#1216=DIRECTION('',(-1.0,0.0,0.0));
#1217=VECTOR('',#1216,0.5);
#1218=LINE('',#1215,#1217);
#1219=EDGE_CURVE('',#1192,#1208,#1218,.T.);
#1220=ORIENTED_EDGE('',*,*,#1219,.F.);
#1221=EDGE_LOOP('',(#1198,#1206,#1214,#1220));
#1222=FACE_OUTER_BOUND('',#1221,.T.);
#1223=ADVANCED_FACE('',(#1222),#1188,.F.);
#1224=CARTESIAN_POINT('',(-5.870000000000004,2.049999999999999,-3.2));
#1225=CARTESIAN_POINT('',(-5.870000000000004,2.049999999999999,0.5));
#1226=CARTESIAN_POINT('',(-6.370000000000004,2.049999999999999,-3.2));
#1227=CARTESIAN_POINT('',(-6.370000000000004,2.049999999999999,0.5));
#1228=B_SPLINE_SURFACE_WITH_KNOTS('',1,1,((#1224,#1226),(#1225,#1227)),.UNSPECIFIED.,.F.,.F.,.U.,(2,2),(2,2),(0.0,3.7),(0.0,0.5),.UNSPECIFIED.);
#1229=CARTESIAN_POINT('',(-6.370000000000004,2.049999999999999,0.5));
#1230=DIRECTION('',(0.0,0.0,-1.0));
#1231=VECTOR('',#1230,3.7);
#1232=LINE('',#1229,#1231);
#1233=EDGE_CURVE('',#1160,#1208,#1232,.T.);
#1234=ORIENTED_EDGE('',*,*,#1233,.F.);
#1235=ORIENTED_EDGE('',*,*,#1165,.T.);
#1236=CARTESIAN_POINT('',(-5.870000000000004,2.049999999999999,0.5));
#1237=DIRECTION('',(0.0,0.0,-1.0));
#1238=VECTOR('',#1237,3.7);
#1239=LINE('',#1236,#1238);
#1240=EDGE_CURVE('',#1150,#1192,#1239,.T.);
#1241=ORIENTED_EDGE('',*,*,#1240,.T.);
#1242=ORIENTED_EDGE('',*,*,#1219,.T.);
#1243=EDGE_LOOP('',(#1234,#1235,#1241,#1242));
#1244=FACE_OUTER_BOUND('',#1243,.T.);
#1245=ADVANCED_FACE('',(#1244),#1228,.F.);
#1246=CARTESIAN_POINT('',(-6.370000000000004,1.749999999999998,0.5));
#1247=CARTESIAN_POINT('',(-6.370000000000004,1.749999999999998,-3.2));
#1248=CARTESIAN_POINT('',(-6.370000000000004,2.049999999999999,0.5));
#1249=CARTESIAN_POINT('',(-6.370000000000004,2.049999999999999,-3.2));
#1250=B_SPLINE_SURFACE_WITH_KNOTS('',1,1,((#1246,#1248),(#1247,#1249)),.UNSPECIFIED.,.F.,.F.,.U.,(2,2),(2,2),(0.0,3.7),(0.0,0.3),.UNSPECIFIED.);
#1251=CARTESIAN_POINT('',(-6.370000000000004,1.749999999999998,0.5));
#1252=DIRECTION('',(0.0,0.0,-1.0));
#1253=VECTOR('',#1252,3.7);
#1254=LINE('',#1251,#1253);
#1255=EDGE_CURVE('',#1168,#1200,#1254,.T.);
#1256=ORIENTED_EDGE('',*,*,#1255,.F.);
#1257=ORIENTED_EDGE('',*,*,#1173,.T.);
#1258=ORIENTED_EDGE('',*,*,#1233,.T.);
#1259=ORIENTED_EDGE('',*,*,#1213,.T.);
#1260=EDGE_LOOP('',(#1256,#1257,#1258,#1259));
#1261=FACE_OUTER_BOUND('',#1260,.T.);
#1262=ADVANCED_FACE('',(#1261),#1250,.F.);
#1263=CARTESIAN_POINT('',(-5.870000000000004,1.749999999999999,0.5));
#1264=CARTESIAN_POINT('',(-5.870000000000004,1.749999999999999,-3.2));
#1265=CARTESIAN_POINT('',(-6.370000000000004,1.749999999999999,0.5));
#1266=CARTESIAN_POINT('',(-6.370000000000004,1.749999999999998,-3.2));
#1267=B_SPLINE_SURFACE_WITH_KNOTS('',1,1,((#1263,#1265),(#1264,#1266)),.UNSPECIFIED.,.F.,.F.,.U.,(2,2),(2,2),(0.0,3.7),(0.0,0.5),.UNSPECIFIED.);
#1268=CARTESIAN_POINT('',(-5.870000000000004,1.749999999999999,0.5));
#1269=DIRECTION('',(0.0,0.0,-1.0));
#1270=VECTOR('',#1269,3.7);
#1271=LINE('',#1268,#1270);
#1272=EDGE_CURVE('',#1152,#1190,#1271,.T.);
#1273=ORIENTED_EDGE('',*,*,#1272,.F.);
#1274=ORIENTED_EDGE('',*,*,#1179,.T.);
#1275=ORIENTED_EDGE('',*,*,#1255,.T.);
#1276=ORIENTED_EDGE('',*,*,#1205,.T.);
#1277=EDGE_LOOP('',(#1273,#1274,#1275,#1276));
#1278=FACE_OUTER_BOUND('',#1277,.T.);
#1279=ADVANCED_FACE('',(#1278),#1267,.F.);
#1280=CARTESIAN_POINT('',(-5.870000000000004,1.749999999999999,-3.2));
#1281=CARTESIAN_POINT('',(-5.870000000000004,1.749999999999999,0.5));
#1282=CARTESIAN_POINT('',(-5.870000000000004,2.049999999999999,-3.2));
#1283=CARTESIAN_POINT('',(-5.870000000000004,2.049999999999999,0.5));
#1284=B_SPLINE_SURFACE_WITH_KNOTS('',1,1,((#1280,#1282),(#1281,#1283)),.UNSPECIFIED.,.F.,.F.,.U.,(2,2),(2,2),(0.0,3.7),(0.0,0.3),.UNSPECIFIED.);
#1285=ORIENTED_EDGE('',*,*,#1240,.F.);
#1286=ORIENTED_EDGE('',*,*,#1157,.T.);
#1287=ORIENTED_EDGE('',*,*,#1272,.T.);
#1288=ORIENTED_EDGE('',*,*,#1197,.T.);
#1289=EDGE_LOOP('',(#1285,#1286,#1287,#1288));
#1290=FACE_OUTER_BOUND('',#1289,.T.);
#1291=ADVANCED_FACE('',(#1290),#1284,.F.);
#1292=CLOSED_SHELL('',(#1183,#1223,#1245,#1262,#1279,#1291));
#1293=MANIFOLD_SOLID_BREP('14B7',#1292);
#1294=STYLED_ITEM('NONE',(#689),#1293);
#1295=CARTESIAN_POINT('',(-8.910000000000004,1.749999999999998,0.5));
#1296=CARTESIAN_POINT('',(-8.410000000000004,1.749999999999998,0.5));
#1297=CARTESIAN_POINT('',(-8.910000000000004,2.049999999999999,0.5));
#1298=CARTESIAN_POINT('',(-8.410000000000004,2.049999999999999,0.5));
#1299=B_SPLINE_SURFACE_WITH_KNOTS('',1,1,((#1295,#1297),(#1296,#1298)),.UNSPECIFIED.,.F.,.F.,.U.,(2,2),(2,2),(0.0,0.5),(0.0,0.300000000000001),.UNSPECIFIED.);
#1300=CARTESIAN_POINT('',(-8.410000000000004,2.049999999999999,0.5));
#1301=VERTEX_POINT('',#1300);
#1302=CARTESIAN_POINT('',(-8.410000000000004,1.749999999999998,0.5));
#1303=VERTEX_POINT('',#1302);
#1304=CARTESIAN_POINT('',(-8.410000000000004,2.049999999999998,0.5));
#1305=DIRECTION('',(0.0,-1.0,0.0));
#1306=VECTOR('',#1305,0.3);
#1307=LINE('',#1304,#1306);
#1308=EDGE_CURVE('',#1301,#1303,#1307,.T.);
#1309=ORIENTED_EDGE('',*,*,#1308,.F.);
#1310=CARTESIAN_POINT('',(-8.910000000000004,2.049999999999999,0.5));
#1311=VERTEX_POINT('',#1310);
#1312=CARTESIAN_POINT('',(-8.910000000000004,2.049999999999999,0.5));
#1313=DIRECTION('',(1.0,0.0,0.0));
#1314=VECTOR('',#1313,0.5);
#1315=LINE('',#1312,#1314);
#1316=EDGE_CURVE('',#1311,#1301,#1315,.T.);
#1317=ORIENTED_EDGE('',*,*,#1316,.F.);
#1318=CARTESIAN_POINT('',(-8.910000000000004,1.749999999999998,0.5));
#1319=VERTEX_POINT('',#1318);
#1320=CARTESIAN_POINT('',(-8.910000000000004,1.749999999999998,0.5));
#1321=DIRECTION('',(0.0,1.0,0.0));
#1322=VECTOR('',#1321,0.3);
#1323=LINE('',#1320,#1322);
#1324=EDGE_CURVE('',#1319,#1311,#1323,.T.);
#1325=ORIENTED_EDGE('',*,*,#1324,.F.);
#1326=CARTESIAN_POINT('',(-8.410000000000004,1.749999999999998,0.5));
#1327=DIRECTION('',(-1.0,0.0,0.0));
#1328=VECTOR('',#1327,0.5);
#1329=LINE('',#1326,#1328);
#1330=EDGE_CURVE('',#1303,#1319,#1329,.T.);
#1331=ORIENTED_EDGE('',*,*,#1330,.F.);
#1332=EDGE_LOOP('',(#1309,#1317,#1325,#1331));
#1333=FACE_OUTER_BOUND('',#1332,.T.);
#1334=ADVANCED_FACE('',(#1333),#1299,.T.);
#1335=CARTESIAN_POINT('',(-8.910000000000004,1.749999999999998,-3.2));
#1336=CARTESIAN_POINT('',(-8.410000000000004,1.749999999999998,-3.2));
#1337=CARTESIAN_POINT('',(-8.910000000000004,2.049999999999999,-3.2));
#1338=CARTESIAN_POINT('',(-8.410000000000004,2.049999999999999,-3.2));
#1339=B_SPLINE_SURFACE_WITH_KNOTS('',1,1,((#1335,#1337),(#1336,#1338)),.UNSPECIFIED.,.F.,.F.,.U.,(2,2),(2,2),(0.0,0.5),(0.0,0.300000000000001),.UNSPECIFIED.);
#1340=CARTESIAN_POINT('',(-8.410000000000004,1.749999999999998,-3.2));
#1341=VERTEX_POINT('',#1340);
#1342=CARTESIAN_POINT('',(-8.410000000000004,2.049999999999999,-3.2));
#1343=VERTEX_POINT('',#1342);
#1344=CARTESIAN_POINT('',(-8.410000000000004,1.749999999999998,-3.2));
#1345=DIRECTION('',(0.0,1.0,0.0));
#1346=VECTOR('',#1345,0.3);
#1347=LINE('',#1344,#1346);
#1348=EDGE_CURVE('',#1341,#1343,#1347,.T.);
#1349=ORIENTED_EDGE('',*,*,#1348,.F.);
#1350=CARTESIAN_POINT('',(-8.910000000000004,1.749999999999998,-3.2));
#1351=VERTEX_POINT('',#1350);
#1352=CARTESIAN_POINT('',(-8.910000000000004,1.749999999999998,-3.2));
#1353=DIRECTION('',(1.0,0.0,0.0));
#1354=VECTOR('',#1353,0.5);
#1355=LINE('',#1352,#1354);
#1356=EDGE_CURVE('',#1351,#1341,#1355,.T.);
#1357=ORIENTED_EDGE('',*,*,#1356,.F.);
#1358=CARTESIAN_POINT('',(-8.910000000000004,2.049999999999999,-3.2));
#1359=VERTEX_POINT('',#1358);
#1360=CARTESIAN_POINT('',(-8.910000000000004,2.049999999999998,-3.2));
#1361=DIRECTION('',(0.0,-1.0,0.0));
#1362=VECTOR('',#1361,0.3);
#1363=LINE('',#1360,#1362);
#1364=EDGE_CURVE('',#1359,#1351,#1363,.T.);
#1365=ORIENTED_EDGE('',*,*,#1364,.F.);
#1366=CARTESIAN_POINT('',(-8.410000000000004,2.049999999999999,-3.2));
#1367=DIRECTION('',(-1.0,0.0,0.0));
#1368=VECTOR('',#1367,0.5);
#1369=LINE('',#1366,#1368);
#1370=EDGE_CURVE('',#1343,#1359,#1369,.T.);
#1371=ORIENTED_EDGE('',*,*,#1370,.F.);
#1372=EDGE_LOOP('',(#1349,#1357,#1365,#1371));
#1373=FACE_OUTER_BOUND('',#1372,.T.);
#1374=ADVANCED_FACE('',(#1373),#1339,.F.);
#1375=CARTESIAN_POINT('',(-8.410000000000004,2.049999999999999,-3.2));
#1376=CARTESIAN_POINT('',(-8.410000000000004,2.049999999999999,0.5));
#1377=CARTESIAN_POINT('',(-8.910000000000004,2.049999999999999,-3.2));
#1378=CARTESIAN_POINT('',(-8.910000000000004,2.049999999999999,0.5));
#1379=B_SPLINE_SURFACE_WITH_KNOTS('',1,1,((#1375,#1377),(#1376,#1378)),.UNSPECIFIED.,.F.,.F.,.U.,(2,2),(2,2),(0.0,3.7),(0.0,0.5),.UNSPECIFIED.);
#1380=CARTESIAN_POINT('',(-8.910000000000004,2.049999999999999,0.5));
#1381=DIRECTION('',(0.0,0.0,-1.0));
#1382=VECTOR('',#1381,3.7);
#1383=LINE('',#1380,#1382);
#1384=EDGE_CURVE('',#1311,#1359,#1383,.T.);
#1385=ORIENTED_EDGE('',*,*,#1384,.F.);
#1386=ORIENTED_EDGE('',*,*,#1316,.T.);
#1387=CARTESIAN_POINT('',(-8.410000000000004,2.049999999999999,0.5));
#1388=DIRECTION('',(0.0,0.0,-1.0));
#1389=VECTOR('',#1388,3.7);
#1390=LINE('',#1387,#1389);
#1391=EDGE_CURVE('',#1301,#1343,#1390,.T.);
#1392=ORIENTED_EDGE('',*,*,#1391,.T.);
#1393=ORIENTED_EDGE('',*,*,#1370,.T.);
#1394=EDGE_LOOP('',(#1385,#1386,#1392,#1393));
#1395=FACE_OUTER_BOUND('',#1394,.T.);
#1396=ADVANCED_FACE('',(#1395),#1379,.F.);
#1397=CARTESIAN_POINT('',(-8.910000000000004,1.749999999999998,0.5));
#1398=CARTESIAN_POINT('',(-8.910000000000004,1.749999999999998,-3.2));
#1399=CARTESIAN_POINT('',(-8.910000000000004,2.049999999999999,0.5));
#1400=CARTESIAN_POINT('',(-8.910000000000004,2.049999999999998,-3.2));
#1401=B_SPLINE_SURFACE_WITH_KNOTS('',1,1,((#1397,#1399),(#1398,#1400)),.UNSPECIFIED.,.F.,.F.,.U.,(2,2),(2,2),(0.0,3.7),(0.0,0.3),.UNSPECIFIED.);
#1402=CARTESIAN_POINT('',(-8.910000000000004,1.749999999999998,0.5));
#1403=DIRECTION('',(0.0,0.0,-1.0));
#1404=VECTOR('',#1403,3.7);
#1405=LINE('',#1402,#1404);
#1406=EDGE_CURVE('',#1319,#1351,#1405,.T.);
#1407=ORIENTED_EDGE('',*,*,#1406,.F.);
#1408=ORIENTED_EDGE('',*,*,#1324,.T.);
#1409=ORIENTED_EDGE('',*,*,#1384,.T.);
#1410=ORIENTED_EDGE('',*,*,#1364,.T.);
#1411=EDGE_LOOP('',(#1407,#1408,#1409,#1410));
#1412=FACE_OUTER_BOUND('',#1411,.T.);
#1413=ADVANCED_FACE('',(#1412),#1401,.F.);
#1414=CARTESIAN_POINT('',(-8.410000000000004,1.749999999999998,0.5));
#1415=CARTESIAN_POINT('',(-8.410000000000004,1.749999999999998,-3.2));
#1416=CARTESIAN_POINT('',(-8.910000000000004,1.749999999999998,0.5));
#1417=CARTESIAN_POINT('',(-8.910000000000004,1.749999999999998,-3.2));
#1418=B_SPLINE_SURFACE_WITH_KNOTS('',1,1,((#1414,#1416),(#1415,#1417)),.UNSPECIFIED.,.F.,.F.,.U.,(2,2),(2,2),(0.0,3.7),(0.0,0.5),.UNSPECIFIED.);
#1419=CARTESIAN_POINT('',(-8.410000000000004,1.749999999999998,0.5));
#1420=DIRECTION('',(0.0,0.0,-1.0));
#1421=VECTOR('',#1420,3.7);
#1422=LINE('',#1419,#1421);
#1423=EDGE_CURVE('',#1303,#1341,#1422,.T.);
#1424=ORIENTED_EDGE('',*,*,#1423,.F.);
#1425=ORIENTED_EDGE('',*,*,#1330,.T.);
#1426=ORIENTED_EDGE('',*,*,#1406,.T.);
#1427=ORIENTED_EDGE('',*,*,#1356,.T.);
#1428=EDGE_LOOP('',(#1424,#1425,#1426,#1427));
#1429=FACE_OUTER_BOUND('',#1428,.T.);
#1430=ADVANCED_FACE('',(#1429),#1418,.F.);
#1431=CARTESIAN_POINT('',(-8.410000000000004,1.749999999999998,-3.2));
#1432=CARTESIAN_POINT('',(-8.410000000000004,1.749999999999998,0.5));
#1433=CARTESIAN_POINT('',(-8.410000000000004,2.049999999999999,-3.2));
#1434=CARTESIAN_POINT('',(-8.410000000000004,2.049999999999999,0.5));
#1435=B_SPLINE_SURFACE_WITH_KNOTS('',1,1,((#1431,#1433),(#1432,#1434)),.UNSPECIFIED.,.F.,.F.,.U.,(2,2),(2,2),(0.0,3.7),(0.0,0.300000000000001),.UNSPECIFIED.);
#1436=ORIENTED_EDGE('',*,*,#1391,.F.);
#1437=ORIENTED_EDGE('',*,*,#1308,.T.);
#1438=ORIENTED_EDGE('',*,*,#1423,.T.);
#1439=ORIENTED_EDGE('',*,*,#1348,.T.);
#1440=EDGE_LOOP('',(#1436,#1437,#1438,#1439));
#1441=FACE_OUTER_BOUND('',#1440,.T.);
#1442=ADVANCED_FACE('',(#1441),#1435,.F.);
#1443=CLOSED_SHELL('',(#1334,#1374,#1396,#1413,#1430,#1442));
#1444=MANIFOLD_SOLID_BREP('14B3',#1443);
#1445=STYLED_ITEM('NONE',(#689),#1444);
#1446=CARTESIAN_POINT('',(-11.450000000000003,1.749999999999998,0.5));
#1447=CARTESIAN_POINT('',(-10.950000000000003,1.749999999999998,0.5));
#1448=CARTESIAN_POINT('',(-11.450000000000003,2.049999999999998,0.5));
#1449=CARTESIAN_POINT('',(-10.950000000000003,2.049999999999998,0.5));
#1450=B_SPLINE_SURFACE_WITH_KNOTS('',1,1,((#1446,#1448),(#1447,#1449)),.UNSPECIFIED.,.F.,.F.,.U.,(2,2),(2,2),(0.0,0.5),(0.0,0.3),.UNSPECIFIED.);
#1451=CARTESIAN_POINT('',(-10.950000000000003,2.049999999999998,0.5));
#1452=VERTEX_POINT('',#1451);
#1453=CARTESIAN_POINT('',(-10.950000000000003,1.749999999999998,0.5));
#1454=VERTEX_POINT('',#1453);
#1455=CARTESIAN_POINT('',(-10.950000000000003,2.049999999999998,0.5));
#1456=DIRECTION('',(0.0,-1.0,0.0));
#1457=VECTOR('',#1456,0.3);
#1458=LINE('',#1455,#1457);
#1459=EDGE_CURVE('',#1452,#1454,#1458,.T.);
#1460=ORIENTED_EDGE('',*,*,#1459,.F.);
#1461=CARTESIAN_POINT('',(-11.450000000000003,2.049999999999998,0.5));
#1462=VERTEX_POINT('',#1461);
#1463=CARTESIAN_POINT('',(-11.450000000000003,2.049999999999998,0.5));
#1464=DIRECTION('',(1.0,0.0,0.0));
#1465=VECTOR('',#1464,0.5);
#1466=LINE('',#1463,#1465);
#1467=EDGE_CURVE('',#1462,#1452,#1466,.T.);
#1468=ORIENTED_EDGE('',*,*,#1467,.F.);
#1469=CARTESIAN_POINT('',(-11.450000000000003,1.749999999999998,0.5));
#1470=VERTEX_POINT('',#1469);
#1471=CARTESIAN_POINT('',(-11.450000000000003,1.749999999999998,0.5));
#1472=DIRECTION('',(0.0,1.0,0.0));
#1473=VECTOR('',#1472,0.3);
#1474=LINE('',#1471,#1473);
#1475=EDGE_CURVE('',#1470,#1462,#1474,.T.);
#1476=ORIENTED_EDGE('',*,*,#1475,.F.);
#1477=CARTESIAN_POINT('',(-10.950000000000003,1.749999999999998,0.5));
#1478=DIRECTION('',(-1.0,0.0,0.0));
#1479=VECTOR('',#1478,0.5);
#1480=LINE('',#1477,#1479);
#1481=EDGE_CURVE('',#1454,#1470,#1480,.T.);
#1482=ORIENTED_EDGE('',*,*,#1481,.F.);
#1483=EDGE_LOOP('',(#1460,#1468,#1476,#1482));
#1484=FACE_OUTER_BOUND('',#1483,.T.);
#1485=ADVANCED_FACE('',(#1484),#1450,.T.);
#1486=CARTESIAN_POINT('',(-11.450000000000003,1.749999999999998,-3.2));
#1487=CARTESIAN_POINT('',(-10.950000000000003,1.749999999999998,-3.2));
#1488=CARTESIAN_POINT('',(-11.450000000000003,2.049999999999998,-3.2));
#1489=CARTESIAN_POINT('',(-10.950000000000003,2.049999999999998,-3.2));
#1490=B_SPLINE_SURFACE_WITH_KNOTS('',1,1,((#1486,#1488),(#1487,#1489)),.UNSPECIFIED.,.F.,.F.,.U.,(2,2),(2,2),(0.0,0.5),(0.0,0.3),.UNSPECIFIED.);
#1491=CARTESIAN_POINT('',(-10.950000000000003,1.749999999999998,-3.2));
#1492=VERTEX_POINT('',#1491);
#1493=CARTESIAN_POINT('',(-10.950000000000003,2.049999999999998,-3.2));
#1494=VERTEX_POINT('',#1493);
#1495=CARTESIAN_POINT('',(-10.950000000000003,1.749999999999998,-3.2));
#1496=DIRECTION('',(0.0,1.0,0.0));
#1497=VECTOR('',#1496,0.3);
#1498=LINE('',#1495,#1497);
#1499=EDGE_CURVE('',#1492,#1494,#1498,.T.);
#1500=ORIENTED_EDGE('',*,*,#1499,.F.);
#1501=CARTESIAN_POINT('',(-11.450000000000003,1.749999999999998,-3.2));
#1502=VERTEX_POINT('',#1501);
#1503=CARTESIAN_POINT('',(-11.450000000000003,1.749999999999998,-3.2));
#1504=DIRECTION('',(1.0,0.0,0.0));
#1505=VECTOR('',#1504,0.5);
#1506=LINE('',#1503,#1505);
#1507=EDGE_CURVE('',#1502,#1492,#1506,.T.);
#1508=ORIENTED_EDGE('',*,*,#1507,.F.);
#1509=CARTESIAN_POINT('',(-11.450000000000003,2.049999999999998,-3.2));
#1510=VERTEX_POINT('',#1509);
#1511=CARTESIAN_POINT('',(-11.450000000000003,2.049999999999998,-3.2));
#1512=DIRECTION('',(0.0,-1.0,0.0));
#1513=VECTOR('',#1512,0.3);
#1514=LINE('',#1511,#1513);
#1515=EDGE_CURVE('',#1510,#1502,#1514,.T.);
#1516=ORIENTED_EDGE('',*,*,#1515,.F.);
#1517=CARTESIAN_POINT('',(-10.950000000000003,2.049999999999998,-3.2));
#1518=DIRECTION('',(-1.0,0.0,0.0));
#1519=VECTOR('',#1518,0.5);
#1520=LINE('',#1517,#1519);
#1521=EDGE_CURVE('',#1494,#1510,#1520,.T.);
#1522=ORIENTED_EDGE('',*,*,#1521,.F.);
#1523=EDGE_LOOP('',(#1500,#1508,#1516,#1522));
#1524=FACE_OUTER_BOUND('',#1523,.T.);
#1525=ADVANCED_FACE('',(#1524),#1490,.F.);
#1526=CARTESIAN_POINT('',(-10.950000000000003,2.049999999999998,-3.2));
#1527=CARTESIAN_POINT('',(-10.950000000000003,2.049999999999998,0.5));
#1528=CARTESIAN_POINT('',(-11.450000000000003,2.049999999999998,-3.2));
#1529=CARTESIAN_POINT('',(-11.450000000000003,2.049999999999998,0.5));
#1530=B_SPLINE_SURFACE_WITH_KNOTS('',1,1,((#1526,#1528),(#1527,#1529)),.UNSPECIFIED.,.F.,.F.,.U.,(2,2),(2,2),(0.0,3.7),(0.0,0.5),.UNSPECIFIED.);
#1531=CARTESIAN_POINT('',(-11.450000000000003,2.049999999999998,0.5));
#1532=DIRECTION('',(0.0,0.0,-1.0));
#1533=VECTOR('',#1532,3.7);
#1534=LINE('',#1531,#1533);
#1535=EDGE_CURVE('',#1462,#1510,#1534,.T.);
#1536=ORIENTED_EDGE('',*,*,#1535,.F.);
#1537=ORIENTED_EDGE('',*,*,#1467,.T.);
#1538=CARTESIAN_POINT('',(-10.950000000000003,2.049999999999998,0.5));
#1539=DIRECTION('',(0.0,0.0,-1.0));
#1540=VECTOR('',#1539,3.7);
#1541=LINE('',#1538,#1540);
#1542=EDGE_CURVE('',#1452,#1494,#1541,.T.);
#1543=ORIENTED_EDGE('',*,*,#1542,.T.);
#1544=ORIENTED_EDGE('',*,*,#1521,.T.);
#1545=EDGE_LOOP('',(#1536,#1537,#1543,#1544));
#1546=FACE_OUTER_BOUND('',#1545,.T.);
#1547=ADVANCED_FACE('',(#1546),#1530,.F.);
#1548=CARTESIAN_POINT('',(-11.450000000000003,1.749999999999998,0.5));
#1549=CARTESIAN_POINT('',(-11.450000000000003,1.749999999999998,-3.2));
#1550=CARTESIAN_POINT('',(-11.450000000000003,2.049999999999997,0.5));
#1551=CARTESIAN_POINT('',(-11.450000000000003,2.049999999999997,-3.2));
#1552=B_SPLINE_SURFACE_WITH_KNOTS('',1,1,((#1548,#1550),(#1549,#1551)),.UNSPECIFIED.,.F.,.F.,.U.,(2,2),(2,2),(0.0,3.7),(0.0,0.3),.UNSPECIFIED.);
#1553=CARTESIAN_POINT('',(-11.450000000000003,1.749999999999998,0.5));
#1554=DIRECTION('',(0.0,0.0,-1.0));
#1555=VECTOR('',#1554,3.7);
#1556=LINE('',#1553,#1555);
#1557=EDGE_CURVE('',#1470,#1502,#1556,.T.);
#1558=ORIENTED_EDGE('',*,*,#1557,.F.);
#1559=ORIENTED_EDGE('',*,*,#1475,.T.);
#1560=ORIENTED_EDGE('',*,*,#1535,.T.);
#1561=ORIENTED_EDGE('',*,*,#1515,.T.);
#1562=EDGE_LOOP('',(#1558,#1559,#1560,#1561));
#1563=FACE_OUTER_BOUND('',#1562,.T.);
#1564=ADVANCED_FACE('',(#1563),#1552,.F.);
#1565=CARTESIAN_POINT('',(-10.950000000000003,1.749999999999998,0.5));
#1566=CARTESIAN_POINT('',(-10.950000000000003,1.749999999999998,-3.2));
#1567=CARTESIAN_POINT('',(-11.450000000000003,1.749999999999997,0.5));
#1568=CARTESIAN_POINT('',(-11.450000000000003,1.749999999999997,-3.2));
#1569=B_SPLINE_SURFACE_WITH_KNOTS('',1,1,((#1565,#1567),(#1566,#1568)),.UNSPECIFIED.,.F.,.F.,.U.,(2,2),(2,2),(0.0,3.7),(0.0,0.5),.UNSPECIFIED.);
#1570=CARTESIAN_POINT('',(-10.950000000000003,1.749999999999998,0.5));
#1571=DIRECTION('',(0.0,0.0,-1.0));
#1572=VECTOR('',#1571,3.7);
#1573=LINE('',#1570,#1572);
#1574=EDGE_CURVE('',#1454,#1492,#1573,.T.);
#1575=ORIENTED_EDGE('',*,*,#1574,.F.);
#1576=ORIENTED_EDGE('',*,*,#1481,.T.);
#1577=ORIENTED_EDGE('',*,*,#1557,.T.);
#1578=ORIENTED_EDGE('',*,*,#1507,.T.);
#1579=EDGE_LOOP('',(#1575,#1576,#1577,#1578));
#1580=FACE_OUTER_BOUND('',#1579,.T.);
#1581=ADVANCED_FACE('',(#1580),#1569,.F.);
#1582=CARTESIAN_POINT('',(-10.950000000000003,1.749999999999998,-3.2));
#1583=CARTESIAN_POINT('',(-10.950000000000003,1.749999999999998,0.5));
#1584=CARTESIAN_POINT('',(-10.950000000000003,2.049999999999998,-3.2));
#1585=CARTESIAN_POINT('',(-10.950000000000003,2.049999999999998,0.5));
#1586=B_SPLINE_SURFACE_WITH_KNOTS('',1,1,((#1582,#1584),(#1583,#1585)),.UNSPECIFIED.,.F.,.F.,.U.,(2,2),(2,2),(0.0,3.7),(0.0,0.3),.UNSPECIFIED.);
#1587=ORIENTED_EDGE('',*,*,#1542,.F.);
#1588=ORIENTED_EDGE('',*,*,#1459,.T.);
#1589=ORIENTED_EDGE('',*,*,#1574,.T.);
#1590=ORIENTED_EDGE('',*,*,#1499,.T.);
#1591=EDGE_LOOP('',(#1587,#1588,#1589,#1590));
#1592=FACE_OUTER_BOUND('',#1591,.T.);
#1593=ADVANCED_FACE('',(#1592),#1586,.F.);
#1594=CLOSED_SHELL('',(#1485,#1525,#1547,#1564,#1581,#1593));
#1595=MANIFOLD_SOLID_BREP('14AE',#1594);
#1596=STYLED_ITEM('NONE',(#689),#1595);
#1597=ADVANCED_BREP_SHAPE_REPRESENTATION('ABSR1',(#152,#524,#682,#840,#991,#1142,#1293,#1444,#1595),#28);
#1598=SHAPE_REPRESENTATION_RELATIONSHIP('SRRPL1','',#1597,#62);
ENDSEC;
END-ISO-10303-21;
