ISO-10303-21;
HEADER;
/****************************************************************
 * Generated by software with PDE/Lib inside                    *
 * PDE/Lib Version 3.2.2, created Thu Mar 23, 2000 at 18:38:49  *
 * International Technegroup Inc. (www.iti-oh.com)              *
 ****************************************************************/
FILE_DESCRIPTION((''),'2;1');
FILE_NAME('DCDC_IBEK_ICR6B.stp','2009-12-08T15:25:01',(''),(''),'Mechanical Desktop 2006','Mechanical Desktop 2006',', , ');
FILE_SCHEMA(('AUTOMOTIVE_DESIGN { 1 2 10303 214 0 1 1 1 }'));
ENDSEC;
DATA;
#8=(NAMED_UNIT(*)PLANE_ANGLE_UNIT()SI_UNIT($,.RADIAN.));
#9=DIMENSIONAL_EXPONENTS(0.0,0.0,0.0,0.0,0.0,0.0,0.0);
#10=PLANE_ANGLE_MEASURE_WITH_UNIT(PLANE_ANGLE_MEASURE(0.017453292500000),#8);
#14=(CONVERSION_BASED_UNIT('DEGREE',#10)NAMED_UNIT(#9)PLANE_ANGLE_UNIT());
#18=(NAMED_UNIT(*)SI_UNIT($,.STERADIAN.)SOLID_ANGLE_UNIT());
#22=(LENGTH_UNIT()NAMED_UNIT(*)SI_UNIT(.MILLI.,.METRE.));
#23=UNCERTAINTY_MEASURE_WITH_UNIT(LENGTH_MEASURE(0.000001000000000),#22,'DISTANCE_ACCURACY_VALUE','');
#28=(GEOMETRIC_REPRESENTATION_CONTEXT(3)GLOBAL_UNCERTAINTY_ASSIGNED_CONTEXT((#23))GLOBAL_UNIT_ASSIGNED_CONTEXT((#14,#18,#22))REPRESENTATION_CONTEXT('None','None'));
#29=APPLICATION_CONTEXT('automotive design');
#30=APPLICATION_PROTOCOL_DEFINITION('DRAFT_INTERNATIONAL_STANDARD','automotive_design',1998,#29);
#31=PRODUCT_CONTEXT('3D Mechanical Parts',#29,'mechanical');
#32=PRODUCT('Product','Product','',(#31));
#33=PRODUCT_RELATED_PRODUCT_CATEGORY('part',$,(#32));
#34=PRODUCT_CATEGORY('part',$);
#35=PERSON('1','Design','Joe',$,$,$);
#36=ORGANIZATION($,'None','None');
#37=PERSON_AND_ORGANIZATION(#35,#36);
#38=PERSON_AND_ORGANIZATION_ROLE('design_owner');
#39=APPLIED_PERSON_AND_ORGANIZATION_ASSIGNMENT(#37,#38,(#32));
#40=PRODUCT_DEFINITION_FORMATION_WITH_SPECIFIED_SOURCE('None','',#32,.BOUGHT.);
#41=PERSON('2','Creator','Joe',$,$,$);
#42=ORGANIZATION($,'None','None');
#43=PERSON_AND_ORGANIZATION(#41,#42);
#44=PERSON_AND_ORGANIZATION_ROLE('creator');
#45=APPLIED_PERSON_AND_ORGANIZATION_ASSIGNMENT(#43,#44,(#40));
#46=PERSON('3','Supplier','Joe',$,$,$);
#47=ORGANIZATION($,'None','None');
#48=PERSON_AND_ORGANIZATION(#46,#47);
#49=PERSON_AND_ORGANIZATION_ROLE('design_supplier');
#50=APPLIED_PERSON_AND_ORGANIZATION_ASSIGNMENT(#48,#49,(#40));
#51=PRODUCT_DEFINITION_CONTEXT('part definition',#29,'design');
#52=PRODUCT_DEFINITION('None','',#40,#51);
#53=PERSON('4','Creator','Joe',$,$,$);
#54=ORGANIZATION($,'None','None');
#55=PERSON_AND_ORGANIZATION(#53,#54);
#56=PERSON_AND_ORGANIZATION_ROLE('creator');
#57=APPLIED_PERSON_AND_ORGANIZATION_ASSIGNMENT(#55,#56,(#52));
#58=CARTESIAN_POINT('NONE',(0.0,0.0,0.0));
#59=DIRECTION('NONE',(0.0,0.0,1.0));
#60=DIRECTION('NONE',(1.0,0.0,0.0));
#61=AXIS2_PLACEMENT_3D('NONE',#58,#59,#60);
#62=SHAPE_REPRESENTATION('SR1',(#61),#28);
#63=PRODUCT_DEFINITION_SHAPE('PDS1','Test Part',#52);
#64=SHAPE_DEFINITION_REPRESENTATION(#63,#62);
#65=CARTESIAN_POINT('',(-22.859999999999996,22.860000000000003,0.0));
#66=DIRECTION('',(0.0,0.0,1.0));
#67=DIRECTION('',(-0.707106781186547,0.707106781186547,0.0));
#68=AXIS2_PLACEMENT_3D('',#65,#66,#67);
#69=CYLINDRICAL_SURFACE('',#68,2.539999999999999);
#70=CARTESIAN_POINT('',(-24.656051224213826,24.656051224213833,0.0));
#71=VERTEX_POINT('',#70);
#72=CARTESIAN_POINT('',(-24.656051224213826,24.656051224213833,10.0));
#73=VERTEX_POINT('',#72);
#74=CARTESIAN_POINT('',(-24.656051224213826,24.656051224213833,0.0));
#75=DIRECTION('',(0.0,0.0,1.0));
#76=VECTOR('',#75,10.0);
#77=LINE('',#74,#76);
#78=EDGE_CURVE('',#71,#73,#77,.T.);
#79=ORIENTED_EDGE('',*,*,#78,.F.);
#80=CARTESIAN_POINT('',(-25.399999999999995,22.860000000000003,0.0));
#81=VERTEX_POINT('',#80);
#82=CARTESIAN_POINT('',(-22.859999999999996,22.860000000000003,0.0));
#83=DIRECTION('',(0.0,0.0,1.000000000000000));
#84=DIRECTION('',(-0.707106781186547,0.707106781186547,0.0));
#85=AXIS2_PLACEMENT_3D('',#82,#83,#84);
#86=CIRCLE('',#85,2.539999999999999);
#87=EDGE_CURVE('',#71,#81,#86,.T.);
#88=ORIENTED_EDGE('',*,*,#87,.T.);
#89=CARTESIAN_POINT('',(-25.399999999999995,22.860000000000003,10.0));
#90=VERTEX_POINT('',#89);
#91=CARTESIAN_POINT('',(-25.399999999999995,22.860000000000003,0.0));
#92=DIRECTION('',(0.0,0.0,1.0));
#93=VECTOR('',#92,10.0);
#94=LINE('',#91,#93);
#95=EDGE_CURVE('',#81,#90,#94,.T.);
#96=ORIENTED_EDGE('',*,*,#95,.T.);
#97=CARTESIAN_POINT('',(-22.859999999999996,22.860000000000003,10.0));
#98=DIRECTION('',(0.0,0.0,1.000000000000000));
#99=DIRECTION('',(-0.707106781186547,0.707106781186547,0.0));
#100=AXIS2_PLACEMENT_3D('',#97,#98,#99);
#101=CIRCLE('',#100,2.539999999999999);
#102=EDGE_CURVE('',#73,#90,#101,.T.);
#103=ORIENTED_EDGE('',*,*,#102,.F.);
#104=EDGE_LOOP('',(#79,#88,#96,#103));
#105=FACE_OUTER_BOUND('',#104,.T.);
#106=ADVANCED_FACE('',(#105),#69,.T.);
#107=CARTESIAN_POINT('',(-22.860000000000003,-22.859999999999999,0.0));
#108=DIRECTION('',(0.0,0.0,1.0));
#109=DIRECTION('',(-0.707106781186547,-0.707106781186547,0.0));
#110=AXIS2_PLACEMENT_3D('',#107,#108,#109);
#111=CYLINDRICAL_SURFACE('',#110,2.539999999999999);
#112=CARTESIAN_POINT('',(-24.656051224213829,-24.656051224213829,0.0));
#113=VERTEX_POINT('',#112);
#114=CARTESIAN_POINT('',(-24.656051224213829,-24.656051224213829,10.0));
#115=VERTEX_POINT('',#114);
#116=CARTESIAN_POINT('',(-24.656051224213829,-24.656051224213829,0.0));
#117=DIRECTION('',(0.0,0.0,1.0));
#118=VECTOR('',#117,10.0);
#119=LINE('',#116,#118);
#120=EDGE_CURVE('',#113,#115,#119,.T.);
#121=ORIENTED_EDGE('',*,*,#120,.F.);
#122=CARTESIAN_POINT('',(-22.860000000000003,-25.399999999999999,0.0));
#123=VERTEX_POINT('',#122);
#124=CARTESIAN_POINT('',(-22.860000000000003,-22.859999999999999,0.0));
#125=DIRECTION('',(0.0,0.0,1.000000000000000));
#126=DIRECTION('',(-0.707106781186547,-0.707106781186547,0.0));
#127=AXIS2_PLACEMENT_3D('',#124,#125,#126);
#128=CIRCLE('',#127,2.539999999999999);
#129=EDGE_CURVE('',#113,#123,#128,.T.);
#130=ORIENTED_EDGE('',*,*,#129,.T.);
#131=CARTESIAN_POINT('',(-22.860000000000003,-25.399999999999999,10.0));
#132=VERTEX_POINT('',#131);
#133=CARTESIAN_POINT('',(-22.860000000000003,-25.399999999999999,0.0));
#134=DIRECTION('',(0.0,0.0,1.0));
#135=VECTOR('',#134,10.0);
#136=LINE('',#133,#135);
#137=EDGE_CURVE('',#123,#132,#136,.T.);
#138=ORIENTED_EDGE('',*,*,#137,.T.);
#139=CARTESIAN_POINT('',(-22.860000000000003,-22.859999999999999,10.0));
#140=DIRECTION('',(0.0,0.0,1.000000000000000));
#141=DIRECTION('',(-0.707106781186547,-0.707106781186547,0.0));
#142=AXIS2_PLACEMENT_3D('',#139,#140,#141);
#143=CIRCLE('',#142,2.539999999999999);
#144=EDGE_CURVE('',#115,#132,#143,.T.);
#145=ORIENTED_EDGE('',*,*,#144,.F.);
#146=EDGE_LOOP('',(#121,#130,#138,#145));
#147=FACE_OUTER_BOUND('',#146,.T.);
#148=ADVANCED_FACE('',(#147),#111,.T.);
#149=CARTESIAN_POINT('',(22.859999999999999,-22.859999999999999,0.0));
#150=DIRECTION('',(0.0,0.0,1.0));
#151=DIRECTION('',(0.707106781186547,-0.707106781186547,0.0));
#152=AXIS2_PLACEMENT_3D('',#149,#150,#151);
#153=CYLINDRICAL_SURFACE('',#152,2.539999999999999);
#154=CARTESIAN_POINT('',(24.656051224213829,-24.656051224213829,0.0));
#155=VERTEX_POINT('',#154);
#156=CARTESIAN_POINT('',(24.656051224213829,-24.656051224213829,10.0));
#157=VERTEX_POINT('',#156);
#158=CARTESIAN_POINT('',(24.656051224213829,-24.656051224213829,0.0));
#159=DIRECTION('',(0.0,0.0,1.0));
#160=VECTOR('',#159,10.0);
#161=LINE('',#158,#160);
#162=EDGE_CURVE('',#155,#157,#161,.T.);
#163=ORIENTED_EDGE('',*,*,#162,.F.);
#164=CARTESIAN_POINT('',(25.399999999999999,-22.859999999999999,0.0));
#165=VERTEX_POINT('',#164);
#166=CARTESIAN_POINT('',(22.859999999999999,-22.859999999999999,0.0));
#167=DIRECTION('',(0.0,0.0,1.000000000000000));
#168=DIRECTION('',(0.707106781186547,-0.707106781186547,0.0));
#169=AXIS2_PLACEMENT_3D('',#166,#167,#168);
#170=CIRCLE('',#169,2.539999999999999);
#171=EDGE_CURVE('',#155,#165,#170,.T.);
#172=ORIENTED_EDGE('',*,*,#171,.T.);
#173=CARTESIAN_POINT('',(25.399999999999999,-22.859999999999999,10.0));
#174=VERTEX_POINT('',#173);
#175=CARTESIAN_POINT('',(25.399999999999999,-22.859999999999999,0.0));
#176=DIRECTION('',(0.0,0.0,1.0));
#177=VECTOR('',#176,10.0);
#178=LINE('',#175,#177);
#179=EDGE_CURVE('',#165,#174,#178,.T.);
#180=ORIENTED_EDGE('',*,*,#179,.T.);
#181=CARTESIAN_POINT('',(22.859999999999999,-22.859999999999999,10.0));
#182=DIRECTION('',(0.0,0.0,1.000000000000000));
#183=DIRECTION('',(0.707106781186547,-0.707106781186547,0.0));
#184=AXIS2_PLACEMENT_3D('',#181,#182,#183);
#185=CIRCLE('',#184,2.539999999999999);
#186=EDGE_CURVE('',#157,#174,#185,.T.);
#187=ORIENTED_EDGE('',*,*,#186,.F.);
#188=EDGE_LOOP('',(#163,#172,#180,#187));
#189=FACE_OUTER_BOUND('',#188,.T.);
#190=ADVANCED_FACE('',(#189),#153,.T.);
#191=CARTESIAN_POINT('',(22.859999999999999,22.859999999999992,0.0));
#192=DIRECTION('',(0.0,0.0,1.0));
#193=DIRECTION('',(0.707106781186547,0.707106781186547,0.0));
#194=AXIS2_PLACEMENT_3D('',#191,#192,#193);
#195=CYLINDRICAL_SURFACE('',#194,2.539999999999999);
#196=CARTESIAN_POINT('',(24.656051224213829,24.656051224213822,0.0));
#197=VERTEX_POINT('',#196);
#198=CARTESIAN_POINT('',(24.656051224213829,24.656051224213822,10.0));
#199=VERTEX_POINT('',#198);
#200=CARTESIAN_POINT('',(24.656051224213829,24.656051224213822,0.0));
#201=DIRECTION('',(0.0,0.0,1.0));
#202=VECTOR('',#201,10.0);
#203=LINE('',#200,#202);
#204=EDGE_CURVE('',#197,#199,#203,.T.);
#205=ORIENTED_EDGE('',*,*,#204,.F.);
#206=CARTESIAN_POINT('',(22.859999999999999,25.399999999999991,0.0));
#207=VERTEX_POINT('',#206);
#208=CARTESIAN_POINT('',(22.859999999999999,22.859999999999992,0.0));
#209=DIRECTION('',(0.0,0.0,1.000000000000000));
#210=DIRECTION('',(0.707106781186547,0.707106781186547,0.0));
#211=AXIS2_PLACEMENT_3D('',#208,#209,#210);
#212=CIRCLE('',#211,2.539999999999999);
#213=EDGE_CURVE('',#197,#207,#212,.T.);
#214=ORIENTED_EDGE('',*,*,#213,.T.);
#215=CARTESIAN_POINT('',(22.859999999999999,25.399999999999991,10.0));
#216=VERTEX_POINT('',#215);
#217=CARTESIAN_POINT('',(22.859999999999999,25.399999999999991,0.0));
#218=DIRECTION('',(0.0,0.0,1.0));
#219=VECTOR('',#218,10.0);
#220=LINE('',#217,#219);
#221=EDGE_CURVE('',#207,#216,#220,.T.);
#222=ORIENTED_EDGE('',*,*,#221,.T.);
#223=CARTESIAN_POINT('',(22.859999999999999,22.859999999999992,10.0));
#224=DIRECTION('',(0.0,0.0,1.000000000000000));
#225=DIRECTION('',(0.707106781186547,0.707106781186547,0.0));
#226=AXIS2_PLACEMENT_3D('',#223,#224,#225);
#227=CIRCLE('',#226,2.539999999999999);
#228=EDGE_CURVE('',#199,#216,#227,.T.);
#229=ORIENTED_EDGE('',*,*,#228,.F.);
#230=EDGE_LOOP('',(#205,#214,#222,#229));
#231=FACE_OUTER_BOUND('',#230,.T.);
#232=ADVANCED_FACE('',(#231),#195,.T.);
#233=CARTESIAN_POINT('',(-11.429999999999996,24.899999999999999,10.0));
#234=DIRECTION('',(1.0,-2.331177E-016,0.0));
#235=DIRECTION('',(0.0,0.707106781186548,0.707106781186548));
#236=AXIS2_PLACEMENT_3D('',#233,#234,#235);
#237=CYLINDRICAL_SURFACE('',#236,0.500000000000000);
#238=CARTESIAN_POINT('',(-22.859999999999996,25.253553390593275,10.353553390593273));
#239=VERTEX_POINT('',#238);
#240=CARTESIAN_POINT('',(22.859999999999999,25.253553390593265,10.353553390593273));
#241=VERTEX_POINT('',#240);
#242=CARTESIAN_POINT('',(-22.859999999999996,25.253553390593275,10.353553390593273));
#243=DIRECTION('',(1.0,0.0,0.0));
#244=VECTOR('',#243,45.719999999999999);
#245=LINE('',#242,#244);
#246=EDGE_CURVE('',#239,#241,#245,.T.);
#247=ORIENTED_EDGE('',*,*,#246,.F.);
#248=CARTESIAN_POINT('',(-22.859999999999996,24.900000000000002,10.500000000000000));
#249=VERTEX_POINT('',#248);
#250=CARTESIAN_POINT('',(-22.859999999999996,24.900000000000002,10.0));
#251=DIRECTION('',(-1.0,0.0,0.0));
#252=DIRECTION('',(0.0,0.0,1.0));
#253=AXIS2_PLACEMENT_3D('',#250,#251,#252);
#254=CIRCLE('',#253,0.500000000000000);
#255=EDGE_CURVE('',#249,#239,#254,.T.);
#256=ORIENTED_EDGE('',*,*,#255,.F.);
#257=CARTESIAN_POINT('',(22.859999999999999,24.899999999999991,10.500000000000000));
#258=VERTEX_POINT('',#257);
#259=CARTESIAN_POINT('',(-22.859999999999996,24.900000000000002,10.500000000000000));
#260=DIRECTION('',(1.0,0.0,0.0));
#261=VECTOR('',#260,45.719999999999999);
#262=LINE('',#259,#261);
#263=EDGE_CURVE('',#249,#258,#262,.T.);
#264=ORIENTED_EDGE('',*,*,#263,.T.);
#265=CARTESIAN_POINT('',(22.859999999999999,24.899999999999991,10.0));
#266=DIRECTION('',(1.0,0.0,0.0));
#267=DIRECTION('',(0.0,1.0,0.0));
#268=AXIS2_PLACEMENT_3D('',#265,#266,#267);
#269=CIRCLE('',#268,0.500000000000000);
#270=EDGE_CURVE('',#241,#258,#269,.T.);
#271=ORIENTED_EDGE('',*,*,#270,.F.);
#272=EDGE_LOOP('',(#247,#256,#264,#271));
#273=FACE_OUTER_BOUND('',#272,.T.);
#274=ADVANCED_FACE('',(#273),#237,.T.);
#275=CARTESIAN_POINT('',(-24.899999999999999,-11.429999999999998,10.0));
#276=DIRECTION('',(1.554118E-016,1.0,0.0));
#277=DIRECTION('',(-0.707106781186548,0.0,0.707106781186548));
#278=AXIS2_PLACEMENT_3D('',#275,#276,#277);
#279=CYLINDRICAL_SURFACE('',#278,0.500000000000000);
#280=CARTESIAN_POINT('',(-25.253553390593272,-22.859999999999999,10.353553390593275));
#281=VERTEX_POINT('',#280);
#282=CARTESIAN_POINT('',(-25.253553390593265,22.860000000000003,10.353553390593273));
#283=VERTEX_POINT('',#282);
#284=CARTESIAN_POINT('',(-25.253553390593272,-22.859999999999999,10.353553390593275));
#285=DIRECTION('',(0.0,1.0,0.0));
#286=VECTOR('',#285,45.719999999999999);
#287=LINE('',#284,#286);
#288=EDGE_CURVE('',#281,#283,#287,.T.);
#289=ORIENTED_EDGE('',*,*,#288,.F.);
#290=CARTESIAN_POINT('',(-24.900000000000002,-22.859999999999999,10.500000000000000));
#291=VERTEX_POINT('',#290);
#292=CARTESIAN_POINT('',(-24.900000000000002,-22.859999999999999,10.0));
#293=DIRECTION('',(0.0,-1.0,0.0));
#294=DIRECTION('',(0.0,0.0,1.0));
#295=AXIS2_PLACEMENT_3D('',#292,#293,#294);
#296=CIRCLE('',#295,0.500000000000000);
#297=EDGE_CURVE('',#291,#281,#296,.T.);
#298=ORIENTED_EDGE('',*,*,#297,.F.);
#299=CARTESIAN_POINT('',(-24.899999999999991,22.859999999999999,10.500000000000000));
#300=VERTEX_POINT('',#299);
#301=CARTESIAN_POINT('',(-24.900000000000002,-22.859999999999999,10.500000000000000));
#302=DIRECTION('',(0.0,1.0,0.0));
#303=VECTOR('',#302,45.719999999999999);
#304=LINE('',#301,#303);
#305=EDGE_CURVE('',#291,#300,#304,.T.);
#306=ORIENTED_EDGE('',*,*,#305,.T.);
#307=CARTESIAN_POINT('',(-24.899999999999991,22.859999999999999,10.0));
#308=DIRECTION('',(0.0,-1.0,0.0));
#309=DIRECTION('',(0.0,0.0,1.0));
#310=AXIS2_PLACEMENT_3D('',#307,#308,#309);
#311=CIRCLE('',#310,0.500000000000000);
#312=EDGE_CURVE('',#300,#283,#311,.T.);
#313=ORIENTED_EDGE('',*,*,#312,.T.);
#314=EDGE_LOOP('',(#289,#298,#306,#313));
#315=FACE_OUTER_BOUND('',#314,.T.);
#316=ADVANCED_FACE('',(#315),#279,.T.);
#317=CARTESIAN_POINT('',(24.899999999999999,11.429999999999996,10.0));
#318=DIRECTION('',(0.0,-1.0,0.0));
#319=DIRECTION('',(0.707106781186548,0.0,0.707106781186548));
#320=AXIS2_PLACEMENT_3D('',#317,#318,#319);
#321=CYLINDRICAL_SURFACE('',#320,0.500000000000000);
#322=CARTESIAN_POINT('',(25.253553390593272,22.859999999999992,10.353553390593273));
#323=VERTEX_POINT('',#322);
#324=CARTESIAN_POINT('',(25.253553390593272,-22.859999999999999,10.353553390593273));
#325=VERTEX_POINT('',#324);
#326=CARTESIAN_POINT('',(25.253553390593272,22.859999999999992,10.353553390593273));
#327=DIRECTION('',(0.0,-1.0,0.0));
#328=VECTOR('',#327,45.719999999999992);
#329=LINE('',#326,#328);
#330=EDGE_CURVE('',#323,#325,#329,.T.);
#331=ORIENTED_EDGE('',*,*,#330,.F.);
#332=CARTESIAN_POINT('',(24.899999999999999,22.859999999999992,10.500000000000000));
#333=VERTEX_POINT('',#332);
#334=CARTESIAN_POINT('',(24.899999999999999,22.859999999999992,10.0));
#335=DIRECTION('',(0.0,-1.0,0.0));
#336=DIRECTION('',(1.0,0.0,0.0));
#337=AXIS2_PLACEMENT_3D('',#334,#335,#336);
#338=CIRCLE('',#337,0.500000000000000);
#339=EDGE_CURVE('',#323,#333,#338,.T.);
#340=ORIENTED_EDGE('',*,*,#339,.T.);
#341=CARTESIAN_POINT('',(24.899999999999999,-22.859999999999999,10.500000000000000));
#342=VERTEX_POINT('',#341);
#343=CARTESIAN_POINT('',(24.899999999999999,22.859999999999992,10.500000000000000));
#344=DIRECTION('',(0.0,-1.0,0.0));
#345=VECTOR('',#344,45.719999999999992);
#346=LINE('',#343,#345);
#347=EDGE_CURVE('',#333,#342,#346,.T.);
#348=ORIENTED_EDGE('',*,*,#347,.T.);
#349=CARTESIAN_POINT('',(24.899999999999999,-22.859999999999999,10.0));
#350=DIRECTION('',(0.0,-1.0,0.0));
#351=DIRECTION('',(1.0,0.0,0.0));
#352=AXIS2_PLACEMENT_3D('',#349,#350,#351);
#353=CIRCLE('',#352,0.500000000000000);
#354=EDGE_CURVE('',#325,#342,#353,.T.);
#355=ORIENTED_EDGE('',*,*,#354,.F.);
#356=EDGE_LOOP('',(#331,#340,#348,#355));
#357=FACE_OUTER_BOUND('',#356,.T.);
#358=ADVANCED_FACE('',(#357),#321,.T.);
#359=CARTESIAN_POINT('',(11.429999999999998,-24.899999999999999,10.0));
#360=DIRECTION('',(-1.0,0.0,0.0));
#361=DIRECTION('',(0.0,-0.707106781186548,0.707106781186548));
#362=AXIS2_PLACEMENT_3D('',#359,#360,#361);
#363=CYLINDRICAL_SURFACE('',#362,0.500000000000000);
#364=CARTESIAN_POINT('',(22.859999999999999,-25.253553390593272,10.353553390593273));
#365=VERTEX_POINT('',#364);
#366=CARTESIAN_POINT('',(-22.860000000000003,-25.253553390593272,10.353553390593273));
#367=VERTEX_POINT('',#366);
#368=CARTESIAN_POINT('',(22.859999999999999,-25.253553390593272,10.353553390593273));
#369=DIRECTION('',(-1.0,0.0,0.0));
#370=VECTOR('',#369,45.719999999999999);
#371=LINE('',#368,#370);
#372=EDGE_CURVE('',#365,#367,#371,.T.);
#373=ORIENTED_EDGE('',*,*,#372,.F.);
#374=CARTESIAN_POINT('',(22.859999999999999,-24.899999999999999,10.500000000000000));
#375=VERTEX_POINT('',#374);
#376=CARTESIAN_POINT('',(22.859999999999999,-24.899999999999999,10.0));
#377=DIRECTION('',(-1.0,0.0,0.0));
#378=DIRECTION('',(0.0,-1.0,0.0));
#379=AXIS2_PLACEMENT_3D('',#376,#377,#378);
#380=CIRCLE('',#379,0.500000000000000);
#381=EDGE_CURVE('',#365,#375,#380,.T.);
#382=ORIENTED_EDGE('',*,*,#381,.T.);
#383=CARTESIAN_POINT('',(-22.859999999999999,-24.899999999999999,10.500000000000000));
#384=VERTEX_POINT('',#383);
#385=CARTESIAN_POINT('',(22.859999999999999,-24.899999999999999,10.500000000000000));
#386=DIRECTION('',(-1.0,0.0,0.0));
#387=VECTOR('',#386,45.719999999999999);
#388=LINE('',#385,#387);
#389=EDGE_CURVE('',#375,#384,#388,.T.);
#390=ORIENTED_EDGE('',*,*,#389,.T.);
#391=CARTESIAN_POINT('',(-22.859999999999999,-24.899999999999999,10.0));
#392=DIRECTION('',(1.0,0.0,0.0));
#393=DIRECTION('',(0.0,0.0,1.0));
#394=AXIS2_PLACEMENT_3D('',#391,#392,#393);
#395=CIRCLE('',#394,0.500000000000000);
#396=EDGE_CURVE('',#384,#367,#395,.T.);
#397=ORIENTED_EDGE('',*,*,#396,.T.);
#398=EDGE_LOOP('',(#373,#382,#390,#397));
#399=FACE_OUTER_BOUND('',#398,.T.);
#400=ADVANCED_FACE('',(#399),#363,.T.);
#401=CARTESIAN_POINT('',(11.429999999999998,-24.899999999999999,10.0));
#402=DIRECTION('',(-1.0,0.0,0.0));
#403=DIRECTION('',(0.0,-0.707106781186548,0.707106781186548));
#404=AXIS2_PLACEMENT_3D('',#401,#402,#403);
#405=CYLINDRICAL_SURFACE('',#404,0.500000000000000);
#406=ORIENTED_EDGE('',*,*,#372,.T.);
#407=CARTESIAN_POINT('',(-22.859999999999999,-24.899999999999999,10.0));
#408=DIRECTION('',(1.0,0.0,0.0));
#409=DIRECTION('',(0.0,0.0,1.0));
#410=AXIS2_PLACEMENT_3D('',#407,#408,#409);
#411=CIRCLE('',#410,0.500000000000000);
#412=EDGE_CURVE('',#367,#132,#411,.T.);
#413=ORIENTED_EDGE('',*,*,#412,.T.);
#414=CARTESIAN_POINT('',(22.859999999999999,-25.399999999999999,10.0));
#415=VERTEX_POINT('',#414);
#416=CARTESIAN_POINT('',(-22.860000000000003,-25.399999999999999,10.0));
#417=DIRECTION('',(1.0,0.0,0.0));
#418=VECTOR('',#417,45.719999999999999);
#419=LINE('',#416,#418);
#420=EDGE_CURVE('',#132,#415,#419,.T.);
#421=ORIENTED_EDGE('',*,*,#420,.T.);
#422=CARTESIAN_POINT('',(22.859999999999999,-24.899999999999999,10.0));
#423=DIRECTION('',(-1.0,0.0,0.0));
#424=DIRECTION('',(0.0,-1.0,0.0));
#425=AXIS2_PLACEMENT_3D('',#422,#423,#424);
#426=CIRCLE('',#425,0.500000000000000);
#427=EDGE_CURVE('',#415,#365,#426,.T.);
#428=ORIENTED_EDGE('',*,*,#427,.T.);
#429=EDGE_LOOP('',(#406,#413,#421,#428));
#430=FACE_OUTER_BOUND('',#429,.T.);
#431=ADVANCED_FACE('',(#430),#405,.T.);
#432=CARTESIAN_POINT('',(22.859999999999999,-22.859999999999999,10.0));
#433=DIRECTION('',(0.0,0.0,-1.0));
#434=DIRECTION('',(-1.0,0.0,0.0));
#435=AXIS2_PLACEMENT_3D('',#432,#433,#434);
#436=TOROIDAL_SURFACE('',#435,2.039999999999999,0.500000000000000);
#437=CARTESIAN_POINT('',(24.899999999999999,-22.859999999999999,10.0));
#438=DIRECTION('',(0.0,-1.0,0.0));
#439=DIRECTION('',(1.0,0.0,0.0));
#440=AXIS2_PLACEMENT_3D('',#437,#438,#439);
#441=CIRCLE('',#440,0.500000000000000);
#442=EDGE_CURVE('',#174,#325,#441,.T.);
#443=ORIENTED_EDGE('',*,*,#442,.T.);
#444=ORIENTED_EDGE('',*,*,#354,.T.);
#445=CARTESIAN_POINT('',(22.859999999999999,-22.859999999999999,10.500000000000000));
#446=DIRECTION('',(0.0,0.0,-1.000000000000000));
#447=DIRECTION('',(0.707106781186547,-0.707106781186547,0.0));
#448=AXIS2_PLACEMENT_3D('',#445,#446,#447);
#449=CIRCLE('',#448,2.039999999999999);
#450=EDGE_CURVE('',#342,#375,#449,.T.);
#451=ORIENTED_EDGE('',*,*,#450,.T.);
#452=ORIENTED_EDGE('',*,*,#381,.F.);
#453=ORIENTED_EDGE('',*,*,#427,.F.);
#454=CARTESIAN_POINT('',(22.859999999999999,-22.859999999999999,10.0));
#455=DIRECTION('',(0.0,0.0,1.000000000000000));
#456=DIRECTION('',(0.707106781186547,-0.707106781186547,0.0));
#457=AXIS2_PLACEMENT_3D('',#454,#455,#456);
#458=CIRCLE('',#457,2.539999999999999);
#459=EDGE_CURVE('',#415,#157,#458,.T.);
#460=ORIENTED_EDGE('',*,*,#459,.T.);
#461=ORIENTED_EDGE('',*,*,#186,.T.);
#462=EDGE_LOOP('',(#443,#444,#451,#452,#453,#460,#461));
#463=FACE_OUTER_BOUND('',#462,.T.);
#464=ADVANCED_FACE('',(#463),#436,.T.);
#465=CARTESIAN_POINT('',(-22.860000000000003,-22.859999999999999,10.0));
#466=DIRECTION('',(0.0,0.0,-1.0));
#467=DIRECTION('',(-1.0,0.0,0.0));
#468=AXIS2_PLACEMENT_3D('',#465,#466,#467);
#469=TOROIDAL_SURFACE('',#468,2.039999999999999,0.500000000000000);
#470=ORIENTED_EDGE('',*,*,#297,.T.);
#471=CARTESIAN_POINT('',(-25.400000000000002,-22.859999999999999,10.0));
#472=VERTEX_POINT('',#471);
#473=CARTESIAN_POINT('',(-24.900000000000002,-22.859999999999999,10.0));
#474=DIRECTION('',(0.0,-1.0,0.0));
#475=DIRECTION('',(0.0,0.0,1.0));
#476=AXIS2_PLACEMENT_3D('',#473,#474,#475);
#477=CIRCLE('',#476,0.500000000000000);
#478=EDGE_CURVE('',#281,#472,#477,.T.);
#479=ORIENTED_EDGE('',*,*,#478,.T.);
#480=CARTESIAN_POINT('',(-22.860000000000003,-22.859999999999999,10.0));
#481=DIRECTION('',(0.0,0.0,1.000000000000000));
#482=DIRECTION('',(-0.707106781186547,-0.707106781186547,0.0));
#483=AXIS2_PLACEMENT_3D('',#480,#481,#482);
#484=CIRCLE('',#483,2.539999999999999);
#485=EDGE_CURVE('',#472,#115,#484,.T.);
#486=ORIENTED_EDGE('',*,*,#485,.T.);
#487=ORIENTED_EDGE('',*,*,#144,.T.);
#488=ORIENTED_EDGE('',*,*,#412,.F.);
#489=ORIENTED_EDGE('',*,*,#396,.F.);
#490=CARTESIAN_POINT('',(-22.860000000000003,-22.859999999999999,10.500000000000000));
#491=DIRECTION('',(0.0,0.0,-1.000000000000000));
#492=DIRECTION('',(-0.707106781186547,-0.707106781186547,0.0));
#493=AXIS2_PLACEMENT_3D('',#490,#491,#492);
#494=CIRCLE('',#493,2.039999999999999);
#495=EDGE_CURVE('',#384,#291,#494,.T.);
#496=ORIENTED_EDGE('',*,*,#495,.T.);
#497=EDGE_LOOP('',(#470,#479,#486,#487,#488,#489,#496));
#498=FACE_OUTER_BOUND('',#497,.T.);
#499=ADVANCED_FACE('',(#498),#469,.T.);
#500=CARTESIAN_POINT('',(24.899999999999999,11.429999999999996,10.0));
#501=DIRECTION('',(0.0,-1.0,0.0));
#502=DIRECTION('',(0.707106781186548,0.0,0.707106781186548));
#503=AXIS2_PLACEMENT_3D('',#500,#501,#502);
#504=CYLINDRICAL_SURFACE('',#503,0.500000000000000);
#505=ORIENTED_EDGE('',*,*,#330,.T.);
#506=ORIENTED_EDGE('',*,*,#442,.F.);
#507=CARTESIAN_POINT('',(25.399999999999999,22.859999999999992,10.0));
#508=VERTEX_POINT('',#507);
#509=CARTESIAN_POINT('',(25.399999999999999,-22.859999999999999,10.0));
#510=DIRECTION('',(0.0,1.0,0.0));
#511=VECTOR('',#510,45.719999999999992);
#512=LINE('',#509,#511);
#513=EDGE_CURVE('',#174,#508,#512,.T.);
#514=ORIENTED_EDGE('',*,*,#513,.T.);
#515=CARTESIAN_POINT('',(24.899999999999999,22.859999999999992,10.0));
#516=DIRECTION('',(0.0,-1.0,0.0));
#517=DIRECTION('',(1.0,0.0,0.0));
#518=AXIS2_PLACEMENT_3D('',#515,#516,#517);
#519=CIRCLE('',#518,0.500000000000000);
#520=EDGE_CURVE('',#508,#323,#519,.T.);
#521=ORIENTED_EDGE('',*,*,#520,.T.);
#522=EDGE_LOOP('',(#505,#506,#514,#521));
#523=FACE_OUTER_BOUND('',#522,.T.);
#524=ADVANCED_FACE('',(#523),#504,.T.);
#525=CARTESIAN_POINT('',(-24.899999999999999,-11.429999999999998,10.0));
#526=DIRECTION('',(1.554118E-016,1.0,0.0));
#527=DIRECTION('',(-0.707106781186548,0.0,0.707106781186548));
#528=AXIS2_PLACEMENT_3D('',#525,#526,#527);
#529=CYLINDRICAL_SURFACE('',#528,0.500000000000000);
#530=ORIENTED_EDGE('',*,*,#288,.T.);
#531=CARTESIAN_POINT('',(-24.899999999999991,22.859999999999999,10.0));
#532=DIRECTION('',(0.0,-1.0,0.0));
#533=DIRECTION('',(0.0,0.0,1.0));
#534=AXIS2_PLACEMENT_3D('',#531,#532,#533);
#535=CIRCLE('',#534,0.500000000000000);
#536=EDGE_CURVE('',#283,#90,#535,.T.);
#537=ORIENTED_EDGE('',*,*,#536,.T.);
#538=CARTESIAN_POINT('',(-25.399999999999995,22.860000000000003,10.0));
#539=DIRECTION('',(0.0,-1.0,0.0));
#540=VECTOR('',#539,45.719999999999999);
#541=LINE('',#538,#540);
#542=EDGE_CURVE('',#90,#472,#541,.T.);
#543=ORIENTED_EDGE('',*,*,#542,.T.);
#544=ORIENTED_EDGE('',*,*,#478,.F.);
#545=EDGE_LOOP('',(#530,#537,#543,#544));
#546=FACE_OUTER_BOUND('',#545,.T.);
#547=ADVANCED_FACE('',(#546),#529,.T.);
#548=CARTESIAN_POINT('',(22.859999999999999,22.859999999999992,10.0));
#549=DIRECTION('',(0.0,0.0,-1.0));
#550=DIRECTION('',(-1.0,0.0,0.0));
#551=AXIS2_PLACEMENT_3D('',#548,#549,#550);
#552=TOROIDAL_SURFACE('',#551,2.039999999999999,0.500000000000000);
#553=CARTESIAN_POINT('',(22.859999999999999,24.899999999999991,10.0));
#554=DIRECTION('',(1.0,0.0,0.0));
#555=DIRECTION('',(0.0,1.0,0.0));
#556=AXIS2_PLACEMENT_3D('',#553,#554,#555);
#557=CIRCLE('',#556,0.500000000000000);
#558=EDGE_CURVE('',#216,#241,#557,.T.);
#559=ORIENTED_EDGE('',*,*,#558,.T.);
#560=ORIENTED_EDGE('',*,*,#270,.T.);
#561=CARTESIAN_POINT('',(22.859999999999999,22.859999999999992,10.500000000000000));
#562=DIRECTION('',(0.0,0.0,-1.000000000000000));
#563=DIRECTION('',(0.707106781186547,0.707106781186547,0.0));
#564=AXIS2_PLACEMENT_3D('',#561,#562,#563);
#565=CIRCLE('',#564,2.039999999999999);
#566=EDGE_CURVE('',#258,#333,#565,.T.);
#567=ORIENTED_EDGE('',*,*,#566,.T.);
#568=ORIENTED_EDGE('',*,*,#339,.F.);
#569=ORIENTED_EDGE('',*,*,#520,.F.);
#570=CARTESIAN_POINT('',(22.859999999999999,22.859999999999992,10.0));
#571=DIRECTION('',(0.0,0.0,1.000000000000000));
#572=DIRECTION('',(0.707106781186547,0.707106781186547,0.0));
#573=AXIS2_PLACEMENT_3D('',#570,#571,#572);
#574=CIRCLE('',#573,2.539999999999999);
#575=EDGE_CURVE('',#508,#199,#574,.T.);
#576=ORIENTED_EDGE('',*,*,#575,.T.);
#577=ORIENTED_EDGE('',*,*,#228,.T.);
#578=EDGE_LOOP('',(#559,#560,#567,#568,#569,#576,#577));
#579=FACE_OUTER_BOUND('',#578,.T.);
#580=ADVANCED_FACE('',(#579),#552,.T.);
#581=CARTESIAN_POINT('',(-22.859999999999996,22.860000000000003,10.0));
#582=DIRECTION('',(0.0,0.0,-1.0));
#583=DIRECTION('',(-1.0,0.0,0.0));
#584=AXIS2_PLACEMENT_3D('',#581,#582,#583);
#585=TOROIDAL_SURFACE('',#584,2.039999999999999,0.500000000000000);
#586=ORIENTED_EDGE('',*,*,#255,.T.);
#587=CARTESIAN_POINT('',(-22.859999999999996,25.400000000000002,10.0));
#588=VERTEX_POINT('',#587);
#589=CARTESIAN_POINT('',(-22.859999999999996,24.900000000000002,10.0));
#590=DIRECTION('',(-1.0,0.0,0.0));
#591=DIRECTION('',(0.0,0.0,1.0));
#592=AXIS2_PLACEMENT_3D('',#589,#590,#591);
#593=CIRCLE('',#592,0.500000000000000);
#594=EDGE_CURVE('',#239,#588,#593,.T.);
#595=ORIENTED_EDGE('',*,*,#594,.T.);
#596=CARTESIAN_POINT('',(-22.859999999999996,22.860000000000003,10.0));
#597=DIRECTION('',(0.0,0.0,1.000000000000000));
#598=DIRECTION('',(-0.707106781186547,0.707106781186547,0.0));
#599=AXIS2_PLACEMENT_3D('',#596,#597,#598);
#600=CIRCLE('',#599,2.539999999999999);
#601=EDGE_CURVE('',#588,#73,#600,.T.);
#602=ORIENTED_EDGE('',*,*,#601,.T.);
#603=ORIENTED_EDGE('',*,*,#102,.T.);
#604=ORIENTED_EDGE('',*,*,#536,.F.);
#605=ORIENTED_EDGE('',*,*,#312,.F.);
#606=CARTESIAN_POINT('',(-22.859999999999996,22.860000000000003,10.500000000000000));
#607=DIRECTION('',(0.0,0.0,-1.000000000000000));
#608=DIRECTION('',(-0.707106781186547,0.707106781186547,0.0));
#609=AXIS2_PLACEMENT_3D('',#606,#607,#608);
#610=CIRCLE('',#609,2.039999999999999);
#611=EDGE_CURVE('',#300,#249,#610,.T.);
#612=ORIENTED_EDGE('',*,*,#611,.T.);
#613=EDGE_LOOP('',(#586,#595,#602,#603,#604,#605,#612));
#614=FACE_OUTER_BOUND('',#613,.T.);
#615=ADVANCED_FACE('',(#614),#585,.T.);
#616=CARTESIAN_POINT('',(-11.429999999999996,24.899999999999999,10.0));
#617=DIRECTION('',(1.0,-2.331177E-016,0.0));
#618=DIRECTION('',(0.0,0.707106781186548,0.707106781186548));
#619=AXIS2_PLACEMENT_3D('',#616,#617,#618);
#620=CYLINDRICAL_SURFACE('',#619,0.500000000000000);
#621=ORIENTED_EDGE('',*,*,#246,.T.);
#622=ORIENTED_EDGE('',*,*,#558,.F.);
#623=CARTESIAN_POINT('',(22.859999999999999,25.399999999999991,10.0));
#624=DIRECTION('',(-1.0,0.0,0.0));
#625=VECTOR('',#624,45.719999999999999);
#626=LINE('',#623,#625);
#627=EDGE_CURVE('',#216,#588,#626,.T.);
#628=ORIENTED_EDGE('',*,*,#627,.T.);
#629=ORIENTED_EDGE('',*,*,#594,.F.);
#630=EDGE_LOOP('',(#621,#622,#628,#629));
#631=FACE_OUTER_BOUND('',#630,.T.);
#632=ADVANCED_FACE('',(#631),#620,.T.);
#633=CARTESIAN_POINT('',(22.859999999999999,22.859999999999992,0.0));
#634=DIRECTION('',(0.0,0.0,1.0));
#635=DIRECTION('',(0.707106781186547,0.707106781186547,0.0));
#636=AXIS2_PLACEMENT_3D('',#633,#634,#635);
#637=CYLINDRICAL_SURFACE('',#636,2.539999999999999);
#638=ORIENTED_EDGE('',*,*,#204,.T.);
#639=ORIENTED_EDGE('',*,*,#575,.F.);
#640=CARTESIAN_POINT('',(25.399999999999999,22.859999999999992,0.0));
#641=VERTEX_POINT('',#640);
#642=CARTESIAN_POINT('',(25.399999999999999,22.859999999999992,0.0));
#643=DIRECTION('',(0.0,0.0,1.0));
#644=VECTOR('',#643,10.0);
#645=LINE('',#642,#644);
#646=EDGE_CURVE('',#641,#508,#645,.T.);
#647=ORIENTED_EDGE('',*,*,#646,.F.);
#648=CARTESIAN_POINT('',(22.859999999999999,22.859999999999992,0.0));
#649=DIRECTION('',(0.0,0.0,1.000000000000000));
#650=DIRECTION('',(0.707106781186547,0.707106781186547,0.0));
#651=AXIS2_PLACEMENT_3D('',#648,#649,#650);
#652=CIRCLE('',#651,2.539999999999999);
#653=EDGE_CURVE('',#641,#197,#652,.T.);
#654=ORIENTED_EDGE('',*,*,#653,.T.);
#655=EDGE_LOOP('',(#638,#639,#647,#654));
#656=FACE_OUTER_BOUND('',#655,.T.);
#657=ADVANCED_FACE('',(#656),#637,.T.);
#658=CARTESIAN_POINT('',(25.399999999999999,22.859999999999992,0.0));
#659=DIRECTION('',(1.0,0.0,0.0));
#660=DIRECTION('',(0.0,0.0,-1.0));
#661=AXIS2_PLACEMENT_3D('',#658,#659,#660);
#662=PLANE('',#661);
#663=ORIENTED_EDGE('',*,*,#513,.F.);
#664=ORIENTED_EDGE('',*,*,#179,.F.);
#665=CARTESIAN_POINT('',(25.399999999999999,-22.859999999999999,0.0));
#666=DIRECTION('',(0.0,1.0,0.0));
#667=VECTOR('',#666,45.719999999999992);
#668=LINE('',#665,#667);
#669=EDGE_CURVE('',#165,#641,#668,.T.);
#670=ORIENTED_EDGE('',*,*,#669,.T.);
#671=ORIENTED_EDGE('',*,*,#646,.T.);
#672=EDGE_LOOP('',(#663,#664,#670,#671));
#673=FACE_OUTER_BOUND('',#672,.T.);
#674=ADVANCED_FACE('',(#673),#662,.T.);
#675=CARTESIAN_POINT('',(22.859999999999999,-22.859999999999999,0.0));
#676=DIRECTION('',(0.0,0.0,1.0));
#677=DIRECTION('',(0.707106781186547,-0.707106781186547,0.0));
#678=AXIS2_PLACEMENT_3D('',#675,#676,#677);
#679=CYLINDRICAL_SURFACE('',#678,2.539999999999999);
#680=ORIENTED_EDGE('',*,*,#162,.T.);
#681=ORIENTED_EDGE('',*,*,#459,.F.);
#682=CARTESIAN_POINT('',(22.859999999999999,-25.399999999999999,0.0));
#683=VERTEX_POINT('',#682);
#684=CARTESIAN_POINT('',(22.859999999999999,-25.399999999999999,0.0));
#685=DIRECTION('',(0.0,0.0,1.0));
#686=VECTOR('',#685,10.0);
#687=LINE('',#684,#686);
#688=EDGE_CURVE('',#683,#415,#687,.T.);
#689=ORIENTED_EDGE('',*,*,#688,.F.);
#690=CARTESIAN_POINT('',(22.859999999999999,-22.859999999999999,0.0));
#691=DIRECTION('',(0.0,0.0,1.000000000000000));
#692=DIRECTION('',(0.707106781186547,-0.707106781186547,0.0));
#693=AXIS2_PLACEMENT_3D('',#690,#691,#692);
#694=CIRCLE('',#693,2.539999999999999);
#695=EDGE_CURVE('',#683,#155,#694,.T.);
#696=ORIENTED_EDGE('',*,*,#695,.T.);
#697=EDGE_LOOP('',(#680,#681,#689,#696));
#698=FACE_OUTER_BOUND('',#697,.T.);
#699=ADVANCED_FACE('',(#698),#679,.T.);
#700=CARTESIAN_POINT('',(22.859999999999999,-25.399999999999999,0.0));
#701=DIRECTION('',(0.0,-1.0,0.0));
#702=DIRECTION('',(0.0,0.0,-1.0));
#703=AXIS2_PLACEMENT_3D('',#700,#701,#702);
#704=PLANE('',#703);
#705=ORIENTED_EDGE('',*,*,#420,.F.);
#706=ORIENTED_EDGE('',*,*,#137,.F.);
#707=CARTESIAN_POINT('',(-22.860000000000003,-25.399999999999999,0.0));
#708=DIRECTION('',(1.0,0.0,0.0));
#709=VECTOR('',#708,45.719999999999999);
#710=LINE('',#707,#709);
#711=EDGE_CURVE('',#123,#683,#710,.T.);
#712=ORIENTED_EDGE('',*,*,#711,.T.);
#713=ORIENTED_EDGE('',*,*,#688,.T.);
#714=EDGE_LOOP('',(#705,#706,#712,#713));
#715=FACE_OUTER_BOUND('',#714,.T.);
#716=ADVANCED_FACE('',(#715),#704,.T.);
#717=CARTESIAN_POINT('',(-1.942890E-015,-8.881784E-016,10.500000000000000));
#718=DIRECTION('',(0.0,0.0,1.0));
#719=DIRECTION('',(1.0,0.0,0.0));
#720=AXIS2_PLACEMENT_3D('',#717,#718,#719);
#721=PLANE('',#720);
#722=ORIENTED_EDGE('',*,*,#389,.F.);
#723=ORIENTED_EDGE('',*,*,#450,.F.);
#724=ORIENTED_EDGE('',*,*,#347,.F.);
#725=ORIENTED_EDGE('',*,*,#566,.F.);
#726=ORIENTED_EDGE('',*,*,#263,.F.);
#727=ORIENTED_EDGE('',*,*,#611,.F.);
#728=ORIENTED_EDGE('',*,*,#305,.F.);
#729=ORIENTED_EDGE('',*,*,#495,.F.);
#730=EDGE_LOOP('',(#722,#723,#724,#725,#726,#727,#728,#729));
#731=FACE_OUTER_BOUND('',#730,.T.);
#732=ADVANCED_FACE('',(#731),#721,.T.);
#733=CARTESIAN_POINT('',(-22.860000000000003,-22.859999999999999,0.0));
#734=DIRECTION('',(0.0,0.0,1.0));
#735=DIRECTION('',(-0.707106781186547,-0.707106781186547,0.0));
#736=AXIS2_PLACEMENT_3D('',#733,#734,#735);
#737=CYLINDRICAL_SURFACE('',#736,2.539999999999999);
#738=ORIENTED_EDGE('',*,*,#120,.T.);
#739=ORIENTED_EDGE('',*,*,#485,.F.);
#740=CARTESIAN_POINT('',(-25.400000000000002,-22.859999999999999,0.0));
#741=VERTEX_POINT('',#740);
#742=CARTESIAN_POINT('',(-25.400000000000002,-22.859999999999999,0.0));
#743=DIRECTION('',(0.0,0.0,1.0));
#744=VECTOR('',#743,10.0);
#745=LINE('',#742,#744);
#746=EDGE_CURVE('',#741,#472,#745,.T.);
#747=ORIENTED_EDGE('',*,*,#746,.F.);
#748=CARTESIAN_POINT('',(-22.860000000000003,-22.859999999999999,0.0));
#749=DIRECTION('',(0.0,0.0,1.000000000000000));
#750=DIRECTION('',(-0.707106781186547,-0.707106781186547,0.0));
#751=AXIS2_PLACEMENT_3D('',#748,#749,#750);
#752=CIRCLE('',#751,2.539999999999999);
#753=EDGE_CURVE('',#741,#113,#752,.T.);
#754=ORIENTED_EDGE('',*,*,#753,.T.);
#755=EDGE_LOOP('',(#738,#739,#747,#754));
#756=FACE_OUTER_BOUND('',#755,.T.);
#757=ADVANCED_FACE('',(#756),#737,.T.);
#758=CARTESIAN_POINT('',(-25.400000000000002,-22.859999999999999,0.0));
#759=DIRECTION('',(-1.0,0.0,0.0));
#760=DIRECTION('',(0.0,0.0,1.0));
#761=AXIS2_PLACEMENT_3D('',#758,#759,#760);
#762=PLANE('',#761);
#763=ORIENTED_EDGE('',*,*,#542,.F.);
#764=ORIENTED_EDGE('',*,*,#95,.F.);
#765=CARTESIAN_POINT('',(-25.399999999999995,22.860000000000003,0.0));
#766=DIRECTION('',(0.0,-1.0,0.0));
#767=VECTOR('',#766,45.719999999999999);
#768=LINE('',#765,#767);
#769=EDGE_CURVE('',#81,#741,#768,.T.);
#770=ORIENTED_EDGE('',*,*,#769,.T.);
#771=ORIENTED_EDGE('',*,*,#746,.T.);
#772=EDGE_LOOP('',(#763,#764,#770,#771));
#773=FACE_OUTER_BOUND('',#772,.T.);
#774=ADVANCED_FACE('',(#773),#762,.T.);
#775=CARTESIAN_POINT('',(-22.859999999999996,22.860000000000003,0.0));
#776=DIRECTION('',(0.0,0.0,1.0));
#777=DIRECTION('',(-0.707106781186547,0.707106781186547,0.0));
#778=AXIS2_PLACEMENT_3D('',#775,#776,#777);
#779=CYLINDRICAL_SURFACE('',#778,2.539999999999999);
#780=ORIENTED_EDGE('',*,*,#78,.T.);
#781=ORIENTED_EDGE('',*,*,#601,.F.);
#782=CARTESIAN_POINT('',(-22.859999999999996,25.400000000000002,0.0));
#783=VERTEX_POINT('',#782);
#784=CARTESIAN_POINT('',(-22.859999999999996,25.400000000000002,0.0));
#785=DIRECTION('',(0.0,0.0,1.0));
#786=VECTOR('',#785,10.0);
#787=LINE('',#784,#786);
#788=EDGE_CURVE('',#783,#588,#787,.T.);
#789=ORIENTED_EDGE('',*,*,#788,.F.);
#790=CARTESIAN_POINT('',(-22.859999999999996,22.860000000000003,0.0));
#791=DIRECTION('',(0.0,0.0,1.000000000000000));
#792=DIRECTION('',(-0.707106781186547,0.707106781186547,0.0));
#793=AXIS2_PLACEMENT_3D('',#790,#791,#792);
#794=CIRCLE('',#793,2.539999999999999);
#795=EDGE_CURVE('',#783,#71,#794,.T.);
#796=ORIENTED_EDGE('',*,*,#795,.T.);
#797=EDGE_LOOP('',(#780,#781,#789,#796));
#798=FACE_OUTER_BOUND('',#797,.T.);
#799=ADVANCED_FACE('',(#798),#779,.T.);
#800=CARTESIAN_POINT('',(-22.859999999999996,25.400000000000002,0.0));
#801=DIRECTION('',(0.0,1.0,0.0));
#802=DIRECTION('',(0.0,0.0,1.0));
#803=AXIS2_PLACEMENT_3D('',#800,#801,#802);
#804=PLANE('',#803);
#805=ORIENTED_EDGE('',*,*,#627,.F.);
#806=ORIENTED_EDGE('',*,*,#221,.F.);
#807=CARTESIAN_POINT('',(22.859999999999999,25.399999999999991,0.0));
#808=DIRECTION('',(-1.0,0.0,0.0));
#809=VECTOR('',#808,45.719999999999999);
#810=LINE('',#807,#809);
#811=EDGE_CURVE('',#207,#783,#810,.T.);
#812=ORIENTED_EDGE('',*,*,#811,.T.);
#813=ORIENTED_EDGE('',*,*,#788,.T.);
#814=EDGE_LOOP('',(#805,#806,#812,#813));
#815=FACE_OUTER_BOUND('',#814,.T.);
#816=ADVANCED_FACE('',(#815),#804,.T.);
#817=CARTESIAN_POINT('',(-1.942890E-015,-8.881784E-016,0.0));
#818=DIRECTION('',(0.0,0.0,1.0));
#819=DIRECTION('',(1.0,0.0,0.0));
#820=AXIS2_PLACEMENT_3D('',#817,#818,#819);
#821=PLANE('',#820);
#822=ORIENTED_EDGE('',*,*,#811,.F.);
#823=ORIENTED_EDGE('',*,*,#213,.F.);
#824=ORIENTED_EDGE('',*,*,#653,.F.);
#825=ORIENTED_EDGE('',*,*,#669,.F.);
#826=ORIENTED_EDGE('',*,*,#171,.F.);
#827=ORIENTED_EDGE('',*,*,#695,.F.);
#828=ORIENTED_EDGE('',*,*,#711,.F.);
#829=ORIENTED_EDGE('',*,*,#129,.F.);
#830=ORIENTED_EDGE('',*,*,#753,.F.);
#831=ORIENTED_EDGE('',*,*,#769,.F.);
#832=ORIENTED_EDGE('',*,*,#87,.F.);
#833=ORIENTED_EDGE('',*,*,#795,.F.);
#834=EDGE_LOOP('',(#822,#823,#824,#825,#826,#827,#828,#829,#830,#831,#832,#833));
#835=FACE_OUTER_BOUND('',#834,.T.);
#836=ADVANCED_FACE('',(#835),#821,.F.);
#837=CLOSED_SHELL('',(#106,#148,#190,#232,#274,#316,#358,#400,#431,#464,#499,#524,#547,#580,#615,#632,#657,#674,#699,#716,#732,#757,#774,#799,#816,#836));
#838=MANIFOLD_SOLID_BREP('9C7',#837);
#839=DRAUGHTING_PRE_DEFINED_COLOUR('white');
#840=SURFACE_STYLE_USAGE(.BOTH.,#841);
#841=SURFACE_SIDE_STYLE('NONE',(#842));
#842=SURFACE_STYLE_FILL_AREA(#843);
#843=FILL_AREA_STYLE('NONE',(#844));
#844=FILL_AREA_STYLE_COLOUR('NONE',#839);
#845=PRESENTATION_STYLE_ASSIGNMENT((#840));
#846=STYLED_ITEM('NONE',(#845),#838);
#847=MECHANICAL_DESIGN_GEOMETRIC_PRESENTATION_REPRESENTATION('NONE',(#846,#944,#1033,#1122,#1211,#1300),#28);
#848=PRESENTATION_LAYER_ASSIGNMENT('3D','None',(#838,#936,#1032,#1121,#1210,#1299));
#849=CARTESIAN_POINT('',(21.599999999999994,-21.599999999999998,0.0));
#850=DIRECTION('',(0.0,0.0,-1.0));
#851=DIRECTION('',(0.0,1.0,0.0));
#852=AXIS2_PLACEMENT_3D('',#849,#850,#851);
#853=CYLINDRICAL_SURFACE('',#852,0.500000000000000);
#854=CARTESIAN_POINT('',(21.599999999999994,-21.099999999999998,0.0));
#855=VERTEX_POINT('',#854);
#856=CARTESIAN_POINT('',(21.599999999999994,-21.099999999999998,-3.0));
#857=VERTEX_POINT('',#856);
#858=CARTESIAN_POINT('',(21.599999999999994,-21.099999999999998,0.0));
#859=DIRECTION('',(0.0,0.0,-1.0));
#860=VECTOR('',#859,3.0);
#861=LINE('',#858,#860);
#862=EDGE_CURVE('',#855,#857,#861,.T.);
#863=ORIENTED_EDGE('',*,*,#862,.F.);
#864=CARTESIAN_POINT('',(21.599999999999994,-22.099999999999998,0.0));
#865=VERTEX_POINT('',#864);
#866=CARTESIAN_POINT('',(21.599999999999994,-21.599999999999998,0.0));
#867=DIRECTION('',(0.0,0.0,1.0));
#868=DIRECTION('',(0.0,1.0,0.0));
#869=AXIS2_PLACEMENT_3D('',#866,#867,#868);
#870=CIRCLE('',#869,0.500000000000000);
#871=EDGE_CURVE('',#865,#855,#870,.T.);
#872=ORIENTED_EDGE('',*,*,#871,.F.);
#873=CARTESIAN_POINT('',(21.599999999999994,-22.099999999999998,-3.0));
#874=VERTEX_POINT('',#873);
#875=CARTESIAN_POINT('',(21.599999999999994,-22.099999999999998,-3.0));
#876=DIRECTION('',(0.0,0.0,1.0));
#877=VECTOR('',#876,3.0);
#878=LINE('',#875,#877);
#879=EDGE_CURVE('',#874,#865,#878,.T.);
#880=ORIENTED_EDGE('',*,*,#879,.F.);
#881=CARTESIAN_POINT('',(21.599999999999994,-21.599999999999998,-3.0));
#882=DIRECTION('',(0.0,0.0,1.0));
#883=DIRECTION('',(0.0,1.0,0.0));
#884=AXIS2_PLACEMENT_3D('',#881,#882,#883);
#885=CIRCLE('',#884,0.500000000000000);
#886=EDGE_CURVE('',#874,#857,#885,.T.);
#887=ORIENTED_EDGE('',*,*,#886,.T.);
#888=EDGE_LOOP('',(#863,#872,#880,#887));
#889=FACE_OUTER_BOUND('',#888,.T.);
#890=ADVANCED_FACE('',(#889),#853,.T.);
#891=CARTESIAN_POINT('',(21.599999999999994,-21.599999999999998,0.0));
#892=DIRECTION('',(0.0,0.0,-1.0));
#893=DIRECTION('',(0.0,1.0,0.0));
#894=AXIS2_PLACEMENT_3D('',#891,#892,#893);
#895=CYLINDRICAL_SURFACE('',#894,0.500000000000000);
#896=ORIENTED_EDGE('',*,*,#862,.T.);
#897=CARTESIAN_POINT('',(21.599999999999994,-21.599999999999998,-3.0));
#898=DIRECTION('',(0.0,0.0,1.0));
#899=DIRECTION('',(0.0,1.0,0.0));
#900=AXIS2_PLACEMENT_3D('',#897,#898,#899);
#901=CIRCLE('',#900,0.500000000000000);
#902=EDGE_CURVE('',#857,#874,#901,.T.);
#903=ORIENTED_EDGE('',*,*,#902,.T.);
#904=ORIENTED_EDGE('',*,*,#879,.T.);
#905=CARTESIAN_POINT('',(21.599999999999994,-21.599999999999998,0.0));
#906=DIRECTION('',(0.0,0.0,1.0));
#907=DIRECTION('',(0.0,1.0,0.0));
#908=AXIS2_PLACEMENT_3D('',#905,#906,#907);
#909=CIRCLE('',#908,0.500000000000000);
#910=EDGE_CURVE('',#855,#865,#909,.T.);
#911=ORIENTED_EDGE('',*,*,#910,.F.);
#912=EDGE_LOOP('',(#896,#903,#904,#911));
#913=FACE_OUTER_BOUND('',#912,.T.);
#914=ADVANCED_FACE('',(#913),#895,.T.);
#915=CARTESIAN_POINT('',(21.599999999999994,-21.599999999999998,-3.0));
#916=DIRECTION('',(0.0,0.0,1.0));
#917=DIRECTION('',(0.0,1.0,0.0));
#918=AXIS2_PLACEMENT_3D('',#915,#916,#917);
#919=PLANE('',#918);
#920=ORIENTED_EDGE('',*,*,#902,.F.);
#921=ORIENTED_EDGE('',*,*,#886,.F.);
#922=EDGE_LOOP('',(#920,#921));
#923=FACE_OUTER_BOUND('',#922,.T.);
#924=ADVANCED_FACE('',(#923),#919,.F.);
#925=CARTESIAN_POINT('',(21.599999999999994,-21.599999999999998,0.0));
#926=DIRECTION('',(0.0,0.0,1.0));
#927=DIRECTION('',(0.0,1.0,0.0));
#928=AXIS2_PLACEMENT_3D('',#925,#926,#927);
#929=PLANE('',#928);
#930=ORIENTED_EDGE('',*,*,#910,.T.);
#931=ORIENTED_EDGE('',*,*,#871,.T.);
#932=EDGE_LOOP('',(#930,#931));
#933=FACE_OUTER_BOUND('',#932,.T.);
#934=ADVANCED_FACE('',(#933),#929,.T.);
#935=CLOSED_SHELL('',(#890,#914,#924,#934));
#936=MANIFOLD_SOLID_BREP('9C6',#935);
#937=COLOUR_RGB('253',0.732000000000000,0.732000000000000,0.732000000000000);
#938=SURFACE_STYLE_USAGE(.BOTH.,#939);
#939=SURFACE_SIDE_STYLE('NONE',(#940));
#940=SURFACE_STYLE_FILL_AREA(#941);
#941=FILL_AREA_STYLE('NONE',(#942));
#942=FILL_AREA_STYLE_COLOUR('NONE',#937);
#943=PRESENTATION_STYLE_ASSIGNMENT((#938));
#944=STYLED_ITEM('NONE',(#943),#936);
#945=CARTESIAN_POINT('',(21.600000000000001,-8.428002E-015,0.0));
#946=DIRECTION('',(0.0,0.0,-1.0));
#947=DIRECTION('',(0.0,1.0,0.0));
#948=AXIS2_PLACEMENT_3D('',#945,#946,#947);
#949=CYLINDRICAL_SURFACE('',#948,0.500000000000000);
#950=CARTESIAN_POINT('',(21.600000000000001,0.499999999999992,0.0));
#951=VERTEX_POINT('',#950);
#952=CARTESIAN_POINT('',(21.600000000000001,0.499999999999992,-3.0));
#953=VERTEX_POINT('',#952);
#954=CARTESIAN_POINT('',(21.600000000000001,0.499999999999992,0.0));
#955=DIRECTION('',(0.0,0.0,-1.0));
#956=VECTOR('',#955,3.0);
#957=LINE('',#954,#956);
#958=EDGE_CURVE('',#951,#953,#957,.T.);
#959=ORIENTED_EDGE('',*,*,#958,.F.);
#960=CARTESIAN_POINT('',(21.600000000000001,-0.500000000000008,0.0));
#961=VERTEX_POINT('',#960);
#962=CARTESIAN_POINT('',(21.600000000000001,-8.428002E-015,0.0));
#963=DIRECTION('',(0.0,0.0,1.0));
#964=DIRECTION('',(0.0,1.0,0.0));
#965=AXIS2_PLACEMENT_3D('',#962,#963,#964);
#966=CIRCLE('',#965,0.500000000000000);
#967=EDGE_CURVE('',#961,#951,#966,.T.);
#968=ORIENTED_EDGE('',*,*,#967,.F.);
#969=CARTESIAN_POINT('',(21.600000000000001,-0.500000000000008,-3.0));
#970=VERTEX_POINT('',#969);
#971=CARTESIAN_POINT('',(21.600000000000001,-0.500000000000008,-3.0));
#972=DIRECTION('',(0.0,0.0,1.0));
#973=VECTOR('',#972,3.0);
#974=LINE('',#971,#973);
#975=EDGE_CURVE('',#970,#961,#974,.T.);
#976=ORIENTED_EDGE('',*,*,#975,.F.);
#977=CARTESIAN_POINT('',(21.600000000000001,-8.428002E-015,-3.0));
#978=DIRECTION('',(0.0,0.0,1.0));
#979=DIRECTION('',(0.0,1.0,0.0));
#980=AXIS2_PLACEMENT_3D('',#977,#978,#979);
#981=CIRCLE('',#980,0.500000000000000);
#982=EDGE_CURVE('',#970,#953,#981,.T.);
#983=ORIENTED_EDGE('',*,*,#982,.T.);
#984=EDGE_LOOP('',(#959,#968,#976,#983));
#985=FACE_OUTER_BOUND('',#984,.T.);
#986=ADVANCED_FACE('',(#985),#949,.T.);
#987=CARTESIAN_POINT('',(21.600000000000001,-8.428002E-015,0.0));
#988=DIRECTION('',(0.0,0.0,-1.0));
#989=DIRECTION('',(0.0,1.0,0.0));
#990=AXIS2_PLACEMENT_3D('',#987,#988,#989);
#991=CYLINDRICAL_SURFACE('',#990,0.500000000000000);
#992=ORIENTED_EDGE('',*,*,#958,.T.);
#993=CARTESIAN_POINT('',(21.600000000000001,-8.428002E-015,-3.0));
#994=DIRECTION('',(0.0,0.0,1.0));
#995=DIRECTION('',(0.0,1.0,0.0));
#996=AXIS2_PLACEMENT_3D('',#993,#994,#995);
#997=CIRCLE('',#996,0.500000000000000);
#998=EDGE_CURVE('',#953,#970,#997,.T.);
#999=ORIENTED_EDGE('',*,*,#998,.T.);
#1000=ORIENTED_EDGE('',*,*,#975,.T.);
#1001=CARTESIAN_POINT('',(21.600000000000001,-8.428002E-015,0.0));
#1002=DIRECTION('',(0.0,0.0,1.0));
#1003=DIRECTION('',(0.0,1.0,0.0));
#1004=AXIS2_PLACEMENT_3D('',#1001,#1002,#1003);
#1005=CIRCLE('',#1004,0.500000000000000);
#1006=EDGE_CURVE('',#951,#961,#1005,.T.);
#1007=ORIENTED_EDGE('',*,*,#1006,.F.);
#1008=EDGE_LOOP('',(#992,#999,#1000,#1007));
#1009=FACE_OUTER_BOUND('',#1008,.T.);
#1010=ADVANCED_FACE('',(#1009),#991,.T.);
#1011=CARTESIAN_POINT('',(21.600000000000001,-8.428002E-015,-3.0));
#1012=DIRECTION('',(0.0,0.0,1.0));
#1013=DIRECTION('',(0.0,1.0,0.0));
#1014=AXIS2_PLACEMENT_3D('',#1011,#1012,#1013);
#1015=PLANE('',#1014);
#1016=ORIENTED_EDGE('',*,*,#998,.F.);
#1017=ORIENTED_EDGE('',*,*,#982,.F.);
#1018=EDGE_LOOP('',(#1016,#1017));
#1019=FACE_OUTER_BOUND('',#1018,.T.);
#1020=ADVANCED_FACE('',(#1019),#1015,.F.);
#1021=CARTESIAN_POINT('',(21.600000000000001,-8.428002E-015,0.0));
#1022=DIRECTION('',(0.0,0.0,1.0));
#1023=DIRECTION('',(0.0,1.0,0.0));
#1024=AXIS2_PLACEMENT_3D('',#1021,#1022,#1023);
#1025=PLANE('',#1024);
#1026=ORIENTED_EDGE('',*,*,#1006,.T.);
#1027=ORIENTED_EDGE('',*,*,#967,.T.);
#1028=EDGE_LOOP('',(#1026,#1027));
#1029=FACE_OUTER_BOUND('',#1028,.T.);
#1030=ADVANCED_FACE('',(#1029),#1025,.T.);
#1031=CLOSED_SHELL('',(#986,#1010,#1020,#1030));
#1032=MANIFOLD_SOLID_BREP('9C5',#1031);
#1033=STYLED_ITEM('NONE',(#943),#1032);
#1034=CARTESIAN_POINT('',(21.600000000000009,21.600000000000001,0.0));
#1035=DIRECTION('',(0.0,0.0,-1.0));
#1036=DIRECTION('',(0.0,1.0,0.0));
#1037=AXIS2_PLACEMENT_3D('',#1034,#1035,#1036);
#1038=CYLINDRICAL_SURFACE('',#1037,0.500000000000000);
#1039=CARTESIAN_POINT('',(21.600000000000009,22.100000000000001,0.0));
#1040=VERTEX_POINT('',#1039);
#1041=CARTESIAN_POINT('',(21.600000000000009,22.100000000000001,-3.0));
#1042=VERTEX_POINT('',#1041);
#1043=CARTESIAN_POINT('',(21.600000000000009,22.100000000000001,0.0));
#1044=DIRECTION('',(0.0,0.0,-1.0));
#1045=VECTOR('',#1044,3.0);
#1046=LINE('',#1043,#1045);
#1047=EDGE_CURVE('',#1040,#1042,#1046,.T.);
#1048=ORIENTED_EDGE('',*,*,#1047,.F.);
#1049=CARTESIAN_POINT('',(21.600000000000009,21.100000000000001,0.0));
#1050=VERTEX_POINT('',#1049);
#1051=CARTESIAN_POINT('',(21.600000000000009,21.600000000000001,0.0));
#1052=DIRECTION('',(0.0,0.0,1.0));
#1053=DIRECTION('',(0.0,1.0,0.0));
#1054=AXIS2_PLACEMENT_3D('',#1051,#1052,#1053);
#1055=CIRCLE('',#1054,0.500000000000000);
#1056=EDGE_CURVE('',#1050,#1040,#1055,.T.);
#1057=ORIENTED_EDGE('',*,*,#1056,.F.);
#1058=CARTESIAN_POINT('',(21.600000000000009,21.100000000000001,-3.0));
#1059=VERTEX_POINT('',#1058);
#1060=CARTESIAN_POINT('',(21.600000000000009,21.100000000000001,-3.0));
#1061=DIRECTION('',(0.0,0.0,1.0));
#1062=VECTOR('',#1061,3.0);
#1063=LINE('',#1060,#1062);
#1064=EDGE_CURVE('',#1059,#1050,#1063,.T.);
#1065=ORIENTED_EDGE('',*,*,#1064,.F.);
#1066=CARTESIAN_POINT('',(21.600000000000009,21.600000000000001,-3.0));
#1067=DIRECTION('',(0.0,0.0,1.0));
#1068=DIRECTION('',(0.0,1.0,0.0));
#1069=AXIS2_PLACEMENT_3D('',#1066,#1067,#1068);
#1070=CIRCLE('',#1069,0.500000000000000);
#1071=EDGE_CURVE('',#1059,#1042,#1070,.T.);
#1072=ORIENTED_EDGE('',*,*,#1071,.T.);
#1073=EDGE_LOOP('',(#1048,#1057,#1065,#1072));
#1074=FACE_OUTER_BOUND('',#1073,.T.);
#1075=ADVANCED_FACE('',(#1074),#1038,.T.);
#1076=CARTESIAN_POINT('',(21.600000000000009,21.600000000000001,0.0));
#1077=DIRECTION('',(0.0,0.0,-1.0));
#1078=DIRECTION('',(0.0,1.0,0.0));
#1079=AXIS2_PLACEMENT_3D('',#1076,#1077,#1078);
#1080=CYLINDRICAL_SURFACE('',#1079,0.500000000000000);
#1081=ORIENTED_EDGE('',*,*,#1047,.T.);
#1082=CARTESIAN_POINT('',(21.600000000000009,21.600000000000001,-3.0));
#1083=DIRECTION('',(0.0,0.0,1.0));
#1084=DIRECTION('',(0.0,1.0,0.0));
#1085=AXIS2_PLACEMENT_3D('',#1082,#1083,#1084);
#1086=CIRCLE('',#1085,0.500000000000000);
#1087=EDGE_CURVE('',#1042,#1059,#1086,.T.);
#1088=ORIENTED_EDGE('',*,*,#1087,.T.);
#1089=ORIENTED_EDGE('',*,*,#1064,.T.);
#1090=CARTESIAN_POINT('',(21.600000000000009,21.600000000000001,0.0));
#1091=DIRECTION('',(0.0,0.0,1.0));
#1092=DIRECTION('',(0.0,1.0,0.0));
#1093=AXIS2_PLACEMENT_3D('',#1090,#1091,#1092);
#1094=CIRCLE('',#1093,0.500000000000000);
#1095=EDGE_CURVE('',#1040,#1050,#1094,.T.);
#1096=ORIENTED_EDGE('',*,*,#1095,.F.);
#1097=EDGE_LOOP('',(#1081,#1088,#1089,#1096));
#1098=FACE_OUTER_BOUND('',#1097,.T.);
#1099=ADVANCED_FACE('',(#1098),#1080,.T.);
#1100=CARTESIAN_POINT('',(21.600000000000009,21.600000000000001,-3.0));
#1101=DIRECTION('',(0.0,0.0,1.0));
#1102=DIRECTION('',(0.0,1.0,0.0));
#1103=AXIS2_PLACEMENT_3D('',#1100,#1101,#1102);
#1104=PLANE('',#1103);
#1105=ORIENTED_EDGE('',*,*,#1087,.F.);
#1106=ORIENTED_EDGE('',*,*,#1071,.F.);
#1107=EDGE_LOOP('',(#1105,#1106));
#1108=FACE_OUTER_BOUND('',#1107,.T.);
#1109=ADVANCED_FACE('',(#1108),#1104,.F.);
#1110=CARTESIAN_POINT('',(21.600000000000009,21.600000000000001,0.0));
#1111=DIRECTION('',(0.0,0.0,1.0));
#1112=DIRECTION('',(0.0,1.0,0.0));
#1113=AXIS2_PLACEMENT_3D('',#1110,#1111,#1112);
#1114=PLANE('',#1113);
#1115=ORIENTED_EDGE('',*,*,#1095,.T.);
#1116=ORIENTED_EDGE('',*,*,#1056,.T.);
#1117=EDGE_LOOP('',(#1115,#1116));
#1118=FACE_OUTER_BOUND('',#1117,.T.);
#1119=ADVANCED_FACE('',(#1118),#1114,.T.);
#1120=CLOSED_SHELL('',(#1075,#1099,#1109,#1119));
#1121=MANIFOLD_SOLID_BREP('9C4',#1120);
#1122=STYLED_ITEM('NONE',(#943),#1121);
#1123=CARTESIAN_POINT('',(-21.599999999999987,21.0,0.0));
#1124=DIRECTION('',(0.0,0.0,-1.0));
#1125=DIRECTION('',(0.0,1.0,0.0));
#1126=AXIS2_PLACEMENT_3D('',#1123,#1124,#1125);
#1127=CYLINDRICAL_SURFACE('',#1126,0.500000000000000);
#1128=CARTESIAN_POINT('',(-21.599999999999987,21.500000000000000,0.0));
#1129=VERTEX_POINT('',#1128);
#1130=CARTESIAN_POINT('',(-21.599999999999987,21.500000000000000,-3.0));
#1131=VERTEX_POINT('',#1130);
#1132=CARTESIAN_POINT('',(-21.599999999999987,21.500000000000000,0.0));
#1133=DIRECTION('',(0.0,0.0,-1.0));
#1134=VECTOR('',#1133,3.0);
#1135=LINE('',#1132,#1134);
#1136=EDGE_CURVE('',#1129,#1131,#1135,.T.);
#1137=ORIENTED_EDGE('',*,*,#1136,.F.);
#1138=CARTESIAN_POINT('',(-21.599999999999987,20.500000000000000,0.0));
#1139=VERTEX_POINT('',#1138);
#1140=CARTESIAN_POINT('',(-21.599999999999987,21.0,0.0));
#1141=DIRECTION('',(0.0,0.0,1.0));
#1142=DIRECTION('',(0.0,1.0,0.0));
#1143=AXIS2_PLACEMENT_3D('',#1140,#1141,#1142);
#1144=CIRCLE('',#1143,0.500000000000000);
#1145=EDGE_CURVE('',#1139,#1129,#1144,.T.);
#1146=ORIENTED_EDGE('',*,*,#1145,.F.);
#1147=CARTESIAN_POINT('',(-21.599999999999987,20.500000000000000,-3.0));
#1148=VERTEX_POINT('',#1147);
#1149=CARTESIAN_POINT('',(-21.599999999999987,20.500000000000000,-3.0));
#1150=DIRECTION('',(0.0,0.0,1.0));
#1151=VECTOR('',#1150,3.0);
#1152=LINE('',#1149,#1151);
#1153=EDGE_CURVE('',#1148,#1139,#1152,.T.);
#1154=ORIENTED_EDGE('',*,*,#1153,.F.);
#1155=CARTESIAN_POINT('',(-21.599999999999987,21.0,-3.0));
#1156=DIRECTION('',(0.0,0.0,1.0));
#1157=DIRECTION('',(0.0,1.0,0.0));
#1158=AXIS2_PLACEMENT_3D('',#1155,#1156,#1157);
#1159=CIRCLE('',#1158,0.500000000000000);
#1160=EDGE_CURVE('',#1148,#1131,#1159,.T.);
#1161=ORIENTED_EDGE('',*,*,#1160,.T.);
#1162=EDGE_LOOP('',(#1137,#1146,#1154,#1161));
#1163=FACE_OUTER_BOUND('',#1162,.T.);
#1164=ADVANCED_FACE('',(#1163),#1127,.T.);
#1165=CARTESIAN_POINT('',(-21.599999999999987,21.0,0.0));
#1166=DIRECTION('',(0.0,0.0,-1.0));
#1167=DIRECTION('',(0.0,1.0,0.0));
#1168=AXIS2_PLACEMENT_3D('',#1165,#1166,#1167);
#1169=CYLINDRICAL_SURFACE('',#1168,0.500000000000000);
#1170=ORIENTED_EDGE('',*,*,#1136,.T.);
#1171=CARTESIAN_POINT('',(-21.599999999999987,21.0,-3.0));
#1172=DIRECTION('',(0.0,0.0,1.0));
#1173=DIRECTION('',(0.0,1.0,0.0));
#1174=AXIS2_PLACEMENT_3D('',#1171,#1172,#1173);
#1175=CIRCLE('',#1174,0.500000000000000);
#1176=EDGE_CURVE('',#1131,#1148,#1175,.T.);
#1177=ORIENTED_EDGE('',*,*,#1176,.T.);
#1178=ORIENTED_EDGE('',*,*,#1153,.T.);
#1179=CARTESIAN_POINT('',(-21.599999999999987,21.0,0.0));
#1180=DIRECTION('',(0.0,0.0,1.0));
#1181=DIRECTION('',(0.0,1.0,0.0));
#1182=AXIS2_PLACEMENT_3D('',#1179,#1180,#1181);
#1183=CIRCLE('',#1182,0.500000000000000);
#1184=EDGE_CURVE('',#1129,#1139,#1183,.T.);
#1185=ORIENTED_EDGE('',*,*,#1184,.F.);
#1186=EDGE_LOOP('',(#1170,#1177,#1178,#1185));
#1187=FACE_OUTER_BOUND('',#1186,.T.);
#1188=ADVANCED_FACE('',(#1187),#1169,.T.);
#1189=CARTESIAN_POINT('',(-21.599999999999987,21.0,-3.0));
#1190=DIRECTION('',(0.0,0.0,1.0));
#1191=DIRECTION('',(0.0,1.0,0.0));
#1192=AXIS2_PLACEMENT_3D('',#1189,#1190,#1191);
#1193=PLANE('',#1192);
#1194=ORIENTED_EDGE('',*,*,#1176,.F.);
#1195=ORIENTED_EDGE('',*,*,#1160,.F.);
#1196=EDGE_LOOP('',(#1194,#1195));
#1197=FACE_OUTER_BOUND('',#1196,.T.);
#1198=ADVANCED_FACE('',(#1197),#1193,.F.);
#1199=CARTESIAN_POINT('',(-21.599999999999987,21.0,0.0));
#1200=DIRECTION('',(0.0,0.0,1.0));
#1201=DIRECTION('',(0.0,1.0,0.0));
#1202=AXIS2_PLACEMENT_3D('',#1199,#1200,#1201);
#1203=PLANE('',#1202);
#1204=ORIENTED_EDGE('',*,*,#1184,.T.);
#1205=ORIENTED_EDGE('',*,*,#1145,.T.);
#1206=EDGE_LOOP('',(#1204,#1205));
#1207=FACE_OUTER_BOUND('',#1206,.T.);
#1208=ADVANCED_FACE('',(#1207),#1203,.T.);
#1209=CLOSED_SHELL('',(#1164,#1188,#1198,#1208));
#1210=MANIFOLD_SOLID_BREP('9C3',#1209);
#1211=STYLED_ITEM('NONE',(#943),#1210);
#1212=CARTESIAN_POINT('',(-21.600000000000001,-20.999999999999993,0.0));
#1213=DIRECTION('',(0.0,0.0,-1.0));
#1214=DIRECTION('',(0.0,1.0,0.0));
#1215=AXIS2_PLACEMENT_3D('',#1212,#1213,#1214);
#1216=CYLINDRICAL_SURFACE('',#1215,0.500000000000000);
#1217=CARTESIAN_POINT('',(-21.600000000000001,-20.499999999999993,0.0));
#1218=VERTEX_POINT('',#1217);
#1219=CARTESIAN_POINT('',(-21.600000000000001,-20.499999999999993,-3.0));
#1220=VERTEX_POINT('',#1219);
#1221=CARTESIAN_POINT('',(-21.600000000000001,-20.499999999999993,0.0));
#1222=DIRECTION('',(0.0,0.0,-1.0));
#1223=VECTOR('',#1222,3.0);
#1224=LINE('',#1221,#1223);
#1225=EDGE_CURVE('',#1218,#1220,#1224,.T.);
#1226=ORIENTED_EDGE('',*,*,#1225,.F.);
#1227=CARTESIAN_POINT('',(-21.600000000000001,-21.499999999999993,0.0));
#1228=VERTEX_POINT('',#1227);
#1229=CARTESIAN_POINT('',(-21.600000000000001,-20.999999999999993,0.0));
#1230=DIRECTION('',(0.0,0.0,1.0));
#1231=DIRECTION('',(0.0,1.0,0.0));
#1232=AXIS2_PLACEMENT_3D('',#1229,#1230,#1231);
#1233=CIRCLE('',#1232,0.500000000000000);
#1234=EDGE_CURVE('',#1228,#1218,#1233,.T.);
#1235=ORIENTED_EDGE('',*,*,#1234,.F.);
#1236=CARTESIAN_POINT('',(-21.600000000000001,-21.499999999999993,-3.0));
#1237=VERTEX_POINT('',#1236);
#1238=CARTESIAN_POINT('',(-21.600000000000001,-21.499999999999993,-3.0));
#1239=DIRECTION('',(0.0,0.0,1.0));
#1240=VECTOR('',#1239,3.0);
#1241=LINE('',#1238,#1240);
#1242=EDGE_CURVE('',#1237,#1228,#1241,.T.);
#1243=ORIENTED_EDGE('',*,*,#1242,.F.);
#1244=CARTESIAN_POINT('',(-21.600000000000001,-20.999999999999993,-3.0));
#1245=DIRECTION('',(0.0,0.0,1.0));
#1246=DIRECTION('',(0.0,1.0,0.0));
#1247=AXIS2_PLACEMENT_3D('',#1244,#1245,#1246);
#1248=CIRCLE('',#1247,0.500000000000000);
#1249=EDGE_CURVE('',#1237,#1220,#1248,.T.);
#1250=ORIENTED_EDGE('',*,*,#1249,.T.);
#1251=EDGE_LOOP('',(#1226,#1235,#1243,#1250));
#1252=FACE_OUTER_BOUND('',#1251,.T.);
#1253=ADVANCED_FACE('',(#1252),#1216,.T.);
#1254=CARTESIAN_POINT('',(-21.600000000000001,-20.999999999999993,0.0));
#1255=DIRECTION('',(0.0,0.0,-1.0));
#1256=DIRECTION('',(0.0,1.0,0.0));
#1257=AXIS2_PLACEMENT_3D('',#1254,#1255,#1256);
#1258=CYLINDRICAL_SURFACE('',#1257,0.500000000000000);
#1259=ORIENTED_EDGE('',*,*,#1225,.T.);
#1260=CARTESIAN_POINT('',(-21.600000000000001,-20.999999999999993,-3.0));
#1261=DIRECTION('',(0.0,0.0,1.0));
#1262=DIRECTION('',(0.0,1.0,0.0));
#1263=AXIS2_PLACEMENT_3D('',#1260,#1261,#1262);
#1264=CIRCLE('',#1263,0.500000000000000);
#1265=EDGE_CURVE('',#1220,#1237,#1264,.T.);
#1266=ORIENTED_EDGE('',*,*,#1265,.T.);
#1267=ORIENTED_EDGE('',*,*,#1242,.T.);
#1268=CARTESIAN_POINT('',(-21.600000000000001,-20.999999999999993,0.0));
#1269=DIRECTION('',(0.0,0.0,1.0));
#1270=DIRECTION('',(0.0,1.0,0.0));
#1271=AXIS2_PLACEMENT_3D('',#1268,#1269,#1270);
#1272=CIRCLE('',#1271,0.500000000000000);
#1273=EDGE_CURVE('',#1218,#1228,#1272,.T.);
#1274=ORIENTED_EDGE('',*,*,#1273,.F.);
#1275=EDGE_LOOP('',(#1259,#1266,#1267,#1274));
#1276=FACE_OUTER_BOUND('',#1275,.T.);
#1277=ADVANCED_FACE('',(#1276),#1258,.T.);
#1278=CARTESIAN_POINT('',(-21.600000000000001,-20.999999999999993,-3.0));
#1279=DIRECTION('',(0.0,0.0,1.0));
#1280=DIRECTION('',(0.0,1.0,0.0));
#1281=AXIS2_PLACEMENT_3D('',#1278,#1279,#1280);
#1282=PLANE('',#1281);
#1283=ORIENTED_EDGE('',*,*,#1265,.F.);
#1284=ORIENTED_EDGE('',*,*,#1249,.F.);
#1285=EDGE_LOOP('',(#1283,#1284));
#1286=FACE_OUTER_BOUND('',#1285,.T.);
#1287=ADVANCED_FACE('',(#1286),#1282,.F.);
#1288=CARTESIAN_POINT('',(-21.600000000000001,-20.999999999999993,0.0));
#1289=DIRECTION('',(0.0,0.0,1.0));
#1290=DIRECTION('',(0.0,1.0,0.0));
#1291=AXIS2_PLACEMENT_3D('',#1288,#1289,#1290);
#1292=PLANE('',#1291);
#1293=ORIENTED_EDGE('',*,*,#1273,.T.);
#1294=ORIENTED_EDGE('',*,*,#1234,.T.);
#1295=EDGE_LOOP('',(#1293,#1294));
#1296=FACE_OUTER_BOUND('',#1295,.T.);
#1297=ADVANCED_FACE('',(#1296),#1292,.T.);
#1298=CLOSED_SHELL('',(#1253,#1277,#1287,#1297));
#1299=MANIFOLD_SOLID_BREP('9C2',#1298);
#1300=STYLED_ITEM('NONE',(#943),#1299);
#1301=ADVANCED_BREP_SHAPE_REPRESENTATION('ABSR1',(#838,#936,#1032,#1121,#1210,#1299),#28);
#1302=SHAPE_REPRESENTATION_RELATIONSHIP('SRRPL1','',#1301,#62);
ENDSEC;
END-ISO-10303-21;
