ISO-10303-21;
HEADER;
/****************************************************************
 * Generated by software with PDElib inside                    *
 * PDElib Version v51a, created Fri 09/10/2010                  *
 * ITI Transcendata (http://www.transcendata.com/)              *
 ****************************************************************/
FILE_DESCRIPTION((''),'2;1');
FILE_NAME('DCDC_TRACO_TEL5.stp','2012-05-08T09:11:48',(''),(''),'Mechanical Desktop 2011','Mechanical Desktop 2011',', , ');
FILE_SCHEMA(('AUTOMOTIVE_DESIGN { 1 2 10303 214 1 1 1 1 }'));
ENDSEC;
DATA;
#10=(NAMED_UNIT(*)PLANE_ANGLE_UNIT()SI_UNIT($,.RADIAN.));
#11=DIMENSIONAL_EXPONENTS(0.0,0.0,0.0,0.0,0.0,0.0,0.0);
#12=PLANE_ANGLE_MEASURE_WITH_UNIT(PLANE_ANGLE_MEASURE(0.0174532925),#10);
#16=(CONVERSION_BASED_UNIT('DEGREE',#12)NAMED_UNIT(#11)PLANE_ANGLE_UNIT());
#20=(NAMED_UNIT(*)SI_UNIT($,.STERADIAN.)SOLID_ANGLE_UNIT());
#24=(LENGTH_UNIT()NAMED_UNIT(*)SI_UNIT(.MILLI.,.METRE.));
#26=UNCERTAINTY_MEASURE_WITH_UNIT(LENGTH_MEASURE(0.000001),#24,'DISTANCE_ACCURACY_VALUE','');
#28=(GEOMETRIC_REPRESENTATION_CONTEXT(3)GLOBAL_UNCERTAINTY_ASSIGNED_CONTEXT((#26))GLOBAL_UNIT_ASSIGNED_CONTEXT((#16,#20,#24))REPRESENTATION_CONTEXT('','3D'));
#29=APPLICATION_CONTEXT('automotive design');
#30=APPLICATION_PROTOCOL_DEFINITION('INTERNATIONAL_STANDARD','automotive_design',1998,#29);
#31=PRODUCT_CONTEXT('3D Mechanical Parts',#29,'mechanical');
#32=PRODUCT('Product','Product','',(#31));
#33=PRODUCT_RELATED_PRODUCT_CATEGORY('part',$,(#32));
#34=PRODUCT_CATEGORY('part',$);
#35=PERSON('1','Design','Joe',$,$,$);
#36=ORGANIZATION($,'None','None');
#37=PERSON_AND_ORGANIZATION(#35,#36);
#38=PERSON_AND_ORGANIZATION_ROLE('design_owner');
#39=APPLIED_PERSON_AND_ORGANIZATION_ASSIGNMENT(#37,#38,(#32));
#40=PRODUCT_DEFINITION_FORMATION_WITH_SPECIFIED_SOURCE('None','',#32,.BOUGHT.);
#41=PERSON('2','Creator','Joe',$,$,$);
#42=ORGANIZATION($,'None','None');
#43=PERSON_AND_ORGANIZATION(#41,#42);
#44=PERSON_AND_ORGANIZATION_ROLE('creator');
#45=APPLIED_PERSON_AND_ORGANIZATION_ASSIGNMENT(#43,#44,(#40));
#46=PERSON('3','Supplier','Joe',$,$,$);
#47=ORGANIZATION($,'None','None');
#48=PERSON_AND_ORGANIZATION(#46,#47);
#49=PERSON_AND_ORGANIZATION_ROLE('design_supplier');
#50=APPLIED_PERSON_AND_ORGANIZATION_ASSIGNMENT(#48,#49,(#40));
#51=PRODUCT_DEFINITION_CONTEXT('part definition',#29,'design');
#52=PRODUCT_DEFINITION('None','',#40,#51);
#53=PERSON('4','Creator','Joe',$,$,$);
#54=ORGANIZATION($,'None','None');
#55=PERSON_AND_ORGANIZATION(#53,#54);
#56=PERSON_AND_ORGANIZATION_ROLE('creator');
#57=APPLIED_PERSON_AND_ORGANIZATION_ASSIGNMENT(#55,#56,(#52));
#58=CARTESIAN_POINT('NONE',(0.0,0.0,0.0));
#59=DIRECTION('NONE',(0.0,0.0,1.0));
#60=DIRECTION('NONE',(1.0,0.0,0.0));
#61=AXIS2_PLACEMENT_3D('NONE',#58,#59,#60);
#62=SHAPE_REPRESENTATION('SR1',(#61),#28);
#63=PRODUCT_DEFINITION_SHAPE('PDS1','Test Part',#52);
#64=SHAPE_DEFINITION_REPRESENTATION(#63,#62);
#65=CARTESIAN_POINT('',(11.43,-7.620000000000001,-1.8));
#66=DIRECTION('',(0.0,-1.224647E-016,-1.0));
#67=DIRECTION('',(1.0,0.0,0.0));
#68=AXIS2_PLACEMENT_3D('',#65,#66,#67);
#69=CYLINDRICAL_SURFACE('',#68,0.275);
#70=CARTESIAN_POINT('',(11.705,-7.620000000000001,-3.6));
#71=VERTEX_POINT('',#70);
#72=CARTESIAN_POINT('',(11.705,-7.620000000000001,0.0));
#73=VERTEX_POINT('',#72);
#74=CARTESIAN_POINT('',(11.705,-7.620000000000001,-3.6));
#75=DIRECTION('',(0.0,0.0,1.0));
#76=VECTOR('',#75,3.6);
#77=LINE('',#74,#76);
#78=EDGE_CURVE('',#71,#73,#77,.T.);
#79=ORIENTED_EDGE('',*,*,#78,.F.);
#80=CARTESIAN_POINT('',(11.154999999999999,-7.620000000000001,-3.6));
#81=VERTEX_POINT('',#80);
#82=CARTESIAN_POINT('',(11.43,-7.620000000000001,-3.6));
#83=DIRECTION('',(0.0,0.0,-1.0));
#84=DIRECTION('',(1.0,0.0,0.0));
#85=AXIS2_PLACEMENT_3D('',#82,#83,#84);
#86=CIRCLE('',#85,0.275);
#87=EDGE_CURVE('',#81,#71,#86,.T.);
#88=ORIENTED_EDGE('',*,*,#87,.F.);
#89=CARTESIAN_POINT('',(11.154999999999999,-7.620000000000001,0.0));
#90=VERTEX_POINT('',#89);
#91=CARTESIAN_POINT('',(11.154999999999999,-7.620000000000001,-3.6));
#92=DIRECTION('',(0.0,0.0,1.0));
#93=VECTOR('',#92,3.6);
#94=LINE('',#91,#93);
#95=EDGE_CURVE('',#81,#90,#94,.T.);
#96=ORIENTED_EDGE('',*,*,#95,.T.);
#97=CARTESIAN_POINT('',(11.43,-7.620000000000001,0.0));
#98=DIRECTION('',(0.0,0.0,1.0));
#99=DIRECTION('',(1.0,0.0,0.0));
#100=AXIS2_PLACEMENT_3D('',#97,#98,#99);
#101=CIRCLE('',#100,0.275);
#102=EDGE_CURVE('',#73,#90,#101,.T.);
#103=ORIENTED_EDGE('',*,*,#102,.F.);
#104=EDGE_LOOP('',(#79,#88,#96,#103));
#105=FACE_OUTER_BOUND('',#104,.T.);
#106=ADVANCED_FACE('',(#105),#69,.T.);
#107=CARTESIAN_POINT('',(11.43,-7.620000000000001,-1.8));
#108=DIRECTION('',(0.0,-1.224647E-016,-1.0));
#109=DIRECTION('',(1.0,0.0,0.0));
#110=AXIS2_PLACEMENT_3D('',#107,#108,#109);
#111=CYLINDRICAL_SURFACE('',#110,0.275);
#112=ORIENTED_EDGE('',*,*,#78,.T.);
#113=CARTESIAN_POINT('',(11.43,-7.620000000000001,0.0));
#114=DIRECTION('',(0.0,0.0,1.0));
#115=DIRECTION('',(1.0,0.0,0.0));
#116=AXIS2_PLACEMENT_3D('',#113,#114,#115);
#117=CIRCLE('',#116,0.275);
#118=EDGE_CURVE('',#90,#73,#117,.T.);
#119=ORIENTED_EDGE('',*,*,#118,.F.);
#120=ORIENTED_EDGE('',*,*,#95,.F.);
#121=CARTESIAN_POINT('',(11.43,-7.620000000000001,-3.6));
#122=DIRECTION('',(0.0,0.0,-1.0));
#123=DIRECTION('',(1.0,0.0,0.0));
#124=AXIS2_PLACEMENT_3D('',#121,#122,#123);
#125=CIRCLE('',#124,0.275);
#126=EDGE_CURVE('',#71,#81,#125,.T.);
#127=ORIENTED_EDGE('',*,*,#126,.F.);
#128=EDGE_LOOP('',(#112,#119,#120,#127));
#129=FACE_OUTER_BOUND('',#128,.T.);
#130=ADVANCED_FACE('',(#129),#111,.T.);
#131=CARTESIAN_POINT('',(11.43,-7.620000000000001,0.0));
#132=DIRECTION('',(0.0,0.0,1.0));
#133=DIRECTION('',(-1.0,0.0,0.0));
#134=AXIS2_PLACEMENT_3D('',#131,#132,#133);
#135=PLANE('',#134);
#136=ORIENTED_EDGE('',*,*,#102,.T.);
#137=ORIENTED_EDGE('',*,*,#118,.T.);
#138=EDGE_LOOP('',(#136,#137));
#139=FACE_OUTER_BOUND('',#138,.T.);
#140=ADVANCED_FACE('',(#139),#135,.T.);
#141=CARTESIAN_POINT('',(11.43,-7.620000000000001,-3.6));
#142=DIRECTION('',(0.0,0.0,-1.0));
#143=DIRECTION('',(1.0,0.0,0.0));
#144=AXIS2_PLACEMENT_3D('',#141,#142,#143);
#145=PLANE('',#144);
#146=ORIENTED_EDGE('',*,*,#126,.T.);
#147=ORIENTED_EDGE('',*,*,#87,.T.);
#148=EDGE_LOOP('',(#146,#147));
#149=FACE_OUTER_BOUND('',#148,.T.);
#150=ADVANCED_FACE('',(#149),#145,.T.);
#151=CLOSED_SHELL('',(#106,#130,#140,#150));
#152=MANIFOLD_SOLID_BREP('1229',#151);
#153=COLOUR_RGB('254',0.866,0.866,0.866);
#154=SURFACE_STYLE_USAGE(.BOTH.,#155);
#155=SURFACE_SIDE_STYLE('NONE',(#156));
#156=SURFACE_STYLE_FILL_AREA(#157);
#157=FILL_AREA_STYLE('NONE',(#158));
#158=FILL_AREA_STYLE_COLOUR('NONE',#153);
#159=PRESENTATION_STYLE_ASSIGNMENT((#154));
#160=STYLED_ITEM('NONE',(#159),#152);
#161=MECHANICAL_DESIGN_GEOMETRIC_PRESENTATION_REPRESENTATION('NONE',(#160,#251,#340,#429,#518,#607,#696,#785,#1293,#1591),#28);
#162=PRESENTATION_LAYER_ASSIGNMENT('3D','None',(#152,#250,#339,#428,#517,#606,#695,#784,#1285,#1583));
#163=CARTESIAN_POINT('',(6.350000000000001,-7.620000000000001,-1.8));
#164=DIRECTION('',(0.0,-1.224647E-016,-1.0));
#165=DIRECTION('',(1.0,0.0,0.0));
#166=AXIS2_PLACEMENT_3D('',#163,#164,#165);
#167=CYLINDRICAL_SURFACE('',#166,0.275);
#168=CARTESIAN_POINT('',(6.625000000000002,-7.620000000000001,-3.6));
#169=VERTEX_POINT('',#168);
#170=CARTESIAN_POINT('',(6.625000000000002,-7.620000000000001,0.0));
#171=VERTEX_POINT('',#170);
#172=CARTESIAN_POINT('',(6.625000000000002,-7.620000000000001,-3.6));
#173=DIRECTION('',(0.0,0.0,1.0));
#174=VECTOR('',#173,3.6);
#175=LINE('',#172,#174);
#176=EDGE_CURVE('',#169,#171,#175,.T.);
#177=ORIENTED_EDGE('',*,*,#176,.F.);
#178=CARTESIAN_POINT('',(6.075000000000001,-7.620000000000001,-3.6));
#179=VERTEX_POINT('',#178);
#180=CARTESIAN_POINT('',(6.350000000000001,-7.620000000000001,-3.6));
#181=DIRECTION('',(0.0,0.0,-1.0));
#182=DIRECTION('',(1.0,0.0,0.0));
#183=AXIS2_PLACEMENT_3D('',#180,#181,#182);
#184=CIRCLE('',#183,0.275);
#185=EDGE_CURVE('',#179,#169,#184,.T.);
#186=ORIENTED_EDGE('',*,*,#185,.F.);
#187=CARTESIAN_POINT('',(6.075000000000001,-7.620000000000001,0.0));
#188=VERTEX_POINT('',#187);
#189=CARTESIAN_POINT('',(6.075000000000001,-7.620000000000001,-3.6));
#190=DIRECTION('',(0.0,0.0,1.0));
#191=VECTOR('',#190,3.6);
#192=LINE('',#189,#191);
#193=EDGE_CURVE('',#179,#188,#192,.T.);
#194=ORIENTED_EDGE('',*,*,#193,.T.);
#195=CARTESIAN_POINT('',(6.350000000000001,-7.620000000000001,0.0));
#196=DIRECTION('',(0.0,0.0,1.0));
#197=DIRECTION('',(1.0,0.0,0.0));
#198=AXIS2_PLACEMENT_3D('',#195,#196,#197);
#199=CIRCLE('',#198,0.275);
#200=EDGE_CURVE('',#171,#188,#199,.T.);
#201=ORIENTED_EDGE('',*,*,#200,.F.);
#202=EDGE_LOOP('',(#177,#186,#194,#201));
#203=FACE_OUTER_BOUND('',#202,.T.);
#204=ADVANCED_FACE('',(#203),#167,.T.);
#205=CARTESIAN_POINT('',(6.350000000000001,-7.620000000000001,-1.8));
#206=DIRECTION('',(0.0,-1.224647E-016,-1.0));
#207=DIRECTION('',(1.0,0.0,0.0));
#208=AXIS2_PLACEMENT_3D('',#205,#206,#207);
#209=CYLINDRICAL_SURFACE('',#208,0.275);
#210=ORIENTED_EDGE('',*,*,#176,.T.);
#211=CARTESIAN_POINT('',(6.350000000000001,-7.620000000000001,0.0));
#212=DIRECTION('',(0.0,0.0,1.0));
#213=DIRECTION('',(1.0,0.0,0.0));
#214=AXIS2_PLACEMENT_3D('',#211,#212,#213);
#215=CIRCLE('',#214,0.275);
#216=EDGE_CURVE('',#188,#171,#215,.T.);
#217=ORIENTED_EDGE('',*,*,#216,.F.);
#218=ORIENTED_EDGE('',*,*,#193,.F.);
#219=CARTESIAN_POINT('',(6.350000000000001,-7.620000000000001,-3.6));
#220=DIRECTION('',(0.0,0.0,-1.0));
#221=DIRECTION('',(1.0,0.0,0.0));
#222=AXIS2_PLACEMENT_3D('',#219,#220,#221);
#223=CIRCLE('',#222,0.275);
#224=EDGE_CURVE('',#169,#179,#223,.T.);
#225=ORIENTED_EDGE('',*,*,#224,.F.);
#226=EDGE_LOOP('',(#210,#217,#218,#225));
#227=FACE_OUTER_BOUND('',#226,.T.);
#228=ADVANCED_FACE('',(#227),#209,.T.);
#229=CARTESIAN_POINT('',(6.350000000000001,-7.620000000000001,0.0));
#230=DIRECTION('',(0.0,0.0,1.0));
#231=DIRECTION('',(-1.0,0.0,0.0));
#232=AXIS2_PLACEMENT_3D('',#229,#230,#231);
#233=PLANE('',#232);
#234=ORIENTED_EDGE('',*,*,#200,.T.);
#235=ORIENTED_EDGE('',*,*,#216,.T.);
#236=EDGE_LOOP('',(#234,#235));
#237=FACE_OUTER_BOUND('',#236,.T.);
#238=ADVANCED_FACE('',(#237),#233,.T.);
#239=CARTESIAN_POINT('',(6.350000000000001,-7.620000000000001,-3.6));
#240=DIRECTION('',(0.0,0.0,-1.0));
#241=DIRECTION('',(1.0,0.0,0.0));
#242=AXIS2_PLACEMENT_3D('',#239,#240,#241);
#243=PLANE('',#242);
#244=ORIENTED_EDGE('',*,*,#224,.T.);
#245=ORIENTED_EDGE('',*,*,#185,.T.);
#246=EDGE_LOOP('',(#244,#245));
#247=FACE_OUTER_BOUND('',#246,.T.);
#248=ADVANCED_FACE('',(#247),#243,.T.);
#249=CLOSED_SHELL('',(#204,#228,#238,#248));
#250=MANIFOLD_SOLID_BREP('1225',#249);
#251=STYLED_ITEM('NONE',(#159),#250);
#252=CARTESIAN_POINT('',(-8.890000000000001,-7.620000000000001,-1.8));
#253=DIRECTION('',(0.0,-1.224647E-016,-1.0));
#254=DIRECTION('',(1.0,0.0,0.0));
#255=AXIS2_PLACEMENT_3D('',#252,#253,#254);
#256=CYLINDRICAL_SURFACE('',#255,0.275);
#257=CARTESIAN_POINT('',(-8.615,-7.620000000000001,-3.6));
#258=VERTEX_POINT('',#257);
#259=CARTESIAN_POINT('',(-8.615,-7.620000000000001,0.0));
#260=VERTEX_POINT('',#259);
#261=CARTESIAN_POINT('',(-8.615,-7.620000000000001,-3.6));
#262=DIRECTION('',(0.0,0.0,1.0));
#263=VECTOR('',#262,3.6);
#264=LINE('',#261,#263);
#265=EDGE_CURVE('',#258,#260,#264,.T.);
#266=ORIENTED_EDGE('',*,*,#265,.F.);
#267=CARTESIAN_POINT('',(-9.165000000000001,-7.620000000000001,-3.6));
#268=VERTEX_POINT('',#267);
#269=CARTESIAN_POINT('',(-8.890000000000001,-7.620000000000001,-3.6));
#270=DIRECTION('',(0.0,0.0,-1.0));
#271=DIRECTION('',(1.0,0.0,0.0));
#272=AXIS2_PLACEMENT_3D('',#269,#270,#271);
#273=CIRCLE('',#272,0.275);
#274=EDGE_CURVE('',#268,#258,#273,.T.);
#275=ORIENTED_EDGE('',*,*,#274,.F.);
#276=CARTESIAN_POINT('',(-9.165000000000001,-7.620000000000001,0.0));
#277=VERTEX_POINT('',#276);
#278=CARTESIAN_POINT('',(-9.165000000000001,-7.620000000000001,-3.6));
#279=DIRECTION('',(0.0,0.0,1.0));
#280=VECTOR('',#279,3.6);
#281=LINE('',#278,#280);
#282=EDGE_CURVE('',#268,#277,#281,.T.);
#283=ORIENTED_EDGE('',*,*,#282,.T.);
#284=CARTESIAN_POINT('',(-8.890000000000001,-7.620000000000001,0.0));
#285=DIRECTION('',(0.0,0.0,1.0));
#286=DIRECTION('',(1.0,0.0,0.0));
#287=AXIS2_PLACEMENT_3D('',#284,#285,#286);
#288=CIRCLE('',#287,0.275);
#289=EDGE_CURVE('',#260,#277,#288,.T.);
#290=ORIENTED_EDGE('',*,*,#289,.F.);
#291=EDGE_LOOP('',(#266,#275,#283,#290));
#292=FACE_OUTER_BOUND('',#291,.T.);
#293=ADVANCED_FACE('',(#292),#256,.T.);
#294=CARTESIAN_POINT('',(-8.890000000000001,-7.620000000000001,-1.8));
#295=DIRECTION('',(0.0,-1.224647E-016,-1.0));
#296=DIRECTION('',(1.0,0.0,0.0));
#297=AXIS2_PLACEMENT_3D('',#294,#295,#296);
#298=CYLINDRICAL_SURFACE('',#297,0.275);
#299=ORIENTED_EDGE('',*,*,#265,.T.);
#300=CARTESIAN_POINT('',(-8.890000000000001,-7.620000000000001,0.0));
#301=DIRECTION('',(0.0,0.0,1.0));
#302=DIRECTION('',(1.0,0.0,0.0));
#303=AXIS2_PLACEMENT_3D('',#300,#301,#302);
#304=CIRCLE('',#303,0.275);
#305=EDGE_CURVE('',#277,#260,#304,.T.);
#306=ORIENTED_EDGE('',*,*,#305,.F.);
#307=ORIENTED_EDGE('',*,*,#282,.F.);
#308=CARTESIAN_POINT('',(-8.890000000000001,-7.620000000000001,-3.6));
#309=DIRECTION('',(0.0,0.0,-1.0));
#310=DIRECTION('',(1.0,0.0,0.0));
#311=AXIS2_PLACEMENT_3D('',#308,#309,#310);
#312=CIRCLE('',#311,0.275);
#313=EDGE_CURVE('',#258,#268,#312,.T.);
#314=ORIENTED_EDGE('',*,*,#313,.F.);
#315=EDGE_LOOP('',(#299,#306,#307,#314));
#316=FACE_OUTER_BOUND('',#315,.T.);
#317=ADVANCED_FACE('',(#316),#298,.T.);
#318=CARTESIAN_POINT('',(-8.890000000000001,-7.620000000000001,0.0));
#319=DIRECTION('',(0.0,0.0,1.0));
#320=DIRECTION('',(-1.0,0.0,0.0));
#321=AXIS2_PLACEMENT_3D('',#318,#319,#320);
#322=PLANE('',#321);
#323=ORIENTED_EDGE('',*,*,#289,.T.);
#324=ORIENTED_EDGE('',*,*,#305,.T.);
#325=EDGE_LOOP('',(#323,#324));
#326=FACE_OUTER_BOUND('',#325,.T.);
#327=ADVANCED_FACE('',(#326),#322,.T.);
#328=CARTESIAN_POINT('',(-8.890000000000001,-7.620000000000001,-3.6));
#329=DIRECTION('',(0.0,0.0,-1.0));
#330=DIRECTION('',(1.0,0.0,0.0));
#331=AXIS2_PLACEMENT_3D('',#328,#329,#330);
#332=PLANE('',#331);
#333=ORIENTED_EDGE('',*,*,#313,.T.);
#334=ORIENTED_EDGE('',*,*,#274,.T.);
#335=EDGE_LOOP('',(#333,#334));
#336=FACE_OUTER_BOUND('',#335,.T.);
#337=ADVANCED_FACE('',(#336),#332,.T.);
#338=CLOSED_SHELL('',(#293,#317,#327,#337));
#339=MANIFOLD_SOLID_BREP('1221',#338);
#340=STYLED_ITEM('NONE',(#159),#339);
#341=CARTESIAN_POINT('',(-11.43,-7.620000000000001,-1.8));
#342=DIRECTION('',(0.0,-1.224647E-016,-1.0));
#343=DIRECTION('',(1.0,0.0,0.0));
#344=AXIS2_PLACEMENT_3D('',#341,#342,#343);
#345=CYLINDRICAL_SURFACE('',#344,0.275);
#346=CARTESIAN_POINT('',(-11.154999999999999,-7.620000000000001,-3.6));
#347=VERTEX_POINT('',#346);
#348=CARTESIAN_POINT('',(-11.154999999999999,-7.620000000000001,0.0));
#349=VERTEX_POINT('',#348);
#350=CARTESIAN_POINT('',(-11.154999999999999,-7.620000000000001,-3.6));
#351=DIRECTION('',(0.0,0.0,1.0));
#352=VECTOR('',#351,3.6);
#353=LINE('',#350,#352);
#354=EDGE_CURVE('',#347,#349,#353,.T.);
#355=ORIENTED_EDGE('',*,*,#354,.F.);
#356=CARTESIAN_POINT('',(-11.705,-7.620000000000001,-3.6));
#357=VERTEX_POINT('',#356);
#358=CARTESIAN_POINT('',(-11.43,-7.620000000000001,-3.6));
#359=DIRECTION('',(0.0,0.0,-1.0));
#360=DIRECTION('',(1.0,0.0,0.0));
#361=AXIS2_PLACEMENT_3D('',#358,#359,#360);
#362=CIRCLE('',#361,0.275);
#363=EDGE_CURVE('',#357,#347,#362,.T.);
#364=ORIENTED_EDGE('',*,*,#363,.F.);
#365=CARTESIAN_POINT('',(-11.705,-7.620000000000001,0.0));
#366=VERTEX_POINT('',#365);
#367=CARTESIAN_POINT('',(-11.705,-7.620000000000001,-3.6));
#368=DIRECTION('',(0.0,0.0,1.0));
#369=VECTOR('',#368,3.6);
#370=LINE('',#367,#369);
#371=EDGE_CURVE('',#357,#366,#370,.T.);
#372=ORIENTED_EDGE('',*,*,#371,.T.);
#373=CARTESIAN_POINT('',(-11.43,-7.620000000000001,0.0));
#374=DIRECTION('',(0.0,0.0,1.0));
#375=DIRECTION('',(1.0,0.0,0.0));
#376=AXIS2_PLACEMENT_3D('',#373,#374,#375);
#377=CIRCLE('',#376,0.275);
#378=EDGE_CURVE('',#349,#366,#377,.T.);
#379=ORIENTED_EDGE('',*,*,#378,.F.);
#380=EDGE_LOOP('',(#355,#364,#372,#379));
#381=FACE_OUTER_BOUND('',#380,.T.);
#382=ADVANCED_FACE('',(#381),#345,.T.);
#383=CARTESIAN_POINT('',(-11.43,-7.620000000000001,-1.8));
#384=DIRECTION('',(0.0,-1.224647E-016,-1.0));
#385=DIRECTION('',(1.0,0.0,0.0));
#386=AXIS2_PLACEMENT_3D('',#383,#384,#385);
#387=CYLINDRICAL_SURFACE('',#386,0.275);
#388=ORIENTED_EDGE('',*,*,#354,.T.);
#389=CARTESIAN_POINT('',(-11.43,-7.620000000000001,0.0));
#390=DIRECTION('',(0.0,0.0,1.0));
#391=DIRECTION('',(1.0,0.0,0.0));
#392=AXIS2_PLACEMENT_3D('',#389,#390,#391);
#393=CIRCLE('',#392,0.275);
#394=EDGE_CURVE('',#366,#349,#393,.T.);
#395=ORIENTED_EDGE('',*,*,#394,.F.);
#396=ORIENTED_EDGE('',*,*,#371,.F.);
#397=CARTESIAN_POINT('',(-11.43,-7.620000000000001,-3.6));
#398=DIRECTION('',(0.0,0.0,-1.0));
#399=DIRECTION('',(1.0,0.0,0.0));
#400=AXIS2_PLACEMENT_3D('',#397,#398,#399);
#401=CIRCLE('',#400,0.275);
#402=EDGE_CURVE('',#347,#357,#401,.T.);
#403=ORIENTED_EDGE('',*,*,#402,.F.);
#404=EDGE_LOOP('',(#388,#395,#396,#403));
#405=FACE_OUTER_BOUND('',#404,.T.);
#406=ADVANCED_FACE('',(#405),#387,.T.);
#407=CARTESIAN_POINT('',(-11.43,-7.620000000000001,0.0));
#408=DIRECTION('',(0.0,0.0,1.0));
#409=DIRECTION('',(-1.0,0.0,0.0));
#410=AXIS2_PLACEMENT_3D('',#407,#408,#409);
#411=PLANE('',#410);
#412=ORIENTED_EDGE('',*,*,#378,.T.);
#413=ORIENTED_EDGE('',*,*,#394,.T.);
#414=EDGE_LOOP('',(#412,#413));
#415=FACE_OUTER_BOUND('',#414,.T.);
#416=ADVANCED_FACE('',(#415),#411,.T.);
#417=CARTESIAN_POINT('',(-11.43,-7.620000000000001,-3.6));
#418=DIRECTION('',(0.0,0.0,-1.0));
#419=DIRECTION('',(1.0,0.0,0.0));
#420=AXIS2_PLACEMENT_3D('',#417,#418,#419);
#421=PLANE('',#420);
#422=ORIENTED_EDGE('',*,*,#402,.T.);
#423=ORIENTED_EDGE('',*,*,#363,.T.);
#424=EDGE_LOOP('',(#422,#423));
#425=FACE_OUTER_BOUND('',#424,.T.);
#426=ADVANCED_FACE('',(#425),#421,.T.);
#427=CLOSED_SHELL('',(#382,#406,#416,#426));
#428=MANIFOLD_SOLID_BREP('121D',#427);
#429=STYLED_ITEM('NONE',(#159),#428);
#430=CARTESIAN_POINT('',(-11.43,7.620000000000001,-1.8));
#431=DIRECTION('',(0.0,-1.224647E-016,-1.0));
#432=DIRECTION('',(1.0,0.0,0.0));
#433=AXIS2_PLACEMENT_3D('',#430,#431,#432);
#434=CYLINDRICAL_SURFACE('',#433,0.275);
#435=CARTESIAN_POINT('',(-11.154999999999999,7.620000000000001,-3.6));
#436=VERTEX_POINT('',#435);
#437=CARTESIAN_POINT('',(-11.154999999999999,7.620000000000001,0.0));
#438=VERTEX_POINT('',#437);
#439=CARTESIAN_POINT('',(-11.154999999999999,7.620000000000001,-3.6));
#440=DIRECTION('',(0.0,0.0,1.0));
#441=VECTOR('',#440,3.6);
#442=LINE('',#439,#441);
#443=EDGE_CURVE('',#436,#438,#442,.T.);
#444=ORIENTED_EDGE('',*,*,#443,.F.);
#445=CARTESIAN_POINT('',(-11.705,7.620000000000001,-3.6));
#446=VERTEX_POINT('',#445);
#447=CARTESIAN_POINT('',(-11.43,7.620000000000001,-3.6));
#448=DIRECTION('',(0.0,0.0,-1.0));
#449=DIRECTION('',(1.0,0.0,0.0));
#450=AXIS2_PLACEMENT_3D('',#447,#448,#449);
#451=CIRCLE('',#450,0.275);
#452=EDGE_CURVE('',#446,#436,#451,.T.);
#453=ORIENTED_EDGE('',*,*,#452,.F.);
#454=CARTESIAN_POINT('',(-11.705,7.620000000000001,0.0));
#455=VERTEX_POINT('',#454);
#456=CARTESIAN_POINT('',(-11.705,7.620000000000001,-3.6));
#457=DIRECTION('',(0.0,0.0,1.0));
#458=VECTOR('',#457,3.6);
#459=LINE('',#456,#458);
#460=EDGE_CURVE('',#446,#455,#459,.T.);
#461=ORIENTED_EDGE('',*,*,#460,.T.);
#462=CARTESIAN_POINT('',(-11.43,7.620000000000001,0.0));
#463=DIRECTION('',(0.0,0.0,1.0));
#464=DIRECTION('',(1.0,0.0,0.0));
#465=AXIS2_PLACEMENT_3D('',#462,#463,#464);
#466=CIRCLE('',#465,0.275);
#467=EDGE_CURVE('',#438,#455,#466,.T.);
#468=ORIENTED_EDGE('',*,*,#467,.F.);
#469=EDGE_LOOP('',(#444,#453,#461,#468));
#470=FACE_OUTER_BOUND('',#469,.T.);
#471=ADVANCED_FACE('',(#470),#434,.T.);
#472=CARTESIAN_POINT('',(-11.43,7.620000000000001,-1.8));
#473=DIRECTION('',(0.0,-1.224647E-016,-1.0));
#474=DIRECTION('',(1.0,0.0,0.0));
#475=AXIS2_PLACEMENT_3D('',#472,#473,#474);
#476=CYLINDRICAL_SURFACE('',#475,0.275);
#477=ORIENTED_EDGE('',*,*,#443,.T.);
#478=CARTESIAN_POINT('',(-11.43,7.620000000000001,0.0));
#479=DIRECTION('',(0.0,0.0,1.0));
#480=DIRECTION('',(1.0,0.0,0.0));
#481=AXIS2_PLACEMENT_3D('',#478,#479,#480);
#482=CIRCLE('',#481,0.275);
#483=EDGE_CURVE('',#455,#438,#482,.T.);
#484=ORIENTED_EDGE('',*,*,#483,.F.);
#485=ORIENTED_EDGE('',*,*,#460,.F.);
#486=CARTESIAN_POINT('',(-11.43,7.620000000000001,-3.6));
#487=DIRECTION('',(0.0,0.0,-1.0));
#488=DIRECTION('',(1.0,0.0,0.0));
#489=AXIS2_PLACEMENT_3D('',#486,#487,#488);
#490=CIRCLE('',#489,0.275);
#491=EDGE_CURVE('',#436,#446,#490,.T.);
#492=ORIENTED_EDGE('',*,*,#491,.F.);
#493=EDGE_LOOP('',(#477,#484,#485,#492));
#494=FACE_OUTER_BOUND('',#493,.T.);
#495=ADVANCED_FACE('',(#494),#476,.T.);
#496=CARTESIAN_POINT('',(-11.43,7.620000000000001,0.0));
#497=DIRECTION('',(0.0,0.0,1.0));
#498=DIRECTION('',(-1.0,0.0,0.0));
#499=AXIS2_PLACEMENT_3D('',#496,#497,#498);
#500=PLANE('',#499);
#501=ORIENTED_EDGE('',*,*,#467,.T.);
#502=ORIENTED_EDGE('',*,*,#483,.T.);
#503=EDGE_LOOP('',(#501,#502));
#504=FACE_OUTER_BOUND('',#503,.T.);
#505=ADVANCED_FACE('',(#504),#500,.T.);
#506=CARTESIAN_POINT('',(-11.43,7.620000000000001,-3.6));
#507=DIRECTION('',(0.0,0.0,-1.0));
#508=DIRECTION('',(1.0,0.0,0.0));
#509=AXIS2_PLACEMENT_3D('',#506,#507,#508);
#510=PLANE('',#509);
#511=ORIENTED_EDGE('',*,*,#491,.T.);
#512=ORIENTED_EDGE('',*,*,#452,.T.);
#513=EDGE_LOOP('',(#511,#512));
#514=FACE_OUTER_BOUND('',#513,.T.);
#515=ADVANCED_FACE('',(#514),#510,.T.);
#516=CLOSED_SHELL('',(#471,#495,#505,#515));
#517=MANIFOLD_SOLID_BREP('1219',#516);
#518=STYLED_ITEM('NONE',(#159),#517);
#519=CARTESIAN_POINT('',(-8.890000000000001,7.620000000000001,-1.8));
#520=DIRECTION('',(0.0,-1.224647E-016,-1.0));
#521=DIRECTION('',(1.0,0.0,0.0));
#522=AXIS2_PLACEMENT_3D('',#519,#520,#521);
#523=CYLINDRICAL_SURFACE('',#522,0.275);
#524=CARTESIAN_POINT('',(-8.615,7.620000000000001,-3.6));
#525=VERTEX_POINT('',#524);
#526=CARTESIAN_POINT('',(-8.615,7.620000000000001,0.0));
#527=VERTEX_POINT('',#526);
#528=CARTESIAN_POINT('',(-8.615,7.620000000000001,-3.6));
#529=DIRECTION('',(0.0,0.0,1.0));
#530=VECTOR('',#529,3.6);
#531=LINE('',#528,#530);
#532=EDGE_CURVE('',#525,#527,#531,.T.);
#533=ORIENTED_EDGE('',*,*,#532,.F.);
#534=CARTESIAN_POINT('',(-9.165000000000001,7.620000000000001,-3.6));
#535=VERTEX_POINT('',#534);
#536=CARTESIAN_POINT('',(-8.890000000000001,7.620000000000001,-3.6));
#537=DIRECTION('',(0.0,0.0,-1.0));
#538=DIRECTION('',(1.0,0.0,0.0));
#539=AXIS2_PLACEMENT_3D('',#536,#537,#538);
#540=CIRCLE('',#539,0.275);
#541=EDGE_CURVE('',#535,#525,#540,.T.);
#542=ORIENTED_EDGE('',*,*,#541,.F.);
#543=CARTESIAN_POINT('',(-9.165000000000001,7.620000000000001,0.0));
#544=VERTEX_POINT('',#543);
#545=CARTESIAN_POINT('',(-9.165000000000001,7.620000000000001,-3.6));
#546=DIRECTION('',(0.0,0.0,1.0));
#547=VECTOR('',#546,3.6);
#548=LINE('',#545,#547);
#549=EDGE_CURVE('',#535,#544,#548,.T.);
#550=ORIENTED_EDGE('',*,*,#549,.T.);
#551=CARTESIAN_POINT('',(-8.890000000000001,7.620000000000001,0.0));
#552=DIRECTION('',(0.0,0.0,1.0));
#553=DIRECTION('',(1.0,0.0,0.0));
#554=AXIS2_PLACEMENT_3D('',#551,#552,#553);
#555=CIRCLE('',#554,0.275);
#556=EDGE_CURVE('',#527,#544,#555,.T.);
#557=ORIENTED_EDGE('',*,*,#556,.F.);
#558=EDGE_LOOP('',(#533,#542,#550,#557));
#559=FACE_OUTER_BOUND('',#558,.T.);
#560=ADVANCED_FACE('',(#559),#523,.T.);
#561=CARTESIAN_POINT('',(-8.890000000000001,7.620000000000001,-1.8));
#562=DIRECTION('',(0.0,-1.224647E-016,-1.0));
#563=DIRECTION('',(1.0,0.0,0.0));
#564=AXIS2_PLACEMENT_3D('',#561,#562,#563);
#565=CYLINDRICAL_SURFACE('',#564,0.275);
#566=ORIENTED_EDGE('',*,*,#532,.T.);
#567=CARTESIAN_POINT('',(-8.890000000000001,7.620000000000001,0.0));
#568=DIRECTION('',(0.0,0.0,1.0));
#569=DIRECTION('',(1.0,0.0,0.0));
#570=AXIS2_PLACEMENT_3D('',#567,#568,#569);
#571=CIRCLE('',#570,0.275);
#572=EDGE_CURVE('',#544,#527,#571,.T.);
#573=ORIENTED_EDGE('',*,*,#572,.F.);
#574=ORIENTED_EDGE('',*,*,#549,.F.);
#575=CARTESIAN_POINT('',(-8.890000000000001,7.620000000000001,-3.6));
#576=DIRECTION('',(0.0,0.0,-1.0));
#577=DIRECTION('',(1.0,0.0,0.0));
#578=AXIS2_PLACEMENT_3D('',#575,#576,#577);
#579=CIRCLE('',#578,0.275);
#580=EDGE_CURVE('',#525,#535,#579,.T.);
#581=ORIENTED_EDGE('',*,*,#580,.F.);
#582=EDGE_LOOP('',(#566,#573,#574,#581));
#583=FACE_OUTER_BOUND('',#582,.T.);
#584=ADVANCED_FACE('',(#583),#565,.T.);
#585=CARTESIAN_POINT('',(-8.890000000000001,7.620000000000001,0.0));
#586=DIRECTION('',(0.0,0.0,1.0));
#587=DIRECTION('',(-1.0,0.0,0.0));
#588=AXIS2_PLACEMENT_3D('',#585,#586,#587);
#589=PLANE('',#588);
#590=ORIENTED_EDGE('',*,*,#556,.T.);
#591=ORIENTED_EDGE('',*,*,#572,.T.);
#592=EDGE_LOOP('',(#590,#591));
#593=FACE_OUTER_BOUND('',#592,.T.);
#594=ADVANCED_FACE('',(#593),#589,.T.);
#595=CARTESIAN_POINT('',(-8.890000000000001,7.620000000000001,-3.6));
#596=DIRECTION('',(0.0,0.0,-1.0));
#597=DIRECTION('',(1.0,0.0,0.0));
#598=AXIS2_PLACEMENT_3D('',#595,#596,#597);
#599=PLANE('',#598);
#600=ORIENTED_EDGE('',*,*,#580,.T.);
#601=ORIENTED_EDGE('',*,*,#541,.T.);
#602=EDGE_LOOP('',(#600,#601));
#603=FACE_OUTER_BOUND('',#602,.T.);
#604=ADVANCED_FACE('',(#603),#599,.T.);
#605=CLOSED_SHELL('',(#560,#584,#594,#604));
#606=MANIFOLD_SOLID_BREP('1215',#605);
#607=STYLED_ITEM('NONE',(#159),#606);
#608=CARTESIAN_POINT('',(6.350000000000001,7.620000000000001,-1.8));
#609=DIRECTION('',(0.0,-1.224647E-016,-1.0));
#610=DIRECTION('',(1.0,0.0,0.0));
#611=AXIS2_PLACEMENT_3D('',#608,#609,#610);
#612=CYLINDRICAL_SURFACE('',#611,0.275);
#613=CARTESIAN_POINT('',(6.625000000000002,7.620000000000001,-3.6));
#614=VERTEX_POINT('',#613);
#615=CARTESIAN_POINT('',(6.625000000000002,7.620000000000001,0.0));
#616=VERTEX_POINT('',#615);
#617=CARTESIAN_POINT('',(6.625000000000002,7.620000000000001,-3.6));
#618=DIRECTION('',(0.0,0.0,1.0));
#619=VECTOR('',#618,3.6);
#620=LINE('',#617,#619);
#621=EDGE_CURVE('',#614,#616,#620,.T.);
#622=ORIENTED_EDGE('',*,*,#621,.F.);
#623=CARTESIAN_POINT('',(6.075000000000001,7.620000000000001,-3.6));
#624=VERTEX_POINT('',#623);
#625=CARTESIAN_POINT('',(6.350000000000001,7.620000000000001,-3.6));
#626=DIRECTION('',(0.0,0.0,-1.0));
#627=DIRECTION('',(1.0,0.0,0.0));
#628=AXIS2_PLACEMENT_3D('',#625,#626,#627);
#629=CIRCLE('',#628,0.275);
#630=EDGE_CURVE('',#624,#614,#629,.T.);
#631=ORIENTED_EDGE('',*,*,#630,.F.);
#632=CARTESIAN_POINT('',(6.075000000000001,7.620000000000001,0.0));
#633=VERTEX_POINT('',#632);
#634=CARTESIAN_POINT('',(6.075000000000001,7.620000000000001,-3.6));
#635=DIRECTION('',(0.0,0.0,1.0));
#636=VECTOR('',#635,3.6);
#637=LINE('',#634,#636);
#638=EDGE_CURVE('',#624,#633,#637,.T.);
#639=ORIENTED_EDGE('',*,*,#638,.T.);
#640=CARTESIAN_POINT('',(6.350000000000001,7.620000000000001,0.0));
#641=DIRECTION('',(0.0,0.0,1.0));
#642=DIRECTION('',(1.0,0.0,0.0));
#643=AXIS2_PLACEMENT_3D('',#640,#641,#642);
#644=CIRCLE('',#643,0.275);
#645=EDGE_CURVE('',#616,#633,#644,.T.);
#646=ORIENTED_EDGE('',*,*,#645,.F.);
#647=EDGE_LOOP('',(#622,#631,#639,#646));
#648=FACE_OUTER_BOUND('',#647,.T.);
#649=ADVANCED_FACE('',(#648),#612,.T.);
#650=CARTESIAN_POINT('',(6.350000000000001,7.620000000000001,-1.8));
#651=DIRECTION('',(0.0,-1.224647E-016,-1.0));
#652=DIRECTION('',(1.0,0.0,0.0));
#653=AXIS2_PLACEMENT_3D('',#650,#651,#652);
#654=CYLINDRICAL_SURFACE('',#653,0.275);
#655=ORIENTED_EDGE('',*,*,#621,.T.);
#656=CARTESIAN_POINT('',(6.350000000000001,7.620000000000001,0.0));
#657=DIRECTION('',(0.0,0.0,1.0));
#658=DIRECTION('',(1.0,0.0,0.0));
#659=AXIS2_PLACEMENT_3D('',#656,#657,#658);
#660=CIRCLE('',#659,0.275);
#661=EDGE_CURVE('',#633,#616,#660,.T.);
#662=ORIENTED_EDGE('',*,*,#661,.F.);
#663=ORIENTED_EDGE('',*,*,#638,.F.);
#664=CARTESIAN_POINT('',(6.350000000000001,7.620000000000001,-3.6));
#665=DIRECTION('',(0.0,0.0,-1.0));
#666=DIRECTION('',(1.0,0.0,0.0));
#667=AXIS2_PLACEMENT_3D('',#664,#665,#666);
#668=CIRCLE('',#667,0.275);
#669=EDGE_CURVE('',#614,#624,#668,.T.);
#670=ORIENTED_EDGE('',*,*,#669,.F.);
#671=EDGE_LOOP('',(#655,#662,#663,#670));
#672=FACE_OUTER_BOUND('',#671,.T.);
#673=ADVANCED_FACE('',(#672),#654,.T.);
#674=CARTESIAN_POINT('',(6.350000000000001,7.620000000000001,0.0));
#675=DIRECTION('',(0.0,0.0,1.0));
#676=DIRECTION('',(-1.0,0.0,0.0));
#677=AXIS2_PLACEMENT_3D('',#674,#675,#676);
#678=PLANE('',#677);
#679=ORIENTED_EDGE('',*,*,#645,.T.);
#680=ORIENTED_EDGE('',*,*,#661,.T.);
#681=EDGE_LOOP('',(#679,#680));
#682=FACE_OUTER_BOUND('',#681,.T.);
#683=ADVANCED_FACE('',(#682),#678,.T.);
#684=CARTESIAN_POINT('',(6.350000000000001,7.620000000000001,-3.6));
#685=DIRECTION('',(0.0,0.0,-1.0));
#686=DIRECTION('',(1.0,0.0,0.0));
#687=AXIS2_PLACEMENT_3D('',#684,#685,#686);
#688=PLANE('',#687);
#689=ORIENTED_EDGE('',*,*,#669,.T.);
#690=ORIENTED_EDGE('',*,*,#630,.T.);
#691=EDGE_LOOP('',(#689,#690));
#692=FACE_OUTER_BOUND('',#691,.T.);
#693=ADVANCED_FACE('',(#692),#688,.T.);
#694=CLOSED_SHELL('',(#649,#673,#683,#693));
#695=MANIFOLD_SOLID_BREP('1211',#694);
#696=STYLED_ITEM('NONE',(#159),#695);
#697=CARTESIAN_POINT('',(11.43,7.620000000000001,-1.8));
#698=DIRECTION('',(0.0,-1.224647E-016,-1.0));
#699=DIRECTION('',(1.0,0.0,0.0));
#700=AXIS2_PLACEMENT_3D('',#697,#698,#699);
#701=CYLINDRICAL_SURFACE('',#700,0.275);
#702=CARTESIAN_POINT('',(11.705,7.620000000000001,-3.6));
#703=VERTEX_POINT('',#702);
#704=CARTESIAN_POINT('',(11.705,7.620000000000001,0.0));
#705=VERTEX_POINT('',#704);
#706=CARTESIAN_POINT('',(11.705,7.620000000000001,-3.6));
#707=DIRECTION('',(0.0,0.0,1.0));
#708=VECTOR('',#707,3.6);
#709=LINE('',#706,#708);
#710=EDGE_CURVE('',#703,#705,#709,.T.);
#711=ORIENTED_EDGE('',*,*,#710,.F.);
#712=CARTESIAN_POINT('',(11.154999999999999,7.620000000000001,-3.6));
#713=VERTEX_POINT('',#712);
#714=CARTESIAN_POINT('',(11.43,7.620000000000001,-3.6));
#715=DIRECTION('',(0.0,0.0,-1.0));
#716=DIRECTION('',(1.0,0.0,0.0));
#717=AXIS2_PLACEMENT_3D('',#714,#715,#716);
#718=CIRCLE('',#717,0.275);
#719=EDGE_CURVE('',#713,#703,#718,.T.);
#720=ORIENTED_EDGE('',*,*,#719,.F.);
#721=CARTESIAN_POINT('',(11.154999999999999,7.620000000000001,0.0));
#722=VERTEX_POINT('',#721);
#723=CARTESIAN_POINT('',(11.154999999999999,7.620000000000001,-3.6));
#724=DIRECTION('',(0.0,0.0,1.0));
#725=VECTOR('',#724,3.6);
#726=LINE('',#723,#725);
#727=EDGE_CURVE('',#713,#722,#726,.T.);
#728=ORIENTED_EDGE('',*,*,#727,.T.);
#729=CARTESIAN_POINT('',(11.43,7.620000000000001,0.0));
#730=DIRECTION('',(0.0,0.0,1.0));
#731=DIRECTION('',(1.0,0.0,0.0));
#732=AXIS2_PLACEMENT_3D('',#729,#730,#731);
#733=CIRCLE('',#732,0.275);
#734=EDGE_CURVE('',#705,#722,#733,.T.);
#735=ORIENTED_EDGE('',*,*,#734,.F.);
#736=EDGE_LOOP('',(#711,#720,#728,#735));
#737=FACE_OUTER_BOUND('',#736,.T.);
#738=ADVANCED_FACE('',(#737),#701,.T.);
#739=CARTESIAN_POINT('',(11.43,7.620000000000001,-1.8));
#740=DIRECTION('',(0.0,-1.224647E-016,-1.0));
#741=DIRECTION('',(1.0,0.0,0.0));
#742=AXIS2_PLACEMENT_3D('',#739,#740,#741);
#743=CYLINDRICAL_SURFACE('',#742,0.275);
#744=ORIENTED_EDGE('',*,*,#710,.T.);
#745=CARTESIAN_POINT('',(11.43,7.620000000000001,0.0));
#746=DIRECTION('',(0.0,0.0,1.0));
#747=DIRECTION('',(1.0,0.0,0.0));
#748=AXIS2_PLACEMENT_3D('',#745,#746,#747);
#749=CIRCLE('',#748,0.275);
#750=EDGE_CURVE('',#722,#705,#749,.T.);
#751=ORIENTED_EDGE('',*,*,#750,.F.);
#752=ORIENTED_EDGE('',*,*,#727,.F.);
#753=CARTESIAN_POINT('',(11.43,7.620000000000001,-3.6));
#754=DIRECTION('',(0.0,0.0,-1.0));
#755=DIRECTION('',(1.0,0.0,0.0));
#756=AXIS2_PLACEMENT_3D('',#753,#754,#755);
#757=CIRCLE('',#756,0.275);
#758=EDGE_CURVE('',#703,#713,#757,.T.);
#759=ORIENTED_EDGE('',*,*,#758,.F.);
#760=EDGE_LOOP('',(#744,#751,#752,#759));
#761=FACE_OUTER_BOUND('',#760,.T.);
#762=ADVANCED_FACE('',(#761),#743,.T.);
#763=CARTESIAN_POINT('',(11.43,7.620000000000001,0.0));
#764=DIRECTION('',(0.0,0.0,1.0));
#765=DIRECTION('',(-1.0,0.0,0.0));
#766=AXIS2_PLACEMENT_3D('',#763,#764,#765);
#767=PLANE('',#766);
#768=ORIENTED_EDGE('',*,*,#734,.T.);
#769=ORIENTED_EDGE('',*,*,#750,.T.);
#770=EDGE_LOOP('',(#768,#769));
#771=FACE_OUTER_BOUND('',#770,.T.);
#772=ADVANCED_FACE('',(#771),#767,.T.);
#773=CARTESIAN_POINT('',(11.43,7.620000000000001,-3.6));
#774=DIRECTION('',(0.0,0.0,-1.0));
#775=DIRECTION('',(1.0,0.0,0.0));
#776=AXIS2_PLACEMENT_3D('',#773,#774,#775);
#777=PLANE('',#776);
#778=ORIENTED_EDGE('',*,*,#758,.T.);
#779=ORIENTED_EDGE('',*,*,#719,.T.);
#780=EDGE_LOOP('',(#778,#779));
#781=FACE_OUTER_BOUND('',#780,.T.);
#782=ADVANCED_FACE('',(#781),#777,.T.);
#783=CLOSED_SHELL('',(#738,#762,#772,#782));
#784=MANIFOLD_SOLID_BREP('120D',#783);
#785=STYLED_ITEM('NONE',(#159),#784);
#786=CARTESIAN_POINT('',(15.75,9.9,10.1));
#787=DIRECTION('',(0.577350269189626,0.577350269189626,0.577350269189626));
#788=DIRECTION('',(-0.707106781186548,0.0,0.707106781186548));
#789=AXIS2_PLACEMENT_3D('',#786,#787,#788);
#790=SPHERICAL_SURFACE('',#789,0.5);
#791=CARTESIAN_POINT('',(16.038675134594811,10.188675134594813,10.388675134594813));
#792=VERTEX_POINT('',#791);
#793=CARTESIAN_POINT('',(15.75,10.123606797749979,10.547213595499956));
#794=VERTEX_POINT('',#793);
#795=CARTESIAN_POINT('',(15.75,9.9,10.1));
#796=DIRECTION('',(0.408248290463863,-0.816496580927726,0.408248290463863));
#797=DIRECTION('',(-0.707106781186548,0.0,0.707106781186548));
#798=AXIS2_PLACEMENT_3D('',#795,#796,#797);
#799=CIRCLE('',#798,0.499999999999999);
#800=EDGE_CURVE('',#792,#794,#799,.T.);
#801=ORIENTED_EDGE('',*,*,#800,.F.);
#802=CARTESIAN_POINT('',(16.197213595499957,10.123606797749979,10.1));
#803=VERTEX_POINT('',#802);
#804=CARTESIAN_POINT('',(15.75,9.9,10.1));
#805=DIRECTION('',(-0.408248290463863,0.816496580927726,-0.408248290463863));
#806=DIRECTION('',(0.707106781186548,0.0,-0.707106781186548));
#807=AXIS2_PLACEMENT_3D('',#804,#805,#806);
#808=CIRCLE('',#807,0.499999999999999);
#809=EDGE_CURVE('',#792,#803,#808,.T.);
#810=ORIENTED_EDGE('',*,*,#809,.T.);
#811=CARTESIAN_POINT('',(15.75,10.399999999999999,10.1));
#812=VERTEX_POINT('',#811);
#813=CARTESIAN_POINT('',(15.75,9.9,10.1));
#814=DIRECTION('',(0.0,0.0,1.0));
#815=DIRECTION('',(0.707106781186548,0.707106781186548,0.0));
#816=AXIS2_PLACEMENT_3D('',#813,#814,#815);
#817=CIRCLE('',#816,0.5);
#818=EDGE_CURVE('',#803,#812,#817,.T.);
#819=ORIENTED_EDGE('',*,*,#818,.T.);
#820=CARTESIAN_POINT('',(15.75,9.9,10.1));
#821=DIRECTION('',(1.0,0.0,0.0));
#822=DIRECTION('',(0.0,0.707106781186548,0.707106781186548));
#823=AXIS2_PLACEMENT_3D('',#820,#821,#822);
#824=CIRCLE('',#823,0.499999999999999);
#825=EDGE_CURVE('',#794,#812,#824,.F.);
#826=ORIENTED_EDGE('',*,*,#825,.F.);
#827=EDGE_LOOP('',(#801,#810,#819,#826));
#828=FACE_OUTER_BOUND('',#827,.T.);
#829=ADVANCED_FACE('',(#828),#790,.T.);
#830=CARTESIAN_POINT('',(15.75,-9.899999999999997,10.1));
#831=DIRECTION('',(0.577350269189626,0.577350269189626,0.577350269189626));
#832=DIRECTION('',(-0.707106781186548,0.0,0.707106781186548));
#833=AXIS2_PLACEMENT_3D('',#830,#831,#832);
#834=SPHERICAL_SURFACE('',#833,0.5);
#835=CARTESIAN_POINT('',(15.75,-10.399999999999999,10.1));
#836=VERTEX_POINT('',#835);
#837=CARTESIAN_POINT('',(16.25,-9.899999999999999,10.1));
#838=VERTEX_POINT('',#837);
#839=CARTESIAN_POINT('',(15.75,-9.899999999999997,10.1));
#840=DIRECTION('',(0.0,0.0,1.0));
#841=DIRECTION('',(0.707106781186545,-0.70710678118655,0.0));
#842=AXIS2_PLACEMENT_3D('',#839,#840,#841);
#843=CIRCLE('',#842,0.5);
#844=EDGE_CURVE('',#836,#838,#843,.T.);
#845=ORIENTED_EDGE('',*,*,#844,.T.);
#846=CARTESIAN_POINT('',(15.75,-9.899999999999999,10.6));
#847=VERTEX_POINT('',#846);
#848=CARTESIAN_POINT('',(15.75,-9.899999999999999,10.1));
#849=DIRECTION('',(0.0,-1.0,0.0));
#850=DIRECTION('',(0.0,0.0,1.0));
#851=AXIS2_PLACEMENT_3D('',#848,#849,#850);
#852=CIRCLE('',#851,0.5);
#853=EDGE_CURVE('',#847,#838,#852,.F.);
#854=ORIENTED_EDGE('',*,*,#853,.F.);
#855=CARTESIAN_POINT('',(15.75,-9.899999999999999,10.1));
#856=DIRECTION('',(1.0,0.0,0.0));
#857=DIRECTION('',(0.0,-0.707106781186548,0.707106781186548));
#858=AXIS2_PLACEMENT_3D('',#855,#856,#857);
#859=CIRCLE('',#858,0.5);
#860=EDGE_CURVE('',#847,#836,#859,.T.);
#861=ORIENTED_EDGE('',*,*,#860,.T.);
#862=EDGE_LOOP('',(#845,#854,#861));
#863=FACE_OUTER_BOUND('',#862,.T.);
#864=ADVANCED_FACE('',(#863),#834,.T.);
#865=CARTESIAN_POINT('',(-15.75,-9.9,10.1));
#866=DIRECTION('',(0.577350269189626,0.577350269189626,0.577350269189626));
#867=DIRECTION('',(-0.707106781186548,0.0,0.707106781186548));
#868=AXIS2_PLACEMENT_3D('',#865,#866,#867);
#869=SPHERICAL_SURFACE('',#868,0.5);
#870=CARTESIAN_POINT('',(-15.75,-10.4,10.1));
#871=VERTEX_POINT('',#870);
#872=CARTESIAN_POINT('',(-15.749999999999998,-9.900000000000002,10.6));
#873=VERTEX_POINT('',#872);
#874=CARTESIAN_POINT('',(-15.75,-9.9,10.1));
#875=DIRECTION('',(-1.0,0.0,0.0));
#876=DIRECTION('',(0.0,-0.707106781186548,0.707106781186548));
#877=AXIS2_PLACEMENT_3D('',#874,#875,#876);
#878=CIRCLE('',#877,0.5);
#879=EDGE_CURVE('',#871,#873,#878,.T.);
#880=ORIENTED_EDGE('',*,*,#879,.T.);
#881=CARTESIAN_POINT('',(-16.25,-9.9,10.1));
#882=VERTEX_POINT('',#881);
#883=CARTESIAN_POINT('',(-15.75,-9.9,10.1));
#884=DIRECTION('',(0.0,1.0,0.0));
#885=DIRECTION('',(-0.707106781186548,0.0,0.707106781186548));
#886=AXIS2_PLACEMENT_3D('',#883,#884,#885);
#887=CIRCLE('',#886,0.499999999999999);
#888=EDGE_CURVE('',#882,#873,#887,.T.);
#889=ORIENTED_EDGE('',*,*,#888,.F.);
#890=CARTESIAN_POINT('',(-15.75,-9.9,10.1));
#891=DIRECTION('',(0.0,0.0,1.0));
#892=DIRECTION('',(-0.707106781186548,-0.707106781186548,0.0));
#893=AXIS2_PLACEMENT_3D('',#890,#891,#892);
#894=CIRCLE('',#893,0.5);
#895=EDGE_CURVE('',#882,#871,#894,.T.);
#896=ORIENTED_EDGE('',*,*,#895,.T.);
#897=EDGE_LOOP('',(#880,#889,#896));
#898=FACE_OUTER_BOUND('',#897,.T.);
#899=ADVANCED_FACE('',(#898),#869,.T.);
#900=CARTESIAN_POINT('',(15.75,9.9,10.1));
#901=DIRECTION('',(0.577350269189626,0.577350269189626,0.577350269189626));
#902=DIRECTION('',(-0.707106781186548,0.0,0.707106781186548));
#903=AXIS2_PLACEMENT_3D('',#900,#901,#902);
#904=SPHERICAL_SURFACE('',#903,0.5);
#905=ORIENTED_EDGE('',*,*,#800,.T.);
#906=CARTESIAN_POINT('',(15.75,9.9,10.6));
#907=VERTEX_POINT('',#906);
#908=CARTESIAN_POINT('',(15.75,9.9,10.1));
#909=DIRECTION('',(1.0,0.0,0.0));
#910=DIRECTION('',(0.0,0.707106781186548,0.707106781186548));
#911=AXIS2_PLACEMENT_3D('',#908,#909,#910);
#912=CIRCLE('',#911,0.499999999999999);
#913=EDGE_CURVE('',#907,#794,#912,.F.);
#914=ORIENTED_EDGE('',*,*,#913,.F.);
#915=CARTESIAN_POINT('',(16.25,9.9,10.1));
#916=VERTEX_POINT('',#915);
#917=CARTESIAN_POINT('',(15.75,9.9,10.1));
#918=DIRECTION('',(0.0,1.0,0.0));
#919=DIRECTION('',(0.707106781186548,0.0,0.707106781186548));
#920=AXIS2_PLACEMENT_3D('',#917,#918,#919);
#921=CIRCLE('',#920,0.5);
#922=EDGE_CURVE('',#907,#916,#921,.T.);
#923=ORIENTED_EDGE('',*,*,#922,.T.);
#924=CARTESIAN_POINT('',(15.75,9.9,10.1));
#925=DIRECTION('',(0.0,0.0,1.0));
#926=DIRECTION('',(0.707106781186548,0.707106781186548,0.0));
#927=AXIS2_PLACEMENT_3D('',#924,#925,#926);
#928=CIRCLE('',#927,0.5);
#929=EDGE_CURVE('',#916,#803,#928,.T.);
#930=ORIENTED_EDGE('',*,*,#929,.T.);
#931=ORIENTED_EDGE('',*,*,#809,.F.);
#932=EDGE_LOOP('',(#905,#914,#923,#930,#931));
#933=FACE_OUTER_BOUND('',#932,.T.);
#934=ADVANCED_FACE('',(#933),#904,.T.);
#935=CARTESIAN_POINT('',(-15.749999999999993,9.9,10.1));
#936=DIRECTION('',(0.577350269189626,0.577350269189626,0.577350269189626));
#937=DIRECTION('',(-0.707106781186548,0.0,0.707106781186548));
#938=AXIS2_PLACEMENT_3D('',#935,#936,#937);
#939=SPHERICAL_SURFACE('',#938,0.5);
#940=CARTESIAN_POINT('',(-16.249999999999993,9.9,10.1));
#941=VERTEX_POINT('',#940);
#942=CARTESIAN_POINT('',(-15.749999999999993,9.9,10.6));
#943=VERTEX_POINT('',#942);
#944=CARTESIAN_POINT('',(-15.749999999999993,9.9,10.1));
#945=DIRECTION('',(0.0,1.0,0.0));
#946=DIRECTION('',(-0.707106781186548,0.0,0.707106781186548));
#947=AXIS2_PLACEMENT_3D('',#944,#945,#946);
#948=CIRCLE('',#947,0.5);
#949=EDGE_CURVE('',#941,#943,#948,.T.);
#950=ORIENTED_EDGE('',*,*,#949,.T.);
#951=CARTESIAN_POINT('',(-15.749999999999993,10.4,10.1));
#952=VERTEX_POINT('',#951);
#953=CARTESIAN_POINT('',(-15.749999999999993,9.9,10.1));
#954=DIRECTION('',(-1.0,0.0,0.0));
#955=DIRECTION('',(0.0,1.0,0.0));
#956=AXIS2_PLACEMENT_3D('',#953,#954,#955);
#957=CIRCLE('',#956,0.5);
#958=EDGE_CURVE('',#952,#943,#957,.F.);
#959=ORIENTED_EDGE('',*,*,#958,.F.);
#960=CARTESIAN_POINT('',(-15.749999999999993,9.9,10.1));
#961=DIRECTION('',(0.0,0.0,1.0));
#962=DIRECTION('',(-0.707106781186548,0.707106781186548,0.0));
#963=AXIS2_PLACEMENT_3D('',#960,#961,#962);
#964=CIRCLE('',#963,0.5);
#965=EDGE_CURVE('',#952,#941,#964,.T.);
#966=ORIENTED_EDGE('',*,*,#965,.T.);
#967=EDGE_LOOP('',(#950,#959,#966));
#968=FACE_OUTER_BOUND('',#967,.T.);
#969=ADVANCED_FACE('',(#968),#939,.T.);
#970=CARTESIAN_POINT('',(-7.999999999999996,9.9,10.1));
#971=DIRECTION('',(1.0,0.0,0.0));
#972=DIRECTION('',(0.0,0.707106781186548,0.707106781186548));
#973=AXIS2_PLACEMENT_3D('',#970,#971,#972);
#974=CYLINDRICAL_SURFACE('',#973,0.5);
#975=ORIENTED_EDGE('',*,*,#913,.T.);
#976=ORIENTED_EDGE('',*,*,#825,.T.);
#977=CARTESIAN_POINT('',(15.75,10.4,10.1));
#978=DIRECTION('',(-1.0,0.0,0.0));
#979=VECTOR('',#978,31.499999999999993);
#980=LINE('',#977,#979);
#981=EDGE_CURVE('',#812,#952,#980,.T.);
#982=ORIENTED_EDGE('',*,*,#981,.T.);
#983=ORIENTED_EDGE('',*,*,#958,.T.);
#984=CARTESIAN_POINT('',(-15.749999999999993,9.9,10.6));
#985=DIRECTION('',(1.0,0.0,0.0));
#986=VECTOR('',#985,31.499999999999993);
#987=LINE('',#984,#986);
#988=EDGE_CURVE('',#943,#907,#987,.T.);
#989=ORIENTED_EDGE('',*,*,#988,.T.);
#990=EDGE_LOOP('',(#975,#976,#982,#983,#989));
#991=FACE_OUTER_BOUND('',#990,.T.);
#992=ADVANCED_FACE('',(#991),#974,.T.);
#993=CARTESIAN_POINT('',(-15.749999999999993,9.9,-0.05));
#994=DIRECTION('',(0.0,0.0,1.0));
#995=DIRECTION('',(-0.707106781186548,0.707106781186548,0.0));
#996=AXIS2_PLACEMENT_3D('',#993,#994,#995);
#997=CYLINDRICAL_SURFACE('',#996,0.5);
#998=CARTESIAN_POINT('',(-15.749999999999993,10.4,0.0));
#999=VERTEX_POINT('',#998);
#1000=CARTESIAN_POINT('',(-16.249999999999993,9.9,0.0));
#1001=VERTEX_POINT('',#1000);
#1002=CARTESIAN_POINT('',(-15.749999999999993,9.9,0.0));
#1003=DIRECTION('',(0.0,0.0,1.0));
#1004=DIRECTION('',(-0.707106781186548,0.707106781186548,0.0));
#1005=AXIS2_PLACEMENT_3D('',#1002,#1003,#1004);
#1006=CIRCLE('',#1005,0.5);
#1007=EDGE_CURVE('',#999,#1001,#1006,.T.);
#1008=ORIENTED_EDGE('',*,*,#1007,.T.);
#1009=CARTESIAN_POINT('',(-16.249999999999993,9.9,0.0));
#1010=DIRECTION('',(0.0,0.0,1.0));
#1011=VECTOR('',#1010,10.1);
#1012=LINE('',#1009,#1011);
#1013=EDGE_CURVE('',#1001,#941,#1012,.T.);
#1014=ORIENTED_EDGE('',*,*,#1013,.T.);
#1015=ORIENTED_EDGE('',*,*,#965,.F.);
#1016=CARTESIAN_POINT('',(-15.749999999999993,10.4,0.0));
#1017=DIRECTION('',(0.0,0.0,1.0));
#1018=VECTOR('',#1017,10.1);
#1019=LINE('',#1016,#1018);
#1020=EDGE_CURVE('',#952,#999,#1019,.F.);
#1021=ORIENTED_EDGE('',*,*,#1020,.T.);
#1022=EDGE_LOOP('',(#1008,#1014,#1015,#1021));
#1023=FACE_OUTER_BOUND('',#1022,.T.);
#1024=ADVANCED_FACE('',(#1023),#997,.T.);
#1025=CARTESIAN_POINT('',(-15.749999999999998,-5.574999999999998,10.1));
#1026=DIRECTION('',(3.335881E-016,1.0,0.0));
#1027=DIRECTION('',(-0.70710678118655,0.0,0.707106781186545));
#1028=AXIS2_PLACEMENT_3D('',#1025,#1026,#1027);
#1029=CYLINDRICAL_SURFACE('',#1028,0.5);
#1030=ORIENTED_EDGE('',*,*,#949,.F.);
#1031=CARTESIAN_POINT('',(-16.249999999999996,9.9,10.1));
#1032=DIRECTION('',(0.0,-1.0,0.0));
#1033=VECTOR('',#1032,19.800000000000001);
#1034=LINE('',#1031,#1033);
#1035=EDGE_CURVE('',#941,#882,#1034,.T.);
#1036=ORIENTED_EDGE('',*,*,#1035,.T.);
#1037=ORIENTED_EDGE('',*,*,#888,.T.);
#1038=CARTESIAN_POINT('',(-15.75,-9.9,10.6));
#1039=DIRECTION('',(0.0,1.0,0.0));
#1040=VECTOR('',#1039,19.800000000000001);
#1041=LINE('',#1038,#1040);
#1042=EDGE_CURVE('',#873,#943,#1041,.T.);
#1043=ORIENTED_EDGE('',*,*,#1042,.T.);
#1044=EDGE_LOOP('',(#1030,#1036,#1037,#1043));
#1045=FACE_OUTER_BOUND('',#1044,.T.);
#1046=ADVANCED_FACE('',(#1045),#1029,.T.);
#1047=CARTESIAN_POINT('',(15.75,9.9,-0.05));
#1048=DIRECTION('',(0.0,0.0,1.0));
#1049=DIRECTION('',(0.707106781186548,0.707106781186548,0.0));
#1050=AXIS2_PLACEMENT_3D('',#1047,#1048,#1049);
#1051=CYLINDRICAL_SURFACE('',#1050,0.5);
#1052=CARTESIAN_POINT('',(16.25,9.9,0.0));
#1053=VERTEX_POINT('',#1052);
#1054=CARTESIAN_POINT('',(15.75,10.4,0.0));
#1055=VERTEX_POINT('',#1054);
#1056=CARTESIAN_POINT('',(15.75,9.9,0.0));
#1057=DIRECTION('',(0.0,0.0,1.0));
#1058=DIRECTION('',(0.707106781186548,0.707106781186548,0.0));
#1059=AXIS2_PLACEMENT_3D('',#1056,#1057,#1058);
#1060=CIRCLE('',#1059,0.5);
#1061=EDGE_CURVE('',#1053,#1055,#1060,.T.);
#1062=ORIENTED_EDGE('',*,*,#1061,.T.);
#1063=CARTESIAN_POINT('',(15.75,10.4,0.0));
#1064=DIRECTION('',(0.0,0.0,1.0));
#1065=VECTOR('',#1064,10.1);
#1066=LINE('',#1063,#1065);
#1067=EDGE_CURVE('',#1055,#812,#1066,.T.);
#1068=ORIENTED_EDGE('',*,*,#1067,.T.);
#1069=ORIENTED_EDGE('',*,*,#818,.F.);
#1070=ORIENTED_EDGE('',*,*,#929,.F.);
#1071=CARTESIAN_POINT('',(16.25,9.9,10.1));
#1072=DIRECTION('',(0.0,0.0,-1.0));
#1073=VECTOR('',#1072,10.1);
#1074=LINE('',#1071,#1073);
#1075=EDGE_CURVE('',#916,#1053,#1074,.T.);
#1076=ORIENTED_EDGE('',*,*,#1075,.T.);
#1077=EDGE_LOOP('',(#1062,#1068,#1069,#1070,#1076));
#1078=FACE_OUTER_BOUND('',#1077,.T.);
#1079=ADVANCED_FACE('',(#1078),#1051,.T.);
#1080=CARTESIAN_POINT('',(15.75,5.325,10.1));
#1081=DIRECTION('',(0.0,-1.0,0.0));
#1082=DIRECTION('',(0.707106781186548,0.0,0.707106781186548));
#1083=AXIS2_PLACEMENT_3D('',#1080,#1081,#1082);
#1084=CYLINDRICAL_SURFACE('',#1083,0.5);
#1085=ORIENTED_EDGE('',*,*,#853,.T.);
#1086=CARTESIAN_POINT('',(16.25,-9.899999999999999,10.1));
#1087=DIRECTION('',(0.0,1.0,0.0));
#1088=VECTOR('',#1087,19.799999999999997);
#1089=LINE('',#1086,#1088);
#1090=EDGE_CURVE('',#838,#916,#1089,.T.);
#1091=ORIENTED_EDGE('',*,*,#1090,.T.);
#1092=ORIENTED_EDGE('',*,*,#922,.F.);
#1093=CARTESIAN_POINT('',(15.75,9.9,10.6));
#1094=DIRECTION('',(0.0,-1.0,0.0));
#1095=VECTOR('',#1094,19.799999999999997);
#1096=LINE('',#1093,#1095);
#1097=EDGE_CURVE('',#907,#847,#1096,.T.);
#1098=ORIENTED_EDGE('',*,*,#1097,.T.);
#1099=EDGE_LOOP('',(#1085,#1091,#1092,#1098));
#1100=FACE_OUTER_BOUND('',#1099,.T.);
#1101=ADVANCED_FACE('',(#1100),#1084,.T.);
#1102=CARTESIAN_POINT('',(-15.75,-9.9,0.0));
#1103=DIRECTION('',(0.0,0.0,1.0));
#1104=DIRECTION('',(-0.707106781186548,-0.707106781186548,0.0));
#1105=AXIS2_PLACEMENT_3D('',#1102,#1103,#1104);
#1106=CYLINDRICAL_SURFACE('',#1105,0.5);
#1107=CARTESIAN_POINT('',(-16.25,-9.9,0.0));
#1108=VERTEX_POINT('',#1107);
#1109=CARTESIAN_POINT('',(-15.75,-10.4,0.0));
#1110=VERTEX_POINT('',#1109);
#1111=CARTESIAN_POINT('',(-15.75,-9.9,0.0));
#1112=DIRECTION('',(0.0,0.0,1.0));
#1113=DIRECTION('',(-0.707106781186548,-0.707106781186548,0.0));
#1114=AXIS2_PLACEMENT_3D('',#1111,#1112,#1113);
#1115=CIRCLE('',#1114,0.5);
#1116=EDGE_CURVE('',#1108,#1110,#1115,.T.);
#1117=ORIENTED_EDGE('',*,*,#1116,.T.);
#1118=CARTESIAN_POINT('',(-15.75,-10.4,0.0));
#1119=DIRECTION('',(0.0,0.0,1.0));
#1120=VECTOR('',#1119,10.1);
#1121=LINE('',#1118,#1120);
#1122=EDGE_CURVE('',#1110,#871,#1121,.T.);
#1123=ORIENTED_EDGE('',*,*,#1122,.T.);
#1124=ORIENTED_EDGE('',*,*,#895,.F.);
#1125=CARTESIAN_POINT('',(-16.25,-9.9,0.0));
#1126=DIRECTION('',(0.0,0.0,1.0));
#1127=VECTOR('',#1126,10.1);
#1128=LINE('',#1125,#1127);
#1129=EDGE_CURVE('',#882,#1108,#1128,.F.);
#1130=ORIENTED_EDGE('',*,*,#1129,.T.);
#1131=EDGE_LOOP('',(#1117,#1123,#1124,#1130));
#1132=FACE_OUTER_BOUND('',#1131,.T.);
#1133=ADVANCED_FACE('',(#1132),#1106,.T.);
#1134=CARTESIAN_POINT('',(8.25,-9.899999999999999,10.1));
#1135=DIRECTION('',(-1.0,-1.076580E-016,0.0));
#1136=DIRECTION('',(0.0,-0.707106781186548,0.707106781186548));
#1137=AXIS2_PLACEMENT_3D('',#1134,#1135,#1136);
#1138=CYLINDRICAL_SURFACE('',#1137,0.5);
#1139=ORIENTED_EDGE('',*,*,#879,.F.);
#1140=CARTESIAN_POINT('',(-15.75,-10.4,10.1));
#1141=DIRECTION('',(1.0,0.0,0.0));
#1142=VECTOR('',#1141,31.5);
#1143=LINE('',#1140,#1142);
#1144=EDGE_CURVE('',#871,#836,#1143,.T.);
#1145=ORIENTED_EDGE('',*,*,#1144,.T.);
#1146=ORIENTED_EDGE('',*,*,#860,.F.);
#1147=CARTESIAN_POINT('',(15.75,-9.899999999999999,10.6));
#1148=DIRECTION('',(-1.0,0.0,0.0));
#1149=VECTOR('',#1148,31.5);
#1150=LINE('',#1147,#1149);
#1151=EDGE_CURVE('',#847,#873,#1150,.T.);
#1152=ORIENTED_EDGE('',*,*,#1151,.T.);
#1153=EDGE_LOOP('',(#1139,#1145,#1146,#1152));
#1154=FACE_OUTER_BOUND('',#1153,.T.);
#1155=ADVANCED_FACE('',(#1154),#1138,.T.);
#1156=CARTESIAN_POINT('',(15.75,-9.899999999999997,0.0));
#1157=DIRECTION('',(0.0,0.0,1.0));
#1158=DIRECTION('',(0.707106781186548,-0.707106781186548,0.0));
#1159=AXIS2_PLACEMENT_3D('',#1156,#1157,#1158);
#1160=CYLINDRICAL_SURFACE('',#1159,0.5);
#1161=CARTESIAN_POINT('',(15.75,-10.399999999999997,0.0));
#1162=VERTEX_POINT('',#1161);
#1163=CARTESIAN_POINT('',(16.25,-9.899999999999997,0.0));
#1164=VERTEX_POINT('',#1163);
#1165=CARTESIAN_POINT('',(15.75,-9.899999999999997,0.0));
#1166=DIRECTION('',(0.0,0.0,1.0));
#1167=DIRECTION('',(0.707106781186548,-0.707106781186548,0.0));
#1168=AXIS2_PLACEMENT_3D('',#1165,#1166,#1167);
#1169=CIRCLE('',#1168,0.5);
#1170=EDGE_CURVE('',#1162,#1164,#1169,.T.);
#1171=ORIENTED_EDGE('',*,*,#1170,.T.);
#1172=CARTESIAN_POINT('',(16.25,-9.899999999999997,0.0));
#1173=DIRECTION('',(0.0,0.0,1.0));
#1174=VECTOR('',#1173,10.1);
#1175=LINE('',#1172,#1174);
#1176=EDGE_CURVE('',#1164,#838,#1175,.T.);
#1177=ORIENTED_EDGE('',*,*,#1176,.T.);
#1178=ORIENTED_EDGE('',*,*,#844,.F.);
#1179=CARTESIAN_POINT('',(15.75,-10.399999999999997,10.1));
#1180=DIRECTION('',(0.0,0.0,-1.0));
#1181=VECTOR('',#1180,10.1);
#1182=LINE('',#1179,#1181);
#1183=EDGE_CURVE('',#836,#1162,#1182,.T.);
#1184=ORIENTED_EDGE('',*,*,#1183,.T.);
#1185=EDGE_LOOP('',(#1171,#1177,#1178,#1184));
#1186=FACE_OUTER_BOUND('',#1185,.T.);
#1187=ADVANCED_FACE('',(#1186),#1160,.T.);
#1188=CARTESIAN_POINT('',(16.25,10.65,0.0));
#1189=DIRECTION('',(1.0,0.0,0.0));
#1190=DIRECTION('',(0.0,0.0,-1.0));
#1191=AXIS2_PLACEMENT_3D('',#1188,#1189,#1190);
#1192=PLANE('',#1191);
#1193=ORIENTED_EDGE('',*,*,#1075,.F.);
#1194=ORIENTED_EDGE('',*,*,#1090,.F.);
#1195=ORIENTED_EDGE('',*,*,#1176,.F.);
#1196=CARTESIAN_POINT('',(16.25,9.9,0.0));
#1197=DIRECTION('',(0.0,-1.0,0.0));
#1198=VECTOR('',#1197,19.799999999999997);
#1199=LINE('',#1196,#1198);
#1200=EDGE_CURVE('',#1053,#1164,#1199,.T.);
#1201=ORIENTED_EDGE('',*,*,#1200,.F.);
#1202=EDGE_LOOP('',(#1193,#1194,#1195,#1201));
#1203=FACE_OUTER_BOUND('',#1202,.T.);
#1204=ADVANCED_FACE('',(#1203),#1192,.T.);
#1205=CARTESIAN_POINT('',(16.5,-10.399999999999997,0.0));
#1206=DIRECTION('',(0.0,-1.0,0.0));
#1207=DIRECTION('',(0.0,0.0,-1.0));
#1208=AXIS2_PLACEMENT_3D('',#1205,#1206,#1207);
#1209=PLANE('',#1208);
#1210=ORIENTED_EDGE('',*,*,#1183,.F.);
#1211=ORIENTED_EDGE('',*,*,#1144,.F.);
#1212=ORIENTED_EDGE('',*,*,#1122,.F.);
#1213=CARTESIAN_POINT('',(15.75,-10.399999999999997,0.0));
#1214=DIRECTION('',(-1.0,0.0,0.0));
#1215=VECTOR('',#1214,31.5);
#1216=LINE('',#1213,#1215);
#1217=EDGE_CURVE('',#1162,#1110,#1216,.T.);
#1218=ORIENTED_EDGE('',*,*,#1217,.F.);
#1219=EDGE_LOOP('',(#1210,#1211,#1212,#1218));
#1220=FACE_OUTER_BOUND('',#1219,.T.);
#1221=ADVANCED_FACE('',(#1220),#1209,.T.);
#1222=CARTESIAN_POINT('',(-0.25,-6.334572E-017,0.0));
#1223=DIRECTION('',(0.0,0.0,1.0));
#1224=DIRECTION('',(1.0,0.0,0.0));
#1225=AXIS2_PLACEMENT_3D('',#1222,#1223,#1224);
#1226=PLANE('',#1225);
#1227=ORIENTED_EDGE('',*,*,#1061,.F.);
#1228=ORIENTED_EDGE('',*,*,#1200,.T.);
#1229=ORIENTED_EDGE('',*,*,#1170,.F.);
#1230=ORIENTED_EDGE('',*,*,#1217,.T.);
#1231=ORIENTED_EDGE('',*,*,#1116,.F.);
#1232=CARTESIAN_POINT('',(-16.249999999999996,9.9,0.0));
#1233=DIRECTION('',(0.0,-1.0,0.0));
#1234=VECTOR('',#1233,19.800000000000001);
#1235=LINE('',#1232,#1234);
#1236=EDGE_CURVE('',#1108,#1001,#1235,.F.);
#1237=ORIENTED_EDGE('',*,*,#1236,.T.);
#1238=ORIENTED_EDGE('',*,*,#1007,.F.);
#1239=CARTESIAN_POINT('',(-15.749999999999993,10.4,0.0));
#1240=DIRECTION('',(1.0,0.0,0.0));
#1241=VECTOR('',#1240,31.499999999999993);
#1242=LINE('',#1239,#1241);
#1243=EDGE_CURVE('',#999,#1055,#1242,.T.);
#1244=ORIENTED_EDGE('',*,*,#1243,.T.);
#1245=EDGE_LOOP('',(#1227,#1228,#1229,#1230,#1231,#1237,#1238,#1244));
#1246=FACE_OUTER_BOUND('',#1245,.T.);
#1247=ADVANCED_FACE('',(#1246),#1226,.F.);
#1248=CARTESIAN_POINT('',(4.440892E-016,1.266914E-016,10.6));
#1249=DIRECTION('',(0.0,0.0,1.0));
#1250=DIRECTION('',(1.0,0.0,0.0));
#1251=AXIS2_PLACEMENT_3D('',#1248,#1249,#1250);
#1252=PLANE('',#1251);
#1253=ORIENTED_EDGE('',*,*,#988,.F.);
#1254=ORIENTED_EDGE('',*,*,#1042,.F.);
#1255=ORIENTED_EDGE('',*,*,#1151,.F.);
#1256=ORIENTED_EDGE('',*,*,#1097,.F.);
#1257=EDGE_LOOP('',(#1253,#1254,#1255,#1256));
#1258=FACE_OUTER_BOUND('',#1257,.T.);
#1259=ADVANCED_FACE('',(#1258),#1252,.T.);
#1260=CARTESIAN_POINT('',(-16.25,-10.9,0.0));
#1261=DIRECTION('',(-1.0,0.0,0.0));
#1262=DIRECTION('',(0.0,0.0,1.0));
#1263=AXIS2_PLACEMENT_3D('',#1260,#1261,#1262);
#1264=PLANE('',#1263);
#1265=ORIENTED_EDGE('',*,*,#1013,.F.);
#1266=ORIENTED_EDGE('',*,*,#1236,.F.);
#1267=ORIENTED_EDGE('',*,*,#1129,.F.);
#1268=ORIENTED_EDGE('',*,*,#1035,.F.);
#1269=EDGE_LOOP('',(#1265,#1266,#1267,#1268));
#1270=FACE_OUTER_BOUND('',#1269,.T.);
#1271=ADVANCED_FACE('',(#1270),#1264,.T.);
#1272=CARTESIAN_POINT('',(-16.749999999999993,10.4,-0.1));
#1273=DIRECTION('',(0.0,1.0,0.0));
#1274=DIRECTION('',(0.0,0.0,1.0));
#1275=AXIS2_PLACEMENT_3D('',#1272,#1273,#1274);
#1276=PLANE('',#1275);
#1277=ORIENTED_EDGE('',*,*,#1067,.F.);
#1278=ORIENTED_EDGE('',*,*,#1243,.F.);
#1279=ORIENTED_EDGE('',*,*,#1020,.F.);
#1280=ORIENTED_EDGE('',*,*,#981,.F.);
#1281=EDGE_LOOP('',(#1277,#1278,#1279,#1280));
#1282=FACE_OUTER_BOUND('',#1281,.T.);
#1283=ADVANCED_FACE('',(#1282),#1276,.T.);
#1284=CLOSED_SHELL('',(#829,#864,#899,#934,#969,#992,#1024,#1046,#1079,#1101,#1133,#1155,#1187,#1204,#1221,#1247,#1259,#1271,#1283));
#1285=MANIFOLD_SOLID_BREP('11D2',#1284);
#1286=COLOUR_RGB('250',0.33,0.33,0.33);
#1287=SURFACE_STYLE_USAGE(.BOTH.,#1288);
#1288=SURFACE_SIDE_STYLE('NONE',(#1289));
#1289=SURFACE_STYLE_FILL_AREA(#1290);
#1290=FILL_AREA_STYLE('NONE',(#1291));
#1291=FILL_AREA_STYLE_COLOUR('NONE',#1286);
#1292=PRESENTATION_STYLE_ASSIGNMENT((#1287));
#1293=STYLED_ITEM('NONE',(#1292),#1285);
#1294=CARTESIAN_POINT('',(-14.000000000000007,-8.000000000000002,10.6));
#1295=DIRECTION('',(0.0,0.0,1.0));
#1296=DIRECTION('',(-0.707106781186548,-0.707106781186548,0.0));
#1297=AXIS2_PLACEMENT_3D('',#1294,#1295,#1296);
#1298=CYLINDRICAL_SURFACE('',#1297,1.0);
#1299=CARTESIAN_POINT('',(-14.000000000000007,-9.000000000000002,10.699999999999999));
#1300=VERTEX_POINT('',#1299);
#1301=CARTESIAN_POINT('',(-15.000000000000007,-8.000000000000002,10.699999999999999));
#1302=VERTEX_POINT('',#1301);
#1303=CARTESIAN_POINT('',(-14.000000000000007,-8.000000000000002,10.699999999999999));
#1304=DIRECTION('',(0.0,0.0,-1.0));
#1305=DIRECTION('',(-0.707106781186548,-0.707106781186548,0.0));
#1306=AXIS2_PLACEMENT_3D('',#1303,#1304,#1305);
#1307=CIRCLE('',#1306,1.0);
#1308=EDGE_CURVE('',#1300,#1302,#1307,.T.);
#1309=ORIENTED_EDGE('',*,*,#1308,.T.);
#1310=CARTESIAN_POINT('',(-15.000000000000007,-8.000000000000002,10.6));
#1311=VERTEX_POINT('',#1310);
#1312=CARTESIAN_POINT('',(-15.000000000000007,-8.000000000000002,10.6));
#1313=DIRECTION('',(0.0,0.0,1.0));
#1314=VECTOR('',#1313,0.1);
#1315=LINE('',#1312,#1314);
#1316=EDGE_CURVE('',#1311,#1302,#1315,.T.);
#1317=ORIENTED_EDGE('',*,*,#1316,.F.);
#1318=CARTESIAN_POINT('',(-14.000000000000007,-9.000000000000002,10.6));
#1319=VERTEX_POINT('',#1318);
#1320=CARTESIAN_POINT('',(-14.000000000000007,-8.000000000000002,10.6));
#1321=DIRECTION('',(0.0,0.0,-1.0));
#1322=DIRECTION('',(-0.707106781186548,-0.707106781186548,0.0));
#1323=AXIS2_PLACEMENT_3D('',#1320,#1321,#1322);
#1324=CIRCLE('',#1323,1.0);
#1325=EDGE_CURVE('',#1319,#1311,#1324,.T.);
#1326=ORIENTED_EDGE('',*,*,#1325,.F.);
#1327=CARTESIAN_POINT('',(-14.000000000000007,-9.000000000000002,10.6));
#1328=DIRECTION('',(0.0,0.0,1.0));
#1329=VECTOR('',#1328,0.1);
#1330=LINE('',#1327,#1329);
#1331=EDGE_CURVE('',#1319,#1300,#1330,.T.);
#1332=ORIENTED_EDGE('',*,*,#1331,.T.);
#1333=EDGE_LOOP('',(#1309,#1317,#1326,#1332));
#1334=FACE_OUTER_BOUND('',#1333,.T.);
#1335=ADVANCED_FACE('',(#1334),#1298,.T.);
#1336=CARTESIAN_POINT('',(-15.000000000000007,-8.000000000000002,10.6));
#1337=DIRECTION('',(-1.0,0.0,0.0));
#1338=DIRECTION('',(0.0,0.0,1.0));
#1339=AXIS2_PLACEMENT_3D('',#1336,#1337,#1338);
#1340=PLANE('',#1339);
#1341=CARTESIAN_POINT('',(-14.999999999999993,8.000000000000002,10.699999999999999));
#1342=VERTEX_POINT('',#1341);
#1343=CARTESIAN_POINT('',(-15.000000000000007,-8.000000000000002,10.699999999999999));
#1344=DIRECTION('',(0.0,1.0,0.0));
#1345=VECTOR('',#1344,16.000000000000004);
#1346=LINE('',#1343,#1345);
#1347=EDGE_CURVE('',#1302,#1342,#1346,.T.);
#1348=ORIENTED_EDGE('',*,*,#1347,.T.);
#1349=CARTESIAN_POINT('',(-14.999999999999993,8.000000000000002,10.6));
#1350=VERTEX_POINT('',#1349);
#1351=CARTESIAN_POINT('',(-14.999999999999993,8.000000000000002,10.6));
#1352=DIRECTION('',(0.0,0.0,1.0));
#1353=VECTOR('',#1352,0.1);
#1354=LINE('',#1351,#1353);
#1355=EDGE_CURVE('',#1350,#1342,#1354,.T.);
#1356=ORIENTED_EDGE('',*,*,#1355,.F.);
#1357=CARTESIAN_POINT('',(-15.000000000000007,-8.000000000000002,10.6));
#1358=DIRECTION('',(0.0,1.0,0.0));
#1359=VECTOR('',#1358,16.000000000000004);
#1360=LINE('',#1357,#1359);
#1361=EDGE_CURVE('',#1311,#1350,#1360,.T.);
#1362=ORIENTED_EDGE('',*,*,#1361,.F.);
#1363=ORIENTED_EDGE('',*,*,#1316,.T.);
#1364=EDGE_LOOP('',(#1348,#1356,#1362,#1363));
#1365=FACE_OUTER_BOUND('',#1364,.T.);
#1366=ADVANCED_FACE('',(#1365),#1340,.T.);
#1367=CARTESIAN_POINT('',(-13.999999999999993,8.000000000000002,10.6));
#1368=DIRECTION('',(0.0,0.0,1.0));
#1369=DIRECTION('',(-0.707106781186548,0.707106781186548,0.0));
#1370=AXIS2_PLACEMENT_3D('',#1367,#1368,#1369);
#1371=CYLINDRICAL_SURFACE('',#1370,1.0);
#1372=CARTESIAN_POINT('',(-13.999999999999993,9.000000000000002,10.699999999999999));
#1373=VERTEX_POINT('',#1372);
#1374=CARTESIAN_POINT('',(-13.999999999999993,8.000000000000002,10.699999999999999));
#1375=DIRECTION('',(0.0,0.0,-1.0));
#1376=DIRECTION('',(-0.707106781186548,0.707106781186548,0.0));
#1377=AXIS2_PLACEMENT_3D('',#1374,#1375,#1376);
#1378=CIRCLE('',#1377,1.0);
#1379=EDGE_CURVE('',#1342,#1373,#1378,.T.);
#1380=ORIENTED_EDGE('',*,*,#1379,.T.);
#1381=CARTESIAN_POINT('',(-13.999999999999993,9.000000000000002,10.6));
#1382=VERTEX_POINT('',#1381);
#1383=CARTESIAN_POINT('',(-13.999999999999993,9.000000000000002,10.6));
#1384=DIRECTION('',(0.0,0.0,1.0));
#1385=VECTOR('',#1384,0.1);
#1386=LINE('',#1383,#1385);
#1387=EDGE_CURVE('',#1382,#1373,#1386,.T.);
#1388=ORIENTED_EDGE('',*,*,#1387,.F.);
#1389=CARTESIAN_POINT('',(-13.999999999999993,8.000000000000002,10.6));
#1390=DIRECTION('',(0.0,0.0,-1.0));
#1391=DIRECTION('',(-0.707106781186548,0.707106781186548,0.0));
#1392=AXIS2_PLACEMENT_3D('',#1389,#1390,#1391);
#1393=CIRCLE('',#1392,1.0);
#1394=EDGE_CURVE('',#1350,#1382,#1393,.T.);
#1395=ORIENTED_EDGE('',*,*,#1394,.F.);
#1396=ORIENTED_EDGE('',*,*,#1355,.T.);
#1397=EDGE_LOOP('',(#1380,#1388,#1395,#1396));
#1398=FACE_OUTER_BOUND('',#1397,.T.);
#1399=ADVANCED_FACE('',(#1398),#1371,.T.);
#1400=CARTESIAN_POINT('',(-13.999999999999993,9.000000000000002,10.6));
#1401=DIRECTION('',(0.0,1.0,0.0));
#1402=DIRECTION('',(0.0,0.0,1.0));
#1403=AXIS2_PLACEMENT_3D('',#1400,#1401,#1402);
#1404=PLANE('',#1403);
#1405=CARTESIAN_POINT('',(14.0,9.000000000000002,10.699999999999999));
#1406=VERTEX_POINT('',#1405);
#1407=CARTESIAN_POINT('',(-13.999999999999993,9.000000000000002,10.699999999999999));
#1408=DIRECTION('',(1.0,0.0,0.0));
#1409=VECTOR('',#1408,27.999999999999993);
#1410=LINE('',#1407,#1409);
#1411=EDGE_CURVE('',#1373,#1406,#1410,.T.);
#1412=ORIENTED_EDGE('',*,*,#1411,.T.);
#1413=CARTESIAN_POINT('',(14.0,9.000000000000002,10.6));
#1414=VERTEX_POINT('',#1413);
#1415=CARTESIAN_POINT('',(14.0,9.000000000000002,10.6));
#1416=DIRECTION('',(0.0,0.0,1.0));
#1417=VECTOR('',#1416,0.1);
#1418=LINE('',#1415,#1417);
#1419=EDGE_CURVE('',#1414,#1406,#1418,.T.);
#1420=ORIENTED_EDGE('',*,*,#1419,.F.);
#1421=CARTESIAN_POINT('',(-13.999999999999993,9.000000000000002,10.6));
#1422=DIRECTION('',(1.0,0.0,0.0));
#1423=VECTOR('',#1422,27.999999999999993);
#1424=LINE('',#1421,#1423);
#1425=EDGE_CURVE('',#1382,#1414,#1424,.T.);
#1426=ORIENTED_EDGE('',*,*,#1425,.F.);
#1427=ORIENTED_EDGE('',*,*,#1387,.T.);
#1428=EDGE_LOOP('',(#1412,#1420,#1426,#1427));
#1429=FACE_OUTER_BOUND('',#1428,.T.);
#1430=ADVANCED_FACE('',(#1429),#1404,.T.);
#1431=CARTESIAN_POINT('',(14.0,8.000000000000002,10.6));
#1432=DIRECTION('',(0.0,0.0,1.0));
#1433=DIRECTION('',(0.707106781186548,0.707106781186548,0.0));
#1434=AXIS2_PLACEMENT_3D('',#1431,#1432,#1433);
#1435=CYLINDRICAL_SURFACE('',#1434,1.0);
#1436=CARTESIAN_POINT('',(15.0,8.000000000000002,10.699999999999999));
#1437=VERTEX_POINT('',#1436);
#1438=CARTESIAN_POINT('',(14.0,8.000000000000002,10.699999999999999));
#1439=DIRECTION('',(0.0,0.0,-1.0));
#1440=DIRECTION('',(0.707106781186548,0.707106781186548,0.0));
#1441=AXIS2_PLACEMENT_3D('',#1438,#1439,#1440);
#1442=CIRCLE('',#1441,1.0);
#1443=EDGE_CURVE('',#1406,#1437,#1442,.T.);
#1444=ORIENTED_EDGE('',*,*,#1443,.T.);
#1445=CARTESIAN_POINT('',(15.0,8.000000000000002,10.6));
#1446=VERTEX_POINT('',#1445);
#1447=CARTESIAN_POINT('',(15.0,8.000000000000002,10.6));
#1448=DIRECTION('',(0.0,0.0,1.0));
#1449=VECTOR('',#1448,0.1);
#1450=LINE('',#1447,#1449);
#1451=EDGE_CURVE('',#1446,#1437,#1450,.T.);
#1452=ORIENTED_EDGE('',*,*,#1451,.F.);
#1453=CARTESIAN_POINT('',(14.0,8.000000000000002,10.6));
#1454=DIRECTION('',(0.0,0.0,-1.0));
#1455=DIRECTION('',(0.707106781186548,0.707106781186548,0.0));
#1456=AXIS2_PLACEMENT_3D('',#1453,#1454,#1455);
#1457=CIRCLE('',#1456,1.0);
#1458=EDGE_CURVE('',#1414,#1446,#1457,.T.);
#1459=ORIENTED_EDGE('',*,*,#1458,.F.);
#1460=ORIENTED_EDGE('',*,*,#1419,.T.);
#1461=EDGE_LOOP('',(#1444,#1452,#1459,#1460));
#1462=FACE_OUTER_BOUND('',#1461,.T.);
#1463=ADVANCED_FACE('',(#1462),#1435,.T.);
#1464=CARTESIAN_POINT('',(15.0,8.000000000000002,10.6));
#1465=DIRECTION('',(1.0,0.0,0.0));
#1466=DIRECTION('',(0.0,0.0,-1.0));
#1467=AXIS2_PLACEMENT_3D('',#1464,#1465,#1466);
#1468=PLANE('',#1467);
#1469=CARTESIAN_POINT('',(15.000000000000007,-7.999999999999998,10.699999999999999));
#1470=VERTEX_POINT('',#1469);
#1471=CARTESIAN_POINT('',(15.0,8.000000000000002,10.699999999999999));
#1472=DIRECTION('',(0.0,-1.0,0.0));
#1473=VECTOR('',#1472,16.0);
#1474=LINE('',#1471,#1473);
#1475=EDGE_CURVE('',#1437,#1470,#1474,.T.);
#1476=ORIENTED_EDGE('',*,*,#1475,.T.);
#1477=CARTESIAN_POINT('',(15.000000000000007,-7.999999999999998,10.6));
#1478=VERTEX_POINT('',#1477);
#1479=CARTESIAN_POINT('',(15.000000000000007,-7.999999999999998,10.6));
#1480=DIRECTION('',(0.0,0.0,1.0));
#1481=VECTOR('',#1480,0.1);
#1482=LINE('',#1479,#1481);
#1483=EDGE_CURVE('',#1478,#1470,#1482,.T.);
#1484=ORIENTED_EDGE('',*,*,#1483,.F.);
#1485=CARTESIAN_POINT('',(15.0,8.000000000000002,10.6));
#1486=DIRECTION('',(0.0,-1.0,0.0));
#1487=VECTOR('',#1486,16.0);
#1488=LINE('',#1485,#1487);
#1489=EDGE_CURVE('',#1446,#1478,#1488,.T.);
#1490=ORIENTED_EDGE('',*,*,#1489,.F.);
#1491=ORIENTED_EDGE('',*,*,#1451,.T.);
#1492=EDGE_LOOP('',(#1476,#1484,#1490,#1491));
#1493=FACE_OUTER_BOUND('',#1492,.T.);
#1494=ADVANCED_FACE('',(#1493),#1468,.T.);
#1495=CARTESIAN_POINT('',(14.000000000000007,-7.999999999999998,10.6));
#1496=DIRECTION('',(0.0,0.0,1.0));
#1497=DIRECTION('',(0.707106781186548,-0.707106781186547,0.0));
#1498=AXIS2_PLACEMENT_3D('',#1495,#1496,#1497);
#1499=CYLINDRICAL_SURFACE('',#1498,1.0);
#1500=CARTESIAN_POINT('',(14.000000000000007,-8.999999999999998,10.699999999999999));
#1501=VERTEX_POINT('',#1500);
#1502=CARTESIAN_POINT('',(14.000000000000007,-7.999999999999998,10.699999999999999));
#1503=DIRECTION('',(0.0,0.0,-1.0));
#1504=DIRECTION('',(0.707106781186548,-0.707106781186547,0.0));
#1505=AXIS2_PLACEMENT_3D('',#1502,#1503,#1504);
#1506=CIRCLE('',#1505,1.0);
#1507=EDGE_CURVE('',#1470,#1501,#1506,.T.);
#1508=ORIENTED_EDGE('',*,*,#1507,.T.);
#1509=CARTESIAN_POINT('',(14.000000000000007,-8.999999999999998,10.6));
#1510=VERTEX_POINT('',#1509);
#1511=CARTESIAN_POINT('',(14.000000000000007,-8.999999999999998,10.6));
#1512=DIRECTION('',(0.0,0.0,1.0));
#1513=VECTOR('',#1512,0.1);
#1514=LINE('',#1511,#1513);
#1515=EDGE_CURVE('',#1510,#1501,#1514,.T.);
#1516=ORIENTED_EDGE('',*,*,#1515,.F.);
#1517=CARTESIAN_POINT('',(14.000000000000007,-7.999999999999998,10.6));
#1518=DIRECTION('',(0.0,0.0,-1.0));
#1519=DIRECTION('',(0.707106781186548,-0.707106781186547,0.0));
#1520=AXIS2_PLACEMENT_3D('',#1517,#1518,#1519);
#1521=CIRCLE('',#1520,1.0);
#1522=EDGE_CURVE('',#1478,#1510,#1521,.T.);
#1523=ORIENTED_EDGE('',*,*,#1522,.F.);
#1524=ORIENTED_EDGE('',*,*,#1483,.T.);
#1525=EDGE_LOOP('',(#1508,#1516,#1523,#1524));
#1526=FACE_OUTER_BOUND('',#1525,.T.);
#1527=ADVANCED_FACE('',(#1526),#1499,.T.);
#1528=CARTESIAN_POINT('',(14.000000000000007,-8.999999999999998,10.6));
#1529=DIRECTION('',(0.0,-1.0,0.0));
#1530=DIRECTION('',(0.0,0.0,-1.0));
#1531=AXIS2_PLACEMENT_3D('',#1528,#1529,#1530);
#1532=PLANE('',#1531);
#1533=CARTESIAN_POINT('',(14.000000000000007,-8.999999999999998,10.699999999999999));
#1534=DIRECTION('',(-1.0,0.0,0.0));
#1535=VECTOR('',#1534,28.000000000000011);
#1536=LINE('',#1533,#1535);
#1537=EDGE_CURVE('',#1501,#1300,#1536,.T.);
#1538=ORIENTED_EDGE('',*,*,#1537,.T.);
#1539=ORIENTED_EDGE('',*,*,#1331,.F.);
#1540=CARTESIAN_POINT('',(14.000000000000007,-8.999999999999998,10.6));
#1541=DIRECTION('',(-1.0,0.0,0.0));
#1542=VECTOR('',#1541,28.000000000000011);
#1543=LINE('',#1540,#1542);
#1544=EDGE_CURVE('',#1510,#1319,#1543,.T.);
#1545=ORIENTED_EDGE('',*,*,#1544,.F.);
#1546=ORIENTED_EDGE('',*,*,#1515,.T.);
#1547=EDGE_LOOP('',(#1538,#1539,#1545,#1546));
#1548=FACE_OUTER_BOUND('',#1547,.T.);
#1549=ADVANCED_FACE('',(#1548),#1532,.T.);
#1550=CARTESIAN_POINT('',(0.0,-1.776357E-015,10.699999999999999));
#1551=DIRECTION('',(0.0,0.0,1.0));
#1552=DIRECTION('',(1.0,0.0,0.0));
#1553=AXIS2_PLACEMENT_3D('',#1550,#1551,#1552);
#1554=PLANE('',#1553);
#1555=ORIENTED_EDGE('',*,*,#1308,.F.);
#1556=ORIENTED_EDGE('',*,*,#1537,.F.);
#1557=ORIENTED_EDGE('',*,*,#1507,.F.);
#1558=ORIENTED_EDGE('',*,*,#1475,.F.);
#1559=ORIENTED_EDGE('',*,*,#1443,.F.);
#1560=ORIENTED_EDGE('',*,*,#1411,.F.);
#1561=ORIENTED_EDGE('',*,*,#1379,.F.);
#1562=ORIENTED_EDGE('',*,*,#1347,.F.);
#1563=EDGE_LOOP('',(#1555,#1556,#1557,#1558,#1559,#1560,#1561,#1562));
#1564=FACE_OUTER_BOUND('',#1563,.T.);
#1565=ADVANCED_FACE('',(#1564),#1554,.T.);
#1566=CARTESIAN_POINT('',(0.0,-1.776357E-015,10.6));
#1567=DIRECTION('',(0.0,0.0,1.0));
#1568=DIRECTION('',(1.0,0.0,0.0));
#1569=AXIS2_PLACEMENT_3D('',#1566,#1567,#1568);
#1570=PLANE('',#1569);
#1571=ORIENTED_EDGE('',*,*,#1544,.T.);
#1572=ORIENTED_EDGE('',*,*,#1325,.T.);
#1573=ORIENTED_EDGE('',*,*,#1361,.T.);
#1574=ORIENTED_EDGE('',*,*,#1394,.T.);
#1575=ORIENTED_EDGE('',*,*,#1425,.T.);
#1576=ORIENTED_EDGE('',*,*,#1458,.T.);
#1577=ORIENTED_EDGE('',*,*,#1489,.T.);
#1578=ORIENTED_EDGE('',*,*,#1522,.T.);
#1579=EDGE_LOOP('',(#1571,#1572,#1573,#1574,#1575,#1576,#1577,#1578));
#1580=FACE_OUTER_BOUND('',#1579,.T.);
#1581=ADVANCED_FACE('',(#1580),#1570,.F.);
#1582=CLOSED_SHELL('',(#1335,#1366,#1399,#1430,#1463,#1494,#1527,#1549,#1565,#1581));
#1583=MANIFOLD_SOLID_BREP('11C7',#1582);
#1584=COLOUR_RGB('230',1.0,0.0,0.5);
#1585=SURFACE_STYLE_USAGE(.BOTH.,#1586);
#1586=SURFACE_SIDE_STYLE('NONE',(#1587));
#1587=SURFACE_STYLE_FILL_AREA(#1588);
#1588=FILL_AREA_STYLE('NONE',(#1589));
#1589=FILL_AREA_STYLE_COLOUR('NONE',#1584);
#1590=PRESENTATION_STYLE_ASSIGNMENT((#1585));
#1591=STYLED_ITEM('NONE',(#1590),#1583);
#1592=ADVANCED_BREP_SHAPE_REPRESENTATION('ABSR1',(#152,#250,#339,#428,#517,#606,#695,#784,#1285,#1583),#28);
#1593=SHAPE_REPRESENTATION_RELATIONSHIP('SRRPL1','',#1592,#62);
ENDSEC;
END-ISO-10303-21;
