ISO-10303-21;
HEADER;
/* Generated by software containing ST-Developer
 * from STEP Tools, Inc. (www.steptools.com) 
 */

FILE_DESCRIPTION(
/* description */ (''),
/* implementation_level */ '2;1');

FILE_NAME(
/* name */ 'G:\\Applications\\Altium\\CernLib\\StepLib\\DCDC_TRACO_TRN
3.stp',
/* time_stamp */ '2017-06-06T09:39:45+02:00',
/* author */ ('jchouvet'),
/* organization */ (''),
/* preprocessor_version */ 'ST-DEVELOPER v16.1',
/* originating_system */ 'AutoCAD Mechanical',
/* authorisation */ '');

FILE_SCHEMA (('AUTOMOTIVE_DESIGN { 1 0 10303 214 3 1 1 }'));
ENDSEC;

DATA;
#10=MECHANICAL_DESIGN_GEOMETRIC_PRESENTATION_REPRESENTATION('',(#29,#30,
#31,#32,#26,#27,#28),#1151);
#11=DIMENSIONAL_EXPONENTS(0.,0.,0.,0.,0.,0.,0.);
#12=(
CONVERSION_BASED_UNIT('degree',#13)
NAMED_UNIT(#11)
PLANE_ANGLE_UNIT()
);
#13=PLANE_ANGLE_MEASURE_WITH_UNIT(PLANE_ANGLE_MEASURE(0.01745329252),#1154);
#14=PRESENTATION_LAYER_ASSIGNMENT('1','3D',(#33,#34,#35,#36,#37,#38,#39));
#15=FACE_BOUND('',#116,.T.);
#16=FACE_BOUND('',#121,.T.);
#17=FACE_BOUND('',#131,.T.);
#18=CIRCLE('',#753,0.3);
#19=CIRCLE('',#768,0.3);
#20=ELLIPSE('',#752,0.300045365190037,0.3);
#21=ELLIPSE('',#766,0.300045365190037,0.3);
#22=CYLINDRICAL_SURFACE('',#751,0.3);
#23=CYLINDRICAL_SURFACE('',#767,0.3);
#24=SHAPE_REPRESENTATION_RELATIONSHIP('SRR','None',#1157,#25);
#25=ADVANCED_BREP_SHAPE_REPRESENTATION('',(#33,#34,#35,#36,#37,#38,#39),
#1150);
#26=STYLED_ITEM('',(#1167),#33);
#27=STYLED_ITEM('',(#1167),#34);
#28=STYLED_ITEM('',(#1167),#35);
#29=STYLED_ITEM('',(#1167),#36);
#30=STYLED_ITEM('',(#1167),#37);
#31=STYLED_ITEM('',(#1168),#38);
#32=STYLED_ITEM('',(#1166),#39);
#33=MANIFOLD_SOLID_BREP('2F99',#713);
#34=MANIFOLD_SOLID_BREP('2F9D',#714);
#35=MANIFOLD_SOLID_BREP('2FA1',#715);
#36=MANIFOLD_SOLID_BREP('2FA5',#716);
#37=MANIFOLD_SOLID_BREP('2FA9',#717);
#38=MANIFOLD_SOLID_BREP('2FF7',#718);
#39=MANIFOLD_SOLID_BREP('3104',#719);
#40=FACE_OUTER_BOUND('',#85,.T.);
#41=FACE_OUTER_BOUND('',#86,.T.);
#42=FACE_OUTER_BOUND('',#87,.T.);
#43=FACE_OUTER_BOUND('',#88,.T.);
#44=FACE_OUTER_BOUND('',#89,.T.);
#45=FACE_OUTER_BOUND('',#90,.T.);
#46=FACE_OUTER_BOUND('',#91,.T.);
#47=FACE_OUTER_BOUND('',#92,.T.);
#48=FACE_OUTER_BOUND('',#93,.T.);
#49=FACE_OUTER_BOUND('',#94,.T.);
#50=FACE_OUTER_BOUND('',#95,.T.);
#51=FACE_OUTER_BOUND('',#96,.T.);
#52=FACE_OUTER_BOUND('',#97,.T.);
#53=FACE_OUTER_BOUND('',#98,.T.);
#54=FACE_OUTER_BOUND('',#99,.T.);
#55=FACE_OUTER_BOUND('',#100,.T.);
#56=FACE_OUTER_BOUND('',#101,.T.);
#57=FACE_OUTER_BOUND('',#102,.T.);
#58=FACE_OUTER_BOUND('',#103,.T.);
#59=FACE_OUTER_BOUND('',#104,.T.);
#60=FACE_OUTER_BOUND('',#105,.T.);
#61=FACE_OUTER_BOUND('',#106,.T.);
#62=FACE_OUTER_BOUND('',#107,.T.);
#63=FACE_OUTER_BOUND('',#108,.T.);
#64=FACE_OUTER_BOUND('',#109,.T.);
#65=FACE_OUTER_BOUND('',#110,.T.);
#66=FACE_OUTER_BOUND('',#111,.T.);
#67=FACE_OUTER_BOUND('',#112,.T.);
#68=FACE_OUTER_BOUND('',#113,.T.);
#69=FACE_OUTER_BOUND('',#114,.T.);
#70=FACE_OUTER_BOUND('',#115,.T.);
#71=FACE_OUTER_BOUND('',#117,.T.);
#72=FACE_OUTER_BOUND('',#118,.T.);
#73=FACE_OUTER_BOUND('',#119,.T.);
#74=FACE_OUTER_BOUND('',#120,.T.);
#75=FACE_OUTER_BOUND('',#122,.T.);
#76=FACE_OUTER_BOUND('',#123,.T.);
#77=FACE_OUTER_BOUND('',#124,.T.);
#78=FACE_OUTER_BOUND('',#125,.T.);
#79=FACE_OUTER_BOUND('',#126,.T.);
#80=FACE_OUTER_BOUND('',#127,.T.);
#81=FACE_OUTER_BOUND('',#128,.T.);
#82=FACE_OUTER_BOUND('',#129,.T.);
#83=FACE_OUTER_BOUND('',#130,.T.);
#84=FACE_OUTER_BOUND('',#132,.T.);
#85=EDGE_LOOP('',(#449,#450,#451,#452));
#86=EDGE_LOOP('',(#453,#454,#455,#456));
#87=EDGE_LOOP('',(#457,#458,#459,#460));
#88=EDGE_LOOP('',(#461,#462,#463,#464));
#89=EDGE_LOOP('',(#465,#466,#467,#468));
#90=EDGE_LOOP('',(#469,#470,#471,#472));
#91=EDGE_LOOP('',(#473,#474,#475,#476));
#92=EDGE_LOOP('',(#477,#478,#479,#480));
#93=EDGE_LOOP('',(#481,#482,#483,#484));
#94=EDGE_LOOP('',(#485,#486,#487,#488));
#95=EDGE_LOOP('',(#489,#490,#491,#492));
#96=EDGE_LOOP('',(#493,#494,#495,#496));
#97=EDGE_LOOP('',(#497,#498,#499,#500));
#98=EDGE_LOOP('',(#501,#502,#503,#504));
#99=EDGE_LOOP('',(#505,#506,#507,#508));
#100=EDGE_LOOP('',(#509,#510,#511,#512));
#101=EDGE_LOOP('',(#513,#514,#515,#516));
#102=EDGE_LOOP('',(#517,#518,#519,#520));
#103=EDGE_LOOP('',(#521,#522,#523,#524));
#104=EDGE_LOOP('',(#525,#526,#527,#528));
#105=EDGE_LOOP('',(#529,#530,#531,#532));
#106=EDGE_LOOP('',(#533,#534,#535,#536));
#107=EDGE_LOOP('',(#537,#538,#539,#540));
#108=EDGE_LOOP('',(#541,#542,#543,#544));
#109=EDGE_LOOP('',(#545,#546,#547,#548));
#110=EDGE_LOOP('',(#549,#550,#551,#552));
#111=EDGE_LOOP('',(#553,#554,#555,#556));
#112=EDGE_LOOP('',(#557,#558,#559,#560));
#113=EDGE_LOOP('',(#561,#562,#563,#564));
#114=EDGE_LOOP('',(#565,#566,#567,#568));
#115=EDGE_LOOP('',(#569));
#116=EDGE_LOOP('',(#570));
#117=EDGE_LOOP('',(#571));
#118=EDGE_LOOP('',(#572,#573,#574,#575,#576,#577,#578,#579));
#119=EDGE_LOOP('',(#580,#581,#582,#583));
#120=EDGE_LOOP('',(#584,#585,#586,#587,#588,#589,#590,#591));
#121=EDGE_LOOP('',(#592));
#122=EDGE_LOOP('',(#593,#594,#595,#596));
#123=EDGE_LOOP('',(#597,#598,#599,#600));
#124=EDGE_LOOP('',(#601,#602,#603,#604));
#125=EDGE_LOOP('',(#605,#606,#607,#608));
#126=EDGE_LOOP('',(#609,#610,#611,#612));
#127=EDGE_LOOP('',(#613,#614,#615,#616));
#128=EDGE_LOOP('',(#617,#618,#619,#620));
#129=EDGE_LOOP('',(#621));
#130=EDGE_LOOP('',(#622));
#131=EDGE_LOOP('',(#623));
#132=EDGE_LOOP('',(#624));
#133=LINE('',#958,#217);
#134=LINE('',#960,#218);
#135=LINE('',#962,#219);
#136=LINE('',#963,#220);
#137=LINE('',#967,#221);
#138=LINE('',#969,#222);
#139=LINE('',#971,#223);
#140=LINE('',#972,#224);
#141=LINE('',#974,#225);
#142=LINE('',#975,#226);
#143=LINE('',#977,#227);
#144=LINE('',#979,#228);
#145=LINE('',#984,#229);
#146=LINE('',#986,#230);
#147=LINE('',#988,#231);
#148=LINE('',#989,#232);
#149=LINE('',#993,#233);
#150=LINE('',#995,#234);
#151=LINE('',#997,#235);
#152=LINE('',#998,#236);
#153=LINE('',#1000,#237);
#154=LINE('',#1001,#238);
#155=LINE('',#1003,#239);
#156=LINE('',#1005,#240);
#157=LINE('',#1010,#241);
#158=LINE('',#1012,#242);
#159=LINE('',#1014,#243);
#160=LINE('',#1015,#244);
#161=LINE('',#1019,#245);
#162=LINE('',#1021,#246);
#163=LINE('',#1023,#247);
#164=LINE('',#1024,#248);
#165=LINE('',#1026,#249);
#166=LINE('',#1027,#250);
#167=LINE('',#1029,#251);
#168=LINE('',#1031,#252);
#169=LINE('',#1036,#253);
#170=LINE('',#1038,#254);
#171=LINE('',#1040,#255);
#172=LINE('',#1041,#256);
#173=LINE('',#1045,#257);
#174=LINE('',#1047,#258);
#175=LINE('',#1049,#259);
#176=LINE('',#1050,#260);
#177=LINE('',#1052,#261);
#178=LINE('',#1053,#262);
#179=LINE('',#1055,#263);
#180=LINE('',#1057,#264);
#181=LINE('',#1062,#265);
#182=LINE('',#1064,#266);
#183=LINE('',#1066,#267);
#184=LINE('',#1067,#268);
#185=LINE('',#1071,#269);
#186=LINE('',#1073,#270);
#187=LINE('',#1075,#271);
#188=LINE('',#1076,#272);
#189=LINE('',#1078,#273);
#190=LINE('',#1079,#274);
#191=LINE('',#1081,#275);
#192=LINE('',#1083,#276);
#193=LINE('',#1094,#277);
#194=LINE('',#1096,#278);
#195=LINE('',#1098,#279);
#196=LINE('',#1100,#280);
#197=LINE('',#1102,#281);
#198=LINE('',#1104,#282);
#199=LINE('',#1106,#283);
#200=LINE('',#1107,#284);
#201=LINE('',#1110,#285);
#202=LINE('',#1112,#286);
#203=LINE('',#1113,#287);
#204=LINE('',#1117,#288);
#205=LINE('',#1118,#289);
#206=LINE('',#1120,#290);
#207=LINE('',#1122,#291);
#208=LINE('',#1124,#292);
#209=LINE('',#1126,#293);
#210=LINE('',#1127,#294);
#211=LINE('',#1129,#295);
#212=LINE('',#1130,#296);
#213=LINE('',#1132,#297);
#214=LINE('',#1133,#298);
#215=LINE('',#1135,#299);
#216=LINE('',#1139,#300);
#217=VECTOR('',#774,0.25);
#218=VECTOR('',#775,0.500000000000001);
#219=VECTOR('',#776,0.25);
#220=VECTOR('',#777,0.500000000000001);
#221=VECTOR('',#780,0.25);
#222=VECTOR('',#781,0.500000000000001);
#223=VECTOR('',#782,0.25);
#224=VECTOR('',#783,0.500000000000001);
#225=VECTOR('',#786,3.9);
#226=VECTOR('',#787,3.9);
#227=VECTOR('',#790,3.9);
#228=VECTOR('',#793,3.9);
#229=VECTOR('',#798,0.249999999999999);
#230=VECTOR('',#799,0.499999999999999);
#231=VECTOR('',#800,0.249999999999999);
#232=VECTOR('',#801,0.499999999999999);
#233=VECTOR('',#804,0.249999999999999);
#234=VECTOR('',#805,0.499999999999999);
#235=VECTOR('',#806,0.249999999999999);
#236=VECTOR('',#807,0.499999999999999);
#237=VECTOR('',#810,3.9);
#238=VECTOR('',#811,3.9);
#239=VECTOR('',#814,3.9);
#240=VECTOR('',#817,3.9);
#241=VECTOR('',#822,0.249999999999999);
#242=VECTOR('',#823,0.499999999999998);
#243=VECTOR('',#824,0.249999999999999);
#244=VECTOR('',#825,0.499999999999998);
#245=VECTOR('',#828,0.249999999999999);
#246=VECTOR('',#829,0.499999999999998);
#247=VECTOR('',#830,0.249999999999999);
#248=VECTOR('',#831,0.499999999999998);
#249=VECTOR('',#834,3.9);
#250=VECTOR('',#835,3.9);
#251=VECTOR('',#838,3.9);
#252=VECTOR('',#841,3.9);
#253=VECTOR('',#846,0.250000000000001);
#254=VECTOR('',#847,0.500000000000002);
#255=VECTOR('',#848,0.250000000000001);
#256=VECTOR('',#849,0.500000000000002);
#257=VECTOR('',#852,0.250000000000001);
#258=VECTOR('',#853,0.500000000000002);
#259=VECTOR('',#854,0.250000000000001);
#260=VECTOR('',#855,0.500000000000002);
#261=VECTOR('',#858,3.9);
#262=VECTOR('',#859,3.9);
#263=VECTOR('',#862,3.9);
#264=VECTOR('',#865,3.9);
#265=VECTOR('',#870,0.250000000000001);
#266=VECTOR('',#871,0.499999999999997);
#267=VECTOR('',#872,0.250000000000001);
#268=VECTOR('',#873,0.499999999999997);
#269=VECTOR('',#876,0.250000000000001);
#270=VECTOR('',#877,0.499999999999997);
#271=VECTOR('',#878,0.250000000000001);
#272=VECTOR('',#879,0.499999999999997);
#273=VECTOR('',#882,3.9);
#274=VECTOR('',#883,3.9);
#275=VECTOR('',#886,3.9);
#276=VECTOR('',#889,3.9);
#277=VECTOR('',#902,0.300045365190036);
#278=VECTOR('',#903,0.5);
#279=VECTOR('',#904,11.5034777350156);
#280=VECTOR('',#905,12.);
#281=VECTOR('',#906,11.5034777350156);
#282=VECTOR('',#907,0.5);
#283=VECTOR('',#908,0.300045365190037);
#284=VECTOR('',#909,11.4);
#285=VECTOR('',#912,7.8);
#286=VECTOR('',#913,11.5034777350156);
#287=VECTOR('',#914,8.2);
#288=VECTOR('',#917,0.300045365190036);
#289=VECTOR('',#918,0.500000000000002);
#290=VECTOR('',#919,12.);
#291=VECTOR('',#920,11.5034777350156);
#292=VECTOR('',#921,0.500000000000002);
#293=VECTOR('',#922,0.300045365190037);
#294=VECTOR('',#923,11.4);
#295=VECTOR('',#926,8.2);
#296=VECTOR('',#927,7.8);
#297=VECTOR('',#930,8.1895652173913);
#298=VECTOR('',#931,8.1895652173913);
#299=VECTOR('',#934,8.2);
#300=VECTOR('',#941,8.2);
#301=VERTEX_POINT('',#956);
#302=VERTEX_POINT('',#957);
#303=VERTEX_POINT('',#959);
#304=VERTEX_POINT('',#961);
#305=VERTEX_POINT('',#965);
#306=VERTEX_POINT('',#966);
#307=VERTEX_POINT('',#968);
#308=VERTEX_POINT('',#970);
#309=VERTEX_POINT('',#982);
#310=VERTEX_POINT('',#983);
#311=VERTEX_POINT('',#985);
#312=VERTEX_POINT('',#987);
#313=VERTEX_POINT('',#991);
#314=VERTEX_POINT('',#992);
#315=VERTEX_POINT('',#994);
#316=VERTEX_POINT('',#996);
#317=VERTEX_POINT('',#1008);
#318=VERTEX_POINT('',#1009);
#319=VERTEX_POINT('',#1011);
#320=VERTEX_POINT('',#1013);
#321=VERTEX_POINT('',#1017);
#322=VERTEX_POINT('',#1018);
#323=VERTEX_POINT('',#1020);
#324=VERTEX_POINT('',#1022);
#325=VERTEX_POINT('',#1034);
#326=VERTEX_POINT('',#1035);
#327=VERTEX_POINT('',#1037);
#328=VERTEX_POINT('',#1039);
#329=VERTEX_POINT('',#1043);
#330=VERTEX_POINT('',#1044);
#331=VERTEX_POINT('',#1046);
#332=VERTEX_POINT('',#1048);
#333=VERTEX_POINT('',#1060);
#334=VERTEX_POINT('',#1061);
#335=VERTEX_POINT('',#1063);
#336=VERTEX_POINT('',#1065);
#337=VERTEX_POINT('',#1069);
#338=VERTEX_POINT('',#1070);
#339=VERTEX_POINT('',#1072);
#340=VERTEX_POINT('',#1074);
#341=VERTEX_POINT('',#1086);
#342=VERTEX_POINT('',#1088);
#343=VERTEX_POINT('',#1092);
#344=VERTEX_POINT('',#1093);
#345=VERTEX_POINT('',#1095);
#346=VERTEX_POINT('',#1097);
#347=VERTEX_POINT('',#1099);
#348=VERTEX_POINT('',#1101);
#349=VERTEX_POINT('',#1103);
#350=VERTEX_POINT('',#1105);
#351=VERTEX_POINT('',#1109);
#352=VERTEX_POINT('',#1111);
#353=VERTEX_POINT('',#1115);
#354=VERTEX_POINT('',#1116);
#355=VERTEX_POINT('',#1119);
#356=VERTEX_POINT('',#1121);
#357=VERTEX_POINT('',#1123);
#358=VERTEX_POINT('',#1125);
#359=VERTEX_POINT('',#1142);
#360=VERTEX_POINT('',#1145);
#361=EDGE_CURVE('',#301,#302,#133,.T.);
#362=EDGE_CURVE('',#302,#303,#134,.T.);
#363=EDGE_CURVE('',#303,#304,#135,.T.);
#364=EDGE_CURVE('',#304,#301,#136,.T.);
#365=EDGE_CURVE('',#305,#306,#137,.T.);
#366=EDGE_CURVE('',#306,#307,#138,.T.);
#367=EDGE_CURVE('',#307,#308,#139,.T.);
#368=EDGE_CURVE('',#308,#305,#140,.T.);
#369=EDGE_CURVE('',#304,#307,#141,.T.);
#370=EDGE_CURVE('',#301,#306,#142,.T.);
#371=EDGE_CURVE('',#303,#308,#143,.T.);
#372=EDGE_CURVE('',#302,#305,#144,.T.);
#373=EDGE_CURVE('',#309,#310,#145,.T.);
#374=EDGE_CURVE('',#311,#309,#146,.T.);
#375=EDGE_CURVE('',#312,#311,#147,.T.);
#376=EDGE_CURVE('',#310,#312,#148,.T.);
#377=EDGE_CURVE('',#313,#314,#149,.T.);
#378=EDGE_CURVE('',#315,#313,#150,.T.);
#379=EDGE_CURVE('',#316,#315,#151,.T.);
#380=EDGE_CURVE('',#314,#316,#152,.T.);
#381=EDGE_CURVE('',#311,#316,#153,.T.);
#382=EDGE_CURVE('',#309,#314,#154,.T.);
#383=EDGE_CURVE('',#312,#315,#155,.T.);
#384=EDGE_CURVE('',#310,#313,#156,.T.);
#385=EDGE_CURVE('',#317,#318,#157,.T.);
#386=EDGE_CURVE('',#319,#317,#158,.T.);
#387=EDGE_CURVE('',#320,#319,#159,.T.);
#388=EDGE_CURVE('',#318,#320,#160,.T.);
#389=EDGE_CURVE('',#321,#322,#161,.T.);
#390=EDGE_CURVE('',#323,#321,#162,.T.);
#391=EDGE_CURVE('',#324,#323,#163,.T.);
#392=EDGE_CURVE('',#322,#324,#164,.T.);
#393=EDGE_CURVE('',#319,#324,#165,.T.);
#394=EDGE_CURVE('',#317,#322,#166,.T.);
#395=EDGE_CURVE('',#320,#323,#167,.T.);
#396=EDGE_CURVE('',#318,#321,#168,.T.);
#397=EDGE_CURVE('',#325,#326,#169,.T.);
#398=EDGE_CURVE('',#326,#327,#170,.T.);
#399=EDGE_CURVE('',#327,#328,#171,.T.);
#400=EDGE_CURVE('',#328,#325,#172,.T.);
#401=EDGE_CURVE('',#329,#330,#173,.T.);
#402=EDGE_CURVE('',#330,#331,#174,.T.);
#403=EDGE_CURVE('',#331,#332,#175,.T.);
#404=EDGE_CURVE('',#332,#329,#176,.T.);
#405=EDGE_CURVE('',#328,#331,#177,.T.);
#406=EDGE_CURVE('',#325,#330,#178,.T.);
#407=EDGE_CURVE('',#327,#332,#179,.T.);
#408=EDGE_CURVE('',#326,#329,#180,.T.);
#409=EDGE_CURVE('',#333,#334,#181,.T.);
#410=EDGE_CURVE('',#335,#333,#182,.T.);
#411=EDGE_CURVE('',#336,#335,#183,.T.);
#412=EDGE_CURVE('',#334,#336,#184,.T.);
#413=EDGE_CURVE('',#337,#338,#185,.T.);
#414=EDGE_CURVE('',#339,#337,#186,.T.);
#415=EDGE_CURVE('',#340,#339,#187,.T.);
#416=EDGE_CURVE('',#338,#340,#188,.T.);
#417=EDGE_CURVE('',#335,#340,#189,.T.);
#418=EDGE_CURVE('',#333,#338,#190,.T.);
#419=EDGE_CURVE('',#336,#339,#191,.T.);
#420=EDGE_CURVE('',#334,#337,#192,.T.);
#421=EDGE_CURVE('',#341,#341,#20,.T.);
#422=EDGE_CURVE('',#342,#342,#18,.T.);
#423=EDGE_CURVE('',#343,#344,#193,.T.);
#424=EDGE_CURVE('',#345,#344,#194,.T.);
#425=EDGE_CURVE('',#346,#345,#195,.T.);
#426=EDGE_CURVE('',#346,#347,#196,.T.);
#427=EDGE_CURVE('',#347,#348,#197,.T.);
#428=EDGE_CURVE('',#349,#348,#198,.T.);
#429=EDGE_CURVE('',#349,#350,#199,.T.);
#430=EDGE_CURVE('',#350,#343,#200,.T.);
#431=EDGE_CURVE('',#347,#351,#201,.T.);
#432=EDGE_CURVE('',#351,#352,#202,.T.);
#433=EDGE_CURVE('',#348,#352,#203,.T.);
#434=EDGE_CURVE('',#353,#354,#204,.T.);
#435=EDGE_CURVE('',#352,#354,#205,.T.);
#436=EDGE_CURVE('',#351,#355,#206,.T.);
#437=EDGE_CURVE('',#355,#356,#207,.T.);
#438=EDGE_CURVE('',#357,#356,#208,.T.);
#439=EDGE_CURVE('',#357,#358,#209,.T.);
#440=EDGE_CURVE('',#358,#353,#210,.T.);
#441=EDGE_CURVE('',#356,#345,#211,.T.);
#442=EDGE_CURVE('',#355,#346,#212,.T.);
#443=EDGE_CURVE('',#350,#353,#213,.T.);
#444=EDGE_CURVE('',#358,#343,#214,.T.);
#445=EDGE_CURVE('',#354,#349,#215,.T.);
#446=EDGE_CURVE('',#344,#357,#216,.T.);
#447=EDGE_CURVE('',#359,#359,#21,.T.);
#448=EDGE_CURVE('',#360,#360,#19,.T.);
#449=ORIENTED_EDGE('',*,*,#361,.T.);
#450=ORIENTED_EDGE('',*,*,#362,.T.);
#451=ORIENTED_EDGE('',*,*,#363,.T.);
#452=ORIENTED_EDGE('',*,*,#364,.T.);
#453=ORIENTED_EDGE('',*,*,#365,.T.);
#454=ORIENTED_EDGE('',*,*,#366,.T.);
#455=ORIENTED_EDGE('',*,*,#367,.T.);
#456=ORIENTED_EDGE('',*,*,#368,.T.);
#457=ORIENTED_EDGE('',*,*,#369,.T.);
#458=ORIENTED_EDGE('',*,*,#366,.F.);
#459=ORIENTED_EDGE('',*,*,#370,.F.);
#460=ORIENTED_EDGE('',*,*,#364,.F.);
#461=ORIENTED_EDGE('',*,*,#371,.T.);
#462=ORIENTED_EDGE('',*,*,#367,.F.);
#463=ORIENTED_EDGE('',*,*,#369,.F.);
#464=ORIENTED_EDGE('',*,*,#363,.F.);
#465=ORIENTED_EDGE('',*,*,#372,.T.);
#466=ORIENTED_EDGE('',*,*,#368,.F.);
#467=ORIENTED_EDGE('',*,*,#371,.F.);
#468=ORIENTED_EDGE('',*,*,#362,.F.);
#469=ORIENTED_EDGE('',*,*,#370,.T.);
#470=ORIENTED_EDGE('',*,*,#365,.F.);
#471=ORIENTED_EDGE('',*,*,#372,.F.);
#472=ORIENTED_EDGE('',*,*,#361,.F.);
#473=ORIENTED_EDGE('',*,*,#373,.F.);
#474=ORIENTED_EDGE('',*,*,#374,.F.);
#475=ORIENTED_EDGE('',*,*,#375,.F.);
#476=ORIENTED_EDGE('',*,*,#376,.F.);
#477=ORIENTED_EDGE('',*,*,#377,.F.);
#478=ORIENTED_EDGE('',*,*,#378,.F.);
#479=ORIENTED_EDGE('',*,*,#379,.F.);
#480=ORIENTED_EDGE('',*,*,#380,.F.);
#481=ORIENTED_EDGE('',*,*,#381,.F.);
#482=ORIENTED_EDGE('',*,*,#374,.T.);
#483=ORIENTED_EDGE('',*,*,#382,.T.);
#484=ORIENTED_EDGE('',*,*,#380,.T.);
#485=ORIENTED_EDGE('',*,*,#383,.F.);
#486=ORIENTED_EDGE('',*,*,#375,.T.);
#487=ORIENTED_EDGE('',*,*,#381,.T.);
#488=ORIENTED_EDGE('',*,*,#379,.T.);
#489=ORIENTED_EDGE('',*,*,#384,.F.);
#490=ORIENTED_EDGE('',*,*,#376,.T.);
#491=ORIENTED_EDGE('',*,*,#383,.T.);
#492=ORIENTED_EDGE('',*,*,#378,.T.);
#493=ORIENTED_EDGE('',*,*,#382,.F.);
#494=ORIENTED_EDGE('',*,*,#373,.T.);
#495=ORIENTED_EDGE('',*,*,#384,.T.);
#496=ORIENTED_EDGE('',*,*,#377,.T.);
#497=ORIENTED_EDGE('',*,*,#385,.F.);
#498=ORIENTED_EDGE('',*,*,#386,.F.);
#499=ORIENTED_EDGE('',*,*,#387,.F.);
#500=ORIENTED_EDGE('',*,*,#388,.F.);
#501=ORIENTED_EDGE('',*,*,#389,.F.);
#502=ORIENTED_EDGE('',*,*,#390,.F.);
#503=ORIENTED_EDGE('',*,*,#391,.F.);
#504=ORIENTED_EDGE('',*,*,#392,.F.);
#505=ORIENTED_EDGE('',*,*,#393,.F.);
#506=ORIENTED_EDGE('',*,*,#386,.T.);
#507=ORIENTED_EDGE('',*,*,#394,.T.);
#508=ORIENTED_EDGE('',*,*,#392,.T.);
#509=ORIENTED_EDGE('',*,*,#395,.F.);
#510=ORIENTED_EDGE('',*,*,#387,.T.);
#511=ORIENTED_EDGE('',*,*,#393,.T.);
#512=ORIENTED_EDGE('',*,*,#391,.T.);
#513=ORIENTED_EDGE('',*,*,#396,.F.);
#514=ORIENTED_EDGE('',*,*,#388,.T.);
#515=ORIENTED_EDGE('',*,*,#395,.T.);
#516=ORIENTED_EDGE('',*,*,#390,.T.);
#517=ORIENTED_EDGE('',*,*,#394,.F.);
#518=ORIENTED_EDGE('',*,*,#385,.T.);
#519=ORIENTED_EDGE('',*,*,#396,.T.);
#520=ORIENTED_EDGE('',*,*,#389,.T.);
#521=ORIENTED_EDGE('',*,*,#397,.T.);
#522=ORIENTED_EDGE('',*,*,#398,.T.);
#523=ORIENTED_EDGE('',*,*,#399,.T.);
#524=ORIENTED_EDGE('',*,*,#400,.T.);
#525=ORIENTED_EDGE('',*,*,#401,.T.);
#526=ORIENTED_EDGE('',*,*,#402,.T.);
#527=ORIENTED_EDGE('',*,*,#403,.T.);
#528=ORIENTED_EDGE('',*,*,#404,.T.);
#529=ORIENTED_EDGE('',*,*,#405,.T.);
#530=ORIENTED_EDGE('',*,*,#402,.F.);
#531=ORIENTED_EDGE('',*,*,#406,.F.);
#532=ORIENTED_EDGE('',*,*,#400,.F.);
#533=ORIENTED_EDGE('',*,*,#407,.T.);
#534=ORIENTED_EDGE('',*,*,#403,.F.);
#535=ORIENTED_EDGE('',*,*,#405,.F.);
#536=ORIENTED_EDGE('',*,*,#399,.F.);
#537=ORIENTED_EDGE('',*,*,#408,.T.);
#538=ORIENTED_EDGE('',*,*,#404,.F.);
#539=ORIENTED_EDGE('',*,*,#407,.F.);
#540=ORIENTED_EDGE('',*,*,#398,.F.);
#541=ORIENTED_EDGE('',*,*,#406,.T.);
#542=ORIENTED_EDGE('',*,*,#401,.F.);
#543=ORIENTED_EDGE('',*,*,#408,.F.);
#544=ORIENTED_EDGE('',*,*,#397,.F.);
#545=ORIENTED_EDGE('',*,*,#409,.F.);
#546=ORIENTED_EDGE('',*,*,#410,.F.);
#547=ORIENTED_EDGE('',*,*,#411,.F.);
#548=ORIENTED_EDGE('',*,*,#412,.F.);
#549=ORIENTED_EDGE('',*,*,#413,.F.);
#550=ORIENTED_EDGE('',*,*,#414,.F.);
#551=ORIENTED_EDGE('',*,*,#415,.F.);
#552=ORIENTED_EDGE('',*,*,#416,.F.);
#553=ORIENTED_EDGE('',*,*,#417,.F.);
#554=ORIENTED_EDGE('',*,*,#410,.T.);
#555=ORIENTED_EDGE('',*,*,#418,.T.);
#556=ORIENTED_EDGE('',*,*,#416,.T.);
#557=ORIENTED_EDGE('',*,*,#419,.F.);
#558=ORIENTED_EDGE('',*,*,#411,.T.);
#559=ORIENTED_EDGE('',*,*,#417,.T.);
#560=ORIENTED_EDGE('',*,*,#415,.T.);
#561=ORIENTED_EDGE('',*,*,#420,.F.);
#562=ORIENTED_EDGE('',*,*,#412,.T.);
#563=ORIENTED_EDGE('',*,*,#419,.T.);
#564=ORIENTED_EDGE('',*,*,#414,.T.);
#565=ORIENTED_EDGE('',*,*,#418,.F.);
#566=ORIENTED_EDGE('',*,*,#409,.T.);
#567=ORIENTED_EDGE('',*,*,#420,.T.);
#568=ORIENTED_EDGE('',*,*,#413,.T.);
#569=ORIENTED_EDGE('',*,*,#421,.F.);
#570=ORIENTED_EDGE('',*,*,#422,.T.);
#571=ORIENTED_EDGE('',*,*,#422,.F.);
#572=ORIENTED_EDGE('',*,*,#423,.T.);
#573=ORIENTED_EDGE('',*,*,#424,.F.);
#574=ORIENTED_EDGE('',*,*,#425,.F.);
#575=ORIENTED_EDGE('',*,*,#426,.T.);
#576=ORIENTED_EDGE('',*,*,#427,.T.);
#577=ORIENTED_EDGE('',*,*,#428,.F.);
#578=ORIENTED_EDGE('',*,*,#429,.T.);
#579=ORIENTED_EDGE('',*,*,#430,.T.);
#580=ORIENTED_EDGE('',*,*,#431,.T.);
#581=ORIENTED_EDGE('',*,*,#432,.T.);
#582=ORIENTED_EDGE('',*,*,#433,.F.);
#583=ORIENTED_EDGE('',*,*,#427,.F.);
#584=ORIENTED_EDGE('',*,*,#434,.T.);
#585=ORIENTED_EDGE('',*,*,#435,.F.);
#586=ORIENTED_EDGE('',*,*,#432,.F.);
#587=ORIENTED_EDGE('',*,*,#436,.T.);
#588=ORIENTED_EDGE('',*,*,#437,.T.);
#589=ORIENTED_EDGE('',*,*,#438,.F.);
#590=ORIENTED_EDGE('',*,*,#439,.T.);
#591=ORIENTED_EDGE('',*,*,#440,.T.);
#592=ORIENTED_EDGE('',*,*,#421,.T.);
#593=ORIENTED_EDGE('',*,*,#441,.F.);
#594=ORIENTED_EDGE('',*,*,#437,.F.);
#595=ORIENTED_EDGE('',*,*,#442,.T.);
#596=ORIENTED_EDGE('',*,*,#425,.T.);
#597=ORIENTED_EDGE('',*,*,#430,.F.);
#598=ORIENTED_EDGE('',*,*,#443,.T.);
#599=ORIENTED_EDGE('',*,*,#440,.F.);
#600=ORIENTED_EDGE('',*,*,#444,.T.);
#601=ORIENTED_EDGE('',*,*,#429,.F.);
#602=ORIENTED_EDGE('',*,*,#445,.F.);
#603=ORIENTED_EDGE('',*,*,#434,.F.);
#604=ORIENTED_EDGE('',*,*,#443,.F.);
#605=ORIENTED_EDGE('',*,*,#426,.F.);
#606=ORIENTED_EDGE('',*,*,#442,.F.);
#607=ORIENTED_EDGE('',*,*,#436,.F.);
#608=ORIENTED_EDGE('',*,*,#431,.F.);
#609=ORIENTED_EDGE('',*,*,#428,.T.);
#610=ORIENTED_EDGE('',*,*,#433,.T.);
#611=ORIENTED_EDGE('',*,*,#435,.T.);
#612=ORIENTED_EDGE('',*,*,#445,.T.);
#613=ORIENTED_EDGE('',*,*,#423,.F.);
#614=ORIENTED_EDGE('',*,*,#444,.F.);
#615=ORIENTED_EDGE('',*,*,#439,.F.);
#616=ORIENTED_EDGE('',*,*,#446,.F.);
#617=ORIENTED_EDGE('',*,*,#424,.T.);
#618=ORIENTED_EDGE('',*,*,#446,.T.);
#619=ORIENTED_EDGE('',*,*,#438,.T.);
#620=ORIENTED_EDGE('',*,*,#441,.T.);
#621=ORIENTED_EDGE('',*,*,#447,.F.);
#622=ORIENTED_EDGE('',*,*,#447,.T.);
#623=ORIENTED_EDGE('',*,*,#448,.F.);
#624=ORIENTED_EDGE('',*,*,#448,.T.);
#625=PLANE('',#721);
#626=PLANE('',#722);
#627=PLANE('',#723);
#628=PLANE('',#724);
#629=PLANE('',#725);
#630=PLANE('',#726);
#631=PLANE('',#727);
#632=PLANE('',#728);
#633=PLANE('',#729);
#634=PLANE('',#730);
#635=PLANE('',#731);
#636=PLANE('',#732);
#637=PLANE('',#733);
#638=PLANE('',#734);
#639=PLANE('',#735);
#640=PLANE('',#736);
#641=PLANE('',#737);
#642=PLANE('',#738);
#643=PLANE('',#739);
#644=PLANE('',#740);
#645=PLANE('',#741);
#646=PLANE('',#742);
#647=PLANE('',#743);
#648=PLANE('',#744);
#649=PLANE('',#745);
#650=PLANE('',#746);
#651=PLANE('',#747);
#652=PLANE('',#748);
#653=PLANE('',#749);
#654=PLANE('',#750);
#655=PLANE('',#754);
#656=PLANE('',#755);
#657=PLANE('',#756);
#658=PLANE('',#757);
#659=PLANE('',#758);
#660=PLANE('',#759);
#661=PLANE('',#760);
#662=PLANE('',#761);
#663=PLANE('',#762);
#664=PLANE('',#763);
#665=PLANE('',#764);
#666=PLANE('',#765);
#667=PLANE('',#769);
#668=ADVANCED_FACE('',(#40),#625,.T.);
#669=ADVANCED_FACE('',(#41),#626,.F.);
#670=ADVANCED_FACE('',(#42),#627,.F.);
#671=ADVANCED_FACE('',(#43),#628,.F.);
#672=ADVANCED_FACE('',(#44),#629,.F.);
#673=ADVANCED_FACE('',(#45),#630,.F.);
#674=ADVANCED_FACE('',(#46),#631,.F.);
#675=ADVANCED_FACE('',(#47),#632,.T.);
#676=ADVANCED_FACE('',(#48),#633,.T.);
#677=ADVANCED_FACE('',(#49),#634,.T.);
#678=ADVANCED_FACE('',(#50),#635,.T.);
#679=ADVANCED_FACE('',(#51),#636,.T.);
#680=ADVANCED_FACE('',(#52),#637,.F.);
#681=ADVANCED_FACE('',(#53),#638,.T.);
#682=ADVANCED_FACE('',(#54),#639,.T.);
#683=ADVANCED_FACE('',(#55),#640,.T.);
#684=ADVANCED_FACE('',(#56),#641,.T.);
#685=ADVANCED_FACE('',(#57),#642,.T.);
#686=ADVANCED_FACE('',(#58),#643,.T.);
#687=ADVANCED_FACE('',(#59),#644,.F.);
#688=ADVANCED_FACE('',(#60),#645,.F.);
#689=ADVANCED_FACE('',(#61),#646,.F.);
#690=ADVANCED_FACE('',(#62),#647,.F.);
#691=ADVANCED_FACE('',(#63),#648,.F.);
#692=ADVANCED_FACE('',(#64),#649,.F.);
#693=ADVANCED_FACE('',(#65),#650,.T.);
#694=ADVANCED_FACE('',(#66),#651,.T.);
#695=ADVANCED_FACE('',(#67),#652,.T.);
#696=ADVANCED_FACE('',(#68),#653,.T.);
#697=ADVANCED_FACE('',(#69),#654,.T.);
#698=ADVANCED_FACE('',(#70,#15),#22,.F.);
#699=ADVANCED_FACE('',(#71),#655,.F.);
#700=ADVANCED_FACE('',(#72),#656,.T.);
#701=ADVANCED_FACE('',(#73),#657,.T.);
#702=ADVANCED_FACE('',(#74,#16),#658,.T.);
#703=ADVANCED_FACE('',(#75),#659,.T.);
#704=ADVANCED_FACE('',(#76),#660,.F.);
#705=ADVANCED_FACE('',(#77),#661,.T.);
#706=ADVANCED_FACE('',(#78),#662,.T.);
#707=ADVANCED_FACE('',(#79),#663,.F.);
#708=ADVANCED_FACE('',(#80),#664,.T.);
#709=ADVANCED_FACE('',(#81),#665,.F.);
#710=ADVANCED_FACE('',(#82),#666,.T.);
#711=ADVANCED_FACE('',(#83,#17),#23,.T.);
#712=ADVANCED_FACE('',(#84),#667,.T.);
#713=CLOSED_SHELL('',(#668,#669,#670,#671,#672,#673));
#714=CLOSED_SHELL('',(#674,#675,#676,#677,#678,#679));
#715=CLOSED_SHELL('',(#680,#681,#682,#683,#684,#685));
#716=CLOSED_SHELL('',(#686,#687,#688,#689,#690,#691));
#717=CLOSED_SHELL('',(#692,#693,#694,#695,#696,#697));
#718=CLOSED_SHELL('',(#698,#699,#700,#701,#702,#703,#704,#705,#706,#707,
#708,#709));
#719=CLOSED_SHELL('',(#710,#711,#712));
#720=AXIS2_PLACEMENT_3D('placement',#954,#770,#771);
#721=AXIS2_PLACEMENT_3D('',#955,#772,#773);
#722=AXIS2_PLACEMENT_3D('',#964,#778,#779);
#723=AXIS2_PLACEMENT_3D('',#973,#784,#785);
#724=AXIS2_PLACEMENT_3D('',#976,#788,#789);
#725=AXIS2_PLACEMENT_3D('',#978,#791,#792);
#726=AXIS2_PLACEMENT_3D('',#980,#794,#795);
#727=AXIS2_PLACEMENT_3D('',#981,#796,#797);
#728=AXIS2_PLACEMENT_3D('',#990,#802,#803);
#729=AXIS2_PLACEMENT_3D('',#999,#808,#809);
#730=AXIS2_PLACEMENT_3D('',#1002,#812,#813);
#731=AXIS2_PLACEMENT_3D('',#1004,#815,#816);
#732=AXIS2_PLACEMENT_3D('',#1006,#818,#819);
#733=AXIS2_PLACEMENT_3D('',#1007,#820,#821);
#734=AXIS2_PLACEMENT_3D('',#1016,#826,#827);
#735=AXIS2_PLACEMENT_3D('',#1025,#832,#833);
#736=AXIS2_PLACEMENT_3D('',#1028,#836,#837);
#737=AXIS2_PLACEMENT_3D('',#1030,#839,#840);
#738=AXIS2_PLACEMENT_3D('',#1032,#842,#843);
#739=AXIS2_PLACEMENT_3D('',#1033,#844,#845);
#740=AXIS2_PLACEMENT_3D('',#1042,#850,#851);
#741=AXIS2_PLACEMENT_3D('',#1051,#856,#857);
#742=AXIS2_PLACEMENT_3D('',#1054,#860,#861);
#743=AXIS2_PLACEMENT_3D('',#1056,#863,#864);
#744=AXIS2_PLACEMENT_3D('',#1058,#866,#867);
#745=AXIS2_PLACEMENT_3D('',#1059,#868,#869);
#746=AXIS2_PLACEMENT_3D('',#1068,#874,#875);
#747=AXIS2_PLACEMENT_3D('',#1077,#880,#881);
#748=AXIS2_PLACEMENT_3D('',#1080,#884,#885);
#749=AXIS2_PLACEMENT_3D('',#1082,#887,#888);
#750=AXIS2_PLACEMENT_3D('',#1084,#890,#891);
#751=AXIS2_PLACEMENT_3D('',#1085,#892,#893);
#752=AXIS2_PLACEMENT_3D('',#1087,#894,#895);
#753=AXIS2_PLACEMENT_3D('',#1089,#896,#897);
#754=AXIS2_PLACEMENT_3D('',#1090,#898,#899);
#755=AXIS2_PLACEMENT_3D('',#1091,#900,#901);
#756=AXIS2_PLACEMENT_3D('',#1108,#910,#911);
#757=AXIS2_PLACEMENT_3D('',#1114,#915,#916);
#758=AXIS2_PLACEMENT_3D('',#1128,#924,#925);
#759=AXIS2_PLACEMENT_3D('',#1131,#928,#929);
#760=AXIS2_PLACEMENT_3D('',#1134,#932,#933);
#761=AXIS2_PLACEMENT_3D('',#1136,#935,#936);
#762=AXIS2_PLACEMENT_3D('',#1137,#937,#938);
#763=AXIS2_PLACEMENT_3D('',#1138,#939,#940);
#764=AXIS2_PLACEMENT_3D('',#1140,#942,#943);
#765=AXIS2_PLACEMENT_3D('',#1141,#944,#945);
#766=AXIS2_PLACEMENT_3D('',#1143,#946,#947);
#767=AXIS2_PLACEMENT_3D('',#1144,#948,#949);
#768=AXIS2_PLACEMENT_3D('',#1146,#950,#951);
#769=AXIS2_PLACEMENT_3D('',#1147,#952,#953);
#770=DIRECTION('axis',(0.,0.,1.));
#771=DIRECTION('refdir',(1.,0.,0.));
#772=DIRECTION('center_axis',(0.,0.,-1.));
#773=DIRECTION('ref_axis',(1.,0.,0.));
#774=DIRECTION('',(0.,-1.,0.));
#775=DIRECTION('',(-1.,0.,0.));
#776=DIRECTION('',(0.,1.,0.));
#777=DIRECTION('',(1.,0.,0.));
#778=DIRECTION('center_axis',(0.,0.,-1.));
#779=DIRECTION('ref_axis',(1.,0.,0.));
#780=DIRECTION('',(0.,1.,0.));
#781=DIRECTION('',(-1.,0.,0.));
#782=DIRECTION('',(0.,-1.,0.));
#783=DIRECTION('',(1.,0.,0.));
#784=DIRECTION('center_axis',(0.,-1.,0.));
#785=DIRECTION('ref_axis',(0.,0.,-1.));
#786=DIRECTION('',(0.,0.,1.));
#787=DIRECTION('',(0.,0.,1.));
#788=DIRECTION('center_axis',(1.,0.,0.));
#789=DIRECTION('ref_axis',(0.,0.,1.));
#790=DIRECTION('',(0.,0.,1.));
#791=DIRECTION('center_axis',(0.,1.,0.));
#792=DIRECTION('ref_axis',(0.,0.,1.));
#793=DIRECTION('',(0.,0.,1.));
#794=DIRECTION('center_axis',(-1.,0.,0.));
#795=DIRECTION('ref_axis',(0.,0.,-1.));
#796=DIRECTION('center_axis',(0.,0.,-1.));
#797=DIRECTION('ref_axis',(1.,0.,0.));
#798=DIRECTION('',(0.,-1.,0.));
#799=DIRECTION('',(1.,0.,0.));
#800=DIRECTION('',(0.,1.,0.));
#801=DIRECTION('',(-1.,0.,0.));
#802=DIRECTION('center_axis',(0.,0.,-1.));
#803=DIRECTION('ref_axis',(1.,0.,0.));
#804=DIRECTION('',(0.,1.,0.));
#805=DIRECTION('',(1.,0.,0.));
#806=DIRECTION('',(0.,-1.,0.));
#807=DIRECTION('',(-1.,0.,0.));
#808=DIRECTION('center_axis',(0.,1.,0.));
#809=DIRECTION('ref_axis',(0.,0.,1.));
#810=DIRECTION('',(0.,0.,-1.));
#811=DIRECTION('',(0.,0.,-1.));
#812=DIRECTION('center_axis',(-1.,0.,0.));
#813=DIRECTION('ref_axis',(0.,0.,-1.));
#814=DIRECTION('',(0.,0.,-1.));
#815=DIRECTION('center_axis',(0.,-1.,0.));
#816=DIRECTION('ref_axis',(0.,0.,-1.));
#817=DIRECTION('',(0.,0.,-1.));
#818=DIRECTION('center_axis',(1.,0.,0.));
#819=DIRECTION('ref_axis',(0.,0.,1.));
#820=DIRECTION('center_axis',(0.,0.,-1.));
#821=DIRECTION('ref_axis',(1.,0.,0.));
#822=DIRECTION('',(0.,-1.,0.));
#823=DIRECTION('',(1.,0.,0.));
#824=DIRECTION('',(0.,1.,0.));
#825=DIRECTION('',(-1.,0.,0.));
#826=DIRECTION('center_axis',(0.,0.,-1.));
#827=DIRECTION('ref_axis',(1.,0.,0.));
#828=DIRECTION('',(0.,1.,0.));
#829=DIRECTION('',(1.,0.,0.));
#830=DIRECTION('',(0.,-1.,0.));
#831=DIRECTION('',(-1.,0.,0.));
#832=DIRECTION('center_axis',(0.,1.,0.));
#833=DIRECTION('ref_axis',(0.,0.,1.));
#834=DIRECTION('',(0.,0.,-1.));
#835=DIRECTION('',(0.,0.,-1.));
#836=DIRECTION('center_axis',(-1.,0.,0.));
#837=DIRECTION('ref_axis',(0.,0.,-1.));
#838=DIRECTION('',(0.,0.,-1.));
#839=DIRECTION('center_axis',(0.,-1.,0.));
#840=DIRECTION('ref_axis',(0.,0.,-1.));
#841=DIRECTION('',(0.,0.,-1.));
#842=DIRECTION('center_axis',(1.,0.,0.));
#843=DIRECTION('ref_axis',(0.,0.,1.));
#844=DIRECTION('center_axis',(0.,0.,-1.));
#845=DIRECTION('ref_axis',(1.,0.,0.));
#846=DIRECTION('',(0.,-1.,0.));
#847=DIRECTION('',(-1.,0.,0.));
#848=DIRECTION('',(0.,1.,0.));
#849=DIRECTION('',(1.,0.,0.));
#850=DIRECTION('center_axis',(0.,0.,-1.));
#851=DIRECTION('ref_axis',(1.,0.,0.));
#852=DIRECTION('',(0.,1.,0.));
#853=DIRECTION('',(-1.,0.,0.));
#854=DIRECTION('',(0.,-1.,0.));
#855=DIRECTION('',(1.,0.,0.));
#856=DIRECTION('center_axis',(0.,-1.,0.));
#857=DIRECTION('ref_axis',(0.,0.,-1.));
#858=DIRECTION('',(0.,0.,1.));
#859=DIRECTION('',(0.,0.,1.));
#860=DIRECTION('center_axis',(1.,0.,0.));
#861=DIRECTION('ref_axis',(0.,0.,1.));
#862=DIRECTION('',(0.,0.,1.));
#863=DIRECTION('center_axis',(0.,1.,0.));
#864=DIRECTION('ref_axis',(0.,0.,1.));
#865=DIRECTION('',(0.,0.,1.));
#866=DIRECTION('center_axis',(-1.,0.,0.));
#867=DIRECTION('ref_axis',(0.,0.,-1.));
#868=DIRECTION('center_axis',(0.,0.,1.));
#869=DIRECTION('ref_axis',(-1.,0.,0.));
#870=DIRECTION('',(0.,-1.,0.));
#871=DIRECTION('',(-1.,0.,0.));
#872=DIRECTION('',(0.,1.,0.));
#873=DIRECTION('',(1.,0.,0.));
#874=DIRECTION('center_axis',(0.,0.,1.));
#875=DIRECTION('ref_axis',(-1.,0.,0.));
#876=DIRECTION('',(0.,1.,0.));
#877=DIRECTION('',(-1.,0.,0.));
#878=DIRECTION('',(0.,-1.,0.));
#879=DIRECTION('',(1.,0.,0.));
#880=DIRECTION('center_axis',(0.,1.,0.));
#881=DIRECTION('ref_axis',(0.,0.,-1.));
#882=DIRECTION('',(0.,0.,1.));
#883=DIRECTION('',(0.,0.,1.));
#884=DIRECTION('center_axis',(1.,0.,0.));
#885=DIRECTION('ref_axis',(0.,0.,1.));
#886=DIRECTION('',(0.,0.,1.));
#887=DIRECTION('center_axis',(0.,-1.,0.));
#888=DIRECTION('ref_axis',(0.,0.,1.));
#889=DIRECTION('',(0.,0.,1.));
#890=DIRECTION('center_axis',(-1.,0.,0.));
#891=DIRECTION('ref_axis',(0.,0.,-1.));
#892=DIRECTION('center_axis',(0.,-1.,2.22044604925031E-16));
#893=DIRECTION('ref_axis',(1.,0.,0.));
#894=DIRECTION('center_axis',(0.,0.999848805563091,-0.0173886748793581));
#895=DIRECTION('ref_axis',(0.,0.0173886748793581,0.999848805563091));
#896=DIRECTION('center_axis',(0.,1.,-2.22044604925031E-16));
#897=DIRECTION('ref_axis',(1.,0.,0.));
#898=DIRECTION('center_axis',(0.,1.,-2.22044604925031E-16));
#899=DIRECTION('ref_axis',(-1.,0.,0.));
#900=DIRECTION('center_axis',(0.,0.999848805563091,0.0173886748793581));
#901=DIRECTION('ref_axis',(0.,-0.0173886748793581,0.999848805563091));
#902=DIRECTION('',(-3.76688921342136E-18,0.0173886748793581,-0.999848805563091));
#903=DIRECTION('',(1.,0.,0.));
#904=DIRECTION('',(-0.0173860466032126,0.0173860466032126,-0.999697679684724));
#905=DIRECTION('',(1.,0.,0.));
#906=DIRECTION('',(0.0173860466032125,0.0173860466032125,-0.999697679684724));
#907=DIRECTION('',(1.,0.,0.));
#908=DIRECTION('',(0.,-0.0173886748793581,0.999848805563091));
#909=DIRECTION('',(-1.,0.,0.));
#910=DIRECTION('center_axis',(0.999848805563091,0.,0.0173886748793581));
#911=DIRECTION('ref_axis',(0.0173886748793581,0.,-0.999848805563091));
#912=DIRECTION('',(0.,-1.,0.));
#913=DIRECTION('',(0.0173860466032126,-0.0173860466032127,-0.999697679684724));
#914=DIRECTION('',(2.16628882853689E-16,-1.,0.));
#915=DIRECTION('center_axis',(0.,-0.999848805563091,0.0173886748793581));
#916=DIRECTION('ref_axis',(0.,-0.0173886748793577,-0.999848805563091));
#917=DIRECTION('',(0.,-0.0173886748793581,-0.999848805563091));
#918=DIRECTION('',(-1.,0.,0.));
#919=DIRECTION('',(-1.,0.,0.));
#920=DIRECTION('',(-0.0173860466032126,-0.0173860466032126,-0.999697679684724));
#921=DIRECTION('',(-1.,0.,0.));
#922=DIRECTION('',(-3.76688921342136E-18,0.0173886748793581,0.999848805563091));
#923=DIRECTION('',(1.,0.,0.));
#924=DIRECTION('center_axis',(-0.999848805563091,0.,0.0173886748793581));
#925=DIRECTION('ref_axis',(0.0173886748793581,0.,0.999848805563091));
#926=DIRECTION('',(0.,1.,0.));
#927=DIRECTION('',(0.,1.,0.));
#928=DIRECTION('center_axis',(0.,0.,1.));
#929=DIRECTION('ref_axis',(1.,0.,0.));
#930=DIRECTION('',(0.,-1.,0.));
#931=DIRECTION('',(-2.16628882853689E-16,1.,0.));
#932=DIRECTION('center_axis',(-1.,0.,0.));
#933=DIRECTION('ref_axis',(0.,-1.,0.));
#934=DIRECTION('',(0.,1.,0.));
#935=DIRECTION('center_axis',(0.,0.,1.));
#936=DIRECTION('ref_axis',(1.,0.,0.));
#937=DIRECTION('center_axis',(0.,0.,1.));
#938=DIRECTION('ref_axis',(1.,0.,0.));
#939=DIRECTION('center_axis',(1.,2.16628882853689E-16,0.));
#940=DIRECTION('ref_axis',(0.,1.,0.));
#941=DIRECTION('',(2.16628882853689E-16,-1.,0.));
#942=DIRECTION('center_axis',(0.,0.,1.));
#943=DIRECTION('ref_axis',(1.,0.,0.));
#944=DIRECTION('center_axis',(0.,-0.999848805563091,0.0173886748793581));
#945=DIRECTION('ref_axis',(0.,-0.0173886748793577,-0.999848805563091));
#946=DIRECTION('center_axis',(0.,0.999848805563091,-0.0173886748793581));
#947=DIRECTION('ref_axis',(0.,0.0173886748793581,0.999848805563091));
#948=DIRECTION('center_axis',(0.,-1.,2.22044604925031E-16));
#949=DIRECTION('ref_axis',(1.,0.,0.));
#950=DIRECTION('center_axis',(0.,1.,-2.22044604925031E-16));
#951=DIRECTION('ref_axis',(1.,0.,0.));
#952=DIRECTION('center_axis',(0.,1.,-2.22044604925031E-16));
#953=DIRECTION('ref_axis',(-1.,0.,0.));
#954=CARTESIAN_POINT('',(0.,0.,0.));
#955=CARTESIAN_POINT('Origin',(-4.4,-0.14476348052153,-3.6));
#956=CARTESIAN_POINT('',(-4.15,-0.0197634805215301,-3.6));
#957=CARTESIAN_POINT('',(-4.15,-0.269763480521531,-3.6));
#958=CARTESIAN_POINT('',(-4.15,-0.14476348052153,-3.6));
#959=CARTESIAN_POINT('',(-4.65,-0.269763480521531,-3.6));
#960=CARTESIAN_POINT('',(-4.4,-0.269763480521531,-3.6));
#961=CARTESIAN_POINT('',(-4.65,-0.0197634805215301,-3.6));
#962=CARTESIAN_POINT('',(-4.65,-0.14476348052153,-3.6));
#963=CARTESIAN_POINT('',(-4.4,-0.0197634805215301,-3.6));
#964=CARTESIAN_POINT('Origin',(-4.4,-0.14476348052153,0.299999999999998));
#965=CARTESIAN_POINT('',(-4.15,-0.269763480521531,0.299999999999998));
#966=CARTESIAN_POINT('',(-4.15,-0.0197634805215301,0.299999999999998));
#967=CARTESIAN_POINT('',(-4.15,-0.14476348052153,0.299999999999998));
#968=CARTESIAN_POINT('',(-4.65,-0.0197634805215301,0.299999999999998));
#969=CARTESIAN_POINT('',(-4.4,-0.0197634805215301,0.299999999999998));
#970=CARTESIAN_POINT('',(-4.65,-0.269763480521531,0.299999999999998));
#971=CARTESIAN_POINT('',(-4.65,-0.14476348052153,0.299999999999998));
#972=CARTESIAN_POINT('',(-4.4,-0.269763480521531,0.299999999999998));
#973=CARTESIAN_POINT('Origin',(-4.4,-0.0197634805215301,-1.9));
#974=CARTESIAN_POINT('',(-4.65,-0.0197634805215301,-1.9));
#975=CARTESIAN_POINT('',(-4.15,-0.0197634805215301,-1.9));
#976=CARTESIAN_POINT('Origin',(-4.65,-0.14476348052153,-1.9));
#977=CARTESIAN_POINT('',(-4.65,-0.269763480521531,-1.9));
#978=CARTESIAN_POINT('Origin',(-4.4,-0.269763480521531,-1.9));
#979=CARTESIAN_POINT('',(-4.15,-0.269763480521531,-1.9));
#980=CARTESIAN_POINT('Origin',(-4.15,-0.14476348052153,-1.9));
#981=CARTESIAN_POINT('Origin',(-2.4,-0.14476348052153,0.299999999999999));
#982=CARTESIAN_POINT('',(-2.15,-0.0197634805215304,0.299999999999999));
#983=CARTESIAN_POINT('',(-2.15,-0.26976348052153,0.299999999999999));
#984=CARTESIAN_POINT('',(-2.15,-0.14476348052153,0.299999999999999));
#985=CARTESIAN_POINT('',(-2.65,-0.0197634805215304,0.299999999999999));
#986=CARTESIAN_POINT('',(-2.4,-0.0197634805215304,0.299999999999999));
#987=CARTESIAN_POINT('',(-2.65,-0.26976348052153,0.299999999999999));
#988=CARTESIAN_POINT('',(-2.65,-0.14476348052153,0.299999999999999));
#989=CARTESIAN_POINT('',(-2.4,-0.26976348052153,0.299999999999999));
#990=CARTESIAN_POINT('Origin',(-2.4,-0.14476348052153,-3.6));
#991=CARTESIAN_POINT('',(-2.15,-0.26976348052153,-3.6));
#992=CARTESIAN_POINT('',(-2.15,-0.0197634805215304,-3.6));
#993=CARTESIAN_POINT('',(-2.15,-0.14476348052153,-3.6));
#994=CARTESIAN_POINT('',(-2.65,-0.26976348052153,-3.6));
#995=CARTESIAN_POINT('',(-2.4,-0.26976348052153,-3.6));
#996=CARTESIAN_POINT('',(-2.65,-0.0197634805215304,-3.6));
#997=CARTESIAN_POINT('',(-2.65,-0.14476348052153,-3.6));
#998=CARTESIAN_POINT('',(-2.4,-0.0197634805215304,-3.6));
#999=CARTESIAN_POINT('Origin',(-2.4,-0.0197634805215304,-1.9));
#1000=CARTESIAN_POINT('',(-2.65,-0.0197634805215304,-1.9));
#1001=CARTESIAN_POINT('',(-2.15,-0.0197634805215304,-1.9));
#1002=CARTESIAN_POINT('Origin',(-2.65,-0.14476348052153,-1.9));
#1003=CARTESIAN_POINT('',(-2.65,-0.26976348052153,-1.9));
#1004=CARTESIAN_POINT('Origin',(-2.4,-0.26976348052153,-1.9));
#1005=CARTESIAN_POINT('',(-2.15,-0.26976348052153,-1.9));
#1006=CARTESIAN_POINT('Origin',(-2.15,-0.14476348052153,-1.9));
#1007=CARTESIAN_POINT('Origin',(0.399999999999997,-0.14476348052153,0.300000000000001));
#1008=CARTESIAN_POINT('',(0.649999999999996,-0.01976348052153,0.300000000000001));
#1009=CARTESIAN_POINT('',(0.649999999999996,-0.269763480521529,0.300000000000001));
#1010=CARTESIAN_POINT('',(0.649999999999996,-0.14476348052153,0.300000000000001));
#1011=CARTESIAN_POINT('',(0.149999999999998,-0.01976348052153,0.300000000000001));
#1012=CARTESIAN_POINT('',(0.399999999999997,-0.01976348052153,0.300000000000001));
#1013=CARTESIAN_POINT('',(0.149999999999998,-0.269763480521529,0.300000000000001));
#1014=CARTESIAN_POINT('',(0.149999999999998,-0.14476348052153,0.300000000000001));
#1015=CARTESIAN_POINT('',(0.399999999999997,-0.269763480521529,0.300000000000001));
#1016=CARTESIAN_POINT('Origin',(0.399999999999997,-0.14476348052153,-3.6));
#1017=CARTESIAN_POINT('',(0.649999999999996,-0.269763480521529,-3.6));
#1018=CARTESIAN_POINT('',(0.649999999999996,-0.01976348052153,-3.6));
#1019=CARTESIAN_POINT('',(0.649999999999996,-0.14476348052153,-3.6));
#1020=CARTESIAN_POINT('',(0.149999999999998,-0.269763480521529,-3.6));
#1021=CARTESIAN_POINT('',(0.399999999999997,-0.269763480521529,-3.6));
#1022=CARTESIAN_POINT('',(0.149999999999998,-0.01976348052153,-3.6));
#1023=CARTESIAN_POINT('',(0.149999999999998,-0.14476348052153,-3.6));
#1024=CARTESIAN_POINT('',(0.399999999999997,-0.01976348052153,-3.6));
#1025=CARTESIAN_POINT('Origin',(0.399999999999997,-0.01976348052153,-1.9));
#1026=CARTESIAN_POINT('',(0.149999999999998,-0.01976348052153,-1.9));
#1027=CARTESIAN_POINT('',(0.649999999999996,-0.01976348052153,-1.9));
#1028=CARTESIAN_POINT('Origin',(0.149999999999998,-0.14476348052153,-1.9));
#1029=CARTESIAN_POINT('',(0.149999999999998,-0.269763480521529,-1.9));
#1030=CARTESIAN_POINT('Origin',(0.399999999999997,-0.269763480521529,-1.9));
#1031=CARTESIAN_POINT('',(0.649999999999996,-0.269763480521529,-1.9));
#1032=CARTESIAN_POINT('Origin',(0.649999999999996,-0.14476348052153,-1.9));
#1033=CARTESIAN_POINT('Origin',(2.4,-0.144763480521529,-3.6));
#1034=CARTESIAN_POINT('',(2.65,-0.0197634805215292,-3.6));
#1035=CARTESIAN_POINT('',(2.65,-0.26976348052153,-3.6));
#1036=CARTESIAN_POINT('',(2.65,-0.144763480521529,-3.6));
#1037=CARTESIAN_POINT('',(2.15,-0.26976348052153,-3.6));
#1038=CARTESIAN_POINT('',(2.4,-0.26976348052153,-3.6));
#1039=CARTESIAN_POINT('',(2.15,-0.0197634805215292,-3.6));
#1040=CARTESIAN_POINT('',(2.15,-0.144763480521529,-3.6));
#1041=CARTESIAN_POINT('',(2.4,-0.0197634805215292,-3.6));
#1042=CARTESIAN_POINT('Origin',(2.4,-0.144763480521529,0.300000000000001));
#1043=CARTESIAN_POINT('',(2.65,-0.26976348052153,0.300000000000001));
#1044=CARTESIAN_POINT('',(2.65,-0.0197634805215292,0.300000000000001));
#1045=CARTESIAN_POINT('',(2.65,-0.144763480521529,0.300000000000001));
#1046=CARTESIAN_POINT('',(2.15,-0.0197634805215292,0.300000000000001));
#1047=CARTESIAN_POINT('',(2.4,-0.0197634805215292,0.300000000000001));
#1048=CARTESIAN_POINT('',(2.15,-0.26976348052153,0.300000000000001));
#1049=CARTESIAN_POINT('',(2.15,-0.144763480521529,0.300000000000001));
#1050=CARTESIAN_POINT('',(2.4,-0.26976348052153,0.300000000000001));
#1051=CARTESIAN_POINT('Origin',(2.4,-0.0197634805215292,-1.9));
#1052=CARTESIAN_POINT('',(2.15,-0.0197634805215292,-1.9));
#1053=CARTESIAN_POINT('',(2.65,-0.0197634805215292,-1.9));
#1054=CARTESIAN_POINT('Origin',(2.15,-0.144763480521529,-1.9));
#1055=CARTESIAN_POINT('',(2.15,-0.26976348052153,-1.9));
#1056=CARTESIAN_POINT('Origin',(2.4,-0.26976348052153,-1.9));
#1057=CARTESIAN_POINT('',(2.65,-0.26976348052153,-1.9));
#1058=CARTESIAN_POINT('Origin',(2.65,-0.144763480521529,-1.9));
#1059=CARTESIAN_POINT('Origin',(4.4,-0.144763480521529,-3.6));
#1060=CARTESIAN_POINT('',(4.15,-0.0197634805215289,-3.6));
#1061=CARTESIAN_POINT('',(4.15,-0.26976348052153,-3.6));
#1062=CARTESIAN_POINT('',(4.15,-0.144763480521529,-3.6));
#1063=CARTESIAN_POINT('',(4.65,-0.0197634805215289,-3.6));
#1064=CARTESIAN_POINT('',(4.4,-0.0197634805215289,-3.6));
#1065=CARTESIAN_POINT('',(4.65,-0.26976348052153,-3.6));
#1066=CARTESIAN_POINT('',(4.65,-0.144763480521529,-3.6));
#1067=CARTESIAN_POINT('',(4.4,-0.26976348052153,-3.6));
#1068=CARTESIAN_POINT('Origin',(4.4,-0.144763480521529,0.300000000000002));
#1069=CARTESIAN_POINT('',(4.15,-0.26976348052153,0.300000000000002));
#1070=CARTESIAN_POINT('',(4.15,-0.0197634805215289,0.300000000000002));
#1071=CARTESIAN_POINT('',(4.15,-0.144763480521529,0.300000000000002));
#1072=CARTESIAN_POINT('',(4.65,-0.26976348052153,0.300000000000002));
#1073=CARTESIAN_POINT('',(4.4,-0.26976348052153,0.300000000000002));
#1074=CARTESIAN_POINT('',(4.65,-0.0197634805215289,0.300000000000002));
#1075=CARTESIAN_POINT('',(4.65,-0.144763480521529,0.300000000000002));
#1076=CARTESIAN_POINT('',(4.4,-0.0197634805215289,0.300000000000002));
#1077=CARTESIAN_POINT('Origin',(4.4,-0.0197634805215289,-1.9));
#1078=CARTESIAN_POINT('',(4.65,-0.0197634805215289,-1.9));
#1079=CARTESIAN_POINT('',(4.15,-0.0197634805215289,-1.9));
#1080=CARTESIAN_POINT('Origin',(4.65,-0.144763480521529,-1.9));
#1081=CARTESIAN_POINT('',(4.65,-0.26976348052153,-1.9));
#1082=CARTESIAN_POINT('Origin',(4.4,-0.26976348052153,-1.9));
#1083=CARTESIAN_POINT('',(4.15,-0.26976348052153,-1.9));
#1084=CARTESIAN_POINT('Origin',(4.15,-0.144763480521529,-1.9));
#1085=CARTESIAN_POINT('Origin',(-4.24128601998993,-3.84478260869565,2.2743496567987));
#1086=CARTESIAN_POINT('',(-4.24128601998993,-4.06566348422959,1.9743496567987));
#1087=CARTESIAN_POINT('Origin',(-4.24128601998993,-4.06044609292524,2.2743496567987));
#1088=CARTESIAN_POINT('',(-3.94128601998993,-3.59478260869565,2.2743496567987));
#1089=CARTESIAN_POINT('Origin',(-4.24128601998993,-3.59478260869565,2.2743496567987));
#1090=CARTESIAN_POINT('Origin',(-4.24128601998993,-3.59478260869565,2.2743496567987));
#1091=CARTESIAN_POINT('Origin',(-2.85,4.,5.75));
#1092=CARTESIAN_POINT('',(-5.7,4.09478260869565,0.3));
#1093=CARTESIAN_POINT('',(-5.7,4.1,0.));
#1094=CARTESIAN_POINT('',(-5.7,4.04876029934235,2.94628278781465));
#1095=CARTESIAN_POINT('',(-6.2,4.1,0.));
#1096=CARTESIAN_POINT('',(-6.2,4.1,0.));
#1097=CARTESIAN_POINT('',(-6.,3.9,11.5));
#1098=CARTESIAN_POINT('',(-6.,3.9,11.5));
#1099=CARTESIAN_POINT('',(6.,3.9,11.5));
#1100=CARTESIAN_POINT('',(-2.85,3.9,11.5));
#1101=CARTESIAN_POINT('',(6.2,4.1,0.));
#1102=CARTESIAN_POINT('',(6.,3.9,11.5));
#1103=CARTESIAN_POINT('',(5.7,4.1,0.));
#1104=CARTESIAN_POINT('',(5.7,4.1,0.));
#1105=CARTESIAN_POINT('',(5.7,4.09478260869565,0.3));
#1106=CARTESIAN_POINT('',(5.7,4.05,2.875));
#1107=CARTESIAN_POINT('',(-1.425,4.09478260869565,0.3));
#1108=CARTESIAN_POINT('Origin',(6.1,-2.05,5.75));
#1109=CARTESIAN_POINT('',(6.,-3.9,11.5));
#1110=CARTESIAN_POINT('',(6.,-2.05,11.5));
#1111=CARTESIAN_POINT('',(6.2,-4.1,0.));
#1112=CARTESIAN_POINT('',(6.,-3.9,11.5));
#1113=CARTESIAN_POINT('',(6.2,4.1,0.));
#1114=CARTESIAN_POINT('Origin',(-3.1,-4.,5.75));
#1115=CARTESIAN_POINT('',(5.7,-4.09478260869565,0.3));
#1116=CARTESIAN_POINT('',(5.7,-4.1,0.));
#1117=CARTESIAN_POINT('',(5.7,-4.04876029934235,2.94628278781465));
#1118=CARTESIAN_POINT('',(6.2,-4.1,0.));
#1119=CARTESIAN_POINT('',(-6.,-3.9,11.5));
#1120=CARTESIAN_POINT('',(-3.1,-3.9,11.5));
#1121=CARTESIAN_POINT('',(-6.2,-4.1,0.));
#1122=CARTESIAN_POINT('',(-6.,-3.9,11.5));
#1123=CARTESIAN_POINT('',(-5.7,-4.1,0.));
#1124=CARTESIAN_POINT('',(-5.7,-4.1,0.));
#1125=CARTESIAN_POINT('',(-5.7,-4.09478260869565,0.3));
#1126=CARTESIAN_POINT('',(-5.7,-4.05,2.875));
#1127=CARTESIAN_POINT('',(-1.55,-4.09478260869565,0.3));
#1128=CARTESIAN_POINT('Origin',(-6.1,2.05,5.75));
#1129=CARTESIAN_POINT('',(-6.2,-4.1,0.));
#1130=CARTESIAN_POINT('',(-6.,2.05,11.5));
#1131=CARTESIAN_POINT('Origin',(0.,0.,0.3));
#1132=CARTESIAN_POINT('',(5.7,2.05,0.3));
#1133=CARTESIAN_POINT('',(-5.7,4.1,0.3));
#1134=CARTESIAN_POINT('Origin',(5.7,4.1,0.));
#1135=CARTESIAN_POINT('',(5.7,-4.1,0.));
#1136=CARTESIAN_POINT('Origin',(0.,0.,11.5));
#1137=CARTESIAN_POINT('Origin',(5.95,-1.30929749800622E-15,0.));
#1138=CARTESIAN_POINT('Origin',(-5.7,-4.1,0.));
#1139=CARTESIAN_POINT('',(-5.7,4.1,0.));
#1140=CARTESIAN_POINT('Origin',(-5.95,-4.21119078306094E-16,0.));
#1141=CARTESIAN_POINT('Origin',(-3.1,-4.,5.75));
#1142=CARTESIAN_POINT('',(-4.24128601998993,-4.06566348422959,1.9743496567987));
#1143=CARTESIAN_POINT('Origin',(-4.24128601998993,-4.06044609292524,2.2743496567987));
#1144=CARTESIAN_POINT('Origin',(-4.24128601998993,-3.84478260869565,2.2743496567987));
#1145=CARTESIAN_POINT('',(-3.94128601998993,-3.59478260869565,2.2743496567987));
#1146=CARTESIAN_POINT('Origin',(-4.24128601998993,-3.59478260869565,2.2743496567987));
#1147=CARTESIAN_POINT('Origin',(-4.24128601998993,-3.59478260869565,2.2743496567987));
#1148=UNCERTAINTY_MEASURE_WITH_UNIT(LENGTH_MEASURE(0.01),#1152,
'DISTANCE_ACCURACY_VALUE',
'Maximum model space distance between geometric entities at asserted c
onnectivities');
#1149=UNCERTAINTY_MEASURE_WITH_UNIT(LENGTH_MEASURE(1.E-6),#1152,
'DISTANCE_ACCURACY_VALUE',
'Maximum model space distance between geometric entities at asserted c
onnectivities');
#1150=(
GEOMETRIC_REPRESENTATION_CONTEXT(3)
GLOBAL_UNCERTAINTY_ASSIGNED_CONTEXT((#1148))
GLOBAL_UNIT_ASSIGNED_CONTEXT((#1152,#1154,#1153))
REPRESENTATION_CONTEXT('','3D')
);
#1151=(
GEOMETRIC_REPRESENTATION_CONTEXT(3)
GLOBAL_UNCERTAINTY_ASSIGNED_CONTEXT((#1149))
GLOBAL_UNIT_ASSIGNED_CONTEXT((#1152,#12,#1153))
REPRESENTATION_CONTEXT('','3D')
);
#1152=(
LENGTH_UNIT()
NAMED_UNIT(*)
SI_UNIT(.MILLI.,.METRE.)
);
#1153=(
NAMED_UNIT(*)
SI_UNIT($,.STERADIAN.)
SOLID_ANGLE_UNIT()
);
#1154=(
NAMED_UNIT(*)
PLANE_ANGLE_UNIT()
SI_UNIT($,.RADIAN.)
);
#1155=SHAPE_DEFINITION_REPRESENTATION(#1156,#1157);
#1156=PRODUCT_DEFINITION_SHAPE('',$,#1159);
#1157=SHAPE_REPRESENTATION('',(#720),#1150);
#1158=PRODUCT_DEFINITION_CONTEXT('part definition',#1163,'design');
#1159=PRODUCT_DEFINITION('Product','Product',#1160,#1158);
#1160=PRODUCT_DEFINITION_FORMATION('',$,#1165);
#1161=PRODUCT_RELATED_PRODUCT_CATEGORY('Product','Product',(#1165));
#1162=APPLICATION_PROTOCOL_DEFINITION('international standard',
'automotive_design',2009,#1163);
#1163=APPLICATION_CONTEXT(
'Core Data for Automotive Mechanical Design Process');
#1164=PRODUCT_CONTEXT('part definition',#1163,'mechanical');
#1165=PRODUCT('Product','Product',$,(#1164));
#1166=PRESENTATION_STYLE_ASSIGNMENT((#1169));
#1167=PRESENTATION_STYLE_ASSIGNMENT((#1170));
#1168=PRESENTATION_STYLE_ASSIGNMENT((#1171));
#1169=SURFACE_STYLE_USAGE(.BOTH.,#1172);
#1170=SURFACE_STYLE_USAGE(.BOTH.,#1173);
#1171=SURFACE_STYLE_USAGE(.BOTH.,#1174);
#1172=SURFACE_SIDE_STYLE('',(#1175));
#1173=SURFACE_SIDE_STYLE('',(#1176));
#1174=SURFACE_SIDE_STYLE('',(#1177));
#1175=SURFACE_STYLE_FILL_AREA(#1178);
#1176=SURFACE_STYLE_FILL_AREA(#1179);
#1177=SURFACE_STYLE_FILL_AREA(#1180);
#1178=FILL_AREA_STYLE('',(#1181));
#1179=FILL_AREA_STYLE('',(#1182));
#1180=FILL_AREA_STYLE('',(#1183));
#1181=FILL_AREA_STYLE_COLOUR('',#1184);
#1182=FILL_AREA_STYLE_COLOUR('',#1185);
#1183=FILL_AREA_STYLE_COLOUR('',#1186);
#1184=COLOUR_RGB('',1.,1.,1.);
#1185=COLOUR_RGB('',0.866666666666667,0.866666666666667,0.866666666666667);
#1186=COLOUR_RGB('',0.329411764705882,0.329411764705882,0.329411764705882);
ENDSEC;
END-ISO-10303-21;
