ISO-10303-21;
HEADER;
/****************************************************************
 * Generated by software with PDElib inside                    *
 * PDElib Version v51a, created Fri 09/10/2010                  *
 * ITI Transcendata (http://www.transcendata.com/)              *
 ****************************************************************/
FILE_DESCRIPTION((''),'2;1');
FILE_NAME('DIOM5226X220N.stp','2012-02-16T16:00:23',(''),(''),'Mechanical Desktop 2011','Mechanical Desktop 2011',', , ');
FILE_SCHEMA(('AUTOMOTIVE_DESIGN { 1 2 10303 214 1 1 1 1 }'));
ENDSEC;
DATA;
#10=(NAMED_UNIT(*)PLANE_ANGLE_UNIT()SI_UNIT($,.RADIAN.));
#11=DIMENSIONAL_EXPONENTS(0.0,0.0,0.0,0.0,0.0,0.0,0.0);
#12=PLANE_ANGLE_MEASURE_WITH_UNIT(PLANE_ANGLE_MEASURE(0.0174532925),#10);
#16=(CONVERSION_BASED_UNIT('DEGREE',#12)NAMED_UNIT(#11)PLANE_ANGLE_UNIT());
#20=(NAMED_UNIT(*)SI_UNIT($,.STERADIAN.)SOLID_ANGLE_UNIT());
#24=(LENGTH_UNIT()NAMED_UNIT(*)SI_UNIT(.MILLI.,.METRE.));
#26=UNCERTAINTY_MEASURE_WITH_UNIT(LENGTH_MEASURE(0.000001),#24,'DISTANCE_ACCURACY_VALUE','');
#28=(GEOMETRIC_REPRESENTATION_CONTEXT(3)GLOBAL_UNCERTAINTY_ASSIGNED_CONTEXT((#26))GLOBAL_UNIT_ASSIGNED_CONTEXT((#16,#20,#24))REPRESENTATION_CONTEXT('','3D'));
#29=APPLICATION_CONTEXT('automotive design');
#30=APPLICATION_PROTOCOL_DEFINITION('INTERNATIONAL_STANDARD','automotive_design',1998,#29);
#31=PRODUCT_CONTEXT('3D Mechanical Parts',#29,'mechanical');
#32=PRODUCT('Product','Product','',(#31));
#33=PRODUCT_RELATED_PRODUCT_CATEGORY('part',$,(#32));
#34=PRODUCT_CATEGORY('part',$);
#35=PERSON('1','Design','Joe',$,$,$);
#36=ORGANIZATION($,'None','None');
#37=PERSON_AND_ORGANIZATION(#35,#36);
#38=PERSON_AND_ORGANIZATION_ROLE('design_owner');
#39=APPLIED_PERSON_AND_ORGANIZATION_ASSIGNMENT(#37,#38,(#32));
#40=PRODUCT_DEFINITION_FORMATION_WITH_SPECIFIED_SOURCE('None','',#32,.BOUGHT.);
#41=PERSON('2','Creator','Joe',$,$,$);
#42=ORGANIZATION($,'None','None');
#43=PERSON_AND_ORGANIZATION(#41,#42);
#44=PERSON_AND_ORGANIZATION_ROLE('creator');
#45=APPLIED_PERSON_AND_ORGANIZATION_ASSIGNMENT(#43,#44,(#40));
#46=PERSON('3','Supplier','Joe',$,$,$);
#47=ORGANIZATION($,'None','None');
#48=PERSON_AND_ORGANIZATION(#46,#47);
#49=PERSON_AND_ORGANIZATION_ROLE('design_supplier');
#50=APPLIED_PERSON_AND_ORGANIZATION_ASSIGNMENT(#48,#49,(#40));
#51=PRODUCT_DEFINITION_CONTEXT('part definition',#29,'design');
#52=PRODUCT_DEFINITION('None','',#40,#51);
#53=PERSON('4','Creator','Joe',$,$,$);
#54=ORGANIZATION($,'None','None');
#55=PERSON_AND_ORGANIZATION(#53,#54);
#56=PERSON_AND_ORGANIZATION_ROLE('creator');
#57=APPLIED_PERSON_AND_ORGANIZATION_ASSIGNMENT(#55,#56,(#52));
#58=CARTESIAN_POINT('NONE',(0.0,0.0,0.0));
#59=DIRECTION('NONE',(0.0,0.0,1.0));
#60=DIRECTION('NONE',(1.0,0.0,0.0));
#61=AXIS2_PLACEMENT_3D('NONE',#58,#59,#60);
#62=SHAPE_REPRESENTATION('SR1',(#61),#28);
#63=PRODUCT_DEFINITION_SHAPE('PDS1','Test Part',#52);
#64=SHAPE_DEFINITION_REPRESENTATION(#63,#62);
#65=CARTESIAN_POINT('',(-1.72,-1.218000000000002,2.199999999999999));
#66=DIRECTION('',(0.0,-1.0,0.0));
#67=DIRECTION('',(0.0,0.0,-1.0));
#68=AXIS2_PLACEMENT_3D('',#65,#66,#67);
#69=PLANE('',#68);
#70=CARTESIAN_POINT('',(-1.72,-1.218000000000002,2.149999999999999));
#71=VERTEX_POINT('',#70);
#72=CARTESIAN_POINT('',(-1.32,-1.218000000000002,2.15));
#73=VERTEX_POINT('',#72);
#74=CARTESIAN_POINT('',(-1.72,-1.218000000000002,2.149999999999999));
#75=DIRECTION('',(1.0,0.0,0.0));
#76=VECTOR('',#75,0.4);
#77=LINE('',#74,#76);
#78=EDGE_CURVE('',#71,#73,#77,.T.);
#79=ORIENTED_EDGE('',*,*,#78,.T.);
#80=CARTESIAN_POINT('',(-1.32,-1.218000000000002,2.199999999999999));
#81=VERTEX_POINT('',#80);
#82=CARTESIAN_POINT('',(-1.32,-1.218000000000002,2.199999999999999));
#83=DIRECTION('',(0.0,0.0,-1.0));
#84=VECTOR('',#83,0.049999999999999);
#85=LINE('',#82,#84);
#86=EDGE_CURVE('',#81,#73,#85,.T.);
#87=ORIENTED_EDGE('',*,*,#86,.F.);
#88=CARTESIAN_POINT('',(-1.72,-1.218000000000002,2.199999999999999));
#89=VERTEX_POINT('',#88);
#90=CARTESIAN_POINT('',(-1.32,-1.218000000000002,2.199999999999999));
#91=DIRECTION('',(-1.0,0.0,0.0));
#92=VECTOR('',#91,0.4);
#93=LINE('',#90,#92);
#94=EDGE_CURVE('',#81,#89,#93,.T.);
#95=ORIENTED_EDGE('',*,*,#94,.T.);
#96=CARTESIAN_POINT('',(-1.72,-1.218000000000002,2.199999999999999));
#97=DIRECTION('',(0.0,0.0,-1.0));
#98=VECTOR('',#97,0.050000000000001);
#99=LINE('',#96,#98);
#100=EDGE_CURVE('',#89,#71,#99,.T.);
#101=ORIENTED_EDGE('',*,*,#100,.T.);
#102=EDGE_LOOP('',(#79,#87,#95,#101));
#103=FACE_OUTER_BOUND('',#102,.T.);
#104=ADVANCED_FACE('',(#103),#69,.T.);
#105=CARTESIAN_POINT('',(-1.32,-1.200000000000002,2.199999999999999));
#106=DIRECTION('',(1.0,0.0,0.0));
#107=DIRECTION('',(0.0,0.0,-1.0));
#108=AXIS2_PLACEMENT_3D('',#105,#106,#107);
#109=PLANE('',#108);
#110=CARTESIAN_POINT('',(-1.32,1.218000000000001,2.15));
#111=VERTEX_POINT('',#110);
#112=CARTESIAN_POINT('',(-1.32,-1.218000000000002,2.15));
#113=DIRECTION('',(0.0,1.0,0.0));
#114=VECTOR('',#113,2.436000000000003);
#115=LINE('',#112,#114);
#116=EDGE_CURVE('',#73,#111,#115,.T.);
#117=ORIENTED_EDGE('',*,*,#116,.T.);
#118=CARTESIAN_POINT('',(-1.32,1.218000000000001,2.199999999999999));
#119=VERTEX_POINT('',#118);
#120=CARTESIAN_POINT('',(-1.32,1.218000000000001,2.199999999999999));
#121=DIRECTION('',(0.0,0.0,-1.0));
#122=VECTOR('',#121,0.049999999999999);
#123=LINE('',#120,#122);
#124=EDGE_CURVE('',#119,#111,#123,.T.);
#125=ORIENTED_EDGE('',*,*,#124,.F.);
#126=CARTESIAN_POINT('',(-1.32,1.218000000000001,2.199999999999999));
#127=DIRECTION('',(0.0,-1.0,0.0));
#128=VECTOR('',#127,2.436000000000003);
#129=LINE('',#126,#128);
#130=EDGE_CURVE('',#119,#81,#129,.T.);
#131=ORIENTED_EDGE('',*,*,#130,.T.);
#132=ORIENTED_EDGE('',*,*,#86,.T.);
#133=EDGE_LOOP('',(#117,#125,#131,#132));
#134=FACE_OUTER_BOUND('',#133,.T.);
#135=ADVANCED_FACE('',(#134),#109,.T.);
#136=CARTESIAN_POINT('',(-1.52,-5.134781E-016,2.199999999999999));
#137=DIRECTION('',(0.0,0.0,1.0));
#138=DIRECTION('',(1.0,0.0,0.0));
#139=AXIS2_PLACEMENT_3D('',#136,#137,#138);
#140=PLANE('',#139);
#141=CARTESIAN_POINT('',(-1.72,1.218000000000001,2.199999999999999));
#142=VERTEX_POINT('',#141);
#143=CARTESIAN_POINT('',(-1.72,-1.218000000000002,2.199999999999999));
#144=DIRECTION('',(0.0,1.0,0.0));
#145=VECTOR('',#144,2.436000000000003);
#146=LINE('',#143,#145);
#147=EDGE_CURVE('',#89,#142,#146,.T.);
#148=ORIENTED_EDGE('',*,*,#147,.F.);
#149=ORIENTED_EDGE('',*,*,#94,.F.);
#150=ORIENTED_EDGE('',*,*,#130,.F.);
#151=CARTESIAN_POINT('',(-1.72,1.218000000000001,2.199999999999999));
#152=DIRECTION('',(1.0,0.0,0.0));
#153=VECTOR('',#152,0.4);
#154=LINE('',#151,#153);
#155=EDGE_CURVE('',#142,#119,#154,.T.);
#156=ORIENTED_EDGE('',*,*,#155,.F.);
#157=EDGE_LOOP('',(#148,#149,#150,#156));
#158=FACE_OUTER_BOUND('',#157,.T.);
#159=ADVANCED_FACE('',(#158),#140,.T.);
#160=CARTESIAN_POINT('',(-1.72,1.200000000000001,2.199999999999999));
#161=DIRECTION('',(-1.0,0.0,0.0));
#162=DIRECTION('',(0.0,0.0,1.0));
#163=AXIS2_PLACEMENT_3D('',#160,#161,#162);
#164=PLANE('',#163);
#165=CARTESIAN_POINT('',(-1.72,1.218000000000001,2.149999999999999));
#166=VERTEX_POINT('',#165);
#167=CARTESIAN_POINT('',(-1.72,1.218000000000001,2.15));
#168=DIRECTION('',(0.0,-1.0,0.0));
#169=VECTOR('',#168,2.436000000000003);
#170=LINE('',#167,#169);
#171=EDGE_CURVE('',#166,#71,#170,.T.);
#172=ORIENTED_EDGE('',*,*,#171,.T.);
#173=ORIENTED_EDGE('',*,*,#100,.F.);
#174=ORIENTED_EDGE('',*,*,#147,.T.);
#175=CARTESIAN_POINT('',(-1.72,1.218000000000001,2.199999999999999));
#176=DIRECTION('',(0.0,0.0,-1.0));
#177=VECTOR('',#176,0.050000000000001);
#178=LINE('',#175,#177);
#179=EDGE_CURVE('',#142,#166,#178,.T.);
#180=ORIENTED_EDGE('',*,*,#179,.T.);
#181=EDGE_LOOP('',(#172,#173,#174,#180));
#182=FACE_OUTER_BOUND('',#181,.T.);
#183=ADVANCED_FACE('',(#182),#164,.T.);
#184=CARTESIAN_POINT('',(-1.52,-5.134781E-016,2.149999999999999));
#185=DIRECTION('',(0.0,0.0,1.0));
#186=DIRECTION('',(1.0,0.0,0.0));
#187=AXIS2_PLACEMENT_3D('',#184,#185,#186);
#188=PLANE('',#187);
#189=ORIENTED_EDGE('',*,*,#78,.F.);
#190=ORIENTED_EDGE('',*,*,#171,.F.);
#191=CARTESIAN_POINT('',(-1.32,1.218000000000001,2.149999999999999));
#192=DIRECTION('',(-1.0,0.0,0.0));
#193=VECTOR('',#192,0.4);
#194=LINE('',#191,#193);
#195=EDGE_CURVE('',#111,#166,#194,.T.);
#196=ORIENTED_EDGE('',*,*,#195,.F.);
#197=ORIENTED_EDGE('',*,*,#116,.F.);
#198=EDGE_LOOP('',(#189,#190,#196,#197));
#199=FACE_OUTER_BOUND('',#198,.T.);
#200=ADVANCED_FACE('',(#199),#188,.F.);
#201=CARTESIAN_POINT('',(-1.32,1.218000000000001,2.199999999999999));
#202=DIRECTION('',(0.0,1.0,0.0));
#203=DIRECTION('',(0.0,0.0,1.0));
#204=AXIS2_PLACEMENT_3D('',#201,#202,#203);
#205=PLANE('',#204);
#206=ORIENTED_EDGE('',*,*,#195,.T.);
#207=ORIENTED_EDGE('',*,*,#179,.F.);
#208=ORIENTED_EDGE('',*,*,#155,.T.);
#209=ORIENTED_EDGE('',*,*,#124,.T.);
#210=EDGE_LOOP('',(#206,#207,#208,#209));
#211=FACE_OUTER_BOUND('',#210,.T.);
#212=ADVANCED_FACE('',(#211),#205,.T.);
#213=CLOSED_SHELL('',(#104,#135,#159,#183,#200,#212));
#214=MANIFOLD_SOLID_BREP('52B',#213);
#215=COLOUR_RGB('254',0.866,0.866,0.866);
#216=SURFACE_STYLE_USAGE(.BOTH.,#217);
#217=SURFACE_SIDE_STYLE('NONE',(#218));
#218=SURFACE_STYLE_FILL_AREA(#219);
#219=FILL_AREA_STYLE('NONE',(#220));
#220=FILL_AREA_STYLE_COLOUR('NONE',#215);
#221=PRESENTATION_STYLE_ASSIGNMENT((#216));
#222=STYLED_ITEM('NONE',(#221),#214);
#223=MECHANICAL_DESIGN_GEOMETRIC_PRESENTATION_REPRESENTATION('NONE',(#222,#382,#645,#796,#1017,#1317,#1600),#28);
#224=PRESENTATION_LAYER_ASSIGNMENT('3D','None',(#214,#374,#644,#795,#1016,#1309,#1599));
#225=CARTESIAN_POINT('',(1.46,0.725,0.28));
#226=CARTESIAN_POINT('',(1.46,0.725,0.0));
#227=CARTESIAN_POINT('',(1.46,-0.725,0.28));
#228=CARTESIAN_POINT('',(1.46,-0.725,0.0));
#229=B_SPLINE_SURFACE_WITH_KNOTS('',1,1,((#225,#227),(#226,#228)),.UNSPECIFIED.,.F.,.F.,.U.,(2,2),(2,2),(0.0,0.28),(0.0,1.45),.UNSPECIFIED.);
#230=CARTESIAN_POINT('',(1.46,0.725,0.28));
#231=VERTEX_POINT('',#230);
#232=CARTESIAN_POINT('',(1.46,-0.725,0.28));
#233=VERTEX_POINT('',#232);
#234=CARTESIAN_POINT('',(1.46,0.725,0.28));
#235=DIRECTION('',(0.0,-1.0,0.0));
#236=VECTOR('',#235,1.45);
#237=LINE('',#234,#236);
#238=EDGE_CURVE('',#231,#233,#237,.T.);
#239=ORIENTED_EDGE('',*,*,#238,.F.);
#240=CARTESIAN_POINT('',(1.46,0.725,0.0));
#241=VERTEX_POINT('',#240);
#242=CARTESIAN_POINT('',(1.46,0.725,0.0));
#243=DIRECTION('',(0.0,0.0,1.0));
#244=VECTOR('',#243,0.28);
#245=LINE('',#242,#244);
#246=EDGE_CURVE('',#241,#231,#245,.T.);
#247=ORIENTED_EDGE('',*,*,#246,.F.);
#248=CARTESIAN_POINT('',(1.46,-0.725,0.0));
#249=VERTEX_POINT('',#248);
#250=CARTESIAN_POINT('',(1.46,-0.725,0.0));
#251=DIRECTION('',(0.0,1.0,0.0));
#252=VECTOR('',#251,1.45);
#253=LINE('',#250,#252);
#254=EDGE_CURVE('',#249,#241,#253,.T.);
#255=ORIENTED_EDGE('',*,*,#254,.F.);
#256=CARTESIAN_POINT('',(1.46,-0.725,0.0));
#257=DIRECTION('',(0.0,0.0,1.0));
#258=VECTOR('',#257,0.28);
#259=LINE('',#256,#258);
#260=EDGE_CURVE('',#249,#233,#259,.T.);
#261=ORIENTED_EDGE('',*,*,#260,.T.);
#262=EDGE_LOOP('',(#239,#247,#255,#261));
#263=FACE_OUTER_BOUND('',#262,.T.);
#264=ADVANCED_FACE('',(#263),#229,.T.);
#265=CARTESIAN_POINT('',(1.46,-0.725,0.28));
#266=CARTESIAN_POINT('',(1.46,-0.725,0.0));
#267=CARTESIAN_POINT('',(2.32,-0.725,0.28));
#268=CARTESIAN_POINT('',(2.32,-0.725,0.0));
#269=B_SPLINE_SURFACE_WITH_KNOTS('',1,1,((#265,#267),(#266,#268)),.UNSPECIFIED.,.F.,.F.,.U.,(2,2),(2,2),(0.0,0.28),(0.0,0.86),.UNSPECIFIED.);
#270=CARTESIAN_POINT('',(2.32,-0.725,0.28));
#271=VERTEX_POINT('',#270);
#272=CARTESIAN_POINT('',(1.46,-0.725,0.28));
#273=DIRECTION('',(1.0,0.0,0.0));
#274=VECTOR('',#273,0.86);
#275=LINE('',#272,#274);
#276=EDGE_CURVE('',#233,#271,#275,.T.);
#277=ORIENTED_EDGE('',*,*,#276,.F.);
#278=ORIENTED_EDGE('',*,*,#260,.F.);
#279=CARTESIAN_POINT('',(2.32,-0.725,0.0));
#280=VERTEX_POINT('',#279);
#281=CARTESIAN_POINT('',(2.32,-0.725,0.0));
#282=DIRECTION('',(-1.0,0.0,0.0));
#283=VECTOR('',#282,0.86);
#284=LINE('',#281,#283);
#285=EDGE_CURVE('',#280,#249,#284,.T.);
#286=ORIENTED_EDGE('',*,*,#285,.F.);
#287=CARTESIAN_POINT('',(2.32,-0.725,0.0));
#288=DIRECTION('',(0.0,0.0,1.0));
#289=VECTOR('',#288,0.28);
#290=LINE('',#287,#289);
#291=EDGE_CURVE('',#280,#271,#290,.T.);
#292=ORIENTED_EDGE('',*,*,#291,.T.);
#293=EDGE_LOOP('',(#277,#278,#286,#292));
#294=FACE_OUTER_BOUND('',#293,.T.);
#295=ADVANCED_FACE('',(#294),#269,.T.);
#296=CARTESIAN_POINT('',(2.32,0.725,0.0));
#297=CARTESIAN_POINT('',(2.32,0.725,0.28));
#298=CARTESIAN_POINT('',(2.32,-0.725,0.0));
#299=CARTESIAN_POINT('',(2.32,-0.725,0.28));
#300=B_SPLINE_SURFACE_WITH_KNOTS('',1,1,((#296,#298),(#297,#299)),.UNSPECIFIED.,.F.,.F.,.U.,(2,2),(2,2),(0.0,0.28),(0.0,1.45),.UNSPECIFIED.);
#301=CARTESIAN_POINT('',(2.32,0.725,0.28));
#302=VERTEX_POINT('',#301);
#303=CARTESIAN_POINT('',(2.32,-0.725,0.28));
#304=DIRECTION('',(0.0,1.0,0.0));
#305=VECTOR('',#304,1.45);
#306=LINE('',#303,#305);
#307=EDGE_CURVE('',#271,#302,#306,.T.);
#308=ORIENTED_EDGE('',*,*,#307,.F.);
#309=ORIENTED_EDGE('',*,*,#291,.F.);
#310=CARTESIAN_POINT('',(2.32,0.725,0.0));
#311=VERTEX_POINT('',#310);
#312=CARTESIAN_POINT('',(2.32,0.725,0.0));
#313=DIRECTION('',(0.0,-1.0,0.0));
#314=VECTOR('',#313,1.45);
#315=LINE('',#312,#314);
#316=EDGE_CURVE('',#311,#280,#315,.T.);
#317=ORIENTED_EDGE('',*,*,#316,.F.);
#318=CARTESIAN_POINT('',(2.32,0.725,0.0));
#319=DIRECTION('',(0.0,0.0,1.0));
#320=VECTOR('',#319,0.28);
#321=LINE('',#318,#320);
#322=EDGE_CURVE('',#311,#302,#321,.T.);
#323=ORIENTED_EDGE('',*,*,#322,.T.);
#324=EDGE_LOOP('',(#308,#309,#317,#323));
#325=FACE_OUTER_BOUND('',#324,.T.);
#326=ADVANCED_FACE('',(#325),#300,.T.);
#327=CARTESIAN_POINT('',(1.46,0.725,0.0));
#328=CARTESIAN_POINT('',(1.46,0.725,0.28));
#329=CARTESIAN_POINT('',(2.32,0.725,0.0));
#330=CARTESIAN_POINT('',(2.32,0.725,0.28));
#331=B_SPLINE_SURFACE_WITH_KNOTS('',1,1,((#327,#329),(#328,#330)),.UNSPECIFIED.,.F.,.F.,.U.,(2,2),(2,2),(0.0,0.28),(0.0,0.86),.UNSPECIFIED.);
#332=CARTESIAN_POINT('',(2.32,0.725,0.28));
#333=DIRECTION('',(-1.0,0.0,0.0));
#334=VECTOR('',#333,0.86);
#335=LINE('',#332,#334);
#336=EDGE_CURVE('',#302,#231,#335,.T.);
#337=ORIENTED_EDGE('',*,*,#336,.F.);
#338=ORIENTED_EDGE('',*,*,#322,.F.);
#339=CARTESIAN_POINT('',(1.46,0.725,0.0));
#340=DIRECTION('',(1.0,0.0,0.0));
#341=VECTOR('',#340,0.86);
#342=LINE('',#339,#341);
#343=EDGE_CURVE('',#241,#311,#342,.T.);
#344=ORIENTED_EDGE('',*,*,#343,.F.);
#345=ORIENTED_EDGE('',*,*,#246,.T.);
#346=EDGE_LOOP('',(#337,#338,#344,#345));
#347=FACE_OUTER_BOUND('',#346,.T.);
#348=ADVANCED_FACE('',(#347),#331,.T.);
#349=CARTESIAN_POINT('',(2.32,0.725,0.28));
#350=CARTESIAN_POINT('',(1.46,0.725,0.28));
#351=CARTESIAN_POINT('',(2.32,-0.725,0.28));
#352=CARTESIAN_POINT('',(1.46,-0.725,0.28));
#353=B_SPLINE_SURFACE_WITH_KNOTS('',1,1,((#349,#351),(#350,#352)),.UNSPECIFIED.,.F.,.F.,.U.,(2,2),(2,2),(0.0,0.86),(0.0,1.45),.UNSPECIFIED.);
#354=ORIENTED_EDGE('',*,*,#238,.T.);
#355=ORIENTED_EDGE('',*,*,#276,.T.);
#356=ORIENTED_EDGE('',*,*,#307,.T.);
#357=ORIENTED_EDGE('',*,*,#336,.T.);
#358=EDGE_LOOP('',(#354,#355,#356,#357));
#359=FACE_OUTER_BOUND('',#358,.T.);
#360=ADVANCED_FACE('',(#359),#353,.T.);
#361=CARTESIAN_POINT('',(2.32,0.725,0.0));
#362=CARTESIAN_POINT('',(1.46,0.725,0.0));
#363=CARTESIAN_POINT('',(2.32,-0.725,0.0));
#364=CARTESIAN_POINT('',(1.46,-0.725,0.0));
#365=B_SPLINE_SURFACE_WITH_KNOTS('',1,1,((#361,#363),(#362,#364)),.UNSPECIFIED.,.F.,.F.,.U.,(2,2),(2,2),(0.0,0.86),(0.0,1.45),.UNSPECIFIED.);
#366=ORIENTED_EDGE('',*,*,#343,.T.);
#367=ORIENTED_EDGE('',*,*,#316,.T.);
#368=ORIENTED_EDGE('',*,*,#285,.T.);
#369=ORIENTED_EDGE('',*,*,#254,.T.);
#370=EDGE_LOOP('',(#366,#367,#368,#369));
#371=FACE_OUTER_BOUND('',#370,.T.);
#372=ADVANCED_FACE('',(#371),#365,.F.);
#373=CLOSED_SHELL('',(#264,#295,#326,#348,#360,#372));
#374=MANIFOLD_SOLID_BREP('524',#373);
#375=COLOUR_RGB('253',0.732,0.732,0.732);
#376=SURFACE_STYLE_USAGE(.BOTH.,#377);
#377=SURFACE_SIDE_STYLE('NONE',(#378));
#378=SURFACE_STYLE_FILL_AREA(#379);
#379=FILL_AREA_STYLE('NONE',(#380));
#380=FILL_AREA_STYLE_COLOUR('NONE',#375);
#381=PRESENTATION_STYLE_ASSIGNMENT((#376));
#382=STYLED_ITEM('NONE',(#381),#374);
#383=CARTESIAN_POINT('',(2.429289321881345,-0.725,1.134289321881345));
#384=CARTESIAN_POINT('',(2.429289321881345,0.725,1.134289321881345));
#385=CARTESIAN_POINT('',(2.5,-0.725,1.06357864376269));
#386=CARTESIAN_POINT('',(2.5,0.725,1.06357864376269));
#387=CARTESIAN_POINT('',(2.570710678118655,-0.725,1.134289321881345));
#388=CARTESIAN_POINT('',(2.570710678118655,0.725,1.134289321881345));
#389=CARTESIAN_POINT('',(2.641421356237309,-0.725,1.205));
#390=CARTESIAN_POINT('',(2.641421356237309,0.725,1.205));
#391=CARTESIAN_POINT('',(2.570710678118655,-0.725,1.275710678118655));
#392=CARTESIAN_POINT('',(2.570710678118655,0.725,1.275710678118655));
#393=CARTESIAN_POINT('',(2.5,-0.725,1.346421356237309));
#394=CARTESIAN_POINT('',(2.5,0.725,1.346421356237309));
#395=CARTESIAN_POINT('',(2.429289321881345,-0.725,1.275710678118655));
#396=CARTESIAN_POINT('',(2.429289321881345,0.725,1.275710678118655));
#397=CARTESIAN_POINT('',(2.358578643762691,-0.725,1.205));
#398=CARTESIAN_POINT('',(2.358578643762691,0.725,1.205));
#399=CARTESIAN_POINT('',(2.429289321881345,-0.725,1.134289321881345));
#400=CARTESIAN_POINT('',(2.429289321881345,0.725,1.134289321881345));
#408=(BOUNDED_SURFACE()B_SPLINE_SURFACE(1,2,((#383,#385,#387,#389,#391,#393,#395,#397,#399),(#384,#386,#388,#390,#392,#394,#396,#398,#400)),.UNSPECIFIED.,.F.,.T.,.U.)B_SPLINE_SURFACE_WITH_KNOTS((2,2),(3,2,2,2,3),(-3.625,10.874999999999996),(0.0,0.15707963267949,0.314159265358979,0.471238898038469,0.628318530717959),.UNSPECIFIED.)GEOMETRIC_REPRESENTATION_ITEM()RATIONAL_B_SPLINE_SURFACE(((1.0,0.707106781186548,1.0,0.707106781186548,1.0,0.707106781186548,1.0,0.707106781186548,1.0),(1.0,0.707106781186548,1.0,0.707106781186548,1.0,0.707106781186548,1.0,0.707106781186548,1.0)))REPRESENTATION_ITEM('')SURFACE());
#409=CARTESIAN_POINT('',(2.5,0.725,1.305));
#410=VERTEX_POINT('',#409);
#411=CARTESIAN_POINT('',(2.6,0.725,1.205));
#412=VERTEX_POINT('',#411);
#413=CARTESIAN_POINT('',(2.5,0.725,1.205));
#414=DIRECTION('',(0.0,1.0,0.0));
#415=DIRECTION('',(0.707106781186546,0.0,0.707106781186549));
#416=AXIS2_PLACEMENT_3D('',#413,#414,#415);
#417=CIRCLE('',#416,0.1);
#418=EDGE_CURVE('',#410,#412,#417,.T.);
#419=ORIENTED_EDGE('',*,*,#418,.F.);
#420=CARTESIAN_POINT('',(2.5,-0.725,1.305));
#421=VERTEX_POINT('',#420);
#422=CARTESIAN_POINT('',(2.5,-0.725,1.305));
#423=DIRECTION('',(0.0,1.0,0.0));
#424=VECTOR('',#423,1.45);
#425=LINE('',#422,#424);
#426=EDGE_CURVE('',#421,#410,#425,.T.);
#427=ORIENTED_EDGE('',*,*,#426,.F.);
#428=CARTESIAN_POINT('',(2.6,-0.725,1.205));
#429=VERTEX_POINT('',#428);
#430=CARTESIAN_POINT('',(2.5,-0.725,1.205));
#431=DIRECTION('',(0.0,-1.0,0.0));
#432=DIRECTION('',(0.707106781186546,0.0,0.707106781186549));
#433=AXIS2_PLACEMENT_3D('',#430,#431,#432);
#434=CIRCLE('',#433,0.1);
#435=EDGE_CURVE('',#429,#421,#434,.T.);
#436=ORIENTED_EDGE('',*,*,#435,.F.);
#437=CARTESIAN_POINT('',(2.6,0.725,1.205));
#438=DIRECTION('',(0.0,-1.0,0.0));
#439=VECTOR('',#438,1.45);
#440=LINE('',#437,#439);
#441=EDGE_CURVE('',#412,#429,#440,.T.);
#442=ORIENTED_EDGE('',*,*,#441,.F.);
#443=EDGE_LOOP('',(#419,#427,#436,#442));
#444=FACE_OUTER_BOUND('',#443,.T.);
#445=ADVANCED_FACE('',(#444),#408,.T.);
#446=CARTESIAN_POINT('',(2.6,0.725,0.15));
#447=CARTESIAN_POINT('',(2.6,0.725,1.205));
#448=CARTESIAN_POINT('',(2.6,-0.725,0.15));
#449=CARTESIAN_POINT('',(2.6,-0.725,1.205));
#450=B_SPLINE_SURFACE_WITH_KNOTS('',1,1,((#446,#448),(#447,#449)),.UNSPECIFIED.,.F.,.F.,.U.,(2,2),(2,2),(0.0,1.055),(0.0,1.45),.UNSPECIFIED.);
#451=ORIENTED_EDGE('',*,*,#441,.T.);
#452=CARTESIAN_POINT('',(2.6,-0.725,0.15));
#453=VERTEX_POINT('',#452);
#454=CARTESIAN_POINT('',(2.6,-0.725,0.15));
#455=DIRECTION('',(0.0,0.0,1.0));
#456=VECTOR('',#455,1.055);
#457=LINE('',#454,#456);
#458=EDGE_CURVE('',#453,#429,#457,.T.);
#459=ORIENTED_EDGE('',*,*,#458,.F.);
#460=CARTESIAN_POINT('',(2.6,0.725,0.15));
#461=VERTEX_POINT('',#460);
#462=CARTESIAN_POINT('',(2.6,-0.725,0.15));
#463=DIRECTION('',(0.0,1.0,0.0));
#464=VECTOR('',#463,1.45);
#465=LINE('',#462,#464);
#466=EDGE_CURVE('',#453,#461,#465,.T.);
#467=ORIENTED_EDGE('',*,*,#466,.T.);
#468=CARTESIAN_POINT('',(2.6,0.725,0.15));
#469=DIRECTION('',(0.0,0.0,1.0));
#470=VECTOR('',#469,1.055);
#471=LINE('',#468,#470);
#472=EDGE_CURVE('',#461,#412,#471,.T.);
#473=ORIENTED_EDGE('',*,*,#472,.T.);
#474=EDGE_LOOP('',(#451,#459,#467,#473));
#475=FACE_OUTER_BOUND('',#474,.T.);
#476=ADVANCED_FACE('',(#475),#450,.T.);
#477=CARTESIAN_POINT('',(2.32,0.725,0.0));
#478=CARTESIAN_POINT('',(2.32,0.725,1.305));
#479=CARTESIAN_POINT('',(2.6,0.725,0.0));
#480=CARTESIAN_POINT('',(2.6,0.725,1.305));
#481=B_SPLINE_SURFACE_WITH_KNOTS('',1,1,((#477,#479),(#478,#480)),.UNSPECIFIED.,.F.,.F.,.U.,(2,2),(2,2),(0.0,1.305),(0.0,0.28),.UNSPECIFIED.);
#482=ORIENTED_EDGE('',*,*,#418,.T.);
#483=ORIENTED_EDGE('',*,*,#472,.F.);
#484=CARTESIAN_POINT('',(2.45,0.725,0.0));
#485=VERTEX_POINT('',#484);
#486=CARTESIAN_POINT('',(2.45,0.725,0.15));
#487=DIRECTION('',(0.0,1.0,0.0));
#488=DIRECTION('',(0.707106781186548,0.0,-0.707106781186547));
#489=AXIS2_PLACEMENT_3D('',#486,#487,#488);
#490=CIRCLE('',#489,0.15);
#491=EDGE_CURVE('',#461,#485,#490,.T.);
#492=ORIENTED_EDGE('',*,*,#491,.T.);
#493=CARTESIAN_POINT('',(2.32,0.725,0.0));
#494=VERTEX_POINT('',#493);
#495=CARTESIAN_POINT('',(2.32,0.725,0.0));
#496=DIRECTION('',(1.0,0.0,0.0));
#497=VECTOR('',#496,0.13);
#498=LINE('',#495,#497);
#499=EDGE_CURVE('',#494,#485,#498,.T.);
#500=ORIENTED_EDGE('',*,*,#499,.F.);
#501=CARTESIAN_POINT('',(2.32,0.725,1.305));
#502=VERTEX_POINT('',#501);
#503=CARTESIAN_POINT('',(2.32,0.725,0.0));
#504=DIRECTION('',(0.0,0.0,1.0));
#505=VECTOR('',#504,1.305);
#506=LINE('',#503,#505);
#507=EDGE_CURVE('',#494,#502,#506,.T.);
#508=ORIENTED_EDGE('',*,*,#507,.T.);
#509=CARTESIAN_POINT('',(2.5,0.725,1.305));
#510=DIRECTION('',(-1.0,0.0,0.0));
#511=VECTOR('',#510,0.18);
#512=LINE('',#509,#511);
#513=EDGE_CURVE('',#410,#502,#512,.T.);
#514=ORIENTED_EDGE('',*,*,#513,.F.);
#515=EDGE_LOOP('',(#482,#483,#492,#500,#508,#514));
#516=FACE_OUTER_BOUND('',#515,.T.);
#517=ADVANCED_FACE('',(#516),#481,.T.);
#518=CARTESIAN_POINT('',(2.343933982822018,0.725,0.256066017177982));
#519=CARTESIAN_POINT('',(2.343933982822018,-0.725,0.256066017177982));
#520=CARTESIAN_POINT('',(2.45,0.725,0.362132034355964));
#521=CARTESIAN_POINT('',(2.45,-0.725,0.362132034355964));
#522=CARTESIAN_POINT('',(2.556066017177982,0.725,0.256066017177982));
#523=CARTESIAN_POINT('',(2.556066017177982,-0.725,0.256066017177982));
#524=CARTESIAN_POINT('',(2.662132034355965,0.725,0.15));
#525=CARTESIAN_POINT('',(2.662132034355965,-0.725,0.15));
#526=CARTESIAN_POINT('',(2.556066017177983,0.725,0.043933982822018));
#527=CARTESIAN_POINT('',(2.556066017177983,-0.725,0.043933982822018));
#528=CARTESIAN_POINT('',(2.450000000000001,0.725,-0.062132034355964));
#529=CARTESIAN_POINT('',(2.450000000000001,-0.725,-0.062132034355964));
#530=CARTESIAN_POINT('',(2.343933982822018,0.725,0.043933982822018));
#531=CARTESIAN_POINT('',(2.343933982822018,-0.725,0.043933982822018));
#532=CARTESIAN_POINT('',(2.237867965644036,0.725,0.15));
#533=CARTESIAN_POINT('',(2.237867965644036,-0.725,0.15));
#534=CARTESIAN_POINT('',(2.343933982822018,0.725,0.256066017177982));
#535=CARTESIAN_POINT('',(2.343933982822018,-0.725,0.256066017177982));
#543=(BOUNDED_SURFACE()B_SPLINE_SURFACE(1,2,((#518,#520,#522,#524,#526,#528,#530,#532,#534),(#519,#521,#523,#525,#527,#529,#531,#533,#535)),.UNSPECIFIED.,.F.,.T.,.U.)B_SPLINE_SURFACE_WITH_KNOTS((2,2),(3,2,2,2,3),(-7.25,2.416666666666666),(0.0,0.235619449019234,0.471238898038469,0.706858347057703,0.942477796076938),.UNSPECIFIED.)GEOMETRIC_REPRESENTATION_ITEM()RATIONAL_B_SPLINE_SURFACE(((1.0,0.707106781186548,1.0,0.707106781186548,1.0,0.707106781186548,1.0,0.707106781186548,1.0),(1.0,0.707106781186548,1.0,0.707106781186548,1.0,0.707106781186548,1.0,0.707106781186548,1.0)))REPRESENTATION_ITEM('')SURFACE());
#544=CARTESIAN_POINT('',(2.45,-0.725,0.0));
#545=VERTEX_POINT('',#544);
#546=CARTESIAN_POINT('',(2.45,-0.725,0.15));
#547=DIRECTION('',(0.0,-1.0,0.0));
#548=DIRECTION('',(0.707106781186548,0.0,-0.707106781186547));
#549=AXIS2_PLACEMENT_3D('',#546,#547,#548);
#550=CIRCLE('',#549,0.15);
#551=EDGE_CURVE('',#545,#453,#550,.T.);
#552=ORIENTED_EDGE('',*,*,#551,.F.);
#553=CARTESIAN_POINT('',(2.45,0.725,0.0));
#554=DIRECTION('',(0.0,-1.0,0.0));
#555=VECTOR('',#554,1.45);
#556=LINE('',#553,#555);
#557=EDGE_CURVE('',#485,#545,#556,.T.);
#558=ORIENTED_EDGE('',*,*,#557,.F.);
#559=ORIENTED_EDGE('',*,*,#491,.F.);
#560=ORIENTED_EDGE('',*,*,#466,.F.);
#561=EDGE_LOOP('',(#552,#558,#559,#560));
#562=FACE_OUTER_BOUND('',#561,.T.);
#563=ADVANCED_FACE('',(#562),#543,.T.);
#564=CARTESIAN_POINT('',(2.32,0.725,1.305));
#565=CARTESIAN_POINT('',(2.32,0.725,0.0));
#566=CARTESIAN_POINT('',(2.32,-0.725,1.305));
#567=CARTESIAN_POINT('',(2.32,-0.725,0.0));
#568=B_SPLINE_SURFACE_WITH_KNOTS('',1,1,((#564,#566),(#565,#567)),.UNSPECIFIED.,.F.,.F.,.U.,(2,2),(2,2),(0.0,1.305),(0.0,1.45),.UNSPECIFIED.);
#569=CARTESIAN_POINT('',(2.32,-0.725,1.305));
#570=VERTEX_POINT('',#569);
#571=CARTESIAN_POINT('',(2.32,0.725,1.305));
#572=DIRECTION('',(0.0,-1.0,0.0));
#573=VECTOR('',#572,1.45);
#574=LINE('',#571,#573);
#575=EDGE_CURVE('',#502,#570,#574,.T.);
#576=ORIENTED_EDGE('',*,*,#575,.F.);
#577=ORIENTED_EDGE('',*,*,#507,.F.);
#578=CARTESIAN_POINT('',(2.32,-0.725,0.0));
#579=VERTEX_POINT('',#578);
#580=CARTESIAN_POINT('',(2.32,-0.725,0.0));
#581=DIRECTION('',(0.0,1.0,0.0));
#582=VECTOR('',#581,1.45);
#583=LINE('',#580,#582);
#584=EDGE_CURVE('',#579,#494,#583,.T.);
#585=ORIENTED_EDGE('',*,*,#584,.F.);
#586=CARTESIAN_POINT('',(2.32,-0.725,0.0));
#587=DIRECTION('',(0.0,0.0,1.0));
#588=VECTOR('',#587,1.305);
#589=LINE('',#586,#588);
#590=EDGE_CURVE('',#579,#570,#589,.T.);
#591=ORIENTED_EDGE('',*,*,#590,.T.);
#592=EDGE_LOOP('',(#576,#577,#585,#591));
#593=FACE_OUTER_BOUND('',#592,.T.);
#594=ADVANCED_FACE('',(#593),#568,.T.);
#595=CARTESIAN_POINT('',(2.32,-0.725,1.305));
#596=CARTESIAN_POINT('',(2.32,-0.725,0.0));
#597=CARTESIAN_POINT('',(2.6,-0.725,1.305));
#598=CARTESIAN_POINT('',(2.6,-0.725,0.0));
#599=B_SPLINE_SURFACE_WITH_KNOTS('',1,1,((#595,#597),(#596,#598)),.UNSPECIFIED.,.F.,.F.,.U.,(2,2),(2,2),(0.0,1.305),(0.0,0.28),.UNSPECIFIED.);
#600=ORIENTED_EDGE('',*,*,#435,.T.);
#601=CARTESIAN_POINT('',(2.32,-0.725,1.305));
#602=DIRECTION('',(1.0,0.0,0.0));
#603=VECTOR('',#602,0.18);
#604=LINE('',#601,#603);
#605=EDGE_CURVE('',#570,#421,#604,.T.);
#606=ORIENTED_EDGE('',*,*,#605,.F.);
#607=ORIENTED_EDGE('',*,*,#590,.F.);
#608=CARTESIAN_POINT('',(2.45,-0.725,0.0));
#609=DIRECTION('',(-1.0,0.0,0.0));
#610=VECTOR('',#609,0.13);
#611=LINE('',#608,#610);
#612=EDGE_CURVE('',#545,#579,#611,.T.);
#613=ORIENTED_EDGE('',*,*,#612,.F.);
#614=ORIENTED_EDGE('',*,*,#551,.T.);
#615=ORIENTED_EDGE('',*,*,#458,.T.);
#616=EDGE_LOOP('',(#600,#606,#607,#613,#614,#615));
#617=FACE_OUTER_BOUND('',#616,.T.);
#618=ADVANCED_FACE('',(#617),#599,.T.);
#619=CARTESIAN_POINT('',(2.5,0.725,1.305));
#620=CARTESIAN_POINT('',(2.32,0.725,1.305));
#621=CARTESIAN_POINT('',(2.5,-0.725,1.305));
#622=CARTESIAN_POINT('',(2.32,-0.725,1.305));
#623=B_SPLINE_SURFACE_WITH_KNOTS('',1,1,((#619,#621),(#620,#622)),.UNSPECIFIED.,.F.,.F.,.U.,(2,2),(2,2),(0.0,0.18),(0.0,1.45),.UNSPECIFIED.);
#624=ORIENTED_EDGE('',*,*,#426,.T.);
#625=ORIENTED_EDGE('',*,*,#513,.T.);
#626=ORIENTED_EDGE('',*,*,#575,.T.);
#627=ORIENTED_EDGE('',*,*,#605,.T.);
#628=EDGE_LOOP('',(#624,#625,#626,#627));
#629=FACE_OUTER_BOUND('',#628,.T.);
#630=ADVANCED_FACE('',(#629),#623,.T.);
#631=CARTESIAN_POINT('',(2.45,0.725,0.0));
#632=CARTESIAN_POINT('',(2.32,0.725,0.0));
#633=CARTESIAN_POINT('',(2.45,-0.725,0.0));
#634=CARTESIAN_POINT('',(2.32,-0.725,0.0));
#635=B_SPLINE_SURFACE_WITH_KNOTS('',1,1,((#631,#633),(#632,#634)),.UNSPECIFIED.,.F.,.F.,.U.,(2,2),(2,2),(0.0,0.13),(0.0,1.45),.UNSPECIFIED.);
#636=ORIENTED_EDGE('',*,*,#557,.T.);
#637=ORIENTED_EDGE('',*,*,#612,.T.);
#638=ORIENTED_EDGE('',*,*,#584,.T.);
#639=ORIENTED_EDGE('',*,*,#499,.T.);
#640=EDGE_LOOP('',(#636,#637,#638,#639));
#641=FACE_OUTER_BOUND('',#640,.T.);
#642=ADVANCED_FACE('',(#641),#635,.F.);
#643=CLOSED_SHELL('',(#445,#476,#517,#563,#594,#618,#630,#642));
#644=MANIFOLD_SOLID_BREP('523',#643);
#645=STYLED_ITEM('NONE',(#381),#644);
#646=CARTESIAN_POINT('',(-1.46,0.725,0.0));
#647=DIRECTION('',(1.0,0.0,0.0));
#648=DIRECTION('',(0.0,0.0,-1.0));
#649=AXIS2_PLACEMENT_3D('',#646,#647,#648);
#650=PLANE('',#649);
#651=CARTESIAN_POINT('',(-1.46,0.725,0.28));
#652=VERTEX_POINT('',#651);
#653=CARTESIAN_POINT('',(-1.46,-0.725,0.28));
#654=VERTEX_POINT('',#653);
#655=CARTESIAN_POINT('',(-1.46,0.725,0.28));
#656=DIRECTION('',(0.0,-1.0,0.0));
#657=VECTOR('',#656,1.45);
#658=LINE('',#655,#657);
#659=EDGE_CURVE('',#652,#654,#658,.T.);
#660=ORIENTED_EDGE('',*,*,#659,.T.);
#661=CARTESIAN_POINT('',(-1.46,-0.725,0.0));
#662=VERTEX_POINT('',#661);
#663=CARTESIAN_POINT('',(-1.46,-0.725,0.0));
#664=DIRECTION('',(0.0,0.0,1.0));
#665=VECTOR('',#664,0.28);
#666=LINE('',#663,#665);
#667=EDGE_CURVE('',#662,#654,#666,.T.);
#668=ORIENTED_EDGE('',*,*,#667,.F.);
#669=CARTESIAN_POINT('',(-1.46,0.725,0.0));
#670=VERTEX_POINT('',#669);
#671=CARTESIAN_POINT('',(-1.46,-0.725,0.0));
#672=DIRECTION('',(0.0,1.0,0.0));
#673=VECTOR('',#672,1.45);
#674=LINE('',#671,#673);
#675=EDGE_CURVE('',#662,#670,#674,.T.);
#676=ORIENTED_EDGE('',*,*,#675,.T.);
#677=CARTESIAN_POINT('',(-1.46,0.725,0.0));
#678=DIRECTION('',(0.0,0.0,1.0));
#679=VECTOR('',#678,0.28);
#680=LINE('',#677,#679);
#681=EDGE_CURVE('',#670,#652,#680,.T.);
#682=ORIENTED_EDGE('',*,*,#681,.T.);
#683=EDGE_LOOP('',(#660,#668,#676,#682));
#684=FACE_OUTER_BOUND('',#683,.T.);
#685=ADVANCED_FACE('',(#684),#650,.T.);
#686=CARTESIAN_POINT('',(-1.46,-0.725,0.0));
#687=DIRECTION('',(0.0,-1.0,0.0));
#688=DIRECTION('',(0.0,0.0,-1.0));
#689=AXIS2_PLACEMENT_3D('',#686,#687,#688);
#690=PLANE('',#689);
#691=CARTESIAN_POINT('',(-2.32,-0.725,0.28));
#692=VERTEX_POINT('',#691);
#693=CARTESIAN_POINT('',(-1.46,-0.725,0.28));
#694=DIRECTION('',(-1.0,0.0,0.0));
#695=VECTOR('',#694,0.86);
#696=LINE('',#693,#695);
#697=EDGE_CURVE('',#654,#692,#696,.T.);
#698=ORIENTED_EDGE('',*,*,#697,.T.);
#699=CARTESIAN_POINT('',(-2.32,-0.725,0.0));
#700=VERTEX_POINT('',#699);
#701=CARTESIAN_POINT('',(-2.32,-0.725,0.0));
#702=DIRECTION('',(0.0,0.0,1.0));
#703=VECTOR('',#702,0.28);
#704=LINE('',#701,#703);
#705=EDGE_CURVE('',#700,#692,#704,.T.);
#706=ORIENTED_EDGE('',*,*,#705,.F.);
#707=CARTESIAN_POINT('',(-2.32,-0.725,0.0));
#708=DIRECTION('',(1.0,0.0,0.0));
#709=VECTOR('',#708,0.86);
#710=LINE('',#707,#709);
#711=EDGE_CURVE('',#700,#662,#710,.T.);
#712=ORIENTED_EDGE('',*,*,#711,.T.);
#713=ORIENTED_EDGE('',*,*,#667,.T.);
#714=EDGE_LOOP('',(#698,#706,#712,#713));
#715=FACE_OUTER_BOUND('',#714,.T.);
#716=ADVANCED_FACE('',(#715),#690,.T.);
#717=CARTESIAN_POINT('',(-2.32,-0.725,0.0));
#718=DIRECTION('',(-1.0,0.0,0.0));
#719=DIRECTION('',(0.0,0.0,1.0));
#720=AXIS2_PLACEMENT_3D('',#717,#718,#719);
#721=PLANE('',#720);
#722=CARTESIAN_POINT('',(-2.32,0.725,0.28));
#723=VERTEX_POINT('',#722);
#724=CARTESIAN_POINT('',(-2.32,-0.725,0.28));
#725=DIRECTION('',(0.0,1.0,0.0));
#726=VECTOR('',#725,1.45);
#727=LINE('',#724,#726);
#728=EDGE_CURVE('',#692,#723,#727,.T.);
#729=ORIENTED_EDGE('',*,*,#728,.T.);
#730=CARTESIAN_POINT('',(-2.32,0.725,0.0));
#731=VERTEX_POINT('',#730);
#732=CARTESIAN_POINT('',(-2.32,0.725,0.0));
#733=DIRECTION('',(0.0,0.0,1.0));
#734=VECTOR('',#733,0.28);
#735=LINE('',#732,#734);
#736=EDGE_CURVE('',#731,#723,#735,.T.);
#737=ORIENTED_EDGE('',*,*,#736,.F.);
#738=CARTESIAN_POINT('',(-2.32,0.725,0.0));
#739=DIRECTION('',(0.0,-1.0,0.0));
#740=VECTOR('',#739,1.45);
#741=LINE('',#738,#740);
#742=EDGE_CURVE('',#731,#700,#741,.T.);
#743=ORIENTED_EDGE('',*,*,#742,.T.);
#744=ORIENTED_EDGE('',*,*,#705,.T.);
#745=EDGE_LOOP('',(#729,#737,#743,#744));
#746=FACE_OUTER_BOUND('',#745,.T.);
#747=ADVANCED_FACE('',(#746),#721,.T.);
#748=CARTESIAN_POINT('',(-2.32,0.725,0.0));
#749=DIRECTION('',(0.0,1.0,0.0));
#750=DIRECTION('',(0.0,0.0,1.0));
#751=AXIS2_PLACEMENT_3D('',#748,#749,#750);
#752=PLANE('',#751);
#753=CARTESIAN_POINT('',(-2.32,0.725,0.28));
#754=DIRECTION('',(1.0,0.0,0.0));
#755=VECTOR('',#754,0.86);
#756=LINE('',#753,#755);
#757=EDGE_CURVE('',#723,#652,#756,.T.);
#758=ORIENTED_EDGE('',*,*,#757,.T.);
#759=ORIENTED_EDGE('',*,*,#681,.F.);
#760=CARTESIAN_POINT('',(-1.46,0.725,0.0));
#761=DIRECTION('',(-1.0,0.0,0.0));
#762=VECTOR('',#761,0.86);
#763=LINE('',#760,#762);
#764=EDGE_CURVE('',#670,#731,#763,.T.);
#765=ORIENTED_EDGE('',*,*,#764,.T.);
#766=ORIENTED_EDGE('',*,*,#736,.T.);
#767=EDGE_LOOP('',(#758,#759,#765,#766));
#768=FACE_OUTER_BOUND('',#767,.T.);
#769=ADVANCED_FACE('',(#768),#752,.T.);
#770=CARTESIAN_POINT('',(-1.89,-6.335393E-018,0.28));
#771=DIRECTION('',(0.0,0.0,1.0));
#772=DIRECTION('',(1.0,0.0,0.0));
#773=AXIS2_PLACEMENT_3D('',#770,#771,#772);
#774=PLANE('',#773);
#775=ORIENTED_EDGE('',*,*,#659,.F.);
#776=ORIENTED_EDGE('',*,*,#757,.F.);
#777=ORIENTED_EDGE('',*,*,#728,.F.);
#778=ORIENTED_EDGE('',*,*,#697,.F.);
#779=EDGE_LOOP('',(#775,#776,#777,#778));
#780=FACE_OUTER_BOUND('',#779,.T.);
#781=ADVANCED_FACE('',(#780),#774,.T.);
#782=CARTESIAN_POINT('',(-1.89,-6.335393E-018,0.0));
#783=DIRECTION('',(0.0,0.0,1.0));
#784=DIRECTION('',(1.0,0.0,0.0));
#785=AXIS2_PLACEMENT_3D('',#782,#783,#784);
#786=PLANE('',#785);
#787=ORIENTED_EDGE('',*,*,#764,.F.);
#788=ORIENTED_EDGE('',*,*,#675,.F.);
#789=ORIENTED_EDGE('',*,*,#711,.F.);
#790=ORIENTED_EDGE('',*,*,#742,.F.);
#791=EDGE_LOOP('',(#787,#788,#789,#790));
#792=FACE_OUTER_BOUND('',#791,.T.);
#793=ADVANCED_FACE('',(#792),#786,.F.);
#794=CLOSED_SHELL('',(#685,#716,#747,#769,#781,#793));
#795=MANIFOLD_SOLID_BREP('514',#794);
#796=STYLED_ITEM('NONE',(#381),#795);
#797=CARTESIAN_POINT('',(-2.5,-0.3625,1.205));
#798=DIRECTION('',(0.0,1.0,0.0));
#799=DIRECTION('',(-0.707106781186546,0.0,0.707106781186549));
#800=AXIS2_PLACEMENT_3D('',#797,#798,#799);
#801=CYLINDRICAL_SURFACE('',#800,0.1);
#802=CARTESIAN_POINT('',(-2.5,0.725,1.305));
#803=VERTEX_POINT('',#802);
#804=CARTESIAN_POINT('',(-2.6,0.725,1.205));
#805=VERTEX_POINT('',#804);
#806=CARTESIAN_POINT('',(-2.5,0.725,1.205));
#807=DIRECTION('',(0.0,-1.0,0.0));
#808=DIRECTION('',(-0.707106781186546,0.0,0.707106781186549));
#809=AXIS2_PLACEMENT_3D('',#806,#807,#808);
#810=CIRCLE('',#809,0.1);
#811=EDGE_CURVE('',#803,#805,#810,.T.);
#812=ORIENTED_EDGE('',*,*,#811,.T.);
#813=CARTESIAN_POINT('',(-2.6,-0.725,1.205));
#814=VERTEX_POINT('',#813);
#815=CARTESIAN_POINT('',(-2.6,0.725,1.205));
#816=DIRECTION('',(0.0,-1.0,0.0));
#817=VECTOR('',#816,1.45);
#818=LINE('',#815,#817);
#819=EDGE_CURVE('',#805,#814,#818,.T.);
#820=ORIENTED_EDGE('',*,*,#819,.T.);
#821=CARTESIAN_POINT('',(-2.5,-0.725,1.305));
#822=VERTEX_POINT('',#821);
#823=CARTESIAN_POINT('',(-2.5,-0.725,1.205));
#824=DIRECTION('',(0.0,1.0,0.0));
#825=DIRECTION('',(-0.707106781186546,0.0,0.707106781186549));
#826=AXIS2_PLACEMENT_3D('',#823,#824,#825);
#827=CIRCLE('',#826,0.1);
#828=EDGE_CURVE('',#814,#822,#827,.T.);
#829=ORIENTED_EDGE('',*,*,#828,.T.);
#830=CARTESIAN_POINT('',(-2.5,-0.725,1.305));
#831=DIRECTION('',(0.0,1.0,0.0));
#832=VECTOR('',#831,1.45);
#833=LINE('',#830,#832);
#834=EDGE_CURVE('',#822,#803,#833,.T.);
#835=ORIENTED_EDGE('',*,*,#834,.T.);
#836=EDGE_LOOP('',(#812,#820,#829,#835));
#837=FACE_OUTER_BOUND('',#836,.T.);
#838=ADVANCED_FACE('',(#837),#801,.T.);
#839=CARTESIAN_POINT('',(-2.6,-0.725,0.0));
#840=DIRECTION('',(-1.0,0.0,0.0));
#841=DIRECTION('',(0.0,0.0,1.0));
#842=AXIS2_PLACEMENT_3D('',#839,#840,#841);
#843=PLANE('',#842);
#844=ORIENTED_EDGE('',*,*,#819,.F.);
#845=CARTESIAN_POINT('',(-2.6,0.725,0.15));
#846=VERTEX_POINT('',#845);
#847=CARTESIAN_POINT('',(-2.6,0.725,0.15));
#848=DIRECTION('',(0.0,0.0,1.0));
#849=VECTOR('',#848,1.055);
#850=LINE('',#847,#849);
#851=EDGE_CURVE('',#846,#805,#850,.T.);
#852=ORIENTED_EDGE('',*,*,#851,.F.);
#853=CARTESIAN_POINT('',(-2.6,-0.725,0.15));
#854=VERTEX_POINT('',#853);
#855=CARTESIAN_POINT('',(-2.6,-0.725,0.15));
#856=DIRECTION('',(0.0,1.0,0.0));
#857=VECTOR('',#856,1.45);
#858=LINE('',#855,#857);
#859=EDGE_CURVE('',#854,#846,#858,.T.);
#860=ORIENTED_EDGE('',*,*,#859,.F.);
#861=CARTESIAN_POINT('',(-2.6,-0.725,0.15));
#862=DIRECTION('',(0.0,0.0,1.0));
#863=VECTOR('',#862,1.055);
#864=LINE('',#861,#863);
#865=EDGE_CURVE('',#854,#814,#864,.T.);
#866=ORIENTED_EDGE('',*,*,#865,.T.);
#867=EDGE_LOOP('',(#844,#852,#860,#866));
#868=FACE_OUTER_BOUND('',#867,.T.);
#869=ADVANCED_FACE('',(#868),#843,.T.);
#870=CARTESIAN_POINT('',(-2.6,0.725,0.0));
#871=DIRECTION('',(0.0,1.0,0.0));
#872=DIRECTION('',(0.0,0.0,1.0));
#873=AXIS2_PLACEMENT_3D('',#870,#871,#872);
#874=PLANE('',#873);
#875=ORIENTED_EDGE('',*,*,#811,.F.);
#876=CARTESIAN_POINT('',(-2.32,0.725,1.305));
#877=VERTEX_POINT('',#876);
#878=CARTESIAN_POINT('',(-2.5,0.725,1.305));
#879=DIRECTION('',(1.0,0.0,0.0));
#880=VECTOR('',#879,0.18);
#881=LINE('',#878,#880);
#882=EDGE_CURVE('',#803,#877,#881,.T.);
#883=ORIENTED_EDGE('',*,*,#882,.T.);
#884=CARTESIAN_POINT('',(-2.32,0.725,0.0));
#885=VERTEX_POINT('',#884);
#886=CARTESIAN_POINT('',(-2.32,0.725,0.0));
#887=DIRECTION('',(0.0,0.0,1.0));
#888=VECTOR('',#887,1.305);
#889=LINE('',#886,#888);
#890=EDGE_CURVE('',#885,#877,#889,.T.);
#891=ORIENTED_EDGE('',*,*,#890,.F.);
#892=CARTESIAN_POINT('',(-2.45,0.725,0.0));
#893=VERTEX_POINT('',#892);
#894=CARTESIAN_POINT('',(-2.32,0.725,0.0));
#895=DIRECTION('',(-1.0,0.0,0.0));
#896=VECTOR('',#895,0.13);
#897=LINE('',#894,#896);
#898=EDGE_CURVE('',#885,#893,#897,.T.);
#899=ORIENTED_EDGE('',*,*,#898,.T.);
#900=CARTESIAN_POINT('',(-2.45,0.725,0.15));
#901=DIRECTION('',(0.0,-1.0,0.0));
#902=DIRECTION('',(-0.707106781186548,0.0,-0.707106781186547));
#903=AXIS2_PLACEMENT_3D('',#900,#901,#902);
#904=CIRCLE('',#903,0.15);
#905=EDGE_CURVE('',#846,#893,#904,.T.);
#906=ORIENTED_EDGE('',*,*,#905,.F.);
#907=ORIENTED_EDGE('',*,*,#851,.T.);
#908=EDGE_LOOP('',(#875,#883,#891,#899,#906,#907));
#909=FACE_OUTER_BOUND('',#908,.T.);
#910=ADVANCED_FACE('',(#909),#874,.T.);
#911=CARTESIAN_POINT('',(-2.45,-0.3625,0.15));
#912=DIRECTION('',(0.0,-1.0,0.0));
#913=DIRECTION('',(-0.707106781186548,0.0,-0.707106781186547));
#914=AXIS2_PLACEMENT_3D('',#911,#912,#913);
#915=CYLINDRICAL_SURFACE('',#914,0.15);
#916=CARTESIAN_POINT('',(-2.45,-0.725,0.0));
#917=VERTEX_POINT('',#916);
#918=CARTESIAN_POINT('',(-2.45,-0.725,0.15));
#919=DIRECTION('',(0.0,1.0,0.0));
#920=DIRECTION('',(-0.707106781186548,0.0,-0.707106781186547));
#921=AXIS2_PLACEMENT_3D('',#918,#919,#920);
#922=CIRCLE('',#921,0.15);
#923=EDGE_CURVE('',#917,#854,#922,.T.);
#924=ORIENTED_EDGE('',*,*,#923,.T.);
#925=ORIENTED_EDGE('',*,*,#859,.T.);
#926=ORIENTED_EDGE('',*,*,#905,.T.);
#927=CARTESIAN_POINT('',(-2.45,0.725,0.0));
#928=DIRECTION('',(0.0,-1.0,0.0));
#929=VECTOR('',#928,1.45);
#930=LINE('',#927,#929);
#931=EDGE_CURVE('',#893,#917,#930,.T.);
#932=ORIENTED_EDGE('',*,*,#931,.T.);
#933=EDGE_LOOP('',(#924,#925,#926,#932));
#934=FACE_OUTER_BOUND('',#933,.T.);
#935=ADVANCED_FACE('',(#934),#915,.T.);
#936=CARTESIAN_POINT('',(-2.32,0.725,0.0));
#937=DIRECTION('',(1.0,0.0,0.0));
#938=DIRECTION('',(0.0,0.0,-1.0));
#939=AXIS2_PLACEMENT_3D('',#936,#937,#938);
#940=PLANE('',#939);
#941=CARTESIAN_POINT('',(-2.32,-0.725,1.305));
#942=VERTEX_POINT('',#941);
#943=CARTESIAN_POINT('',(-2.32,0.725,1.305));
#944=DIRECTION('',(0.0,-1.0,0.0));
#945=VECTOR('',#944,1.45);
#946=LINE('',#943,#945);
#947=EDGE_CURVE('',#877,#942,#946,.T.);
#948=ORIENTED_EDGE('',*,*,#947,.T.);
#949=CARTESIAN_POINT('',(-2.32,-0.725,0.0));
#950=VERTEX_POINT('',#949);
#951=CARTESIAN_POINT('',(-2.32,-0.725,0.0));
#952=DIRECTION('',(0.0,0.0,1.0));
#953=VECTOR('',#952,1.305);
#954=LINE('',#951,#953);
#955=EDGE_CURVE('',#950,#942,#954,.T.);
#956=ORIENTED_EDGE('',*,*,#955,.F.);
#957=CARTESIAN_POINT('',(-2.32,-0.725,0.0));
#958=DIRECTION('',(0.0,1.0,0.0));
#959=VECTOR('',#958,1.45);
#960=LINE('',#957,#959);
#961=EDGE_CURVE('',#950,#885,#960,.T.);
#962=ORIENTED_EDGE('',*,*,#961,.T.);
#963=ORIENTED_EDGE('',*,*,#890,.T.);
#964=EDGE_LOOP('',(#948,#956,#962,#963));
#965=FACE_OUTER_BOUND('',#964,.T.);
#966=ADVANCED_FACE('',(#965),#940,.T.);
#967=CARTESIAN_POINT('',(-2.32,-0.725,0.0));
#968=DIRECTION('',(0.0,-1.0,0.0));
#969=DIRECTION('',(0.0,0.0,-1.0));
#970=AXIS2_PLACEMENT_3D('',#967,#968,#969);
#971=PLANE('',#970);
#972=ORIENTED_EDGE('',*,*,#828,.F.);
#973=ORIENTED_EDGE('',*,*,#865,.F.);
#974=ORIENTED_EDGE('',*,*,#923,.F.);
#975=CARTESIAN_POINT('',(-2.45,-0.725,0.0));
#976=DIRECTION('',(1.0,0.0,0.0));
#977=VECTOR('',#976,0.13);
#978=LINE('',#975,#977);
#979=EDGE_CURVE('',#917,#950,#978,.T.);
#980=ORIENTED_EDGE('',*,*,#979,.T.);
#981=ORIENTED_EDGE('',*,*,#955,.T.);
#982=CARTESIAN_POINT('',(-2.32,-0.725,1.305));
#983=DIRECTION('',(-1.0,0.0,0.0));
#984=VECTOR('',#983,0.18);
#985=LINE('',#982,#984);
#986=EDGE_CURVE('',#942,#822,#985,.T.);
#987=ORIENTED_EDGE('',*,*,#986,.T.);
#988=EDGE_LOOP('',(#972,#973,#974,#980,#981,#987));
#989=FACE_OUTER_BOUND('',#988,.T.);
#990=ADVANCED_FACE('',(#989),#971,.T.);
#991=CARTESIAN_POINT('',(-2.460000000000001,-5.418390E-018,1.305));
#992=DIRECTION('',(0.0,0.0,1.0));
#993=DIRECTION('',(1.0,0.0,0.0));
#994=AXIS2_PLACEMENT_3D('',#991,#992,#993);
#995=PLANE('',#994);
#996=ORIENTED_EDGE('',*,*,#834,.F.);
#997=ORIENTED_EDGE('',*,*,#986,.F.);
#998=ORIENTED_EDGE('',*,*,#947,.F.);
#999=ORIENTED_EDGE('',*,*,#882,.F.);
#1000=EDGE_LOOP('',(#996,#997,#998,#999));
#1001=FACE_OUTER_BOUND('',#1000,.T.);
#1002=ADVANCED_FACE('',(#1001),#995,.T.);
#1003=CARTESIAN_POINT('',(-2.460000000000001,-5.418390E-018,0.0));
#1004=DIRECTION('',(0.0,0.0,1.0));
#1005=DIRECTION('',(1.0,0.0,0.0));
#1006=AXIS2_PLACEMENT_3D('',#1003,#1004,#1005);
#1007=PLANE('',#1006);
#1008=ORIENTED_EDGE('',*,*,#931,.F.);
#1009=ORIENTED_EDGE('',*,*,#898,.F.);
#1010=ORIENTED_EDGE('',*,*,#961,.F.);
#1011=ORIENTED_EDGE('',*,*,#979,.F.);
#1012=EDGE_LOOP('',(#1008,#1009,#1010,#1011));
#1013=FACE_OUTER_BOUND('',#1012,.T.);
#1014=ADVANCED_FACE('',(#1013),#1007,.F.);
#1015=CLOSED_SHELL('',(#838,#869,#910,#935,#966,#990,#1002,#1014));
#1016=MANIFOLD_SOLID_BREP('513',#1015);
#1017=STYLED_ITEM('NONE',(#381),#1016);
#1018=CARTESIAN_POINT('',(-1.32,1.218000000000001,2.299999999999999));
#1019=DIRECTION('',(0.0,-1.0,0.0));
#1020=DIRECTION('',(0.0,0.0,-1.0));
#1021=AXIS2_PLACEMENT_3D('',#1018,#1019,#1020);
#1022=PLANE('',#1021);
#1023=CARTESIAN_POINT('',(-1.72,1.218000000000001,2.15));
#1024=VERTEX_POINT('',#1023);
#1025=CARTESIAN_POINT('',(-1.72,1.218000000000001,2.199999999999999));
#1026=VERTEX_POINT('',#1025);
#1027=CARTESIAN_POINT('',(-1.72,1.218,2.15));
#1028=DIRECTION('',(0.0,0.0,1.0));
#1029=VECTOR('',#1028,0.049999999999999);
#1030=LINE('',#1027,#1029);
#1031=EDGE_CURVE('',#1024,#1026,#1030,.T.);
#1032=ORIENTED_EDGE('',*,*,#1031,.F.);
#1033=CARTESIAN_POINT('',(-1.32,1.218000000000001,2.15));
#1034=VERTEX_POINT('',#1033);
#1035=CARTESIAN_POINT('',(-1.32,1.218000000000001,2.149999999999999));
#1036=DIRECTION('',(-1.0,0.0,0.0));
#1037=VECTOR('',#1036,0.4);
#1038=LINE('',#1035,#1037);
#1039=EDGE_CURVE('',#1034,#1024,#1038,.T.);
#1040=ORIENTED_EDGE('',*,*,#1039,.F.);
#1041=CARTESIAN_POINT('',(-1.32,1.218000000000001,2.199999999999999));
#1042=VERTEX_POINT('',#1041);
#1043=CARTESIAN_POINT('',(-1.32,1.218000000000001,2.199999999999999));
#1044=DIRECTION('',(0.0,0.0,-1.0));
#1045=VECTOR('',#1044,0.049999999999999);
#1046=LINE('',#1043,#1045);
#1047=EDGE_CURVE('',#1042,#1034,#1046,.T.);
#1048=ORIENTED_EDGE('',*,*,#1047,.F.);
#1049=CARTESIAN_POINT('',(-1.32,1.218000000000001,2.199999999999999));
#1050=DIRECTION('',(-1.0,0.0,0.0));
#1051=VECTOR('',#1050,0.4);
#1052=LINE('',#1049,#1051);
#1053=EDGE_CURVE('',#1042,#1026,#1052,.T.);
#1054=ORIENTED_EDGE('',*,*,#1053,.T.);
#1055=EDGE_LOOP('',(#1032,#1040,#1048,#1054));
#1056=FACE_OUTER_BOUND('',#1055,.T.);
#1057=ADVANCED_FACE('',(#1056),#1022,.T.);
#1058=CARTESIAN_POINT('',(-1.32,-1.200000000000002,2.56));
#1059=DIRECTION('',(1.0,0.0,0.0));
#1060=DIRECTION('',(0.0,0.0,-1.0));
#1061=AXIS2_PLACEMENT_3D('',#1058,#1059,#1060);
#1062=PLANE('',#1061);
#1063=ORIENTED_EDGE('',*,*,#1047,.T.);
#1064=CARTESIAN_POINT('',(-1.320000000000001,-1.218,2.15));
#1065=VERTEX_POINT('',#1064);
#1066=CARTESIAN_POINT('',(-1.32,-1.218,2.15));
#1067=DIRECTION('',(0.0,1.0,0.0));
#1068=VECTOR('',#1067,2.436000000000001);
#1069=LINE('',#1066,#1068);
#1070=EDGE_CURVE('',#1065,#1034,#1069,.T.);
#1071=ORIENTED_EDGE('',*,*,#1070,.F.);
#1072=CARTESIAN_POINT('',(-1.320000000000001,-1.218,2.199999999999999));
#1073=VERTEX_POINT('',#1072);
#1074=CARTESIAN_POINT('',(-1.32,-1.218,2.15));
#1075=DIRECTION('',(0.0,0.0,1.0));
#1076=VECTOR('',#1075,0.049999999999999);
#1077=LINE('',#1074,#1076);
#1078=EDGE_CURVE('',#1065,#1073,#1077,.T.);
#1079=ORIENTED_EDGE('',*,*,#1078,.T.);
#1080=CARTESIAN_POINT('',(-1.32,1.218000000000001,2.2));
#1081=DIRECTION('',(0.0,-1.0,0.0));
#1082=VECTOR('',#1081,2.436000000000001);
#1083=LINE('',#1080,#1082);
#1084=EDGE_CURVE('',#1042,#1073,#1083,.T.);
#1085=ORIENTED_EDGE('',*,*,#1084,.F.);
#1086=EDGE_LOOP('',(#1063,#1071,#1079,#1085));
#1087=FACE_OUTER_BOUND('',#1086,.T.);
#1088=ADVANCED_FACE('',(#1087),#1062,.F.);
#1089=CARTESIAN_POINT('',(-1.52,-5.134781E-016,2.149999999999999));
#1090=DIRECTION('',(0.0,0.0,1.0));
#1091=DIRECTION('',(1.0,0.0,0.0));
#1092=AXIS2_PLACEMENT_3D('',#1089,#1090,#1091);
#1093=PLANE('',#1092);
#1094=ORIENTED_EDGE('',*,*,#1039,.T.);
#1095=CARTESIAN_POINT('',(-1.720000000000001,-1.218,2.15));
#1096=VERTEX_POINT('',#1095);
#1097=CARTESIAN_POINT('',(-1.72,1.218000000000001,2.15));
#1098=DIRECTION('',(0.0,-1.0,0.0));
#1099=VECTOR('',#1098,2.436000000000001);
#1100=LINE('',#1097,#1099);
#1101=EDGE_CURVE('',#1024,#1096,#1100,.T.);
#1102=ORIENTED_EDGE('',*,*,#1101,.T.);
#1103=CARTESIAN_POINT('',(-1.720000000000001,-1.218,2.149999999999999));
#1104=DIRECTION('',(1.0,0.0,0.0));
#1105=VECTOR('',#1104,0.4);
#1106=LINE('',#1103,#1105);
#1107=EDGE_CURVE('',#1096,#1065,#1106,.T.);
#1108=ORIENTED_EDGE('',*,*,#1107,.T.);
#1109=ORIENTED_EDGE('',*,*,#1070,.T.);
#1110=EDGE_LOOP('',(#1094,#1102,#1108,#1109));
#1111=FACE_OUTER_BOUND('',#1110,.T.);
#1112=ADVANCED_FACE('',(#1111),#1093,.T.);
#1113=CARTESIAN_POINT('',(-1.72,1.200000000000001,2.56));
#1114=DIRECTION('',(-1.0,0.0,0.0));
#1115=DIRECTION('',(0.0,0.0,1.0));
#1116=AXIS2_PLACEMENT_3D('',#1113,#1114,#1115);
#1117=PLANE('',#1116);
#1118=ORIENTED_EDGE('',*,*,#1031,.T.);
#1119=CARTESIAN_POINT('',(-1.720000000000001,-1.218,2.199999999999999));
#1120=VERTEX_POINT('',#1119);
#1121=CARTESIAN_POINT('',(-1.72,-1.218,2.200000000000002));
#1122=DIRECTION('',(0.0,1.0,0.0));
#1123=VECTOR('',#1122,2.436000000000001);
#1124=LINE('',#1121,#1123);
#1125=EDGE_CURVE('',#1120,#1026,#1124,.T.);
#1126=ORIENTED_EDGE('',*,*,#1125,.F.);
#1127=CARTESIAN_POINT('',(-1.72,-1.218,2.199999999999999));
#1128=DIRECTION('',(0.0,0.0,-1.0));
#1129=VECTOR('',#1128,0.049999999999999);
#1130=LINE('',#1127,#1129);
#1131=EDGE_CURVE('',#1120,#1096,#1130,.T.);
#1132=ORIENTED_EDGE('',*,*,#1131,.T.);
#1133=ORIENTED_EDGE('',*,*,#1101,.F.);
#1134=EDGE_LOOP('',(#1118,#1126,#1132,#1133));
#1135=FACE_OUTER_BOUND('',#1134,.T.);
#1136=ADVANCED_FACE('',(#1135),#1117,.F.);
#1137=CARTESIAN_POINT('',(-1.32,-1.218,2.199999999999999));
#1138=CARTESIAN_POINT('',(-1.32,-1.218,2.149999999999999));
#1139=CARTESIAN_POINT('',(-1.720000000000001,-1.218,2.199999999999999));
#1140=CARTESIAN_POINT('',(-1.720000000000001,-1.218,2.149999999999999));
#1141=B_SPLINE_SURFACE_WITH_KNOTS('',1,1,((#1137,#1139),(#1138,#1140)),.UNSPECIFIED.,.F.,.F.,.U.,(2,2),(2,2),(0.0,0.05),(0.0,0.4),.UNSPECIFIED.);
#1142=ORIENTED_EDGE('',*,*,#1131,.F.);
#1143=CARTESIAN_POINT('',(-1.320000000000001,-1.218,2.199999999999999));
#1144=DIRECTION('',(-1.0,0.0,0.0));
#1145=VECTOR('',#1144,0.4);
#1146=LINE('',#1143,#1145);
#1147=EDGE_CURVE('',#1073,#1120,#1146,.T.);
#1148=ORIENTED_EDGE('',*,*,#1147,.F.);
#1149=ORIENTED_EDGE('',*,*,#1078,.F.);
#1150=ORIENTED_EDGE('',*,*,#1107,.F.);
#1151=EDGE_LOOP('',(#1142,#1148,#1149,#1150));
#1152=FACE_OUTER_BOUND('',#1151,.T.);
#1153=ADVANCED_FACE('',(#1152),#1141,.T.);
#1154=CARTESIAN_POINT('',(-2.270000000000001,0.65,1.9575));
#1155=DIRECTION('',(-0.99657421784817,3.672762E-017,0.082703254593209));
#1156=DIRECTION('',(0.082703254593209,4.425679E-016,0.99657421784817));
#1157=AXIS2_PLACEMENT_3D('',#1154,#1155,#1156);
#1158=PLANE('',#1157);
#1159=CARTESIAN_POINT('',(-2.2498755186722,-1.2298755186722,2.200000000000002));
#1160=VERTEX_POINT('',#1159);
#1161=CARTESIAN_POINT('',(-2.2498755186722,1.2298755186722,2.2));
#1162=VERTEX_POINT('',#1161);
#1163=CARTESIAN_POINT('',(-2.2498755186722,-1.2298755186722,2.200000000000002));
#1164=DIRECTION('',(0.0,1.0,0.0));
#1165=VECTOR('',#1164,2.459751037344399);
#1166=LINE('',#1163,#1165);
#1167=EDGE_CURVE('',#1160,#1162,#1166,.T.);
#1168=ORIENTED_EDGE('',*,*,#1167,.T.);
#1169=CARTESIAN_POINT('',(-2.32,1.3,1.355));
#1170=VERTEX_POINT('',#1169);
#1171=CARTESIAN_POINT('',(-2.32,1.3,1.355));
#1172=DIRECTION('',(0.082421859263559,-0.082421859263558,0.993183404125883));
#1173=VECTOR('',#1172,0.850799556748231);
#1174=LINE('',#1171,#1173);
#1175=EDGE_CURVE('',#1170,#1162,#1174,.T.);
#1176=ORIENTED_EDGE('',*,*,#1175,.F.);
#1177=CARTESIAN_POINT('',(-2.32,-1.300000000000001,1.355000000000001));
#1178=VERTEX_POINT('',#1177);
#1179=CARTESIAN_POINT('',(-2.32,1.3,1.355));
#1180=DIRECTION('',(0.0,-1.0,0.0));
#1181=VECTOR('',#1180,2.600000000000001);
#1182=LINE('',#1179,#1181);
#1183=EDGE_CURVE('',#1170,#1178,#1182,.T.);
#1184=ORIENTED_EDGE('',*,*,#1183,.T.);
#1185=CARTESIAN_POINT('',(-2.249875518672199,-1.229875518672199,2.200000000000002));
#1186=DIRECTION('',(-0.082421859263559,-0.082421859263559,-0.993183404125883));
#1187=VECTOR('',#1186,0.850799556748231);
#1188=LINE('',#1185,#1187);
#1189=EDGE_CURVE('',#1160,#1178,#1188,.T.);
#1190=ORIENTED_EDGE('',*,*,#1189,.F.);
#1191=EDGE_LOOP('',(#1168,#1176,#1184,#1190));
#1192=FACE_OUTER_BOUND('',#1191,.T.);
#1193=ADVANCED_FACE('',(#1192),#1158,.T.);
#1194=CARTESIAN_POINT('',(2.270000000000001,-0.65,1.9575));
#1195=DIRECTION('',(0.99657421784817,3.672762E-017,0.082703254593209));
#1196=DIRECTION('',(0.082703254593209,-4.425679E-016,-0.99657421784817));
#1197=AXIS2_PLACEMENT_3D('',#1194,#1195,#1196);
#1198=PLANE('',#1197);
#1199=CARTESIAN_POINT('',(2.2498755186722,1.229875518672199,2.2));
#1200=VERTEX_POINT('',#1199);
#1201=CARTESIAN_POINT('',(2.2498755186722,-1.229875518672199,2.200000000000001));
#1202=VERTEX_POINT('',#1201);
#1203=CARTESIAN_POINT('',(2.2498755186722,1.229875518672199,2.2));
#1204=DIRECTION('',(0.0,-1.0,0.0));
#1205=VECTOR('',#1204,2.459751037344398);
#1206=LINE('',#1203,#1205);
#1207=EDGE_CURVE('',#1200,#1202,#1206,.T.);
#1208=ORIENTED_EDGE('',*,*,#1207,.T.);
#1209=CARTESIAN_POINT('',(2.32,-1.3,1.355));
#1210=VERTEX_POINT('',#1209);
#1211=CARTESIAN_POINT('',(2.249875518672199,-1.229875518672199,2.200000000000001));
#1212=DIRECTION('',(0.082421859263559,-0.082421859263559,-0.993183404125883));
#1213=VECTOR('',#1212,0.850799556748232);
#1214=LINE('',#1211,#1213);
#1215=EDGE_CURVE('',#1202,#1210,#1214,.T.);
#1216=ORIENTED_EDGE('',*,*,#1215,.T.);
#1217=CARTESIAN_POINT('',(2.32,1.3,1.354999999999999));
#1218=VERTEX_POINT('',#1217);
#1219=CARTESIAN_POINT('',(2.32,-1.3,1.355));
#1220=DIRECTION('',(0.0,1.0,0.0));
#1221=VECTOR('',#1220,2.6);
#1222=LINE('',#1219,#1221);
#1223=EDGE_CURVE('',#1210,#1218,#1222,.T.);
#1224=ORIENTED_EDGE('',*,*,#1223,.T.);
#1225=CARTESIAN_POINT('',(2.249875518672199,1.2298755186722,2.2));
#1226=DIRECTION('',(0.082421859263559,0.082421859263558,-0.993183404125883));
#1227=VECTOR('',#1226,0.850799556748232);
#1228=LINE('',#1225,#1227);
#1229=EDGE_CURVE('',#1200,#1218,#1228,.T.);
#1230=ORIENTED_EDGE('',*,*,#1229,.F.);
#1231=EDGE_LOOP('',(#1208,#1216,#1224,#1230));
#1232=FACE_OUTER_BOUND('',#1231,.T.);
#1233=ADVANCED_FACE('',(#1232),#1198,.T.);
#1234=CARTESIAN_POINT('',(-1.16,-1.25,1.957500000000001));
#1235=DIRECTION('',(1.055089E-016,-0.996574217848169,0.08270325459321));
#1236=DIRECTION('',(1.220411E-016,0.08270325459321,0.99657421784817));
#1237=AXIS2_PLACEMENT_3D('',#1234,#1235,#1236);
#1238=PLANE('',#1237);
#1239=CARTESIAN_POINT('',(2.2498755186722,-1.229875518672199,2.200000000000001));
#1240=DIRECTION('',(-1.0,0.0,0.0));
#1241=VECTOR('',#1240,4.499751037344399);
#1242=LINE('',#1239,#1241);
#1243=EDGE_CURVE('',#1202,#1160,#1242,.T.);
#1244=ORIENTED_EDGE('',*,*,#1243,.T.);
#1245=ORIENTED_EDGE('',*,*,#1189,.T.);
#1246=CARTESIAN_POINT('',(-2.32,-1.300000000000001,1.355000000000001));
#1247=DIRECTION('',(1.0,0.0,0.0));
#1248=VECTOR('',#1247,4.640000000000001);
#1249=LINE('',#1246,#1248);
#1250=EDGE_CURVE('',#1178,#1210,#1249,.T.);
#1251=ORIENTED_EDGE('',*,*,#1250,.T.);
#1252=ORIENTED_EDGE('',*,*,#1215,.F.);
#1253=EDGE_LOOP('',(#1244,#1245,#1251,#1252));
#1254=FACE_OUTER_BOUND('',#1253,.T.);
#1255=ADVANCED_FACE('',(#1254),#1238,.T.);
#1256=CARTESIAN_POINT('',(-1.665335E-016,-9.342613E-017,1.355));
#1257=DIRECTION('',(0.0,0.0,-1.0));
#1258=DIRECTION('',(-1.0,0.0,0.0));
#1259=AXIS2_PLACEMENT_3D('',#1256,#1257,#1258);
#1260=PLANE('',#1259);
#1261=ORIENTED_EDGE('',*,*,#1183,.F.);
#1262=CARTESIAN_POINT('',(2.32,1.3,1.355));
#1263=DIRECTION('',(-1.0,0.0,0.0));
#1264=VECTOR('',#1263,4.640000000000001);
#1265=LINE('',#1262,#1264);
#1266=EDGE_CURVE('',#1218,#1170,#1265,.T.);
#1267=ORIENTED_EDGE('',*,*,#1266,.F.);
#1268=ORIENTED_EDGE('',*,*,#1223,.F.);
#1269=ORIENTED_EDGE('',*,*,#1250,.F.);
#1270=EDGE_LOOP('',(#1261,#1267,#1268,#1269));
#1271=FACE_OUTER_BOUND('',#1270,.T.);
#1272=ADVANCED_FACE('',(#1271),#1260,.T.);
#1273=CARTESIAN_POINT('',(1.16,1.25,1.957499999999999));
#1274=DIRECTION('',(1.012789E-017,0.99657421784817,0.082703254593209));
#1275=DIRECTION('',(-1.220411E-016,0.082703254593209,-0.99657421784817));
#1276=AXIS2_PLACEMENT_3D('',#1273,#1274,#1275);
#1277=PLANE('',#1276);
#1278=CARTESIAN_POINT('',(-2.2498755186722,1.2298755186722,2.2));
#1279=DIRECTION('',(1.0,0.0,0.0));
#1280=VECTOR('',#1279,4.499751037344399);
#1281=LINE('',#1278,#1280);
#1282=EDGE_CURVE('',#1200,#1162,#1281,.F.);
#1283=ORIENTED_EDGE('',*,*,#1282,.F.);
#1284=ORIENTED_EDGE('',*,*,#1229,.T.);
#1285=ORIENTED_EDGE('',*,*,#1266,.T.);
#1286=ORIENTED_EDGE('',*,*,#1175,.T.);
#1287=EDGE_LOOP('',(#1283,#1284,#1285,#1286));
#1288=FACE_OUTER_BOUND('',#1287,.T.);
#1289=ADVANCED_FACE('',(#1288),#1277,.T.);
#1290=CARTESIAN_POINT('',(-1.387779E-017,4.417014E-016,2.200000000000001));
#1291=DIRECTION('',(0.0,0.0,-1.0));
#1292=DIRECTION('',(-1.0,0.0,0.0));
#1293=AXIS2_PLACEMENT_3D('',#1290,#1291,#1292);
#1294=PLANE('',#1293);
#1295=ORIENTED_EDGE('',*,*,#1282,.T.);
#1296=ORIENTED_EDGE('',*,*,#1167,.F.);
#1297=ORIENTED_EDGE('',*,*,#1243,.F.);
#1298=ORIENTED_EDGE('',*,*,#1207,.F.);
#1299=EDGE_LOOP('',(#1295,#1296,#1297,#1298));
#1300=FACE_OUTER_BOUND('',#1299,.T.);
#1301=ORIENTED_EDGE('',*,*,#1084,.T.);
#1302=ORIENTED_EDGE('',*,*,#1147,.T.);
#1303=ORIENTED_EDGE('',*,*,#1125,.T.);
#1304=ORIENTED_EDGE('',*,*,#1053,.F.);
#1305=EDGE_LOOP('',(#1301,#1302,#1303,#1304));
#1306=FACE_BOUND('',#1305,.T.);
#1307=ADVANCED_FACE('',(#1300,#1306),#1294,.F.);
#1308=CLOSED_SHELL('',(#1057,#1088,#1112,#1136,#1153,#1193,#1233,#1255,#1272,#1289,#1307));
#1309=MANIFOLD_SOLID_BREP('510',#1308);
#1310=COLOUR_RGB('250',0.33,0.33,0.33);
#1311=SURFACE_STYLE_USAGE(.BOTH.,#1312);
#1312=SURFACE_SIDE_STYLE('NONE',(#1313));
#1313=SURFACE_STYLE_FILL_AREA(#1314);
#1314=FILL_AREA_STYLE('NONE',(#1315));
#1315=FILL_AREA_STYLE_COLOUR('NONE',#1310);
#1316=PRESENTATION_STYLE_ASSIGNMENT((#1311));
#1317=STYLED_ITEM('NONE',(#1316),#1309);
#1318=CARTESIAN_POINT('',(-1.560000000000001,-6.110391E-016,0.430000000000001));
#1319=DIRECTION('',(0.0,0.0,1.0));
#1320=DIRECTION('',(1.0,0.0,0.0));
#1321=AXIS2_PLACEMENT_3D('',#1318,#1319,#1320);
#1322=PLANE('',#1321);
#1323=CARTESIAN_POINT('',(-0.8,1.223236514522822,0.43));
#1324=VERTEX_POINT('',#1323);
#1325=CARTESIAN_POINT('',(-2.243236514522822,1.223236514522822,0.43));
#1326=VERTEX_POINT('',#1325);
#1327=CARTESIAN_POINT('',(-0.8,1.223236514522822,0.43));
#1328=DIRECTION('',(-1.0,0.0,0.0));
#1329=VECTOR('',#1328,1.443236514522821);
#1330=LINE('',#1327,#1329);
#1331=EDGE_CURVE('',#1324,#1326,#1330,.T.);
#1332=ORIENTED_EDGE('',*,*,#1331,.F.);
#1333=CARTESIAN_POINT('',(-0.8,-1.223236514522822,0.430000000000001));
#1334=VERTEX_POINT('',#1333);
#1335=CARTESIAN_POINT('',(-0.8,1.223236514522822,0.43));
#1336=DIRECTION('',(0.0,-1.0,0.0));
#1337=VECTOR('',#1336,2.446473029045643);
#1338=LINE('',#1335,#1337);
#1339=EDGE_CURVE('',#1324,#1334,#1338,.T.);
#1340=ORIENTED_EDGE('',*,*,#1339,.T.);
#1341=CARTESIAN_POINT('',(-2.243236514522822,-1.223236514522822,0.430000000000001));
#1342=VERTEX_POINT('',#1341);
#1343=CARTESIAN_POINT('',(-2.243236514522822,-1.223236514522821,0.430000000000001));
#1344=DIRECTION('',(1.0,0.0,0.0));
#1345=VECTOR('',#1344,1.443236514522821);
#1346=LINE('',#1343,#1345);
#1347=EDGE_CURVE('',#1342,#1334,#1346,.T.);
#1348=ORIENTED_EDGE('',*,*,#1347,.F.);
#1349=CARTESIAN_POINT('',(-2.243236514522822,1.223236514522822,0.43));
#1350=DIRECTION('',(0.0,-1.0,0.0));
#1351=VECTOR('',#1350,2.446473029045643);
#1352=LINE('',#1349,#1351);
#1353=EDGE_CURVE('',#1326,#1342,#1352,.T.);
#1354=ORIENTED_EDGE('',*,*,#1353,.F.);
#1355=EDGE_LOOP('',(#1332,#1340,#1348,#1354));
#1356=FACE_OUTER_BOUND('',#1355,.T.);
#1357=ADVANCED_FACE('',(#1356),#1322,.F.);
#1358=CARTESIAN_POINT('',(-0.8,1.299999999999999,0.15));
#1359=DIRECTION('',(1.0,0.0,0.0));
#1360=DIRECTION('',(0.0,0.0,-1.0));
#1361=AXIS2_PLACEMENT_3D('',#1358,#1359,#1360);
#1362=PLANE('',#1361);
#1363=CARTESIAN_POINT('',(-0.8,1.2,0.15));
#1364=VERTEX_POINT('',#1363);
#1365=CARTESIAN_POINT('',(-0.8,1.2,0.15));
#1366=DIRECTION('',(0.0,0.08270325459321,0.996574217848169));
#1367=VECTOR('',#1366,0.280962516373927);
#1368=LINE('',#1365,#1367);
#1369=EDGE_CURVE('',#1364,#1324,#1368,.T.);
#1370=ORIENTED_EDGE('',*,*,#1369,.F.);
#1371=CARTESIAN_POINT('',(-0.8,-1.2,0.150000000000001));
#1372=VERTEX_POINT('',#1371);
#1373=CARTESIAN_POINT('',(-0.8,-1.2,0.15));
#1374=DIRECTION('',(0.0,1.0,0.0));
#1375=VECTOR('',#1374,2.4);
#1376=LINE('',#1373,#1375);
#1377=EDGE_CURVE('',#1372,#1364,#1376,.T.);
#1378=ORIENTED_EDGE('',*,*,#1377,.F.);
#1379=CARTESIAN_POINT('',(-0.8,-1.223236514522822,0.430000000000001));
#1380=DIRECTION('',(0.0,0.08270325459321,-0.996574217848169));
#1381=VECTOR('',#1380,0.280962516373927);
#1382=LINE('',#1379,#1381);
#1383=EDGE_CURVE('',#1334,#1372,#1382,.T.);
#1384=ORIENTED_EDGE('',*,*,#1383,.F.);
#1385=ORIENTED_EDGE('',*,*,#1339,.F.);
#1386=EDGE_LOOP('',(#1370,#1378,#1384,#1385));
#1387=FACE_OUTER_BOUND('',#1386,.T.);
#1388=ADVANCED_FACE('',(#1387),#1362,.F.);
#1389=CARTESIAN_POINT('',(0.8,1.223236514522822,0.430000000000001));
#1390=CARTESIAN_POINT('',(0.8,1.223236514522822,0.15));
#1391=CARTESIAN_POINT('',(0.8,-1.223236514522822,0.430000000000001));
#1392=CARTESIAN_POINT('',(0.8,-1.223236514522822,0.15));
#1393=B_SPLINE_SURFACE_WITH_KNOTS('',1,1,((#1389,#1391),(#1390,#1392)),.UNSPECIFIED.,.F.,.F.,.U.,(2,2),(2,2),(0.0,0.280000000000001),(0.0,2.446473029045643),.UNSPECIFIED.);
#1394=CARTESIAN_POINT('',(0.8,1.223236514522822,0.43));
#1395=VERTEX_POINT('',#1394);
#1396=CARTESIAN_POINT('',(0.8,1.2,0.15));
#1397=VERTEX_POINT('',#1396);
#1398=CARTESIAN_POINT('',(0.8,1.223236514522822,0.43));
#1399=DIRECTION('',(0.0,-0.08270325459321,-0.996574217848169));
#1400=VECTOR('',#1399,0.280962516373927);
#1401=LINE('',#1398,#1400);
#1402=EDGE_CURVE('',#1395,#1397,#1401,.T.);
#1403=ORIENTED_EDGE('',*,*,#1402,.F.);
#1404=CARTESIAN_POINT('',(0.8,-1.223236514522822,0.430000000000001));
#1405=VERTEX_POINT('',#1404);
#1406=CARTESIAN_POINT('',(0.8,1.223236514522822,0.43));
#1407=DIRECTION('',(0.0,-1.0,0.0));
#1408=VECTOR('',#1407,2.446473029045643);
#1409=LINE('',#1406,#1408);
#1410=EDGE_CURVE('',#1395,#1405,#1409,.T.);
#1411=ORIENTED_EDGE('',*,*,#1410,.T.);
#1412=CARTESIAN_POINT('',(0.8,-1.2,0.150000000000001));
#1413=VERTEX_POINT('',#1412);
#1414=CARTESIAN_POINT('',(0.8,-1.2,0.150000000000001));
#1415=DIRECTION('',(0.0,-0.08270325459321,0.996574217848169));
#1416=VECTOR('',#1415,0.280962516373927);
#1417=LINE('',#1414,#1416);
#1418=EDGE_CURVE('',#1413,#1405,#1417,.T.);
#1419=ORIENTED_EDGE('',*,*,#1418,.F.);
#1420=CARTESIAN_POINT('',(0.8,1.2,0.15));
#1421=DIRECTION('',(0.0,-1.0,0.0));
#1422=VECTOR('',#1421,2.4);
#1423=LINE('',#1420,#1422);
#1424=EDGE_CURVE('',#1397,#1413,#1423,.T.);
#1425=ORIENTED_EDGE('',*,*,#1424,.F.);
#1426=EDGE_LOOP('',(#1403,#1411,#1419,#1425));
#1427=FACE_OUTER_BOUND('',#1426,.T.);
#1428=ADVANCED_FACE('',(#1427),#1393,.F.);
#1429=CARTESIAN_POINT('',(2.243236514522822,1.223236514522822,0.43));
#1430=CARTESIAN_POINT('',(0.8,1.223236514522822,0.43));
#1431=CARTESIAN_POINT('',(2.243236514522822,-1.223236514522822,0.430000000000001));
#1432=CARTESIAN_POINT('',(0.8,-1.223236514522822,0.430000000000001));
#1433=B_SPLINE_SURFACE_WITH_KNOTS('',1,1,((#1429,#1431),(#1430,#1432)),.UNSPECIFIED.,.F.,.F.,.U.,(2,2),(2,2),(0.0,1.443236514522822),(0.0,2.446473029045643),.UNSPECIFIED.);
#1434=CARTESIAN_POINT('',(2.243236514522822,1.223236514522822,0.43));
#1435=VERTEX_POINT('',#1434);
#1436=CARTESIAN_POINT('',(2.243236514522822,1.223236514522822,0.43));
#1437=DIRECTION('',(-1.0,0.0,0.0));
#1438=VECTOR('',#1437,1.443236514522821);
#1439=LINE('',#1436,#1438);
#1440=EDGE_CURVE('',#1435,#1395,#1439,.T.);
#1441=ORIENTED_EDGE('',*,*,#1440,.F.);
#1442=CARTESIAN_POINT('',(2.243236514522822,-1.223236514522822,0.430000000000001));
#1443=VERTEX_POINT('',#1442);
#1444=CARTESIAN_POINT('',(2.243236514522822,-1.223236514522822,0.430000000000001));
#1445=DIRECTION('',(0.0,1.0,0.0));
#1446=VECTOR('',#1445,2.446473029045643);
#1447=LINE('',#1444,#1446);
#1448=EDGE_CURVE('',#1443,#1435,#1447,.T.);
#1449=ORIENTED_EDGE('',*,*,#1448,.F.);
#1450=CARTESIAN_POINT('',(0.8,-1.223236514522822,0.430000000000001));
#1451=DIRECTION('',(1.0,0.0,0.0));
#1452=VECTOR('',#1451,1.443236514522821);
#1453=LINE('',#1450,#1452);
#1454=EDGE_CURVE('',#1405,#1443,#1453,.T.);
#1455=ORIENTED_EDGE('',*,*,#1454,.F.);
#1456=ORIENTED_EDGE('',*,*,#1410,.F.);
#1457=EDGE_LOOP('',(#1441,#1449,#1455,#1456));
#1458=FACE_OUTER_BOUND('',#1457,.T.);
#1459=ADVANCED_FACE('',(#1458),#1433,.F.);
#1460=CARTESIAN_POINT('',(-2.270000000000001,-0.65,0.7525));
#1461=DIRECTION('',(-0.99657421784817,0.0,-0.082703254593209));
#1462=DIRECTION('',(-0.082703254593209,0.0,0.99657421784817));
#1463=AXIS2_PLACEMENT_3D('',#1460,#1461,#1462);
#1464=PLANE('',#1463);
#1465=ORIENTED_EDGE('',*,*,#1353,.T.);
#1466=CARTESIAN_POINT('',(-2.32,-1.3,1.355));
#1467=VERTEX_POINT('',#1466);
#1468=CARTESIAN_POINT('',(-2.243236514522822,-1.223236514522822,0.430000000000001));
#1469=DIRECTION('',(-0.082421859263559,-0.082421859263559,0.993183404125883));
#1470=VECTOR('',#1469,0.931348627209601);
#1471=LINE('',#1468,#1470);
#1472=EDGE_CURVE('',#1342,#1467,#1471,.T.);
#1473=ORIENTED_EDGE('',*,*,#1472,.T.);
#1474=CARTESIAN_POINT('',(-2.32,1.3,1.355));
#1475=VERTEX_POINT('',#1474);
#1476=CARTESIAN_POINT('',(-2.32,-1.3,1.355));
#1477=DIRECTION('',(0.0,1.0,0.0));
#1478=VECTOR('',#1477,2.6);
#1479=LINE('',#1476,#1478);
#1480=EDGE_CURVE('',#1467,#1475,#1479,.T.);
#1481=ORIENTED_EDGE('',*,*,#1480,.T.);
#1482=CARTESIAN_POINT('',(-2.243236514522822,1.223236514522822,0.43));
#1483=DIRECTION('',(-0.082421859263559,0.082421859263559,0.993183404125883));
#1484=VECTOR('',#1483,0.931348627209602);
#1485=LINE('',#1482,#1484);
#1486=EDGE_CURVE('',#1326,#1475,#1485,.T.);
#1487=ORIENTED_EDGE('',*,*,#1486,.F.);
#1488=EDGE_LOOP('',(#1465,#1473,#1481,#1487));
#1489=FACE_OUTER_BOUND('',#1488,.T.);
#1490=ADVANCED_FACE('',(#1489),#1464,.T.);
#1491=CARTESIAN_POINT('',(1.16,-1.25,0.7525));
#1492=DIRECTION('',(-9.538100E-017,-0.99657421784817,-0.082703254593209));
#1493=DIRECTION('',(0.0,0.082703254593209,-0.99657421784817));
#1494=AXIS2_PLACEMENT_3D('',#1491,#1492,#1493);
#1495=PLANE('',#1494);
#1496=ORIENTED_EDGE('',*,*,#1347,.T.);
#1497=ORIENTED_EDGE('',*,*,#1383,.T.);
#1498=CARTESIAN_POINT('',(-0.8,-1.2,0.15));
#1499=DIRECTION('',(1.0,0.0,0.0));
#1500=VECTOR('',#1499,1.600000000000001);
#1501=LINE('',#1498,#1500);
#1502=EDGE_CURVE('',#1372,#1413,#1501,.T.);
#1503=ORIENTED_EDGE('',*,*,#1502,.T.);
#1504=ORIENTED_EDGE('',*,*,#1418,.T.);
#1505=ORIENTED_EDGE('',*,*,#1454,.T.);
#1506=CARTESIAN_POINT('',(2.32,-1.300000000000001,1.355));
#1507=VERTEX_POINT('',#1506);
#1508=CARTESIAN_POINT('',(2.243236514522822,-1.223236514522822,0.430000000000001));
#1509=DIRECTION('',(0.082421859263559,-0.082421859263559,0.993183404125883));
#1510=VECTOR('',#1509,0.931348627209601);
#1511=LINE('',#1508,#1510);
#1512=EDGE_CURVE('',#1443,#1507,#1511,.T.);
#1513=ORIENTED_EDGE('',*,*,#1512,.T.);
#1514=CARTESIAN_POINT('',(2.32,-1.300000000000001,1.355));
#1515=DIRECTION('',(-1.0,0.0,0.0));
#1516=VECTOR('',#1515,4.640000000000001);
#1517=LINE('',#1514,#1516);
#1518=EDGE_CURVE('',#1507,#1467,#1517,.T.);
#1519=ORIENTED_EDGE('',*,*,#1518,.T.);
#1520=ORIENTED_EDGE('',*,*,#1472,.F.);
#1521=EDGE_LOOP('',(#1496,#1497,#1503,#1504,#1505,#1513,#1519,#1520));
#1522=FACE_OUTER_BOUND('',#1521,.T.);
#1523=ADVANCED_FACE('',(#1522),#1495,.T.);
#1524=CARTESIAN_POINT('',(-1.16,1.25,0.7525));
#1525=DIRECTION('',(0.0,0.99657421784817,-0.082703254593209));
#1526=DIRECTION('',(0.0,0.082703254593209,0.99657421784817));
#1527=AXIS2_PLACEMENT_3D('',#1524,#1525,#1526);
#1528=PLANE('',#1527);
#1529=ORIENTED_EDGE('',*,*,#1331,.T.);
#1530=ORIENTED_EDGE('',*,*,#1486,.T.);
#1531=CARTESIAN_POINT('',(2.32,1.3,1.355));
#1532=VERTEX_POINT('',#1531);
#1533=CARTESIAN_POINT('',(-2.32,1.3,1.355));
#1534=DIRECTION('',(1.0,0.0,0.0));
#1535=VECTOR('',#1534,4.640000000000001);
#1536=LINE('',#1533,#1535);
#1537=EDGE_CURVE('',#1475,#1532,#1536,.T.);
#1538=ORIENTED_EDGE('',*,*,#1537,.T.);
#1539=CARTESIAN_POINT('',(2.32,1.3,1.355));
#1540=DIRECTION('',(-0.082421859263559,-0.082421859263559,-0.993183404125883));
#1541=VECTOR('',#1540,0.931348627209602);
#1542=LINE('',#1539,#1541);
#1543=EDGE_CURVE('',#1532,#1435,#1542,.T.);
#1544=ORIENTED_EDGE('',*,*,#1543,.T.);
#1545=ORIENTED_EDGE('',*,*,#1440,.T.);
#1546=ORIENTED_EDGE('',*,*,#1402,.T.);
#1547=CARTESIAN_POINT('',(0.8,1.2,0.15));
#1548=DIRECTION('',(-1.0,0.0,0.0));
#1549=VECTOR('',#1548,1.600000000000001);
#1550=LINE('',#1547,#1549);
#1551=EDGE_CURVE('',#1397,#1364,#1550,.T.);
#1552=ORIENTED_EDGE('',*,*,#1551,.T.);
#1553=ORIENTED_EDGE('',*,*,#1369,.T.);
#1554=EDGE_LOOP('',(#1529,#1530,#1538,#1544,#1545,#1546,#1552,#1553));
#1555=FACE_OUTER_BOUND('',#1554,.T.);
#1556=ADVANCED_FACE('',(#1555),#1528,.T.);
#1557=CARTESIAN_POINT('',(2.270000000000001,0.65,0.7525));
#1558=DIRECTION('',(0.99657421784817,0.0,-0.082703254593209));
#1559=DIRECTION('',(-0.082703254593209,0.0,-0.99657421784817));
#1560=AXIS2_PLACEMENT_3D('',#1557,#1558,#1559);
#1561=PLANE('',#1560);
#1562=ORIENTED_EDGE('',*,*,#1448,.T.);
#1563=ORIENTED_EDGE('',*,*,#1543,.F.);
#1564=CARTESIAN_POINT('',(2.32,1.3,1.355));
#1565=DIRECTION('',(0.0,-1.0,0.0));
#1566=VECTOR('',#1565,2.600000000000001);
#1567=LINE('',#1564,#1566);
#1568=EDGE_CURVE('',#1532,#1507,#1567,.T.);
#1569=ORIENTED_EDGE('',*,*,#1568,.T.);
#1570=ORIENTED_EDGE('',*,*,#1512,.F.);
#1571=EDGE_LOOP('',(#1562,#1563,#1569,#1570));
#1572=FACE_OUTER_BOUND('',#1571,.T.);
#1573=ADVANCED_FACE('',(#1572),#1561,.T.);
#1574=CARTESIAN_POINT('',(5.551115E-017,-9.175650E-017,0.15));
#1575=DIRECTION('',(0.0,0.0,1.0));
#1576=DIRECTION('',(1.0,0.0,0.0));
#1577=AXIS2_PLACEMENT_3D('',#1574,#1575,#1576);
#1578=PLANE('',#1577);
#1579=ORIENTED_EDGE('',*,*,#1377,.T.);
#1580=ORIENTED_EDGE('',*,*,#1551,.F.);
#1581=ORIENTED_EDGE('',*,*,#1424,.T.);
#1582=ORIENTED_EDGE('',*,*,#1502,.F.);
#1583=EDGE_LOOP('',(#1579,#1580,#1581,#1582));
#1584=FACE_OUTER_BOUND('',#1583,.T.);
#1585=ADVANCED_FACE('',(#1584),#1578,.F.);
#1586=CARTESIAN_POINT('',(5.551115E-017,-9.175650E-017,1.355));
#1587=DIRECTION('',(0.0,0.0,1.0));
#1588=DIRECTION('',(1.0,0.0,0.0));
#1589=AXIS2_PLACEMENT_3D('',#1586,#1587,#1588);
#1590=PLANE('',#1589);
#1591=ORIENTED_EDGE('',*,*,#1568,.F.);
#1592=ORIENTED_EDGE('',*,*,#1537,.F.);
#1593=ORIENTED_EDGE('',*,*,#1480,.F.);
#1594=ORIENTED_EDGE('',*,*,#1518,.F.);
#1595=EDGE_LOOP('',(#1591,#1592,#1593,#1594));
#1596=FACE_OUTER_BOUND('',#1595,.T.);
#1597=ADVANCED_FACE('',(#1596),#1590,.T.);
#1598=CLOSED_SHELL('',(#1357,#1388,#1428,#1459,#1490,#1523,#1556,#1573,#1585,#1597));
#1599=MANIFOLD_SOLID_BREP('50D',#1598);
#1600=STYLED_ITEM('NONE',(#1316),#1599);
#1601=ADVANCED_BREP_SHAPE_REPRESENTATION('ABSR1',(#214,#374,#644,#795,#1016,#1309,#1599),#28);
#1602=SHAPE_REPRESENTATION_RELATIONSHIP('SRRPL1','',#1601,#62);
ENDSEC;
END-ISO-10303-21;
