ISO-10303-21;
HEADER;
/****************************************************************
 * Generated by software with PDElib inside                    *
 * PDElib Version v51a, created Wed 11/30/2011                  *
 * ITI Transcendata (http://www.transcendata.com/)              *
 ****************************************************************/
FILE_DESCRIPTION((''),'2;1');
FILE_NAME('ERNI_214363_Part1.stp','2015-01-15T13:26:12',(''),(''),'Mechanical Desktop 2011','Mechanical Desktop 2011',', , ');
FILE_SCHEMA(('AUTOMOTIVE_DESIGN { 1 2 10303 214 1 1 1 1 }'));
ENDSEC;
DATA;
#10=(NAMED_UNIT(*)PLANE_ANGLE_UNIT()SI_UNIT($,.RADIAN.));
#11=DIMENSIONAL_EXPONENTS(0.0,0.0,0.0,0.0,0.0,0.0,0.0);
#12=PLANE_ANGLE_MEASURE_WITH_UNIT(PLANE_ANGLE_MEASURE(0.0174532925),#10);
#16=(CONVERSION_BASED_UNIT('DEGREE',#12)NAMED_UNIT(#11)PLANE_ANGLE_UNIT());
#20=(NAMED_UNIT(*)SI_UNIT($,.STERADIAN.)SOLID_ANGLE_UNIT());
#24=(LENGTH_UNIT()NAMED_UNIT(*)SI_UNIT(.MILLI.,.METRE.));
#26=UNCERTAINTY_MEASURE_WITH_UNIT(LENGTH_MEASURE(0.000001),#24,'DISTANCE_ACCURACY_VALUE','');
#28=(GEOMETRIC_REPRESENTATION_CONTEXT(3)GLOBAL_UNCERTAINTY_ASSIGNED_CONTEXT((#26))GLOBAL_UNIT_ASSIGNED_CONTEXT((#16,#20,#24))REPRESENTATION_CONTEXT('','3D'));
#29=APPLICATION_CONTEXT('automotive design');
#30=APPLICATION_PROTOCOL_DEFINITION('INTERNATIONAL_STANDARD','automotive_design',1998,#29);
#31=PRODUCT_CONTEXT('3D Mechanical Parts',#29,'mechanical');
#32=PRODUCT('Product','Product','',(#31));
#33=PRODUCT_RELATED_PRODUCT_CATEGORY('part',$,(#32));
#34=PRODUCT_CATEGORY('part',$);
#35=PERSON('1','Design','Joe',$,$,$);
#36=ORGANIZATION($,'None','None');
#37=PERSON_AND_ORGANIZATION(#35,#36);
#38=PERSON_AND_ORGANIZATION_ROLE('design_owner');
#39=APPLIED_PERSON_AND_ORGANIZATION_ASSIGNMENT(#37,#38,(#32));
#40=PRODUCT_DEFINITION_FORMATION_WITH_SPECIFIED_SOURCE('None','',#32,.BOUGHT.);
#41=PERSON('2','Creator','Joe',$,$,$);
#42=ORGANIZATION($,'None','None');
#43=PERSON_AND_ORGANIZATION(#41,#42);
#44=PERSON_AND_ORGANIZATION_ROLE('creator');
#45=APPLIED_PERSON_AND_ORGANIZATION_ASSIGNMENT(#43,#44,(#40));
#46=PERSON('3','Supplier','Joe',$,$,$);
#47=ORGANIZATION($,'None','None');
#48=PERSON_AND_ORGANIZATION(#46,#47);
#49=PERSON_AND_ORGANIZATION_ROLE('design_supplier');
#50=APPLIED_PERSON_AND_ORGANIZATION_ASSIGNMENT(#48,#49,(#40));
#51=PRODUCT_DEFINITION_CONTEXT('part definition',#29,'design');
#52=PRODUCT_DEFINITION('None','',#40,#51);
#53=PERSON('4','Creator','Joe',$,$,$);
#54=ORGANIZATION($,'None','None');
#55=PERSON_AND_ORGANIZATION(#53,#54);
#56=PERSON_AND_ORGANIZATION_ROLE('creator');
#57=APPLIED_PERSON_AND_ORGANIZATION_ASSIGNMENT(#55,#56,(#52));
#58=CARTESIAN_POINT('NONE',(0.0,0.0,0.0));
#59=DIRECTION('NONE',(0.0,0.0,1.0));
#60=DIRECTION('NONE',(1.0,0.0,0.0));
#61=AXIS2_PLACEMENT_3D('NONE',#58,#59,#60);
#62=SHAPE_REPRESENTATION('SR1',(#61),#28);
#63=PRODUCT_DEFINITION_SHAPE('PDS1','Test Part',#52);
#64=SHAPE_DEFINITION_REPRESENTATION(#63,#62);
#65=CARTESIAN_POINT('',(0.0,0.0,0.0));
#66=DIRECTION('',(0.0,0.0,-1.0));
#67=DIRECTION('',(1.0,0.0,0.0));
#68=AXIS2_PLACEMENT_3D('',#65,#66,#67);
#69=CYLINDRICAL_SURFACE('',#68,2.0);
#70=CARTESIAN_POINT('',(2.0,-2.449294E-016,-7.5));
#71=VERTEX_POINT('',#70);
#72=CARTESIAN_POINT('',(2.0,0.0,0.0));
#73=VERTEX_POINT('',#72);
#74=CARTESIAN_POINT('',(2.0,0.0,-7.5));
#75=DIRECTION('',(0.0,0.0,1.0));
#76=VECTOR('',#75,7.5);
#77=LINE('',#74,#76);
#78=EDGE_CURVE('',#71,#73,#77,.T.);
#79=ORIENTED_EDGE('',*,*,#78,.F.);
#80=CARTESIAN_POINT('',(-2.0,0.0,-7.5));
#81=VERTEX_POINT('',#80);
#82=CARTESIAN_POINT('',(0.0,0.0,-7.5));
#83=DIRECTION('',(0.0,0.0,-1.0));
#84=DIRECTION('',(-1.0,0.0,0.0));
#85=AXIS2_PLACEMENT_3D('',#82,#83,#84);
#86=CIRCLE('',#85,2.0);
#87=EDGE_CURVE('',#81,#71,#86,.T.);
#88=ORIENTED_EDGE('',*,*,#87,.F.);
#89=CARTESIAN_POINT('',(-2.0,2.449294E-016,0.0));
#90=VERTEX_POINT('',#89);
#91=CARTESIAN_POINT('',(-2.0,2.449294E-016,-7.5));
#92=DIRECTION('',(0.0,0.0,1.0));
#93=VECTOR('',#92,7.5);
#94=LINE('',#91,#93);
#95=EDGE_CURVE('',#81,#90,#94,.T.);
#96=ORIENTED_EDGE('',*,*,#95,.T.);
#97=CARTESIAN_POINT('',(0.0,0.0,0.0));
#98=DIRECTION('',(0.0,0.0,1.0));
#99=DIRECTION('',(1.0,0.0,0.0));
#100=AXIS2_PLACEMENT_3D('',#97,#98,#99);
#101=CIRCLE('',#100,2.0);
#102=EDGE_CURVE('',#73,#90,#101,.T.);
#103=ORIENTED_EDGE('',*,*,#102,.F.);
#104=EDGE_LOOP('',(#79,#88,#96,#103));
#105=FACE_OUTER_BOUND('',#104,.T.);
#106=ADVANCED_FACE('',(#105),#69,.T.);
#107=CARTESIAN_POINT('',(0.0,0.0,-7.75));
#108=DIRECTION('',(0.0,0.0,1.0));
#109=DIRECTION('',(-1.0,0.0,0.0));
#110=AXIS2_PLACEMENT_3D('',#107,#108,#109);
#111=CONICAL_SURFACE('',#110,1.75,44.999999999999993);
#112=CARTESIAN_POINT('',(-1.5,0.0,-8.0));
#113=VERTEX_POINT('',#112);
#114=CARTESIAN_POINT('',(-2.0,0.0,-7.5));
#115=DIRECTION('',(0.707106781186547,0.0,-0.707106781186547));
#116=VECTOR('',#115,0.707106781186548);
#117=LINE('',#114,#116);
#118=EDGE_CURVE('',#81,#113,#117,.T.);
#119=ORIENTED_EDGE('',*,*,#118,.F.);
#120=ORIENTED_EDGE('',*,*,#87,.T.);
#121=CARTESIAN_POINT('',(1.5,1.836970E-016,-8.0));
#122=VERTEX_POINT('',#121);
#123=CARTESIAN_POINT('',(2.0,2.449294E-016,-7.5));
#124=DIRECTION('',(-0.707106781186547,-8.659561E-017,-0.707106781186547));
#125=VECTOR('',#124,0.707106781186548);
#126=LINE('',#123,#125);
#127=EDGE_CURVE('',#71,#122,#126,.T.);
#128=ORIENTED_EDGE('',*,*,#127,.T.);
#129=CARTESIAN_POINT('',(0.0,0.0,-8.0));
#130=DIRECTION('',(0.0,0.0,1.0));
#131=DIRECTION('',(-1.0,0.0,0.0));
#132=AXIS2_PLACEMENT_3D('',#129,#130,#131);
#133=CIRCLE('',#132,1.5);
#134=EDGE_CURVE('',#122,#113,#133,.T.);
#135=ORIENTED_EDGE('',*,*,#134,.T.);
#136=EDGE_LOOP('',(#119,#120,#128,#135));
#137=FACE_OUTER_BOUND('',#136,.T.);
#138=ADVANCED_FACE('',(#137),#111,.T.);
#139=CARTESIAN_POINT('',(0.0,0.0,-7.75));
#140=DIRECTION('',(0.0,0.0,1.0));
#141=DIRECTION('',(-1.0,0.0,0.0));
#142=AXIS2_PLACEMENT_3D('',#139,#140,#141);
#143=CONICAL_SURFACE('',#142,1.75,44.999999999999993);
#144=ORIENTED_EDGE('',*,*,#118,.T.);
#145=CARTESIAN_POINT('',(0.0,0.0,-8.0));
#146=DIRECTION('',(0.0,0.0,1.0));
#147=DIRECTION('',(-1.0,0.0,0.0));
#148=AXIS2_PLACEMENT_3D('',#145,#146,#147);
#149=CIRCLE('',#148,1.5);
#150=EDGE_CURVE('',#113,#122,#149,.T.);
#151=ORIENTED_EDGE('',*,*,#150,.T.);
#152=ORIENTED_EDGE('',*,*,#127,.F.);
#153=CARTESIAN_POINT('',(0.0,0.0,-7.5));
#154=DIRECTION('',(0.0,0.0,-1.0));
#155=DIRECTION('',(-1.0,0.0,0.0));
#156=AXIS2_PLACEMENT_3D('',#153,#154,#155);
#157=CIRCLE('',#156,2.0);
#158=EDGE_CURVE('',#71,#81,#157,.T.);
#159=ORIENTED_EDGE('',*,*,#158,.T.);
#160=EDGE_LOOP('',(#144,#151,#152,#159));
#161=FACE_OUTER_BOUND('',#160,.T.);
#162=ADVANCED_FACE('',(#161),#143,.T.);
#163=CARTESIAN_POINT('',(0.0,0.0,0.0));
#164=DIRECTION('',(0.0,0.0,-1.0));
#165=DIRECTION('',(1.0,0.0,0.0));
#166=AXIS2_PLACEMENT_3D('',#163,#164,#165);
#167=CYLINDRICAL_SURFACE('',#166,2.0);
#168=ORIENTED_EDGE('',*,*,#78,.T.);
#169=CARTESIAN_POINT('',(0.0,0.0,0.0));
#170=DIRECTION('',(0.0,0.0,1.0));
#171=DIRECTION('',(1.0,0.0,0.0));
#172=AXIS2_PLACEMENT_3D('',#169,#170,#171);
#173=CIRCLE('',#172,2.0);
#174=EDGE_CURVE('',#90,#73,#173,.T.);
#175=ORIENTED_EDGE('',*,*,#174,.F.);
#176=ORIENTED_EDGE('',*,*,#95,.F.);
#177=ORIENTED_EDGE('',*,*,#158,.F.);
#178=EDGE_LOOP('',(#168,#175,#176,#177));
#179=FACE_OUTER_BOUND('',#178,.T.);
#180=ADVANCED_FACE('',(#179),#167,.T.);
#181=CARTESIAN_POINT('',(0.0,0.0,-8.0));
#182=DIRECTION('',(0.0,0.0,1.0));
#183=DIRECTION('',(1.0,0.0,0.0));
#184=AXIS2_PLACEMENT_3D('',#181,#182,#183);
#185=PLANE('',#184);
#186=ORIENTED_EDGE('',*,*,#134,.F.);
#187=ORIENTED_EDGE('',*,*,#150,.F.);
#188=EDGE_LOOP('',(#186,#187));
#189=FACE_OUTER_BOUND('',#188,.T.);
#190=ADVANCED_FACE('',(#189),#185,.F.);
#191=CARTESIAN_POINT('',(0.0,0.0,0.0));
#192=DIRECTION('',(0.0,0.0,1.0));
#193=DIRECTION('',(1.0,0.0,0.0));
#194=AXIS2_PLACEMENT_3D('',#191,#192,#193);
#195=PLANE('',#194);
#196=ORIENTED_EDGE('',*,*,#102,.T.);
#197=ORIENTED_EDGE('',*,*,#174,.T.);
#198=EDGE_LOOP('',(#196,#197));
#199=FACE_OUTER_BOUND('',#198,.T.);
#200=ADVANCED_FACE('',(#199),#195,.T.);
#201=CLOSED_SHELL('',(#106,#138,#162,#180,#190,#200));
#202=MANIFOLD_SOLID_BREP('323D',#201);
#203=COLOUR_RGB('40',1.0,0.75,0.0);
#204=SURFACE_STYLE_USAGE(.BOTH.,#205);
#205=SURFACE_SIDE_STYLE('NONE',(#206));
#206=SURFACE_STYLE_FILL_AREA(#207);
#207=FILL_AREA_STYLE('NONE',(#208));
#208=FILL_AREA_STYLE_COLOUR('NONE',#203);
#209=PRESENTATION_STYLE_ASSIGNMENT((#204));
#210=STYLED_ITEM('NONE',(#209),#202);
#211=MECHANICAL_DESIGN_GEOMETRIC_PRESENTATION_REPRESENTATION('NONE',(#210,#334,#489,#602,#2223),#28);
#212=PRESENTATION_LAYER_ASSIGNMENT('3D','None',(#202,#326,#488,#601,#2222));
#213=CARTESIAN_POINT('',(8.5,0.0,0.0));
#214=DIRECTION('',(0.0,0.0,-1.0));
#215=DIRECTION('',(1.0,0.0,0.0));
#216=AXIS2_PLACEMENT_3D('',#213,#214,#215);
#217=CYLINDRICAL_SURFACE('',#216,1.15);
#218=CARTESIAN_POINT('',(9.65,0.0,-1.85));
#219=VERTEX_POINT('',#218);
#220=CARTESIAN_POINT('',(9.65,0.0,0.0));
#221=VERTEX_POINT('',#220);
#222=CARTESIAN_POINT('',(9.65,0.0,-1.85));
#223=DIRECTION('',(0.0,0.0,1.0));
#224=VECTOR('',#223,1.85);
#225=LINE('',#222,#224);
#226=EDGE_CURVE('',#219,#221,#225,.T.);
#227=ORIENTED_EDGE('',*,*,#226,.F.);
#228=CARTESIAN_POINT('',(7.35,1.408344E-016,-1.85));
#229=VERTEX_POINT('',#228);
#230=CARTESIAN_POINT('',(8.5,0.0,-1.85));
#231=DIRECTION('',(0.0,0.0,-1.0));
#232=DIRECTION('',(1.0,0.0,0.0));
#233=AXIS2_PLACEMENT_3D('',#230,#231,#232);
#234=CIRCLE('',#233,1.15);
#235=EDGE_CURVE('',#229,#219,#234,.T.);
#236=ORIENTED_EDGE('',*,*,#235,.F.);
#237=CARTESIAN_POINT('',(7.35,1.408344E-016,0.0));
#238=VERTEX_POINT('',#237);
#239=CARTESIAN_POINT('',(7.35,1.408344E-016,-1.85));
#240=DIRECTION('',(0.0,0.0,1.0));
#241=VECTOR('',#240,1.85);
#242=LINE('',#239,#241);
#243=EDGE_CURVE('',#229,#238,#242,.T.);
#244=ORIENTED_EDGE('',*,*,#243,.T.);
#245=CARTESIAN_POINT('',(8.5,0.0,0.0));
#246=DIRECTION('',(0.0,0.0,1.0));
#247=DIRECTION('',(1.0,0.0,0.0));
#248=AXIS2_PLACEMENT_3D('',#245,#246,#247);
#249=CIRCLE('',#248,1.15);
#250=EDGE_CURVE('',#221,#238,#249,.T.);
#251=ORIENTED_EDGE('',*,*,#250,.F.);
#252=EDGE_LOOP('',(#227,#236,#244,#251));
#253=FACE_OUTER_BOUND('',#252,.T.);
#254=ADVANCED_FACE('',(#253),#217,.T.);
#255=CARTESIAN_POINT('',(8.5,0.0,-1.85));
#256=DIRECTION('',(0.0,0.0,1.0));
#257=DIRECTION('',(1.0,0.0,0.0));
#258=AXIS2_PLACEMENT_3D('',#255,#256,#257);
#259=SPHERICAL_SURFACE('',#258,1.15);
#260=CARTESIAN_POINT('',(8.5,-8.623619E-033,-3.0));
#261=VERTEX_POINT('',#260);
#262=CARTESIAN_POINT('',(8.5,0.0,-1.85));
#263=DIRECTION('',(0.0,1.0,0.0));
#264=DIRECTION('',(1.0,0.0,0.0));
#265=AXIS2_PLACEMENT_3D('',#262,#263,#264);
#266=CIRCLE('',#265,1.15);
#267=EDGE_CURVE('',#219,#261,#266,.T.);
#268=ORIENTED_EDGE('',*,*,#267,.F.);
#269=CARTESIAN_POINT('',(8.5,0.0,-1.85));
#270=DIRECTION('',(0.0,0.0,-1.0));
#271=DIRECTION('',(1.0,0.0,0.0));
#272=AXIS2_PLACEMENT_3D('',#269,#270,#271);
#273=CIRCLE('',#272,1.15);
#274=EDGE_CURVE('',#219,#229,#273,.T.);
#275=ORIENTED_EDGE('',*,*,#274,.T.);
#276=CARTESIAN_POINT('',(8.5,0.0,-1.85));
#277=DIRECTION('',(0.0,-1.0,0.0));
#278=DIRECTION('',(-1.0,0.0,0.0));
#279=AXIS2_PLACEMENT_3D('',#276,#277,#278);
#280=CIRCLE('',#279,1.15);
#281=EDGE_CURVE('',#229,#261,#280,.T.);
#282=ORIENTED_EDGE('',*,*,#281,.T.);
#283=EDGE_LOOP('',(#268,#275,#282));
#284=FACE_OUTER_BOUND('',#283,.T.);
#285=ADVANCED_FACE('',(#284),#259,.T.);
#286=CARTESIAN_POINT('',(8.5,0.0,-1.85));
#287=DIRECTION('',(0.0,0.0,1.0));
#288=DIRECTION('',(1.0,0.0,0.0));
#289=AXIS2_PLACEMENT_3D('',#286,#287,#288);
#290=SPHERICAL_SURFACE('',#289,1.15);
#291=ORIENTED_EDGE('',*,*,#267,.T.);
#292=ORIENTED_EDGE('',*,*,#281,.F.);
#293=ORIENTED_EDGE('',*,*,#235,.T.);
#294=EDGE_LOOP('',(#291,#292,#293));
#295=FACE_OUTER_BOUND('',#294,.T.);
#296=ADVANCED_FACE('',(#295),#290,.T.);
#297=CARTESIAN_POINT('',(8.5,0.0,0.0));
#298=DIRECTION('',(0.0,0.0,-1.0));
#299=DIRECTION('',(1.0,0.0,0.0));
#300=AXIS2_PLACEMENT_3D('',#297,#298,#299);
#301=CYLINDRICAL_SURFACE('',#300,1.15);
#302=ORIENTED_EDGE('',*,*,#226,.T.);
#303=CARTESIAN_POINT('',(8.5,0.0,0.0));
#304=DIRECTION('',(0.0,0.0,1.0));
#305=DIRECTION('',(1.0,0.0,0.0));
#306=AXIS2_PLACEMENT_3D('',#303,#304,#305);
#307=CIRCLE('',#306,1.15);
#308=EDGE_CURVE('',#238,#221,#307,.T.);
#309=ORIENTED_EDGE('',*,*,#308,.F.);
#310=ORIENTED_EDGE('',*,*,#243,.F.);
#311=ORIENTED_EDGE('',*,*,#274,.F.);
#312=EDGE_LOOP('',(#302,#309,#310,#311));
#313=FACE_OUTER_BOUND('',#312,.T.);
#314=ADVANCED_FACE('',(#313),#301,.T.);
#315=CARTESIAN_POINT('',(8.5,0.0,0.0));
#316=DIRECTION('',(0.0,0.0,1.0));
#317=DIRECTION('',(1.0,0.0,0.0));
#318=AXIS2_PLACEMENT_3D('',#315,#316,#317);
#319=PLANE('',#318);
#320=ORIENTED_EDGE('',*,*,#250,.T.);
#321=ORIENTED_EDGE('',*,*,#308,.T.);
#322=EDGE_LOOP('',(#320,#321));
#323=FACE_OUTER_BOUND('',#322,.T.);
#324=ADVANCED_FACE('',(#323),#319,.T.);
#325=CLOSED_SHELL('',(#254,#285,#296,#314,#324));
#326=MANIFOLD_SOLID_BREP('3238',#325);
#327=DRAUGHTING_PRE_DEFINED_COLOUR('white');
#328=SURFACE_STYLE_USAGE(.BOTH.,#329);
#329=SURFACE_SIDE_STYLE('NONE',(#330));
#330=SURFACE_STYLE_FILL_AREA(#331);
#331=FILL_AREA_STYLE('NONE',(#332));
#332=FILL_AREA_STYLE_COLOUR('NONE',#327);
#333=PRESENTATION_STYLE_ASSIGNMENT((#328));
#334=STYLED_ITEM('NONE',(#333),#326);
#335=CARTESIAN_POINT('',(-1.951328E-012,3.603400E-015,3.0));
#336=DIRECTION('',(0.0,0.0,-1.0));
#337=DIRECTION('',(1.0,0.0,0.0));
#338=AXIS2_PLACEMENT_3D('',#335,#336,#337);
#339=CYLINDRICAL_SURFACE('',#338,3.600000000007944);
#340=CARTESIAN_POINT('',(2.199431744803327,-2.849999999999997,1.4));
#341=VERTEX_POINT('',#340);
#342=CARTESIAN_POINT('',(2.199431744803327,2.850000000000005,1.4));
#343=VERTEX_POINT('',#342);
#344=CARTESIAN_POINT('',(-1.951328E-012,3.603400E-015,1.4));
#345=DIRECTION('',(0.0,0.0,1.0));
#346=DIRECTION('',(1.0,0.0,0.0));
#347=AXIS2_PLACEMENT_3D('',#344,#345,#346);
#348=CIRCLE('',#347,3.600000000007944);
#349=EDGE_CURVE('',#341,#343,#348,.T.);
#350=ORIENTED_EDGE('',*,*,#349,.T.);
#351=CARTESIAN_POINT('',(2.199431744803327,2.850000000000005,3.0));
#352=VERTEX_POINT('',#351);
#353=CARTESIAN_POINT('',(2.199431744803327,2.850000000000005,3.0));
#354=DIRECTION('',(0.0,0.0,-1.0));
#355=VECTOR('',#354,1.600000000000001);
#356=LINE('',#353,#355);
#357=EDGE_CURVE('',#352,#343,#356,.T.);
#358=ORIENTED_EDGE('',*,*,#357,.F.);
#359=CARTESIAN_POINT('',(2.199431744803327,-2.849999999999997,3.0));
#360=VERTEX_POINT('',#359);
#361=CARTESIAN_POINT('',(-1.951328E-012,3.603400E-015,3.0));
#362=DIRECTION('',(0.0,0.0,1.0));
#363=DIRECTION('',(1.0,0.0,0.0));
#364=AXIS2_PLACEMENT_3D('',#361,#362,#363);
#365=CIRCLE('',#364,3.600000000007944);
#366=EDGE_CURVE('',#360,#352,#365,.T.);
#367=ORIENTED_EDGE('',*,*,#366,.F.);
#368=CARTESIAN_POINT('',(2.199431744803327,-2.849999999999997,3.0));
#369=DIRECTION('',(0.0,0.0,-1.0));
#370=VECTOR('',#369,1.600000000000001);
#371=LINE('',#368,#370);
#372=EDGE_CURVE('',#360,#341,#371,.T.);
#373=ORIENTED_EDGE('',*,*,#372,.T.);
#374=EDGE_LOOP('',(#350,#358,#367,#373));
#375=FACE_OUTER_BOUND('',#374,.T.);
#376=ADVANCED_FACE('',(#375),#339,.T.);
#377=CARTESIAN_POINT('',(2.199431744803327,2.850000000000005,3.0));
#378=DIRECTION('',(0.0,1.0,0.0));
#379=DIRECTION('',(0.0,0.0,1.0));
#380=AXIS2_PLACEMENT_3D('',#377,#378,#379);
#381=PLANE('',#380);
#382=CARTESIAN_POINT('',(-2.199431744783919,2.850000000000004,1.4));
#383=VERTEX_POINT('',#382);
#384=CARTESIAN_POINT('',(2.199431744803327,2.850000000000005,1.4));
#385=DIRECTION('',(-1.0,0.0,0.0));
#386=VECTOR('',#385,4.398863489587246);
#387=LINE('',#384,#386);
#388=EDGE_CURVE('',#343,#383,#387,.T.);
#389=ORIENTED_EDGE('',*,*,#388,.T.);
#390=CARTESIAN_POINT('',(-2.199431744783919,2.850000000000004,3.0));
#391=VERTEX_POINT('',#390);
#392=CARTESIAN_POINT('',(-2.199431744783919,2.850000000000004,3.0));
#393=DIRECTION('',(0.0,0.0,-1.0));
#394=VECTOR('',#393,1.600000000000001);
#395=LINE('',#392,#394);
#396=EDGE_CURVE('',#391,#383,#395,.T.);
#397=ORIENTED_EDGE('',*,*,#396,.F.);
#398=CARTESIAN_POINT('',(2.199431744803327,2.850000000000005,3.0));
#399=DIRECTION('',(-1.0,0.0,0.0));
#400=VECTOR('',#399,4.398863489587246);
#401=LINE('',#398,#400);
#402=EDGE_CURVE('',#352,#391,#401,.T.);
#403=ORIENTED_EDGE('',*,*,#402,.F.);
#404=ORIENTED_EDGE('',*,*,#357,.T.);
#405=EDGE_LOOP('',(#389,#397,#403,#404));
#406=FACE_OUTER_BOUND('',#405,.T.);
#407=ADVANCED_FACE('',(#406),#381,.T.);
#408=CARTESIAN_POINT('',(-2.817302E-012,3.381355E-015,3.0));
#409=DIRECTION('',(0.0,0.0,-1.0));
#410=DIRECTION('',(-1.0,0.0,0.0));
#411=AXIS2_PLACEMENT_3D('',#408,#409,#410);
#412=CYLINDRICAL_SURFACE('',#411,3.599999999993173);
#413=CARTESIAN_POINT('',(-2.199431744783919,-2.849999999999997,1.4));
#414=VERTEX_POINT('',#413);
#415=CARTESIAN_POINT('',(-2.817302E-012,3.381355E-015,1.4));
#416=DIRECTION('',(0.0,0.0,1.0));
#417=DIRECTION('',(-1.0,0.0,0.0));
#418=AXIS2_PLACEMENT_3D('',#415,#416,#417);
#419=CIRCLE('',#418,3.599999999993173);
#420=EDGE_CURVE('',#383,#414,#419,.T.);
#421=ORIENTED_EDGE('',*,*,#420,.T.);
#422=CARTESIAN_POINT('',(-2.199431744783919,-2.849999999999997,3.0));
#423=VERTEX_POINT('',#422);
#424=CARTESIAN_POINT('',(-2.199431744783919,-2.849999999999997,3.0));
#425=DIRECTION('',(0.0,0.0,-1.0));
#426=VECTOR('',#425,1.600000000000001);
#427=LINE('',#424,#426);
#428=EDGE_CURVE('',#423,#414,#427,.T.);
#429=ORIENTED_EDGE('',*,*,#428,.F.);
#430=CARTESIAN_POINT('',(-2.817302E-012,3.381355E-015,3.0));
#431=DIRECTION('',(0.0,0.0,1.0));
#432=DIRECTION('',(-1.0,0.0,0.0));
#433=AXIS2_PLACEMENT_3D('',#430,#431,#432);
#434=CIRCLE('',#433,3.599999999993173);
#435=EDGE_CURVE('',#391,#423,#434,.T.);
#436=ORIENTED_EDGE('',*,*,#435,.F.);
#437=ORIENTED_EDGE('',*,*,#396,.T.);
#438=EDGE_LOOP('',(#421,#429,#436,#437));
#439=FACE_OUTER_BOUND('',#438,.T.);
#440=ADVANCED_FACE('',(#439),#412,.T.);
#441=CARTESIAN_POINT('',(-2.199431744783919,-2.849999999999997,3.0));
#442=DIRECTION('',(0.0,-1.0,0.0));
#443=DIRECTION('',(0.0,0.0,-1.0));
#444=AXIS2_PLACEMENT_3D('',#441,#442,#443);
#445=PLANE('',#444);
#446=CARTESIAN_POINT('',(-2.199431744783919,-2.849999999999997,1.4));
#447=DIRECTION('',(1.0,0.0,0.0));
#448=VECTOR('',#447,4.398863489587246);
#449=LINE('',#446,#448);
#450=EDGE_CURVE('',#414,#341,#449,.T.);
#451=ORIENTED_EDGE('',*,*,#450,.T.);
#452=ORIENTED_EDGE('',*,*,#372,.F.);
#453=CARTESIAN_POINT('',(-2.199431744783919,-2.849999999999997,3.0));
#454=DIRECTION('',(1.0,0.0,0.0));
#455=VECTOR('',#454,4.398863489587246);
#456=LINE('',#453,#455);
#457=EDGE_CURVE('',#423,#360,#456,.T.);
#458=ORIENTED_EDGE('',*,*,#457,.F.);
#459=ORIENTED_EDGE('',*,*,#428,.T.);
#460=EDGE_LOOP('',(#451,#452,#458,#459));
#461=FACE_OUTER_BOUND('',#460,.T.);
#462=ADVANCED_FACE('',(#461),#445,.T.);
#463=CARTESIAN_POINT('',(6.519896E-012,3.714746E-015,1.4));
#464=DIRECTION('',(0.0,0.0,1.0));
#465=DIRECTION('',(1.0,0.0,0.0));
#466=AXIS2_PLACEMENT_3D('',#463,#464,#465);
#467=PLANE('',#466);
#468=ORIENTED_EDGE('',*,*,#349,.F.);
#469=ORIENTED_EDGE('',*,*,#450,.F.);
#470=ORIENTED_EDGE('',*,*,#420,.F.);
#471=ORIENTED_EDGE('',*,*,#388,.F.);
#472=EDGE_LOOP('',(#468,#469,#470,#471));
#473=FACE_OUTER_BOUND('',#472,.T.);
#474=ADVANCED_FACE('',(#473),#467,.F.);
#475=CARTESIAN_POINT('',(6.519896E-012,3.630073E-015,3.0));
#476=DIRECTION('',(0.0,0.0,1.0));
#477=DIRECTION('',(1.0,0.0,0.0));
#478=AXIS2_PLACEMENT_3D('',#475,#476,#477);
#479=PLANE('',#478);
#480=ORIENTED_EDGE('',*,*,#457,.T.);
#481=ORIENTED_EDGE('',*,*,#366,.T.);
#482=ORIENTED_EDGE('',*,*,#402,.T.);
#483=ORIENTED_EDGE('',*,*,#435,.T.);
#484=EDGE_LOOP('',(#480,#481,#482,#483));
#485=FACE_OUTER_BOUND('',#484,.T.);
#486=ADVANCED_FACE('',(#485),#479,.T.);
#487=CLOSED_SHELL('',(#376,#407,#440,#462,#474,#486));
#488=MANIFOLD_SOLID_BREP('321B',#487);
#489=STYLED_ITEM('NONE',(#209),#488);
#490=CARTESIAN_POINT('',(-2.819078E-012,3.552714E-015,3.0));
#491=DIRECTION('',(0.0,0.0,1.0));
#492=DIRECTION('',(1.0,0.0,0.0));
#493=AXIS2_PLACEMENT_3D('',#490,#491,#492);
#494=CYLINDRICAL_SURFACE('',#493,2.5);
#495=CARTESIAN_POINT('',(2.499999999997181,3.552714E-015,20.0));
#496=VERTEX_POINT('',#495);
#497=CARTESIAN_POINT('',(2.499999999997181,3.552714E-015,3.0));
#498=VERTEX_POINT('',#497);
#499=CARTESIAN_POINT('',(2.499999999997181,3.552714E-015,20.0));
#500=DIRECTION('',(0.0,0.0,-1.0));
#501=VECTOR('',#500,17.0);
#502=LINE('',#499,#501);
#503=EDGE_CURVE('',#496,#498,#502,.T.);
#504=ORIENTED_EDGE('',*,*,#503,.F.);
#505=CARTESIAN_POINT('',(-2.500000000002819,3.246552E-015,20.0));
#506=VERTEX_POINT('',#505);
#507=CARTESIAN_POINT('',(-2.819078E-012,3.552714E-015,20.0));
#508=DIRECTION('',(0.0,0.0,1.0));
#509=DIRECTION('',(1.0,0.0,0.0));
#510=AXIS2_PLACEMENT_3D('',#507,#508,#509);
#511=CIRCLE('',#510,2.5);
#512=EDGE_CURVE('',#506,#496,#511,.T.);
#513=ORIENTED_EDGE('',*,*,#512,.F.);
#514=CARTESIAN_POINT('',(-2.500000000002819,3.246552E-015,3.0));
#515=VERTEX_POINT('',#514);
#516=CARTESIAN_POINT('',(-2.500000000002819,3.246552E-015,20.0));
#517=DIRECTION('',(0.0,0.0,-1.0));
#518=VECTOR('',#517,17.0);
#519=LINE('',#516,#518);
#520=EDGE_CURVE('',#506,#515,#519,.T.);
#521=ORIENTED_EDGE('',*,*,#520,.T.);
#522=CARTESIAN_POINT('',(-2.819078E-012,3.552714E-015,3.0));
#523=DIRECTION('',(0.0,0.0,1.0));
#524=DIRECTION('',(1.0,0.0,0.0));
#525=AXIS2_PLACEMENT_3D('',#522,#523,#524);
#526=CIRCLE('',#525,2.5);
#527=EDGE_CURVE('',#515,#498,#526,.T.);
#528=ORIENTED_EDGE('',*,*,#527,.T.);
#529=EDGE_LOOP('',(#504,#513,#521,#528));
#530=FACE_OUTER_BOUND('',#529,.T.);
#531=ADVANCED_FACE('',(#530),#494,.T.);
#532=CARTESIAN_POINT('',(-2.819078E-012,3.552714E-015,20.0));
#533=DIRECTION('',(0.0,0.0,-1.0));
#534=DIRECTION('',(1.0,0.0,0.0));
#535=AXIS2_PLACEMENT_3D('',#532,#533,#534);
#536=CONICAL_SURFACE('',#535,2.5,32.005383208083494);
#537=CARTESIAN_POINT('',(-2.819078E-012,3.552714E-015,24.0));
#538=VERTEX_POINT('',#537);
#539=CARTESIAN_POINT('',(2.499999999997181,3.552714E-015,20.0));
#540=DIRECTION('',(-0.52999894000318,0.0,0.847998304005088));
#541=VECTOR('',#540,4.716990566028302);
#542=LINE('',#539,#541);
#543=EDGE_CURVE('',#496,#538,#542,.T.);
#544=ORIENTED_EDGE('',*,*,#543,.F.);
#545=CARTESIAN_POINT('',(-2.819078E-012,3.552714E-015,20.0));
#546=DIRECTION('',(0.0,0.0,1.0));
#547=DIRECTION('',(1.0,0.0,0.0));
#548=AXIS2_PLACEMENT_3D('',#545,#546,#547);
#549=CIRCLE('',#548,2.5);
#550=EDGE_CURVE('',#496,#506,#549,.T.);
#551=ORIENTED_EDGE('',*,*,#550,.T.);
#552=CARTESIAN_POINT('',(-2.500000000002819,3.858875E-015,20.0));
#553=DIRECTION('',(0.52999894000318,-6.490615E-017,0.847998304005088));
#554=VECTOR('',#553,4.716990566028302);
#555=LINE('',#552,#554);
#556=EDGE_CURVE('',#506,#538,#555,.T.);
#557=ORIENTED_EDGE('',*,*,#556,.T.);
#558=EDGE_LOOP('',(#544,#551,#557));
#559=FACE_OUTER_BOUND('',#558,.T.);
#560=ADVANCED_FACE('',(#559),#536,.T.);
#561=CARTESIAN_POINT('',(-2.819078E-012,3.552714E-015,20.0));
#562=DIRECTION('',(0.0,0.0,-1.0));
#563=DIRECTION('',(1.0,0.0,0.0));
#564=AXIS2_PLACEMENT_3D('',#561,#562,#563);
#565=CONICAL_SURFACE('',#564,2.5,32.005383208083494);
#566=ORIENTED_EDGE('',*,*,#543,.T.);
#567=ORIENTED_EDGE('',*,*,#556,.F.);
#568=ORIENTED_EDGE('',*,*,#512,.T.);
#569=EDGE_LOOP('',(#566,#567,#568));
#570=FACE_OUTER_BOUND('',#569,.T.);
#571=ADVANCED_FACE('',(#570),#565,.T.);
#572=CARTESIAN_POINT('',(-2.819078E-012,3.552714E-015,3.0));
#573=DIRECTION('',(0.0,0.0,1.0));
#574=DIRECTION('',(1.0,0.0,0.0));
#575=AXIS2_PLACEMENT_3D('',#572,#573,#574);
#576=CYLINDRICAL_SURFACE('',#575,2.5);
#577=ORIENTED_EDGE('',*,*,#503,.T.);
#578=CARTESIAN_POINT('',(-2.819078E-012,3.552714E-015,3.0));
#579=DIRECTION('',(0.0,0.0,1.0));
#580=DIRECTION('',(1.0,0.0,0.0));
#581=AXIS2_PLACEMENT_3D('',#578,#579,#580);
#582=CIRCLE('',#581,2.5);
#583=EDGE_CURVE('',#498,#515,#582,.T.);
#584=ORIENTED_EDGE('',*,*,#583,.T.);
#585=ORIENTED_EDGE('',*,*,#520,.F.);
#586=ORIENTED_EDGE('',*,*,#550,.F.);
#587=EDGE_LOOP('',(#577,#584,#585,#586));
#588=FACE_OUTER_BOUND('',#587,.T.);
#589=ADVANCED_FACE('',(#588),#576,.T.);
#590=CARTESIAN_POINT('',(-2.819078E-012,3.552714E-015,3.0));
#591=DIRECTION('',(0.0,0.0,1.0));
#592=DIRECTION('',(1.0,0.0,0.0));
#593=AXIS2_PLACEMENT_3D('',#590,#591,#592);
#594=PLANE('',#593);
#595=ORIENTED_EDGE('',*,*,#583,.F.);
#596=ORIENTED_EDGE('',*,*,#527,.F.);
#597=EDGE_LOOP('',(#595,#596));
#598=FACE_OUTER_BOUND('',#597,.T.);
#599=ADVANCED_FACE('',(#598),#594,.F.);
#600=CLOSED_SHELL('',(#531,#560,#571,#589,#599));
#601=MANIFOLD_SOLID_BREP('3212',#600);
#602=STYLED_ITEM('NONE',(#209),#601);
#603=CARTESIAN_POINT('',(5.950000000000003,-0.550000000000004,0.0));
#604=DIRECTION('',(-1.0,0.0,0.0));
#605=DIRECTION('',(0.0,0.0,1.0));
#606=AXIS2_PLACEMENT_3D('',#603,#604,#605);
#607=PLANE('',#606);
#608=CARTESIAN_POINT('',(5.950000000000003,-0.550000000000004,1.4));
#609=VERTEX_POINT('',#608);
#610=CARTESIAN_POINT('',(5.950000000000003,0.549999999999997,1.4));
#611=VERTEX_POINT('',#610);
#612=CARTESIAN_POINT('',(5.950000000000003,-0.550000000000004,1.4));
#613=DIRECTION('',(0.0,1.0,0.0));
#614=VECTOR('',#613,1.100000000000001);
#615=LINE('',#612,#614);
#616=EDGE_CURVE('',#609,#611,#615,.T.);
#617=ORIENTED_EDGE('',*,*,#616,.F.);
#618=CARTESIAN_POINT('',(5.950000000000003,-0.550000000000004,0.0));
#619=VERTEX_POINT('',#618);
#620=CARTESIAN_POINT('',(5.950000000000003,-0.550000000000004,0.0));
#621=DIRECTION('',(0.0,0.0,1.0));
#622=VECTOR('',#621,1.4);
#623=LINE('',#620,#622);
#624=EDGE_CURVE('',#619,#609,#623,.T.);
#625=ORIENTED_EDGE('',*,*,#624,.F.);
#626=CARTESIAN_POINT('',(5.950000000000003,0.549999999999997,0.0));
#627=VERTEX_POINT('',#626);
#628=CARTESIAN_POINT('',(5.950000000000003,0.549999999999997,0.0));
#629=DIRECTION('',(0.0,-1.0,0.0));
#630=VECTOR('',#629,1.100000000000001);
#631=LINE('',#628,#630);
#632=EDGE_CURVE('',#627,#619,#631,.T.);
#633=ORIENTED_EDGE('',*,*,#632,.F.);
#634=CARTESIAN_POINT('',(5.950000000000003,0.549999999999997,0.0));
#635=DIRECTION('',(0.0,0.0,1.0));
#636=VECTOR('',#635,1.4);
#637=LINE('',#634,#636);
#638=EDGE_CURVE('',#627,#611,#637,.T.);
#639=ORIENTED_EDGE('',*,*,#638,.T.);
#640=EDGE_LOOP('',(#617,#625,#633,#639));
#641=FACE_OUTER_BOUND('',#640,.T.);
#642=ADVANCED_FACE('',(#641),#607,.F.);
#643=CARTESIAN_POINT('',(5.950000000000003,0.549999999999997,0.0));
#644=DIRECTION('',(0.0,1.0,0.0));
#645=DIRECTION('',(0.0,0.0,1.0));
#646=AXIS2_PLACEMENT_3D('',#643,#644,#645);
#647=PLANE('',#646);
#648=CARTESIAN_POINT('',(7.049999999999997,0.549999999999997,1.4));
#649=VERTEX_POINT('',#648);
#650=CARTESIAN_POINT('',(5.950000000000003,0.549999999999997,1.4));
#651=DIRECTION('',(1.0,0.0,0.0));
#652=VECTOR('',#651,1.099999999999994);
#653=LINE('',#650,#652);
#654=EDGE_CURVE('',#611,#649,#653,.T.);
#655=ORIENTED_EDGE('',*,*,#654,.F.);
#656=ORIENTED_EDGE('',*,*,#638,.F.);
#657=CARTESIAN_POINT('',(7.049999999999997,0.549999999999997,0.0));
#658=VERTEX_POINT('',#657);
#659=CARTESIAN_POINT('',(7.049999999999997,0.549999999999997,0.0));
#660=DIRECTION('',(-1.0,0.0,0.0));
#661=VECTOR('',#660,1.099999999999994);
#662=LINE('',#659,#661);
#663=EDGE_CURVE('',#658,#627,#662,.T.);
#664=ORIENTED_EDGE('',*,*,#663,.F.);
#665=CARTESIAN_POINT('',(7.049999999999997,0.549999999999997,0.0));
#666=DIRECTION('',(0.0,0.0,1.0));
#667=VECTOR('',#666,1.4);
#668=LINE('',#665,#667);
#669=EDGE_CURVE('',#658,#649,#668,.T.);
#670=ORIENTED_EDGE('',*,*,#669,.T.);
#671=EDGE_LOOP('',(#655,#656,#664,#670));
#672=FACE_OUTER_BOUND('',#671,.T.);
#673=ADVANCED_FACE('',(#672),#647,.F.);
#674=CARTESIAN_POINT('',(7.049999999999997,0.549999999999997,0.0));
#675=DIRECTION('',(1.0,0.0,0.0));
#676=DIRECTION('',(0.0,0.0,-1.0));
#677=AXIS2_PLACEMENT_3D('',#674,#675,#676);
#678=PLANE('',#677);
#679=CARTESIAN_POINT('',(7.049999999999997,-0.550000000000004,1.4));
#680=VERTEX_POINT('',#679);
#681=CARTESIAN_POINT('',(7.049999999999997,0.549999999999997,1.4));
#682=DIRECTION('',(0.0,-1.0,0.0));
#683=VECTOR('',#682,1.100000000000001);
#684=LINE('',#681,#683);
#685=EDGE_CURVE('',#649,#680,#684,.T.);
#686=ORIENTED_EDGE('',*,*,#685,.F.);
#687=ORIENTED_EDGE('',*,*,#669,.F.);
#688=CARTESIAN_POINT('',(7.049999999999997,-0.550000000000004,0.0));
#689=VERTEX_POINT('',#688);
#690=CARTESIAN_POINT('',(7.049999999999997,-0.550000000000004,0.0));
#691=DIRECTION('',(0.0,1.0,0.0));
#692=VECTOR('',#691,1.100000000000001);
#693=LINE('',#690,#692);
#694=EDGE_CURVE('',#689,#658,#693,.T.);
#695=ORIENTED_EDGE('',*,*,#694,.F.);
#696=CARTESIAN_POINT('',(7.049999999999997,-0.550000000000004,0.0));
#697=DIRECTION('',(0.0,0.0,1.0));
#698=VECTOR('',#697,1.4);
#699=LINE('',#696,#698);
#700=EDGE_CURVE('',#689,#680,#699,.T.);
#701=ORIENTED_EDGE('',*,*,#700,.T.);
#702=EDGE_LOOP('',(#686,#687,#695,#701));
#703=FACE_OUTER_BOUND('',#702,.T.);
#704=ADVANCED_FACE('',(#703),#678,.F.);
#705=CARTESIAN_POINT('',(7.049999999999997,-0.550000000000004,0.0));
#706=DIRECTION('',(0.0,-1.0,0.0));
#707=DIRECTION('',(0.0,0.0,-1.0));
#708=AXIS2_PLACEMENT_3D('',#705,#706,#707);
#709=PLANE('',#708);
#710=CARTESIAN_POINT('',(7.049999999999997,-0.550000000000004,1.4));
#711=DIRECTION('',(-1.0,0.0,0.0));
#712=VECTOR('',#711,1.099999999999994);
#713=LINE('',#710,#712);
#714=EDGE_CURVE('',#680,#609,#713,.T.);
#715=ORIENTED_EDGE('',*,*,#714,.F.);
#716=ORIENTED_EDGE('',*,*,#700,.F.);
#717=CARTESIAN_POINT('',(5.950000000000003,-0.550000000000004,0.0));
#718=DIRECTION('',(1.0,0.0,0.0));
#719=VECTOR('',#718,1.099999999999994);
#720=LINE('',#717,#719);
#721=EDGE_CURVE('',#619,#689,#720,.T.);
#722=ORIENTED_EDGE('',*,*,#721,.F.);
#723=ORIENTED_EDGE('',*,*,#624,.T.);
#724=EDGE_LOOP('',(#715,#716,#722,#723));
#725=FACE_OUTER_BOUND('',#724,.T.);
#726=ADVANCED_FACE('',(#725),#709,.F.);
#727=CARTESIAN_POINT('',(10.700000000000003,-1.600000000000001,1.4));
#728=DIRECTION('',(-1.0,0.0,0.0));
#729=DIRECTION('',(0.0,0.0,1.0));
#730=AXIS2_PLACEMENT_3D('',#727,#728,#729);
#731=PLANE('',#730);
#732=CARTESIAN_POINT('',(10.700000000000003,-1.600000000000001,2.220446E-016));
#733=VERTEX_POINT('',#732);
#734=CARTESIAN_POINT('',(10.700000000000003,-2.825000000000003,2.220446E-016));
#735=VERTEX_POINT('',#734);
#736=CARTESIAN_POINT('',(10.700000000000003,-1.600000000000001,0.0));
#737=DIRECTION('',(0.0,-1.0,0.0));
#738=VECTOR('',#737,1.225000000000001);
#739=LINE('',#736,#738);
#740=EDGE_CURVE('',#733,#735,#739,.T.);
#741=ORIENTED_EDGE('',*,*,#740,.F.);
#742=CARTESIAN_POINT('',(10.700000000000003,-1.600000000000001,1.4));
#743=VERTEX_POINT('',#742);
#744=CARTESIAN_POINT('',(10.700000000000003,-1.600000000000001,1.4));
#745=DIRECTION('',(0.0,0.0,-1.0));
#746=VECTOR('',#745,1.4);
#747=LINE('',#744,#746);
#748=EDGE_CURVE('',#743,#733,#747,.T.);
#749=ORIENTED_EDGE('',*,*,#748,.F.);
#750=CARTESIAN_POINT('',(10.700000000000003,-2.825000000000003,1.4));
#751=VERTEX_POINT('',#750);
#752=CARTESIAN_POINT('',(10.700000000000003,-2.825000000000003,1.4));
#753=DIRECTION('',(0.0,1.0,0.0));
#754=VECTOR('',#753,1.225000000000001);
#755=LINE('',#752,#754);
#756=EDGE_CURVE('',#751,#743,#755,.T.);
#757=ORIENTED_EDGE('',*,*,#756,.F.);
#758=CARTESIAN_POINT('',(10.700000000000003,-2.825000000000003,1.4));
#759=DIRECTION('',(0.0,0.0,-1.0));
#760=VECTOR('',#759,1.4);
#761=LINE('',#758,#760);
#762=EDGE_CURVE('',#751,#735,#761,.T.);
#763=ORIENTED_EDGE('',*,*,#762,.T.);
#764=EDGE_LOOP('',(#741,#749,#757,#763));
#765=FACE_OUTER_BOUND('',#764,.T.);
#766=ADVANCED_FACE('',(#765),#731,.F.);
#767=CARTESIAN_POINT('',(10.700000000000003,-2.825000000000003,1.4));
#768=DIRECTION('',(0.0,-1.0,0.0));
#769=DIRECTION('',(0.0,0.0,-1.0));
#770=AXIS2_PLACEMENT_3D('',#767,#768,#769);
#771=PLANE('',#770);
#772=CARTESIAN_POINT('',(12.100000000000001,-2.825000000000003,2.220446E-016));
#773=VERTEX_POINT('',#772);
#774=CARTESIAN_POINT('',(10.700000000000003,-2.825000000000003,0.0));
#775=DIRECTION('',(1.0,0.0,0.0));
#776=VECTOR('',#775,1.399999999999999);
#777=LINE('',#774,#776);
#778=EDGE_CURVE('',#735,#773,#777,.T.);
#779=ORIENTED_EDGE('',*,*,#778,.F.);
#780=ORIENTED_EDGE('',*,*,#762,.F.);
#781=CARTESIAN_POINT('',(12.100000000000001,-2.825000000000003,1.4));
#782=VERTEX_POINT('',#781);
#783=CARTESIAN_POINT('',(12.100000000000001,-2.825000000000003,1.4));
#784=DIRECTION('',(-1.0,0.0,0.0));
#785=VECTOR('',#784,1.399999999999999);
#786=LINE('',#783,#785);
#787=EDGE_CURVE('',#782,#751,#786,.T.);
#788=ORIENTED_EDGE('',*,*,#787,.F.);
#789=CARTESIAN_POINT('',(12.100000000000001,-2.825000000000003,1.4));
#790=DIRECTION('',(0.0,0.0,-1.0));
#791=VECTOR('',#790,1.4);
#792=LINE('',#789,#791);
#793=EDGE_CURVE('',#782,#773,#792,.T.);
#794=ORIENTED_EDGE('',*,*,#793,.T.);
#795=EDGE_LOOP('',(#779,#780,#788,#794));
#796=FACE_OUTER_BOUND('',#795,.T.);
#797=ADVANCED_FACE('',(#796),#771,.F.);
#798=CARTESIAN_POINT('',(12.100000000000001,-1.600000000000001,1.4));
#799=DIRECTION('',(0.0,1.0,0.0));
#800=DIRECTION('',(0.0,0.0,1.0));
#801=AXIS2_PLACEMENT_3D('',#798,#799,#800);
#802=PLANE('',#801);
#803=CARTESIAN_POINT('',(12.100000000000001,-1.600000000000001,2.220446E-016));
#804=VERTEX_POINT('',#803);
#805=CARTESIAN_POINT('',(12.100000000000001,-1.600000000000001,0.0));
#806=DIRECTION('',(-1.0,0.0,0.0));
#807=VECTOR('',#806,1.399999999999999);
#808=LINE('',#805,#807);
#809=EDGE_CURVE('',#804,#733,#808,.T.);
#810=ORIENTED_EDGE('',*,*,#809,.F.);
#811=CARTESIAN_POINT('',(12.100000000000001,-1.600000000000001,1.4));
#812=VERTEX_POINT('',#811);
#813=CARTESIAN_POINT('',(12.100000000000001,-1.600000000000001,1.4));
#814=DIRECTION('',(0.0,0.0,-1.0));
#815=VECTOR('',#814,1.4);
#816=LINE('',#813,#815);
#817=EDGE_CURVE('',#812,#804,#816,.T.);
#818=ORIENTED_EDGE('',*,*,#817,.F.);
#819=CARTESIAN_POINT('',(10.700000000000003,-1.600000000000001,1.4));
#820=DIRECTION('',(1.0,0.0,0.0));
#821=VECTOR('',#820,1.399999999999999);
#822=LINE('',#819,#821);
#823=EDGE_CURVE('',#743,#812,#822,.T.);
#824=ORIENTED_EDGE('',*,*,#823,.F.);
#825=ORIENTED_EDGE('',*,*,#748,.T.);
#826=EDGE_LOOP('',(#810,#818,#824,#825));
#827=FACE_OUTER_BOUND('',#826,.T.);
#828=ADVANCED_FACE('',(#827),#802,.F.);
#829=CARTESIAN_POINT('',(4.899999999999999,1.599999999999994,1.4));
#830=DIRECTION('',(0.0,-1.0,0.0));
#831=DIRECTION('',(0.0,0.0,-1.0));
#832=AXIS2_PLACEMENT_3D('',#829,#830,#831);
#833=PLANE('',#832);
#834=CARTESIAN_POINT('',(4.899999999999999,1.599999999999994,2.220446E-016));
#835=VERTEX_POINT('',#834);
#836=CARTESIAN_POINT('',(6.299999999999997,1.599999999999994,2.220446E-016));
#837=VERTEX_POINT('',#836);
#838=CARTESIAN_POINT('',(4.899999999999999,1.599999999999994,0.0));
#839=DIRECTION('',(1.0,0.0,0.0));
#840=VECTOR('',#839,1.399999999999999);
#841=LINE('',#838,#840);
#842=EDGE_CURVE('',#835,#837,#841,.T.);
#843=ORIENTED_EDGE('',*,*,#842,.F.);
#844=CARTESIAN_POINT('',(4.899999999999999,1.599999999999994,1.4));
#845=VERTEX_POINT('',#844);
#846=CARTESIAN_POINT('',(4.899999999999999,1.599999999999994,1.4));
#847=DIRECTION('',(0.0,0.0,-1.0));
#848=VECTOR('',#847,1.4);
#849=LINE('',#846,#848);
#850=EDGE_CURVE('',#845,#835,#849,.T.);
#851=ORIENTED_EDGE('',*,*,#850,.F.);
#852=CARTESIAN_POINT('',(6.299999999999997,1.599999999999994,1.4));
#853=VERTEX_POINT('',#852);
#854=CARTESIAN_POINT('',(6.299999999999997,1.599999999999994,1.4));
#855=DIRECTION('',(-1.0,0.0,0.0));
#856=VECTOR('',#855,1.399999999999999);
#857=LINE('',#854,#856);
#858=EDGE_CURVE('',#853,#845,#857,.T.);
#859=ORIENTED_EDGE('',*,*,#858,.F.);
#860=CARTESIAN_POINT('',(6.299999999999997,1.599999999999994,1.4));
#861=DIRECTION('',(0.0,0.0,-1.0));
#862=VECTOR('',#861,1.4);
#863=LINE('',#860,#862);
#864=EDGE_CURVE('',#853,#837,#863,.T.);
#865=ORIENTED_EDGE('',*,*,#864,.T.);
#866=EDGE_LOOP('',(#843,#851,#859,#865));
#867=FACE_OUTER_BOUND('',#866,.T.);
#868=ADVANCED_FACE('',(#867),#833,.F.);
#869=CARTESIAN_POINT('',(6.299999999999997,1.599999999999994,1.4));
#870=DIRECTION('',(1.0,0.0,0.0));
#871=DIRECTION('',(0.0,0.0,-1.0));
#872=AXIS2_PLACEMENT_3D('',#869,#870,#871);
#873=PLANE('',#872);
#874=CARTESIAN_POINT('',(6.299999999999997,2.824999999999996,2.220446E-016));
#875=VERTEX_POINT('',#874);
#876=CARTESIAN_POINT('',(6.299999999999997,1.599999999999994,0.0));
#877=DIRECTION('',(0.0,1.0,0.0));
#878=VECTOR('',#877,1.225000000000001);
#879=LINE('',#876,#878);
#880=EDGE_CURVE('',#837,#875,#879,.T.);
#881=ORIENTED_EDGE('',*,*,#880,.F.);
#882=ORIENTED_EDGE('',*,*,#864,.F.);
#883=CARTESIAN_POINT('',(6.299999999999997,2.824999999999996,1.4));
#884=VERTEX_POINT('',#883);
#885=CARTESIAN_POINT('',(6.299999999999997,2.824999999999996,1.4));
#886=DIRECTION('',(0.0,-1.0,0.0));
#887=VECTOR('',#886,1.225000000000001);
#888=LINE('',#885,#887);
#889=EDGE_CURVE('',#884,#853,#888,.T.);
#890=ORIENTED_EDGE('',*,*,#889,.F.);
#891=CARTESIAN_POINT('',(6.299999999999997,2.824999999999996,1.4));
#892=DIRECTION('',(0.0,0.0,-1.0));
#893=VECTOR('',#892,1.4);
#894=LINE('',#891,#893);
#895=EDGE_CURVE('',#884,#875,#894,.T.);
#896=ORIENTED_EDGE('',*,*,#895,.T.);
#897=EDGE_LOOP('',(#881,#882,#890,#896));
#898=FACE_OUTER_BOUND('',#897,.T.);
#899=ADVANCED_FACE('',(#898),#873,.F.);
#900=CARTESIAN_POINT('',(6.299999999999997,2.824999999999996,1.4));
#901=DIRECTION('',(0.0,1.0,0.0));
#902=DIRECTION('',(0.0,0.0,1.0));
#903=AXIS2_PLACEMENT_3D('',#900,#901,#902);
#904=PLANE('',#903);
#905=CARTESIAN_POINT('',(4.899999999999999,2.824999999999996,2.220446E-016));
#906=VERTEX_POINT('',#905);
#907=CARTESIAN_POINT('',(6.299999999999997,2.824999999999996,0.0));
#908=DIRECTION('',(-1.0,0.0,0.0));
#909=VECTOR('',#908,1.399999999999999);
#910=LINE('',#907,#909);
#911=EDGE_CURVE('',#875,#906,#910,.T.);
#912=ORIENTED_EDGE('',*,*,#911,.F.);
#913=ORIENTED_EDGE('',*,*,#895,.F.);
#914=CARTESIAN_POINT('',(4.899999999999999,2.824999999999996,1.4));
#915=VERTEX_POINT('',#914);
#916=CARTESIAN_POINT('',(4.899999999999999,2.824999999999996,1.4));
#917=DIRECTION('',(1.0,0.0,0.0));
#918=VECTOR('',#917,1.399999999999999);
#919=LINE('',#916,#918);
#920=EDGE_CURVE('',#915,#884,#919,.T.);
#921=ORIENTED_EDGE('',*,*,#920,.F.);
#922=CARTESIAN_POINT('',(4.899999999999999,2.824999999999996,1.4));
#923=DIRECTION('',(0.0,0.0,-1.0));
#924=VECTOR('',#923,1.4);
#925=LINE('',#922,#924);
#926=EDGE_CURVE('',#915,#906,#925,.T.);
#927=ORIENTED_EDGE('',*,*,#926,.T.);
#928=EDGE_LOOP('',(#912,#913,#921,#927));
#929=FACE_OUTER_BOUND('',#928,.T.);
#930=ADVANCED_FACE('',(#929),#904,.F.);
#931=CARTESIAN_POINT('',(4.899999999999999,-2.825000000000003,1.4));
#932=DIRECTION('',(0.0,-1.0,0.0));
#933=DIRECTION('',(0.0,0.0,-1.0));
#934=AXIS2_PLACEMENT_3D('',#931,#932,#933);
#935=PLANE('',#934);
#936=CARTESIAN_POINT('',(4.899999999999999,-2.825000000000003,2.220446E-016));
#937=VERTEX_POINT('',#936);
#938=CARTESIAN_POINT('',(6.299999999999997,-2.825000000000003,2.220446E-016));
#939=VERTEX_POINT('',#938);
#940=CARTESIAN_POINT('',(4.899999999999999,-2.825000000000003,0.0));
#941=DIRECTION('',(1.0,0.0,0.0));
#942=VECTOR('',#941,1.399999999999999);
#943=LINE('',#940,#942);
#944=EDGE_CURVE('',#937,#939,#943,.T.);
#945=ORIENTED_EDGE('',*,*,#944,.F.);
#946=CARTESIAN_POINT('',(4.899999999999999,-2.825000000000003,1.4));
#947=VERTEX_POINT('',#946);
#948=CARTESIAN_POINT('',(4.899999999999999,-2.825000000000003,1.4));
#949=DIRECTION('',(0.0,0.0,-1.0));
#950=VECTOR('',#949,1.4);
#951=LINE('',#948,#950);
#952=EDGE_CURVE('',#947,#937,#951,.T.);
#953=ORIENTED_EDGE('',*,*,#952,.F.);
#954=CARTESIAN_POINT('',(6.299999999999997,-2.825000000000003,1.4));
#955=VERTEX_POINT('',#954);
#956=CARTESIAN_POINT('',(6.299999999999997,-2.825000000000003,1.4));
#957=DIRECTION('',(-1.0,0.0,0.0));
#958=VECTOR('',#957,1.399999999999999);
#959=LINE('',#956,#958);
#960=EDGE_CURVE('',#955,#947,#959,.T.);
#961=ORIENTED_EDGE('',*,*,#960,.F.);
#962=CARTESIAN_POINT('',(6.299999999999997,-2.825000000000003,1.4));
#963=DIRECTION('',(0.0,0.0,-1.0));
#964=VECTOR('',#963,1.4);
#965=LINE('',#962,#964);
#966=EDGE_CURVE('',#955,#939,#965,.T.);
#967=ORIENTED_EDGE('',*,*,#966,.T.);
#968=EDGE_LOOP('',(#945,#953,#961,#967));
#969=FACE_OUTER_BOUND('',#968,.T.);
#970=ADVANCED_FACE('',(#969),#935,.F.);
#971=CARTESIAN_POINT('',(6.299999999999997,-2.825000000000003,1.4));
#972=DIRECTION('',(1.0,0.0,0.0));
#973=DIRECTION('',(0.0,0.0,-1.0));
#974=AXIS2_PLACEMENT_3D('',#971,#972,#973);
#975=PLANE('',#974);
#976=CARTESIAN_POINT('',(6.299999999999997,-1.600000000000001,2.220446E-016));
#977=VERTEX_POINT('',#976);
#978=CARTESIAN_POINT('',(6.299999999999997,-2.825000000000003,0.0));
#979=DIRECTION('',(0.0,1.0,0.0));
#980=VECTOR('',#979,1.225000000000001);
#981=LINE('',#978,#980);
#982=EDGE_CURVE('',#939,#977,#981,.T.);
#983=ORIENTED_EDGE('',*,*,#982,.F.);
#984=ORIENTED_EDGE('',*,*,#966,.F.);
#985=CARTESIAN_POINT('',(6.299999999999997,-1.600000000000001,1.4));
#986=VERTEX_POINT('',#985);
#987=CARTESIAN_POINT('',(6.299999999999997,-1.600000000000001,1.4));
#988=DIRECTION('',(0.0,-1.0,0.0));
#989=VECTOR('',#988,1.225000000000001);
#990=LINE('',#987,#989);
#991=EDGE_CURVE('',#986,#955,#990,.T.);
#992=ORIENTED_EDGE('',*,*,#991,.F.);
#993=CARTESIAN_POINT('',(6.299999999999997,-1.600000000000001,1.4));
#994=DIRECTION('',(0.0,0.0,-1.0));
#995=VECTOR('',#994,1.4);
#996=LINE('',#993,#995);
#997=EDGE_CURVE('',#986,#977,#996,.T.);
#998=ORIENTED_EDGE('',*,*,#997,.T.);
#999=EDGE_LOOP('',(#983,#984,#992,#998));
#1000=FACE_OUTER_BOUND('',#999,.T.);
#1001=ADVANCED_FACE('',(#1000),#975,.F.);
#1002=CARTESIAN_POINT('',(6.299999999999997,-1.600000000000001,1.4));
#1003=DIRECTION('',(0.0,1.0,0.0));
#1004=DIRECTION('',(0.0,0.0,1.0));
#1005=AXIS2_PLACEMENT_3D('',#1002,#1003,#1004);
#1006=PLANE('',#1005);
#1007=CARTESIAN_POINT('',(4.899999999999999,-1.600000000000001,2.220446E-016));
#1008=VERTEX_POINT('',#1007);
#1009=CARTESIAN_POINT('',(6.299999999999997,-1.600000000000001,0.0));
#1010=DIRECTION('',(-1.0,0.0,0.0));
#1011=VECTOR('',#1010,1.399999999999999);
#1012=LINE('',#1009,#1011);
#1013=EDGE_CURVE('',#977,#1008,#1012,.T.);
#1014=ORIENTED_EDGE('',*,*,#1013,.F.);
#1015=ORIENTED_EDGE('',*,*,#997,.F.);
#1016=CARTESIAN_POINT('',(4.899999999999999,-1.600000000000001,1.4));
#1017=VERTEX_POINT('',#1016);
#1018=CARTESIAN_POINT('',(4.899999999999999,-1.600000000000001,1.4));
#1019=DIRECTION('',(1.0,0.0,0.0));
#1020=VECTOR('',#1019,1.399999999999999);
#1021=LINE('',#1018,#1020);
#1022=EDGE_CURVE('',#1017,#986,#1021,.T.);
#1023=ORIENTED_EDGE('',*,*,#1022,.F.);
#1024=CARTESIAN_POINT('',(4.899999999999999,-1.600000000000001,1.4));
#1025=DIRECTION('',(0.0,0.0,-1.0));
#1026=VECTOR('',#1025,1.4);
#1027=LINE('',#1024,#1026);
#1028=EDGE_CURVE('',#1017,#1008,#1027,.T.);
#1029=ORIENTED_EDGE('',*,*,#1028,.T.);
#1030=EDGE_LOOP('',(#1014,#1015,#1023,#1029));
#1031=FACE_OUTER_BOUND('',#1030,.T.);
#1032=ADVANCED_FACE('',(#1031),#1006,.F.);
#1033=CARTESIAN_POINT('',(10.700000000000003,2.824999999999996,1.4));
#1034=DIRECTION('',(-1.0,0.0,0.0));
#1035=DIRECTION('',(0.0,0.0,1.0));
#1036=AXIS2_PLACEMENT_3D('',#1033,#1034,#1035);
#1037=PLANE('',#1036);
#1038=CARTESIAN_POINT('',(10.700000000000003,2.824999999999996,2.220446E-016));
#1039=VERTEX_POINT('',#1038);
#1040=CARTESIAN_POINT('',(10.700000000000003,1.599999999999994,2.220446E-016));
#1041=VERTEX_POINT('',#1040);
#1042=CARTESIAN_POINT('',(10.700000000000003,2.824999999999996,0.0));
#1043=DIRECTION('',(0.0,-1.0,0.0));
#1044=VECTOR('',#1043,1.225000000000001);
#1045=LINE('',#1042,#1044);
#1046=EDGE_CURVE('',#1039,#1041,#1045,.T.);
#1047=ORIENTED_EDGE('',*,*,#1046,.F.);
#1048=CARTESIAN_POINT('',(10.700000000000003,2.824999999999996,1.4));
#1049=VERTEX_POINT('',#1048);
#1050=CARTESIAN_POINT('',(10.700000000000003,2.824999999999996,1.4));
#1051=DIRECTION('',(0.0,0.0,-1.0));
#1052=VECTOR('',#1051,1.4);
#1053=LINE('',#1050,#1052);
#1054=EDGE_CURVE('',#1049,#1039,#1053,.T.);
#1055=ORIENTED_EDGE('',*,*,#1054,.F.);
#1056=CARTESIAN_POINT('',(10.700000000000003,1.599999999999994,1.4));
#1057=VERTEX_POINT('',#1056);
#1058=CARTESIAN_POINT('',(10.700000000000003,1.599999999999994,1.4));
#1059=DIRECTION('',(0.0,1.0,0.0));
#1060=VECTOR('',#1059,1.225000000000001);
#1061=LINE('',#1058,#1060);
#1062=EDGE_CURVE('',#1057,#1049,#1061,.T.);
#1063=ORIENTED_EDGE('',*,*,#1062,.F.);
#1064=CARTESIAN_POINT('',(10.700000000000003,1.599999999999994,1.4));
#1065=DIRECTION('',(0.0,0.0,-1.0));
#1066=VECTOR('',#1065,1.4);
#1067=LINE('',#1064,#1066);
#1068=EDGE_CURVE('',#1057,#1041,#1067,.T.);
#1069=ORIENTED_EDGE('',*,*,#1068,.T.);
#1070=EDGE_LOOP('',(#1047,#1055,#1063,#1069));
#1071=FACE_OUTER_BOUND('',#1070,.T.);
#1072=ADVANCED_FACE('',(#1071),#1037,.F.);
#1073=CARTESIAN_POINT('',(10.700000000000003,1.599999999999994,1.4));
#1074=DIRECTION('',(0.0,-1.0,0.0));
#1075=DIRECTION('',(0.0,0.0,-1.0));
#1076=AXIS2_PLACEMENT_3D('',#1073,#1074,#1075);
#1077=PLANE('',#1076);
#1078=CARTESIAN_POINT('',(12.100000000000001,1.599999999999994,2.220446E-016));
#1079=VERTEX_POINT('',#1078);
#1080=CARTESIAN_POINT('',(10.700000000000003,1.599999999999994,0.0));
#1081=DIRECTION('',(1.0,0.0,0.0));
#1082=VECTOR('',#1081,1.399999999999999);
#1083=LINE('',#1080,#1082);
#1084=EDGE_CURVE('',#1041,#1079,#1083,.T.);
#1085=ORIENTED_EDGE('',*,*,#1084,.F.);
#1086=ORIENTED_EDGE('',*,*,#1068,.F.);
#1087=CARTESIAN_POINT('',(12.100000000000001,1.599999999999994,1.4));
#1088=VERTEX_POINT('',#1087);
#1089=CARTESIAN_POINT('',(12.100000000000001,1.599999999999994,1.4));
#1090=DIRECTION('',(-1.0,0.0,0.0));
#1091=VECTOR('',#1090,1.399999999999999);
#1092=LINE('',#1089,#1091);
#1093=EDGE_CURVE('',#1088,#1057,#1092,.T.);
#1094=ORIENTED_EDGE('',*,*,#1093,.F.);
#1095=CARTESIAN_POINT('',(12.100000000000001,1.599999999999994,1.4));
#1096=DIRECTION('',(0.0,0.0,-1.0));
#1097=VECTOR('',#1096,1.4);
#1098=LINE('',#1095,#1097);
#1099=EDGE_CURVE('',#1088,#1079,#1098,.T.);
#1100=ORIENTED_EDGE('',*,*,#1099,.T.);
#1101=EDGE_LOOP('',(#1085,#1086,#1094,#1100));
#1102=FACE_OUTER_BOUND('',#1101,.T.);
#1103=ADVANCED_FACE('',(#1102),#1077,.F.);
#1104=CARTESIAN_POINT('',(12.100000000000001,2.824999999999996,1.4));
#1105=DIRECTION('',(0.0,1.0,0.0));
#1106=DIRECTION('',(0.0,0.0,1.0));
#1107=AXIS2_PLACEMENT_3D('',#1104,#1105,#1106);
#1108=PLANE('',#1107);
#1109=CARTESIAN_POINT('',(12.100000000000001,2.824999999999996,2.220446E-016));
#1110=VERTEX_POINT('',#1109);
#1111=CARTESIAN_POINT('',(12.100000000000001,2.824999999999996,0.0));
#1112=DIRECTION('',(-1.0,0.0,0.0));
#1113=VECTOR('',#1112,1.399999999999999);
#1114=LINE('',#1111,#1113);
#1115=EDGE_CURVE('',#1110,#1039,#1114,.T.);
#1116=ORIENTED_EDGE('',*,*,#1115,.F.);
#1117=CARTESIAN_POINT('',(12.100000000000001,2.824999999999996,1.4));
#1118=VERTEX_POINT('',#1117);
#1119=CARTESIAN_POINT('',(12.100000000000001,2.824999999999996,1.4));
#1120=DIRECTION('',(0.0,0.0,-1.0));
#1121=VECTOR('',#1120,1.4);
#1122=LINE('',#1119,#1121);
#1123=EDGE_CURVE('',#1118,#1110,#1122,.T.);
#1124=ORIENTED_EDGE('',*,*,#1123,.F.);
#1125=CARTESIAN_POINT('',(10.700000000000003,2.824999999999996,1.4));
#1126=DIRECTION('',(1.0,0.0,0.0));
#1127=VECTOR('',#1126,1.399999999999999);
#1128=LINE('',#1125,#1127);
#1129=EDGE_CURVE('',#1049,#1118,#1128,.T.);
#1130=ORIENTED_EDGE('',*,*,#1129,.F.);
#1131=ORIENTED_EDGE('',*,*,#1054,.T.);
#1132=EDGE_LOOP('',(#1116,#1124,#1130,#1131));
#1133=FACE_OUTER_BOUND('',#1132,.T.);
#1134=ADVANCED_FACE('',(#1133),#1108,.F.);
#1135=CARTESIAN_POINT('',(8.5,-2.216699E-013,1.4));
#1136=DIRECTION('',(0.0,0.0,1.0));
#1137=DIRECTION('',(1.0,0.0,0.0));
#1138=AXIS2_PLACEMENT_3D('',#1135,#1136,#1137);
#1139=PLANE('',#1138);
#1140=ORIENTED_EDGE('',*,*,#787,.T.);
#1141=ORIENTED_EDGE('',*,*,#756,.T.);
#1142=ORIENTED_EDGE('',*,*,#823,.T.);
#1143=CARTESIAN_POINT('',(12.100000000000001,-1.731217782640002,1.4));
#1144=VERTEX_POINT('',#1143);
#1145=CARTESIAN_POINT('',(12.100000000000001,-1.600000000000001,1.4));
#1146=DIRECTION('',(0.0,-1.0,0.0));
#1147=VECTOR('',#1146,0.13121778264);
#1148=LINE('',#1145,#1147);
#1149=EDGE_CURVE('',#812,#1144,#1148,.T.);
#1150=ORIENTED_EDGE('',*,*,#1149,.T.);
#1151=CARTESIAN_POINT('',(12.450000000000003,-1.125000000000007,1.4));
#1152=VERTEX_POINT('',#1151);
#1153=CARTESIAN_POINT('',(12.100000000000001,-1.731217782640002,1.4));
#1154=DIRECTION('',(0.500000000005638,0.866025403781183,0.0));
#1155=VECTOR('',#1154,0.699999999992109);
#1156=LINE('',#1153,#1155);
#1157=EDGE_CURVE('',#1144,#1152,#1156,.T.);
#1158=ORIENTED_EDGE('',*,*,#1157,.T.);
#1159=CARTESIAN_POINT('',(12.450000000000003,1.124999999999993,1.4));
#1160=VERTEX_POINT('',#1159);
#1161=CARTESIAN_POINT('',(12.450000000000003,-1.125000000000007,1.4));
#1162=DIRECTION('',(0.0,1.0,0.0));
#1163=VECTOR('',#1162,2.25);
#1164=LINE('',#1161,#1163);
#1165=EDGE_CURVE('',#1152,#1160,#1164,.T.);
#1166=ORIENTED_EDGE('',*,*,#1165,.T.);
#1167=CARTESIAN_POINT('',(12.100000000000001,1.731217782659989,1.4));
#1168=VERTEX_POINT('',#1167);
#1169=CARTESIAN_POINT('',(12.450000000000003,1.124999999999993,1.4));
#1170=DIRECTION('',(-0.499999999993265,0.866025403788327,0.0));
#1171=VECTOR('',#1170,0.700000000009431);
#1172=LINE('',#1169,#1171);
#1173=EDGE_CURVE('',#1160,#1168,#1172,.T.);
#1174=ORIENTED_EDGE('',*,*,#1173,.T.);
#1175=CARTESIAN_POINT('',(12.100000000000001,1.731217782659989,1.4));
#1176=DIRECTION('',(0.0,-1.0,0.0));
#1177=VECTOR('',#1176,0.131217782659995);
#1178=LINE('',#1175,#1177);
#1179=EDGE_CURVE('',#1168,#1088,#1178,.T.);
#1180=ORIENTED_EDGE('',*,*,#1179,.T.);
#1181=ORIENTED_EDGE('',*,*,#1093,.T.);
#1182=ORIENTED_EDGE('',*,*,#1062,.T.);
#1183=ORIENTED_EDGE('',*,*,#1129,.T.);
#1184=CARTESIAN_POINT('',(12.100000000000001,2.924999999999997,1.4));
#1185=VERTEX_POINT('',#1184);
#1186=CARTESIAN_POINT('',(12.100000000000001,2.824999999999996,1.4));
#1187=DIRECTION('',(0.0,1.0,0.0));
#1188=VECTOR('',#1187,0.100000000000001);
#1189=LINE('',#1186,#1188);
#1190=EDGE_CURVE('',#1118,#1185,#1189,.T.);
#1191=ORIENTED_EDGE('',*,*,#1190,.T.);
#1192=CARTESIAN_POINT('',(4.899999999999999,2.924999999999997,1.4));
#1193=VERTEX_POINT('',#1192);
#1194=CARTESIAN_POINT('',(12.100000000000001,2.924999999999997,1.4));
#1195=DIRECTION('',(-1.0,0.0,0.0));
#1196=VECTOR('',#1195,7.200000000000003);
#1197=LINE('',#1194,#1196);
#1198=EDGE_CURVE('',#1185,#1193,#1197,.T.);
#1199=ORIENTED_EDGE('',*,*,#1198,.T.);
#1200=CARTESIAN_POINT('',(4.899999999999999,2.924999999999997,1.4));
#1201=DIRECTION('',(0.0,-1.0,0.0));
#1202=VECTOR('',#1201,0.100000000000001);
#1203=LINE('',#1200,#1202);
#1204=EDGE_CURVE('',#1193,#915,#1203,.T.);
#1205=ORIENTED_EDGE('',*,*,#1204,.T.);
#1206=ORIENTED_EDGE('',*,*,#920,.T.);
#1207=ORIENTED_EDGE('',*,*,#889,.T.);
#1208=ORIENTED_EDGE('',*,*,#858,.T.);
#1209=CARTESIAN_POINT('',(4.899999999999999,1.731217782659989,1.4));
#1210=VERTEX_POINT('',#1209);
#1211=CARTESIAN_POINT('',(4.899999999999999,1.599999999999994,1.4));
#1212=DIRECTION('',(0.0,1.0,0.0));
#1213=VECTOR('',#1212,0.131217782659995);
#1214=LINE('',#1211,#1213);
#1215=EDGE_CURVE('',#845,#1210,#1214,.T.);
#1216=ORIENTED_EDGE('',*,*,#1215,.T.);
#1217=CARTESIAN_POINT('',(4.549999999999997,1.124999999999993,1.4));
#1218=VERTEX_POINT('',#1217);
#1219=CARTESIAN_POINT('',(4.899999999999999,1.731217782659989,1.4));
#1220=DIRECTION('',(-0.499999999993265,-0.866025403788327,0.0));
#1221=VECTOR('',#1220,0.700000000009431);
#1222=LINE('',#1219,#1221);
#1223=EDGE_CURVE('',#1210,#1218,#1222,.T.);
#1224=ORIENTED_EDGE('',*,*,#1223,.T.);
#1225=CARTESIAN_POINT('',(4.549999999999997,-1.125000000000007,1.4));
#1226=VERTEX_POINT('',#1225);
#1227=CARTESIAN_POINT('',(4.549999999999997,1.124999999999993,1.4));
#1228=DIRECTION('',(0.0,-1.0,0.0));
#1229=VECTOR('',#1228,2.25);
#1230=LINE('',#1227,#1229);
#1231=EDGE_CURVE('',#1218,#1226,#1230,.T.);
#1232=ORIENTED_EDGE('',*,*,#1231,.T.);
#1233=CARTESIAN_POINT('',(4.899999999999999,-1.731217782640002,1.4));
#1234=VERTEX_POINT('',#1233);
#1235=CARTESIAN_POINT('',(4.549999999999997,-1.125000000000007,1.4));
#1236=DIRECTION('',(0.500000000005638,-0.866025403781183,0.0));
#1237=VECTOR('',#1236,0.699999999992109);
#1238=LINE('',#1235,#1237);
#1239=EDGE_CURVE('',#1226,#1234,#1238,.T.);
#1240=ORIENTED_EDGE('',*,*,#1239,.T.);
#1241=CARTESIAN_POINT('',(4.899999999999999,-1.731217782640002,1.4));
#1242=DIRECTION('',(0.0,1.0,0.0));
#1243=VECTOR('',#1242,0.13121778264);
#1244=LINE('',#1241,#1243);
#1245=EDGE_CURVE('',#1234,#1017,#1244,.T.);
#1246=ORIENTED_EDGE('',*,*,#1245,.T.);
#1247=ORIENTED_EDGE('',*,*,#1022,.T.);
#1248=ORIENTED_EDGE('',*,*,#991,.T.);
#1249=ORIENTED_EDGE('',*,*,#960,.T.);
#1250=CARTESIAN_POINT('',(4.899999999999999,-2.925000000000004,1.4));
#1251=VERTEX_POINT('',#1250);
#1252=CARTESIAN_POINT('',(4.899999999999999,-2.825000000000003,1.4));
#1253=DIRECTION('',(0.0,-1.0,0.0));
#1254=VECTOR('',#1253,0.100000000000001);
#1255=LINE('',#1252,#1254);
#1256=EDGE_CURVE('',#947,#1251,#1255,.T.);
#1257=ORIENTED_EDGE('',*,*,#1256,.T.);
#1258=CARTESIAN_POINT('',(12.100000000000001,-2.925000000000004,1.4));
#1259=VERTEX_POINT('',#1258);
#1260=CARTESIAN_POINT('',(4.899999999999999,-2.925000000000004,1.4));
#1261=DIRECTION('',(1.0,0.0,0.0));
#1262=VECTOR('',#1261,7.200000000000003);
#1263=LINE('',#1260,#1262);
#1264=EDGE_CURVE('',#1251,#1259,#1263,.T.);
#1265=ORIENTED_EDGE('',*,*,#1264,.T.);
#1266=CARTESIAN_POINT('',(12.100000000000001,-2.925000000000004,1.4));
#1267=DIRECTION('',(0.0,1.0,0.0));
#1268=VECTOR('',#1267,0.100000000000001);
#1269=LINE('',#1266,#1268);
#1270=EDGE_CURVE('',#1259,#782,#1269,.T.);
#1271=ORIENTED_EDGE('',*,*,#1270,.T.);
#1272=EDGE_LOOP('',(#1140,#1141,#1142,#1150,#1158,#1166,#1174,#1180,#1181,#1182,#1183,#1191,#1199,#1205,#1206,#1207,#1208,#1216,#1224,#1232,#1240,#1246,#1247,#1248,#1249,#1257,#1265,#1271));
#1273=FACE_OUTER_BOUND('',#1272,.T.);
#1274=ORIENTED_EDGE('',*,*,#685,.T.);
#1275=ORIENTED_EDGE('',*,*,#714,.T.);
#1276=ORIENTED_EDGE('',*,*,#616,.T.);
#1277=ORIENTED_EDGE('',*,*,#654,.T.);
#1278=EDGE_LOOP('',(#1274,#1275,#1276,#1277));
#1279=FACE_BOUND('',#1278,.T.);
#1280=ADVANCED_FACE('',(#1273,#1279),#1139,.T.);
#1281=CARTESIAN_POINT('',(-1.953104E-012,3.552714E-015,3.0));
#1282=DIRECTION('',(0.0,0.0,-1.0));
#1283=DIRECTION('',(1.0,0.0,0.0));
#1284=AXIS2_PLACEMENT_3D('',#1281,#1282,#1283);
#1285=CYLINDRICAL_SURFACE('',#1284,3.800000000007945);
#1286=CARTESIAN_POINT('',(2.266605391339994,-3.049999999999997,1.4));
#1287=VERTEX_POINT('',#1286);
#1288=CARTESIAN_POINT('',(2.266605391339994,3.050000000000004,1.4));
#1289=VERTEX_POINT('',#1288);
#1290=CARTESIAN_POINT('',(-1.953104E-012,3.552714E-015,1.4));
#1291=DIRECTION('',(0.0,0.0,1.0));
#1292=DIRECTION('',(1.0,0.0,0.0));
#1293=AXIS2_PLACEMENT_3D('',#1290,#1291,#1292);
#1294=CIRCLE('',#1293,3.800000000007945);
#1295=EDGE_CURVE('',#1287,#1289,#1294,.T.);
#1296=ORIENTED_EDGE('',*,*,#1295,.F.);
#1297=CARTESIAN_POINT('',(2.266605391339994,-3.049999999999997,3.0));
#1298=VERTEX_POINT('',#1297);
#1299=CARTESIAN_POINT('',(2.266605391339994,-3.049999999999997,3.0));
#1300=DIRECTION('',(0.0,0.0,-1.0));
#1301=VECTOR('',#1300,1.600000000000001);
#1302=LINE('',#1299,#1301);
#1303=EDGE_CURVE('',#1298,#1287,#1302,.T.);
#1304=ORIENTED_EDGE('',*,*,#1303,.F.);
#1305=CARTESIAN_POINT('',(2.266605391339994,3.050000000000004,3.0));
#1306=VERTEX_POINT('',#1305);
#1307=CARTESIAN_POINT('',(-1.953104E-012,3.552714E-015,3.0));
#1308=DIRECTION('',(0.0,0.0,-1.0));
#1309=DIRECTION('',(1.0,0.0,0.0));
#1310=AXIS2_PLACEMENT_3D('',#1307,#1308,#1309);
#1311=CIRCLE('',#1310,3.800000000007945);
#1312=EDGE_CURVE('',#1306,#1298,#1311,.T.);
#1313=ORIENTED_EDGE('',*,*,#1312,.F.);
#1314=CARTESIAN_POINT('',(2.266605391339994,3.050000000000004,3.0));
#1315=DIRECTION('',(0.0,0.0,-1.0));
#1316=VECTOR('',#1315,1.600000000000001);
#1317=LINE('',#1314,#1316);
#1318=EDGE_CURVE('',#1306,#1289,#1317,.T.);
#1319=ORIENTED_EDGE('',*,*,#1318,.T.);
#1320=EDGE_LOOP('',(#1296,#1304,#1313,#1319));
#1321=FACE_OUTER_BOUND('',#1320,.T.);
#1322=ADVANCED_FACE('',(#1321),#1285,.F.);
#1323=CARTESIAN_POINT('',(2.266605391339994,3.050000000000004,3.0));
#1324=DIRECTION('',(0.0,1.0,0.0));
#1325=DIRECTION('',(0.0,0.0,1.0));
#1326=AXIS2_PLACEMENT_3D('',#1323,#1324,#1325);
#1327=PLANE('',#1326);
#1328=CARTESIAN_POINT('',(-2.266605391319999,3.050000000000004,1.4));
#1329=VERTEX_POINT('',#1328);
#1330=CARTESIAN_POINT('',(2.266605391339994,3.050000000000004,1.4));
#1331=DIRECTION('',(-1.0,0.0,0.0));
#1332=VECTOR('',#1331,4.533210782659992);
#1333=LINE('',#1330,#1332);
#1334=EDGE_CURVE('',#1289,#1329,#1333,.T.);
#1335=ORIENTED_EDGE('',*,*,#1334,.F.);
#1336=ORIENTED_EDGE('',*,*,#1318,.F.);
#1337=CARTESIAN_POINT('',(-2.266605391319999,3.050000000000004,3.0));
#1338=VERTEX_POINT('',#1337);
#1339=CARTESIAN_POINT('',(-2.266605391319999,3.050000000000004,3.0));
#1340=DIRECTION('',(1.0,0.0,0.0));
#1341=VECTOR('',#1340,4.533210782659992);
#1342=LINE('',#1339,#1341);
#1343=EDGE_CURVE('',#1338,#1306,#1342,.T.);
#1344=ORIENTED_EDGE('',*,*,#1343,.F.);
#1345=CARTESIAN_POINT('',(-2.266605391319999,3.050000000000004,3.0));
#1346=DIRECTION('',(0.0,0.0,-1.0));
#1347=VECTOR('',#1346,1.600000000000001);
#1348=LINE('',#1345,#1347);
#1349=EDGE_CURVE('',#1338,#1329,#1348,.T.);
#1350=ORIENTED_EDGE('',*,*,#1349,.T.);
#1351=EDGE_LOOP('',(#1335,#1336,#1344,#1350));
#1352=FACE_OUTER_BOUND('',#1351,.T.);
#1353=ADVANCED_FACE('',(#1352),#1327,.F.);
#1354=CARTESIAN_POINT('',(-2.819522E-012,3.552714E-015,3.0));
#1355=DIRECTION('',(0.0,0.0,-1.0));
#1356=DIRECTION('',(-1.0,0.0,0.0));
#1357=AXIS2_PLACEMENT_3D('',#1354,#1355,#1356);
#1358=CYLINDRICAL_SURFACE('',#1357,3.799999999993172);
#1359=CARTESIAN_POINT('',(-2.266605391319999,-3.049999999999997,1.4));
#1360=VERTEX_POINT('',#1359);
#1361=CARTESIAN_POINT('',(-2.819522E-012,3.552714E-015,1.4));
#1362=DIRECTION('',(0.0,0.0,1.0));
#1363=DIRECTION('',(-1.0,0.0,0.0));
#1364=AXIS2_PLACEMENT_3D('',#1361,#1362,#1363);
#1365=CIRCLE('',#1364,3.799999999993172);
#1366=EDGE_CURVE('',#1329,#1360,#1365,.T.);
#1367=ORIENTED_EDGE('',*,*,#1366,.F.);
#1368=ORIENTED_EDGE('',*,*,#1349,.F.);
#1369=CARTESIAN_POINT('',(-2.266605391319999,-3.049999999999997,3.0));
#1370=VERTEX_POINT('',#1369);
#1371=CARTESIAN_POINT('',(-2.819522E-012,3.552714E-015,3.0));
#1372=DIRECTION('',(0.0,0.0,-1.0));
#1373=DIRECTION('',(-1.0,0.0,0.0));
#1374=AXIS2_PLACEMENT_3D('',#1371,#1372,#1373);
#1375=CIRCLE('',#1374,3.799999999993172);
#1376=EDGE_CURVE('',#1370,#1338,#1375,.T.);
#1377=ORIENTED_EDGE('',*,*,#1376,.F.);
#1378=CARTESIAN_POINT('',(-2.266605391319999,-3.049999999999997,3.0));
#1379=DIRECTION('',(0.0,0.0,-1.0));
#1380=VECTOR('',#1379,1.600000000000001);
#1381=LINE('',#1378,#1380);
#1382=EDGE_CURVE('',#1370,#1360,#1381,.T.);
#1383=ORIENTED_EDGE('',*,*,#1382,.T.);
#1384=EDGE_LOOP('',(#1367,#1368,#1377,#1383));
#1385=FACE_OUTER_BOUND('',#1384,.T.);
#1386=ADVANCED_FACE('',(#1385),#1358,.F.);
#1387=CARTESIAN_POINT('',(-2.266605391319999,-3.049999999999997,3.0));
#1388=DIRECTION('',(0.0,-1.0,0.0));
#1389=DIRECTION('',(0.0,0.0,-1.0));
#1390=AXIS2_PLACEMENT_3D('',#1387,#1388,#1389);
#1391=PLANE('',#1390);
#1392=CARTESIAN_POINT('',(-2.266605391319999,-3.049999999999997,1.4));
#1393=DIRECTION('',(1.0,0.0,0.0));
#1394=VECTOR('',#1393,4.533210782659992);
#1395=LINE('',#1392,#1394);
#1396=EDGE_CURVE('',#1360,#1287,#1395,.T.);
#1397=ORIENTED_EDGE('',*,*,#1396,.F.);
#1398=ORIENTED_EDGE('',*,*,#1382,.F.);
#1399=CARTESIAN_POINT('',(2.266605391339994,-3.049999999999997,3.0));
#1400=DIRECTION('',(-1.0,0.0,0.0));
#1401=VECTOR('',#1400,4.533210782659992);
#1402=LINE('',#1399,#1401);
#1403=EDGE_CURVE('',#1298,#1370,#1402,.T.);
#1404=ORIENTED_EDGE('',*,*,#1403,.F.);
#1405=ORIENTED_EDGE('',*,*,#1303,.T.);
#1406=EDGE_LOOP('',(#1397,#1398,#1404,#1405));
#1407=FACE_OUTER_BOUND('',#1406,.T.);
#1408=ADVANCED_FACE('',(#1407),#1391,.F.);
#1409=CARTESIAN_POINT('',(6.571410E-012,3.488579E-015,1.4));
#1410=DIRECTION('',(0.0,0.0,1.0));
#1411=DIRECTION('',(1.0,0.0,0.0));
#1412=AXIS2_PLACEMENT_3D('',#1409,#1410,#1411);
#1413=PLANE('',#1412);
#1414=ORIENTED_EDGE('',*,*,#1295,.T.);
#1415=ORIENTED_EDGE('',*,*,#1334,.T.);
#1416=ORIENTED_EDGE('',*,*,#1366,.T.);
#1417=ORIENTED_EDGE('',*,*,#1396,.T.);
#1418=EDGE_LOOP('',(#1414,#1415,#1416,#1417));
#1419=FACE_OUTER_BOUND('',#1418,.T.);
#1420=ADVANCED_FACE('',(#1419),#1413,.T.);
#1421=CARTESIAN_POINT('',(4.899999999999999,2.924999999999997,3.0));
#1422=DIRECTION('',(-1.0,0.0,0.0));
#1423=DIRECTION('',(0.0,0.0,1.0));
#1424=AXIS2_PLACEMENT_3D('',#1421,#1422,#1423);
#1425=PLANE('',#1424);
#1426=ORIENTED_EDGE('',*,*,#1204,.F.);
#1427=CARTESIAN_POINT('',(4.899999999999999,2.924999999999997,3.0));
#1428=VERTEX_POINT('',#1427);
#1429=CARTESIAN_POINT('',(4.899999999999999,2.924999999999997,3.0));
#1430=DIRECTION('',(0.0,0.0,-1.0));
#1431=VECTOR('',#1430,1.600000000000001);
#1432=LINE('',#1429,#1431);
#1433=EDGE_CURVE('',#1428,#1193,#1432,.T.);
#1434=ORIENTED_EDGE('',*,*,#1433,.F.);
#1435=CARTESIAN_POINT('',(4.899999999999999,1.731217782659989,3.0));
#1436=VERTEX_POINT('',#1435);
#1437=CARTESIAN_POINT('',(4.899999999999999,1.731217782659989,3.0));
#1438=DIRECTION('',(0.0,1.0,0.0));
#1439=VECTOR('',#1438,1.193782217340008);
#1440=LINE('',#1437,#1439);
#1441=EDGE_CURVE('',#1436,#1428,#1440,.T.);
#1442=ORIENTED_EDGE('',*,*,#1441,.F.);
#1443=CARTESIAN_POINT('',(4.899999999999999,1.731217782659989,3.0));
#1444=DIRECTION('',(0.0,0.0,-1.0));
#1445=VECTOR('',#1444,1.600000000000001);
#1446=LINE('',#1443,#1445);
#1447=EDGE_CURVE('',#1436,#1210,#1446,.T.);
#1448=ORIENTED_EDGE('',*,*,#1447,.T.);
#1449=ORIENTED_EDGE('',*,*,#1215,.F.);
#1450=ORIENTED_EDGE('',*,*,#850,.T.);
#1451=CARTESIAN_POINT('',(4.899999999999999,2.824999999999996,0.0));
#1452=DIRECTION('',(0.0,-1.0,0.0));
#1453=VECTOR('',#1452,1.225000000000001);
#1454=LINE('',#1451,#1453);
#1455=EDGE_CURVE('',#906,#835,#1454,.T.);
#1456=ORIENTED_EDGE('',*,*,#1455,.F.);
#1457=ORIENTED_EDGE('',*,*,#926,.F.);
#1458=EDGE_LOOP('',(#1426,#1434,#1442,#1448,#1449,#1450,#1456,#1457));
#1459=FACE_OUTER_BOUND('',#1458,.T.);
#1460=ADVANCED_FACE('',(#1459),#1425,.F.);
#1461=CARTESIAN_POINT('',(4.899999999999999,1.731217782659989,3.0));
#1462=DIRECTION('',(-0.866025403788327,0.499999999993266,0.0));
#1463=DIRECTION('',(0.0,0.0,1.0));
#1464=AXIS2_PLACEMENT_3D('',#1461,#1462,#1463);
#1465=PLANE('',#1464);
#1466=ORIENTED_EDGE('',*,*,#1223,.F.);
#1467=ORIENTED_EDGE('',*,*,#1447,.F.);
#1468=CARTESIAN_POINT('',(4.549999999999997,1.124999999999993,3.0));
#1469=VERTEX_POINT('',#1468);
#1470=CARTESIAN_POINT('',(4.549999999999997,1.124999999999993,3.0));
#1471=DIRECTION('',(0.499999999993265,0.866025403788327,0.0));
#1472=VECTOR('',#1471,0.700000000009431);
#1473=LINE('',#1470,#1472);
#1474=EDGE_CURVE('',#1469,#1436,#1473,.T.);
#1475=ORIENTED_EDGE('',*,*,#1474,.F.);
#1476=CARTESIAN_POINT('',(4.549999999999997,1.124999999999993,3.0));
#1477=DIRECTION('',(0.0,0.0,-1.0));
#1478=VECTOR('',#1477,1.600000000000001);
#1479=LINE('',#1476,#1478);
#1480=EDGE_CURVE('',#1469,#1218,#1479,.T.);
#1481=ORIENTED_EDGE('',*,*,#1480,.T.);
#1482=EDGE_LOOP('',(#1466,#1467,#1475,#1481));
#1483=FACE_OUTER_BOUND('',#1482,.T.);
#1484=ADVANCED_FACE('',(#1483),#1465,.F.);
#1485=CARTESIAN_POINT('',(4.549999999999997,1.124999999999993,3.0));
#1486=DIRECTION('',(-1.0,0.0,0.0));
#1487=DIRECTION('',(0.0,0.0,1.0));
#1488=AXIS2_PLACEMENT_3D('',#1485,#1486,#1487);
#1489=PLANE('',#1488);
#1490=ORIENTED_EDGE('',*,*,#1231,.F.);
#1491=ORIENTED_EDGE('',*,*,#1480,.F.);
#1492=CARTESIAN_POINT('',(4.549999999999997,-1.125000000000007,3.0));
#1493=VERTEX_POINT('',#1492);
#1494=CARTESIAN_POINT('',(4.549999999999997,-1.125000000000007,3.0));
#1495=DIRECTION('',(0.0,1.0,0.0));
#1496=VECTOR('',#1495,2.25);
#1497=LINE('',#1494,#1496);
#1498=EDGE_CURVE('',#1493,#1469,#1497,.T.);
#1499=ORIENTED_EDGE('',*,*,#1498,.F.);
#1500=CARTESIAN_POINT('',(4.549999999999997,-1.125000000000007,3.0));
#1501=DIRECTION('',(0.0,0.0,-1.0));
#1502=VECTOR('',#1501,1.600000000000001);
#1503=LINE('',#1500,#1502);
#1504=EDGE_CURVE('',#1493,#1226,#1503,.T.);
#1505=ORIENTED_EDGE('',*,*,#1504,.T.);
#1506=EDGE_LOOP('',(#1490,#1491,#1499,#1505));
#1507=FACE_OUTER_BOUND('',#1506,.T.);
#1508=ADVANCED_FACE('',(#1507),#1489,.F.);
#1509=CARTESIAN_POINT('',(4.549999999999997,-1.125000000000007,3.0));
#1510=DIRECTION('',(-0.866025403781183,-0.500000000005638,0.0));
#1511=DIRECTION('',(0.0,0.0,1.0));
#1512=AXIS2_PLACEMENT_3D('',#1509,#1510,#1511);
#1513=PLANE('',#1512);
#1514=ORIENTED_EDGE('',*,*,#1239,.F.);
#1515=ORIENTED_EDGE('',*,*,#1504,.F.);
#1516=CARTESIAN_POINT('',(4.899999999999999,-1.731217782640002,3.0));
#1517=VERTEX_POINT('',#1516);
#1518=CARTESIAN_POINT('',(4.899999999999999,-1.731217782640002,3.0));
#1519=DIRECTION('',(-0.500000000005638,0.866025403781183,0.0));
#1520=VECTOR('',#1519,0.699999999992109);
#1521=LINE('',#1518,#1520);
#1522=EDGE_CURVE('',#1517,#1493,#1521,.T.);
#1523=ORIENTED_EDGE('',*,*,#1522,.F.);
#1524=CARTESIAN_POINT('',(4.899999999999999,-1.731217782640002,3.0));
#1525=DIRECTION('',(0.0,0.0,-1.0));
#1526=VECTOR('',#1525,1.600000000000001);
#1527=LINE('',#1524,#1526);
#1528=EDGE_CURVE('',#1517,#1234,#1527,.T.);
#1529=ORIENTED_EDGE('',*,*,#1528,.T.);
#1530=EDGE_LOOP('',(#1514,#1515,#1523,#1529));
#1531=FACE_OUTER_BOUND('',#1530,.T.);
#1532=ADVANCED_FACE('',(#1531),#1513,.F.);
#1533=CARTESIAN_POINT('',(4.899999999999999,-1.731217782640002,3.0));
#1534=DIRECTION('',(-1.0,0.0,0.0));
#1535=DIRECTION('',(0.0,0.0,1.0));
#1536=AXIS2_PLACEMENT_3D('',#1533,#1534,#1535);
#1537=PLANE('',#1536);
#1538=ORIENTED_EDGE('',*,*,#1528,.F.);
#1539=CARTESIAN_POINT('',(4.899999999999999,-2.925000000000004,3.0));
#1540=VERTEX_POINT('',#1539);
#1541=CARTESIAN_POINT('',(4.899999999999999,-2.925000000000004,3.0));
#1542=DIRECTION('',(0.0,1.0,0.0));
#1543=VECTOR('',#1542,1.193782217360003);
#1544=LINE('',#1541,#1543);
#1545=EDGE_CURVE('',#1540,#1517,#1544,.T.);
#1546=ORIENTED_EDGE('',*,*,#1545,.F.);
#1547=CARTESIAN_POINT('',(4.899999999999999,-2.925000000000004,3.0));
#1548=DIRECTION('',(0.0,0.0,-1.0));
#1549=VECTOR('',#1548,1.600000000000001);
#1550=LINE('',#1547,#1549);
#1551=EDGE_CURVE('',#1540,#1251,#1550,.T.);
#1552=ORIENTED_EDGE('',*,*,#1551,.T.);
#1553=ORIENTED_EDGE('',*,*,#1256,.F.);
#1554=ORIENTED_EDGE('',*,*,#952,.T.);
#1555=CARTESIAN_POINT('',(4.899999999999999,-1.600000000000001,0.0));
#1556=DIRECTION('',(0.0,-1.0,0.0));
#1557=VECTOR('',#1556,1.225000000000001);
#1558=LINE('',#1555,#1557);
#1559=EDGE_CURVE('',#1008,#937,#1558,.T.);
#1560=ORIENTED_EDGE('',*,*,#1559,.F.);
#1561=ORIENTED_EDGE('',*,*,#1028,.F.);
#1562=ORIENTED_EDGE('',*,*,#1245,.F.);
#1563=EDGE_LOOP('',(#1538,#1546,#1552,#1553,#1554,#1560,#1561,#1562));
#1564=FACE_OUTER_BOUND('',#1563,.T.);
#1565=ADVANCED_FACE('',(#1564),#1537,.F.);
#1566=CARTESIAN_POINT('',(4.899999999999999,-2.925000000000004,3.0));
#1567=DIRECTION('',(0.0,-1.0,0.0));
#1568=DIRECTION('',(0.0,0.0,-1.0));
#1569=AXIS2_PLACEMENT_3D('',#1566,#1567,#1568);
#1570=PLANE('',#1569);
#1571=ORIENTED_EDGE('',*,*,#1264,.F.);
#1572=ORIENTED_EDGE('',*,*,#1551,.F.);
#1573=CARTESIAN_POINT('',(12.100000000000001,-2.925000000000004,3.0));
#1574=VERTEX_POINT('',#1573);
#1575=CARTESIAN_POINT('',(12.100000000000001,-2.925000000000004,3.0));
#1576=DIRECTION('',(-1.0,0.0,0.0));
#1577=VECTOR('',#1576,7.200000000000003);
#1578=LINE('',#1575,#1577);
#1579=EDGE_CURVE('',#1574,#1540,#1578,.T.);
#1580=ORIENTED_EDGE('',*,*,#1579,.F.);
#1581=CARTESIAN_POINT('',(12.100000000000001,-2.925000000000004,3.0));
#1582=DIRECTION('',(0.0,0.0,-1.0));
#1583=VECTOR('',#1582,1.600000000000001);
#1584=LINE('',#1581,#1583);
#1585=EDGE_CURVE('',#1574,#1259,#1584,.T.);
#1586=ORIENTED_EDGE('',*,*,#1585,.T.);
#1587=EDGE_LOOP('',(#1571,#1572,#1580,#1586));
#1588=FACE_OUTER_BOUND('',#1587,.T.);
#1589=ADVANCED_FACE('',(#1588),#1570,.F.);
#1590=CARTESIAN_POINT('',(12.100000000000001,-2.925000000000004,3.0));
#1591=DIRECTION('',(1.0,0.0,0.0));
#1592=DIRECTION('',(0.0,0.0,-1.0));
#1593=AXIS2_PLACEMENT_3D('',#1590,#1591,#1592);
#1594=PLANE('',#1593);
#1595=ORIENTED_EDGE('',*,*,#1270,.F.);
#1596=ORIENTED_EDGE('',*,*,#1585,.F.);
#1597=CARTESIAN_POINT('',(12.100000000000001,-1.731217782640002,3.0));
#1598=VERTEX_POINT('',#1597);
#1599=CARTESIAN_POINT('',(12.100000000000001,-1.731217782640002,3.0));
#1600=DIRECTION('',(0.0,-1.0,0.0));
#1601=VECTOR('',#1600,1.193782217360003);
#1602=LINE('',#1599,#1601);
#1603=EDGE_CURVE('',#1598,#1574,#1602,.T.);
#1604=ORIENTED_EDGE('',*,*,#1603,.F.);
#1605=CARTESIAN_POINT('',(12.100000000000001,-1.731217782640002,3.0));
#1606=DIRECTION('',(0.0,0.0,-1.0));
#1607=VECTOR('',#1606,1.600000000000001);
#1608=LINE('',#1605,#1607);
#1609=EDGE_CURVE('',#1598,#1144,#1608,.T.);
#1610=ORIENTED_EDGE('',*,*,#1609,.T.);
#1611=ORIENTED_EDGE('',*,*,#1149,.F.);
#1612=ORIENTED_EDGE('',*,*,#817,.T.);
#1613=CARTESIAN_POINT('',(12.100000000000001,-2.825000000000003,0.0));
#1614=DIRECTION('',(0.0,1.0,0.0));
#1615=VECTOR('',#1614,1.225000000000001);
#1616=LINE('',#1613,#1615);
#1617=EDGE_CURVE('',#773,#804,#1616,.T.);
#1618=ORIENTED_EDGE('',*,*,#1617,.F.);
#1619=ORIENTED_EDGE('',*,*,#793,.F.);
#1620=EDGE_LOOP('',(#1595,#1596,#1604,#1610,#1611,#1612,#1618,#1619));
#1621=FACE_OUTER_BOUND('',#1620,.T.);
#1622=ADVANCED_FACE('',(#1621),#1594,.F.);
#1623=CARTESIAN_POINT('',(12.100000000000001,-1.731217782640002,3.0));
#1624=DIRECTION('',(0.866025403781183,-0.500000000005638,0.0));
#1625=DIRECTION('',(0.0,0.0,-1.0));
#1626=AXIS2_PLACEMENT_3D('',#1623,#1624,#1625);
#1627=PLANE('',#1626);
#1628=ORIENTED_EDGE('',*,*,#1157,.F.);
#1629=ORIENTED_EDGE('',*,*,#1609,.F.);
#1630=CARTESIAN_POINT('',(12.450000000000003,-1.125000000000007,3.0));
#1631=VERTEX_POINT('',#1630);
#1632=CARTESIAN_POINT('',(12.450000000000003,-1.125000000000007,3.0));
#1633=DIRECTION('',(-0.500000000005638,-0.866025403781183,0.0));
#1634=VECTOR('',#1633,0.699999999992109);
#1635=LINE('',#1632,#1634);
#1636=EDGE_CURVE('',#1631,#1598,#1635,.T.);
#1637=ORIENTED_EDGE('',*,*,#1636,.F.);
#1638=CARTESIAN_POINT('',(12.450000000000003,-1.125000000000007,3.0));
#1639=DIRECTION('',(0.0,0.0,-1.0));
#1640=VECTOR('',#1639,1.600000000000001);
#1641=LINE('',#1638,#1640);
#1642=EDGE_CURVE('',#1631,#1152,#1641,.T.);
#1643=ORIENTED_EDGE('',*,*,#1642,.T.);
#1644=EDGE_LOOP('',(#1628,#1629,#1637,#1643));
#1645=FACE_OUTER_BOUND('',#1644,.T.);
#1646=ADVANCED_FACE('',(#1645),#1627,.F.);
#1647=CARTESIAN_POINT('',(12.450000000000003,-1.125000000000007,3.0));
#1648=DIRECTION('',(1.0,0.0,0.0));
#1649=DIRECTION('',(0.0,0.0,-1.0));
#1650=AXIS2_PLACEMENT_3D('',#1647,#1648,#1649);
#1651=PLANE('',#1650);
#1652=ORIENTED_EDGE('',*,*,#1165,.F.);
#1653=ORIENTED_EDGE('',*,*,#1642,.F.);
#1654=CARTESIAN_POINT('',(12.450000000000003,1.124999999999993,3.0));
#1655=VERTEX_POINT('',#1654);
#1656=CARTESIAN_POINT('',(12.450000000000003,1.124999999999993,3.0));
#1657=DIRECTION('',(0.0,-1.0,0.0));
#1658=VECTOR('',#1657,2.25);
#1659=LINE('',#1656,#1658);
#1660=EDGE_CURVE('',#1655,#1631,#1659,.T.);
#1661=ORIENTED_EDGE('',*,*,#1660,.F.);
#1662=CARTESIAN_POINT('',(12.450000000000003,1.124999999999993,3.0));
#1663=DIRECTION('',(0.0,0.0,-1.0));
#1664=VECTOR('',#1663,1.600000000000001);
#1665=LINE('',#1662,#1664);
#1666=EDGE_CURVE('',#1655,#1160,#1665,.T.);
#1667=ORIENTED_EDGE('',*,*,#1666,.T.);
#1668=EDGE_LOOP('',(#1652,#1653,#1661,#1667));
#1669=FACE_OUTER_BOUND('',#1668,.T.);
#1670=ADVANCED_FACE('',(#1669),#1651,.F.);
#1671=CARTESIAN_POINT('',(12.450000000000003,1.124999999999993,3.0));
#1672=DIRECTION('',(0.866025403788327,0.499999999993266,0.0));
#1673=DIRECTION('',(0.0,0.0,-1.0));
#1674=AXIS2_PLACEMENT_3D('',#1671,#1672,#1673);
#1675=PLANE('',#1674);
#1676=ORIENTED_EDGE('',*,*,#1173,.F.);
#1677=ORIENTED_EDGE('',*,*,#1666,.F.);
#1678=CARTESIAN_POINT('',(12.100000000000001,1.731217782659989,3.0));
#1679=VERTEX_POINT('',#1678);
#1680=CARTESIAN_POINT('',(12.100000000000001,1.73121778265999,3.0));
#1681=DIRECTION('',(0.499999999993265,-0.866025403788327,0.0));
#1682=VECTOR('',#1681,0.700000000009431);
#1683=LINE('',#1680,#1682);
#1684=EDGE_CURVE('',#1679,#1655,#1683,.T.);
#1685=ORIENTED_EDGE('',*,*,#1684,.F.);
#1686=CARTESIAN_POINT('',(12.100000000000001,1.731217782659989,3.0));
#1687=DIRECTION('',(0.0,0.0,-1.0));
#1688=VECTOR('',#1687,1.600000000000001);
#1689=LINE('',#1686,#1688);
#1690=EDGE_CURVE('',#1679,#1168,#1689,.T.);
#1691=ORIENTED_EDGE('',*,*,#1690,.T.);
#1692=EDGE_LOOP('',(#1676,#1677,#1685,#1691));
#1693=FACE_OUTER_BOUND('',#1692,.T.);
#1694=ADVANCED_FACE('',(#1693),#1675,.F.);
#1695=CARTESIAN_POINT('',(12.100000000000001,1.731217782659989,3.0));
#1696=DIRECTION('',(1.0,0.0,0.0));
#1697=DIRECTION('',(0.0,0.0,-1.0));
#1698=AXIS2_PLACEMENT_3D('',#1695,#1696,#1697);
#1699=PLANE('',#1698);
#1700=ORIENTED_EDGE('',*,*,#1690,.F.);
#1701=CARTESIAN_POINT('',(12.100000000000001,2.924999999999997,3.0));
#1702=VERTEX_POINT('',#1701);
#1703=CARTESIAN_POINT('',(12.100000000000001,2.924999999999997,3.0));
#1704=DIRECTION('',(0.0,-1.0,0.0));
#1705=VECTOR('',#1704,1.193782217340008);
#1706=LINE('',#1703,#1705);
#1707=EDGE_CURVE('',#1702,#1679,#1706,.T.);
#1708=ORIENTED_EDGE('',*,*,#1707,.F.);
#1709=CARTESIAN_POINT('',(12.100000000000001,2.924999999999997,3.0));
#1710=DIRECTION('',(0.0,0.0,-1.0));
#1711=VECTOR('',#1710,1.600000000000001);
#1712=LINE('',#1709,#1711);
#1713=EDGE_CURVE('',#1702,#1185,#1712,.T.);
#1714=ORIENTED_EDGE('',*,*,#1713,.T.);
#1715=ORIENTED_EDGE('',*,*,#1190,.F.);
#1716=ORIENTED_EDGE('',*,*,#1123,.T.);
#1717=CARTESIAN_POINT('',(12.100000000000001,1.599999999999994,0.0));
#1718=DIRECTION('',(0.0,1.0,0.0));
#1719=VECTOR('',#1718,1.225000000000001);
#1720=LINE('',#1717,#1719);
#1721=EDGE_CURVE('',#1079,#1110,#1720,.T.);
#1722=ORIENTED_EDGE('',*,*,#1721,.F.);
#1723=ORIENTED_EDGE('',*,*,#1099,.F.);
#1724=ORIENTED_EDGE('',*,*,#1179,.F.);
#1725=EDGE_LOOP('',(#1700,#1708,#1714,#1715,#1716,#1722,#1723,#1724));
#1726=FACE_OUTER_BOUND('',#1725,.T.);
#1727=ADVANCED_FACE('',(#1726),#1699,.F.);
#1728=CARTESIAN_POINT('',(12.100000000000001,2.924999999999997,3.0));
#1729=DIRECTION('',(0.0,1.0,0.0));
#1730=DIRECTION('',(0.0,0.0,1.0));
#1731=AXIS2_PLACEMENT_3D('',#1728,#1729,#1730);
#1732=PLANE('',#1731);
#1733=ORIENTED_EDGE('',*,*,#1198,.F.);
#1734=ORIENTED_EDGE('',*,*,#1713,.F.);
#1735=CARTESIAN_POINT('',(4.899999999999999,2.924999999999997,3.0));
#1736=DIRECTION('',(1.0,0.0,0.0));
#1737=VECTOR('',#1736,7.200000000000003);
#1738=LINE('',#1735,#1737);
#1739=EDGE_CURVE('',#1428,#1702,#1738,.T.);
#1740=ORIENTED_EDGE('',*,*,#1739,.F.);
#1741=ORIENTED_EDGE('',*,*,#1433,.T.);
#1742=EDGE_LOOP('',(#1733,#1734,#1740,#1741));
#1743=FACE_OUTER_BOUND('',#1742,.T.);
#1744=ADVANCED_FACE('',(#1743),#1732,.F.);
#1745=CARTESIAN_POINT('',(-1.207996E-010,-3.561818E-010,0.0));
#1746=DIRECTION('',(0.0,0.0,1.0));
#1747=DIRECTION('',(0.362283989295562,0.932067761002435,0.0));
#1748=AXIS2_PLACEMENT_3D('',#1745,#1746,#1747);
#1749=CYLINDRICAL_SURFACE('',#1748,5.000000000375752);
#1750=CARTESIAN_POINT('',(0.994987437120002,4.899999999999992,3.0));
#1751=VERTEX_POINT('',#1750);
#1752=CARTESIAN_POINT('',(2.575393768220779,4.285714285704531,3.0));
#1753=VERTEX_POINT('',#1752);
#1754=CARTESIAN_POINT('',(-1.207996E-010,-3.561818E-010,3.0));
#1755=DIRECTION('',(0.0,0.0,-1.0));
#1756=DIRECTION('',(0.362283989295562,0.932067761002435,0.0));
#1757=AXIS2_PLACEMENT_3D('',#1754,#1755,#1756);
#1758=CIRCLE('',#1757,5.000000000375752);
#1759=EDGE_CURVE('',#1751,#1753,#1758,.T.);
#1760=ORIENTED_EDGE('',*,*,#1759,.T.);
#1761=CARTESIAN_POINT('',(2.575393768220779,4.285714285704531,0.0));
#1762=VERTEX_POINT('',#1761);
#1763=CARTESIAN_POINT('',(2.575393768220779,4.285714285704531,0.0));
#1764=DIRECTION('',(0.0,0.0,1.0));
#1765=VECTOR('',#1764,3.0);
#1766=LINE('',#1763,#1765);
#1767=EDGE_CURVE('',#1762,#1753,#1766,.T.);
#1768=ORIENTED_EDGE('',*,*,#1767,.F.);
#1769=CARTESIAN_POINT('',(0.994987437120002,4.899999999999992,0.0));
#1770=VERTEX_POINT('',#1769);
#1771=CARTESIAN_POINT('',(-1.207996E-010,-3.561818E-010,0.0));
#1772=DIRECTION('',(0.0,0.0,1.0));
#1773=DIRECTION('',(0.362283989295562,0.932067761002435,0.0));
#1774=AXIS2_PLACEMENT_3D('',#1771,#1772,#1773);
#1775=CIRCLE('',#1774,5.000000000375752);
#1776=EDGE_CURVE('',#1762,#1770,#1775,.T.);
#1777=ORIENTED_EDGE('',*,*,#1776,.T.);
#1778=CARTESIAN_POINT('',(0.994987437120002,4.899999999999992,0.0));
#1779=DIRECTION('',(0.0,0.0,1.0));
#1780=VECTOR('',#1779,3.0);
#1781=LINE('',#1778,#1780);
#1782=EDGE_CURVE('',#1770,#1751,#1781,.T.);
#1783=ORIENTED_EDGE('',*,*,#1782,.T.);
#1784=EDGE_LOOP('',(#1760,#1768,#1777,#1783));
#1785=FACE_OUTER_BOUND('',#1784,.T.);
#1786=ADVANCED_FACE('',(#1785),#1749,.T.);
#1787=CARTESIAN_POINT('',(3.605551275479998,5.999999999999997,0.0));
#1788=DIRECTION('',(0.0,0.0,1.0));
#1789=DIRECTION('',(-0.267261241907868,-0.963624111660695,0.0));
#1790=AXIS2_PLACEMENT_3D('',#1787,#1788,#1789);
#1791=CYLINDRICAL_SURFACE('',#1790,2.000000000000011);
#1792=CARTESIAN_POINT('',(3.605551275479996,3.999999999999986,3.0));
#1793=VERTEX_POINT('',#1792);
#1794=CARTESIAN_POINT('',(3.605551275479998,5.999999999999997,3.0));
#1795=DIRECTION('',(0.0,0.0,1.0));
#1796=DIRECTION('',(-0.267261241907868,-0.963624111660695,0.0));
#1797=AXIS2_PLACEMENT_3D('',#1794,#1795,#1796);
#1798=CIRCLE('',#1797,2.000000000000011);
#1799=EDGE_CURVE('',#1753,#1793,#1798,.T.);
#1800=ORIENTED_EDGE('',*,*,#1799,.T.);
#1801=CARTESIAN_POINT('',(3.605551275479996,3.999999999999986,0.0));
#1802=VERTEX_POINT('',#1801);
#1803=CARTESIAN_POINT('',(3.605551275479996,3.999999999999986,0.0));
#1804=DIRECTION('',(0.0,0.0,1.0));
#1805=VECTOR('',#1804,3.0);
#1806=LINE('',#1803,#1805);
#1807=EDGE_CURVE('',#1802,#1793,#1806,.T.);
#1808=ORIENTED_EDGE('',*,*,#1807,.F.);
#1809=CARTESIAN_POINT('',(3.605551275479998,5.999999999999997,0.0));
#1810=DIRECTION('',(0.0,0.0,-1.0));
#1811=DIRECTION('',(-0.267261241907868,-0.963624111660695,0.0));
#1812=AXIS2_PLACEMENT_3D('',#1809,#1810,#1811);
#1813=CIRCLE('',#1812,2.000000000000011);
#1814=EDGE_CURVE('',#1802,#1762,#1813,.T.);
#1815=ORIENTED_EDGE('',*,*,#1814,.T.);
#1816=ORIENTED_EDGE('',*,*,#1767,.T.);
#1817=EDGE_LOOP('',(#1800,#1808,#1815,#1816));
#1818=FACE_OUTER_BOUND('',#1817,.T.);
#1819=ADVANCED_FACE('',(#1818),#1791,.F.);
#1820=CARTESIAN_POINT('',(3.605551275479996,3.999999999999986,0.0));
#1821=DIRECTION('',(0.0,1.0,0.0));
#1822=DIRECTION('',(0.0,0.0,1.0));
#1823=AXIS2_PLACEMENT_3D('',#1820,#1821,#1822);
#1824=PLANE('',#1823);
#1825=CARTESIAN_POINT('',(12.450000000000003,3.999999999999985,3.0));
#1826=VERTEX_POINT('',#1825);
#1827=CARTESIAN_POINT('',(3.605551275479996,3.999999999999986,3.0));
#1828=DIRECTION('',(1.0,0.0,0.0));
#1829=VECTOR('',#1828,8.844448724520007);
#1830=LINE('',#1827,#1829);
#1831=EDGE_CURVE('',#1793,#1826,#1830,.T.);
#1832=ORIENTED_EDGE('',*,*,#1831,.T.);
#1833=CARTESIAN_POINT('',(12.450000000000003,3.999999999999985,0.0));
#1834=VERTEX_POINT('',#1833);
#1835=CARTESIAN_POINT('',(12.450000000000003,3.999999999999985,0.0));
#1836=DIRECTION('',(0.0,0.0,1.0));
#1837=VECTOR('',#1836,3.0);
#1838=LINE('',#1835,#1837);
#1839=EDGE_CURVE('',#1834,#1826,#1838,.T.);
#1840=ORIENTED_EDGE('',*,*,#1839,.F.);
#1841=CARTESIAN_POINT('',(12.450000000000003,3.999999999999985,0.0));
#1842=DIRECTION('',(-1.0,0.0,0.0));
#1843=VECTOR('',#1842,8.844448724520007);
#1844=LINE('',#1841,#1843);
#1845=EDGE_CURVE('',#1834,#1802,#1844,.T.);
#1846=ORIENTED_EDGE('',*,*,#1845,.T.);
#1847=ORIENTED_EDGE('',*,*,#1807,.T.);
#1848=EDGE_LOOP('',(#1832,#1840,#1846,#1847));
#1849=FACE_OUTER_BOUND('',#1848,.T.);
#1850=ADVANCED_FACE('',(#1849),#1824,.T.);
#1851=CARTESIAN_POINT('',(12.450000000000024,3.000000000000005,0.0));
#1852=DIRECTION('',(0.0,0.0,1.0));
#1853=DIRECTION('',(0.707106781186545,0.707106781186551,0.0));
#1854=AXIS2_PLACEMENT_3D('',#1851,#1852,#1853);
#1855=CYLINDRICAL_SURFACE('',#1854,0.999999999999979);
#1856=CARTESIAN_POINT('',(13.450000000000003,2.999999999999993,3.0));
#1857=VERTEX_POINT('',#1856);
#1858=CARTESIAN_POINT('',(12.450000000000024,3.000000000000005,3.0));
#1859=DIRECTION('',(0.0,0.0,-1.0));
#1860=DIRECTION('',(0.707106781186545,0.707106781186551,0.0));
#1861=AXIS2_PLACEMENT_3D('',#1858,#1859,#1860);
#1862=CIRCLE('',#1861,0.999999999999979);
#1863=EDGE_CURVE('',#1826,#1857,#1862,.T.);
#1864=ORIENTED_EDGE('',*,*,#1863,.T.);
#1865=CARTESIAN_POINT('',(13.450000000000003,2.999999999999993,0.0));
#1866=VERTEX_POINT('',#1865);
#1867=CARTESIAN_POINT('',(13.450000000000003,2.999999999999993,0.0));
#1868=DIRECTION('',(0.0,0.0,1.0));
#1869=VECTOR('',#1868,3.0);
#1870=LINE('',#1867,#1869);
#1871=EDGE_CURVE('',#1866,#1857,#1870,.T.);
#1872=ORIENTED_EDGE('',*,*,#1871,.F.);
#1873=CARTESIAN_POINT('',(12.450000000000024,3.000000000000005,0.0));
#1874=DIRECTION('',(0.0,0.0,1.0));
#1875=DIRECTION('',(0.707106781186545,0.707106781186551,0.0));
#1876=AXIS2_PLACEMENT_3D('',#1873,#1874,#1875);
#1877=CIRCLE('',#1876,0.999999999999979);
#1878=EDGE_CURVE('',#1866,#1834,#1877,.T.);
#1879=ORIENTED_EDGE('',*,*,#1878,.T.);
#1880=ORIENTED_EDGE('',*,*,#1839,.T.);
#1881=EDGE_LOOP('',(#1864,#1872,#1879,#1880));
#1882=FACE_OUTER_BOUND('',#1881,.T.);
#1883=ADVANCED_FACE('',(#1882),#1855,.T.);
#1884=CARTESIAN_POINT('',(13.450000000000003,2.999999999999993,0.0));
#1885=DIRECTION('',(1.0,0.0,0.0));
#1886=DIRECTION('',(0.0,0.0,-1.0));
#1887=AXIS2_PLACEMENT_3D('',#1884,#1885,#1886);
#1888=PLANE('',#1887);
#1889=CARTESIAN_POINT('',(13.450000000000003,-3.000000000000007,3.0));
#1890=VERTEX_POINT('',#1889);
#1891=CARTESIAN_POINT('',(13.450000000000003,2.999999999999993,3.0));
#1892=DIRECTION('',(0.0,-1.0,0.0));
#1893=VECTOR('',#1892,6.0);
#1894=LINE('',#1891,#1893);
#1895=EDGE_CURVE('',#1857,#1890,#1894,.T.);
#1896=ORIENTED_EDGE('',*,*,#1895,.T.);
#1897=CARTESIAN_POINT('',(13.450000000000003,-3.000000000000007,0.0));
#1898=VERTEX_POINT('',#1897);
#1899=CARTESIAN_POINT('',(13.450000000000003,-3.000000000000007,0.0));
#1900=DIRECTION('',(0.0,0.0,1.0));
#1901=VECTOR('',#1900,3.0);
#1902=LINE('',#1899,#1901);
#1903=EDGE_CURVE('',#1898,#1890,#1902,.T.);
#1904=ORIENTED_EDGE('',*,*,#1903,.F.);
#1905=CARTESIAN_POINT('',(13.450000000000003,-3.000000000000007,0.0));
#1906=DIRECTION('',(0.0,1.0,0.0));
#1907=VECTOR('',#1906,6.0);
#1908=LINE('',#1905,#1907);
#1909=EDGE_CURVE('',#1898,#1866,#1908,.T.);
#1910=ORIENTED_EDGE('',*,*,#1909,.T.);
#1911=ORIENTED_EDGE('',*,*,#1871,.T.);
#1912=EDGE_LOOP('',(#1896,#1904,#1910,#1911));
#1913=FACE_OUTER_BOUND('',#1912,.T.);
#1914=ADVANCED_FACE('',(#1913),#1888,.T.);
#1915=CARTESIAN_POINT('',(12.450000000000001,-3.000000000000005,0.0));
#1916=DIRECTION('',(0.0,0.0,1.0));
#1917=DIRECTION('',(0.707106781186548,-0.707106781186548,0.0));
#1918=AXIS2_PLACEMENT_3D('',#1915,#1916,#1917);
#1919=CYLINDRICAL_SURFACE('',#1918,1.000000000000002);
#1920=CARTESIAN_POINT('',(12.450000000000003,-4.000000000000007,3.0));
#1921=VERTEX_POINT('',#1920);
#1922=CARTESIAN_POINT('',(12.450000000000001,-3.000000000000005,3.0));
#1923=DIRECTION('',(0.0,0.0,-1.0));
#1924=DIRECTION('',(0.707106781186548,-0.707106781186548,0.0));
#1925=AXIS2_PLACEMENT_3D('',#1922,#1923,#1924);
#1926=CIRCLE('',#1925,1.000000000000002);
#1927=EDGE_CURVE('',#1890,#1921,#1926,.T.);
#1928=ORIENTED_EDGE('',*,*,#1927,.T.);
#1929=CARTESIAN_POINT('',(12.450000000000003,-4.000000000000007,0.0));
#1930=VERTEX_POINT('',#1929);
#1931=CARTESIAN_POINT('',(12.450000000000003,-4.000000000000007,0.0));
#1932=DIRECTION('',(0.0,0.0,1.0));
#1933=VECTOR('',#1932,3.0);
#1934=LINE('',#1931,#1933);
#1935=EDGE_CURVE('',#1930,#1921,#1934,.T.);
#1936=ORIENTED_EDGE('',*,*,#1935,.F.);
#1937=CARTESIAN_POINT('',(12.450000000000001,-3.000000000000005,0.0));
#1938=DIRECTION('',(0.0,0.0,1.0));
#1939=DIRECTION('',(0.707106781186548,-0.707106781186548,0.0));
#1940=AXIS2_PLACEMENT_3D('',#1937,#1938,#1939);
#1941=CIRCLE('',#1940,1.000000000000002);
#1942=EDGE_CURVE('',#1930,#1898,#1941,.T.);
#1943=ORIENTED_EDGE('',*,*,#1942,.T.);
#1944=ORIENTED_EDGE('',*,*,#1903,.T.);
#1945=EDGE_LOOP('',(#1928,#1936,#1943,#1944));
#1946=FACE_OUTER_BOUND('',#1945,.T.);
#1947=ADVANCED_FACE('',(#1946),#1919,.T.);
#1948=CARTESIAN_POINT('',(12.450000000000003,-4.000000000000007,0.0));
#1949=DIRECTION('',(0.0,-1.0,0.0));
#1950=DIRECTION('',(0.0,0.0,-1.0));
#1951=AXIS2_PLACEMENT_3D('',#1948,#1949,#1950);
#1952=PLANE('',#1951);
#1953=CARTESIAN_POINT('',(3.605551275479996,-4.000000000000007,3.0));
#1954=VERTEX_POINT('',#1953);
#1955=CARTESIAN_POINT('',(12.450000000000003,-4.000000000000007,3.0));
#1956=DIRECTION('',(-1.0,0.0,0.0));
#1957=VECTOR('',#1956,8.844448724520007);
#1958=LINE('',#1955,#1957);
#1959=EDGE_CURVE('',#1921,#1954,#1958,.T.);
#1960=ORIENTED_EDGE('',*,*,#1959,.T.);
#1961=CARTESIAN_POINT('',(3.605551275479996,-4.000000000000007,0.0));
#1962=VERTEX_POINT('',#1961);
#1963=CARTESIAN_POINT('',(3.605551275479996,-4.000000000000007,0.0));
#1964=DIRECTION('',(0.0,0.0,1.0));
#1965=VECTOR('',#1964,3.0);
#1966=LINE('',#1963,#1965);
#1967=EDGE_CURVE('',#1962,#1954,#1966,.T.);
#1968=ORIENTED_EDGE('',*,*,#1967,.F.);
#1969=CARTESIAN_POINT('',(3.605551275479996,-4.000000000000007,0.0));
#1970=DIRECTION('',(1.0,0.0,0.0));
#1971=VECTOR('',#1970,8.844448724520007);
#1972=LINE('',#1969,#1971);
#1973=EDGE_CURVE('',#1962,#1930,#1972,.T.);
#1974=ORIENTED_EDGE('',*,*,#1973,.T.);
#1975=ORIENTED_EDGE('',*,*,#1935,.T.);
#1976=EDGE_LOOP('',(#1960,#1968,#1974,#1975));
#1977=FACE_OUTER_BOUND('',#1976,.T.);
#1978=ADVANCED_FACE('',(#1977),#1952,.T.);
#1979=CARTESIAN_POINT('',(3.605551275495418,-6.000000000113377,0.0));
#1980=DIRECTION('',(0.0,0.0,1.0));
#1981=DIRECTION('',(-0.267261241913973,0.963624111659002,0.0));
#1982=AXIS2_PLACEMENT_3D('',#1979,#1980,#1981);
#1983=CYLINDRICAL_SURFACE('',#1982,2.00000000011337);
#1984=CARTESIAN_POINT('',(2.575393768169307,-4.285714285725856,3.0));
#1985=VERTEX_POINT('',#1984);
#1986=CARTESIAN_POINT('',(3.605551275495418,-6.000000000113377,3.0));
#1987=DIRECTION('',(0.0,0.0,1.0));
#1988=DIRECTION('',(-0.267261241913973,0.963624111659002,0.0));
#1989=AXIS2_PLACEMENT_3D('',#1986,#1987,#1988);
#1990=CIRCLE('',#1989,2.00000000011337);
#1991=EDGE_CURVE('',#1954,#1985,#1990,.T.);
#1992=ORIENTED_EDGE('',*,*,#1991,.T.);
#1993=CARTESIAN_POINT('',(2.575393768169307,-4.285714285725856,0.0));
#1994=VERTEX_POINT('',#1993);
#1995=CARTESIAN_POINT('',(2.575393768169307,-4.285714285725856,0.0));
#1996=DIRECTION('',(0.0,0.0,1.0));
#1997=VECTOR('',#1996,3.0);
#1998=LINE('',#1995,#1997);
#1999=EDGE_CURVE('',#1994,#1985,#1998,.T.);
#2000=ORIENTED_EDGE('',*,*,#1999,.F.);
#2001=CARTESIAN_POINT('',(3.605551275495418,-6.000000000113377,0.0));
#2002=DIRECTION('',(0.0,0.0,-1.0));
#2003=DIRECTION('',(-0.267261241913973,0.963624111659002,0.0));
#2004=AXIS2_PLACEMENT_3D('',#2001,#2002,#2003);
#2005=CIRCLE('',#2004,2.00000000011337);
#2006=EDGE_CURVE('',#1994,#1962,#2005,.T.);
#2007=ORIENTED_EDGE('',*,*,#2006,.T.);
#2008=ORIENTED_EDGE('',*,*,#1967,.T.);
#2009=EDGE_LOOP('',(#1992,#2000,#2007,#2008));
#2010=FACE_OUTER_BOUND('',#2009,.T.);
#2011=ADVANCED_FACE('',(#2010),#1983,.F.);
#2012=CARTESIAN_POINT('',(4.218847E-015,-1.065814E-014,0.0));
#2013=DIRECTION('',(0.0,0.0,1.0));
#2014=DIRECTION('',(0.36228398929194,-0.932067761003843,0.0));
#2015=AXIS2_PLACEMENT_3D('',#2012,#2013,#2014);
#2016=CYLINDRICAL_SURFACE('',#2015,4.999999999999987);
#2017=CARTESIAN_POINT('',(0.994987437103627,-4.900000000000606,3.0));
#2018=VERTEX_POINT('',#2017);
#2019=CARTESIAN_POINT('',(4.218847E-015,-1.065814E-014,3.0));
#2020=DIRECTION('',(0.0,0.0,-1.0));
#2021=DIRECTION('',(0.36228398929194,-0.932067761003843,0.0));
#2022=AXIS2_PLACEMENT_3D('',#2019,#2020,#2021);
#2023=CIRCLE('',#2022,4.999999999999987);
#2024=EDGE_CURVE('',#1985,#2018,#2023,.T.);
#2025=ORIENTED_EDGE('',*,*,#2024,.T.);
#2026=CARTESIAN_POINT('',(0.994987437103627,-4.900000000000606,0.0));
#2027=VERTEX_POINT('',#2026);
#2028=CARTESIAN_POINT('',(0.994987437103627,-4.900000000000606,0.0));
#2029=DIRECTION('',(0.0,0.0,1.0));
#2030=VECTOR('',#2029,3.0);
#2031=LINE('',#2028,#2030);
#2032=EDGE_CURVE('',#2027,#2018,#2031,.T.);
#2033=ORIENTED_EDGE('',*,*,#2032,.F.);
#2034=CARTESIAN_POINT('',(4.218847E-015,-1.065814E-014,0.0));
#2035=DIRECTION('',(0.0,0.0,1.0));
#2036=DIRECTION('',(0.36228398929194,-0.932067761003843,0.0));
#2037=AXIS2_PLACEMENT_3D('',#2034,#2035,#2036);
#2038=CIRCLE('',#2037,4.999999999999987);
#2039=EDGE_CURVE('',#2027,#1994,#2038,.T.);
#2040=ORIENTED_EDGE('',*,*,#2039,.T.);
#2041=ORIENTED_EDGE('',*,*,#1999,.T.);
#2042=EDGE_LOOP('',(#2025,#2033,#2040,#2041));
#2043=FACE_OUTER_BOUND('',#2042,.T.);
#2044=ADVANCED_FACE('',(#2043),#2016,.T.);
#2045=CARTESIAN_POINT('',(0.994987437103627,-4.900000000000606,0.0));
#2046=DIRECTION('',(0.0,-1.0,0.0));
#2047=DIRECTION('',(0.0,0.0,-1.0));
#2048=AXIS2_PLACEMENT_3D('',#2045,#2046,#2047);
#2049=PLANE('',#2048);
#2050=CARTESIAN_POINT('',(-0.994987437103635,-4.90000000000061,3.0));
#2051=VERTEX_POINT('',#2050);
#2052=CARTESIAN_POINT('',(0.994987437103627,-4.900000000000606,3.0));
#2053=DIRECTION('',(-1.0,0.0,0.0));
#2054=VECTOR('',#2053,1.989974874207262);
#2055=LINE('',#2052,#2054);
#2056=EDGE_CURVE('',#2018,#2051,#2055,.T.);
#2057=ORIENTED_EDGE('',*,*,#2056,.T.);
#2058=CARTESIAN_POINT('',(-0.994987437103635,-4.90000000000061,0.0));
#2059=VERTEX_POINT('',#2058);
#2060=CARTESIAN_POINT('',(-0.994987437103635,-4.90000000000061,0.0));
#2061=DIRECTION('',(0.0,0.0,1.0));
#2062=VECTOR('',#2061,3.0);
#2063=LINE('',#2060,#2062);
#2064=EDGE_CURVE('',#2059,#2051,#2063,.T.);
#2065=ORIENTED_EDGE('',*,*,#2064,.F.);
#2066=CARTESIAN_POINT('',(-0.994987437103635,-4.90000000000061,0.0));
#2067=DIRECTION('',(1.0,0.0,0.0));
#2068=VECTOR('',#2067,1.989974874207262);
#2069=LINE('',#2066,#2068);
#2070=EDGE_CURVE('',#2059,#2027,#2069,.T.);
#2071=ORIENTED_EDGE('',*,*,#2070,.T.);
#2072=ORIENTED_EDGE('',*,*,#2032,.T.);
#2073=EDGE_LOOP('',(#2057,#2065,#2071,#2072));
#2074=FACE_OUTER_BOUND('',#2073,.T.);
#2075=ADVANCED_FACE('',(#2074),#2049,.T.);
#2076=CARTESIAN_POINT('',(1.751932E-012,-6.780757E-013,0.0));
#2077=DIRECTION('',(0.0,0.0,1.0));
#2078=DIRECTION('',(-1.0,3.708485E-013,0.0));
#2079=AXIS2_PLACEMENT_3D('',#2076,#2077,#2078);
#2080=CYLINDRICAL_SURFACE('',#2079,4.999999999999687);
#2081=CARTESIAN_POINT('',(-0.994987437100001,4.899999999999992,3.0));
#2082=VERTEX_POINT('',#2081);
#2083=CARTESIAN_POINT('',(1.751932E-012,-6.780757E-013,3.0));
#2084=DIRECTION('',(0.0,0.0,-1.0));
#2085=DIRECTION('',(-1.0,3.708485E-013,0.0));
#2086=AXIS2_PLACEMENT_3D('',#2083,#2084,#2085);
#2087=CIRCLE('',#2086,4.999999999999687);
#2088=EDGE_CURVE('',#2051,#2082,#2087,.T.);
#2089=ORIENTED_EDGE('',*,*,#2088,.T.);
#2090=CARTESIAN_POINT('',(-0.994987437100001,4.899999999999992,0.0));
#2091=VERTEX_POINT('',#2090);
#2092=CARTESIAN_POINT('',(-0.994987437100001,4.899999999999992,0.0));
#2093=DIRECTION('',(0.0,0.0,1.0));
#2094=VECTOR('',#2093,3.0);
#2095=LINE('',#2092,#2094);
#2096=EDGE_CURVE('',#2091,#2082,#2095,.T.);
#2097=ORIENTED_EDGE('',*,*,#2096,.F.);
#2098=CARTESIAN_POINT('',(1.751932E-012,-6.780757E-013,0.0));
#2099=DIRECTION('',(0.0,0.0,1.0));
#2100=DIRECTION('',(-1.0,3.708485E-013,0.0));
#2101=AXIS2_PLACEMENT_3D('',#2098,#2099,#2100);
#2102=CIRCLE('',#2101,4.999999999999687);
#2103=EDGE_CURVE('',#2091,#2059,#2102,.T.);
#2104=ORIENTED_EDGE('',*,*,#2103,.T.);
#2105=ORIENTED_EDGE('',*,*,#2064,.T.);
#2106=EDGE_LOOP('',(#2089,#2097,#2104,#2105));
#2107=FACE_OUTER_BOUND('',#2106,.T.);
#2108=ADVANCED_FACE('',(#2107),#2080,.T.);
#2109=CARTESIAN_POINT('',(-0.994987437100001,4.899999999999992,0.0));
#2110=DIRECTION('',(0.0,1.0,0.0));
#2111=DIRECTION('',(0.0,0.0,1.0));
#2112=AXIS2_PLACEMENT_3D('',#2109,#2110,#2111);
#2113=PLANE('',#2112);
#2114=CARTESIAN_POINT('',(-0.994987437100001,4.899999999999992,3.0));
#2115=DIRECTION('',(1.0,0.0,0.0));
#2116=VECTOR('',#2115,1.989974874220003);
#2117=LINE('',#2114,#2116);
#2118=EDGE_CURVE('',#2082,#1751,#2117,.T.);
#2119=ORIENTED_EDGE('',*,*,#2118,.T.);
#2120=ORIENTED_EDGE('',*,*,#1782,.F.);
#2121=CARTESIAN_POINT('',(0.994987437120002,4.899999999999992,0.0));
#2122=DIRECTION('',(-1.0,0.0,0.0));
#2123=VECTOR('',#2122,1.989974874220003);
#2124=LINE('',#2121,#2123);
#2125=EDGE_CURVE('',#1770,#2091,#2124,.T.);
#2126=ORIENTED_EDGE('',*,*,#2125,.T.);
#2127=ORIENTED_EDGE('',*,*,#2096,.T.);
#2128=EDGE_LOOP('',(#2119,#2120,#2126,#2127));
#2129=FACE_OUTER_BOUND('',#2128,.T.);
#2130=ADVANCED_FACE('',(#2129),#2113,.T.);
#2131=CARTESIAN_POINT('',(4.61331183875425,-1.486814E-013,0.0));
#2132=DIRECTION('',(0.0,0.0,1.0));
#2133=DIRECTION('',(1.0,0.0,0.0));
#2134=AXIS2_PLACEMENT_3D('',#2131,#2132,#2133);
#2135=PLANE('',#2134);
#2136=ORIENTED_EDGE('',*,*,#2125,.F.);
#2137=ORIENTED_EDGE('',*,*,#1776,.F.);
#2138=ORIENTED_EDGE('',*,*,#1814,.F.);
#2139=ORIENTED_EDGE('',*,*,#1845,.F.);
#2140=ORIENTED_EDGE('',*,*,#1878,.F.);
#2141=ORIENTED_EDGE('',*,*,#1909,.F.);
#2142=ORIENTED_EDGE('',*,*,#1942,.F.);
#2143=ORIENTED_EDGE('',*,*,#1973,.F.);
#2144=ORIENTED_EDGE('',*,*,#2006,.F.);
#2145=ORIENTED_EDGE('',*,*,#2039,.F.);
#2146=ORIENTED_EDGE('',*,*,#2070,.F.);
#2147=ORIENTED_EDGE('',*,*,#2103,.F.);
#2148=EDGE_LOOP('',(#2136,#2137,#2138,#2139,#2140,#2141,#2142,#2143,#2144,#2145,#2146,#2147));
#2149=FACE_OUTER_BOUND('',#2148,.T.);
#2150=ORIENTED_EDGE('',*,*,#694,.T.);
#2151=ORIENTED_EDGE('',*,*,#663,.T.);
#2152=ORIENTED_EDGE('',*,*,#632,.T.);
#2153=ORIENTED_EDGE('',*,*,#721,.T.);
#2154=EDGE_LOOP('',(#2150,#2151,#2152,#2153));
#2155=FACE_BOUND('',#2154,.T.);
#2156=ORIENTED_EDGE('',*,*,#740,.T.);
#2157=ORIENTED_EDGE('',*,*,#778,.T.);
#2158=ORIENTED_EDGE('',*,*,#1617,.T.);
#2159=ORIENTED_EDGE('',*,*,#809,.T.);
#2160=EDGE_LOOP('',(#2156,#2157,#2158,#2159));
#2161=FACE_BOUND('',#2160,.T.);
#2162=ORIENTED_EDGE('',*,*,#1455,.T.);
#2163=ORIENTED_EDGE('',*,*,#842,.T.);
#2164=ORIENTED_EDGE('',*,*,#880,.T.);
#2165=ORIENTED_EDGE('',*,*,#911,.T.);
#2166=EDGE_LOOP('',(#2162,#2163,#2164,#2165));
#2167=FACE_BOUND('',#2166,.T.);
#2168=ORIENTED_EDGE('',*,*,#1559,.T.);
#2169=ORIENTED_EDGE('',*,*,#944,.T.);
#2170=ORIENTED_EDGE('',*,*,#982,.T.);
#2171=ORIENTED_EDGE('',*,*,#1013,.T.);
#2172=EDGE_LOOP('',(#2168,#2169,#2170,#2171));
#2173=FACE_BOUND('',#2172,.T.);
#2174=ORIENTED_EDGE('',*,*,#1046,.T.);
#2175=ORIENTED_EDGE('',*,*,#1084,.T.);
#2176=ORIENTED_EDGE('',*,*,#1721,.T.);
#2177=ORIENTED_EDGE('',*,*,#1115,.T.);
#2178=EDGE_LOOP('',(#2174,#2175,#2176,#2177));
#2179=FACE_BOUND('',#2178,.T.);
#2180=ADVANCED_FACE('',(#2149,#2155,#2161,#2167,#2173,#2179),#2135,.F.);
#2181=CARTESIAN_POINT('',(4.613311838754249,-1.489919E-013,3.0));
#2182=DIRECTION('',(0.0,0.0,1.0));
#2183=DIRECTION('',(1.0,0.0,0.0));
#2184=AXIS2_PLACEMENT_3D('',#2181,#2182,#2183);
#2185=PLANE('',#2184);
#2186=ORIENTED_EDGE('',*,*,#1759,.F.);
#2187=ORIENTED_EDGE('',*,*,#2118,.F.);
#2188=ORIENTED_EDGE('',*,*,#2088,.F.);
#2189=ORIENTED_EDGE('',*,*,#2056,.F.);
#2190=ORIENTED_EDGE('',*,*,#2024,.F.);
#2191=ORIENTED_EDGE('',*,*,#1991,.F.);
#2192=ORIENTED_EDGE('',*,*,#1959,.F.);
#2193=ORIENTED_EDGE('',*,*,#1927,.F.);
#2194=ORIENTED_EDGE('',*,*,#1895,.F.);
#2195=ORIENTED_EDGE('',*,*,#1863,.F.);
#2196=ORIENTED_EDGE('',*,*,#1831,.F.);
#2197=ORIENTED_EDGE('',*,*,#1799,.F.);
#2198=EDGE_LOOP('',(#2186,#2187,#2188,#2189,#2190,#2191,#2192,#2193,#2194,#2195,#2196,#2197));
#2199=FACE_OUTER_BOUND('',#2198,.T.);
#2200=ORIENTED_EDGE('',*,*,#1312,.T.);
#2201=ORIENTED_EDGE('',*,*,#1403,.T.);
#2202=ORIENTED_EDGE('',*,*,#1376,.T.);
#2203=ORIENTED_EDGE('',*,*,#1343,.T.);
#2204=EDGE_LOOP('',(#2200,#2201,#2202,#2203));
#2205=FACE_BOUND('',#2204,.T.);
#2206=ORIENTED_EDGE('',*,*,#1441,.T.);
#2207=ORIENTED_EDGE('',*,*,#1739,.T.);
#2208=ORIENTED_EDGE('',*,*,#1707,.T.);
#2209=ORIENTED_EDGE('',*,*,#1684,.T.);
#2210=ORIENTED_EDGE('',*,*,#1660,.T.);
#2211=ORIENTED_EDGE('',*,*,#1636,.T.);
#2212=ORIENTED_EDGE('',*,*,#1603,.T.);
#2213=ORIENTED_EDGE('',*,*,#1579,.T.);
#2214=ORIENTED_EDGE('',*,*,#1545,.T.);
#2215=ORIENTED_EDGE('',*,*,#1522,.T.);
#2216=ORIENTED_EDGE('',*,*,#1498,.T.);
#2217=ORIENTED_EDGE('',*,*,#1474,.T.);
#2218=EDGE_LOOP('',(#2206,#2207,#2208,#2209,#2210,#2211,#2212,#2213,#2214,#2215,#2216,#2217));
#2219=FACE_BOUND('',#2218,.T.);
#2220=ADVANCED_FACE('',(#2199,#2205,#2219),#2185,.T.);
#2221=CLOSED_SHELL('',(#642,#673,#704,#726,#766,#797,#828,#868,#899,#930,#970,#1001,#1032,#1072,#1103,#1134,#1280,#1322,#1353,#1386,#1408,#1420,#1460,#1484,#1508,#1532,#1565,#1589,#1622,#1646,#1670,#1694,#1727,#1744,#1786,#1819,#1850,#1883,#1914,#1947,#1978,#2011,#2044,#2075,#2108,#2130,#2180,#2220));
#2222=MANIFOLD_SOLID_BREP('31B0',#2221);
#2223=STYLED_ITEM('NONE',(#333),#2222);
#2224=ADVANCED_BREP_SHAPE_REPRESENTATION('ABSR1',(#202,#326,#488,#601,#2222),#28);
#2225=SHAPE_REPRESENTATION_RELATIONSHIP('SRRPL1','',#2224,#62);
ENDSEC;
END-ISO-10303-21;
