ISO-10303-21;
HEADER;
/****************************************************************
 * Generated by software with PDE/Lib inside                    *
 * PDE/Lib Version 3.2.2, created Thu Mar 23, 2000 at 18:38:49  *
 * International Technegroup Inc. (www.iti-oh.com)              *
 ****************************************************************/
FILE_DESCRIPTION((''),'2;1');
FILE_NAME('FUSE_SCHURTER_MSF125_v.stp','2009-10-26T09:53:22',(''),(''),'Mechanical Desktop 2006','Mechanical Desktop 2006',', , ');
FILE_SCHEMA(('AUTOMOTIVE_DESIGN { 1 2 10303 214 0 1 1 1 }'));
ENDSEC;
DATA;
#8=(NAMED_UNIT(*)PLANE_ANGLE_UNIT()SI_UNIT($,.RADIAN.));
#9=DIMENSIONAL_EXPONENTS(0.0,0.0,0.0,0.0,0.0,0.0,0.0);
#10=PLANE_ANGLE_MEASURE_WITH_UNIT(PLANE_ANGLE_MEASURE(0.017453292500000),#8);
#14=(CONVERSION_BASED_UNIT('DEGREE',#10)NAMED_UNIT(#9)PLANE_ANGLE_UNIT());
#18=(NAMED_UNIT(*)SI_UNIT($,.STERADIAN.)SOLID_ANGLE_UNIT());
#22=(LENGTH_UNIT()NAMED_UNIT(*)SI_UNIT(.MILLI.,.METRE.));
#23=UNCERTAINTY_MEASURE_WITH_UNIT(LENGTH_MEASURE(0.000001000000000),#22,'DISTANCE_ACCURACY_VALUE','');
#28=(GEOMETRIC_REPRESENTATION_CONTEXT(3)GLOBAL_UNCERTAINTY_ASSIGNED_CONTEXT((#23))GLOBAL_UNIT_ASSIGNED_CONTEXT((#14,#18,#22))REPRESENTATION_CONTEXT('None','None'));
#29=APPLICATION_CONTEXT('automotive design');
#30=APPLICATION_PROTOCOL_DEFINITION('DRAFT_INTERNATIONAL_STANDARD','automotive_design',1998,#29);
#31=PRODUCT_CONTEXT('3D Mechanical Parts',#29,'mechanical');
#32=PRODUCT('Product','Product','',(#31));
#33=PRODUCT_RELATED_PRODUCT_CATEGORY('part',$,(#32));
#34=PRODUCT_CATEGORY('part',$);
#35=PERSON('1','Design','Joe',$,$,$);
#36=ORGANIZATION($,'None','None');
#37=PERSON_AND_ORGANIZATION(#35,#36);
#38=PERSON_AND_ORGANIZATION_ROLE('design_owner');
#39=APPLIED_PERSON_AND_ORGANIZATION_ASSIGNMENT(#37,#38,(#32));
#40=PRODUCT_DEFINITION_FORMATION_WITH_SPECIFIED_SOURCE('None','',#32,.BOUGHT.);
#41=PERSON('2','Creator','Joe',$,$,$);
#42=ORGANIZATION($,'None','None');
#43=PERSON_AND_ORGANIZATION(#41,#42);
#44=PERSON_AND_ORGANIZATION_ROLE('creator');
#45=APPLIED_PERSON_AND_ORGANIZATION_ASSIGNMENT(#43,#44,(#40));
#46=PERSON('3','Supplier','Joe',$,$,$);
#47=ORGANIZATION($,'None','None');
#48=PERSON_AND_ORGANIZATION(#46,#47);
#49=PERSON_AND_ORGANIZATION_ROLE('design_supplier');
#50=APPLIED_PERSON_AND_ORGANIZATION_ASSIGNMENT(#48,#49,(#40));
#51=PRODUCT_DEFINITION_CONTEXT('part definition',#29,'design');
#52=PRODUCT_DEFINITION('None','',#40,#51);
#53=PERSON('4','Creator','Joe',$,$,$);
#54=ORGANIZATION($,'None','None');
#55=PERSON_AND_ORGANIZATION(#53,#54);
#56=PERSON_AND_ORGANIZATION_ROLE('creator');
#57=APPLIED_PERSON_AND_ORGANIZATION_ASSIGNMENT(#55,#56,(#52));
#58=CARTESIAN_POINT('NONE',(0.0,0.0,0.0));
#59=DIRECTION('NONE',(0.0,0.0,1.0));
#60=DIRECTION('NONE',(1.0,0.0,0.0));
#61=AXIS2_PLACEMENT_3D('NONE',#58,#59,#60);
#62=SHAPE_REPRESENTATION('SR1',(#61),#28);
#63=PRODUCT_DEFINITION_SHAPE('PDS1','Test Part',#52);
#64=SHAPE_DEFINITION_REPRESENTATION(#63,#62);
#65=CARTESIAN_POINT('',(1.270000000000000,1.476597E-015,6.650000000000001));
#66=DIRECTION('',(0.0,0.0,-1.0));
#67=DIRECTION('',(1.0,0.0,0.0));
#68=AXIS2_PLACEMENT_3D('',#65,#66,#67);
#69=CYLINDRICAL_SURFACE('',#68,0.310000000000000);
#70=CARTESIAN_POINT('',(1.580000000000000,1.476597E-015,6.650000000000001));
#71=VERTEX_POINT('',#70);
#72=CARTESIAN_POINT('',(1.580000000000000,1.476597E-015,2.350000000000001));
#73=VERTEX_POINT('',#72);
#74=CARTESIAN_POINT('',(1.580000000000000,1.476597E-015,6.650000000000001));
#75=DIRECTION('',(0.0,0.0,-1.0));
#76=VECTOR('',#75,4.300000000000000);
#77=LINE('',#74,#76);
#78=EDGE_CURVE('',#71,#73,#77,.T.);
#79=ORIENTED_EDGE('',*,*,#78,.F.);
#80=CARTESIAN_POINT('',(0.960000000000000,1.438634E-015,6.650000000000000));
#81=VERTEX_POINT('',#80);
#82=CARTESIAN_POINT('',(1.270000000000000,1.476597E-015,6.650000000000001));
#83=DIRECTION('',(0.0,0.0,1.0));
#84=DIRECTION('',(1.0,0.0,0.0));
#85=AXIS2_PLACEMENT_3D('',#82,#83,#84);
#86=CIRCLE('',#85,0.310000000000000);
#87=EDGE_CURVE('',#81,#71,#86,.T.);
#88=ORIENTED_EDGE('',*,*,#87,.F.);
#89=CARTESIAN_POINT('',(0.960000000000000,1.438634E-015,2.350000000000001));
#90=VERTEX_POINT('',#89);
#91=CARTESIAN_POINT('',(0.960000000000000,1.438634E-015,2.350000000000001));
#92=DIRECTION('',(0.0,0.0,1.0));
#93=VECTOR('',#92,4.299999999999999);
#94=LINE('',#91,#93);
#95=EDGE_CURVE('',#90,#81,#94,.T.);
#96=ORIENTED_EDGE('',*,*,#95,.F.);
#97=CARTESIAN_POINT('',(1.270000000000000,1.476597E-015,2.350000000000001));
#98=DIRECTION('',(0.0,0.0,1.0));
#99=DIRECTION('',(1.0,0.0,0.0));
#100=AXIS2_PLACEMENT_3D('',#97,#98,#99);
#101=CIRCLE('',#100,0.310000000000000);
#102=EDGE_CURVE('',#90,#73,#101,.T.);
#103=ORIENTED_EDGE('',*,*,#102,.T.);
#104=EDGE_LOOP('',(#79,#88,#96,#103));
#105=FACE_OUTER_BOUND('',#104,.T.);
#106=ADVANCED_FACE('',(#105),#69,.T.);
#107=CARTESIAN_POINT('',(1.270000000000000,1.476597E-015,6.650000000000001));
#108=DIRECTION('',(0.0,0.0,-1.0));
#109=DIRECTION('',(1.0,0.0,0.0));
#110=AXIS2_PLACEMENT_3D('',#107,#108,#109);
#111=CYLINDRICAL_SURFACE('',#110,0.310000000000000);
#112=ORIENTED_EDGE('',*,*,#78,.T.);
#113=CARTESIAN_POINT('',(1.270000000000000,1.476597E-015,2.350000000000001));
#114=DIRECTION('',(0.0,0.0,1.0));
#115=DIRECTION('',(1.0,0.0,0.0));
#116=AXIS2_PLACEMENT_3D('',#113,#114,#115);
#117=CIRCLE('',#116,0.310000000000000);
#118=EDGE_CURVE('',#73,#90,#117,.T.);
#119=ORIENTED_EDGE('',*,*,#118,.T.);
#120=ORIENTED_EDGE('',*,*,#95,.T.);
#121=CARTESIAN_POINT('',(1.270000000000000,1.476597E-015,6.650000000000001));
#122=DIRECTION('',(0.0,0.0,1.0));
#123=DIRECTION('',(1.0,0.0,0.0));
#124=AXIS2_PLACEMENT_3D('',#121,#122,#123);
#125=CIRCLE('',#124,0.310000000000000);
#126=EDGE_CURVE('',#71,#81,#125,.T.);
#127=ORIENTED_EDGE('',*,*,#126,.F.);
#128=EDGE_LOOP('',(#112,#119,#120,#127));
#129=FACE_OUTER_BOUND('',#128,.T.);
#130=ADVANCED_FACE('',(#129),#111,.T.);
#131=CARTESIAN_POINT('',(1.270000000000000,1.476597E-015,2.350000000000001));
#132=DIRECTION('',(0.0,0.0,1.0));
#133=DIRECTION('',(1.0,0.0,0.0));
#134=AXIS2_PLACEMENT_3D('',#131,#132,#133);
#135=PLANE('',#134);
#136=ORIENTED_EDGE('',*,*,#118,.F.);
#137=ORIENTED_EDGE('',*,*,#102,.F.);
#138=EDGE_LOOP('',(#136,#137));
#139=FACE_OUTER_BOUND('',#138,.T.);
#140=ADVANCED_FACE('',(#139),#135,.F.);
#141=CARTESIAN_POINT('',(1.270000000000000,1.476597E-015,6.650000000000001));
#142=DIRECTION('',(0.0,0.0,1.0));
#143=DIRECTION('',(1.0,0.0,0.0));
#144=AXIS2_PLACEMENT_3D('',#141,#142,#143);
#145=PLANE('',#144);
#146=ORIENTED_EDGE('',*,*,#126,.T.);
#147=ORIENTED_EDGE('',*,*,#87,.T.);
#148=EDGE_LOOP('',(#146,#147));
#149=FACE_OUTER_BOUND('',#148,.T.);
#150=ADVANCED_FACE('',(#149),#145,.T.);
#151=CLOSED_SHELL('',(#106,#130,#140,#150));
#152=MANIFOLD_SOLID_BREP('856',#151);
#153=COLOUR_RGB('254',0.866000000000000,0.866000000000000,0.866000000000000);
#154=SURFACE_STYLE_USAGE(.BOTH.,#155);
#155=SURFACE_SIDE_STYLE('NONE',(#156));
#156=SURFACE_STYLE_FILL_AREA(#157);
#157=FILL_AREA_STYLE('NONE',(#158));
#158=FILL_AREA_STYLE_COLOUR('NONE',#153);
#159=PRESENTATION_STYLE_ASSIGNMENT((#154));
#160=STYLED_ITEM('NONE',(#159),#152);
#161=MECHANICAL_DESIGN_GEOMETRIC_PRESENTATION_REPRESENTATION('NONE',(#160,#251,#399,#488),#28);
#162=PRESENTATION_LAYER_ASSIGNMENT('3D','None',(#152,#250,#391,#487));
#163=CARTESIAN_POINT('',(-1.270000000000000,1.476597E-015,6.650000000000001));
#164=DIRECTION('',(0.0,0.0,-1.0));
#165=DIRECTION('',(1.0,0.0,0.0));
#166=AXIS2_PLACEMENT_3D('',#163,#164,#165);
#167=CYLINDRICAL_SURFACE('',#166,0.310000000000000);
#168=CARTESIAN_POINT('',(-0.960000000000000,1.476597E-015,6.650000000000001));
#169=VERTEX_POINT('',#168);
#170=CARTESIAN_POINT('',(-0.960000000000000,1.476597E-015,2.350000000000001));
#171=VERTEX_POINT('',#170);
#172=CARTESIAN_POINT('',(-0.960000000000000,1.476597E-015,6.650000000000001));
#173=DIRECTION('',(0.0,0.0,-1.0));
#174=VECTOR('',#173,4.300000000000000);
#175=LINE('',#172,#174);
#176=EDGE_CURVE('',#169,#171,#175,.T.);
#177=ORIENTED_EDGE('',*,*,#176,.F.);
#178=CARTESIAN_POINT('',(-1.580000000000000,1.438634E-015,6.650000000000000));
#179=VERTEX_POINT('',#178);
#180=CARTESIAN_POINT('',(-1.270000000000000,1.476597E-015,6.650000000000001));
#181=DIRECTION('',(0.0,0.0,1.0));
#182=DIRECTION('',(1.0,0.0,0.0));
#183=AXIS2_PLACEMENT_3D('',#180,#181,#182);
#184=CIRCLE('',#183,0.310000000000000);
#185=EDGE_CURVE('',#179,#169,#184,.T.);
#186=ORIENTED_EDGE('',*,*,#185,.F.);
#187=CARTESIAN_POINT('',(-1.580000000000000,1.438634E-015,2.350000000000001));
#188=VERTEX_POINT('',#187);
#189=CARTESIAN_POINT('',(-1.580000000000000,1.438634E-015,2.350000000000001));
#190=DIRECTION('',(0.0,0.0,1.0));
#191=VECTOR('',#190,4.299999999999999);
#192=LINE('',#189,#191);
#193=EDGE_CURVE('',#188,#179,#192,.T.);
#194=ORIENTED_EDGE('',*,*,#193,.F.);
#195=CARTESIAN_POINT('',(-1.270000000000000,1.476597E-015,2.350000000000001));
#196=DIRECTION('',(0.0,0.0,1.0));
#197=DIRECTION('',(1.0,0.0,0.0));
#198=AXIS2_PLACEMENT_3D('',#195,#196,#197);
#199=CIRCLE('',#198,0.310000000000000);
#200=EDGE_CURVE('',#188,#171,#199,.T.);
#201=ORIENTED_EDGE('',*,*,#200,.T.);
#202=EDGE_LOOP('',(#177,#186,#194,#201));
#203=FACE_OUTER_BOUND('',#202,.T.);
#204=ADVANCED_FACE('',(#203),#167,.T.);
#205=CARTESIAN_POINT('',(-1.270000000000000,1.476597E-015,6.650000000000001));
#206=DIRECTION('',(0.0,0.0,-1.0));
#207=DIRECTION('',(1.0,0.0,0.0));
#208=AXIS2_PLACEMENT_3D('',#205,#206,#207);
#209=CYLINDRICAL_SURFACE('',#208,0.310000000000000);
#210=ORIENTED_EDGE('',*,*,#176,.T.);
#211=CARTESIAN_POINT('',(-1.270000000000000,1.476597E-015,2.350000000000001));
#212=DIRECTION('',(0.0,0.0,1.0));
#213=DIRECTION('',(1.0,0.0,0.0));
#214=AXIS2_PLACEMENT_3D('',#211,#212,#213);
#215=CIRCLE('',#214,0.310000000000000);
#216=EDGE_CURVE('',#171,#188,#215,.T.);
#217=ORIENTED_EDGE('',*,*,#216,.T.);
#218=ORIENTED_EDGE('',*,*,#193,.T.);
#219=CARTESIAN_POINT('',(-1.270000000000000,1.476597E-015,6.650000000000001));
#220=DIRECTION('',(0.0,0.0,1.0));
#221=DIRECTION('',(1.0,0.0,0.0));
#222=AXIS2_PLACEMENT_3D('',#219,#220,#221);
#223=CIRCLE('',#222,0.310000000000000);
#224=EDGE_CURVE('',#169,#179,#223,.T.);
#225=ORIENTED_EDGE('',*,*,#224,.F.);
#226=EDGE_LOOP('',(#210,#217,#218,#225));
#227=FACE_OUTER_BOUND('',#226,.T.);
#228=ADVANCED_FACE('',(#227),#209,.T.);
#229=CARTESIAN_POINT('',(-1.270000000000000,1.476597E-015,2.350000000000001));
#230=DIRECTION('',(0.0,0.0,1.0));
#231=DIRECTION('',(1.0,0.0,0.0));
#232=AXIS2_PLACEMENT_3D('',#229,#230,#231);
#233=PLANE('',#232);
#234=ORIENTED_EDGE('',*,*,#216,.F.);
#235=ORIENTED_EDGE('',*,*,#200,.F.);
#236=EDGE_LOOP('',(#234,#235));
#237=FACE_OUTER_BOUND('',#236,.T.);
#238=ADVANCED_FACE('',(#237),#233,.F.);
#239=CARTESIAN_POINT('',(-1.270000000000000,1.476597E-015,6.650000000000001));
#240=DIRECTION('',(0.0,0.0,1.0));
#241=DIRECTION('',(1.0,0.0,0.0));
#242=AXIS2_PLACEMENT_3D('',#239,#240,#241);
#243=PLANE('',#242);
#244=ORIENTED_EDGE('',*,*,#224,.T.);
#245=ORIENTED_EDGE('',*,*,#185,.T.);
#246=EDGE_LOOP('',(#244,#245));
#247=FACE_OUTER_BOUND('',#246,.T.);
#248=ADVANCED_FACE('',(#247),#243,.T.);
#249=CLOSED_SHELL('',(#204,#228,#238,#248));
#250=MANIFOLD_SOLID_BREP('855',#249);
#251=STYLED_ITEM('NONE',(#159),#250);
#252=CARTESIAN_POINT('',(0.0,1.698641E-015,7.650000000000001));
#253=DIRECTION('',(0.0,0.0,1.0));
#254=DIRECTION('',(1.0,0.0,0.0));
#255=AXIS2_PLACEMENT_3D('',#252,#253,#254);
#256=CYLINDRICAL_SURFACE('',#255,3.200000000000000);
#257=CARTESIAN_POINT('',(3.200000000000000,1.698641E-015,7.650000000000001));
#258=VERTEX_POINT('',#257);
#259=CARTESIAN_POINT('',(3.200000000000000,2.482389E-015,14.950000000000003));
#260=VERTEX_POINT('',#259);
#261=CARTESIAN_POINT('',(3.200000000000000,1.698641E-015,7.650000000000001));
#262=DIRECTION('',(0.0,0.0,1.0));
#263=VECTOR('',#262,7.300000000000002);
#264=LINE('',#261,#263);
#265=EDGE_CURVE('',#258,#260,#264,.T.);
#266=ORIENTED_EDGE('',*,*,#265,.F.);
#267=CARTESIAN_POINT('',(-3.200000000000000,2.090515E-015,7.650000000000000));
#268=VERTEX_POINT('',#267);
#269=CARTESIAN_POINT('',(0.0,1.698641E-015,7.650000000000001));
#270=DIRECTION('',(0.0,0.0,1.0));
#271=DIRECTION('',(1.0,0.0,0.0));
#272=AXIS2_PLACEMENT_3D('',#269,#270,#271);
#273=CIRCLE('',#272,3.200000000000000);
#274=EDGE_CURVE('',#258,#268,#273,.T.);
#275=ORIENTED_EDGE('',*,*,#274,.T.);
#276=CARTESIAN_POINT('',(-3.200000000000000,1.306767E-015,14.950000000000003));
#277=VERTEX_POINT('',#276);
#278=CARTESIAN_POINT('',(-3.200000000000000,1.306767E-015,14.950000000000003));
#279=DIRECTION('',(0.0,0.0,-1.0));
#280=VECTOR('',#279,7.300000000000003);
#281=LINE('',#278,#280);
#282=EDGE_CURVE('',#277,#268,#281,.T.);
#283=ORIENTED_EDGE('',*,*,#282,.F.);
#284=CARTESIAN_POINT('',(0.0,1.698641E-015,14.950000000000003));
#285=DIRECTION('',(0.0,0.0,1.0));
#286=DIRECTION('',(-1.0,0.0,0.0));
#287=AXIS2_PLACEMENT_3D('',#284,#285,#286);
#288=CIRCLE('',#287,3.200000000000000);
#289=EDGE_CURVE('',#260,#277,#288,.T.);
#290=ORIENTED_EDGE('',*,*,#289,.F.);
#291=EDGE_LOOP('',(#266,#275,#283,#290));
#292=FACE_OUTER_BOUND('',#291,.T.);
#293=ADVANCED_FACE('',(#292),#256,.T.);
#294=CARTESIAN_POINT('',(0.0,1.698641E-015,14.950000000000003));
#295=DIRECTION('',(0.0,0.0,-1.0));
#296=DIRECTION('',(-1.0,0.0,0.0));
#297=AXIS2_PLACEMENT_3D('',#294,#295,#296);
#298=TOROIDAL_SURFACE('',#297,2.700000000000000,0.500000000000000);
#299=CARTESIAN_POINT('',(-2.700000000000000,1.367998E-015,15.450000000000003));
#300=VERTEX_POINT('',#299);
#301=CARTESIAN_POINT('',(-2.700000000000000,1.367998E-015,14.950000000000003));
#302=DIRECTION('',(0.0,-1.0,0.0));
#303=DIRECTION('',(-1.0,0.0,0.0));
#304=AXIS2_PLACEMENT_3D('',#301,#302,#303);
#305=CIRCLE('',#304,0.500000000000000);
#306=EDGE_CURVE('',#300,#277,#305,.T.);
#307=ORIENTED_EDGE('',*,*,#306,.F.);
#308=CARTESIAN_POINT('',(2.700000000000000,1.698641E-015,15.450000000000003));
#309=VERTEX_POINT('',#308);
#310=CARTESIAN_POINT('',(0.0,1.698641E-015,15.450000000000003));
#311=DIRECTION('',(0.0,0.0,-1.0));
#312=DIRECTION('',(-1.0,0.0,0.0));
#313=AXIS2_PLACEMENT_3D('',#310,#311,#312);
#314=CIRCLE('',#313,2.700000000000000);
#315=EDGE_CURVE('',#300,#309,#314,.T.);
#316=ORIENTED_EDGE('',*,*,#315,.T.);
#317=CARTESIAN_POINT('',(2.700000000000000,2.029285E-015,14.950000000000003));
#318=DIRECTION('',(0.0,-1.0,0.0));
#319=DIRECTION('',(1.0,0.0,0.0));
#320=AXIS2_PLACEMENT_3D('',#317,#318,#319);
#321=CIRCLE('',#320,0.500000000000000);
#322=EDGE_CURVE('',#260,#309,#321,.T.);
#323=ORIENTED_EDGE('',*,*,#322,.F.);
#324=ORIENTED_EDGE('',*,*,#289,.T.);
#325=EDGE_LOOP('',(#307,#316,#323,#324));
#326=FACE_OUTER_BOUND('',#325,.T.);
#327=ADVANCED_FACE('',(#326),#298,.T.);
#328=CARTESIAN_POINT('',(0.0,1.698641E-015,14.950000000000003));
#329=DIRECTION('',(0.0,0.0,-1.0));
#330=DIRECTION('',(-1.0,0.0,0.0));
#331=AXIS2_PLACEMENT_3D('',#328,#329,#330);
#332=TOROIDAL_SURFACE('',#331,2.700000000000000,0.500000000000000);
#333=ORIENTED_EDGE('',*,*,#306,.T.);
#334=CARTESIAN_POINT('',(0.0,1.698641E-015,14.950000000000003));
#335=DIRECTION('',(0.0,0.0,1.0));
#336=DIRECTION('',(-1.0,0.0,0.0));
#337=AXIS2_PLACEMENT_3D('',#334,#335,#336);
#338=CIRCLE('',#337,3.200000000000000);
#339=EDGE_CURVE('',#277,#260,#338,.T.);
#340=ORIENTED_EDGE('',*,*,#339,.T.);
#341=ORIENTED_EDGE('',*,*,#322,.T.);
#342=CARTESIAN_POINT('',(0.0,1.698641E-015,15.450000000000003));
#343=DIRECTION('',(0.0,0.0,-1.0));
#344=DIRECTION('',(-1.0,0.0,0.0));
#345=AXIS2_PLACEMENT_3D('',#342,#343,#344);
#346=CIRCLE('',#345,2.700000000000000);
#347=EDGE_CURVE('',#309,#300,#346,.T.);
#348=ORIENTED_EDGE('',*,*,#347,.T.);
#349=EDGE_LOOP('',(#333,#340,#341,#348));
#350=FACE_OUTER_BOUND('',#349,.T.);
#351=ADVANCED_FACE('',(#350),#332,.T.);
#352=CARTESIAN_POINT('',(0.0,1.698641E-015,7.650000000000001));
#353=DIRECTION('',(0.0,0.0,1.0));
#354=DIRECTION('',(1.0,0.0,0.0));
#355=AXIS2_PLACEMENT_3D('',#352,#353,#354);
#356=CYLINDRICAL_SURFACE('',#355,3.200000000000000);
#357=ORIENTED_EDGE('',*,*,#265,.T.);
#358=ORIENTED_EDGE('',*,*,#339,.F.);
#359=ORIENTED_EDGE('',*,*,#282,.T.);
#360=CARTESIAN_POINT('',(0.0,1.698641E-015,7.650000000000001));
#361=DIRECTION('',(0.0,0.0,1.0));
#362=DIRECTION('',(1.0,0.0,0.0));
#363=AXIS2_PLACEMENT_3D('',#360,#361,#362);
#364=CIRCLE('',#363,3.200000000000000);
#365=EDGE_CURVE('',#268,#258,#364,.T.);
#366=ORIENTED_EDGE('',*,*,#365,.T.);
#367=EDGE_LOOP('',(#357,#358,#359,#366));
#368=FACE_OUTER_BOUND('',#367,.T.);
#369=ADVANCED_FACE('',(#368),#356,.T.);
#370=CARTESIAN_POINT('',(0.0,1.698641E-015,15.450000000000003));
#371=DIRECTION('',(0.0,0.0,1.0));
#372=DIRECTION('',(1.0,0.0,0.0));
#373=AXIS2_PLACEMENT_3D('',#370,#371,#372);
#374=PLANE('',#373);
#375=ORIENTED_EDGE('',*,*,#347,.F.);
#376=ORIENTED_EDGE('',*,*,#315,.F.);
#377=EDGE_LOOP('',(#375,#376));
#378=FACE_OUTER_BOUND('',#377,.T.);
#379=ADVANCED_FACE('',(#378),#374,.T.);
#380=CARTESIAN_POINT('',(0.0,1.698641E-015,7.650000000000001));
#381=DIRECTION('',(0.0,0.0,1.0));
#382=DIRECTION('',(1.0,0.0,0.0));
#383=AXIS2_PLACEMENT_3D('',#380,#381,#382);
#384=PLANE('',#383);
#385=ORIENTED_EDGE('',*,*,#274,.F.);
#386=ORIENTED_EDGE('',*,*,#365,.F.);
#387=EDGE_LOOP('',(#385,#386));
#388=FACE_OUTER_BOUND('',#387,.T.);
#389=ADVANCED_FACE('',(#388),#384,.F.);
#390=CLOSED_SHELL('',(#293,#327,#351,#369,#379,#389));
#391=MANIFOLD_SOLID_BREP('853',#390);
#392=COLOUR_RGB('250',0.330000000000000,0.330000000000000,0.330000000000000);
#393=SURFACE_STYLE_USAGE(.BOTH.,#394);
#394=SURFACE_SIDE_STYLE('NONE',(#395));
#395=SURFACE_STYLE_FILL_AREA(#396);
#396=FILL_AREA_STYLE('NONE',(#397));
#397=FILL_AREA_STYLE_COLOUR('NONE',#392);
#398=PRESENTATION_STYLE_ASSIGNMENT((#393));
#399=STYLED_ITEM('NONE',(#398),#391);
#400=CARTESIAN_POINT('',(0.0,1.476597E-015,6.650000000000001));
#401=DIRECTION('',(0.0,0.0,1.0));
#402=DIRECTION('',(1.0,0.0,0.0));
#403=AXIS2_PLACEMENT_3D('',#400,#401,#402);
#404=CYLINDRICAL_SURFACE('',#403,3.0);
#405=CARTESIAN_POINT('',(3.0,1.476597E-015,6.650000000000001));
#406=VERTEX_POINT('',#405);
#407=CARTESIAN_POINT('',(3.0,1.476597E-015,7.650000000000001));
#408=VERTEX_POINT('',#407);
#409=CARTESIAN_POINT('',(3.0,1.476597E-015,6.650000000000001));
#410=DIRECTION('',(0.0,0.0,1.0));
#411=VECTOR('',#410,1.0);
#412=LINE('',#409,#411);
#413=EDGE_CURVE('',#406,#408,#412,.T.);
#414=ORIENTED_EDGE('',*,*,#413,.F.);
#415=CARTESIAN_POINT('',(-3.0,1.843979E-015,6.650000000000001));
#416=VERTEX_POINT('',#415);
#417=CARTESIAN_POINT('',(0.0,1.476597E-015,6.650000000000001));
#418=DIRECTION('',(0.0,0.0,1.0));
#419=DIRECTION('',(1.0,0.0,0.0));
#420=AXIS2_PLACEMENT_3D('',#417,#418,#419);
#421=CIRCLE('',#420,3.0);
#422=EDGE_CURVE('',#406,#416,#421,.T.);
#423=ORIENTED_EDGE('',*,*,#422,.T.);
#424=CARTESIAN_POINT('',(-3.0,1.843979E-015,7.650000000000001));
#425=VERTEX_POINT('',#424);
#426=CARTESIAN_POINT('',(-3.0,1.843979E-015,7.650000000000001));
#427=DIRECTION('',(0.0,0.0,-1.0));
#428=VECTOR('',#427,1.0);
#429=LINE('',#426,#428);
#430=EDGE_CURVE('',#425,#416,#429,.T.);
#431=ORIENTED_EDGE('',*,*,#430,.F.);
#432=CARTESIAN_POINT('',(0.0,1.476597E-015,7.650000000000001));
#433=DIRECTION('',(0.0,0.0,-1.0));
#434=DIRECTION('',(1.0,0.0,0.0));
#435=AXIS2_PLACEMENT_3D('',#432,#433,#434);
#436=CIRCLE('',#435,3.0);
#437=EDGE_CURVE('',#425,#408,#436,.T.);
#438=ORIENTED_EDGE('',*,*,#437,.T.);
#439=EDGE_LOOP('',(#414,#423,#431,#438));
#440=FACE_OUTER_BOUND('',#439,.T.);
#441=ADVANCED_FACE('',(#440),#404,.T.);
#442=CARTESIAN_POINT('',(0.0,1.476597E-015,6.650000000000001));
#443=DIRECTION('',(0.0,0.0,1.0));
#444=DIRECTION('',(1.0,0.0,0.0));
#445=AXIS2_PLACEMENT_3D('',#442,#443,#444);
#446=CYLINDRICAL_SURFACE('',#445,3.0);
#447=ORIENTED_EDGE('',*,*,#413,.T.);
#448=CARTESIAN_POINT('',(0.0,1.476597E-015,7.650000000000001));
#449=DIRECTION('',(0.0,0.0,-1.0));
#450=DIRECTION('',(1.0,0.0,0.0));
#451=AXIS2_PLACEMENT_3D('',#448,#449,#450);
#452=CIRCLE('',#451,3.0);
#453=EDGE_CURVE('',#408,#425,#452,.T.);
#454=ORIENTED_EDGE('',*,*,#453,.T.);
#455=ORIENTED_EDGE('',*,*,#430,.T.);
#456=CARTESIAN_POINT('',(0.0,1.476597E-015,6.650000000000001));
#457=DIRECTION('',(0.0,0.0,1.0));
#458=DIRECTION('',(1.0,0.0,0.0));
#459=AXIS2_PLACEMENT_3D('',#456,#457,#458);
#460=CIRCLE('',#459,3.0);
#461=EDGE_CURVE('',#416,#406,#460,.T.);
#462=ORIENTED_EDGE('',*,*,#461,.T.);
#463=EDGE_LOOP('',(#447,#454,#455,#462));
#464=FACE_OUTER_BOUND('',#463,.T.);
#465=ADVANCED_FACE('',(#464),#446,.T.);
#466=CARTESIAN_POINT('',(0.0,1.476597E-015,7.650000000000001));
#467=DIRECTION('',(0.0,0.0,1.0));
#468=DIRECTION('',(1.0,0.0,0.0));
#469=AXIS2_PLACEMENT_3D('',#466,#467,#468);
#470=PLANE('',#469);
#471=ORIENTED_EDGE('',*,*,#453,.F.);
#472=ORIENTED_EDGE('',*,*,#437,.F.);
#473=EDGE_LOOP('',(#471,#472));
#474=FACE_OUTER_BOUND('',#473,.T.);
#475=ADVANCED_FACE('',(#474),#470,.T.);
#476=CARTESIAN_POINT('',(0.0,1.476597E-015,6.650000000000001));
#477=DIRECTION('',(0.0,0.0,1.0));
#478=DIRECTION('',(1.0,0.0,0.0));
#479=AXIS2_PLACEMENT_3D('',#476,#477,#478);
#480=PLANE('',#479);
#481=ORIENTED_EDGE('',*,*,#422,.F.);
#482=ORIENTED_EDGE('',*,*,#461,.F.);
#483=EDGE_LOOP('',(#481,#482));
#484=FACE_OUTER_BOUND('',#483,.T.);
#485=ADVANCED_FACE('',(#484),#480,.F.);
#486=CLOSED_SHELL('',(#441,#465,#475,#485));
#487=MANIFOLD_SOLID_BREP('852',#486);
#488=STYLED_ITEM('NONE',(#398),#487);
#489=ADVANCED_BREP_SHAPE_REPRESENTATION('ABSR1',(#152,#250,#391,#487),#28);
#490=SHAPE_REPRESENTATION_RELATIONSHIP('SRRPL1','',#489,#62);
ENDSEC;
END-ISO-10303-21;
