ISO-10303-21;
HEADER;
/* Generated by software containing ST-Developer
 * from STEP Tools, Inc. (www.steptools.com) 
 */

FILE_DESCRIPTION(
/* description */ (''),
/* implementation_level */ '2;1');

FILE_NAME(
/* name */ 
'G:\\Applications\\Altium\\CernLib\\StepLib\\FUSHC_KEYSTONE_3576C.stp',

/* time_stamp */ '2016-12-15T12:38:33+01:00',
/* author */ ('jchouvet'),
/* organization */ (''),
/* preprocessor_version */ 'ST-DEVELOPER v16.1',
/* originating_system */ 'AutoCAD Mechanical',
/* authorisation */ '');

FILE_SCHEMA (('AUTOMOTIVE_DESIGN { 1 0 10303 214 3 1 1 }'));
ENDSEC;

DATA;
#10=MECHANICAL_DESIGN_GEOMETRIC_PRESENTATION_REPRESENTATION('',(#17),#1773);
#11=DIMENSIONAL_EXPONENTS(0.,0.,0.,0.,0.,0.,0.);
#12=(
CONVERSION_BASED_UNIT('degree',#13)
NAMED_UNIT(#11)
PLANE_ANGLE_UNIT()
);
#13=PLANE_ANGLE_MEASURE_WITH_UNIT(PLANE_ANGLE_MEASURE(0.01745329252),#1776);
#14=PRESENTATION_LAYER_ASSIGNMENT('1','3D',(#18));
#15=SHAPE_REPRESENTATION_RELATIONSHIP('SRR','None',#1779,#16);
#16=ADVANCED_BREP_SHAPE_REPRESENTATION('',(#18),#1772);
#17=STYLED_ITEM('',(#1789),#18);
#18=MANIFOLD_SOLID_BREP('3977',#1061);
#19=FACE_BOUND('',#149,.T.);
#20=FACE_BOUND('',#150,.T.);
#21=FACE_BOUND('',#151,.T.);
#22=FACE_BOUND('',#152,.T.);
#23=PLANE('',#1066);
#24=PLANE('',#1067);
#25=PLANE('',#1074);
#26=PLANE('',#1078);
#27=PLANE('',#1079);
#28=PLANE('',#1080);
#29=PLANE('',#1084);
#30=PLANE('',#1085);
#31=PLANE('',#1086);
#32=PLANE('',#1090);
#33=PLANE('',#1094);
#34=PLANE('',#1095);
#35=PLANE('',#1096);
#36=PLANE('',#1100);
#37=PLANE('',#1101);
#38=PLANE('',#1108);
#39=PLANE('',#1109);
#40=PLANE('',#1113);
#41=PLANE('',#1117);
#42=PLANE('',#1118);
#43=PLANE('',#1119);
#44=PLANE('',#1120);
#45=PLANE('',#1131);
#46=PLANE('',#1134);
#47=PLANE('',#1137);
#48=PLANE('',#1140);
#49=PLANE('',#1141);
#50=PLANE('',#1144);
#51=PLANE('',#1145);
#52=PLANE('',#1146);
#53=PLANE('',#1149);
#54=PLANE('',#1152);
#55=PLANE('',#1153);
#56=PLANE('',#1154);
#57=PLANE('',#1157);
#58=PLANE('',#1158);
#59=FACE_OUTER_BOUND('',#115,.T.);
#60=FACE_OUTER_BOUND('',#116,.T.);
#61=FACE_OUTER_BOUND('',#117,.T.);
#62=FACE_OUTER_BOUND('',#118,.T.);
#63=FACE_OUTER_BOUND('',#119,.T.);
#64=FACE_OUTER_BOUND('',#120,.T.);
#65=FACE_OUTER_BOUND('',#121,.T.);
#66=FACE_OUTER_BOUND('',#122,.T.);
#67=FACE_OUTER_BOUND('',#123,.T.);
#68=FACE_OUTER_BOUND('',#124,.T.);
#69=FACE_OUTER_BOUND('',#125,.T.);
#70=FACE_OUTER_BOUND('',#126,.T.);
#71=FACE_OUTER_BOUND('',#127,.T.);
#72=FACE_OUTER_BOUND('',#128,.T.);
#73=FACE_OUTER_BOUND('',#129,.T.);
#74=FACE_OUTER_BOUND('',#130,.T.);
#75=FACE_OUTER_BOUND('',#131,.T.);
#76=FACE_OUTER_BOUND('',#132,.T.);
#77=FACE_OUTER_BOUND('',#133,.T.);
#78=FACE_OUTER_BOUND('',#134,.T.);
#79=FACE_OUTER_BOUND('',#135,.T.);
#80=FACE_OUTER_BOUND('',#136,.T.);
#81=FACE_OUTER_BOUND('',#137,.T.);
#82=FACE_OUTER_BOUND('',#138,.T.);
#83=FACE_OUTER_BOUND('',#139,.T.);
#84=FACE_OUTER_BOUND('',#140,.T.);
#85=FACE_OUTER_BOUND('',#141,.T.);
#86=FACE_OUTER_BOUND('',#142,.T.);
#87=FACE_OUTER_BOUND('',#143,.T.);
#88=FACE_OUTER_BOUND('',#144,.T.);
#89=FACE_OUTER_BOUND('',#145,.T.);
#90=FACE_OUTER_BOUND('',#146,.T.);
#91=FACE_OUTER_BOUND('',#147,.T.);
#92=FACE_OUTER_BOUND('',#148,.T.);
#93=FACE_OUTER_BOUND('',#153,.T.);
#94=FACE_OUTER_BOUND('',#154,.T.);
#95=FACE_OUTER_BOUND('',#155,.T.);
#96=FACE_OUTER_BOUND('',#156,.T.);
#97=FACE_OUTER_BOUND('',#157,.T.);
#98=FACE_OUTER_BOUND('',#158,.T.);
#99=FACE_OUTER_BOUND('',#159,.T.);
#100=FACE_OUTER_BOUND('',#160,.T.);
#101=FACE_OUTER_BOUND('',#161,.T.);
#102=FACE_OUTER_BOUND('',#162,.T.);
#103=FACE_OUTER_BOUND('',#163,.T.);
#104=FACE_OUTER_BOUND('',#164,.T.);
#105=FACE_OUTER_BOUND('',#165,.T.);
#106=FACE_OUTER_BOUND('',#166,.T.);
#107=FACE_OUTER_BOUND('',#167,.T.);
#108=FACE_OUTER_BOUND('',#168,.T.);
#109=FACE_OUTER_BOUND('',#169,.T.);
#110=FACE_OUTER_BOUND('',#170,.T.);
#111=FACE_OUTER_BOUND('',#171,.T.);
#112=FACE_OUTER_BOUND('',#172,.T.);
#113=FACE_OUTER_BOUND('',#173,.T.);
#114=FACE_OUTER_BOUND('',#174,.T.);
#115=EDGE_LOOP('',(#685,#686,#687,#688));
#116=EDGE_LOOP('',(#689,#690,#691,#692));
#117=EDGE_LOOP('',(#693,#694,#695,#696));
#118=EDGE_LOOP('',(#697,#698,#699,#700));
#119=EDGE_LOOP('',(#701,#702,#703,#704));
#120=EDGE_LOOP('',(#705,#706,#707,#708));
#121=EDGE_LOOP('',(#709,#710,#711,#712));
#122=EDGE_LOOP('',(#713,#714,#715,#716));
#123=EDGE_LOOP('',(#717,#718,#719,#720,#721,#722,#723,#724,#725));
#124=EDGE_LOOP('',(#726,#727,#728,#729,#730,#731,#732,#733,#734));
#125=EDGE_LOOP('',(#735,#736,#737,#738));
#126=EDGE_LOOP('',(#739,#740,#741,#742));
#127=EDGE_LOOP('',(#743,#744,#745,#746));
#128=EDGE_LOOP('',(#747,#748,#749,#750));
#129=EDGE_LOOP('',(#751,#752,#753,#754));
#130=EDGE_LOOP('',(#755,#756,#757,#758));
#131=EDGE_LOOP('',(#759,#760,#761,#762));
#132=EDGE_LOOP('',(#763,#764,#765,#766));
#133=EDGE_LOOP('',(#767,#768,#769,#770));
#134=EDGE_LOOP('',(#771,#772,#773,#774));
#135=EDGE_LOOP('',(#775,#776,#777,#778));
#136=EDGE_LOOP('',(#779,#780,#781,#782));
#137=EDGE_LOOP('',(#783,#784,#785,#786,#787,#788,#789,#790,#791,#792,#793,
#794));
#138=EDGE_LOOP('',(#795,#796,#797,#798));
#139=EDGE_LOOP('',(#799,#800,#801,#802));
#140=EDGE_LOOP('',(#803,#804,#805,#806));
#141=EDGE_LOOP('',(#807,#808,#809,#810));
#142=EDGE_LOOP('',(#811,#812,#813,#814));
#143=EDGE_LOOP('',(#815,#816,#817,#818));
#144=EDGE_LOOP('',(#819,#820,#821,#822));
#145=EDGE_LOOP('',(#823,#824,#825,#826));
#146=EDGE_LOOP('',(#827,#828,#829,#830,#831,#832,#833,#834,#835));
#147=EDGE_LOOP('',(#836,#837,#838,#839,#840,#841,#842,#843,#844));
#148=EDGE_LOOP('',(#845,#846,#847,#848,#849,#850,#851,#852));
#149=EDGE_LOOP('',(#853,#854,#855,#856));
#150=EDGE_LOOP('',(#857,#858,#859,#860,#861,#862,#863,#864,#865,#866,#867,
#868));
#151=EDGE_LOOP('',(#869,#870,#871,#872));
#152=EDGE_LOOP('',(#873,#874,#875,#876,#877,#878,#879,#880,#881,#882,#883,
#884));
#153=EDGE_LOOP('',(#885,#886,#887,#888));
#154=EDGE_LOOP('',(#889,#890,#891,#892));
#155=EDGE_LOOP('',(#893,#894,#895,#896));
#156=EDGE_LOOP('',(#897,#898,#899,#900));
#157=EDGE_LOOP('',(#901,#902,#903,#904));
#158=EDGE_LOOP('',(#905,#906,#907,#908));
#159=EDGE_LOOP('',(#909,#910,#911,#912));
#160=EDGE_LOOP('',(#913,#914,#915,#916));
#161=EDGE_LOOP('',(#917,#918,#919,#920,#921,#922,#923,#924));
#162=EDGE_LOOP('',(#925,#926,#927,#928));
#163=EDGE_LOOP('',(#929,#930,#931,#932));
#164=EDGE_LOOP('',(#933,#934,#935,#936));
#165=EDGE_LOOP('',(#937,#938,#939,#940));
#166=EDGE_LOOP('',(#941,#942,#943,#944));
#167=EDGE_LOOP('',(#945,#946,#947,#948));
#168=EDGE_LOOP('',(#949,#950,#951,#952));
#169=EDGE_LOOP('',(#953,#954,#955,#956));
#170=EDGE_LOOP('',(#957,#958,#959,#960));
#171=EDGE_LOOP('',(#961,#962,#963,#964));
#172=EDGE_LOOP('',(#965,#966,#967,#968));
#173=EDGE_LOOP('',(#969,#970,#971,#972));
#174=EDGE_LOOP('',(#973,#974,#975,#976,#977,#978,#979,#980,#981,#982,#983,
#984));
#175=LINE('',#1469,#285);
#176=LINE('',#1472,#286);
#177=LINE('',#1475,#287);
#178=LINE('',#1477,#288);
#179=LINE('',#1478,#289);
#180=LINE('',#1481,#290);
#181=LINE('',#1483,#291);
#182=LINE('',#1484,#292);
#183=LINE('',#1490,#293);
#184=LINE('',#1496,#294);
#185=LINE('',#1499,#295);
#186=LINE('',#1501,#296);
#187=LINE('',#1502,#297);
#188=LINE('',#1508,#298);
#189=LINE('',#1511,#299);
#190=LINE('',#1513,#300);
#191=LINE('',#1514,#301);
#192=LINE('',#1516,#302);
#193=LINE('',#1518,#303);
#194=LINE('',#1524,#304);
#195=LINE('',#1527,#305);
#196=LINE('',#1530,#306);
#197=LINE('',#1532,#307);
#198=LINE('',#1533,#308);
#199=LINE('',#1536,#309);
#200=LINE('',#1538,#310);
#201=LINE('',#1539,#311);
#202=LINE('',#1542,#312);
#203=LINE('',#1544,#313);
#204=LINE('',#1545,#314);
#205=LINE('',#1551,#315);
#206=LINE('',#1554,#316);
#207=LINE('',#1556,#317);
#208=LINE('',#1557,#318);
#209=LINE('',#1563,#319);
#210=LINE('',#1566,#320);
#211=LINE('',#1568,#321);
#212=LINE('',#1569,#322);
#213=LINE('',#1572,#323);
#214=LINE('',#1574,#324);
#215=LINE('',#1575,#325);
#216=LINE('',#1578,#326);
#217=LINE('',#1580,#327);
#218=LINE('',#1581,#328);
#219=LINE('',#1587,#329);
#220=LINE('',#1589,#330);
#221=LINE('',#1590,#331);
#222=LINE('',#1597,#332);
#223=LINE('',#1600,#333);
#224=LINE('',#1606,#334);
#225=LINE('',#1609,#335);
#226=LINE('',#1611,#336);
#227=LINE('',#1612,#337);
#228=LINE('',#1615,#338);
#229=LINE('',#1617,#339);
#230=LINE('',#1618,#340);
#231=LINE('',#1624,#341);
#232=LINE('',#1627,#342);
#233=LINE('',#1629,#343);
#234=LINE('',#1630,#344);
#235=LINE('',#1636,#345);
#236=LINE('',#1639,#346);
#237=LINE('',#1641,#347);
#238=LINE('',#1642,#348);
#239=LINE('',#1644,#349);
#240=LINE('',#1646,#350);
#241=LINE('',#1650,#351);
#242=LINE('',#1654,#352);
#243=LINE('',#1658,#353);
#244=LINE('',#1662,#354);
#245=LINE('',#1668,#355);
#246=LINE('',#1672,#356);
#247=LINE('',#1674,#357);
#248=LINE('',#1676,#358);
#249=LINE('',#1680,#359);
#250=LINE('',#1684,#360);
#251=LINE('',#1686,#361);
#252=LINE('',#1687,#362);
#253=LINE('',#1692,#363);
#254=LINE('',#1693,#364);
#255=LINE('',#1696,#365);
#256=LINE('',#1697,#366);
#257=LINE('',#1701,#367);
#258=LINE('',#1704,#368);
#259=LINE('',#1705,#369);
#260=LINE('',#1709,#370);
#261=LINE('',#1712,#371);
#262=LINE('',#1713,#372);
#263=LINE('',#1717,#373);
#264=LINE('',#1719,#374);
#265=LINE('',#1725,#375);
#266=LINE('',#1726,#376);
#267=LINE('',#1729,#377);
#268=LINE('',#1730,#378);
#269=LINE('',#1733,#379);
#270=LINE('',#1734,#380);
#271=LINE('',#1737,#381);
#272=LINE('',#1738,#382);
#273=LINE('',#1742,#383);
#274=LINE('',#1745,#384);
#275=LINE('',#1746,#385);
#276=LINE('',#1750,#386);
#277=LINE('',#1753,#387);
#278=LINE('',#1754,#388);
#279=LINE('',#1757,#389);
#280=LINE('',#1758,#390);
#281=LINE('',#1761,#391);
#282=LINE('',#1762,#392);
#283=LINE('',#1766,#393);
#284=LINE('',#1768,#394);
#285=VECTOR('',#1165,15.24);
#286=VECTOR('',#1168,15.24);
#287=VECTOR('',#1171,1.6600963513372);
#288=VECTOR('',#1172,1.6600963513372);
#289=VECTOR('',#1173,15.24);
#290=VECTOR('',#1176,0.917119397593523);
#291=VECTOR('',#1177,0.917119397593523);
#292=VECTOR('',#1178,15.24);
#293=VECTOR('',#1185,15.24);
#294=VECTOR('',#1192,15.24);
#295=VECTOR('',#1195,6.6294);
#296=VECTOR('',#1196,6.6294);
#297=VECTOR('',#1197,15.24);
#298=VECTOR('',#1204,15.24);
#299=VECTOR('',#1207,11.6332);
#300=VECTOR('',#1208,15.24);
#301=VECTOR('',#1209,11.6332);
#302=VECTOR('',#1212,1.8796);
#303=VECTOR('',#1215,1.8796);
#304=VECTOR('',#1220,1.524);
#305=VECTOR('',#1223,1.524);
#306=VECTOR('',#1226,8.636);
#307=VECTOR('',#1227,8.636);
#308=VECTOR('',#1228,1.524);
#309=VECTOR('',#1231,1.524);
#310=VECTOR('',#1232,1.524);
#311=VECTOR('',#1233,1.524);
#312=VECTOR('',#1236,8.636);
#313=VECTOR('',#1237,8.636);
#314=VECTOR('',#1238,1.524);
#315=VECTOR('',#1245,1.524);
#316=VECTOR('',#1248,11.0236);
#317=VECTOR('',#1249,11.0236);
#318=VECTOR('',#1250,1.524);
#319=VECTOR('',#1257,1.524);
#320=VECTOR('',#1260,8.636);
#321=VECTOR('',#1261,8.636);
#322=VECTOR('',#1262,1.524);
#323=VECTOR('',#1265,1.524);
#324=VECTOR('',#1266,1.524);
#325=VECTOR('',#1267,1.524);
#326=VECTOR('',#1270,8.636);
#327=VECTOR('',#1271,8.636);
#328=VECTOR('',#1272,1.524);
#329=VECTOR('',#1279,1.524);
#330=VECTOR('',#1282,11.0236);
#331=VECTOR('',#1283,11.0236);
#332=VECTOR('',#1290,15.24);
#333=VECTOR('',#1293,15.24);
#334=VECTOR('',#1300,15.24);
#335=VECTOR('',#1303,0.917119397593525);
#336=VECTOR('',#1304,0.917119397593525);
#337=VECTOR('',#1305,15.24);
#338=VECTOR('',#1308,1.6600963513372);
#339=VECTOR('',#1309,1.6600963513372);
#340=VECTOR('',#1310,15.24);
#341=VECTOR('',#1317,15.24);
#342=VECTOR('',#1320,11.6332);
#343=VECTOR('',#1321,11.6332);
#344=VECTOR('',#1322,15.24);
#345=VECTOR('',#1327,15.24);
#346=VECTOR('',#1330,15.24);
#347=VECTOR('',#1333,6.6294);
#348=VECTOR('',#1334,6.6294);
#349=VECTOR('',#1337,1.8796);
#350=VECTOR('',#1340,1.8796);
#351=VECTOR('',#1343,13.97);
#352=VECTOR('',#1346,40.386);
#353=VECTOR('',#1349,13.97);
#354=VECTOR('',#1352,40.386);
#355=VECTOR('',#1357,11.0236);
#356=VECTOR('',#1360,8.636);
#357=VECTOR('',#1361,1.524);
#358=VECTOR('',#1362,8.636);
#359=VECTOR('',#1365,11.0236);
#360=VECTOR('',#1368,8.636);
#361=VECTOR('',#1369,1.524);
#362=VECTOR('',#1370,8.636);
#363=VECTOR('',#1375,2.032);
#364=VECTOR('',#1376,2.032);
#365=VECTOR('',#1379,40.386);
#366=VECTOR('',#1380,2.032);
#367=VECTOR('',#1385,2.032);
#368=VECTOR('',#1388,13.97);
#369=VECTOR('',#1389,2.032);
#370=VECTOR('',#1394,2.032);
#371=VECTOR('',#1397,40.386);
#372=VECTOR('',#1398,2.032);
#373=VECTOR('',#1403,2.032);
#374=VECTOR('',#1406,13.97);
#375=VECTOR('',#1413,1.524);
#376=VECTOR('',#1414,1.524);
#377=VECTOR('',#1417,8.636);
#378=VECTOR('',#1418,1.524);
#379=VECTOR('',#1421,1.524);
#380=VECTOR('',#1422,1.524);
#381=VECTOR('',#1425,8.636);
#382=VECTOR('',#1426,1.524);
#383=VECTOR('',#1431,1.524);
#384=VECTOR('',#1434,11.0236);
#385=VECTOR('',#1435,1.524);
#386=VECTOR('',#1440,1.524);
#387=VECTOR('',#1443,8.636);
#388=VECTOR('',#1444,1.524);
#389=VECTOR('',#1447,1.524);
#390=VECTOR('',#1448,1.524);
#391=VECTOR('',#1451,8.636);
#392=VECTOR('',#1452,1.524);
#393=VECTOR('',#1457,1.524);
#394=VECTOR('',#1460,11.0236);
#395=CIRCLE('',#1064,0.254000000000005);
#396=CIRCLE('',#1065,0.254000000000005);
#397=CIRCLE('',#1069,0.380999999999998);
#398=CIRCLE('',#1070,0.380999999999998);
#399=CIRCLE('',#1072,4.41959999999998);
#400=CIRCLE('',#1073,4.41959999999998);
#401=CIRCLE('',#1076,0.8128);
#402=CIRCLE('',#1077,0.8128);
#403=CIRCLE('',#1082,0.254000000000011);
#404=CIRCLE('',#1083,0.254000000000011);
#405=CIRCLE('',#1088,1.778);
#406=CIRCLE('',#1089,1.778);
#407=CIRCLE('',#1092,1.778);
#408=CIRCLE('',#1093,1.778);
#409=CIRCLE('',#1098,0.254000000000001);
#410=CIRCLE('',#1099,0.254000000000001);
#411=CIRCLE('',#1103,4.41959999999997);
#412=CIRCLE('',#1104,4.41959999999997);
#413=CIRCLE('',#1106,0.381000000000003);
#414=CIRCLE('',#1107,0.381000000000003);
#415=CIRCLE('',#1111,0.254000000000001);
#416=CIRCLE('',#1112,0.254000000000001);
#417=CIRCLE('',#1115,0.812799999999999);
#418=CIRCLE('',#1116,0.812799999999999);
#419=CIRCLE('',#1121,2.0828);
#420=CIRCLE('',#1122,2.08280000000001);
#421=CIRCLE('',#1123,2.0828);
#422=CIRCLE('',#1124,2.08280000000001);
#423=CIRCLE('',#1125,0.254000000000011);
#424=CIRCLE('',#1126,0.254000000000005);
#425=CIRCLE('',#1127,1.778);
#426=CIRCLE('',#1128,1.778);
#427=CIRCLE('',#1130,2.08280000000001);
#428=CIRCLE('',#1133,2.0828);
#429=CIRCLE('',#1136,2.08280000000001);
#430=CIRCLE('',#1139,2.0828);
#431=CIRCLE('',#1143,0.254000000000011);
#432=CIRCLE('',#1148,1.778);
#433=CIRCLE('',#1151,1.778);
#434=CIRCLE('',#1156,0.254000000000005);
#435=VERTEX_POINT('',#1465);
#436=VERTEX_POINT('',#1466);
#437=VERTEX_POINT('',#1468);
#438=VERTEX_POINT('',#1470);
#439=VERTEX_POINT('',#1474);
#440=VERTEX_POINT('',#1476);
#441=VERTEX_POINT('',#1480);
#442=VERTEX_POINT('',#1482);
#443=VERTEX_POINT('',#1486);
#444=VERTEX_POINT('',#1488);
#445=VERTEX_POINT('',#1492);
#446=VERTEX_POINT('',#1494);
#447=VERTEX_POINT('',#1498);
#448=VERTEX_POINT('',#1500);
#449=VERTEX_POINT('',#1504);
#450=VERTEX_POINT('',#1506);
#451=VERTEX_POINT('',#1510);
#452=VERTEX_POINT('',#1512);
#453=VERTEX_POINT('',#1520);
#454=VERTEX_POINT('',#1521);
#455=VERTEX_POINT('',#1523);
#456=VERTEX_POINT('',#1525);
#457=VERTEX_POINT('',#1529);
#458=VERTEX_POINT('',#1531);
#459=VERTEX_POINT('',#1535);
#460=VERTEX_POINT('',#1537);
#461=VERTEX_POINT('',#1541);
#462=VERTEX_POINT('',#1543);
#463=VERTEX_POINT('',#1547);
#464=VERTEX_POINT('',#1549);
#465=VERTEX_POINT('',#1553);
#466=VERTEX_POINT('',#1555);
#467=VERTEX_POINT('',#1559);
#468=VERTEX_POINT('',#1561);
#469=VERTEX_POINT('',#1565);
#470=VERTEX_POINT('',#1567);
#471=VERTEX_POINT('',#1571);
#472=VERTEX_POINT('',#1573);
#473=VERTEX_POINT('',#1577);
#474=VERTEX_POINT('',#1579);
#475=VERTEX_POINT('',#1583);
#476=VERTEX_POINT('',#1585);
#477=VERTEX_POINT('',#1593);
#478=VERTEX_POINT('',#1594);
#479=VERTEX_POINT('',#1596);
#480=VERTEX_POINT('',#1598);
#481=VERTEX_POINT('',#1602);
#482=VERTEX_POINT('',#1604);
#483=VERTEX_POINT('',#1608);
#484=VERTEX_POINT('',#1610);
#485=VERTEX_POINT('',#1614);
#486=VERTEX_POINT('',#1616);
#487=VERTEX_POINT('',#1620);
#488=VERTEX_POINT('',#1622);
#489=VERTEX_POINT('',#1626);
#490=VERTEX_POINT('',#1628);
#491=VERTEX_POINT('',#1632);
#492=VERTEX_POINT('',#1633);
#493=VERTEX_POINT('',#1635);
#494=VERTEX_POINT('',#1637);
#495=VERTEX_POINT('',#1648);
#496=VERTEX_POINT('',#1649);
#497=VERTEX_POINT('',#1651);
#498=VERTEX_POINT('',#1653);
#499=VERTEX_POINT('',#1655);
#500=VERTEX_POINT('',#1657);
#501=VERTEX_POINT('',#1659);
#502=VERTEX_POINT('',#1661);
#503=VERTEX_POINT('',#1664);
#504=VERTEX_POINT('',#1665);
#505=VERTEX_POINT('',#1667);
#506=VERTEX_POINT('',#1669);
#507=VERTEX_POINT('',#1671);
#508=VERTEX_POINT('',#1673);
#509=VERTEX_POINT('',#1675);
#510=VERTEX_POINT('',#1677);
#511=VERTEX_POINT('',#1679);
#512=VERTEX_POINT('',#1681);
#513=VERTEX_POINT('',#1683);
#514=VERTEX_POINT('',#1685);
#515=VERTEX_POINT('',#1689);
#516=VERTEX_POINT('',#1690);
#517=VERTEX_POINT('',#1695);
#518=VERTEX_POINT('',#1699);
#519=VERTEX_POINT('',#1703);
#520=VERTEX_POINT('',#1707);
#521=VERTEX_POINT('',#1711);
#522=VERTEX_POINT('',#1715);
#523=VERTEX_POINT('',#1722);
#524=VERTEX_POINT('',#1723);
#525=VERTEX_POINT('',#1728);
#526=VERTEX_POINT('',#1732);
#527=VERTEX_POINT('',#1736);
#528=VERTEX_POINT('',#1740);
#529=VERTEX_POINT('',#1744);
#530=VERTEX_POINT('',#1748);
#531=VERTEX_POINT('',#1752);
#532=VERTEX_POINT('',#1756);
#533=VERTEX_POINT('',#1760);
#534=VERTEX_POINT('',#1764);
#535=EDGE_CURVE('',#435,#436,#395,.T.);
#536=EDGE_CURVE('',#436,#437,#175,.T.);
#537=EDGE_CURVE('',#438,#437,#396,.T.);
#538=EDGE_CURVE('',#435,#438,#176,.T.);
#539=EDGE_CURVE('',#439,#435,#177,.T.);
#540=EDGE_CURVE('',#440,#438,#178,.T.);
#541=EDGE_CURVE('',#439,#440,#179,.T.);
#542=EDGE_CURVE('',#441,#439,#180,.T.);
#543=EDGE_CURVE('',#442,#440,#181,.T.);
#544=EDGE_CURVE('',#441,#442,#182,.T.);
#545=EDGE_CURVE('',#443,#441,#397,.T.);
#546=EDGE_CURVE('',#444,#442,#398,.T.);
#547=EDGE_CURVE('',#443,#444,#183,.T.);
#548=EDGE_CURVE('',#445,#443,#399,.T.);
#549=EDGE_CURVE('',#446,#444,#400,.T.);
#550=EDGE_CURVE('',#445,#446,#184,.T.);
#551=EDGE_CURVE('',#447,#445,#185,.T.);
#552=EDGE_CURVE('',#448,#446,#186,.T.);
#553=EDGE_CURVE('',#447,#448,#187,.T.);
#554=EDGE_CURVE('',#449,#447,#401,.T.);
#555=EDGE_CURVE('',#450,#448,#402,.T.);
#556=EDGE_CURVE('',#450,#449,#188,.T.);
#557=EDGE_CURVE('',#436,#451,#189,.T.);
#558=EDGE_CURVE('',#452,#451,#190,.T.);
#559=EDGE_CURVE('',#437,#452,#191,.T.);
#560=EDGE_CURVE('',#450,#452,#192,.T.);
#561=EDGE_CURVE('',#451,#449,#193,.T.);
#562=EDGE_CURVE('',#453,#454,#403,.T.);
#563=EDGE_CURVE('',#454,#455,#194,.T.);
#564=EDGE_CURVE('',#456,#455,#404,.T.);
#565=EDGE_CURVE('',#453,#456,#195,.T.);
#566=EDGE_CURVE('',#457,#453,#196,.T.);
#567=EDGE_CURVE('',#458,#456,#197,.T.);
#568=EDGE_CURVE('',#457,#458,#198,.T.);
#569=EDGE_CURVE('',#459,#457,#199,.T.);
#570=EDGE_CURVE('',#460,#458,#200,.T.);
#571=EDGE_CURVE('',#459,#460,#201,.T.);
#572=EDGE_CURVE('',#461,#459,#202,.T.);
#573=EDGE_CURVE('',#462,#460,#203,.T.);
#574=EDGE_CURVE('',#461,#462,#204,.T.);
#575=EDGE_CURVE('',#463,#461,#405,.T.);
#576=EDGE_CURVE('',#464,#462,#406,.T.);
#577=EDGE_CURVE('',#463,#464,#205,.T.);
#578=EDGE_CURVE('',#465,#463,#206,.T.);
#579=EDGE_CURVE('',#466,#464,#207,.T.);
#580=EDGE_CURVE('',#465,#466,#208,.T.);
#581=EDGE_CURVE('',#467,#465,#407,.T.);
#582=EDGE_CURVE('',#468,#466,#408,.T.);
#583=EDGE_CURVE('',#467,#468,#209,.T.);
#584=EDGE_CURVE('',#469,#467,#210,.T.);
#585=EDGE_CURVE('',#470,#468,#211,.T.);
#586=EDGE_CURVE('',#469,#470,#212,.T.);
#587=EDGE_CURVE('',#471,#469,#213,.T.);
#588=EDGE_CURVE('',#472,#470,#214,.T.);
#589=EDGE_CURVE('',#471,#472,#215,.T.);
#590=EDGE_CURVE('',#473,#471,#216,.T.);
#591=EDGE_CURVE('',#474,#472,#217,.T.);
#592=EDGE_CURVE('',#473,#474,#218,.T.);
#593=EDGE_CURVE('',#475,#473,#409,.T.);
#594=EDGE_CURVE('',#476,#474,#410,.T.);
#595=EDGE_CURVE('',#475,#476,#219,.T.);
#596=EDGE_CURVE('',#454,#475,#220,.T.);
#597=EDGE_CURVE('',#455,#476,#221,.T.);
#598=EDGE_CURVE('',#477,#478,#411,.T.);
#599=EDGE_CURVE('',#477,#479,#222,.T.);
#600=EDGE_CURVE('',#480,#479,#412,.T.);
#601=EDGE_CURVE('',#478,#480,#223,.T.);
#602=EDGE_CURVE('',#478,#481,#413,.T.);
#603=EDGE_CURVE('',#482,#480,#414,.T.);
#604=EDGE_CURVE('',#481,#482,#224,.T.);
#605=EDGE_CURVE('',#481,#483,#225,.T.);
#606=EDGE_CURVE('',#484,#482,#226,.T.);
#607=EDGE_CURVE('',#483,#484,#227,.T.);
#608=EDGE_CURVE('',#483,#485,#228,.T.);
#609=EDGE_CURVE('',#486,#484,#229,.T.);
#610=EDGE_CURVE('',#485,#486,#230,.T.);
#611=EDGE_CURVE('',#485,#487,#415,.T.);
#612=EDGE_CURVE('',#488,#486,#416,.T.);
#613=EDGE_CURVE('',#487,#488,#231,.T.);
#614=EDGE_CURVE('',#487,#489,#232,.T.);
#615=EDGE_CURVE('',#490,#488,#233,.T.);
#616=EDGE_CURVE('',#489,#490,#234,.T.);
#617=EDGE_CURVE('',#491,#492,#417,.T.);
#618=EDGE_CURVE('',#493,#491,#235,.T.);
#619=EDGE_CURVE('',#494,#493,#418,.T.);
#620=EDGE_CURVE('',#492,#494,#236,.T.);
#621=EDGE_CURVE('',#492,#477,#237,.T.);
#622=EDGE_CURVE('',#479,#494,#238,.T.);
#623=EDGE_CURVE('',#491,#489,#239,.T.);
#624=EDGE_CURVE('',#490,#493,#240,.T.);
#625=EDGE_CURVE('',#495,#496,#241,.T.);
#626=EDGE_CURVE('',#496,#497,#419,.T.);
#627=EDGE_CURVE('',#497,#498,#242,.T.);
#628=EDGE_CURVE('',#498,#499,#420,.T.);
#629=EDGE_CURVE('',#499,#500,#243,.T.);
#630=EDGE_CURVE('',#500,#501,#421,.T.);
#631=EDGE_CURVE('',#501,#502,#244,.T.);
#632=EDGE_CURVE('',#502,#495,#422,.T.);
#633=EDGE_CURVE('',#503,#504,#423,.T.);
#634=EDGE_CURVE('',#504,#505,#245,.T.);
#635=EDGE_CURVE('',#505,#506,#424,.T.);
#636=EDGE_CURVE('',#506,#507,#246,.T.);
#637=EDGE_CURVE('',#507,#508,#247,.T.);
#638=EDGE_CURVE('',#508,#509,#248,.T.);
#639=EDGE_CURVE('',#509,#510,#425,.T.);
#640=EDGE_CURVE('',#510,#511,#249,.T.);
#641=EDGE_CURVE('',#511,#512,#426,.T.);
#642=EDGE_CURVE('',#512,#513,#250,.T.);
#643=EDGE_CURVE('',#513,#514,#251,.T.);
#644=EDGE_CURVE('',#514,#503,#252,.T.);
#645=EDGE_CURVE('',#515,#516,#427,.T.);
#646=EDGE_CURVE('',#515,#495,#253,.T.);
#647=EDGE_CURVE('',#516,#502,#254,.T.);
#648=EDGE_CURVE('',#516,#517,#255,.T.);
#649=EDGE_CURVE('',#517,#501,#256,.T.);
#650=EDGE_CURVE('',#517,#518,#428,.T.);
#651=EDGE_CURVE('',#518,#500,#257,.T.);
#652=EDGE_CURVE('',#518,#519,#258,.T.);
#653=EDGE_CURVE('',#519,#499,#259,.T.);
#654=EDGE_CURVE('',#519,#520,#429,.T.);
#655=EDGE_CURVE('',#520,#498,#260,.T.);
#656=EDGE_CURVE('',#520,#521,#261,.T.);
#657=EDGE_CURVE('',#521,#497,#262,.T.);
#658=EDGE_CURVE('',#521,#522,#430,.T.);
#659=EDGE_CURVE('',#522,#496,#263,.T.);
#660=EDGE_CURVE('',#522,#515,#264,.T.);
#661=EDGE_CURVE('',#523,#524,#431,.T.);
#662=EDGE_CURVE('',#524,#504,#265,.T.);
#663=EDGE_CURVE('',#523,#503,#266,.T.);
#664=EDGE_CURVE('',#525,#523,#267,.T.);
#665=EDGE_CURVE('',#525,#514,#268,.T.);
#666=EDGE_CURVE('',#526,#525,#269,.T.);
#667=EDGE_CURVE('',#526,#513,#270,.T.);
#668=EDGE_CURVE('',#527,#526,#271,.T.);
#669=EDGE_CURVE('',#527,#512,#272,.T.);
#670=EDGE_CURVE('',#528,#527,#432,.T.);
#671=EDGE_CURVE('',#528,#511,#273,.T.);
#672=EDGE_CURVE('',#529,#528,#274,.T.);
#673=EDGE_CURVE('',#529,#510,#275,.T.);
#674=EDGE_CURVE('',#530,#529,#433,.T.);
#675=EDGE_CURVE('',#530,#509,#276,.T.);
#676=EDGE_CURVE('',#531,#530,#277,.T.);
#677=EDGE_CURVE('',#531,#508,#278,.T.);
#678=EDGE_CURVE('',#532,#531,#279,.T.);
#679=EDGE_CURVE('',#532,#507,#280,.T.);
#680=EDGE_CURVE('',#533,#532,#281,.T.);
#681=EDGE_CURVE('',#533,#506,#282,.T.);
#682=EDGE_CURVE('',#534,#533,#434,.T.);
#683=EDGE_CURVE('',#534,#505,#283,.T.);
#684=EDGE_CURVE('',#524,#534,#284,.T.);
#685=ORIENTED_EDGE('',*,*,#535,.T.);
#686=ORIENTED_EDGE('',*,*,#536,.T.);
#687=ORIENTED_EDGE('',*,*,#537,.F.);
#688=ORIENTED_EDGE('',*,*,#538,.F.);
#689=ORIENTED_EDGE('',*,*,#539,.T.);
#690=ORIENTED_EDGE('',*,*,#538,.T.);
#691=ORIENTED_EDGE('',*,*,#540,.F.);
#692=ORIENTED_EDGE('',*,*,#541,.F.);
#693=ORIENTED_EDGE('',*,*,#542,.T.);
#694=ORIENTED_EDGE('',*,*,#541,.T.);
#695=ORIENTED_EDGE('',*,*,#543,.F.);
#696=ORIENTED_EDGE('',*,*,#544,.F.);
#697=ORIENTED_EDGE('',*,*,#545,.T.);
#698=ORIENTED_EDGE('',*,*,#544,.T.);
#699=ORIENTED_EDGE('',*,*,#546,.F.);
#700=ORIENTED_EDGE('',*,*,#547,.F.);
#701=ORIENTED_EDGE('',*,*,#548,.T.);
#702=ORIENTED_EDGE('',*,*,#547,.T.);
#703=ORIENTED_EDGE('',*,*,#549,.F.);
#704=ORIENTED_EDGE('',*,*,#550,.F.);
#705=ORIENTED_EDGE('',*,*,#551,.T.);
#706=ORIENTED_EDGE('',*,*,#550,.T.);
#707=ORIENTED_EDGE('',*,*,#552,.F.);
#708=ORIENTED_EDGE('',*,*,#553,.F.);
#709=ORIENTED_EDGE('',*,*,#554,.T.);
#710=ORIENTED_EDGE('',*,*,#553,.T.);
#711=ORIENTED_EDGE('',*,*,#555,.F.);
#712=ORIENTED_EDGE('',*,*,#556,.T.);
#713=ORIENTED_EDGE('',*,*,#557,.T.);
#714=ORIENTED_EDGE('',*,*,#558,.F.);
#715=ORIENTED_EDGE('',*,*,#559,.F.);
#716=ORIENTED_EDGE('',*,*,#536,.F.);
#717=ORIENTED_EDGE('',*,*,#559,.T.);
#718=ORIENTED_EDGE('',*,*,#560,.F.);
#719=ORIENTED_EDGE('',*,*,#555,.T.);
#720=ORIENTED_EDGE('',*,*,#552,.T.);
#721=ORIENTED_EDGE('',*,*,#549,.T.);
#722=ORIENTED_EDGE('',*,*,#546,.T.);
#723=ORIENTED_EDGE('',*,*,#543,.T.);
#724=ORIENTED_EDGE('',*,*,#540,.T.);
#725=ORIENTED_EDGE('',*,*,#537,.T.);
#726=ORIENTED_EDGE('',*,*,#557,.F.);
#727=ORIENTED_EDGE('',*,*,#535,.F.);
#728=ORIENTED_EDGE('',*,*,#539,.F.);
#729=ORIENTED_EDGE('',*,*,#542,.F.);
#730=ORIENTED_EDGE('',*,*,#545,.F.);
#731=ORIENTED_EDGE('',*,*,#548,.F.);
#732=ORIENTED_EDGE('',*,*,#551,.F.);
#733=ORIENTED_EDGE('',*,*,#554,.F.);
#734=ORIENTED_EDGE('',*,*,#561,.F.);
#735=ORIENTED_EDGE('',*,*,#562,.T.);
#736=ORIENTED_EDGE('',*,*,#563,.T.);
#737=ORIENTED_EDGE('',*,*,#564,.F.);
#738=ORIENTED_EDGE('',*,*,#565,.F.);
#739=ORIENTED_EDGE('',*,*,#566,.T.);
#740=ORIENTED_EDGE('',*,*,#565,.T.);
#741=ORIENTED_EDGE('',*,*,#567,.F.);
#742=ORIENTED_EDGE('',*,*,#568,.F.);
#743=ORIENTED_EDGE('',*,*,#569,.T.);
#744=ORIENTED_EDGE('',*,*,#568,.T.);
#745=ORIENTED_EDGE('',*,*,#570,.F.);
#746=ORIENTED_EDGE('',*,*,#571,.F.);
#747=ORIENTED_EDGE('',*,*,#572,.T.);
#748=ORIENTED_EDGE('',*,*,#571,.T.);
#749=ORIENTED_EDGE('',*,*,#573,.F.);
#750=ORIENTED_EDGE('',*,*,#574,.F.);
#751=ORIENTED_EDGE('',*,*,#575,.T.);
#752=ORIENTED_EDGE('',*,*,#574,.T.);
#753=ORIENTED_EDGE('',*,*,#576,.F.);
#754=ORIENTED_EDGE('',*,*,#577,.F.);
#755=ORIENTED_EDGE('',*,*,#578,.T.);
#756=ORIENTED_EDGE('',*,*,#577,.T.);
#757=ORIENTED_EDGE('',*,*,#579,.F.);
#758=ORIENTED_EDGE('',*,*,#580,.F.);
#759=ORIENTED_EDGE('',*,*,#581,.T.);
#760=ORIENTED_EDGE('',*,*,#580,.T.);
#761=ORIENTED_EDGE('',*,*,#582,.F.);
#762=ORIENTED_EDGE('',*,*,#583,.F.);
#763=ORIENTED_EDGE('',*,*,#584,.T.);
#764=ORIENTED_EDGE('',*,*,#583,.T.);
#765=ORIENTED_EDGE('',*,*,#585,.F.);
#766=ORIENTED_EDGE('',*,*,#586,.F.);
#767=ORIENTED_EDGE('',*,*,#587,.T.);
#768=ORIENTED_EDGE('',*,*,#586,.T.);
#769=ORIENTED_EDGE('',*,*,#588,.F.);
#770=ORIENTED_EDGE('',*,*,#589,.F.);
#771=ORIENTED_EDGE('',*,*,#590,.T.);
#772=ORIENTED_EDGE('',*,*,#589,.T.);
#773=ORIENTED_EDGE('',*,*,#591,.F.);
#774=ORIENTED_EDGE('',*,*,#592,.F.);
#775=ORIENTED_EDGE('',*,*,#593,.T.);
#776=ORIENTED_EDGE('',*,*,#592,.T.);
#777=ORIENTED_EDGE('',*,*,#594,.F.);
#778=ORIENTED_EDGE('',*,*,#595,.F.);
#779=ORIENTED_EDGE('',*,*,#596,.T.);
#780=ORIENTED_EDGE('',*,*,#595,.T.);
#781=ORIENTED_EDGE('',*,*,#597,.F.);
#782=ORIENTED_EDGE('',*,*,#563,.F.);
#783=ORIENTED_EDGE('',*,*,#596,.F.);
#784=ORIENTED_EDGE('',*,*,#562,.F.);
#785=ORIENTED_EDGE('',*,*,#566,.F.);
#786=ORIENTED_EDGE('',*,*,#569,.F.);
#787=ORIENTED_EDGE('',*,*,#572,.F.);
#788=ORIENTED_EDGE('',*,*,#575,.F.);
#789=ORIENTED_EDGE('',*,*,#578,.F.);
#790=ORIENTED_EDGE('',*,*,#581,.F.);
#791=ORIENTED_EDGE('',*,*,#584,.F.);
#792=ORIENTED_EDGE('',*,*,#587,.F.);
#793=ORIENTED_EDGE('',*,*,#590,.F.);
#794=ORIENTED_EDGE('',*,*,#593,.F.);
#795=ORIENTED_EDGE('',*,*,#598,.F.);
#796=ORIENTED_EDGE('',*,*,#599,.T.);
#797=ORIENTED_EDGE('',*,*,#600,.F.);
#798=ORIENTED_EDGE('',*,*,#601,.F.);
#799=ORIENTED_EDGE('',*,*,#602,.F.);
#800=ORIENTED_EDGE('',*,*,#601,.T.);
#801=ORIENTED_EDGE('',*,*,#603,.F.);
#802=ORIENTED_EDGE('',*,*,#604,.F.);
#803=ORIENTED_EDGE('',*,*,#605,.F.);
#804=ORIENTED_EDGE('',*,*,#604,.T.);
#805=ORIENTED_EDGE('',*,*,#606,.F.);
#806=ORIENTED_EDGE('',*,*,#607,.F.);
#807=ORIENTED_EDGE('',*,*,#608,.F.);
#808=ORIENTED_EDGE('',*,*,#607,.T.);
#809=ORIENTED_EDGE('',*,*,#609,.F.);
#810=ORIENTED_EDGE('',*,*,#610,.F.);
#811=ORIENTED_EDGE('',*,*,#611,.F.);
#812=ORIENTED_EDGE('',*,*,#610,.T.);
#813=ORIENTED_EDGE('',*,*,#612,.F.);
#814=ORIENTED_EDGE('',*,*,#613,.F.);
#815=ORIENTED_EDGE('',*,*,#614,.F.);
#816=ORIENTED_EDGE('',*,*,#613,.T.);
#817=ORIENTED_EDGE('',*,*,#615,.F.);
#818=ORIENTED_EDGE('',*,*,#616,.F.);
#819=ORIENTED_EDGE('',*,*,#617,.F.);
#820=ORIENTED_EDGE('',*,*,#618,.F.);
#821=ORIENTED_EDGE('',*,*,#619,.F.);
#822=ORIENTED_EDGE('',*,*,#620,.F.);
#823=ORIENTED_EDGE('',*,*,#621,.F.);
#824=ORIENTED_EDGE('',*,*,#620,.T.);
#825=ORIENTED_EDGE('',*,*,#622,.F.);
#826=ORIENTED_EDGE('',*,*,#599,.F.);
#827=ORIENTED_EDGE('',*,*,#621,.T.);
#828=ORIENTED_EDGE('',*,*,#598,.T.);
#829=ORIENTED_EDGE('',*,*,#602,.T.);
#830=ORIENTED_EDGE('',*,*,#605,.T.);
#831=ORIENTED_EDGE('',*,*,#608,.T.);
#832=ORIENTED_EDGE('',*,*,#611,.T.);
#833=ORIENTED_EDGE('',*,*,#614,.T.);
#834=ORIENTED_EDGE('',*,*,#623,.F.);
#835=ORIENTED_EDGE('',*,*,#617,.T.);
#836=ORIENTED_EDGE('',*,*,#622,.T.);
#837=ORIENTED_EDGE('',*,*,#619,.T.);
#838=ORIENTED_EDGE('',*,*,#624,.F.);
#839=ORIENTED_EDGE('',*,*,#615,.T.);
#840=ORIENTED_EDGE('',*,*,#612,.T.);
#841=ORIENTED_EDGE('',*,*,#609,.T.);
#842=ORIENTED_EDGE('',*,*,#606,.T.);
#843=ORIENTED_EDGE('',*,*,#603,.T.);
#844=ORIENTED_EDGE('',*,*,#600,.T.);
#845=ORIENTED_EDGE('',*,*,#625,.T.);
#846=ORIENTED_EDGE('',*,*,#626,.T.);
#847=ORIENTED_EDGE('',*,*,#627,.T.);
#848=ORIENTED_EDGE('',*,*,#628,.T.);
#849=ORIENTED_EDGE('',*,*,#629,.T.);
#850=ORIENTED_EDGE('',*,*,#630,.T.);
#851=ORIENTED_EDGE('',*,*,#631,.T.);
#852=ORIENTED_EDGE('',*,*,#632,.T.);
#853=ORIENTED_EDGE('',*,*,#558,.T.);
#854=ORIENTED_EDGE('',*,*,#561,.T.);
#855=ORIENTED_EDGE('',*,*,#556,.F.);
#856=ORIENTED_EDGE('',*,*,#560,.T.);
#857=ORIENTED_EDGE('',*,*,#564,.T.);
#858=ORIENTED_EDGE('',*,*,#597,.T.);
#859=ORIENTED_EDGE('',*,*,#594,.T.);
#860=ORIENTED_EDGE('',*,*,#591,.T.);
#861=ORIENTED_EDGE('',*,*,#588,.T.);
#862=ORIENTED_EDGE('',*,*,#585,.T.);
#863=ORIENTED_EDGE('',*,*,#582,.T.);
#864=ORIENTED_EDGE('',*,*,#579,.T.);
#865=ORIENTED_EDGE('',*,*,#576,.T.);
#866=ORIENTED_EDGE('',*,*,#573,.T.);
#867=ORIENTED_EDGE('',*,*,#570,.T.);
#868=ORIENTED_EDGE('',*,*,#567,.T.);
#869=ORIENTED_EDGE('',*,*,#618,.T.);
#870=ORIENTED_EDGE('',*,*,#623,.T.);
#871=ORIENTED_EDGE('',*,*,#616,.T.);
#872=ORIENTED_EDGE('',*,*,#624,.T.);
#873=ORIENTED_EDGE('',*,*,#633,.T.);
#874=ORIENTED_EDGE('',*,*,#634,.T.);
#875=ORIENTED_EDGE('',*,*,#635,.T.);
#876=ORIENTED_EDGE('',*,*,#636,.T.);
#877=ORIENTED_EDGE('',*,*,#637,.T.);
#878=ORIENTED_EDGE('',*,*,#638,.T.);
#879=ORIENTED_EDGE('',*,*,#639,.T.);
#880=ORIENTED_EDGE('',*,*,#640,.T.);
#881=ORIENTED_EDGE('',*,*,#641,.T.);
#882=ORIENTED_EDGE('',*,*,#642,.T.);
#883=ORIENTED_EDGE('',*,*,#643,.T.);
#884=ORIENTED_EDGE('',*,*,#644,.T.);
#885=ORIENTED_EDGE('',*,*,#645,.F.);
#886=ORIENTED_EDGE('',*,*,#646,.T.);
#887=ORIENTED_EDGE('',*,*,#632,.F.);
#888=ORIENTED_EDGE('',*,*,#647,.F.);
#889=ORIENTED_EDGE('',*,*,#648,.F.);
#890=ORIENTED_EDGE('',*,*,#647,.T.);
#891=ORIENTED_EDGE('',*,*,#631,.F.);
#892=ORIENTED_EDGE('',*,*,#649,.F.);
#893=ORIENTED_EDGE('',*,*,#650,.F.);
#894=ORIENTED_EDGE('',*,*,#649,.T.);
#895=ORIENTED_EDGE('',*,*,#630,.F.);
#896=ORIENTED_EDGE('',*,*,#651,.F.);
#897=ORIENTED_EDGE('',*,*,#652,.F.);
#898=ORIENTED_EDGE('',*,*,#651,.T.);
#899=ORIENTED_EDGE('',*,*,#629,.F.);
#900=ORIENTED_EDGE('',*,*,#653,.F.);
#901=ORIENTED_EDGE('',*,*,#654,.F.);
#902=ORIENTED_EDGE('',*,*,#653,.T.);
#903=ORIENTED_EDGE('',*,*,#628,.F.);
#904=ORIENTED_EDGE('',*,*,#655,.F.);
#905=ORIENTED_EDGE('',*,*,#656,.F.);
#906=ORIENTED_EDGE('',*,*,#655,.T.);
#907=ORIENTED_EDGE('',*,*,#627,.F.);
#908=ORIENTED_EDGE('',*,*,#657,.F.);
#909=ORIENTED_EDGE('',*,*,#658,.F.);
#910=ORIENTED_EDGE('',*,*,#657,.T.);
#911=ORIENTED_EDGE('',*,*,#626,.F.);
#912=ORIENTED_EDGE('',*,*,#659,.F.);
#913=ORIENTED_EDGE('',*,*,#660,.F.);
#914=ORIENTED_EDGE('',*,*,#659,.T.);
#915=ORIENTED_EDGE('',*,*,#625,.F.);
#916=ORIENTED_EDGE('',*,*,#646,.F.);
#917=ORIENTED_EDGE('',*,*,#660,.T.);
#918=ORIENTED_EDGE('',*,*,#645,.T.);
#919=ORIENTED_EDGE('',*,*,#648,.T.);
#920=ORIENTED_EDGE('',*,*,#650,.T.);
#921=ORIENTED_EDGE('',*,*,#652,.T.);
#922=ORIENTED_EDGE('',*,*,#654,.T.);
#923=ORIENTED_EDGE('',*,*,#656,.T.);
#924=ORIENTED_EDGE('',*,*,#658,.T.);
#925=ORIENTED_EDGE('',*,*,#661,.T.);
#926=ORIENTED_EDGE('',*,*,#662,.T.);
#927=ORIENTED_EDGE('',*,*,#633,.F.);
#928=ORIENTED_EDGE('',*,*,#663,.F.);
#929=ORIENTED_EDGE('',*,*,#664,.T.);
#930=ORIENTED_EDGE('',*,*,#663,.T.);
#931=ORIENTED_EDGE('',*,*,#644,.F.);
#932=ORIENTED_EDGE('',*,*,#665,.F.);
#933=ORIENTED_EDGE('',*,*,#666,.T.);
#934=ORIENTED_EDGE('',*,*,#665,.T.);
#935=ORIENTED_EDGE('',*,*,#643,.F.);
#936=ORIENTED_EDGE('',*,*,#667,.F.);
#937=ORIENTED_EDGE('',*,*,#668,.T.);
#938=ORIENTED_EDGE('',*,*,#667,.T.);
#939=ORIENTED_EDGE('',*,*,#642,.F.);
#940=ORIENTED_EDGE('',*,*,#669,.F.);
#941=ORIENTED_EDGE('',*,*,#670,.T.);
#942=ORIENTED_EDGE('',*,*,#669,.T.);
#943=ORIENTED_EDGE('',*,*,#641,.F.);
#944=ORIENTED_EDGE('',*,*,#671,.F.);
#945=ORIENTED_EDGE('',*,*,#672,.T.);
#946=ORIENTED_EDGE('',*,*,#671,.T.);
#947=ORIENTED_EDGE('',*,*,#640,.F.);
#948=ORIENTED_EDGE('',*,*,#673,.F.);
#949=ORIENTED_EDGE('',*,*,#674,.T.);
#950=ORIENTED_EDGE('',*,*,#673,.T.);
#951=ORIENTED_EDGE('',*,*,#639,.F.);
#952=ORIENTED_EDGE('',*,*,#675,.F.);
#953=ORIENTED_EDGE('',*,*,#676,.T.);
#954=ORIENTED_EDGE('',*,*,#675,.T.);
#955=ORIENTED_EDGE('',*,*,#638,.F.);
#956=ORIENTED_EDGE('',*,*,#677,.F.);
#957=ORIENTED_EDGE('',*,*,#678,.T.);
#958=ORIENTED_EDGE('',*,*,#677,.T.);
#959=ORIENTED_EDGE('',*,*,#637,.F.);
#960=ORIENTED_EDGE('',*,*,#679,.F.);
#961=ORIENTED_EDGE('',*,*,#680,.T.);
#962=ORIENTED_EDGE('',*,*,#679,.T.);
#963=ORIENTED_EDGE('',*,*,#636,.F.);
#964=ORIENTED_EDGE('',*,*,#681,.F.);
#965=ORIENTED_EDGE('',*,*,#682,.T.);
#966=ORIENTED_EDGE('',*,*,#681,.T.);
#967=ORIENTED_EDGE('',*,*,#635,.F.);
#968=ORIENTED_EDGE('',*,*,#683,.F.);
#969=ORIENTED_EDGE('',*,*,#684,.T.);
#970=ORIENTED_EDGE('',*,*,#683,.T.);
#971=ORIENTED_EDGE('',*,*,#634,.F.);
#972=ORIENTED_EDGE('',*,*,#662,.F.);
#973=ORIENTED_EDGE('',*,*,#684,.F.);
#974=ORIENTED_EDGE('',*,*,#661,.F.);
#975=ORIENTED_EDGE('',*,*,#664,.F.);
#976=ORIENTED_EDGE('',*,*,#666,.F.);
#977=ORIENTED_EDGE('',*,*,#668,.F.);
#978=ORIENTED_EDGE('',*,*,#670,.F.);
#979=ORIENTED_EDGE('',*,*,#672,.F.);
#980=ORIENTED_EDGE('',*,*,#674,.F.);
#981=ORIENTED_EDGE('',*,*,#676,.F.);
#982=ORIENTED_EDGE('',*,*,#678,.F.);
#983=ORIENTED_EDGE('',*,*,#680,.F.);
#984=ORIENTED_EDGE('',*,*,#682,.F.);
#985=CYLINDRICAL_SURFACE('',#1063,0.254000000000005);
#986=CYLINDRICAL_SURFACE('',#1068,0.380999999999998);
#987=CYLINDRICAL_SURFACE('',#1071,4.41959999999998);
#988=CYLINDRICAL_SURFACE('',#1075,0.8128);
#989=CYLINDRICAL_SURFACE('',#1081,0.254000000000011);
#990=CYLINDRICAL_SURFACE('',#1087,1.778);
#991=CYLINDRICAL_SURFACE('',#1091,1.778);
#992=CYLINDRICAL_SURFACE('',#1097,0.254000000000001);
#993=CYLINDRICAL_SURFACE('',#1102,4.41959999999997);
#994=CYLINDRICAL_SURFACE('',#1105,0.381000000000003);
#995=CYLINDRICAL_SURFACE('',#1110,0.254000000000001);
#996=CYLINDRICAL_SURFACE('',#1114,0.812799999999999);
#997=CYLINDRICAL_SURFACE('',#1129,2.08280000000001);
#998=CYLINDRICAL_SURFACE('',#1132,2.0828);
#999=CYLINDRICAL_SURFACE('',#1135,2.08280000000001);
#1000=CYLINDRICAL_SURFACE('',#1138,2.0828);
#1001=CYLINDRICAL_SURFACE('',#1142,0.254000000000011);
#1002=CYLINDRICAL_SURFACE('',#1147,1.778);
#1003=CYLINDRICAL_SURFACE('',#1150,1.778);
#1004=CYLINDRICAL_SURFACE('',#1155,0.254000000000005);
#1005=ADVANCED_FACE('',(#59),#985,.T.);
#1006=ADVANCED_FACE('',(#60),#23,.T.);
#1007=ADVANCED_FACE('',(#61),#24,.T.);
#1008=ADVANCED_FACE('',(#62),#986,.T.);
#1009=ADVANCED_FACE('',(#63),#987,.F.);
#1010=ADVANCED_FACE('',(#64),#25,.T.);
#1011=ADVANCED_FACE('',(#65),#988,.F.);
#1012=ADVANCED_FACE('',(#66),#26,.T.);
#1013=ADVANCED_FACE('',(#67),#27,.T.);
#1014=ADVANCED_FACE('',(#68),#28,.F.);
#1015=ADVANCED_FACE('',(#69),#989,.F.);
#1016=ADVANCED_FACE('',(#70),#29,.T.);
#1017=ADVANCED_FACE('',(#71),#30,.T.);
#1018=ADVANCED_FACE('',(#72),#31,.T.);
#1019=ADVANCED_FACE('',(#73),#990,.T.);
#1020=ADVANCED_FACE('',(#74),#32,.T.);
#1021=ADVANCED_FACE('',(#75),#991,.T.);
#1022=ADVANCED_FACE('',(#76),#33,.T.);
#1023=ADVANCED_FACE('',(#77),#34,.T.);
#1024=ADVANCED_FACE('',(#78),#35,.T.);
#1025=ADVANCED_FACE('',(#79),#992,.F.);
#1026=ADVANCED_FACE('',(#80),#36,.T.);
#1027=ADVANCED_FACE('',(#81),#37,.F.);
#1028=ADVANCED_FACE('',(#82),#993,.F.);
#1029=ADVANCED_FACE('',(#83),#994,.T.);
#1030=ADVANCED_FACE('',(#84),#38,.T.);
#1031=ADVANCED_FACE('',(#85),#39,.T.);
#1032=ADVANCED_FACE('',(#86),#995,.T.);
#1033=ADVANCED_FACE('',(#87),#40,.T.);
#1034=ADVANCED_FACE('',(#88),#996,.F.);
#1035=ADVANCED_FACE('',(#89),#41,.T.);
#1036=ADVANCED_FACE('',(#90),#42,.F.);
#1037=ADVANCED_FACE('',(#91),#43,.T.);
#1038=ADVANCED_FACE('',(#92,#19,#20,#21,#22),#44,.F.);
#1039=ADVANCED_FACE('',(#93),#997,.T.);
#1040=ADVANCED_FACE('',(#94),#45,.T.);
#1041=ADVANCED_FACE('',(#95),#998,.T.);
#1042=ADVANCED_FACE('',(#96),#46,.T.);
#1043=ADVANCED_FACE('',(#97),#999,.T.);
#1044=ADVANCED_FACE('',(#98),#47,.T.);
#1045=ADVANCED_FACE('',(#99),#1000,.T.);
#1046=ADVANCED_FACE('',(#100),#48,.T.);
#1047=ADVANCED_FACE('',(#101),#49,.T.);
#1048=ADVANCED_FACE('',(#102),#1001,.F.);
#1049=ADVANCED_FACE('',(#103),#50,.T.);
#1050=ADVANCED_FACE('',(#104),#51,.T.);
#1051=ADVANCED_FACE('',(#105),#52,.T.);
#1052=ADVANCED_FACE('',(#106),#1002,.T.);
#1053=ADVANCED_FACE('',(#107),#53,.T.);
#1054=ADVANCED_FACE('',(#108),#1003,.T.);
#1055=ADVANCED_FACE('',(#109),#54,.T.);
#1056=ADVANCED_FACE('',(#110),#55,.T.);
#1057=ADVANCED_FACE('',(#111),#56,.T.);
#1058=ADVANCED_FACE('',(#112),#1004,.F.);
#1059=ADVANCED_FACE('',(#113),#57,.T.);
#1060=ADVANCED_FACE('',(#114),#58,.F.);
#1061=CLOSED_SHELL('',(#1005,#1006,#1007,#1008,#1009,#1010,#1011,#1012,
#1013,#1014,#1015,#1016,#1017,#1018,#1019,#1020,#1021,#1022,#1023,#1024,
#1025,#1026,#1027,#1028,#1029,#1030,#1031,#1032,#1033,#1034,#1035,#1036,
#1037,#1038,#1039,#1040,#1041,#1042,#1043,#1044,#1045,#1046,#1047,#1048,
#1049,#1050,#1051,#1052,#1053,#1054,#1055,#1056,#1057,#1058,#1059,#1060));
#1062=AXIS2_PLACEMENT_3D('placement',#1463,#1159,#1160);
#1063=AXIS2_PLACEMENT_3D('',#1464,#1161,#1162);
#1064=AXIS2_PLACEMENT_3D('',#1467,#1163,#1164);
#1065=AXIS2_PLACEMENT_3D('',#1471,#1166,#1167);
#1066=AXIS2_PLACEMENT_3D('',#1473,#1169,#1170);
#1067=AXIS2_PLACEMENT_3D('',#1479,#1174,#1175);
#1068=AXIS2_PLACEMENT_3D('',#1485,#1179,#1180);
#1069=AXIS2_PLACEMENT_3D('',#1487,#1181,#1182);
#1070=AXIS2_PLACEMENT_3D('',#1489,#1183,#1184);
#1071=AXIS2_PLACEMENT_3D('',#1491,#1186,#1187);
#1072=AXIS2_PLACEMENT_3D('',#1493,#1188,#1189);
#1073=AXIS2_PLACEMENT_3D('',#1495,#1190,#1191);
#1074=AXIS2_PLACEMENT_3D('',#1497,#1193,#1194);
#1075=AXIS2_PLACEMENT_3D('',#1503,#1198,#1199);
#1076=AXIS2_PLACEMENT_3D('',#1505,#1200,#1201);
#1077=AXIS2_PLACEMENT_3D('',#1507,#1202,#1203);
#1078=AXIS2_PLACEMENT_3D('',#1509,#1205,#1206);
#1079=AXIS2_PLACEMENT_3D('',#1515,#1210,#1211);
#1080=AXIS2_PLACEMENT_3D('',#1517,#1213,#1214);
#1081=AXIS2_PLACEMENT_3D('',#1519,#1216,#1217);
#1082=AXIS2_PLACEMENT_3D('',#1522,#1218,#1219);
#1083=AXIS2_PLACEMENT_3D('',#1526,#1221,#1222);
#1084=AXIS2_PLACEMENT_3D('',#1528,#1224,#1225);
#1085=AXIS2_PLACEMENT_3D('',#1534,#1229,#1230);
#1086=AXIS2_PLACEMENT_3D('',#1540,#1234,#1235);
#1087=AXIS2_PLACEMENT_3D('',#1546,#1239,#1240);
#1088=AXIS2_PLACEMENT_3D('',#1548,#1241,#1242);
#1089=AXIS2_PLACEMENT_3D('',#1550,#1243,#1244);
#1090=AXIS2_PLACEMENT_3D('',#1552,#1246,#1247);
#1091=AXIS2_PLACEMENT_3D('',#1558,#1251,#1252);
#1092=AXIS2_PLACEMENT_3D('',#1560,#1253,#1254);
#1093=AXIS2_PLACEMENT_3D('',#1562,#1255,#1256);
#1094=AXIS2_PLACEMENT_3D('',#1564,#1258,#1259);
#1095=AXIS2_PLACEMENT_3D('',#1570,#1263,#1264);
#1096=AXIS2_PLACEMENT_3D('',#1576,#1268,#1269);
#1097=AXIS2_PLACEMENT_3D('',#1582,#1273,#1274);
#1098=AXIS2_PLACEMENT_3D('',#1584,#1275,#1276);
#1099=AXIS2_PLACEMENT_3D('',#1586,#1277,#1278);
#1100=AXIS2_PLACEMENT_3D('',#1588,#1280,#1281);
#1101=AXIS2_PLACEMENT_3D('',#1591,#1284,#1285);
#1102=AXIS2_PLACEMENT_3D('',#1592,#1286,#1287);
#1103=AXIS2_PLACEMENT_3D('',#1595,#1288,#1289);
#1104=AXIS2_PLACEMENT_3D('',#1599,#1291,#1292);
#1105=AXIS2_PLACEMENT_3D('',#1601,#1294,#1295);
#1106=AXIS2_PLACEMENT_3D('',#1603,#1296,#1297);
#1107=AXIS2_PLACEMENT_3D('',#1605,#1298,#1299);
#1108=AXIS2_PLACEMENT_3D('',#1607,#1301,#1302);
#1109=AXIS2_PLACEMENT_3D('',#1613,#1306,#1307);
#1110=AXIS2_PLACEMENT_3D('',#1619,#1311,#1312);
#1111=AXIS2_PLACEMENT_3D('',#1621,#1313,#1314);
#1112=AXIS2_PLACEMENT_3D('',#1623,#1315,#1316);
#1113=AXIS2_PLACEMENT_3D('',#1625,#1318,#1319);
#1114=AXIS2_PLACEMENT_3D('',#1631,#1323,#1324);
#1115=AXIS2_PLACEMENT_3D('',#1634,#1325,#1326);
#1116=AXIS2_PLACEMENT_3D('',#1638,#1328,#1329);
#1117=AXIS2_PLACEMENT_3D('',#1640,#1331,#1332);
#1118=AXIS2_PLACEMENT_3D('',#1643,#1335,#1336);
#1119=AXIS2_PLACEMENT_3D('',#1645,#1338,#1339);
#1120=AXIS2_PLACEMENT_3D('',#1647,#1341,#1342);
#1121=AXIS2_PLACEMENT_3D('',#1652,#1344,#1345);
#1122=AXIS2_PLACEMENT_3D('',#1656,#1347,#1348);
#1123=AXIS2_PLACEMENT_3D('',#1660,#1350,#1351);
#1124=AXIS2_PLACEMENT_3D('',#1663,#1353,#1354);
#1125=AXIS2_PLACEMENT_3D('',#1666,#1355,#1356);
#1126=AXIS2_PLACEMENT_3D('',#1670,#1358,#1359);
#1127=AXIS2_PLACEMENT_3D('',#1678,#1363,#1364);
#1128=AXIS2_PLACEMENT_3D('',#1682,#1366,#1367);
#1129=AXIS2_PLACEMENT_3D('',#1688,#1371,#1372);
#1130=AXIS2_PLACEMENT_3D('',#1691,#1373,#1374);
#1131=AXIS2_PLACEMENT_3D('',#1694,#1377,#1378);
#1132=AXIS2_PLACEMENT_3D('',#1698,#1381,#1382);
#1133=AXIS2_PLACEMENT_3D('',#1700,#1383,#1384);
#1134=AXIS2_PLACEMENT_3D('',#1702,#1386,#1387);
#1135=AXIS2_PLACEMENT_3D('',#1706,#1390,#1391);
#1136=AXIS2_PLACEMENT_3D('',#1708,#1392,#1393);
#1137=AXIS2_PLACEMENT_3D('',#1710,#1395,#1396);
#1138=AXIS2_PLACEMENT_3D('',#1714,#1399,#1400);
#1139=AXIS2_PLACEMENT_3D('',#1716,#1401,#1402);
#1140=AXIS2_PLACEMENT_3D('',#1718,#1404,#1405);
#1141=AXIS2_PLACEMENT_3D('',#1720,#1407,#1408);
#1142=AXIS2_PLACEMENT_3D('',#1721,#1409,#1410);
#1143=AXIS2_PLACEMENT_3D('',#1724,#1411,#1412);
#1144=AXIS2_PLACEMENT_3D('',#1727,#1415,#1416);
#1145=AXIS2_PLACEMENT_3D('',#1731,#1419,#1420);
#1146=AXIS2_PLACEMENT_3D('',#1735,#1423,#1424);
#1147=AXIS2_PLACEMENT_3D('',#1739,#1427,#1428);
#1148=AXIS2_PLACEMENT_3D('',#1741,#1429,#1430);
#1149=AXIS2_PLACEMENT_3D('',#1743,#1432,#1433);
#1150=AXIS2_PLACEMENT_3D('',#1747,#1436,#1437);
#1151=AXIS2_PLACEMENT_3D('',#1749,#1438,#1439);
#1152=AXIS2_PLACEMENT_3D('',#1751,#1441,#1442);
#1153=AXIS2_PLACEMENT_3D('',#1755,#1445,#1446);
#1154=AXIS2_PLACEMENT_3D('',#1759,#1449,#1450);
#1155=AXIS2_PLACEMENT_3D('',#1763,#1453,#1454);
#1156=AXIS2_PLACEMENT_3D('',#1765,#1455,#1456);
#1157=AXIS2_PLACEMENT_3D('',#1767,#1458,#1459);
#1158=AXIS2_PLACEMENT_3D('',#1769,#1461,#1462);
#1159=DIRECTION('axis',(0.,0.,1.));
#1160=DIRECTION('refdir',(1.,0.,0.));
#1161=DIRECTION('center_axis',(1.,0.,2.33117695459351E-16));
#1162=DIRECTION('ref_axis',(2.33117695459351E-16,6.99353086378038E-15,-1.));
#1163=DIRECTION('center_axis',(1.,0.,0.));
#1164=DIRECTION('ref_axis',(0.,6.99353086378038E-15,-1.));
#1165=DIRECTION('',(1.,0.,2.33117695459351E-16));
#1166=DIRECTION('center_axis',(1.,0.,0.));
#1167=DIRECTION('ref_axis',(0.,6.99353086378038E-15,-1.));
#1168=DIRECTION('',(1.,0.,2.33117695459351E-16));
#1169=DIRECTION('center_axis',(2.33117695459351E-16,0.,-1.));
#1170=DIRECTION('ref_axis',(0.,1.,0.));
#1171=DIRECTION('',(0.,1.,0.));
#1172=DIRECTION('',(0.,1.,0.));
#1173=DIRECTION('',(1.,0.,2.33117695459351E-16));
#1174=DIRECTION('center_axis',(1.46033498879708E-16,-0.779472230837708,
-0.626436781609195));
#1175=DIRECTION('ref_axis',(0.,0.626436781609195,-0.779472230837708));
#1176=DIRECTION('',(0.,0.626436781609195,-0.779472230837708));
#1177=DIRECTION('',(0.,0.626436781609195,-0.779472230837708));
#1178=DIRECTION('',(1.,0.,2.33117695459351E-16));
#1179=DIRECTION('center_axis',(1.,0.,2.33117695459351E-16));
#1180=DIRECTION('ref_axis',(-1.69545630847581E-16,-0.686323635552246,0.727296272011859));
#1181=DIRECTION('center_axis',(1.,0.,0.));
#1182=DIRECTION('ref_axis',(0.,-0.686323635552246,0.727296272011859));
#1183=DIRECTION('center_axis',(1.,0.,0.));
#1184=DIRECTION('ref_axis',(0.,-0.686323635552246,0.727296272011859));
#1185=DIRECTION('',(1.,0.,2.33117695459351E-16));
#1186=DIRECTION('center_axis',(1.,0.,2.33117695459351E-16));
#1187=DIRECTION('ref_axis',(-5.35474412992815E-31,1.,2.61252589738928E-15));
#1188=DIRECTION('center_axis',(-1.,-1.2289608380941E-15,2.53723887052466E-16));
#1189=DIRECTION('ref_axis',(-1.20578118341044E-15,1.,2.61252589738928E-15));
#1190=DIRECTION('center_axis',(-1.,-1.2289608380941E-15,2.53723887052466E-16));
#1191=DIRECTION('ref_axis',(-1.20578118341044E-15,1.,2.61252589738928E-15));
#1192=DIRECTION('',(1.,0.,2.33117695459351E-16));
#1193=DIRECTION('center_axis',(0.,-1.,0.));
#1194=DIRECTION('ref_axis',(0.,0.,-1.));
#1195=DIRECTION('',(2.67951374091208E-16,0.,-1.));
#1196=DIRECTION('',(2.67951374091208E-16,0.,-1.));
#1197=DIRECTION('',(1.,0.,2.33117695459351E-16));
#1198=DIRECTION('center_axis',(1.,0.,2.33117695459351E-16));
#1199=DIRECTION('ref_axis',(-2.33117695459351E-16,1.09273919746571E-15,
1.));
#1200=DIRECTION('center_axis',(-1.,0.,0.));
#1201=DIRECTION('ref_axis',(0.,1.09273919746571E-15,1.));
#1202=DIRECTION('center_axis',(-1.,0.,0.));
#1203=DIRECTION('ref_axis',(0.,1.09273919746571E-15,1.));
#1204=DIRECTION('',(-1.,0.,-2.33117695459351E-16));
#1205=DIRECTION('center_axis',(0.,1.,0.));
#1206=DIRECTION('ref_axis',(0.,0.,1.));
#1207=DIRECTION('',(-2.29045770647834E-16,0.,1.));
#1208=DIRECTION('',(-1.,0.,0.));
#1209=DIRECTION('',(-2.29045770647834E-16,0.,1.));
#1210=DIRECTION('center_axis',(1.,4.43227693315385E-17,1.31396953477656E-16));
#1211=DIRECTION('ref_axis',(0.,0.,-1.));
#1212=DIRECTION('',(-4.43227693315385E-17,1.,0.));
#1213=DIRECTION('center_axis',(1.,4.43227693315385E-17,1.31396953477656E-16));
#1214=DIRECTION('ref_axis',(0.,0.,-1.));
#1215=DIRECTION('',(4.43227693315385E-17,-1.,0.));
#1216=DIRECTION('center_axis',(0.,0.,1.));
#1217=DIRECTION('ref_axis',(2.80965881350356E-14,1.,0.));
#1218=DIRECTION('center_axis',(0.,0.,-1.));
#1219=DIRECTION('ref_axis',(2.80965881350356E-14,1.,0.));
#1220=DIRECTION('',(0.,0.,1.));
#1221=DIRECTION('center_axis',(0.,0.,-1.));
#1222=DIRECTION('ref_axis',(2.80965881350356E-14,1.,0.));
#1223=DIRECTION('',(0.,0.,1.));
#1224=DIRECTION('center_axis',(-1.9618637800316E-17,-1.,0.));
#1225=DIRECTION('ref_axis',(1.,0.,0.));
#1226=DIRECTION('',(1.,-1.9618637800316E-17,0.));
#1227=DIRECTION('',(1.,-1.9618637800316E-17,0.));
#1228=DIRECTION('',(0.,0.,1.));
#1229=DIRECTION('center_axis',(-1.,-1.04312379738202E-15,0.));
#1230=DIRECTION('ref_axis',(1.77635683940025E-15,-1.,0.));
#1231=DIRECTION('',(1.04312379738202E-15,-1.,0.));
#1232=DIRECTION('',(1.04312379738202E-15,-1.,0.));
#1233=DIRECTION('',(0.,0.,1.));
#1234=DIRECTION('center_axis',(1.9618637800316E-17,1.,0.));
#1235=DIRECTION('ref_axis',(-1.,0.,0.));
#1236=DIRECTION('',(-1.,1.9618637800316E-17,0.));
#1237=DIRECTION('',(-1.,1.9618637800316E-17,0.));
#1238=DIRECTION('',(0.,0.,1.));
#1239=DIRECTION('center_axis',(0.,0.,1.));
#1240=DIRECTION('ref_axis',(1.,-1.12154051759767E-15,0.));
#1241=DIRECTION('center_axis',(0.,0.,1.));
#1242=DIRECTION('ref_axis',(1.,-1.12154051759767E-15,0.));
#1243=DIRECTION('center_axis',(0.,0.,1.));
#1244=DIRECTION('ref_axis',(1.,-1.12154051759767E-15,0.));
#1245=DIRECTION('',(0.,0.,1.));
#1246=DIRECTION('center_axis',(1.,-1.22464679914735E-16,0.));
#1247=DIRECTION('ref_axis',(0.,1.,0.));
#1248=DIRECTION('',(1.22464679914735E-16,1.,0.));
#1249=DIRECTION('',(1.22464679914735E-16,1.,0.));
#1250=DIRECTION('',(0.,0.,1.));
#1251=DIRECTION('center_axis',(0.,0.,1.));
#1252=DIRECTION('ref_axis',(1.87568699545113E-15,-1.,0.));
#1253=DIRECTION('center_axis',(0.,0.,1.));
#1254=DIRECTION('ref_axis',(1.87568699545113E-15,-1.,0.));
#1255=DIRECTION('center_axis',(0.,0.,1.));
#1256=DIRECTION('ref_axis',(1.87568699545113E-15,-1.,0.));
#1257=DIRECTION('',(0.,0.,1.));
#1258=DIRECTION('center_axis',(-1.9618637800316E-17,-1.,0.));
#1259=DIRECTION('ref_axis',(1.,0.,0.));
#1260=DIRECTION('',(1.,-1.9618637800316E-17,0.));
#1261=DIRECTION('',(1.,-1.9618637800316E-17,0.));
#1262=DIRECTION('',(0.,0.,1.));
#1263=DIRECTION('center_axis',(-1.,-1.04312379738202E-15,0.));
#1264=DIRECTION('ref_axis',(1.77635683940025E-15,-1.,0.));
#1265=DIRECTION('',(1.04312379738202E-15,-1.,0.));
#1266=DIRECTION('',(1.04312379738202E-15,-1.,0.));
#1267=DIRECTION('',(0.,0.,1.));
#1268=DIRECTION('center_axis',(-1.86073446428523E-16,1.,0.));
#1269=DIRECTION('ref_axis',(-1.,0.,0.));
#1270=DIRECTION('',(-1.,-1.86073446428523E-16,0.));
#1271=DIRECTION('',(-1.,-1.86073446428523E-16,0.));
#1272=DIRECTION('',(0.,0.,1.));
#1273=DIRECTION('center_axis',(0.,0.,1.));
#1274=DIRECTION('ref_axis',(1.,6.87106618386574E-15,0.));
#1275=DIRECTION('center_axis',(0.,0.,-1.));
#1276=DIRECTION('ref_axis',(1.,6.87106618386574E-15,0.));
#1277=DIRECTION('center_axis',(0.,0.,-1.));
#1278=DIRECTION('ref_axis',(1.,6.87106618386574E-15,0.));
#1279=DIRECTION('',(0.,0.,1.));
#1280=DIRECTION('center_axis',(-1.,1.22464679914735E-16,0.));
#1281=DIRECTION('ref_axis',(0.,-1.,0.));
#1282=DIRECTION('',(-1.22464679914735E-16,-1.,0.));
#1283=DIRECTION('',(-1.22464679914735E-16,-1.,0.));
#1284=DIRECTION('center_axis',(0.,0.,1.));
#1285=DIRECTION('ref_axis',(-1.,1.22464679914735E-16,0.));
#1286=DIRECTION('center_axis',(1.,0.,2.18547839493141E-16));
#1287=DIRECTION('ref_axis',(-3.56982941995211E-31,-1.,2.00963530568407E-15));
#1288=DIRECTION('center_axis',(1.,-1.2289608380941E-15,-2.53723887052468E-16));
#1289=DIRECTION('ref_axis',(-1.20578118341044E-15,-1.,2.00963530568407E-15));
#1290=DIRECTION('',(1.,0.,2.18547839493141E-16));
#1291=DIRECTION('center_axis',(-1.,1.2289608380941E-15,2.53723887052468E-16));
#1292=DIRECTION('ref_axis',(-1.20578118341044E-15,-1.,2.00963530568407E-15));
#1293=DIRECTION('',(1.,0.,2.18547839493141E-16));
#1294=DIRECTION('center_axis',(1.,0.,2.18547839493141E-16));
#1295=DIRECTION('ref_axis',(-1.58949028919607E-16,0.686323635552247,0.727296272011858));
#1296=DIRECTION('center_axis',(-1.,0.,0.));
#1297=DIRECTION('ref_axis',(0.,0.686323635552247,0.727296272011858));
#1298=DIRECTION('center_axis',(1.,0.,0.));
#1299=DIRECTION('ref_axis',(0.,0.686323635552247,0.727296272011858));
#1300=DIRECTION('',(1.,0.,2.18547839493141E-16));
#1301=DIRECTION('center_axis',(1.36906405199726E-16,0.779472230837709,-0.626436781609194));
#1302=DIRECTION('ref_axis',(0.,0.626436781609194,0.779472230837709));
#1303=DIRECTION('',(0.,-0.626436781609194,-0.779472230837709));
#1304=DIRECTION('',(0.,0.626436781609194,0.779472230837709));
#1305=DIRECTION('',(1.,0.,2.18547839493141E-16));
#1306=DIRECTION('center_axis',(2.18547839493141E-16,1.07003237370494E-15,
-1.));
#1307=DIRECTION('ref_axis',(0.,1.,8.88178419700125E-16));
#1308=DIRECTION('',(0.,-1.,-1.07003237370494E-15));
#1309=DIRECTION('',(0.,1.,1.07003237370494E-15));
#1310=DIRECTION('',(1.,0.,2.18547839493141E-16));
#1311=DIRECTION('center_axis',(1.,0.,2.18547839493141E-16));
#1312=DIRECTION('ref_axis',(2.18547839493141E-16,0.,-1.));
#1313=DIRECTION('center_axis',(-1.,0.,0.));
#1314=DIRECTION('ref_axis',(0.,0.,-1.));
#1315=DIRECTION('center_axis',(1.,0.,0.));
#1316=DIRECTION('ref_axis',(0.,0.,-1.));
#1317=DIRECTION('',(1.,0.,2.18547839493141E-16));
#1318=DIRECTION('center_axis',(-1.66858194400418E-32,-1.,7.63485902159445E-17));
#1319=DIRECTION('ref_axis',(0.,0.,-1.));
#1320=DIRECTION('',(-2.29045770647834E-16,7.63485902159445E-17,1.));
#1321=DIRECTION('',(2.29045770647834E-16,-7.63485902159445E-17,-1.));
#1322=DIRECTION('',(1.,-1.66858194400418E-32,0.));
#1323=DIRECTION('center_axis',(1.,0.,2.18547839493141E-16));
#1324=DIRECTION('ref_axis',(-2.18547839493141E-16,-5.46369598732853E-16,
1.));
#1325=DIRECTION('center_axis',(1.,0.,0.));
#1326=DIRECTION('ref_axis',(0.,-5.46369598732853E-16,1.));
#1327=DIRECTION('',(-1.,0.,-2.18547839493141E-16));
#1328=DIRECTION('center_axis',(-1.,0.,0.));
#1329=DIRECTION('ref_axis',(0.,-5.46369598732853E-16,1.));
#1330=DIRECTION('',(1.,0.,2.18547839493141E-16));
#1331=DIRECTION('center_axis',(8.78402908452777E-32,1.,-4.01927061136811E-16));
#1332=DIRECTION('ref_axis',(0.,0.,1.));
#1333=DIRECTION('',(2.67951374091207E-16,-4.01927061136811E-16,-1.));
#1334=DIRECTION('',(-2.67951374091207E-16,4.01927061136811E-16,1.));
#1335=DIRECTION('center_axis',(1.,-4.43227693315376E-17,1.31396953477656E-16));
#1336=DIRECTION('ref_axis',(0.,0.,-1.));
#1337=DIRECTION('',(-4.43227693315376E-17,-1.,0.));
#1338=DIRECTION('center_axis',(1.,-4.43227693315376E-17,1.31396953477656E-16));
#1339=DIRECTION('ref_axis',(0.,0.,-1.));
#1340=DIRECTION('',(4.43227693315376E-17,1.,0.));
#1341=DIRECTION('center_axis',(0.,0.,1.));
#1342=DIRECTION('ref_axis',(1.,0.,0.));
#1343=DIRECTION('',(-2.54310213228382E-16,-1.,0.));
#1344=DIRECTION('center_axis',(0.,0.,-1.));
#1345=DIRECTION('ref_axis',(0.,-1.,0.));
#1346=DIRECTION('',(-1.,-1.75937883365548E-16,0.));
#1347=DIRECTION('center_axis',(0.,0.,-1.));
#1348=DIRECTION('ref_axis',(-1.,-6.39652213150655E-15,0.));
#1349=DIRECTION('',(-2.54310213228382E-16,1.,0.));
#1350=DIRECTION('center_axis',(0.,0.,-1.));
#1351=DIRECTION('ref_axis',(0.,1.,0.));
#1352=DIRECTION('',(1.,1.75937883365548E-16,0.));
#1353=DIRECTION('center_axis',(0.,0.,-1.));
#1354=DIRECTION('ref_axis',(1.,7.24939174904074E-15,0.));
#1355=DIRECTION('center_axis',(0.,0.,-1.));
#1356=DIRECTION('ref_axis',(-2.79741234551208E-14,-1.,0.));
#1357=DIRECTION('',(0.,1.,0.));
#1358=DIRECTION('center_axis',(0.,0.,-1.));
#1359=DIRECTION('ref_axis',(-1.,1.74838271594509E-14,0.));
#1360=DIRECTION('',(1.,3.08538126343258E-16,0.));
#1361=DIRECTION('',(0.,1.,0.));
#1362=DIRECTION('',(-1.,-1.02846042114419E-16,0.));
#1363=DIRECTION('center_axis',(0.,0.,1.));
#1364=DIRECTION('ref_axis',(-1.99815167536586E-15,1.,0.));
#1365=DIRECTION('',(0.,-1.,0.));
#1366=DIRECTION('center_axis',(0.,0.,1.));
#1367=DIRECTION('ref_axis',(-1.,9.99075837682931E-16,0.));
#1368=DIRECTION('',(1.,1.02846042114419E-16,0.));
#1369=DIRECTION('',(0.,1.,0.));
#1370=DIRECTION('',(-1.,-1.02846042114419E-16,0.));
#1371=DIRECTION('center_axis',(0.,0.,-1.));
#1372=DIRECTION('ref_axis',(1.,7.24939174904074E-15,0.));
#1373=DIRECTION('center_axis',(0.,0.,1.));
#1374=DIRECTION('ref_axis',(1.,7.24939174904074E-15,0.));
#1375=DIRECTION('',(0.,0.,-1.));
#1376=DIRECTION('',(0.,0.,-1.));
#1377=DIRECTION('center_axis',(-1.75937883365548E-16,1.,0.));
#1378=DIRECTION('ref_axis',(1.,0.,0.));
#1379=DIRECTION('',(-1.,-1.75937883365548E-16,0.));
#1380=DIRECTION('',(0.,0.,-1.));
#1381=DIRECTION('center_axis',(0.,0.,-1.));
#1382=DIRECTION('ref_axis',(0.,1.,0.));
#1383=DIRECTION('center_axis',(0.,0.,1.));
#1384=DIRECTION('ref_axis',(0.,1.,0.));
#1385=DIRECTION('',(0.,0.,-1.));
#1386=DIRECTION('center_axis',(-1.,-2.54310213228382E-16,0.));
#1387=DIRECTION('ref_axis',(0.,1.,0.));
#1388=DIRECTION('',(2.54310213228382E-16,-1.,0.));
#1389=DIRECTION('',(0.,0.,-1.));
#1390=DIRECTION('center_axis',(0.,0.,-1.));
#1391=DIRECTION('ref_axis',(-1.,-6.39652213150655E-15,0.));
#1392=DIRECTION('center_axis',(0.,0.,1.));
#1393=DIRECTION('ref_axis',(-1.,-6.39652213150655E-15,0.));
#1394=DIRECTION('',(0.,0.,-1.));
#1395=DIRECTION('center_axis',(1.75937883365548E-16,-1.,0.));
#1396=DIRECTION('ref_axis',(-1.,0.,0.));
#1397=DIRECTION('',(1.,1.75937883365548E-16,0.));
#1398=DIRECTION('',(0.,0.,-1.));
#1399=DIRECTION('center_axis',(0.,0.,-1.));
#1400=DIRECTION('ref_axis',(0.,-1.,0.));
#1401=DIRECTION('center_axis',(0.,0.,1.));
#1402=DIRECTION('ref_axis',(0.,-1.,0.));
#1403=DIRECTION('',(0.,0.,-1.));
#1404=DIRECTION('center_axis',(1.,-2.54310213228382E-16,0.));
#1405=DIRECTION('ref_axis',(0.,-1.,0.));
#1406=DIRECTION('',(2.54310213228382E-16,1.,0.));
#1407=DIRECTION('center_axis',(0.,0.,1.));
#1408=DIRECTION('ref_axis',(1.,0.,0.));
#1409=DIRECTION('center_axis',(0.,0.,1.));
#1410=DIRECTION('ref_axis',(-2.79741234551208E-14,-1.,0.));
#1411=DIRECTION('center_axis',(0.,0.,-1.));
#1412=DIRECTION('ref_axis',(-2.79741234551208E-14,-1.,0.));
#1413=DIRECTION('',(0.,0.,1.));
#1414=DIRECTION('',(0.,0.,1.));
#1415=DIRECTION('center_axis',(-1.02846042114419E-16,1.,0.));
#1416=DIRECTION('ref_axis',(-1.,0.,0.));
#1417=DIRECTION('',(-1.,-1.02846042114419E-16,0.));
#1418=DIRECTION('',(0.,0.,1.));
#1419=DIRECTION('center_axis',(1.,0.,0.));
#1420=DIRECTION('ref_axis',(0.,1.,0.));
#1421=DIRECTION('',(0.,1.,0.));
#1422=DIRECTION('',(0.,0.,1.));
#1423=DIRECTION('center_axis',(1.02846042114419E-16,-1.,0.));
#1424=DIRECTION('ref_axis',(1.,0.,0.));
#1425=DIRECTION('',(1.,1.02846042114419E-16,0.));
#1426=DIRECTION('',(0.,0.,1.));
#1427=DIRECTION('center_axis',(0.,0.,1.));
#1428=DIRECTION('ref_axis',(-1.,9.99075837682931E-16,0.));
#1429=DIRECTION('center_axis',(0.,0.,1.));
#1430=DIRECTION('ref_axis',(-1.,9.99075837682931E-16,0.));
#1431=DIRECTION('',(0.,0.,1.));
#1432=DIRECTION('center_axis',(-1.,0.,0.));
#1433=DIRECTION('ref_axis',(0.,-1.,0.));
#1434=DIRECTION('',(0.,-1.,0.));
#1435=DIRECTION('',(0.,0.,1.));
#1436=DIRECTION('center_axis',(0.,0.,1.));
#1437=DIRECTION('ref_axis',(-1.99815167536586E-15,1.,0.));
#1438=DIRECTION('center_axis',(0.,0.,1.));
#1439=DIRECTION('ref_axis',(-1.99815167536586E-15,1.,0.));
#1440=DIRECTION('',(0.,0.,1.));
#1441=DIRECTION('center_axis',(-1.02846042114419E-16,1.,0.));
#1442=DIRECTION('ref_axis',(-1.,0.,0.));
#1443=DIRECTION('',(-1.,-1.02846042114419E-16,0.));
#1444=DIRECTION('',(0.,0.,1.));
#1445=DIRECTION('center_axis',(1.,0.,0.));
#1446=DIRECTION('ref_axis',(0.,1.,0.));
#1447=DIRECTION('',(0.,1.,0.));
#1448=DIRECTION('',(0.,0.,1.));
#1449=DIRECTION('center_axis',(3.08538126343258E-16,-1.,0.));
#1450=DIRECTION('ref_axis',(1.,0.,0.));
#1451=DIRECTION('',(1.,3.08538126343258E-16,0.));
#1452=DIRECTION('',(0.,0.,1.));
#1453=DIRECTION('center_axis',(0.,0.,1.));
#1454=DIRECTION('ref_axis',(-1.,1.74838271594509E-14,0.));
#1455=DIRECTION('center_axis',(0.,0.,-1.));
#1456=DIRECTION('ref_axis',(-1.,1.74838271594509E-14,0.));
#1457=DIRECTION('',(0.,0.,1.));
#1458=DIRECTION('center_axis',(1.,0.,0.));
#1459=DIRECTION('ref_axis',(0.,1.,0.));
#1460=DIRECTION('',(0.,1.,0.));
#1461=DIRECTION('center_axis',(0.,0.,1.));
#1462=DIRECTION('ref_axis',(1.,0.,0.));
#1463=CARTESIAN_POINT('',(0.,0.,0.));
#1464=CARTESIAN_POINT('Origin',(-7.62,5.25779999999999,5.88680000000001));
#1465=CARTESIAN_POINT('',(-7.62,5.25779999999999,5.63280000000001));
#1466=CARTESIAN_POINT('',(-7.62,5.5118,5.88680000000001));
#1467=CARTESIAN_POINT('Origin',(-7.62,5.25779999999999,5.88680000000001));
#1468=CARTESIAN_POINT('',(7.62,5.5118,5.88680000000001));
#1469=CARTESIAN_POINT('',(-7.62,5.5118,5.88680000000001));
#1470=CARTESIAN_POINT('',(7.62,5.25779999999999,5.63280000000001));
#1471=CARTESIAN_POINT('Origin',(7.62,5.25779999999999,5.88680000000002));
#1472=CARTESIAN_POINT('',(-7.62,5.25779999999999,5.63280000000001));
#1473=CARTESIAN_POINT('Origin',(-7.62,3.59770364866279,5.63280000000001));
#1474=CARTESIAN_POINT('',(-7.62,3.59770364866279,5.63280000000001));
#1475=CARTESIAN_POINT('',(-7.62,3.59770364866279,5.63280000000001));
#1476=CARTESIAN_POINT('',(7.62,3.59770364866279,5.63280000000001));
#1477=CARTESIAN_POINT('',(7.62,3.59770364866279,5.63280000000001));
#1478=CARTESIAN_POINT('',(-7.62,3.59770364866279,5.63280000000001));
#1479=CARTESIAN_POINT('Origin',(-7.62,3.02318632488294,6.34766910278677));
#1480=CARTESIAN_POINT('',(-7.62,3.02318632488294,6.34766910278677));
#1481=CARTESIAN_POINT('',(-7.62,3.02318632488294,6.34766910278677));
#1482=CARTESIAN_POINT('',(7.62,3.02318632488294,6.34766910278677));
#1483=CARTESIAN_POINT('',(7.62,3.02318632488294,6.34766910278677));
#1484=CARTESIAN_POINT('',(-7.62,3.02318632488294,6.34766910278677));
#1485=CARTESIAN_POINT('Origin',(-7.62,3.3201652448321,6.58634151657987));
#1486=CARTESIAN_POINT('',(-7.62,3.0586759396867,6.86344139621639));
#1487=CARTESIAN_POINT('Origin',(-7.62,3.3201652448321,6.58634151657987));
#1488=CARTESIAN_POINT('',(7.62,3.0586759396867,6.86344139621639));
#1489=CARTESIAN_POINT('Origin',(7.62,3.3201652448321,6.58634151657988));
#1490=CARTESIAN_POINT('',(-7.62,3.0586759396867,6.86344139621639));
#1491=CARTESIAN_POINT('Origin',(-7.61999999999999,0.0254000000000172,10.0778));
#1492=CARTESIAN_POINT('',(-7.62,4.445,10.0778));
#1493=CARTESIAN_POINT('Origin',(-7.61999999999999,0.0254000000000172,10.0778));
#1494=CARTESIAN_POINT('',(7.62,4.445,10.0778));
#1495=CARTESIAN_POINT('Origin',(7.62000000000001,0.0254000000000172,10.0778));
#1496=CARTESIAN_POINT('',(-7.62,4.445,10.0778));
#1497=CARTESIAN_POINT('Origin',(-7.62,4.445,16.7072));
#1498=CARTESIAN_POINT('',(-7.62,4.445,16.7072));
#1499=CARTESIAN_POINT('',(-7.62,4.445,16.7072));
#1500=CARTESIAN_POINT('',(7.62,4.445,16.7072));
#1501=CARTESIAN_POINT('',(7.62,4.445,16.7072));
#1502=CARTESIAN_POINT('',(-7.62,4.445,16.7072));
#1503=CARTESIAN_POINT('Origin',(-7.62,3.6322,16.7072));
#1504=CARTESIAN_POINT('',(-7.62,3.6322,17.52));
#1505=CARTESIAN_POINT('Origin',(-7.62,3.6322,16.7072));
#1506=CARTESIAN_POINT('',(7.62,3.6322,17.52));
#1507=CARTESIAN_POINT('Origin',(7.62,3.6322,16.7072));
#1508=CARTESIAN_POINT('',(-7.62,3.6322,17.52));
#1509=CARTESIAN_POINT('Origin',(-7.62,5.5118,5.88680000000001));
#1510=CARTESIAN_POINT('',(-7.62,5.5118,17.52));
#1511=CARTESIAN_POINT('',(-7.62,5.5118,5.88680000000001));
#1512=CARTESIAN_POINT('',(7.62,5.5118,17.52));
#1513=CARTESIAN_POINT('',(-3.81,5.5118,17.52));
#1514=CARTESIAN_POINT('',(7.62,5.5118,5.88680000000001));
#1515=CARTESIAN_POINT('Origin',(7.62,4.80240263134979,11.6723037602403));
#1516=CARTESIAN_POINT('',(7.62,2.4012013156749,17.52));
#1517=CARTESIAN_POINT('Origin',(-7.62,4.80240263134979,11.6723037602403));
#1518=CARTESIAN_POINT('',(-7.62,2.4012013156749,17.52));
#1519=CARTESIAN_POINT('Origin',(17.9578,5.51179999999998,15.996));
#1520=CARTESIAN_POINT('',(17.9578,5.76579999999999,15.996));
#1521=CARTESIAN_POINT('',(18.2118,5.51179999999999,15.996));
#1522=CARTESIAN_POINT('Origin',(17.9578,5.51179999999998,15.996));
#1523=CARTESIAN_POINT('',(18.2118,5.51179999999999,17.52));
#1524=CARTESIAN_POINT('',(18.2118,5.51179999999999,15.996));
#1525=CARTESIAN_POINT('',(17.9578,5.76579999999999,17.52));
#1526=CARTESIAN_POINT('Origin',(17.9578,5.51179999999998,17.52));
#1527=CARTESIAN_POINT('',(17.9578,5.76579999999999,15.996));
#1528=CARTESIAN_POINT('Origin',(9.3218,5.76579999999999,15.996));
#1529=CARTESIAN_POINT('',(9.3218,5.76579999999999,15.996));
#1530=CARTESIAN_POINT('',(9.3218,5.76579999999999,15.996));
#1531=CARTESIAN_POINT('',(9.3218,5.76579999999999,17.52));
#1532=CARTESIAN_POINT('',(4.6609,5.76579999999999,17.52));
#1533=CARTESIAN_POINT('',(9.3218,5.76579999999999,15.996));
#1534=CARTESIAN_POINT('Origin',(9.3218,7.28979999999999,15.996));
#1535=CARTESIAN_POINT('',(9.3218,7.28979999999999,15.996));
#1536=CARTESIAN_POINT('',(9.3218,7.28979999999999,15.996));
#1537=CARTESIAN_POINT('',(9.3218,7.28979999999999,17.52));
#1538=CARTESIAN_POINT('',(9.3218,3.6449,17.52));
#1539=CARTESIAN_POINT('',(9.3218,7.28979999999999,15.996));
#1540=CARTESIAN_POINT('Origin',(17.9578,7.28979999999999,15.996));
#1541=CARTESIAN_POINT('',(17.9578,7.28979999999999,15.996));
#1542=CARTESIAN_POINT('',(17.9578,7.28979999999999,15.996));
#1543=CARTESIAN_POINT('',(17.9578,7.28979999999999,17.52));
#1544=CARTESIAN_POINT('',(8.9789,7.28979999999999,17.52));
#1545=CARTESIAN_POINT('',(17.9578,7.28979999999999,15.996));
#1546=CARTESIAN_POINT('Origin',(17.9578,5.51179999999999,15.996));
#1547=CARTESIAN_POINT('',(19.7358,5.51179999999999,15.996));
#1548=CARTESIAN_POINT('Origin',(17.9578,5.51179999999999,15.996));
#1549=CARTESIAN_POINT('',(19.7358,5.51179999999999,17.52));
#1550=CARTESIAN_POINT('Origin',(17.9578,5.51179999999999,17.52));
#1551=CARTESIAN_POINT('',(19.7358,5.51179999999999,15.996));
#1552=CARTESIAN_POINT('Origin',(19.7358,-5.51179999999999,15.996));
#1553=CARTESIAN_POINT('',(19.7358,-5.51179999999999,15.996));
#1554=CARTESIAN_POINT('',(19.7358,-5.51179999999999,15.996));
#1555=CARTESIAN_POINT('',(19.7358,-5.51179999999999,17.52));
#1556=CARTESIAN_POINT('',(19.7358,-2.7559,17.52));
#1557=CARTESIAN_POINT('',(19.7358,-5.51179999999999,15.996));
#1558=CARTESIAN_POINT('Origin',(17.9578,-5.51179999999999,15.996));
#1559=CARTESIAN_POINT('',(17.9578,-7.28979999999999,15.996));
#1560=CARTESIAN_POINT('Origin',(17.9578,-5.51179999999999,15.996));
#1561=CARTESIAN_POINT('',(17.9578,-7.28979999999999,17.52));
#1562=CARTESIAN_POINT('Origin',(17.9578,-5.51179999999999,17.52));
#1563=CARTESIAN_POINT('',(17.9578,-7.28979999999999,15.996));
#1564=CARTESIAN_POINT('Origin',(9.3218,-7.28979999999999,15.996));
#1565=CARTESIAN_POINT('',(9.3218,-7.28979999999999,15.996));
#1566=CARTESIAN_POINT('',(9.3218,-7.28979999999999,15.996));
#1567=CARTESIAN_POINT('',(9.3218,-7.28979999999999,17.52));
#1568=CARTESIAN_POINT('',(4.6609,-7.28979999999999,17.52));
#1569=CARTESIAN_POINT('',(9.3218,-7.28979999999999,15.996));
#1570=CARTESIAN_POINT('Origin',(9.3218,-5.76579999999999,15.996));
#1571=CARTESIAN_POINT('',(9.3218,-5.76579999999999,15.996));
#1572=CARTESIAN_POINT('',(9.3218,-5.76579999999999,15.996));
#1573=CARTESIAN_POINT('',(9.3218,-5.76579999999999,17.52));
#1574=CARTESIAN_POINT('',(9.3218,-2.88289999999999,17.52));
#1575=CARTESIAN_POINT('',(9.3218,-5.76579999999999,15.996));
#1576=CARTESIAN_POINT('Origin',(17.9578,-5.76579999999999,15.996));
#1577=CARTESIAN_POINT('',(17.9578,-5.76579999999999,15.996));
#1578=CARTESIAN_POINT('',(17.9578,-5.76579999999999,15.996));
#1579=CARTESIAN_POINT('',(17.9578,-5.76579999999999,17.52));
#1580=CARTESIAN_POINT('',(8.9789,-5.76579999999999,17.52));
#1581=CARTESIAN_POINT('',(17.9578,-5.76579999999999,15.996));
#1582=CARTESIAN_POINT('Origin',(17.9578,-5.51179999999999,15.996));
#1583=CARTESIAN_POINT('',(18.2118,-5.51179999999999,15.996));
#1584=CARTESIAN_POINT('Origin',(17.9578,-5.51179999999999,15.996));
#1585=CARTESIAN_POINT('',(18.2118,-5.51179999999999,17.52));
#1586=CARTESIAN_POINT('Origin',(17.9578,-5.51179999999999,17.52));
#1587=CARTESIAN_POINT('',(18.2118,-5.51179999999999,15.996));
#1588=CARTESIAN_POINT('Origin',(18.2118,5.51179999999999,15.996));
#1589=CARTESIAN_POINT('',(18.2118,5.51179999999999,15.996));
#1590=CARTESIAN_POINT('',(18.2118,2.7559,17.52));
#1591=CARTESIAN_POINT('Origin',(15.6568253815477,1.4953355985776E-15,15.996));
#1592=CARTESIAN_POINT('Origin',(-7.61999999999999,-0.0254000000000305,10.0778));
#1593=CARTESIAN_POINT('',(-7.61999999999999,-4.445,10.0778));
#1594=CARTESIAN_POINT('',(-7.61999999999999,-3.05867593968671,6.86344139621639));
#1595=CARTESIAN_POINT('Origin',(-7.61999999999999,-0.0254000000000305,10.0778));
#1596=CARTESIAN_POINT('',(7.62000000000001,-4.445,10.0778));
#1597=CARTESIAN_POINT('',(-7.61999999999999,-4.445,10.0778));
#1598=CARTESIAN_POINT('',(7.62000000000001,-3.05867593968671,6.8634413962164));
#1599=CARTESIAN_POINT('Origin',(7.62000000000001,-0.0254000000000305,10.0778));
#1600=CARTESIAN_POINT('',(-7.61999999999999,-3.05867593968671,6.86344139621639));
#1601=CARTESIAN_POINT('Origin',(-7.61999999999999,-3.32016524483211,6.58634151657987));
#1602=CARTESIAN_POINT('',(-7.61999999999999,-3.02318632488294,6.34766910278677));
#1603=CARTESIAN_POINT('Origin',(-7.61999999999999,-3.32016524483211,6.58634151657987));
#1604=CARTESIAN_POINT('',(7.62000000000001,-3.02318632488294,6.34766910278677));
#1605=CARTESIAN_POINT('Origin',(7.62000000000001,-3.32016524483211,6.58634151657988));
#1606=CARTESIAN_POINT('',(-7.61999999999999,-3.02318632488294,6.34766910278677));
#1607=CARTESIAN_POINT('Origin',(-7.61999999999999,-3.59770364866279,5.63280000000001));
#1608=CARTESIAN_POINT('',(-7.61999999999999,-3.59770364866279,5.63280000000001));
#1609=CARTESIAN_POINT('',(-7.61999999999999,-3.02318632488294,6.34766910278677));
#1610=CARTESIAN_POINT('',(7.62000000000001,-3.59770364866279,5.63280000000001));
#1611=CARTESIAN_POINT('',(7.62000000000001,-3.02318632488294,6.34766910278677));
#1612=CARTESIAN_POINT('',(-7.61999999999999,-3.59770364866279,5.63280000000001));
#1613=CARTESIAN_POINT('Origin',(-7.61999999999999,-5.2578,5.63280000000001));
#1614=CARTESIAN_POINT('',(-7.61999999999999,-5.2578,5.63280000000001));
#1615=CARTESIAN_POINT('',(-7.61999999999999,-3.59770364866279,5.63280000000001));
#1616=CARTESIAN_POINT('',(7.62000000000001,-5.2578,5.63280000000001));
#1617=CARTESIAN_POINT('',(7.62000000000001,-3.59770364866279,5.63280000000001));
#1618=CARTESIAN_POINT('',(-7.61999999999999,-5.2578,5.63280000000001));
#1619=CARTESIAN_POINT('Origin',(-7.61999999999999,-5.2578,5.88680000000001));
#1620=CARTESIAN_POINT('',(-7.61999999999999,-5.5118,5.88680000000001));
#1621=CARTESIAN_POINT('Origin',(-7.61999999999999,-5.2578,5.88680000000001));
#1622=CARTESIAN_POINT('',(7.62000000000001,-5.5118,5.88680000000001));
#1623=CARTESIAN_POINT('Origin',(7.62000000000001,-5.2578,5.88680000000001));
#1624=CARTESIAN_POINT('',(-7.61999999999999,-5.5118,5.88680000000001));
#1625=CARTESIAN_POINT('Origin',(-7.62,-5.5118,17.52));
#1626=CARTESIAN_POINT('',(-7.62,-5.5118,17.52));
#1627=CARTESIAN_POINT('',(-7.61999999999999,-5.5118,5.88680000000001));
#1628=CARTESIAN_POINT('',(7.62000000000001,-5.5118,17.52));
#1629=CARTESIAN_POINT('',(7.62000000000001,-5.5118,5.88680000000001));
#1630=CARTESIAN_POINT('',(-3.81,-5.5118,17.52));
#1631=CARTESIAN_POINT('Origin',(-7.62,-3.6322,16.7072));
#1632=CARTESIAN_POINT('',(-7.62,-3.6322,17.52));
#1633=CARTESIAN_POINT('',(-7.62,-4.445,16.7072));
#1634=CARTESIAN_POINT('Origin',(-7.62,-3.6322,16.7072));
#1635=CARTESIAN_POINT('',(7.62000000000001,-3.6322,17.52));
#1636=CARTESIAN_POINT('',(-7.62,-3.6322,17.52));
#1637=CARTESIAN_POINT('',(7.62000000000001,-4.445,16.7072));
#1638=CARTESIAN_POINT('Origin',(7.62000000000001,-3.6322,16.7072));
#1639=CARTESIAN_POINT('',(-7.62,-4.445,16.7072));
#1640=CARTESIAN_POINT('Origin',(-7.61999999999999,-4.445,10.0778));
#1641=CARTESIAN_POINT('',(-7.62,-4.445,16.7072));
#1642=CARTESIAN_POINT('',(7.62000000000001,-4.445,16.7072));
#1643=CARTESIAN_POINT('Origin',(-7.61999999999999,-4.8024026313498,11.6723037602403));
#1644=CARTESIAN_POINT('',(-7.61999999999999,-2.4012013156749,17.52));
#1645=CARTESIAN_POINT('Origin',(7.62000000000001,-4.8024026313498,11.6723037602403));
#1646=CARTESIAN_POINT('',(7.62000000000001,-2.4012013156749,17.52));
#1647=CARTESIAN_POINT('Origin',(6.50909022020686E-15,7.19373259723908E-16,
17.52));
#1648=CARTESIAN_POINT('',(22.2758,6.985,17.52));
#1649=CARTESIAN_POINT('',(22.2758,-6.98499999999999,17.52));
#1650=CARTESIAN_POINT('',(22.2758,-6.98499999999999,17.52));
#1651=CARTESIAN_POINT('',(20.193,-9.06779999999999,17.52));
#1652=CARTESIAN_POINT('Origin',(20.193,-6.98499999999999,17.52));
#1653=CARTESIAN_POINT('',(-20.193,-9.06779999999999,17.52));
#1654=CARTESIAN_POINT('',(-20.193,-9.06779999999999,17.52));
#1655=CARTESIAN_POINT('',(-22.2758,-6.985,17.52));
#1656=CARTESIAN_POINT('Origin',(-20.193,-6.98499999999999,17.52));
#1657=CARTESIAN_POINT('',(-22.2758,6.98499999999999,17.52));
#1658=CARTESIAN_POINT('',(-22.2758,6.98499999999999,17.52));
#1659=CARTESIAN_POINT('',(-20.193,9.06779999999999,17.52));
#1660=CARTESIAN_POINT('Origin',(-20.193,6.98499999999999,17.52));
#1661=CARTESIAN_POINT('',(20.193,9.0678,17.52));
#1662=CARTESIAN_POINT('',(20.193,9.0678,17.52));
#1663=CARTESIAN_POINT('Origin',(20.193,6.98499999999999,17.52));
#1664=CARTESIAN_POINT('',(-17.9578,-5.76579999999999,17.52));
#1665=CARTESIAN_POINT('',(-18.2118,-5.51179999999999,17.52));
#1666=CARTESIAN_POINT('Origin',(-17.9578,-5.51179999999998,17.52));
#1667=CARTESIAN_POINT('',(-18.2118,5.51179999999999,17.52));
#1668=CARTESIAN_POINT('',(-18.2118,-5.51179999999999,17.52));
#1669=CARTESIAN_POINT('',(-17.9578,5.76579999999999,17.52));
#1670=CARTESIAN_POINT('Origin',(-17.9578,5.51179999999998,17.52));
#1671=CARTESIAN_POINT('',(-9.3218,5.76579999999999,17.52));
#1672=CARTESIAN_POINT('',(-17.9578,5.76579999999999,17.52));
#1673=CARTESIAN_POINT('',(-9.3218,7.28979999999999,17.52));
#1674=CARTESIAN_POINT('',(-9.3218,5.76579999999999,17.52));
#1675=CARTESIAN_POINT('',(-17.9578,7.28979999999998,17.52));
#1676=CARTESIAN_POINT('',(-9.3218,7.28979999999999,17.52));
#1677=CARTESIAN_POINT('',(-19.7358,5.51179999999999,17.52));
#1678=CARTESIAN_POINT('Origin',(-17.9578,5.51179999999999,17.52));
#1679=CARTESIAN_POINT('',(-19.7358,-5.51179999999999,17.52));
#1680=CARTESIAN_POINT('',(-19.7358,5.51179999999999,17.52));
#1681=CARTESIAN_POINT('',(-17.9578,-7.2898,17.52));
#1682=CARTESIAN_POINT('Origin',(-17.9578,-5.5118,17.52));
#1683=CARTESIAN_POINT('',(-9.32179999999999,-7.28979999999999,17.52));
#1684=CARTESIAN_POINT('',(-17.9578,-7.28979999999999,17.52));
#1685=CARTESIAN_POINT('',(-9.32179999999999,-5.76579999999999,17.52));
#1686=CARTESIAN_POINT('',(-9.32179999999999,-7.28979999999999,17.52));
#1687=CARTESIAN_POINT('',(-9.32179999999999,-5.76579999999999,17.52));
#1688=CARTESIAN_POINT('Origin',(20.193,6.98499999999999,19.552));
#1689=CARTESIAN_POINT('',(22.2758,6.985,19.552));
#1690=CARTESIAN_POINT('',(20.193,9.0678,19.552));
#1691=CARTESIAN_POINT('Origin',(20.193,6.98499999999999,19.552));
#1692=CARTESIAN_POINT('',(22.2758,6.985,19.552));
#1693=CARTESIAN_POINT('',(20.193,9.0678,19.552));
#1694=CARTESIAN_POINT('Origin',(-20.193,9.06779999999999,19.552));
#1695=CARTESIAN_POINT('',(-20.193,9.06779999999999,19.552));
#1696=CARTESIAN_POINT('',(20.193,9.0678,19.552));
#1697=CARTESIAN_POINT('',(-20.193,9.06779999999999,19.552));
#1698=CARTESIAN_POINT('Origin',(-20.193,6.98499999999999,19.552));
#1699=CARTESIAN_POINT('',(-22.2758,6.98499999999999,19.552));
#1700=CARTESIAN_POINT('Origin',(-20.193,6.98499999999999,19.552));
#1701=CARTESIAN_POINT('',(-22.2758,6.98499999999999,19.552));
#1702=CARTESIAN_POINT('Origin',(-22.2758,-6.985,19.552));
#1703=CARTESIAN_POINT('',(-22.2758,-6.985,19.552));
#1704=CARTESIAN_POINT('',(-22.2758,6.98499999999999,19.552));
#1705=CARTESIAN_POINT('',(-22.2758,-6.985,19.552));
#1706=CARTESIAN_POINT('Origin',(-20.193,-6.98499999999999,19.552));
#1707=CARTESIAN_POINT('',(-20.193,-9.06779999999999,19.552));
#1708=CARTESIAN_POINT('Origin',(-20.193,-6.98499999999999,19.552));
#1709=CARTESIAN_POINT('',(-20.193,-9.06779999999999,19.552));
#1710=CARTESIAN_POINT('Origin',(20.193,-9.06779999999999,19.552));
#1711=CARTESIAN_POINT('',(20.193,-9.06779999999999,19.552));
#1712=CARTESIAN_POINT('',(-20.193,-9.06779999999999,19.552));
#1713=CARTESIAN_POINT('',(20.193,-9.06779999999999,19.552));
#1714=CARTESIAN_POINT('Origin',(20.193,-6.98499999999999,19.552));
#1715=CARTESIAN_POINT('',(22.2758,-6.98499999999999,19.552));
#1716=CARTESIAN_POINT('Origin',(20.193,-6.98499999999999,19.552));
#1717=CARTESIAN_POINT('',(22.2758,-6.98499999999999,19.552));
#1718=CARTESIAN_POINT('Origin',(22.2758,6.985,19.552));
#1719=CARTESIAN_POINT('',(22.2758,-6.98499999999999,19.552));
#1720=CARTESIAN_POINT('Origin',(6.50909022020686E-15,7.19373259723908E-16,
19.552));
#1721=CARTESIAN_POINT('Origin',(-17.9578,-5.51179999999998,15.996));
#1722=CARTESIAN_POINT('',(-17.9578,-5.76579999999999,15.996));
#1723=CARTESIAN_POINT('',(-18.2118,-5.51179999999999,15.996));
#1724=CARTESIAN_POINT('Origin',(-17.9578,-5.51179999999998,15.996));
#1725=CARTESIAN_POINT('',(-18.2118,-5.51179999999999,15.996));
#1726=CARTESIAN_POINT('',(-17.9578,-5.76579999999999,15.996));
#1727=CARTESIAN_POINT('Origin',(-9.32179999999999,-5.76579999999999,15.996));
#1728=CARTESIAN_POINT('',(-9.32179999999999,-5.76579999999999,15.996));
#1729=CARTESIAN_POINT('',(-9.32179999999999,-5.76579999999999,15.996));
#1730=CARTESIAN_POINT('',(-9.32179999999999,-5.76579999999999,15.996));
#1731=CARTESIAN_POINT('Origin',(-9.32179999999999,-7.28979999999999,15.996));
#1732=CARTESIAN_POINT('',(-9.32179999999999,-7.28979999999999,15.996));
#1733=CARTESIAN_POINT('',(-9.32179999999999,-7.28979999999999,15.996));
#1734=CARTESIAN_POINT('',(-9.32179999999999,-7.28979999999999,15.996));
#1735=CARTESIAN_POINT('Origin',(-17.9578,-7.28979999999999,15.996));
#1736=CARTESIAN_POINT('',(-17.9578,-7.2898,15.996));
#1737=CARTESIAN_POINT('',(-17.9578,-7.28979999999999,15.996));
#1738=CARTESIAN_POINT('',(-17.9578,-7.2898,15.996));
#1739=CARTESIAN_POINT('Origin',(-17.9578,-5.5118,15.996));
#1740=CARTESIAN_POINT('',(-19.7358,-5.51179999999999,15.996));
#1741=CARTESIAN_POINT('Origin',(-17.9578,-5.5118,15.996));
#1742=CARTESIAN_POINT('',(-19.7358,-5.51179999999999,15.996));
#1743=CARTESIAN_POINT('Origin',(-19.7358,5.51179999999999,15.996));
#1744=CARTESIAN_POINT('',(-19.7358,5.51179999999999,15.996));
#1745=CARTESIAN_POINT('',(-19.7358,5.51179999999999,15.996));
#1746=CARTESIAN_POINT('',(-19.7358,5.51179999999999,15.996));
#1747=CARTESIAN_POINT('Origin',(-17.9578,5.51179999999999,15.996));
#1748=CARTESIAN_POINT('',(-17.9578,7.28979999999999,15.996));
#1749=CARTESIAN_POINT('Origin',(-17.9578,5.51179999999999,15.996));
#1750=CARTESIAN_POINT('',(-17.9578,7.28979999999999,15.996));
#1751=CARTESIAN_POINT('Origin',(-9.3218,7.28979999999999,15.996));
#1752=CARTESIAN_POINT('',(-9.3218,7.28979999999999,15.996));
#1753=CARTESIAN_POINT('',(-9.3218,7.28979999999999,15.996));
#1754=CARTESIAN_POINT('',(-9.3218,7.28979999999999,15.996));
#1755=CARTESIAN_POINT('Origin',(-9.3218,5.76579999999999,15.996));
#1756=CARTESIAN_POINT('',(-9.3218,5.76579999999999,15.996));
#1757=CARTESIAN_POINT('',(-9.3218,5.76579999999999,15.996));
#1758=CARTESIAN_POINT('',(-9.3218,5.76579999999999,15.996));
#1759=CARTESIAN_POINT('Origin',(-17.9578,5.76579999999999,15.996));
#1760=CARTESIAN_POINT('',(-17.9578,5.76579999999999,15.996));
#1761=CARTESIAN_POINT('',(-17.9578,5.76579999999999,15.996));
#1762=CARTESIAN_POINT('',(-17.9578,5.76579999999999,15.996));
#1763=CARTESIAN_POINT('Origin',(-17.9578,5.51179999999998,15.996));
#1764=CARTESIAN_POINT('',(-18.2118,5.51179999999999,15.996));
#1765=CARTESIAN_POINT('Origin',(-17.9578,5.51179999999998,15.996));
#1766=CARTESIAN_POINT('',(-18.2118,5.51179999999999,15.996));
#1767=CARTESIAN_POINT('Origin',(-18.2118,-5.51179999999999,15.996));
#1768=CARTESIAN_POINT('',(-18.2118,-5.51179999999999,15.996));
#1769=CARTESIAN_POINT('Origin',(-15.6568253815477,-4.46660352239252E-15,
15.996));
#1770=UNCERTAINTY_MEASURE_WITH_UNIT(LENGTH_MEASURE(0.01),#1774,
'DISTANCE_ACCURACY_VALUE',
'Maximum model space distance between geometric entities at asserted c
onnectivities');
#1771=UNCERTAINTY_MEASURE_WITH_UNIT(LENGTH_MEASURE(1.E-6),#1774,
'DISTANCE_ACCURACY_VALUE',
'Maximum model space distance between geometric entities at asserted c
onnectivities');
#1772=(
GEOMETRIC_REPRESENTATION_CONTEXT(3)
GLOBAL_UNCERTAINTY_ASSIGNED_CONTEXT((#1770))
GLOBAL_UNIT_ASSIGNED_CONTEXT((#1774,#1776,#1775))
REPRESENTATION_CONTEXT('','3D')
);
#1773=(
GEOMETRIC_REPRESENTATION_CONTEXT(3)
GLOBAL_UNCERTAINTY_ASSIGNED_CONTEXT((#1771))
GLOBAL_UNIT_ASSIGNED_CONTEXT((#1774,#12,#1775))
REPRESENTATION_CONTEXT('','3D')
);
#1774=(
LENGTH_UNIT()
NAMED_UNIT(*)
SI_UNIT(.MILLI.,.METRE.)
);
#1775=(
NAMED_UNIT(*)
SI_UNIT($,.STERADIAN.)
SOLID_ANGLE_UNIT()
);
#1776=(
NAMED_UNIT(*)
PLANE_ANGLE_UNIT()
SI_UNIT($,.RADIAN.)
);
#1777=SHAPE_DEFINITION_REPRESENTATION(#1778,#1779);
#1778=PRODUCT_DEFINITION_SHAPE('',$,#1781);
#1779=SHAPE_REPRESENTATION('',(#1062),#1772);
#1780=PRODUCT_DEFINITION_CONTEXT('part definition',#1785,'design');
#1781=PRODUCT_DEFINITION('Product','Product',#1782,#1780);
#1782=PRODUCT_DEFINITION_FORMATION('',$,#1787);
#1783=PRODUCT_RELATED_PRODUCT_CATEGORY('Product','Product',(#1787));
#1784=APPLICATION_PROTOCOL_DEFINITION('international standard',
'automotive_design',2009,#1785);
#1785=APPLICATION_CONTEXT(
'Core Data for Automotive Mechanical Design Process');
#1786=PRODUCT_CONTEXT('part definition',#1785,'mechanical');
#1787=PRODUCT('Product','Product',$,(#1786));
#1788=PRESENTATION_STYLE_ASSIGNMENT((#1790));
#1789=PRESENTATION_STYLE_ASSIGNMENT((#1791));
#1790=SURFACE_STYLE_USAGE(.BOTH.,#1792);
#1791=SURFACE_STYLE_USAGE(.BOTH.,#1793);
#1792=SURFACE_SIDE_STYLE('',(#1794));
#1793=SURFACE_SIDE_STYLE('',(#1795));
#1794=SURFACE_STYLE_FILL_AREA(#1796);
#1795=SURFACE_STYLE_FILL_AREA(#1797);
#1796=FILL_AREA_STYLE('',(#1798));
#1797=FILL_AREA_STYLE('',(#1799));
#1798=FILL_AREA_STYLE_COLOUR('',#1800);
#1799=FILL_AREA_STYLE_COLOUR('',#1801);
#1800=COLOUR_RGB('',1.,1.,1.);
#1801=COLOUR_RGB('',0.329411764705882,0.329411764705882,0.329411764705882);
ENDSEC;
END-ISO-10303-21;
