ISO-10303-21;
HEADER;
/****************************************************************
 * Generated by software with PDElib inside                    *
 * PDElib Version v51a, created Fri 09/10/2010                  *
 * ITI Transcendata (http://www.transcendata.com/)              *
 ****************************************************************/
FILE_DESCRIPTION((''),'2;1');
FILE_NAME('FUSR_BOURNS_MF-SM030.stp','2012-03-01T11:00:32',(''),(''),'Mechanical Desktop 2011','Mechanical Desktop 2011',', , ');
FILE_SCHEMA(('AUTOMOTIVE_DESIGN { 1 2 10303 214 1 1 1 1 }'));
ENDSEC;
DATA;
#10=(NAMED_UNIT(*)PLANE_ANGLE_UNIT()SI_UNIT($,.RADIAN.));
#11=DIMENSIONAL_EXPONENTS(0.0,0.0,0.0,0.0,0.0,0.0,0.0);
#12=PLANE_ANGLE_MEASURE_WITH_UNIT(PLANE_ANGLE_MEASURE(0.0174532925),#10);
#16=(CONVERSION_BASED_UNIT('DEGREE',#12)NAMED_UNIT(#11)PLANE_ANGLE_UNIT());
#20=(NAMED_UNIT(*)SI_UNIT($,.STERADIAN.)SOLID_ANGLE_UNIT());
#24=(LENGTH_UNIT()NAMED_UNIT(*)SI_UNIT(.MILLI.,.METRE.));
#26=UNCERTAINTY_MEASURE_WITH_UNIT(LENGTH_MEASURE(0.000001),#24,'DISTANCE_ACCURACY_VALUE','');
#28=(GEOMETRIC_REPRESENTATION_CONTEXT(3)GLOBAL_UNCERTAINTY_ASSIGNED_CONTEXT((#26))GLOBAL_UNIT_ASSIGNED_CONTEXT((#16,#20,#24))REPRESENTATION_CONTEXT('','3D'));
#29=APPLICATION_CONTEXT('automotive design');
#30=APPLICATION_PROTOCOL_DEFINITION('INTERNATIONAL_STANDARD','automotive_design',1998,#29);
#31=PRODUCT_CONTEXT('3D Mechanical Parts',#29,'mechanical');
#32=PRODUCT('Product','Product','',(#31));
#33=PRODUCT_RELATED_PRODUCT_CATEGORY('part',$,(#32));
#34=PRODUCT_CATEGORY('part',$);
#35=PERSON('1','Design','Joe',$,$,$);
#36=ORGANIZATION($,'None','None');
#37=PERSON_AND_ORGANIZATION(#35,#36);
#38=PERSON_AND_ORGANIZATION_ROLE('design_owner');
#39=APPLIED_PERSON_AND_ORGANIZATION_ASSIGNMENT(#37,#38,(#32));
#40=PRODUCT_DEFINITION_FORMATION_WITH_SPECIFIED_SOURCE('None','',#32,.BOUGHT.);
#41=PERSON('2','Creator','Joe',$,$,$);
#42=ORGANIZATION($,'None','None');
#43=PERSON_AND_ORGANIZATION(#41,#42);
#44=PERSON_AND_ORGANIZATION_ROLE('creator');
#45=APPLIED_PERSON_AND_ORGANIZATION_ASSIGNMENT(#43,#44,(#40));
#46=PERSON('3','Supplier','Joe',$,$,$);
#47=ORGANIZATION($,'None','None');
#48=PERSON_AND_ORGANIZATION(#46,#47);
#49=PERSON_AND_ORGANIZATION_ROLE('design_supplier');
#50=APPLIED_PERSON_AND_ORGANIZATION_ASSIGNMENT(#48,#49,(#40));
#51=PRODUCT_DEFINITION_CONTEXT('part definition',#29,'design');
#52=PRODUCT_DEFINITION('None','',#40,#51);
#53=PERSON('4','Creator','Joe',$,$,$);
#54=ORGANIZATION($,'None','None');
#55=PERSON_AND_ORGANIZATION(#53,#54);
#56=PERSON_AND_ORGANIZATION_ROLE('creator');
#57=APPLIED_PERSON_AND_ORGANIZATION_ASSIGNMENT(#55,#56,(#52));
#58=CARTESIAN_POINT('NONE',(0.0,0.0,0.0));
#59=DIRECTION('NONE',(0.0,0.0,1.0));
#60=DIRECTION('NONE',(1.0,0.0,0.0));
#61=AXIS2_PLACEMENT_3D('NONE',#58,#59,#60);
#62=SHAPE_REPRESENTATION('SR1',(#61),#28);
#63=PRODUCT_DEFINITION_SHAPE('PDS1','Test Part',#52);
#64=SHAPE_DEFINITION_REPRESENTATION(#63,#62);
#65=CARTESIAN_POINT('',(-0.772553140479733,1.205000000000002,2.385852626154634));
#66=DIRECTION('',(0.0,-1.0,0.0));
#67=DIRECTION('',(1.0,0.0,0.0));
#68=AXIS2_PLACEMENT_3D('',#65,#66,#67);
#69=PLANE('',#68);
#70=CARTESIAN_POINT('',(-3.279999999999999,1.205,1.369999999999999));
#71=VERTEX_POINT('',#70);
#72=CARTESIAN_POINT('',(-3.99,1.205,1.369999999999999));
#73=VERTEX_POINT('',#72);
#74=CARTESIAN_POINT('',(-3.279999999999999,1.205,1.369999999999999));
#75=DIRECTION('',(-1.0,0.0,0.0));
#76=VECTOR('',#75,0.710000000000001);
#77=LINE('',#74,#76);
#78=EDGE_CURVE('',#71,#73,#77,.T.);
#79=ORIENTED_EDGE('',*,*,#78,.F.);
#80=CARTESIAN_POINT('',(-3.279999999999998,1.205,-1.776357E-015));
#81=VERTEX_POINT('',#80);
#82=CARTESIAN_POINT('',(-3.279999999999998,1.205,-1.776357E-015));
#83=DIRECTION('',(0.0,0.0,1.0));
#84=VECTOR('',#83,1.37);
#85=LINE('',#82,#84);
#86=EDGE_CURVE('',#81,#71,#85,.T.);
#87=ORIENTED_EDGE('',*,*,#86,.F.);
#88=CARTESIAN_POINT('',(-3.989999999999998,1.205,-1.776357E-015));
#89=VERTEX_POINT('',#88);
#90=CARTESIAN_POINT('',(-3.989999999999998,1.205,-1.776357E-015));
#91=DIRECTION('',(1.0,0.0,0.0));
#92=VECTOR('',#91,0.710000000000001);
#93=LINE('',#90,#92);
#94=EDGE_CURVE('',#89,#81,#93,.T.);
#95=ORIENTED_EDGE('',*,*,#94,.F.);
#96=CARTESIAN_POINT('',(-3.99,1.205,1.369999999999999));
#97=DIRECTION('',(0.0,0.0,-1.0));
#98=VECTOR('',#97,1.37);
#99=LINE('',#96,#98);
#100=EDGE_CURVE('',#73,#89,#99,.T.);
#101=ORIENTED_EDGE('',*,*,#100,.F.);
#102=EDGE_LOOP('',(#79,#87,#95,#101));
#103=FACE_OUTER_BOUND('',#102,.T.);
#104=ADVANCED_FACE('',(#103),#69,.F.);
#105=CARTESIAN_POINT('',(-3.279999999999998,1.205,-1.776357E-015));
#106=DIRECTION('',(0.0,0.0,-1.0));
#107=DIRECTION('',(0.0,1.0,0.0));
#108=AXIS2_PLACEMENT_3D('',#105,#106,#107);
#109=PLANE('',#108);
#110=CARTESIAN_POINT('',(-3.279999999999998,-1.205,0.0));
#111=VERTEX_POINT('',#110);
#112=CARTESIAN_POINT('',(-3.989999999999998,-1.205,0.0));
#113=VERTEX_POINT('',#112);
#114=CARTESIAN_POINT('',(-3.279999999999998,-1.205,1.576517E-016));
#115=DIRECTION('',(-1.0,0.0,0.0));
#116=VECTOR('',#115,0.710000000000001);
#117=LINE('',#114,#116);
#118=EDGE_CURVE('',#111,#113,#117,.T.);
#119=ORIENTED_EDGE('',*,*,#118,.T.);
#120=CARTESIAN_POINT('',(-3.989999999999998,1.205,-1.776357E-015));
#121=DIRECTION('',(0.0,-1.0,0.0));
#122=VECTOR('',#121,2.41);
#123=LINE('',#120,#122);
#124=EDGE_CURVE('',#89,#113,#123,.T.);
#125=ORIENTED_EDGE('',*,*,#124,.F.);
#126=ORIENTED_EDGE('',*,*,#94,.T.);
#127=CARTESIAN_POINT('',(-3.279999999999998,1.205,-1.776357E-015));
#128=DIRECTION('',(0.0,-1.0,0.0));
#129=VECTOR('',#128,2.41);
#130=LINE('',#127,#129);
#131=EDGE_CURVE('',#81,#111,#130,.T.);
#132=ORIENTED_EDGE('',*,*,#131,.T.);
#133=EDGE_LOOP('',(#119,#125,#126,#132));
#134=FACE_OUTER_BOUND('',#133,.T.);
#135=ADVANCED_FACE('',(#134),#109,.T.);
#136=CARTESIAN_POINT('',(-0.772553140479731,-1.204999999999998,2.385852626154634));
#137=DIRECTION('',(0.0,-1.0,0.0));
#138=DIRECTION('',(1.0,0.0,0.0));
#139=AXIS2_PLACEMENT_3D('',#136,#137,#138);
#140=PLANE('',#139);
#141=CARTESIAN_POINT('',(-3.989999999999998,-1.205,1.369999999999999));
#142=VERTEX_POINT('',#141);
#143=CARTESIAN_POINT('',(-3.279999999999998,-1.205,1.369999999999999));
#144=VERTEX_POINT('',#143);
#145=CARTESIAN_POINT('',(-3.989999999999998,-1.204999999999999,1.369999999999999));
#146=DIRECTION('',(1.0,0.0,0.0));
#147=VECTOR('',#146,0.710000000000001);
#148=LINE('',#145,#147);
#149=EDGE_CURVE('',#142,#144,#148,.T.);
#150=ORIENTED_EDGE('',*,*,#149,.F.);
#151=CARTESIAN_POINT('',(-3.989999999999998,-1.205,-8.881784E-016));
#152=DIRECTION('',(0.0,0.0,1.0));
#153=VECTOR('',#152,1.37);
#154=LINE('',#151,#153);
#155=EDGE_CURVE('',#113,#142,#154,.T.);
#156=ORIENTED_EDGE('',*,*,#155,.F.);
#157=ORIENTED_EDGE('',*,*,#118,.F.);
#158=CARTESIAN_POINT('',(-3.279999999999998,-1.205,1.37));
#159=DIRECTION('',(0.0,0.0,-1.0));
#160=VECTOR('',#159,1.37);
#161=LINE('',#158,#160);
#162=EDGE_CURVE('',#144,#111,#161,.T.);
#163=ORIENTED_EDGE('',*,*,#162,.F.);
#164=EDGE_LOOP('',(#150,#156,#157,#163));
#165=FACE_OUTER_BOUND('',#164,.T.);
#166=ADVANCED_FACE('',(#165),#140,.T.);
#167=CARTESIAN_POINT('',(-3.990000000000004,2.720000000000001,1.369999999999999));
#168=DIRECTION('',(-1.0,0.0,0.0));
#169=DIRECTION('',(0.0,-1.0,0.0));
#170=AXIS2_PLACEMENT_3D('',#167,#168,#169);
#171=PLANE('',#170);
#172=CARTESIAN_POINT('',(-3.990000000000002,-2.719999999999999,1.369999999999999));
#173=VERTEX_POINT('',#172);
#174=CARTESIAN_POINT('',(-3.990000000000003,-1.205,1.369999999999999));
#175=DIRECTION('',(0.0,-1.0,0.0));
#176=VECTOR('',#175,1.515);
#177=LINE('',#174,#176);
#178=EDGE_CURVE('',#142,#173,#177,.T.);
#179=ORIENTED_EDGE('',*,*,#178,.T.);
#180=CARTESIAN_POINT('',(-3.990000000000002,-2.719999999999999,2.68));
#181=VERTEX_POINT('',#180);
#182=CARTESIAN_POINT('',(-3.990000000000002,-2.719999999999999,1.369999999999999));
#183=DIRECTION('',(0.0,0.0,1.0));
#184=VECTOR('',#183,1.31);
#185=LINE('',#182,#184);
#186=EDGE_CURVE('',#173,#181,#185,.T.);
#187=ORIENTED_EDGE('',*,*,#186,.T.);
#188=CARTESIAN_POINT('',(-3.990000000000004,2.720000000000001,2.68));
#189=VERTEX_POINT('',#188);
#190=CARTESIAN_POINT('',(-3.990000000000004,2.720000000000001,2.68));
#191=DIRECTION('',(0.0,-1.0,0.0));
#192=VECTOR('',#191,5.44);
#193=LINE('',#190,#192);
#194=EDGE_CURVE('',#189,#181,#193,.T.);
#195=ORIENTED_EDGE('',*,*,#194,.F.);
#196=CARTESIAN_POINT('',(-3.990000000000004,2.720000000000001,1.369999999999999));
#197=VERTEX_POINT('',#196);
#198=CARTESIAN_POINT('',(-3.990000000000004,2.720000000000001,2.68));
#199=DIRECTION('',(0.0,0.0,-1.0));
#200=VECTOR('',#199,1.31);
#201=LINE('',#198,#200);
#202=EDGE_CURVE('',#189,#197,#201,.T.);
#203=ORIENTED_EDGE('',*,*,#202,.T.);
#204=CARTESIAN_POINT('',(-3.990000000000004,2.720000000000001,1.369999999999999));
#205=DIRECTION('',(0.0,-1.0,0.0));
#206=VECTOR('',#205,1.515);
#207=LINE('',#204,#206);
#208=EDGE_CURVE('',#197,#73,#207,.T.);
#209=ORIENTED_EDGE('',*,*,#208,.T.);
#210=ORIENTED_EDGE('',*,*,#100,.T.);
#211=ORIENTED_EDGE('',*,*,#124,.T.);
#212=ORIENTED_EDGE('',*,*,#155,.T.);
#213=EDGE_LOOP('',(#179,#187,#195,#203,#209,#210,#211,#212));
#214=FACE_OUTER_BOUND('',#213,.T.);
#215=ADVANCED_FACE('',(#214),#171,.T.);
#216=CARTESIAN_POINT('',(-3.280000000000003,2.720000000000001,1.369999999999999));
#217=DIRECTION('',(0.0,0.0,-1.0));
#218=DIRECTION('',(0.0,1.0,0.0));
#219=AXIS2_PLACEMENT_3D('',#216,#217,#218);
#220=PLANE('',#219);
#221=ORIENTED_EDGE('',*,*,#149,.T.);
#222=CARTESIAN_POINT('',(-3.280000000000001,-2.719999999999999,1.369999999999999));
#223=VERTEX_POINT('',#222);
#224=CARTESIAN_POINT('',(-3.280000000000002,-1.205,1.369999999999999));
#225=DIRECTION('',(0.0,-1.0,0.0));
#226=VECTOR('',#225,1.515);
#227=LINE('',#224,#226);
#228=EDGE_CURVE('',#144,#223,#227,.T.);
#229=ORIENTED_EDGE('',*,*,#228,.T.);
#230=CARTESIAN_POINT('',(-3.280000000000001,-2.719999999999999,1.369999999999999));
#231=DIRECTION('',(-1.0,0.0,0.0));
#232=VECTOR('',#231,0.710000000000001);
#233=LINE('',#230,#232);
#234=EDGE_CURVE('',#223,#173,#233,.T.);
#235=ORIENTED_EDGE('',*,*,#234,.T.);
#236=ORIENTED_EDGE('',*,*,#178,.F.);
#237=EDGE_LOOP('',(#221,#229,#235,#236));
#238=FACE_OUTER_BOUND('',#237,.T.);
#239=ADVANCED_FACE('',(#238),#220,.T.);
#240=CARTESIAN_POINT('',(-3.280000000000003,2.720000000000001,2.469999999999999));
#241=DIRECTION('',(1.0,0.0,0.0));
#242=DIRECTION('',(0.0,1.0,0.0));
#243=AXIS2_PLACEMENT_3D('',#240,#241,#242);
#244=PLANE('',#243);
#245=CARTESIAN_POINT('',(-3.280000000000003,2.720000000000001,1.369999999999999));
#246=VERTEX_POINT('',#245);
#247=CARTESIAN_POINT('',(-3.280000000000003,2.720000000000001,1.369999999999999));
#248=DIRECTION('',(0.0,-1.0,0.0));
#249=VECTOR('',#248,1.515);
#250=LINE('',#247,#249);
#251=EDGE_CURVE('',#246,#71,#250,.T.);
#252=ORIENTED_EDGE('',*,*,#251,.F.);
#253=CARTESIAN_POINT('',(-3.280000000000003,2.720000000000001,2.469999999999999));
#254=VERTEX_POINT('',#253);
#255=CARTESIAN_POINT('',(-3.280000000000003,2.720000000000001,1.369999999999999));
#256=DIRECTION('',(0.0,0.0,1.0));
#257=VECTOR('',#256,1.100000000000001);
#258=LINE('',#255,#257);
#259=EDGE_CURVE('',#246,#254,#258,.T.);
#260=ORIENTED_EDGE('',*,*,#259,.T.);
#261=CARTESIAN_POINT('',(-3.280000000000001,-2.719999999999999,2.469999999999999));
#262=VERTEX_POINT('',#261);
#263=CARTESIAN_POINT('',(-3.280000000000003,2.720000000000001,2.469999999999999));
#264=DIRECTION('',(0.0,-1.0,0.0));
#265=VECTOR('',#264,5.44);
#266=LINE('',#263,#265);
#267=EDGE_CURVE('',#254,#262,#266,.T.);
#268=ORIENTED_EDGE('',*,*,#267,.T.);
#269=CARTESIAN_POINT('',(-3.280000000000002,-2.719999999999999,2.47));
#270=DIRECTION('',(0.0,0.0,-1.0));
#271=VECTOR('',#270,1.100000000000001);
#272=LINE('',#269,#271);
#273=EDGE_CURVE('',#262,#223,#272,.T.);
#274=ORIENTED_EDGE('',*,*,#273,.T.);
#275=ORIENTED_EDGE('',*,*,#228,.F.);
#276=ORIENTED_EDGE('',*,*,#162,.T.);
#277=ORIENTED_EDGE('',*,*,#131,.F.);
#278=ORIENTED_EDGE('',*,*,#86,.T.);
#279=EDGE_LOOP('',(#252,#260,#268,#274,#275,#276,#277,#278));
#280=FACE_OUTER_BOUND('',#279,.T.);
#281=ADVANCED_FACE('',(#280),#244,.T.);
#282=CARTESIAN_POINT('',(-3.280000000000003,2.720000000000001,1.369999999999999));
#283=DIRECTION('',(0.0,0.0,-1.0));
#284=DIRECTION('',(0.0,1.0,0.0));
#285=AXIS2_PLACEMENT_3D('',#282,#283,#284);
#286=PLANE('',#285);
#287=ORIENTED_EDGE('',*,*,#78,.T.);
#288=ORIENTED_EDGE('',*,*,#208,.F.);
#289=CARTESIAN_POINT('',(-3.990000000000004,2.720000000000001,1.369999999999999));
#290=DIRECTION('',(1.0,0.0,0.0));
#291=VECTOR('',#290,0.710000000000001);
#292=LINE('',#289,#291);
#293=EDGE_CURVE('',#197,#246,#292,.T.);
#294=ORIENTED_EDGE('',*,*,#293,.T.);
#295=ORIENTED_EDGE('',*,*,#251,.T.);
#296=EDGE_LOOP('',(#287,#288,#294,#295));
#297=FACE_OUTER_BOUND('',#296,.T.);
#298=ADVANCED_FACE('',(#297),#286,.T.);
#299=CARTESIAN_POINT('',(-3.490000000000004,2.720000000000001,2.68));
#300=DIRECTION('',(2.220446E-016,-1.0,6.123032E-017));
#301=DIRECTION('',(-0.707106781186548,-1.137129E-016,0.707106781186547));
#302=AXIS2_PLACEMENT_3D('',#299,#300,#301);
#303=CYLINDRICAL_SURFACE('',#302,0.5);
#304=ORIENTED_EDGE('',*,*,#194,.T.);
#305=CARTESIAN_POINT('',(-3.490000000000002,-2.719999999999999,3.18));
#306=VERTEX_POINT('',#305);
#307=CARTESIAN_POINT('',(-3.490000000000002,-2.719999999999999,2.68));
#308=DIRECTION('',(-8.040714E-017,1.0,8.040714E-017));
#309=DIRECTION('',(-0.707106781186548,-1.137129E-016,0.707106781186547));
#310=AXIS2_PLACEMENT_3D('',#307,#308,#309);
#311=CIRCLE('',#310,0.5);
#312=EDGE_CURVE('',#181,#306,#311,.T.);
#313=ORIENTED_EDGE('',*,*,#312,.T.);
#314=CARTESIAN_POINT('',(-3.490000000000004,2.720000000000001,3.18));
#315=VERTEX_POINT('',#314);
#316=CARTESIAN_POINT('',(-3.490000000000004,2.720000000000001,3.18));
#317=DIRECTION('',(0.0,-1.0,0.0));
#318=VECTOR('',#317,5.44);
#319=LINE('',#316,#318);
#320=EDGE_CURVE('',#315,#306,#319,.T.);
#321=ORIENTED_EDGE('',*,*,#320,.F.);
#322=CARTESIAN_POINT('',(-3.490000000000004,2.720000000000001,2.68));
#323=DIRECTION('',(8.040714E-017,-1.0,-8.040714E-017));
#324=DIRECTION('',(-0.707106781186548,-1.137129E-016,0.707106781186547));
#325=AXIS2_PLACEMENT_3D('',#322,#323,#324);
#326=CIRCLE('',#325,0.5);
#327=EDGE_CURVE('',#315,#189,#326,.T.);
#328=ORIENTED_EDGE('',*,*,#327,.T.);
#329=EDGE_LOOP('',(#304,#313,#321,#328));
#330=FACE_OUTER_BOUND('',#329,.T.);
#331=ADVANCED_FACE('',(#330),#303,.T.);
#332=CARTESIAN_POINT('',(-3.490000000000004,2.720000000000001,3.18));
#333=DIRECTION('',(0.0,0.0,1.0));
#334=DIRECTION('',(0.0,-1.0,0.0));
#335=AXIS2_PLACEMENT_3D('',#332,#333,#334);
#336=PLANE('',#335);
#337=ORIENTED_EDGE('',*,*,#320,.T.);
#338=CARTESIAN_POINT('',(3.989999999999998,-2.719999999999999,3.180000000000002));
#339=VERTEX_POINT('',#338);
#340=CARTESIAN_POINT('',(-3.490000000000006,-2.720000000000001,3.18));
#341=DIRECTION('',(1.0,0.0,0.0));
#342=VECTOR('',#341,7.480000000000004);
#343=LINE('',#340,#342);
#344=EDGE_CURVE('',#306,#339,#343,.T.);
#345=ORIENTED_EDGE('',*,*,#344,.T.);
#346=CARTESIAN_POINT('',(3.989999999999998,2.720000000000002,3.180000000000002));
#347=VERTEX_POINT('',#346);
#348=CARTESIAN_POINT('',(3.989999999999998,2.720000000000002,3.180000000000002));
#349=DIRECTION('',(0.0,-1.0,0.0));
#350=VECTOR('',#349,5.44);
#351=LINE('',#348,#350);
#352=EDGE_CURVE('',#347,#339,#351,.T.);
#353=ORIENTED_EDGE('',*,*,#352,.F.);
#354=CARTESIAN_POINT('',(3.989999999999998,2.720000000000002,3.180000000000002));
#355=DIRECTION('',(-1.0,0.0,0.0));
#356=VECTOR('',#355,7.480000000000004);
#357=LINE('',#354,#356);
#358=EDGE_CURVE('',#347,#315,#357,.T.);
#359=ORIENTED_EDGE('',*,*,#358,.T.);
#360=EDGE_LOOP('',(#337,#345,#353,#359));
#361=FACE_OUTER_BOUND('',#360,.T.);
#362=ADVANCED_FACE('',(#361),#336,.T.);
#363=CARTESIAN_POINT('',(3.989999999999998,2.720000000000002,3.180000000000002));
#364=DIRECTION('',(1.0,0.0,0.0));
#365=DIRECTION('',(0.0,1.0,0.0));
#366=AXIS2_PLACEMENT_3D('',#363,#364,#365);
#367=PLANE('',#366);
#368=ORIENTED_EDGE('',*,*,#352,.T.);
#369=CARTESIAN_POINT('',(3.989999999999998,-2.719999999999999,2.470000000000001));
#370=VERTEX_POINT('',#369);
#371=CARTESIAN_POINT('',(3.989999999999998,-2.719999999999999,3.180000000000002));
#372=DIRECTION('',(0.0,0.0,-1.0));
#373=VECTOR('',#372,0.710000000000001);
#374=LINE('',#371,#373);
#375=EDGE_CURVE('',#339,#370,#374,.T.);
#376=ORIENTED_EDGE('',*,*,#375,.T.);
#377=CARTESIAN_POINT('',(3.989999999999998,2.720000000000002,2.469999999999999));
#378=VERTEX_POINT('',#377);
#379=CARTESIAN_POINT('',(3.989999999999998,2.720000000000002,2.469999999999999));
#380=DIRECTION('',(0.0,-1.0,0.0));
#381=VECTOR('',#380,5.44);
#382=LINE('',#379,#381);
#383=EDGE_CURVE('',#378,#370,#382,.T.);
#384=ORIENTED_EDGE('',*,*,#383,.F.);
#385=CARTESIAN_POINT('',(3.989999999999998,2.720000000000002,2.469999999999999));
#386=DIRECTION('',(0.0,0.0,1.0));
#387=VECTOR('',#386,0.710000000000001);
#388=LINE('',#385,#387);
#389=EDGE_CURVE('',#378,#347,#388,.T.);
#390=ORIENTED_EDGE('',*,*,#389,.T.);
#391=EDGE_LOOP('',(#368,#376,#384,#390));
#392=FACE_OUTER_BOUND('',#391,.T.);
#393=ADVANCED_FACE('',(#392),#367,.T.);
#394=CARTESIAN_POINT('',(3.989999999999998,2.720000000000002,2.469999999999999));
#395=DIRECTION('',(0.0,0.0,-1.0));
#396=DIRECTION('',(0.0,1.0,0.0));
#397=AXIS2_PLACEMENT_3D('',#394,#395,#396);
#398=PLANE('',#397);
#399=ORIENTED_EDGE('',*,*,#267,.F.);
#400=CARTESIAN_POINT('',(-3.280000000000003,2.720000000000001,2.469999999999999));
#401=DIRECTION('',(1.0,0.0,0.0));
#402=VECTOR('',#401,7.270000000000003);
#403=LINE('',#400,#402);
#404=EDGE_CURVE('',#254,#378,#403,.T.);
#405=ORIENTED_EDGE('',*,*,#404,.T.);
#406=ORIENTED_EDGE('',*,*,#383,.T.);
#407=CARTESIAN_POINT('',(3.990000000000002,-2.719999999999997,2.469999999999999));
#408=DIRECTION('',(-1.0,0.0,0.0));
#409=VECTOR('',#408,7.270000000000003);
#410=LINE('',#407,#409);
#411=EDGE_CURVE('',#370,#262,#410,.T.);
#412=ORIENTED_EDGE('',*,*,#411,.T.);
#413=EDGE_LOOP('',(#399,#405,#406,#412));
#414=FACE_OUTER_BOUND('',#413,.T.);
#415=ADVANCED_FACE('',(#414),#398,.T.);
#416=CARTESIAN_POINT('',(-0.367547039964343,-2.719999999999999,2.676734132857177));
#417=DIRECTION('',(0.0,-1.0,0.0));
#418=DIRECTION('',(1.0,0.0,0.0));
#419=AXIS2_PLACEMENT_3D('',#416,#417,#418);
#420=PLANE('',#419);
#421=ORIENTED_EDGE('',*,*,#273,.F.);
#422=ORIENTED_EDGE('',*,*,#411,.F.);
#423=ORIENTED_EDGE('',*,*,#375,.F.);
#424=ORIENTED_EDGE('',*,*,#344,.F.);
#425=ORIENTED_EDGE('',*,*,#312,.F.);
#426=ORIENTED_EDGE('',*,*,#186,.F.);
#427=ORIENTED_EDGE('',*,*,#234,.F.);
#428=EDGE_LOOP('',(#421,#422,#423,#424,#425,#426,#427));
#429=FACE_OUTER_BOUND('',#428,.T.);
#430=ADVANCED_FACE('',(#429),#420,.T.);
#431=CARTESIAN_POINT('',(-0.367547039964345,2.720000000000001,2.676734132857177));
#432=DIRECTION('',(0.0,-1.0,0.0));
#433=DIRECTION('',(1.0,0.0,0.0));
#434=AXIS2_PLACEMENT_3D('',#431,#432,#433);
#435=PLANE('',#434);
#436=ORIENTED_EDGE('',*,*,#404,.F.);
#437=ORIENTED_EDGE('',*,*,#259,.F.);
#438=ORIENTED_EDGE('',*,*,#293,.F.);
#439=ORIENTED_EDGE('',*,*,#202,.F.);
#440=ORIENTED_EDGE('',*,*,#327,.F.);
#441=ORIENTED_EDGE('',*,*,#358,.F.);
#442=ORIENTED_EDGE('',*,*,#389,.F.);
#443=EDGE_LOOP('',(#436,#437,#438,#439,#440,#441,#442));
#444=FACE_OUTER_BOUND('',#443,.T.);
#445=ADVANCED_FACE('',(#444),#435,.F.);
#446=CLOSED_SHELL('',(#104,#135,#166,#215,#239,#281,#298,#331,#362,#393,#415,#430,#445));
#447=MANIFOLD_SOLID_BREP('396',#446);
#448=COLOUR_RGB('253',0.732,0.732,0.732);
#449=SURFACE_STYLE_USAGE(.BOTH.,#450);
#450=SURFACE_SIDE_STYLE('NONE',(#451));
#451=SURFACE_STYLE_FILL_AREA(#452);
#452=FILL_AREA_STYLE('NONE',(#453));
#453=FILL_AREA_STYLE_COLOUR('NONE',#448);
#454=PRESENTATION_STYLE_ASSIGNMENT((#449));
#455=STYLED_ITEM('NONE',(#454),#447);
#456=MECHANICAL_DESIGN_GEOMETRIC_PRESENTATION_REPRESENTATION('NONE',(#455,#1122,#1280),#28);
#457=PRESENTATION_LAYER_ASSIGNMENT('3D','None',(#447,#1121,#1272));
#458=CARTESIAN_POINT('',(2.470000000000001,-1.204999999999998,1.776357E-015));
#459=DIRECTION('',(-1.0,0.0,0.0));
#460=DIRECTION('',(0.0,-1.0,0.0));
#461=AXIS2_PLACEMENT_3D('',#458,#459,#460);
#462=PLANE('',#461);
#463=CARTESIAN_POINT('',(2.470000000000001,-2.719999999999999,1.410000000000002));
#464=VERTEX_POINT('',#463);
#465=CARTESIAN_POINT('',(2.470000000000001,-1.914999999999999,1.410000000000002));
#466=VERTEX_POINT('',#465);
#467=CARTESIAN_POINT('',(2.470000000000001,-2.719999999999999,1.410000000000002));
#468=DIRECTION('',(0.0,1.0,0.0));
#469=VECTOR('',#468,0.805);
#470=LINE('',#467,#469);
#471=EDGE_CURVE('',#464,#466,#470,.T.);
#472=ORIENTED_EDGE('',*,*,#471,.T.);
#473=CARTESIAN_POINT('',(2.470000000000001,-1.914999999999999,1.370000000000001));
#474=VERTEX_POINT('',#473);
#475=CARTESIAN_POINT('',(2.47,-1.914999999999999,1.370000000000002));
#476=DIRECTION('',(0.0,0.0,1.0));
#477=VECTOR('',#476,0.04);
#478=LINE('',#475,#477);
#479=EDGE_CURVE('',#474,#466,#478,.T.);
#480=ORIENTED_EDGE('',*,*,#479,.F.);
#481=CARTESIAN_POINT('',(2.470000000000001,-2.719999999999999,1.370000000000001));
#482=VERTEX_POINT('',#481);
#483=CARTESIAN_POINT('',(2.470000000000001,-1.914999999999998,1.370000000000001));
#484=DIRECTION('',(0.0,-1.0,0.0));
#485=VECTOR('',#484,0.805);
#486=LINE('',#483,#485);
#487=EDGE_CURVE('',#474,#482,#486,.T.);
#488=ORIENTED_EDGE('',*,*,#487,.T.);
#489=CARTESIAN_POINT('',(2.47,-2.719999999999999,1.370000000000002));
#490=DIRECTION('',(0.0,0.0,1.0));
#491=VECTOR('',#490,0.04);
#492=LINE('',#489,#491);
#493=EDGE_CURVE('',#482,#464,#492,.T.);
#494=ORIENTED_EDGE('',*,*,#493,.T.);
#495=EDGE_LOOP('',(#472,#480,#488,#494));
#496=FACE_OUTER_BOUND('',#495,.T.);
#497=ADVANCED_FACE('',(#496),#462,.T.);
#498=CARTESIAN_POINT('',(3.989999999999998,-1.204999999999998,1.370000000000003));
#499=DIRECTION('',(0.0,0.0,-1.0));
#500=DIRECTION('',(0.0,1.0,0.0));
#501=AXIS2_PLACEMENT_3D('',#498,#499,#500);
#502=PLANE('',#501);
#503=CARTESIAN_POINT('',(3.989999999999998,-2.719999999999999,1.370000000000003));
#504=VERTEX_POINT('',#503);
#505=CARTESIAN_POINT('',(3.989999999999998,-2.719999999999999,1.370000000000003));
#506=DIRECTION('',(-1.0,0.0,0.0));
#507=VECTOR('',#506,1.520000000000001);
#508=LINE('',#505,#507);
#509=EDGE_CURVE('',#504,#482,#508,.T.);
#510=ORIENTED_EDGE('',*,*,#509,.T.);
#511=ORIENTED_EDGE('',*,*,#487,.F.);
#512=CARTESIAN_POINT('',(3.989999999999998,-1.914999999999999,1.370000000000003));
#513=VERTEX_POINT('',#512);
#514=CARTESIAN_POINT('',(3.989999999999998,-1.914999999999999,1.370000000000003));
#515=DIRECTION('',(-1.0,0.0,0.0));
#516=VECTOR('',#515,1.520000000000001);
#517=LINE('',#514,#516);
#518=EDGE_CURVE('',#513,#474,#517,.T.);
#519=ORIENTED_EDGE('',*,*,#518,.F.);
#520=CARTESIAN_POINT('',(3.989999999999998,-1.914999999999998,1.370000000000003));
#521=DIRECTION('',(0.0,-1.0,0.0));
#522=VECTOR('',#521,0.805);
#523=LINE('',#520,#522);
#524=EDGE_CURVE('',#513,#504,#523,.T.);
#525=ORIENTED_EDGE('',*,*,#524,.T.);
#526=EDGE_LOOP('',(#510,#511,#519,#525));
#527=FACE_OUTER_BOUND('',#526,.T.);
#528=ADVANCED_FACE('',(#527),#502,.T.);
#529=CARTESIAN_POINT('',(3.634999999999998,-1.914999999999999,1.060000000000002));
#530=DIRECTION('',(0.0,-1.0,0.0));
#531=DIRECTION('',(1.0,0.0,0.0));
#532=AXIS2_PLACEMENT_3D('',#529,#530,#531);
#533=PLANE('',#532);
#534=ORIENTED_EDGE('',*,*,#479,.T.);
#535=CARTESIAN_POINT('',(2.470000000000001,-1.914999999999999,2.120000000000001));
#536=VERTEX_POINT('',#535);
#537=CARTESIAN_POINT('',(2.470000000000001,-1.914999999999999,2.120000000000001));
#538=DIRECTION('',(0.0,0.0,-1.0));
#539=VECTOR('',#538,0.71);
#540=LINE('',#537,#539);
#541=EDGE_CURVE('',#536,#466,#540,.T.);
#542=ORIENTED_EDGE('',*,*,#541,.F.);
#543=CARTESIAN_POINT('',(3.989999999999998,-1.914999999999999,2.120000000000001));
#544=VERTEX_POINT('',#543);
#545=CARTESIAN_POINT('',(2.470000000000001,-1.914999999999999,2.120000000000001));
#546=DIRECTION('',(1.0,0.0,0.0));
#547=VECTOR('',#546,1.520000000000001);
#548=LINE('',#545,#547);
#549=EDGE_CURVE('',#536,#544,#548,.T.);
#550=ORIENTED_EDGE('',*,*,#549,.T.);
#551=CARTESIAN_POINT('',(3.989999999999998,-1.914999999999999,2.120000000000001));
#552=DIRECTION('',(0.0,0.0,-1.0));
#553=VECTOR('',#552,0.749999999999999);
#554=LINE('',#551,#553);
#555=EDGE_CURVE('',#544,#513,#554,.T.);
#556=ORIENTED_EDGE('',*,*,#555,.T.);
#557=ORIENTED_EDGE('',*,*,#518,.T.);
#558=EDGE_LOOP('',(#534,#542,#550,#556,#557));
#559=FACE_OUTER_BOUND('',#558,.T.);
#560=ADVANCED_FACE('',(#559),#533,.F.);
#561=CARTESIAN_POINT('',(3.989999999999998,-1.204999999999998,2.120000000000001));
#562=DIRECTION('',(1.0,0.0,0.0));
#563=DIRECTION('',(0.0,1.0,0.0));
#564=AXIS2_PLACEMENT_3D('',#561,#562,#563);
#565=PLANE('',#564);
#566=CARTESIAN_POINT('',(3.989999999999998,-2.719999999999999,2.120000000000001));
#567=VERTEX_POINT('',#566);
#568=CARTESIAN_POINT('',(3.989999999999998,-2.719999999999999,2.120000000000001));
#569=DIRECTION('',(0.0,0.0,-1.0));
#570=VECTOR('',#569,0.749999999999999);
#571=LINE('',#568,#570);
#572=EDGE_CURVE('',#567,#504,#571,.T.);
#573=ORIENTED_EDGE('',*,*,#572,.T.);
#574=ORIENTED_EDGE('',*,*,#524,.F.);
#575=ORIENTED_EDGE('',*,*,#555,.F.);
#576=CARTESIAN_POINT('',(3.989999999999998,-1.914999999999998,2.120000000000001));
#577=DIRECTION('',(0.0,-1.0,0.0));
#578=VECTOR('',#577,0.805);
#579=LINE('',#576,#578);
#580=EDGE_CURVE('',#544,#567,#579,.T.);
#581=ORIENTED_EDGE('',*,*,#580,.T.);
#582=EDGE_LOOP('',(#573,#574,#575,#581));
#583=FACE_OUTER_BOUND('',#582,.T.);
#584=ADVANCED_FACE('',(#583),#565,.T.);
#585=CARTESIAN_POINT('',(1.562190632720863,-1.204999999999998,1.497171564726141));
#586=DIRECTION('',(0.0,-1.0,0.0));
#587=DIRECTION('',(1.0,0.0,0.0));
#588=AXIS2_PLACEMENT_3D('',#585,#586,#587);
#589=PLANE('',#588);
#590=CARTESIAN_POINT('',(2.470000000000002,-1.204999999999998,1.41));
#591=VERTEX_POINT('',#590);
#592=CARTESIAN_POINT('',(2.470000000000001,-1.204999999999998,2.120000000000001));
#593=VERTEX_POINT('',#592);
#594=CARTESIAN_POINT('',(2.470000000000001,-1.204999999999998,1.409999999999999));
#595=DIRECTION('',(0.0,0.0,1.0));
#596=VECTOR('',#595,0.710000000000001);
#597=LINE('',#594,#596);
#598=EDGE_CURVE('',#591,#593,#597,.T.);
#599=ORIENTED_EDGE('',*,*,#598,.F.);
#600=CARTESIAN_POINT('',(2.780000000000005,-1.204999999999998,1.41));
#601=VERTEX_POINT('',#600);
#602=CARTESIAN_POINT('',(2.780000000000005,-1.204999999999997,1.409999999999999));
#603=DIRECTION('',(-1.0,0.0,0.0));
#604=VECTOR('',#603,0.310000000000002);
#605=LINE('',#602,#604);
#606=EDGE_CURVE('',#601,#591,#605,.T.);
#607=ORIENTED_EDGE('',*,*,#606,.F.);
#608=CARTESIAN_POINT('',(3.280000000000005,-1.204999999999998,0.91));
#609=VERTEX_POINT('',#608);
#610=CARTESIAN_POINT('',(2.780000000000005,-1.204999999999998,0.91));
#611=DIRECTION('',(1.416375E-016,-1.0,1.416375E-016));
#612=DIRECTION('',(0.707106781186547,2.003056E-016,0.707106781186548));
#613=AXIS2_PLACEMENT_3D('',#610,#611,#612);
#614=CIRCLE('',#613,0.5);
#615=EDGE_CURVE('',#609,#601,#614,.T.);
#616=ORIENTED_EDGE('',*,*,#615,.F.);
#617=CARTESIAN_POINT('',(3.280000000000003,-1.204999999999998,0.0));
#618=VERTEX_POINT('',#617);
#619=CARTESIAN_POINT('',(3.280000000000003,-1.204999999999998,8.881784E-016));
#620=DIRECTION('',(0.0,0.0,1.0));
#621=VECTOR('',#620,0.909999999999999);
#622=LINE('',#619,#621);
#623=EDGE_CURVE('',#618,#609,#622,.T.);
#624=ORIENTED_EDGE('',*,*,#623,.F.);
#625=CARTESIAN_POINT('',(3.989999999999998,-1.204999999999998,0.0));
#626=VERTEX_POINT('',#625);
#627=CARTESIAN_POINT('',(3.990000000000002,-1.204999999999998,6.017409E-016));
#628=DIRECTION('',(-1.0,0.0,0.0));
#629=VECTOR('',#628,0.709999999999999);
#630=LINE('',#627,#629);
#631=EDGE_CURVE('',#626,#618,#630,.T.);
#632=ORIENTED_EDGE('',*,*,#631,.F.);
#633=CARTESIAN_POINT('',(3.989999999999998,-1.204999999999998,1.620000000000001));
#634=VERTEX_POINT('',#633);
#635=CARTESIAN_POINT('',(3.989999999999998,-1.204999999999998,1.620000000000001));
#636=DIRECTION('',(0.0,0.0,-1.0));
#637=VECTOR('',#636,1.620000000000001);
#638=LINE('',#635,#637);
#639=EDGE_CURVE('',#634,#626,#638,.T.);
#640=ORIENTED_EDGE('',*,*,#639,.F.);
#641=CARTESIAN_POINT('',(3.490000000000002,-1.204999999999998,2.120000000000001));
#642=VERTEX_POINT('',#641);
#643=CARTESIAN_POINT('',(3.490000000000002,-1.204999999999998,1.620000000000001));
#644=DIRECTION('',(-1.416375E-016,1.0,-1.416375E-016));
#645=DIRECTION('',(0.707106781186547,2.003056E-016,0.707106781186548));
#646=AXIS2_PLACEMENT_3D('',#643,#644,#645);
#647=CIRCLE('',#646,0.5);
#648=EDGE_CURVE('',#642,#634,#647,.T.);
#649=ORIENTED_EDGE('',*,*,#648,.F.);
#650=CARTESIAN_POINT('',(2.470000000000001,-1.204999999999999,2.120000000000001));
#651=DIRECTION('',(1.0,0.0,0.0));
#652=VECTOR('',#651,1.020000000000001);
#653=LINE('',#650,#652);
#654=EDGE_CURVE('',#593,#642,#653,.T.);
#655=ORIENTED_EDGE('',*,*,#654,.F.);
#656=EDGE_LOOP('',(#599,#607,#616,#624,#632,#640,#649,#655));
#657=FACE_OUTER_BOUND('',#656,.T.);
#658=ADVANCED_FACE('',(#657),#589,.T.);
#659=CARTESIAN_POINT('',(3.49,1.205000000000002,1.620000000000001));
#660=DIRECTION('',(2.220446E-016,-1.0,6.123032E-017));
#661=DIRECTION('',(0.707106781186547,2.003056E-016,0.707106781186548));
#662=AXIS2_PLACEMENT_3D('',#659,#660,#661);
#663=CYLINDRICAL_SURFACE('',#662,0.5);
#664=ORIENTED_EDGE('',*,*,#648,.T.);
#665=CARTESIAN_POINT('',(3.989999999999998,1.205000000000002,1.620000000000001));
#666=VERTEX_POINT('',#665);
#667=CARTESIAN_POINT('',(3.989999999999998,1.205000000000002,1.620000000000001));
#668=DIRECTION('',(0.0,-1.0,0.0));
#669=VECTOR('',#668,2.41);
#670=LINE('',#667,#669);
#671=EDGE_CURVE('',#666,#634,#670,.T.);
#672=ORIENTED_EDGE('',*,*,#671,.F.);
#673=CARTESIAN_POINT('',(3.49,1.205000000000002,2.120000000000001));
#674=VERTEX_POINT('',#673);
#675=CARTESIAN_POINT('',(3.49,1.205000000000002,1.620000000000001));
#676=DIRECTION('',(1.416375E-016,-1.0,1.416375E-016));
#677=DIRECTION('',(0.707106781186547,2.003056E-016,0.707106781186548));
#678=AXIS2_PLACEMENT_3D('',#675,#676,#677);
#679=CIRCLE('',#678,0.5);
#680=EDGE_CURVE('',#666,#674,#679,.T.);
#681=ORIENTED_EDGE('',*,*,#680,.T.);
#682=CARTESIAN_POINT('',(3.49,1.205000000000002,2.120000000000001));
#683=DIRECTION('',(0.0,-1.0,0.0));
#684=VECTOR('',#683,2.41);
#685=LINE('',#682,#684);
#686=EDGE_CURVE('',#674,#642,#685,.T.);
#687=ORIENTED_EDGE('',*,*,#686,.T.);
#688=EDGE_LOOP('',(#664,#672,#681,#687));
#689=FACE_OUTER_BOUND('',#688,.T.);
#690=ADVANCED_FACE('',(#689),#663,.T.);
#691=CARTESIAN_POINT('',(3.989999999999998,1.205000000000002,1.620000000000001));
#692=DIRECTION('',(1.0,0.0,0.0));
#693=DIRECTION('',(0.0,1.0,0.0));
#694=AXIS2_PLACEMENT_3D('',#691,#692,#693);
#695=PLANE('',#694);
#696=ORIENTED_EDGE('',*,*,#639,.T.);
#697=CARTESIAN_POINT('',(3.989999999999998,1.205000000000002,0.0));
#698=VERTEX_POINT('',#697);
#699=CARTESIAN_POINT('',(3.989999999999998,1.205000000000002,0.0));
#700=DIRECTION('',(0.0,-1.0,0.0));
#701=VECTOR('',#700,2.41);
#702=LINE('',#699,#701);
#703=EDGE_CURVE('',#698,#626,#702,.T.);
#704=ORIENTED_EDGE('',*,*,#703,.F.);
#705=CARTESIAN_POINT('',(3.989999999999998,1.205000000000002,0.0));
#706=DIRECTION('',(0.0,0.0,1.0));
#707=VECTOR('',#706,1.620000000000001);
#708=LINE('',#705,#707);
#709=EDGE_CURVE('',#698,#666,#708,.T.);
#710=ORIENTED_EDGE('',*,*,#709,.T.);
#711=ORIENTED_EDGE('',*,*,#671,.T.);
#712=EDGE_LOOP('',(#696,#704,#710,#711));
#713=FACE_OUTER_BOUND('',#712,.T.);
#714=ADVANCED_FACE('',(#713),#695,.T.);
#715=CARTESIAN_POINT('',(3.989999999999998,1.205000000000002,0.0));
#716=DIRECTION('',(0.0,0.0,-1.0));
#717=DIRECTION('',(0.0,1.0,0.0));
#718=AXIS2_PLACEMENT_3D('',#715,#716,#717);
#719=PLANE('',#718);
#720=ORIENTED_EDGE('',*,*,#631,.T.);
#721=CARTESIAN_POINT('',(3.280000000000003,1.205000000000002,0.0));
#722=VERTEX_POINT('',#721);
#723=CARTESIAN_POINT('',(3.280000000000003,1.205000000000002,0.0));
#724=DIRECTION('',(0.0,-1.0,0.0));
#725=VECTOR('',#724,2.41);
#726=LINE('',#723,#725);
#727=EDGE_CURVE('',#722,#618,#726,.T.);
#728=ORIENTED_EDGE('',*,*,#727,.F.);
#729=CARTESIAN_POINT('',(3.280000000000003,1.205000000000002,0.0));
#730=DIRECTION('',(1.0,0.0,0.0));
#731=VECTOR('',#730,0.709999999999999);
#732=LINE('',#729,#731);
#733=EDGE_CURVE('',#722,#698,#732,.T.);
#734=ORIENTED_EDGE('',*,*,#733,.T.);
#735=ORIENTED_EDGE('',*,*,#703,.T.);
#736=EDGE_LOOP('',(#720,#728,#734,#735));
#737=FACE_OUTER_BOUND('',#736,.T.);
#738=ADVANCED_FACE('',(#737),#719,.T.);
#739=CARTESIAN_POINT('',(3.280000000000003,1.205000000000002,0.0));
#740=DIRECTION('',(-1.0,0.0,0.0));
#741=DIRECTION('',(0.0,-1.0,0.0));
#742=AXIS2_PLACEMENT_3D('',#739,#740,#741);
#743=PLANE('',#742);
#744=ORIENTED_EDGE('',*,*,#623,.T.);
#745=CARTESIAN_POINT('',(3.280000000000005,1.205000000000002,0.91));
#746=VERTEX_POINT('',#745);
#747=CARTESIAN_POINT('',(3.280000000000005,1.205000000000002,0.91));
#748=DIRECTION('',(0.0,-1.0,0.0));
#749=VECTOR('',#748,2.41);
#750=LINE('',#747,#749);
#751=EDGE_CURVE('',#746,#609,#750,.T.);
#752=ORIENTED_EDGE('',*,*,#751,.F.);
#753=CARTESIAN_POINT('',(3.280000000000005,1.205000000000002,0.91));
#754=DIRECTION('',(0.0,0.0,-1.0));
#755=VECTOR('',#754,0.909999999999999);
#756=LINE('',#753,#755);
#757=EDGE_CURVE('',#746,#722,#756,.T.);
#758=ORIENTED_EDGE('',*,*,#757,.T.);
#759=ORIENTED_EDGE('',*,*,#727,.T.);
#760=EDGE_LOOP('',(#744,#752,#758,#759));
#761=FACE_OUTER_BOUND('',#760,.T.);
#762=ADVANCED_FACE('',(#761),#743,.T.);
#763=CARTESIAN_POINT('',(2.780000000000005,1.205000000000002,0.909999999999998));
#764=DIRECTION('',(2.220446E-016,-1.0,6.123032E-017));
#765=DIRECTION('',(0.707106781186547,2.003056E-016,0.707106781186548));
#766=AXIS2_PLACEMENT_3D('',#763,#764,#765);
#767=CYLINDRICAL_SURFACE('',#766,0.5);
#768=ORIENTED_EDGE('',*,*,#615,.T.);
#769=CARTESIAN_POINT('',(2.780000000000003,1.205000000000002,1.409999999999998));
#770=VERTEX_POINT('',#769);
#771=CARTESIAN_POINT('',(2.780000000000003,1.205000000000002,1.409999999999998));
#772=DIRECTION('',(0.0,-1.0,0.0));
#773=VECTOR('',#772,2.41);
#774=LINE('',#771,#773);
#775=EDGE_CURVE('',#770,#601,#774,.T.);
#776=ORIENTED_EDGE('',*,*,#775,.F.);
#777=CARTESIAN_POINT('',(2.780000000000005,1.205000000000002,0.909999999999998));
#778=DIRECTION('',(-1.416375E-016,1.0,-1.416375E-016));
#779=DIRECTION('',(0.707106781186547,2.003056E-016,0.707106781186548));
#780=AXIS2_PLACEMENT_3D('',#777,#778,#779);
#781=CIRCLE('',#780,0.5);
#782=EDGE_CURVE('',#770,#746,#781,.T.);
#783=ORIENTED_EDGE('',*,*,#782,.T.);
#784=ORIENTED_EDGE('',*,*,#751,.T.);
#785=EDGE_LOOP('',(#768,#776,#783,#784));
#786=FACE_OUTER_BOUND('',#785,.T.);
#787=ADVANCED_FACE('',(#786),#767,.F.);
#788=CARTESIAN_POINT('',(1.562190632720862,1.205000000000002,1.497171564726141));
#789=DIRECTION('',(0.0,-1.0,0.0));
#790=DIRECTION('',(1.0,0.0,0.0));
#791=AXIS2_PLACEMENT_3D('',#788,#789,#790);
#792=PLANE('',#791);
#793=CARTESIAN_POINT('',(2.470000000000001,1.205000000000002,2.119999999999999));
#794=VERTEX_POINT('',#793);
#795=CARTESIAN_POINT('',(2.470000000000001,1.205000000000002,1.409999999999998));
#796=VERTEX_POINT('',#795);
#797=CARTESIAN_POINT('',(2.470000000000001,1.205000000000002,2.12));
#798=DIRECTION('',(0.0,0.0,-1.0));
#799=VECTOR('',#798,0.710000000000001);
#800=LINE('',#797,#799);
#801=EDGE_CURVE('',#794,#796,#800,.T.);
#802=ORIENTED_EDGE('',*,*,#801,.F.);
#803=CARTESIAN_POINT('',(3.49,1.205000000000002,2.120000000000001));
#804=DIRECTION('',(-1.0,0.0,0.0));
#805=VECTOR('',#804,1.02);
#806=LINE('',#803,#805);
#807=EDGE_CURVE('',#674,#794,#806,.T.);
#808=ORIENTED_EDGE('',*,*,#807,.F.);
#809=ORIENTED_EDGE('',*,*,#680,.F.);
#810=ORIENTED_EDGE('',*,*,#709,.F.);
#811=ORIENTED_EDGE('',*,*,#733,.F.);
#812=ORIENTED_EDGE('',*,*,#757,.F.);
#813=ORIENTED_EDGE('',*,*,#782,.F.);
#814=CARTESIAN_POINT('',(2.470000000000001,1.205000000000003,1.41));
#815=DIRECTION('',(1.0,0.0,0.0));
#816=VECTOR('',#815,0.310000000000002);
#817=LINE('',#814,#816);
#818=EDGE_CURVE('',#796,#770,#817,.T.);
#819=ORIENTED_EDGE('',*,*,#818,.F.);
#820=EDGE_LOOP('',(#802,#808,#809,#810,#811,#812,#813,#819));
#821=FACE_OUTER_BOUND('',#820,.T.);
#822=ADVANCED_FACE('',(#821),#792,.F.);
#823=CARTESIAN_POINT('',(-1.639999999999999,2.720000000000001,2.119999999999999));
#824=DIRECTION('',(-1.0,0.0,0.0));
#825=DIRECTION('',(0.0,-1.0,0.0));
#826=AXIS2_PLACEMENT_3D('',#823,#824,#825);
#827=PLANE('',#826);
#828=CARTESIAN_POINT('',(-1.639999999999999,2.720000000000001,1.41));
#829=VERTEX_POINT('',#828);
#830=CARTESIAN_POINT('',(-1.639999999999997,-2.719999999999999,1.41));
#831=VERTEX_POINT('',#830);
#832=CARTESIAN_POINT('',(-1.639999999999999,2.720000000000001,1.41));
#833=DIRECTION('',(0.0,-1.0,0.0));
#834=VECTOR('',#833,5.44);
#835=LINE('',#832,#834);
#836=EDGE_CURVE('',#829,#831,#835,.T.);
#837=ORIENTED_EDGE('',*,*,#836,.T.);
#838=CARTESIAN_POINT('',(-1.639999999999997,-2.719999999999999,2.120000000000001));
#839=VERTEX_POINT('',#838);
#840=CARTESIAN_POINT('',(-1.639999999999997,-2.719999999999999,2.120000000000001));
#841=DIRECTION('',(0.0,0.0,-1.0));
#842=VECTOR('',#841,0.71);
#843=LINE('',#840,#842);
#844=EDGE_CURVE('',#839,#831,#843,.T.);
#845=ORIENTED_EDGE('',*,*,#844,.F.);
#846=CARTESIAN_POINT('',(-1.639999999999999,2.720000000000001,2.119999999999999));
#847=VERTEX_POINT('',#846);
#848=CARTESIAN_POINT('',(-1.639999999999999,2.720000000000001,2.119999999999999));
#849=DIRECTION('',(0.0,-1.0,0.0));
#850=VECTOR('',#849,5.44);
#851=LINE('',#848,#850);
#852=EDGE_CURVE('',#847,#839,#851,.T.);
#853=ORIENTED_EDGE('',*,*,#852,.F.);
#854=CARTESIAN_POINT('',(-1.639999999999999,2.720000000000001,2.119999999999999));
#855=DIRECTION('',(0.0,0.0,-1.0));
#856=VECTOR('',#855,0.71);
#857=LINE('',#854,#856);
#858=EDGE_CURVE('',#847,#829,#857,.T.);
#859=ORIENTED_EDGE('',*,*,#858,.T.);
#860=EDGE_LOOP('',(#837,#845,#853,#859));
#861=FACE_OUTER_BOUND('',#860,.T.);
#862=ADVANCED_FACE('',(#861),#827,.T.);
#863=CARTESIAN_POINT('',(3.279999999999999,2.720000000000002,2.120000000000001));
#864=DIRECTION('',(0.0,0.0,1.0));
#865=DIRECTION('',(0.0,-1.0,0.0));
#866=AXIS2_PLACEMENT_3D('',#863,#864,#865);
#867=PLANE('',#866);
#868=CARTESIAN_POINT('',(2.469999999999999,1.915000000000003,2.120000000000001));
#869=VERTEX_POINT('',#868);
#870=CARTESIAN_POINT('',(2.470000000000001,1.205000000000001,2.120000000000001));
#871=DIRECTION('',(0.0,1.0,0.0));
#872=VECTOR('',#871,0.71);
#873=LINE('',#870,#872);
#874=EDGE_CURVE('',#794,#869,#873,.T.);
#875=ORIENTED_EDGE('',*,*,#874,.T.);
#876=CARTESIAN_POINT('',(3.989999999999998,1.915000000000003,2.120000000000001));
#877=VERTEX_POINT('',#876);
#878=CARTESIAN_POINT('',(2.469999999999999,1.915000000000003,2.120000000000001));
#879=DIRECTION('',(1.0,0.0,0.0));
#880=VECTOR('',#879,1.520000000000001);
#881=LINE('',#878,#880);
#882=EDGE_CURVE('',#869,#877,#881,.T.);
#883=ORIENTED_EDGE('',*,*,#882,.T.);
#884=CARTESIAN_POINT('',(3.989999999999998,2.720000000000002,2.120000000000001));
#885=VERTEX_POINT('',#884);
#886=CARTESIAN_POINT('',(3.989999999999998,2.720000000000002,2.120000000000001));
#887=DIRECTION('',(0.0,-1.0,0.0));
#888=VECTOR('',#887,0.805);
#889=LINE('',#886,#888);
#890=EDGE_CURVE('',#885,#877,#889,.T.);
#891=ORIENTED_EDGE('',*,*,#890,.F.);
#892=CARTESIAN_POINT('',(3.99,2.720000000000001,2.120000000000002));
#893=DIRECTION('',(-1.0,0.0,0.0));
#894=VECTOR('',#893,5.629999999999999);
#895=LINE('',#892,#894);
#896=EDGE_CURVE('',#885,#847,#895,.T.);
#897=ORIENTED_EDGE('',*,*,#896,.T.);
#898=ORIENTED_EDGE('',*,*,#852,.T.);
#899=CARTESIAN_POINT('',(-1.639999999999997,-2.719999999999999,2.120000000000001));
#900=DIRECTION('',(1.0,0.0,0.0));
#901=VECTOR('',#900,5.629999999999999);
#902=LINE('',#899,#901);
#903=EDGE_CURVE('',#839,#567,#902,.T.);
#904=ORIENTED_EDGE('',*,*,#903,.T.);
#905=ORIENTED_EDGE('',*,*,#580,.F.);
#906=ORIENTED_EDGE('',*,*,#549,.F.);
#907=CARTESIAN_POINT('',(2.470000000000001,-1.914999999999999,2.120000000000001));
#908=DIRECTION('',(0.0,1.0,0.0));
#909=VECTOR('',#908,0.71);
#910=LINE('',#907,#909);
#911=EDGE_CURVE('',#536,#593,#910,.T.);
#912=ORIENTED_EDGE('',*,*,#911,.T.);
#913=ORIENTED_EDGE('',*,*,#654,.T.);
#914=ORIENTED_EDGE('',*,*,#686,.F.);
#915=ORIENTED_EDGE('',*,*,#807,.T.);
#916=EDGE_LOOP('',(#875,#883,#891,#897,#898,#904,#905,#906,#912,#913,#914,#915));
#917=FACE_OUTER_BOUND('',#916,.T.);
#918=ADVANCED_FACE('',(#917),#867,.T.);
#919=CARTESIAN_POINT('',(0.415000000000003,1.776357E-015,1.41));
#920=DIRECTION('',(0.0,0.0,1.0));
#921=DIRECTION('',(0.0,-1.0,0.0));
#922=AXIS2_PLACEMENT_3D('',#919,#920,#921);
#923=PLANE('',#922);
#924=ORIENTED_EDGE('',*,*,#471,.F.);
#925=CARTESIAN_POINT('',(-1.639999999999997,-2.719999999999999,1.41));
#926=DIRECTION('',(1.0,0.0,0.0));
#927=VECTOR('',#926,4.109999999999998);
#928=LINE('',#925,#927);
#929=EDGE_CURVE('',#831,#464,#928,.T.);
#930=ORIENTED_EDGE('',*,*,#929,.F.);
#931=ORIENTED_EDGE('',*,*,#836,.F.);
#932=CARTESIAN_POINT('',(2.470000000000001,2.720000000000001,1.41));
#933=VERTEX_POINT('',#932);
#934=CARTESIAN_POINT('',(2.470000000000001,2.720000000000001,1.410000000000002));
#935=DIRECTION('',(-1.0,0.0,0.0));
#936=VECTOR('',#935,4.109999999999999);
#937=LINE('',#934,#936);
#938=EDGE_CURVE('',#933,#829,#937,.T.);
#939=ORIENTED_EDGE('',*,*,#938,.F.);
#940=CARTESIAN_POINT('',(2.470000000000001,1.915000000000003,1.410000000000002));
#941=VERTEX_POINT('',#940);
#942=CARTESIAN_POINT('',(2.469999999999999,1.915000000000002,1.41));
#943=DIRECTION('',(0.0,1.0,0.0));
#944=VECTOR('',#943,0.804999999999999);
#945=LINE('',#942,#944);
#946=EDGE_CURVE('',#941,#933,#945,.T.);
#947=ORIENTED_EDGE('',*,*,#946,.F.);
#948=CARTESIAN_POINT('',(2.470000000000001,1.205000000000001,1.410000000000002));
#949=DIRECTION('',(0.0,1.0,0.0));
#950=VECTOR('',#949,0.71);
#951=LINE('',#948,#950);
#952=EDGE_CURVE('',#796,#941,#951,.T.);
#953=ORIENTED_EDGE('',*,*,#952,.F.);
#954=ORIENTED_EDGE('',*,*,#818,.T.);
#955=ORIENTED_EDGE('',*,*,#775,.T.);
#956=ORIENTED_EDGE('',*,*,#606,.T.);
#957=CARTESIAN_POINT('',(2.470000000000001,-1.914999999999999,1.410000000000002));
#958=DIRECTION('',(0.0,1.0,0.0));
#959=VECTOR('',#958,0.71);
#960=LINE('',#957,#959);
#961=EDGE_CURVE('',#466,#591,#960,.T.);
#962=ORIENTED_EDGE('',*,*,#961,.F.);
#963=EDGE_LOOP('',(#924,#930,#931,#939,#947,#953,#954,#955,#956,#962));
#964=FACE_OUTER_BOUND('',#963,.T.);
#965=ADVANCED_FACE('',(#964),#923,.F.);
#966=CARTESIAN_POINT('',(2.470000000000001,-2.719999999999999,2.120000000000001));
#967=DIRECTION('',(1.0,0.0,0.0));
#968=DIRECTION('',(0.0,1.0,0.0));
#969=AXIS2_PLACEMENT_3D('',#966,#967,#968);
#970=PLANE('',#969);
#971=ORIENTED_EDGE('',*,*,#541,.T.);
#972=ORIENTED_EDGE('',*,*,#961,.T.);
#973=ORIENTED_EDGE('',*,*,#598,.T.);
#974=ORIENTED_EDGE('',*,*,#911,.F.);
#975=EDGE_LOOP('',(#971,#972,#973,#974));
#976=FACE_OUTER_BOUND('',#975,.T.);
#977=ADVANCED_FACE('',(#976),#970,.T.);
#978=CARTESIAN_POINT('',(2.470000000000001,-2.719999999999999,2.120000000000001));
#979=DIRECTION('',(1.0,0.0,0.0));
#980=DIRECTION('',(0.0,1.0,0.0));
#981=AXIS2_PLACEMENT_3D('',#978,#979,#980);
#982=PLANE('',#981);
#983=ORIENTED_EDGE('',*,*,#801,.T.);
#984=ORIENTED_EDGE('',*,*,#952,.T.);
#985=CARTESIAN_POINT('',(2.47,1.915000000000003,1.410000000000001));
#986=DIRECTION('',(0.0,0.0,1.0));
#987=VECTOR('',#986,0.71);
#988=LINE('',#985,#987);
#989=EDGE_CURVE('',#941,#869,#988,.T.);
#990=ORIENTED_EDGE('',*,*,#989,.T.);
#991=ORIENTED_EDGE('',*,*,#874,.F.);
#992=EDGE_LOOP('',(#983,#984,#990,#991));
#993=FACE_OUTER_BOUND('',#992,.T.);
#994=ADVANCED_FACE('',(#993),#982,.T.);
#995=CARTESIAN_POINT('',(-1.639999999999997,-2.719999999999999,2.120000000000001));
#996=DIRECTION('',(0.0,-1.0,0.0));
#997=DIRECTION('',(1.0,0.0,0.0));
#998=AXIS2_PLACEMENT_3D('',#995,#996,#997);
#999=PLANE('',#998);
#1000=ORIENTED_EDGE('',*,*,#929,.T.);
#1001=ORIENTED_EDGE('',*,*,#493,.F.);
#1002=ORIENTED_EDGE('',*,*,#509,.F.);
#1003=ORIENTED_EDGE('',*,*,#572,.F.);
#1004=ORIENTED_EDGE('',*,*,#903,.F.);
#1005=ORIENTED_EDGE('',*,*,#844,.T.);
#1006=EDGE_LOOP('',(#1000,#1001,#1002,#1003,#1004,#1005));
#1007=FACE_OUTER_BOUND('',#1006,.T.);
#1008=ADVANCED_FACE('',(#1007),#999,.T.);
#1009=CARTESIAN_POINT('',(2.469999999999999,2.720000000000002,0.0));
#1010=DIRECTION('',(-1.0,0.0,0.0));
#1011=DIRECTION('',(0.0,-1.0,0.0));
#1012=AXIS2_PLACEMENT_3D('',#1009,#1010,#1011);
#1013=PLANE('',#1012);
#1014=ORIENTED_EDGE('',*,*,#946,.T.);
#1015=CARTESIAN_POINT('',(2.469999999999999,2.720000000000002,1.370000000000001));
#1016=VERTEX_POINT('',#1015);
#1017=CARTESIAN_POINT('',(2.469999999999998,2.720000000000002,1.37));
#1018=DIRECTION('',(0.0,0.0,1.0));
#1019=VECTOR('',#1018,0.04);
#1020=LINE('',#1017,#1019);
#1021=EDGE_CURVE('',#1016,#933,#1020,.T.);
#1022=ORIENTED_EDGE('',*,*,#1021,.F.);
#1023=CARTESIAN_POINT('',(2.469999999999999,1.915000000000003,1.370000000000001));
#1024=VERTEX_POINT('',#1023);
#1025=CARTESIAN_POINT('',(2.469999999999999,2.720000000000002,1.370000000000001));
#1026=DIRECTION('',(0.0,-1.0,0.0));
#1027=VECTOR('',#1026,0.805);
#1028=LINE('',#1025,#1027);
#1029=EDGE_CURVE('',#1016,#1024,#1028,.T.);
#1030=ORIENTED_EDGE('',*,*,#1029,.T.);
#1031=CARTESIAN_POINT('',(2.47,1.915000000000003,1.37));
#1032=DIRECTION('',(0.0,0.0,1.0));
#1033=VECTOR('',#1032,0.04);
#1034=LINE('',#1031,#1033);
#1035=EDGE_CURVE('',#1024,#941,#1034,.T.);
#1036=ORIENTED_EDGE('',*,*,#1035,.T.);
#1037=EDGE_LOOP('',(#1014,#1022,#1030,#1036));
#1038=FACE_OUTER_BOUND('',#1037,.T.);
#1039=ADVANCED_FACE('',(#1038),#1013,.T.);
#1040=CARTESIAN_POINT('',(3.989999999999998,2.720000000000002,1.370000000000001));
#1041=DIRECTION('',(0.0,0.0,-1.0));
#1042=DIRECTION('',(0.0,1.0,0.0));
#1043=AXIS2_PLACEMENT_3D('',#1040,#1041,#1042);
#1044=PLANE('',#1043);
#1045=CARTESIAN_POINT('',(3.989999999999998,1.915000000000003,1.370000000000001));
#1046=VERTEX_POINT('',#1045);
#1047=CARTESIAN_POINT('',(3.989999999999998,1.915000000000003,1.370000000000001));
#1048=DIRECTION('',(-1.0,0.0,0.0));
#1049=VECTOR('',#1048,1.520000000000001);
#1050=LINE('',#1047,#1049);
#1051=EDGE_CURVE('',#1046,#1024,#1050,.T.);
#1052=ORIENTED_EDGE('',*,*,#1051,.T.);
#1053=ORIENTED_EDGE('',*,*,#1029,.F.);
#1054=CARTESIAN_POINT('',(3.989999999999998,2.720000000000002,1.370000000000001));
#1055=VERTEX_POINT('',#1054);
#1056=CARTESIAN_POINT('',(3.989999999999998,2.720000000000002,1.370000000000001));
#1057=DIRECTION('',(-1.0,0.0,0.0));
#1058=VECTOR('',#1057,1.520000000000001);
#1059=LINE('',#1056,#1058);
#1060=EDGE_CURVE('',#1055,#1016,#1059,.T.);
#1061=ORIENTED_EDGE('',*,*,#1060,.F.);
#1062=CARTESIAN_POINT('',(3.989999999999998,2.720000000000002,1.370000000000001));
#1063=DIRECTION('',(0.0,-1.0,0.0));
#1064=VECTOR('',#1063,0.805);
#1065=LINE('',#1062,#1064);
#1066=EDGE_CURVE('',#1055,#1046,#1065,.T.);
#1067=ORIENTED_EDGE('',*,*,#1066,.T.);
#1068=EDGE_LOOP('',(#1052,#1053,#1061,#1067));
#1069=FACE_OUTER_BOUND('',#1068,.T.);
#1070=ADVANCED_FACE('',(#1069),#1044,.T.);
#1071=CARTESIAN_POINT('',(3.634999999999996,2.720000000000002,1.060000000000002));
#1072=DIRECTION('',(0.0,-1.0,0.0));
#1073=DIRECTION('',(1.0,0.0,0.0));
#1074=AXIS2_PLACEMENT_3D('',#1071,#1072,#1073);
#1075=PLANE('',#1074);
#1076=ORIENTED_EDGE('',*,*,#1021,.T.);
#1077=ORIENTED_EDGE('',*,*,#938,.T.);
#1078=ORIENTED_EDGE('',*,*,#858,.F.);
#1079=ORIENTED_EDGE('',*,*,#896,.F.);
#1080=CARTESIAN_POINT('',(3.989999999999998,2.720000000000002,2.120000000000001));
#1081=DIRECTION('',(0.0,0.0,-1.0));
#1082=VECTOR('',#1081,0.749999999999999);
#1083=LINE('',#1080,#1082);
#1084=EDGE_CURVE('',#885,#1055,#1083,.T.);
#1085=ORIENTED_EDGE('',*,*,#1084,.T.);
#1086=ORIENTED_EDGE('',*,*,#1060,.T.);
#1087=EDGE_LOOP('',(#1076,#1077,#1078,#1079,#1085,#1086));
#1088=FACE_OUTER_BOUND('',#1087,.T.);
#1089=ADVANCED_FACE('',(#1088),#1075,.F.);
#1090=CARTESIAN_POINT('',(3.989999999999998,2.720000000000002,2.120000000000001));
#1091=DIRECTION('',(1.0,0.0,0.0));
#1092=DIRECTION('',(0.0,1.0,0.0));
#1093=AXIS2_PLACEMENT_3D('',#1090,#1091,#1092);
#1094=PLANE('',#1093);
#1095=CARTESIAN_POINT('',(3.989999999999998,1.915000000000003,2.120000000000001));
#1096=DIRECTION('',(0.0,0.0,-1.0));
#1097=VECTOR('',#1096,0.749999999999999);
#1098=LINE('',#1095,#1097);
#1099=EDGE_CURVE('',#877,#1046,#1098,.T.);
#1100=ORIENTED_EDGE('',*,*,#1099,.T.);
#1101=ORIENTED_EDGE('',*,*,#1066,.F.);
#1102=ORIENTED_EDGE('',*,*,#1084,.F.);
#1103=ORIENTED_EDGE('',*,*,#890,.T.);
#1104=EDGE_LOOP('',(#1100,#1101,#1102,#1103));
#1105=FACE_OUTER_BOUND('',#1104,.T.);
#1106=ADVANCED_FACE('',(#1105),#1094,.T.);
#1107=CARTESIAN_POINT('',(3.634999999999996,1.915000000000003,1.060000000000002));
#1108=DIRECTION('',(0.0,-1.0,0.0));
#1109=DIRECTION('',(1.0,0.0,0.0));
#1110=AXIS2_PLACEMENT_3D('',#1107,#1108,#1109);
#1111=PLANE('',#1110);
#1112=ORIENTED_EDGE('',*,*,#882,.F.);
#1113=ORIENTED_EDGE('',*,*,#989,.F.);
#1114=ORIENTED_EDGE('',*,*,#1035,.F.);
#1115=ORIENTED_EDGE('',*,*,#1051,.F.);
#1116=ORIENTED_EDGE('',*,*,#1099,.F.);
#1117=EDGE_LOOP('',(#1112,#1113,#1114,#1115,#1116));
#1118=FACE_OUTER_BOUND('',#1117,.T.);
#1119=ADVANCED_FACE('',(#1118),#1111,.T.);
#1120=CLOSED_SHELL('',(#497,#528,#560,#584,#658,#690,#714,#738,#762,#787,#822,#862,#918,#965,#977,#994,#1008,#1039,#1070,#1089,#1106,#1119));
#1121=MANIFOLD_SOLID_BREP('38B',#1120);
#1122=STYLED_ITEM('NONE',(#454),#1121);
#1123=CARTESIAN_POINT('',(-1.639999999999999,2.720000000000001,2.119999999999999));
#1124=DIRECTION('',(-1.0,0.0,0.0));
#1125=DIRECTION('',(0.0,-1.0,0.0));
#1126=AXIS2_PLACEMENT_3D('',#1123,#1124,#1125);
#1127=PLANE('',#1126);
#1128=CARTESIAN_POINT('',(-1.639999999999997,-2.719999999999999,2.120000000000001));
#1129=VERTEX_POINT('',#1128);
#1130=CARTESIAN_POINT('',(-1.639999999999999,-2.719999999999999,2.469999999999999));
#1131=VERTEX_POINT('',#1130);
#1132=CARTESIAN_POINT('',(-1.639999999999997,-2.719999999999999,2.12));
#1133=DIRECTION('',(0.0,0.0,1.0));
#1134=VECTOR('',#1133,0.349999999999999);
#1135=LINE('',#1132,#1134);
#1136=EDGE_CURVE('',#1129,#1131,#1135,.T.);
#1137=ORIENTED_EDGE('',*,*,#1136,.T.);
#1138=CARTESIAN_POINT('',(-1.640000000000001,2.720000000000001,2.469999999999999));
#1139=VERTEX_POINT('',#1138);
#1140=CARTESIAN_POINT('',(-1.640000000000001,2.720000000000001,2.469999999999999));
#1141=DIRECTION('',(0.0,-1.0,0.0));
#1142=VECTOR('',#1141,5.44);
#1143=LINE('',#1140,#1142);
#1144=EDGE_CURVE('',#1139,#1131,#1143,.T.);
#1145=ORIENTED_EDGE('',*,*,#1144,.F.);
#1146=CARTESIAN_POINT('',(-1.639999999999999,2.720000000000001,2.119999999999999));
#1147=VERTEX_POINT('',#1146);
#1148=CARTESIAN_POINT('',(-1.640000000000001,2.720000000000001,2.469999999999999));
#1149=DIRECTION('',(0.0,0.0,-1.0));
#1150=VECTOR('',#1149,0.349999999999999);
#1151=LINE('',#1148,#1150);
#1152=EDGE_CURVE('',#1139,#1147,#1151,.T.);
#1153=ORIENTED_EDGE('',*,*,#1152,.T.);
#1154=CARTESIAN_POINT('',(-1.639999999999999,2.720000000000001,2.119999999999999));
#1155=DIRECTION('',(0.0,-1.0,0.0));
#1156=VECTOR('',#1155,5.44);
#1157=LINE('',#1154,#1156);
#1158=EDGE_CURVE('',#1147,#1129,#1157,.T.);
#1159=ORIENTED_EDGE('',*,*,#1158,.T.);
#1160=EDGE_LOOP('',(#1137,#1145,#1153,#1159));
#1161=FACE_OUTER_BOUND('',#1160,.T.);
#1162=ADVANCED_FACE('',(#1161),#1127,.T.);
#1163=CARTESIAN_POINT('',(-1.640000000000001,2.720000000000001,2.469999999999999));
#1164=DIRECTION('',(0.0,0.0,1.0));
#1165=DIRECTION('',(0.0,-1.0,0.0));
#1166=AXIS2_PLACEMENT_3D('',#1163,#1164,#1165);
#1167=PLANE('',#1166);
#1168=CARTESIAN_POINT('',(3.989999999999998,-2.719999999999999,2.470000000000001));
#1169=VERTEX_POINT('',#1168);
#1170=CARTESIAN_POINT('',(-1.640000000000002,-2.72,2.469999999999999));
#1171=DIRECTION('',(1.0,0.0,0.0));
#1172=VECTOR('',#1171,5.630000000000001);
#1173=LINE('',#1170,#1172);
#1174=EDGE_CURVE('',#1131,#1169,#1173,.T.);
#1175=ORIENTED_EDGE('',*,*,#1174,.T.);
#1176=CARTESIAN_POINT('',(3.989999999999998,2.720000000000002,2.469999999999999));
#1177=VERTEX_POINT('',#1176);
#1178=CARTESIAN_POINT('',(3.989999999999998,2.720000000000002,2.469999999999999));
#1179=DIRECTION('',(0.0,-1.0,0.0));
#1180=VECTOR('',#1179,5.44);
#1181=LINE('',#1178,#1180);
#1182=EDGE_CURVE('',#1177,#1169,#1181,.T.);
#1183=ORIENTED_EDGE('',*,*,#1182,.F.);
#1184=CARTESIAN_POINT('',(3.989999999999998,2.720000000000002,2.469999999999999));
#1185=DIRECTION('',(-1.0,0.0,0.0));
#1186=VECTOR('',#1185,5.630000000000001);
#1187=LINE('',#1184,#1186);
#1188=EDGE_CURVE('',#1177,#1139,#1187,.T.);
#1189=ORIENTED_EDGE('',*,*,#1188,.T.);
#1190=ORIENTED_EDGE('',*,*,#1144,.T.);
#1191=EDGE_LOOP('',(#1175,#1183,#1189,#1190));
#1192=FACE_OUTER_BOUND('',#1191,.T.);
#1193=ADVANCED_FACE('',(#1192),#1167,.T.);
#1194=CARTESIAN_POINT('',(3.989999999999998,2.720000000000002,2.469999999999999));
#1195=DIRECTION('',(1.0,0.0,0.0));
#1196=DIRECTION('',(0.0,1.0,0.0));
#1197=AXIS2_PLACEMENT_3D('',#1194,#1195,#1196);
#1198=PLANE('',#1197);
#1199=CARTESIAN_POINT('',(3.989999999999998,-2.719999999999999,2.120000000000001));
#1200=VERTEX_POINT('',#1199);
#1201=CARTESIAN_POINT('',(3.989999999999998,-2.719999999999999,2.47));
#1202=DIRECTION('',(0.0,0.0,-1.0));
#1203=VECTOR('',#1202,0.349999999999999);
#1204=LINE('',#1201,#1203);
#1205=EDGE_CURVE('',#1169,#1200,#1204,.T.);
#1206=ORIENTED_EDGE('',*,*,#1205,.T.);
#1207=CARTESIAN_POINT('',(3.989999999999998,2.720000000000002,2.120000000000001));
#1208=VERTEX_POINT('',#1207);
#1209=CARTESIAN_POINT('',(3.989999999999998,2.720000000000002,2.120000000000001));
#1210=DIRECTION('',(0.0,-1.0,0.0));
#1211=VECTOR('',#1210,5.44);
#1212=LINE('',#1209,#1211);
#1213=EDGE_CURVE('',#1208,#1200,#1212,.T.);
#1214=ORIENTED_EDGE('',*,*,#1213,.F.);
#1215=CARTESIAN_POINT('',(3.989999999999998,2.720000000000002,2.120000000000001));
#1216=DIRECTION('',(0.0,0.0,1.0));
#1217=VECTOR('',#1216,0.349999999999999);
#1218=LINE('',#1215,#1217);
#1219=EDGE_CURVE('',#1208,#1177,#1218,.T.);
#1220=ORIENTED_EDGE('',*,*,#1219,.T.);
#1221=ORIENTED_EDGE('',*,*,#1182,.T.);
#1222=EDGE_LOOP('',(#1206,#1214,#1220,#1221));
#1223=FACE_OUTER_BOUND('',#1222,.T.);
#1224=ADVANCED_FACE('',(#1223),#1198,.T.);
#1225=CARTESIAN_POINT('',(3.989999999999998,2.720000000000002,2.120000000000001));
#1226=DIRECTION('',(0.0,0.0,-1.0));
#1227=DIRECTION('',(0.0,1.0,0.0));
#1228=AXIS2_PLACEMENT_3D('',#1225,#1226,#1227);
#1229=PLANE('',#1228);
#1230=CARTESIAN_POINT('',(3.990000000000002,-2.719999999999998,2.120000000000002));
#1231=DIRECTION('',(-1.0,0.0,0.0));
#1232=VECTOR('',#1231,5.629999999999999);
#1233=LINE('',#1230,#1232);
#1234=EDGE_CURVE('',#1200,#1129,#1233,.T.);
#1235=ORIENTED_EDGE('',*,*,#1234,.T.);
#1236=ORIENTED_EDGE('',*,*,#1158,.F.);
#1237=CARTESIAN_POINT('',(-1.639999999999999,2.720000000000001,2.119999999999999));
#1238=DIRECTION('',(1.0,0.0,0.0));
#1239=VECTOR('',#1238,5.629999999999999);
#1240=LINE('',#1237,#1239);
#1241=EDGE_CURVE('',#1147,#1208,#1240,.T.);
#1242=ORIENTED_EDGE('',*,*,#1241,.T.);
#1243=ORIENTED_EDGE('',*,*,#1213,.T.);
#1244=EDGE_LOOP('',(#1235,#1236,#1242,#1243));
#1245=FACE_OUTER_BOUND('',#1244,.T.);
#1246=ADVANCED_FACE('',(#1245),#1229,.T.);
#1247=CARTESIAN_POINT('',(1.175000000000003,-2.719999999999999,2.295));
#1248=DIRECTION('',(0.0,-1.0,0.0));
#1249=DIRECTION('',(1.0,0.0,0.0));
#1250=AXIS2_PLACEMENT_3D('',#1247,#1248,#1249);
#1251=PLANE('',#1250);
#1252=ORIENTED_EDGE('',*,*,#1136,.F.);
#1253=ORIENTED_EDGE('',*,*,#1234,.F.);
#1254=ORIENTED_EDGE('',*,*,#1205,.F.);
#1255=ORIENTED_EDGE('',*,*,#1174,.F.);
#1256=EDGE_LOOP('',(#1252,#1253,#1254,#1255));
#1257=FACE_OUTER_BOUND('',#1256,.T.);
#1258=ADVANCED_FACE('',(#1257),#1251,.T.);
#1259=CARTESIAN_POINT('',(1.175000000000001,2.720000000000002,2.295));
#1260=DIRECTION('',(0.0,-1.0,0.0));
#1261=DIRECTION('',(1.0,0.0,0.0));
#1262=AXIS2_PLACEMENT_3D('',#1259,#1260,#1261);
#1263=PLANE('',#1262);
#1264=ORIENTED_EDGE('',*,*,#1241,.F.);
#1265=ORIENTED_EDGE('',*,*,#1152,.F.);
#1266=ORIENTED_EDGE('',*,*,#1188,.F.);
#1267=ORIENTED_EDGE('',*,*,#1219,.F.);
#1268=EDGE_LOOP('',(#1264,#1265,#1266,#1267));
#1269=FACE_OUTER_BOUND('',#1268,.T.);
#1270=ADVANCED_FACE('',(#1269),#1263,.F.);
#1271=CLOSED_SHELL('',(#1162,#1193,#1224,#1246,#1258,#1270));
#1272=MANIFOLD_SOLID_BREP('37A',#1271);
#1273=COLOUR_RGB('250',0.33,0.33,0.33);
#1274=SURFACE_STYLE_USAGE(.BOTH.,#1275);
#1275=SURFACE_SIDE_STYLE('NONE',(#1276));
#1276=SURFACE_STYLE_FILL_AREA(#1277);
#1277=FILL_AREA_STYLE('NONE',(#1278));
#1278=FILL_AREA_STYLE_COLOUR('NONE',#1273);
#1279=PRESENTATION_STYLE_ASSIGNMENT((#1274));
#1280=STYLED_ITEM('NONE',(#1279),#1272);
#1281=ADVANCED_BREP_SHAPE_REPRESENTATION('ABSR1',(#447,#1121,#1272),#28);
#1282=SHAPE_REPRESENTATION_RELATIONSHIP('SRRPL1','',#1281,#62);
ENDSEC;
END-ISO-10303-21;
