ISO-10303-21;
HEADER;
/****************************************************************
 * Generated by software with PDElib inside                    *
 * PDElib Version v51a, created Wed 11/30/2011                  *
 * ITI Transcendata (http://www.transcendata.com/)              *
 ****************************************************************/
FILE_DESCRIPTION((''),'2;1');
FILE_NAME('FUSR_LITTELFUSE_2920L.stp','2014-10-23T14:17:04',(''),(''),'Mechanical Desktop 2011','Mechanical Desktop 2011',', , ');
FILE_SCHEMA(('AUTOMOTIVE_DESIGN { 1 2 10303 214 1 1 1 1 }'));
ENDSEC;
DATA;
#10=(NAMED_UNIT(*)PLANE_ANGLE_UNIT()SI_UNIT($,.RADIAN.));
#11=DIMENSIONAL_EXPONENTS(0.0,0.0,0.0,0.0,0.0,0.0,0.0);
#12=PLANE_ANGLE_MEASURE_WITH_UNIT(PLANE_ANGLE_MEASURE(0.0174532925),#10);
#16=(CONVERSION_BASED_UNIT('DEGREE',#12)NAMED_UNIT(#11)PLANE_ANGLE_UNIT());
#20=(NAMED_UNIT(*)SI_UNIT($,.STERADIAN.)SOLID_ANGLE_UNIT());
#24=(LENGTH_UNIT()NAMED_UNIT(*)SI_UNIT(.MILLI.,.METRE.));
#26=UNCERTAINTY_MEASURE_WITH_UNIT(LENGTH_MEASURE(0.000001),#24,'DISTANCE_ACCURACY_VALUE','');
#28=(GEOMETRIC_REPRESENTATION_CONTEXT(3)GLOBAL_UNCERTAINTY_ASSIGNED_CONTEXT((#26))GLOBAL_UNIT_ASSIGNED_CONTEXT((#16,#20,#24))REPRESENTATION_CONTEXT('','3D'));
#29=APPLICATION_CONTEXT('automotive design');
#30=APPLICATION_PROTOCOL_DEFINITION('INTERNATIONAL_STANDARD','automotive_design',1998,#29);
#31=PRODUCT_CONTEXT('3D Mechanical Parts',#29,'mechanical');
#32=PRODUCT('Product','Product','',(#31));
#33=PRODUCT_RELATED_PRODUCT_CATEGORY('part',$,(#32));
#34=PRODUCT_CATEGORY('part',$);
#35=PERSON('1','Design','Joe',$,$,$);
#36=ORGANIZATION($,'None','None');
#37=PERSON_AND_ORGANIZATION(#35,#36);
#38=PERSON_AND_ORGANIZATION_ROLE('design_owner');
#39=APPLIED_PERSON_AND_ORGANIZATION_ASSIGNMENT(#37,#38,(#32));
#40=PRODUCT_DEFINITION_FORMATION_WITH_SPECIFIED_SOURCE('None','',#32,.BOUGHT.);
#41=PERSON('2','Creator','Joe',$,$,$);
#42=ORGANIZATION($,'None','None');
#43=PERSON_AND_ORGANIZATION(#41,#42);
#44=PERSON_AND_ORGANIZATION_ROLE('creator');
#45=APPLIED_PERSON_AND_ORGANIZATION_ASSIGNMENT(#43,#44,(#40));
#46=PERSON('3','Supplier','Joe',$,$,$);
#47=ORGANIZATION($,'None','None');
#48=PERSON_AND_ORGANIZATION(#46,#47);
#49=PERSON_AND_ORGANIZATION_ROLE('design_supplier');
#50=APPLIED_PERSON_AND_ORGANIZATION_ASSIGNMENT(#48,#49,(#40));
#51=PRODUCT_DEFINITION_CONTEXT('part definition',#29,'design');
#52=PRODUCT_DEFINITION('None','',#40,#51);
#53=PERSON('4','Creator','Joe',$,$,$);
#54=ORGANIZATION($,'None','None');
#55=PERSON_AND_ORGANIZATION(#53,#54);
#56=PERSON_AND_ORGANIZATION_ROLE('creator');
#57=APPLIED_PERSON_AND_ORGANIZATION_ASSIGNMENT(#55,#56,(#52));
#58=CARTESIAN_POINT('NONE',(0.0,0.0,0.0));
#59=DIRECTION('NONE',(0.0,0.0,1.0));
#60=DIRECTION('NONE',(1.0,0.0,0.0));
#61=AXIS2_PLACEMENT_3D('NONE',#58,#59,#60);
#62=SHAPE_REPRESENTATION('SR1',(#61),#28);
#63=PRODUCT_DEFINITION_SHAPE('PDS1','Test Part',#52);
#64=SHAPE_DEFINITION_REPRESENTATION(#63,#62);
#65=CARTESIAN_POINT('',(-4.19,1.102182E-016,0.204530872120625));
#66=DIRECTION('',(0.0,-1.224647E-016,-1.0));
#67=DIRECTION('',(1.0,0.0,0.0));
#68=AXIS2_PLACEMENT_3D('',#65,#66,#67);
#69=CYLINDRICAL_SURFACE('',#68,1.0);
#70=CARTESIAN_POINT('',(-3.990000000000001,-0.979795897113271,0.2));
#71=VERTEX_POINT('',#70);
#72=CARTESIAN_POINT('',(-3.990000000000001,0.979795897113271,0.199999999999999));
#73=VERTEX_POINT('',#72);
#74=CARTESIAN_POINT('',(-4.19,1.096633E-016,0.199999999999999));
#75=DIRECTION('',(0.0,0.0,1.0));
#76=DIRECTION('',(1.0,0.0,0.0));
#77=AXIS2_PLACEMENT_3D('',#74,#75,#76);
#78=CIRCLE('',#77,1.0);
#79=EDGE_CURVE('',#71,#73,#78,.T.);
#80=ORIENTED_EDGE('',*,*,#79,.F.);
#81=CARTESIAN_POINT('',(-3.990000000000001,-0.979795897113271,1.6));
#82=VERTEX_POINT('',#81);
#83=CARTESIAN_POINT('',(-3.990000000000001,-0.979795897113271,1.6));
#84=DIRECTION('',(0.0,0.0,-1.0));
#85=VECTOR('',#84,1.4);
#86=LINE('',#83,#85);
#87=EDGE_CURVE('',#82,#71,#86,.T.);
#88=ORIENTED_EDGE('',*,*,#87,.F.);
#89=CARTESIAN_POINT('',(-3.990000000000001,0.979795897113272,1.599999999999999));
#90=VERTEX_POINT('',#89);
#91=CARTESIAN_POINT('',(-4.19,2.811139E-016,1.599999999999999));
#92=DIRECTION('',(0.0,0.0,-1.0));
#93=DIRECTION('',(1.0,0.0,0.0));
#94=AXIS2_PLACEMENT_3D('',#91,#92,#93);
#95=CIRCLE('',#94,1.0);
#96=EDGE_CURVE('',#90,#82,#95,.T.);
#97=ORIENTED_EDGE('',*,*,#96,.F.);
#98=CARTESIAN_POINT('',(-3.990000000000001,0.979795897113271,0.199999999999999));
#99=DIRECTION('',(0.0,0.0,1.0));
#100=VECTOR('',#99,1.4);
#101=LINE('',#98,#100);
#102=EDGE_CURVE('',#73,#90,#101,.T.);
#103=ORIENTED_EDGE('',*,*,#102,.F.);
#104=EDGE_LOOP('',(#80,#88,#97,#103));
#105=FACE_OUTER_BOUND('',#104,.T.);
#106=ADVANCED_FACE('',(#105),#69,.F.);
#107=CARTESIAN_POINT('',(3.990000000000002,2.72,1.599999999999999));
#108=CARTESIAN_POINT('',(3.990000000000002,-2.720000000000001,1.6));
#109=CARTESIAN_POINT('',(-3.990000000000001,2.72,1.599999999999999));
#110=CARTESIAN_POINT('',(-3.990000000000001,-2.720000000000001,1.6));
#111=B_SPLINE_SURFACE_WITH_KNOTS('',1,1,((#107,#109),(#108,#110)),.UNSPECIFIED.,.F.,.F.,.U.,(2,2),(2,2),(0.0,5.440000000000001),(0.0,7.980000000000003),.UNSPECIFIED.);
#112=ORIENTED_EDGE('',*,*,#96,.T.);
#113=CARTESIAN_POINT('',(-3.990000000000001,-2.720000000000001,1.6));
#114=VERTEX_POINT('',#113);
#115=CARTESIAN_POINT('',(-3.990000000000001,-2.720000000000001,1.6));
#116=DIRECTION('',(0.0,1.0,0.0));
#117=VECTOR('',#116,1.74020410288673);
#118=LINE('',#115,#117);
#119=EDGE_CURVE('',#82,#114,#118,.F.);
#120=ORIENTED_EDGE('',*,*,#119,.T.);
#121=CARTESIAN_POINT('',(3.990000000000002,-2.720000000000001,1.6));
#122=VERTEX_POINT('',#121);
#123=CARTESIAN_POINT('',(3.990000000000002,-2.720000000000001,1.6));
#124=DIRECTION('',(-1.0,0.0,0.0));
#125=VECTOR('',#124,7.980000000000003);
#126=LINE('',#123,#125);
#127=EDGE_CURVE('',#114,#122,#126,.F.);
#128=ORIENTED_EDGE('',*,*,#127,.T.);
#129=CARTESIAN_POINT('',(3.990000000000002,-0.979795897113271,1.6));
#130=VERTEX_POINT('',#129);
#131=CARTESIAN_POINT('',(3.990000000000002,-0.979795897113271,1.599999999999999));
#132=DIRECTION('',(0.0,-1.0,0.0));
#133=VECTOR('',#132,1.74020410288673);
#134=LINE('',#131,#133);
#135=EDGE_CURVE('',#130,#122,#134,.T.);
#136=ORIENTED_EDGE('',*,*,#135,.F.);
#137=CARTESIAN_POINT('',(3.990000000000002,0.979795897113272,1.599999999999999));
#138=VERTEX_POINT('',#137);
#139=CARTESIAN_POINT('',(4.19,2.811139E-016,1.599999999999999));
#140=DIRECTION('',(0.0,0.0,-1.0));
#141=DIRECTION('',(-1.0,0.0,0.0));
#142=AXIS2_PLACEMENT_3D('',#139,#140,#141);
#143=CIRCLE('',#142,1.0);
#144=EDGE_CURVE('',#130,#138,#143,.T.);
#145=ORIENTED_EDGE('',*,*,#144,.T.);
#146=CARTESIAN_POINT('',(3.990000000000002,2.719999999999999,1.599999999999999));
#147=VERTEX_POINT('',#146);
#148=CARTESIAN_POINT('',(3.990000000000002,2.719999999999999,1.599999999999999));
#149=DIRECTION('',(0.0,-1.0,0.0));
#150=VECTOR('',#149,1.740204102886727);
#151=LINE('',#148,#150);
#152=EDGE_CURVE('',#147,#138,#151,.T.);
#153=ORIENTED_EDGE('',*,*,#152,.F.);
#154=CARTESIAN_POINT('',(-3.990000000000001,2.72,1.599999999999999));
#155=VERTEX_POINT('',#154);
#156=CARTESIAN_POINT('',(3.990000000000002,2.72,1.599999999999999));
#157=DIRECTION('',(-1.0,0.0,0.0));
#158=VECTOR('',#157,7.980000000000002);
#159=LINE('',#156,#158);
#160=EDGE_CURVE('',#147,#155,#159,.T.);
#161=ORIENTED_EDGE('',*,*,#160,.T.);
#162=CARTESIAN_POINT('',(-3.990000000000001,0.979795897113272,1.599999999999999));
#163=DIRECTION('',(0.0,1.0,0.0));
#164=VECTOR('',#163,1.740204102886729);
#165=LINE('',#162,#164);
#166=EDGE_CURVE('',#155,#90,#165,.F.);
#167=ORIENTED_EDGE('',*,*,#166,.T.);
#168=EDGE_LOOP('',(#112,#120,#128,#136,#145,#153,#161,#167));
#169=FACE_OUTER_BOUND('',#168,.T.);
#170=ADVANCED_FACE('',(#169),#111,.F.);
#171=CARTESIAN_POINT('',(-3.990000000000001,-0.979795897113271,1.6));
#172=CARTESIAN_POINT('',(-3.990000000000001,-2.720000000000001,1.6));
#173=CARTESIAN_POINT('',(-3.990000000000001,-0.979795897113271,0.199999999999999));
#174=CARTESIAN_POINT('',(-3.990000000000001,-2.720000000000001,0.2));
#175=B_SPLINE_SURFACE_WITH_KNOTS('',1,1,((#171,#173),(#172,#174)),.UNSPECIFIED.,.F.,.F.,.U.,(2,2),(2,2),(0.0,1.74020410288673),(0.0,1.400000000000001),.UNSPECIFIED.);
#176=ORIENTED_EDGE('',*,*,#87,.T.);
#177=CARTESIAN_POINT('',(-3.990000000000001,-2.720000000000001,0.2));
#178=VERTEX_POINT('',#177);
#179=CARTESIAN_POINT('',(-3.990000000000001,-0.979795897113271,0.2));
#180=DIRECTION('',(0.0,-1.0,0.0));
#181=VECTOR('',#180,1.740204102886729);
#182=LINE('',#179,#181);
#183=EDGE_CURVE('',#71,#178,#182,.T.);
#184=ORIENTED_EDGE('',*,*,#183,.T.);
#185=CARTESIAN_POINT('',(-3.990000000000001,-2.720000000000001,1.6));
#186=DIRECTION('',(0.0,0.0,-1.0));
#187=VECTOR('',#186,1.4);
#188=LINE('',#185,#187);
#189=EDGE_CURVE('',#178,#114,#188,.F.);
#190=ORIENTED_EDGE('',*,*,#189,.T.);
#191=ORIENTED_EDGE('',*,*,#119,.F.);
#192=EDGE_LOOP('',(#176,#184,#190,#191));
#193=FACE_OUTER_BOUND('',#192,.T.);
#194=ADVANCED_FACE('',(#193),#175,.F.);
#195=CARTESIAN_POINT('',(5.19,4.035786E-016,1.6));
#196=CARTESIAN_POINT('',(5.19,2.321280E-016,0.199999999999999));
#197=CARTESIAN_POINT('',(5.19,1.0,1.6));
#198=CARTESIAN_POINT('',(5.19,1.0,0.199999999999999));
#199=CARTESIAN_POINT('',(4.19,1.0,1.6));
#200=CARTESIAN_POINT('',(4.19,1.0,0.199999999999999));
#201=CARTESIAN_POINT('',(3.190000000000001,1.0,1.6));
#202=CARTESIAN_POINT('',(3.190000000000001,1.0,0.199999999999999));
#203=CARTESIAN_POINT('',(3.19,1.586492E-016,1.6));
#204=CARTESIAN_POINT('',(3.19,-1.280134E-017,0.199999999999999));
#205=CARTESIAN_POINT('',(3.190000000000001,-1.0,1.6));
#206=CARTESIAN_POINT('',(3.190000000000001,-1.0,0.199999999999999));
#207=CARTESIAN_POINT('',(4.19,-1.0,1.6));
#208=CARTESIAN_POINT('',(4.19,-1.0,0.199999999999999));
#209=CARTESIAN_POINT('',(5.19,-0.999999999999999,1.6));
#210=CARTESIAN_POINT('',(5.19,-1.0,0.199999999999999));
#211=CARTESIAN_POINT('',(5.19,4.035786E-016,1.6));
#212=CARTESIAN_POINT('',(5.19,2.321280E-016,0.199999999999999));
#220=(BOUNDED_SURFACE()B_SPLINE_SURFACE(1,2,((#195,#197,#199,#201,#203,#205,#207,#209,#211),(#196,#198,#200,#202,#204,#206,#208,#210,#212)),.UNSPECIFIED.,.F.,.T.,.U.)B_SPLINE_SURFACE_WITH_KNOTS((2,2),(3,2,2,2,3),(-1.395469127879375,0.004530872120626),(0.0,1.570796326794897,3.141592653589793,4.71238898038469,6.283185307179586),.UNSPECIFIED.)GEOMETRIC_REPRESENTATION_ITEM()RATIONAL_B_SPLINE_SURFACE(((1.0,0.707106781186548,1.0,0.707106781186548,1.0,0.707106781186548,1.0,0.707106781186548,1.0),(1.0,0.707106781186548,1.0,0.707106781186548,1.0,0.707106781186548,1.0,0.707106781186548,1.0)))REPRESENTATION_ITEM('')SURFACE());
#221=ORIENTED_EDGE('',*,*,#144,.F.);
#222=CARTESIAN_POINT('',(3.990000000000002,-0.979795897113271,0.2));
#223=VERTEX_POINT('',#222);
#224=CARTESIAN_POINT('',(3.990000000000002,-0.979795897113271,0.2));
#225=DIRECTION('',(0.0,0.0,1.0));
#226=VECTOR('',#225,1.4);
#227=LINE('',#224,#226);
#228=EDGE_CURVE('',#223,#130,#227,.T.);
#229=ORIENTED_EDGE('',*,*,#228,.F.);
#230=CARTESIAN_POINT('',(3.990000000000002,0.979795897113272,0.199999999999999));
#231=VERTEX_POINT('',#230);
#232=CARTESIAN_POINT('',(4.19,1.096633E-016,0.199999999999999));
#233=DIRECTION('',(0.0,0.0,1.0));
#234=DIRECTION('',(-1.0,0.0,0.0));
#235=AXIS2_PLACEMENT_3D('',#232,#233,#234);
#236=CIRCLE('',#235,1.0);
#237=EDGE_CURVE('',#231,#223,#236,.T.);
#238=ORIENTED_EDGE('',*,*,#237,.F.);
#239=CARTESIAN_POINT('',(3.990000000000002,0.979795897113272,1.599999999999999));
#240=DIRECTION('',(0.0,0.0,-1.0));
#241=VECTOR('',#240,1.4);
#242=LINE('',#239,#241);
#243=EDGE_CURVE('',#138,#231,#242,.T.);
#244=ORIENTED_EDGE('',*,*,#243,.F.);
#245=EDGE_LOOP('',(#221,#229,#238,#244));
#246=FACE_OUTER_BOUND('',#245,.T.);
#247=ADVANCED_FACE('',(#246),#220,.F.);
#248=CARTESIAN_POINT('',(3.990000000000002,-2.720000000000001,0.2));
#249=CARTESIAN_POINT('',(3.990000000000002,2.72,0.199999999999999));
#250=CARTESIAN_POINT('',(-3.990000000000001,-2.720000000000001,0.2));
#251=CARTESIAN_POINT('',(-3.990000000000001,2.72,0.199999999999999));
#252=B_SPLINE_SURFACE_WITH_KNOTS('',1,1,((#248,#250),(#249,#251)),.UNSPECIFIED.,.F.,.F.,.U.,(2,2),(2,2),(0.0,5.440000000000001),(0.0,7.980000000000003),.UNSPECIFIED.);
#253=ORIENTED_EDGE('',*,*,#79,.T.);
#254=CARTESIAN_POINT('',(-3.990000000000001,2.72,0.199999999999999));
#255=VERTEX_POINT('',#254);
#256=CARTESIAN_POINT('',(-3.990000000000001,2.72,0.199999999999999));
#257=DIRECTION('',(0.0,-1.0,0.0));
#258=VECTOR('',#257,1.740204102886728);
#259=LINE('',#256,#258);
#260=EDGE_CURVE('',#255,#73,#259,.T.);
#261=ORIENTED_EDGE('',*,*,#260,.F.);
#262=CARTESIAN_POINT('',(3.990000000000002,2.719999999999999,0.199999999999999));
#263=VERTEX_POINT('',#262);
#264=CARTESIAN_POINT('',(-3.990000000000001,2.72,0.199999999999999));
#265=DIRECTION('',(1.0,0.0,0.0));
#266=VECTOR('',#265,7.980000000000002);
#267=LINE('',#264,#266);
#268=EDGE_CURVE('',#255,#263,#267,.T.);
#269=ORIENTED_EDGE('',*,*,#268,.T.);
#270=CARTESIAN_POINT('',(3.990000000000002,2.719999999999999,0.199999999999999));
#271=DIRECTION('',(0.0,-1.0,0.0));
#272=VECTOR('',#271,1.740204102886727);
#273=LINE('',#270,#272);
#274=EDGE_CURVE('',#263,#231,#273,.T.);
#275=ORIENTED_EDGE('',*,*,#274,.T.);
#276=ORIENTED_EDGE('',*,*,#237,.T.);
#277=CARTESIAN_POINT('',(3.990000000000002,-2.720000000000001,0.2));
#278=VERTEX_POINT('',#277);
#279=CARTESIAN_POINT('',(3.990000000000002,-0.979795897113271,0.2));
#280=DIRECTION('',(0.0,-1.0,0.0));
#281=VECTOR('',#280,1.74020410288673);
#282=LINE('',#279,#281);
#283=EDGE_CURVE('',#223,#278,#282,.T.);
#284=ORIENTED_EDGE('',*,*,#283,.T.);
#285=CARTESIAN_POINT('',(-3.990000000000001,-2.720000000000001,0.2));
#286=DIRECTION('',(1.0,0.0,0.0));
#287=VECTOR('',#286,7.980000000000003);
#288=LINE('',#285,#287);
#289=EDGE_CURVE('',#278,#178,#288,.F.);
#290=ORIENTED_EDGE('',*,*,#289,.T.);
#291=ORIENTED_EDGE('',*,*,#183,.F.);
#292=EDGE_LOOP('',(#253,#261,#269,#275,#276,#284,#290,#291));
#293=FACE_OUTER_BOUND('',#292,.T.);
#294=ADVANCED_FACE('',(#293),#252,.F.);
#295=CARTESIAN_POINT('',(3.990000000000002,-2.720000000000002,1.6));
#296=CARTESIAN_POINT('',(3.990000000000002,-0.979795897113271,1.6));
#297=CARTESIAN_POINT('',(3.990000000000002,-2.720000000000002,0.2));
#298=CARTESIAN_POINT('',(3.990000000000002,-0.979795897113272,0.199999999999999));
#299=B_SPLINE_SURFACE_WITH_KNOTS('',1,1,((#295,#297),(#296,#298)),.UNSPECIFIED.,.F.,.F.,.U.,(2,2),(2,2),(0.0,1.74020410288673),(0.0,1.400000000000001),.UNSPECIFIED.);
#300=ORIENTED_EDGE('',*,*,#228,.T.);
#301=ORIENTED_EDGE('',*,*,#135,.T.);
#302=CARTESIAN_POINT('',(3.990000000000002,-2.720000000000001,0.2));
#303=DIRECTION('',(0.0,0.0,1.0));
#304=VECTOR('',#303,1.4);
#305=LINE('',#302,#304);
#306=EDGE_CURVE('',#122,#278,#305,.F.);
#307=ORIENTED_EDGE('',*,*,#306,.T.);
#308=ORIENTED_EDGE('',*,*,#283,.F.);
#309=EDGE_LOOP('',(#300,#301,#307,#308));
#310=FACE_OUTER_BOUND('',#309,.T.);
#311=ADVANCED_FACE('',(#310),#299,.F.);
#312=CARTESIAN_POINT('',(-3.990000000000001,2.72,1.599999999999999));
#313=CARTESIAN_POINT('',(3.990000000000002,2.72,1.599999999999999));
#314=CARTESIAN_POINT('',(-3.990000000000001,2.719999999999999,0.199999999999999));
#315=CARTESIAN_POINT('',(3.990000000000002,2.72,0.199999999999999));
#316=B_SPLINE_SURFACE_WITH_KNOTS('',1,1,((#312,#314),(#313,#315)),.UNSPECIFIED.,.F.,.F.,.U.,(2,2),(2,2),(0.0,7.980000000000002),(0.0,1.4),.UNSPECIFIED.);
#317=CARTESIAN_POINT('',(3.990000000000002,2.719999999999999,0.199999999999999));
#318=DIRECTION('',(0.0,0.0,1.0));
#319=VECTOR('',#318,1.4);
#320=LINE('',#317,#319);
#321=EDGE_CURVE('',#263,#147,#320,.T.);
#322=ORIENTED_EDGE('',*,*,#321,.F.);
#323=ORIENTED_EDGE('',*,*,#268,.F.);
#324=CARTESIAN_POINT('',(-3.990000000000001,2.72,1.599999999999999));
#325=DIRECTION('',(0.0,0.0,-1.0));
#326=VECTOR('',#325,1.4);
#327=LINE('',#324,#326);
#328=EDGE_CURVE('',#155,#255,#327,.T.);
#329=ORIENTED_EDGE('',*,*,#328,.F.);
#330=ORIENTED_EDGE('',*,*,#160,.F.);
#331=EDGE_LOOP('',(#322,#323,#329,#330));
#332=FACE_OUTER_BOUND('',#331,.T.);
#333=ADVANCED_FACE('',(#332),#316,.T.);
#334=CARTESIAN_POINT('',(-3.990000000000001,-2.720000000000001,1.6));
#335=CARTESIAN_POINT('',(3.990000000000002,-2.720000000000001,1.6));
#336=CARTESIAN_POINT('',(-3.990000000000001,-2.720000000000001,0.2));
#337=CARTESIAN_POINT('',(3.990000000000002,-2.720000000000001,0.2));
#338=B_SPLINE_SURFACE_WITH_KNOTS('',1,1,((#334,#336),(#335,#337)),.UNSPECIFIED.,.F.,.F.,.U.,(2,2),(2,2),(0.0,7.980000000000003),(0.0,1.4),.UNSPECIFIED.);
#339=ORIENTED_EDGE('',*,*,#306,.F.);
#340=ORIENTED_EDGE('',*,*,#127,.F.);
#341=ORIENTED_EDGE('',*,*,#189,.F.);
#342=ORIENTED_EDGE('',*,*,#289,.F.);
#343=EDGE_LOOP('',(#339,#340,#341,#342));
#344=FACE_OUTER_BOUND('',#343,.T.);
#345=ADVANCED_FACE('',(#344),#338,.F.);
#346=CARTESIAN_POINT('',(-3.990000000000001,2.72,1.599999999999999));
#347=CARTESIAN_POINT('',(-3.990000000000001,0.979795897113271,1.6));
#348=CARTESIAN_POINT('',(-3.990000000000001,2.72,0.199999999999999));
#349=CARTESIAN_POINT('',(-3.990000000000001,0.979795897113271,0.199999999999999));
#350=B_SPLINE_SURFACE_WITH_KNOTS('',1,1,((#346,#348),(#347,#349)),.UNSPECIFIED.,.F.,.F.,.U.,(2,2),(2,2),(0.0,1.740204102886729),(0.0,1.400000000000001),.UNSPECIFIED.);
#351=ORIENTED_EDGE('',*,*,#102,.T.);
#352=ORIENTED_EDGE('',*,*,#166,.F.);
#353=ORIENTED_EDGE('',*,*,#328,.T.);
#354=ORIENTED_EDGE('',*,*,#260,.T.);
#355=EDGE_LOOP('',(#351,#352,#353,#354));
#356=FACE_OUTER_BOUND('',#355,.T.);
#357=ADVANCED_FACE('',(#356),#350,.F.);
#358=CARTESIAN_POINT('',(3.990000000000002,0.979795897113272,1.599999999999999));
#359=CARTESIAN_POINT('',(3.990000000000002,2.72,1.599999999999999));
#360=CARTESIAN_POINT('',(3.990000000000002,0.979795897113271,0.199999999999999));
#361=CARTESIAN_POINT('',(3.990000000000002,2.72,0.199999999999998));
#362=B_SPLINE_SURFACE_WITH_KNOTS('',1,1,((#358,#360),(#359,#361)),.UNSPECIFIED.,.F.,.F.,.U.,(2,2),(2,2),(0.0,1.740204102886728),(0.0,1.400000000000001),.UNSPECIFIED.);
#363=ORIENTED_EDGE('',*,*,#243,.T.);
#364=ORIENTED_EDGE('',*,*,#274,.F.);
#365=ORIENTED_EDGE('',*,*,#321,.T.);
#366=ORIENTED_EDGE('',*,*,#152,.T.);
#367=EDGE_LOOP('',(#363,#364,#365,#366));
#368=FACE_OUTER_BOUND('',#367,.T.);
#369=ADVANCED_FACE('',(#368),#362,.F.);
#370=CLOSED_SHELL('',(#106,#170,#194,#247,#294,#311,#333,#345,#357,#369));
#371=MANIFOLD_SOLID_BREP('2CAE',#370);
#372=COLOUR_RGB('250',0.33,0.33,0.33);
#373=SURFACE_STYLE_USAGE(.BOTH.,#374);
#374=SURFACE_SIDE_STYLE('NONE',(#375));
#375=SURFACE_STYLE_FILL_AREA(#376);
#376=FILL_AREA_STYLE('NONE',(#377));
#377=FILL_AREA_STYLE_COLOUR('NONE',#372);
#378=PRESENTATION_STYLE_ASSIGNMENT((#373));
#379=STYLED_ITEM('NONE',(#378),#371);
#380=MECHANICAL_DESIGN_GEOMETRIC_PRESENTATION_REPRESENTATION('NONE',(#379,#585,#825,#1065,#1220,#1439,#1658),#28);
#381=PRESENTATION_LAYER_ASSIGNMENT('3D','None',(#371,#577,#824,#1064,#1219,#1438,#1657));
#382=CARTESIAN_POINT('',(3.990000000000002,4.440892E-016,0.9));
#383=DIRECTION('',(1.0,0.0,0.0));
#384=DIRECTION('',(0.0,0.0,1.0));
#385=AXIS2_PLACEMENT_3D('',#382,#383,#384);
#386=PLANE('',#385);
#387=CARTESIAN_POINT('',(3.990000000000002,0.774596669241483,1.8));
#388=VERTEX_POINT('',#387);
#389=CARTESIAN_POINT('',(3.990000000000002,0.774596669241483,0.0));
#390=VERTEX_POINT('',#389);
#391=CARTESIAN_POINT('',(3.990000000000002,0.774596669241483,1.8));
#392=DIRECTION('',(0.0,0.0,-1.0));
#393=VECTOR('',#392,1.8);
#394=LINE('',#391,#393);
#395=EDGE_CURVE('',#388,#390,#394,.T.);
#396=ORIENTED_EDGE('',*,*,#395,.T.);
#397=CARTESIAN_POINT('',(3.990000000000002,0.979795897113271,0.0));
#398=VERTEX_POINT('',#397);
#399=CARTESIAN_POINT('',(3.990000000000002,0.774596669241483,-9.486073E-017));
#400=DIRECTION('',(0.0,1.0,0.0));
#401=VECTOR('',#400,0.205199227871788);
#402=LINE('',#399,#401);
#403=EDGE_CURVE('',#390,#398,#402,.T.);
#404=ORIENTED_EDGE('',*,*,#403,.T.);
#405=CARTESIAN_POINT('',(3.990000000000002,0.979795897113271,1.8));
#406=VERTEX_POINT('',#405);
#407=CARTESIAN_POINT('',(3.990000000000002,0.979795897113271,0.0));
#408=DIRECTION('',(0.0,0.0,1.0));
#409=VECTOR('',#408,1.8);
#410=LINE('',#407,#409);
#411=EDGE_CURVE('',#398,#406,#410,.T.);
#412=ORIENTED_EDGE('',*,*,#411,.T.);
#413=CARTESIAN_POINT('',(3.990000000000002,0.979795897113271,1.8));
#414=DIRECTION('',(0.0,-1.0,0.0));
#415=VECTOR('',#414,0.205199227871788);
#416=LINE('',#413,#415);
#417=EDGE_CURVE('',#406,#388,#416,.T.);
#418=ORIENTED_EDGE('',*,*,#417,.T.);
#419=EDGE_LOOP('',(#396,#404,#412,#418));
#420=FACE_OUTER_BOUND('',#419,.T.);
#421=ADVANCED_FACE('',(#420),#386,.T.);
#422=CARTESIAN_POINT('',(3.990000000000002,4.440892E-016,0.9));
#423=DIRECTION('',(1.0,0.0,0.0));
#424=DIRECTION('',(0.0,0.0,1.0));
#425=AXIS2_PLACEMENT_3D('',#422,#423,#424);
#426=PLANE('',#425);
#427=CARTESIAN_POINT('',(3.990000000000002,-0.774596669241483,1.110223E-016));
#428=VERTEX_POINT('',#427);
#429=CARTESIAN_POINT('',(3.990000000000002,-0.774596669241483,1.8));
#430=VERTEX_POINT('',#429);
#431=CARTESIAN_POINT('',(3.990000000000002,-0.774596669241483,1.110223E-016));
#432=DIRECTION('',(0.0,0.0,1.0));
#433=VECTOR('',#432,1.8);
#434=LINE('',#431,#433);
#435=EDGE_CURVE('',#428,#430,#434,.T.);
#436=ORIENTED_EDGE('',*,*,#435,.T.);
#437=CARTESIAN_POINT('',(3.990000000000002,-0.979795897113271,1.8));
#438=VERTEX_POINT('',#437);
#439=CARTESIAN_POINT('',(3.990000000000002,-0.774596669241483,1.8));
#440=DIRECTION('',(0.0,-1.0,0.0));
#441=VECTOR('',#440,0.205199227871788);
#442=LINE('',#439,#441);
#443=EDGE_CURVE('',#430,#438,#442,.T.);
#444=ORIENTED_EDGE('',*,*,#443,.T.);
#445=CARTESIAN_POINT('',(3.990000000000002,-0.979795897113271,0.0));
#446=VERTEX_POINT('',#445);
#447=CARTESIAN_POINT('',(3.990000000000002,-0.979795897113271,1.8));
#448=DIRECTION('',(0.0,0.0,-1.0));
#449=VECTOR('',#448,1.8);
#450=LINE('',#447,#449);
#451=EDGE_CURVE('',#438,#446,#450,.T.);
#452=ORIENTED_EDGE('',*,*,#451,.T.);
#453=CARTESIAN_POINT('',(3.990000000000002,-0.979795897113271,1.199904E-016));
#454=DIRECTION('',(0.0,1.0,0.0));
#455=VECTOR('',#454,0.205199227871788);
#456=LINE('',#453,#455);
#457=EDGE_CURVE('',#446,#428,#456,.T.);
#458=ORIENTED_EDGE('',*,*,#457,.T.);
#459=EDGE_LOOP('',(#436,#444,#452,#458));
#460=FACE_OUTER_BOUND('',#459,.T.);
#461=ADVANCED_FACE('',(#460),#426,.T.);
#462=CARTESIAN_POINT('',(3.190000000000003,-0.979795897113271,1.8));
#463=CARTESIAN_POINT('',(3.990000000000002,-0.979795897113271,1.8));
#464=CARTESIAN_POINT('',(3.190000000000003,0.979795897113271,1.8));
#465=CARTESIAN_POINT('',(3.990000000000002,0.979795897113271,1.8));
#466=B_SPLINE_SURFACE_WITH_KNOTS('',1,1,((#462,#464),(#463,#465)),.UNSPECIFIED.,.F.,.F.,.U.,(2,2),(2,2),(0.0,0.799999999999999),(0.0,1.959591794226542),.UNSPECIFIED.);
#467=ORIENTED_EDGE('',*,*,#443,.F.);
#468=CARTESIAN_POINT('',(4.190000000000003,2.204364E-016,1.8));
#469=DIRECTION('',(0.0,0.0,1.0));
#470=DIRECTION('',(-1.0,0.0,0.0));
#471=AXIS2_PLACEMENT_3D('',#468,#469,#470);
#472=CIRCLE('',#471,0.8);
#473=EDGE_CURVE('',#388,#430,#472,.T.);
#474=ORIENTED_EDGE('',*,*,#473,.F.);
#475=ORIENTED_EDGE('',*,*,#417,.F.);
#476=CARTESIAN_POINT('',(4.190000000000003,1.102182E-016,1.8));
#477=DIRECTION('',(0.0,0.0,-1.0));
#478=DIRECTION('',(-1.0,0.0,0.0));
#479=AXIS2_PLACEMENT_3D('',#476,#477,#478);
#480=CIRCLE('',#479,1.0);
#481=EDGE_CURVE('',#438,#406,#480,.T.);
#482=ORIENTED_EDGE('',*,*,#481,.F.);
#483=EDGE_LOOP('',(#467,#474,#475,#482));
#484=FACE_OUTER_BOUND('',#483,.T.);
#485=ADVANCED_FACE('',(#484),#466,.T.);
#486=CARTESIAN_POINT('',(4.990000000000003,3.184082E-016,1.8));
#487=CARTESIAN_POINT('',(4.990000000000003,9.797174E-017,-2.220446E-016));
#488=CARTESIAN_POINT('',(4.990000000000003,0.8,1.800000000000001));
#489=CARTESIAN_POINT('',(4.990000000000003,0.8,-3.200163E-016));
#490=CARTESIAN_POINT('',(4.190000000000003,0.8,1.8));
#491=CARTESIAN_POINT('',(4.190000000000003,0.8,-3.200163E-016));
#492=CARTESIAN_POINT('',(3.390000000000003,0.8,1.800000000000001));
#493=CARTESIAN_POINT('',(3.390000000000003,0.799999999999999,-3.200163E-016));
#494=CARTESIAN_POINT('',(3.390000000000003,1.224647E-016,1.8));
#495=CARTESIAN_POINT('',(3.390000000000003,-9.797174E-017,-2.220446E-016));
#496=CARTESIAN_POINT('',(3.390000000000003,-0.799999999999999,1.800000000000001));
#497=CARTESIAN_POINT('',(3.390000000000003,-0.8,-1.240729E-016));
#498=CARTESIAN_POINT('',(4.190000000000003,-0.8,1.8));
#499=CARTESIAN_POINT('',(4.190000000000003,-0.8,-1.240729E-016));
#500=CARTESIAN_POINT('',(4.990000000000003,-0.799999999999999,1.800000000000001));
#501=CARTESIAN_POINT('',(4.990000000000003,-0.799999999999999,-1.240729E-016));
#502=CARTESIAN_POINT('',(4.990000000000003,3.184082E-016,1.8));
#503=CARTESIAN_POINT('',(4.990000000000003,9.797174E-017,-2.220446E-016));
#511=(BOUNDED_SURFACE()B_SPLINE_SURFACE(1,2,((#486,#488,#490,#492,#494,#496,#498,#500,#502),(#487,#489,#491,#493,#495,#497,#499,#501,#503)),.UNSPECIFIED.,.F.,.T.,.U.)B_SPLINE_SURFACE_WITH_KNOTS((2,2),(3,2,2,2,3),(-1.125,1.125),(0.0,1.256637061435917,2.513274122871835,3.769911184307752,5.026548245743669),.UNSPECIFIED.)GEOMETRIC_REPRESENTATION_ITEM()RATIONAL_B_SPLINE_SURFACE(((1.0,0.707106781186548,1.0,0.707106781186548,1.0,0.707106781186548,1.0,0.707106781186548,1.0),(1.0,0.707106781186548,1.0,0.707106781186548,1.0,0.707106781186548,1.0,0.707106781186548,1.0)))REPRESENTATION_ITEM('')SURFACE());
#512=ORIENTED_EDGE('',*,*,#435,.F.);
#513=CARTESIAN_POINT('',(4.190000000000003,0.0,0.0));
#514=DIRECTION('',(0.0,0.0,-1.0));
#515=DIRECTION('',(-1.0,0.0,0.0));
#516=AXIS2_PLACEMENT_3D('',#513,#514,#515);
#517=CIRCLE('',#516,0.8);
#518=EDGE_CURVE('',#428,#390,#517,.T.);
#519=ORIENTED_EDGE('',*,*,#518,.T.);
#520=ORIENTED_EDGE('',*,*,#395,.F.);
#521=ORIENTED_EDGE('',*,*,#473,.T.);
#522=EDGE_LOOP('',(#512,#519,#520,#521));
#523=FACE_OUTER_BOUND('',#522,.T.);
#524=ADVANCED_FACE('',(#523),#511,.F.);
#525=CARTESIAN_POINT('',(5.190000000000003,2.326829E-016,1.800000000000001));
#526=CARTESIAN_POINT('',(5.190000000000003,1.224647E-017,-2.220446E-016));
#527=CARTESIAN_POINT('',(5.190000000000003,1.0,1.800000000000001));
#528=CARTESIAN_POINT('',(5.190000000000003,1.0,-3.445093E-016));
#529=CARTESIAN_POINT('',(4.190000000000003,1.0,1.8));
#530=CARTESIAN_POINT('',(4.190000000000003,1.0,-3.445093E-016));
#531=CARTESIAN_POINT('',(3.190000000000003,1.0,1.800000000000001));
#532=CARTESIAN_POINT('',(3.190000000000003,1.0,-3.445093E-016));
#533=CARTESIAN_POINT('',(3.190000000000003,-1.224647E-017,1.800000000000001));
#534=CARTESIAN_POINT('',(3.190000000000003,-2.326829E-016,-2.220446E-016));
#535=CARTESIAN_POINT('',(3.190000000000003,-1.0,1.800000000000001));
#536=CARTESIAN_POINT('',(3.190000000000003,-1.0,-9.957993E-017));
#537=CARTESIAN_POINT('',(4.190000000000003,-1.0,1.800000000000001));
#538=CARTESIAN_POINT('',(4.190000000000003,-1.0,-9.957993E-017));
#539=CARTESIAN_POINT('',(5.190000000000003,-1.0,1.800000000000001));
#540=CARTESIAN_POINT('',(5.190000000000003,-1.0,-9.957993E-017));
#541=CARTESIAN_POINT('',(5.190000000000003,2.326829E-016,1.800000000000001));
#542=CARTESIAN_POINT('',(5.190000000000003,1.224647E-017,-2.220446E-016));
#550=(BOUNDED_SURFACE()B_SPLINE_SURFACE(1,2,((#525,#527,#529,#531,#533,#535,#537,#539,#541),(#526,#528,#530,#532,#534,#536,#538,#540,#542)),.UNSPECIFIED.,.F.,.T.,.U.)B_SPLINE_SURFACE_WITH_KNOTS((2,2),(3,2,2,2,3),(-0.9,0.9),(0.0,1.570796326794897,3.141592653589793,4.71238898038469,6.283185307179586),.UNSPECIFIED.)GEOMETRIC_REPRESENTATION_ITEM()RATIONAL_B_SPLINE_SURFACE(((1.0,0.707106781186548,1.0,0.707106781186548,1.0,0.707106781186548,1.0,0.707106781186548,1.0),(1.0,0.707106781186548,1.0,0.707106781186548,1.0,0.707106781186548,1.0,0.707106781186548,1.0)))REPRESENTATION_ITEM('')SURFACE());
#551=ORIENTED_EDGE('',*,*,#451,.F.);
#552=ORIENTED_EDGE('',*,*,#481,.T.);
#553=ORIENTED_EDGE('',*,*,#411,.F.);
#554=CARTESIAN_POINT('',(4.190000000000003,-1.102182E-016,0.0));
#555=DIRECTION('',(0.0,0.0,1.0));
#556=DIRECTION('',(-1.0,0.0,0.0));
#557=AXIS2_PLACEMENT_3D('',#554,#555,#556);
#558=CIRCLE('',#557,1.0);
#559=EDGE_CURVE('',#398,#446,#558,.T.);
#560=ORIENTED_EDGE('',*,*,#559,.T.);
#561=EDGE_LOOP('',(#551,#552,#553,#560));
#562=FACE_OUTER_BOUND('',#561,.T.);
#563=ADVANCED_FACE('',(#562),#550,.T.);
#564=CARTESIAN_POINT('',(3.990000000000002,-0.979795897113271,1.199904E-016));
#565=CARTESIAN_POINT('',(3.190000000000003,-0.979795897113271,1.199904E-016));
#566=CARTESIAN_POINT('',(3.990000000000002,0.979795897113271,-1.199904E-016));
#567=CARTESIAN_POINT('',(3.190000000000003,0.979795897113271,-1.199904E-016));
#568=B_SPLINE_SURFACE_WITH_KNOTS('',1,1,((#564,#566),(#565,#567)),.UNSPECIFIED.,.F.,.F.,.U.,(2,2),(2,2),(0.0,0.799999999999999),(0.0,1.959591794226542),.UNSPECIFIED.);
#569=ORIENTED_EDGE('',*,*,#457,.F.);
#570=ORIENTED_EDGE('',*,*,#559,.F.);
#571=ORIENTED_EDGE('',*,*,#403,.F.);
#572=ORIENTED_EDGE('',*,*,#518,.F.);
#573=EDGE_LOOP('',(#569,#570,#571,#572));
#574=FACE_OUTER_BOUND('',#573,.T.);
#575=ADVANCED_FACE('',(#574),#568,.T.);
#576=CLOSED_SHELL('',(#421,#461,#485,#524,#563,#575));
#577=MANIFOLD_SOLID_BREP('2CA6',#576);
#578=COLOUR_RGB('254',0.866,0.866,0.866);
#579=SURFACE_STYLE_USAGE(.BOTH.,#580);
#580=SURFACE_SIDE_STYLE('NONE',(#581));
#581=SURFACE_STYLE_FILL_AREA(#582);
#582=FILL_AREA_STYLE('NONE',(#583));
#583=FILL_AREA_STYLE_COLOUR('NONE',#578);
#584=PRESENTATION_STYLE_ASSIGNMENT((#579));
#585=STYLED_ITEM('NONE',(#584),#577);
#586=CARTESIAN_POINT('',(3.990000000000002,2.720000000000001,-6.938894E-017));
#587=CARTESIAN_POINT('',(3.990000000000002,2.720000000000001,0.2));
#588=CARTESIAN_POINT('',(2.340000000000002,2.720000000000001,-6.938894E-017));
#589=CARTESIAN_POINT('',(2.340000000000002,2.720000000000001,0.2));
#590=B_SPLINE_SURFACE_WITH_KNOTS('',1,1,((#586,#588),(#587,#589)),.UNSPECIFIED.,.F.,.F.,.U.,(2,2),(2,2),(0.0,0.2),(0.0,1.65),.UNSPECIFIED.);
#591=CARTESIAN_POINT('',(2.340000000000002,2.720000000000001,0.2));
#592=VERTEX_POINT('',#591);
#593=CARTESIAN_POINT('',(3.990000000000002,2.719999999999999,0.199999999999999));
#594=VERTEX_POINT('',#593);
#595=CARTESIAN_POINT('',(2.340000000000002,2.720000000000001,0.2));
#596=DIRECTION('',(1.0,0.0,0.0));
#597=VECTOR('',#596,1.65);
#598=LINE('',#595,#597);
#599=EDGE_CURVE('',#592,#594,#598,.T.);
#600=ORIENTED_EDGE('',*,*,#599,.T.);
#601=CARTESIAN_POINT('',(3.990000000000002,2.720000000000001,0.0));
#602=VERTEX_POINT('',#601);
#603=CARTESIAN_POINT('',(3.990000000000002,2.720000000000001,-6.938894E-017));
#604=DIRECTION('',(0.0,0.0,1.0));
#605=VECTOR('',#604,0.199999999999999);
#606=LINE('',#603,#605);
#607=EDGE_CURVE('',#602,#594,#606,.T.);
#608=ORIENTED_EDGE('',*,*,#607,.F.);
#609=CARTESIAN_POINT('',(2.340000000000002,2.720000000000001,5.551115E-017));
#610=VERTEX_POINT('',#609);
#611=CARTESIAN_POINT('',(3.990000000000002,2.720000000000001,0.0));
#612=DIRECTION('',(-1.0,0.0,0.0));
#613=VECTOR('',#612,1.65);
#614=LINE('',#611,#613);
#615=EDGE_CURVE('',#602,#610,#614,.T.);
#616=ORIENTED_EDGE('',*,*,#615,.T.);
#617=CARTESIAN_POINT('',(2.340000000000002,2.720000000000001,1.110223E-016));
#618=DIRECTION('',(0.0,0.0,1.0));
#619=VECTOR('',#618,0.2);
#620=LINE('',#617,#619);
#621=EDGE_CURVE('',#610,#592,#620,.T.);
#622=ORIENTED_EDGE('',*,*,#621,.T.);
#623=EDGE_LOOP('',(#600,#608,#616,#622));
#624=FACE_OUTER_BOUND('',#623,.T.);
#625=ADVANCED_FACE('',(#624),#590,.F.);
#626=CARTESIAN_POINT('',(3.990000000000002,2.720000000000001,0.199999999999999));
#627=CARTESIAN_POINT('',(3.990000000000002,2.720000000000001,-5.551115E-017));
#628=CARTESIAN_POINT('',(3.990000000000002,0.979795897113271,0.199999999999999));
#629=CARTESIAN_POINT('',(3.990000000000002,0.979795897113271,-5.551115E-017));
#630=B_SPLINE_SURFACE_WITH_KNOTS('',1,1,((#626,#628),(#627,#629)),.UNSPECIFIED.,.F.,.F.,.U.,(2,2),(2,2),(0.0,0.199999999999999),(0.0,1.74020410288673),.UNSPECIFIED.);
#631=CARTESIAN_POINT('',(3.990000000000002,0.979795897113271,0.199999999999999));
#632=VERTEX_POINT('',#631);
#633=CARTESIAN_POINT('',(3.990000000000002,2.719999999999999,0.199999999999999));
#634=DIRECTION('',(0.0,-1.0,0.0));
#635=VECTOR('',#634,1.740204102886728);
#636=LINE('',#633,#635);
#637=EDGE_CURVE('',#594,#632,#636,.T.);
#638=ORIENTED_EDGE('',*,*,#637,.T.);
#639=CARTESIAN_POINT('',(3.990000000000002,0.979795897113271,0.0));
#640=VERTEX_POINT('',#639);
#641=CARTESIAN_POINT('',(3.990000000000002,0.979795897113271,0.0));
#642=DIRECTION('',(0.0,0.0,1.0));
#643=VECTOR('',#642,0.199999999999999);
#644=LINE('',#641,#643);
#645=EDGE_CURVE('',#640,#632,#644,.T.);
#646=ORIENTED_EDGE('',*,*,#645,.F.);
#647=CARTESIAN_POINT('',(3.990000000000002,0.979795897113271,0.0));
#648=DIRECTION('',(0.0,1.0,0.0));
#649=VECTOR('',#648,1.74020410288673);
#650=LINE('',#647,#649);
#651=EDGE_CURVE('',#640,#602,#650,.T.);
#652=ORIENTED_EDGE('',*,*,#651,.T.);
#653=ORIENTED_EDGE('',*,*,#607,.T.);
#654=EDGE_LOOP('',(#638,#646,#652,#653));
#655=FACE_OUTER_BOUND('',#654,.T.);
#656=ADVANCED_FACE('',(#655),#630,.F.);
#657=CARTESIAN_POINT('',(5.190000000000002,3.673940E-017,0.2));
#658=CARTESIAN_POINT('',(5.190000000000002,1.224647E-017,-1.110223E-016));
#659=CARTESIAN_POINT('',(5.190000000000002,1.0,0.2));
#660=CARTESIAN_POINT('',(5.190000000000002,1.0,-2.334870E-016));
#661=CARTESIAN_POINT('',(4.190000000000002,1.0,0.2));
#662=CARTESIAN_POINT('',(4.190000000000002,1.0,-2.334870E-016));
#663=CARTESIAN_POINT('',(3.190000000000002,1.0,0.2));
#664=CARTESIAN_POINT('',(3.190000000000002,1.0,-2.334870E-016));
#665=CARTESIAN_POINT('',(3.190000000000002,-2.081900E-016,0.2));
#666=CARTESIAN_POINT('',(3.190000000000002,-2.326829E-016,-1.110223E-016));
#667=CARTESIAN_POINT('',(3.190000000000002,-1.0,0.2));
#668=CARTESIAN_POINT('',(3.190000000000002,-1.0,1.144238E-017));
#669=CARTESIAN_POINT('',(4.190000000000002,-1.0,0.2));
#670=CARTESIAN_POINT('',(4.190000000000002,-1.0,1.144238E-017));
#671=CARTESIAN_POINT('',(5.190000000000002,-1.0,0.2));
#672=CARTESIAN_POINT('',(5.190000000000002,-1.0,1.144238E-017));
#673=CARTESIAN_POINT('',(5.190000000000002,3.673940E-017,0.2));
#674=CARTESIAN_POINT('',(5.190000000000002,1.224647E-017,-1.110223E-016));
#682=(BOUNDED_SURFACE()B_SPLINE_SURFACE(1,2,((#657,#659,#661,#663,#665,#667,#669,#671,#673),(#658,#660,#662,#664,#666,#668,#670,#672,#674)),.UNSPECIFIED.,.F.,.T.,.U.)B_SPLINE_SURFACE_WITH_KNOTS((2,2),(3,2,2,2,3),(0.7,0.9),(0.0,1.570796326794897,3.141592653589793,4.71238898038469,6.283185307179586),.UNSPECIFIED.)GEOMETRIC_REPRESENTATION_ITEM()RATIONAL_B_SPLINE_SURFACE(((1.0,0.707106781186548,1.0,0.707106781186548,1.0,0.707106781186548,1.0,0.707106781186548,1.0),(1.0,0.707106781186548,1.0,0.707106781186548,1.0,0.707106781186548,1.0,0.707106781186548,1.0)))REPRESENTATION_ITEM('')SURFACE());
#683=CARTESIAN_POINT('',(3.990000000000002,-0.979795897113271,0.2));
#684=VERTEX_POINT('',#683);
#685=CARTESIAN_POINT('',(4.190000000000002,-8.572528E-017,0.199999999999999));
#686=DIRECTION('',(0.0,0.0,1.0));
#687=DIRECTION('',(-1.0,0.0,0.0));
#688=AXIS2_PLACEMENT_3D('',#685,#686,#687);
#689=CIRCLE('',#688,1.0);
#690=EDGE_CURVE('',#632,#684,#689,.T.);
#691=ORIENTED_EDGE('',*,*,#690,.T.);
#692=CARTESIAN_POINT('',(3.990000000000002,-0.979795897113271,0.0));
#693=VERTEX_POINT('',#692);
#694=CARTESIAN_POINT('',(3.990000000000002,-0.979795897113271,0.2));
#695=DIRECTION('',(0.0,0.0,-1.0));
#696=VECTOR('',#695,0.2);
#697=LINE('',#694,#696);
#698=EDGE_CURVE('',#684,#693,#697,.T.);
#699=ORIENTED_EDGE('',*,*,#698,.T.);
#700=CARTESIAN_POINT('',(4.190000000000002,-1.102182E-016,0.0));
#701=DIRECTION('',(0.0,0.0,-1.0));
#702=DIRECTION('',(-1.0,0.0,0.0));
#703=AXIS2_PLACEMENT_3D('',#700,#701,#702);
#704=CIRCLE('',#703,1.0);
#705=EDGE_CURVE('',#693,#640,#704,.T.);
#706=ORIENTED_EDGE('',*,*,#705,.T.);
#707=ORIENTED_EDGE('',*,*,#645,.T.);
#708=EDGE_LOOP('',(#691,#699,#706,#707));
#709=FACE_OUTER_BOUND('',#708,.T.);
#710=ADVANCED_FACE('',(#709),#682,.F.);
#711=CARTESIAN_POINT('',(2.340000000000002,2.720000000000001,0.2));
#712=CARTESIAN_POINT('',(3.990000000000002,2.720000000000001,0.2));
#713=CARTESIAN_POINT('',(2.340000000000002,-2.720000000000001,0.2));
#714=CARTESIAN_POINT('',(3.990000000000002,-2.720000000000001,0.2));
#715=B_SPLINE_SURFACE_WITH_KNOTS('',1,1,((#711,#713),(#712,#714)),.UNSPECIFIED.,.F.,.F.,.U.,(2,2),(2,2),(0.0,1.65),(0.0,5.440000000000001),.UNSPECIFIED.);
#716=ORIENTED_EDGE('',*,*,#690,.F.);
#717=ORIENTED_EDGE('',*,*,#637,.F.);
#718=ORIENTED_EDGE('',*,*,#599,.F.);
#719=CARTESIAN_POINT('',(2.340000000000002,-2.720000000000001,0.2));
#720=VERTEX_POINT('',#719);
#721=CARTESIAN_POINT('',(2.340000000000002,-2.720000000000001,0.2));
#722=DIRECTION('',(0.0,1.0,0.0));
#723=VECTOR('',#722,5.440000000000001);
#724=LINE('',#721,#723);
#725=EDGE_CURVE('',#720,#592,#724,.T.);
#726=ORIENTED_EDGE('',*,*,#725,.F.);
#727=CARTESIAN_POINT('',(3.990000000000002,-2.720000000000001,0.2));
#728=VERTEX_POINT('',#727);
#729=CARTESIAN_POINT('',(3.990000000000002,-2.720000000000001,0.2));
#730=DIRECTION('',(-1.0,0.0,0.0));
#731=VECTOR('',#730,1.65);
#732=LINE('',#729,#731);
#733=EDGE_CURVE('',#728,#720,#732,.T.);
#734=ORIENTED_EDGE('',*,*,#733,.F.);
#735=CARTESIAN_POINT('',(3.990000000000002,-0.979795897113271,0.2));
#736=DIRECTION('',(0.0,-1.0,0.0));
#737=VECTOR('',#736,1.740204102886729);
#738=LINE('',#735,#737);
#739=EDGE_CURVE('',#684,#728,#738,.T.);
#740=ORIENTED_EDGE('',*,*,#739,.F.);
#741=EDGE_LOOP('',(#716,#717,#718,#726,#734,#740));
#742=FACE_OUTER_BOUND('',#741,.T.);
#743=ADVANCED_FACE('',(#742),#715,.F.);
#744=CARTESIAN_POINT('',(3.990000000000002,-0.979795897113271,0.2));
#745=CARTESIAN_POINT('',(3.990000000000002,-0.979795897113271,-5.551115E-017));
#746=CARTESIAN_POINT('',(3.990000000000002,-2.720000000000001,0.2));
#747=CARTESIAN_POINT('',(3.990000000000002,-2.720000000000001,-5.551115E-017));
#748=B_SPLINE_SURFACE_WITH_KNOTS('',1,1,((#744,#746),(#745,#747)),.UNSPECIFIED.,.F.,.F.,.U.,(2,2),(2,2),(0.0,0.2),(0.0,1.740204102886729),.UNSPECIFIED.);
#749=ORIENTED_EDGE('',*,*,#739,.T.);
#750=CARTESIAN_POINT('',(3.990000000000002,-2.720000000000001,0.0));
#751=VERTEX_POINT('',#750);
#752=CARTESIAN_POINT('',(3.990000000000002,-2.720000000000001,-6.938894E-017));
#753=DIRECTION('',(0.0,0.0,1.0));
#754=VECTOR('',#753,0.2);
#755=LINE('',#752,#754);
#756=EDGE_CURVE('',#751,#728,#755,.T.);
#757=ORIENTED_EDGE('',*,*,#756,.F.);
#758=CARTESIAN_POINT('',(3.990000000000002,-2.720000000000001,0.0));
#759=DIRECTION('',(0.0,1.0,0.0));
#760=VECTOR('',#759,1.740204102886729);
#761=LINE('',#758,#760);
#762=EDGE_CURVE('',#751,#693,#761,.T.);
#763=ORIENTED_EDGE('',*,*,#762,.T.);
#764=ORIENTED_EDGE('',*,*,#698,.F.);
#765=EDGE_LOOP('',(#749,#757,#763,#764));
#766=FACE_OUTER_BOUND('',#765,.T.);
#767=ADVANCED_FACE('',(#766),#748,.F.);
#768=CARTESIAN_POINT('',(2.340000000000002,2.720000000000001,0.0));
#769=CARTESIAN_POINT('',(3.990000000000002,2.720000000000001,0.0));
#770=CARTESIAN_POINT('',(2.340000000000002,-2.720000000000001,0.0));
#771=CARTESIAN_POINT('',(3.990000000000002,-2.720000000000001,0.0));
#772=B_SPLINE_SURFACE_WITH_KNOTS('',1,1,((#768,#770),(#769,#771)),.UNSPECIFIED.,.F.,.F.,.U.,(2,2),(2,2),(0.0,1.65),(0.0,5.440000000000001),.UNSPECIFIED.);
#773=ORIENTED_EDGE('',*,*,#705,.F.);
#774=ORIENTED_EDGE('',*,*,#762,.F.);
#775=CARTESIAN_POINT('',(2.340000000000002,-2.720000000000001,5.551115E-017));
#776=VERTEX_POINT('',#775);
#777=CARTESIAN_POINT('',(2.340000000000002,-2.720000000000001,0.0));
#778=DIRECTION('',(1.0,0.0,0.0));
#779=VECTOR('',#778,1.65);
#780=LINE('',#777,#779);
#781=EDGE_CURVE('',#776,#751,#780,.T.);
#782=ORIENTED_EDGE('',*,*,#781,.F.);
#783=CARTESIAN_POINT('',(2.340000000000002,2.720000000000001,5.551115E-017));
#784=DIRECTION('',(0.0,-1.0,0.0));
#785=VECTOR('',#784,5.440000000000001);
#786=LINE('',#783,#785);
#787=EDGE_CURVE('',#610,#776,#786,.T.);
#788=ORIENTED_EDGE('',*,*,#787,.F.);
#789=ORIENTED_EDGE('',*,*,#615,.F.);
#790=ORIENTED_EDGE('',*,*,#651,.F.);
#791=EDGE_LOOP('',(#773,#774,#782,#788,#789,#790));
#792=FACE_OUTER_BOUND('',#791,.T.);
#793=ADVANCED_FACE('',(#792),#772,.T.);
#794=CARTESIAN_POINT('',(3.990000000000002,-2.720000000000001,0.2));
#795=CARTESIAN_POINT('',(3.990000000000002,-2.720000000000001,-8.326673E-017));
#796=CARTESIAN_POINT('',(2.340000000000002,-2.720000000000001,0.2));
#797=CARTESIAN_POINT('',(2.340000000000002,-2.720000000000001,-8.326673E-017));
#798=B_SPLINE_SURFACE_WITH_KNOTS('',1,1,((#794,#796),(#795,#797)),.UNSPECIFIED.,.F.,.F.,.U.,(2,2),(2,2),(0.0,0.2),(0.0,1.65),.UNSPECIFIED.);
#799=ORIENTED_EDGE('',*,*,#733,.T.);
#800=CARTESIAN_POINT('',(2.340000000000002,-2.720000000000001,1.110223E-016));
#801=DIRECTION('',(0.0,0.0,1.0));
#802=VECTOR('',#801,0.2);
#803=LINE('',#800,#802);
#804=EDGE_CURVE('',#776,#720,#803,.T.);
#805=ORIENTED_EDGE('',*,*,#804,.F.);
#806=ORIENTED_EDGE('',*,*,#781,.T.);
#807=ORIENTED_EDGE('',*,*,#756,.T.);
#808=EDGE_LOOP('',(#799,#805,#806,#807));
#809=FACE_OUTER_BOUND('',#808,.T.);
#810=ADVANCED_FACE('',(#809),#798,.F.);
#811=CARTESIAN_POINT('',(2.340000000000002,2.720000000000001,5.551115E-017));
#812=CARTESIAN_POINT('',(2.340000000000002,2.720000000000001,0.2));
#813=CARTESIAN_POINT('',(2.340000000000002,-2.720000000000001,5.551115E-017));
#814=CARTESIAN_POINT('',(2.340000000000002,-2.720000000000001,0.2));
#815=B_SPLINE_SURFACE_WITH_KNOTS('',1,1,((#811,#813),(#812,#814)),.UNSPECIFIED.,.F.,.F.,.U.,(2,2),(2,2),(0.0,0.2),(0.0,5.440000000000001),.UNSPECIFIED.);
#816=ORIENTED_EDGE('',*,*,#621,.F.);
#817=ORIENTED_EDGE('',*,*,#787,.T.);
#818=ORIENTED_EDGE('',*,*,#804,.T.);
#819=ORIENTED_EDGE('',*,*,#725,.T.);
#820=EDGE_LOOP('',(#816,#817,#818,#819));
#821=FACE_OUTER_BOUND('',#820,.T.);
#822=ADVANCED_FACE('',(#821),#815,.F.);
#823=CLOSED_SHELL('',(#625,#656,#710,#743,#767,#793,#810,#822));
#824=MANIFOLD_SOLID_BREP('2CA3',#823);
#825=STYLED_ITEM('NONE',(#584),#824);
#826=CARTESIAN_POINT('',(2.340000000000002,-2.72,1.8));
#827=CARTESIAN_POINT('',(2.340000000000002,-2.72,1.6));
#828=CARTESIAN_POINT('',(2.340000000000002,2.72,1.8));
#829=CARTESIAN_POINT('',(2.340000000000002,2.72,1.6));
#830=B_SPLINE_SURFACE_WITH_KNOTS('',1,1,((#826,#828),(#827,#829)),.UNSPECIFIED.,.F.,.F.,.U.,(2,2),(2,2),(0.0,0.2),(0.0,5.44),.UNSPECIFIED.);
#831=CARTESIAN_POINT('',(2.340000000000002,2.72,1.6));
#832=VERTEX_POINT('',#831);
#833=CARTESIAN_POINT('',(2.340000000000002,2.72,1.8));
#834=VERTEX_POINT('',#833);
#835=CARTESIAN_POINT('',(2.340000000000002,2.72,1.6));
#836=DIRECTION('',(0.0,0.0,1.0));
#837=VECTOR('',#836,0.2);
#838=LINE('',#835,#837);
#839=EDGE_CURVE('',#832,#834,#838,.T.);
#840=ORIENTED_EDGE('',*,*,#839,.F.);
#841=CARTESIAN_POINT('',(2.340000000000002,-2.72,1.6));
#842=VERTEX_POINT('',#841);
#843=CARTESIAN_POINT('',(2.340000000000002,2.72,1.6));
#844=DIRECTION('',(0.0,-1.0,0.0));
#845=VECTOR('',#844,5.44);
#846=LINE('',#843,#845);
#847=EDGE_CURVE('',#832,#842,#846,.T.);
#848=ORIENTED_EDGE('',*,*,#847,.T.);
#849=CARTESIAN_POINT('',(2.340000000000002,-2.72,1.8));
#850=VERTEX_POINT('',#849);
#851=CARTESIAN_POINT('',(2.340000000000002,-2.72,1.6));
#852=DIRECTION('',(0.0,0.0,1.0));
#853=VECTOR('',#852,0.2);
#854=LINE('',#851,#853);
#855=EDGE_CURVE('',#842,#850,#854,.T.);
#856=ORIENTED_EDGE('',*,*,#855,.T.);
#857=CARTESIAN_POINT('',(2.340000000000002,-2.72,1.8));
#858=DIRECTION('',(0.0,1.0,0.0));
#859=VECTOR('',#858,5.44);
#860=LINE('',#857,#859);
#861=EDGE_CURVE('',#850,#834,#860,.T.);
#862=ORIENTED_EDGE('',*,*,#861,.T.);
#863=EDGE_LOOP('',(#840,#848,#856,#862));
#864=FACE_OUTER_BOUND('',#863,.T.);
#865=ADVANCED_FACE('',(#864),#830,.F.);
#866=CARTESIAN_POINT('',(3.990000000000002,-2.720000000000001,1.6));
#867=CARTESIAN_POINT('',(2.340000000000002,-2.720000000000001,1.6));
#868=CARTESIAN_POINT('',(3.990000000000002,2.720000000000001,1.6));
#869=CARTESIAN_POINT('',(2.340000000000002,2.720000000000001,1.6));
#870=B_SPLINE_SURFACE_WITH_KNOTS('',1,1,((#866,#868),(#867,#869)),.UNSPECIFIED.,.F.,.F.,.U.,(2,2),(2,2),(0.0,1.65),(0.0,5.440000000000001),.UNSPECIFIED.);
#871=CARTESIAN_POINT('',(3.990000000000002,-0.979795897113271,1.599999999999999));
#872=VERTEX_POINT('',#871);
#873=CARTESIAN_POINT('',(3.990000000000002,0.979795897113271,1.599999999999999));
#874=VERTEX_POINT('',#873);
#875=CARTESIAN_POINT('',(4.190000000000002,8.572528E-017,1.599999999999999));
#876=DIRECTION('',(0.0,0.0,-1.0));
#877=DIRECTION('',(-1.0,0.0,0.0));
#878=AXIS2_PLACEMENT_3D('',#875,#876,#877);
#879=CIRCLE('',#878,1.0);
#880=EDGE_CURVE('',#872,#874,#879,.T.);
#881=ORIENTED_EDGE('',*,*,#880,.F.);
#882=CARTESIAN_POINT('',(3.990000000000002,-2.720000000000001,1.6));
#883=VERTEX_POINT('',#882);
#884=CARTESIAN_POINT('',(3.990000000000002,-2.720000000000001,1.6));
#885=DIRECTION('',(0.0,1.0,0.0));
#886=VECTOR('',#885,1.74020410288673);
#887=LINE('',#884,#886);
#888=EDGE_CURVE('',#883,#872,#887,.T.);
#889=ORIENTED_EDGE('',*,*,#888,.F.);
#890=CARTESIAN_POINT('',(2.340000000000002,-2.720000000000001,1.6));
#891=DIRECTION('',(1.0,0.0,0.0));
#892=VECTOR('',#891,1.65);
#893=LINE('',#890,#892);
#894=EDGE_CURVE('',#842,#883,#893,.T.);
#895=ORIENTED_EDGE('',*,*,#894,.F.);
#896=ORIENTED_EDGE('',*,*,#847,.F.);
#897=CARTESIAN_POINT('',(3.990000000000002,2.719999999999999,1.599999999999999));
#898=VERTEX_POINT('',#897);
#899=CARTESIAN_POINT('',(3.990000000000002,2.720000000000001,1.599999999999999));
#900=DIRECTION('',(-1.0,0.0,0.0));
#901=VECTOR('',#900,1.65);
#902=LINE('',#899,#901);
#903=EDGE_CURVE('',#898,#832,#902,.T.);
#904=ORIENTED_EDGE('',*,*,#903,.F.);
#905=CARTESIAN_POINT('',(3.990000000000002,0.979795897113271,1.599999999999999));
#906=DIRECTION('',(0.0,1.0,0.0));
#907=VECTOR('',#906,1.740204102886728);
#908=LINE('',#905,#907);
#909=EDGE_CURVE('',#874,#898,#908,.T.);
#910=ORIENTED_EDGE('',*,*,#909,.F.);
#911=EDGE_LOOP('',(#881,#889,#895,#896,#904,#910));
#912=FACE_OUTER_BOUND('',#911,.T.);
#913=ADVANCED_FACE('',(#912),#870,.T.);
#914=CARTESIAN_POINT('',(3.990000000000002,-2.720000000000001,1.8));
#915=CARTESIAN_POINT('',(2.340000000000002,-2.720000000000001,1.800000000000001));
#916=CARTESIAN_POINT('',(3.990000000000002,2.720000000000001,1.8));
#917=CARTESIAN_POINT('',(2.340000000000002,2.720000000000001,1.800000000000001));
#918=B_SPLINE_SURFACE_WITH_KNOTS('',1,1,((#914,#916),(#915,#917)),.UNSPECIFIED.,.F.,.F.,.U.,(2,2),(2,2),(0.0,1.65),(0.0,5.440000000000001),.UNSPECIFIED.);
#919=CARTESIAN_POINT('',(3.990000000000002,0.979795897113271,1.8));
#920=VERTEX_POINT('',#919);
#921=CARTESIAN_POINT('',(3.990000000000002,-0.979795897113271,1.8));
#922=VERTEX_POINT('',#921);
#923=CARTESIAN_POINT('',(4.190000000000002,1.102182E-016,1.8));
#924=DIRECTION('',(0.0,0.0,1.0));
#925=DIRECTION('',(-1.0,0.0,0.0));
#926=AXIS2_PLACEMENT_3D('',#923,#924,#925);
#927=CIRCLE('',#926,1.0);
#928=EDGE_CURVE('',#920,#922,#927,.T.);
#929=ORIENTED_EDGE('',*,*,#928,.F.);
#930=CARTESIAN_POINT('',(3.990000000000002,2.720000000000001,1.8));
#931=VERTEX_POINT('',#930);
#932=CARTESIAN_POINT('',(3.990000000000002,0.979795897113271,1.8));
#933=DIRECTION('',(0.0,1.0,0.0));
#934=VECTOR('',#933,1.740204102886729);
#935=LINE('',#932,#934);
#936=EDGE_CURVE('',#920,#931,#935,.T.);
#937=ORIENTED_EDGE('',*,*,#936,.T.);
#938=CARTESIAN_POINT('',(2.340000000000002,2.720000000000001,1.800000000000001));
#939=DIRECTION('',(1.0,0.0,0.0));
#940=VECTOR('',#939,1.65);
#941=LINE('',#938,#940);
#942=EDGE_CURVE('',#834,#931,#941,.T.);
#943=ORIENTED_EDGE('',*,*,#942,.F.);
#944=ORIENTED_EDGE('',*,*,#861,.F.);
#945=CARTESIAN_POINT('',(3.990000000000002,-2.720000000000001,1.8));
#946=VERTEX_POINT('',#945);
#947=CARTESIAN_POINT('',(3.990000000000002,-2.72,1.8));
#948=DIRECTION('',(-1.0,0.0,0.0));
#949=VECTOR('',#948,1.65);
#950=LINE('',#947,#949);
#951=EDGE_CURVE('',#946,#850,#950,.T.);
#952=ORIENTED_EDGE('',*,*,#951,.F.);
#953=CARTESIAN_POINT('',(3.990000000000002,-2.720000000000001,1.8));
#954=DIRECTION('',(0.0,1.0,0.0));
#955=VECTOR('',#954,1.74020410288673);
#956=LINE('',#953,#955);
#957=EDGE_CURVE('',#946,#922,#956,.T.);
#958=ORIENTED_EDGE('',*,*,#957,.T.);
#959=EDGE_LOOP('',(#929,#937,#943,#944,#952,#958));
#960=FACE_OUTER_BOUND('',#959,.T.);
#961=ADVANCED_FACE('',(#960),#918,.F.);
#962=CARTESIAN_POINT('',(5.190000000000002,2.326829E-016,1.8));
#963=CARTESIAN_POINT('',(5.190000000000002,2.081900E-016,1.599999999999999));
#964=CARTESIAN_POINT('',(5.190000000000002,1.0,1.8));
#965=CARTESIAN_POINT('',(5.190000000000002,1.0,1.599999999999999));
#966=CARTESIAN_POINT('',(4.190000000000002,1.0,1.8));
#967=CARTESIAN_POINT('',(4.190000000000002,1.0,1.599999999999999));
#968=CARTESIAN_POINT('',(3.190000000000002,1.0,1.8));
#969=CARTESIAN_POINT('',(3.190000000000002,1.0,1.599999999999999));
#970=CARTESIAN_POINT('',(3.190000000000002,-1.224647E-017,1.8));
#971=CARTESIAN_POINT('',(3.190000000000002,-3.673940E-017,1.599999999999999));
#972=CARTESIAN_POINT('',(3.190000000000002,-1.0,1.800000000000001));
#973=CARTESIAN_POINT('',(3.190000000000002,-1.0,1.599999999999999));
#974=CARTESIAN_POINT('',(4.190000000000002,-1.0,1.800000000000001));
#975=CARTESIAN_POINT('',(4.190000000000002,-1.0,1.599999999999999));
#976=CARTESIAN_POINT('',(5.190000000000002,-1.0,1.800000000000001));
#977=CARTESIAN_POINT('',(5.190000000000002,-1.0,1.599999999999999));
#978=CARTESIAN_POINT('',(5.190000000000002,2.326829E-016,1.8));
#979=CARTESIAN_POINT('',(5.190000000000002,2.081900E-016,1.599999999999999));
#987=(BOUNDED_SURFACE()B_SPLINE_SURFACE(1,2,((#962,#964,#966,#968,#970,#972,#974,#976,#978),(#963,#965,#967,#969,#971,#973,#975,#977,#979)),.UNSPECIFIED.,.F.,.T.,.U.)B_SPLINE_SURFACE_WITH_KNOTS((2,2),(3,2,2,2,3),(-0.9,-0.699999999999999),(0.0,1.570796326794897,3.141592653589793,4.71238898038469,6.283185307179586),.UNSPECIFIED.)GEOMETRIC_REPRESENTATION_ITEM()RATIONAL_B_SPLINE_SURFACE(((1.0,0.707106781186548,1.0,0.707106781186548,1.0,0.707106781186548,1.0,0.707106781186548,1.0),(1.0,0.707106781186548,1.0,0.707106781186548,1.0,0.707106781186548,1.0,0.707106781186548,1.0)))REPRESENTATION_ITEM('')SURFACE());
#988=ORIENTED_EDGE('',*,*,#880,.T.);
#989=CARTESIAN_POINT('',(3.990000000000002,0.979795897113271,1.599999999999999));
#990=DIRECTION('',(0.0,0.0,1.0));
#991=VECTOR('',#990,0.200000000000001);
#992=LINE('',#989,#991);
#993=EDGE_CURVE('',#874,#920,#992,.T.);
#994=ORIENTED_EDGE('',*,*,#993,.T.);
#995=ORIENTED_EDGE('',*,*,#928,.T.);
#996=CARTESIAN_POINT('',(3.990000000000002,-0.979795897113271,1.8));
#997=DIRECTION('',(0.0,0.0,-1.0));
#998=VECTOR('',#997,0.200000000000001);
#999=LINE('',#996,#998);
#1000=EDGE_CURVE('',#922,#872,#999,.T.);
#1001=ORIENTED_EDGE('',*,*,#1000,.T.);
#1002=EDGE_LOOP('',(#988,#994,#995,#1001));
#1003=FACE_OUTER_BOUND('',#1002,.T.);
#1004=ADVANCED_FACE('',(#1003),#987,.F.);
#1005=CARTESIAN_POINT('',(3.990000000000002,-0.979795897113271,1.8));
#1006=CARTESIAN_POINT('',(3.990000000000002,-0.979795897113271,1.599999999999999));
#1007=CARTESIAN_POINT('',(3.990000000000002,-2.720000000000001,1.8));
#1008=CARTESIAN_POINT('',(3.990000000000002,-2.720000000000001,1.599999999999999));
#1009=B_SPLINE_SURFACE_WITH_KNOTS('',1,1,((#1005,#1007),(#1006,#1008)),.UNSPECIFIED.,.F.,.F.,.U.,(2,2),(2,2),(0.0,0.200000000000001),(0.0,1.74020410288673),.UNSPECIFIED.);
#1010=ORIENTED_EDGE('',*,*,#888,.T.);
#1011=ORIENTED_EDGE('',*,*,#1000,.F.);
#1012=ORIENTED_EDGE('',*,*,#957,.F.);
#1013=CARTESIAN_POINT('',(3.990000000000002,-2.720000000000001,1.6));
#1014=DIRECTION('',(0.0,0.0,1.0));
#1015=VECTOR('',#1014,0.2);
#1016=LINE('',#1013,#1015);
#1017=EDGE_CURVE('',#883,#946,#1016,.T.);
#1018=ORIENTED_EDGE('',*,*,#1017,.F.);
#1019=EDGE_LOOP('',(#1010,#1011,#1012,#1018));
#1020=FACE_OUTER_BOUND('',#1019,.T.);
#1021=ADVANCED_FACE('',(#1020),#1009,.F.);
#1022=CARTESIAN_POINT('',(3.990000000000002,-2.720000000000001,1.8));
#1023=CARTESIAN_POINT('',(3.990000000000002,-2.720000000000001,1.6));
#1024=CARTESIAN_POINT('',(2.340000000000002,-2.720000000000001,1.8));
#1025=CARTESIAN_POINT('',(2.340000000000002,-2.720000000000001,1.6));
#1026=B_SPLINE_SURFACE_WITH_KNOTS('',1,1,((#1022,#1024),(#1023,#1025)),.UNSPECIFIED.,.F.,.F.,.U.,(2,2),(2,2),(0.0,0.2),(0.0,1.65),.UNSPECIFIED.);
#1027=ORIENTED_EDGE('',*,*,#894,.T.);
#1028=ORIENTED_EDGE('',*,*,#1017,.T.);
#1029=ORIENTED_EDGE('',*,*,#951,.T.);
#1030=ORIENTED_EDGE('',*,*,#855,.F.);
#1031=EDGE_LOOP('',(#1027,#1028,#1029,#1030));
#1032=FACE_OUTER_BOUND('',#1031,.T.);
#1033=ADVANCED_FACE('',(#1032),#1026,.F.);
#1034=CARTESIAN_POINT('',(3.990000000000002,2.720000000000001,1.8));
#1035=CARTESIAN_POINT('',(3.990000000000002,2.720000000000001,1.599999999999999));
#1036=CARTESIAN_POINT('',(3.990000000000002,0.979795897113271,1.8));
#1037=CARTESIAN_POINT('',(3.990000000000002,0.979795897113271,1.599999999999998));
#1038=B_SPLINE_SURFACE_WITH_KNOTS('',1,1,((#1034,#1036),(#1035,#1037)),.UNSPECIFIED.,.F.,.F.,.U.,(2,2),(2,2),(0.0,0.200000000000002),(0.0,1.740204102886729),.UNSPECIFIED.);
#1039=ORIENTED_EDGE('',*,*,#909,.T.);
#1040=CARTESIAN_POINT('',(3.990000000000002,2.720000000000001,1.599999999999999));
#1041=DIRECTION('',(0.0,0.0,1.0));
#1042=VECTOR('',#1041,0.200000000000002);
#1043=LINE('',#1040,#1042);
#1044=EDGE_CURVE('',#898,#931,#1043,.T.);
#1045=ORIENTED_EDGE('',*,*,#1044,.T.);
#1046=ORIENTED_EDGE('',*,*,#936,.F.);
#1047=ORIENTED_EDGE('',*,*,#993,.F.);
#1048=EDGE_LOOP('',(#1039,#1045,#1046,#1047));
#1049=FACE_OUTER_BOUND('',#1048,.T.);
#1050=ADVANCED_FACE('',(#1049),#1038,.F.);
#1051=CARTESIAN_POINT('',(3.990000000000002,2.720000000000001,1.599999999999999));
#1052=CARTESIAN_POINT('',(3.990000000000002,2.720000000000001,1.800000000000001));
#1053=CARTESIAN_POINT('',(2.340000000000002,2.720000000000001,1.599999999999999));
#1054=CARTESIAN_POINT('',(2.340000000000002,2.720000000000001,1.800000000000001));
#1055=B_SPLINE_SURFACE_WITH_KNOTS('',1,1,((#1051,#1053),(#1052,#1054)),.UNSPECIFIED.,.F.,.F.,.U.,(2,2),(2,2),(0.0,0.200000000000002),(0.0,1.65),.UNSPECIFIED.);
#1056=ORIENTED_EDGE('',*,*,#903,.T.);
#1057=ORIENTED_EDGE('',*,*,#839,.T.);
#1058=ORIENTED_EDGE('',*,*,#942,.T.);
#1059=ORIENTED_EDGE('',*,*,#1044,.F.);
#1060=EDGE_LOOP('',(#1056,#1057,#1058,#1059));
#1061=FACE_OUTER_BOUND('',#1060,.T.);
#1062=ADVANCED_FACE('',(#1061),#1055,.F.);
#1063=CLOSED_SHELL('',(#865,#913,#961,#1004,#1021,#1033,#1050,#1062));
#1064=MANIFOLD_SOLID_BREP('2CA3',#1063);
#1065=STYLED_ITEM('NONE',(#584),#1064);
#1066=CARTESIAN_POINT('',(-3.99,0.774596669241483,-1.110223E-016));
#1067=CARTESIAN_POINT('',(-3.990000000000001,0.774596669241483,1.8));
#1068=CARTESIAN_POINT('',(-3.99,0.979795897113271,-1.110223E-016));
#1069=CARTESIAN_POINT('',(-3.99,0.979795897113271,1.8));
#1070=B_SPLINE_SURFACE_WITH_KNOTS('',1,1,((#1066,#1068),(#1067,#1069)),.UNSPECIFIED.,.F.,.F.,.U.,(2,2),(2,2),(0.0,1.8),(0.0,0.205199227871788),.UNSPECIFIED.);
#1071=CARTESIAN_POINT('',(-3.99,0.774596669241483,1.8));
#1072=VERTEX_POINT('',#1071);
#1073=CARTESIAN_POINT('',(-3.99,0.774596669241483,0.0));
#1074=VERTEX_POINT('',#1073);
#1075=CARTESIAN_POINT('',(-3.99,0.774596669241483,1.8));
#1076=DIRECTION('',(0.0,0.0,-1.0));
#1077=VECTOR('',#1076,1.8);
#1078=LINE('',#1075,#1077);
#1079=EDGE_CURVE('',#1072,#1074,#1078,.T.);
#1080=ORIENTED_EDGE('',*,*,#1079,.F.);
#1081=CARTESIAN_POINT('',(-3.99,0.979795897113271,1.8));
#1082=VERTEX_POINT('',#1081);
#1083=CARTESIAN_POINT('',(-3.99,0.979795897113271,1.8));
#1084=DIRECTION('',(0.0,-1.0,0.0));
#1085=VECTOR('',#1084,0.205199227871788);
#1086=LINE('',#1083,#1085);
#1087=EDGE_CURVE('',#1082,#1072,#1086,.T.);
#1088=ORIENTED_EDGE('',*,*,#1087,.F.);
#1089=CARTESIAN_POINT('',(-3.99,0.979795897113271,0.0));
#1090=VERTEX_POINT('',#1089);
#1091=CARTESIAN_POINT('',(-3.99,0.979795897113271,0.0));
#1092=DIRECTION('',(0.0,0.0,1.0));
#1093=VECTOR('',#1092,1.8);
#1094=LINE('',#1091,#1093);
#1095=EDGE_CURVE('',#1090,#1082,#1094,.T.);
#1096=ORIENTED_EDGE('',*,*,#1095,.F.);
#1097=CARTESIAN_POINT('',(-3.99,0.774596669241483,-9.486073E-017));
#1098=DIRECTION('',(0.0,1.0,0.0));
#1099=VECTOR('',#1098,0.205199227871788);
#1100=LINE('',#1097,#1099);
#1101=EDGE_CURVE('',#1074,#1090,#1100,.T.);
#1102=ORIENTED_EDGE('',*,*,#1101,.F.);
#1103=EDGE_LOOP('',(#1080,#1088,#1096,#1102));
#1104=FACE_OUTER_BOUND('',#1103,.T.);
#1105=ADVANCED_FACE('',(#1104),#1070,.T.);
#1106=CARTESIAN_POINT('',(-3.99,-0.979795897113271,0.0));
#1107=CARTESIAN_POINT('',(-3.990000000000001,-0.979795897113271,1.8));
#1108=CARTESIAN_POINT('',(-3.99,-0.774596669241483,0.0));
#1109=CARTESIAN_POINT('',(-3.99,-0.774596669241483,1.8));
#1110=B_SPLINE_SURFACE_WITH_KNOTS('',1,1,((#1106,#1108),(#1107,#1109)),.UNSPECIFIED.,.F.,.F.,.U.,(2,2),(2,2),(0.0,1.8),(0.0,0.205199227871788),.UNSPECIFIED.);
#1111=CARTESIAN_POINT('',(-3.99,-0.774596669241483,1.110223E-016));
#1112=VERTEX_POINT('',#1111);
#1113=CARTESIAN_POINT('',(-3.99,-0.774596669241483,1.8));
#1114=VERTEX_POINT('',#1113);
#1115=CARTESIAN_POINT('',(-3.99,-0.774596669241483,1.110223E-016));
#1116=DIRECTION('',(0.0,0.0,1.0));
#1117=VECTOR('',#1116,1.8);
#1118=LINE('',#1115,#1117);
#1119=EDGE_CURVE('',#1112,#1114,#1118,.T.);
#1120=ORIENTED_EDGE('',*,*,#1119,.F.);
#1121=CARTESIAN_POINT('',(-3.99,-0.979795897113271,0.0));
#1122=VERTEX_POINT('',#1121);
#1123=CARTESIAN_POINT('',(-3.99,-0.979795897113271,1.199904E-016));
#1124=DIRECTION('',(0.0,1.0,0.0));
#1125=VECTOR('',#1124,0.205199227871788);
#1126=LINE('',#1123,#1125);
#1127=EDGE_CURVE('',#1122,#1112,#1126,.T.);
#1128=ORIENTED_EDGE('',*,*,#1127,.F.);
#1129=CARTESIAN_POINT('',(-3.99,-0.979795897113271,1.8));
#1130=VERTEX_POINT('',#1129);
#1131=CARTESIAN_POINT('',(-3.99,-0.979795897113271,1.8));
#1132=DIRECTION('',(0.0,0.0,-1.0));
#1133=VECTOR('',#1132,1.8);
#1134=LINE('',#1131,#1133);
#1135=EDGE_CURVE('',#1130,#1122,#1134,.T.);
#1136=ORIENTED_EDGE('',*,*,#1135,.F.);
#1137=CARTESIAN_POINT('',(-3.99,-0.774596669241483,1.8));
#1138=DIRECTION('',(0.0,-1.0,0.0));
#1139=VECTOR('',#1138,0.205199227871788);
#1140=LINE('',#1137,#1139);
#1141=EDGE_CURVE('',#1114,#1130,#1140,.T.);
#1142=ORIENTED_EDGE('',*,*,#1141,.F.);
#1143=EDGE_LOOP('',(#1120,#1128,#1136,#1142));
#1144=FACE_OUTER_BOUND('',#1143,.T.);
#1145=ADVANCED_FACE('',(#1144),#1110,.T.);
#1146=CARTESIAN_POINT('',(-4.190000000000001,1.102182E-016,1.8));
#1147=DIRECTION('',(0.0,0.0,1.0));
#1148=DIRECTION('',(-1.0,0.0,0.0));
#1149=AXIS2_PLACEMENT_3D('',#1146,#1147,#1148);
#1150=PLANE('',#1149);
#1151=ORIENTED_EDGE('',*,*,#1141,.T.);
#1152=CARTESIAN_POINT('',(-4.190000000000001,1.102182E-016,1.8));
#1153=DIRECTION('',(0.0,0.0,1.0));
#1154=DIRECTION('',(1.0,0.0,0.0));
#1155=AXIS2_PLACEMENT_3D('',#1152,#1153,#1154);
#1156=CIRCLE('',#1155,1.0);
#1157=EDGE_CURVE('',#1130,#1082,#1156,.T.);
#1158=ORIENTED_EDGE('',*,*,#1157,.T.);
#1159=ORIENTED_EDGE('',*,*,#1087,.T.);
#1160=CARTESIAN_POINT('',(-4.190000000000001,2.204364E-016,1.8));
#1161=DIRECTION('',(0.0,0.0,-1.0));
#1162=DIRECTION('',(1.0,0.0,0.0));
#1163=AXIS2_PLACEMENT_3D('',#1160,#1161,#1162);
#1164=CIRCLE('',#1163,0.8);
#1165=EDGE_CURVE('',#1072,#1114,#1164,.T.);
#1166=ORIENTED_EDGE('',*,*,#1165,.T.);
#1167=EDGE_LOOP('',(#1151,#1158,#1159,#1166));
#1168=FACE_OUTER_BOUND('',#1167,.T.);
#1169=ADVANCED_FACE('',(#1168),#1150,.T.);
#1170=CARTESIAN_POINT('',(-4.190000000000001,1.102182E-016,0.9));
#1171=DIRECTION('',(0.0,-1.224647E-016,-1.0));
#1172=DIRECTION('',(1.0,0.0,0.0));
#1173=AXIS2_PLACEMENT_3D('',#1170,#1171,#1172);
#1174=CYLINDRICAL_SURFACE('',#1173,0.8);
#1175=ORIENTED_EDGE('',*,*,#1119,.T.);
#1176=ORIENTED_EDGE('',*,*,#1165,.F.);
#1177=ORIENTED_EDGE('',*,*,#1079,.T.);
#1178=CARTESIAN_POINT('',(-4.190000000000001,0.0,0.0));
#1179=DIRECTION('',(0.0,0.0,1.0));
#1180=DIRECTION('',(1.0,0.0,0.0));
#1181=AXIS2_PLACEMENT_3D('',#1178,#1179,#1180);
#1182=CIRCLE('',#1181,0.8);
#1183=EDGE_CURVE('',#1112,#1074,#1182,.T.);
#1184=ORIENTED_EDGE('',*,*,#1183,.F.);
#1185=EDGE_LOOP('',(#1175,#1176,#1177,#1184));
#1186=FACE_OUTER_BOUND('',#1185,.T.);
#1187=ADVANCED_FACE('',(#1186),#1174,.F.);
#1188=CARTESIAN_POINT('',(-4.190000000000001,0.0,0.9));
#1189=DIRECTION('',(0.0,-1.224647E-016,-1.0));
#1190=DIRECTION('',(1.0,0.0,0.0));
#1191=AXIS2_PLACEMENT_3D('',#1188,#1189,#1190);
#1192=CYLINDRICAL_SURFACE('',#1191,1.0);
#1193=ORIENTED_EDGE('',*,*,#1135,.T.);
#1194=CARTESIAN_POINT('',(-4.190000000000001,-1.102182E-016,0.0));
#1195=DIRECTION('',(0.0,0.0,-1.0));
#1196=DIRECTION('',(1.0,0.0,0.0));
#1197=AXIS2_PLACEMENT_3D('',#1194,#1195,#1196);
#1198=CIRCLE('',#1197,1.0);
#1199=EDGE_CURVE('',#1090,#1122,#1198,.T.);
#1200=ORIENTED_EDGE('',*,*,#1199,.F.);
#1201=ORIENTED_EDGE('',*,*,#1095,.T.);
#1202=ORIENTED_EDGE('',*,*,#1157,.F.);
#1203=EDGE_LOOP('',(#1193,#1200,#1201,#1202));
#1204=FACE_OUTER_BOUND('',#1203,.T.);
#1205=ADVANCED_FACE('',(#1204),#1192,.T.);
#1206=CARTESIAN_POINT('',(-4.190000000000001,-1.102182E-016,0.0));
#1207=DIRECTION('',(0.0,0.0,-1.0));
#1208=DIRECTION('',(1.0,0.0,0.0));
#1209=AXIS2_PLACEMENT_3D('',#1206,#1207,#1208);
#1210=PLANE('',#1209);
#1211=ORIENTED_EDGE('',*,*,#1127,.T.);
#1212=ORIENTED_EDGE('',*,*,#1183,.T.);
#1213=ORIENTED_EDGE('',*,*,#1101,.T.);
#1214=ORIENTED_EDGE('',*,*,#1199,.T.);
#1215=EDGE_LOOP('',(#1211,#1212,#1213,#1214));
#1216=FACE_OUTER_BOUND('',#1215,.T.);
#1217=ADVANCED_FACE('',(#1216),#1210,.T.);
#1218=CLOSED_SHELL('',(#1105,#1145,#1169,#1187,#1205,#1217));
#1219=MANIFOLD_SOLID_BREP('2C90',#1218);
#1220=STYLED_ITEM('NONE',(#584),#1219);
#1221=CARTESIAN_POINT('',(-3.29,2.720000000000001,0.1));
#1222=DIRECTION('',(0.0,-1.0,0.0));
#1223=DIRECTION('',(0.0,0.0,1.0));
#1224=AXIS2_PLACEMENT_3D('',#1221,#1222,#1223);
#1225=PLANE('',#1224);
#1226=CARTESIAN_POINT('',(-2.34,2.72,1.6));
#1227=VERTEX_POINT('',#1226);
#1228=CARTESIAN_POINT('',(-3.990000000000001,2.72,1.599999999999999));
#1229=VERTEX_POINT('',#1228);
#1230=CARTESIAN_POINT('',(-2.34,2.720000000000001,1.599999999999999));
#1231=DIRECTION('',(-1.0,0.0,0.0));
#1232=VECTOR('',#1231,1.650000000000001);
#1233=LINE('',#1230,#1232);
#1234=EDGE_CURVE('',#1227,#1229,#1233,.T.);
#1235=ORIENTED_EDGE('',*,*,#1234,.T.);
#1236=CARTESIAN_POINT('',(-3.99,2.720000000000001,1.8));
#1237=VERTEX_POINT('',#1236);
#1238=CARTESIAN_POINT('',(-3.99,2.720000000000001,1.599999999999999));
#1239=DIRECTION('',(0.0,0.0,1.0));
#1240=VECTOR('',#1239,0.200000000000002);
#1241=LINE('',#1238,#1240);
#1242=EDGE_CURVE('',#1229,#1237,#1241,.T.);
#1243=ORIENTED_EDGE('',*,*,#1242,.T.);
#1244=CARTESIAN_POINT('',(-2.34,2.72,1.8));
#1245=VERTEX_POINT('',#1244);
#1246=CARTESIAN_POINT('',(-2.34,2.720000000000001,1.800000000000001));
#1247=DIRECTION('',(-1.0,0.0,0.0));
#1248=VECTOR('',#1247,1.65);
#1249=LINE('',#1246,#1248);
#1250=EDGE_CURVE('',#1245,#1237,#1249,.T.);
#1251=ORIENTED_EDGE('',*,*,#1250,.F.);
#1252=CARTESIAN_POINT('',(-2.34,2.72,1.6));
#1253=DIRECTION('',(0.0,0.0,1.0));
#1254=VECTOR('',#1253,0.2);
#1255=LINE('',#1252,#1254);
#1256=EDGE_CURVE('',#1227,#1245,#1255,.T.);
#1257=ORIENTED_EDGE('',*,*,#1256,.F.);
#1258=EDGE_LOOP('',(#1235,#1243,#1251,#1257));
#1259=FACE_OUTER_BOUND('',#1258,.T.);
#1260=ADVANCED_FACE('',(#1259),#1225,.F.);
#1261=CARTESIAN_POINT('',(-3.99,0.0,0.1));
#1262=DIRECTION('',(1.0,0.0,0.0));
#1263=DIRECTION('',(0.0,0.0,-1.0));
#1264=AXIS2_PLACEMENT_3D('',#1261,#1262,#1263);
#1265=PLANE('',#1264);
#1266=CARTESIAN_POINT('',(-3.990000000000001,0.979795897113271,1.599999999999999));
#1267=VERTEX_POINT('',#1266);
#1268=CARTESIAN_POINT('',(-3.99,2.72,1.599999999999999));
#1269=DIRECTION('',(0.0,-1.0,0.0));
#1270=VECTOR('',#1269,1.740204102886729);
#1271=LINE('',#1268,#1270);
#1272=EDGE_CURVE('',#1229,#1267,#1271,.T.);
#1273=ORIENTED_EDGE('',*,*,#1272,.T.);
#1274=CARTESIAN_POINT('',(-3.99,0.979795897113271,1.8));
#1275=VERTEX_POINT('',#1274);
#1276=CARTESIAN_POINT('',(-3.99,0.979795897113271,1.599999999999999));
#1277=DIRECTION('',(0.0,0.0,1.0));
#1278=VECTOR('',#1277,0.200000000000001);
#1279=LINE('',#1276,#1278);
#1280=EDGE_CURVE('',#1267,#1275,#1279,.T.);
#1281=ORIENTED_EDGE('',*,*,#1280,.T.);
#1282=CARTESIAN_POINT('',(-3.99,0.979795897113271,1.8));
#1283=DIRECTION('',(0.0,1.0,0.0));
#1284=VECTOR('',#1283,1.740204102886729);
#1285=LINE('',#1282,#1284);
#1286=EDGE_CURVE('',#1275,#1237,#1285,.T.);
#1287=ORIENTED_EDGE('',*,*,#1286,.T.);
#1288=ORIENTED_EDGE('',*,*,#1242,.F.);
#1289=EDGE_LOOP('',(#1273,#1281,#1287,#1288));
#1290=FACE_OUTER_BOUND('',#1289,.T.);
#1291=ADVANCED_FACE('',(#1290),#1265,.F.);
#1292=CARTESIAN_POINT('',(-4.19,0.0,0.9));
#1293=DIRECTION('',(0.0,-1.224647E-016,-1.0));
#1294=DIRECTION('',(1.0,0.0,0.0));
#1295=AXIS2_PLACEMENT_3D('',#1292,#1293,#1294);
#1296=CYLINDRICAL_SURFACE('',#1295,1.0);
#1297=CARTESIAN_POINT('',(-3.990000000000001,-0.979795897113271,1.599999999999999));
#1298=VERTEX_POINT('',#1297);
#1299=CARTESIAN_POINT('',(-4.19,8.572528E-017,1.6));
#1300=DIRECTION('',(0.0,0.0,1.0));
#1301=DIRECTION('',(1.0,0.0,0.0));
#1302=AXIS2_PLACEMENT_3D('',#1299,#1300,#1301);
#1303=CIRCLE('',#1302,1.0);
#1304=EDGE_CURVE('',#1298,#1267,#1303,.T.);
#1305=ORIENTED_EDGE('',*,*,#1304,.F.);
#1306=CARTESIAN_POINT('',(-3.99,-0.979795897113271,1.8));
#1307=VERTEX_POINT('',#1306);
#1308=CARTESIAN_POINT('',(-3.99,-0.979795897113271,1.8));
#1309=DIRECTION('',(0.0,0.0,-1.0));
#1310=VECTOR('',#1309,0.200000000000001);
#1311=LINE('',#1308,#1310);
#1312=EDGE_CURVE('',#1307,#1298,#1311,.T.);
#1313=ORIENTED_EDGE('',*,*,#1312,.F.);
#1314=CARTESIAN_POINT('',(-4.19,1.102182E-016,1.8));
#1315=DIRECTION('',(0.0,0.0,-1.0));
#1316=DIRECTION('',(1.0,0.0,0.0));
#1317=AXIS2_PLACEMENT_3D('',#1314,#1315,#1316);
#1318=CIRCLE('',#1317,1.0);
#1319=EDGE_CURVE('',#1275,#1307,#1318,.T.);
#1320=ORIENTED_EDGE('',*,*,#1319,.F.);
#1321=ORIENTED_EDGE('',*,*,#1280,.F.);
#1322=EDGE_LOOP('',(#1305,#1313,#1320,#1321));
#1323=FACE_OUTER_BOUND('',#1322,.T.);
#1324=ADVANCED_FACE('',(#1323),#1296,.F.);
#1325=CARTESIAN_POINT('',(-3.89,0.0,1.8));
#1326=DIRECTION('',(0.0,0.0,-1.0));
#1327=DIRECTION('',(1.0,0.0,0.0));
#1328=AXIS2_PLACEMENT_3D('',#1325,#1326,#1327);
#1329=PLANE('',#1328);
#1330=ORIENTED_EDGE('',*,*,#1319,.T.);
#1331=CARTESIAN_POINT('',(-3.99,-2.720000000000001,1.8));
#1332=VERTEX_POINT('',#1331);
#1333=CARTESIAN_POINT('',(-3.99,-2.720000000000001,1.8));
#1334=DIRECTION('',(0.0,1.0,0.0));
#1335=VECTOR('',#1334,1.74020410288673);
#1336=LINE('',#1333,#1335);
#1337=EDGE_CURVE('',#1332,#1307,#1336,.T.);
#1338=ORIENTED_EDGE('',*,*,#1337,.F.);
#1339=CARTESIAN_POINT('',(-2.34,-2.72,1.8));
#1340=VERTEX_POINT('',#1339);
#1341=CARTESIAN_POINT('',(-3.99,-2.72,1.8));
#1342=DIRECTION('',(1.0,0.0,0.0));
#1343=VECTOR('',#1342,1.65);
#1344=LINE('',#1341,#1343);
#1345=EDGE_CURVE('',#1332,#1340,#1344,.T.);
#1346=ORIENTED_EDGE('',*,*,#1345,.T.);
#1347=CARTESIAN_POINT('',(-2.34,-2.72,1.8));
#1348=DIRECTION('',(0.0,1.0,0.0));
#1349=VECTOR('',#1348,5.44);
#1350=LINE('',#1347,#1349);
#1351=EDGE_CURVE('',#1340,#1245,#1350,.T.);
#1352=ORIENTED_EDGE('',*,*,#1351,.T.);
#1353=ORIENTED_EDGE('',*,*,#1250,.T.);
#1354=ORIENTED_EDGE('',*,*,#1286,.F.);
#1355=EDGE_LOOP('',(#1330,#1338,#1346,#1352,#1353,#1354));
#1356=FACE_OUTER_BOUND('',#1355,.T.);
#1357=ADVANCED_FACE('',(#1356),#1329,.F.);
#1358=CARTESIAN_POINT('',(-3.99,0.0,0.1));
#1359=DIRECTION('',(1.0,0.0,0.0));
#1360=DIRECTION('',(0.0,0.0,-1.0));
#1361=AXIS2_PLACEMENT_3D('',#1358,#1359,#1360);
#1362=PLANE('',#1361);
#1363=CARTESIAN_POINT('',(-3.990000000000001,-2.720000000000001,1.6));
#1364=VERTEX_POINT('',#1363);
#1365=CARTESIAN_POINT('',(-3.99,-0.979795897113271,1.599999999999999));
#1366=DIRECTION('',(0.0,-1.0,0.0));
#1367=VECTOR('',#1366,1.740204102886729);
#1368=LINE('',#1365,#1367);
#1369=EDGE_CURVE('',#1298,#1364,#1368,.T.);
#1370=ORIENTED_EDGE('',*,*,#1369,.T.);
#1371=CARTESIAN_POINT('',(-3.99,-2.720000000000001,1.6));
#1372=DIRECTION('',(0.0,0.0,1.0));
#1373=VECTOR('',#1372,0.2);
#1374=LINE('',#1371,#1373);
#1375=EDGE_CURVE('',#1364,#1332,#1374,.T.);
#1376=ORIENTED_EDGE('',*,*,#1375,.T.);
#1377=ORIENTED_EDGE('',*,*,#1337,.T.);
#1378=ORIENTED_EDGE('',*,*,#1312,.T.);
#1379=EDGE_LOOP('',(#1370,#1376,#1377,#1378));
#1380=FACE_OUTER_BOUND('',#1379,.T.);
#1381=ADVANCED_FACE('',(#1380),#1362,.F.);
#1382=CARTESIAN_POINT('',(-3.29,0.0,1.6));
#1383=DIRECTION('',(0.0,0.0,-1.0));
#1384=DIRECTION('',(1.0,0.0,0.0));
#1385=AXIS2_PLACEMENT_3D('',#1382,#1383,#1384);
#1386=PLANE('',#1385);
#1387=ORIENTED_EDGE('',*,*,#1304,.T.);
#1388=ORIENTED_EDGE('',*,*,#1272,.F.);
#1389=ORIENTED_EDGE('',*,*,#1234,.F.);
#1390=CARTESIAN_POINT('',(-2.34,-2.72,1.6));
#1391=VERTEX_POINT('',#1390);
#1392=CARTESIAN_POINT('',(-2.34,2.72,1.6));
#1393=DIRECTION('',(0.0,-1.0,0.0));
#1394=VECTOR('',#1393,5.44);
#1395=LINE('',#1392,#1394);
#1396=EDGE_CURVE('',#1227,#1391,#1395,.T.);
#1397=ORIENTED_EDGE('',*,*,#1396,.T.);
#1398=CARTESIAN_POINT('',(-3.990000000000001,-2.720000000000001,1.6));
#1399=DIRECTION('',(1.0,0.0,0.0));
#1400=VECTOR('',#1399,1.650000000000001);
#1401=LINE('',#1398,#1400);
#1402=EDGE_CURVE('',#1364,#1391,#1401,.T.);
#1403=ORIENTED_EDGE('',*,*,#1402,.F.);
#1404=ORIENTED_EDGE('',*,*,#1369,.F.);
#1405=EDGE_LOOP('',(#1387,#1388,#1389,#1397,#1403,#1404));
#1406=FACE_OUTER_BOUND('',#1405,.T.);
#1407=ADVANCED_FACE('',(#1406),#1386,.T.);
#1408=CARTESIAN_POINT('',(-2.34,0.0,1.7));
#1409=DIRECTION('',(-1.0,0.0,0.0));
#1410=DIRECTION('',(0.0,0.0,-1.0));
#1411=AXIS2_PLACEMENT_3D('',#1408,#1409,#1410);
#1412=PLANE('',#1411);
#1413=ORIENTED_EDGE('',*,*,#1256,.T.);
#1414=ORIENTED_EDGE('',*,*,#1351,.F.);
#1415=CARTESIAN_POINT('',(-2.34,-2.72,1.6));
#1416=DIRECTION('',(0.0,0.0,1.0));
#1417=VECTOR('',#1416,0.2);
#1418=LINE('',#1415,#1417);
#1419=EDGE_CURVE('',#1391,#1340,#1418,.T.);
#1420=ORIENTED_EDGE('',*,*,#1419,.F.);
#1421=ORIENTED_EDGE('',*,*,#1396,.F.);
#1422=EDGE_LOOP('',(#1413,#1414,#1420,#1421));
#1423=FACE_OUTER_BOUND('',#1422,.T.);
#1424=ADVANCED_FACE('',(#1423),#1412,.F.);
#1425=CARTESIAN_POINT('',(-3.29,-2.720000000000001,0.1));
#1426=DIRECTION('',(0.0,1.0,0.0));
#1427=DIRECTION('',(0.0,0.0,-1.0));
#1428=AXIS2_PLACEMENT_3D('',#1425,#1426,#1427);
#1429=PLANE('',#1428);
#1430=ORIENTED_EDGE('',*,*,#1402,.T.);
#1431=ORIENTED_EDGE('',*,*,#1419,.T.);
#1432=ORIENTED_EDGE('',*,*,#1345,.F.);
#1433=ORIENTED_EDGE('',*,*,#1375,.F.);
#1434=EDGE_LOOP('',(#1430,#1431,#1432,#1433));
#1435=FACE_OUTER_BOUND('',#1434,.T.);
#1436=ADVANCED_FACE('',(#1435),#1429,.F.);
#1437=CLOSED_SHELL('',(#1260,#1291,#1324,#1357,#1381,#1407,#1424,#1436));
#1438=MANIFOLD_SOLID_BREP('2C7A',#1437);
#1439=STYLED_ITEM('NONE',(#584),#1438);
#1440=CARTESIAN_POINT('',(-2.34,0.0,0.1));
#1441=DIRECTION('',(-1.0,0.0,0.0));
#1442=DIRECTION('',(0.0,0.0,1.0));
#1443=AXIS2_PLACEMENT_3D('',#1440,#1441,#1442);
#1444=PLANE('',#1443);
#1445=CARTESIAN_POINT('',(-2.34,2.720000000000001,5.551115E-017));
#1446=VERTEX_POINT('',#1445);
#1447=CARTESIAN_POINT('',(-2.34,2.720000000000001,0.2));
#1448=VERTEX_POINT('',#1447);
#1449=CARTESIAN_POINT('',(-2.34,2.720000000000001,1.110223E-016));
#1450=DIRECTION('',(0.0,0.0,1.0));
#1451=VECTOR('',#1450,0.2);
#1452=LINE('',#1449,#1451);
#1453=EDGE_CURVE('',#1446,#1448,#1452,.T.);
#1454=ORIENTED_EDGE('',*,*,#1453,.T.);
#1455=CARTESIAN_POINT('',(-2.34,-2.720000000000001,0.2));
#1456=VERTEX_POINT('',#1455);
#1457=CARTESIAN_POINT('',(-2.34,-2.720000000000001,0.2));
#1458=DIRECTION('',(0.0,1.0,0.0));
#1459=VECTOR('',#1458,5.440000000000001);
#1460=LINE('',#1457,#1459);
#1461=EDGE_CURVE('',#1456,#1448,#1460,.T.);
#1462=ORIENTED_EDGE('',*,*,#1461,.F.);
#1463=CARTESIAN_POINT('',(-2.34,-2.720000000000001,5.551115E-017));
#1464=VERTEX_POINT('',#1463);
#1465=CARTESIAN_POINT('',(-2.34,-2.720000000000001,1.110223E-016));
#1466=DIRECTION('',(0.0,0.0,1.0));
#1467=VECTOR('',#1466,0.2);
#1468=LINE('',#1465,#1467);
#1469=EDGE_CURVE('',#1464,#1456,#1468,.T.);
#1470=ORIENTED_EDGE('',*,*,#1469,.F.);
#1471=CARTESIAN_POINT('',(-2.34,2.720000000000001,5.551115E-017));
#1472=DIRECTION('',(0.0,-1.0,0.0));
#1473=VECTOR('',#1472,5.440000000000001);
#1474=LINE('',#1471,#1473);
#1475=EDGE_CURVE('',#1446,#1464,#1474,.T.);
#1476=ORIENTED_EDGE('',*,*,#1475,.F.);
#1477=EDGE_LOOP('',(#1454,#1462,#1470,#1476));
#1478=FACE_OUTER_BOUND('',#1477,.T.);
#1479=ADVANCED_FACE('',(#1478),#1444,.F.);
#1480=CARTESIAN_POINT('',(-3.29,0.0,0.0));
#1481=DIRECTION('',(0.0,0.0,-1.0));
#1482=DIRECTION('',(-1.0,0.0,0.0));
#1483=AXIS2_PLACEMENT_3D('',#1480,#1481,#1482);
#1484=PLANE('',#1483);
#1485=CARTESIAN_POINT('',(-3.99,-0.979795897113271,0.0));
#1486=VERTEX_POINT('',#1485);
#1487=CARTESIAN_POINT('',(-3.99,0.979795897113271,0.0));
#1488=VERTEX_POINT('',#1487);
#1489=CARTESIAN_POINT('',(-4.19,-1.102182E-016,0.0));
#1490=DIRECTION('',(0.0,0.0,1.0));
#1491=DIRECTION('',(1.0,0.0,0.0));
#1492=AXIS2_PLACEMENT_3D('',#1489,#1490,#1491);
#1493=CIRCLE('',#1492,1.0);
#1494=EDGE_CURVE('',#1486,#1488,#1493,.T.);
#1495=ORIENTED_EDGE('',*,*,#1494,.T.);
#1496=CARTESIAN_POINT('',(-3.99,2.720000000000001,0.0));
#1497=VERTEX_POINT('',#1496);
#1498=CARTESIAN_POINT('',(-3.99,0.979795897113271,0.0));
#1499=DIRECTION('',(0.0,1.0,0.0));
#1500=VECTOR('',#1499,1.74020410288673);
#1501=LINE('',#1498,#1500);
#1502=EDGE_CURVE('',#1488,#1497,#1501,.T.);
#1503=ORIENTED_EDGE('',*,*,#1502,.T.);
#1504=CARTESIAN_POINT('',(-3.99,2.720000000000001,0.0));
#1505=DIRECTION('',(1.0,0.0,0.0));
#1506=VECTOR('',#1505,1.65);
#1507=LINE('',#1504,#1506);
#1508=EDGE_CURVE('',#1497,#1446,#1507,.T.);
#1509=ORIENTED_EDGE('',*,*,#1508,.T.);
#1510=ORIENTED_EDGE('',*,*,#1475,.T.);
#1511=CARTESIAN_POINT('',(-3.99,-2.720000000000001,0.0));
#1512=VERTEX_POINT('',#1511);
#1513=CARTESIAN_POINT('',(-2.34,-2.720000000000001,0.0));
#1514=DIRECTION('',(-1.0,0.0,0.0));
#1515=VECTOR('',#1514,1.65);
#1516=LINE('',#1513,#1515);
#1517=EDGE_CURVE('',#1464,#1512,#1516,.T.);
#1518=ORIENTED_EDGE('',*,*,#1517,.T.);
#1519=CARTESIAN_POINT('',(-3.99,-2.720000000000001,0.0));
#1520=DIRECTION('',(0.0,1.0,0.0));
#1521=VECTOR('',#1520,1.740204102886729);
#1522=LINE('',#1519,#1521);
#1523=EDGE_CURVE('',#1512,#1486,#1522,.T.);
#1524=ORIENTED_EDGE('',*,*,#1523,.T.);
#1525=EDGE_LOOP('',(#1495,#1503,#1509,#1510,#1518,#1524));
#1526=FACE_OUTER_BOUND('',#1525,.T.);
#1527=ADVANCED_FACE('',(#1526),#1484,.T.);
#1528=CARTESIAN_POINT('',(-3.29,0.0,0.2));
#1529=DIRECTION('',(0.0,0.0,-1.0));
#1530=DIRECTION('',(-1.0,0.0,0.0));
#1531=AXIS2_PLACEMENT_3D('',#1528,#1529,#1530);
#1532=PLANE('',#1531);
#1533=CARTESIAN_POINT('',(-3.990000000000001,-0.979795897113271,0.2));
#1534=VERTEX_POINT('',#1533);
#1535=CARTESIAN_POINT('',(-3.990000000000001,0.979795897113271,0.199999999999999));
#1536=VERTEX_POINT('',#1535);
#1537=CARTESIAN_POINT('',(-4.19,-8.572528E-017,0.199999999999999));
#1538=DIRECTION('',(0.0,0.0,1.0));
#1539=DIRECTION('',(1.0,0.0,0.0));
#1540=AXIS2_PLACEMENT_3D('',#1537,#1538,#1539);
#1541=CIRCLE('',#1540,1.0);
#1542=EDGE_CURVE('',#1534,#1536,#1541,.T.);
#1543=ORIENTED_EDGE('',*,*,#1542,.F.);
#1544=CARTESIAN_POINT('',(-3.990000000000001,-2.720000000000001,0.2));
#1545=VERTEX_POINT('',#1544);
#1546=CARTESIAN_POINT('',(-3.99,-2.720000000000001,0.2));
#1547=DIRECTION('',(0.0,1.0,0.0));
#1548=VECTOR('',#1547,1.740204102886729);
#1549=LINE('',#1546,#1548);
#1550=EDGE_CURVE('',#1545,#1534,#1549,.T.);
#1551=ORIENTED_EDGE('',*,*,#1550,.F.);
#1552=CARTESIAN_POINT('',(-3.990000000000001,-2.720000000000001,0.2));
#1553=DIRECTION('',(1.0,0.0,0.0));
#1554=VECTOR('',#1553,1.650000000000001);
#1555=LINE('',#1552,#1554);
#1556=EDGE_CURVE('',#1545,#1456,#1555,.T.);
#1557=ORIENTED_EDGE('',*,*,#1556,.T.);
#1558=ORIENTED_EDGE('',*,*,#1461,.T.);
#1559=CARTESIAN_POINT('',(-3.990000000000001,2.72,0.199999999999999));
#1560=VERTEX_POINT('',#1559);
#1561=CARTESIAN_POINT('',(-2.34,2.720000000000001,0.2));
#1562=DIRECTION('',(-1.0,0.0,0.0));
#1563=VECTOR('',#1562,1.650000000000001);
#1564=LINE('',#1561,#1563);
#1565=EDGE_CURVE('',#1448,#1560,#1564,.T.);
#1566=ORIENTED_EDGE('',*,*,#1565,.T.);
#1567=CARTESIAN_POINT('',(-3.99,0.979795897113271,0.199999999999999));
#1568=DIRECTION('',(0.0,1.0,0.0));
#1569=VECTOR('',#1568,1.740204102886729);
#1570=LINE('',#1567,#1569);
#1571=EDGE_CURVE('',#1536,#1560,#1570,.T.);
#1572=ORIENTED_EDGE('',*,*,#1571,.F.);
#1573=EDGE_LOOP('',(#1543,#1551,#1557,#1558,#1566,#1572));
#1574=FACE_OUTER_BOUND('',#1573,.T.);
#1575=ADVANCED_FACE('',(#1574),#1532,.F.);
#1576=CARTESIAN_POINT('',(-4.19,0.0,0.9));
#1577=DIRECTION('',(0.0,-1.224647E-016,-1.0));
#1578=DIRECTION('',(1.0,0.0,0.0));
#1579=AXIS2_PLACEMENT_3D('',#1576,#1577,#1578);
#1580=CYLINDRICAL_SURFACE('',#1579,1.0);
#1581=ORIENTED_EDGE('',*,*,#1542,.T.);
#1582=CARTESIAN_POINT('',(-3.99,0.979795897113271,0.0));
#1583=DIRECTION('',(0.0,0.0,1.0));
#1584=VECTOR('',#1583,0.199999999999999);
#1585=LINE('',#1582,#1584);
#1586=EDGE_CURVE('',#1488,#1536,#1585,.T.);
#1587=ORIENTED_EDGE('',*,*,#1586,.F.);
#1588=ORIENTED_EDGE('',*,*,#1494,.F.);
#1589=CARTESIAN_POINT('',(-3.99,-0.979795897113271,0.2));
#1590=DIRECTION('',(0.0,0.0,-1.0));
#1591=VECTOR('',#1590,0.2);
#1592=LINE('',#1589,#1591);
#1593=EDGE_CURVE('',#1534,#1486,#1592,.T.);
#1594=ORIENTED_EDGE('',*,*,#1593,.F.);
#1595=EDGE_LOOP('',(#1581,#1587,#1588,#1594));
#1596=FACE_OUTER_BOUND('',#1595,.T.);
#1597=ADVANCED_FACE('',(#1596),#1580,.F.);
#1598=CARTESIAN_POINT('',(-3.99,0.0,0.1));
#1599=DIRECTION('',(1.0,0.0,0.0));
#1600=DIRECTION('',(0.0,0.0,-1.0));
#1601=AXIS2_PLACEMENT_3D('',#1598,#1599,#1600);
#1602=PLANE('',#1601);
#1603=ORIENTED_EDGE('',*,*,#1550,.T.);
#1604=ORIENTED_EDGE('',*,*,#1593,.T.);
#1605=ORIENTED_EDGE('',*,*,#1523,.F.);
#1606=CARTESIAN_POINT('',(-3.99,-2.720000000000001,-6.938894E-017));
#1607=DIRECTION('',(0.0,0.0,1.0));
#1608=VECTOR('',#1607,0.2);
#1609=LINE('',#1606,#1608);
#1610=EDGE_CURVE('',#1512,#1545,#1609,.T.);
#1611=ORIENTED_EDGE('',*,*,#1610,.T.);
#1612=EDGE_LOOP('',(#1603,#1604,#1605,#1611));
#1613=FACE_OUTER_BOUND('',#1612,.T.);
#1614=ADVANCED_FACE('',(#1613),#1602,.F.);
#1615=CARTESIAN_POINT('',(-3.29,-2.720000000000001,0.1));
#1616=DIRECTION('',(0.0,1.0,0.0));
#1617=DIRECTION('',(0.0,0.0,-1.0));
#1618=AXIS2_PLACEMENT_3D('',#1615,#1616,#1617);
#1619=PLANE('',#1618);
#1620=ORIENTED_EDGE('',*,*,#1556,.F.);
#1621=ORIENTED_EDGE('',*,*,#1610,.F.);
#1622=ORIENTED_EDGE('',*,*,#1517,.F.);
#1623=ORIENTED_EDGE('',*,*,#1469,.T.);
#1624=EDGE_LOOP('',(#1620,#1621,#1622,#1623));
#1625=FACE_OUTER_BOUND('',#1624,.T.);
#1626=ADVANCED_FACE('',(#1625),#1619,.F.);
#1627=CARTESIAN_POINT('',(-3.99,0.0,0.1));
#1628=DIRECTION('',(1.0,0.0,0.0));
#1629=DIRECTION('',(0.0,0.0,-1.0));
#1630=AXIS2_PLACEMENT_3D('',#1627,#1628,#1629);
#1631=PLANE('',#1630);
#1632=ORIENTED_EDGE('',*,*,#1571,.T.);
#1633=CARTESIAN_POINT('',(-3.99,2.720000000000001,-6.938894E-017));
#1634=DIRECTION('',(0.0,0.0,1.0));
#1635=VECTOR('',#1634,0.199999999999999);
#1636=LINE('',#1633,#1635);
#1637=EDGE_CURVE('',#1497,#1560,#1636,.T.);
#1638=ORIENTED_EDGE('',*,*,#1637,.F.);
#1639=ORIENTED_EDGE('',*,*,#1502,.F.);
#1640=ORIENTED_EDGE('',*,*,#1586,.T.);
#1641=EDGE_LOOP('',(#1632,#1638,#1639,#1640));
#1642=FACE_OUTER_BOUND('',#1641,.T.);
#1643=ADVANCED_FACE('',(#1642),#1631,.F.);
#1644=CARTESIAN_POINT('',(-3.29,2.720000000000001,0.1));
#1645=DIRECTION('',(0.0,-1.0,0.0));
#1646=DIRECTION('',(0.0,0.0,1.0));
#1647=AXIS2_PLACEMENT_3D('',#1644,#1645,#1646);
#1648=PLANE('',#1647);
#1649=ORIENTED_EDGE('',*,*,#1565,.F.);
#1650=ORIENTED_EDGE('',*,*,#1453,.F.);
#1651=ORIENTED_EDGE('',*,*,#1508,.F.);
#1652=ORIENTED_EDGE('',*,*,#1637,.T.);
#1653=EDGE_LOOP('',(#1649,#1650,#1651,#1652));
#1654=FACE_OUTER_BOUND('',#1653,.T.);
#1655=ADVANCED_FACE('',(#1654),#1648,.F.);
#1656=CLOSED_SHELL('',(#1479,#1527,#1575,#1597,#1614,#1626,#1643,#1655));
#1657=MANIFOLD_SOLID_BREP('2C7A',#1656);
#1658=STYLED_ITEM('NONE',(#584),#1657);
#1659=ADVANCED_BREP_SHAPE_REPRESENTATION('ABSR1',(#371,#577,#824,#1064,#1219,#1438,#1657),#28);
#1660=SHAPE_REPRESENTATION_RELATIONSHIP('SRRPL1','',#1659,#62);
ENDSEC;
END-ISO-10303-21;
