ISO-10303-21;
HEADER;
/****************************************************************
 * Generated by software with PDElib inside                    *
 * PDElib Version v51a, created Fri 09/10/2010                  *
 * ITI Transcendata (http://www.transcendata.com/)              *
 ****************************************************************/
FILE_DESCRIPTION((''),'2;1');
FILE_NAME('HARTING_09 33 000 9811.stp','2012-12-10T14:08:45',(''),(''),'Mechanical Desktop 2011','Mechanical Desktop 2011',', , ');
FILE_SCHEMA(('AUTOMOTIVE_DESIGN { 1 2 10303 214 1 1 1 1 }'));
ENDSEC;
DATA;
#10=(NAMED_UNIT(*)PLANE_ANGLE_UNIT()SI_UNIT($,.RADIAN.));
#11=DIMENSIONAL_EXPONENTS(0.0,0.0,0.0,0.0,0.0,0.0,0.0);
#12=PLANE_ANGLE_MEASURE_WITH_UNIT(PLANE_ANGLE_MEASURE(0.0174532925),#10);
#16=(CONVERSION_BASED_UNIT('DEGREE',#12)NAMED_UNIT(#11)PLANE_ANGLE_UNIT());
#20=(NAMED_UNIT(*)SI_UNIT($,.STERADIAN.)SOLID_ANGLE_UNIT());
#24=(LENGTH_UNIT()NAMED_UNIT(*)SI_UNIT(.MILLI.,.METRE.));
#26=UNCERTAINTY_MEASURE_WITH_UNIT(LENGTH_MEASURE(0.000001),#24,'DISTANCE_ACCURACY_VALUE','');
#28=(GEOMETRIC_REPRESENTATION_CONTEXT(3)GLOBAL_UNCERTAINTY_ASSIGNED_CONTEXT((#26))GLOBAL_UNIT_ASSIGNED_CONTEXT((#16,#20,#24))REPRESENTATION_CONTEXT('','3D'));
#29=APPLICATION_CONTEXT('automotive design');
#30=APPLICATION_PROTOCOL_DEFINITION('INTERNATIONAL_STANDARD','automotive_design',1998,#29);
#31=PRODUCT_CONTEXT('3D Mechanical Parts',#29,'mechanical');
#32=PRODUCT('Product','Product','',(#31));
#33=PRODUCT_RELATED_PRODUCT_CATEGORY('part',$,(#32));
#34=PRODUCT_CATEGORY('part',$);
#35=PERSON('1','Design','Joe',$,$,$);
#36=ORGANIZATION($,'None','None');
#37=PERSON_AND_ORGANIZATION(#35,#36);
#38=PERSON_AND_ORGANIZATION_ROLE('design_owner');
#39=APPLIED_PERSON_AND_ORGANIZATION_ASSIGNMENT(#37,#38,(#32));
#40=PRODUCT_DEFINITION_FORMATION_WITH_SPECIFIED_SOURCE('None','',#32,.BOUGHT.);
#41=PERSON('2','Creator','Joe',$,$,$);
#42=ORGANIZATION($,'None','None');
#43=PERSON_AND_ORGANIZATION(#41,#42);
#44=PERSON_AND_ORGANIZATION_ROLE('creator');
#45=APPLIED_PERSON_AND_ORGANIZATION_ASSIGNMENT(#43,#44,(#40));
#46=PERSON('3','Supplier','Joe',$,$,$);
#47=ORGANIZATION($,'None','None');
#48=PERSON_AND_ORGANIZATION(#46,#47);
#49=PERSON_AND_ORGANIZATION_ROLE('design_supplier');
#50=APPLIED_PERSON_AND_ORGANIZATION_ASSIGNMENT(#48,#49,(#40));
#51=PRODUCT_DEFINITION_CONTEXT('part definition',#29,'design');
#52=PRODUCT_DEFINITION('None','',#40,#51);
#53=PERSON('4','Creator','Joe',$,$,$);
#54=ORGANIZATION($,'None','None');
#55=PERSON_AND_ORGANIZATION(#53,#54);
#56=PERSON_AND_ORGANIZATION_ROLE('creator');
#57=APPLIED_PERSON_AND_ORGANIZATION_ASSIGNMENT(#55,#56,(#52));
#58=CARTESIAN_POINT('NONE',(0.0,0.0,0.0));
#59=DIRECTION('NONE',(0.0,0.0,1.0));
#60=DIRECTION('NONE',(1.0,0.0,0.0));
#61=AXIS2_PLACEMENT_3D('NONE',#58,#59,#60);
#62=SHAPE_REPRESENTATION('SR1',(#61),#28);
#63=PRODUCT_DEFINITION_SHAPE('PDS1','Test Part',#52);
#64=SHAPE_DEFINITION_REPRESENTATION(#63,#62);
#65=CARTESIAN_POINT('',(-2.642331E-015,0.0,3.099999999999934));
#66=DIRECTION('',(-2.220446E-016,0.0,-1.0));
#67=DIRECTION('',(0.0,1.0,0.0));
#68=AXIS2_PLACEMENT_3D('',#65,#66,#67);
#69=CYLINDRICAL_SURFACE('',#68,2.599999999999994);
#70=CARTESIAN_POINT('',(0.0,2.599999999999994,2.49999999999994));
#71=VERTEX_POINT('',#70);
#72=CARTESIAN_POINT('',(0.0,2.599999999999994,3.699999999999928));
#73=VERTEX_POINT('',#72);
#74=CARTESIAN_POINT('',(4.596444E-019,2.599999999999994,2.49999999999994));
#75=DIRECTION('',(0.0,0.0,1.0));
#76=VECTOR('',#75,1.199999999999989);
#77=LINE('',#74,#76);
#78=EDGE_CURVE('',#71,#73,#77,.T.);
#79=ORIENTED_EDGE('',*,*,#78,.F.);
#80=CARTESIAN_POINT('',(-5.869983E-015,-2.599999999999994,2.49999999999994));
#81=VERTEX_POINT('',#80);
#82=CARTESIAN_POINT('',(-2.775558E-015,0.0,2.49999999999994));
#83=DIRECTION('',(0.0,0.0,-1.0));
#84=DIRECTION('',(0.0,1.0,0.0));
#85=AXIS2_PLACEMENT_3D('',#82,#83,#84);
#86=CIRCLE('',#85,2.599999999999994);
#87=EDGE_CURVE('',#81,#71,#86,.T.);
#88=ORIENTED_EDGE('',*,*,#87,.F.);
#89=CARTESIAN_POINT('',(-5.603529E-015,-2.599999999999994,3.699999999999928));
#90=VERTEX_POINT('',#89);
#91=CARTESIAN_POINT('',(-5.869983E-015,-2.599999999999994,2.49999999999994));
#92=DIRECTION('',(0.0,0.0,1.0));
#93=VECTOR('',#92,1.199999999999989);
#94=LINE('',#91,#93);
#95=EDGE_CURVE('',#81,#90,#94,.T.);
#96=ORIENTED_EDGE('',*,*,#95,.T.);
#97=CARTESIAN_POINT('',(-2.509104E-015,0.0,3.699999999999928));
#98=DIRECTION('',(0.0,0.0,-1.0));
#99=DIRECTION('',(0.0,1.0,0.0));
#100=AXIS2_PLACEMENT_3D('',#97,#98,#99);
#101=CIRCLE('',#100,2.599999999999994);
#102=EDGE_CURVE('',#90,#73,#101,.T.);
#103=ORIENTED_EDGE('',*,*,#102,.T.);
#104=EDGE_LOOP('',(#79,#88,#96,#103));
#105=FACE_OUTER_BOUND('',#104,.T.);
#106=ADVANCED_FACE('',(#105),#69,.T.);
#107=CARTESIAN_POINT('',(-1.265654E-015,0.0,9.299999999999933));
#108=DIRECTION('',(-2.220446E-016,0.0,-1.0));
#109=DIRECTION('',(0.0,1.0,0.0));
#110=AXIS2_PLACEMENT_3D('',#107,#108,#109);
#111=CYLINDRICAL_SURFACE('',#110,2.25);
#112=CARTESIAN_POINT('',(-1.067815E-016,2.25,3.699999999999928));
#113=VERTEX_POINT('',#112);
#114=CARTESIAN_POINT('',(0.0,2.25,14.89999999999994));
#115=VERTEX_POINT('',#114);
#116=CARTESIAN_POINT('',(-1.067815E-016,2.25,3.699999999999928));
#117=DIRECTION('',(0.0,0.0,1.0));
#118=VECTOR('',#117,11.200000000000012);
#119=LINE('',#116,#118);
#120=EDGE_CURVE('',#113,#115,#119,.T.);
#121=ORIENTED_EDGE('',*,*,#120,.F.);
#122=CARTESIAN_POINT('',(-1.01511495727372,2.007994428159396,3.69999999999993));
#123=VERTEX_POINT('',#122);
#124=CARTESIAN_POINT('',(-2.509104E-015,0.0,3.699999999999928));
#125=DIRECTION('',(0.0,0.0,-1.0));
#126=DIRECTION('',(0.0,1.0,0.0));
#127=AXIS2_PLACEMENT_3D('',#124,#125,#126);
#128=CIRCLE('',#127,2.25);
#129=EDGE_CURVE('',#123,#113,#128,.T.);
#130=ORIENTED_EDGE('',*,*,#129,.F.);
#131=CARTESIAN_POINT('',(-1.01511495727372,2.007994428159396,6.109999999999928));
#132=VERTEX_POINT('',#131);
#133=CARTESIAN_POINT('',(-1.01511495727372,2.007994428159396,3.699999999999929));
#134=DIRECTION('',(0.0,0.0,1.0));
#135=VECTOR('',#134,2.409999999999999);
#136=LINE('',#133,#135);
#137=EDGE_CURVE('',#123,#132,#136,.T.);
#138=ORIENTED_EDGE('',*,*,#137,.T.);
#139=CARTESIAN_POINT('',(-1.049114877948142,1.990441652716266,6.199999999999929));
#140=VERTEX_POINT('',#139);
#141=CARTESIAN_POINT('',(-1.01511495727372,2.007994428159396,6.109999999999928));
#142=CARTESIAN_POINT('',(-1.01511495727372,2.007994428159396,6.124391670853173));
#143=CARTESIAN_POINT('',(-1.017474716477579,2.006807098719077,6.139820299870728));
#144=CARTESIAN_POINT('',(-1.027156407509903,2.001868937932139,6.168566180622017));
#145=CARTESIAN_POINT('',(-1.03447514458533,1.998112060276115,6.181883469274863));
#146=CARTESIAN_POINT('',(-1.044816202683443,1.992702618836749,6.19511456205617));
#147=CARTESIAN_POINT('',(-1.046897304815395,1.991610483243565,6.197584310826868));
#148=CARTESIAN_POINT('',(-1.049114877948142,1.990441652716266,6.199999999999929));
#149=B_SPLINE_CURVE_WITH_KNOTS('',3,(#141,#142,#143,#144,#145,#146,#147,#148),.UNSPECIFIED.,.F.,.U.,(4,2,2,4),(0.0,0.043175012559737,0.086350025119474,0.096102814319851),.UNSPECIFIED.);
#150=EDGE_CURVE('',#132,#140,#149,.T.);
#151=ORIENTED_EDGE('',*,*,#150,.T.);
#152=CARTESIAN_POINT('',(-1.199334052189408,1.903706340604806,6.199999999999929));
#153=VERTEX_POINT('',#152);
#154=CARTESIAN_POINT('',(-1.953993E-015,0.0,6.199999999999928));
#155=DIRECTION('',(0.0,0.0,1.0));
#156=DIRECTION('',(0.0,1.0,0.0));
#157=AXIS2_PLACEMENT_3D('',#154,#155,#156);
#158=CIRCLE('',#157,2.25);
#159=EDGE_CURVE('',#140,#153,#158,.T.);
#160=ORIENTED_EDGE('',*,*,#159,.T.);
#161=CARTESIAN_POINT('',(-1.231533875870726,1.88303592971107,6.109999999999928));
#162=VERTEX_POINT('',#161);
#163=CARTESIAN_POINT('',(-1.199334052189408,1.903706340604806,6.199999999999929));
#164=CARTESIAN_POINT('',(-1.20145499254845,1.902370149228538,6.197584310826868));
#165=CARTESIAN_POINT('',(-1.203441282613885,1.901113806117177,6.195114562056169));
#166=CARTESIAN_POINT('',(-1.213296136405856,1.894862294618879,6.181883469274863));
#167=CARTESIAN_POINT('',(-1.220208778922203,1.890402091087339,6.168566180622016));
#168=CARTESIAN_POINT('',(-1.229325829034,1.884486013800654,6.139820299870728));
#169=CARTESIAN_POINT('',(-1.231533875870726,1.88303592971107,6.124391670853172));
#170=CARTESIAN_POINT('',(-1.231533875870726,1.88303592971107,6.109999999999928));
#171=B_SPLINE_CURVE_WITH_KNOTS('',3,(#163,#164,#165,#166,#167,#168,#169,#170),.UNSPECIFIED.,.F.,.U.,(4,2,2,4),(0.276919716828349,0.286672506028725,0.329847518588462,0.3730225311482),.UNSPECIFIED.);
#172=EDGE_CURVE('',#153,#162,#171,.T.);
#173=ORIENTED_EDGE('',*,*,#172,.T.);
#174=CARTESIAN_POINT('',(-1.231533875870726,1.88303592971107,3.69999999999993));
#175=VERTEX_POINT('',#174);
#176=CARTESIAN_POINT('',(-1.231533875870726,1.88303592971107,6.109999999999928));
#177=DIRECTION('',(0.0,0.0,-1.0));
#178=VECTOR('',#177,2.409999999999999);
#179=LINE('',#176,#178);
#180=EDGE_CURVE('',#162,#175,#179,.T.);
#181=ORIENTED_EDGE('',*,*,#180,.T.);
#182=CARTESIAN_POINT('',(-1.231416706806785,-1.883112554840293,3.699999999999928));
#183=VERTEX_POINT('',#182);
#184=CARTESIAN_POINT('',(-2.509104E-015,0.0,3.699999999999928));
#185=DIRECTION('',(0.0,0.0,-1.0));
#186=DIRECTION('',(0.0,1.0,0.0));
#187=AXIS2_PLACEMENT_3D('',#184,#185,#186);
#188=CIRCLE('',#187,2.25);
#189=EDGE_CURVE('',#183,#175,#188,.T.);
#190=ORIENTED_EDGE('',*,*,#189,.F.);
#191=CARTESIAN_POINT('',(-1.231416706806784,-1.883112554840294,6.109999999999925));
#192=VERTEX_POINT('',#191);
#193=CARTESIAN_POINT('',(-1.231416706806784,-1.883112554840294,3.699999999999928));
#194=DIRECTION('',(0.0,0.0,1.0));
#195=VECTOR('',#194,2.409999999999997);
#196=LINE('',#193,#195);
#197=EDGE_CURVE('',#183,#192,#196,.T.);
#198=ORIENTED_EDGE('',*,*,#197,.T.);
#199=CARTESIAN_POINT('',(-1.199215597028899,-1.903780962149434,6.199999999999927));
#200=VERTEX_POINT('',#199);
#201=CARTESIAN_POINT('',(-1.231416706806784,-1.883112554840294,6.109999999999925));
#202=CARTESIAN_POINT('',(-1.231416706806784,-1.883112554840294,6.124391670853171));
#203=CARTESIAN_POINT('',(-1.229208569746879,-1.884562501537491,6.139820299870724));
#204=CARTESIAN_POINT('',(-1.220091151541256,-1.890478011529606,6.168566180622014));
#205=CARTESIAN_POINT('',(-1.213178231514514,-1.894937784932533,6.181883469274862));
#206=CARTESIAN_POINT('',(-1.203322988758683,-1.901188683227827,6.195114562056168));
#207=CARTESIAN_POINT('',(-1.201336620524632,-1.902444902745376,6.197584310826866));
#208=CARTESIAN_POINT('',(-1.199215597028899,-1.903780962149434,6.199999999999927));
#209=B_SPLINE_CURVE_WITH_KNOTS('',3,(#201,#202,#203,#204,#205,#206,#207,#208),.UNSPECIFIED.,.F.,.U.,(4,2,2,4),(0.0,0.043175012559738,0.086350025119475,0.096102814319851),.UNSPECIFIED.);
#210=EDGE_CURVE('',#192,#200,#209,.T.);
#211=ORIENTED_EDGE('',*,*,#210,.T.);
#212=CARTESIAN_POINT('',(-1.048991026214569,-1.990506927122161,6.199999999999927));
#213=VERTEX_POINT('',#212);
#214=CARTESIAN_POINT('',(-1.953993E-015,0.0,6.199999999999927));
#215=DIRECTION('',(0.0,0.0,1.0));
#216=DIRECTION('',(0.0,1.0,0.0));
#217=AXIS2_PLACEMENT_3D('',#214,#215,#216);
#218=CIRCLE('',#217,2.25);
#219=EDGE_CURVE('',#200,#213,#218,.T.);
#220=ORIENTED_EDGE('',*,*,#219,.T.);
#221=CARTESIAN_POINT('',(-1.014990013433272,-2.008057586980695,6.109999999999925));
#222=VERTEX_POINT('',#221);
#223=CARTESIAN_POINT('',(-1.048991026214569,-1.990506927122161,6.199999999999927));
#224=CARTESIAN_POINT('',(-1.046773380358883,-1.99167561966487,6.197584310826866));
#225=CARTESIAN_POINT('',(-1.044692210275856,-1.992767625765141,6.195114562056168));
#226=CARTESIAN_POINT('',(-1.034350815610294,-1.99817642375042,6.181883469274862));
#227=CARTESIAN_POINT('',(-1.027031844787758,-2.001932846011088,6.168566180622014));
#228=CARTESIAN_POINT('',(-1.017349846510838,-2.006870404372137,6.139820299870724));
#229=CARTESIAN_POINT('',(-1.014990013433272,-2.008057586980695,6.124391670853171));
#230=CARTESIAN_POINT('',(-1.014990013433272,-2.008057586980695,6.109999999999925));
#231=B_SPLINE_CURVE_WITH_KNOTS('',3,(#223,#224,#225,#226,#227,#228,#229,#230),.UNSPECIFIED.,.F.,.U.,(4,2,2,4),(0.27691971682835,0.286672506028727,0.329847518588464,0.373022531148202),.UNSPECIFIED.);
#232=EDGE_CURVE('',#213,#222,#231,.T.);
#233=ORIENTED_EDGE('',*,*,#232,.T.);
#234=CARTESIAN_POINT('',(-1.014990013433271,-2.008057586980696,3.699999999999928));
#235=VERTEX_POINT('',#234);
#236=CARTESIAN_POINT('',(-1.014990013433272,-2.008057586980695,6.109999999999925));
#237=DIRECTION('',(0.0,0.0,-1.0));
#238=VECTOR('',#237,2.409999999999997);
#239=LINE('',#236,#238);
#240=EDGE_CURVE('',#222,#235,#239,.T.);
#241=ORIENTED_EDGE('',*,*,#240,.T.);
#242=CARTESIAN_POINT('',(-5.186972E-015,-2.25,3.699999999999928));
#243=VERTEX_POINT('',#242);
#244=CARTESIAN_POINT('',(-2.509104E-015,0.0,3.699999999999928));
#245=DIRECTION('',(0.0,0.0,-1.0));
#246=DIRECTION('',(0.0,1.0,0.0));
#247=AXIS2_PLACEMENT_3D('',#244,#245,#246);
#248=CIRCLE('',#247,2.25);
#249=EDGE_CURVE('',#243,#235,#248,.T.);
#250=ORIENTED_EDGE('',*,*,#249,.F.);
#251=CARTESIAN_POINT('',(-2.700073E-015,-2.25,14.899999999999942));
#252=VERTEX_POINT('',#251);
#253=CARTESIAN_POINT('',(-5.186972E-015,-2.25,3.699999999999928));
#254=DIRECTION('',(0.0,0.0,1.0));
#255=VECTOR('',#254,11.200000000000014);
#256=LINE('',#253,#255);
#257=EDGE_CURVE('',#243,#252,#256,.T.);
#258=ORIENTED_EDGE('',*,*,#257,.T.);
#259=CARTESIAN_POINT('',(-2.25,0.0,14.89999999999994));
#260=VERTEX_POINT('',#259);
#261=CARTESIAN_POINT('',(-2.220446E-017,0.0,14.89999999999994));
#262=DIRECTION('',(0.0,0.0,-1.0));
#263=DIRECTION('',(0.0,1.0,0.0));
#264=AXIS2_PLACEMENT_3D('',#261,#262,#263);
#265=CIRCLE('',#264,2.25);
#266=EDGE_CURVE('',#252,#260,#265,.T.);
#267=ORIENTED_EDGE('',*,*,#266,.T.);
#268=CARTESIAN_POINT('',(-2.220446E-017,0.0,14.89999999999994));
#269=DIRECTION('',(0.0,0.0,-1.0));
#270=DIRECTION('',(0.0,1.0,0.0));
#271=AXIS2_PLACEMENT_3D('',#268,#269,#270);
#272=CIRCLE('',#271,2.25);
#273=EDGE_CURVE('',#260,#115,#272,.T.);
#274=ORIENTED_EDGE('',*,*,#273,.T.);
#275=EDGE_LOOP('',(#121,#130,#138,#151,#160,#173,#181,#190,#198,#211,#220,#233,#241,#250,#258,#267,#274));
#276=FACE_OUTER_BOUND('',#275,.T.);
#277=ADVANCED_FACE('',(#276),#111,.T.);
#278=CARTESIAN_POINT('',(-2.220446E-017,0.0,14.899999999999938));
#279=DIRECTION('',(-2.220446E-016,0.0,-1.0));
#280=DIRECTION('',(-1.0,0.0,0.0));
#281=AXIS2_PLACEMENT_3D('',#278,#279,#280);
#282=TOROIDAL_SURFACE('',#281,2.149999999999999,0.100000000000001);
#283=CARTESIAN_POINT('',(-2.149999999999999,0.0,14.99999999999994));
#284=VERTEX_POINT('',#283);
#285=CARTESIAN_POINT('',(-2.149999999999999,0.0,14.899999999999938));
#286=DIRECTION('',(0.0,1.0,0.0));
#287=DIRECTION('',(-1.0,0.0,0.0));
#288=AXIS2_PLACEMENT_3D('',#285,#286,#287);
#289=CIRCLE('',#288,0.100000000000001);
#290=EDGE_CURVE('',#260,#284,#289,.T.);
#291=ORIENTED_EDGE('',*,*,#290,.F.);
#292=ORIENTED_EDGE('',*,*,#266,.F.);
#293=CARTESIAN_POINT('',(2.25,-2.755455E-016,14.899999999999938));
#294=VERTEX_POINT('',#293);
#295=CARTESIAN_POINT('',(-2.220446E-017,0.0,14.89999999999994));
#296=DIRECTION('',(0.0,0.0,-1.0));
#297=DIRECTION('',(0.0,1.0,0.0));
#298=AXIS2_PLACEMENT_3D('',#295,#296,#297);
#299=CIRCLE('',#298,2.25);
#300=EDGE_CURVE('',#294,#252,#299,.T.);
#301=ORIENTED_EDGE('',*,*,#300,.F.);
#302=CARTESIAN_POINT('',(2.149999999999999,-2.632991E-016,14.99999999999994));
#303=VERTEX_POINT('',#302);
#304=CARTESIAN_POINT('',(2.149999999999999,-2.632991E-016,14.899999999999938));
#305=DIRECTION('',(0.0,-1.0,0.0));
#306=DIRECTION('',(1.0,0.0,0.0));
#307=AXIS2_PLACEMENT_3D('',#304,#305,#306);
#308=CIRCLE('',#307,0.100000000000001);
#309=EDGE_CURVE('',#294,#303,#308,.T.);
#310=ORIENTED_EDGE('',*,*,#309,.T.);
#311=CARTESIAN_POINT('',(0.0,0.0,14.99999999999994));
#312=DIRECTION('',(0.0,0.0,-1.0));
#313=DIRECTION('',(0.0,1.0,0.0));
#314=AXIS2_PLACEMENT_3D('',#311,#312,#313);
#315=CIRCLE('',#314,2.149999999999999);
#316=EDGE_CURVE('',#303,#284,#315,.T.);
#317=ORIENTED_EDGE('',*,*,#316,.T.);
#318=EDGE_LOOP('',(#291,#292,#301,#310,#317));
#319=FACE_OUTER_BOUND('',#318,.T.);
#320=ADVANCED_FACE('',(#319),#282,.T.);
#321=CARTESIAN_POINT('',(-6.661338E-016,0.0,11.99999999999994));
#322=DIRECTION('',(-2.220446E-016,0.0,-1.0));
#323=DIRECTION('',(0.0,1.0,0.0));
#324=AXIS2_PLACEMENT_3D('',#321,#322,#323);
#325=CYLINDRICAL_SURFACE('',#324,1.299999999999841);
#326=CARTESIAN_POINT('',(0.0,1.299999999999955,8.99999999999994));
#327=VERTEX_POINT('',#326);
#328=CARTESIAN_POINT('',(0.0,1.299999999999727,14.99999999999994));
#329=VERTEX_POINT('',#328);
#330=CARTESIAN_POINT('',(5.574097E-017,1.299999999999841,8.99999999999994));
#331=DIRECTION('',(0.0,0.0,1.0));
#332=VECTOR('',#331,6.0);
#333=LINE('',#330,#332);
#334=EDGE_CURVE('',#327,#329,#333,.T.);
#335=ORIENTED_EDGE('',*,*,#334,.F.);
#336=CARTESIAN_POINT('',(-2.879480E-015,-1.299999999999841,8.99999999999994));
#337=VERTEX_POINT('',#336);
#338=CARTESIAN_POINT('',(-1.332268E-015,0.0,8.99999999999994));
#339=DIRECTION('',(0.0,0.0,-1.0));
#340=DIRECTION('',(0.0,1.0,0.0));
#341=AXIS2_PLACEMENT_3D('',#338,#339,#340);
#342=CIRCLE('',#341,1.299999999999955);
#343=EDGE_CURVE('',#327,#337,#342,.T.);
#344=ORIENTED_EDGE('',*,*,#343,.T.);
#345=CARTESIAN_POINT('',(-1.547213E-015,-1.299999999999841,14.99999999999994));
#346=VERTEX_POINT('',#345);
#347=CARTESIAN_POINT('',(-2.879480E-015,-1.299999999999841,8.99999999999994));
#348=DIRECTION('',(0.0,0.0,1.0));
#349=VECTOR('',#348,6.0);
#350=LINE('',#347,#349);
#351=EDGE_CURVE('',#337,#346,#350,.T.);
#352=ORIENTED_EDGE('',*,*,#351,.T.);
#353=CARTESIAN_POINT('',(0.0,0.0,14.99999999999994));
#354=DIRECTION('',(0.0,0.0,-1.0));
#355=DIRECTION('',(0.0,1.0,0.0));
#356=AXIS2_PLACEMENT_3D('',#353,#354,#355);
#357=CIRCLE('',#356,1.299999999999727);
#358=EDGE_CURVE('',#329,#346,#357,.T.);
#359=ORIENTED_EDGE('',*,*,#358,.F.);
#360=EDGE_LOOP('',(#335,#344,#352,#359));
#361=FACE_OUTER_BOUND('',#360,.T.);
#362=ADVANCED_FACE('',(#361),#325,.F.);
#363=CARTESIAN_POINT('',(-2.986500E-015,0.0,1.549999999999937));
#364=DIRECTION('',(-2.220446E-016,0.0,-1.0));
#365=DIRECTION('',(0.0,1.0,0.0));
#366=AXIS2_PLACEMENT_3D('',#363,#364,#365);
#367=CYLINDRICAL_SURFACE('',#366,2.250000000000004);
#368=CARTESIAN_POINT('',(0.0,2.250000000000004,0.599999999999934));
#369=VERTEX_POINT('',#368);
#370=CARTESIAN_POINT('',(0.0,2.25,2.49999999999994));
#371=VERTEX_POINT('',#370);
#372=CARTESIAN_POINT('',(-7.951197E-016,2.250000000000004,0.599999999999934));
#373=DIRECTION('',(0.0,0.0,1.0));
#374=VECTOR('',#373,1.900000000000006);
#375=LINE('',#372,#374);
#376=EDGE_CURVE('',#369,#371,#375,.T.);
#377=ORIENTED_EDGE('',*,*,#376,.F.);
#378=CARTESIAN_POINT('',(-5.875310E-015,-2.250000000000004,0.599999999999934));
#379=VERTEX_POINT('',#378);
#380=CARTESIAN_POINT('',(-3.197442E-015,0.0,0.599999999999934));
#381=DIRECTION('',(0.0,0.0,-1.0));
#382=DIRECTION('',(0.0,1.0,0.0));
#383=AXIS2_PLACEMENT_3D('',#380,#381,#382);
#384=CIRCLE('',#383,2.250000000000004);
#385=EDGE_CURVE('',#379,#369,#384,.T.);
#386=ORIENTED_EDGE('',*,*,#385,.F.);
#387=CARTESIAN_POINT('',(-5.453426E-015,-2.250000000000004,2.49999999999994));
#388=VERTEX_POINT('',#387);
#389=CARTESIAN_POINT('',(-5.875310E-015,-2.250000000000004,0.599999999999934));
#390=DIRECTION('',(0.0,0.0,1.0));
#391=VECTOR('',#390,1.900000000000006);
#392=LINE('',#389,#391);
#393=EDGE_CURVE('',#379,#388,#392,.T.);
#394=ORIENTED_EDGE('',*,*,#393,.T.);
#395=CARTESIAN_POINT('',(-2.775558E-015,0.0,2.49999999999994));
#396=DIRECTION('',(0.0,0.0,-1.0));
#397=DIRECTION('',(0.0,1.0,0.0));
#398=AXIS2_PLACEMENT_3D('',#395,#396,#397);
#399=CIRCLE('',#398,2.25);
#400=EDGE_CURVE('',#388,#371,#399,.T.);
#401=ORIENTED_EDGE('',*,*,#400,.T.);
#402=EDGE_LOOP('',(#377,#386,#394,#401));
#403=FACE_OUTER_BOUND('',#402,.T.);
#404=ADVANCED_FACE('',(#403),#367,.T.);
#405=CARTESIAN_POINT('',(-1.332268E-015,0.0,3.399599860933801));
#406=DIRECTION('',(0.0,-1.224647E-016,-1.0));
#407=DIRECTION('',(1.0,0.0,0.0));
#408=AXIS2_PLACEMENT_3D('',#405,#406,#407);
#409=CYLINDRICAL_SURFACE('',#408,1.6);
#410=CARTESIAN_POINT('',(1.599999999999999,6.858512E-016,8.99999999999994));
#411=VERTEX_POINT('',#410);
#412=CARTESIAN_POINT('',(1.599999999999999,-4.163309E-016,-6.128431E-014));
#413=VERTEX_POINT('',#412);
#414=CARTESIAN_POINT('',(1.599999999999999,6.858512E-016,8.99999999999994));
#415=DIRECTION('',(0.0,0.0,-1.0));
#416=VECTOR('',#415,9.0);
#417=LINE('',#414,#416);
#418=EDGE_CURVE('',#411,#413,#417,.T.);
#419=ORIENTED_EDGE('',*,*,#418,.F.);
#420=CARTESIAN_POINT('',(-1.600000000000001,8.817947E-016,8.99999999999994));
#421=VERTEX_POINT('',#420);
#422=CARTESIAN_POINT('',(-1.332268E-015,6.858512E-016,8.99999999999994));
#423=DIRECTION('',(0.0,0.0,1.0));
#424=DIRECTION('',(1.0,0.0,0.0));
#425=AXIS2_PLACEMENT_3D('',#422,#423,#424);
#426=CIRCLE('',#425,1.6);
#427=EDGE_CURVE('',#411,#421,#426,.T.);
#428=ORIENTED_EDGE('',*,*,#427,.T.);
#429=CARTESIAN_POINT('',(-1.600000000000001,-1.469086E-016,0.599999999999935));
#430=VERTEX_POINT('',#429);
#431=CARTESIAN_POINT('',(-1.600000000000001,8.817947E-016,8.99999999999994));
#432=DIRECTION('',(0.0,0.0,-1.0));
#433=VECTOR('',#432,8.400000000000006);
#434=LINE('',#431,#433);
#435=EDGE_CURVE('',#421,#430,#434,.T.);
#436=ORIENTED_EDGE('',*,*,#435,.T.);
#437=CARTESIAN_POINT('',(-1.356183754093458,0.848979166489366,0.599999999999934));
#438=VERTEX_POINT('',#437);
#439=CARTESIAN_POINT('',(-1.332268E-015,-3.428521E-016,0.599999999999934));
#440=DIRECTION('',(0.0,0.0,1.0));
#441=DIRECTION('',(1.0,0.0,0.0));
#442=AXIS2_PLACEMENT_3D('',#439,#440,#441);
#443=CIRCLE('',#442,1.6);
#444=EDGE_CURVE('',#438,#430,#443,.T.);
#445=ORIENTED_EDGE('',*,*,#444,.F.);
#446=CARTESIAN_POINT('',(-1.356183754093458,0.848979166489366,-6.039613E-014));
#447=VERTEX_POINT('',#446);
#448=CARTESIAN_POINT('',(-1.356183754093458,0.848979166489366,-6.039613E-014));
#449=DIRECTION('',(0.0,0.0,1.0));
#450=VECTOR('',#449,0.599999999999994);
#451=LINE('',#448,#450);
#452=EDGE_CURVE('',#447,#438,#451,.T.);
#453=ORIENTED_EDGE('',*,*,#452,.F.);
#454=CARTESIAN_POINT('',(-0.057145648416799,1.598979166489364,-6.128431E-014));
#455=VERTEX_POINT('',#454);
#456=CARTESIAN_POINT('',(-1.332268E-015,-4.163309E-016,-6.084022E-014));
#457=DIRECTION('',(0.0,0.0,1.0));
#458=DIRECTION('',(1.0,0.0,0.0));
#459=AXIS2_PLACEMENT_3D('',#456,#457,#458);
#460=CIRCLE('',#459,1.6);
#461=EDGE_CURVE('',#455,#447,#460,.T.);
#462=ORIENTED_EDGE('',*,*,#461,.F.);
#463=CARTESIAN_POINT('',(-0.057145648416799,1.598979166489365,0.599999999999934));
#464=VERTEX_POINT('',#463);
#465=CARTESIAN_POINT('',(-0.057145648416799,1.598979166489364,0.599999999999934));
#466=DIRECTION('',(0.0,0.0,-1.0));
#467=VECTOR('',#466,0.599999999999995);
#468=LINE('',#465,#467);
#469=EDGE_CURVE('',#464,#455,#468,.T.);
#470=ORIENTED_EDGE('',*,*,#469,.F.);
#471=CARTESIAN_POINT('',(1.413329402510256,0.75,0.599999999999934));
#472=VERTEX_POINT('',#471);
#473=CARTESIAN_POINT('',(-1.332268E-015,-3.428521E-016,0.599999999999934));
#474=DIRECTION('',(0.0,0.0,1.0));
#475=DIRECTION('',(1.0,0.0,0.0));
#476=AXIS2_PLACEMENT_3D('',#473,#474,#475);
#477=CIRCLE('',#476,1.6);
#478=EDGE_CURVE('',#472,#464,#477,.T.);
#479=ORIENTED_EDGE('',*,*,#478,.F.);
#480=CARTESIAN_POINT('',(1.413329402510256,0.75,-6.128431E-014));
#481=VERTEX_POINT('',#480);
#482=CARTESIAN_POINT('',(1.413329402510256,0.75,-6.128431E-014));
#483=DIRECTION('',(0.0,0.0,1.0));
#484=VECTOR('',#483,0.599999999999995);
#485=LINE('',#482,#484);
#486=EDGE_CURVE('',#481,#472,#485,.T.);
#487=ORIENTED_EDGE('',*,*,#486,.F.);
#488=CARTESIAN_POINT('',(-1.332268E-015,-4.163309E-016,-6.084022E-014));
#489=DIRECTION('',(0.0,0.0,1.0));
#490=DIRECTION('',(1.0,0.0,0.0));
#491=AXIS2_PLACEMENT_3D('',#488,#489,#490);
#492=CIRCLE('',#491,1.6);
#493=EDGE_CURVE('',#413,#481,#492,.T.);
#494=ORIENTED_EDGE('',*,*,#493,.F.);
#495=EDGE_LOOP('',(#419,#428,#436,#445,#453,#462,#470,#479,#487,#494));
#496=FACE_OUTER_BOUND('',#495,.T.);
#497=ADVANCED_FACE('',(#496),#409,.F.);
#498=CARTESIAN_POINT('',(-1.124939378221744,-1.948592158514977,4.904999999999927));
#499=DIRECTION('',(0.0,0.0,1.0));
#500=DIRECTION('',(-0.5,-0.866025403784438,0.0));
#501=AXIS2_PLACEMENT_3D('',#498,#499,#500);
#502=CYLINDRICAL_SURFACE('',#501,0.125);
#503=ORIENTED_EDGE('',*,*,#240,.F.);
#504=CARTESIAN_POINT('',(-1.124939378221744,-1.948592158514977,6.109999999999925));
#505=DIRECTION('',(0.0,0.0,1.0));
#506=DIRECTION('',(-0.5,-0.866025403784438,0.0));
#507=AXIS2_PLACEMENT_3D('',#504,#505,#506);
#508=CIRCLE('',#507,0.125);
#509=EDGE_CURVE('',#192,#222,#508,.T.);
#510=ORIENTED_EDGE('',*,*,#509,.F.);
#511=ORIENTED_EDGE('',*,*,#197,.F.);
#512=CARTESIAN_POINT('',(-1.124939378221744,-1.948592158514977,3.699999999999928));
#513=DIRECTION('',(0.0,0.0,-1.0));
#514=DIRECTION('',(-0.5,-0.866025403784438,0.0));
#515=AXIS2_PLACEMENT_3D('',#512,#513,#514);
#516=CIRCLE('',#515,0.125);
#517=EDGE_CURVE('',#235,#183,#516,.T.);
#518=ORIENTED_EDGE('',*,*,#517,.F.);
#519=EDGE_LOOP('',(#503,#510,#511,#518));
#520=FACE_OUTER_BOUND('',#519,.T.);
#521=ADVANCED_FACE('',(#520),#502,.T.);
#522=CARTESIAN_POINT('',(-1.124939378221744,-1.948592158514977,6.109999999999925));
#523=DIRECTION('',(0.0,0.0,1.0));
#524=DIRECTION('',(-0.5,-0.866025403784438,0.0));
#525=AXIS2_PLACEMENT_3D('',#522,#523,#524);
#526=SPHERICAL_SURFACE('',#525,0.125);
#527=ORIENTED_EDGE('',*,*,#232,.F.);
#528=CARTESIAN_POINT('',(-1.124939378221744,-1.948592158514977,6.199999999999927));
#529=DIRECTION('',(0.0,0.0,-1.0));
#530=DIRECTION('',(-0.866025403784438,0.5,0.0));
#531=AXIS2_PLACEMENT_3D('',#528,#529,#530);
#532=CIRCLE('',#531,0.086746757864485);
#533=EDGE_CURVE('',#213,#200,#532,.T.);
#534=ORIENTED_EDGE('',*,*,#533,.T.);
#535=ORIENTED_EDGE('',*,*,#210,.F.);
#536=ORIENTED_EDGE('',*,*,#509,.T.);
#537=EDGE_LOOP('',(#527,#534,#535,#536));
#538=FACE_OUTER_BOUND('',#537,.T.);
#539=ADVANCED_FACE('',(#538),#526,.T.);
#540=CARTESIAN_POINT('',(-1.133145360747288,-1.987389415422946,6.199999999999927));
#541=DIRECTION('',(0.0,0.0,1.0));
#542=DIRECTION('',(-0.5,-0.866025403784438,0.0));
#543=AXIS2_PLACEMENT_3D('',#540,#541,#542);
#544=PLANE('',#543);
#545=ORIENTED_EDGE('',*,*,#219,.F.);
#546=ORIENTED_EDGE('',*,*,#533,.F.);
#547=EDGE_LOOP('',(#545,#546));
#548=FACE_OUTER_BOUND('',#547,.T.);
#549=ADVANCED_FACE('',(#548),#544,.T.);
#550=CARTESIAN_POINT('',(0.0,2.424999999999997,3.699999999999928));
#551=DIRECTION('',(0.0,0.0,1.0));
#552=DIRECTION('',(1.0,0.0,0.0));
#553=AXIS2_PLACEMENT_3D('',#550,#551,#552);
#554=PLANE('',#553);
#555=CARTESIAN_POINT('',(-2.509104E-015,0.0,3.699999999999928));
#556=DIRECTION('',(0.0,0.0,-1.0));
#557=DIRECTION('',(0.0,1.0,0.0));
#558=AXIS2_PLACEMENT_3D('',#555,#556,#557);
#559=CIRCLE('',#558,2.599999999999994);
#560=EDGE_CURVE('',#73,#90,#559,.T.);
#561=ORIENTED_EDGE('',*,*,#560,.F.);
#562=ORIENTED_EDGE('',*,*,#102,.F.);
#563=EDGE_LOOP('',(#561,#562));
#564=FACE_OUTER_BOUND('',#563,.T.);
#565=ORIENTED_EDGE('',*,*,#517,.T.);
#566=ORIENTED_EDGE('',*,*,#189,.T.);
#567=CARTESIAN_POINT('',(-1.125060621778254,1.948522158514992,3.699999999999928));
#568=DIRECTION('',(0.0,0.0,-1.0));
#569=DIRECTION('',(-0.5,0.866025403784439,0.0));
#570=AXIS2_PLACEMENT_3D('',#567,#568,#569);
#571=CIRCLE('',#570,0.125);
#572=EDGE_CURVE('',#175,#123,#571,.T.);
#573=ORIENTED_EDGE('',*,*,#572,.T.);
#574=ORIENTED_EDGE('',*,*,#129,.T.);
#575=CARTESIAN_POINT('',(2.246523889303994,0.12502165726963,3.699999999999928));
#576=VERTEX_POINT('',#575);
#577=CARTESIAN_POINT('',(-2.509104E-015,0.0,3.699999999999928));
#578=DIRECTION('',(0.0,0.0,-1.0));
#579=DIRECTION('',(0.0,1.0,0.0));
#580=AXIS2_PLACEMENT_3D('',#577,#578,#579);
#581=CIRCLE('',#580,2.25);
#582=EDGE_CURVE('',#113,#576,#581,.T.);
#583=ORIENTED_EDGE('',*,*,#582,.T.);
#584=CARTESIAN_POINT('',(2.2465316640805,-0.1248818733191,3.699999999999928));
#585=VERTEX_POINT('',#584);
#586=CARTESIAN_POINT('',(2.249999999999997,0.000069999999991,3.699999999999928));
#587=DIRECTION('',(0.0,0.0,-1.0));
#588=DIRECTION('',(1.0,0.0,0.0));
#589=AXIS2_PLACEMENT_3D('',#586,#587,#588);
#590=CIRCLE('',#589,0.125);
#591=EDGE_CURVE('',#576,#585,#590,.T.);
#592=ORIENTED_EDGE('',*,*,#591,.T.);
#593=CARTESIAN_POINT('',(-2.509104E-015,0.0,3.699999999999928));
#594=DIRECTION('',(0.0,0.0,-1.0));
#595=DIRECTION('',(0.0,1.0,0.0));
#596=AXIS2_PLACEMENT_3D('',#593,#594,#595);
#597=CIRCLE('',#596,2.25);
#598=EDGE_CURVE('',#585,#243,#597,.T.);
#599=ORIENTED_EDGE('',*,*,#598,.T.);
#600=ORIENTED_EDGE('',*,*,#249,.T.);
#601=EDGE_LOOP('',(#565,#566,#573,#574,#583,#592,#599,#600));
#602=FACE_BOUND('',#601,.T.);
#603=ADVANCED_FACE('',(#564,#602),#554,.T.);
#604=CARTESIAN_POINT('',(2.249999999999997,0.000069999999991,4.904999999999927));
#605=DIRECTION('',(0.0,0.0,1.0));
#606=DIRECTION('',(1.0,0.0,0.0));
#607=AXIS2_PLACEMENT_3D('',#604,#605,#606);
#608=CYLINDRICAL_SURFACE('',#607,0.125);
#609=CARTESIAN_POINT('',(2.246523889303995,0.125021657269629,6.109999999999925));
#610=VERTEX_POINT('',#609);
#611=CARTESIAN_POINT('',(2.246523889303994,0.125021657269629,6.109999999999925));
#612=DIRECTION('',(0.0,0.0,-1.0));
#613=VECTOR('',#612,2.409999999999997);
#614=LINE('',#611,#613);
#615=EDGE_CURVE('',#610,#576,#614,.T.);
#616=ORIENTED_EDGE('',*,*,#615,.F.);
#617=CARTESIAN_POINT('',(2.246531664080501,-0.124881873319098,6.109999999999925));
#618=VERTEX_POINT('',#617);
#619=CARTESIAN_POINT('',(2.249999999999997,0.000069999999991,6.109999999999925));
#620=DIRECTION('',(0.0,0.0,1.0));
#621=DIRECTION('',(1.0,0.0,0.0));
#622=AXIS2_PLACEMENT_3D('',#619,#620,#621);
#623=CIRCLE('',#622,0.125);
#624=EDGE_CURVE('',#618,#610,#623,.T.);
#625=ORIENTED_EDGE('',*,*,#624,.F.);
#626=CARTESIAN_POINT('',(2.2465316640805,-0.124881873319098,3.699999999999928));
#627=DIRECTION('',(0.0,0.0,1.0));
#628=VECTOR('',#627,2.409999999999997);
#629=LINE('',#626,#628);
#630=EDGE_CURVE('',#585,#618,#629,.T.);
#631=ORIENTED_EDGE('',*,*,#630,.F.);
#632=ORIENTED_EDGE('',*,*,#591,.F.);
#633=EDGE_LOOP('',(#616,#625,#631,#632));
#634=FACE_OUTER_BOUND('',#633,.T.);
#635=ADVANCED_FACE('',(#634),#608,.T.);
#636=CARTESIAN_POINT('',(2.249999999999997,0.000069999999991,6.109999999999925));
#637=DIRECTION('',(0.0,0.0,1.0));
#638=DIRECTION('',(1.0,0.0,0.0));
#639=AXIS2_PLACEMENT_3D('',#636,#637,#638);
#640=SPHERICAL_SURFACE('',#639,0.125);
#641=CARTESIAN_POINT('',(2.248325078403974,0.086800586517358,6.199999999999928));
#642=VERTEX_POINT('',#641);
#643=CARTESIAN_POINT('',(2.248325078403974,0.086800586517358,6.199999999999928));
#644=CARTESIAN_POINT('',(2.24822837290733,0.089305470436334,6.197584310826867));
#645=CARTESIAN_POINT('',(2.248133492889738,0.091653819647968,6.195114562056167));
#646=CARTESIAN_POINT('',(2.247646952016147,0.103314129131545,6.181883469274862));
#647=CARTESIAN_POINT('',(2.247240623709959,0.111530754923752,6.168566180622014));
#648=CARTESIAN_POINT('',(2.246675675544836,0.122384390571487,6.139820299870725));
#649=CARTESIAN_POINT('',(2.246523889303995,0.125021657269629,6.124391670853171));
#650=CARTESIAN_POINT('',(2.246523889303995,0.125021657269629,6.109999999999925));
#651=B_SPLINE_CURVE_WITH_KNOTS('',3,(#643,#644,#645,#646,#647,#648,#649,#650),.UNSPECIFIED.,.F.,.U.,(4,2,2,4),(0.276919716828348,0.286672506028727,0.329847518588464,0.373022531148201),.UNSPECIFIED.);
#652=EDGE_CURVE('',#642,#610,#651,.T.);
#653=ORIENTED_EDGE('',*,*,#652,.F.);
#654=CARTESIAN_POINT('',(2.248330474977038,-0.086660690566827,6.199999999999928));
#655=VERTEX_POINT('',#654);
#656=CARTESIAN_POINT('',(2.249999999999997,0.000069999999991,6.199999999999928));
#657=DIRECTION('',(0.0,0.0,-1.0));
#658=DIRECTION('',(0.0,-1.0,0.0));
#659=AXIS2_PLACEMENT_3D('',#656,#657,#658);
#660=CIRCLE('',#659,0.086746757864484);
#661=EDGE_CURVE('',#642,#655,#660,.T.);
#662=ORIENTED_EDGE('',*,*,#661,.T.);
#663=CARTESIAN_POINT('',(2.246531664080501,-0.124881873319098,6.109999999999925));
#664=CARTESIAN_POINT('',(2.246531664080501,-0.124881873319098,6.124391670853171));
#665=CARTESIAN_POINT('',(2.246683286224454,-0.122244597181584,6.139820299870725));
#666=CARTESIAN_POINT('',(2.247247559051155,-0.111390926402529,6.168566180622014));
#667=CARTESIAN_POINT('',(2.247653376099841,-0.103174275343578,6.181883469274862));
#668=CARTESIAN_POINT('',(2.248139191442123,-0.091513935608918,6.195114562056168));
#669=CARTESIAN_POINT('',(2.248233925340025,-0.089165580498186,6.197584310826866));
#670=CARTESIAN_POINT('',(2.248330474977038,-0.086660690566827,6.199999999999928));
#671=B_SPLINE_CURVE_WITH_KNOTS('',3,(#663,#664,#665,#666,#667,#668,#669,#670),.UNSPECIFIED.,.F.,.U.,(4,2,2,4),(0.0,0.043175012559737,0.086350025119475,0.096102814319854),.UNSPECIFIED.);
#672=EDGE_CURVE('',#618,#655,#671,.T.);
#673=ORIENTED_EDGE('',*,*,#672,.F.);
#674=ORIENTED_EDGE('',*,*,#624,.T.);
#675=EDGE_LOOP('',(#653,#662,#673,#674));
#676=FACE_OUTER_BOUND('',#675,.T.);
#677=ADVANCED_FACE('',(#676),#640,.T.);
#678=CARTESIAN_POINT('',(2.287702401342222,0.012362039123844,6.199999999999928));
#679=DIRECTION('',(0.0,0.0,1.0));
#680=DIRECTION('',(1.0,0.0,0.0));
#681=AXIS2_PLACEMENT_3D('',#678,#679,#680);
#682=PLANE('',#681);
#683=CARTESIAN_POINT('',(-1.953993E-015,0.0,6.199999999999928));
#684=DIRECTION('',(0.0,0.0,1.0));
#685=DIRECTION('',(0.0,1.0,0.0));
#686=AXIS2_PLACEMENT_3D('',#683,#684,#685);
#687=CIRCLE('',#686,2.25);
#688=EDGE_CURVE('',#655,#642,#687,.T.);
#689=ORIENTED_EDGE('',*,*,#688,.F.);
#690=ORIENTED_EDGE('',*,*,#661,.F.);
#691=EDGE_LOOP('',(#689,#690));
#692=FACE_OUTER_BOUND('',#691,.T.);
#693=ADVANCED_FACE('',(#692),#682,.T.);
#694=CARTESIAN_POINT('',(-1.125060621778254,1.948522158514992,4.904999999999927));
#695=DIRECTION('',(0.0,0.0,1.0));
#696=DIRECTION('',(-0.5,0.866025403784439,0.0));
#697=AXIS2_PLACEMENT_3D('',#694,#695,#696);
#698=CYLINDRICAL_SURFACE('',#697,0.125);
#699=ORIENTED_EDGE('',*,*,#180,.F.);
#700=CARTESIAN_POINT('',(-1.125060621778254,1.948522158514992,6.109999999999927));
#701=DIRECTION('',(0.0,0.0,1.0));
#702=DIRECTION('',(-0.5,0.866025403784439,0.0));
#703=AXIS2_PLACEMENT_3D('',#700,#701,#702);
#704=CIRCLE('',#703,0.125);
#705=EDGE_CURVE('',#132,#162,#704,.T.);
#706=ORIENTED_EDGE('',*,*,#705,.F.);
#707=ORIENTED_EDGE('',*,*,#137,.F.);
#708=ORIENTED_EDGE('',*,*,#572,.F.);
#709=EDGE_LOOP('',(#699,#706,#707,#708));
#710=FACE_OUTER_BOUND('',#709,.T.);
#711=ADVANCED_FACE('',(#710),#698,.T.);
#712=CARTESIAN_POINT('',(-1.125060621778254,1.948522158514992,6.109999999999927));
#713=DIRECTION('',(0.0,0.0,1.0));
#714=DIRECTION('',(-0.5,0.866025403784439,0.0));
#715=AXIS2_PLACEMENT_3D('',#712,#713,#714);
#716=SPHERICAL_SURFACE('',#715,0.125);
#717=ORIENTED_EDGE('',*,*,#172,.F.);
#718=CARTESIAN_POINT('',(-1.125060621778254,1.948522158514992,6.199999999999929));
#719=DIRECTION('',(0.0,0.0,-1.0));
#720=DIRECTION('',(0.866025403784439,0.5,0.0));
#721=AXIS2_PLACEMENT_3D('',#718,#719,#720);
#722=CIRCLE('',#721,0.086746757864485);
#723=EDGE_CURVE('',#153,#140,#722,.T.);
#724=ORIENTED_EDGE('',*,*,#723,.T.);
#725=ORIENTED_EDGE('',*,*,#150,.F.);
#726=ORIENTED_EDGE('',*,*,#705,.T.);
#727=EDGE_LOOP('',(#717,#724,#725,#726));
#728=FACE_OUTER_BOUND('',#727,.T.);
#729=ADVANCED_FACE('',(#728),#716,.T.);
#730=CARTESIAN_POINT('',(-1.154557040594935,1.975027376299109,6.199999999999929));
#731=DIRECTION('',(0.0,0.0,1.0));
#732=DIRECTION('',(-0.5,0.866025403784439,0.0));
#733=AXIS2_PLACEMENT_3D('',#730,#731,#732);
#734=PLANE('',#733);
#735=ORIENTED_EDGE('',*,*,#159,.F.);
#736=ORIENTED_EDGE('',*,*,#723,.F.);
#737=EDGE_LOOP('',(#735,#736));
#738=FACE_OUTER_BOUND('',#737,.T.);
#739=ADVANCED_FACE('',(#738),#734,.T.);
#740=CARTESIAN_POINT('',(-1.332268E-015,0.0,3.399599860933801));
#741=DIRECTION('',(0.0,-1.224647E-016,-1.0));
#742=DIRECTION('',(1.0,0.0,0.0));
#743=AXIS2_PLACEMENT_3D('',#740,#741,#742);
#744=CYLINDRICAL_SURFACE('',#743,1.6);
#745=ORIENTED_EDGE('',*,*,#418,.T.);
#746=CARTESIAN_POINT('',(1.413329402510256,-0.75,-6.128431E-014));
#747=VERTEX_POINT('',#746);
#748=CARTESIAN_POINT('',(-1.332268E-015,-4.163309E-016,-6.084022E-014));
#749=DIRECTION('',(0.0,0.0,1.0));
#750=DIRECTION('',(1.0,0.0,0.0));
#751=AXIS2_PLACEMENT_3D('',#748,#749,#750);
#752=CIRCLE('',#751,1.6);
#753=EDGE_CURVE('',#747,#413,#752,.T.);
#754=ORIENTED_EDGE('',*,*,#753,.F.);
#755=CARTESIAN_POINT('',(1.413329402510256,-0.75,0.599999999999934));
#756=VERTEX_POINT('',#755);
#757=CARTESIAN_POINT('',(1.413329402510256,-0.75,0.599999999999934));
#758=DIRECTION('',(0.0,0.0,-1.0));
#759=VECTOR('',#758,0.599999999999995);
#760=LINE('',#757,#759);
#761=EDGE_CURVE('',#756,#747,#760,.T.);
#762=ORIENTED_EDGE('',*,*,#761,.F.);
#763=CARTESIAN_POINT('',(-0.0571456484168,-1.598979166489365,0.599999999999934));
#764=VERTEX_POINT('',#763);
#765=CARTESIAN_POINT('',(-1.332268E-015,-3.428521E-016,0.599999999999934));
#766=DIRECTION('',(0.0,0.0,1.0));
#767=DIRECTION('',(1.0,0.0,0.0));
#768=AXIS2_PLACEMENT_3D('',#765,#766,#767);
#769=CIRCLE('',#768,1.6);
#770=EDGE_CURVE('',#764,#756,#769,.T.);
#771=ORIENTED_EDGE('',*,*,#770,.F.);
#772=CARTESIAN_POINT('',(-0.057145648416801,-1.598979166489365,-6.128431E-014));
#773=VERTEX_POINT('',#772);
#774=CARTESIAN_POINT('',(-0.0571456484168,-1.598979166489365,-6.128431E-014));
#775=DIRECTION('',(0.0,0.0,1.0));
#776=VECTOR('',#775,0.599999999999995);
#777=LINE('',#774,#776);
#778=EDGE_CURVE('',#773,#764,#777,.T.);
#779=ORIENTED_EDGE('',*,*,#778,.F.);
#780=CARTESIAN_POINT('',(-1.356183754093459,-0.848979166489366,-6.039613E-014));
#781=VERTEX_POINT('',#780);
#782=CARTESIAN_POINT('',(-1.332268E-015,-4.163309E-016,-6.084022E-014));
#783=DIRECTION('',(0.0,0.0,1.0));
#784=DIRECTION('',(1.0,0.0,0.0));
#785=AXIS2_PLACEMENT_3D('',#782,#783,#784);
#786=CIRCLE('',#785,1.6);
#787=EDGE_CURVE('',#781,#773,#786,.T.);
#788=ORIENTED_EDGE('',*,*,#787,.F.);
#789=CARTESIAN_POINT('',(-1.356183754093459,-0.848979166489365,0.599999999999934));
#790=VERTEX_POINT('',#789);
#791=CARTESIAN_POINT('',(-1.356183754093459,-0.848979166489366,0.599999999999934));
#792=DIRECTION('',(0.0,0.0,-1.0));
#793=VECTOR('',#792,0.599999999999994);
#794=LINE('',#791,#793);
#795=EDGE_CURVE('',#790,#781,#794,.T.);
#796=ORIENTED_EDGE('',*,*,#795,.F.);
#797=CARTESIAN_POINT('',(-1.332268E-015,-3.428521E-016,0.599999999999934));
#798=DIRECTION('',(0.0,0.0,1.0));
#799=DIRECTION('',(1.0,0.0,0.0));
#800=AXIS2_PLACEMENT_3D('',#797,#798,#799);
#801=CIRCLE('',#800,1.6);
#802=EDGE_CURVE('',#430,#790,#801,.T.);
#803=ORIENTED_EDGE('',*,*,#802,.F.);
#804=ORIENTED_EDGE('',*,*,#435,.F.);
#805=CARTESIAN_POINT('',(-1.332268E-015,6.858512E-016,8.99999999999994));
#806=DIRECTION('',(0.0,0.0,1.0));
#807=DIRECTION('',(1.0,0.0,0.0));
#808=AXIS2_PLACEMENT_3D('',#805,#806,#807);
#809=CIRCLE('',#808,1.6);
#810=EDGE_CURVE('',#421,#411,#809,.T.);
#811=ORIENTED_EDGE('',*,*,#810,.T.);
#812=EDGE_LOOP('',(#745,#754,#762,#771,#779,#788,#796,#803,#804,#811));
#813=FACE_OUTER_BOUND('',#812,.T.);
#814=ADVANCED_FACE('',(#813),#744,.F.);
#815=CARTESIAN_POINT('',(2.041598638322431,0.75,-6.156187E-014));
#816=CARTESIAN_POINT('',(2.041598638322431,0.75,0.599999999999934));
#817=CARTESIAN_POINT('',(1.413329402510256,0.75,-6.156187E-014));
#818=CARTESIAN_POINT('',(1.413329402510256,0.75,0.599999999999934));
#819=B_SPLINE_SURFACE_WITH_KNOTS('',1,1,((#815,#817),(#816,#818)),.UNSPECIFIED.,.F.,.F.,.U.,(2,2),(2,2),(0.0,0.599999999999996),(0.0,0.628269235812176),.UNSPECIFIED.);
#820=ORIENTED_EDGE('',*,*,#486,.T.);
#821=CARTESIAN_POINT('',(2.041598638322431,0.75,0.599999999999933));
#822=VERTEX_POINT('',#821);
#823=CARTESIAN_POINT('',(1.413329402510256,0.75,0.599999999999934));
#824=DIRECTION('',(1.0,0.0,0.0));
#825=VECTOR('',#824,0.628269235812176);
#826=LINE('',#823,#825);
#827=EDGE_CURVE('',#472,#822,#826,.T.);
#828=ORIENTED_EDGE('',*,*,#827,.T.);
#829=CARTESIAN_POINT('',(2.041598638322431,0.75,0.0));
#830=VERTEX_POINT('',#829);
#831=CARTESIAN_POINT('',(2.041598638322431,0.75,0.0));
#832=DIRECTION('',(0.0,0.0,1.0));
#833=VECTOR('',#832,0.599999999999933);
#834=LINE('',#831,#833);
#835=EDGE_CURVE('',#830,#822,#834,.T.);
#836=ORIENTED_EDGE('',*,*,#835,.F.);
#837=CARTESIAN_POINT('',(1.413329402510256,0.75,-6.143456E-014));
#838=DIRECTION('',(1.0,0.0,0.0));
#839=VECTOR('',#838,0.628269235812176);
#840=LINE('',#837,#839);
#841=EDGE_CURVE('',#481,#830,#840,.T.);
#842=ORIENTED_EDGE('',*,*,#841,.F.);
#843=EDGE_LOOP('',(#820,#828,#836,#842));
#844=FACE_OUTER_BOUND('',#843,.T.);
#845=ADVANCED_FACE('',(#844),#819,.F.);
#846=CARTESIAN_POINT('',(-0.371280266322888,2.143076285118947,0.599999999999934));
#847=CARTESIAN_POINT('',(-0.371280266322888,2.143076285118947,-6.128431E-014));
#848=CARTESIAN_POINT('',(-0.057145648416799,1.598979166489364,0.599999999999934));
#849=CARTESIAN_POINT('',(-0.057145648416799,1.598979166489364,-6.128431E-014));
#850=B_SPLINE_SURFACE_WITH_KNOTS('',1,1,((#846,#848),(#847,#849)),.UNSPECIFIED.,.F.,.F.,.U.,(2,2),(2,2),(0.0,0.599999999999995),(0.0,0.628269235812179),.UNSPECIFIED.);
#851=ORIENTED_EDGE('',*,*,#469,.T.);
#852=CARTESIAN_POINT('',(-0.371280266322888,2.143076285118947,0.0));
#853=VERTEX_POINT('',#852);
#854=CARTESIAN_POINT('',(-0.371280266322888,2.143076285118947,-6.103528E-014));
#855=DIRECTION('',(0.5,-0.866025403784439,-1.110223E-016));
#856=VECTOR('',#855,0.628269235812178);
#857=LINE('',#854,#856);
#858=EDGE_CURVE('',#853,#455,#857,.T.);
#859=ORIENTED_EDGE('',*,*,#858,.F.);
#860=CARTESIAN_POINT('',(-0.371280266322888,2.143076285118947,0.599999999999934));
#861=VERTEX_POINT('',#860);
#862=CARTESIAN_POINT('',(-0.371280266322888,2.143076285118947,0.599999999999934));
#863=DIRECTION('',(0.0,0.0,-1.0));
#864=VECTOR('',#863,0.599999999999934);
#865=LINE('',#862,#864);
#866=EDGE_CURVE('',#861,#853,#865,.T.);
#867=ORIENTED_EDGE('',*,*,#866,.F.);
#868=CARTESIAN_POINT('',(-0.371280266322888,2.143076285118947,0.599999999999934));
#869=DIRECTION('',(0.5,-0.866025403784439,0.0));
#870=VECTOR('',#869,0.628269235812178);
#871=LINE('',#868,#870);
#872=EDGE_CURVE('',#861,#464,#871,.T.);
#873=ORIENTED_EDGE('',*,*,#872,.T.);
#874=EDGE_LOOP('',(#851,#859,#867,#873));
#875=FACE_OUTER_BOUND('',#874,.T.);
#876=ADVANCED_FACE('',(#875),#850,.F.);
#877=CARTESIAN_POINT('',(0.0,1.875000000000004,-6.111778E-014));
#878=DIRECTION('',(0.0,0.0,-1.0));
#879=DIRECTION('',(-1.0,0.0,0.0));
#880=AXIS2_PLACEMENT_3D('',#877,#878,#879);
#881=PLANE('',#880);
#882=ORIENTED_EDGE('',*,*,#461,.T.);
#883=CARTESIAN_POINT('',(-1.670318371999547,1.393076285118949,0.0));
#884=VERTEX_POINT('',#883);
#885=CARTESIAN_POINT('',(-1.356183754093458,0.848979166489366,-6.079972E-014));
#886=DIRECTION('',(-0.5,0.866025403784439,1.110223E-016));
#887=VECTOR('',#886,0.628269235812179);
#888=LINE('',#885,#887);
#889=EDGE_CURVE('',#447,#884,#888,.T.);
#890=ORIENTED_EDGE('',*,*,#889,.T.);
#891=CARTESIAN_POINT('',(-3.330669E-015,0.0,-6.128431E-014));
#892=DIRECTION('',(0.0,0.0,-1.0));
#893=DIRECTION('',(0.0,1.0,0.0));
#894=AXIS2_PLACEMENT_3D('',#891,#892,#893);
#895=CIRCLE('',#894,2.175000000000004);
#896=EDGE_CURVE('',#884,#853,#895,.T.);
#897=ORIENTED_EDGE('',*,*,#896,.T.);
#898=ORIENTED_EDGE('',*,*,#858,.T.);
#899=EDGE_LOOP('',(#882,#890,#897,#898));
#900=FACE_OUTER_BOUND('',#899,.T.);
#901=ADVANCED_FACE('',(#900),#881,.T.);
#902=CARTESIAN_POINT('',(-1.670318371999548,1.39307628511895,-6.078471E-014));
#903=CARTESIAN_POINT('',(-1.670318371999548,1.39307628511895,0.599999999999934));
#904=CARTESIAN_POINT('',(-1.356183754093458,0.848979166489366,-6.078471E-014));
#905=CARTESIAN_POINT('',(-1.356183754093458,0.848979166489366,0.599999999999934));
#906=B_SPLINE_SURFACE_WITH_KNOTS('',1,1,((#902,#904),(#903,#905)),.UNSPECIFIED.,.F.,.F.,.U.,(2,2),(2,2),(0.0,0.599999999999995),(0.0,0.62826923581218),.UNSPECIFIED.);
#907=ORIENTED_EDGE('',*,*,#452,.T.);
#908=CARTESIAN_POINT('',(-1.670318371999547,1.393076285118949,0.599999999999934));
#909=VERTEX_POINT('',#908);
#910=CARTESIAN_POINT('',(-1.356183754093458,0.848979166489366,0.599999999999934));
#911=DIRECTION('',(-0.5,0.866025403784439,0.0));
#912=VECTOR('',#911,0.628269235812179);
#913=LINE('',#910,#912);
#914=EDGE_CURVE('',#438,#909,#913,.T.);
#915=ORIENTED_EDGE('',*,*,#914,.T.);
#916=CARTESIAN_POINT('',(-1.670318371999547,1.393076285118949,0.0));
#917=DIRECTION('',(0.0,0.0,1.0));
#918=VECTOR('',#917,0.599999999999934);
#919=LINE('',#916,#918);
#920=EDGE_CURVE('',#884,#909,#919,.T.);
#921=ORIENTED_EDGE('',*,*,#920,.F.);
#922=ORIENTED_EDGE('',*,*,#889,.F.);
#923=EDGE_LOOP('',(#907,#915,#921,#922));
#924=FACE_OUTER_BOUND('',#923,.T.);
#925=ADVANCED_FACE('',(#924),#906,.F.);
#926=CARTESIAN_POINT('',(0.0,2.212500000000002,0.599999999999934));
#927=DIRECTION('',(0.0,0.0,-1.0));
#928=DIRECTION('',(-1.0,0.0,0.0));
#929=AXIS2_PLACEMENT_3D('',#926,#927,#928);
#930=PLANE('',#929);
#931=CARTESIAN_POINT('',(-3.197442E-015,0.0,0.599999999999934));
#932=DIRECTION('',(0.0,0.0,-1.0));
#933=DIRECTION('',(0.0,1.0,0.0));
#934=AXIS2_PLACEMENT_3D('',#931,#932,#933);
#935=CIRCLE('',#934,2.250000000000004);
#936=EDGE_CURVE('',#369,#379,#935,.T.);
#937=ORIENTED_EDGE('',*,*,#936,.T.);
#938=ORIENTED_EDGE('',*,*,#385,.T.);
#939=EDGE_LOOP('',(#937,#938));
#940=FACE_OUTER_BOUND('',#939,.T.);
#941=ORIENTED_EDGE('',*,*,#478,.T.);
#942=ORIENTED_EDGE('',*,*,#872,.F.);
#943=CARTESIAN_POINT('',(-3.197442E-015,0.0,0.599999999999934));
#944=DIRECTION('',(0.0,0.0,-1.0));
#945=DIRECTION('',(0.0,1.0,0.0));
#946=AXIS2_PLACEMENT_3D('',#943,#944,#945);
#947=CIRCLE('',#946,2.175000000000004);
#948=EDGE_CURVE('',#909,#861,#947,.T.);
#949=ORIENTED_EDGE('',*,*,#948,.F.);
#950=ORIENTED_EDGE('',*,*,#914,.F.);
#951=ORIENTED_EDGE('',*,*,#444,.T.);
#952=ORIENTED_EDGE('',*,*,#802,.T.);
#953=CARTESIAN_POINT('',(-1.670318371999549,-1.393076285118948,0.599999999999934));
#954=VERTEX_POINT('',#953);
#955=CARTESIAN_POINT('',(-1.670318371999548,-1.393076285118948,0.599999999999934));
#956=DIRECTION('',(0.5,0.866025403784438,0.0));
#957=VECTOR('',#956,0.628269235812179);
#958=LINE('',#955,#957);
#959=EDGE_CURVE('',#954,#790,#958,.T.);
#960=ORIENTED_EDGE('',*,*,#959,.F.);
#961=CARTESIAN_POINT('',(-0.371280266322889,-2.143076285118946,0.599999999999934));
#962=VERTEX_POINT('',#961);
#963=CARTESIAN_POINT('',(-3.197442E-015,0.0,0.599999999999934));
#964=DIRECTION('',(0.0,0.0,-1.0));
#965=DIRECTION('',(0.0,1.0,0.0));
#966=AXIS2_PLACEMENT_3D('',#963,#964,#965);
#967=CIRCLE('',#966,2.175000000000004);
#968=EDGE_CURVE('',#962,#954,#967,.T.);
#969=ORIENTED_EDGE('',*,*,#968,.F.);
#970=CARTESIAN_POINT('',(-0.0571456484168,-1.598979166489365,0.599999999999934));
#971=DIRECTION('',(-0.5,-0.866025403784438,0.0));
#972=VECTOR('',#971,0.628269235812177);
#973=LINE('',#970,#972);
#974=EDGE_CURVE('',#764,#962,#973,.T.);
#975=ORIENTED_EDGE('',*,*,#974,.F.);
#976=ORIENTED_EDGE('',*,*,#770,.T.);
#977=CARTESIAN_POINT('',(2.041598638322431,-0.75,0.599999999999933));
#978=VERTEX_POINT('',#977);
#979=CARTESIAN_POINT('',(2.041598638322431,-0.75,0.599999999999934));
#980=DIRECTION('',(-1.0,0.0,0.0));
#981=VECTOR('',#980,0.628269235812175);
#982=LINE('',#979,#981);
#983=EDGE_CURVE('',#978,#756,#982,.T.);
#984=ORIENTED_EDGE('',*,*,#983,.F.);
#985=CARTESIAN_POINT('',(-3.197442E-015,0.0,0.599999999999934));
#986=DIRECTION('',(0.0,0.0,-1.0));
#987=DIRECTION('',(0.0,1.0,0.0));
#988=AXIS2_PLACEMENT_3D('',#985,#986,#987);
#989=CIRCLE('',#988,2.175000000000004);
#990=EDGE_CURVE('',#822,#978,#989,.T.);
#991=ORIENTED_EDGE('',*,*,#990,.F.);
#992=ORIENTED_EDGE('',*,*,#827,.F.);
#993=EDGE_LOOP('',(#941,#942,#949,#950,#951,#952,#960,#969,#975,#976,#984,#991,#992));
#994=FACE_BOUND('',#993,.T.);
#995=ADVANCED_FACE('',(#940,#994),#930,.T.);
#996=CARTESIAN_POINT('',(-0.37128026632289,-2.143076285118946,-6.128431E-014));
#997=CARTESIAN_POINT('',(-0.37128026632289,-2.143076285118946,0.599999999999934));
#998=CARTESIAN_POINT('',(-0.057145648416801,-1.598979166489365,-6.128431E-014));
#999=CARTESIAN_POINT('',(-0.057145648416801,-1.598979166489365,0.599999999999934));
#1000=B_SPLINE_SURFACE_WITH_KNOTS('',1,1,((#996,#998),(#997,#999)),.UNSPECIFIED.,.F.,.F.,.U.,(2,2),(2,2),(0.0,0.599999999999995),(0.0,0.628269235812177),.UNSPECIFIED.);
#1001=ORIENTED_EDGE('',*,*,#778,.T.);
#1002=ORIENTED_EDGE('',*,*,#974,.T.);
#1003=CARTESIAN_POINT('',(-0.371280266322889,-2.143076285118946,0.0));
#1004=VERTEX_POINT('',#1003);
#1005=CARTESIAN_POINT('',(-0.371280266322889,-2.143076285118946,0.0));
#1006=DIRECTION('',(0.0,0.0,1.0));
#1007=VECTOR('',#1006,0.599999999999934);
#1008=LINE('',#1005,#1007);
#1009=EDGE_CURVE('',#1004,#962,#1008,.T.);
#1010=ORIENTED_EDGE('',*,*,#1009,.F.);
#1011=CARTESIAN_POINT('',(-0.057145648416801,-1.598979166489365,-6.109129E-014));
#1012=DIRECTION('',(-0.500000000000001,-0.866025403784438,1.110223E-016));
#1013=VECTOR('',#1012,0.628269235812177);
#1014=LINE('',#1011,#1013);
#1015=EDGE_CURVE('',#773,#1004,#1014,.T.);
#1016=ORIENTED_EDGE('',*,*,#1015,.F.);
#1017=EDGE_LOOP('',(#1001,#1002,#1010,#1016));
#1018=FACE_OUTER_BOUND('',#1017,.T.);
#1019=ADVANCED_FACE('',(#1018),#1000,.F.);
#1020=CARTESIAN_POINT('',(2.041598638322431,-0.75,0.599999999999934));
#1021=CARTESIAN_POINT('',(2.041598638322431,-0.75,-6.161738E-014));
#1022=CARTESIAN_POINT('',(1.413329402510256,-0.75,0.599999999999934));
#1023=CARTESIAN_POINT('',(1.413329402510256,-0.75,-6.161738E-014));
#1024=B_SPLINE_SURFACE_WITH_KNOTS('',1,1,((#1020,#1022),(#1021,#1023)),.UNSPECIFIED.,.F.,.F.,.U.,(2,2),(2,2),(0.0,0.599999999999996),(0.0,0.628269235812176),.UNSPECIFIED.);
#1025=ORIENTED_EDGE('',*,*,#761,.T.);
#1026=CARTESIAN_POINT('',(2.041598638322431,-0.75,0.0));
#1027=VERTEX_POINT('',#1026);
#1028=CARTESIAN_POINT('',(2.041598638322431,-0.75,-6.157406E-014));
#1029=DIRECTION('',(-1.0,0.0,0.0));
#1030=VECTOR('',#1029,0.628269235812175);
#1031=LINE('',#1028,#1030);
#1032=EDGE_CURVE('',#1027,#747,#1031,.T.);
#1033=ORIENTED_EDGE('',*,*,#1032,.F.);
#1034=CARTESIAN_POINT('',(2.041598638322431,-0.75,0.599999999999933));
#1035=DIRECTION('',(0.0,0.0,-1.0));
#1036=VECTOR('',#1035,0.599999999999933);
#1037=LINE('',#1034,#1036);
#1038=EDGE_CURVE('',#978,#1027,#1037,.T.);
#1039=ORIENTED_EDGE('',*,*,#1038,.F.);
#1040=ORIENTED_EDGE('',*,*,#983,.T.);
#1041=EDGE_LOOP('',(#1025,#1033,#1039,#1040));
#1042=FACE_OUTER_BOUND('',#1041,.T.);
#1043=ADVANCED_FACE('',(#1042),#1024,.F.);
#1044=CARTESIAN_POINT('',(-1.670318371999548,-1.393076285118948,0.599999999999934));
#1045=CARTESIAN_POINT('',(-1.670318371999548,-1.393076285118948,-6.084022E-014));
#1046=CARTESIAN_POINT('',(-1.356183754093459,-0.848979166489365,0.599999999999934));
#1047=CARTESIAN_POINT('',(-1.356183754093459,-0.848979166489365,-6.084022E-014));
#1048=B_SPLINE_SURFACE_WITH_KNOTS('',1,1,((#1044,#1046),(#1045,#1047)),.UNSPECIFIED.,.F.,.F.,.U.,(2,2),(2,2),(0.0,0.599999999999995),(0.0,0.628269235812179),.UNSPECIFIED.);
#1049=ORIENTED_EDGE('',*,*,#795,.T.);
#1050=CARTESIAN_POINT('',(-1.670318371999548,-1.393076285118948,0.0));
#1051=VERTEX_POINT('',#1050);
#1052=CARTESIAN_POINT('',(-1.670318371999548,-1.393076285118948,-6.074398E-014));
#1053=DIRECTION('',(0.5,0.866025403784439,-1.110223E-016));
#1054=VECTOR('',#1053,0.628269235812178);
#1055=LINE('',#1052,#1054);
#1056=EDGE_CURVE('',#1051,#781,#1055,.T.);
#1057=ORIENTED_EDGE('',*,*,#1056,.F.);
#1058=CARTESIAN_POINT('',(-1.670318371999548,-1.393076285118948,0.599999999999934));
#1059=DIRECTION('',(0.0,0.0,-1.0));
#1060=VECTOR('',#1059,0.599999999999934);
#1061=LINE('',#1058,#1060);
#1062=EDGE_CURVE('',#954,#1051,#1061,.T.);
#1063=ORIENTED_EDGE('',*,*,#1062,.F.);
#1064=ORIENTED_EDGE('',*,*,#959,.T.);
#1065=EDGE_LOOP('',(#1049,#1057,#1063,#1064));
#1066=FACE_OUTER_BOUND('',#1065,.T.);
#1067=ADVANCED_FACE('',(#1066),#1048,.F.);
#1068=CARTESIAN_POINT('',(0.0,1.875000000000004,-6.111778E-014));
#1069=DIRECTION('',(0.0,0.0,-1.0));
#1070=DIRECTION('',(-1.0,0.0,0.0));
#1071=AXIS2_PLACEMENT_3D('',#1068,#1069,#1070);
#1072=PLANE('',#1071);
#1073=ORIENTED_EDGE('',*,*,#787,.T.);
#1074=ORIENTED_EDGE('',*,*,#1015,.T.);
#1075=CARTESIAN_POINT('',(-3.330669E-015,0.0,-6.128431E-014));
#1076=DIRECTION('',(0.0,0.0,-1.0));
#1077=DIRECTION('',(0.0,1.0,0.0));
#1078=AXIS2_PLACEMENT_3D('',#1075,#1076,#1077);
#1079=CIRCLE('',#1078,2.175000000000004);
#1080=EDGE_CURVE('',#1004,#1051,#1079,.T.);
#1081=ORIENTED_EDGE('',*,*,#1080,.T.);
#1082=ORIENTED_EDGE('',*,*,#1056,.T.);
#1083=EDGE_LOOP('',(#1073,#1074,#1081,#1082));
#1084=FACE_OUTER_BOUND('',#1083,.T.);
#1085=ADVANCED_FACE('',(#1084),#1072,.T.);
#1086=CARTESIAN_POINT('',(0.0,1.875000000000004,-6.111778E-014));
#1087=DIRECTION('',(0.0,0.0,-1.0));
#1088=DIRECTION('',(-1.0,0.0,0.0));
#1089=AXIS2_PLACEMENT_3D('',#1086,#1087,#1088);
#1090=PLANE('',#1089);
#1091=ORIENTED_EDGE('',*,*,#753,.T.);
#1092=ORIENTED_EDGE('',*,*,#493,.T.);
#1093=ORIENTED_EDGE('',*,*,#841,.T.);
#1094=CARTESIAN_POINT('',(-3.330669E-015,0.0,-6.128431E-014));
#1095=DIRECTION('',(0.0,0.0,-1.0));
#1096=DIRECTION('',(0.0,1.0,0.0));
#1097=AXIS2_PLACEMENT_3D('',#1094,#1095,#1096);
#1098=CIRCLE('',#1097,2.175000000000004);
#1099=EDGE_CURVE('',#830,#1027,#1098,.T.);
#1100=ORIENTED_EDGE('',*,*,#1099,.T.);
#1101=ORIENTED_EDGE('',*,*,#1032,.T.);
#1102=EDGE_LOOP('',(#1091,#1092,#1093,#1100,#1101));
#1103=FACE_OUTER_BOUND('',#1102,.T.);
#1104=ADVANCED_FACE('',(#1103),#1090,.T.);
#1105=CARTESIAN_POINT('',(-3.264056E-015,0.0,0.299999999999936));
#1106=DIRECTION('',(-2.220446E-016,0.0,-1.0));
#1107=DIRECTION('',(0.0,1.0,0.0));
#1108=AXIS2_PLACEMENT_3D('',#1105,#1106,#1107);
#1109=CYLINDRICAL_SURFACE('',#1108,2.175000000000004);
#1110=ORIENTED_EDGE('',*,*,#1009,.T.);
#1111=ORIENTED_EDGE('',*,*,#968,.T.);
#1112=ORIENTED_EDGE('',*,*,#1062,.T.);
#1113=ORIENTED_EDGE('',*,*,#1080,.F.);
#1114=EDGE_LOOP('',(#1110,#1111,#1112,#1113));
#1115=FACE_OUTER_BOUND('',#1114,.T.);
#1116=ADVANCED_FACE('',(#1115),#1109,.T.);
#1117=CARTESIAN_POINT('',(-3.264056E-015,0.0,0.299999999999936));
#1118=DIRECTION('',(-2.220446E-016,0.0,-1.0));
#1119=DIRECTION('',(0.0,1.0,0.0));
#1120=AXIS2_PLACEMENT_3D('',#1117,#1118,#1119);
#1121=CYLINDRICAL_SURFACE('',#1120,2.175000000000004);
#1122=ORIENTED_EDGE('',*,*,#866,.T.);
#1123=ORIENTED_EDGE('',*,*,#896,.F.);
#1124=ORIENTED_EDGE('',*,*,#920,.T.);
#1125=ORIENTED_EDGE('',*,*,#948,.T.);
#1126=EDGE_LOOP('',(#1122,#1123,#1124,#1125));
#1127=FACE_OUTER_BOUND('',#1126,.T.);
#1128=ADVANCED_FACE('',(#1127),#1121,.T.);
#1129=CARTESIAN_POINT('',(-3.264056E-015,0.0,0.299999999999936));
#1130=DIRECTION('',(-2.220446E-016,0.0,-1.0));
#1131=DIRECTION('',(0.0,1.0,0.0));
#1132=AXIS2_PLACEMENT_3D('',#1129,#1130,#1131);
#1133=CYLINDRICAL_SURFACE('',#1132,2.175000000000004);
#1134=ORIENTED_EDGE('',*,*,#835,.T.);
#1135=ORIENTED_EDGE('',*,*,#990,.T.);
#1136=ORIENTED_EDGE('',*,*,#1038,.T.);
#1137=ORIENTED_EDGE('',*,*,#1099,.F.);
#1138=EDGE_LOOP('',(#1134,#1135,#1136,#1137));
#1139=FACE_OUTER_BOUND('',#1138,.T.);
#1140=ADVANCED_FACE('',(#1139),#1133,.T.);
#1141=CARTESIAN_POINT('',(-2.986500E-015,0.0,1.549999999999937));
#1142=DIRECTION('',(-2.220446E-016,0.0,-1.0));
#1143=DIRECTION('',(0.0,1.0,0.0));
#1144=AXIS2_PLACEMENT_3D('',#1141,#1142,#1143);
#1145=CYLINDRICAL_SURFACE('',#1144,2.250000000000004);
#1146=ORIENTED_EDGE('',*,*,#376,.T.);
#1147=CARTESIAN_POINT('',(-2.775558E-015,0.0,2.49999999999994));
#1148=DIRECTION('',(0.0,0.0,-1.0));
#1149=DIRECTION('',(0.0,1.0,0.0));
#1150=AXIS2_PLACEMENT_3D('',#1147,#1148,#1149);
#1151=CIRCLE('',#1150,2.25);
#1152=EDGE_CURVE('',#371,#388,#1151,.T.);
#1153=ORIENTED_EDGE('',*,*,#1152,.T.);
#1154=ORIENTED_EDGE('',*,*,#393,.F.);
#1155=ORIENTED_EDGE('',*,*,#936,.F.);
#1156=EDGE_LOOP('',(#1146,#1153,#1154,#1155));
#1157=FACE_OUTER_BOUND('',#1156,.T.);
#1158=ADVANCED_FACE('',(#1157),#1145,.T.);
#1159=CARTESIAN_POINT('',(0.0,1.437499999999979,8.99999999999994));
#1160=DIRECTION('',(0.0,0.0,-1.0));
#1161=DIRECTION('',(-1.0,0.0,0.0));
#1162=AXIS2_PLACEMENT_3D('',#1159,#1160,#1161);
#1163=PLANE('',#1162);
#1164=ORIENTED_EDGE('',*,*,#427,.F.);
#1165=ORIENTED_EDGE('',*,*,#810,.F.);
#1166=EDGE_LOOP('',(#1164,#1165));
#1167=FACE_OUTER_BOUND('',#1166,.T.);
#1168=ORIENTED_EDGE('',*,*,#343,.F.);
#1169=CARTESIAN_POINT('',(-1.332268E-015,0.0,8.99999999999994));
#1170=DIRECTION('',(0.0,0.0,-1.0));
#1171=DIRECTION('',(0.0,1.0,0.0));
#1172=AXIS2_PLACEMENT_3D('',#1169,#1170,#1171);
#1173=CIRCLE('',#1172,1.299999999999955);
#1174=EDGE_CURVE('',#337,#327,#1173,.T.);
#1175=ORIENTED_EDGE('',*,*,#1174,.F.);
#1176=EDGE_LOOP('',(#1168,#1175));
#1177=FACE_BOUND('',#1176,.T.);
#1178=ADVANCED_FACE('',(#1167,#1177),#1163,.T.);
#1179=CARTESIAN_POINT('',(-6.661338E-016,0.0,11.99999999999994));
#1180=DIRECTION('',(-2.220446E-016,0.0,-1.0));
#1181=DIRECTION('',(0.0,1.0,0.0));
#1182=AXIS2_PLACEMENT_3D('',#1179,#1180,#1181);
#1183=CYLINDRICAL_SURFACE('',#1182,1.299999999999841);
#1184=ORIENTED_EDGE('',*,*,#334,.T.);
#1185=CARTESIAN_POINT('',(0.0,0.0,14.99999999999994));
#1186=DIRECTION('',(0.0,0.0,-1.0));
#1187=DIRECTION('',(0.0,1.0,0.0));
#1188=AXIS2_PLACEMENT_3D('',#1185,#1186,#1187);
#1189=CIRCLE('',#1188,1.299999999999727);
#1190=EDGE_CURVE('',#346,#329,#1189,.T.);
#1191=ORIENTED_EDGE('',*,*,#1190,.F.);
#1192=ORIENTED_EDGE('',*,*,#351,.F.);
#1193=ORIENTED_EDGE('',*,*,#1174,.T.);
#1194=EDGE_LOOP('',(#1184,#1191,#1192,#1193));
#1195=FACE_OUTER_BOUND('',#1194,.T.);
#1196=ADVANCED_FACE('',(#1195),#1183,.F.);
#1197=CARTESIAN_POINT('',(0.0,1.724999999999863,14.99999999999994));
#1198=DIRECTION('',(0.0,0.0,1.0));
#1199=DIRECTION('',(1.0,0.0,0.0));
#1200=AXIS2_PLACEMENT_3D('',#1197,#1198,#1199);
#1201=PLANE('',#1200);
#1202=CARTESIAN_POINT('',(0.0,2.149999999999999,14.99999999999994));
#1203=VERTEX_POINT('',#1202);
#1204=CARTESIAN_POINT('',(0.0,0.0,14.99999999999994));
#1205=DIRECTION('',(0.0,0.0,-1.0));
#1206=DIRECTION('',(0.0,1.0,0.0));
#1207=AXIS2_PLACEMENT_3D('',#1204,#1205,#1206);
#1208=CIRCLE('',#1207,2.149999999999999);
#1209=EDGE_CURVE('',#1203,#303,#1208,.T.);
#1210=ORIENTED_EDGE('',*,*,#1209,.F.);
#1211=CARTESIAN_POINT('',(0.0,0.0,14.99999999999994));
#1212=DIRECTION('',(0.0,0.0,-1.0));
#1213=DIRECTION('',(0.0,1.0,0.0));
#1214=AXIS2_PLACEMENT_3D('',#1211,#1212,#1213);
#1215=CIRCLE('',#1214,2.149999999999999);
#1216=EDGE_CURVE('',#284,#1203,#1215,.T.);
#1217=ORIENTED_EDGE('',*,*,#1216,.F.);
#1218=ORIENTED_EDGE('',*,*,#316,.F.);
#1219=EDGE_LOOP('',(#1210,#1217,#1218));
#1220=FACE_OUTER_BOUND('',#1219,.T.);
#1221=ORIENTED_EDGE('',*,*,#358,.T.);
#1222=ORIENTED_EDGE('',*,*,#1190,.T.);
#1223=EDGE_LOOP('',(#1221,#1222));
#1224=FACE_BOUND('',#1223,.T.);
#1225=ADVANCED_FACE('',(#1220,#1224),#1201,.T.);
#1226=CARTESIAN_POINT('',(-2.220446E-017,0.0,14.899999999999938));
#1227=DIRECTION('',(-2.220446E-016,0.0,-1.0));
#1228=DIRECTION('',(-1.0,0.0,0.0));
#1229=AXIS2_PLACEMENT_3D('',#1226,#1227,#1228);
#1230=TOROIDAL_SURFACE('',#1229,2.149999999999999,0.100000000000001);
#1231=ORIENTED_EDGE('',*,*,#290,.T.);
#1232=ORIENTED_EDGE('',*,*,#1216,.T.);
#1233=ORIENTED_EDGE('',*,*,#1209,.T.);
#1234=ORIENTED_EDGE('',*,*,#309,.F.);
#1235=CARTESIAN_POINT('',(-2.220446E-017,0.0,14.89999999999994));
#1236=DIRECTION('',(0.0,0.0,-1.0));
#1237=DIRECTION('',(0.0,1.0,0.0));
#1238=AXIS2_PLACEMENT_3D('',#1235,#1236,#1237);
#1239=CIRCLE('',#1238,2.25);
#1240=EDGE_CURVE('',#115,#294,#1239,.T.);
#1241=ORIENTED_EDGE('',*,*,#1240,.F.);
#1242=ORIENTED_EDGE('',*,*,#273,.F.);
#1243=EDGE_LOOP('',(#1231,#1232,#1233,#1234,#1241,#1242));
#1244=FACE_OUTER_BOUND('',#1243,.T.);
#1245=ADVANCED_FACE('',(#1244),#1230,.T.);
#1246=CARTESIAN_POINT('',(-1.265654E-015,0.0,9.299999999999933));
#1247=DIRECTION('',(-2.220446E-016,0.0,-1.0));
#1248=DIRECTION('',(0.0,1.0,0.0));
#1249=AXIS2_PLACEMENT_3D('',#1246,#1247,#1248);
#1250=CYLINDRICAL_SURFACE('',#1249,2.25);
#1251=ORIENTED_EDGE('',*,*,#120,.T.);
#1252=ORIENTED_EDGE('',*,*,#1240,.T.);
#1253=ORIENTED_EDGE('',*,*,#300,.T.);
#1254=ORIENTED_EDGE('',*,*,#257,.F.);
#1255=ORIENTED_EDGE('',*,*,#598,.F.);
#1256=ORIENTED_EDGE('',*,*,#630,.T.);
#1257=ORIENTED_EDGE('',*,*,#672,.T.);
#1258=ORIENTED_EDGE('',*,*,#688,.T.);
#1259=ORIENTED_EDGE('',*,*,#652,.T.);
#1260=ORIENTED_EDGE('',*,*,#615,.T.);
#1261=ORIENTED_EDGE('',*,*,#582,.F.);
#1262=EDGE_LOOP('',(#1251,#1252,#1253,#1254,#1255,#1256,#1257,#1258,#1259,#1260,#1261));
#1263=FACE_OUTER_BOUND('',#1262,.T.);
#1264=ADVANCED_FACE('',(#1263),#1250,.T.);
#1265=CARTESIAN_POINT('',(-2.642331E-015,0.0,3.099999999999934));
#1266=DIRECTION('',(-2.220446E-016,0.0,-1.0));
#1267=DIRECTION('',(0.0,1.0,0.0));
#1268=AXIS2_PLACEMENT_3D('',#1265,#1266,#1267);
#1269=CYLINDRICAL_SURFACE('',#1268,2.599999999999994);
#1270=ORIENTED_EDGE('',*,*,#78,.T.);
#1271=ORIENTED_EDGE('',*,*,#560,.T.);
#1272=ORIENTED_EDGE('',*,*,#95,.F.);
#1273=CARTESIAN_POINT('',(-2.775558E-015,0.0,2.49999999999994));
#1274=DIRECTION('',(0.0,0.0,-1.0));
#1275=DIRECTION('',(0.0,1.0,0.0));
#1276=AXIS2_PLACEMENT_3D('',#1273,#1274,#1275);
#1277=CIRCLE('',#1276,2.599999999999994);
#1278=EDGE_CURVE('',#71,#81,#1277,.T.);
#1279=ORIENTED_EDGE('',*,*,#1278,.F.);
#1280=EDGE_LOOP('',(#1270,#1271,#1272,#1279));
#1281=FACE_OUTER_BOUND('',#1280,.T.);
#1282=ADVANCED_FACE('',(#1281),#1269,.T.);
#1283=CARTESIAN_POINT('',(0.0,2.424999999999997,2.49999999999994));
#1284=DIRECTION('',(0.0,0.0,-1.0));
#1285=DIRECTION('',(-1.0,0.0,0.0));
#1286=AXIS2_PLACEMENT_3D('',#1283,#1284,#1285);
#1287=PLANE('',#1286);
#1288=ORIENTED_EDGE('',*,*,#1278,.T.);
#1289=ORIENTED_EDGE('',*,*,#87,.T.);
#1290=EDGE_LOOP('',(#1288,#1289));
#1291=FACE_OUTER_BOUND('',#1290,.T.);
#1292=ORIENTED_EDGE('',*,*,#1152,.F.);
#1293=ORIENTED_EDGE('',*,*,#400,.F.);
#1294=EDGE_LOOP('',(#1292,#1293));
#1295=FACE_BOUND('',#1294,.T.);
#1296=ADVANCED_FACE('',(#1291,#1295),#1287,.T.);
#1297=CLOSED_SHELL('',(#106,#277,#320,#362,#404,#497,#521,#539,#549,#603,#635,#677,#693,#711,#729,#739,#814,#845,#876,#901,#925,#995,#1019,#1043,#1067,#1085,#1104,#1116,#1128,#1140,#1158,#1178,#1196,#1225,#1245,#1264,#1282,#1296));
#1298=MANIFOLD_SOLID_BREP('1D04',#1297);
#1299=COLOUR_RGB('253',0.732,0.732,0.732);
#1300=SURFACE_STYLE_USAGE(.BOTH.,#1301);
#1301=SURFACE_SIDE_STYLE('NONE',(#1302));
#1302=SURFACE_STYLE_FILL_AREA(#1303);
#1303=FILL_AREA_STYLE('NONE',(#1304));
#1304=FILL_AREA_STYLE_COLOUR('NONE',#1299);
#1305=PRESENTATION_STYLE_ASSIGNMENT((#1300));
#1306=STYLED_ITEM('NONE',(#1305),#1298);
#1307=MECHANICAL_DESIGN_GEOMETRIC_PRESENTATION_REPRESENTATION('NONE',(#1306,#1810),#28);
#1308=PRESENTATION_LAYER_ASSIGNMENT('3D','None',(#1298,#1802));
#1309=CARTESIAN_POINT('',(0.0,-1.776357E-015,5.499999999999819));
#1310=DIRECTION('',(0.0,2.220446E-016,-1.0));
#1311=DIRECTION('',(1.0,0.0,0.0));
#1312=AXIS2_PLACEMENT_3D('',#1309,#1310,#1311);
#1313=CYLINDRICAL_SURFACE('',#1312,1.599999999999909);
#1314=CARTESIAN_POINT('',(1.599999999999909,-5.329071E-015,4.999999999999819));
#1315=VERTEX_POINT('',#1314);
#1316=CARTESIAN_POINT('',(1.599999999999909,-5.329071E-015,5.999999999999819));
#1317=VERTEX_POINT('',#1316);
#1318=CARTESIAN_POINT('',(1.599999999999909,-6.139260E-015,4.999999999999819));
#1319=DIRECTION('',(0.0,0.0,1.0));
#1320=VECTOR('',#1319,1.0);
#1321=LINE('',#1318,#1320);
#1322=EDGE_CURVE('',#1315,#1317,#1321,.T.);
#1323=ORIENTED_EDGE('',*,*,#1322,.F.);
#1324=CARTESIAN_POINT('',(-1.599999999999909,3.004535E-015,4.999999999999819));
#1325=VERTEX_POINT('',#1324);
#1326=CARTESIAN_POINT('',(0.0,-1.776357E-015,4.999999999999819));
#1327=DIRECTION('',(0.0,0.0,-1.0));
#1328=DIRECTION('',(1.0,0.0,0.0));
#1329=AXIS2_PLACEMENT_3D('',#1326,#1327,#1328);
#1330=CIRCLE('',#1329,1.599999999999909);
#1331=EDGE_CURVE('',#1325,#1315,#1330,.T.);
#1332=ORIENTED_EDGE('',*,*,#1331,.F.);
#1333=CARTESIAN_POINT('',(-1.599999999999909,2.782490E-015,5.999999999999819));
#1334=VERTEX_POINT('',#1333);
#1335=CARTESIAN_POINT('',(-1.599999999999909,3.004535E-015,4.999999999999819));
#1336=DIRECTION('',(0.0,0.0,1.0));
#1337=VECTOR('',#1336,1.0);
#1338=LINE('',#1335,#1337);
#1339=EDGE_CURVE('',#1325,#1334,#1338,.T.);
#1340=ORIENTED_EDGE('',*,*,#1339,.T.);
#1341=CARTESIAN_POINT('',(0.0,-1.776357E-015,5.999999999999819));
#1342=DIRECTION('',(0.0,0.0,-1.0));
#1343=DIRECTION('',(1.0,0.0,0.0));
#1344=AXIS2_PLACEMENT_3D('',#1341,#1342,#1343);
#1345=CIRCLE('',#1344,1.599999999999909);
#1346=EDGE_CURVE('',#1334,#1317,#1345,.T.);
#1347=ORIENTED_EDGE('',*,*,#1346,.T.);
#1348=EDGE_LOOP('',(#1323,#1332,#1340,#1347));
#1349=FACE_OUTER_BOUND('',#1348,.T.);
#1350=ADVANCED_FACE('',(#1349),#1313,.T.);
#1351=CARTESIAN_POINT('',(0.0,-1.776357E-015,7.499999999999819));
#1352=DIRECTION('',(0.0,2.220446E-016,-1.0));
#1353=DIRECTION('',(1.0,0.0,0.0));
#1354=AXIS2_PLACEMENT_3D('',#1351,#1352,#1353);
#1355=CYLINDRICAL_SURFACE('',#1354,1.5);
#1356=CARTESIAN_POINT('',(1.5,-5.329071E-015,5.999999999999819));
#1357=VERTEX_POINT('',#1356);
#1358=CARTESIAN_POINT('',(1.5,-5.329071E-015,8.999999999999819));
#1359=VERTEX_POINT('',#1358);
#1360=CARTESIAN_POINT('',(1.5,-5.637595E-015,5.999999999999819));
#1361=DIRECTION('',(0.0,0.0,1.0));
#1362=VECTOR('',#1361,3.0);
#1363=LINE('',#1360,#1362);
#1364=EDGE_CURVE('',#1357,#1359,#1363,.T.);
#1365=ORIENTED_EDGE('',*,*,#1364,.F.);
#1366=CARTESIAN_POINT('',(-1.5,2.934712E-015,5.999999999999819));
#1367=VERTEX_POINT('',#1366);
#1368=CARTESIAN_POINT('',(0.0,-1.776357E-015,5.999999999999819));
#1369=DIRECTION('',(0.0,0.0,-1.0));
#1370=DIRECTION('',(1.0,0.0,0.0));
#1371=AXIS2_PLACEMENT_3D('',#1368,#1369,#1370);
#1372=CIRCLE('',#1371,1.5);
#1373=EDGE_CURVE('',#1367,#1357,#1372,.T.);
#1374=ORIENTED_EDGE('',*,*,#1373,.F.);
#1375=CARTESIAN_POINT('',(-1.5,2.268579E-015,8.999999999999819));
#1376=VERTEX_POINT('',#1375);
#1377=CARTESIAN_POINT('',(-1.5,2.934712E-015,5.999999999999819));
#1378=DIRECTION('',(0.0,0.0,1.0));
#1379=VECTOR('',#1378,3.0);
#1380=LINE('',#1377,#1379);
#1381=EDGE_CURVE('',#1367,#1376,#1380,.T.);
#1382=ORIENTED_EDGE('',*,*,#1381,.T.);
#1383=CARTESIAN_POINT('',(0.0,-1.776357E-015,8.999999999999819));
#1384=DIRECTION('',(0.0,0.0,-1.0));
#1385=DIRECTION('',(1.0,0.0,0.0));
#1386=AXIS2_PLACEMENT_3D('',#1383,#1384,#1385);
#1387=CIRCLE('',#1386,1.5);
#1388=EDGE_CURVE('',#1376,#1359,#1387,.T.);
#1389=ORIENTED_EDGE('',*,*,#1388,.T.);
#1390=EDGE_LOOP('',(#1365,#1374,#1382,#1389));
#1391=FACE_OUTER_BOUND('',#1390,.T.);
#1392=ADVANCED_FACE('',(#1391),#1355,.T.);
#1393=CARTESIAN_POINT('',(0.0,-1.776357E-015,15.374999999999819));
#1394=DIRECTION('',(0.0,2.220446E-016,-1.0));
#1395=DIRECTION('',(1.0,0.0,0.0));
#1396=AXIS2_PLACEMENT_3D('',#1393,#1394,#1395);
#1397=CYLINDRICAL_SURFACE('',#1396,1.25);
#1398=CARTESIAN_POINT('',(1.25,-5.329071E-015,8.999999999999819));
#1399=VERTEX_POINT('',#1398);
#1400=CARTESIAN_POINT('',(1.25,-5.329071E-015,21.749999999999819));
#1401=VERTEX_POINT('',#1400);
#1402=CARTESIAN_POINT('',(1.25,-3.856077E-015,8.999999999999819));
#1403=DIRECTION('',(0.0,0.0,1.0));
#1404=VECTOR('',#1403,12.75);
#1405=LINE('',#1402,#1404);
#1406=EDGE_CURVE('',#1399,#1401,#1405,.T.);
#1407=ORIENTED_EDGE('',*,*,#1406,.F.);
#1408=CARTESIAN_POINT('',(-1.25,3.287513E-015,8.999999999999819));
#1409=VERTEX_POINT('',#1408);
#1410=CARTESIAN_POINT('',(0.0,-1.776357E-015,8.999999999999819));
#1411=DIRECTION('',(0.0,0.0,-1.0));
#1412=DIRECTION('',(1.0,0.0,0.0));
#1413=AXIS2_PLACEMENT_3D('',#1410,#1411,#1412);
#1414=CIRCLE('',#1413,1.25);
#1415=EDGE_CURVE('',#1409,#1399,#1414,.T.);
#1416=ORIENTED_EDGE('',*,*,#1415,.F.);
#1417=CARTESIAN_POINT('',(-1.25,4.564441E-016,21.749999999999819));
#1418=VERTEX_POINT('',#1417);
#1419=CARTESIAN_POINT('',(-1.25,3.287513E-015,8.999999999999819));
#1420=DIRECTION('',(0.0,0.0,1.0));
#1421=VECTOR('',#1420,12.75);
#1422=LINE('',#1419,#1421);
#1423=EDGE_CURVE('',#1409,#1418,#1422,.T.);
#1424=ORIENTED_EDGE('',*,*,#1423,.T.);
#1425=CARTESIAN_POINT('',(9.373499E-033,1.249999999999995,21.749999999999819));
#1426=VERTEX_POINT('',#1425);
#1427=CARTESIAN_POINT('',(0.0,-5.329071E-015,21.749999999999819));
#1428=DIRECTION('',(0.0,0.0,-1.0));
#1429=DIRECTION('',(1.0,0.0,0.0));
#1430=AXIS2_PLACEMENT_3D('',#1427,#1428,#1429);
#1431=CIRCLE('',#1430,1.25);
#1432=EDGE_CURVE('',#1418,#1426,#1431,.T.);
#1433=ORIENTED_EDGE('',*,*,#1432,.T.);
#1434=CARTESIAN_POINT('',(0.0,-5.329071E-015,21.749999999999819));
#1435=DIRECTION('',(0.0,0.0,-1.0));
#1436=DIRECTION('',(1.0,0.0,0.0));
#1437=AXIS2_PLACEMENT_3D('',#1434,#1435,#1436);
#1438=CIRCLE('',#1437,1.25);
#1439=EDGE_CURVE('',#1426,#1401,#1438,.T.);
#1440=ORIENTED_EDGE('',*,*,#1439,.T.);
#1441=EDGE_LOOP('',(#1407,#1416,#1424,#1433,#1440));
#1442=FACE_OUTER_BOUND('',#1441,.T.);
#1443=ADVANCED_FACE('',(#1442),#1397,.T.);
#1444=CARTESIAN_POINT('',(0.0,-5.329071E-015,21.749999999999819));
#1445=DIRECTION('',(0.0,1.0,0.0));
#1446=DIRECTION('',(0.0,0.0,-1.0));
#1447=AXIS2_PLACEMENT_3D('',#1444,#1445,#1446);
#1448=SPHERICAL_SURFACE('',#1447,1.250000000000001);
#1449=CARTESIAN_POINT('',(9.373499E-033,-1.250000000000005,21.749999999999819));
#1450=VERTEX_POINT('',#1449);
#1451=CARTESIAN_POINT('',(0.0,-5.329071E-015,21.749999999999819));
#1452=DIRECTION('',(1.0,0.0,0.0));
#1453=DIRECTION('',(0.0,0.0,1.0));
#1454=AXIS2_PLACEMENT_3D('',#1451,#1452,#1453);
#1455=CIRCLE('',#1454,1.25);
#1456=EDGE_CURVE('',#1426,#1450,#1455,.T.);
#1457=ORIENTED_EDGE('',*,*,#1456,.F.);
#1458=ORIENTED_EDGE('',*,*,#1432,.F.);
#1459=CARTESIAN_POINT('',(0.0,-5.329071E-015,21.749999999999819));
#1460=DIRECTION('',(0.0,0.0,-1.0));
#1461=DIRECTION('',(1.0,0.0,0.0));
#1462=AXIS2_PLACEMENT_3D('',#1459,#1460,#1461);
#1463=CIRCLE('',#1462,1.25);
#1464=EDGE_CURVE('',#1450,#1418,#1463,.T.);
#1465=ORIENTED_EDGE('',*,*,#1464,.F.);
#1466=EDGE_LOOP('',(#1457,#1458,#1465));
#1467=FACE_OUTER_BOUND('',#1466,.T.);
#1468=ADVANCED_FACE('',(#1467),#1448,.T.);
#1469=CARTESIAN_POINT('',(0.0,-1.776357E-015,3.999999999999819));
#1470=DIRECTION('',(0.0,2.220446E-016,-1.0));
#1471=DIRECTION('',(1.0,0.0,0.0));
#1472=AXIS2_PLACEMENT_3D('',#1469,#1470,#1471);
#1473=CYLINDRICAL_SURFACE('',#1472,1.5);
#1474=CARTESIAN_POINT('',(1.5,-5.329071E-015,2.999999999999819));
#1475=VERTEX_POINT('',#1474);
#1476=CARTESIAN_POINT('',(1.5,-5.329071E-015,4.999999999999819));
#1477=VERTEX_POINT('',#1476);
#1478=CARTESIAN_POINT('',(1.5,-5.748618E-015,2.999999999999819));
#1479=DIRECTION('',(0.0,0.0,1.0));
#1480=VECTOR('',#1479,2.0);
#1481=LINE('',#1478,#1480);
#1482=EDGE_CURVE('',#1475,#1477,#1481,.T.);
#1483=ORIENTED_EDGE('',*,*,#1482,.F.);
#1484=CARTESIAN_POINT('',(-1.5,2.823690E-015,2.999999999999819));
#1485=VERTEX_POINT('',#1484);
#1486=CARTESIAN_POINT('',(0.0,-1.776357E-015,2.999999999999819));
#1487=DIRECTION('',(0.0,0.0,-1.0));
#1488=DIRECTION('',(1.0,0.0,0.0));
#1489=AXIS2_PLACEMENT_3D('',#1486,#1487,#1488);
#1490=CIRCLE('',#1489,1.5);
#1491=EDGE_CURVE('',#1485,#1475,#1490,.T.);
#1492=ORIENTED_EDGE('',*,*,#1491,.F.);
#1493=CARTESIAN_POINT('',(-1.5,2.379601E-015,4.999999999999819));
#1494=VERTEX_POINT('',#1493);
#1495=CARTESIAN_POINT('',(-1.5,2.823690E-015,2.999999999999819));
#1496=DIRECTION('',(0.0,0.0,1.0));
#1497=VECTOR('',#1496,2.0);
#1498=LINE('',#1495,#1497);
#1499=EDGE_CURVE('',#1485,#1494,#1498,.T.);
#1500=ORIENTED_EDGE('',*,*,#1499,.T.);
#1501=CARTESIAN_POINT('',(0.0,-1.776357E-015,4.999999999999819));
#1502=DIRECTION('',(0.0,0.0,-1.0));
#1503=DIRECTION('',(1.0,0.0,0.0));
#1504=AXIS2_PLACEMENT_3D('',#1501,#1502,#1503);
#1505=CIRCLE('',#1504,1.5);
#1506=EDGE_CURVE('',#1494,#1477,#1505,.T.);
#1507=ORIENTED_EDGE('',*,*,#1506,.T.);
#1508=EDGE_LOOP('',(#1483,#1492,#1500,#1507));
#1509=FACE_OUTER_BOUND('',#1508,.T.);
#1510=ADVANCED_FACE('',(#1509),#1473,.T.);
#1511=CARTESIAN_POINT('',(0.0,1.776357E-015,-1.125000000000146));
#1512=DIRECTION('',(0.0,2.220446E-016,-1.0));
#1513=DIRECTION('',(1.0,0.0,0.0));
#1514=AXIS2_PLACEMENT_3D('',#1511,#1512,#1513);
#1515=CYLINDRICAL_SURFACE('',#1514,0.75);
#1516=CARTESIAN_POINT('',(0.75,-1.776357E-015,-4.200000000000054));
#1517=VERTEX_POINT('',#1516);
#1518=CARTESIAN_POINT('',(0.75,-1.236730E-015,2.999999999999364));
#1519=VERTEX_POINT('',#1518);
#1520=CARTESIAN_POINT('',(0.75,3.619913E-016,-4.200000000000054));
#1521=DIRECTION('',(0.0,0.0,1.0));
#1522=VECTOR('',#1521,7.199999999999418);
#1523=LINE('',#1520,#1522);
#1524=EDGE_CURVE('',#1517,#1519,#1523,.T.);
#1525=ORIENTED_EDGE('',*,*,#1524,.F.);
#1526=CARTESIAN_POINT('',(-0.75,3.873509E-015,-4.200000000000054));
#1527=VERTEX_POINT('',#1526);
#1528=CARTESIAN_POINT('',(0.0,1.776357E-015,-4.200000000000054));
#1529=DIRECTION('',(0.0,0.0,-1.0));
#1530=DIRECTION('',(-1.0,0.0,0.0));
#1531=AXIS2_PLACEMENT_3D('',#1528,#1529,#1530);
#1532=CIRCLE('',#1531,0.75);
#1533=EDGE_CURVE('',#1527,#1517,#1532,.T.);
#1534=ORIENTED_EDGE('',*,*,#1533,.F.);
#1535=CARTESIAN_POINT('',(-0.75,5.329071E-015,2.999999999999364));
#1536=VERTEX_POINT('',#1535);
#1537=CARTESIAN_POINT('',(-0.75,4.648145E-015,-4.200000000000054));
#1538=DIRECTION('',(0.0,0.0,1.0));
#1539=VECTOR('',#1538,7.199999999999418);
#1540=LINE('',#1537,#1539);
#1541=EDGE_CURVE('',#1527,#1536,#1540,.T.);
#1542=ORIENTED_EDGE('',*,*,#1541,.T.);
#1543=CARTESIAN_POINT('',(0.0,1.776357E-015,2.999999999999364));
#1544=DIRECTION('',(0.0,0.0,1.0));
#1545=DIRECTION('',(1.0,0.0,0.0));
#1546=AXIS2_PLACEMENT_3D('',#1543,#1544,#1545);
#1547=CIRCLE('',#1546,0.75);
#1548=EDGE_CURVE('',#1536,#1519,#1547,.F.);
#1549=ORIENTED_EDGE('',*,*,#1548,.T.);
#1550=EDGE_LOOP('',(#1525,#1534,#1542,#1549));
#1551=FACE_OUTER_BOUND('',#1550,.T.);
#1552=ADVANCED_FACE('',(#1551),#1515,.T.);
#1553=CARTESIAN_POINT('',(0.0,1.776357E-015,-4.399999999999995));
#1554=DIRECTION('',(0.0,0.0,1.0));
#1555=DIRECTION('',(-1.0,0.0,0.0));
#1556=AXIS2_PLACEMENT_3D('',#1553,#1554,#1555);
#1557=CONICAL_SURFACE('',#1556,0.55,45.000000000008498);
#1558=CARTESIAN_POINT('',(-0.35,2.755028E-015,-4.599999999999936));
#1559=VERTEX_POINT('',#1558);
#1560=CARTESIAN_POINT('',(-0.35,2.755028E-015,-4.599999999999936));
#1561=DIRECTION('',(-0.707106781186652,1.977214E-015,0.707106781186443));
#1562=VECTOR('',#1561,0.565685424949154);
#1563=LINE('',#1560,#1562);
#1564=EDGE_CURVE('',#1559,#1527,#1563,.T.);
#1565=ORIENTED_EDGE('',*,*,#1564,.F.);
#1566=CARTESIAN_POINT('',(0.35,1.776357E-015,-4.599999999999936));
#1567=VERTEX_POINT('',#1566);
#1568=CARTESIAN_POINT('',(0.0,1.776357E-015,-4.599999999999936));
#1569=DIRECTION('',(0.0,0.0,1.0));
#1570=DIRECTION('',(-1.0,0.0,0.0));
#1571=AXIS2_PLACEMENT_3D('',#1568,#1569,#1570);
#1572=CIRCLE('',#1571,0.35);
#1573=EDGE_CURVE('',#1559,#1567,#1572,.T.);
#1574=ORIENTED_EDGE('',*,*,#1573,.T.);
#1575=CARTESIAN_POINT('',(0.35,7.548230E-016,-4.599999999999936));
#1576=DIRECTION('',(0.707106781186652,-2.063810E-015,0.707106781186443));
#1577=VECTOR('',#1576,0.565685424949154);
#1578=LINE('',#1575,#1577);
#1579=EDGE_CURVE('',#1567,#1517,#1578,.T.);
#1580=ORIENTED_EDGE('',*,*,#1579,.T.);
#1581=CARTESIAN_POINT('',(0.0,1.776357E-015,-4.200000000000054));
#1582=DIRECTION('',(0.0,0.0,-1.0));
#1583=DIRECTION('',(-1.0,0.0,0.0));
#1584=AXIS2_PLACEMENT_3D('',#1581,#1582,#1583);
#1585=CIRCLE('',#1584,0.75);
#1586=EDGE_CURVE('',#1517,#1527,#1585,.T.);
#1587=ORIENTED_EDGE('',*,*,#1586,.T.);
#1588=EDGE_LOOP('',(#1565,#1574,#1580,#1587));
#1589=FACE_OUTER_BOUND('',#1588,.T.);
#1590=ADVANCED_FACE('',(#1589),#1557,.T.);
#1591=CARTESIAN_POINT('',(0.0,1.776357E-015,-4.399999999999995));
#1592=DIRECTION('',(0.0,0.0,1.0));
#1593=DIRECTION('',(-1.0,0.0,0.0));
#1594=AXIS2_PLACEMENT_3D('',#1591,#1592,#1593);
#1595=CONICAL_SURFACE('',#1594,0.55,45.000000000008498);
#1596=ORIENTED_EDGE('',*,*,#1564,.T.);
#1597=ORIENTED_EDGE('',*,*,#1533,.T.);
#1598=ORIENTED_EDGE('',*,*,#1579,.F.);
#1599=CARTESIAN_POINT('',(0.0,1.776357E-015,-4.599999999999936));
#1600=DIRECTION('',(0.0,0.0,1.0));
#1601=DIRECTION('',(-1.0,0.0,0.0));
#1602=AXIS2_PLACEMENT_3D('',#1599,#1600,#1601);
#1603=CIRCLE('',#1602,0.35);
#1604=EDGE_CURVE('',#1567,#1559,#1603,.T.);
#1605=ORIENTED_EDGE('',*,*,#1604,.T.);
#1606=EDGE_LOOP('',(#1596,#1597,#1598,#1605));
#1607=FACE_OUTER_BOUND('',#1606,.T.);
#1608=ADVANCED_FACE('',(#1607),#1595,.T.);
#1609=CARTESIAN_POINT('',(0.0,-5.329071E-015,-4.599999999999936));
#1610=DIRECTION('',(0.0,0.0,1.0));
#1611=DIRECTION('',(-1.0,0.0,0.0));
#1612=AXIS2_PLACEMENT_3D('',#1609,#1610,#1611);
#1613=PLANE('',#1612);
#1614=ORIENTED_EDGE('',*,*,#1604,.F.);
#1615=ORIENTED_EDGE('',*,*,#1573,.F.);
#1616=EDGE_LOOP('',(#1614,#1615));
#1617=FACE_OUTER_BOUND('',#1616,.T.);
#1618=ADVANCED_FACE('',(#1617),#1613,.F.);
#1619=CARTESIAN_POINT('',(0.0,1.776357E-015,-1.125000000000146));
#1620=DIRECTION('',(0.0,2.220446E-016,-1.0));
#1621=DIRECTION('',(1.0,0.0,0.0));
#1622=AXIS2_PLACEMENT_3D('',#1619,#1620,#1621);
#1623=CYLINDRICAL_SURFACE('',#1622,0.75);
#1624=ORIENTED_EDGE('',*,*,#1524,.T.);
#1625=CARTESIAN_POINT('',(0.0,1.776357E-015,2.999999999999364));
#1626=DIRECTION('',(0.0,0.0,1.0));
#1627=DIRECTION('',(1.0,0.0,0.0));
#1628=AXIS2_PLACEMENT_3D('',#1625,#1626,#1627);
#1629=CIRCLE('',#1628,0.75);
#1630=EDGE_CURVE('',#1519,#1536,#1629,.F.);
#1631=ORIENTED_EDGE('',*,*,#1630,.T.);
#1632=ORIENTED_EDGE('',*,*,#1541,.F.);
#1633=ORIENTED_EDGE('',*,*,#1586,.F.);
#1634=EDGE_LOOP('',(#1624,#1631,#1632,#1633));
#1635=FACE_OUTER_BOUND('',#1634,.T.);
#1636=ADVANCED_FACE('',(#1635),#1623,.T.);
#1637=CARTESIAN_POINT('',(1.549999999999955,-5.329071E-015,4.999999999999819));
#1638=DIRECTION('',(0.0,0.0,-1.0));
#1639=DIRECTION('',(0.0,-1.0,0.0));
#1640=AXIS2_PLACEMENT_3D('',#1637,#1638,#1639);
#1641=PLANE('',#1640);
#1642=CARTESIAN_POINT('',(0.0,-1.776357E-015,4.999999999999819));
#1643=DIRECTION('',(0.0,0.0,-1.0));
#1644=DIRECTION('',(1.0,0.0,0.0));
#1645=AXIS2_PLACEMENT_3D('',#1642,#1643,#1644);
#1646=CIRCLE('',#1645,1.599999999999909);
#1647=EDGE_CURVE('',#1315,#1325,#1646,.T.);
#1648=ORIENTED_EDGE('',*,*,#1647,.T.);
#1649=ORIENTED_EDGE('',*,*,#1331,.T.);
#1650=EDGE_LOOP('',(#1648,#1649));
#1651=FACE_OUTER_BOUND('',#1650,.T.);
#1652=CARTESIAN_POINT('',(0.0,-1.776357E-015,4.999999999999819));
#1653=DIRECTION('',(0.0,0.0,-1.0));
#1654=DIRECTION('',(1.0,0.0,0.0));
#1655=AXIS2_PLACEMENT_3D('',#1652,#1653,#1654);
#1656=CIRCLE('',#1655,1.5);
#1657=EDGE_CURVE('',#1477,#1494,#1656,.T.);
#1658=ORIENTED_EDGE('',*,*,#1657,.F.);
#1659=ORIENTED_EDGE('',*,*,#1506,.F.);
#1660=EDGE_LOOP('',(#1658,#1659));
#1661=FACE_BOUND('',#1660,.T.);
#1662=ADVANCED_FACE('',(#1651,#1661),#1641,.T.);
#1663=CARTESIAN_POINT('',(0.0,-1.776357E-015,3.999999999999819));
#1664=DIRECTION('',(0.0,2.220446E-016,-1.0));
#1665=DIRECTION('',(1.0,0.0,0.0));
#1666=AXIS2_PLACEMENT_3D('',#1663,#1664,#1665);
#1667=CYLINDRICAL_SURFACE('',#1666,1.5);
#1668=ORIENTED_EDGE('',*,*,#1482,.T.);
#1669=ORIENTED_EDGE('',*,*,#1657,.T.);
#1670=ORIENTED_EDGE('',*,*,#1499,.F.);
#1671=CARTESIAN_POINT('',(0.0,-1.776357E-015,2.999999999999819));
#1672=DIRECTION('',(0.0,0.0,-1.0));
#1673=DIRECTION('',(1.0,0.0,0.0));
#1674=AXIS2_PLACEMENT_3D('',#1671,#1672,#1673);
#1675=CIRCLE('',#1674,1.5);
#1676=EDGE_CURVE('',#1475,#1485,#1675,.T.);
#1677=ORIENTED_EDGE('',*,*,#1676,.F.);
#1678=EDGE_LOOP('',(#1668,#1669,#1670,#1677));
#1679=FACE_OUTER_BOUND('',#1678,.T.);
#1680=ADVANCED_FACE('',(#1679),#1667,.T.);
#1681=CARTESIAN_POINT('',(1.125,-5.329071E-015,2.999999999999364));
#1682=DIRECTION('',(0.0,0.0,-1.0));
#1683=DIRECTION('',(0.0,-1.0,0.0));
#1684=AXIS2_PLACEMENT_3D('',#1681,#1682,#1683);
#1685=PLANE('',#1684);
#1686=ORIENTED_EDGE('',*,*,#1676,.T.);
#1687=ORIENTED_EDGE('',*,*,#1491,.T.);
#1688=EDGE_LOOP('',(#1686,#1687));
#1689=FACE_OUTER_BOUND('',#1688,.T.);
#1690=ORIENTED_EDGE('',*,*,#1548,.F.);
#1691=ORIENTED_EDGE('',*,*,#1630,.F.);
#1692=EDGE_LOOP('',(#1690,#1691));
#1693=FACE_BOUND('',#1692,.T.);
#1694=ADVANCED_FACE('',(#1689,#1693),#1685,.T.);
#1695=CARTESIAN_POINT('',(0.0,-5.329071E-015,21.749999999999819));
#1696=DIRECTION('',(0.0,1.0,0.0));
#1697=DIRECTION('',(0.0,0.0,-1.0));
#1698=AXIS2_PLACEMENT_3D('',#1695,#1696,#1697);
#1699=SPHERICAL_SURFACE('',#1698,1.250000000000001);
#1700=ORIENTED_EDGE('',*,*,#1456,.T.);
#1701=CARTESIAN_POINT('',(0.0,-5.329071E-015,21.749999999999819));
#1702=DIRECTION('',(0.0,0.0,-1.0));
#1703=DIRECTION('',(1.0,0.0,0.0));
#1704=AXIS2_PLACEMENT_3D('',#1701,#1702,#1703);
#1705=CIRCLE('',#1704,1.25);
#1706=EDGE_CURVE('',#1401,#1450,#1705,.T.);
#1707=ORIENTED_EDGE('',*,*,#1706,.F.);
#1708=ORIENTED_EDGE('',*,*,#1439,.F.);
#1709=EDGE_LOOP('',(#1700,#1707,#1708));
#1710=FACE_OUTER_BOUND('',#1709,.T.);
#1711=ADVANCED_FACE('',(#1710),#1699,.T.);
#1712=CARTESIAN_POINT('',(0.0,-1.776357E-015,15.374999999999819));
#1713=DIRECTION('',(0.0,2.220446E-016,-1.0));
#1714=DIRECTION('',(1.0,0.0,0.0));
#1715=AXIS2_PLACEMENT_3D('',#1712,#1713,#1714);
#1716=CYLINDRICAL_SURFACE('',#1715,1.25);
#1717=ORIENTED_EDGE('',*,*,#1406,.T.);
#1718=ORIENTED_EDGE('',*,*,#1706,.T.);
#1719=ORIENTED_EDGE('',*,*,#1464,.T.);
#1720=ORIENTED_EDGE('',*,*,#1423,.F.);
#1721=CARTESIAN_POINT('',(0.0,-1.776357E-015,8.999999999999819));
#1722=DIRECTION('',(0.0,0.0,-1.0));
#1723=DIRECTION('',(1.0,0.0,0.0));
#1724=AXIS2_PLACEMENT_3D('',#1721,#1722,#1723);
#1725=CIRCLE('',#1724,1.25);
#1726=EDGE_CURVE('',#1399,#1409,#1725,.T.);
#1727=ORIENTED_EDGE('',*,*,#1726,.F.);
#1728=EDGE_LOOP('',(#1717,#1718,#1719,#1720,#1727));
#1729=FACE_OUTER_BOUND('',#1728,.T.);
#1730=ADVANCED_FACE('',(#1729),#1716,.T.);
#1731=CARTESIAN_POINT('',(1.375,-5.329071E-015,8.999999999999819));
#1732=DIRECTION('',(0.0,0.0,1.0));
#1733=DIRECTION('',(0.0,1.0,0.0));
#1734=AXIS2_PLACEMENT_3D('',#1731,#1732,#1733);
#1735=PLANE('',#1734);
#1736=CARTESIAN_POINT('',(0.0,-1.776357E-015,8.999999999999819));
#1737=DIRECTION('',(0.0,0.0,-1.0));
#1738=DIRECTION('',(1.0,0.0,0.0));
#1739=AXIS2_PLACEMENT_3D('',#1736,#1737,#1738);
#1740=CIRCLE('',#1739,1.5);
#1741=EDGE_CURVE('',#1359,#1376,#1740,.T.);
#1742=ORIENTED_EDGE('',*,*,#1741,.F.);
#1743=ORIENTED_EDGE('',*,*,#1388,.F.);
#1744=EDGE_LOOP('',(#1742,#1743));
#1745=FACE_OUTER_BOUND('',#1744,.T.);
#1746=ORIENTED_EDGE('',*,*,#1726,.T.);
#1747=ORIENTED_EDGE('',*,*,#1415,.T.);
#1748=EDGE_LOOP('',(#1746,#1747));
#1749=FACE_BOUND('',#1748,.T.);
#1750=ADVANCED_FACE('',(#1745,#1749),#1735,.T.);
#1751=CARTESIAN_POINT('',(0.0,-1.776357E-015,7.499999999999819));
#1752=DIRECTION('',(0.0,2.220446E-016,-1.0));
#1753=DIRECTION('',(1.0,0.0,0.0));
#1754=AXIS2_PLACEMENT_3D('',#1751,#1752,#1753);
#1755=CYLINDRICAL_SURFACE('',#1754,1.5);
#1756=ORIENTED_EDGE('',*,*,#1364,.T.);
#1757=ORIENTED_EDGE('',*,*,#1741,.T.);
#1758=ORIENTED_EDGE('',*,*,#1381,.F.);
#1759=CARTESIAN_POINT('',(0.0,-1.776357E-015,5.999999999999819));
#1760=DIRECTION('',(0.0,0.0,-1.0));
#1761=DIRECTION('',(1.0,0.0,0.0));
#1762=AXIS2_PLACEMENT_3D('',#1759,#1760,#1761);
#1763=CIRCLE('',#1762,1.5);
#1764=EDGE_CURVE('',#1357,#1367,#1763,.T.);
#1765=ORIENTED_EDGE('',*,*,#1764,.F.);
#1766=EDGE_LOOP('',(#1756,#1757,#1758,#1765));
#1767=FACE_OUTER_BOUND('',#1766,.T.);
#1768=ADVANCED_FACE('',(#1767),#1755,.T.);
#1769=CARTESIAN_POINT('',(1.549999999999955,-5.329071E-015,5.999999999999819));
#1770=DIRECTION('',(0.0,0.0,1.0));
#1771=DIRECTION('',(0.0,1.0,0.0));
#1772=AXIS2_PLACEMENT_3D('',#1769,#1770,#1771);
#1773=PLANE('',#1772);
#1774=CARTESIAN_POINT('',(0.0,-1.776357E-015,5.999999999999819));
#1775=DIRECTION('',(0.0,0.0,-1.0));
#1776=DIRECTION('',(1.0,0.0,0.0));
#1777=AXIS2_PLACEMENT_3D('',#1774,#1775,#1776);
#1778=CIRCLE('',#1777,1.599999999999909);
#1779=EDGE_CURVE('',#1317,#1334,#1778,.T.);
#1780=ORIENTED_EDGE('',*,*,#1779,.F.);
#1781=ORIENTED_EDGE('',*,*,#1346,.F.);
#1782=EDGE_LOOP('',(#1780,#1781));
#1783=FACE_OUTER_BOUND('',#1782,.T.);
#1784=ORIENTED_EDGE('',*,*,#1764,.T.);
#1785=ORIENTED_EDGE('',*,*,#1373,.T.);
#1786=EDGE_LOOP('',(#1784,#1785));
#1787=FACE_BOUND('',#1786,.T.);
#1788=ADVANCED_FACE('',(#1783,#1787),#1773,.T.);
#1789=CARTESIAN_POINT('',(0.0,-1.776357E-015,5.499999999999819));
#1790=DIRECTION('',(0.0,2.220446E-016,-1.0));
#1791=DIRECTION('',(1.0,0.0,0.0));
#1792=AXIS2_PLACEMENT_3D('',#1789,#1790,#1791);
#1793=CYLINDRICAL_SURFACE('',#1792,1.599999999999909);
#1794=ORIENTED_EDGE('',*,*,#1322,.T.);
#1795=ORIENTED_EDGE('',*,*,#1779,.T.);
#1796=ORIENTED_EDGE('',*,*,#1339,.F.);
#1797=ORIENTED_EDGE('',*,*,#1647,.F.);
#1798=EDGE_LOOP('',(#1794,#1795,#1796,#1797));
#1799=FACE_OUTER_BOUND('',#1798,.T.);
#1800=ADVANCED_FACE('',(#1799),#1793,.T.);
#1801=CLOSED_SHELL('',(#1350,#1392,#1443,#1468,#1510,#1552,#1590,#1608,#1618,#1636,#1662,#1680,#1694,#1711,#1730,#1750,#1768,#1788,#1800));
#1802=MANIFOLD_SOLID_BREP('1B90',#1801);
#1803=COLOUR_RGB('254',0.866,0.866,0.866);
#1804=SURFACE_STYLE_USAGE(.BOTH.,#1805);
#1805=SURFACE_SIDE_STYLE('NONE',(#1806));
#1806=SURFACE_STYLE_FILL_AREA(#1807);
#1807=FILL_AREA_STYLE('NONE',(#1808));
#1808=FILL_AREA_STYLE_COLOUR('NONE',#1803);
#1809=PRESENTATION_STYLE_ASSIGNMENT((#1804));
#1810=STYLED_ITEM('NONE',(#1809),#1802);
#1811=ADVANCED_BREP_SHAPE_REPRESENTATION('ABSR1',(#1298,#1802),#28);
#1812=SHAPE_REPRESENTATION_RELATIONSHIP('SRRPL1','',#1811,#62);
ENDSEC;
END-ISO-10303-21;
