ISO-10303-21;
HEADER;
/****************************************************************
 * Generated by software with PDElib inside                    *
 * PDElib Version v51a, created Fri 09/10/2010                  *
 * ITI Transcendata (http://www.transcendata.com/)              *
 ****************************************************************/
FILE_DESCRIPTION((''),'2;1');
FILE_NAME('HSINK_FISCHER_SK 454 20 1xM3 L.stp','2012-09-04T09:50:54',(''),(''),'Mechanical Desktop 2011','Mechanical Desktop 2011',', , ');
FILE_SCHEMA(('AUTOMOTIVE_DESIGN { 1 2 10303 214 1 1 1 1 }'));
ENDSEC;
DATA;
#10=(NAMED_UNIT(*)PLANE_ANGLE_UNIT()SI_UNIT($,.RADIAN.));
#11=DIMENSIONAL_EXPONENTS(0.0,0.0,0.0,0.0,0.0,0.0,0.0);
#12=PLANE_ANGLE_MEASURE_WITH_UNIT(PLANE_ANGLE_MEASURE(0.0174532925),#10);
#16=(CONVERSION_BASED_UNIT('DEGREE',#12)NAMED_UNIT(#11)PLANE_ANGLE_UNIT());
#20=(NAMED_UNIT(*)SI_UNIT($,.STERADIAN.)SOLID_ANGLE_UNIT());
#24=(LENGTH_UNIT()NAMED_UNIT(*)SI_UNIT(.MILLI.,.METRE.));
#26=UNCERTAINTY_MEASURE_WITH_UNIT(LENGTH_MEASURE(0.000001),#24,'DISTANCE_ACCURACY_VALUE','');
#28=(GEOMETRIC_REPRESENTATION_CONTEXT(3)GLOBAL_UNCERTAINTY_ASSIGNED_CONTEXT((#26))GLOBAL_UNIT_ASSIGNED_CONTEXT((#16,#20,#24))REPRESENTATION_CONTEXT('','3D'));
#29=APPLICATION_CONTEXT('automotive design');
#30=APPLICATION_PROTOCOL_DEFINITION('INTERNATIONAL_STANDARD','automotive_design',1998,#29);
#31=PRODUCT_CONTEXT('3D Mechanical Parts',#29,'mechanical');
#32=PRODUCT('Product','Product','',(#31));
#33=PRODUCT_RELATED_PRODUCT_CATEGORY('part',$,(#32));
#34=PRODUCT_CATEGORY('part',$);
#35=PERSON('1','Design','Joe',$,$,$);
#36=ORGANIZATION($,'None','None');
#37=PERSON_AND_ORGANIZATION(#35,#36);
#38=PERSON_AND_ORGANIZATION_ROLE('design_owner');
#39=APPLIED_PERSON_AND_ORGANIZATION_ASSIGNMENT(#37,#38,(#32));
#40=PRODUCT_DEFINITION_FORMATION_WITH_SPECIFIED_SOURCE('None','',#32,.BOUGHT.);
#41=PERSON('2','Creator','Joe',$,$,$);
#42=ORGANIZATION($,'None','None');
#43=PERSON_AND_ORGANIZATION(#41,#42);
#44=PERSON_AND_ORGANIZATION_ROLE('creator');
#45=APPLIED_PERSON_AND_ORGANIZATION_ASSIGNMENT(#43,#44,(#40));
#46=PERSON('3','Supplier','Joe',$,$,$);
#47=ORGANIZATION($,'None','None');
#48=PERSON_AND_ORGANIZATION(#46,#47);
#49=PERSON_AND_ORGANIZATION_ROLE('design_supplier');
#50=APPLIED_PERSON_AND_ORGANIZATION_ASSIGNMENT(#48,#49,(#40));
#51=PRODUCT_DEFINITION_CONTEXT('part definition',#29,'design');
#52=PRODUCT_DEFINITION('None','',#40,#51);
#53=PERSON('4','Creator','Joe',$,$,$);
#54=ORGANIZATION($,'None','None');
#55=PERSON_AND_ORGANIZATION(#53,#54);
#56=PERSON_AND_ORGANIZATION_ROLE('creator');
#57=APPLIED_PERSON_AND_ORGANIZATION_ASSIGNMENT(#55,#56,(#52));
#58=CARTESIAN_POINT('NONE',(0.0,0.0,0.0));
#59=DIRECTION('NONE',(0.0,0.0,1.0));
#60=DIRECTION('NONE',(1.0,0.0,0.0));
#61=AXIS2_PLACEMENT_3D('NONE',#58,#59,#60);
#62=SHAPE_REPRESENTATION('SR1',(#61),#28);
#63=PRODUCT_DEFINITION_SHAPE('PDS1','Test Part',#52);
#64=SHAPE_DEFINITION_REPRESENTATION(#63,#62);
#65=CARTESIAN_POINT('',(-6.500000000000092,-100.0,9.450000000000102));
#66=DIRECTION('',(0.0,-1.0,0.0));
#67=VECTOR('',#66,1.0);
#68=LINE('',#65,#67);
#69=CARTESIAN_POINT('',(-6.500000000000092,-101.0,9.450000000000102));
#70=TRIMMED_CURVE('15A8',#68,(PARAMETER_VALUE(0.0),#65),(PARAMETER_VALUE(1.0),#69),.T.,.PARAMETER.);
#71=DRAUGHTING_PRE_DEFINED_COLOUR('red');
#72=CURVE_STYLE('NONE',#73,POSITIVE_LENGTH_MEASURE(0.2),#71);
#73=DRAUGHTING_PRE_DEFINED_CURVE_FONT('continuous');
#74=PRESENTATION_STYLE_ASSIGNMENT((#72));
#75=STYLED_ITEM('NONE',(#74),#70);
#76=MECHANICAL_DESIGN_GEOMETRIC_PRESENTATION_REPRESENTATION('NONE',(#75,#247,#1477),#28);
#77=PRESENTATION_LAYER_ASSIGNMENT('Mechanical 14','None',(#70));
#78=CARTESIAN_POINT('',(0.0,0.0,-3.899999999999949));
#79=DIRECTION('',(0.0,0.0,1.0));
#80=DIRECTION('',(1.0,0.0,0.0));
#81=AXIS2_PLACEMENT_3D('',#78,#79,#80);
#82=CYLINDRICAL_SURFACE('',#81,0.999999999999996);
#83=CARTESIAN_POINT('',(0.999999999999993,0.0,6.100000000000051));
#84=VERTEX_POINT('',#83);
#85=CARTESIAN_POINT('',(0.999999999999993,0.0,-3.899999999999949));
#86=VERTEX_POINT('',#85);
#87=CARTESIAN_POINT('',(0.999999999999996,0.0,6.100000000000051));
#88=DIRECTION('',(0.0,0.0,-1.0));
#89=VECTOR('',#88,10.0);
#90=LINE('',#87,#89);
#91=EDGE_CURVE('',#84,#86,#90,.T.);
#92=ORIENTED_EDGE('',*,*,#91,.F.);
#93=CARTESIAN_POINT('',(-0.999999999999996,-1.224647E-016,6.100000000000051));
#94=VERTEX_POINT('',#93);
#95=CARTESIAN_POINT('',(0.0,0.0,6.100000000000051));
#96=DIRECTION('',(0.0,0.0,-1.0));
#97=DIRECTION('',(1.0,0.0,0.0));
#98=AXIS2_PLACEMENT_3D('',#95,#96,#97);
#99=CIRCLE('',#98,0.999999999999996);
#100=EDGE_CURVE('',#84,#94,#99,.T.);
#101=ORIENTED_EDGE('',*,*,#100,.T.);
#102=CARTESIAN_POINT('',(-0.999999999999996,-1.224647E-016,-3.899999999999949));
#103=VERTEX_POINT('',#102);
#104=CARTESIAN_POINT('',(-0.999999999999996,-1.224647E-016,6.100000000000051));
#105=DIRECTION('',(0.0,0.0,-1.0));
#106=VECTOR('',#105,10.0);
#107=LINE('',#104,#106);
#108=EDGE_CURVE('',#94,#103,#107,.T.);
#109=ORIENTED_EDGE('',*,*,#108,.T.);
#110=CARTESIAN_POINT('',(0.0,0.0,-3.899999999999949));
#111=DIRECTION('',(0.0,0.0,1.0));
#112=DIRECTION('',(1.0,0.0,0.0));
#113=AXIS2_PLACEMENT_3D('',#110,#111,#112);
#114=CIRCLE('',#113,0.999999999999996);
#115=EDGE_CURVE('',#103,#86,#114,.T.);
#116=ORIENTED_EDGE('',*,*,#115,.T.);
#117=EDGE_LOOP('',(#92,#101,#109,#116));
#118=FACE_OUTER_BOUND('',#117,.T.);
#119=ADVANCED_FACE('',(#118),#82,.T.);
#120=CARTESIAN_POINT('',(0.0,0.0,1.100000000000051));
#121=DIRECTION('',(0.0,0.0,1.0));
#122=DIRECTION('',(1.0,0.0,0.0));
#123=AXIS2_PLACEMENT_3D('',#120,#121,#122);
#124=CYLINDRICAL_SURFACE('',#123,0.749999999999997);
#125=CARTESIAN_POINT('',(0.75,0.0,-3.899999999999949));
#126=VERTEX_POINT('',#125);
#127=CARTESIAN_POINT('',(0.75,0.0,6.100000000000051));
#128=VERTEX_POINT('',#127);
#129=CARTESIAN_POINT('',(0.749999999999997,0.0,-3.899999999999949));
#130=DIRECTION('',(0.0,0.0,1.0));
#131=VECTOR('',#130,10.0);
#132=LINE('',#129,#131);
#133=EDGE_CURVE('',#126,#128,#132,.T.);
#134=ORIENTED_EDGE('',*,*,#133,.F.);
#135=CARTESIAN_POINT('',(-0.749999999999997,-9.184851E-017,-3.899999999999949));
#136=VERTEX_POINT('',#135);
#137=CARTESIAN_POINT('',(0.0,0.0,-3.899999999999949));
#138=DIRECTION('',(0.0,0.0,1.0));
#139=DIRECTION('',(1.0,0.0,0.0));
#140=AXIS2_PLACEMENT_3D('',#137,#138,#139);
#141=CIRCLE('',#140,0.749999999999997);
#142=EDGE_CURVE('',#136,#126,#141,.T.);
#143=ORIENTED_EDGE('',*,*,#142,.F.);
#144=CARTESIAN_POINT('',(-0.749999999999997,-9.184851E-017,6.100000000000051));
#145=VERTEX_POINT('',#144);
#146=CARTESIAN_POINT('',(-0.749999999999997,-9.184851E-017,-3.899999999999949));
#147=DIRECTION('',(0.0,0.0,1.0));
#148=VECTOR('',#147,10.0);
#149=LINE('',#146,#148);
#150=EDGE_CURVE('',#136,#145,#149,.T.);
#151=ORIENTED_EDGE('',*,*,#150,.T.);
#152=CARTESIAN_POINT('',(0.0,0.0,6.100000000000051));
#153=DIRECTION('',(0.0,0.0,-1.0));
#154=DIRECTION('',(1.0,0.0,0.0));
#155=AXIS2_PLACEMENT_3D('',#152,#153,#154);
#156=CIRCLE('',#155,0.749999999999997);
#157=EDGE_CURVE('',#128,#145,#156,.T.);
#158=ORIENTED_EDGE('',*,*,#157,.F.);
#159=EDGE_LOOP('',(#134,#143,#151,#158));
#160=FACE_OUTER_BOUND('',#159,.T.);
#161=ADVANCED_FACE('',(#160),#124,.F.);
#162=CARTESIAN_POINT('',(0.0,0.0,1.100000000000051));
#163=DIRECTION('',(0.0,0.0,1.0));
#164=DIRECTION('',(1.0,0.0,0.0));
#165=AXIS2_PLACEMENT_3D('',#162,#163,#164);
#166=CYLINDRICAL_SURFACE('',#165,0.749999999999997);
#167=ORIENTED_EDGE('',*,*,#133,.T.);
#168=CARTESIAN_POINT('',(0.0,0.0,6.100000000000051));
#169=DIRECTION('',(0.0,0.0,-1.0));
#170=DIRECTION('',(1.0,0.0,0.0));
#171=AXIS2_PLACEMENT_3D('',#168,#169,#170);
#172=CIRCLE('',#171,0.749999999999997);
#173=EDGE_CURVE('',#145,#128,#172,.T.);
#174=ORIENTED_EDGE('',*,*,#173,.F.);
#175=ORIENTED_EDGE('',*,*,#150,.F.);
#176=CARTESIAN_POINT('',(0.0,0.0,-3.899999999999949));
#177=DIRECTION('',(0.0,0.0,1.0));
#178=DIRECTION('',(1.0,0.0,0.0));
#179=AXIS2_PLACEMENT_3D('',#176,#177,#178);
#180=CIRCLE('',#179,0.749999999999997);
#181=EDGE_CURVE('',#126,#136,#180,.T.);
#182=ORIENTED_EDGE('',*,*,#181,.F.);
#183=EDGE_LOOP('',(#167,#174,#175,#182));
#184=FACE_OUTER_BOUND('',#183,.T.);
#185=ADVANCED_FACE('',(#184),#166,.F.);
#186=CARTESIAN_POINT('',(0.0,0.0,-3.899999999999949));
#187=DIRECTION('',(0.0,0.0,1.0));
#188=DIRECTION('',(1.0,0.0,0.0));
#189=AXIS2_PLACEMENT_3D('',#186,#187,#188);
#190=CYLINDRICAL_SURFACE('',#189,0.999999999999996);
#191=ORIENTED_EDGE('',*,*,#91,.T.);
#192=CARTESIAN_POINT('',(0.0,0.0,-3.899999999999949));
#193=DIRECTION('',(0.0,0.0,1.0));
#194=DIRECTION('',(1.0,0.0,0.0));
#195=AXIS2_PLACEMENT_3D('',#192,#193,#194);
#196=CIRCLE('',#195,0.999999999999996);
#197=EDGE_CURVE('',#86,#103,#196,.T.);
#198=ORIENTED_EDGE('',*,*,#197,.T.);
#199=ORIENTED_EDGE('',*,*,#108,.F.);
#200=CARTESIAN_POINT('',(0.0,0.0,6.100000000000051));
#201=DIRECTION('',(0.0,0.0,-1.0));
#202=DIRECTION('',(1.0,0.0,0.0));
#203=AXIS2_PLACEMENT_3D('',#200,#201,#202);
#204=CIRCLE('',#203,0.999999999999996);
#205=EDGE_CURVE('',#94,#84,#204,.T.);
#206=ORIENTED_EDGE('',*,*,#205,.T.);
#207=EDGE_LOOP('',(#191,#198,#199,#206));
#208=FACE_OUTER_BOUND('',#207,.T.);
#209=ADVANCED_FACE('',(#208),#190,.T.);
#210=CARTESIAN_POINT('',(0.0,0.0,-3.899999999999949));
#211=DIRECTION('',(0.0,0.0,1.0));
#212=DIRECTION('',(1.0,0.0,0.0));
#213=AXIS2_PLACEMENT_3D('',#210,#211,#212);
#214=PLANE('',#213);
#215=ORIENTED_EDGE('',*,*,#197,.F.);
#216=ORIENTED_EDGE('',*,*,#115,.F.);
#217=EDGE_LOOP('',(#215,#216));
#218=FACE_OUTER_BOUND('',#217,.T.);
#219=ORIENTED_EDGE('',*,*,#181,.T.);
#220=ORIENTED_EDGE('',*,*,#142,.T.);
#221=EDGE_LOOP('',(#219,#220));
#222=FACE_BOUND('',#221,.T.);
#223=ADVANCED_FACE('',(#218,#222),#214,.F.);
#224=CARTESIAN_POINT('',(0.0,0.0,6.100000000000051));
#225=DIRECTION('',(0.0,0.0,1.0));
#226=DIRECTION('',(1.0,0.0,0.0));
#227=AXIS2_PLACEMENT_3D('',#224,#225,#226);
#228=PLANE('',#227);
#229=ORIENTED_EDGE('',*,*,#100,.F.);
#230=ORIENTED_EDGE('',*,*,#205,.F.);
#231=EDGE_LOOP('',(#229,#230));
#232=FACE_OUTER_BOUND('',#231,.T.);
#233=ORIENTED_EDGE('',*,*,#157,.T.);
#234=ORIENTED_EDGE('',*,*,#173,.T.);
#235=EDGE_LOOP('',(#233,#234));
#236=FACE_BOUND('',#235,.T.);
#237=ADVANCED_FACE('',(#232,#236),#228,.T.);
#238=CLOSED_SHELL('',(#119,#161,#185,#209,#223,#237));
#239=MANIFOLD_SOLID_BREP('157F',#238);
#240=COLOUR_RGB('254',0.866,0.866,0.866);
#241=SURFACE_STYLE_USAGE(.BOTH.,#242);
#242=SURFACE_SIDE_STYLE('NONE',(#243));
#243=SURFACE_STYLE_FILL_AREA(#244);
#244=FILL_AREA_STYLE('NONE',(#245));
#245=FILL_AREA_STYLE_COLOUR('NONE',#240);
#246=PRESENTATION_STYLE_ASSIGNMENT((#241));
#247=STYLED_ITEM('NONE',(#246),#239);
#248=PRESENTATION_LAYER_ASSIGNMENT('3D','None',(#239,#1469));
#249=CARTESIAN_POINT('',(4.849733022518002,0.0,17.799999999999997));
#250=DIRECTION('',(1.0,5.665539E-016,2.220446E-016));
#251=DIRECTION('',(0.0,0.0,-1.0));
#252=AXIS2_PLACEMENT_3D('',#249,#250,#251);
#253=CYLINDRICAL_SURFACE('',#252,1.229500000000009);
#254=CARTESIAN_POINT('',(-9.500000000000096,-8.881784E-015,16.570499999999988));
#255=VERTEX_POINT('',#254);
#256=CARTESIAN_POINT('',(-6.5000000000001,-6.430235E-015,16.570499999999988));
#257=VERTEX_POINT('',#256);
#258=CARTESIAN_POINT('',(-9.500000000000096,-8.129897E-015,16.570499999999985));
#259=DIRECTION('',(1.0,0.0,0.0));
#260=VECTOR('',#259,2.999999999999996);
#261=LINE('',#258,#260);
#262=EDGE_CURVE('',#255,#257,#261,.T.);
#263=ORIENTED_EDGE('',*,*,#262,.F.);
#264=CARTESIAN_POINT('',(-9.5000000000001,-8.280467E-015,19.029500000000002));
#265=VERTEX_POINT('',#264);
#266=CARTESIAN_POINT('',(-9.5000000000001,-8.881784E-015,17.799999999999997));
#267=DIRECTION('',(1.0,0.0,0.0));
#268=DIRECTION('',(0.0,0.0,-1.0));
#269=AXIS2_PLACEMENT_3D('',#266,#267,#268);
#270=CIRCLE('',#269,1.229500000000009);
#271=EDGE_CURVE('',#265,#255,#270,.T.);
#272=ORIENTED_EDGE('',*,*,#271,.F.);
#273=CARTESIAN_POINT('',(-6.348309937463989,-7.313624E-015,19.029500000000002));
#274=VERTEX_POINT('',#273);
#275=CARTESIAN_POINT('',(-9.5000000000001,-8.280467E-015,19.029500000000002));
#276=DIRECTION('',(1.0,0.0,0.0));
#277=VECTOR('',#276,3.151690062536112);
#278=LINE('',#275,#277);
#279=EDGE_CURVE('',#265,#274,#278,.T.);
#280=ORIENTED_EDGE('',*,*,#279,.T.);
#281=CARTESIAN_POINT('',(-6.500000000000092,-1.010777052568979,18.5));
#282=VERTEX_POINT('',#281);
#283=CARTESIAN_POINT('',(-6.500000000000092,-1.010777052568979,18.5));
#284=CARTESIAN_POINT('',(-6.500000000000092,-0.997383081965978,18.519340454468995));
#285=CARTESIAN_POINT('',(-6.499437614428963,-0.983620091614851,18.538022077207323));
#286=CARTESIAN_POINT('',(-6.490335610938594,-0.856923462739028,18.700545179245111));
#287=CARTESIAN_POINT('',(-6.450913475823512,-0.708310090781582,18.822255942593742));
#288=CARTESIAN_POINT('',(-6.396355047118465,-0.456075396244064,18.945611203695705));
#289=CARTESIAN_POINT('',(-6.379160119681732,-0.36707536998485,18.977140265767943));
#290=CARTESIAN_POINT('',(-6.355057053687258,-0.18494175011215,19.019098056920313));
#291=CARTESIAN_POINT('',(-6.348309937463981,-0.091780714208335,19.029500000000006));
#292=CARTESIAN_POINT('',(-6.348309937463982,-7.917278E-015,19.029500000000006));
#293=B_SPLINE_CURVE_WITH_KNOTS('',3,(#283,#284,#285,#286,#287,#288,#289,#290,#291,#292),.UNSPECIFIED.,.F.,.U.,(4,2,2,2,4),(1.539189939401036,1.607325311553933,2.158009596803894,2.433351739428875,2.708693882053856),.UNSPECIFIED.);
#294=EDGE_CURVE('',#282,#274,#293,.T.);
#295=ORIENTED_EDGE('',*,*,#294,.F.);
#296=CARTESIAN_POINT('',(-6.5000000000001,-7.105427E-015,17.799999999999997));
#297=DIRECTION('',(-1.0,0.0,0.0));
#298=DIRECTION('',(0.0,0.0,-1.0));
#299=AXIS2_PLACEMENT_3D('',#296,#297,#298);
#300=CIRCLE('',#299,1.229500000000009);
#301=EDGE_CURVE('',#257,#282,#300,.T.);
#302=ORIENTED_EDGE('',*,*,#301,.F.);
#303=EDGE_LOOP('',(#263,#272,#280,#295,#302));
#304=FACE_OUTER_BOUND('',#303,.T.);
#305=ADVANCED_FACE('',(#304),#253,.F.);
#306=CARTESIAN_POINT('',(0.0,0.0,1.100000000000051));
#307=DIRECTION('',(0.0,-1.224647E-016,-1.0));
#308=DIRECTION('',(1.0,0.0,0.0));
#309=AXIS2_PLACEMENT_3D('',#306,#307,#308);
#310=CYLINDRICAL_SURFACE('',#309,0.999999999999998);
#311=CARTESIAN_POINT('',(0.999999999999998,1.040950E-016,1.949999999999996));
#312=VERTEX_POINT('',#311);
#313=CARTESIAN_POINT('',(0.999999999999998,-1.347111E-016,0.0));
#314=VERTEX_POINT('',#313);
#315=CARTESIAN_POINT('',(0.999999999999998,1.040950E-016,1.949999999999996));
#316=DIRECTION('',(0.0,0.0,-1.0));
#317=VECTOR('',#316,1.949999999999996);
#318=LINE('',#315,#317);
#319=EDGE_CURVE('',#312,#314,#318,.T.);
#320=ORIENTED_EDGE('',*,*,#319,.F.);
#321=CARTESIAN_POINT('',(-1.0,0.0,1.949999999999996));
#322=VERTEX_POINT('',#321);
#323=CARTESIAN_POINT('',(0.0,0.0,1.949999999999996));
#324=DIRECTION('',(0.0,0.0,-1.0));
#325=DIRECTION('',(1.0,0.0,0.0));
#326=AXIS2_PLACEMENT_3D('',#323,#324,#325);
#327=CIRCLE('',#326,0.999999999999998);
#328=EDGE_CURVE('',#322,#312,#327,.T.);
#329=ORIENTED_EDGE('',*,*,#328,.F.);
#330=CARTESIAN_POINT('',(-1.0,0.0,0.0));
#331=VERTEX_POINT('',#330);
#332=CARTESIAN_POINT('',(-0.999999999999998,2.265597E-016,1.949999999999996));
#333=DIRECTION('',(0.0,0.0,-1.0));
#334=VECTOR('',#333,1.949999999999996);
#335=LINE('',#332,#334);
#336=EDGE_CURVE('',#322,#331,#335,.T.);
#337=ORIENTED_EDGE('',*,*,#336,.T.);
#338=CARTESIAN_POINT('',(0.0,0.0,0.0));
#339=DIRECTION('',(0.0,0.0,1.0));
#340=DIRECTION('',(1.0,0.0,0.0));
#341=AXIS2_PLACEMENT_3D('',#338,#339,#340);
#342=CIRCLE('',#341,0.999999999999998);
#343=EDGE_CURVE('',#314,#331,#342,.T.);
#344=ORIENTED_EDGE('',*,*,#343,.F.);
#345=EDGE_LOOP('',(#320,#329,#337,#344));
#346=FACE_OUTER_BOUND('',#345,.T.);
#347=ADVANCED_FACE('',(#346),#310,.F.);
#348=CARTESIAN_POINT('',(0.0,0.0,1.100000000000051));
#349=DIRECTION('',(0.0,-1.224647E-016,-1.0));
#350=DIRECTION('',(1.0,0.0,0.0));
#351=AXIS2_PLACEMENT_3D('',#348,#349,#350);
#352=CYLINDRICAL_SURFACE('',#351,0.999999999999998);
#353=ORIENTED_EDGE('',*,*,#319,.T.);
#354=CARTESIAN_POINT('',(0.0,0.0,0.0));
#355=DIRECTION('',(0.0,0.0,1.0));
#356=DIRECTION('',(1.0,0.0,0.0));
#357=AXIS2_PLACEMENT_3D('',#354,#355,#356);
#358=CIRCLE('',#357,0.999999999999998);
#359=EDGE_CURVE('',#331,#314,#358,.T.);
#360=ORIENTED_EDGE('',*,*,#359,.F.);
#361=ORIENTED_EDGE('',*,*,#336,.F.);
#362=CARTESIAN_POINT('',(0.0,0.0,1.949999999999996));
#363=DIRECTION('',(0.0,0.0,-1.0));
#364=DIRECTION('',(1.0,0.0,0.0));
#365=AXIS2_PLACEMENT_3D('',#362,#363,#364);
#366=CIRCLE('',#365,0.999999999999998);
#367=EDGE_CURVE('',#312,#322,#366,.T.);
#368=ORIENTED_EDGE('',*,*,#367,.F.);
#369=EDGE_LOOP('',(#353,#360,#361,#368));
#370=FACE_OUTER_BOUND('',#369,.T.);
#371=ADVANCED_FACE('',(#370),#352,.F.);
#372=CARTESIAN_POINT('',(4.849733022518002,0.0,17.799999999999997));
#373=DIRECTION('',(1.0,5.665539E-016,2.220446E-016));
#374=DIRECTION('',(0.0,0.0,-1.0));
#375=AXIS2_PLACEMENT_3D('',#372,#373,#374);
#376=CYLINDRICAL_SURFACE('',#375,1.229500000000009);
#377=ORIENTED_EDGE('',*,*,#262,.T.);
#378=CARTESIAN_POINT('',(-6.500000000000092,1.010777052568965,18.5));
#379=VERTEX_POINT('',#378);
#380=CARTESIAN_POINT('',(-6.5000000000001,-7.105427E-015,17.799999999999997));
#381=DIRECTION('',(-1.0,0.0,0.0));
#382=DIRECTION('',(0.0,0.0,-1.0));
#383=AXIS2_PLACEMENT_3D('',#380,#381,#382);
#384=CIRCLE('',#383,1.229500000000009);
#385=EDGE_CURVE('',#379,#257,#384,.T.);
#386=ORIENTED_EDGE('',*,*,#385,.F.);
#387=CARTESIAN_POINT('',(-6.348309937463982,-7.917278E-015,19.029500000000006));
#388=CARTESIAN_POINT('',(-6.348309937463984,0.091780714208319,19.029500000000006));
#389=CARTESIAN_POINT('',(-6.355057053687261,0.184941750112134,19.019098056920321));
#390=CARTESIAN_POINT('',(-6.379160119681735,0.367075369984832,18.97714026576795));
#391=CARTESIAN_POINT('',(-6.396355047118476,0.456075396244042,18.945611203695705));
#392=CARTESIAN_POINT('',(-6.450913475823519,0.708310090781564,18.822255942593742));
#393=CARTESIAN_POINT('',(-6.490335610938601,0.856923462739012,18.700545179245111));
#394=CARTESIAN_POINT('',(-6.499437614428967,0.983620091614837,18.538022077207323));
#395=CARTESIAN_POINT('',(-6.500000000000092,0.997383081965964,18.519340454468995));
#396=CARTESIAN_POINT('',(-6.500000000000092,1.010777052568965,18.5));
#397=B_SPLINE_CURVE_WITH_KNOTS('',3,(#387,#388,#389,#390,#391,#392,#393,#394,#395,#396),.UNSPECIFIED.,.F.,.U.,(4,2,2,2,4),(2.708693882053856,2.984036024678836,3.259378167303817,3.810062452553777,3.878197824706676),.UNSPECIFIED.);
#398=EDGE_CURVE('',#274,#379,#397,.T.);
#399=ORIENTED_EDGE('',*,*,#398,.F.);
#400=ORIENTED_EDGE('',*,*,#279,.F.);
#401=CARTESIAN_POINT('',(-9.5000000000001,-8.881784E-015,17.799999999999997));
#402=DIRECTION('',(1.0,0.0,0.0));
#403=DIRECTION('',(0.0,0.0,-1.0));
#404=AXIS2_PLACEMENT_3D('',#401,#402,#403);
#405=CIRCLE('',#404,1.229500000000009);
#406=EDGE_CURVE('',#255,#265,#405,.T.);
#407=ORIENTED_EDGE('',*,*,#406,.F.);
#408=EDGE_LOOP('',(#377,#386,#399,#400,#407));
#409=FACE_OUTER_BOUND('',#408,.T.);
#410=ADVANCED_FACE('',(#409),#376,.F.);
#411=CARTESIAN_POINT('',(-5.500000000000092,-10.000000000000004,18.5));
#412=DIRECTION('',(-1.776357E-016,1.0,0.0));
#413=DIRECTION('',(-0.707106781186548,-1.256074E-016,0.707106781186548));
#414=AXIS2_PLACEMENT_3D('',#411,#412,#413);
#415=CYLINDRICAL_SURFACE('',#414,1.0);
#416=ORIENTED_EDGE('',*,*,#294,.T.);
#417=ORIENTED_EDGE('',*,*,#398,.T.);
#418=CARTESIAN_POINT('',(-6.500000000000096,9.999999999999993,18.5));
#419=VERTEX_POINT('',#418);
#420=CARTESIAN_POINT('',(-6.500000000000094,1.010777052568965,18.5));
#421=DIRECTION('',(0.0,1.0,0.0));
#422=VECTOR('',#421,8.989222947431028);
#423=LINE('',#420,#422);
#424=EDGE_CURVE('',#379,#419,#423,.T.);
#425=ORIENTED_EDGE('',*,*,#424,.T.);
#426=CARTESIAN_POINT('',(-5.500000000000096,9.999999999999993,19.5));
#427=VERTEX_POINT('',#426);
#428=CARTESIAN_POINT('',(-5.500000000000096,9.999999999999996,18.5));
#429=DIRECTION('',(-1.110223E-016,1.0,1.110223E-016));
#430=DIRECTION('',(-0.707106781186548,-1.570092E-016,0.707106781186548));
#431=AXIS2_PLACEMENT_3D('',#428,#429,#430);
#432=CIRCLE('',#431,1.0);
#433=EDGE_CURVE('',#419,#427,#432,.T.);
#434=ORIENTED_EDGE('',*,*,#433,.T.);
#435=CARTESIAN_POINT('',(-5.500000000000092,-10.000000000000004,19.5));
#436=VERTEX_POINT('',#435);
#437=CARTESIAN_POINT('',(-5.500000000000092,-10.000000000000004,19.5));
#438=DIRECTION('',(0.0,1.0,0.0));
#439=VECTOR('',#438,19.999999999999996);
#440=LINE('',#437,#439);
#441=EDGE_CURVE('',#436,#427,#440,.T.);
#442=ORIENTED_EDGE('',*,*,#441,.F.);
#443=CARTESIAN_POINT('',(-6.500000000000092,-10.000000000000004,18.5));
#444=VERTEX_POINT('',#443);
#445=CARTESIAN_POINT('',(-5.500000000000092,-10.000000000000004,18.5));
#446=DIRECTION('',(1.110223E-016,-1.0,-1.110223E-016));
#447=DIRECTION('',(-0.707106781186548,-1.570092E-016,0.707106781186548));
#448=AXIS2_PLACEMENT_3D('',#445,#446,#447);
#449=CIRCLE('',#448,1.0);
#450=EDGE_CURVE('',#436,#444,#449,.T.);
#451=ORIENTED_EDGE('',*,*,#450,.T.);
#452=CARTESIAN_POINT('',(-6.500000000000092,-10.000000000000004,18.5));
#453=DIRECTION('',(0.0,1.0,0.0));
#454=VECTOR('',#453,8.989222947431024);
#455=LINE('',#452,#454);
#456=EDGE_CURVE('',#444,#282,#455,.T.);
#457=ORIENTED_EDGE('',*,*,#456,.T.);
#458=EDGE_LOOP('',(#416,#417,#425,#434,#442,#451,#457));
#459=FACE_OUTER_BOUND('',#458,.T.);
#460=ADVANCED_FACE('',(#459),#415,.F.);
#461=CARTESIAN_POINT('',(-9.500000000000092,-10.000000000000004,21.449999999999996));
#462=DIRECTION('',(-1.0,0.0,0.0));
#463=DIRECTION('',(0.0,0.0,1.0));
#464=AXIS2_PLACEMENT_3D('',#461,#462,#463);
#465=PLANE('',#464);
#466=CARTESIAN_POINT('',(-9.500000000000096,9.999999999999989,21.449999999999996));
#467=VERTEX_POINT('',#466);
#468=CARTESIAN_POINT('',(-9.5000000000001,9.999999999999989,0.0));
#469=VERTEX_POINT('',#468);
#470=CARTESIAN_POINT('',(-9.500000000000096,9.999999999999996,21.449999999999996));
#471=DIRECTION('',(0.0,0.0,-1.0));
#472=VECTOR('',#471,21.449999999999996);
#473=LINE('',#470,#472);
#474=EDGE_CURVE('',#467,#469,#473,.T.);
#475=ORIENTED_EDGE('',*,*,#474,.T.);
#476=CARTESIAN_POINT('',(-9.500000000000096,-10.000000000000004,0.0));
#477=VERTEX_POINT('',#476);
#478=CARTESIAN_POINT('',(-9.500000000000096,-10.000000000000004,0.0));
#479=DIRECTION('',(0.0,1.0,0.0));
#480=VECTOR('',#479,19.999999999999993);
#481=LINE('',#478,#480);
#482=EDGE_CURVE('',#477,#469,#481,.T.);
#483=ORIENTED_EDGE('',*,*,#482,.F.);
#484=CARTESIAN_POINT('',(-9.500000000000092,-10.000000000000004,21.449999999999996));
#485=VERTEX_POINT('',#484);
#486=CARTESIAN_POINT('',(-9.500000000000096,-10.000000000000004,0.0));
#487=DIRECTION('',(0.0,0.0,1.0));
#488=VECTOR('',#487,21.449999999999996);
#489=LINE('',#486,#488);
#490=EDGE_CURVE('',#477,#485,#489,.T.);
#491=ORIENTED_EDGE('',*,*,#490,.T.);
#492=CARTESIAN_POINT('',(-9.500000000000092,-10.000000000000004,21.449999999999996));
#493=DIRECTION('',(0.0,1.0,0.0));
#494=VECTOR('',#493,19.999999999999993);
#495=LINE('',#492,#494);
#496=EDGE_CURVE('',#485,#467,#495,.T.);
#497=ORIENTED_EDGE('',*,*,#496,.T.);
#498=EDGE_LOOP('',(#475,#483,#491,#497));
#499=FACE_OUTER_BOUND('',#498,.T.);
#500=ORIENTED_EDGE('',*,*,#406,.T.);
#501=ORIENTED_EDGE('',*,*,#271,.T.);
#502=EDGE_LOOP('',(#500,#501));
#503=FACE_BOUND('',#502,.T.);
#504=ADVANCED_FACE('',(#499,#503),#465,.T.);
#505=CARTESIAN_POINT('',(-9.500000000000096,-10.000000000000004,0.0));
#506=DIRECTION('',(0.0,0.0,-1.0));
#507=DIRECTION('',(-1.0,0.0,0.0));
#508=AXIS2_PLACEMENT_3D('',#505,#506,#507);
#509=PLANE('',#508);
#510=CARTESIAN_POINT('',(8.799999999999898,9.999999999999996,-7.105427E-015));
#511=VERTEX_POINT('',#510);
#512=CARTESIAN_POINT('',(-9.5000000000001,9.999999999999996,0.0));
#513=DIRECTION('',(1.0,0.0,0.0));
#514=VECTOR('',#513,18.299999999999997);
#515=LINE('',#512,#514);
#516=EDGE_CURVE('',#469,#511,#515,.T.);
#517=ORIENTED_EDGE('',*,*,#516,.T.);
#518=CARTESIAN_POINT('',(8.799999999999898,-10.0,-7.105427E-015));
#519=VERTEX_POINT('',#518);
#520=CARTESIAN_POINT('',(8.799999999999898,-10.0,-7.105427E-015));
#521=DIRECTION('',(0.0,1.0,0.0));
#522=VECTOR('',#521,19.999999999999996);
#523=LINE('',#520,#522);
#524=EDGE_CURVE('',#519,#511,#523,.T.);
#525=ORIENTED_EDGE('',*,*,#524,.F.);
#526=CARTESIAN_POINT('',(8.799999999999898,-10.0,-7.105427E-015));
#527=DIRECTION('',(-1.0,0.0,0.0));
#528=VECTOR('',#527,18.29999999999999);
#529=LINE('',#526,#528);
#530=EDGE_CURVE('',#519,#477,#529,.T.);
#531=ORIENTED_EDGE('',*,*,#530,.T.);
#532=ORIENTED_EDGE('',*,*,#482,.T.);
#533=EDGE_LOOP('',(#517,#525,#531,#532));
#534=FACE_OUTER_BOUND('',#533,.T.);
#535=ORIENTED_EDGE('',*,*,#359,.T.);
#536=ORIENTED_EDGE('',*,*,#343,.T.);
#537=EDGE_LOOP('',(#535,#536));
#538=FACE_BOUND('',#537,.T.);
#539=ADVANCED_FACE('',(#534,#538),#509,.T.);
#540=CARTESIAN_POINT('',(8.799999999999898,-10.0,0.699999999999996));
#541=DIRECTION('',(-1.776357E-016,1.0,0.0));
#542=DIRECTION('',(0.707106781186548,1.256074E-016,-0.707106781186548));
#543=AXIS2_PLACEMENT_3D('',#540,#541,#542);
#544=CYLINDRICAL_SURFACE('',#543,0.700000000000003);
#545=CARTESIAN_POINT('',(9.499999999999901,9.999999999999996,0.699999999999996));
#546=VERTEX_POINT('',#545);
#547=CARTESIAN_POINT('',(8.799999999999891,10.0,0.699999999999996));
#548=DIRECTION('',(1.110223E-016,-1.0,-1.110223E-016));
#549=DIRECTION('',(0.707106781186548,1.570092E-016,-0.707106781186548));
#550=AXIS2_PLACEMENT_3D('',#547,#548,#549);
#551=CIRCLE('',#550,0.700000000000003);
#552=EDGE_CURVE('',#511,#546,#551,.T.);
#553=ORIENTED_EDGE('',*,*,#552,.T.);
#554=CARTESIAN_POINT('',(9.499999999999901,-10.0,0.699999999999996));
#555=VERTEX_POINT('',#554);
#556=CARTESIAN_POINT('',(9.499999999999901,-10.0,0.699999999999996));
#557=DIRECTION('',(0.0,1.0,0.0));
#558=VECTOR('',#557,19.999999999999996);
#559=LINE('',#556,#558);
#560=EDGE_CURVE('',#555,#546,#559,.T.);
#561=ORIENTED_EDGE('',*,*,#560,.F.);
#562=CARTESIAN_POINT('',(8.799999999999898,-10.0,0.699999999999996));
#563=DIRECTION('',(-1.110223E-016,1.0,1.110223E-016));
#564=DIRECTION('',(0.707106781186548,1.570092E-016,-0.707106781186548));
#565=AXIS2_PLACEMENT_3D('',#562,#563,#564);
#566=CIRCLE('',#565,0.700000000000003);
#567=EDGE_CURVE('',#555,#519,#566,.T.);
#568=ORIENTED_EDGE('',*,*,#567,.T.);
#569=ORIENTED_EDGE('',*,*,#524,.T.);
#570=EDGE_LOOP('',(#553,#561,#568,#569));
#571=FACE_OUTER_BOUND('',#570,.T.);
#572=ADVANCED_FACE('',(#571),#544,.T.);
#573=CARTESIAN_POINT('',(9.499999999999901,-10.0,0.699999999999996));
#574=DIRECTION('',(1.0,0.0,0.0));
#575=DIRECTION('',(0.0,0.0,-1.0));
#576=AXIS2_PLACEMENT_3D('',#573,#574,#575);
#577=PLANE('',#576);
#578=CARTESIAN_POINT('',(9.499999999999915,9.999999999999996,1.250000000000021));
#579=VERTEX_POINT('',#578);
#580=CARTESIAN_POINT('',(9.499999999999893,10.0,0.699999999999996));
#581=DIRECTION('',(0.0,0.0,1.0));
#582=VECTOR('',#581,0.550000000000026);
#583=LINE('',#580,#582);
#584=EDGE_CURVE('',#546,#579,#583,.T.);
#585=ORIENTED_EDGE('',*,*,#584,.T.);
#586=CARTESIAN_POINT('',(9.499999999999915,-10.0,1.250000000000021));
#587=VERTEX_POINT('',#586);
#588=CARTESIAN_POINT('',(9.499999999999915,-10.0,1.250000000000021));
#589=DIRECTION('',(0.0,1.0,0.0));
#590=VECTOR('',#589,19.999999999999996);
#591=LINE('',#588,#590);
#592=EDGE_CURVE('',#587,#579,#591,.T.);
#593=ORIENTED_EDGE('',*,*,#592,.F.);
#594=CARTESIAN_POINT('',(9.499999999999915,-10.0,1.250000000000021));
#595=DIRECTION('',(0.0,0.0,-1.0));
#596=VECTOR('',#595,0.550000000000026);
#597=LINE('',#594,#596);
#598=EDGE_CURVE('',#587,#555,#597,.T.);
#599=ORIENTED_EDGE('',*,*,#598,.T.);
#600=ORIENTED_EDGE('',*,*,#560,.T.);
#601=EDGE_LOOP('',(#585,#593,#599,#600));
#602=FACE_OUTER_BOUND('',#601,.T.);
#603=ADVANCED_FACE('',(#602),#577,.T.);
#604=CARTESIAN_POINT('',(8.799999999999947,-10.0,1.250000000000028));
#605=DIRECTION('',(-1.776357E-016,1.0,0.0));
#606=DIRECTION('',(0.707106781186526,1.256074E-016,0.707106781186569));
#607=AXIS2_PLACEMENT_3D('',#604,#605,#606);
#608=CYLINDRICAL_SURFACE('',#607,0.699999999999964);
#609=CARTESIAN_POINT('',(8.799999999999898,9.999999999999996,1.949999999999996));
#610=VERTEX_POINT('',#609);
#611=CARTESIAN_POINT('',(8.799999999999947,10.0,1.250000000000028));
#612=DIRECTION('',(1.110223E-016,-1.0,1.110223E-016));
#613=DIRECTION('',(0.707106781186526,1.570092E-016,0.707106781186569));
#614=AXIS2_PLACEMENT_3D('',#611,#612,#613);
#615=CIRCLE('',#614,0.699999999999964);
#616=EDGE_CURVE('',#579,#610,#615,.T.);
#617=ORIENTED_EDGE('',*,*,#616,.T.);
#618=CARTESIAN_POINT('',(8.799999999999898,-10.0,1.949999999999996));
#619=VERTEX_POINT('',#618);
#620=CARTESIAN_POINT('',(8.799999999999898,-10.0,1.949999999999996));
#621=DIRECTION('',(0.0,1.0,0.0));
#622=VECTOR('',#621,19.999999999999996);
#623=LINE('',#620,#622);
#624=EDGE_CURVE('',#619,#610,#623,.T.);
#625=ORIENTED_EDGE('',*,*,#624,.F.);
#626=CARTESIAN_POINT('',(8.799999999999947,-10.0,1.250000000000028));
#627=DIRECTION('',(-1.110223E-016,1.0,-1.110223E-016));
#628=DIRECTION('',(0.707106781186526,1.570092E-016,0.707106781186569));
#629=AXIS2_PLACEMENT_3D('',#626,#627,#628);
#630=CIRCLE('',#629,0.699999999999964);
#631=EDGE_CURVE('',#619,#587,#630,.T.);
#632=ORIENTED_EDGE('',*,*,#631,.T.);
#633=ORIENTED_EDGE('',*,*,#592,.T.);
#634=EDGE_LOOP('',(#617,#625,#632,#633));
#635=FACE_OUTER_BOUND('',#634,.T.);
#636=ADVANCED_FACE('',(#635),#608,.T.);
#637=CARTESIAN_POINT('',(8.799999999999898,-10.0,1.949999999999996));
#638=DIRECTION('',(0.0,0.0,1.0));
#639=DIRECTION('',(1.0,0.0,0.0));
#640=AXIS2_PLACEMENT_3D('',#637,#638,#639);
#641=PLANE('',#640);
#642=CARTESIAN_POINT('',(-5.5000000000001,9.999999999999993,1.949999999999996));
#643=VERTEX_POINT('',#642);
#644=CARTESIAN_POINT('',(8.799999999999898,10.0,1.949999999999996));
#645=DIRECTION('',(-1.0,0.0,0.0));
#646=VECTOR('',#645,14.299999999999997);
#647=LINE('',#644,#646);
#648=EDGE_CURVE('',#610,#643,#647,.T.);
#649=ORIENTED_EDGE('',*,*,#648,.T.);
#650=CARTESIAN_POINT('',(-5.500000000000096,-10.000000000000004,1.949999999999996));
#651=VERTEX_POINT('',#650);
#652=CARTESIAN_POINT('',(-5.500000000000096,-10.000000000000004,1.949999999999996));
#653=DIRECTION('',(0.0,1.0,0.0));
#654=VECTOR('',#653,19.999999999999996);
#655=LINE('',#652,#654);
#656=EDGE_CURVE('',#651,#643,#655,.T.);
#657=ORIENTED_EDGE('',*,*,#656,.F.);
#658=CARTESIAN_POINT('',(-5.500000000000096,-10.000000000000004,1.949999999999996));
#659=DIRECTION('',(1.0,0.0,0.0));
#660=VECTOR('',#659,14.29999999999999);
#661=LINE('',#658,#660);
#662=EDGE_CURVE('',#651,#619,#661,.T.);
#663=ORIENTED_EDGE('',*,*,#662,.T.);
#664=ORIENTED_EDGE('',*,*,#624,.T.);
#665=EDGE_LOOP('',(#649,#657,#663,#664));
#666=FACE_OUTER_BOUND('',#665,.T.);
#667=ORIENTED_EDGE('',*,*,#328,.T.);
#668=ORIENTED_EDGE('',*,*,#367,.T.);
#669=EDGE_LOOP('',(#667,#668));
#670=FACE_BOUND('',#669,.T.);
#671=ADVANCED_FACE('',(#666,#670),#641,.T.);
#672=CARTESIAN_POINT('',(-5.500000000000096,-10.000000000000004,2.949999999999989));
#673=DIRECTION('',(-1.776357E-016,1.0,0.0));
#674=DIRECTION('',(-0.707106781186545,-1.256074E-016,-0.70710678118655));
#675=AXIS2_PLACEMENT_3D('',#672,#673,#674);
#676=CYLINDRICAL_SURFACE('',#675,1.0);
#677=CARTESIAN_POINT('',(-6.5000000000001,9.999999999999993,2.949999999999989));
#678=VERTEX_POINT('',#677);
#679=CARTESIAN_POINT('',(-5.5000000000001,9.999999999999996,2.949999999999989));
#680=DIRECTION('',(-1.110223E-016,1.0,-1.110223E-016));
#681=DIRECTION('',(-0.707106781186545,-1.570092E-016,-0.70710678118655));
#682=AXIS2_PLACEMENT_3D('',#679,#680,#681);
#683=CIRCLE('',#682,1.0);
#684=EDGE_CURVE('',#643,#678,#683,.T.);
#685=ORIENTED_EDGE('',*,*,#684,.T.);
#686=CARTESIAN_POINT('',(-6.500000000000096,-10.000000000000004,2.949999999999989));
#687=VERTEX_POINT('',#686);
#688=CARTESIAN_POINT('',(-6.500000000000096,-10.000000000000004,2.949999999999989));
#689=DIRECTION('',(0.0,1.0,0.0));
#690=VECTOR('',#689,19.999999999999996);
#691=LINE('',#688,#690);
#692=EDGE_CURVE('',#687,#678,#691,.T.);
#693=ORIENTED_EDGE('',*,*,#692,.F.);
#694=CARTESIAN_POINT('',(-5.500000000000096,-10.000000000000004,2.949999999999989));
#695=DIRECTION('',(1.110223E-016,-1.0,1.110223E-016));
#696=DIRECTION('',(-0.707106781186545,-1.570092E-016,-0.70710678118655));
#697=AXIS2_PLACEMENT_3D('',#694,#695,#696);
#698=CIRCLE('',#697,1.0);
#699=EDGE_CURVE('',#687,#651,#698,.T.);
#700=ORIENTED_EDGE('',*,*,#699,.T.);
#701=ORIENTED_EDGE('',*,*,#656,.T.);
#702=EDGE_LOOP('',(#685,#693,#700,#701));
#703=FACE_OUTER_BOUND('',#702,.T.);
#704=ADVANCED_FACE('',(#703),#676,.F.);
#705=CARTESIAN_POINT('',(-6.500000000000096,-10.000000000000004,2.949999999999989));
#706=DIRECTION('',(1.0,0.0,0.0));
#707=DIRECTION('',(0.0,0.0,-1.0));
#708=AXIS2_PLACEMENT_3D('',#705,#706,#707);
#709=PLANE('',#708);
#710=CARTESIAN_POINT('',(-6.500000000000096,9.999999999999993,5.5));
#711=VERTEX_POINT('',#710);
#712=CARTESIAN_POINT('',(-6.5000000000001,9.999999999999996,2.949999999999989));
#713=DIRECTION('',(0.0,0.0,1.0));
#714=VECTOR('',#713,2.550000000000011);
#715=LINE('',#712,#714);
#716=EDGE_CURVE('',#678,#711,#715,.T.);
#717=ORIENTED_EDGE('',*,*,#716,.T.);
#718=CARTESIAN_POINT('',(-6.500000000000092,-10.000000000000004,5.5));
#719=VERTEX_POINT('',#718);
#720=CARTESIAN_POINT('',(-6.500000000000092,-10.000000000000004,5.5));
#721=DIRECTION('',(0.0,1.0,0.0));
#722=VECTOR('',#721,19.999999999999996);
#723=LINE('',#720,#722);
#724=EDGE_CURVE('',#719,#711,#723,.T.);
#725=ORIENTED_EDGE('',*,*,#724,.F.);
#726=CARTESIAN_POINT('',(-6.500000000000092,-10.000000000000004,5.5));
#727=DIRECTION('',(0.0,0.0,-1.0));
#728=VECTOR('',#727,2.550000000000011);
#729=LINE('',#726,#728);
#730=EDGE_CURVE('',#719,#687,#729,.T.);
#731=ORIENTED_EDGE('',*,*,#730,.T.);
#732=ORIENTED_EDGE('',*,*,#692,.T.);
#733=EDGE_LOOP('',(#717,#725,#731,#732));
#734=FACE_OUTER_BOUND('',#733,.T.);
#735=ADVANCED_FACE('',(#734),#709,.T.);
#736=CARTESIAN_POINT('',(-5.500000000000096,-10.000000000000004,5.5));
#737=DIRECTION('',(-1.776357E-016,1.0,0.0));
#738=DIRECTION('',(-0.707106781186549,-1.256074E-016,0.707106781186546));
#739=AXIS2_PLACEMENT_3D('',#736,#737,#738);
#740=CYLINDRICAL_SURFACE('',#739,1.0);
#741=CARTESIAN_POINT('',(-5.5000000000001,9.999999999999993,6.5));
#742=VERTEX_POINT('',#741);
#743=CARTESIAN_POINT('',(-5.5000000000001,9.999999999999996,5.5));
#744=DIRECTION('',(-1.110223E-016,1.0,1.110223E-016));
#745=DIRECTION('',(-0.707106781186549,-1.570092E-016,0.707106781186546));
#746=AXIS2_PLACEMENT_3D('',#743,#744,#745);
#747=CIRCLE('',#746,1.0);
#748=EDGE_CURVE('',#711,#742,#747,.T.);
#749=ORIENTED_EDGE('',*,*,#748,.T.);
#750=CARTESIAN_POINT('',(-5.500000000000096,-10.000000000000004,6.5));
#751=VERTEX_POINT('',#750);
#752=CARTESIAN_POINT('',(-5.500000000000096,-10.000000000000004,6.5));
#753=DIRECTION('',(0.0,1.0,0.0));
#754=VECTOR('',#753,19.999999999999996);
#755=LINE('',#752,#754);
#756=EDGE_CURVE('',#751,#742,#755,.T.);
#757=ORIENTED_EDGE('',*,*,#756,.F.);
#758=CARTESIAN_POINT('',(-5.500000000000096,-10.000000000000004,5.5));
#759=DIRECTION('',(1.110223E-016,-1.0,-1.110223E-016));
#760=DIRECTION('',(-0.707106781186549,-1.570092E-016,0.707106781186546));
#761=AXIS2_PLACEMENT_3D('',#758,#759,#760);
#762=CIRCLE('',#761,1.0);
#763=EDGE_CURVE('',#751,#719,#762,.T.);
#764=ORIENTED_EDGE('',*,*,#763,.T.);
#765=ORIENTED_EDGE('',*,*,#724,.T.);
#766=EDGE_LOOP('',(#749,#757,#764,#765));
#767=FACE_OUTER_BOUND('',#766,.T.);
#768=ADVANCED_FACE('',(#767),#740,.F.);
#769=CARTESIAN_POINT('',(-5.500000000000096,-10.000000000000004,6.5));
#770=DIRECTION('',(0.0,0.0,-1.0));
#771=DIRECTION('',(-1.0,0.0,0.0));
#772=AXIS2_PLACEMENT_3D('',#769,#770,#771);
#773=PLANE('',#772);
#774=CARTESIAN_POINT('',(8.799999999999905,9.999999999999996,6.5));
#775=VERTEX_POINT('',#774);
#776=CARTESIAN_POINT('',(-5.5000000000001,9.999999999999996,6.5));
#777=DIRECTION('',(1.0,0.0,0.0));
#778=VECTOR('',#777,14.300000000000004);
#779=LINE('',#776,#778);
#780=EDGE_CURVE('',#742,#775,#779,.T.);
#781=ORIENTED_EDGE('',*,*,#780,.T.);
#782=CARTESIAN_POINT('',(8.799999999999905,-10.0,6.5));
#783=VERTEX_POINT('',#782);
#784=CARTESIAN_POINT('',(8.799999999999905,-10.0,6.5));
#785=DIRECTION('',(0.0,1.0,0.0));
#786=VECTOR('',#785,19.999999999999996);
#787=LINE('',#784,#786);
#788=EDGE_CURVE('',#783,#775,#787,.T.);
#789=ORIENTED_EDGE('',*,*,#788,.F.);
#790=CARTESIAN_POINT('',(8.799999999999905,-10.0,6.5));
#791=DIRECTION('',(-1.0,0.0,0.0));
#792=VECTOR('',#791,14.299999999999997);
#793=LINE('',#790,#792);
#794=EDGE_CURVE('',#783,#751,#793,.T.);
#795=ORIENTED_EDGE('',*,*,#794,.T.);
#796=ORIENTED_EDGE('',*,*,#756,.T.);
#797=EDGE_LOOP('',(#781,#789,#795,#796));
#798=FACE_OUTER_BOUND('',#797,.T.);
#799=ADVANCED_FACE('',(#798),#773,.T.);
#800=CARTESIAN_POINT('',(8.799999999999727,-10.0,7.200000000000166));
#801=DIRECTION('',(-1.776357E-016,1.0,0.0));
#802=DIRECTION('',(0.707106781186605,1.256074E-016,-0.70710678118649));
#803=AXIS2_PLACEMENT_3D('',#800,#801,#802);
#804=CYLINDRICAL_SURFACE('',#803,0.700000000000166);
#805=CARTESIAN_POINT('',(9.499999999999893,9.999999999999996,7.200000000000102));
#806=VERTEX_POINT('',#805);
#807=CARTESIAN_POINT('',(8.79999999999972,10.0,7.200000000000166));
#808=DIRECTION('',(1.110223E-016,-1.0,-1.110223E-016));
#809=DIRECTION('',(0.707106781186605,1.570092E-016,-0.70710678118649));
#810=AXIS2_PLACEMENT_3D('',#807,#808,#809);
#811=CIRCLE('',#810,0.700000000000166);
#812=EDGE_CURVE('',#775,#806,#811,.T.);
#813=ORIENTED_EDGE('',*,*,#812,.T.);
#814=CARTESIAN_POINT('',(9.499999999999893,-10.0,7.200000000000102));
#815=VERTEX_POINT('',#814);
#816=CARTESIAN_POINT('',(9.499999999999893,-10.0,7.200000000000102));
#817=DIRECTION('',(0.0,1.0,0.0));
#818=VECTOR('',#817,19.999999999999996);
#819=LINE('',#816,#818);
#820=EDGE_CURVE('',#815,#806,#819,.T.);
#821=ORIENTED_EDGE('',*,*,#820,.F.);
#822=CARTESIAN_POINT('',(8.799999999999727,-10.0,7.200000000000166));
#823=DIRECTION('',(-1.110223E-016,1.0,1.110223E-016));
#824=DIRECTION('',(0.707106781186605,1.570092E-016,-0.70710678118649));
#825=AXIS2_PLACEMENT_3D('',#822,#823,#824);
#826=CIRCLE('',#825,0.700000000000166);
#827=EDGE_CURVE('',#815,#783,#826,.T.);
#828=ORIENTED_EDGE('',*,*,#827,.T.);
#829=ORIENTED_EDGE('',*,*,#788,.T.);
#830=EDGE_LOOP('',(#813,#821,#828,#829));
#831=FACE_OUTER_BOUND('',#830,.T.);
#832=ADVANCED_FACE('',(#831),#804,.T.);
#833=CARTESIAN_POINT('',(9.499999999999893,-10.0,7.200000000000102));
#834=DIRECTION('',(1.0,0.0,0.0));
#835=DIRECTION('',(0.0,0.0,-1.0));
#836=AXIS2_PLACEMENT_3D('',#833,#834,#835);
#837=PLANE('',#836);
#838=CARTESIAN_POINT('',(9.499999999999908,9.999999999999996,7.75));
#839=VERTEX_POINT('',#838);
#840=CARTESIAN_POINT('',(9.499999999999893,10.0,7.200000000000102));
#841=DIRECTION('',(0.0,0.0,1.0));
#842=VECTOR('',#841,0.549999999999898);
#843=LINE('',#840,#842);
#844=EDGE_CURVE('',#806,#839,#843,.T.);
#845=ORIENTED_EDGE('',*,*,#844,.T.);
#846=CARTESIAN_POINT('',(9.499999999999908,-10.0,7.75));
#847=VERTEX_POINT('',#846);
#848=CARTESIAN_POINT('',(9.499999999999908,-10.0,7.75));
#849=DIRECTION('',(0.0,1.0,0.0));
#850=VECTOR('',#849,19.999999999999996);
#851=LINE('',#848,#850);
#852=EDGE_CURVE('',#847,#839,#851,.T.);
#853=ORIENTED_EDGE('',*,*,#852,.F.);
#854=CARTESIAN_POINT('',(9.499999999999908,-10.0,7.75));
#855=DIRECTION('',(0.0,0.0,-1.0));
#856=VECTOR('',#855,0.549999999999898);
#857=LINE('',#854,#856);
#858=EDGE_CURVE('',#847,#815,#857,.T.);
#859=ORIENTED_EDGE('',*,*,#858,.T.);
#860=ORIENTED_EDGE('',*,*,#820,.T.);
#861=EDGE_LOOP('',(#845,#853,#859,#860));
#862=FACE_OUTER_BOUND('',#861,.T.);
#863=ADVANCED_FACE('',(#862),#837,.T.);
#864=CARTESIAN_POINT('',(8.799999999999891,-10.0,7.75));
#865=DIRECTION('',(-1.776357E-016,1.0,0.0));
#866=DIRECTION('',(0.707106781186555,1.256074E-016,0.70710678118654));
#867=AXIS2_PLACEMENT_3D('',#864,#865,#866);
#868=CYLINDRICAL_SURFACE('',#867,0.700000000000017);
#869=CARTESIAN_POINT('',(8.799999999999905,9.999999999999996,8.450000000000017));
#870=VERTEX_POINT('',#869);
#871=CARTESIAN_POINT('',(8.799999999999891,10.0,7.75));
#872=DIRECTION('',(1.110223E-016,-1.0,1.110223E-016));
#873=DIRECTION('',(0.707106781186555,1.570092E-016,0.70710678118654));
#874=AXIS2_PLACEMENT_3D('',#871,#872,#873);
#875=CIRCLE('',#874,0.700000000000017);
#876=EDGE_CURVE('',#839,#870,#875,.T.);
#877=ORIENTED_EDGE('',*,*,#876,.T.);
#878=CARTESIAN_POINT('',(8.799999999999905,-10.0,8.450000000000017));
#879=VERTEX_POINT('',#878);
#880=CARTESIAN_POINT('',(8.799999999999905,-10.0,8.450000000000017));
#881=DIRECTION('',(0.0,1.0,0.0));
#882=VECTOR('',#881,19.999999999999996);
#883=LINE('',#880,#882);
#884=EDGE_CURVE('',#879,#870,#883,.T.);
#885=ORIENTED_EDGE('',*,*,#884,.F.);
#886=CARTESIAN_POINT('',(8.799999999999891,-10.0,7.75));
#887=DIRECTION('',(-1.110223E-016,1.0,-1.110223E-016));
#888=DIRECTION('',(0.707106781186555,1.570092E-016,0.70710678118654));
#889=AXIS2_PLACEMENT_3D('',#886,#887,#888);
#890=CIRCLE('',#889,0.700000000000017);
#891=EDGE_CURVE('',#879,#847,#890,.T.);
#892=ORIENTED_EDGE('',*,*,#891,.T.);
#893=ORIENTED_EDGE('',*,*,#852,.T.);
#894=EDGE_LOOP('',(#877,#885,#892,#893));
#895=FACE_OUTER_BOUND('',#894,.T.);
#896=ADVANCED_FACE('',(#895),#868,.T.);
#897=CARTESIAN_POINT('',(8.799999999999905,-10.0,8.450000000000017));
#898=DIRECTION('',(0.0,0.0,1.0));
#899=DIRECTION('',(1.0,0.0,0.0));
#900=AXIS2_PLACEMENT_3D('',#897,#898,#899);
#901=PLANE('',#900);
#902=CARTESIAN_POINT('',(-5.5000000000001,9.999999999999993,8.450000000000102));
#903=VERTEX_POINT('',#902);
#904=CARTESIAN_POINT('',(8.799999999999905,10.0,8.450000000000017));
#905=DIRECTION('',(-1.0,0.0,0.0));
#906=VECTOR('',#905,14.300000000000004);
#907=LINE('',#904,#906);
#908=EDGE_CURVE('',#870,#903,#907,.T.);
#909=ORIENTED_EDGE('',*,*,#908,.T.);
#910=CARTESIAN_POINT('',(-5.500000000000096,-10.000000000000004,8.450000000000102));
#911=VERTEX_POINT('',#910);
#912=CARTESIAN_POINT('',(-5.500000000000096,-10.000000000000004,8.450000000000102));
#913=DIRECTION('',(0.0,1.0,0.0));
#914=VECTOR('',#913,19.999999999999996);
#915=LINE('',#912,#914);
#916=EDGE_CURVE('',#911,#903,#915,.T.);
#917=ORIENTED_EDGE('',*,*,#916,.F.);
#918=CARTESIAN_POINT('',(-5.500000000000096,-10.000000000000004,8.450000000000102));
#919=DIRECTION('',(1.0,0.0,0.0));
#920=VECTOR('',#919,14.299999999999997);
#921=LINE('',#918,#920);
#922=EDGE_CURVE('',#911,#879,#921,.T.);
#923=ORIENTED_EDGE('',*,*,#922,.T.);
#924=ORIENTED_EDGE('',*,*,#884,.T.);
#925=EDGE_LOOP('',(#909,#917,#923,#924));
#926=FACE_OUTER_BOUND('',#925,.T.);
#927=ADVANCED_FACE('',(#926),#901,.T.);
#928=CARTESIAN_POINT('',(-5.500000000000096,-10.000000000000004,9.450000000000095));
#929=DIRECTION('',(-1.776357E-016,1.0,0.0));
#930=DIRECTION('',(-0.70710678118655,-1.256074E-016,-0.707106781186545));
#931=AXIS2_PLACEMENT_3D('',#928,#929,#930);
#932=CYLINDRICAL_SURFACE('',#931,0.999999999999993);
#933=CARTESIAN_POINT('',(-6.500000000000092,9.999999999999993,9.450000000000102));
#934=VERTEX_POINT('',#933);
#935=CARTESIAN_POINT('',(-5.5000000000001,9.999999999999996,9.450000000000095));
#936=DIRECTION('',(-1.110223E-016,1.0,-1.110223E-016));
#937=DIRECTION('',(-0.70710678118655,-1.570092E-016,-0.707106781186545));
#938=AXIS2_PLACEMENT_3D('',#935,#936,#937);
#939=CIRCLE('',#938,0.999999999999993);
#940=EDGE_CURVE('',#903,#934,#939,.T.);
#941=ORIENTED_EDGE('',*,*,#940,.T.);
#942=CARTESIAN_POINT('',(-6.500000000000089,-10.000000000000004,9.450000000000102));
#943=VERTEX_POINT('',#942);
#944=CARTESIAN_POINT('',(-6.500000000000089,-10.000000000000004,9.450000000000102));
#945=DIRECTION('',(0.0,1.0,0.0));
#946=VECTOR('',#945,19.999999999999996);
#947=LINE('',#944,#946);
#948=EDGE_CURVE('',#943,#934,#947,.T.);
#949=ORIENTED_EDGE('',*,*,#948,.F.);
#950=CARTESIAN_POINT('',(-5.500000000000096,-10.000000000000004,9.450000000000095));
#951=DIRECTION('',(1.110223E-016,-1.0,1.110223E-016));
#952=DIRECTION('',(-0.70710678118655,-1.570092E-016,-0.707106781186545));
#953=AXIS2_PLACEMENT_3D('',#950,#951,#952);
#954=CIRCLE('',#953,0.999999999999993);
#955=EDGE_CURVE('',#943,#911,#954,.T.);
#956=ORIENTED_EDGE('',*,*,#955,.T.);
#957=ORIENTED_EDGE('',*,*,#916,.T.);
#958=EDGE_LOOP('',(#941,#949,#956,#957));
#959=FACE_OUTER_BOUND('',#958,.T.);
#960=ADVANCED_FACE('',(#959),#932,.F.);
#961=CARTESIAN_POINT('',(-6.500000000000089,-10.000000000000004,9.450000000000102));
#962=DIRECTION('',(1.0,0.0,0.0));
#963=DIRECTION('',(0.0,0.0,-1.0));
#964=AXIS2_PLACEMENT_3D('',#961,#962,#963);
#965=PLANE('',#964);
#966=CARTESIAN_POINT('',(-6.5000000000001,9.999999999999993,12.0));
#967=VERTEX_POINT('',#966);
#968=CARTESIAN_POINT('',(-6.500000000000092,9.999999999999996,9.450000000000102));
#969=DIRECTION('',(0.0,0.0,1.0));
#970=VECTOR('',#969,2.549999999999898);
#971=LINE('',#968,#970);
#972=EDGE_CURVE('',#934,#967,#971,.T.);
#973=ORIENTED_EDGE('',*,*,#972,.T.);
#974=CARTESIAN_POINT('',(-6.500000000000096,-10.000000000000004,12.0));
#975=VERTEX_POINT('',#974);
#976=CARTESIAN_POINT('',(-6.500000000000096,-10.000000000000004,12.0));
#977=DIRECTION('',(0.0,1.0,0.0));
#978=VECTOR('',#977,19.999999999999996);
#979=LINE('',#976,#978);
#980=EDGE_CURVE('',#975,#967,#979,.T.);
#981=ORIENTED_EDGE('',*,*,#980,.F.);
#982=CARTESIAN_POINT('',(-6.500000000000096,-10.000000000000004,12.0));
#983=DIRECTION('',(0.0,0.0,-1.0));
#984=VECTOR('',#983,2.549999999999898);
#985=LINE('',#982,#984);
#986=EDGE_CURVE('',#975,#943,#985,.T.);
#987=ORIENTED_EDGE('',*,*,#986,.T.);
#988=ORIENTED_EDGE('',*,*,#948,.T.);
#989=EDGE_LOOP('',(#973,#981,#987,#988));
#990=FACE_OUTER_BOUND('',#989,.T.);
#991=ADVANCED_FACE('',(#990),#965,.T.);
#992=CARTESIAN_POINT('',(-5.5000000000001,-10.000000000000004,12.000000000000014));
#993=DIRECTION('',(-1.776357E-016,1.0,0.0));
#994=DIRECTION('',(-0.707106781186551,-1.256074E-016,0.707106781186544));
#995=AXIS2_PLACEMENT_3D('',#992,#993,#994);
#996=CYLINDRICAL_SURFACE('',#995,1.0);
#997=CARTESIAN_POINT('',(-5.500000000000096,9.999999999999993,13.000000000000014));
#998=VERTEX_POINT('',#997);
#999=CARTESIAN_POINT('',(-5.500000000000103,9.999999999999996,12.000000000000014));
#1000=DIRECTION('',(-1.110223E-016,1.0,1.110223E-016));
#1001=DIRECTION('',(-0.707106781186551,-1.570092E-016,0.707106781186544));
#1002=AXIS2_PLACEMENT_3D('',#999,#1000,#1001);
#1003=CIRCLE('',#1002,1.0);
#1004=EDGE_CURVE('',#967,#998,#1003,.T.);
#1005=ORIENTED_EDGE('',*,*,#1004,.T.);
#1006=CARTESIAN_POINT('',(-5.500000000000092,-10.000000000000004,13.000000000000014));
#1007=VERTEX_POINT('',#1006);
#1008=CARTESIAN_POINT('',(-5.500000000000092,-10.000000000000004,13.000000000000014));
#1009=DIRECTION('',(0.0,1.0,0.0));
#1010=VECTOR('',#1009,19.999999999999996);
#1011=LINE('',#1008,#1010);
#1012=EDGE_CURVE('',#1007,#998,#1011,.T.);
#1013=ORIENTED_EDGE('',*,*,#1012,.F.);
#1014=CARTESIAN_POINT('',(-5.5000000000001,-10.000000000000004,12.000000000000014));
#1015=DIRECTION('',(1.110223E-016,-1.0,-1.110223E-016));
#1016=DIRECTION('',(-0.707106781186551,-1.570092E-016,0.707106781186544));
#1017=AXIS2_PLACEMENT_3D('',#1014,#1015,#1016);
#1018=CIRCLE('',#1017,1.0);
#1019=EDGE_CURVE('',#1007,#975,#1018,.T.);
#1020=ORIENTED_EDGE('',*,*,#1019,.T.);
#1021=ORIENTED_EDGE('',*,*,#980,.T.);
#1022=EDGE_LOOP('',(#1005,#1013,#1020,#1021));
#1023=FACE_OUTER_BOUND('',#1022,.T.);
#1024=ADVANCED_FACE('',(#1023),#996,.F.);
#1025=CARTESIAN_POINT('',(-5.500000000000092,-10.000000000000004,13.000000000000014));
#1026=DIRECTION('',(0.0,0.0,-1.0));
#1027=DIRECTION('',(-1.0,0.0,0.0));
#1028=AXIS2_PLACEMENT_3D('',#1025,#1026,#1027);
#1029=PLANE('',#1028);
#1030=CARTESIAN_POINT('',(8.799999999999905,9.999999999999996,13.0));
#1031=VERTEX_POINT('',#1030);
#1032=CARTESIAN_POINT('',(-5.500000000000096,9.999999999999996,13.000000000000014));
#1033=DIRECTION('',(1.0,0.0,0.0));
#1034=VECTOR('',#1033,14.300000000000001);
#1035=LINE('',#1032,#1034);
#1036=EDGE_CURVE('',#998,#1031,#1035,.T.);
#1037=ORIENTED_EDGE('',*,*,#1036,.T.);
#1038=CARTESIAN_POINT('',(8.799999999999905,-10.0,13.0));
#1039=VERTEX_POINT('',#1038);
#1040=CARTESIAN_POINT('',(8.799999999999905,-10.0,13.0));
#1041=DIRECTION('',(0.0,1.0,0.0));
#1042=VECTOR('',#1041,19.999999999999996);
#1043=LINE('',#1040,#1042);
#1044=EDGE_CURVE('',#1039,#1031,#1043,.T.);
#1045=ORIENTED_EDGE('',*,*,#1044,.F.);
#1046=CARTESIAN_POINT('',(8.799999999999905,-10.0,13.0));
#1047=DIRECTION('',(-1.0,0.0,0.0));
#1048=VECTOR('',#1047,14.299999999999994);
#1049=LINE('',#1046,#1048);
#1050=EDGE_CURVE('',#1039,#1007,#1049,.T.);
#1051=ORIENTED_EDGE('',*,*,#1050,.T.);
#1052=ORIENTED_EDGE('',*,*,#1012,.T.);
#1053=EDGE_LOOP('',(#1037,#1045,#1051,#1052));
#1054=FACE_OUTER_BOUND('',#1053,.T.);
#1055=ADVANCED_FACE('',(#1054),#1029,.T.);
#1056=CARTESIAN_POINT('',(8.799999999999905,-10.0,13.700000000000003));
#1057=DIRECTION('',(-1.776357E-016,1.0,0.0));
#1058=DIRECTION('',(0.707106781186544,1.256074E-016,-0.707106781186551));
#1059=AXIS2_PLACEMENT_3D('',#1056,#1057,#1058);
#1060=CYLINDRICAL_SURFACE('',#1059,0.700000000000006);
#1061=CARTESIAN_POINT('',(9.499999999999908,9.999999999999996,13.699999999999996));
#1062=VERTEX_POINT('',#1061);
#1063=CARTESIAN_POINT('',(8.799999999999905,10.0,13.700000000000003));
#1064=DIRECTION('',(1.110223E-016,-1.0,-1.110223E-016));
#1065=DIRECTION('',(0.707106781186544,1.570092E-016,-0.707106781186551));
#1066=AXIS2_PLACEMENT_3D('',#1063,#1064,#1065);
#1067=CIRCLE('',#1066,0.700000000000006);
#1068=EDGE_CURVE('',#1031,#1062,#1067,.T.);
#1069=ORIENTED_EDGE('',*,*,#1068,.T.);
#1070=CARTESIAN_POINT('',(9.499999999999908,-10.0,13.699999999999996));
#1071=VERTEX_POINT('',#1070);
#1072=CARTESIAN_POINT('',(9.499999999999908,-10.0,13.699999999999996));
#1073=DIRECTION('',(0.0,1.0,0.0));
#1074=VECTOR('',#1073,19.999999999999996);
#1075=LINE('',#1072,#1074);
#1076=EDGE_CURVE('',#1071,#1062,#1075,.T.);
#1077=ORIENTED_EDGE('',*,*,#1076,.F.);
#1078=CARTESIAN_POINT('',(8.799999999999905,-10.0,13.700000000000003));
#1079=DIRECTION('',(-1.110223E-016,1.0,1.110223E-016));
#1080=DIRECTION('',(0.707106781186544,1.570092E-016,-0.707106781186551));
#1081=AXIS2_PLACEMENT_3D('',#1078,#1079,#1080);
#1082=CIRCLE('',#1081,0.700000000000006);
#1083=EDGE_CURVE('',#1071,#1039,#1082,.T.);
#1084=ORIENTED_EDGE('',*,*,#1083,.T.);
#1085=ORIENTED_EDGE('',*,*,#1044,.T.);
#1086=EDGE_LOOP('',(#1069,#1077,#1084,#1085));
#1087=FACE_OUTER_BOUND('',#1086,.T.);
#1088=ADVANCED_FACE('',(#1087),#1060,.T.);
#1089=CARTESIAN_POINT('',(9.499999999999908,-10.0,13.699999999999996));
#1090=DIRECTION('',(1.0,0.0,0.0));
#1091=DIRECTION('',(0.0,0.0,-1.0));
#1092=AXIS2_PLACEMENT_3D('',#1089,#1090,#1091);
#1093=PLANE('',#1092);
#1094=CARTESIAN_POINT('',(9.499999999999908,9.999999999999996,14.25));
#1095=VERTEX_POINT('',#1094);
#1096=CARTESIAN_POINT('',(9.499999999999908,10.0,13.699999999999996));
#1097=DIRECTION('',(0.0,0.0,1.0));
#1098=VECTOR('',#1097,0.550000000000004);
#1099=LINE('',#1096,#1098);
#1100=EDGE_CURVE('',#1062,#1095,#1099,.T.);
#1101=ORIENTED_EDGE('',*,*,#1100,.T.);
#1102=CARTESIAN_POINT('',(9.499999999999908,-10.0,14.25));
#1103=VERTEX_POINT('',#1102);
#1104=CARTESIAN_POINT('',(9.499999999999908,-10.0,14.25));
#1105=DIRECTION('',(0.0,1.0,0.0));
#1106=VECTOR('',#1105,19.999999999999996);
#1107=LINE('',#1104,#1106);
#1108=EDGE_CURVE('',#1103,#1095,#1107,.T.);
#1109=ORIENTED_EDGE('',*,*,#1108,.F.);
#1110=CARTESIAN_POINT('',(9.499999999999908,-10.0,14.25));
#1111=DIRECTION('',(0.0,0.0,-1.0));
#1112=VECTOR('',#1111,0.550000000000004);
#1113=LINE('',#1110,#1112);
#1114=EDGE_CURVE('',#1103,#1071,#1113,.T.);
#1115=ORIENTED_EDGE('',*,*,#1114,.T.);
#1116=ORIENTED_EDGE('',*,*,#1076,.T.);
#1117=EDGE_LOOP('',(#1101,#1109,#1115,#1116));
#1118=FACE_OUTER_BOUND('',#1117,.T.);
#1119=ADVANCED_FACE('',(#1118),#1093,.T.);
#1120=CARTESIAN_POINT('',(8.799999999999919,-10.0,14.25));
#1121=DIRECTION('',(-1.776357E-016,1.0,0.0));
#1122=DIRECTION('',(0.70710678118654,1.256074E-016,0.707106781186555));
#1123=AXIS2_PLACEMENT_3D('',#1120,#1121,#1122);
#1124=CYLINDRICAL_SURFACE('',#1123,0.699999999999989);
#1125=CARTESIAN_POINT('',(8.799999999999905,9.999999999999996,14.949999999999989));
#1126=VERTEX_POINT('',#1125);
#1127=CARTESIAN_POINT('',(8.799999999999919,10.0,14.25));
#1128=DIRECTION('',(1.110223E-016,-1.0,1.110223E-016));
#1129=DIRECTION('',(0.70710678118654,1.570092E-016,0.707106781186555));
#1130=AXIS2_PLACEMENT_3D('',#1127,#1128,#1129);
#1131=CIRCLE('',#1130,0.699999999999989);
#1132=EDGE_CURVE('',#1095,#1126,#1131,.T.);
#1133=ORIENTED_EDGE('',*,*,#1132,.T.);
#1134=CARTESIAN_POINT('',(8.799999999999905,-10.0,14.949999999999989));
#1135=VERTEX_POINT('',#1134);
#1136=CARTESIAN_POINT('',(8.799999999999905,-10.0,14.949999999999989));
#1137=DIRECTION('',(0.0,1.0,0.0));
#1138=VECTOR('',#1137,19.999999999999996);
#1139=LINE('',#1136,#1138);
#1140=EDGE_CURVE('',#1135,#1126,#1139,.T.);
#1141=ORIENTED_EDGE('',*,*,#1140,.F.);
#1142=CARTESIAN_POINT('',(8.799999999999919,-10.0,14.25));
#1143=DIRECTION('',(-1.110223E-016,1.0,-1.110223E-016));
#1144=DIRECTION('',(0.70710678118654,1.570092E-016,0.707106781186555));
#1145=AXIS2_PLACEMENT_3D('',#1142,#1143,#1144);
#1146=CIRCLE('',#1145,0.699999999999989);
#1147=EDGE_CURVE('',#1135,#1103,#1146,.T.);
#1148=ORIENTED_EDGE('',*,*,#1147,.T.);
#1149=ORIENTED_EDGE('',*,*,#1108,.T.);
#1150=EDGE_LOOP('',(#1133,#1141,#1148,#1149));
#1151=FACE_OUTER_BOUND('',#1150,.T.);
#1152=ADVANCED_FACE('',(#1151),#1124,.T.);
#1153=CARTESIAN_POINT('',(8.799999999999905,-10.0,14.949999999999989));
#1154=DIRECTION('',(0.0,0.0,1.0));
#1155=DIRECTION('',(1.0,0.0,0.0));
#1156=AXIS2_PLACEMENT_3D('',#1153,#1154,#1155);
#1157=PLANE('',#1156);
#1158=CARTESIAN_POINT('',(-5.500000000000096,9.999999999999993,14.949999999999996));
#1159=VERTEX_POINT('',#1158);
#1160=CARTESIAN_POINT('',(8.799999999999905,10.0,14.949999999999989));
#1161=DIRECTION('',(-1.0,0.0,0.0));
#1162=VECTOR('',#1161,14.300000000000001);
#1163=LINE('',#1160,#1162);
#1164=EDGE_CURVE('',#1126,#1159,#1163,.T.);
#1165=ORIENTED_EDGE('',*,*,#1164,.T.);
#1166=CARTESIAN_POINT('',(-5.500000000000092,-10.000000000000004,14.949999999999996));
#1167=VERTEX_POINT('',#1166);
#1168=CARTESIAN_POINT('',(-5.500000000000092,-10.000000000000004,14.949999999999996));
#1169=DIRECTION('',(0.0,1.0,0.0));
#1170=VECTOR('',#1169,19.999999999999996);
#1171=LINE('',#1168,#1170);
#1172=EDGE_CURVE('',#1167,#1159,#1171,.T.);
#1173=ORIENTED_EDGE('',*,*,#1172,.F.);
#1174=CARTESIAN_POINT('',(-5.500000000000092,-10.000000000000004,14.949999999999996));
#1175=DIRECTION('',(1.0,0.0,0.0));
#1176=VECTOR('',#1175,14.299999999999994);
#1177=LINE('',#1174,#1176);
#1178=EDGE_CURVE('',#1167,#1135,#1177,.T.);
#1179=ORIENTED_EDGE('',*,*,#1178,.T.);
#1180=ORIENTED_EDGE('',*,*,#1140,.T.);
#1181=EDGE_LOOP('',(#1165,#1173,#1179,#1180));
#1182=FACE_OUTER_BOUND('',#1181,.T.);
#1183=ADVANCED_FACE('',(#1182),#1157,.T.);
#1184=CARTESIAN_POINT('',(-5.499999999999915,-10.000000000000004,15.950000000000173));
#1185=DIRECTION('',(-1.776357E-016,1.0,0.0));
#1186=DIRECTION('',(-0.707106781186583,-1.256074E-016,-0.707106781186512));
#1187=AXIS2_PLACEMENT_3D('',#1184,#1185,#1186);
#1188=CYLINDRICAL_SURFACE('',#1187,1.000000000000178);
#1189=CARTESIAN_POINT('',(-6.500000000000096,9.999999999999993,15.950000000000095));
#1190=VERTEX_POINT('',#1189);
#1191=CARTESIAN_POINT('',(-5.499999999999918,9.999999999999996,15.950000000000173));
#1192=DIRECTION('',(-1.110223E-016,1.0,-1.110223E-016));
#1193=DIRECTION('',(-0.707106781186583,-1.570092E-016,-0.707106781186512));
#1194=AXIS2_PLACEMENT_3D('',#1191,#1192,#1193);
#1195=CIRCLE('',#1194,1.000000000000178);
#1196=EDGE_CURVE('',#1159,#1190,#1195,.T.);
#1197=ORIENTED_EDGE('',*,*,#1196,.T.);
#1198=CARTESIAN_POINT('',(-6.500000000000092,-10.000000000000004,15.950000000000095));
#1199=VERTEX_POINT('',#1198);
#1200=CARTESIAN_POINT('',(-6.500000000000092,-10.000000000000004,15.950000000000095));
#1201=DIRECTION('',(0.0,1.0,0.0));
#1202=VECTOR('',#1201,19.999999999999996);
#1203=LINE('',#1200,#1202);
#1204=EDGE_CURVE('',#1199,#1190,#1203,.T.);
#1205=ORIENTED_EDGE('',*,*,#1204,.F.);
#1206=CARTESIAN_POINT('',(-5.499999999999915,-10.000000000000004,15.950000000000173));
#1207=DIRECTION('',(1.110223E-016,-1.0,1.110223E-016));
#1208=DIRECTION('',(-0.707106781186583,-1.570092E-016,-0.707106781186512));
#1209=AXIS2_PLACEMENT_3D('',#1206,#1207,#1208);
#1210=CIRCLE('',#1209,1.000000000000178);
#1211=EDGE_CURVE('',#1199,#1167,#1210,.T.);
#1212=ORIENTED_EDGE('',*,*,#1211,.T.);
#1213=ORIENTED_EDGE('',*,*,#1172,.T.);
#1214=EDGE_LOOP('',(#1197,#1205,#1212,#1213));
#1215=FACE_OUTER_BOUND('',#1214,.T.);
#1216=ADVANCED_FACE('',(#1215),#1188,.F.);
#1217=CARTESIAN_POINT('',(-6.500000000000092,-10.000000000000004,15.950000000000095));
#1218=DIRECTION('',(1.0,0.0,0.0));
#1219=DIRECTION('',(0.0,0.0,-1.0));
#1220=AXIS2_PLACEMENT_3D('',#1217,#1218,#1219);
#1221=PLANE('',#1220);
#1222=ORIENTED_EDGE('',*,*,#385,.T.);
#1223=ORIENTED_EDGE('',*,*,#301,.T.);
#1224=ORIENTED_EDGE('',*,*,#456,.F.);
#1225=CARTESIAN_POINT('',(-6.500000000000092,-10.000000000000004,18.5));
#1226=DIRECTION('',(0.0,0.0,-1.0));
#1227=VECTOR('',#1226,2.549999999999905);
#1228=LINE('',#1225,#1227);
#1229=EDGE_CURVE('',#444,#1199,#1228,.T.);
#1230=ORIENTED_EDGE('',*,*,#1229,.T.);
#1231=ORIENTED_EDGE('',*,*,#1204,.T.);
#1232=CARTESIAN_POINT('',(-6.500000000000096,9.999999999999996,15.950000000000095));
#1233=DIRECTION('',(0.0,0.0,1.0));
#1234=VECTOR('',#1233,2.549999999999905);
#1235=LINE('',#1232,#1234);
#1236=EDGE_CURVE('',#1190,#419,#1235,.T.);
#1237=ORIENTED_EDGE('',*,*,#1236,.T.);
#1238=ORIENTED_EDGE('',*,*,#424,.F.);
#1239=EDGE_LOOP('',(#1222,#1223,#1224,#1230,#1231,#1237,#1238));
#1240=FACE_OUTER_BOUND('',#1239,.T.);
#1241=ADVANCED_FACE('',(#1240),#1221,.T.);
#1242=CARTESIAN_POINT('',(-5.500000000000092,-10.000000000000004,19.5));
#1243=DIRECTION('',(0.0,0.0,-1.0));
#1244=DIRECTION('',(-1.0,0.0,0.0));
#1245=AXIS2_PLACEMENT_3D('',#1242,#1243,#1244);
#1246=PLANE('',#1245);
#1247=CARTESIAN_POINT('',(8.799999999999905,9.999999999999996,19.499999999999993));
#1248=VERTEX_POINT('',#1247);
#1249=CARTESIAN_POINT('',(-5.500000000000096,9.999999999999996,19.5));
#1250=DIRECTION('',(1.0,0.0,0.0));
#1251=VECTOR('',#1250,14.300000000000001);
#1252=LINE('',#1249,#1251);
#1253=EDGE_CURVE('',#427,#1248,#1252,.T.);
#1254=ORIENTED_EDGE('',*,*,#1253,.T.);
#1255=CARTESIAN_POINT('',(8.799999999999905,-10.0,19.499999999999993));
#1256=VERTEX_POINT('',#1255);
#1257=CARTESIAN_POINT('',(8.799999999999905,-10.0,19.499999999999993));
#1258=DIRECTION('',(0.0,1.0,0.0));
#1259=VECTOR('',#1258,19.999999999999996);
#1260=LINE('',#1257,#1259);
#1261=EDGE_CURVE('',#1256,#1248,#1260,.T.);
#1262=ORIENTED_EDGE('',*,*,#1261,.F.);
#1263=CARTESIAN_POINT('',(8.799999999999905,-10.0,19.499999999999993));
#1264=DIRECTION('',(-1.0,0.0,0.0));
#1265=VECTOR('',#1264,14.299999999999994);
#1266=LINE('',#1263,#1265);
#1267=EDGE_CURVE('',#1256,#436,#1266,.T.);
#1268=ORIENTED_EDGE('',*,*,#1267,.T.);
#1269=ORIENTED_EDGE('',*,*,#441,.T.);
#1270=EDGE_LOOP('',(#1254,#1262,#1268,#1269));
#1271=FACE_OUTER_BOUND('',#1270,.T.);
#1272=ADVANCED_FACE('',(#1271),#1246,.T.);
#1273=CARTESIAN_POINT('',(8.799999999999912,-10.0,20.199999999999996));
#1274=DIRECTION('',(-1.776357E-016,1.0,0.0));
#1275=DIRECTION('',(0.707106781186544,1.256074E-016,-0.707106781186551));
#1276=AXIS2_PLACEMENT_3D('',#1273,#1274,#1275);
#1277=CYLINDRICAL_SURFACE('',#1276,0.700000000000003);
#1278=CARTESIAN_POINT('',(9.499999999999915,9.999999999999996,20.199999999999996));
#1279=VERTEX_POINT('',#1278);
#1280=CARTESIAN_POINT('',(8.799999999999905,10.0,20.199999999999996));
#1281=DIRECTION('',(1.110223E-016,-1.0,-1.110223E-016));
#1282=DIRECTION('',(0.707106781186544,1.570092E-016,-0.707106781186551));
#1283=AXIS2_PLACEMENT_3D('',#1280,#1281,#1282);
#1284=CIRCLE('',#1283,0.700000000000003);
#1285=EDGE_CURVE('',#1248,#1279,#1284,.T.);
#1286=ORIENTED_EDGE('',*,*,#1285,.T.);
#1287=CARTESIAN_POINT('',(9.499999999999915,-10.0,20.199999999999996));
#1288=VERTEX_POINT('',#1287);
#1289=CARTESIAN_POINT('',(9.499999999999915,-10.0,20.199999999999996));
#1290=DIRECTION('',(0.0,1.0,0.0));
#1291=VECTOR('',#1290,19.999999999999996);
#1292=LINE('',#1289,#1291);
#1293=EDGE_CURVE('',#1288,#1279,#1292,.T.);
#1294=ORIENTED_EDGE('',*,*,#1293,.F.);
#1295=CARTESIAN_POINT('',(8.799999999999912,-10.0,20.199999999999996));
#1296=DIRECTION('',(-1.110223E-016,1.0,1.110223E-016));
#1297=DIRECTION('',(0.707106781186544,1.570092E-016,-0.707106781186551));
#1298=AXIS2_PLACEMENT_3D('',#1295,#1296,#1297);
#1299=CIRCLE('',#1298,0.700000000000003);
#1300=EDGE_CURVE('',#1288,#1256,#1299,.T.);
#1301=ORIENTED_EDGE('',*,*,#1300,.T.);
#1302=ORIENTED_EDGE('',*,*,#1261,.T.);
#1303=EDGE_LOOP('',(#1286,#1294,#1301,#1302));
#1304=FACE_OUTER_BOUND('',#1303,.T.);
#1305=ADVANCED_FACE('',(#1304),#1277,.T.);
#1306=CARTESIAN_POINT('',(9.499999999999915,-10.0,20.199999999999996));
#1307=DIRECTION('',(1.0,0.0,0.0));
#1308=DIRECTION('',(0.0,0.0,-1.0));
#1309=AXIS2_PLACEMENT_3D('',#1306,#1307,#1308);
#1310=PLANE('',#1309);
#1311=CARTESIAN_POINT('',(9.499999999999908,9.999999999999996,20.75));
#1312=VERTEX_POINT('',#1311);
#1313=CARTESIAN_POINT('',(9.499999999999915,10.0,20.199999999999996));
#1314=DIRECTION('',(0.0,0.0,1.0));
#1315=VECTOR('',#1314,0.550000000000004);
#1316=LINE('',#1313,#1315);
#1317=EDGE_CURVE('',#1279,#1312,#1316,.T.);
#1318=ORIENTED_EDGE('',*,*,#1317,.T.);
#1319=CARTESIAN_POINT('',(9.499999999999908,-10.0,20.75));
#1320=VERTEX_POINT('',#1319);
#1321=CARTESIAN_POINT('',(9.499999999999908,-10.0,20.75));
#1322=DIRECTION('',(0.0,1.0,0.0));
#1323=VECTOR('',#1322,19.999999999999996);
#1324=LINE('',#1321,#1323);
#1325=EDGE_CURVE('',#1320,#1312,#1324,.T.);
#1326=ORIENTED_EDGE('',*,*,#1325,.F.);
#1327=CARTESIAN_POINT('',(9.499999999999908,-10.0,20.75));
#1328=DIRECTION('',(0.0,0.0,-1.0));
#1329=VECTOR('',#1328,0.550000000000004);
#1330=LINE('',#1327,#1329);
#1331=EDGE_CURVE('',#1320,#1288,#1330,.T.);
#1332=ORIENTED_EDGE('',*,*,#1331,.T.);
#1333=ORIENTED_EDGE('',*,*,#1293,.T.);
#1334=EDGE_LOOP('',(#1318,#1326,#1332,#1333));
#1335=FACE_OUTER_BOUND('',#1334,.T.);
#1336=ADVANCED_FACE('',(#1335),#1310,.T.);
#1337=CARTESIAN_POINT('',(8.799999999999919,-10.0,20.75));
#1338=DIRECTION('',(-1.776357E-016,1.0,0.0));
#1339=DIRECTION('',(0.707106781186544,1.256074E-016,0.707106781186551));
#1340=AXIS2_PLACEMENT_3D('',#1337,#1338,#1339);
#1341=CYLINDRICAL_SURFACE('',#1340,0.699999999999989);
#1342=CARTESIAN_POINT('',(8.799999999999905,9.999999999999996,21.449999999999996));
#1343=VERTEX_POINT('',#1342);
#1344=CARTESIAN_POINT('',(8.799999999999919,10.0,20.75));
#1345=DIRECTION('',(1.110223E-016,-1.0,1.110223E-016));
#1346=DIRECTION('',(0.707106781186544,1.570092E-016,0.707106781186551));
#1347=AXIS2_PLACEMENT_3D('',#1344,#1345,#1346);
#1348=CIRCLE('',#1347,0.699999999999989);
#1349=EDGE_CURVE('',#1312,#1343,#1348,.T.);
#1350=ORIENTED_EDGE('',*,*,#1349,.T.);
#1351=CARTESIAN_POINT('',(8.799999999999905,-10.0,21.449999999999996));
#1352=VERTEX_POINT('',#1351);
#1353=CARTESIAN_POINT('',(8.799999999999905,-10.0,21.449999999999996));
#1354=DIRECTION('',(0.0,1.0,0.0));
#1355=VECTOR('',#1354,19.999999999999996);
#1356=LINE('',#1353,#1355);
#1357=EDGE_CURVE('',#1352,#1343,#1356,.T.);
#1358=ORIENTED_EDGE('',*,*,#1357,.F.);
#1359=CARTESIAN_POINT('',(8.799999999999919,-10.0,20.75));
#1360=DIRECTION('',(-1.110223E-016,1.0,-1.110223E-016));
#1361=DIRECTION('',(0.707106781186544,1.570092E-016,0.707106781186551));
#1362=AXIS2_PLACEMENT_3D('',#1359,#1360,#1361);
#1363=CIRCLE('',#1362,0.699999999999989);
#1364=EDGE_CURVE('',#1352,#1320,#1363,.T.);
#1365=ORIENTED_EDGE('',*,*,#1364,.T.);
#1366=ORIENTED_EDGE('',*,*,#1325,.T.);
#1367=EDGE_LOOP('',(#1350,#1358,#1365,#1366));
#1368=FACE_OUTER_BOUND('',#1367,.T.);
#1369=ADVANCED_FACE('',(#1368),#1341,.T.);
#1370=CARTESIAN_POINT('',(8.799999999999905,-10.0,21.449999999999996));
#1371=DIRECTION('',(0.0,0.0,1.0));
#1372=DIRECTION('',(1.0,0.0,0.0));
#1373=AXIS2_PLACEMENT_3D('',#1370,#1371,#1372);
#1374=PLANE('',#1373);
#1375=CARTESIAN_POINT('',(8.799999999999905,10.0,21.449999999999996));
#1376=DIRECTION('',(-1.0,0.0,0.0));
#1377=VECTOR('',#1376,18.300000000000001);
#1378=LINE('',#1375,#1377);
#1379=EDGE_CURVE('',#1343,#467,#1378,.T.);
#1380=ORIENTED_EDGE('',*,*,#1379,.T.);
#1381=ORIENTED_EDGE('',*,*,#496,.F.);
#1382=CARTESIAN_POINT('',(-9.500000000000092,-10.000000000000004,21.449999999999996));
#1383=DIRECTION('',(1.0,0.0,0.0));
#1384=VECTOR('',#1383,18.299999999999994);
#1385=LINE('',#1382,#1384);
#1386=EDGE_CURVE('',#485,#1352,#1385,.T.);
#1387=ORIENTED_EDGE('',*,*,#1386,.T.);
#1388=ORIENTED_EDGE('',*,*,#1357,.T.);
#1389=EDGE_LOOP('',(#1380,#1381,#1387,#1388));
#1390=FACE_OUTER_BOUND('',#1389,.T.);
#1391=ADVANCED_FACE('',(#1390),#1374,.T.);
#1392=CARTESIAN_POINT('',(-0.46709160622818,-10.000000000000007,10.724999999999994));
#1393=DIRECTION('',(0.0,1.0,0.0));
#1394=DIRECTION('',(0.0,0.0,1.0));
#1395=AXIS2_PLACEMENT_3D('',#1392,#1393,#1394);
#1396=PLANE('',#1395);
#1397=ORIENTED_EDGE('',*,*,#1386,.F.);
#1398=ORIENTED_EDGE('',*,*,#490,.F.);
#1399=ORIENTED_EDGE('',*,*,#530,.F.);
#1400=ORIENTED_EDGE('',*,*,#567,.F.);
#1401=ORIENTED_EDGE('',*,*,#598,.F.);
#1402=ORIENTED_EDGE('',*,*,#631,.F.);
#1403=ORIENTED_EDGE('',*,*,#662,.F.);
#1404=ORIENTED_EDGE('',*,*,#699,.F.);
#1405=ORIENTED_EDGE('',*,*,#730,.F.);
#1406=ORIENTED_EDGE('',*,*,#763,.F.);
#1407=ORIENTED_EDGE('',*,*,#794,.F.);
#1408=ORIENTED_EDGE('',*,*,#827,.F.);
#1409=ORIENTED_EDGE('',*,*,#858,.F.);
#1410=ORIENTED_EDGE('',*,*,#891,.F.);
#1411=ORIENTED_EDGE('',*,*,#922,.F.);
#1412=ORIENTED_EDGE('',*,*,#955,.F.);
#1413=ORIENTED_EDGE('',*,*,#986,.F.);
#1414=ORIENTED_EDGE('',*,*,#1019,.F.);
#1415=ORIENTED_EDGE('',*,*,#1050,.F.);
#1416=ORIENTED_EDGE('',*,*,#1083,.F.);
#1417=ORIENTED_EDGE('',*,*,#1114,.F.);
#1418=ORIENTED_EDGE('',*,*,#1147,.F.);
#1419=ORIENTED_EDGE('',*,*,#1178,.F.);
#1420=ORIENTED_EDGE('',*,*,#1211,.F.);
#1421=ORIENTED_EDGE('',*,*,#1229,.F.);
#1422=ORIENTED_EDGE('',*,*,#450,.F.);
#1423=ORIENTED_EDGE('',*,*,#1267,.F.);
#1424=ORIENTED_EDGE('',*,*,#1300,.F.);
#1425=ORIENTED_EDGE('',*,*,#1331,.F.);
#1426=ORIENTED_EDGE('',*,*,#1364,.F.);
#1427=EDGE_LOOP('',(#1397,#1398,#1399,#1400,#1401,#1402,#1403,#1404,#1405,#1406,#1407,#1408,#1409,#1410,#1411,#1412,#1413,#1414,#1415,#1416,#1417,#1418,#1419,#1420,#1421,#1422,#1423,#1424,#1425,#1426));
#1428=FACE_OUTER_BOUND('',#1427,.T.);
#1429=ADVANCED_FACE('',(#1428),#1396,.F.);
#1430=CARTESIAN_POINT('',(-0.467091606228188,9.999999999999993,10.725000000000009));
#1431=DIRECTION('',(0.0,1.0,0.0));
#1432=DIRECTION('',(0.0,0.0,1.0));
#1433=AXIS2_PLACEMENT_3D('',#1430,#1431,#1432);
#1434=PLANE('',#1433);
#1435=ORIENTED_EDGE('',*,*,#474,.F.);
#1436=ORIENTED_EDGE('',*,*,#1379,.F.);
#1437=ORIENTED_EDGE('',*,*,#1349,.F.);
#1438=ORIENTED_EDGE('',*,*,#1317,.F.);
#1439=ORIENTED_EDGE('',*,*,#1285,.F.);
#1440=ORIENTED_EDGE('',*,*,#1253,.F.);
#1441=ORIENTED_EDGE('',*,*,#433,.F.);
#1442=ORIENTED_EDGE('',*,*,#1236,.F.);
#1443=ORIENTED_EDGE('',*,*,#1196,.F.);
#1444=ORIENTED_EDGE('',*,*,#1164,.F.);
#1445=ORIENTED_EDGE('',*,*,#1132,.F.);
#1446=ORIENTED_EDGE('',*,*,#1100,.F.);
#1447=ORIENTED_EDGE('',*,*,#1068,.F.);
#1448=ORIENTED_EDGE('',*,*,#1036,.F.);
#1449=ORIENTED_EDGE('',*,*,#1004,.F.);
#1450=ORIENTED_EDGE('',*,*,#972,.F.);
#1451=ORIENTED_EDGE('',*,*,#940,.F.);
#1452=ORIENTED_EDGE('',*,*,#908,.F.);
#1453=ORIENTED_EDGE('',*,*,#876,.F.);
#1454=ORIENTED_EDGE('',*,*,#844,.F.);
#1455=ORIENTED_EDGE('',*,*,#812,.F.);
#1456=ORIENTED_EDGE('',*,*,#780,.F.);
#1457=ORIENTED_EDGE('',*,*,#748,.F.);
#1458=ORIENTED_EDGE('',*,*,#716,.F.);
#1459=ORIENTED_EDGE('',*,*,#684,.F.);
#1460=ORIENTED_EDGE('',*,*,#648,.F.);
#1461=ORIENTED_EDGE('',*,*,#616,.F.);
#1462=ORIENTED_EDGE('',*,*,#584,.F.);
#1463=ORIENTED_EDGE('',*,*,#552,.F.);
#1464=ORIENTED_EDGE('',*,*,#516,.F.);
#1465=EDGE_LOOP('',(#1435,#1436,#1437,#1438,#1439,#1440,#1441,#1442,#1443,#1444,#1445,#1446,#1447,#1448,#1449,#1450,#1451,#1452,#1453,#1454,#1455,#1456,#1457,#1458,#1459,#1460,#1461,#1462,#1463,#1464));
#1466=FACE_OUTER_BOUND('',#1465,.T.);
#1467=ADVANCED_FACE('',(#1466),#1434,.T.);
#1468=CLOSED_SHELL('',(#305,#347,#371,#410,#460,#504,#539,#572,#603,#636,#671,#704,#735,#768,#799,#832,#863,#896,#927,#960,#991,#1024,#1055,#1088,#1119,#1152,#1183,#1216,#1241,#1272,#1305,#1336,#1369,#1391,#1429,#1467));
#1469=MANIFOLD_SOLID_BREP('1562',#1468);
#1470=COLOUR_RGB('250',0.33,0.33,0.33);
#1471=SURFACE_STYLE_USAGE(.BOTH.,#1472);
#1472=SURFACE_SIDE_STYLE('NONE',(#1473));
#1473=SURFACE_STYLE_FILL_AREA(#1474);
#1474=FILL_AREA_STYLE('NONE',(#1475));
#1475=FILL_AREA_STYLE_COLOUR('NONE',#1470);
#1476=PRESENTATION_STYLE_ASSIGNMENT((#1471));
#1477=STYLED_ITEM('NONE',(#1476),#1469);
#1478=ADVANCED_BREP_SHAPE_REPRESENTATION('ABSR1',(#239,#1469),#28);
#1479=SHAPE_REPRESENTATION_RELATIONSHIP('SRRPL1','',#1478,#62);
#1480=GEOMETRIC_CURVE_SET('GCS1',(#70));
#1481=GEOMETRICALLY_BOUNDED_WIREFRAME_SHAPE_REPRESENTATION('GBWSR1',(#1480),#28);
#1482=SHAPE_REPRESENTATION_RELATIONSHIP('SRRPL2','',#1481,#62);
ENDSEC;
END-ISO-10303-21;
