ISO-10303-21;
HEADER;
/****************************************************************
 * Generated by software with PDElib inside                    *
 * PDElib Version v51a, created Wed 11/30/2011                  *
 * ITI Transcendata (http://www.transcendata.com/)              *
 ****************************************************************/
FILE_DESCRIPTION((''),'2;1');
FILE_NAME('IND_EPCOS_B82432A.stp','2014-09-24T09:02:15',(''),(''),'Mechanical Desktop 2011','Mechanical Desktop 2011',', , ');
FILE_SCHEMA(('AUTOMOTIVE_DESIGN { 1 2 10303 214 1 1 1 1 }'));
ENDSEC;
DATA;
#10=(NAMED_UNIT(*)PLANE_ANGLE_UNIT()SI_UNIT($,.RADIAN.));
#11=DIMENSIONAL_EXPONENTS(0.0,0.0,0.0,0.0,0.0,0.0,0.0);
#12=PLANE_ANGLE_MEASURE_WITH_UNIT(PLANE_ANGLE_MEASURE(0.0174532925),#10);
#16=(CONVERSION_BASED_UNIT('DEGREE',#12)NAMED_UNIT(#11)PLANE_ANGLE_UNIT());
#20=(NAMED_UNIT(*)SI_UNIT($,.STERADIAN.)SOLID_ANGLE_UNIT());
#24=(LENGTH_UNIT()NAMED_UNIT(*)SI_UNIT(.MILLI.,.METRE.));
#26=UNCERTAINTY_MEASURE_WITH_UNIT(LENGTH_MEASURE(0.000001),#24,'DISTANCE_ACCURACY_VALUE','');
#28=(GEOMETRIC_REPRESENTATION_CONTEXT(3)GLOBAL_UNCERTAINTY_ASSIGNED_CONTEXT((#26))GLOBAL_UNIT_ASSIGNED_CONTEXT((#16,#20,#24))REPRESENTATION_CONTEXT('','3D'));
#29=APPLICATION_CONTEXT('automotive design');
#30=APPLICATION_PROTOCOL_DEFINITION('INTERNATIONAL_STANDARD','automotive_design',1998,#29);
#31=PRODUCT_CONTEXT('3D Mechanical Parts',#29,'mechanical');
#32=PRODUCT('Product','Product','',(#31));
#33=PRODUCT_RELATED_PRODUCT_CATEGORY('part',$,(#32));
#34=PRODUCT_CATEGORY('part',$);
#35=PERSON('1','Design','Joe',$,$,$);
#36=ORGANIZATION($,'None','None');
#37=PERSON_AND_ORGANIZATION(#35,#36);
#38=PERSON_AND_ORGANIZATION_ROLE('design_owner');
#39=APPLIED_PERSON_AND_ORGANIZATION_ASSIGNMENT(#37,#38,(#32));
#40=PRODUCT_DEFINITION_FORMATION_WITH_SPECIFIED_SOURCE('None','',#32,.BOUGHT.);
#41=PERSON('2','Creator','Joe',$,$,$);
#42=ORGANIZATION($,'None','None');
#43=PERSON_AND_ORGANIZATION(#41,#42);
#44=PERSON_AND_ORGANIZATION_ROLE('creator');
#45=APPLIED_PERSON_AND_ORGANIZATION_ASSIGNMENT(#43,#44,(#40));
#46=PERSON('3','Supplier','Joe',$,$,$);
#47=ORGANIZATION($,'None','None');
#48=PERSON_AND_ORGANIZATION(#46,#47);
#49=PERSON_AND_ORGANIZATION_ROLE('design_supplier');
#50=APPLIED_PERSON_AND_ORGANIZATION_ASSIGNMENT(#48,#49,(#40));
#51=PRODUCT_DEFINITION_CONTEXT('part definition',#29,'design');
#52=PRODUCT_DEFINITION('None','',#40,#51);
#53=PERSON('4','Creator','Joe',$,$,$);
#54=ORGANIZATION($,'None','None');
#55=PERSON_AND_ORGANIZATION(#53,#54);
#56=PERSON_AND_ORGANIZATION_ROLE('creator');
#57=APPLIED_PERSON_AND_ORGANIZATION_ASSIGNMENT(#55,#56,(#52));
#58=CARTESIAN_POINT('NONE',(0.0,0.0,0.0));
#59=DIRECTION('NONE',(0.0,0.0,1.0));
#60=DIRECTION('NONE',(1.0,0.0,0.0));
#61=AXIS2_PLACEMENT_3D('NONE',#58,#59,#60);
#62=SHAPE_REPRESENTATION('SR1',(#61),#28);
#63=PRODUCT_DEFINITION_SHAPE('PDS1','Test Part',#52);
#64=SHAPE_DEFINITION_REPRESENTATION(#63,#62);
#65=CARTESIAN_POINT('',(1.35,1.75,0.05));
#66=DIRECTION('',(1.0,0.0,0.0));
#67=DIRECTION('',(0.0,0.0,-1.0));
#68=AXIS2_PLACEMENT_3D('',#65,#66,#67);
#69=PLANE('',#68);
#70=CARTESIAN_POINT('',(1.35,1.75,0.1));
#71=VERTEX_POINT('',#70);
#72=CARTESIAN_POINT('',(1.35,-1.75,0.1));
#73=VERTEX_POINT('',#72);
#74=CARTESIAN_POINT('',(1.35,1.75,0.1));
#75=DIRECTION('',(0.0,-1.0,0.0));
#76=VECTOR('',#75,3.5);
#77=LINE('',#74,#76);
#78=EDGE_CURVE('',#71,#73,#77,.T.);
#79=ORIENTED_EDGE('',*,*,#78,.T.);
#80=CARTESIAN_POINT('',(1.35,-1.75,0.05));
#81=VERTEX_POINT('',#80);
#82=CARTESIAN_POINT('',(1.35,-1.75,0.05));
#83=DIRECTION('',(0.0,0.0,1.0));
#84=VECTOR('',#83,0.05);
#85=LINE('',#82,#84);
#86=EDGE_CURVE('',#81,#73,#85,.T.);
#87=ORIENTED_EDGE('',*,*,#86,.F.);
#88=CARTESIAN_POINT('',(1.35,1.75,0.05));
#89=VERTEX_POINT('',#88);
#90=CARTESIAN_POINT('',(1.35,1.75,0.05));
#91=DIRECTION('',(0.0,-1.0,0.0));
#92=VECTOR('',#91,3.5);
#93=LINE('',#90,#92);
#94=EDGE_CURVE('',#89,#81,#93,.T.);
#95=ORIENTED_EDGE('',*,*,#94,.F.);
#96=CARTESIAN_POINT('',(1.35,1.75,0.05));
#97=DIRECTION('',(0.0,0.0,1.0));
#98=VECTOR('',#97,0.05);
#99=LINE('',#96,#98);
#100=EDGE_CURVE('',#89,#71,#99,.T.);
#101=ORIENTED_EDGE('',*,*,#100,.T.);
#102=EDGE_LOOP('',(#79,#87,#95,#101));
#103=FACE_OUTER_BOUND('',#102,.T.);
#104=ADVANCED_FACE('',(#103),#69,.T.);
#105=CARTESIAN_POINT('',(1.35,-1.75,0.05));
#106=DIRECTION('',(0.0,-1.0,0.0));
#107=DIRECTION('',(0.0,0.0,-1.0));
#108=AXIS2_PLACEMENT_3D('',#105,#106,#107);
#109=PLANE('',#108);
#110=CARTESIAN_POINT('',(-1.35,-1.75,0.1));
#111=VERTEX_POINT('',#110);
#112=CARTESIAN_POINT('',(1.35,-1.75,0.1));
#113=DIRECTION('',(-1.0,0.0,0.0));
#114=VECTOR('',#113,2.7);
#115=LINE('',#112,#114);
#116=EDGE_CURVE('',#73,#111,#115,.T.);
#117=ORIENTED_EDGE('',*,*,#116,.T.);
#118=CARTESIAN_POINT('',(-1.35,-1.75,0.05));
#119=VERTEX_POINT('',#118);
#120=CARTESIAN_POINT('',(-1.35,-1.75,0.05));
#121=DIRECTION('',(0.0,0.0,1.0));
#122=VECTOR('',#121,0.05);
#123=LINE('',#120,#122);
#124=EDGE_CURVE('',#119,#111,#123,.T.);
#125=ORIENTED_EDGE('',*,*,#124,.F.);
#126=CARTESIAN_POINT('',(1.35,-1.75,0.05));
#127=DIRECTION('',(-1.0,0.0,0.0));
#128=VECTOR('',#127,2.7);
#129=LINE('',#126,#128);
#130=EDGE_CURVE('',#81,#119,#129,.T.);
#131=ORIENTED_EDGE('',*,*,#130,.F.);
#132=ORIENTED_EDGE('',*,*,#86,.T.);
#133=EDGE_LOOP('',(#117,#125,#131,#132));
#134=FACE_OUTER_BOUND('',#133,.T.);
#135=ADVANCED_FACE('',(#134),#109,.T.);
#136=CARTESIAN_POINT('',(-1.35,-1.75,0.05));
#137=DIRECTION('',(-1.0,0.0,0.0));
#138=DIRECTION('',(0.0,0.0,1.0));
#139=AXIS2_PLACEMENT_3D('',#136,#137,#138);
#140=PLANE('',#139);
#141=CARTESIAN_POINT('',(-1.35,1.75,0.1));
#142=VERTEX_POINT('',#141);
#143=CARTESIAN_POINT('',(-1.35,-1.75,0.1));
#144=DIRECTION('',(0.0,1.0,0.0));
#145=VECTOR('',#144,3.5);
#146=LINE('',#143,#145);
#147=EDGE_CURVE('',#111,#142,#146,.T.);
#148=ORIENTED_EDGE('',*,*,#147,.T.);
#149=CARTESIAN_POINT('',(-1.35,1.75,0.05));
#150=VERTEX_POINT('',#149);
#151=CARTESIAN_POINT('',(-1.35,1.75,0.05));
#152=DIRECTION('',(0.0,0.0,1.0));
#153=VECTOR('',#152,0.05);
#154=LINE('',#151,#153);
#155=EDGE_CURVE('',#150,#142,#154,.T.);
#156=ORIENTED_EDGE('',*,*,#155,.F.);
#157=CARTESIAN_POINT('',(-1.35,-1.75,0.05));
#158=DIRECTION('',(0.0,1.0,0.0));
#159=VECTOR('',#158,3.5);
#160=LINE('',#157,#159);
#161=EDGE_CURVE('',#119,#150,#160,.T.);
#162=ORIENTED_EDGE('',*,*,#161,.F.);
#163=ORIENTED_EDGE('',*,*,#124,.T.);
#164=EDGE_LOOP('',(#148,#156,#162,#163));
#165=FACE_OUTER_BOUND('',#164,.T.);
#166=ADVANCED_FACE('',(#165),#140,.T.);
#167=CARTESIAN_POINT('',(-1.35,1.75,0.05));
#168=DIRECTION('',(0.0,1.0,0.0));
#169=DIRECTION('',(0.0,0.0,1.0));
#170=AXIS2_PLACEMENT_3D('',#167,#168,#169);
#171=PLANE('',#170);
#172=CARTESIAN_POINT('',(-1.35,1.75,0.1));
#173=DIRECTION('',(1.0,0.0,0.0));
#174=VECTOR('',#173,2.7);
#175=LINE('',#172,#174);
#176=EDGE_CURVE('',#142,#71,#175,.T.);
#177=ORIENTED_EDGE('',*,*,#176,.T.);
#178=ORIENTED_EDGE('',*,*,#100,.F.);
#179=CARTESIAN_POINT('',(-1.35,1.75,0.05));
#180=DIRECTION('',(1.0,0.0,0.0));
#181=VECTOR('',#180,2.7);
#182=LINE('',#179,#181);
#183=EDGE_CURVE('',#150,#89,#182,.T.);
#184=ORIENTED_EDGE('',*,*,#183,.F.);
#185=ORIENTED_EDGE('',*,*,#155,.T.);
#186=EDGE_LOOP('',(#177,#178,#184,#185));
#187=FACE_OUTER_BOUND('',#186,.T.);
#188=ADVANCED_FACE('',(#187),#171,.T.);
#189=CARTESIAN_POINT('',(0.0,0.0,0.1));
#190=DIRECTION('',(0.0,0.0,1.0));
#191=DIRECTION('',(1.0,0.0,0.0));
#192=AXIS2_PLACEMENT_3D('',#189,#190,#191);
#193=PLANE('',#192);
#194=ORIENTED_EDGE('',*,*,#78,.F.);
#195=ORIENTED_EDGE('',*,*,#176,.F.);
#196=ORIENTED_EDGE('',*,*,#147,.F.);
#197=ORIENTED_EDGE('',*,*,#116,.F.);
#198=EDGE_LOOP('',(#194,#195,#196,#197));
#199=FACE_OUTER_BOUND('',#198,.T.);
#200=ADVANCED_FACE('',(#199),#193,.T.);
#201=CARTESIAN_POINT('',(0.0,0.0,0.05));
#202=DIRECTION('',(0.0,0.0,1.0));
#203=DIRECTION('',(1.0,0.0,0.0));
#204=AXIS2_PLACEMENT_3D('',#201,#202,#203);
#205=PLANE('',#204);
#206=ORIENTED_EDGE('',*,*,#183,.T.);
#207=ORIENTED_EDGE('',*,*,#94,.T.);
#208=ORIENTED_EDGE('',*,*,#130,.T.);
#209=ORIENTED_EDGE('',*,*,#161,.T.);
#210=EDGE_LOOP('',(#206,#207,#208,#209));
#211=FACE_OUTER_BOUND('',#210,.T.);
#212=ADVANCED_FACE('',(#211),#205,.F.);
#213=CLOSED_SHELL('',(#104,#135,#166,#188,#200,#212));
#214=MANIFOLD_SOLID_BREP('2CE8',#213);
#215=COLOUR_RGB('250',0.33,0.33,0.33);
#216=SURFACE_STYLE_USAGE(.BOTH.,#217);
#217=SURFACE_SIDE_STYLE('NONE',(#218));
#218=SURFACE_STYLE_FILL_AREA(#219);
#219=FILL_AREA_STYLE('NONE',(#220));
#220=FILL_AREA_STYLE_COLOUR('NONE',#215);
#221=PRESENTATION_STYLE_ASSIGNMENT((#216));
#222=STYLED_ITEM('NONE',(#221),#214);
#223=MECHANICAL_DESIGN_GEOMETRIC_PRESENTATION_REPRESENTATION('NONE',(#222,#679,#973,#1260),#28);
#224=PRESENTATION_LAYER_ASSIGNMENT('3D','None',(#214,#678,#965,#1259));
#225=CARTESIAN_POINT('',(2.149999999999997,-1.65,3.3));
#226=DIRECTION('',(0.0,0.0,1.0));
#227=DIRECTION('',(1.0,0.0,0.0));
#228=AXIS2_PLACEMENT_3D('',#225,#226,#227);
#229=SPHERICAL_SURFACE('',#228,0.1);
#230=CARTESIAN_POINT('',(2.149999999999997,-1.75,3.3));
#231=VERTEX_POINT('',#230);
#232=CARTESIAN_POINT('',(2.249999999999997,-1.65,3.3));
#233=VERTEX_POINT('',#232);
#234=CARTESIAN_POINT('',(2.149999999999997,-1.65,3.3));
#235=DIRECTION('',(0.0,0.0,1.0));
#236=DIRECTION('',(0.707106781186549,-0.707106781186546,0.0));
#237=AXIS2_PLACEMENT_3D('',#234,#235,#236);
#238=CIRCLE('',#237,0.1);
#239=EDGE_CURVE('',#231,#233,#238,.T.);
#240=ORIENTED_EDGE('',*,*,#239,.T.);
#241=CARTESIAN_POINT('',(2.149999999999997,-1.65,3.4));
#242=VERTEX_POINT('',#241);
#243=CARTESIAN_POINT('',(2.149999999999997,-1.65,3.3));
#244=DIRECTION('',(0.0,-1.0,0.0));
#245=DIRECTION('',(0.0,0.0,1.0));
#246=AXIS2_PLACEMENT_3D('',#243,#244,#245);
#247=CIRCLE('',#246,0.1);
#248=EDGE_CURVE('',#242,#233,#247,.F.);
#249=ORIENTED_EDGE('',*,*,#248,.F.);
#250=CARTESIAN_POINT('',(2.149999999999997,-1.65,3.3));
#251=DIRECTION('',(1.0,0.0,0.0));
#252=DIRECTION('',(0.0,-1.0,0.0));
#253=AXIS2_PLACEMENT_3D('',#250,#251,#252);
#254=CIRCLE('',#253,0.1);
#255=EDGE_CURVE('',#231,#242,#254,.F.);
#256=ORIENTED_EDGE('',*,*,#255,.F.);
#257=EDGE_LOOP('',(#240,#249,#256));
#258=FACE_OUTER_BOUND('',#257,.T.);
#259=ADVANCED_FACE('',(#258),#229,.T.);
#260=CARTESIAN_POINT('',(2.149999999999998,1.65,3.3));
#261=DIRECTION('',(0.0,0.0,1.0));
#262=DIRECTION('',(1.0,0.0,0.0));
#263=AXIS2_PLACEMENT_3D('',#260,#261,#262);
#264=SPHERICAL_SURFACE('',#263,0.1);
#265=CARTESIAN_POINT('',(2.249999999999997,1.65,3.3));
#266=VERTEX_POINT('',#265);
#267=CARTESIAN_POINT('',(2.149999999999998,1.75,3.3));
#268=VERTEX_POINT('',#267);
#269=CARTESIAN_POINT('',(2.149999999999998,1.65,3.3));
#270=DIRECTION('',(0.0,0.0,1.0));
#271=DIRECTION('',(0.707106781186546,0.707106781186549,0.0));
#272=AXIS2_PLACEMENT_3D('',#269,#270,#271);
#273=CIRCLE('',#272,0.1);
#274=EDGE_CURVE('',#266,#268,#273,.T.);
#275=ORIENTED_EDGE('',*,*,#274,.T.);
#276=CARTESIAN_POINT('',(2.149999999999997,1.65,3.4));
#277=VERTEX_POINT('',#276);
#278=CARTESIAN_POINT('',(2.149999999999997,1.65,3.3));
#279=DIRECTION('',(1.0,0.0,0.0));
#280=DIRECTION('',(0.0,0.0,1.0));
#281=AXIS2_PLACEMENT_3D('',#278,#279,#280);
#282=CIRCLE('',#281,0.1);
#283=EDGE_CURVE('',#277,#268,#282,.F.);
#284=ORIENTED_EDGE('',*,*,#283,.F.);
#285=CARTESIAN_POINT('',(2.149999999999997,1.65,3.3));
#286=DIRECTION('',(0.0,1.0,0.0));
#287=DIRECTION('',(0.707106781186551,0.0,0.707106781186544));
#288=AXIS2_PLACEMENT_3D('',#285,#286,#287);
#289=CIRCLE('',#288,0.1);
#290=EDGE_CURVE('',#277,#266,#289,.T.);
#291=ORIENTED_EDGE('',*,*,#290,.T.);
#292=EDGE_LOOP('',(#275,#284,#291));
#293=FACE_OUTER_BOUND('',#292,.T.);
#294=ADVANCED_FACE('',(#293),#264,.T.);
#295=CARTESIAN_POINT('',(-2.150000000000003,-1.65,3.3));
#296=DIRECTION('',(0.0,0.0,1.0));
#297=DIRECTION('',(1.0,0.0,0.0));
#298=AXIS2_PLACEMENT_3D('',#295,#296,#297);
#299=SPHERICAL_SURFACE('',#298,0.1);
#300=CARTESIAN_POINT('',(-2.150000000000003,-1.75,3.3));
#301=VERTEX_POINT('',#300);
#302=CARTESIAN_POINT('',(-2.150000000000003,-1.65,3.4));
#303=VERTEX_POINT('',#302);
#304=CARTESIAN_POINT('',(-2.150000000000003,-1.65,3.3));
#305=DIRECTION('',(-1.0,0.0,0.0));
#306=DIRECTION('',(0.0,-0.707106781186549,0.707106781186546));
#307=AXIS2_PLACEMENT_3D('',#304,#305,#306);
#308=CIRCLE('',#307,0.1);
#309=EDGE_CURVE('',#301,#303,#308,.T.);
#310=ORIENTED_EDGE('',*,*,#309,.T.);
#311=CARTESIAN_POINT('',(-2.250000000000003,-1.65,3.3));
#312=VERTEX_POINT('',#311);
#313=CARTESIAN_POINT('',(-2.150000000000003,-1.65,3.3));
#314=DIRECTION('',(0.0,-1.0,0.0));
#315=DIRECTION('',(-1.0,0.0,0.0));
#316=AXIS2_PLACEMENT_3D('',#313,#314,#315);
#317=CIRCLE('',#316,0.1);
#318=EDGE_CURVE('',#312,#303,#317,.F.);
#319=ORIENTED_EDGE('',*,*,#318,.F.);
#320=CARTESIAN_POINT('',(-2.150000000000003,-1.65,3.3));
#321=DIRECTION('',(0.0,0.0,1.0));
#322=DIRECTION('',(-0.707106781186546,-0.707106781186549,0.0));
#323=AXIS2_PLACEMENT_3D('',#320,#321,#322);
#324=CIRCLE('',#323,0.1);
#325=EDGE_CURVE('',#312,#301,#324,.T.);
#326=ORIENTED_EDGE('',*,*,#325,.T.);
#327=EDGE_LOOP('',(#310,#319,#326));
#328=FACE_OUTER_BOUND('',#327,.T.);
#329=ADVANCED_FACE('',(#328),#299,.T.);
#330=CARTESIAN_POINT('',(-2.150000000000003,1.65,3.3));
#331=DIRECTION('',(0.0,0.0,1.0));
#332=DIRECTION('',(1.0,0.0,0.0));
#333=AXIS2_PLACEMENT_3D('',#330,#331,#332);
#334=SPHERICAL_SURFACE('',#333,0.1);
#335=CARTESIAN_POINT('',(-2.150000000000003,1.65,3.4));
#336=VERTEX_POINT('',#335);
#337=CARTESIAN_POINT('',(-2.150000000000003,1.75,3.3));
#338=VERTEX_POINT('',#337);
#339=CARTESIAN_POINT('',(-2.150000000000003,1.65,3.3));
#340=DIRECTION('',(-1.0,0.0,0.0));
#341=DIRECTION('',(0.0,0.707106781186549,0.707106781186546));
#342=AXIS2_PLACEMENT_3D('',#339,#340,#341);
#343=CIRCLE('',#342,0.1);
#344=EDGE_CURVE('',#336,#338,#343,.T.);
#345=ORIENTED_EDGE('',*,*,#344,.T.);
#346=CARTESIAN_POINT('',(-2.250000000000003,1.65,3.3));
#347=VERTEX_POINT('',#346);
#348=CARTESIAN_POINT('',(-2.150000000000003,1.65,3.3));
#349=DIRECTION('',(0.0,0.0,1.0));
#350=DIRECTION('',(-1.0,0.0,0.0));
#351=AXIS2_PLACEMENT_3D('',#348,#349,#350);
#352=CIRCLE('',#351,0.1);
#353=EDGE_CURVE('',#347,#338,#352,.F.);
#354=ORIENTED_EDGE('',*,*,#353,.F.);
#355=CARTESIAN_POINT('',(-2.150000000000003,1.65,3.3));
#356=DIRECTION('',(0.0,1.0,0.0));
#357=DIRECTION('',(-0.707106781186551,0.0,0.707106781186544));
#358=AXIS2_PLACEMENT_3D('',#355,#356,#357);
#359=CIRCLE('',#358,0.1);
#360=EDGE_CURVE('',#347,#336,#359,.T.);
#361=ORIENTED_EDGE('',*,*,#360,.T.);
#362=EDGE_LOOP('',(#345,#354,#361));
#363=FACE_OUTER_BOUND('',#362,.T.);
#364=ADVANCED_FACE('',(#363),#334,.T.);
#365=CARTESIAN_POINT('',(-2.150000000000003,1.65,0.1));
#366=DIRECTION('',(0.0,0.0,1.0));
#367=DIRECTION('',(-0.707106781186549,0.707106781186546,0.0));
#368=AXIS2_PLACEMENT_3D('',#365,#366,#367);
#369=CYLINDRICAL_SURFACE('',#368,0.1);
#370=CARTESIAN_POINT('',(-2.150000000000003,1.75,0.1));
#371=VERTEX_POINT('',#370);
#372=CARTESIAN_POINT('',(-2.250000000000003,1.65,0.1));
#373=VERTEX_POINT('',#372);
#374=CARTESIAN_POINT('',(-2.150000000000003,1.65,0.1));
#375=DIRECTION('',(0.0,0.0,1.0));
#376=DIRECTION('',(-0.707106781186549,0.707106781186546,0.0));
#377=AXIS2_PLACEMENT_3D('',#374,#375,#376);
#378=CIRCLE('',#377,0.1);
#379=EDGE_CURVE('',#371,#373,#378,.T.);
#380=ORIENTED_EDGE('',*,*,#379,.T.);
#381=CARTESIAN_POINT('',(-2.250000000000003,1.65,0.1));
#382=DIRECTION('',(0.0,0.0,1.0));
#383=VECTOR('',#382,3.2);
#384=LINE('',#381,#383);
#385=EDGE_CURVE('',#373,#347,#384,.T.);
#386=ORIENTED_EDGE('',*,*,#385,.T.);
#387=ORIENTED_EDGE('',*,*,#353,.T.);
#388=CARTESIAN_POINT('',(-2.150000000000003,1.75,3.3));
#389=DIRECTION('',(0.0,0.0,-1.0));
#390=VECTOR('',#389,3.2);
#391=LINE('',#388,#390);
#392=EDGE_CURVE('',#338,#371,#391,.T.);
#393=ORIENTED_EDGE('',*,*,#392,.T.);
#394=EDGE_LOOP('',(#380,#386,#387,#393));
#395=FACE_OUTER_BOUND('',#394,.T.);
#396=ADVANCED_FACE('',(#395),#369,.T.);
#397=CARTESIAN_POINT('',(-2.150000000000003,-0.875,3.3));
#398=DIRECTION('',(0.0,1.0,-1.501791E-034));
#399=DIRECTION('',(-0.707106781186551,0.0,0.707106781186544));
#400=AXIS2_PLACEMENT_3D('',#397,#398,#399);
#401=CYLINDRICAL_SURFACE('',#400,0.1);
#402=ORIENTED_EDGE('',*,*,#360,.F.);
#403=CARTESIAN_POINT('',(-2.250000000000003,1.65,3.3));
#404=DIRECTION('',(0.0,-1.0,0.0));
#405=VECTOR('',#404,3.3);
#406=LINE('',#403,#405);
#407=EDGE_CURVE('',#347,#312,#406,.T.);
#408=ORIENTED_EDGE('',*,*,#407,.T.);
#409=ORIENTED_EDGE('',*,*,#318,.T.);
#410=CARTESIAN_POINT('',(-2.150000000000003,-1.65,3.4));
#411=DIRECTION('',(0.0,1.0,0.0));
#412=VECTOR('',#411,3.3);
#413=LINE('',#410,#412);
#414=EDGE_CURVE('',#303,#336,#413,.T.);
#415=ORIENTED_EDGE('',*,*,#414,.T.);
#416=EDGE_LOOP('',(#402,#408,#409,#415));
#417=FACE_OUTER_BOUND('',#416,.T.);
#418=ADVANCED_FACE('',(#417),#401,.T.);
#419=CARTESIAN_POINT('',(-1.125000000000003,1.65,3.3));
#420=DIRECTION('',(1.0,0.0,2.561945E-032));
#421=DIRECTION('',(0.0,0.707106781186549,0.707106781186546));
#422=AXIS2_PLACEMENT_3D('',#419,#420,#421);
#423=CYLINDRICAL_SURFACE('',#422,0.1);
#424=ORIENTED_EDGE('',*,*,#283,.T.);
#425=CARTESIAN_POINT('',(2.149999999999998,1.75,3.3));
#426=DIRECTION('',(-1.0,0.0,0.0));
#427=VECTOR('',#426,4.300000000000001);
#428=LINE('',#425,#427);
#429=EDGE_CURVE('',#268,#338,#428,.T.);
#430=ORIENTED_EDGE('',*,*,#429,.T.);
#431=ORIENTED_EDGE('',*,*,#344,.F.);
#432=CARTESIAN_POINT('',(-2.150000000000003,1.65,3.4));
#433=DIRECTION('',(1.0,0.0,0.0));
#434=VECTOR('',#433,4.3);
#435=LINE('',#432,#434);
#436=EDGE_CURVE('',#336,#277,#435,.T.);
#437=ORIENTED_EDGE('',*,*,#436,.T.);
#438=EDGE_LOOP('',(#424,#430,#431,#437));
#439=FACE_OUTER_BOUND('',#438,.T.);
#440=ADVANCED_FACE('',(#439),#423,.T.);
#441=CARTESIAN_POINT('',(-2.150000000000003,-1.65,0.1));
#442=DIRECTION('',(0.0,0.0,1.0));
#443=DIRECTION('',(-0.707106781186546,-0.707106781186549,0.0));
#444=AXIS2_PLACEMENT_3D('',#441,#442,#443);
#445=CYLINDRICAL_SURFACE('',#444,0.1);
#446=CARTESIAN_POINT('',(-2.250000000000003,-1.65,0.1));
#447=VERTEX_POINT('',#446);
#448=CARTESIAN_POINT('',(-2.150000000000003,-1.75,0.1));
#449=VERTEX_POINT('',#448);
#450=CARTESIAN_POINT('',(-2.150000000000003,-1.65,0.1));
#451=DIRECTION('',(0.0,0.0,1.0));
#452=DIRECTION('',(-0.707106781186546,-0.707106781186549,0.0));
#453=AXIS2_PLACEMENT_3D('',#450,#451,#452);
#454=CIRCLE('',#453,0.1);
#455=EDGE_CURVE('',#447,#449,#454,.T.);
#456=ORIENTED_EDGE('',*,*,#455,.T.);
#457=CARTESIAN_POINT('',(-2.150000000000003,-1.75,0.1));
#458=DIRECTION('',(0.0,0.0,1.0));
#459=VECTOR('',#458,3.2);
#460=LINE('',#457,#459);
#461=EDGE_CURVE('',#449,#301,#460,.T.);
#462=ORIENTED_EDGE('',*,*,#461,.T.);
#463=ORIENTED_EDGE('',*,*,#325,.F.);
#464=CARTESIAN_POINT('',(-2.250000000000003,-1.65,3.3));
#465=DIRECTION('',(0.0,0.0,-1.0));
#466=VECTOR('',#465,3.2);
#467=LINE('',#464,#466);
#468=EDGE_CURVE('',#312,#447,#467,.T.);
#469=ORIENTED_EDGE('',*,*,#468,.T.);
#470=EDGE_LOOP('',(#456,#462,#463,#469));
#471=FACE_OUTER_BOUND('',#470,.T.);
#472=ADVANCED_FACE('',(#471),#445,.T.);
#473=CARTESIAN_POINT('',(1.124999999999997,-1.65,3.3));
#474=DIRECTION('',(-1.0,0.0,-2.561945E-032));
#475=DIRECTION('',(0.0,-0.707106781186549,0.707106781186546));
#476=AXIS2_PLACEMENT_3D('',#473,#474,#475);
#477=CYLINDRICAL_SURFACE('',#476,0.1);
#478=ORIENTED_EDGE('',*,*,#309,.F.);
#479=CARTESIAN_POINT('',(-2.150000000000003,-1.75,3.3));
#480=DIRECTION('',(1.0,0.0,0.0));
#481=VECTOR('',#480,4.300000000000001);
#482=LINE('',#479,#481);
#483=EDGE_CURVE('',#301,#231,#482,.T.);
#484=ORIENTED_EDGE('',*,*,#483,.T.);
#485=ORIENTED_EDGE('',*,*,#255,.T.);
#486=CARTESIAN_POINT('',(2.149999999999997,-1.65,3.4));
#487=DIRECTION('',(-1.0,0.0,0.0));
#488=VECTOR('',#487,4.3);
#489=LINE('',#486,#488);
#490=EDGE_CURVE('',#242,#303,#489,.T.);
#491=ORIENTED_EDGE('',*,*,#490,.T.);
#492=EDGE_LOOP('',(#478,#484,#485,#491));
#493=FACE_OUTER_BOUND('',#492,.T.);
#494=ADVANCED_FACE('',(#493),#477,.T.);
#495=CARTESIAN_POINT('',(2.149999999999998,1.65,0.1));
#496=DIRECTION('',(0.0,0.0,1.0));
#497=DIRECTION('',(0.707106781186546,0.707106781186549,0.0));
#498=AXIS2_PLACEMENT_3D('',#495,#496,#497);
#499=CYLINDRICAL_SURFACE('',#498,0.1);
#500=CARTESIAN_POINT('',(2.249999999999997,1.65,0.1));
#501=VERTEX_POINT('',#500);
#502=CARTESIAN_POINT('',(2.149999999999998,1.75,0.1));
#503=VERTEX_POINT('',#502);
#504=CARTESIAN_POINT('',(2.149999999999998,1.65,0.1));
#505=DIRECTION('',(0.0,0.0,1.0));
#506=DIRECTION('',(0.707106781186546,0.707106781186549,0.0));
#507=AXIS2_PLACEMENT_3D('',#504,#505,#506);
#508=CIRCLE('',#507,0.1);
#509=EDGE_CURVE('',#501,#503,#508,.T.);
#510=ORIENTED_EDGE('',*,*,#509,.T.);
#511=CARTESIAN_POINT('',(2.149999999999998,1.75,0.1));
#512=DIRECTION('',(0.0,0.0,1.0));
#513=VECTOR('',#512,3.2);
#514=LINE('',#511,#513);
#515=EDGE_CURVE('',#503,#268,#514,.T.);
#516=ORIENTED_EDGE('',*,*,#515,.T.);
#517=ORIENTED_EDGE('',*,*,#274,.F.);
#518=CARTESIAN_POINT('',(2.249999999999997,1.65,3.3));
#519=DIRECTION('',(0.0,0.0,-1.0));
#520=VECTOR('',#519,3.2);
#521=LINE('',#518,#520);
#522=EDGE_CURVE('',#266,#501,#521,.T.);
#523=ORIENTED_EDGE('',*,*,#522,.T.);
#524=EDGE_LOOP('',(#510,#516,#517,#523));
#525=FACE_OUTER_BOUND('',#524,.T.);
#526=ADVANCED_FACE('',(#525),#499,.T.);
#527=CARTESIAN_POINT('',(2.149999999999997,0.875,3.3));
#528=DIRECTION('',(0.0,-1.0,1.501791E-034));
#529=DIRECTION('',(0.707106781186551,0.0,0.707106781186544));
#530=AXIS2_PLACEMENT_3D('',#527,#528,#529);
#531=CYLINDRICAL_SURFACE('',#530,0.1);
#532=ORIENTED_EDGE('',*,*,#248,.T.);
#533=CARTESIAN_POINT('',(2.249999999999997,-1.65,3.3));
#534=DIRECTION('',(0.0,1.0,0.0));
#535=VECTOR('',#534,3.3);
#536=LINE('',#533,#535);
#537=EDGE_CURVE('',#233,#266,#536,.T.);
#538=ORIENTED_EDGE('',*,*,#537,.T.);
#539=ORIENTED_EDGE('',*,*,#290,.F.);
#540=CARTESIAN_POINT('',(2.149999999999997,1.65,3.4));
#541=DIRECTION('',(0.0,-1.0,0.0));
#542=VECTOR('',#541,3.3);
#543=LINE('',#540,#542);
#544=EDGE_CURVE('',#277,#242,#543,.T.);
#545=ORIENTED_EDGE('',*,*,#544,.T.);
#546=EDGE_LOOP('',(#532,#538,#539,#545));
#547=FACE_OUTER_BOUND('',#546,.T.);
#548=ADVANCED_FACE('',(#547),#531,.T.);
#549=CARTESIAN_POINT('',(2.149999999999997,-1.65,0.1));
#550=DIRECTION('',(0.0,0.0,1.0));
#551=DIRECTION('',(0.707106781186549,-0.707106781186546,0.0));
#552=AXIS2_PLACEMENT_3D('',#549,#550,#551);
#553=CYLINDRICAL_SURFACE('',#552,0.1);
#554=CARTESIAN_POINT('',(2.149999999999997,-1.75,0.1));
#555=VERTEX_POINT('',#554);
#556=CARTESIAN_POINT('',(2.249999999999997,-1.65,0.1));
#557=VERTEX_POINT('',#556);
#558=CARTESIAN_POINT('',(2.149999999999997,-1.65,0.1));
#559=DIRECTION('',(0.0,0.0,1.0));
#560=DIRECTION('',(0.707106781186549,-0.707106781186546,0.0));
#561=AXIS2_PLACEMENT_3D('',#558,#559,#560);
#562=CIRCLE('',#561,0.1);
#563=EDGE_CURVE('',#555,#557,#562,.T.);
#564=ORIENTED_EDGE('',*,*,#563,.T.);
#565=CARTESIAN_POINT('',(2.249999999999997,-1.65,0.1));
#566=DIRECTION('',(0.0,0.0,1.0));
#567=VECTOR('',#566,3.2);
#568=LINE('',#565,#567);
#569=EDGE_CURVE('',#557,#233,#568,.T.);
#570=ORIENTED_EDGE('',*,*,#569,.T.);
#571=ORIENTED_EDGE('',*,*,#239,.F.);
#572=CARTESIAN_POINT('',(2.149999999999997,-1.75,3.3));
#573=DIRECTION('',(0.0,0.0,-1.0));
#574=VECTOR('',#573,3.2);
#575=LINE('',#572,#574);
#576=EDGE_CURVE('',#231,#555,#575,.T.);
#577=ORIENTED_EDGE('',*,*,#576,.T.);
#578=EDGE_LOOP('',(#564,#570,#571,#577));
#579=FACE_OUTER_BOUND('',#578,.T.);
#580=ADVANCED_FACE('',(#579),#553,.T.);
#581=CARTESIAN_POINT('',(-2.250000000000003,-1.75,0.1));
#582=DIRECTION('',(-1.0,0.0,0.0));
#583=DIRECTION('',(0.0,0.0,1.0));
#584=AXIS2_PLACEMENT_3D('',#581,#582,#583);
#585=PLANE('',#584);
#586=ORIENTED_EDGE('',*,*,#468,.F.);
#587=ORIENTED_EDGE('',*,*,#407,.F.);
#588=ORIENTED_EDGE('',*,*,#385,.F.);
#589=CARTESIAN_POINT('',(-2.250000000000003,-1.65,0.1));
#590=DIRECTION('',(0.0,1.0,0.0));
#591=VECTOR('',#590,3.3);
#592=LINE('',#589,#591);
#593=EDGE_CURVE('',#447,#373,#592,.T.);
#594=ORIENTED_EDGE('',*,*,#593,.F.);
#595=EDGE_LOOP('',(#586,#587,#588,#594));
#596=FACE_OUTER_BOUND('',#595,.T.);
#597=ADVANCED_FACE('',(#596),#585,.T.);
#598=CARTESIAN_POINT('',(-2.250000000000003,1.75,0.1));
#599=DIRECTION('',(0.0,1.0,0.0));
#600=DIRECTION('',(0.0,0.0,1.0));
#601=AXIS2_PLACEMENT_3D('',#598,#599,#600);
#602=PLANE('',#601);
#603=ORIENTED_EDGE('',*,*,#392,.F.);
#604=ORIENTED_EDGE('',*,*,#429,.F.);
#605=ORIENTED_EDGE('',*,*,#515,.F.);
#606=CARTESIAN_POINT('',(-2.150000000000003,1.75,0.1));
#607=DIRECTION('',(1.0,0.0,0.0));
#608=VECTOR('',#607,4.300000000000001);
#609=LINE('',#606,#608);
#610=EDGE_CURVE('',#371,#503,#609,.T.);
#611=ORIENTED_EDGE('',*,*,#610,.F.);
#612=EDGE_LOOP('',(#603,#604,#605,#611));
#613=FACE_OUTER_BOUND('',#612,.T.);
#614=ADVANCED_FACE('',(#613),#602,.T.);
#615=CARTESIAN_POINT('',(-2.664535E-015,0.0,3.4));
#616=DIRECTION('',(0.0,0.0,1.0));
#617=DIRECTION('',(1.0,0.0,0.0));
#618=AXIS2_PLACEMENT_3D('',#615,#616,#617);
#619=PLANE('',#618);
#620=ORIENTED_EDGE('',*,*,#414,.F.);
#621=ORIENTED_EDGE('',*,*,#490,.F.);
#622=ORIENTED_EDGE('',*,*,#544,.F.);
#623=ORIENTED_EDGE('',*,*,#436,.F.);
#624=EDGE_LOOP('',(#620,#621,#622,#623));
#625=FACE_OUTER_BOUND('',#624,.T.);
#626=ADVANCED_FACE('',(#625),#619,.T.);
#627=CARTESIAN_POINT('',(2.249999999999997,1.75,0.1));
#628=DIRECTION('',(1.0,0.0,0.0));
#629=DIRECTION('',(0.0,0.0,-1.0));
#630=AXIS2_PLACEMENT_3D('',#627,#628,#629);
#631=PLANE('',#630);
#632=ORIENTED_EDGE('',*,*,#569,.F.);
#633=CARTESIAN_POINT('',(2.249999999999997,1.65,0.1));
#634=DIRECTION('',(0.0,-1.0,0.0));
#635=VECTOR('',#634,3.3);
#636=LINE('',#633,#635);
#637=EDGE_CURVE('',#501,#557,#636,.T.);
#638=ORIENTED_EDGE('',*,*,#637,.F.);
#639=ORIENTED_EDGE('',*,*,#522,.F.);
#640=ORIENTED_EDGE('',*,*,#537,.F.);
#641=EDGE_LOOP('',(#632,#638,#639,#640));
#642=FACE_OUTER_BOUND('',#641,.T.);
#643=ADVANCED_FACE('',(#642),#631,.T.);
#644=CARTESIAN_POINT('',(2.249999999999997,-1.75,0.1));
#645=DIRECTION('',(0.0,-1.0,0.0));
#646=DIRECTION('',(0.0,0.0,-1.0));
#647=AXIS2_PLACEMENT_3D('',#644,#645,#646);
#648=PLANE('',#647);
#649=ORIENTED_EDGE('',*,*,#461,.F.);
#650=CARTESIAN_POINT('',(2.149999999999997,-1.75,0.1));
#651=DIRECTION('',(-1.0,0.0,0.0));
#652=VECTOR('',#651,4.300000000000001);
#653=LINE('',#650,#652);
#654=EDGE_CURVE('',#555,#449,#653,.T.);
#655=ORIENTED_EDGE('',*,*,#654,.F.);
#656=ORIENTED_EDGE('',*,*,#576,.F.);
#657=ORIENTED_EDGE('',*,*,#483,.F.);
#658=EDGE_LOOP('',(#649,#655,#656,#657));
#659=FACE_OUTER_BOUND('',#658,.T.);
#660=ADVANCED_FACE('',(#659),#648,.T.);
#661=CARTESIAN_POINT('',(-2.664535E-015,0.0,0.1));
#662=DIRECTION('',(0.0,0.0,1.0));
#663=DIRECTION('',(1.0,0.0,0.0));
#664=AXIS2_PLACEMENT_3D('',#661,#662,#663);
#665=PLANE('',#664);
#666=ORIENTED_EDGE('',*,*,#455,.F.);
#667=ORIENTED_EDGE('',*,*,#593,.T.);
#668=ORIENTED_EDGE('',*,*,#379,.F.);
#669=ORIENTED_EDGE('',*,*,#610,.T.);
#670=ORIENTED_EDGE('',*,*,#509,.F.);
#671=ORIENTED_EDGE('',*,*,#637,.T.);
#672=ORIENTED_EDGE('',*,*,#563,.F.);
#673=ORIENTED_EDGE('',*,*,#654,.T.);
#674=EDGE_LOOP('',(#666,#667,#668,#669,#670,#671,#672,#673));
#675=FACE_OUTER_BOUND('',#674,.T.);
#676=ADVANCED_FACE('',(#675),#665,.F.);
#677=CLOSED_SHELL('',(#259,#294,#329,#364,#396,#418,#440,#472,#494,#526,#548,#580,#597,#614,#626,#643,#660,#676));
#678=MANIFOLD_SOLID_BREP('2CE3',#677);
#679=STYLED_ITEM('NONE',(#221),#678);
#680=CARTESIAN_POINT('',(-2.299999999999999,0.675000000000001,0.75));
#681=DIRECTION('',(3.584136E-016,1.0,1.902380E-032));
#682=DIRECTION('',(-0.707106781186546,0.0,0.707106781186549));
#683=AXIS2_PLACEMENT_3D('',#680,#681,#682);
#684=CYLINDRICAL_SURFACE('',#683,0.05);
#685=CARTESIAN_POINT('',(-2.299999999999998,1.350000000000001,0.8));
#686=VERTEX_POINT('',#685);
#687=CARTESIAN_POINT('',(-2.349999999999999,1.350000000000001,0.75));
#688=VERTEX_POINT('',#687);
#689=CARTESIAN_POINT('',(-2.299999999999998,1.350000000000001,0.75));
#690=DIRECTION('',(0.0,-1.0,0.0));
#691=DIRECTION('',(-0.707106781186546,0.0,0.707106781186549));
#692=AXIS2_PLACEMENT_3D('',#689,#690,#691);
#693=CIRCLE('',#692,0.05);
#694=EDGE_CURVE('',#686,#688,#693,.T.);
#695=ORIENTED_EDGE('',*,*,#694,.T.);
#696=CARTESIAN_POINT('',(-2.35,-1.35,0.75));
#697=VERTEX_POINT('',#696);
#698=CARTESIAN_POINT('',(-2.349999999999998,1.350000000000001,0.75));
#699=DIRECTION('',(0.0,-1.0,0.0));
#700=VECTOR('',#699,2.7);
#701=LINE('',#698,#700);
#702=EDGE_CURVE('',#688,#697,#701,.T.);
#703=ORIENTED_EDGE('',*,*,#702,.T.);
#704=CARTESIAN_POINT('',(-2.299999999999999,-1.35,0.8));
#705=VERTEX_POINT('',#704);
#706=CARTESIAN_POINT('',(-2.299999999999999,-1.35,0.75));
#707=DIRECTION('',(0.0,1.0,0.0));
#708=DIRECTION('',(-0.707106781186546,0.0,0.707106781186549));
#709=AXIS2_PLACEMENT_3D('',#706,#707,#708);
#710=CIRCLE('',#709,0.05);
#711=EDGE_CURVE('',#697,#705,#710,.T.);
#712=ORIENTED_EDGE('',*,*,#711,.T.);
#713=CARTESIAN_POINT('',(-2.299999999999999,-1.35,0.8));
#714=DIRECTION('',(0.0,1.0,0.0));
#715=VECTOR('',#714,2.7);
#716=LINE('',#713,#715);
#717=EDGE_CURVE('',#705,#686,#716,.T.);
#718=ORIENTED_EDGE('',*,*,#717,.T.);
#719=EDGE_LOOP('',(#695,#703,#712,#718));
#720=FACE_OUTER_BOUND('',#719,.T.);
#721=ADVANCED_FACE('',(#720),#684,.T.);
#722=CARTESIAN_POINT('',(-2.249999999999999,1.350000000000001,0.8));
#723=CARTESIAN_POINT('',(-2.299999999999999,1.350000000000001,0.8));
#724=CARTESIAN_POINT('',(-2.249999999999999,-1.349999999999999,0.8));
#725=CARTESIAN_POINT('',(-2.299999999999999,-1.349999999999999,0.8));
#726=B_SPLINE_SURFACE_WITH_KNOTS('',1,1,((#722,#724),(#723,#725)),.UNSPECIFIED.,.F.,.F.,.U.,(2,2),(2,2),(0.0,0.050000000000001),(0.0,2.7),.UNSPECIFIED.);
#727=ORIENTED_EDGE('',*,*,#717,.F.);
#728=CARTESIAN_POINT('',(-2.25,-1.35,0.8));
#729=VERTEX_POINT('',#728);
#730=CARTESIAN_POINT('',(-2.299999999999999,-1.35,0.8));
#731=DIRECTION('',(1.0,0.0,0.0));
#732=VECTOR('',#731,0.049999999999999);
#733=LINE('',#730,#732);
#734=EDGE_CURVE('',#705,#729,#733,.T.);
#735=ORIENTED_EDGE('',*,*,#734,.T.);
#736=CARTESIAN_POINT('',(-2.249999999999999,1.350000000000001,0.8));
#737=VERTEX_POINT('',#736);
#738=CARTESIAN_POINT('',(-2.249999999999999,1.350000000000001,0.8));
#739=DIRECTION('',(0.0,-1.0,0.0));
#740=VECTOR('',#739,2.7);
#741=LINE('',#738,#740);
#742=EDGE_CURVE('',#737,#729,#741,.T.);
#743=ORIENTED_EDGE('',*,*,#742,.F.);
#744=CARTESIAN_POINT('',(-2.299999999999998,1.350000000000001,0.8));
#745=DIRECTION('',(1.0,0.0,0.0));
#746=VECTOR('',#745,0.049999999999999);
#747=LINE('',#744,#746);
#748=EDGE_CURVE('',#686,#737,#747,.T.);
#749=ORIENTED_EDGE('',*,*,#748,.F.);
#750=EDGE_LOOP('',(#727,#735,#743,#749));
#751=FACE_OUTER_BOUND('',#750,.T.);
#752=ADVANCED_FACE('',(#751),#726,.T.);
#753=CARTESIAN_POINT('',(-2.35,-1.35,0.8));
#754=CARTESIAN_POINT('',(-2.35,-1.35,-1.110223E-016));
#755=CARTESIAN_POINT('',(-1.75,-1.35,0.8));
#756=CARTESIAN_POINT('',(-1.75,-1.35,-1.110223E-016));
#757=B_SPLINE_SURFACE_WITH_KNOTS('',1,1,((#753,#755),(#754,#756)),.UNSPECIFIED.,.F.,.F.,.U.,(2,2),(2,2),(0.0,0.8),(0.0,0.6),.UNSPECIFIED.);
#758=ORIENTED_EDGE('',*,*,#711,.F.);
#759=CARTESIAN_POINT('',(-2.35,-1.35,0.05));
#760=VERTEX_POINT('',#759);
#761=CARTESIAN_POINT('',(-2.35,-1.35,0.05));
#762=DIRECTION('',(0.0,0.0,1.0));
#763=VECTOR('',#762,0.7);
#764=LINE('',#761,#763);
#765=EDGE_CURVE('',#760,#697,#764,.T.);
#766=ORIENTED_EDGE('',*,*,#765,.F.);
#767=CARTESIAN_POINT('',(-2.3,-1.35,-1.110223E-017));
#768=VERTEX_POINT('',#767);
#769=CARTESIAN_POINT('',(-2.3,-1.35,0.05));
#770=DIRECTION('',(0.0,1.0,0.0));
#771=DIRECTION('',(-0.707106781186546,0.0,-0.707106781186549));
#772=AXIS2_PLACEMENT_3D('',#769,#770,#771);
#773=CIRCLE('',#772,0.05);
#774=EDGE_CURVE('',#768,#760,#773,.T.);
#775=ORIENTED_EDGE('',*,*,#774,.F.);
#776=CARTESIAN_POINT('',(-1.75,-1.35,0.0));
#777=VERTEX_POINT('',#776);
#778=CARTESIAN_POINT('',(-2.3,-1.35,-1.110223E-017));
#779=DIRECTION('',(1.0,0.0,0.0));
#780=VECTOR('',#779,0.55);
#781=LINE('',#778,#780);
#782=EDGE_CURVE('',#768,#777,#781,.T.);
#783=ORIENTED_EDGE('',*,*,#782,.T.);
#784=CARTESIAN_POINT('',(-1.75,-1.35,0.1));
#785=VERTEX_POINT('',#784);
#786=CARTESIAN_POINT('',(-1.75,-1.35,0.0));
#787=DIRECTION('',(0.0,0.0,1.0));
#788=VECTOR('',#787,0.1);
#789=LINE('',#786,#788);
#790=EDGE_CURVE('',#777,#785,#789,.T.);
#791=ORIENTED_EDGE('',*,*,#790,.T.);
#792=CARTESIAN_POINT('',(-2.25,-1.35,0.1));
#793=VERTEX_POINT('',#792);
#794=CARTESIAN_POINT('',(-2.25,-1.35,0.1));
#795=DIRECTION('',(1.0,0.0,0.0));
#796=VECTOR('',#795,0.5);
#797=LINE('',#794,#796);
#798=EDGE_CURVE('',#793,#785,#797,.T.);
#799=ORIENTED_EDGE('',*,*,#798,.F.);
#800=CARTESIAN_POINT('',(-2.25,-1.35,0.8));
#801=DIRECTION('',(0.0,0.0,-1.0));
#802=VECTOR('',#801,0.7);
#803=LINE('',#800,#802);
#804=EDGE_CURVE('',#729,#793,#803,.T.);
#805=ORIENTED_EDGE('',*,*,#804,.F.);
#806=ORIENTED_EDGE('',*,*,#734,.F.);
#807=EDGE_LOOP('',(#758,#766,#775,#783,#791,#799,#805,#806));
#808=FACE_OUTER_BOUND('',#807,.T.);
#809=ADVANCED_FACE('',(#808),#757,.T.);
#810=CARTESIAN_POINT('',(-2.299999999999999,-0.675,0.05));
#811=DIRECTION('',(-3.584136E-016,-1.0,1.270616E-031));
#812=DIRECTION('',(-0.707106781186546,0.0,-0.707106781186549));
#813=AXIS2_PLACEMENT_3D('',#810,#811,#812);
#814=CYLINDRICAL_SURFACE('',#813,0.05);
#815=ORIENTED_EDGE('',*,*,#774,.T.);
#816=CARTESIAN_POINT('',(-2.349999999999999,1.350000000000001,0.05));
#817=VERTEX_POINT('',#816);
#818=CARTESIAN_POINT('',(-2.35,-1.35,0.05));
#819=DIRECTION('',(0.0,1.0,0.0));
#820=VECTOR('',#819,2.7);
#821=LINE('',#818,#820);
#822=EDGE_CURVE('',#760,#817,#821,.T.);
#823=ORIENTED_EDGE('',*,*,#822,.T.);
#824=CARTESIAN_POINT('',(-2.299999999999999,1.350000000000001,-1.110223E-017));
#825=VERTEX_POINT('',#824);
#826=CARTESIAN_POINT('',(-2.299999999999999,1.350000000000001,0.05));
#827=DIRECTION('',(0.0,-1.0,0.0));
#828=DIRECTION('',(-0.707106781186546,0.0,-0.707106781186549));
#829=AXIS2_PLACEMENT_3D('',#826,#827,#828);
#830=CIRCLE('',#829,0.05);
#831=EDGE_CURVE('',#817,#825,#830,.T.);
#832=ORIENTED_EDGE('',*,*,#831,.T.);
#833=CARTESIAN_POINT('',(-2.299999999999999,1.350000000000001,-1.387779E-017));
#834=DIRECTION('',(0.0,-1.0,0.0));
#835=VECTOR('',#834,2.7);
#836=LINE('',#833,#835);
#837=EDGE_CURVE('',#825,#768,#836,.T.);
#838=ORIENTED_EDGE('',*,*,#837,.T.);
#839=EDGE_LOOP('',(#815,#823,#832,#838));
#840=FACE_OUTER_BOUND('',#839,.T.);
#841=ADVANCED_FACE('',(#840),#814,.T.);
#842=CARTESIAN_POINT('',(-2.3,1.350000000000001,-1.110223E-017));
#843=CARTESIAN_POINT('',(-1.75,1.350000000000001,-1.332268E-016));
#844=CARTESIAN_POINT('',(-2.3,-1.35,-1.110223E-017));
#845=CARTESIAN_POINT('',(-1.75,-1.35,-1.332268E-016));
#846=B_SPLINE_SURFACE_WITH_KNOTS('',1,1,((#842,#844),(#843,#845)),.UNSPECIFIED.,.F.,.F.,.U.,(2,2),(2,2),(0.0,0.55),(0.0,2.700000000000001),.UNSPECIFIED.);
#847=ORIENTED_EDGE('',*,*,#837,.F.);
#848=CARTESIAN_POINT('',(-1.75,1.35,0.0));
#849=VERTEX_POINT('',#848);
#850=CARTESIAN_POINT('',(-2.299999999999999,1.350000000000001,-1.110223E-017));
#851=DIRECTION('',(1.0,0.0,0.0));
#852=VECTOR('',#851,0.549999999999998);
#853=LINE('',#850,#852);
#854=EDGE_CURVE('',#825,#849,#853,.T.);
#855=ORIENTED_EDGE('',*,*,#854,.T.);
#856=CARTESIAN_POINT('',(-1.75,-1.35,0.0));
#857=DIRECTION('',(0.0,1.0,0.0));
#858=VECTOR('',#857,2.7);
#859=LINE('',#856,#858);
#860=EDGE_CURVE('',#777,#849,#859,.T.);
#861=ORIENTED_EDGE('',*,*,#860,.F.);
#862=ORIENTED_EDGE('',*,*,#782,.F.);
#863=EDGE_LOOP('',(#847,#855,#861,#862));
#864=FACE_OUTER_BOUND('',#863,.T.);
#865=ADVANCED_FACE('',(#864),#846,.T.);
#866=CARTESIAN_POINT('',(-2.349999999999999,1.350000000000001,-1.332268E-016));
#867=CARTESIAN_POINT('',(-2.349999999999999,1.350000000000001,0.8));
#868=CARTESIAN_POINT('',(-1.75,1.350000000000001,-1.332268E-016));
#869=CARTESIAN_POINT('',(-1.75,1.350000000000001,0.8));
#870=B_SPLINE_SURFACE_WITH_KNOTS('',1,1,((#866,#868),(#867,#869)),.UNSPECIFIED.,.F.,.F.,.U.,(2,2),(2,2),(0.0,0.8),(0.0,0.599999999999999),.UNSPECIFIED.);
#871=ORIENTED_EDGE('',*,*,#694,.F.);
#872=ORIENTED_EDGE('',*,*,#748,.T.);
#873=CARTESIAN_POINT('',(-2.25,1.350000000000001,0.1));
#874=VERTEX_POINT('',#873);
#875=CARTESIAN_POINT('',(-2.249999999999999,1.350000000000001,0.1));
#876=DIRECTION('',(0.0,0.0,1.0));
#877=VECTOR('',#876,0.7);
#878=LINE('',#875,#877);
#879=EDGE_CURVE('',#874,#737,#878,.T.);
#880=ORIENTED_EDGE('',*,*,#879,.F.);
#881=CARTESIAN_POINT('',(-1.75,1.35,0.1));
#882=VERTEX_POINT('',#881);
#883=CARTESIAN_POINT('',(-1.75,1.35,0.1));
#884=DIRECTION('',(-1.0,0.0,0.0));
#885=VECTOR('',#884,0.5);
#886=LINE('',#883,#885);
#887=EDGE_CURVE('',#882,#874,#886,.T.);
#888=ORIENTED_EDGE('',*,*,#887,.F.);
#889=CARTESIAN_POINT('',(-1.75,1.35,0.0));
#890=DIRECTION('',(0.0,0.0,1.0));
#891=VECTOR('',#890,0.1);
#892=LINE('',#889,#891);
#893=EDGE_CURVE('',#849,#882,#892,.T.);
#894=ORIENTED_EDGE('',*,*,#893,.F.);
#895=ORIENTED_EDGE('',*,*,#854,.F.);
#896=ORIENTED_EDGE('',*,*,#831,.F.);
#897=CARTESIAN_POINT('',(-2.349999999999999,1.350000000000001,0.75));
#898=DIRECTION('',(0.0,0.0,-1.0));
#899=VECTOR('',#898,0.7);
#900=LINE('',#897,#899);
#901=EDGE_CURVE('',#688,#817,#900,.T.);
#902=ORIENTED_EDGE('',*,*,#901,.F.);
#903=EDGE_LOOP('',(#871,#872,#880,#888,#894,#895,#896,#902));
#904=FACE_OUTER_BOUND('',#903,.T.);
#905=ADVANCED_FACE('',(#904),#870,.T.);
#906=CARTESIAN_POINT('',(-1.75,1.35,0.0));
#907=CARTESIAN_POINT('',(-1.75,1.35,0.1));
#908=CARTESIAN_POINT('',(-1.75,-1.35,0.0));
#909=CARTESIAN_POINT('',(-1.75,-1.35,0.1));
#910=B_SPLINE_SURFACE_WITH_KNOTS('',1,1,((#906,#908),(#907,#909)),.UNSPECIFIED.,.F.,.F.,.U.,(2,2),(2,2),(0.0,0.1),(0.0,2.7),.UNSPECIFIED.);
#911=CARTESIAN_POINT('',(-1.75,-1.35,0.1));
#912=DIRECTION('',(0.0,1.0,0.0));
#913=VECTOR('',#912,2.7);
#914=LINE('',#911,#913);
#915=EDGE_CURVE('',#785,#882,#914,.T.);
#916=ORIENTED_EDGE('',*,*,#915,.F.);
#917=ORIENTED_EDGE('',*,*,#790,.F.);
#918=ORIENTED_EDGE('',*,*,#860,.T.);
#919=ORIENTED_EDGE('',*,*,#893,.T.);
#920=EDGE_LOOP('',(#916,#917,#918,#919));
#921=FACE_OUTER_BOUND('',#920,.T.);
#922=ADVANCED_FACE('',(#921),#910,.T.);
#923=CARTESIAN_POINT('',(-1.75,1.350000000000001,0.1));
#924=CARTESIAN_POINT('',(-2.25,1.350000000000001,0.1));
#925=CARTESIAN_POINT('',(-1.75,-1.349999999999999,0.1));
#926=CARTESIAN_POINT('',(-2.25,-1.349999999999999,0.1));
#927=B_SPLINE_SURFACE_WITH_KNOTS('',1,1,((#923,#925),(#924,#926)),.UNSPECIFIED.,.F.,.F.,.U.,(2,2),(2,2),(0.0,0.5),(0.0,2.7),.UNSPECIFIED.);
#928=CARTESIAN_POINT('',(-2.25,-1.35,0.1));
#929=DIRECTION('',(0.0,1.0,0.0));
#930=VECTOR('',#929,2.7);
#931=LINE('',#928,#930);
#932=EDGE_CURVE('',#793,#874,#931,.T.);
#933=ORIENTED_EDGE('',*,*,#932,.F.);
#934=ORIENTED_EDGE('',*,*,#798,.T.);
#935=ORIENTED_EDGE('',*,*,#915,.T.);
#936=ORIENTED_EDGE('',*,*,#887,.T.);
#937=EDGE_LOOP('',(#933,#934,#935,#936));
#938=FACE_OUTER_BOUND('',#937,.T.);
#939=ADVANCED_FACE('',(#938),#927,.T.);
#940=CARTESIAN_POINT('',(-2.25,1.350000000000001,0.8));
#941=CARTESIAN_POINT('',(-2.25,1.350000000000001,0.1));
#942=CARTESIAN_POINT('',(-2.25,-1.35,0.8));
#943=CARTESIAN_POINT('',(-2.25,-1.35,0.1));
#944=B_SPLINE_SURFACE_WITH_KNOTS('',1,1,((#940,#942),(#941,#943)),.UNSPECIFIED.,.F.,.F.,.U.,(2,2),(2,2),(0.0,0.7),(0.0,2.700000000000001),.UNSPECIFIED.);
#945=ORIENTED_EDGE('',*,*,#932,.T.);
#946=ORIENTED_EDGE('',*,*,#879,.T.);
#947=ORIENTED_EDGE('',*,*,#742,.T.);
#948=ORIENTED_EDGE('',*,*,#804,.T.);
#949=EDGE_LOOP('',(#945,#946,#947,#948));
#950=FACE_OUTER_BOUND('',#949,.T.);
#951=ADVANCED_FACE('',(#950),#944,.F.);
#952=CARTESIAN_POINT('',(-2.349999999999998,1.350000000000001,0.75));
#953=CARTESIAN_POINT('',(-2.349999999999998,1.350000000000001,0.05));
#954=CARTESIAN_POINT('',(-2.349999999999999,-1.35,0.75));
#955=CARTESIAN_POINT('',(-2.349999999999999,-1.35,0.05));
#956=B_SPLINE_SURFACE_WITH_KNOTS('',1,1,((#952,#954),(#953,#955)),.UNSPECIFIED.,.F.,.F.,.U.,(2,2),(2,2),(0.0,0.7),(0.0,2.700000000000001),.UNSPECIFIED.);
#957=ORIENTED_EDGE('',*,*,#702,.F.);
#958=ORIENTED_EDGE('',*,*,#901,.T.);
#959=ORIENTED_EDGE('',*,*,#822,.F.);
#960=ORIENTED_EDGE('',*,*,#765,.T.);
#961=EDGE_LOOP('',(#957,#958,#959,#960));
#962=FACE_OUTER_BOUND('',#961,.T.);
#963=ADVANCED_FACE('',(#962),#956,.T.);
#964=CLOSED_SHELL('',(#721,#752,#809,#841,#865,#905,#922,#939,#951,#963));
#965=MANIFOLD_SOLID_BREP('2CD2',#964);
#966=COLOUR_RGB('254',0.866,0.866,0.866);
#967=SURFACE_STYLE_USAGE(.BOTH.,#968);
#968=SURFACE_SIDE_STYLE('NONE',(#969));
#969=SURFACE_STYLE_FILL_AREA(#970);
#970=FILL_AREA_STYLE('NONE',(#971));
#971=FILL_AREA_STYLE_COLOUR('NONE',#966);
#972=PRESENTATION_STYLE_ASSIGNMENT((#967));
#973=STYLED_ITEM('NONE',(#972),#965);
#974=CARTESIAN_POINT('',(2.300000000000001,0.675000000000001,0.75));
#975=DIRECTION('',(-3.584136E-016,1.0,1.902380E-032));
#976=DIRECTION('',(0.707106781186546,0.0,0.707106781186549));
#977=AXIS2_PLACEMENT_3D('',#974,#975,#976);
#978=CYLINDRICAL_SURFACE('',#977,0.05);
#979=CARTESIAN_POINT('',(2.35,1.350000000000001,0.75));
#980=VERTEX_POINT('',#979);
#981=CARTESIAN_POINT('',(2.300000000000001,1.350000000000001,0.8));
#982=VERTEX_POINT('',#981);
#983=CARTESIAN_POINT('',(2.300000000000001,1.350000000000001,0.75));
#984=DIRECTION('',(0.0,-1.0,0.0));
#985=DIRECTION('',(0.707106781186546,0.0,0.707106781186549));
#986=AXIS2_PLACEMENT_3D('',#983,#984,#985);
#987=CIRCLE('',#986,0.05);
#988=EDGE_CURVE('',#980,#982,#987,.T.);
#989=ORIENTED_EDGE('',*,*,#988,.T.);
#990=CARTESIAN_POINT('',(2.300000000000002,-1.35,0.8));
#991=VERTEX_POINT('',#990);
#992=CARTESIAN_POINT('',(2.300000000000001,1.350000000000001,0.8));
#993=DIRECTION('',(0.0,-1.0,0.0));
#994=VECTOR('',#993,2.7);
#995=LINE('',#992,#994);
#996=EDGE_CURVE('',#982,#991,#995,.T.);
#997=ORIENTED_EDGE('',*,*,#996,.T.);
#998=CARTESIAN_POINT('',(2.350000000000001,-1.35,0.75));
#999=VERTEX_POINT('',#998);
#1000=CARTESIAN_POINT('',(2.300000000000002,-1.35,0.75));
#1001=DIRECTION('',(0.0,1.0,0.0));
#1002=DIRECTION('',(0.707106781186546,0.0,0.707106781186549));
#1003=AXIS2_PLACEMENT_3D('',#1000,#1001,#1002);
#1004=CIRCLE('',#1003,0.05);
#1005=EDGE_CURVE('',#991,#999,#1004,.T.);
#1006=ORIENTED_EDGE('',*,*,#1005,.T.);
#1007=CARTESIAN_POINT('',(2.350000000000002,-1.35,0.75));
#1008=DIRECTION('',(0.0,1.0,0.0));
#1009=VECTOR('',#1008,2.7);
#1010=LINE('',#1007,#1009);
#1011=EDGE_CURVE('',#999,#980,#1010,.T.);
#1012=ORIENTED_EDGE('',*,*,#1011,.T.);
#1013=EDGE_LOOP('',(#989,#997,#1006,#1012));
#1014=FACE_OUTER_BOUND('',#1013,.T.);
#1015=ADVANCED_FACE('',(#1014),#978,.T.);
#1016=CARTESIAN_POINT('',(2.350000000000001,4.440892E-016,0.4));
#1017=DIRECTION('',(1.0,0.0,0.0));
#1018=DIRECTION('',(0.0,0.0,-1.0));
#1019=AXIS2_PLACEMENT_3D('',#1016,#1017,#1018);
#1020=PLANE('',#1019);
#1021=ORIENTED_EDGE('',*,*,#1011,.F.);
#1022=CARTESIAN_POINT('',(2.350000000000001,-1.35,0.05));
#1023=VERTEX_POINT('',#1022);
#1024=CARTESIAN_POINT('',(2.350000000000001,-1.35,0.05));
#1025=DIRECTION('',(0.0,0.0,1.0));
#1026=VECTOR('',#1025,0.7);
#1027=LINE('',#1024,#1026);
#1028=EDGE_CURVE('',#1023,#999,#1027,.T.);
#1029=ORIENTED_EDGE('',*,*,#1028,.F.);
#1030=CARTESIAN_POINT('',(2.35,1.350000000000001,0.05));
#1031=VERTEX_POINT('',#1030);
#1032=CARTESIAN_POINT('',(2.350000000000001,1.350000000000001,0.05));
#1033=DIRECTION('',(0.0,-1.0,0.0));
#1034=VECTOR('',#1033,2.7);
#1035=LINE('',#1032,#1034);
#1036=EDGE_CURVE('',#1031,#1023,#1035,.T.);
#1037=ORIENTED_EDGE('',*,*,#1036,.F.);
#1038=CARTESIAN_POINT('',(2.35,1.350000000000001,0.75));
#1039=DIRECTION('',(0.0,0.0,-1.0));
#1040=VECTOR('',#1039,0.7);
#1041=LINE('',#1038,#1040);
#1042=EDGE_CURVE('',#980,#1031,#1041,.T.);
#1043=ORIENTED_EDGE('',*,*,#1042,.F.);
#1044=EDGE_LOOP('',(#1021,#1029,#1037,#1043));
#1045=FACE_OUTER_BOUND('',#1044,.T.);
#1046=ADVANCED_FACE('',(#1045),#1020,.T.);
#1047=CARTESIAN_POINT('',(2.350000000000001,-1.35,0.8));
#1048=DIRECTION('',(0.0,-1.0,0.0));
#1049=DIRECTION('',(0.0,0.0,-1.0));
#1050=AXIS2_PLACEMENT_3D('',#1047,#1048,#1049);
#1051=PLANE('',#1050);
#1052=ORIENTED_EDGE('',*,*,#1005,.F.);
#1053=CARTESIAN_POINT('',(2.250000000000002,-1.35,0.8));
#1054=VERTEX_POINT('',#1053);
#1055=CARTESIAN_POINT('',(2.300000000000002,-1.35,0.8));
#1056=DIRECTION('',(-1.0,0.0,0.0));
#1057=VECTOR('',#1056,0.05);
#1058=LINE('',#1055,#1057);
#1059=EDGE_CURVE('',#991,#1054,#1058,.T.);
#1060=ORIENTED_EDGE('',*,*,#1059,.T.);
#1061=CARTESIAN_POINT('',(2.250000000000002,-1.35,0.1));
#1062=VERTEX_POINT('',#1061);
#1063=CARTESIAN_POINT('',(2.250000000000001,-1.35,0.8));
#1064=DIRECTION('',(0.0,0.0,-1.0));
#1065=VECTOR('',#1064,0.7);
#1066=LINE('',#1063,#1065);
#1067=EDGE_CURVE('',#1054,#1062,#1066,.T.);
#1068=ORIENTED_EDGE('',*,*,#1067,.T.);
#1069=CARTESIAN_POINT('',(1.75,-1.35,0.1));
#1070=VERTEX_POINT('',#1069);
#1071=CARTESIAN_POINT('',(2.250000000000002,-1.35,0.1));
#1072=DIRECTION('',(-1.0,0.0,0.0));
#1073=VECTOR('',#1072,0.500000000000002);
#1074=LINE('',#1071,#1073);
#1075=EDGE_CURVE('',#1062,#1070,#1074,.T.);
#1076=ORIENTED_EDGE('',*,*,#1075,.T.);
#1077=CARTESIAN_POINT('',(1.75,-1.35,0.0));
#1078=VERTEX_POINT('',#1077);
#1079=CARTESIAN_POINT('',(1.75,-1.35,0.0));
#1080=DIRECTION('',(0.0,0.0,1.0));
#1081=VECTOR('',#1080,0.1);
#1082=LINE('',#1079,#1081);
#1083=EDGE_CURVE('',#1078,#1070,#1082,.T.);
#1084=ORIENTED_EDGE('',*,*,#1083,.F.);
#1085=CARTESIAN_POINT('',(2.300000000000003,-1.35,-1.110223E-017));
#1086=VERTEX_POINT('',#1085);
#1087=CARTESIAN_POINT('',(2.300000000000003,-1.35,-1.110223E-017));
#1088=DIRECTION('',(-1.0,0.0,0.0));
#1089=VECTOR('',#1088,0.550000000000002);
#1090=LINE('',#1087,#1089);
#1091=EDGE_CURVE('',#1086,#1078,#1090,.T.);
#1092=ORIENTED_EDGE('',*,*,#1091,.F.);
#1093=CARTESIAN_POINT('',(2.300000000000003,-1.35,0.05));
#1094=DIRECTION('',(0.0,1.0,0.0));
#1095=DIRECTION('',(0.707106781186546,0.0,-0.707106781186549));
#1096=AXIS2_PLACEMENT_3D('',#1093,#1094,#1095);
#1097=CIRCLE('',#1096,0.05);
#1098=EDGE_CURVE('',#1023,#1086,#1097,.T.);
#1099=ORIENTED_EDGE('',*,*,#1098,.F.);
#1100=ORIENTED_EDGE('',*,*,#1028,.T.);
#1101=EDGE_LOOP('',(#1052,#1060,#1068,#1076,#1084,#1092,#1099,#1100));
#1102=FACE_OUTER_BOUND('',#1101,.T.);
#1103=ADVANCED_FACE('',(#1102),#1051,.T.);
#1104=CARTESIAN_POINT('',(2.300000000000002,-0.675,0.05));
#1105=DIRECTION('',(3.584136E-016,-1.0,5.401887E-032));
#1106=DIRECTION('',(0.707106781186546,0.0,-0.707106781186549));
#1107=AXIS2_PLACEMENT_3D('',#1104,#1105,#1106);
#1108=CYLINDRICAL_SURFACE('',#1107,0.05);
#1109=ORIENTED_EDGE('',*,*,#1098,.T.);
#1110=CARTESIAN_POINT('',(2.300000000000001,1.350000000000001,-1.110223E-017));
#1111=VERTEX_POINT('',#1110);
#1112=CARTESIAN_POINT('',(2.300000000000003,-1.35,-1.387779E-017));
#1113=DIRECTION('',(0.0,1.0,0.0));
#1114=VECTOR('',#1113,2.7);
#1115=LINE('',#1112,#1114);
#1116=EDGE_CURVE('',#1086,#1111,#1115,.T.);
#1117=ORIENTED_EDGE('',*,*,#1116,.T.);
#1118=CARTESIAN_POINT('',(2.300000000000001,1.350000000000001,0.05));
#1119=DIRECTION('',(0.0,-1.0,0.0));
#1120=DIRECTION('',(0.707106781186546,0.0,-0.707106781186549));
#1121=AXIS2_PLACEMENT_3D('',#1118,#1119,#1120);
#1122=CIRCLE('',#1121,0.05);
#1123=EDGE_CURVE('',#1111,#1031,#1122,.T.);
#1124=ORIENTED_EDGE('',*,*,#1123,.T.);
#1125=ORIENTED_EDGE('',*,*,#1036,.T.);
#1126=EDGE_LOOP('',(#1109,#1117,#1124,#1125));
#1127=FACE_OUTER_BOUND('',#1126,.T.);
#1128=ADVANCED_FACE('',(#1127),#1108,.T.);
#1129=CARTESIAN_POINT('',(2.350000000000001,-1.35,1.972152E-031));
#1130=DIRECTION('',(0.0,0.0,-1.0));
#1131=DIRECTION('',(-1.0,0.0,0.0));
#1132=AXIS2_PLACEMENT_3D('',#1129,#1130,#1131);
#1133=PLANE('',#1132);
#1134=ORIENTED_EDGE('',*,*,#1116,.F.);
#1135=ORIENTED_EDGE('',*,*,#1091,.T.);
#1136=CARTESIAN_POINT('',(1.75,1.35,0.0));
#1137=VERTEX_POINT('',#1136);
#1138=CARTESIAN_POINT('',(1.75,-1.35,0.0));
#1139=DIRECTION('',(0.0,1.0,0.0));
#1140=VECTOR('',#1139,2.7);
#1141=LINE('',#1138,#1140);
#1142=EDGE_CURVE('',#1078,#1137,#1141,.T.);
#1143=ORIENTED_EDGE('',*,*,#1142,.T.);
#1144=CARTESIAN_POINT('',(2.300000000000001,1.350000000000001,-1.110223E-017));
#1145=DIRECTION('',(-1.0,0.0,0.0));
#1146=VECTOR('',#1145,0.550000000000001);
#1147=LINE('',#1144,#1146);
#1148=EDGE_CURVE('',#1111,#1137,#1147,.T.);
#1149=ORIENTED_EDGE('',*,*,#1148,.F.);
#1150=EDGE_LOOP('',(#1134,#1135,#1143,#1149));
#1151=FACE_OUTER_BOUND('',#1150,.T.);
#1152=ADVANCED_FACE('',(#1151),#1133,.T.);
#1153=CARTESIAN_POINT('',(2.050000000000002,0.0,0.1));
#1154=DIRECTION('',(0.0,0.0,1.0));
#1155=DIRECTION('',(1.0,0.0,0.0));
#1156=AXIS2_PLACEMENT_3D('',#1153,#1154,#1155);
#1157=PLANE('',#1156);
#1158=CARTESIAN_POINT('',(2.250000000000001,1.350000000000001,0.1));
#1159=VERTEX_POINT('',#1158);
#1160=CARTESIAN_POINT('',(2.250000000000001,1.350000000000001,0.1));
#1161=DIRECTION('',(0.0,-1.0,0.0));
#1162=VECTOR('',#1161,2.7);
#1163=LINE('',#1160,#1162);
#1164=EDGE_CURVE('',#1159,#1062,#1163,.T.);
#1165=ORIENTED_EDGE('',*,*,#1164,.F.);
#1166=CARTESIAN_POINT('',(1.75,1.35,0.1));
#1167=VERTEX_POINT('',#1166);
#1168=CARTESIAN_POINT('',(1.75,1.35,0.1));
#1169=DIRECTION('',(1.0,0.0,0.0));
#1170=VECTOR('',#1169,0.500000000000001);
#1171=LINE('',#1168,#1170);
#1172=EDGE_CURVE('',#1167,#1159,#1171,.T.);
#1173=ORIENTED_EDGE('',*,*,#1172,.F.);
#1174=CARTESIAN_POINT('',(1.75,-1.35,0.1));
#1175=DIRECTION('',(0.0,1.0,0.0));
#1176=VECTOR('',#1175,2.7);
#1177=LINE('',#1174,#1176);
#1178=EDGE_CURVE('',#1070,#1167,#1177,.T.);
#1179=ORIENTED_EDGE('',*,*,#1178,.F.);
#1180=ORIENTED_EDGE('',*,*,#1075,.F.);
#1181=EDGE_LOOP('',(#1165,#1173,#1179,#1180));
#1182=FACE_OUTER_BOUND('',#1181,.T.);
#1183=ADVANCED_FACE('',(#1182),#1157,.T.);
#1184=CARTESIAN_POINT('',(1.75,-1.35,0.0));
#1185=DIRECTION('',(-1.0,0.0,0.0));
#1186=DIRECTION('',(0.0,0.0,1.0));
#1187=AXIS2_PLACEMENT_3D('',#1184,#1185,#1186);
#1188=PLANE('',#1187);
#1189=ORIENTED_EDGE('',*,*,#1178,.T.);
#1190=CARTESIAN_POINT('',(1.75,1.35,0.0));
#1191=DIRECTION('',(0.0,0.0,1.0));
#1192=VECTOR('',#1191,0.1);
#1193=LINE('',#1190,#1192);
#1194=EDGE_CURVE('',#1137,#1167,#1193,.T.);
#1195=ORIENTED_EDGE('',*,*,#1194,.F.);
#1196=ORIENTED_EDGE('',*,*,#1142,.F.);
#1197=ORIENTED_EDGE('',*,*,#1083,.T.);
#1198=EDGE_LOOP('',(#1189,#1195,#1196,#1197));
#1199=FACE_OUTER_BOUND('',#1198,.T.);
#1200=ADVANCED_FACE('',(#1199),#1188,.T.);
#1201=CARTESIAN_POINT('',(2.35,1.350000000000001,0.0));
#1202=DIRECTION('',(0.0,1.0,0.0));
#1203=DIRECTION('',(0.0,0.0,1.0));
#1204=AXIS2_PLACEMENT_3D('',#1201,#1202,#1203);
#1205=PLANE('',#1204);
#1206=ORIENTED_EDGE('',*,*,#988,.F.);
#1207=ORIENTED_EDGE('',*,*,#1042,.T.);
#1208=ORIENTED_EDGE('',*,*,#1123,.F.);
#1209=ORIENTED_EDGE('',*,*,#1148,.T.);
#1210=ORIENTED_EDGE('',*,*,#1194,.T.);
#1211=ORIENTED_EDGE('',*,*,#1172,.T.);
#1212=CARTESIAN_POINT('',(2.250000000000001,1.350000000000001,0.8));
#1213=VERTEX_POINT('',#1212);
#1214=CARTESIAN_POINT('',(2.25,1.350000000000001,0.1));
#1215=DIRECTION('',(0.0,0.0,1.0));
#1216=VECTOR('',#1215,0.7);
#1217=LINE('',#1214,#1216);
#1218=EDGE_CURVE('',#1159,#1213,#1217,.T.);
#1219=ORIENTED_EDGE('',*,*,#1218,.T.);
#1220=CARTESIAN_POINT('',(2.300000000000001,1.350000000000001,0.8));
#1221=DIRECTION('',(-1.0,0.0,0.0));
#1222=VECTOR('',#1221,0.05);
#1223=LINE('',#1220,#1222);
#1224=EDGE_CURVE('',#982,#1213,#1223,.T.);
#1225=ORIENTED_EDGE('',*,*,#1224,.F.);
#1226=EDGE_LOOP('',(#1206,#1207,#1208,#1209,#1210,#1211,#1219,#1225));
#1227=FACE_OUTER_BOUND('',#1226,.T.);
#1228=ADVANCED_FACE('',(#1227),#1205,.T.);
#1229=CARTESIAN_POINT('',(2.35,1.350000000000001,0.8));
#1230=DIRECTION('',(0.0,0.0,1.0));
#1231=DIRECTION('',(1.0,0.0,0.0));
#1232=AXIS2_PLACEMENT_3D('',#1229,#1230,#1231);
#1233=PLANE('',#1232);
#1234=ORIENTED_EDGE('',*,*,#996,.F.);
#1235=ORIENTED_EDGE('',*,*,#1224,.T.);
#1236=CARTESIAN_POINT('',(2.25,1.350000000000001,0.8));
#1237=DIRECTION('',(0.0,-1.0,0.0));
#1238=VECTOR('',#1237,2.7);
#1239=LINE('',#1236,#1238);
#1240=EDGE_CURVE('',#1213,#1054,#1239,.T.);
#1241=ORIENTED_EDGE('',*,*,#1240,.T.);
#1242=ORIENTED_EDGE('',*,*,#1059,.F.);
#1243=EDGE_LOOP('',(#1234,#1235,#1241,#1242));
#1244=FACE_OUTER_BOUND('',#1243,.T.);
#1245=ADVANCED_FACE('',(#1244),#1233,.T.);
#1246=CARTESIAN_POINT('',(2.250000000000002,8.881784E-016,0.4));
#1247=DIRECTION('',(1.0,0.0,0.0));
#1248=DIRECTION('',(0.0,0.0,-1.0));
#1249=AXIS2_PLACEMENT_3D('',#1246,#1247,#1248);
#1250=PLANE('',#1249);
#1251=ORIENTED_EDGE('',*,*,#1164,.T.);
#1252=ORIENTED_EDGE('',*,*,#1067,.F.);
#1253=ORIENTED_EDGE('',*,*,#1240,.F.);
#1254=ORIENTED_EDGE('',*,*,#1218,.F.);
#1255=EDGE_LOOP('',(#1251,#1252,#1253,#1254));
#1256=FACE_OUTER_BOUND('',#1255,.T.);
#1257=ADVANCED_FACE('',(#1256),#1250,.F.);
#1258=CLOSED_SHELL('',(#1015,#1046,#1103,#1128,#1152,#1183,#1200,#1228,#1245,#1257));
#1259=MANIFOLD_SOLID_BREP('2CCB',#1258);
#1260=STYLED_ITEM('NONE',(#972),#1259);
#1261=ADVANCED_BREP_SHAPE_REPRESENTATION('ABSR1',(#214,#678,#965,#1259),#28);
#1262=SHAPE_REPRESENTATION_RELATIONSHIP('SRRPL1','',#1261,#62);
ENDSEC;
END-ISO-10303-21;
