ISO-10303-21;
HEADER;
/* Generated by software containing ST-Developer
 * from STEP Tools, Inc. (www.steptools.com) 
 */

FILE_DESCRIPTION(
/* description */ (''),
/* implementation_level */ '2;1');

FILE_NAME(
/* name */ 'G:\\Applications\\Altium\\CernLib\\StepLib\\INDC2012X100N.
stp',
/* time_stamp */ '2017-06-29T17:16:41+02:00',
/* author */ ('riccim'),
/* organization */ (''),
/* preprocessor_version */ 'ST-DEVELOPER v16.5',
/* originating_system */ 'AutoCAD Mechanical',
/* authorisation */ '');

FILE_SCHEMA (('AUTOMOTIVE_DESIGN { 1 0 10303 214 3 1 1 }'));
ENDSEC;

DATA;
#10=MECHANICAL_DESIGN_GEOMETRIC_PRESENTATION_REPRESENTATION('',(#19,#17,
#18),#1225);
#11=DIMENSIONAL_EXPONENTS(0.,0.,0.,0.,0.,0.,0.);
#12=(
CONVERSION_BASED_UNIT('degree',#13)
NAMED_UNIT(#11)
PLANE_ANGLE_UNIT()
);
#13=PLANE_ANGLE_MEASURE_WITH_UNIT(PLANE_ANGLE_MEASURE(0.01745329252),#1228);
#14=PRESENTATION_LAYER_ASSIGNMENT('1','3D',(#20,#21,#22));
#15=SHAPE_REPRESENTATION_RELATIONSHIP('SRR','None',#1231,#16);
#16=ADVANCED_BREP_SHAPE_REPRESENTATION('',(#20,#21,#22),#1224);
#17=STYLED_ITEM('',(#1241),#20);
#18=STYLED_ITEM('',(#1242),#21);
#19=STYLED_ITEM('',(#1241),#22);
#20=MANIFOLD_SOLID_BREP('85E',#703);
#21=MANIFOLD_SOLID_BREP('863',#704);
#22=MANIFOLD_SOLID_BREP('868',#705);
#23=SPHERICAL_SURFACE('',#721,0.05);
#24=SPHERICAL_SURFACE('',#724,0.0500000000000002);
#25=SPHERICAL_SURFACE('',#731,0.05);
#26=SPHERICAL_SURFACE('',#738,0.05);
#27=SPHERICAL_SURFACE('',#773,0.05);
#28=SPHERICAL_SURFACE('',#777,0.0500000000000002);
#29=SPHERICAL_SURFACE('',#783,0.0500000000000001);
#30=SPHERICAL_SURFACE('',#786,0.05);
#31=PLANE('',#710);
#32=PLANE('',#711);
#33=PLANE('',#715);
#34=PLANE('',#716);
#35=PLANE('',#730);
#36=PLANE('',#735);
#37=PLANE('',#741);
#38=PLANE('',#742);
#39=PLANE('',#743);
#40=PLANE('',#748);
#41=PLANE('',#754);
#42=PLANE('',#758);
#43=PLANE('',#762);
#44=PLANE('',#766);
#45=PLANE('',#767);
#46=PLANE('',#768);
#47=PLANE('',#782);
#48=PLANE('',#792);
#49=FACE_OUTER_BOUND('',#95,.T.);
#50=FACE_OUTER_BOUND('',#96,.T.);
#51=FACE_OUTER_BOUND('',#97,.T.);
#52=FACE_OUTER_BOUND('',#98,.T.);
#53=FACE_OUTER_BOUND('',#99,.T.);
#54=FACE_OUTER_BOUND('',#100,.T.);
#55=FACE_OUTER_BOUND('',#101,.T.);
#56=FACE_OUTER_BOUND('',#102,.T.);
#57=FACE_OUTER_BOUND('',#103,.T.);
#58=FACE_OUTER_BOUND('',#104,.T.);
#59=FACE_OUTER_BOUND('',#105,.T.);
#60=FACE_OUTER_BOUND('',#106,.T.);
#61=FACE_OUTER_BOUND('',#107,.T.);
#62=FACE_OUTER_BOUND('',#108,.T.);
#63=FACE_OUTER_BOUND('',#109,.T.);
#64=FACE_OUTER_BOUND('',#110,.T.);
#65=FACE_OUTER_BOUND('',#111,.T.);
#66=FACE_OUTER_BOUND('',#112,.T.);
#67=FACE_OUTER_BOUND('',#113,.T.);
#68=FACE_OUTER_BOUND('',#114,.T.);
#69=FACE_OUTER_BOUND('',#115,.T.);
#70=FACE_OUTER_BOUND('',#116,.T.);
#71=FACE_OUTER_BOUND('',#117,.T.);
#72=FACE_OUTER_BOUND('',#118,.T.);
#73=FACE_OUTER_BOUND('',#119,.T.);
#74=FACE_OUTER_BOUND('',#120,.T.);
#75=FACE_OUTER_BOUND('',#121,.T.);
#76=FACE_OUTER_BOUND('',#122,.T.);
#77=FACE_OUTER_BOUND('',#123,.T.);
#78=FACE_OUTER_BOUND('',#124,.T.);
#79=FACE_OUTER_BOUND('',#125,.T.);
#80=FACE_OUTER_BOUND('',#126,.T.);
#81=FACE_OUTER_BOUND('',#127,.T.);
#82=FACE_OUTER_BOUND('',#128,.T.);
#83=FACE_OUTER_BOUND('',#129,.T.);
#84=FACE_OUTER_BOUND('',#130,.T.);
#85=FACE_OUTER_BOUND('',#131,.T.);
#86=FACE_OUTER_BOUND('',#132,.T.);
#87=FACE_OUTER_BOUND('',#133,.T.);
#88=FACE_OUTER_BOUND('',#134,.T.);
#89=FACE_OUTER_BOUND('',#135,.T.);
#90=FACE_OUTER_BOUND('',#136,.T.);
#91=FACE_OUTER_BOUND('',#137,.T.);
#92=FACE_OUTER_BOUND('',#138,.T.);
#93=FACE_OUTER_BOUND('',#139,.T.);
#94=FACE_OUTER_BOUND('',#140,.T.);
#95=EDGE_LOOP('',(#445,#446,#447,#448));
#96=EDGE_LOOP('',(#449,#450,#451,#452));
#97=EDGE_LOOP('',(#453,#454,#455,#456));
#98=EDGE_LOOP('',(#457,#458,#459,#460));
#99=EDGE_LOOP('',(#461,#462,#463,#464));
#100=EDGE_LOOP('',(#465,#466,#467,#468,#469,#470,#471,#472));
#101=EDGE_LOOP('',(#473,#474,#475));
#102=EDGE_LOOP('',(#476,#477,#478));
#103=EDGE_LOOP('',(#479,#480,#481,#482));
#104=EDGE_LOOP('',(#483,#484,#485,#486));
#105=EDGE_LOOP('',(#487,#488,#489,#490));
#106=EDGE_LOOP('',(#491,#492,#493,#494));
#107=EDGE_LOOP('',(#495,#496,#497));
#108=EDGE_LOOP('',(#498,#499,#500,#501));
#109=EDGE_LOOP('',(#502,#503,#504,#505));
#110=EDGE_LOOP('',(#506,#507,#508,#509));
#111=EDGE_LOOP('',(#510,#511,#512));
#112=EDGE_LOOP('',(#513,#514,#515,#516));
#113=EDGE_LOOP('',(#517,#518,#519,#520));
#114=EDGE_LOOP('',(#521,#522,#523,#524));
#115=EDGE_LOOP('',(#525,#526,#527,#528,#529,#530,#531,#532));
#116=EDGE_LOOP('',(#533,#534,#535,#536,#537,#538,#539,#540));
#117=EDGE_LOOP('',(#541,#542,#543,#544));
#118=EDGE_LOOP('',(#545,#546,#547,#548));
#119=EDGE_LOOP('',(#549,#550,#551,#552));
#120=EDGE_LOOP('',(#553,#554,#555,#556));
#121=EDGE_LOOP('',(#557,#558,#559,#560));
#122=EDGE_LOOP('',(#561,#562,#563,#564));
#123=EDGE_LOOP('',(#565,#566,#567,#568));
#124=EDGE_LOOP('',(#569,#570,#571,#572));
#125=EDGE_LOOP('',(#573,#574,#575,#576));
#126=EDGE_LOOP('',(#577,#578,#579,#580));
#127=EDGE_LOOP('',(#581,#582,#583,#584));
#128=EDGE_LOOP('',(#585,#586,#587,#588,#589,#590,#591,#592));
#129=EDGE_LOOP('',(#593,#594,#595));
#130=EDGE_LOOP('',(#596,#597,#598,#599));
#131=EDGE_LOOP('',(#600,#601,#602));
#132=EDGE_LOOP('',(#603,#604,#605,#606));
#133=EDGE_LOOP('',(#607,#608,#609,#610));
#134=EDGE_LOOP('',(#611,#612,#613,#614));
#135=EDGE_LOOP('',(#615,#616,#617));
#136=EDGE_LOOP('',(#618,#619,#620));
#137=EDGE_LOOP('',(#621,#622,#623,#624));
#138=EDGE_LOOP('',(#625,#626,#627,#628));
#139=EDGE_LOOP('',(#629,#630,#631,#632));
#140=EDGE_LOOP('',(#633,#634,#635,#636));
#141=LINE('',#1029,#197);
#142=LINE('',#1032,#198);
#143=LINE('',#1035,#199);
#144=LINE('',#1037,#200);
#145=LINE('',#1038,#201);
#146=LINE('',#1041,#202);
#147=LINE('',#1043,#203);
#148=LINE('',#1044,#204);
#149=LINE('',#1050,#205);
#150=LINE('',#1053,#206);
#151=LINE('',#1055,#207);
#152=LINE('',#1056,#208);
#153=LINE('',#1063,#209);
#154=LINE('',#1067,#210);
#155=LINE('',#1077,#211);
#156=LINE('',#1079,#212);
#157=LINE('',#1081,#213);
#158=LINE('',#1088,#214);
#159=LINE('',#1091,#215);
#160=LINE('',#1092,#216);
#161=LINE('',#1101,#217);
#162=LINE('',#1103,#218);
#163=LINE('',#1105,#219);
#164=LINE('',#1106,#220);
#165=LINE('',#1110,#221);
#166=LINE('',#1112,#222);
#167=LINE('',#1114,#223);
#168=LINE('',#1115,#224);
#169=LINE('',#1120,#225);
#170=LINE('',#1125,#226);
#171=LINE('',#1133,#227);
#172=LINE('',#1137,#228);
#173=LINE('',#1139,#229);
#174=LINE('',#1141,#230);
#175=LINE('',#1144,#231);
#176=LINE('',#1146,#232);
#177=LINE('',#1153,#233);
#178=LINE('',#1156,#234);
#179=LINE('',#1159,#235);
#180=LINE('',#1161,#236);
#181=LINE('',#1162,#237);
#182=LINE('',#1168,#238);
#183=LINE('',#1171,#239);
#184=LINE('',#1173,#240);
#185=LINE('',#1174,#241);
#186=LINE('',#1177,#242);
#187=LINE('',#1179,#243);
#188=LINE('',#1180,#244);
#189=LINE('',#1187,#245);
#190=LINE('',#1191,#246);
#191=LINE('',#1197,#247);
#192=LINE('',#1203,#248);
#193=LINE('',#1205,#249);
#194=LINE('',#1216,#250);
#195=LINE('',#1218,#251);
#196=LINE('',#1220,#252);
#197=VECTOR('',#799,1.);
#198=VECTOR('',#802,1.);
#199=VECTOR('',#805,1.);
#200=VECTOR('',#806,1.);
#201=VECTOR('',#807,1.);
#202=VECTOR('',#810,1.);
#203=VECTOR('',#811,1.);
#204=VECTOR('',#812,1.);
#205=VECTOR('',#819,1.);
#206=VECTOR('',#822,1.);
#207=VECTOR('',#823,1.);
#208=VECTOR('',#824,1.);
#209=VECTOR('',#831,1.);
#210=VECTOR('',#836,1.);
#211=VECTOR('',#851,1.);
#212=VECTOR('',#854,1.);
#213=VECTOR('',#857,1.);
#214=VECTOR('',#868,1.);
#215=VECTOR('',#871,1.);
#216=VECTOR('',#872,1.);
#217=VECTOR('',#885,1.);
#218=VECTOR('',#886,1.);
#219=VECTOR('',#887,1.);
#220=VECTOR('',#888,1.);
#221=VECTOR('',#891,1.);
#222=VECTOR('',#892,1.);
#223=VECTOR('',#893,1.);
#224=VECTOR('',#894,1.);
#225=VECTOR('',#899,1.);
#226=VECTOR('',#904,1.);
#227=VECTOR('',#913,1.);
#228=VECTOR('',#918,1.);
#229=VECTOR('',#921,1.);
#230=VECTOR('',#924,1.);
#231=VECTOR('',#929,1.);
#232=VECTOR('',#932,1.);
#233=VECTOR('',#939,1.);
#234=VECTOR('',#942,1.);
#235=VECTOR('',#945,1.);
#236=VECTOR('',#946,1.);
#237=VECTOR('',#947,1.);
#238=VECTOR('',#952,1.);
#239=VECTOR('',#955,1.);
#240=VECTOR('',#958,1.);
#241=VECTOR('',#959,1.);
#242=VECTOR('',#962,1.);
#243=VECTOR('',#963,1.);
#244=VECTOR('',#964,1.);
#245=VECTOR('',#971,1.);
#246=VECTOR('',#976,1.);
#247=VECTOR('',#985,1.);
#248=VECTOR('',#994,1.);
#249=VECTOR('',#997,1.);
#250=VECTOR('',#1014,1.);
#251=VECTOR('',#1017,1.);
#252=VECTOR('',#1020,1.);
#253=CIRCLE('',#708,0.05);
#254=CIRCLE('',#709,0.0500000000000001);
#255=CIRCLE('',#713,0.05);
#256=CIRCLE('',#714,0.0500000000000002);
#257=CIRCLE('',#717,0.05);
#258=CIRCLE('',#718,0.05);
#259=CIRCLE('',#719,0.05);
#260=CIRCLE('',#720,0.05);
#261=CIRCLE('',#722,0.05);
#262=CIRCLE('',#723,0.05);
#263=CIRCLE('',#725,0.05);
#264=CIRCLE('',#726,0.0500000000000002);
#265=CIRCLE('',#732,0.05);
#266=CIRCLE('',#733,0.05);
#267=CIRCLE('',#737,0.05);
#268=CIRCLE('',#739,0.05);
#269=CIRCLE('',#744,0.05);
#270=CIRCLE('',#745,0.05);
#271=CIRCLE('',#746,0.05);
#272=CIRCLE('',#747,0.05);
#273=CIRCLE('',#749,0.05);
#274=CIRCLE('',#750,0.05);
#275=CIRCLE('',#751,0.05);
#276=CIRCLE('',#752,0.05);
#277=CIRCLE('',#760,0.0500000000000001);
#278=CIRCLE('',#761,0.05);
#279=CIRCLE('',#764,0.0500000000000001);
#280=CIRCLE('',#765,0.05);
#281=CIRCLE('',#769,0.05);
#282=CIRCLE('',#770,0.05);
#283=CIRCLE('',#771,0.05);
#284=CIRCLE('',#772,0.05);
#285=CIRCLE('',#774,0.05);
#286=CIRCLE('',#775,0.0500000000000001);
#287=CIRCLE('',#778,0.05);
#288=CIRCLE('',#779,0.0500000000000002);
#289=CIRCLE('',#784,0.05);
#290=CIRCLE('',#785,0.05);
#291=CIRCLE('',#787,0.05);
#292=CIRCLE('',#788,0.05);
#293=VERTEX_POINT('',#1025);
#294=VERTEX_POINT('',#1026);
#295=VERTEX_POINT('',#1028);
#296=VERTEX_POINT('',#1030);
#297=VERTEX_POINT('',#1034);
#298=VERTEX_POINT('',#1036);
#299=VERTEX_POINT('',#1040);
#300=VERTEX_POINT('',#1042);
#301=VERTEX_POINT('',#1046);
#302=VERTEX_POINT('',#1048);
#303=VERTEX_POINT('',#1052);
#304=VERTEX_POINT('',#1054);
#305=VERTEX_POINT('',#1058);
#306=VERTEX_POINT('',#1060);
#307=VERTEX_POINT('',#1062);
#308=VERTEX_POINT('',#1065);
#309=VERTEX_POINT('',#1069);
#310=VERTEX_POINT('',#1073);
#311=VERTEX_POINT('',#1084);
#312=VERTEX_POINT('',#1090);
#313=VERTEX_POINT('',#1099);
#314=VERTEX_POINT('',#1100);
#315=VERTEX_POINT('',#1102);
#316=VERTEX_POINT('',#1104);
#317=VERTEX_POINT('',#1108);
#318=VERTEX_POINT('',#1109);
#319=VERTEX_POINT('',#1111);
#320=VERTEX_POINT('',#1113);
#321=VERTEX_POINT('',#1117);
#322=VERTEX_POINT('',#1119);
#323=VERTEX_POINT('',#1122);
#324=VERTEX_POINT('',#1124);
#325=VERTEX_POINT('',#1128);
#326=VERTEX_POINT('',#1130);
#327=VERTEX_POINT('',#1132);
#328=VERTEX_POINT('',#1135);
#329=VERTEX_POINT('',#1149);
#330=VERTEX_POINT('',#1150);
#331=VERTEX_POINT('',#1152);
#332=VERTEX_POINT('',#1154);
#333=VERTEX_POINT('',#1158);
#334=VERTEX_POINT('',#1160);
#335=VERTEX_POINT('',#1164);
#336=VERTEX_POINT('',#1165);
#337=VERTEX_POINT('',#1167);
#338=VERTEX_POINT('',#1169);
#339=VERTEX_POINT('',#1176);
#340=VERTEX_POINT('',#1178);
#341=VERTEX_POINT('',#1182);
#342=VERTEX_POINT('',#1184);
#343=VERTEX_POINT('',#1186);
#344=VERTEX_POINT('',#1189);
#345=VERTEX_POINT('',#1193);
#346=VERTEX_POINT('',#1199);
#347=VERTEX_POINT('',#1208);
#348=VERTEX_POINT('',#1212);
#349=EDGE_CURVE('',#293,#294,#253,.T.);
#350=EDGE_CURVE('',#293,#295,#141,.T.);
#351=EDGE_CURVE('',#295,#296,#254,.F.);
#352=EDGE_CURVE('',#296,#294,#142,.T.);
#353=EDGE_CURVE('',#297,#293,#143,.T.);
#354=EDGE_CURVE('',#298,#297,#144,.T.);
#355=EDGE_CURVE('',#295,#298,#145,.T.);
#356=EDGE_CURVE('',#294,#299,#146,.T.);
#357=EDGE_CURVE('',#300,#296,#147,.T.);
#358=EDGE_CURVE('',#299,#300,#148,.T.);
#359=EDGE_CURVE('',#299,#301,#255,.T.);
#360=EDGE_CURVE('',#300,#302,#256,.F.);
#361=EDGE_CURVE('',#302,#301,#149,.T.);
#362=EDGE_CURVE('',#301,#303,#150,.T.);
#363=EDGE_CURVE('',#304,#302,#151,.T.);
#364=EDGE_CURVE('',#304,#303,#152,.T.);
#365=EDGE_CURVE('',#303,#305,#257,.T.);
#366=EDGE_CURVE('',#306,#304,#258,.T.);
#367=EDGE_CURVE('',#306,#307,#153,.T.);
#368=EDGE_CURVE('',#298,#307,#259,.T.);
#369=EDGE_CURVE('',#308,#297,#260,.T.);
#370=EDGE_CURVE('',#308,#305,#154,.T.);
#371=EDGE_CURVE('',#309,#294,#261,.F.);
#372=EDGE_CURVE('',#309,#293,#262,.T.);
#373=EDGE_CURVE('',#301,#310,#263,.T.);
#374=EDGE_CURVE('',#299,#310,#264,.F.);
#375=EDGE_CURVE('',#310,#309,#155,.T.);
#376=EDGE_CURVE('',#305,#310,#156,.T.);
#377=EDGE_CURVE('',#309,#308,#157,.T.);
#378=EDGE_CURVE('',#311,#296,#265,.T.);
#379=EDGE_CURVE('',#295,#311,#266,.T.);
#380=EDGE_CURVE('',#307,#311,#158,.T.);
#381=EDGE_CURVE('',#312,#306,#159,.T.);
#382=EDGE_CURVE('',#311,#312,#160,.T.);
#383=EDGE_CURVE('',#300,#312,#267,.T.);
#384=EDGE_CURVE('',#312,#302,#268,.T.);
#385=EDGE_CURVE('',#313,#314,#161,.T.);
#386=EDGE_CURVE('',#315,#313,#162,.T.);
#387=EDGE_CURVE('',#316,#315,#163,.T.);
#388=EDGE_CURVE('',#316,#314,#164,.T.);
#389=EDGE_CURVE('',#317,#318,#165,.T.);
#390=EDGE_CURVE('',#319,#317,#166,.T.);
#391=EDGE_CURVE('',#320,#319,#167,.T.);
#392=EDGE_CURVE('',#320,#318,#168,.T.);
#393=EDGE_CURVE('',#321,#313,#269,.T.);
#394=EDGE_CURVE('',#321,#322,#169,.T.);
#395=EDGE_CURVE('',#318,#322,#270,.T.);
#396=EDGE_CURVE('',#323,#320,#271,.T.);
#397=EDGE_CURVE('',#323,#324,#170,.T.);
#398=EDGE_CURVE('',#315,#324,#272,.T.);
#399=EDGE_CURVE('',#314,#325,#273,.T.);
#400=EDGE_CURVE('',#326,#316,#274,.T.);
#401=EDGE_CURVE('',#326,#327,#171,.T.);
#402=EDGE_CURVE('',#319,#327,#275,.T.);
#403=EDGE_CURVE('',#328,#317,#276,.T.);
#404=EDGE_CURVE('',#328,#325,#172,.T.);
#405=EDGE_CURVE('',#325,#321,#173,.T.);
#406=EDGE_CURVE('',#322,#328,#174,.T.);
#407=EDGE_CURVE('',#324,#326,#175,.T.);
#408=EDGE_CURVE('',#327,#323,#176,.T.);
#409=EDGE_CURVE('',#329,#330,#277,.F.);
#410=EDGE_CURVE('',#330,#331,#177,.T.);
#411=EDGE_CURVE('',#332,#331,#278,.T.);
#412=EDGE_CURVE('',#332,#329,#178,.T.);
#413=EDGE_CURVE('',#333,#332,#179,.T.);
#414=EDGE_CURVE('',#333,#334,#180,.T.);
#415=EDGE_CURVE('',#329,#334,#181,.T.);
#416=EDGE_CURVE('',#335,#336,#279,.F.);
#417=EDGE_CURVE('',#336,#337,#182,.T.);
#418=EDGE_CURVE('',#338,#337,#280,.T.);
#419=EDGE_CURVE('',#338,#335,#183,.T.);
#420=EDGE_CURVE('',#331,#338,#184,.T.);
#421=EDGE_CURVE('',#335,#330,#185,.T.);
#422=EDGE_CURVE('',#337,#339,#186,.T.);
#423=EDGE_CURVE('',#340,#336,#187,.T.);
#424=EDGE_CURVE('',#339,#340,#188,.T.);
#425=EDGE_CURVE('',#339,#341,#281,.T.);
#426=EDGE_CURVE('',#342,#340,#282,.T.);
#427=EDGE_CURVE('',#342,#343,#189,.T.);
#428=EDGE_CURVE('',#334,#343,#283,.T.);
#429=EDGE_CURVE('',#344,#333,#284,.T.);
#430=EDGE_CURVE('',#344,#341,#190,.T.);
#431=EDGE_CURVE('',#331,#345,#285,.T.);
#432=EDGE_CURVE('',#332,#345,#286,.F.);
#433=EDGE_CURVE('',#345,#344,#191,.T.);
#434=EDGE_CURVE('',#337,#346,#287,.T.);
#435=EDGE_CURVE('',#338,#346,#288,.F.);
#436=EDGE_CURVE('',#346,#345,#192,.T.);
#437=EDGE_CURVE('',#341,#346,#193,.T.);
#438=EDGE_CURVE('',#347,#336,#289,.T.);
#439=EDGE_CURVE('',#347,#335,#290,.F.);
#440=EDGE_CURVE('',#348,#330,#291,.T.);
#441=EDGE_CURVE('',#329,#348,#292,.T.);
#442=EDGE_CURVE('',#348,#347,#194,.T.);
#443=EDGE_CURVE('',#343,#348,#195,.T.);
#444=EDGE_CURVE('',#347,#342,#196,.T.);
#445=ORIENTED_EDGE('',*,*,#349,.F.);
#446=ORIENTED_EDGE('',*,*,#350,.T.);
#447=ORIENTED_EDGE('',*,*,#351,.T.);
#448=ORIENTED_EDGE('',*,*,#352,.T.);
#449=ORIENTED_EDGE('',*,*,#353,.F.);
#450=ORIENTED_EDGE('',*,*,#354,.F.);
#451=ORIENTED_EDGE('',*,*,#355,.F.);
#452=ORIENTED_EDGE('',*,*,#350,.F.);
#453=ORIENTED_EDGE('',*,*,#356,.F.);
#454=ORIENTED_EDGE('',*,*,#352,.F.);
#455=ORIENTED_EDGE('',*,*,#357,.F.);
#456=ORIENTED_EDGE('',*,*,#358,.F.);
#457=ORIENTED_EDGE('',*,*,#359,.F.);
#458=ORIENTED_EDGE('',*,*,#358,.T.);
#459=ORIENTED_EDGE('',*,*,#360,.T.);
#460=ORIENTED_EDGE('',*,*,#361,.T.);
#461=ORIENTED_EDGE('',*,*,#362,.F.);
#462=ORIENTED_EDGE('',*,*,#361,.F.);
#463=ORIENTED_EDGE('',*,*,#363,.F.);
#464=ORIENTED_EDGE('',*,*,#364,.T.);
#465=ORIENTED_EDGE('',*,*,#365,.F.);
#466=ORIENTED_EDGE('',*,*,#364,.F.);
#467=ORIENTED_EDGE('',*,*,#366,.F.);
#468=ORIENTED_EDGE('',*,*,#367,.T.);
#469=ORIENTED_EDGE('',*,*,#368,.F.);
#470=ORIENTED_EDGE('',*,*,#354,.T.);
#471=ORIENTED_EDGE('',*,*,#369,.F.);
#472=ORIENTED_EDGE('',*,*,#370,.T.);
#473=ORIENTED_EDGE('',*,*,#349,.T.);
#474=ORIENTED_EDGE('',*,*,#371,.F.);
#475=ORIENTED_EDGE('',*,*,#372,.T.);
#476=ORIENTED_EDGE('',*,*,#373,.T.);
#477=ORIENTED_EDGE('',*,*,#374,.F.);
#478=ORIENTED_EDGE('',*,*,#359,.T.);
#479=ORIENTED_EDGE('',*,*,#371,.T.);
#480=ORIENTED_EDGE('',*,*,#356,.T.);
#481=ORIENTED_EDGE('',*,*,#374,.T.);
#482=ORIENTED_EDGE('',*,*,#375,.T.);
#483=ORIENTED_EDGE('',*,*,#365,.T.);
#484=ORIENTED_EDGE('',*,*,#376,.T.);
#485=ORIENTED_EDGE('',*,*,#373,.F.);
#486=ORIENTED_EDGE('',*,*,#362,.T.);
#487=ORIENTED_EDGE('',*,*,#369,.T.);
#488=ORIENTED_EDGE('',*,*,#353,.T.);
#489=ORIENTED_EDGE('',*,*,#372,.F.);
#490=ORIENTED_EDGE('',*,*,#377,.T.);
#491=ORIENTED_EDGE('',*,*,#376,.F.);
#492=ORIENTED_EDGE('',*,*,#370,.F.);
#493=ORIENTED_EDGE('',*,*,#377,.F.);
#494=ORIENTED_EDGE('',*,*,#375,.F.);
#495=ORIENTED_EDGE('',*,*,#378,.T.);
#496=ORIENTED_EDGE('',*,*,#351,.F.);
#497=ORIENTED_EDGE('',*,*,#379,.T.);
#498=ORIENTED_EDGE('',*,*,#368,.T.);
#499=ORIENTED_EDGE('',*,*,#380,.T.);
#500=ORIENTED_EDGE('',*,*,#379,.F.);
#501=ORIENTED_EDGE('',*,*,#355,.T.);
#502=ORIENTED_EDGE('',*,*,#381,.F.);
#503=ORIENTED_EDGE('',*,*,#382,.F.);
#504=ORIENTED_EDGE('',*,*,#380,.F.);
#505=ORIENTED_EDGE('',*,*,#367,.F.);
#506=ORIENTED_EDGE('',*,*,#383,.F.);
#507=ORIENTED_EDGE('',*,*,#357,.T.);
#508=ORIENTED_EDGE('',*,*,#378,.F.);
#509=ORIENTED_EDGE('',*,*,#382,.T.);
#510=ORIENTED_EDGE('',*,*,#384,.T.);
#511=ORIENTED_EDGE('',*,*,#360,.F.);
#512=ORIENTED_EDGE('',*,*,#383,.T.);
#513=ORIENTED_EDGE('',*,*,#366,.T.);
#514=ORIENTED_EDGE('',*,*,#363,.T.);
#515=ORIENTED_EDGE('',*,*,#384,.F.);
#516=ORIENTED_EDGE('',*,*,#381,.T.);
#517=ORIENTED_EDGE('',*,*,#385,.F.);
#518=ORIENTED_EDGE('',*,*,#386,.F.);
#519=ORIENTED_EDGE('',*,*,#387,.F.);
#520=ORIENTED_EDGE('',*,*,#388,.T.);
#521=ORIENTED_EDGE('',*,*,#389,.F.);
#522=ORIENTED_EDGE('',*,*,#390,.F.);
#523=ORIENTED_EDGE('',*,*,#391,.F.);
#524=ORIENTED_EDGE('',*,*,#392,.T.);
#525=ORIENTED_EDGE('',*,*,#393,.F.);
#526=ORIENTED_EDGE('',*,*,#394,.T.);
#527=ORIENTED_EDGE('',*,*,#395,.F.);
#528=ORIENTED_EDGE('',*,*,#392,.F.);
#529=ORIENTED_EDGE('',*,*,#396,.F.);
#530=ORIENTED_EDGE('',*,*,#397,.T.);
#531=ORIENTED_EDGE('',*,*,#398,.F.);
#532=ORIENTED_EDGE('',*,*,#386,.T.);
#533=ORIENTED_EDGE('',*,*,#399,.F.);
#534=ORIENTED_EDGE('',*,*,#388,.F.);
#535=ORIENTED_EDGE('',*,*,#400,.F.);
#536=ORIENTED_EDGE('',*,*,#401,.T.);
#537=ORIENTED_EDGE('',*,*,#402,.F.);
#538=ORIENTED_EDGE('',*,*,#390,.T.);
#539=ORIENTED_EDGE('',*,*,#403,.F.);
#540=ORIENTED_EDGE('',*,*,#404,.T.);
#541=ORIENTED_EDGE('',*,*,#393,.T.);
#542=ORIENTED_EDGE('',*,*,#385,.T.);
#543=ORIENTED_EDGE('',*,*,#399,.T.);
#544=ORIENTED_EDGE('',*,*,#405,.T.);
#545=ORIENTED_EDGE('',*,*,#405,.F.);
#546=ORIENTED_EDGE('',*,*,#404,.F.);
#547=ORIENTED_EDGE('',*,*,#406,.F.);
#548=ORIENTED_EDGE('',*,*,#394,.F.);
#549=ORIENTED_EDGE('',*,*,#403,.T.);
#550=ORIENTED_EDGE('',*,*,#389,.T.);
#551=ORIENTED_EDGE('',*,*,#395,.T.);
#552=ORIENTED_EDGE('',*,*,#406,.T.);
#553=ORIENTED_EDGE('',*,*,#400,.T.);
#554=ORIENTED_EDGE('',*,*,#387,.T.);
#555=ORIENTED_EDGE('',*,*,#398,.T.);
#556=ORIENTED_EDGE('',*,*,#407,.T.);
#557=ORIENTED_EDGE('',*,*,#396,.T.);
#558=ORIENTED_EDGE('',*,*,#391,.T.);
#559=ORIENTED_EDGE('',*,*,#402,.T.);
#560=ORIENTED_EDGE('',*,*,#408,.T.);
#561=ORIENTED_EDGE('',*,*,#408,.F.);
#562=ORIENTED_EDGE('',*,*,#401,.F.);
#563=ORIENTED_EDGE('',*,*,#407,.F.);
#564=ORIENTED_EDGE('',*,*,#397,.F.);
#565=ORIENTED_EDGE('',*,*,#409,.T.);
#566=ORIENTED_EDGE('',*,*,#410,.T.);
#567=ORIENTED_EDGE('',*,*,#411,.F.);
#568=ORIENTED_EDGE('',*,*,#412,.T.);
#569=ORIENTED_EDGE('',*,*,#413,.F.);
#570=ORIENTED_EDGE('',*,*,#414,.T.);
#571=ORIENTED_EDGE('',*,*,#415,.F.);
#572=ORIENTED_EDGE('',*,*,#412,.F.);
#573=ORIENTED_EDGE('',*,*,#416,.T.);
#574=ORIENTED_EDGE('',*,*,#417,.T.);
#575=ORIENTED_EDGE('',*,*,#418,.F.);
#576=ORIENTED_EDGE('',*,*,#419,.T.);
#577=ORIENTED_EDGE('',*,*,#420,.F.);
#578=ORIENTED_EDGE('',*,*,#410,.F.);
#579=ORIENTED_EDGE('',*,*,#421,.F.);
#580=ORIENTED_EDGE('',*,*,#419,.F.);
#581=ORIENTED_EDGE('',*,*,#422,.F.);
#582=ORIENTED_EDGE('',*,*,#417,.F.);
#583=ORIENTED_EDGE('',*,*,#423,.F.);
#584=ORIENTED_EDGE('',*,*,#424,.F.);
#585=ORIENTED_EDGE('',*,*,#425,.F.);
#586=ORIENTED_EDGE('',*,*,#424,.T.);
#587=ORIENTED_EDGE('',*,*,#426,.F.);
#588=ORIENTED_EDGE('',*,*,#427,.T.);
#589=ORIENTED_EDGE('',*,*,#428,.F.);
#590=ORIENTED_EDGE('',*,*,#414,.F.);
#591=ORIENTED_EDGE('',*,*,#429,.F.);
#592=ORIENTED_EDGE('',*,*,#430,.T.);
#593=ORIENTED_EDGE('',*,*,#431,.T.);
#594=ORIENTED_EDGE('',*,*,#432,.F.);
#595=ORIENTED_EDGE('',*,*,#411,.T.);
#596=ORIENTED_EDGE('',*,*,#429,.T.);
#597=ORIENTED_EDGE('',*,*,#413,.T.);
#598=ORIENTED_EDGE('',*,*,#432,.T.);
#599=ORIENTED_EDGE('',*,*,#433,.T.);
#600=ORIENTED_EDGE('',*,*,#434,.T.);
#601=ORIENTED_EDGE('',*,*,#435,.F.);
#602=ORIENTED_EDGE('',*,*,#418,.T.);
#603=ORIENTED_EDGE('',*,*,#431,.F.);
#604=ORIENTED_EDGE('',*,*,#420,.T.);
#605=ORIENTED_EDGE('',*,*,#435,.T.);
#606=ORIENTED_EDGE('',*,*,#436,.T.);
#607=ORIENTED_EDGE('',*,*,#425,.T.);
#608=ORIENTED_EDGE('',*,*,#437,.T.);
#609=ORIENTED_EDGE('',*,*,#434,.F.);
#610=ORIENTED_EDGE('',*,*,#422,.T.);
#611=ORIENTED_EDGE('',*,*,#437,.F.);
#612=ORIENTED_EDGE('',*,*,#430,.F.);
#613=ORIENTED_EDGE('',*,*,#433,.F.);
#614=ORIENTED_EDGE('',*,*,#436,.F.);
#615=ORIENTED_EDGE('',*,*,#438,.T.);
#616=ORIENTED_EDGE('',*,*,#416,.F.);
#617=ORIENTED_EDGE('',*,*,#439,.F.);
#618=ORIENTED_EDGE('',*,*,#440,.T.);
#619=ORIENTED_EDGE('',*,*,#409,.F.);
#620=ORIENTED_EDGE('',*,*,#441,.T.);
#621=ORIENTED_EDGE('',*,*,#439,.T.);
#622=ORIENTED_EDGE('',*,*,#421,.T.);
#623=ORIENTED_EDGE('',*,*,#440,.F.);
#624=ORIENTED_EDGE('',*,*,#442,.T.);
#625=ORIENTED_EDGE('',*,*,#428,.T.);
#626=ORIENTED_EDGE('',*,*,#443,.T.);
#627=ORIENTED_EDGE('',*,*,#441,.F.);
#628=ORIENTED_EDGE('',*,*,#415,.T.);
#629=ORIENTED_EDGE('',*,*,#426,.T.);
#630=ORIENTED_EDGE('',*,*,#423,.T.);
#631=ORIENTED_EDGE('',*,*,#438,.F.);
#632=ORIENTED_EDGE('',*,*,#444,.T.);
#633=ORIENTED_EDGE('',*,*,#444,.F.);
#634=ORIENTED_EDGE('',*,*,#442,.F.);
#635=ORIENTED_EDGE('',*,*,#443,.F.);
#636=ORIENTED_EDGE('',*,*,#427,.F.);
#637=CYLINDRICAL_SURFACE('',#707,0.05);
#638=CYLINDRICAL_SURFACE('',#712,0.05);
#639=CYLINDRICAL_SURFACE('',#727,0.05);
#640=CYLINDRICAL_SURFACE('',#728,0.05);
#641=CYLINDRICAL_SURFACE('',#729,0.05);
#642=CYLINDRICAL_SURFACE('',#734,0.05);
#643=CYLINDRICAL_SURFACE('',#736,0.05);
#644=CYLINDRICAL_SURFACE('',#740,0.05);
#645=CYLINDRICAL_SURFACE('',#753,0.05);
#646=CYLINDRICAL_SURFACE('',#755,0.05);
#647=CYLINDRICAL_SURFACE('',#756,0.05);
#648=CYLINDRICAL_SURFACE('',#757,0.05);
#649=CYLINDRICAL_SURFACE('',#759,0.05);
#650=CYLINDRICAL_SURFACE('',#763,0.05);
#651=CYLINDRICAL_SURFACE('',#776,0.05);
#652=CYLINDRICAL_SURFACE('',#780,0.05);
#653=CYLINDRICAL_SURFACE('',#781,0.05);
#654=CYLINDRICAL_SURFACE('',#789,0.05);
#655=CYLINDRICAL_SURFACE('',#790,0.05);
#656=CYLINDRICAL_SURFACE('',#791,0.05);
#657=ADVANCED_FACE('',(#49),#637,.T.);
#658=ADVANCED_FACE('',(#50),#31,.T.);
#659=ADVANCED_FACE('',(#51),#32,.T.);
#660=ADVANCED_FACE('',(#52),#638,.T.);
#661=ADVANCED_FACE('',(#53),#33,.T.);
#662=ADVANCED_FACE('',(#54),#34,.T.);
#663=ADVANCED_FACE('',(#55),#23,.T.);
#664=ADVANCED_FACE('',(#56),#24,.T.);
#665=ADVANCED_FACE('',(#57),#639,.T.);
#666=ADVANCED_FACE('',(#58),#640,.T.);
#667=ADVANCED_FACE('',(#59),#641,.T.);
#668=ADVANCED_FACE('',(#60),#35,.T.);
#669=ADVANCED_FACE('',(#61),#25,.T.);
#670=ADVANCED_FACE('',(#62),#642,.T.);
#671=ADVANCED_FACE('',(#63),#36,.F.);
#672=ADVANCED_FACE('',(#64),#643,.T.);
#673=ADVANCED_FACE('',(#65),#26,.T.);
#674=ADVANCED_FACE('',(#66),#644,.T.);
#675=ADVANCED_FACE('',(#67),#37,.T.);
#676=ADVANCED_FACE('',(#68),#38,.T.);
#677=ADVANCED_FACE('',(#69),#39,.T.);
#678=ADVANCED_FACE('',(#70),#40,.T.);
#679=ADVANCED_FACE('',(#71),#645,.T.);
#680=ADVANCED_FACE('',(#72),#41,.T.);
#681=ADVANCED_FACE('',(#73),#646,.T.);
#682=ADVANCED_FACE('',(#74),#647,.T.);
#683=ADVANCED_FACE('',(#75),#648,.T.);
#684=ADVANCED_FACE('',(#76),#42,.F.);
#685=ADVANCED_FACE('',(#77),#649,.T.);
#686=ADVANCED_FACE('',(#78),#43,.T.);
#687=ADVANCED_FACE('',(#79),#650,.T.);
#688=ADVANCED_FACE('',(#80),#44,.T.);
#689=ADVANCED_FACE('',(#81),#45,.T.);
#690=ADVANCED_FACE('',(#82),#46,.T.);
#691=ADVANCED_FACE('',(#83),#27,.T.);
#692=ADVANCED_FACE('',(#84),#651,.T.);
#693=ADVANCED_FACE('',(#85),#28,.T.);
#694=ADVANCED_FACE('',(#86),#652,.T.);
#695=ADVANCED_FACE('',(#87),#653,.T.);
#696=ADVANCED_FACE('',(#88),#47,.F.);
#697=ADVANCED_FACE('',(#89),#29,.T.);
#698=ADVANCED_FACE('',(#90),#30,.T.);
#699=ADVANCED_FACE('',(#91),#654,.T.);
#700=ADVANCED_FACE('',(#92),#655,.T.);
#701=ADVANCED_FACE('',(#93),#656,.T.);
#702=ADVANCED_FACE('',(#94),#48,.T.);
#703=CLOSED_SHELL('',(#657,#658,#659,#660,#661,#662,#663,#664,#665,#666,
#667,#668,#669,#670,#671,#672,#673,#674));
#704=CLOSED_SHELL('',(#675,#676,#677,#678,#679,#680,#681,#682,#683,#684));
#705=CLOSED_SHELL('',(#685,#686,#687,#688,#689,#690,#691,#692,#693,#694,
#695,#696,#697,#698,#699,#700,#701,#702));
#706=AXIS2_PLACEMENT_3D('placement',#1023,#793,#794);
#707=AXIS2_PLACEMENT_3D('',#1024,#795,#796);
#708=AXIS2_PLACEMENT_3D('',#1027,#797,#798);
#709=AXIS2_PLACEMENT_3D('',#1031,#800,#801);
#710=AXIS2_PLACEMENT_3D('',#1033,#803,#804);
#711=AXIS2_PLACEMENT_3D('',#1039,#808,#809);
#712=AXIS2_PLACEMENT_3D('',#1045,#813,#814);
#713=AXIS2_PLACEMENT_3D('',#1047,#815,#816);
#714=AXIS2_PLACEMENT_3D('',#1049,#817,#818);
#715=AXIS2_PLACEMENT_3D('',#1051,#820,#821);
#716=AXIS2_PLACEMENT_3D('',#1057,#825,#826);
#717=AXIS2_PLACEMENT_3D('',#1059,#827,#828);
#718=AXIS2_PLACEMENT_3D('',#1061,#829,#830);
#719=AXIS2_PLACEMENT_3D('',#1064,#832,#833);
#720=AXIS2_PLACEMENT_3D('',#1066,#834,#835);
#721=AXIS2_PLACEMENT_3D('',#1068,#837,#838);
#722=AXIS2_PLACEMENT_3D('',#1070,#839,#840);
#723=AXIS2_PLACEMENT_3D('',#1071,#841,#842);
#724=AXIS2_PLACEMENT_3D('',#1072,#843,#844);
#725=AXIS2_PLACEMENT_3D('',#1074,#845,#846);
#726=AXIS2_PLACEMENT_3D('',#1075,#847,#848);
#727=AXIS2_PLACEMENT_3D('',#1076,#849,#850);
#728=AXIS2_PLACEMENT_3D('',#1078,#852,#853);
#729=AXIS2_PLACEMENT_3D('',#1080,#855,#856);
#730=AXIS2_PLACEMENT_3D('',#1082,#858,#859);
#731=AXIS2_PLACEMENT_3D('',#1083,#860,#861);
#732=AXIS2_PLACEMENT_3D('',#1085,#862,#863);
#733=AXIS2_PLACEMENT_3D('',#1086,#864,#865);
#734=AXIS2_PLACEMENT_3D('',#1087,#866,#867);
#735=AXIS2_PLACEMENT_3D('',#1089,#869,#870);
#736=AXIS2_PLACEMENT_3D('',#1093,#873,#874);
#737=AXIS2_PLACEMENT_3D('',#1094,#875,#876);
#738=AXIS2_PLACEMENT_3D('',#1095,#877,#878);
#739=AXIS2_PLACEMENT_3D('',#1096,#879,#880);
#740=AXIS2_PLACEMENT_3D('',#1097,#881,#882);
#741=AXIS2_PLACEMENT_3D('',#1098,#883,#884);
#742=AXIS2_PLACEMENT_3D('',#1107,#889,#890);
#743=AXIS2_PLACEMENT_3D('',#1116,#895,#896);
#744=AXIS2_PLACEMENT_3D('',#1118,#897,#898);
#745=AXIS2_PLACEMENT_3D('',#1121,#900,#901);
#746=AXIS2_PLACEMENT_3D('',#1123,#902,#903);
#747=AXIS2_PLACEMENT_3D('',#1126,#905,#906);
#748=AXIS2_PLACEMENT_3D('',#1127,#907,#908);
#749=AXIS2_PLACEMENT_3D('',#1129,#909,#910);
#750=AXIS2_PLACEMENT_3D('',#1131,#911,#912);
#751=AXIS2_PLACEMENT_3D('',#1134,#914,#915);
#752=AXIS2_PLACEMENT_3D('',#1136,#916,#917);
#753=AXIS2_PLACEMENT_3D('',#1138,#919,#920);
#754=AXIS2_PLACEMENT_3D('',#1140,#922,#923);
#755=AXIS2_PLACEMENT_3D('',#1142,#925,#926);
#756=AXIS2_PLACEMENT_3D('',#1143,#927,#928);
#757=AXIS2_PLACEMENT_3D('',#1145,#930,#931);
#758=AXIS2_PLACEMENT_3D('',#1147,#933,#934);
#759=AXIS2_PLACEMENT_3D('',#1148,#935,#936);
#760=AXIS2_PLACEMENT_3D('',#1151,#937,#938);
#761=AXIS2_PLACEMENT_3D('',#1155,#940,#941);
#762=AXIS2_PLACEMENT_3D('',#1157,#943,#944);
#763=AXIS2_PLACEMENT_3D('',#1163,#948,#949);
#764=AXIS2_PLACEMENT_3D('',#1166,#950,#951);
#765=AXIS2_PLACEMENT_3D('',#1170,#953,#954);
#766=AXIS2_PLACEMENT_3D('',#1172,#956,#957);
#767=AXIS2_PLACEMENT_3D('',#1175,#960,#961);
#768=AXIS2_PLACEMENT_3D('',#1181,#965,#966);
#769=AXIS2_PLACEMENT_3D('',#1183,#967,#968);
#770=AXIS2_PLACEMENT_3D('',#1185,#969,#970);
#771=AXIS2_PLACEMENT_3D('',#1188,#972,#973);
#772=AXIS2_PLACEMENT_3D('',#1190,#974,#975);
#773=AXIS2_PLACEMENT_3D('',#1192,#977,#978);
#774=AXIS2_PLACEMENT_3D('',#1194,#979,#980);
#775=AXIS2_PLACEMENT_3D('',#1195,#981,#982);
#776=AXIS2_PLACEMENT_3D('',#1196,#983,#984);
#777=AXIS2_PLACEMENT_3D('',#1198,#986,#987);
#778=AXIS2_PLACEMENT_3D('',#1200,#988,#989);
#779=AXIS2_PLACEMENT_3D('',#1201,#990,#991);
#780=AXIS2_PLACEMENT_3D('',#1202,#992,#993);
#781=AXIS2_PLACEMENT_3D('',#1204,#995,#996);
#782=AXIS2_PLACEMENT_3D('',#1206,#998,#999);
#783=AXIS2_PLACEMENT_3D('',#1207,#1000,#1001);
#784=AXIS2_PLACEMENT_3D('',#1209,#1002,#1003);
#785=AXIS2_PLACEMENT_3D('',#1210,#1004,#1005);
#786=AXIS2_PLACEMENT_3D('',#1211,#1006,#1007);
#787=AXIS2_PLACEMENT_3D('',#1213,#1008,#1009);
#788=AXIS2_PLACEMENT_3D('',#1214,#1010,#1011);
#789=AXIS2_PLACEMENT_3D('',#1215,#1012,#1013);
#790=AXIS2_PLACEMENT_3D('',#1217,#1015,#1016);
#791=AXIS2_PLACEMENT_3D('',#1219,#1018,#1019);
#792=AXIS2_PLACEMENT_3D('',#1221,#1021,#1022);
#793=DIRECTION('axis',(0.,0.,1.));
#794=DIRECTION('refdir',(1.,0.,0.));
#795=DIRECTION('center_axis',(0.,0.,-1.));
#796=DIRECTION('ref_axis',(-0.707106781186547,-0.707106781186547,0.));
#797=DIRECTION('center_axis',(0.,-1.11022302462516E-15,-1.));
#798=DIRECTION('ref_axis',(-0.707106781186547,-0.707106781186547,7.85046229341887E-16));
#799=DIRECTION('',(0.,0.,1.));
#800=DIRECTION('center_axis',(0.,0.,1.));
#801=DIRECTION('ref_axis',(0.,-1.,0.));
#802=DIRECTION('',(0.,0.,-1.));
#803=DIRECTION('center_axis',(0.,-1.,0.));
#804=DIRECTION('ref_axis',(0.,0.,-1.));
#805=DIRECTION('',(-1.,0.,0.));
#806=DIRECTION('',(0.,0.,-1.));
#807=DIRECTION('',(1.,0.,0.));
#808=DIRECTION('center_axis',(-1.,0.,0.));
#809=DIRECTION('ref_axis',(0.,0.,-1.));
#810=DIRECTION('',(0.,1.,0.));
#811=DIRECTION('',(0.,-1.,0.));
#812=DIRECTION('',(0.,0.,1.));
#813=DIRECTION('center_axis',(0.,0.,-1.));
#814=DIRECTION('ref_axis',(-0.707106781186549,0.707106781186546,0.));
#815=DIRECTION('center_axis',(-1.11022302462515E-15,0.,-1.));
#816=DIRECTION('ref_axis',(-0.707106781186549,0.707106781186546,7.85046229341885E-16));
#817=DIRECTION('center_axis',(0.,0.,1.));
#818=DIRECTION('ref_axis',(-1.,0.,0.));
#819=DIRECTION('',(0.,0.,-1.));
#820=DIRECTION('center_axis',(0.,1.,0.));
#821=DIRECTION('ref_axis',(0.,0.,1.));
#822=DIRECTION('',(1.,0.,0.));
#823=DIRECTION('',(-1.,0.,0.));
#824=DIRECTION('',(0.,0.,-1.));
#825=DIRECTION('center_axis',(1.,0.,0.));
#826=DIRECTION('ref_axis',(0.,0.,1.));
#827=DIRECTION('center_axis',(-1.,0.,0.));
#828=DIRECTION('ref_axis',(0.,0.707106781186548,-0.707106781186547));
#829=DIRECTION('center_axis',(-1.,0.,0.));
#830=DIRECTION('ref_axis',(0.,0.707106781186549,0.707106781186546));
#831=DIRECTION('',(0.,-1.,0.));
#832=DIRECTION('center_axis',(-1.,0.,0.));
#833=DIRECTION('ref_axis',(0.,-0.707106781186549,0.707106781186546));
#834=DIRECTION('center_axis',(-1.,0.,0.));
#835=DIRECTION('ref_axis',(0.,-0.707106781186548,-0.707106781186547));
#836=DIRECTION('',(0.,1.,0.));
#837=DIRECTION('center_axis',(0.,0.,1.));
#838=DIRECTION('ref_axis',(1.,0.,0.));
#839=DIRECTION('center_axis',(0.,-1.,0.));
#840=DIRECTION('ref_axis',(0.,0.,-1.));
#841=DIRECTION('center_axis',(-1.,0.,-2.22044604925031E-15));
#842=DIRECTION('ref_axis',(3.14018491736755E-15,-0.707106781186548,-0.707106781186547));
#843=DIRECTION('center_axis',(0.,0.,1.));
#844=DIRECTION('ref_axis',(1.,0.,0.));
#845=DIRECTION('center_axis',(-1.,0.,0.));
#846=DIRECTION('ref_axis',(0.,0.707106781186547,-0.707106781186547));
#847=DIRECTION('center_axis',(0.,1.,0.));
#848=DIRECTION('ref_axis',(-1.,0.,0.));
#849=DIRECTION('center_axis',(0.,-1.,0.));
#850=DIRECTION('ref_axis',(-0.70710678118655,0.,-0.707106781186546));
#851=DIRECTION('',(0.,-1.,0.));
#852=DIRECTION('center_axis',(-1.,0.,0.));
#853=DIRECTION('ref_axis',(0.,0.707106781186548,-0.707106781186547));
#854=DIRECTION('',(-1.,0.,0.));
#855=DIRECTION('center_axis',(1.,0.,0.));
#856=DIRECTION('ref_axis',(0.,-0.707106781186548,-0.707106781186547));
#857=DIRECTION('',(1.,0.,0.));
#858=DIRECTION('center_axis',(0.,0.,-1.));
#859=DIRECTION('ref_axis',(1.,0.,0.));
#860=DIRECTION('center_axis',(0.,0.,1.));
#861=DIRECTION('ref_axis',(1.,0.,0.));
#862=DIRECTION('center_axis',(0.,-1.,0.));
#863=DIRECTION('ref_axis',(-0.707106781186551,0.,0.707106781186544));
#864=DIRECTION('center_axis',(-1.,0.,2.22044604925031E-15));
#865=DIRECTION('ref_axis',(3.14018491736755E-15,-0.707106781186549,0.707106781186546));
#866=DIRECTION('center_axis',(-1.,0.,0.));
#867=DIRECTION('ref_axis',(0.,-0.707106781186549,0.707106781186546));
#868=DIRECTION('',(-1.,0.,0.));
#869=DIRECTION('center_axis',(0.,0.,-1.));
#870=DIRECTION('ref_axis',(1.,0.,0.));
#871=DIRECTION('',(1.,0.,0.));
#872=DIRECTION('',(0.,1.,0.));
#873=DIRECTION('center_axis',(0.,1.,0.));
#874=DIRECTION('ref_axis',(-0.707106781186551,0.,0.707106781186544));
#875=DIRECTION('center_axis',(0.,1.,0.));
#876=DIRECTION('ref_axis',(-0.707106781186551,0.,0.707106781186544));
#877=DIRECTION('center_axis',(0.,0.,1.));
#878=DIRECTION('ref_axis',(1.,0.,0.));
#879=DIRECTION('center_axis',(-1.,0.,0.));
#880=DIRECTION('ref_axis',(0.,0.707106781186549,0.707106781186546));
#881=DIRECTION('center_axis',(1.,0.,0.));
#882=DIRECTION('ref_axis',(0.,0.707106781186549,0.707106781186546));
#883=DIRECTION('center_axis',(0.,-1.,0.));
#884=DIRECTION('ref_axis',(0.,0.,-1.));
#885=DIRECTION('',(-1.,0.,0.));
#886=DIRECTION('',(0.,0.,-1.));
#887=DIRECTION('',(1.,0.,0.));
#888=DIRECTION('',(0.,0.,-1.));
#889=DIRECTION('center_axis',(0.,1.,0.));
#890=DIRECTION('ref_axis',(0.,0.,1.));
#891=DIRECTION('',(1.,0.,0.));
#892=DIRECTION('',(0.,0.,-1.));
#893=DIRECTION('',(-1.,0.,0.));
#894=DIRECTION('',(0.,0.,-1.));
#895=DIRECTION('center_axis',(1.,0.,0.));
#896=DIRECTION('ref_axis',(0.,0.,1.));
#897=DIRECTION('center_axis',(-1.,0.,0.));
#898=DIRECTION('ref_axis',(0.,-0.707106781186548,-0.707106781186547));
#899=DIRECTION('',(0.,1.,0.));
#900=DIRECTION('center_axis',(-1.,0.,0.));
#901=DIRECTION('ref_axis',(0.,0.707106781186548,-0.707106781186547));
#902=DIRECTION('center_axis',(-1.,0.,0.));
#903=DIRECTION('ref_axis',(0.,0.707106781186549,0.707106781186546));
#904=DIRECTION('',(0.,-1.,0.));
#905=DIRECTION('center_axis',(-1.,0.,0.));
#906=DIRECTION('ref_axis',(0.,-0.707106781186549,0.707106781186546));
#907=DIRECTION('center_axis',(-1.,0.,0.));
#908=DIRECTION('ref_axis',(0.,0.,-1.));
#909=DIRECTION('center_axis',(1.,0.,0.));
#910=DIRECTION('ref_axis',(0.,-0.707106781186548,-0.707106781186547));
#911=DIRECTION('center_axis',(1.,0.,0.));
#912=DIRECTION('ref_axis',(0.,-0.707106781186549,0.707106781186546));
#913=DIRECTION('',(0.,1.,0.));
#914=DIRECTION('center_axis',(1.,0.,0.));
#915=DIRECTION('ref_axis',(0.,0.707106781186549,0.707106781186546));
#916=DIRECTION('center_axis',(1.,0.,0.));
#917=DIRECTION('ref_axis',(0.,0.707106781186548,-0.707106781186547));
#918=DIRECTION('',(0.,-1.,0.));
#919=DIRECTION('center_axis',(1.,0.,0.));
#920=DIRECTION('ref_axis',(0.,-0.707106781186548,-0.707106781186547));
#921=DIRECTION('',(1.,0.,0.));
#922=DIRECTION('center_axis',(0.,0.,-1.));
#923=DIRECTION('ref_axis',(1.,0.,0.));
#924=DIRECTION('',(-1.,0.,0.));
#925=DIRECTION('center_axis',(-1.,0.,0.));
#926=DIRECTION('ref_axis',(0.,0.707106781186548,-0.707106781186547));
#927=DIRECTION('center_axis',(-1.,0.,0.));
#928=DIRECTION('ref_axis',(0.,-0.707106781186549,0.707106781186546));
#929=DIRECTION('',(-1.,0.,0.));
#930=DIRECTION('center_axis',(1.,0.,0.));
#931=DIRECTION('ref_axis',(0.,0.707106781186549,0.707106781186546));
#932=DIRECTION('',(1.,0.,0.));
#933=DIRECTION('center_axis',(0.,0.,-1.));
#934=DIRECTION('ref_axis',(1.,0.,0.));
#935=DIRECTION('center_axis',(0.,0.,-1.));
#936=DIRECTION('ref_axis',(0.707106781186549,-0.707106781186546,0.));
#937=DIRECTION('center_axis',(0.,0.,-1.));
#938=DIRECTION('ref_axis',(0.,-1.,0.));
#939=DIRECTION('',(0.,0.,1.));
#940=DIRECTION('center_axis',(0.,0.,1.));
#941=DIRECTION('ref_axis',(0.707106781186549,-0.707106781186546,0.));
#942=DIRECTION('',(0.,0.,-1.));
#943=DIRECTION('center_axis',(0.,-1.,0.));
#944=DIRECTION('ref_axis',(0.,0.,-1.));
#945=DIRECTION('',(1.,0.,0.));
#946=DIRECTION('',(0.,0.,-1.));
#947=DIRECTION('',(-1.,0.,0.));
#948=DIRECTION('center_axis',(0.,0.,-1.));
#949=DIRECTION('ref_axis',(0.707106781186547,0.707106781186547,0.));
#950=DIRECTION('center_axis',(0.,0.,-1.));
#951=DIRECTION('ref_axis',(1.,0.,0.));
#952=DIRECTION('',(0.,0.,1.));
#953=DIRECTION('center_axis',(0.,0.,1.));
#954=DIRECTION('ref_axis',(0.707106781186547,0.707106781186547,0.));
#955=DIRECTION('',(0.,0.,-1.));
#956=DIRECTION('center_axis',(1.,0.,0.));
#957=DIRECTION('ref_axis',(0.,0.,1.));
#958=DIRECTION('',(0.,1.,0.));
#959=DIRECTION('',(0.,-1.,0.));
#960=DIRECTION('center_axis',(0.,1.,0.));
#961=DIRECTION('ref_axis',(0.,0.,1.));
#962=DIRECTION('',(-1.,0.,0.));
#963=DIRECTION('',(1.,0.,0.));
#964=DIRECTION('',(0.,0.,-1.));
#965=DIRECTION('center_axis',(-1.,0.,0.));
#966=DIRECTION('ref_axis',(0.,0.,-1.));
#967=DIRECTION('center_axis',(1.,0.,0.));
#968=DIRECTION('ref_axis',(0.,0.707106781186549,0.707106781186546));
#969=DIRECTION('center_axis',(1.,0.,0.));
#970=DIRECTION('ref_axis',(0.,0.707106781186548,-0.707106781186547));
#971=DIRECTION('',(0.,-1.,0.));
#972=DIRECTION('center_axis',(1.,0.,0.));
#973=DIRECTION('ref_axis',(0.,-0.707106781186548,-0.707106781186547));
#974=DIRECTION('center_axis',(1.,0.,0.));
#975=DIRECTION('ref_axis',(0.,-0.707106781186549,0.707106781186546));
#976=DIRECTION('',(0.,1.,0.));
#977=DIRECTION('center_axis',(0.,0.,1.));
#978=DIRECTION('ref_axis',(1.,0.,0.));
#979=DIRECTION('center_axis',(0.,-1.,0.));
#980=DIRECTION('ref_axis',(0.707106781186551,0.,0.707106781186544));
#981=DIRECTION('center_axis',(1.,0.,0.));
#982=DIRECTION('ref_axis',(0.,-1.,0.));
#983=DIRECTION('center_axis',(-1.,0.,0.));
#984=DIRECTION('ref_axis',(0.,-0.707106781186549,0.707106781186546));
#985=DIRECTION('',(-1.,0.,0.));
#986=DIRECTION('center_axis',(0.,0.,1.));
#987=DIRECTION('ref_axis',(1.,0.,0.));
#988=DIRECTION('center_axis',(1.,0.,2.22044604925031E-15));
#989=DIRECTION('ref_axis',(-3.14018491736755E-15,0.707106781186549,0.707106781186546));
#990=DIRECTION('center_axis',(0.,1.,0.));
#991=DIRECTION('ref_axis',(1.,0.,0.));
#992=DIRECTION('center_axis',(0.,-1.,0.));
#993=DIRECTION('ref_axis',(0.707106781186551,0.,0.707106781186544));
#994=DIRECTION('',(0.,-1.,0.));
#995=DIRECTION('center_axis',(1.,0.,0.));
#996=DIRECTION('ref_axis',(0.,0.707106781186549,0.707106781186546));
#997=DIRECTION('',(1.,0.,0.));
#998=DIRECTION('center_axis',(0.,0.,-1.));
#999=DIRECTION('ref_axis',(1.,0.,0.));
#1000=DIRECTION('center_axis',(0.,0.,1.));
#1001=DIRECTION('ref_axis',(1.,0.,0.));
#1002=DIRECTION('center_axis',(1.,0.,-2.22044604925031E-15));
#1003=DIRECTION('ref_axis',(-3.14018491736755E-15,0.707106781186548,-0.707106781186547));
#1004=DIRECTION('center_axis',(0.,1.,0.));
#1005=DIRECTION('ref_axis',(0.,0.,-1.));
#1006=DIRECTION('center_axis',(0.,0.,1.));
#1007=DIRECTION('ref_axis',(1.,0.,0.));
#1008=DIRECTION('center_axis',(0.,-1.,0.));
#1009=DIRECTION('ref_axis',(0.70710678118655,0.,-0.707106781186546));
#1010=DIRECTION('center_axis',(1.,0.,0.));
#1011=DIRECTION('ref_axis',(0.,-0.707106781186547,-0.707106781186547));
#1012=DIRECTION('center_axis',(0.,1.,0.));
#1013=DIRECTION('ref_axis',(0.70710678118655,0.,-0.707106781186546));
#1014=DIRECTION('',(0.,1.,0.));
#1015=DIRECTION('center_axis',(1.,0.,0.));
#1016=DIRECTION('ref_axis',(0.,-0.707106781186548,-0.707106781186547));
#1017=DIRECTION('',(1.,0.,0.));
#1018=DIRECTION('center_axis',(-1.,0.,0.));
#1019=DIRECTION('ref_axis',(0.,0.707106781186548,-0.707106781186547));
#1020=DIRECTION('',(-1.,0.,0.));
#1021=DIRECTION('center_axis',(0.,0.,-1.));
#1022=DIRECTION('ref_axis',(1.,0.,0.));
#1023=CARTESIAN_POINT('',(0.,0.,0.));
#1024=CARTESIAN_POINT('Origin',(-0.95,-0.575,0.725));
#1025=CARTESIAN_POINT('',(-0.95,-0.625,0.05));
#1026=CARTESIAN_POINT('',(-1.,-0.575,0.05));
#1027=CARTESIAN_POINT('Origin',(-0.95,-0.575,0.0499999999999999));
#1028=CARTESIAN_POINT('',(-0.95,-0.625,0.95));
#1029=CARTESIAN_POINT('',(-0.95,-0.625,0.725));
#1030=CARTESIAN_POINT('',(-1.,-0.575,0.95));
#1031=CARTESIAN_POINT('Origin',(-0.95,-0.575,0.95));
#1032=CARTESIAN_POINT('',(-1.,-0.575,0.725));
#1033=CARTESIAN_POINT('Origin',(-0.75,-0.625,0.725));
#1034=CARTESIAN_POINT('',(-0.5,-0.625,0.0499999999999999));
#1035=CARTESIAN_POINT('',(-0.75,-0.625,0.05));
#1036=CARTESIAN_POINT('',(-0.5,-0.625,0.95));
#1037=CARTESIAN_POINT('',(-0.5,-0.625,0.725));
#1038=CARTESIAN_POINT('',(-0.75,-0.625,0.95));
#1039=CARTESIAN_POINT('Origin',(-1.,-2.22044604925031E-16,0.725));
#1040=CARTESIAN_POINT('',(-1.,0.575,0.05));
#1041=CARTESIAN_POINT('',(-1.,-2.22044604925031E-16,0.05));
#1042=CARTESIAN_POINT('',(-1.,0.575,0.95));
#1043=CARTESIAN_POINT('',(-1.,-2.22044604925031E-16,0.95));
#1044=CARTESIAN_POINT('',(-1.,0.575,0.725));
#1045=CARTESIAN_POINT('Origin',(-0.95,0.575,0.725));
#1046=CARTESIAN_POINT('',(-0.95,0.625,0.0499999999999999));
#1047=CARTESIAN_POINT('Origin',(-0.95,0.575,0.0499999999999999));
#1048=CARTESIAN_POINT('',(-0.95,0.625,0.95));
#1049=CARTESIAN_POINT('Origin',(-0.95,0.575,0.95));
#1050=CARTESIAN_POINT('',(-0.95,0.625,0.725));
#1051=CARTESIAN_POINT('Origin',(-0.75,0.625,0.725));
#1052=CARTESIAN_POINT('',(-0.5,0.625,0.0499999999999999));
#1053=CARTESIAN_POINT('',(-0.75,0.625,0.05));
#1054=CARTESIAN_POINT('',(-0.5,0.625,0.95));
#1055=CARTESIAN_POINT('',(-0.75,0.625,0.95));
#1056=CARTESIAN_POINT('',(-0.5,0.625,0.725));
#1057=CARTESIAN_POINT('Origin',(-0.5,-2.22044604925031E-16,0.725));
#1058=CARTESIAN_POINT('',(-0.5,0.575,0.));
#1059=CARTESIAN_POINT('Origin',(-0.5,0.575,0.05));
#1060=CARTESIAN_POINT('',(-0.5,0.575,1.));
#1061=CARTESIAN_POINT('Origin',(-0.5,0.575,0.95));
#1062=CARTESIAN_POINT('',(-0.5,-0.575,1.));
#1063=CARTESIAN_POINT('',(-0.5,-2.22044604925031E-16,1.));
#1064=CARTESIAN_POINT('Origin',(-0.5,-0.575,0.95));
#1065=CARTESIAN_POINT('',(-0.5,-0.575,0.));
#1066=CARTESIAN_POINT('Origin',(-0.5,-0.575,0.05));
#1067=CARTESIAN_POINT('',(-0.5,-2.22044604925031E-16,0.));
#1068=CARTESIAN_POINT('Origin',(-0.95,-0.575,0.05));
#1069=CARTESIAN_POINT('',(-0.95,-0.575,0.));
#1070=CARTESIAN_POINT('Origin',(-0.95,-0.575,0.05));
#1071=CARTESIAN_POINT('Origin',(-0.95,-0.575,0.05));
#1072=CARTESIAN_POINT('Origin',(-0.95,0.575,0.05));
#1073=CARTESIAN_POINT('',(-0.95,0.575,0.));
#1074=CARTESIAN_POINT('Origin',(-0.95,0.575,0.05));
#1075=CARTESIAN_POINT('Origin',(-0.95,0.575,0.05));
#1076=CARTESIAN_POINT('Origin',(-0.95,-2.22044604925031E-16,0.05));
#1077=CARTESIAN_POINT('',(-0.95,-2.22044604925031E-16,0.));
#1078=CARTESIAN_POINT('Origin',(-0.75,0.575,0.05));
#1079=CARTESIAN_POINT('',(-0.75,0.575,0.));
#1080=CARTESIAN_POINT('Origin',(-0.75,-0.575,0.05));
#1081=CARTESIAN_POINT('',(-0.75,-0.575,0.));
#1082=CARTESIAN_POINT('Origin',(-0.75,-2.22044604925031E-16,0.));
#1083=CARTESIAN_POINT('Origin',(-0.95,-0.575,0.95));
#1084=CARTESIAN_POINT('',(-0.95,-0.575,1.));
#1085=CARTESIAN_POINT('Origin',(-0.95,-0.575,0.95));
#1086=CARTESIAN_POINT('Origin',(-0.95,-0.575,0.95));
#1087=CARTESIAN_POINT('Origin',(-0.75,-0.575,0.95));
#1088=CARTESIAN_POINT('',(-0.75,-0.575,1.));
#1089=CARTESIAN_POINT('Origin',(-0.75,-2.22044604925031E-16,1.));
#1090=CARTESIAN_POINT('',(-0.95,0.575,1.));
#1091=CARTESIAN_POINT('',(-0.75,0.575,1.));
#1092=CARTESIAN_POINT('',(-0.95,-2.22044604925031E-16,1.));
#1093=CARTESIAN_POINT('Origin',(-0.95,-2.22044604925031E-16,0.95));
#1094=CARTESIAN_POINT('Origin',(-0.95,0.575,0.95));
#1095=CARTESIAN_POINT('Origin',(-0.95,0.575,0.95));
#1096=CARTESIAN_POINT('Origin',(-0.95,0.575,0.95));
#1097=CARTESIAN_POINT('Origin',(-0.75,0.575,0.95));
#1098=CARTESIAN_POINT('Origin',(0.,-0.625,0.725));
#1099=CARTESIAN_POINT('',(0.5,-0.625,0.0499999999999999));
#1100=CARTESIAN_POINT('',(-0.5,-0.625,0.0499999999999999));
#1101=CARTESIAN_POINT('',(0.,-0.625,0.05));
#1102=CARTESIAN_POINT('',(0.5,-0.625,0.95));
#1103=CARTESIAN_POINT('',(0.5,-0.625,0.725));
#1104=CARTESIAN_POINT('',(-0.5,-0.625,0.95));
#1105=CARTESIAN_POINT('',(0.,-0.625,0.95));
#1106=CARTESIAN_POINT('',(-0.5,-0.625,0.725));
#1107=CARTESIAN_POINT('Origin',(0.,0.625,0.725));
#1108=CARTESIAN_POINT('',(-0.5,0.625,0.0499999999999999));
#1109=CARTESIAN_POINT('',(0.5,0.625,0.0499999999999999));
#1110=CARTESIAN_POINT('',(0.,0.625,0.05));
#1111=CARTESIAN_POINT('',(-0.5,0.625,0.95));
#1112=CARTESIAN_POINT('',(-0.5,0.625,0.725));
#1113=CARTESIAN_POINT('',(0.5,0.625,0.95));
#1114=CARTESIAN_POINT('',(0.,0.625,0.95));
#1115=CARTESIAN_POINT('',(0.5,0.625,0.725));
#1116=CARTESIAN_POINT('Origin',(0.5,-2.22044604925031E-16,0.725));
#1117=CARTESIAN_POINT('',(0.5,-0.575,0.));
#1118=CARTESIAN_POINT('Origin',(0.5,-0.575,0.05));
#1119=CARTESIAN_POINT('',(0.5,0.575,0.));
#1120=CARTESIAN_POINT('',(0.5,-2.22044604925031E-16,0.));
#1121=CARTESIAN_POINT('Origin',(0.5,0.575,0.05));
#1122=CARTESIAN_POINT('',(0.5,0.575,1.));
#1123=CARTESIAN_POINT('Origin',(0.5,0.575,0.95));
#1124=CARTESIAN_POINT('',(0.5,-0.575,1.));
#1125=CARTESIAN_POINT('',(0.5,-2.22044604925031E-16,1.));
#1126=CARTESIAN_POINT('Origin',(0.5,-0.575,0.95));
#1127=CARTESIAN_POINT('Origin',(-0.5,-2.22044604925031E-16,0.725));
#1128=CARTESIAN_POINT('',(-0.5,-0.575,0.));
#1129=CARTESIAN_POINT('Origin',(-0.5,-0.575,0.05));
#1130=CARTESIAN_POINT('',(-0.5,-0.575,1.));
#1131=CARTESIAN_POINT('Origin',(-0.5,-0.575,0.95));
#1132=CARTESIAN_POINT('',(-0.5,0.575,1.));
#1133=CARTESIAN_POINT('',(-0.5,-2.22044604925031E-16,1.));
#1134=CARTESIAN_POINT('Origin',(-0.5,0.575,0.95));
#1135=CARTESIAN_POINT('',(-0.5,0.575,0.));
#1136=CARTESIAN_POINT('Origin',(-0.5,0.575,0.05));
#1137=CARTESIAN_POINT('',(-0.5,-2.22044604925031E-16,0.));
#1138=CARTESIAN_POINT('Origin',(0.,-0.575,0.05));
#1139=CARTESIAN_POINT('',(0.,-0.575,0.));
#1140=CARTESIAN_POINT('Origin',(0.,-2.22044604925031E-16,0.));
#1141=CARTESIAN_POINT('',(0.,0.575,0.));
#1142=CARTESIAN_POINT('Origin',(0.,0.575,0.05));
#1143=CARTESIAN_POINT('Origin',(0.,-0.575,0.95));
#1144=CARTESIAN_POINT('',(0.,-0.575,1.));
#1145=CARTESIAN_POINT('Origin',(0.,0.575,0.95));
#1146=CARTESIAN_POINT('',(0.,0.575,1.));
#1147=CARTESIAN_POINT('Origin',(0.,-2.22044604925031E-16,1.));
#1148=CARTESIAN_POINT('Origin',(0.95,-0.575,0.725));
#1149=CARTESIAN_POINT('',(0.95,-0.625,0.0499999999999999));
#1150=CARTESIAN_POINT('',(1.,-0.575,0.0499999999999999));
#1151=CARTESIAN_POINT('Origin',(0.95,-0.575,0.0499999999999999));
#1152=CARTESIAN_POINT('',(1.,-0.575,0.95));
#1153=CARTESIAN_POINT('',(1.,-0.575,0.725));
#1154=CARTESIAN_POINT('',(0.95,-0.625,0.95));
#1155=CARTESIAN_POINT('Origin',(0.95,-0.575,0.95));
#1156=CARTESIAN_POINT('',(0.95,-0.625,0.725));
#1157=CARTESIAN_POINT('Origin',(0.75,-0.625,0.725));
#1158=CARTESIAN_POINT('',(0.5,-0.625,0.95));
#1159=CARTESIAN_POINT('',(0.75,-0.625,0.95));
#1160=CARTESIAN_POINT('',(0.5,-0.625,0.0499999999999999));
#1161=CARTESIAN_POINT('',(0.5,-0.625,0.725));
#1162=CARTESIAN_POINT('',(0.75,-0.625,0.05));
#1163=CARTESIAN_POINT('Origin',(0.95,0.575,0.725));
#1164=CARTESIAN_POINT('',(1.,0.575,0.05));
#1165=CARTESIAN_POINT('',(0.95,0.625,0.0499999999999999));
#1166=CARTESIAN_POINT('Origin',(0.95,0.575,0.0499999999999999));
#1167=CARTESIAN_POINT('',(0.95,0.625,0.95));
#1168=CARTESIAN_POINT('',(0.95,0.625,0.725));
#1169=CARTESIAN_POINT('',(1.,0.575,0.95));
#1170=CARTESIAN_POINT('Origin',(0.95,0.575,0.95));
#1171=CARTESIAN_POINT('',(1.,0.575,0.725));
#1172=CARTESIAN_POINT('Origin',(1.,-2.22044604925031E-16,0.725));
#1173=CARTESIAN_POINT('',(1.,-2.22044604925031E-16,0.95));
#1174=CARTESIAN_POINT('',(1.,-2.22044604925031E-16,0.05));
#1175=CARTESIAN_POINT('Origin',(0.75,0.625,0.725));
#1176=CARTESIAN_POINT('',(0.5,0.625,0.95));
#1177=CARTESIAN_POINT('',(0.75,0.625,0.95));
#1178=CARTESIAN_POINT('',(0.5,0.625,0.0499999999999999));
#1179=CARTESIAN_POINT('',(0.75,0.625,0.05));
#1180=CARTESIAN_POINT('',(0.5,0.625,0.725));
#1181=CARTESIAN_POINT('Origin',(0.5,-2.22044604925031E-16,0.725));
#1182=CARTESIAN_POINT('',(0.5,0.575,1.));
#1183=CARTESIAN_POINT('Origin',(0.5,0.575,0.95));
#1184=CARTESIAN_POINT('',(0.5,0.575,0.));
#1185=CARTESIAN_POINT('Origin',(0.5,0.575,0.05));
#1186=CARTESIAN_POINT('',(0.5,-0.575,0.));
#1187=CARTESIAN_POINT('',(0.5,-2.22044604925031E-16,0.));
#1188=CARTESIAN_POINT('Origin',(0.5,-0.575,0.05));
#1189=CARTESIAN_POINT('',(0.5,-0.575,1.));
#1190=CARTESIAN_POINT('Origin',(0.5,-0.575,0.95));
#1191=CARTESIAN_POINT('',(0.5,-2.22044604925031E-16,1.));
#1192=CARTESIAN_POINT('Origin',(0.95,-0.575,0.95));
#1193=CARTESIAN_POINT('',(0.95,-0.575,1.));
#1194=CARTESIAN_POINT('Origin',(0.95,-0.575,0.95));
#1195=CARTESIAN_POINT('Origin',(0.95,-0.575,0.95));
#1196=CARTESIAN_POINT('Origin',(0.75,-0.575,0.95));
#1197=CARTESIAN_POINT('',(0.75,-0.575,1.));
#1198=CARTESIAN_POINT('Origin',(0.95,0.575,0.95));
#1199=CARTESIAN_POINT('',(0.95,0.575,1.));
#1200=CARTESIAN_POINT('Origin',(0.95,0.575,0.95));
#1201=CARTESIAN_POINT('Origin',(0.95,0.575,0.95));
#1202=CARTESIAN_POINT('Origin',(0.95,-2.22044604925031E-16,0.95));
#1203=CARTESIAN_POINT('',(0.95,-2.22044604925031E-16,1.));
#1204=CARTESIAN_POINT('Origin',(0.75,0.575,0.95));
#1205=CARTESIAN_POINT('',(0.75,0.575,1.));
#1206=CARTESIAN_POINT('Origin',(0.75,-2.22044604925031E-16,1.));
#1207=CARTESIAN_POINT('Origin',(0.95,0.575,0.0499999999999999));
#1208=CARTESIAN_POINT('',(0.95,0.575,0.));
#1209=CARTESIAN_POINT('Origin',(0.95,0.575,0.05));
#1210=CARTESIAN_POINT('Origin',(0.95,0.575,0.05));
#1211=CARTESIAN_POINT('Origin',(0.95,-0.575,0.05));
#1212=CARTESIAN_POINT('',(0.95,-0.575,0.));
#1213=CARTESIAN_POINT('Origin',(0.95,-0.575,0.05));
#1214=CARTESIAN_POINT('Origin',(0.95,-0.575,0.05));
#1215=CARTESIAN_POINT('Origin',(0.95,-2.22044604925031E-16,0.05));
#1216=CARTESIAN_POINT('',(0.95,-2.22044604925031E-16,0.));
#1217=CARTESIAN_POINT('Origin',(0.75,-0.575,0.05));
#1218=CARTESIAN_POINT('',(0.75,-0.575,0.));
#1219=CARTESIAN_POINT('Origin',(0.75,0.575,0.05));
#1220=CARTESIAN_POINT('',(0.75,0.575,0.));
#1221=CARTESIAN_POINT('Origin',(0.75,-2.22044604925031E-16,0.));
#1222=UNCERTAINTY_MEASURE_WITH_UNIT(LENGTH_MEASURE(0.01),#1226,
'DISTANCE_ACCURACY_VALUE',
'Maximum model space distance between geometric entities at asserted c
onnectivities');
#1223=UNCERTAINTY_MEASURE_WITH_UNIT(LENGTH_MEASURE(1.E-6),#1226,
'DISTANCE_ACCURACY_VALUE',
'Maximum model space distance between geometric entities at asserted c
onnectivities');
#1224=(
GEOMETRIC_REPRESENTATION_CONTEXT(3)
GLOBAL_UNCERTAINTY_ASSIGNED_CONTEXT((#1222))
GLOBAL_UNIT_ASSIGNED_CONTEXT((#1226,#1228,#1227))
REPRESENTATION_CONTEXT('','3D')
);
#1225=(
GEOMETRIC_REPRESENTATION_CONTEXT(3)
GLOBAL_UNCERTAINTY_ASSIGNED_CONTEXT((#1223))
GLOBAL_UNIT_ASSIGNED_CONTEXT((#1226,#12,#1227))
REPRESENTATION_CONTEXT('','3D')
);
#1226=(
LENGTH_UNIT()
NAMED_UNIT(*)
SI_UNIT(.MILLI.,.METRE.)
);
#1227=(
NAMED_UNIT(*)
SI_UNIT($,.STERADIAN.)
SOLID_ANGLE_UNIT()
);
#1228=(
NAMED_UNIT(*)
PLANE_ANGLE_UNIT()
SI_UNIT($,.RADIAN.)
);
#1229=SHAPE_DEFINITION_REPRESENTATION(#1230,#1231);
#1230=PRODUCT_DEFINITION_SHAPE('',$,#1233);
#1231=SHAPE_REPRESENTATION('',(#706),#1224);
#1232=PRODUCT_DEFINITION_CONTEXT('part definition',#1237,'design');
#1233=PRODUCT_DEFINITION('Product','Product',#1234,#1232);
#1234=PRODUCT_DEFINITION_FORMATION('',$,#1239);
#1235=PRODUCT_RELATED_PRODUCT_CATEGORY('Product','Product',(#1239));
#1236=APPLICATION_PROTOCOL_DEFINITION('international standard',
'automotive_design',2009,#1237);
#1237=APPLICATION_CONTEXT(
'Core Data for Automotive Mechanical Design Process');
#1238=PRODUCT_CONTEXT('part definition',#1237,'mechanical');
#1239=PRODUCT('Product','Product',$,(#1238));
#1240=PRESENTATION_STYLE_ASSIGNMENT((#1243));
#1241=PRESENTATION_STYLE_ASSIGNMENT((#1244));
#1242=PRESENTATION_STYLE_ASSIGNMENT((#1245));
#1243=SURFACE_STYLE_USAGE(.BOTH.,#1246);
#1244=SURFACE_STYLE_USAGE(.BOTH.,#1247);
#1245=SURFACE_STYLE_USAGE(.BOTH.,#1248);
#1246=SURFACE_SIDE_STYLE('',(#1249));
#1247=SURFACE_SIDE_STYLE('',(#1250));
#1248=SURFACE_SIDE_STYLE('',(#1251));
#1249=SURFACE_STYLE_FILL_AREA(#1252);
#1250=SURFACE_STYLE_FILL_AREA(#1253);
#1251=SURFACE_STYLE_FILL_AREA(#1254);
#1252=FILL_AREA_STYLE('',(#1255));
#1253=FILL_AREA_STYLE('',(#1256));
#1254=FILL_AREA_STYLE('',(#1257));
#1255=FILL_AREA_STYLE_COLOUR('',#1258);
#1256=FILL_AREA_STYLE_COLOUR('',#1259);
#1257=FILL_AREA_STYLE_COLOUR('',#1260);
#1258=COLOUR_RGB('',1.,1.,1.);
#1259=COLOUR_RGB('',0.749019607843137,0.749019607843137,0.749019607843137);
#1260=COLOUR_RGB('',0.329411764705882,0.329411764705882,0.329411764705882);
ENDSEC;
END-ISO-10303-21;
