ISO-10303-21;
HEADER;
/* Generated by software containing ST-Developer
 * from STEP Tools, Inc. (www.steptools.com) 
 */

FILE_DESCRIPTION(
/* description */ (''),
/* implementation_level */ '2;1');

FILE_NAME(
/* name */ 
'G:\\Applications\\Altium\\CernLib\\StepLib\\KETEK_PM1150_Part1.stp',
/* time_stamp */ '2015-03-12T13:30:16+01:00',
/* author */ ('admchouv'),
/* organization */ (''),
/* preprocessor_version */ 'ST-DEVELOPER v15.5',
/* originating_system */ 'AutoCAD Mechanical',
/* authorisation */ '');

FILE_SCHEMA (('AUTOMOTIVE_DESIGN { 1 0 10303 214 3 1 1 }'));
ENDSEC;

DATA;
#10=MECHANICAL_DESIGN_GEOMETRIC_PRESENTATION_REPRESENTATION('',(#31,#29,
#33,#30,#32,#34,#26,#25,#28,#27),#1684);
#11=DIMENSIONAL_EXPONENTS(0.,0.,0.,0.,0.,0.,0.);
#12=(
CONVERSION_BASED_UNIT('degree',#13)
NAMED_UNIT(#11)
PLANE_ANGLE_UNIT()
);
#13=PLANE_ANGLE_MEASURE_WITH_UNIT(PLANE_ANGLE_MEASURE(0.01745329252),#1687);
#14=PRESENTATION_LAYER_ASSIGNMENT('Mechanical 14','',(#1055));
#15=PRESENTATION_LAYER_ASSIGNMENT('3D','',(#1041,#1042,#1043,#1044,#1045,
#1046,#1047,#1048,#1049,#1050));
#16=CIRCLE($,#1112,0.175);
#17=CIRCLE($,#1113,0.175);
#18=CIRCLE($,#1120,0.175);
#19=CIRCLE($,#1121,0.175);
#20=CYLINDRICAL_SURFACE($,#1111,0.175);
#21=CYLINDRICAL_SURFACE($,#1119,0.175);
#22=FACE_BOUND($,#140,.T.);
#23=FACE_BOUND($,#142,.T.);
#24=ADVANCED_BREP_SHAPE_REPRESENTATION($,(#1041,#1042,#1043,#1044,#1045,
#1046,#1047,#1048,#1049,#1050),#1683);
#25=STYLED_ITEM($,(#1701),#1041);
#26=STYLED_ITEM($,(#1701),#1042);
#27=STYLED_ITEM($,(#1701),#1043);
#28=STYLED_ITEM($,(#1701),#1044);
#29=STYLED_ITEM($,(#1702),#1045);
#30=STYLED_ITEM($,(#1702),#1046);
#31=STYLED_ITEM($,(#1703),#1047);
#32=STYLED_ITEM($,(#1704),#1048);
#33=STYLED_ITEM($,(#1701),#1049);
#34=STYLED_ITEM($,(#1701),#1050);
#35=FACE_OUTER_BOUND($,#99,.T.);
#36=FACE_OUTER_BOUND($,#100,.T.);
#37=FACE_OUTER_BOUND($,#101,.T.);
#38=FACE_OUTER_BOUND($,#102,.T.);
#39=FACE_OUTER_BOUND($,#103,.T.);
#40=FACE_OUTER_BOUND($,#104,.T.);
#41=FACE_OUTER_BOUND($,#105,.T.);
#42=FACE_OUTER_BOUND($,#106,.T.);
#43=FACE_OUTER_BOUND($,#107,.T.);
#44=FACE_OUTER_BOUND($,#108,.T.);
#45=FACE_OUTER_BOUND($,#109,.T.);
#46=FACE_OUTER_BOUND($,#110,.T.);
#47=FACE_OUTER_BOUND($,#111,.T.);
#48=FACE_OUTER_BOUND($,#112,.T.);
#49=FACE_OUTER_BOUND($,#113,.T.);
#50=FACE_OUTER_BOUND($,#114,.T.);
#51=FACE_OUTER_BOUND($,#115,.T.);
#52=FACE_OUTER_BOUND($,#116,.T.);
#53=FACE_OUTER_BOUND($,#117,.T.);
#54=FACE_OUTER_BOUND($,#118,.T.);
#55=FACE_OUTER_BOUND($,#119,.T.);
#56=FACE_OUTER_BOUND($,#120,.T.);
#57=FACE_OUTER_BOUND($,#121,.T.);
#58=FACE_OUTER_BOUND($,#122,.T.);
#59=FACE_OUTER_BOUND($,#123,.T.);
#60=FACE_OUTER_BOUND($,#124,.T.);
#61=FACE_OUTER_BOUND($,#125,.T.);
#62=FACE_OUTER_BOUND($,#126,.T.);
#63=FACE_OUTER_BOUND($,#127,.T.);
#64=FACE_OUTER_BOUND($,#128,.T.);
#65=FACE_OUTER_BOUND($,#129,.T.);
#66=FACE_OUTER_BOUND($,#130,.T.);
#67=FACE_OUTER_BOUND($,#131,.T.);
#68=FACE_OUTER_BOUND($,#132,.T.);
#69=FACE_OUTER_BOUND($,#133,.T.);
#70=FACE_OUTER_BOUND($,#134,.T.);
#71=FACE_OUTER_BOUND($,#135,.T.);
#72=FACE_OUTER_BOUND($,#136,.T.);
#73=FACE_OUTER_BOUND($,#137,.T.);
#74=FACE_OUTER_BOUND($,#138,.T.);
#75=FACE_OUTER_BOUND($,#139,.T.);
#76=FACE_OUTER_BOUND($,#141,.T.);
#77=FACE_OUTER_BOUND($,#143,.T.);
#78=FACE_OUTER_BOUND($,#144,.T.);
#79=FACE_OUTER_BOUND($,#145,.T.);
#80=FACE_OUTER_BOUND($,#146,.T.);
#81=FACE_OUTER_BOUND($,#147,.T.);
#82=FACE_OUTER_BOUND($,#148,.T.);
#83=FACE_OUTER_BOUND($,#149,.T.);
#84=FACE_OUTER_BOUND($,#150,.T.);
#85=FACE_OUTER_BOUND($,#151,.T.);
#86=FACE_OUTER_BOUND($,#152,.T.);
#87=FACE_OUTER_BOUND($,#153,.T.);
#88=FACE_OUTER_BOUND($,#154,.T.);
#89=FACE_OUTER_BOUND($,#155,.T.);
#90=FACE_OUTER_BOUND($,#156,.T.);
#91=FACE_OUTER_BOUND($,#157,.T.);
#92=FACE_OUTER_BOUND($,#158,.T.);
#93=FACE_OUTER_BOUND($,#159,.T.);
#94=FACE_OUTER_BOUND($,#160,.T.);
#95=FACE_OUTER_BOUND($,#161,.T.);
#96=FACE_OUTER_BOUND($,#162,.T.);
#97=FACE_OUTER_BOUND($,#163,.T.);
#98=FACE_OUTER_BOUND($,#164,.T.);
#99=EDGE_LOOP($,(#641,#642,#643,#644));
#100=EDGE_LOOP($,(#645,#646,#647,#648));
#101=EDGE_LOOP($,(#649,#650,#651,#652));
#102=EDGE_LOOP($,(#653,#654,#655,#656));
#103=EDGE_LOOP($,(#657,#658,#659,#660));
#104=EDGE_LOOP($,(#661,#662,#663,#664));
#105=EDGE_LOOP($,(#665,#666,#667,#668));
#106=EDGE_LOOP($,(#669,#670,#671,#672));
#107=EDGE_LOOP($,(#673,#674,#675,#676));
#108=EDGE_LOOP($,(#677,#678,#679,#680));
#109=EDGE_LOOP($,(#681,#682,#683,#684));
#110=EDGE_LOOP($,(#685,#686,#687,#688));
#111=EDGE_LOOP($,(#689,#690,#691,#692));
#112=EDGE_LOOP($,(#693,#694,#695,#696));
#113=EDGE_LOOP($,(#697,#698,#699,#700));
#114=EDGE_LOOP($,(#701,#702,#703,#704));
#115=EDGE_LOOP($,(#705,#706,#707,#708));
#116=EDGE_LOOP($,(#709,#710,#711,#712));
#117=EDGE_LOOP($,(#713,#714,#715,#716));
#118=EDGE_LOOP($,(#717,#718,#719,#720));
#119=EDGE_LOOP($,(#721,#722,#723,#724));
#120=EDGE_LOOP($,(#725,#726,#727,#728));
#121=EDGE_LOOP($,(#729,#730,#731,#732));
#122=EDGE_LOOP($,(#733,#734,#735,#736));
#123=EDGE_LOOP($,(#737,#738,#739,#740));
#124=EDGE_LOOP($,(#741,#742,#743,#744));
#125=EDGE_LOOP($,(#745,#746,#747,#748));
#126=EDGE_LOOP($,(#749,#750,#751,#752));
#127=EDGE_LOOP($,(#753,#754,#755,#756));
#128=EDGE_LOOP($,(#757,#758,#759,#760));
#129=EDGE_LOOP($,(#761,#762,#763,#764));
#130=EDGE_LOOP($,(#765,#766,#767,#768));
#131=EDGE_LOOP($,(#769,#770,#771,#772));
#132=EDGE_LOOP($,(#773,#774,#775,#776));
#133=EDGE_LOOP($,(#777,#778,#779,#780));
#134=EDGE_LOOP($,(#781,#782,#783,#784));
#135=EDGE_LOOP($,(#785,#786,#787,#788));
#136=EDGE_LOOP($,(#789,#790,#791,#792));
#137=EDGE_LOOP($,(#793,#794,#795,#796));
#138=EDGE_LOOP($,(#797,#798,#799,#800));
#139=EDGE_LOOP($,(#801,#802,#803,#804));
#140=EDGE_LOOP($,(#805,#806,#807,#808));
#141=EDGE_LOOP($,(#809,#810,#811,#812));
#142=EDGE_LOOP($,(#813,#814,#815,#816));
#143=EDGE_LOOP($,(#817,#818,#819,#820));
#144=EDGE_LOOP($,(#821,#822,#823,#824));
#145=EDGE_LOOP($,(#825,#826,#827,#828));
#146=EDGE_LOOP($,(#829,#830,#831,#832));
#147=EDGE_LOOP($,(#833,#834,#835,#836));
#148=EDGE_LOOP($,(#837,#838,#839,#840));
#149=EDGE_LOOP($,(#841,#842,#843,#844));
#150=EDGE_LOOP($,(#845,#846,#847,#848));
#151=EDGE_LOOP($,(#849,#850,#851,#852));
#152=EDGE_LOOP($,(#853,#854,#855,#856));
#153=EDGE_LOOP($,(#857,#858,#859,#860));
#154=EDGE_LOOP($,(#861,#862,#863,#864));
#155=EDGE_LOOP($,(#865,#866,#867,#868));
#156=EDGE_LOOP($,(#869,#870,#871,#872));
#157=EDGE_LOOP($,(#873,#874,#875,#876));
#158=EDGE_LOOP($,(#877,#878,#879,#880));
#159=EDGE_LOOP($,(#881,#882,#883,#884));
#160=EDGE_LOOP($,(#885,#886,#887,#888));
#161=EDGE_LOOP($,(#889,#890,#891,#892));
#162=EDGE_LOOP($,(#893,#894,#895,#896));
#163=EDGE_LOOP($,(#897,#898,#899,#900));
#164=EDGE_LOOP($,(#901,#902,#903,#904));
#165=LINE($,#1400,#293);
#166=LINE($,#1402,#294);
#167=LINE($,#1404,#295);
#168=LINE($,#1405,#296);
#169=LINE($,#1408,#297);
#170=LINE($,#1410,#298);
#171=LINE($,#1411,#299);
#172=LINE($,#1414,#300);
#173=LINE($,#1416,#301);
#174=LINE($,#1417,#302);
#175=LINE($,#1419,#303);
#176=LINE($,#1420,#304);
#177=LINE($,#1426,#305);
#178=LINE($,#1428,#306);
#179=LINE($,#1430,#307);
#180=LINE($,#1431,#308);
#181=LINE($,#1434,#309);
#182=LINE($,#1436,#310);
#183=LINE($,#1437,#311);
#184=LINE($,#1440,#312);
#185=LINE($,#1442,#313);
#186=LINE($,#1443,#314);
#187=LINE($,#1445,#315);
#188=LINE($,#1446,#316);
#189=LINE($,#1452,#317);
#190=LINE($,#1454,#318);
#191=LINE($,#1456,#319);
#192=LINE($,#1457,#320);
#193=LINE($,#1460,#321);
#194=LINE($,#1462,#322);
#195=LINE($,#1463,#323);
#196=LINE($,#1466,#324);
#197=LINE($,#1468,#325);
#198=LINE($,#1469,#326);
#199=LINE($,#1471,#327);
#200=LINE($,#1472,#328);
#201=LINE($,#1478,#329);
#202=LINE($,#1480,#330);
#203=LINE($,#1482,#331);
#204=LINE($,#1483,#332);
#205=LINE($,#1486,#333);
#206=LINE($,#1488,#334);
#207=LINE($,#1489,#335);
#208=LINE($,#1492,#336);
#209=LINE($,#1494,#337);
#210=LINE($,#1495,#338);
#211=LINE($,#1497,#339);
#212=LINE($,#1498,#340);
#213=LINE($,#1504,#341);
#214=LINE($,#1506,#342);
#215=LINE($,#1508,#343);
#216=LINE($,#1509,#344);
#217=LINE($,#1512,#345);
#218=LINE($,#1514,#346);
#219=LINE($,#1515,#347);
#220=LINE($,#1518,#348);
#221=LINE($,#1520,#349);
#222=LINE($,#1521,#350);
#223=LINE($,#1523,#351);
#224=LINE($,#1524,#352);
#225=LINE($,#1530,#353);
#226=LINE($,#1532,#354);
#227=LINE($,#1534,#355);
#228=LINE($,#1535,#356);
#229=LINE($,#1538,#357);
#230=LINE($,#1540,#358);
#231=LINE($,#1541,#359);
#232=LINE($,#1544,#360);
#233=LINE($,#1546,#361);
#234=LINE($,#1547,#362);
#235=LINE($,#1549,#363);
#236=LINE($,#1550,#364);
#237=LINE($,#1556,#365);
#238=LINE($,#1558,#366);
#239=LINE($,#1560,#367);
#240=LINE($,#1561,#368);
#241=LINE($,#1565,#369);
#242=LINE($,#1566,#370);
#243=LINE($,#1567,#371);
#244=LINE($,#1571,#372);
#245=LINE($,#1572,#373);
#246=LINE($,#1573,#374);
#247=LINE($,#1575,#375);
#248=LINE($,#1576,#376);
#249=LINE($,#1580,#377);
#250=LINE($,#1582,#378);
#251=LINE($,#1584,#379);
#252=LINE($,#1585,#380);
#253=LINE($,#1589,#381);
#254=LINE($,#1591,#382);
#255=LINE($,#1593,#383);
#256=LINE($,#1594,#384);
#257=LINE($,#1596,#385);
#258=LINE($,#1597,#386);
#259=LINE($,#1599,#387);
#260=LINE($,#1601,#388);
#261=LINE($,#1606,#389);
#262=LINE($,#1608,#390);
#263=LINE($,#1610,#391);
#264=LINE($,#1611,#392);
#265=LINE($,#1615,#393);
#266=LINE($,#1617,#394);
#267=LINE($,#1619,#395);
#268=LINE($,#1620,#396);
#269=LINE($,#1622,#397);
#270=LINE($,#1623,#398);
#271=LINE($,#1625,#399);
#272=LINE($,#1627,#400);
#273=LINE($,#1632,#401);
#274=LINE($,#1634,#402);
#275=LINE($,#1636,#403);
#276=LINE($,#1637,#404);
#277=LINE($,#1640,#405);
#278=LINE($,#1642,#406);
#279=LINE($,#1643,#407);
#280=LINE($,#1649,#408);
#281=LINE($,#1651,#409);
#282=LINE($,#1652,#410);
#283=LINE($,#1658,#411);
#284=LINE($,#1660,#412);
#285=LINE($,#1662,#413);
#286=LINE($,#1663,#414);
#287=LINE($,#1666,#415);
#288=LINE($,#1668,#416);
#289=LINE($,#1669,#417);
#290=LINE($,#1675,#418);
#291=LINE($,#1677,#419);
#292=LINE($,#1678,#420);
#293=VECTOR($,#1129,0.55);
#294=VECTOR($,#1130,0.05);
#295=VECTOR($,#1131,0.55);
#296=VECTOR($,#1132,0.05);
#297=VECTOR($,#1135,0.83);
#298=VECTOR($,#1136,0.83);
#299=VECTOR($,#1137,0.05);
#300=VECTOR($,#1140,0.55);
#301=VECTOR($,#1141,0.55);
#302=VECTOR($,#1142,0.05);
#303=VECTOR($,#1145,0.83);
#304=VECTOR($,#1146,0.83);
#305=VECTOR($,#1153,0.55);
#306=VECTOR($,#1154,0.05);
#307=VECTOR($,#1155,0.55);
#308=VECTOR($,#1156,0.05);
#309=VECTOR($,#1159,0.83);
#310=VECTOR($,#1160,0.83);
#311=VECTOR($,#1161,0.05);
#312=VECTOR($,#1164,0.55);
#313=VECTOR($,#1165,0.55);
#314=VECTOR($,#1166,0.05);
#315=VECTOR($,#1169,0.83);
#316=VECTOR($,#1170,0.83);
#317=VECTOR($,#1177,0.55);
#318=VECTOR($,#1178,0.05);
#319=VECTOR($,#1179,0.55);
#320=VECTOR($,#1180,0.05);
#321=VECTOR($,#1183,0.83);
#322=VECTOR($,#1184,0.83);
#323=VECTOR($,#1185,0.05);
#324=VECTOR($,#1188,0.55);
#325=VECTOR($,#1189,0.55);
#326=VECTOR($,#1190,0.05);
#327=VECTOR($,#1193,0.83);
#328=VECTOR($,#1194,0.83);
#329=VECTOR($,#1201,0.55);
#330=VECTOR($,#1202,0.05);
#331=VECTOR($,#1203,0.55);
#332=VECTOR($,#1204,0.05);
#333=VECTOR($,#1207,0.83);
#334=VECTOR($,#1208,0.83);
#335=VECTOR($,#1209,0.05);
#336=VECTOR($,#1212,0.55);
#337=VECTOR($,#1213,0.55);
#338=VECTOR($,#1214,0.05);
#339=VECTOR($,#1217,0.83);
#340=VECTOR($,#1218,0.83);
#341=VECTOR($,#1225,1.95);
#342=VECTOR($,#1226,0.85);
#343=VECTOR($,#1227,1.95);
#344=VECTOR($,#1228,0.85);
#345=VECTOR($,#1231,2.45);
#346=VECTOR($,#1232,2.45);
#347=VECTOR($,#1233,0.85);
#348=VECTOR($,#1236,1.95);
#349=VECTOR($,#1237,1.95);
#350=VECTOR($,#1238,0.85);
#351=VECTOR($,#1241,2.45);
#352=VECTOR($,#1242,2.45);
#353=VECTOR($,#1249,1.55);
#354=VECTOR($,#1250,0.715);
#355=VECTOR($,#1251,1.55);
#356=VECTOR($,#1252,0.715);
#357=VECTOR($,#1255,1.55);
#358=VECTOR($,#1256,1.55);
#359=VECTOR($,#1257,0.715);
#360=VECTOR($,#1260,1.55);
#361=VECTOR($,#1261,1.55);
#362=VECTOR($,#1262,0.715);
#363=VECTOR($,#1265,1.55);
#364=VECTOR($,#1266,1.55);
#365=VECTOR($,#1273,0.01);
#366=VECTOR($,#1274,1.38);
#367=VECTOR($,#1275,0.01);
#368=VECTOR($,#1276,1.38);
#369=VECTOR($,#1279,0.01);
#370=VECTOR($,#1280,1.38);
#371=VECTOR($,#1281,1.38);
#372=VECTOR($,#1284,0.01);
#373=VECTOR($,#1285,1.38);
#374=VECTOR($,#1286,1.38);
#375=VECTOR($,#1289,1.38);
#376=VECTOR($,#1290,1.38);
#377=VECTOR($,#1293,1.55);
#378=VECTOR($,#1294,1.55);
#379=VECTOR($,#1295,1.55);
#380=VECTOR($,#1296,1.55);
#381=VECTOR($,#1299,1.55);
#382=VECTOR($,#1300,1.55);
#383=VECTOR($,#1301,1.55);
#384=VECTOR($,#1302,1.55);
#385=VECTOR($,#1305,0.01);
#386=VECTOR($,#1306,0.01);
#387=VECTOR($,#1309,0.01);
#388=VECTOR($,#1312,0.01);
#389=VECTOR($,#1317,1.38);
#390=VECTOR($,#1318,1.38);
#391=VECTOR($,#1319,1.38);
#392=VECTOR($,#1320,1.38);
#393=VECTOR($,#1323,1.38);
#394=VECTOR($,#1324,1.38);
#395=VECTOR($,#1325,1.38);
#396=VECTOR($,#1326,1.38);
#397=VECTOR($,#1329,0.01);
#398=VECTOR($,#1330,0.01);
#399=VECTOR($,#1333,0.01);
#400=VECTOR($,#1336,0.01);
#401=VECTOR($,#1341,0.3);
#402=VECTOR($,#1342,0.035);
#403=VECTOR($,#1343,0.3);
#404=VECTOR($,#1344,0.035);
#405=VECTOR($,#1347,0.3348612181134);
#406=VECTOR($,#1348,0.3348612181134);
#407=VECTOR($,#1349,0.035);
#408=VECTOR($,#1356,0.035);
#409=VECTOR($,#1359,0.3348612181134);
#410=VECTOR($,#1360,0.3348612181134);
#411=VECTOR($,#1367,0.3);
#412=VECTOR($,#1368,0.035);
#413=VECTOR($,#1369,0.3);
#414=VECTOR($,#1370,0.035);
#415=VECTOR($,#1373,0.3348612181134);
#416=VECTOR($,#1374,0.3348612181134);
#417=VECTOR($,#1375,0.035);
#418=VECTOR($,#1382,0.035);
#419=VECTOR($,#1385,0.3348612181134);
#420=VECTOR($,#1386,0.3348612181134);
#421=VERTEX_POINT($,#1398);
#422=VERTEX_POINT($,#1399);
#423=VERTEX_POINT($,#1401);
#424=VERTEX_POINT($,#1403);
#425=VERTEX_POINT($,#1407);
#426=VERTEX_POINT($,#1409);
#427=VERTEX_POINT($,#1413);
#428=VERTEX_POINT($,#1415);
#429=VERTEX_POINT($,#1424);
#430=VERTEX_POINT($,#1425);
#431=VERTEX_POINT($,#1427);
#432=VERTEX_POINT($,#1429);
#433=VERTEX_POINT($,#1433);
#434=VERTEX_POINT($,#1435);
#435=VERTEX_POINT($,#1439);
#436=VERTEX_POINT($,#1441);
#437=VERTEX_POINT($,#1450);
#438=VERTEX_POINT($,#1451);
#439=VERTEX_POINT($,#1453);
#440=VERTEX_POINT($,#1455);
#441=VERTEX_POINT($,#1459);
#442=VERTEX_POINT($,#1461);
#443=VERTEX_POINT($,#1465);
#444=VERTEX_POINT($,#1467);
#445=VERTEX_POINT($,#1476);
#446=VERTEX_POINT($,#1477);
#447=VERTEX_POINT($,#1479);
#448=VERTEX_POINT($,#1481);
#449=VERTEX_POINT($,#1485);
#450=VERTEX_POINT($,#1487);
#451=VERTEX_POINT($,#1491);
#452=VERTEX_POINT($,#1493);
#453=VERTEX_POINT($,#1502);
#454=VERTEX_POINT($,#1503);
#455=VERTEX_POINT($,#1505);
#456=VERTEX_POINT($,#1507);
#457=VERTEX_POINT($,#1511);
#458=VERTEX_POINT($,#1513);
#459=VERTEX_POINT($,#1517);
#460=VERTEX_POINT($,#1519);
#461=VERTEX_POINT($,#1528);
#462=VERTEX_POINT($,#1529);
#463=VERTEX_POINT($,#1531);
#464=VERTEX_POINT($,#1533);
#465=VERTEX_POINT($,#1537);
#466=VERTEX_POINT($,#1539);
#467=VERTEX_POINT($,#1543);
#468=VERTEX_POINT($,#1545);
#469=VERTEX_POINT($,#1554);
#470=VERTEX_POINT($,#1555);
#471=VERTEX_POINT($,#1557);
#472=VERTEX_POINT($,#1559);
#473=VERTEX_POINT($,#1563);
#474=VERTEX_POINT($,#1564);
#475=VERTEX_POINT($,#1569);
#476=VERTEX_POINT($,#1570);
#477=VERTEX_POINT($,#1578);
#478=VERTEX_POINT($,#1579);
#479=VERTEX_POINT($,#1581);
#480=VERTEX_POINT($,#1583);
#481=VERTEX_POINT($,#1587);
#482=VERTEX_POINT($,#1588);
#483=VERTEX_POINT($,#1590);
#484=VERTEX_POINT($,#1592);
#485=VERTEX_POINT($,#1604);
#486=VERTEX_POINT($,#1605);
#487=VERTEX_POINT($,#1607);
#488=VERTEX_POINT($,#1609);
#489=VERTEX_POINT($,#1613);
#490=VERTEX_POINT($,#1614);
#491=VERTEX_POINT($,#1616);
#492=VERTEX_POINT($,#1618);
#493=VERTEX_POINT($,#1630);
#494=VERTEX_POINT($,#1631);
#495=VERTEX_POINT($,#1633);
#496=VERTEX_POINT($,#1635);
#497=VERTEX_POINT($,#1639);
#498=VERTEX_POINT($,#1641);
#499=VERTEX_POINT($,#1645);
#500=VERTEX_POINT($,#1647);
#501=VERTEX_POINT($,#1656);
#502=VERTEX_POINT($,#1657);
#503=VERTEX_POINT($,#1659);
#504=VERTEX_POINT($,#1661);
#505=VERTEX_POINT($,#1665);
#506=VERTEX_POINT($,#1667);
#507=VERTEX_POINT($,#1671);
#508=VERTEX_POINT($,#1673);
#509=EDGE_CURVE($,#421,#422,#165,.T.);
#510=EDGE_CURVE($,#422,#423,#166,.T.);
#511=EDGE_CURVE($,#424,#423,#167,.T.);
#512=EDGE_CURVE($,#421,#424,#168,.T.);
#513=EDGE_CURVE($,#425,#421,#169,.T.);
#514=EDGE_CURVE($,#426,#424,#170,.T.);
#515=EDGE_CURVE($,#425,#426,#171,.T.);
#516=EDGE_CURVE($,#427,#425,#172,.T.);
#517=EDGE_CURVE($,#428,#426,#173,.T.);
#518=EDGE_CURVE($,#427,#428,#174,.T.);
#519=EDGE_CURVE($,#422,#427,#175,.T.);
#520=EDGE_CURVE($,#423,#428,#176,.T.);
#521=EDGE_CURVE($,#429,#430,#177,.T.);
#522=EDGE_CURVE($,#430,#431,#178,.T.);
#523=EDGE_CURVE($,#432,#431,#179,.T.);
#524=EDGE_CURVE($,#429,#432,#180,.T.);
#525=EDGE_CURVE($,#433,#429,#181,.T.);
#526=EDGE_CURVE($,#434,#432,#182,.T.);
#527=EDGE_CURVE($,#433,#434,#183,.T.);
#528=EDGE_CURVE($,#435,#433,#184,.T.);
#529=EDGE_CURVE($,#436,#434,#185,.T.);
#530=EDGE_CURVE($,#435,#436,#186,.T.);
#531=EDGE_CURVE($,#430,#435,#187,.T.);
#532=EDGE_CURVE($,#431,#436,#188,.T.);
#533=EDGE_CURVE($,#437,#438,#189,.T.);
#534=EDGE_CURVE($,#438,#439,#190,.T.);
#535=EDGE_CURVE($,#440,#439,#191,.T.);
#536=EDGE_CURVE($,#437,#440,#192,.T.);
#537=EDGE_CURVE($,#441,#437,#193,.T.);
#538=EDGE_CURVE($,#442,#440,#194,.T.);
#539=EDGE_CURVE($,#441,#442,#195,.T.);
#540=EDGE_CURVE($,#443,#441,#196,.T.);
#541=EDGE_CURVE($,#444,#442,#197,.T.);
#542=EDGE_CURVE($,#443,#444,#198,.T.);
#543=EDGE_CURVE($,#438,#443,#199,.T.);
#544=EDGE_CURVE($,#439,#444,#200,.T.);
#545=EDGE_CURVE($,#445,#446,#201,.T.);
#546=EDGE_CURVE($,#446,#447,#202,.T.);
#547=EDGE_CURVE($,#448,#447,#203,.T.);
#548=EDGE_CURVE($,#445,#448,#204,.T.);
#549=EDGE_CURVE($,#449,#445,#205,.T.);
#550=EDGE_CURVE($,#450,#448,#206,.T.);
#551=EDGE_CURVE($,#449,#450,#207,.T.);
#552=EDGE_CURVE($,#451,#449,#208,.T.);
#553=EDGE_CURVE($,#452,#450,#209,.T.);
#554=EDGE_CURVE($,#451,#452,#210,.T.);
#555=EDGE_CURVE($,#446,#451,#211,.T.);
#556=EDGE_CURVE($,#447,#452,#212,.T.);
#557=EDGE_CURVE($,#453,#454,#213,.T.);
#558=EDGE_CURVE($,#453,#455,#214,.T.);
#559=EDGE_CURVE($,#456,#455,#215,.T.);
#560=EDGE_CURVE($,#454,#456,#216,.T.);
#561=EDGE_CURVE($,#454,#457,#217,.T.);
#562=EDGE_CURVE($,#458,#456,#218,.T.);
#563=EDGE_CURVE($,#457,#458,#219,.T.);
#564=EDGE_CURVE($,#457,#459,#220,.T.);
#565=EDGE_CURVE($,#460,#458,#221,.T.);
#566=EDGE_CURVE($,#459,#460,#222,.T.);
#567=EDGE_CURVE($,#459,#453,#223,.T.);
#568=EDGE_CURVE($,#455,#460,#224,.T.);
#569=EDGE_CURVE($,#461,#462,#225,.T.);
#570=EDGE_CURVE($,#461,#463,#226,.T.);
#571=EDGE_CURVE($,#464,#463,#227,.T.);
#572=EDGE_CURVE($,#462,#464,#228,.T.);
#573=EDGE_CURVE($,#462,#465,#229,.T.);
#574=EDGE_CURVE($,#466,#464,#230,.T.);
#575=EDGE_CURVE($,#465,#466,#231,.T.);
#576=EDGE_CURVE($,#465,#467,#232,.T.);
#577=EDGE_CURVE($,#468,#466,#233,.T.);
#578=EDGE_CURVE($,#467,#468,#234,.T.);
#579=EDGE_CURVE($,#467,#461,#235,.T.);
#580=EDGE_CURVE($,#463,#468,#236,.T.);
#581=EDGE_CURVE($,#469,#470,#237,.T.);
#582=EDGE_CURVE($,#471,#470,#238,.T.);
#583=EDGE_CURVE($,#472,#471,#239,.T.);
#584=EDGE_CURVE($,#469,#472,#240,.T.);
#585=EDGE_CURVE($,#473,#474,#241,.T.);
#586=EDGE_CURVE($,#470,#474,#242,.T.);
#587=EDGE_CURVE($,#473,#469,#243,.T.);
#588=EDGE_CURVE($,#475,#476,#244,.T.);
#589=EDGE_CURVE($,#474,#476,#245,.T.);
#590=EDGE_CURVE($,#475,#473,#246,.T.);
#591=EDGE_CURVE($,#476,#471,#247,.T.);
#592=EDGE_CURVE($,#472,#475,#248,.T.);
#593=EDGE_CURVE($,#477,#478,#249,.T.);
#594=EDGE_CURVE($,#479,#477,#250,.T.);
#595=EDGE_CURVE($,#480,#479,#251,.T.);
#596=EDGE_CURVE($,#478,#480,#252,.T.);
#597=EDGE_CURVE($,#481,#482,#253,.T.);
#598=EDGE_CURVE($,#483,#481,#254,.T.);
#599=EDGE_CURVE($,#484,#483,#255,.T.);
#600=EDGE_CURVE($,#482,#484,#256,.T.);
#601=EDGE_CURVE($,#479,#484,#257,.T.);
#602=EDGE_CURVE($,#477,#482,#258,.T.);
#603=EDGE_CURVE($,#480,#483,#259,.T.);
#604=EDGE_CURVE($,#478,#481,#260,.T.);
#605=EDGE_CURVE($,#485,#486,#261,.T.);
#606=EDGE_CURVE($,#487,#485,#262,.T.);
#607=EDGE_CURVE($,#488,#487,#263,.T.);
#608=EDGE_CURVE($,#486,#488,#264,.T.);
#609=EDGE_CURVE($,#489,#490,#265,.T.);
#610=EDGE_CURVE($,#491,#489,#266,.T.);
#611=EDGE_CURVE($,#492,#491,#267,.T.);
#612=EDGE_CURVE($,#490,#492,#268,.T.);
#613=EDGE_CURVE($,#487,#492,#269,.T.);
#614=EDGE_CURVE($,#485,#490,#270,.T.);
#615=EDGE_CURVE($,#488,#491,#271,.T.);
#616=EDGE_CURVE($,#486,#489,#272,.T.);
#617=EDGE_CURVE($,#493,#494,#273,.T.);
#618=EDGE_CURVE($,#493,#495,#274,.T.);
#619=EDGE_CURVE($,#496,#495,#275,.T.);
#620=EDGE_CURVE($,#494,#496,#276,.T.);
#621=EDGE_CURVE($,#494,#497,#277,.T.);
#622=EDGE_CURVE($,#498,#496,#278,.T.);
#623=EDGE_CURVE($,#497,#498,#279,.T.);
#624=EDGE_CURVE($,#497,#499,#16,.T.);
#625=EDGE_CURVE($,#500,#498,#17,.T.);
#626=EDGE_CURVE($,#499,#500,#280,.T.);
#627=EDGE_CURVE($,#499,#493,#281,.T.);
#628=EDGE_CURVE($,#495,#500,#282,.T.);
#629=EDGE_CURVE($,#501,#502,#283,.T.);
#630=EDGE_CURVE($,#501,#503,#284,.T.);
#631=EDGE_CURVE($,#504,#503,#285,.T.);
#632=EDGE_CURVE($,#502,#504,#286,.T.);
#633=EDGE_CURVE($,#502,#505,#287,.T.);
#634=EDGE_CURVE($,#506,#504,#288,.T.);
#635=EDGE_CURVE($,#505,#506,#289,.T.);
#636=EDGE_CURVE($,#505,#507,#18,.T.);
#637=EDGE_CURVE($,#508,#506,#19,.T.);
#638=EDGE_CURVE($,#507,#508,#290,.T.);
#639=EDGE_CURVE($,#507,#501,#291,.T.);
#640=EDGE_CURVE($,#503,#508,#292,.T.);
#641=ORIENTED_EDGE($,*,*,#509,.T.);
#642=ORIENTED_EDGE($,*,*,#510,.T.);
#643=ORIENTED_EDGE($,*,*,#511,.F.);
#644=ORIENTED_EDGE($,*,*,#512,.F.);
#645=ORIENTED_EDGE($,*,*,#513,.T.);
#646=ORIENTED_EDGE($,*,*,#512,.T.);
#647=ORIENTED_EDGE($,*,*,#514,.F.);
#648=ORIENTED_EDGE($,*,*,#515,.F.);
#649=ORIENTED_EDGE($,*,*,#516,.T.);
#650=ORIENTED_EDGE($,*,*,#515,.T.);
#651=ORIENTED_EDGE($,*,*,#517,.F.);
#652=ORIENTED_EDGE($,*,*,#518,.F.);
#653=ORIENTED_EDGE($,*,*,#519,.T.);
#654=ORIENTED_EDGE($,*,*,#518,.T.);
#655=ORIENTED_EDGE($,*,*,#520,.F.);
#656=ORIENTED_EDGE($,*,*,#510,.F.);
#657=ORIENTED_EDGE($,*,*,#520,.T.);
#658=ORIENTED_EDGE($,*,*,#517,.T.);
#659=ORIENTED_EDGE($,*,*,#514,.T.);
#660=ORIENTED_EDGE($,*,*,#511,.T.);
#661=ORIENTED_EDGE($,*,*,#519,.F.);
#662=ORIENTED_EDGE($,*,*,#509,.F.);
#663=ORIENTED_EDGE($,*,*,#513,.F.);
#664=ORIENTED_EDGE($,*,*,#516,.F.);
#665=ORIENTED_EDGE($,*,*,#521,.T.);
#666=ORIENTED_EDGE($,*,*,#522,.T.);
#667=ORIENTED_EDGE($,*,*,#523,.F.);
#668=ORIENTED_EDGE($,*,*,#524,.F.);
#669=ORIENTED_EDGE($,*,*,#525,.T.);
#670=ORIENTED_EDGE($,*,*,#524,.T.);
#671=ORIENTED_EDGE($,*,*,#526,.F.);
#672=ORIENTED_EDGE($,*,*,#527,.F.);
#673=ORIENTED_EDGE($,*,*,#528,.T.);
#674=ORIENTED_EDGE($,*,*,#527,.T.);
#675=ORIENTED_EDGE($,*,*,#529,.F.);
#676=ORIENTED_EDGE($,*,*,#530,.F.);
#677=ORIENTED_EDGE($,*,*,#531,.T.);
#678=ORIENTED_EDGE($,*,*,#530,.T.);
#679=ORIENTED_EDGE($,*,*,#532,.F.);
#680=ORIENTED_EDGE($,*,*,#522,.F.);
#681=ORIENTED_EDGE($,*,*,#532,.T.);
#682=ORIENTED_EDGE($,*,*,#529,.T.);
#683=ORIENTED_EDGE($,*,*,#526,.T.);
#684=ORIENTED_EDGE($,*,*,#523,.T.);
#685=ORIENTED_EDGE($,*,*,#531,.F.);
#686=ORIENTED_EDGE($,*,*,#521,.F.);
#687=ORIENTED_EDGE($,*,*,#525,.F.);
#688=ORIENTED_EDGE($,*,*,#528,.F.);
#689=ORIENTED_EDGE($,*,*,#533,.T.);
#690=ORIENTED_EDGE($,*,*,#534,.T.);
#691=ORIENTED_EDGE($,*,*,#535,.F.);
#692=ORIENTED_EDGE($,*,*,#536,.F.);
#693=ORIENTED_EDGE($,*,*,#537,.T.);
#694=ORIENTED_EDGE($,*,*,#536,.T.);
#695=ORIENTED_EDGE($,*,*,#538,.F.);
#696=ORIENTED_EDGE($,*,*,#539,.F.);
#697=ORIENTED_EDGE($,*,*,#540,.T.);
#698=ORIENTED_EDGE($,*,*,#539,.T.);
#699=ORIENTED_EDGE($,*,*,#541,.F.);
#700=ORIENTED_EDGE($,*,*,#542,.F.);
#701=ORIENTED_EDGE($,*,*,#543,.T.);
#702=ORIENTED_EDGE($,*,*,#542,.T.);
#703=ORIENTED_EDGE($,*,*,#544,.F.);
#704=ORIENTED_EDGE($,*,*,#534,.F.);
#705=ORIENTED_EDGE($,*,*,#544,.T.);
#706=ORIENTED_EDGE($,*,*,#541,.T.);
#707=ORIENTED_EDGE($,*,*,#538,.T.);
#708=ORIENTED_EDGE($,*,*,#535,.T.);
#709=ORIENTED_EDGE($,*,*,#543,.F.);
#710=ORIENTED_EDGE($,*,*,#533,.F.);
#711=ORIENTED_EDGE($,*,*,#537,.F.);
#712=ORIENTED_EDGE($,*,*,#540,.F.);
#713=ORIENTED_EDGE($,*,*,#545,.T.);
#714=ORIENTED_EDGE($,*,*,#546,.T.);
#715=ORIENTED_EDGE($,*,*,#547,.F.);
#716=ORIENTED_EDGE($,*,*,#548,.F.);
#717=ORIENTED_EDGE($,*,*,#549,.T.);
#718=ORIENTED_EDGE($,*,*,#548,.T.);
#719=ORIENTED_EDGE($,*,*,#550,.F.);
#720=ORIENTED_EDGE($,*,*,#551,.F.);
#721=ORIENTED_EDGE($,*,*,#552,.T.);
#722=ORIENTED_EDGE($,*,*,#551,.T.);
#723=ORIENTED_EDGE($,*,*,#553,.F.);
#724=ORIENTED_EDGE($,*,*,#554,.F.);
#725=ORIENTED_EDGE($,*,*,#555,.T.);
#726=ORIENTED_EDGE($,*,*,#554,.T.);
#727=ORIENTED_EDGE($,*,*,#556,.F.);
#728=ORIENTED_EDGE($,*,*,#546,.F.);
#729=ORIENTED_EDGE($,*,*,#556,.T.);
#730=ORIENTED_EDGE($,*,*,#553,.T.);
#731=ORIENTED_EDGE($,*,*,#550,.T.);
#732=ORIENTED_EDGE($,*,*,#547,.T.);
#733=ORIENTED_EDGE($,*,*,#555,.F.);
#734=ORIENTED_EDGE($,*,*,#545,.F.);
#735=ORIENTED_EDGE($,*,*,#549,.F.);
#736=ORIENTED_EDGE($,*,*,#552,.F.);
#737=ORIENTED_EDGE($,*,*,#557,.F.);
#738=ORIENTED_EDGE($,*,*,#558,.T.);
#739=ORIENTED_EDGE($,*,*,#559,.F.);
#740=ORIENTED_EDGE($,*,*,#560,.F.);
#741=ORIENTED_EDGE($,*,*,#561,.F.);
#742=ORIENTED_EDGE($,*,*,#560,.T.);
#743=ORIENTED_EDGE($,*,*,#562,.F.);
#744=ORIENTED_EDGE($,*,*,#563,.F.);
#745=ORIENTED_EDGE($,*,*,#564,.F.);
#746=ORIENTED_EDGE($,*,*,#563,.T.);
#747=ORIENTED_EDGE($,*,*,#565,.F.);
#748=ORIENTED_EDGE($,*,*,#566,.F.);
#749=ORIENTED_EDGE($,*,*,#567,.F.);
#750=ORIENTED_EDGE($,*,*,#566,.T.);
#751=ORIENTED_EDGE($,*,*,#568,.F.);
#752=ORIENTED_EDGE($,*,*,#558,.F.);
#753=ORIENTED_EDGE($,*,*,#567,.T.);
#754=ORIENTED_EDGE($,*,*,#557,.T.);
#755=ORIENTED_EDGE($,*,*,#561,.T.);
#756=ORIENTED_EDGE($,*,*,#564,.T.);
#757=ORIENTED_EDGE($,*,*,#568,.T.);
#758=ORIENTED_EDGE($,*,*,#565,.T.);
#759=ORIENTED_EDGE($,*,*,#562,.T.);
#760=ORIENTED_EDGE($,*,*,#559,.T.);
#761=ORIENTED_EDGE($,*,*,#569,.F.);
#762=ORIENTED_EDGE($,*,*,#570,.T.);
#763=ORIENTED_EDGE($,*,*,#571,.F.);
#764=ORIENTED_EDGE($,*,*,#572,.F.);
#765=ORIENTED_EDGE($,*,*,#573,.F.);
#766=ORIENTED_EDGE($,*,*,#572,.T.);
#767=ORIENTED_EDGE($,*,*,#574,.F.);
#768=ORIENTED_EDGE($,*,*,#575,.F.);
#769=ORIENTED_EDGE($,*,*,#576,.F.);
#770=ORIENTED_EDGE($,*,*,#575,.T.);
#771=ORIENTED_EDGE($,*,*,#577,.F.);
#772=ORIENTED_EDGE($,*,*,#578,.F.);
#773=ORIENTED_EDGE($,*,*,#579,.F.);
#774=ORIENTED_EDGE($,*,*,#578,.T.);
#775=ORIENTED_EDGE($,*,*,#580,.F.);
#776=ORIENTED_EDGE($,*,*,#570,.F.);
#777=ORIENTED_EDGE($,*,*,#579,.T.);
#778=ORIENTED_EDGE($,*,*,#569,.T.);
#779=ORIENTED_EDGE($,*,*,#573,.T.);
#780=ORIENTED_EDGE($,*,*,#576,.T.);
#781=ORIENTED_EDGE($,*,*,#580,.T.);
#782=ORIENTED_EDGE($,*,*,#577,.T.);
#783=ORIENTED_EDGE($,*,*,#574,.T.);
#784=ORIENTED_EDGE($,*,*,#571,.T.);
#785=ORIENTED_EDGE($,*,*,#581,.T.);
#786=ORIENTED_EDGE($,*,*,#582,.F.);
#787=ORIENTED_EDGE($,*,*,#583,.F.);
#788=ORIENTED_EDGE($,*,*,#584,.F.);
#789=ORIENTED_EDGE($,*,*,#585,.T.);
#790=ORIENTED_EDGE($,*,*,#586,.F.);
#791=ORIENTED_EDGE($,*,*,#581,.F.);
#792=ORIENTED_EDGE($,*,*,#587,.F.);
#793=ORIENTED_EDGE($,*,*,#588,.T.);
#794=ORIENTED_EDGE($,*,*,#589,.F.);
#795=ORIENTED_EDGE($,*,*,#585,.F.);
#796=ORIENTED_EDGE($,*,*,#590,.F.);
#797=ORIENTED_EDGE($,*,*,#583,.T.);
#798=ORIENTED_EDGE($,*,*,#591,.F.);
#799=ORIENTED_EDGE($,*,*,#588,.F.);
#800=ORIENTED_EDGE($,*,*,#592,.F.);
#801=ORIENTED_EDGE($,*,*,#593,.F.);
#802=ORIENTED_EDGE($,*,*,#594,.F.);
#803=ORIENTED_EDGE($,*,*,#595,.F.);
#804=ORIENTED_EDGE($,*,*,#596,.F.);
#805=ORIENTED_EDGE($,*,*,#584,.T.);
#806=ORIENTED_EDGE($,*,*,#592,.T.);
#807=ORIENTED_EDGE($,*,*,#590,.T.);
#808=ORIENTED_EDGE($,*,*,#587,.T.);
#809=ORIENTED_EDGE($,*,*,#597,.F.);
#810=ORIENTED_EDGE($,*,*,#598,.F.);
#811=ORIENTED_EDGE($,*,*,#599,.F.);
#812=ORIENTED_EDGE($,*,*,#600,.F.);
#813=ORIENTED_EDGE($,*,*,#582,.T.);
#814=ORIENTED_EDGE($,*,*,#586,.T.);
#815=ORIENTED_EDGE($,*,*,#589,.T.);
#816=ORIENTED_EDGE($,*,*,#591,.T.);
#817=ORIENTED_EDGE($,*,*,#601,.F.);
#818=ORIENTED_EDGE($,*,*,#594,.T.);
#819=ORIENTED_EDGE($,*,*,#602,.T.);
#820=ORIENTED_EDGE($,*,*,#600,.T.);
#821=ORIENTED_EDGE($,*,*,#603,.F.);
#822=ORIENTED_EDGE($,*,*,#595,.T.);
#823=ORIENTED_EDGE($,*,*,#601,.T.);
#824=ORIENTED_EDGE($,*,*,#599,.T.);
#825=ORIENTED_EDGE($,*,*,#604,.F.);
#826=ORIENTED_EDGE($,*,*,#596,.T.);
#827=ORIENTED_EDGE($,*,*,#603,.T.);
#828=ORIENTED_EDGE($,*,*,#598,.T.);
#829=ORIENTED_EDGE($,*,*,#602,.F.);
#830=ORIENTED_EDGE($,*,*,#593,.T.);
#831=ORIENTED_EDGE($,*,*,#604,.T.);
#832=ORIENTED_EDGE($,*,*,#597,.T.);
#833=ORIENTED_EDGE($,*,*,#605,.F.);
#834=ORIENTED_EDGE($,*,*,#606,.F.);
#835=ORIENTED_EDGE($,*,*,#607,.F.);
#836=ORIENTED_EDGE($,*,*,#608,.F.);
#837=ORIENTED_EDGE($,*,*,#609,.F.);
#838=ORIENTED_EDGE($,*,*,#610,.F.);
#839=ORIENTED_EDGE($,*,*,#611,.F.);
#840=ORIENTED_EDGE($,*,*,#612,.F.);
#841=ORIENTED_EDGE($,*,*,#613,.F.);
#842=ORIENTED_EDGE($,*,*,#606,.T.);
#843=ORIENTED_EDGE($,*,*,#614,.T.);
#844=ORIENTED_EDGE($,*,*,#612,.T.);
#845=ORIENTED_EDGE($,*,*,#615,.F.);
#846=ORIENTED_EDGE($,*,*,#607,.T.);
#847=ORIENTED_EDGE($,*,*,#613,.T.);
#848=ORIENTED_EDGE($,*,*,#611,.T.);
#849=ORIENTED_EDGE($,*,*,#616,.F.);
#850=ORIENTED_EDGE($,*,*,#608,.T.);
#851=ORIENTED_EDGE($,*,*,#615,.T.);
#852=ORIENTED_EDGE($,*,*,#610,.T.);
#853=ORIENTED_EDGE($,*,*,#614,.F.);
#854=ORIENTED_EDGE($,*,*,#605,.T.);
#855=ORIENTED_EDGE($,*,*,#616,.T.);
#856=ORIENTED_EDGE($,*,*,#609,.T.);
#857=ORIENTED_EDGE($,*,*,#617,.F.);
#858=ORIENTED_EDGE($,*,*,#618,.T.);
#859=ORIENTED_EDGE($,*,*,#619,.F.);
#860=ORIENTED_EDGE($,*,*,#620,.F.);
#861=ORIENTED_EDGE($,*,*,#621,.F.);
#862=ORIENTED_EDGE($,*,*,#620,.T.);
#863=ORIENTED_EDGE($,*,*,#622,.F.);
#864=ORIENTED_EDGE($,*,*,#623,.F.);
#865=ORIENTED_EDGE($,*,*,#624,.F.);
#866=ORIENTED_EDGE($,*,*,#623,.T.);
#867=ORIENTED_EDGE($,*,*,#625,.F.);
#868=ORIENTED_EDGE($,*,*,#626,.F.);
#869=ORIENTED_EDGE($,*,*,#627,.F.);
#870=ORIENTED_EDGE($,*,*,#626,.T.);
#871=ORIENTED_EDGE($,*,*,#628,.F.);
#872=ORIENTED_EDGE($,*,*,#618,.F.);
#873=ORIENTED_EDGE($,*,*,#627,.T.);
#874=ORIENTED_EDGE($,*,*,#617,.T.);
#875=ORIENTED_EDGE($,*,*,#621,.T.);
#876=ORIENTED_EDGE($,*,*,#624,.T.);
#877=ORIENTED_EDGE($,*,*,#628,.T.);
#878=ORIENTED_EDGE($,*,*,#625,.T.);
#879=ORIENTED_EDGE($,*,*,#622,.T.);
#880=ORIENTED_EDGE($,*,*,#619,.T.);
#881=ORIENTED_EDGE($,*,*,#629,.F.);
#882=ORIENTED_EDGE($,*,*,#630,.T.);
#883=ORIENTED_EDGE($,*,*,#631,.F.);
#884=ORIENTED_EDGE($,*,*,#632,.F.);
#885=ORIENTED_EDGE($,*,*,#633,.F.);
#886=ORIENTED_EDGE($,*,*,#632,.T.);
#887=ORIENTED_EDGE($,*,*,#634,.F.);
#888=ORIENTED_EDGE($,*,*,#635,.F.);
#889=ORIENTED_EDGE($,*,*,#636,.F.);
#890=ORIENTED_EDGE($,*,*,#635,.T.);
#891=ORIENTED_EDGE($,*,*,#637,.F.);
#892=ORIENTED_EDGE($,*,*,#638,.F.);
#893=ORIENTED_EDGE($,*,*,#639,.F.);
#894=ORIENTED_EDGE($,*,*,#638,.T.);
#895=ORIENTED_EDGE($,*,*,#640,.F.);
#896=ORIENTED_EDGE($,*,*,#630,.F.);
#897=ORIENTED_EDGE($,*,*,#639,.T.);
#898=ORIENTED_EDGE($,*,*,#629,.T.);
#899=ORIENTED_EDGE($,*,*,#633,.T.);
#900=ORIENTED_EDGE($,*,*,#636,.T.);
#901=ORIENTED_EDGE($,*,*,#640,.T.);
#902=ORIENTED_EDGE($,*,*,#637,.T.);
#903=ORIENTED_EDGE($,*,*,#634,.T.);
#904=ORIENTED_EDGE($,*,*,#631,.T.);
#905=PLANE($,#1057);
#906=PLANE($,#1058);
#907=PLANE($,#1059);
#908=PLANE($,#1060);
#909=PLANE($,#1061);
#910=PLANE($,#1062);
#911=PLANE($,#1063);
#912=PLANE($,#1064);
#913=PLANE($,#1065);
#914=PLANE($,#1066);
#915=PLANE($,#1067);
#916=PLANE($,#1068);
#917=PLANE($,#1069);
#918=PLANE($,#1070);
#919=PLANE($,#1071);
#920=PLANE($,#1072);
#921=PLANE($,#1073);
#922=PLANE($,#1074);
#923=PLANE($,#1075);
#924=PLANE($,#1076);
#925=PLANE($,#1077);
#926=PLANE($,#1078);
#927=PLANE($,#1079);
#928=PLANE($,#1080);
#929=PLANE($,#1081);
#930=PLANE($,#1082);
#931=PLANE($,#1083);
#932=PLANE($,#1084);
#933=PLANE($,#1085);
#934=PLANE($,#1086);
#935=PLANE($,#1087);
#936=PLANE($,#1088);
#937=PLANE($,#1089);
#938=PLANE($,#1090);
#939=PLANE($,#1091);
#940=PLANE($,#1092);
#941=PLANE($,#1093);
#942=PLANE($,#1094);
#943=PLANE($,#1095);
#944=PLANE($,#1096);
#945=PLANE($,#1097);
#946=PLANE($,#1098);
#947=PLANE($,#1099);
#948=PLANE($,#1100);
#949=PLANE($,#1101);
#950=PLANE($,#1102);
#951=PLANE($,#1103);
#952=PLANE($,#1104);
#953=PLANE($,#1105);
#954=PLANE($,#1106);
#955=PLANE($,#1107);
#956=PLANE($,#1108);
#957=PLANE($,#1109);
#958=PLANE($,#1110);
#959=PLANE($,#1114);
#960=PLANE($,#1115);
#961=PLANE($,#1116);
#962=PLANE($,#1117);
#963=PLANE($,#1118);
#964=PLANE($,#1122);
#965=PLANE($,#1123);
#966=PLANE($,#1124);
#967=ADVANCED_FACE($,(#35),#905,.T.);
#968=ADVANCED_FACE($,(#36),#906,.T.);
#969=ADVANCED_FACE($,(#37),#907,.T.);
#970=ADVANCED_FACE($,(#38),#908,.T.);
#971=ADVANCED_FACE($,(#39),#909,.T.);
#972=ADVANCED_FACE($,(#40),#910,.F.);
#973=ADVANCED_FACE($,(#41),#911,.T.);
#974=ADVANCED_FACE($,(#42),#912,.T.);
#975=ADVANCED_FACE($,(#43),#913,.T.);
#976=ADVANCED_FACE($,(#44),#914,.T.);
#977=ADVANCED_FACE($,(#45),#915,.T.);
#978=ADVANCED_FACE($,(#46),#916,.F.);
#979=ADVANCED_FACE($,(#47),#917,.T.);
#980=ADVANCED_FACE($,(#48),#918,.T.);
#981=ADVANCED_FACE($,(#49),#919,.T.);
#982=ADVANCED_FACE($,(#50),#920,.T.);
#983=ADVANCED_FACE($,(#51),#921,.T.);
#984=ADVANCED_FACE($,(#52),#922,.F.);
#985=ADVANCED_FACE($,(#53),#923,.T.);
#986=ADVANCED_FACE($,(#54),#924,.T.);
#987=ADVANCED_FACE($,(#55),#925,.T.);
#988=ADVANCED_FACE($,(#56),#926,.T.);
#989=ADVANCED_FACE($,(#57),#927,.T.);
#990=ADVANCED_FACE($,(#58),#928,.F.);
#991=ADVANCED_FACE($,(#59),#929,.T.);
#992=ADVANCED_FACE($,(#60),#930,.T.);
#993=ADVANCED_FACE($,(#61),#931,.T.);
#994=ADVANCED_FACE($,(#62),#932,.T.);
#995=ADVANCED_FACE($,(#63),#933,.T.);
#996=ADVANCED_FACE($,(#64),#934,.T.);
#997=ADVANCED_FACE($,(#65),#935,.T.);
#998=ADVANCED_FACE($,(#66),#936,.T.);
#999=ADVANCED_FACE($,(#67),#937,.T.);
#1000=ADVANCED_FACE($,(#68),#938,.T.);
#1001=ADVANCED_FACE($,(#69),#939,.F.);
#1002=ADVANCED_FACE($,(#70),#940,.T.);
#1003=ADVANCED_FACE($,(#71),#941,.F.);
#1004=ADVANCED_FACE($,(#72),#942,.F.);
#1005=ADVANCED_FACE($,(#73),#943,.F.);
#1006=ADVANCED_FACE($,(#74),#944,.F.);
#1007=ADVANCED_FACE($,(#75,#22),#945,.F.);
#1008=ADVANCED_FACE($,(#76,#23),#946,.T.);
#1009=ADVANCED_FACE($,(#77),#947,.T.);
#1010=ADVANCED_FACE($,(#78),#948,.T.);
#1011=ADVANCED_FACE($,(#79),#949,.T.);
#1012=ADVANCED_FACE($,(#80),#950,.T.);
#1013=ADVANCED_FACE($,(#81),#951,.F.);
#1014=ADVANCED_FACE($,(#82),#952,.T.);
#1015=ADVANCED_FACE($,(#83),#953,.T.);
#1016=ADVANCED_FACE($,(#84),#954,.T.);
#1017=ADVANCED_FACE($,(#85),#955,.T.);
#1018=ADVANCED_FACE($,(#86),#956,.T.);
#1019=ADVANCED_FACE($,(#87),#957,.T.);
#1020=ADVANCED_FACE($,(#88),#958,.T.);
#1021=ADVANCED_FACE($,(#89),#20,.T.);
#1022=ADVANCED_FACE($,(#90),#959,.T.);
#1023=ADVANCED_FACE($,(#91),#960,.F.);
#1024=ADVANCED_FACE($,(#92),#961,.T.);
#1025=ADVANCED_FACE($,(#93),#962,.T.);
#1026=ADVANCED_FACE($,(#94),#963,.T.);
#1027=ADVANCED_FACE($,(#95),#21,.T.);
#1028=ADVANCED_FACE($,(#96),#964,.T.);
#1029=ADVANCED_FACE($,(#97),#965,.F.);
#1030=ADVANCED_FACE($,(#98),#966,.T.);
#1031=CLOSED_SHELL($,(#967,#968,#969,#970,#971,#972));
#1032=CLOSED_SHELL($,(#973,#974,#975,#976,#977,#978));
#1033=CLOSED_SHELL($,(#979,#980,#981,#982,#983,#984));
#1034=CLOSED_SHELL($,(#985,#986,#987,#988,#989,#990));
#1035=CLOSED_SHELL($,(#991,#992,#993,#994,#995,#996));
#1036=CLOSED_SHELL($,(#997,#998,#999,#1000,#1001,#1002));
#1037=CLOSED_SHELL($,(#1003,#1004,#1005,#1006,#1007,#1008,#1009,#1010,#1011,
#1012));
#1038=CLOSED_SHELL($,(#1013,#1014,#1015,#1016,#1017,#1018));
#1039=CLOSED_SHELL($,(#1019,#1020,#1021,#1022,#1023,#1024));
#1040=CLOSED_SHELL($,(#1025,#1026,#1027,#1028,#1029,#1030));
#1041=MANIFOLD_SOLID_BREP('2BE7',#1031);
#1042=MANIFOLD_SOLID_BREP('2BEB',#1032);
#1043=MANIFOLD_SOLID_BREP('2BEF',#1033);
#1044=MANIFOLD_SOLID_BREP('2BF3',#1034);
#1045=MANIFOLD_SOLID_BREP('2BF9',#1035);
#1046=MANIFOLD_SOLID_BREP('2C22',#1036);
#1047=MANIFOLD_SOLID_BREP('2C2E',#1037);
#1048=MANIFOLD_SOLID_BREP('2C32',#1038);
#1049=MANIFOLD_SOLID_BREP('2C57',#1039);
#1050=MANIFOLD_SOLID_BREP('2C5B',#1040);
#1051=SHAPE_REPRESENTATION_RELATIONSHIP('SRR','None',#1690,#1053);
#1052=SHAPE_REPRESENTATION_RELATIONSHIP('SRR','None',#1690,#24);
#1053=GEOMETRICALLY_BOUNDED_SURFACE_SHAPE_REPRESENTATION('',(#1054),#1683);
#1054=GEOMETRIC_SET('GEOSET',(#1055));
#1055=POLYLINE($,(#1392,#1393,#1394,#1395,#1396));
#1056=AXIS2_PLACEMENT_3D('placement',#1391,#1125,#1126);
#1057=AXIS2_PLACEMENT_3D($,#1397,#1127,#1128);
#1058=AXIS2_PLACEMENT_3D($,#1406,#1133,#1134);
#1059=AXIS2_PLACEMENT_3D($,#1412,#1138,#1139);
#1060=AXIS2_PLACEMENT_3D($,#1418,#1143,#1144);
#1061=AXIS2_PLACEMENT_3D($,#1421,#1147,#1148);
#1062=AXIS2_PLACEMENT_3D($,#1422,#1149,#1150);
#1063=AXIS2_PLACEMENT_3D($,#1423,#1151,#1152);
#1064=AXIS2_PLACEMENT_3D($,#1432,#1157,#1158);
#1065=AXIS2_PLACEMENT_3D($,#1438,#1162,#1163);
#1066=AXIS2_PLACEMENT_3D($,#1444,#1167,#1168);
#1067=AXIS2_PLACEMENT_3D($,#1447,#1171,#1172);
#1068=AXIS2_PLACEMENT_3D($,#1448,#1173,#1174);
#1069=AXIS2_PLACEMENT_3D($,#1449,#1175,#1176);
#1070=AXIS2_PLACEMENT_3D($,#1458,#1181,#1182);
#1071=AXIS2_PLACEMENT_3D($,#1464,#1186,#1187);
#1072=AXIS2_PLACEMENT_3D($,#1470,#1191,#1192);
#1073=AXIS2_PLACEMENT_3D($,#1473,#1195,#1196);
#1074=AXIS2_PLACEMENT_3D($,#1474,#1197,#1198);
#1075=AXIS2_PLACEMENT_3D($,#1475,#1199,#1200);
#1076=AXIS2_PLACEMENT_3D($,#1484,#1205,#1206);
#1077=AXIS2_PLACEMENT_3D($,#1490,#1210,#1211);
#1078=AXIS2_PLACEMENT_3D($,#1496,#1215,#1216);
#1079=AXIS2_PLACEMENT_3D($,#1499,#1219,#1220);
#1080=AXIS2_PLACEMENT_3D($,#1500,#1221,#1222);
#1081=AXIS2_PLACEMENT_3D($,#1501,#1223,#1224);
#1082=AXIS2_PLACEMENT_3D($,#1510,#1229,#1230);
#1083=AXIS2_PLACEMENT_3D($,#1516,#1234,#1235);
#1084=AXIS2_PLACEMENT_3D($,#1522,#1239,#1240);
#1085=AXIS2_PLACEMENT_3D($,#1525,#1243,#1244);
#1086=AXIS2_PLACEMENT_3D($,#1526,#1245,#1246);
#1087=AXIS2_PLACEMENT_3D($,#1527,#1247,#1248);
#1088=AXIS2_PLACEMENT_3D($,#1536,#1253,#1254);
#1089=AXIS2_PLACEMENT_3D($,#1542,#1258,#1259);
#1090=AXIS2_PLACEMENT_3D($,#1548,#1263,#1264);
#1091=AXIS2_PLACEMENT_3D($,#1551,#1267,#1268);
#1092=AXIS2_PLACEMENT_3D($,#1552,#1269,#1270);
#1093=AXIS2_PLACEMENT_3D($,#1553,#1271,#1272);
#1094=AXIS2_PLACEMENT_3D($,#1562,#1277,#1278);
#1095=AXIS2_PLACEMENT_3D($,#1568,#1282,#1283);
#1096=AXIS2_PLACEMENT_3D($,#1574,#1287,#1288);
#1097=AXIS2_PLACEMENT_3D($,#1577,#1291,#1292);
#1098=AXIS2_PLACEMENT_3D($,#1586,#1297,#1298);
#1099=AXIS2_PLACEMENT_3D($,#1595,#1303,#1304);
#1100=AXIS2_PLACEMENT_3D($,#1598,#1307,#1308);
#1101=AXIS2_PLACEMENT_3D($,#1600,#1310,#1311);
#1102=AXIS2_PLACEMENT_3D($,#1602,#1313,#1314);
#1103=AXIS2_PLACEMENT_3D($,#1603,#1315,#1316);
#1104=AXIS2_PLACEMENT_3D($,#1612,#1321,#1322);
#1105=AXIS2_PLACEMENT_3D($,#1621,#1327,#1328);
#1106=AXIS2_PLACEMENT_3D($,#1624,#1331,#1332);
#1107=AXIS2_PLACEMENT_3D($,#1626,#1334,#1335);
#1108=AXIS2_PLACEMENT_3D($,#1628,#1337,#1338);
#1109=AXIS2_PLACEMENT_3D($,#1629,#1339,#1340);
#1110=AXIS2_PLACEMENT_3D($,#1638,#1345,#1346);
#1111=AXIS2_PLACEMENT_3D($,#1644,#1350,#1351);
#1112=AXIS2_PLACEMENT_3D($,#1646,#1352,#1353);
#1113=AXIS2_PLACEMENT_3D($,#1648,#1354,#1355);
#1114=AXIS2_PLACEMENT_3D($,#1650,#1357,#1358);
#1115=AXIS2_PLACEMENT_3D($,#1653,#1361,#1362);
#1116=AXIS2_PLACEMENT_3D($,#1654,#1363,#1364);
#1117=AXIS2_PLACEMENT_3D($,#1655,#1365,#1366);
#1118=AXIS2_PLACEMENT_3D($,#1664,#1371,#1372);
#1119=AXIS2_PLACEMENT_3D($,#1670,#1376,#1377);
#1120=AXIS2_PLACEMENT_3D($,#1672,#1378,#1379);
#1121=AXIS2_PLACEMENT_3D($,#1674,#1380,#1381);
#1122=AXIS2_PLACEMENT_3D($,#1676,#1383,#1384);
#1123=AXIS2_PLACEMENT_3D($,#1679,#1387,#1388);
#1124=AXIS2_PLACEMENT_3D($,#1680,#1389,#1390);
#1125=DIRECTION('axis',(0.,0.,1.));
#1126=DIRECTION('refdir',(1.,0.,0.));
#1127=DIRECTION('center_axis',(0.,1.,0.));
#1128=DIRECTION('ref_axis',(-1.,0.,0.));
#1129=DIRECTION($,(-1.,0.,0.));
#1130=DIRECTION($,(0.,0.,1.));
#1131=DIRECTION($,(-1.,0.,0.));
#1132=DIRECTION($,(0.,0.,1.));
#1133=DIRECTION('center_axis',(1.,0.,0.));
#1134=DIRECTION('ref_axis',(0.,1.,0.));
#1135=DIRECTION($,(0.,1.,0.));
#1136=DIRECTION($,(0.,1.,0.));
#1137=DIRECTION($,(0.,0.,1.));
#1138=DIRECTION('center_axis',(0.,-1.,0.));
#1139=DIRECTION('ref_axis',(1.,0.,0.));
#1140=DIRECTION($,(1.,0.,0.));
#1141=DIRECTION($,(1.,0.,0.));
#1142=DIRECTION($,(0.,0.,1.));
#1143=DIRECTION('center_axis',(-1.,0.,0.));
#1144=DIRECTION('ref_axis',(0.,-1.,0.));
#1145=DIRECTION($,(0.,-1.,0.));
#1146=DIRECTION($,(0.,-1.,0.));
#1147=DIRECTION('center_axis',(0.,0.,1.));
#1148=DIRECTION('ref_axis',(1.,0.,0.));
#1149=DIRECTION('center_axis',(0.,0.,1.));
#1150=DIRECTION('ref_axis',(1.,0.,0.));
#1151=DIRECTION('center_axis',(0.,1.,0.));
#1152=DIRECTION('ref_axis',(-1.,0.,0.));
#1153=DIRECTION($,(-1.,0.,0.));
#1154=DIRECTION($,(0.,0.,1.));
#1155=DIRECTION($,(-1.,0.,0.));
#1156=DIRECTION($,(0.,0.,1.));
#1157=DIRECTION('center_axis',(1.,0.,0.));
#1158=DIRECTION('ref_axis',(0.,1.,0.));
#1159=DIRECTION($,(0.,1.,0.));
#1160=DIRECTION($,(0.,1.,0.));
#1161=DIRECTION($,(0.,0.,1.));
#1162=DIRECTION('center_axis',(0.,-1.,0.));
#1163=DIRECTION('ref_axis',(1.,0.,0.));
#1164=DIRECTION($,(1.,0.,0.));
#1165=DIRECTION($,(1.,0.,0.));
#1166=DIRECTION($,(0.,0.,1.));
#1167=DIRECTION('center_axis',(-1.,0.,0.));
#1168=DIRECTION('ref_axis',(0.,-1.,0.));
#1169=DIRECTION($,(0.,-1.,0.));
#1170=DIRECTION($,(0.,-1.,0.));
#1171=DIRECTION('center_axis',(0.,0.,1.));
#1172=DIRECTION('ref_axis',(1.,0.,0.));
#1173=DIRECTION('center_axis',(0.,0.,1.));
#1174=DIRECTION('ref_axis',(1.,0.,0.));
#1175=DIRECTION('center_axis',(0.,1.,0.));
#1176=DIRECTION('ref_axis',(-1.,0.,0.));
#1177=DIRECTION($,(-1.,0.,0.));
#1178=DIRECTION($,(0.,0.,1.));
#1179=DIRECTION($,(-1.,0.,0.));
#1180=DIRECTION($,(0.,0.,1.));
#1181=DIRECTION('center_axis',(1.,0.,0.));
#1182=DIRECTION('ref_axis',(0.,1.,0.));
#1183=DIRECTION($,(0.,1.,0.));
#1184=DIRECTION($,(0.,1.,0.));
#1185=DIRECTION($,(0.,0.,1.));
#1186=DIRECTION('center_axis',(0.,-1.,0.));
#1187=DIRECTION('ref_axis',(1.,0.,0.));
#1188=DIRECTION($,(1.,0.,0.));
#1189=DIRECTION($,(1.,0.,0.));
#1190=DIRECTION($,(0.,0.,1.));
#1191=DIRECTION('center_axis',(-1.,0.,0.));
#1192=DIRECTION('ref_axis',(0.,-1.,0.));
#1193=DIRECTION($,(0.,-1.,0.));
#1194=DIRECTION($,(0.,-1.,0.));
#1195=DIRECTION('center_axis',(0.,0.,1.));
#1196=DIRECTION('ref_axis',(1.,0.,0.));
#1197=DIRECTION('center_axis',(0.,0.,1.));
#1198=DIRECTION('ref_axis',(1.,0.,0.));
#1199=DIRECTION('center_axis',(0.,1.,0.));
#1200=DIRECTION('ref_axis',(-1.,0.,0.));
#1201=DIRECTION($,(-1.,0.,0.));
#1202=DIRECTION($,(0.,0.,1.));
#1203=DIRECTION($,(-1.,0.,0.));
#1204=DIRECTION($,(0.,0.,1.));
#1205=DIRECTION('center_axis',(1.,0.,0.));
#1206=DIRECTION('ref_axis',(0.,1.,0.));
#1207=DIRECTION($,(0.,1.,0.));
#1208=DIRECTION($,(0.,1.,0.));
#1209=DIRECTION($,(0.,0.,1.));
#1210=DIRECTION('center_axis',(0.,-1.,0.));
#1211=DIRECTION('ref_axis',(1.,0.,0.));
#1212=DIRECTION($,(1.,0.,0.));
#1213=DIRECTION($,(1.,0.,0.));
#1214=DIRECTION($,(0.,0.,1.));
#1215=DIRECTION('center_axis',(-1.,0.,0.));
#1216=DIRECTION('ref_axis',(0.,-1.,0.));
#1217=DIRECTION($,(0.,-1.,0.));
#1218=DIRECTION($,(0.,-1.,0.));
#1219=DIRECTION('center_axis',(0.,0.,1.));
#1220=DIRECTION('ref_axis',(1.,0.,0.));
#1221=DIRECTION('center_axis',(0.,0.,1.));
#1222=DIRECTION('ref_axis',(1.,0.,0.));
#1223=DIRECTION('center_axis',(0.,-1.,0.));
#1224=DIRECTION('ref_axis',(-1.,0.,0.));
#1225=DIRECTION($,(1.,0.,0.));
#1226=DIRECTION($,(0.,0.,-1.));
#1227=DIRECTION($,(-1.,0.,0.));
#1228=DIRECTION($,(0.,0.,-1.));
#1229=DIRECTION('center_axis',(1.,-9.06304509898087E-17,0.));
#1230=DIRECTION('ref_axis',(-1.11022302462516E-16,-1.,0.));
#1231=DIRECTION($,(9.06304509898087E-17,1.,0.));
#1232=DIRECTION($,(-9.06304509898087E-17,-1.,0.));
#1233=DIRECTION($,(0.,0.,-1.));
#1234=DIRECTION('center_axis',(0.,1.,0.));
#1235=DIRECTION('ref_axis',(1.,0.,0.));
#1236=DIRECTION($,(-1.,0.,0.));
#1237=DIRECTION($,(1.,0.,0.));
#1238=DIRECTION($,(0.,0.,-1.));
#1239=DIRECTION('center_axis',(-1.,9.06304509898087E-17,0.));
#1240=DIRECTION('ref_axis',(1.11022302462516E-16,1.,0.));
#1241=DIRECTION($,(-9.06304509898087E-17,-1.,0.));
#1242=DIRECTION($,(9.06304509898087E-17,1.,0.));
#1243=DIRECTION('center_axis',(0.,0.,1.));
#1244=DIRECTION('ref_axis',(1.,0.,0.));
#1245=DIRECTION('center_axis',(0.,0.,-1.));
#1246=DIRECTION('ref_axis',(-1.,0.,0.));
#1247=DIRECTION('center_axis',(1.,0.,0.));
#1248=DIRECTION('ref_axis',(0.,1.,0.));
#1249=DIRECTION($,(0.,-1.,0.));
#1250=DIRECTION($,(0.,0.,1.));
#1251=DIRECTION($,(0.,1.,0.));
#1252=DIRECTION($,(0.,0.,1.));
#1253=DIRECTION('center_axis',(0.,-1.,0.));
#1254=DIRECTION('ref_axis',(1.,0.,0.));
#1255=DIRECTION($,(-1.,0.,0.));
#1256=DIRECTION($,(1.,0.,0.));
#1257=DIRECTION($,(0.,0.,1.));
#1258=DIRECTION('center_axis',(-1.,0.,0.));
#1259=DIRECTION('ref_axis',(0.,-1.,0.));
#1260=DIRECTION($,(0.,1.,0.));
#1261=DIRECTION($,(0.,-1.,0.));
#1262=DIRECTION($,(0.,0.,1.));
#1263=DIRECTION('center_axis',(0.,1.,0.));
#1264=DIRECTION('ref_axis',(-1.,0.,0.));
#1265=DIRECTION($,(1.,0.,0.));
#1266=DIRECTION($,(-1.,0.,0.));
#1267=DIRECTION('center_axis',(0.,0.,1.));
#1268=DIRECTION('ref_axis',(1.,0.,0.));
#1269=DIRECTION('center_axis',(0.,0.,1.));
#1270=DIRECTION('ref_axis',(1.,0.,0.));
#1271=DIRECTION('center_axis',(0.,1.,0.));
#1272=DIRECTION('ref_axis',(0.,0.,1.));
#1273=DIRECTION($,(0.,0.,-1.));
#1274=DIRECTION($,(-1.,0.,0.));
#1275=DIRECTION($,(0.,0.,-1.));
#1276=DIRECTION($,(1.,0.,0.));
#1277=DIRECTION('center_axis',(-1.,0.,0.));
#1278=DIRECTION('ref_axis',(0.,0.,-1.));
#1279=DIRECTION($,(0.,0.,-1.));
#1280=DIRECTION($,(0.,-1.,0.));
#1281=DIRECTION($,(0.,1.,0.));
#1282=DIRECTION('center_axis',(0.,-1.,0.));
#1283=DIRECTION('ref_axis',(0.,0.,-1.));
#1284=DIRECTION($,(0.,0.,-1.));
#1285=DIRECTION($,(1.,0.,0.));
#1286=DIRECTION($,(-1.,0.,0.));
#1287=DIRECTION('center_axis',(1.,0.,0.));
#1288=DIRECTION('ref_axis',(0.,0.,1.));
#1289=DIRECTION($,(0.,1.,0.));
#1290=DIRECTION($,(0.,-1.,0.));
#1291=DIRECTION('center_axis',(0.,0.,-1.));
#1292=DIRECTION('ref_axis',(1.,0.,0.));
#1293=DIRECTION($,(0.,-1.,0.));
#1294=DIRECTION($,(1.,0.,0.));
#1295=DIRECTION($,(0.,1.,0.));
#1296=DIRECTION($,(-1.,0.,0.));
#1297=DIRECTION('center_axis',(0.,0.,-1.));
#1298=DIRECTION('ref_axis',(1.,0.,0.));
#1299=DIRECTION($,(0.,1.,0.));
#1300=DIRECTION($,(1.,0.,0.));
#1301=DIRECTION($,(0.,-1.,0.));
#1302=DIRECTION($,(-1.,0.,0.));
#1303=DIRECTION('center_axis',(0.,1.,0.));
#1304=DIRECTION('ref_axis',(0.,0.,1.));
#1305=DIRECTION($,(0.,0.,-1.));
#1306=DIRECTION($,(0.,0.,-1.));
#1307=DIRECTION('center_axis',(-1.,0.,0.));
#1308=DIRECTION('ref_axis',(0.,0.,-1.));
#1309=DIRECTION($,(0.,0.,-1.));
#1310=DIRECTION('center_axis',(0.,-1.,0.));
#1311=DIRECTION('ref_axis',(0.,0.,-1.));
#1312=DIRECTION($,(0.,0.,-1.));
#1313=DIRECTION('center_axis',(1.,0.,0.));
#1314=DIRECTION('ref_axis',(0.,0.,1.));
#1315=DIRECTION('center_axis',(0.,0.,-1.));
#1316=DIRECTION('ref_axis',(1.,0.,0.));
#1317=DIRECTION($,(0.,-1.,0.));
#1318=DIRECTION($,(1.,0.,0.));
#1319=DIRECTION($,(0.,1.,0.));
#1320=DIRECTION($,(-1.,0.,0.));
#1321=DIRECTION('center_axis',(0.,0.,-1.));
#1322=DIRECTION('ref_axis',(1.,0.,0.));
#1323=DIRECTION($,(0.,1.,0.));
#1324=DIRECTION($,(1.,0.,0.));
#1325=DIRECTION($,(0.,-1.,0.));
#1326=DIRECTION($,(-1.,0.,0.));
#1327=DIRECTION('center_axis',(0.,1.,0.));
#1328=DIRECTION('ref_axis',(0.,0.,1.));
#1329=DIRECTION($,(0.,0.,-1.));
#1330=DIRECTION($,(0.,0.,-1.));
#1331=DIRECTION('center_axis',(-1.,0.,0.));
#1332=DIRECTION('ref_axis',(0.,0.,-1.));
#1333=DIRECTION($,(0.,0.,-1.));
#1334=DIRECTION('center_axis',(0.,-1.,0.));
#1335=DIRECTION('ref_axis',(0.,0.,-1.));
#1336=DIRECTION($,(0.,0.,-1.));
#1337=DIRECTION('center_axis',(1.,0.,0.));
#1338=DIRECTION('ref_axis',(0.,0.,1.));
#1339=DIRECTION('center_axis',(1.,0.,0.));
#1340=DIRECTION('ref_axis',(0.,1.,0.));
#1341=DIRECTION($,(0.,-1.,0.));
#1342=DIRECTION($,(0.,0.,1.));
#1343=DIRECTION($,(0.,1.,0.));
#1344=DIRECTION($,(0.,0.,1.));
#1345=DIRECTION('center_axis',(0.,-1.,0.));
#1346=DIRECTION('ref_axis',(1.,0.,0.));
#1347=DIRECTION($,(-1.,0.,0.));
#1348=DIRECTION($,(1.,0.,0.));
#1349=DIRECTION($,(0.,0.,1.));
#1350=DIRECTION('center_axis',(0.,0.,1.));
#1351=DIRECTION('ref_axis',(0.515078753637714,-0.857142857142856,0.));
#1352=DIRECTION('center_axis',(0.,0.,-1.));
#1353=DIRECTION('ref_axis',(0.515078753637714,-0.857142857142856,0.));
#1354=DIRECTION('center_axis',(0.,0.,1.));
#1355=DIRECTION('ref_axis',(0.515078753637714,-0.857142857142856,0.));
#1356=DIRECTION($,(0.,0.,1.));
#1357=DIRECTION('center_axis',(6.63094419162736E-16,1.,0.));
#1358=DIRECTION('ref_axis',(-1.,6.66133814775094E-16,0.));
#1359=DIRECTION($,(1.,-6.63094419162736E-16,0.));
#1360=DIRECTION($,(-1.,6.63094419162736E-16,0.));
#1361=DIRECTION('center_axis',(0.,0.,1.));
#1362=DIRECTION('ref_axis',(1.,0.,0.));
#1363=DIRECTION('center_axis',(0.,0.,1.));
#1364=DIRECTION('ref_axis',(1.,0.,0.));
#1365=DIRECTION('center_axis',(-1.,0.,0.));
#1366=DIRECTION('ref_axis',(0.,-1.,0.));
#1367=DIRECTION($,(0.,1.,0.));
#1368=DIRECTION($,(0.,0.,1.));
#1369=DIRECTION($,(0.,-1.,0.));
#1370=DIRECTION($,(0.,0.,1.));
#1371=DIRECTION('center_axis',(0.,1.,0.));
#1372=DIRECTION('ref_axis',(-1.,0.,0.));
#1373=DIRECTION($,(1.,0.,0.));
#1374=DIRECTION($,(-1.,0.,0.));
#1375=DIRECTION($,(0.,0.,1.));
#1376=DIRECTION('center_axis',(0.,0.,1.));
#1377=DIRECTION('ref_axis',(-0.515078753637714,0.857142857142856,0.));
#1378=DIRECTION('center_axis',(0.,0.,-1.));
#1379=DIRECTION('ref_axis',(-0.515078753637714,0.857142857142856,0.));
#1380=DIRECTION('center_axis',(0.,0.,1.));
#1381=DIRECTION('ref_axis',(-0.515078753637714,0.857142857142856,0.));
#1382=DIRECTION($,(0.,0.,1.));
#1383=DIRECTION('center_axis',(0.,-1.,0.));
#1384=DIRECTION('ref_axis',(1.,0.,0.));
#1385=DIRECTION($,(-1.,0.,0.));
#1386=DIRECTION($,(1.,0.,0.));
#1387=DIRECTION('center_axis',(0.,0.,1.));
#1388=DIRECTION('ref_axis',(1.,0.,0.));
#1389=DIRECTION('center_axis',(0.,0.,1.));
#1390=DIRECTION('ref_axis',(1.,0.,0.));
#1391=CARTESIAN_POINT('',(0.,0.,0.));
#1392=CARTESIAN_POINT('polyline point',(-0.975,1.225,0.05));
#1393=CARTESIAN_POINT('polyline point',(-0.975000000000001,-1.225,0.05));
#1394=CARTESIAN_POINT('polyline point',(0.975,-1.225,0.05));
#1395=CARTESIAN_POINT('polyline point',(0.975,1.225,0.05));
#1396=CARTESIAN_POINT('polyline point',(-0.975,1.225,0.05));
#1397=CARTESIAN_POINT('Origin',(-0.275,1.03,0.));
#1398=CARTESIAN_POINT('',(-0.275,1.03,0.));
#1399=CARTESIAN_POINT('',(-0.825,1.03,0.));
#1400=CARTESIAN_POINT($,(-0.275,1.03,0.));
#1401=CARTESIAN_POINT('',(-0.825,1.03,0.05));
#1402=CARTESIAN_POINT($,(-0.825,1.03,0.));
#1403=CARTESIAN_POINT('',(-0.275,1.03,0.05));
#1404=CARTESIAN_POINT($,(-0.275,1.03,0.05));
#1405=CARTESIAN_POINT($,(-0.275,1.03,0.));
#1406=CARTESIAN_POINT('Origin',(-0.275,0.2,0.));
#1407=CARTESIAN_POINT('',(-0.275,0.2,0.));
#1408=CARTESIAN_POINT($,(-0.275,0.2,0.));
#1409=CARTESIAN_POINT('',(-0.275,0.2,0.05));
#1410=CARTESIAN_POINT($,(-0.275,0.2,0.05));
#1411=CARTESIAN_POINT($,(-0.275,0.2,0.));
#1412=CARTESIAN_POINT('Origin',(-0.825,0.2,0.));
#1413=CARTESIAN_POINT('',(-0.825,0.2,0.));
#1414=CARTESIAN_POINT($,(-0.825,0.2,0.));
#1415=CARTESIAN_POINT('',(-0.825,0.2,0.05));
#1416=CARTESIAN_POINT($,(-0.825,0.2,0.05));
#1417=CARTESIAN_POINT($,(-0.825,0.2,0.));
#1418=CARTESIAN_POINT('Origin',(-0.825,1.03,0.));
#1419=CARTESIAN_POINT($,(-0.825,1.03,0.));
#1420=CARTESIAN_POINT($,(-0.825,1.03,0.05));
#1421=CARTESIAN_POINT('Origin',(-0.55,0.615,0.05));
#1422=CARTESIAN_POINT('Origin',(-0.55,0.615,0.));
#1423=CARTESIAN_POINT('Origin',(0.825,1.03,0.));
#1424=CARTESIAN_POINT('',(0.825,1.03,0.));
#1425=CARTESIAN_POINT('',(0.275,1.03,0.));
#1426=CARTESIAN_POINT($,(0.825,1.03,0.));
#1427=CARTESIAN_POINT('',(0.275,1.03,0.05));
#1428=CARTESIAN_POINT($,(0.275,1.03,0.));
#1429=CARTESIAN_POINT('',(0.825,1.03,0.05));
#1430=CARTESIAN_POINT($,(0.825,1.03,0.05));
#1431=CARTESIAN_POINT($,(0.825,1.03,0.));
#1432=CARTESIAN_POINT('Origin',(0.825,0.2,0.));
#1433=CARTESIAN_POINT('',(0.825,0.2,0.));
#1434=CARTESIAN_POINT($,(0.825,0.2,0.));
#1435=CARTESIAN_POINT('',(0.825,0.2,0.05));
#1436=CARTESIAN_POINT($,(0.825,0.2,0.05));
#1437=CARTESIAN_POINT($,(0.825,0.2,0.));
#1438=CARTESIAN_POINT('Origin',(0.275,0.2,0.));
#1439=CARTESIAN_POINT('',(0.275,0.2,0.));
#1440=CARTESIAN_POINT($,(0.275,0.2,0.));
#1441=CARTESIAN_POINT('',(0.275,0.2,0.05));
#1442=CARTESIAN_POINT($,(0.275,0.2,0.05));
#1443=CARTESIAN_POINT($,(0.275,0.2,0.));
#1444=CARTESIAN_POINT('Origin',(0.275,1.03,0.));
#1445=CARTESIAN_POINT($,(0.275,1.03,0.));
#1446=CARTESIAN_POINT($,(0.275,1.03,0.05));
#1447=CARTESIAN_POINT('Origin',(0.55,0.615,0.05));
#1448=CARTESIAN_POINT('Origin',(0.55,0.615,0.));
#1449=CARTESIAN_POINT('Origin',(0.825,-0.2,0.));
#1450=CARTESIAN_POINT('',(0.825,-0.2,0.));
#1451=CARTESIAN_POINT('',(0.275,-0.2,0.));
#1452=CARTESIAN_POINT($,(0.825,-0.2,0.));
#1453=CARTESIAN_POINT('',(0.275,-0.2,0.05));
#1454=CARTESIAN_POINT($,(0.275,-0.2,0.));
#1455=CARTESIAN_POINT('',(0.825,-0.2,0.05));
#1456=CARTESIAN_POINT($,(0.825,-0.2,0.05));
#1457=CARTESIAN_POINT($,(0.825,-0.2,0.));
#1458=CARTESIAN_POINT('Origin',(0.825,-1.03,0.));
#1459=CARTESIAN_POINT('',(0.825,-1.03,0.));
#1460=CARTESIAN_POINT($,(0.825,-1.03,0.));
#1461=CARTESIAN_POINT('',(0.825,-1.03,0.05));
#1462=CARTESIAN_POINT($,(0.825,-1.03,0.05));
#1463=CARTESIAN_POINT($,(0.825,-1.03,0.));
#1464=CARTESIAN_POINT('Origin',(0.275,-1.03,0.));
#1465=CARTESIAN_POINT('',(0.275,-1.03,0.));
#1466=CARTESIAN_POINT($,(0.275,-1.03,0.));
#1467=CARTESIAN_POINT('',(0.275,-1.03,0.05));
#1468=CARTESIAN_POINT($,(0.275,-1.03,0.05));
#1469=CARTESIAN_POINT($,(0.275,-1.03,0.));
#1470=CARTESIAN_POINT('Origin',(0.275,-0.2,0.));
#1471=CARTESIAN_POINT($,(0.275,-0.2,0.));
#1472=CARTESIAN_POINT($,(0.275,-0.2,0.05));
#1473=CARTESIAN_POINT('Origin',(0.55,-0.615,0.05));
#1474=CARTESIAN_POINT('Origin',(0.55,-0.615,0.));
#1475=CARTESIAN_POINT('Origin',(-0.275,-0.2,0.));
#1476=CARTESIAN_POINT('',(-0.275,-0.2,0.));
#1477=CARTESIAN_POINT('',(-0.825,-0.2,0.));
#1478=CARTESIAN_POINT($,(-0.275,-0.2,0.));
#1479=CARTESIAN_POINT('',(-0.825,-0.2,0.05));
#1480=CARTESIAN_POINT($,(-0.825,-0.2,0.));
#1481=CARTESIAN_POINT('',(-0.275,-0.2,0.05));
#1482=CARTESIAN_POINT($,(-0.275,-0.2,0.05));
#1483=CARTESIAN_POINT($,(-0.275,-0.2,0.));
#1484=CARTESIAN_POINT('Origin',(-0.275,-1.03,0.));
#1485=CARTESIAN_POINT('',(-0.275,-1.03,0.));
#1486=CARTESIAN_POINT($,(-0.275,-1.03,0.));
#1487=CARTESIAN_POINT('',(-0.275,-1.03,0.05));
#1488=CARTESIAN_POINT($,(-0.275,-1.03,0.05));
#1489=CARTESIAN_POINT($,(-0.275,-1.03,0.));
#1490=CARTESIAN_POINT('Origin',(-0.825,-1.03,0.));
#1491=CARTESIAN_POINT('',(-0.825,-1.03,0.));
#1492=CARTESIAN_POINT($,(-0.825,-1.03,0.));
#1493=CARTESIAN_POINT('',(-0.825,-1.03,0.05));
#1494=CARTESIAN_POINT($,(-0.825,-1.03,0.05));
#1495=CARTESIAN_POINT($,(-0.825,-1.03,0.));
#1496=CARTESIAN_POINT('Origin',(-0.825,-0.2,0.));
#1497=CARTESIAN_POINT($,(-0.825,-0.2,0.));
#1498=CARTESIAN_POINT($,(-0.825,-0.2,0.05));
#1499=CARTESIAN_POINT('Origin',(-0.55,-0.615,0.05));
#1500=CARTESIAN_POINT('Origin',(-0.55,-0.615,0.));
#1501=CARTESIAN_POINT('Origin',(0.975,-1.225,0.9));
#1502=CARTESIAN_POINT('',(-0.975000000000001,-1.225,0.9));
#1503=CARTESIAN_POINT('',(0.975,-1.225,0.9));
#1504=CARTESIAN_POINT($,(-0.975000000000001,-1.225,0.9));
#1505=CARTESIAN_POINT('',(-0.975000000000001,-1.225,0.0499999999999999));
#1506=CARTESIAN_POINT($,(-0.975000000000001,-1.225,0.9));
#1507=CARTESIAN_POINT('',(0.975,-1.225,0.0499999999999999));
#1508=CARTESIAN_POINT($,(-0.975000000000001,-1.225,0.0499999999999999));
#1509=CARTESIAN_POINT($,(0.975,-1.225,0.9));
#1510=CARTESIAN_POINT('Origin',(0.975,1.225,0.9));
#1511=CARTESIAN_POINT('',(0.975,1.225,0.9));
#1512=CARTESIAN_POINT($,(0.975,-1.225,0.9));
#1513=CARTESIAN_POINT('',(0.975,1.225,0.0499999999999999));
#1514=CARTESIAN_POINT($,(0.975,-1.225,0.0499999999999999));
#1515=CARTESIAN_POINT($,(0.975,1.225,0.9));
#1516=CARTESIAN_POINT('Origin',(-0.975000000000001,1.225,0.9));
#1517=CARTESIAN_POINT('',(-0.975000000000001,1.225,0.9));
#1518=CARTESIAN_POINT($,(0.975,1.225,0.9));
#1519=CARTESIAN_POINT('',(-0.975000000000001,1.225,0.0499999999999999));
#1520=CARTESIAN_POINT($,(0.975,1.225,0.0499999999999999));
#1521=CARTESIAN_POINT($,(-0.975000000000001,1.225,0.9));
#1522=CARTESIAN_POINT('Origin',(-0.975000000000001,-1.225,0.9));
#1523=CARTESIAN_POINT($,(-0.975000000000001,1.225,0.9));
#1524=CARTESIAN_POINT($,(-0.975000000000001,1.225,0.0499999999999999));
#1525=CARTESIAN_POINT('Origin',(-4.14441208624277E-16,-4.54182146437564E-16,
0.9));
#1526=CARTESIAN_POINT('Origin',(-4.44089209850063E-16,-4.44089209850063E-16,
0.0499999999999999));
#1527=CARTESIAN_POINT('Origin',(0.775,-1.025,0.9));
#1528=CARTESIAN_POINT('',(0.775,0.524999999999999,0.9));
#1529=CARTESIAN_POINT('',(0.775,-1.025,0.9));
#1530=CARTESIAN_POINT($,(0.775,0.524999999999999,0.9));
#1531=CARTESIAN_POINT('',(0.775,0.524999999999999,1.615));
#1532=CARTESIAN_POINT($,(0.775,0.524999999999999,0.9));
#1533=CARTESIAN_POINT('',(0.775,-1.025,1.615));
#1534=CARTESIAN_POINT($,(0.775,0.524999999999999,1.615));
#1535=CARTESIAN_POINT($,(0.775,-1.025,0.9));
#1536=CARTESIAN_POINT('Origin',(-0.775,-1.025,0.9));
#1537=CARTESIAN_POINT('',(-0.775,-1.025,0.9));
#1538=CARTESIAN_POINT($,(0.775,-1.025,0.9));
#1539=CARTESIAN_POINT('',(-0.775,-1.025,1.615));
#1540=CARTESIAN_POINT($,(0.775,-1.025,1.615));
#1541=CARTESIAN_POINT($,(-0.775,-1.025,0.89));
#1542=CARTESIAN_POINT('Origin',(-0.775,0.524999999999999,0.89));
#1543=CARTESIAN_POINT('',(-0.775,0.524999999999999,0.9));
#1544=CARTESIAN_POINT($,(-0.775,-1.025,0.9));
#1545=CARTESIAN_POINT('',(-0.775,0.524999999999999,1.615));
#1546=CARTESIAN_POINT($,(-0.775,-1.025,1.615));
#1547=CARTESIAN_POINT($,(-0.775,0.524999999999999,0.89));
#1548=CARTESIAN_POINT('Origin',(0.775,0.524999999999999,0.9));
#1549=CARTESIAN_POINT($,(-0.775,0.524999999999999,0.9));
#1550=CARTESIAN_POINT($,(-0.775,0.524999999999999,1.615));
#1551=CARTESIAN_POINT('Origin',(-4.29763751467803E-16,-0.250000000000001,
0.9));
#1552=CARTESIAN_POINT('Origin',(-4.44089209850063E-16,-0.250000000000001,
1.615));
#1553=CARTESIAN_POINT('Origin',(-2.22044604925031E-16,0.44,1.62));
#1554=CARTESIAN_POINT('',(-0.69,0.44,1.625));
#1555=CARTESIAN_POINT('',(-0.69,0.44,1.615));
#1556=CARTESIAN_POINT($,(-0.69,0.44,1.62));
#1557=CARTESIAN_POINT('',(0.69,0.44,1.615));
#1558=CARTESIAN_POINT($,(-3.33066907387547E-16,0.44,1.615));
#1559=CARTESIAN_POINT('',(0.69,0.44,1.625));
#1560=CARTESIAN_POINT($,(0.69,0.44,1.62));
#1561=CARTESIAN_POINT($,(-3.33066907387547E-16,0.44,1.625));
#1562=CARTESIAN_POINT('Origin',(-0.69,-0.25,1.62));
#1563=CARTESIAN_POINT('',(-0.69,-0.94,1.625));
#1564=CARTESIAN_POINT('',(-0.69,-0.94,1.615));
#1565=CARTESIAN_POINT($,(-0.69,-0.94,1.62));
#1566=CARTESIAN_POINT($,(-0.69,-0.250000000000001,1.615));
#1567=CARTESIAN_POINT($,(-0.69,-0.250000000000001,1.625));
#1568=CARTESIAN_POINT('Origin',(-2.22044604925031E-16,-0.94,1.62));
#1569=CARTESIAN_POINT('',(0.69,-0.94,1.625));
#1570=CARTESIAN_POINT('',(0.69,-0.94,1.615));
#1571=CARTESIAN_POINT($,(0.69,-0.94,1.62));
#1572=CARTESIAN_POINT($,(-3.33066907387547E-16,-0.94,1.615));
#1573=CARTESIAN_POINT($,(-3.33066907387547E-16,-0.94,1.625));
#1574=CARTESIAN_POINT('Origin',(0.69,-0.25,1.62));
#1575=CARTESIAN_POINT($,(0.69,-0.250000000000001,1.615));
#1576=CARTESIAN_POINT($,(0.69,-0.250000000000001,1.625));
#1577=CARTESIAN_POINT('Origin',(-4.44089209850063E-16,-0.250000000000001,
1.625));
#1578=CARTESIAN_POINT('',(0.775,0.525,1.625));
#1579=CARTESIAN_POINT('',(0.775,-1.025,1.625));
#1580=CARTESIAN_POINT($,(0.775,-0.250000000000001,1.625));
#1581=CARTESIAN_POINT('',(-0.775,0.525,1.625));
#1582=CARTESIAN_POINT($,(-4.44089209850063E-16,0.525,1.625));
#1583=CARTESIAN_POINT('',(-0.775,-1.025,1.625));
#1584=CARTESIAN_POINT($,(-0.775,-0.250000000000001,1.625));
#1585=CARTESIAN_POINT($,(-4.44089209850063E-16,-1.025,1.625));
#1586=CARTESIAN_POINT('Origin',(-4.44089209850063E-16,-0.250000000000001,
1.615));
#1587=CARTESIAN_POINT('',(0.775,-1.025,1.615));
#1588=CARTESIAN_POINT('',(0.775,0.525,1.615));
#1589=CARTESIAN_POINT($,(0.775,-0.250000000000001,1.615));
#1590=CARTESIAN_POINT('',(-0.775,-1.025,1.615));
#1591=CARTESIAN_POINT($,(-4.44089209850063E-16,-1.025,1.615));
#1592=CARTESIAN_POINT('',(-0.775,0.525,1.615));
#1593=CARTESIAN_POINT($,(-0.775,-0.250000000000001,1.615));
#1594=CARTESIAN_POINT($,(-4.44089209850063E-16,0.525,1.615));
#1595=CARTESIAN_POINT('Origin',(-4.44089209850063E-16,0.525,1.62));
#1596=CARTESIAN_POINT($,(-0.775,0.525,1.62));
#1597=CARTESIAN_POINT($,(0.775,0.525,1.62));
#1598=CARTESIAN_POINT('Origin',(-0.775,-0.250000000000001,1.62));
#1599=CARTESIAN_POINT($,(-0.775,-1.025,1.62));
#1600=CARTESIAN_POINT('Origin',(-4.44089209850063E-16,-1.025,1.62));
#1601=CARTESIAN_POINT($,(0.775,-1.025,1.62));
#1602=CARTESIAN_POINT('Origin',(0.775,-0.250000000000001,1.62));
#1603=CARTESIAN_POINT('Origin',(-2.22044604925031E-16,-0.25,1.625));
#1604=CARTESIAN_POINT('',(0.69,0.44,1.625));
#1605=CARTESIAN_POINT('',(0.69,-0.94,1.625));
#1606=CARTESIAN_POINT($,(0.69,-0.25,1.625));
#1607=CARTESIAN_POINT('',(-0.69,0.44,1.625));
#1608=CARTESIAN_POINT($,(-2.22044604925031E-16,0.44,1.625));
#1609=CARTESIAN_POINT('',(-0.69,-0.94,1.625));
#1610=CARTESIAN_POINT($,(-0.69,-0.25,1.625));
#1611=CARTESIAN_POINT($,(-2.22044604925031E-16,-0.94,1.625));
#1612=CARTESIAN_POINT('Origin',(-2.22044604925031E-16,-0.25,1.615));
#1613=CARTESIAN_POINT('',(0.69,-0.94,1.615));
#1614=CARTESIAN_POINT('',(0.69,0.44,1.615));
#1615=CARTESIAN_POINT($,(0.69,-0.25,1.615));
#1616=CARTESIAN_POINT('',(-0.69,-0.94,1.615));
#1617=CARTESIAN_POINT($,(-2.22044604925031E-16,-0.94,1.615));
#1618=CARTESIAN_POINT('',(-0.69,0.44,1.615));
#1619=CARTESIAN_POINT($,(-0.69,-0.25,1.615));
#1620=CARTESIAN_POINT($,(-2.22044604925031E-16,0.44,1.615));
#1621=CARTESIAN_POINT('Origin',(-2.22044604925031E-16,0.44,1.62));
#1622=CARTESIAN_POINT($,(-0.69,0.44,1.62));
#1623=CARTESIAN_POINT($,(0.69,0.44,1.62));
#1624=CARTESIAN_POINT('Origin',(-0.69,-0.25,1.62));
#1625=CARTESIAN_POINT($,(-0.69,-0.94,1.62));
#1626=CARTESIAN_POINT('Origin',(-2.22044604925031E-16,-0.94,1.62));
#1627=CARTESIAN_POINT($,(0.69,-0.94,1.62));
#1628=CARTESIAN_POINT('Origin',(0.69,-0.25,1.62));
#1629=CARTESIAN_POINT('Origin',(-0.220371858872856,0.725,0.9));
#1630=CARTESIAN_POINT('',(-0.220371858872856,1.025,0.9));
#1631=CARTESIAN_POINT('',(-0.220371858872856,0.725,0.9));
#1632=CARTESIAN_POINT($,(-0.220371858872856,1.025,0.9));
#1633=CARTESIAN_POINT('',(-0.220371858872856,1.025,0.935000000000001));
#1634=CARTESIAN_POINT($,(-0.220371858872856,1.025,0.9));
#1635=CARTESIAN_POINT('',(-0.220371858872856,0.725,0.935000000000001));
#1636=CARTESIAN_POINT($,(-0.220371858872856,1.025,0.935000000000001));
#1637=CARTESIAN_POINT($,(-0.220371858872856,0.725,0.9));
#1638=CARTESIAN_POINT('Origin',(-0.555233076986256,0.725,0.9));
#1639=CARTESIAN_POINT('',(-0.555233076986256,0.725,0.9));
#1640=CARTESIAN_POINT($,(-0.220371858872856,0.725,0.9));
#1641=CARTESIAN_POINT('',(-0.555233076986256,0.725,0.935000000000001));
#1642=CARTESIAN_POINT($,(-0.220371858872856,0.725,0.935000000000001));
#1643=CARTESIAN_POINT($,(-0.555233076986256,0.725,0.9));
#1644=CARTESIAN_POINT('Origin',(-0.645371858872856,0.875,0.9));
#1645=CARTESIAN_POINT('',(-0.555233076986256,1.025,0.9));
#1646=CARTESIAN_POINT('Origin',(-0.645371858872856,0.875,0.9));
#1647=CARTESIAN_POINT('',(-0.555233076986256,1.025,0.935000000000001));
#1648=CARTESIAN_POINT('Origin',(-0.645371858872856,0.875,0.935000000000001));
#1649=CARTESIAN_POINT($,(-0.555233076986256,1.025,0.9));
#1650=CARTESIAN_POINT('Origin',(-0.220371858872856,1.025,0.9));
#1651=CARTESIAN_POINT($,(-0.555233076986256,1.025,0.9));
#1652=CARTESIAN_POINT($,(-0.555233076986256,1.025,0.935000000000001));
#1653=CARTESIAN_POINT('Origin',(-0.474368793592762,0.875,0.9));
#1654=CARTESIAN_POINT('Origin',(-0.474368793592762,0.875,0.935));
#1655=CARTESIAN_POINT('Origin',(0.2,1.025,0.9));
#1656=CARTESIAN_POINT('',(0.2,0.724999999999999,0.9));
#1657=CARTESIAN_POINT('',(0.2,1.025,0.9));
#1658=CARTESIAN_POINT($,(0.2,0.724999999999999,0.9));
#1659=CARTESIAN_POINT('',(0.2,0.724999999999999,0.935000000000001));
#1660=CARTESIAN_POINT($,(0.2,0.724999999999999,0.9));
#1661=CARTESIAN_POINT('',(0.2,1.025,0.935000000000001));
#1662=CARTESIAN_POINT($,(0.2,0.724999999999999,0.935000000000001));
#1663=CARTESIAN_POINT($,(0.2,1.025,0.9));
#1664=CARTESIAN_POINT('Origin',(0.5348612181134,1.025,0.9));
#1665=CARTESIAN_POINT('',(0.5348612181134,1.025,0.9));
#1666=CARTESIAN_POINT($,(0.2,1.025,0.9));
#1667=CARTESIAN_POINT('',(0.5348612181134,1.025,0.935000000000001));
#1668=CARTESIAN_POINT($,(0.2,1.025,0.935000000000001));
#1669=CARTESIAN_POINT($,(0.5348612181134,1.025,0.9));
#1670=CARTESIAN_POINT('Origin',(0.625,0.875,0.9));
#1671=CARTESIAN_POINT('',(0.5348612181134,0.724999999999999,0.9));
#1672=CARTESIAN_POINT('Origin',(0.625,0.875,0.9));
#1673=CARTESIAN_POINT('',(0.5348612181134,0.724999999999999,0.935000000000001));
#1674=CARTESIAN_POINT('Origin',(0.625,0.875,0.935000000000001));
#1675=CARTESIAN_POINT($,(0.5348612181134,0.724999999999999,0.9));
#1676=CARTESIAN_POINT('Origin',(0.2,0.724999999999999,0.9));
#1677=CARTESIAN_POINT($,(0.5348612181134,0.724999999999999,0.9));
#1678=CARTESIAN_POINT($,(0.5348612181134,0.724999999999999,0.935000000000001));
#1679=CARTESIAN_POINT('Origin',(0.453996934719906,0.875,0.900000000000001));
#1680=CARTESIAN_POINT('Origin',(0.453996934719906,0.875,0.935000000000001));
#1681=UNCERTAINTY_MEASURE_WITH_UNIT(LENGTH_MEASURE(0.01),#1685,
'DISTANCE_ACCURACY_VALUE',
'Maximum model space distance between geometric entities at asserted c
onnectivities');
#1682=UNCERTAINTY_MEASURE_WITH_UNIT(LENGTH_MEASURE(1.E-6),#1685,
'DISTANCE_ACCURACY_VALUE',
'Maximum model space distance between geometric entities at asserted c
onnectivities');
#1683=(
GEOMETRIC_REPRESENTATION_CONTEXT(3)
GLOBAL_UNCERTAINTY_ASSIGNED_CONTEXT((#1681))
GLOBAL_UNIT_ASSIGNED_CONTEXT((#1685,#1687,#1686))
REPRESENTATION_CONTEXT('','3D')
);
#1684=(
GEOMETRIC_REPRESENTATION_CONTEXT(3)
GLOBAL_UNCERTAINTY_ASSIGNED_CONTEXT((#1682))
GLOBAL_UNIT_ASSIGNED_CONTEXT((#1685,#12,#1686))
REPRESENTATION_CONTEXT('','3D')
);
#1685=(
LENGTH_UNIT()
NAMED_UNIT(*)
SI_UNIT(.MILLI.,.METRE.)
);
#1686=(
NAMED_UNIT(*)
SI_UNIT($,.STERADIAN.)
SOLID_ANGLE_UNIT()
);
#1687=(
NAMED_UNIT(*)
PLANE_ANGLE_UNIT()
SI_UNIT($,.RADIAN.)
);
#1688=SHAPE_DEFINITION_REPRESENTATION(#1689,#1690);
#1689=PRODUCT_DEFINITION_SHAPE('',$,#1692);
#1690=SHAPE_REPRESENTATION('',(#1056),#1683);
#1691=PRODUCT_DEFINITION_CONTEXT('part definition',#1696,'design');
#1692=PRODUCT_DEFINITION('Product','Product',#1693,#1691);
#1693=PRODUCT_DEFINITION_FORMATION('',$,#1698);
#1694=PRODUCT_RELATED_PRODUCT_CATEGORY('Product','Product',(#1698));
#1695=APPLICATION_PROTOCOL_DEFINITION('international standard',
'automotive_design',2009,#1696);
#1696=APPLICATION_CONTEXT(
'Core Data for Automotive Mechanical Design Process');
#1697=PRODUCT_CONTEXT('part definition',#1696,'mechanical');
#1698=PRODUCT('Product','Product',$,(#1697));
#1699=PRESENTATION_STYLE_ASSIGNMENT((#1705));
#1700=PRESENTATION_STYLE_ASSIGNMENT((#1706));
#1701=PRESENTATION_STYLE_ASSIGNMENT((#1707));
#1702=PRESENTATION_STYLE_ASSIGNMENT((#1708));
#1703=PRESENTATION_STYLE_ASSIGNMENT((#1709));
#1704=PRESENTATION_STYLE_ASSIGNMENT((#1710));
#1705=SURFACE_STYLE_USAGE(.BOTH.,#1711);
#1706=SURFACE_STYLE_USAGE(.BOTH.,#1712);
#1707=SURFACE_STYLE_USAGE(.BOTH.,#1713);
#1708=SURFACE_STYLE_USAGE(.BOTH.,#1714);
#1709=SURFACE_STYLE_USAGE(.BOTH.,#1715);
#1710=SURFACE_STYLE_USAGE(.BOTH.,#1716);
#1711=SURFACE_SIDE_STYLE($,(#1717));
#1712=SURFACE_SIDE_STYLE($,(#1718));
#1713=SURFACE_SIDE_STYLE($,(#1719));
#1714=SURFACE_SIDE_STYLE($,(#1720));
#1715=SURFACE_SIDE_STYLE($,(#1721));
#1716=SURFACE_SIDE_STYLE($,(#1722));
#1717=SURFACE_STYLE_FILL_AREA(#1723);
#1718=SURFACE_STYLE_FILL_AREA(#1724);
#1719=SURFACE_STYLE_FILL_AREA(#1725);
#1720=SURFACE_STYLE_FILL_AREA(#1726);
#1721=SURFACE_STYLE_FILL_AREA(#1727);
#1722=SURFACE_STYLE_FILL_AREA(#1728);
#1723=FILL_AREA_STYLE($,(#1729));
#1724=FILL_AREA_STYLE($,(#1730));
#1725=FILL_AREA_STYLE($,(#1731));
#1726=FILL_AREA_STYLE($,(#1732));
#1727=FILL_AREA_STYLE($,(#1733));
#1728=FILL_AREA_STYLE($,(#1734));
#1729=FILL_AREA_STYLE_COLOUR($,#1735);
#1730=FILL_AREA_STYLE_COLOUR($,#1736);
#1731=FILL_AREA_STYLE_COLOUR($,#1737);
#1732=FILL_AREA_STYLE_COLOUR($,#1738);
#1733=FILL_AREA_STYLE_COLOUR($,#1739);
#1734=FILL_AREA_STYLE_COLOUR($,#1740);
#1735=COLOUR_RGB('',1.,0.,0.);
#1736=COLOUR_RGB('',1.,1.,1.);
#1737=COLOUR_RGB('',1.,0.749019607843137,0.);
#1738=COLOUR_RGB('',0.650980392156863,0.486274509803922,0.);
#1739=COLOUR_RGB('',0.125490196078431,0.501960784313725,0.);
#1740=COLOUR_RGB('',0.149019607843137,0.,0.113725490196078);
ENDSEC;
END-ISO-10303-21;
