ISO-10303-21;
HEADER;
/* Generated by software containing ST-Developer
 * from STEP Tools, Inc. (www.steptools.com) 
 */

FILE_DESCRIPTION(
/* description */ (''),
/* implementation_level */ '2;1');

FILE_NAME(
/* name */ 'S:\\bcivel\\Altium-Lib\\Compo\\LED_BIVAR_H485CHHGGDL.stp',
/* time_stamp */ '2015-11-13T10:54:32+01:00',
/* author */ ('bcivel'),
/* organization */ (''),
/* preprocessor_version */ 'ST-DEVELOPER v15.5',
/* originating_system */ 'AutoCAD Mechanical',
/* authorisation */ '');

FILE_SCHEMA (('AUTOMOTIVE_DESIGN { 1 0 10303 214 3 1 1 }'));
ENDSEC;

DATA;
#10=MECHANICAL_DESIGN_GEOMETRIC_PRESENTATION_REPRESENTATION('',(#103,#104,
#105,#106,#107,#108,#109,#110,#111,#112,#113,#114,#115,#116,#117,#118,#119,
#120,#121),#1595);
#11=DIMENSIONAL_EXPONENTS(0.,0.,0.,0.,0.,0.,0.);
#12=(
CONVERSION_BASED_UNIT('degree',#13)
NAMED_UNIT(#11)
PLANE_ANGLE_UNIT()
);
#13=PLANE_ANGLE_MEASURE_WITH_UNIT(PLANE_ANGLE_MEASURE(0.01745329252),#1598);
#14=PRESENTATION_LAYER_ASSIGNMENT('3D','',(#913,#914,#915,#916,#917,#918,
#919,#920,#921,#922,#923,#924,#925,#926,#927,#928,#929,#930,#931));
#15=SPHERICAL_SURFACE($,#1021,0.9);
#16=SPHERICAL_SURFACE($,#1023,0.9);
#17=SPHERICAL_SURFACE($,#1041,0.9);
#18=SPHERICAL_SURFACE($,#1043,0.9);
#19=CIRCLE($,#956,0.9);
#20=CIRCLE($,#957,0.9);
#21=CIRCLE($,#963,1.2);
#22=CIRCLE($,#964,1.2);
#23=CIRCLE($,#969,0.9);
#24=CIRCLE($,#970,0.9);
#25=CIRCLE($,#976,1.2);
#26=CIRCLE($,#977,1.2);
#27=CIRCLE($,#982,0.4);
#28=CIRCLE($,#983,0.4);
#29=CIRCLE($,#987,0.4);
#30=CIRCLE($,#988,0.4);
#31=CIRCLE($,#992,0.4);
#32=CIRCLE($,#993,0.4);
#33=CIRCLE($,#997,0.4);
#34=CIRCLE($,#998,0.4);
#35=CIRCLE($,#1002,0.4);
#36=CIRCLE($,#1003,0.4);
#37=CIRCLE($,#1007,0.4);
#38=CIRCLE($,#1008,0.4);
#39=CIRCLE($,#1012,0.4);
#40=CIRCLE($,#1013,0.4);
#41=CIRCLE($,#1017,0.4);
#42=CIRCLE($,#1018,0.4);
#43=CIRCLE($,#1022,0.9);
#44=CIRCLE($,#1024,0.9);
#45=CIRCLE($,#1028,1.2);
#46=CIRCLE($,#1029,1.2);
#47=CIRCLE($,#1036,1.2);
#48=CIRCLE($,#1037,1.2);
#49=CIRCLE($,#1042,0.9);
#50=CIRCLE($,#1044,0.9);
#51=CYLINDRICAL_SURFACE($,#955,0.9);
#52=CYLINDRICAL_SURFACE($,#962,1.2);
#53=CYLINDRICAL_SURFACE($,#968,0.9);
#54=CYLINDRICAL_SURFACE($,#975,1.2);
#55=CYLINDRICAL_SURFACE($,#981,0.4);
#56=CYLINDRICAL_SURFACE($,#986,0.4);
#57=CYLINDRICAL_SURFACE($,#991,0.4);
#58=CYLINDRICAL_SURFACE($,#996,0.4);
#59=CYLINDRICAL_SURFACE($,#1001,0.4);
#60=CYLINDRICAL_SURFACE($,#1006,0.4);
#61=CYLINDRICAL_SURFACE($,#1011,0.4);
#62=CYLINDRICAL_SURFACE($,#1016,0.4);
#63=CYLINDRICAL_SURFACE($,#1027,1.2);
#64=CYLINDRICAL_SURFACE($,#1035,1.2);
#65=ITEM_DEFINED_TRANSFORMATION($,$,#932,#946);
#66=ITEM_DEFINED_TRANSFORMATION($,$,#932,#947);
#67=ITEM_DEFINED_TRANSFORMATION($,$,#932,#948);
#68=ITEM_DEFINED_TRANSFORMATION($,$,#932,#949);
#69=ITEM_DEFINED_TRANSFORMATION($,$,#932,#950);
#70=ITEM_DEFINED_TRANSFORMATION($,$,#932,#951);
#71=ITEM_DEFINED_TRANSFORMATION($,$,#932,#952);
#72=ITEM_DEFINED_TRANSFORMATION($,$,#932,#953);
#73=ITEM_DEFINED_TRANSFORMATION($,$,#933,#954);
#74=(
REPRESENTATION_RELATIONSHIP($,$,#1614,#1616)
REPRESENTATION_RELATIONSHIP_WITH_TRANSFORMATION(#65)
SHAPE_REPRESENTATION_RELATIONSHIP()
);
#75=(
REPRESENTATION_RELATIONSHIP($,$,#1614,#1616)
REPRESENTATION_RELATIONSHIP_WITH_TRANSFORMATION(#66)
SHAPE_REPRESENTATION_RELATIONSHIP()
);
#76=(
REPRESENTATION_RELATIONSHIP($,$,#1614,#1616)
REPRESENTATION_RELATIONSHIP_WITH_TRANSFORMATION(#67)
SHAPE_REPRESENTATION_RELATIONSHIP()
);
#77=(
REPRESENTATION_RELATIONSHIP($,$,#1614,#1616)
REPRESENTATION_RELATIONSHIP_WITH_TRANSFORMATION(#68)
SHAPE_REPRESENTATION_RELATIONSHIP()
);
#78=(
REPRESENTATION_RELATIONSHIP($,$,#1614,#1616)
REPRESENTATION_RELATIONSHIP_WITH_TRANSFORMATION(#69)
SHAPE_REPRESENTATION_RELATIONSHIP()
);
#79=(
REPRESENTATION_RELATIONSHIP($,$,#1614,#1616)
REPRESENTATION_RELATIONSHIP_WITH_TRANSFORMATION(#70)
SHAPE_REPRESENTATION_RELATIONSHIP()
);
#80=(
REPRESENTATION_RELATIONSHIP($,$,#1614,#1616)
REPRESENTATION_RELATIONSHIP_WITH_TRANSFORMATION(#71)
SHAPE_REPRESENTATION_RELATIONSHIP()
);
#81=(
REPRESENTATION_RELATIONSHIP($,$,#1614,#1616)
REPRESENTATION_RELATIONSHIP_WITH_TRANSFORMATION(#72)
SHAPE_REPRESENTATION_RELATIONSHIP()
);
#82=(
REPRESENTATION_RELATIONSHIP($,$,#1615,#1616)
REPRESENTATION_RELATIONSHIP_WITH_TRANSFORMATION(#73)
SHAPE_REPRESENTATION_RELATIONSHIP()
);
#83=CONTEXT_DEPENDENT_SHAPE_REPRESENTATION(#74,#1605);
#84=CONTEXT_DEPENDENT_SHAPE_REPRESENTATION(#75,#1606);
#85=CONTEXT_DEPENDENT_SHAPE_REPRESENTATION(#76,#1607);
#86=CONTEXT_DEPENDENT_SHAPE_REPRESENTATION(#77,#1608);
#87=CONTEXT_DEPENDENT_SHAPE_REPRESENTATION(#78,#1609);
#88=CONTEXT_DEPENDENT_SHAPE_REPRESENTATION(#79,#1610);
#89=CONTEXT_DEPENDENT_SHAPE_REPRESENTATION(#80,#1611);
#90=CONTEXT_DEPENDENT_SHAPE_REPRESENTATION(#81,#1612);
#91=CONTEXT_DEPENDENT_SHAPE_REPRESENTATION(#82,#1613);
#92=NEXT_ASSEMBLY_USAGE_OCCURRENCE('339',$,$,#1620,#1618,$);
#93=NEXT_ASSEMBLY_USAGE_OCCURRENCE('33A',$,$,#1620,#1618,$);
#94=NEXT_ASSEMBLY_USAGE_OCCURRENCE('33B',$,$,#1620,#1618,$);
#95=NEXT_ASSEMBLY_USAGE_OCCURRENCE('33C',$,$,#1620,#1618,$);
#96=NEXT_ASSEMBLY_USAGE_OCCURRENCE('33D',$,$,#1620,#1618,$);
#97=NEXT_ASSEMBLY_USAGE_OCCURRENCE('33E',$,$,#1620,#1618,$);
#98=NEXT_ASSEMBLY_USAGE_OCCURRENCE('33F',$,$,#1620,#1618,$);
#99=NEXT_ASSEMBLY_USAGE_OCCURRENCE('340',$,$,#1620,#1618,$);
#100=NEXT_ASSEMBLY_USAGE_OCCURRENCE('347',$,$,#1620,#1619,$);
#101=SHAPE_REPRESENTATION_RELATIONSHIP('SRR','None',#1616,#102);
#102=ADVANCED_BREP_SHAPE_REPRESENTATION($,(#913,#914,#915,#916,#917,#918,
#919,#920,#921,#922,#923,#924,#925,#926,#927,#928,#929,#930,#931),#1594);
#103=STYLED_ITEM($,(#1634),#913);
#104=STYLED_ITEM($,(#1635),#914);
#105=STYLED_ITEM($,(#1635),#915);
#106=STYLED_ITEM($,(#1635),#916);
#107=STYLED_ITEM($,(#1635),#917);
#108=STYLED_ITEM($,(#1636),#918);
#109=STYLED_ITEM($,(#1636),#919);
#110=STYLED_ITEM($,(#1636),#920);
#111=STYLED_ITEM($,(#1636),#921);
#112=STYLED_ITEM($,(#1636),#922);
#113=STYLED_ITEM($,(#1636),#923);
#114=STYLED_ITEM($,(#1636),#924);
#115=STYLED_ITEM($,(#1636),#925);
#116=STYLED_ITEM($,(#1635),#926);
#117=STYLED_ITEM($,(#1635),#927);
#118=STYLED_ITEM($,(#1637),#928);
#119=STYLED_ITEM($,(#1637),#929);
#120=STYLED_ITEM($,(#1637),#930);
#121=STYLED_ITEM($,(#1637),#931);
#122=FACE_BOUND($,#208,.T.);
#123=FACE_BOUND($,#215,.T.);
#124=FACE_BOUND($,#225,.T.);
#125=FACE_BOUND($,#235,.T.);
#126=FACE_BOUND($,#239,.T.);
#127=FACE_BOUND($,#243,.T.);
#128=FACE_BOUND($,#247,.T.);
#129=FACE_BOUND($,#251,.T.);
#130=FACE_BOUND($,#255,.T.);
#131=FACE_BOUND($,#259,.T.);
#132=FACE_BOUND($,#263,.T.);
#133=FACE_OUTER_BOUND($,#202,.T.);
#134=FACE_OUTER_BOUND($,#203,.T.);
#135=FACE_OUTER_BOUND($,#204,.T.);
#136=FACE_OUTER_BOUND($,#205,.T.);
#137=FACE_OUTER_BOUND($,#206,.T.);
#138=FACE_OUTER_BOUND($,#207,.T.);
#139=FACE_OUTER_BOUND($,#209,.T.);
#140=FACE_OUTER_BOUND($,#210,.T.);
#141=FACE_OUTER_BOUND($,#211,.T.);
#142=FACE_OUTER_BOUND($,#212,.T.);
#143=FACE_OUTER_BOUND($,#213,.T.);
#144=FACE_OUTER_BOUND($,#214,.T.);
#145=FACE_OUTER_BOUND($,#216,.T.);
#146=FACE_OUTER_BOUND($,#217,.T.);
#147=FACE_OUTER_BOUND($,#218,.T.);
#148=FACE_OUTER_BOUND($,#219,.T.);
#149=FACE_OUTER_BOUND($,#220,.T.);
#150=FACE_OUTER_BOUND($,#221,.T.);
#151=FACE_OUTER_BOUND($,#222,.T.);
#152=FACE_OUTER_BOUND($,#223,.T.);
#153=FACE_OUTER_BOUND($,#224,.T.);
#154=FACE_OUTER_BOUND($,#226,.T.);
#155=FACE_OUTER_BOUND($,#227,.T.);
#156=FACE_OUTER_BOUND($,#228,.T.);
#157=FACE_OUTER_BOUND($,#229,.T.);
#158=FACE_OUTER_BOUND($,#230,.T.);
#159=FACE_OUTER_BOUND($,#231,.T.);
#160=FACE_OUTER_BOUND($,#232,.T.);
#161=FACE_OUTER_BOUND($,#233,.T.);
#162=FACE_OUTER_BOUND($,#234,.T.);
#163=FACE_OUTER_BOUND($,#236,.T.);
#164=FACE_OUTER_BOUND($,#237,.T.);
#165=FACE_OUTER_BOUND($,#238,.T.);
#166=FACE_OUTER_BOUND($,#240,.T.);
#167=FACE_OUTER_BOUND($,#241,.T.);
#168=FACE_OUTER_BOUND($,#242,.T.);
#169=FACE_OUTER_BOUND($,#244,.T.);
#170=FACE_OUTER_BOUND($,#245,.T.);
#171=FACE_OUTER_BOUND($,#246,.T.);
#172=FACE_OUTER_BOUND($,#248,.T.);
#173=FACE_OUTER_BOUND($,#249,.T.);
#174=FACE_OUTER_BOUND($,#250,.T.);
#175=FACE_OUTER_BOUND($,#252,.T.);
#176=FACE_OUTER_BOUND($,#253,.T.);
#177=FACE_OUTER_BOUND($,#254,.T.);
#178=FACE_OUTER_BOUND($,#256,.T.);
#179=FACE_OUTER_BOUND($,#257,.T.);
#180=FACE_OUTER_BOUND($,#258,.T.);
#181=FACE_OUTER_BOUND($,#260,.T.);
#182=FACE_OUTER_BOUND($,#261,.T.);
#183=FACE_OUTER_BOUND($,#262,.T.);
#184=FACE_OUTER_BOUND($,#264,.T.);
#185=FACE_OUTER_BOUND($,#265,.T.);
#186=FACE_OUTER_BOUND($,#266,.T.);
#187=FACE_OUTER_BOUND($,#267,.T.);
#188=FACE_OUTER_BOUND($,#268,.T.);
#189=FACE_OUTER_BOUND($,#269,.T.);
#190=FACE_OUTER_BOUND($,#270,.T.);
#191=FACE_OUTER_BOUND($,#271,.T.);
#192=FACE_OUTER_BOUND($,#272,.T.);
#193=FACE_OUTER_BOUND($,#273,.T.);
#194=FACE_OUTER_BOUND($,#274,.T.);
#195=FACE_OUTER_BOUND($,#275,.T.);
#196=FACE_OUTER_BOUND($,#276,.T.);
#197=FACE_OUTER_BOUND($,#277,.T.);
#198=FACE_OUTER_BOUND($,#278,.T.);
#199=FACE_OUTER_BOUND($,#279,.T.);
#200=FACE_OUTER_BOUND($,#280,.T.);
#201=FACE_OUTER_BOUND($,#281,.T.);
#202=EDGE_LOOP($,(#582,#583,#584,#585));
#203=EDGE_LOOP($,(#586,#587,#588,#589));
#204=EDGE_LOOP($,(#590,#591,#592,#593));
#205=EDGE_LOOP($,(#594,#595,#596,#597));
#206=EDGE_LOOP($,(#598,#599,#600,#601));
#207=EDGE_LOOP($,(#602,#603,#604,#605));
#208=EDGE_LOOP($,(#606,#607,#608,#609));
#209=EDGE_LOOP($,(#610,#611,#612,#613));
#210=EDGE_LOOP($,(#614,#615,#616,#617));
#211=EDGE_LOOP($,(#618,#619,#620,#621));
#212=EDGE_LOOP($,(#622,#623,#624,#625));
#213=EDGE_LOOP($,(#626,#627,#628,#629));
#214=EDGE_LOOP($,(#630));
#215=EDGE_LOOP($,(#631));
#216=EDGE_LOOP($,(#632));
#217=EDGE_LOOP($,(#633));
#218=EDGE_LOOP($,(#634,#635,#636,#637));
#219=EDGE_LOOP($,(#638,#639,#640,#641));
#220=EDGE_LOOP($,(#642,#643,#644,#645));
#221=EDGE_LOOP($,(#646,#647,#648,#649));
#222=EDGE_LOOP($,(#650,#651,#652,#653));
#223=EDGE_LOOP($,(#654,#655,#656,#657));
#224=EDGE_LOOP($,(#658));
#225=EDGE_LOOP($,(#659));
#226=EDGE_LOOP($,(#660));
#227=EDGE_LOOP($,(#661));
#228=EDGE_LOOP($,(#662,#663,#664,#665));
#229=EDGE_LOOP($,(#666,#667,#668,#669));
#230=EDGE_LOOP($,(#670,#671,#672,#673));
#231=EDGE_LOOP($,(#674,#675,#676,#677));
#232=EDGE_LOOP($,(#678,#679,#680,#681));
#233=EDGE_LOOP($,(#682,#683,#684,#685));
#234=EDGE_LOOP($,(#686));
#235=EDGE_LOOP($,(#687));
#236=EDGE_LOOP($,(#688));
#237=EDGE_LOOP($,(#689));
#238=EDGE_LOOP($,(#690));
#239=EDGE_LOOP($,(#691));
#240=EDGE_LOOP($,(#692));
#241=EDGE_LOOP($,(#693));
#242=EDGE_LOOP($,(#694));
#243=EDGE_LOOP($,(#695));
#244=EDGE_LOOP($,(#696));
#245=EDGE_LOOP($,(#697));
#246=EDGE_LOOP($,(#698));
#247=EDGE_LOOP($,(#699));
#248=EDGE_LOOP($,(#700));
#249=EDGE_LOOP($,(#701));
#250=EDGE_LOOP($,(#702));
#251=EDGE_LOOP($,(#703));
#252=EDGE_LOOP($,(#704));
#253=EDGE_LOOP($,(#705));
#254=EDGE_LOOP($,(#706));
#255=EDGE_LOOP($,(#707));
#256=EDGE_LOOP($,(#708));
#257=EDGE_LOOP($,(#709));
#258=EDGE_LOOP($,(#710));
#259=EDGE_LOOP($,(#711));
#260=EDGE_LOOP($,(#712));
#261=EDGE_LOOP($,(#713));
#262=EDGE_LOOP($,(#714));
#263=EDGE_LOOP($,(#715));
#264=EDGE_LOOP($,(#716));
#265=EDGE_LOOP($,(#717));
#266=EDGE_LOOP($,(#718,#719));
#267=EDGE_LOOP($,(#720,#721));
#268=EDGE_LOOP($,(#722,#723,#724,#725));
#269=EDGE_LOOP($,(#726,#727,#728,#729));
#270=EDGE_LOOP($,(#730,#731,#732,#733));
#271=EDGE_LOOP($,(#734,#735,#736,#737));
#272=EDGE_LOOP($,(#738,#739,#740,#741));
#273=EDGE_LOOP($,(#742,#743,#744,#745));
#274=EDGE_LOOP($,(#746,#747,#748,#749));
#275=EDGE_LOOP($,(#750,#751,#752,#753));
#276=EDGE_LOOP($,(#754,#755,#756,#757));
#277=EDGE_LOOP($,(#758,#759,#760,#761));
#278=EDGE_LOOP($,(#762,#763,#764,#765));
#279=EDGE_LOOP($,(#766,#767,#768,#769));
#280=EDGE_LOOP($,(#770,#771));
#281=EDGE_LOOP($,(#772,#773));
#282=LINE($,#1341,#346);
#283=LINE($,#1343,#347);
#284=LINE($,#1345,#348);
#285=LINE($,#1346,#349);
#286=LINE($,#1349,#350);
#287=LINE($,#1351,#351);
#288=LINE($,#1352,#352);
#289=LINE($,#1355,#353);
#290=LINE($,#1357,#354);
#291=LINE($,#1358,#355);
#292=LINE($,#1360,#356);
#293=LINE($,#1361,#357);
#294=LINE($,#1366,#358);
#295=LINE($,#1368,#359);
#296=LINE($,#1370,#360);
#297=LINE($,#1371,#361);
#298=LINE($,#1374,#362);
#299=LINE($,#1376,#363);
#300=LINE($,#1377,#364);
#301=LINE($,#1380,#365);
#302=LINE($,#1382,#366);
#303=LINE($,#1383,#367);
#304=LINE($,#1385,#368);
#305=LINE($,#1386,#369);
#306=LINE($,#1408,#370);
#307=LINE($,#1410,#371);
#308=LINE($,#1412,#372);
#309=LINE($,#1413,#373);
#310=LINE($,#1416,#374);
#311=LINE($,#1418,#375);
#312=LINE($,#1419,#376);
#313=LINE($,#1424,#377);
#314=LINE($,#1427,#378);
#315=LINE($,#1428,#379);
#316=LINE($,#1441,#380);
#317=LINE($,#1443,#381);
#318=LINE($,#1445,#382);
#319=LINE($,#1446,#383);
#320=LINE($,#1449,#384);
#321=LINE($,#1451,#385);
#322=LINE($,#1452,#386);
#323=LINE($,#1457,#387);
#324=LINE($,#1460,#388);
#325=LINE($,#1461,#389);
#326=LINE($,#1531,#390);
#327=LINE($,#1533,#391);
#328=LINE($,#1535,#392);
#329=LINE($,#1536,#393);
#330=LINE($,#1539,#394);
#331=LINE($,#1541,#395);
#332=LINE($,#1542,#396);
#333=LINE($,#1547,#397);
#334=LINE($,#1550,#398);
#335=LINE($,#1551,#399);
#336=LINE($,#1557,#400);
#337=LINE($,#1559,#401);
#338=LINE($,#1561,#402);
#339=LINE($,#1562,#403);
#340=LINE($,#1565,#404);
#341=LINE($,#1567,#405);
#342=LINE($,#1568,#406);
#343=LINE($,#1573,#407);
#344=LINE($,#1576,#408);
#345=LINE($,#1577,#409);
#346=VECTOR($,#1053,10.3);
#347=VECTOR($,#1054,0.500000000000114);
#348=VECTOR($,#1055,10.3);
#349=VECTOR($,#1056,0.500000000000114);
#350=VECTOR($,#1059,4.09999999999999);
#351=VECTOR($,#1060,4.09999999999999);
#352=VECTOR($,#1061,0.500000000000114);
#353=VECTOR($,#1064,10.3);
#354=VECTOR($,#1065,10.3);
#355=VECTOR($,#1066,0.500000000000114);
#356=VECTOR($,#1069,4.09999999999999);
#357=VECTOR($,#1070,4.09999999999999);
#358=VECTOR($,#1075,5.09999999999999);
#359=VECTOR($,#1076,11.3);
#360=VECTOR($,#1077,5.09999999999999);
#361=VECTOR($,#1078,11.3);
#362=VECTOR($,#1081,13.6);
#363=VECTOR($,#1082,11.3);
#364=VECTOR($,#1083,13.6);
#365=VECTOR($,#1086,5.09999999999999);
#366=VECTOR($,#1087,11.3);
#367=VECTOR($,#1088,5.09999999999999);
#368=VECTOR($,#1091,13.6);
#369=VECTOR($,#1092,13.6);
#370=VECTOR($,#1127,2.3957999999998);
#371=VECTOR($,#1128,0.500000000000057);
#372=VECTOR($,#1129,2.3957999999998);
#373=VECTOR($,#1130,0.500000000000057);
#374=VECTOR($,#1133,2.71096189118282);
#375=VECTOR($,#1134,0.500000000000057);
#376=VECTOR($,#1135,2.71096189118282);
#377=VECTOR($,#1140,0.500000000000057);
#378=VECTOR($,#1145,2.71096189118279);
#379=VECTOR($,#1146,2.71096189118279);
#380=VECTOR($,#1163,2.3957999999998);
#381=VECTOR($,#1164,0.500000000000057);
#382=VECTOR($,#1165,2.3957999999998);
#383=VECTOR($,#1166,0.500000000000057);
#384=VECTOR($,#1169,2.71096189118282);
#385=VECTOR($,#1170,0.500000000000057);
#386=VECTOR($,#1171,2.71096189118282);
#387=VECTOR($,#1176,0.500000000000057);
#388=VECTOR($,#1181,2.71096189118279);
#389=VECTOR($,#1182,2.71096189118279);
#390=VECTOR($,#1277,2.3957999999998);
#391=VECTOR($,#1278,0.500000000000057);
#392=VECTOR($,#1279,2.3957999999998);
#393=VECTOR($,#1280,0.500000000000057);
#394=VECTOR($,#1283,2.71096189118282);
#395=VECTOR($,#1284,0.500000000000057);
#396=VECTOR($,#1285,2.71096189118282);
#397=VECTOR($,#1290,0.500000000000057);
#398=VECTOR($,#1295,2.71096189118279);
#399=VECTOR($,#1296,2.71096189118279);
#400=VECTOR($,#1303,2.3957999999998);
#401=VECTOR($,#1304,0.500000000000057);
#402=VECTOR($,#1305,2.3957999999998);
#403=VECTOR($,#1306,0.500000000000057);
#404=VECTOR($,#1309,2.71096189118282);
#405=VECTOR($,#1310,0.500000000000057);
#406=VECTOR($,#1311,2.71096189118282);
#407=VECTOR($,#1316,0.500000000000057);
#408=VECTOR($,#1321,2.71096189118279);
#409=VECTOR($,#1322,2.71096189118279);
#410=VERTEX_POINT($,#1339);
#411=VERTEX_POINT($,#1340);
#412=VERTEX_POINT($,#1342);
#413=VERTEX_POINT($,#1344);
#414=VERTEX_POINT($,#1348);
#415=VERTEX_POINT($,#1350);
#416=VERTEX_POINT($,#1354);
#417=VERTEX_POINT($,#1356);
#418=VERTEX_POINT($,#1364);
#419=VERTEX_POINT($,#1365);
#420=VERTEX_POINT($,#1367);
#421=VERTEX_POINT($,#1369);
#422=VERTEX_POINT($,#1373);
#423=VERTEX_POINT($,#1375);
#424=VERTEX_POINT($,#1379);
#425=VERTEX_POINT($,#1381);
#426=VERTEX_POINT($,#1399);
#427=VERTEX_POINT($,#1401);
#428=VERTEX_POINT($,#1406);
#429=VERTEX_POINT($,#1407);
#430=VERTEX_POINT($,#1409);
#431=VERTEX_POINT($,#1411);
#432=VERTEX_POINT($,#1415);
#433=VERTEX_POINT($,#1417);
#434=VERTEX_POINT($,#1421);
#435=VERTEX_POINT($,#1423);
#436=VERTEX_POINT($,#1432);
#437=VERTEX_POINT($,#1434);
#438=VERTEX_POINT($,#1439);
#439=VERTEX_POINT($,#1440);
#440=VERTEX_POINT($,#1442);
#441=VERTEX_POINT($,#1444);
#442=VERTEX_POINT($,#1448);
#443=VERTEX_POINT($,#1450);
#444=VERTEX_POINT($,#1454);
#445=VERTEX_POINT($,#1456);
#446=VERTEX_POINT($,#1465);
#447=VERTEX_POINT($,#1467);
#448=VERTEX_POINT($,#1472);
#449=VERTEX_POINT($,#1474);
#450=VERTEX_POINT($,#1479);
#451=VERTEX_POINT($,#1481);
#452=VERTEX_POINT($,#1486);
#453=VERTEX_POINT($,#1488);
#454=VERTEX_POINT($,#1493);
#455=VERTEX_POINT($,#1495);
#456=VERTEX_POINT($,#1500);
#457=VERTEX_POINT($,#1502);
#458=VERTEX_POINT($,#1507);
#459=VERTEX_POINT($,#1509);
#460=VERTEX_POINT($,#1514);
#461=VERTEX_POINT($,#1516);
#462=VERTEX_POINT($,#1522);
#463=VERTEX_POINT($,#1523);
#464=VERTEX_POINT($,#1526);
#465=VERTEX_POINT($,#1527);
#466=VERTEX_POINT($,#1529);
#467=VERTEX_POINT($,#1530);
#468=VERTEX_POINT($,#1532);
#469=VERTEX_POINT($,#1534);
#470=VERTEX_POINT($,#1538);
#471=VERTEX_POINT($,#1540);
#472=VERTEX_POINT($,#1544);
#473=VERTEX_POINT($,#1546);
#474=VERTEX_POINT($,#1555);
#475=VERTEX_POINT($,#1556);
#476=VERTEX_POINT($,#1558);
#477=VERTEX_POINT($,#1560);
#478=VERTEX_POINT($,#1564);
#479=VERTEX_POINT($,#1566);
#480=VERTEX_POINT($,#1570);
#481=VERTEX_POINT($,#1572);
#482=VERTEX_POINT($,#1582);
#483=VERTEX_POINT($,#1583);
#484=VERTEX_POINT($,#1586);
#485=VERTEX_POINT($,#1587);
#486=EDGE_CURVE($,#410,#411,#282,.T.);
#487=EDGE_CURVE($,#412,#410,#283,.T.);
#488=EDGE_CURVE($,#413,#412,#284,.T.);
#489=EDGE_CURVE($,#413,#411,#285,.T.);
#490=EDGE_CURVE($,#411,#414,#286,.T.);
#491=EDGE_CURVE($,#415,#413,#287,.T.);
#492=EDGE_CURVE($,#415,#414,#288,.T.);
#493=EDGE_CURVE($,#414,#416,#289,.T.);
#494=EDGE_CURVE($,#417,#415,#290,.T.);
#495=EDGE_CURVE($,#417,#416,#291,.T.);
#496=EDGE_CURVE($,#416,#410,#292,.T.);
#497=EDGE_CURVE($,#412,#417,#293,.T.);
#498=EDGE_CURVE($,#418,#419,#294,.T.);
#499=EDGE_CURVE($,#420,#419,#295,.T.);
#500=EDGE_CURVE($,#421,#420,#296,.T.);
#501=EDGE_CURVE($,#421,#418,#297,.T.);
#502=EDGE_CURVE($,#419,#422,#298,.T.);
#503=EDGE_CURVE($,#423,#422,#299,.T.);
#504=EDGE_CURVE($,#420,#423,#300,.T.);
#505=EDGE_CURVE($,#422,#424,#301,.T.);
#506=EDGE_CURVE($,#425,#424,#302,.T.);
#507=EDGE_CURVE($,#423,#425,#303,.T.);
#508=EDGE_CURVE($,#424,#418,#304,.T.);
#509=EDGE_CURVE($,#425,#421,#305,.T.);
#510=EDGE_CURVE($,#426,#426,#19,.T.);
#511=EDGE_CURVE($,#427,#427,#20,.T.);
#512=EDGE_CURVE($,#428,#429,#306,.T.);
#513=EDGE_CURVE($,#430,#429,#307,.T.);
#514=EDGE_CURVE($,#431,#430,#308,.T.);
#515=EDGE_CURVE($,#431,#428,#309,.T.);
#516=EDGE_CURVE($,#429,#432,#310,.T.);
#517=EDGE_CURVE($,#433,#432,#311,.T.);
#518=EDGE_CURVE($,#430,#433,#312,.T.);
#519=EDGE_CURVE($,#432,#434,#21,.T.);
#520=EDGE_CURVE($,#435,#434,#313,.T.);
#521=EDGE_CURVE($,#433,#435,#22,.T.);
#522=EDGE_CURVE($,#434,#428,#314,.T.);
#523=EDGE_CURVE($,#435,#431,#315,.T.);
#524=EDGE_CURVE($,#436,#436,#23,.T.);
#525=EDGE_CURVE($,#437,#437,#24,.T.);
#526=EDGE_CURVE($,#438,#439,#316,.T.);
#527=EDGE_CURVE($,#440,#439,#317,.T.);
#528=EDGE_CURVE($,#441,#440,#318,.T.);
#529=EDGE_CURVE($,#441,#438,#319,.T.);
#530=EDGE_CURVE($,#439,#442,#320,.T.);
#531=EDGE_CURVE($,#443,#442,#321,.T.);
#532=EDGE_CURVE($,#440,#443,#322,.T.);
#533=EDGE_CURVE($,#442,#444,#25,.T.);
#534=EDGE_CURVE($,#445,#444,#323,.T.);
#535=EDGE_CURVE($,#443,#445,#26,.T.);
#536=EDGE_CURVE($,#444,#438,#324,.T.);
#537=EDGE_CURVE($,#445,#441,#325,.T.);
#538=EDGE_CURVE($,#446,#446,#27,.T.);
#539=EDGE_CURVE($,#447,#447,#28,.T.);
#540=EDGE_CURVE($,#448,#448,#29,.T.);
#541=EDGE_CURVE($,#449,#449,#30,.T.);
#542=EDGE_CURVE($,#450,#450,#31,.T.);
#543=EDGE_CURVE($,#451,#451,#32,.T.);
#544=EDGE_CURVE($,#452,#452,#33,.T.);
#545=EDGE_CURVE($,#453,#453,#34,.T.);
#546=EDGE_CURVE($,#454,#454,#35,.T.);
#547=EDGE_CURVE($,#455,#455,#36,.T.);
#548=EDGE_CURVE($,#456,#456,#37,.T.);
#549=EDGE_CURVE($,#457,#457,#38,.T.);
#550=EDGE_CURVE($,#458,#458,#39,.T.);
#551=EDGE_CURVE($,#459,#459,#40,.T.);
#552=EDGE_CURVE($,#460,#460,#41,.T.);
#553=EDGE_CURVE($,#461,#461,#42,.T.);
#554=EDGE_CURVE($,#462,#463,#43,.T.);
#555=EDGE_CURVE($,#464,#465,#44,.T.);
#556=EDGE_CURVE($,#466,#467,#326,.T.);
#557=EDGE_CURVE($,#468,#467,#327,.T.);
#558=EDGE_CURVE($,#469,#468,#328,.T.);
#559=EDGE_CURVE($,#469,#466,#329,.T.);
#560=EDGE_CURVE($,#467,#470,#330,.T.);
#561=EDGE_CURVE($,#471,#470,#331,.T.);
#562=EDGE_CURVE($,#468,#471,#332,.T.);
#563=EDGE_CURVE($,#470,#472,#45,.T.);
#564=EDGE_CURVE($,#473,#472,#333,.T.);
#565=EDGE_CURVE($,#471,#473,#46,.T.);
#566=EDGE_CURVE($,#472,#466,#334,.T.);
#567=EDGE_CURVE($,#473,#469,#335,.T.);
#568=EDGE_CURVE($,#474,#475,#336,.T.);
#569=EDGE_CURVE($,#476,#475,#337,.T.);
#570=EDGE_CURVE($,#477,#476,#338,.T.);
#571=EDGE_CURVE($,#477,#474,#339,.T.);
#572=EDGE_CURVE($,#475,#478,#340,.T.);
#573=EDGE_CURVE($,#479,#478,#341,.T.);
#574=EDGE_CURVE($,#476,#479,#342,.T.);
#575=EDGE_CURVE($,#478,#480,#47,.T.);
#576=EDGE_CURVE($,#481,#480,#343,.T.);
#577=EDGE_CURVE($,#479,#481,#48,.T.);
#578=EDGE_CURVE($,#480,#474,#344,.T.);
#579=EDGE_CURVE($,#481,#477,#345,.T.);
#580=EDGE_CURVE($,#482,#483,#49,.T.);
#581=EDGE_CURVE($,#484,#485,#50,.T.);
#582=ORIENTED_EDGE($,*,*,#486,.F.);
#583=ORIENTED_EDGE($,*,*,#487,.F.);
#584=ORIENTED_EDGE($,*,*,#488,.F.);
#585=ORIENTED_EDGE($,*,*,#489,.T.);
#586=ORIENTED_EDGE($,*,*,#490,.F.);
#587=ORIENTED_EDGE($,*,*,#489,.F.);
#588=ORIENTED_EDGE($,*,*,#491,.F.);
#589=ORIENTED_EDGE($,*,*,#492,.T.);
#590=ORIENTED_EDGE($,*,*,#493,.F.);
#591=ORIENTED_EDGE($,*,*,#492,.F.);
#592=ORIENTED_EDGE($,*,*,#494,.F.);
#593=ORIENTED_EDGE($,*,*,#495,.T.);
#594=ORIENTED_EDGE($,*,*,#496,.F.);
#595=ORIENTED_EDGE($,*,*,#495,.F.);
#596=ORIENTED_EDGE($,*,*,#497,.F.);
#597=ORIENTED_EDGE($,*,*,#487,.T.);
#598=ORIENTED_EDGE($,*,*,#486,.T.);
#599=ORIENTED_EDGE($,*,*,#490,.T.);
#600=ORIENTED_EDGE($,*,*,#493,.T.);
#601=ORIENTED_EDGE($,*,*,#496,.T.);
#602=ORIENTED_EDGE($,*,*,#498,.T.);
#603=ORIENTED_EDGE($,*,*,#499,.F.);
#604=ORIENTED_EDGE($,*,*,#500,.F.);
#605=ORIENTED_EDGE($,*,*,#501,.T.);
#606=ORIENTED_EDGE($,*,*,#488,.T.);
#607=ORIENTED_EDGE($,*,*,#497,.T.);
#608=ORIENTED_EDGE($,*,*,#494,.T.);
#609=ORIENTED_EDGE($,*,*,#491,.T.);
#610=ORIENTED_EDGE($,*,*,#502,.T.);
#611=ORIENTED_EDGE($,*,*,#503,.F.);
#612=ORIENTED_EDGE($,*,*,#504,.F.);
#613=ORIENTED_EDGE($,*,*,#499,.T.);
#614=ORIENTED_EDGE($,*,*,#505,.T.);
#615=ORIENTED_EDGE($,*,*,#506,.F.);
#616=ORIENTED_EDGE($,*,*,#507,.F.);
#617=ORIENTED_EDGE($,*,*,#503,.T.);
#618=ORIENTED_EDGE($,*,*,#508,.T.);
#619=ORIENTED_EDGE($,*,*,#501,.F.);
#620=ORIENTED_EDGE($,*,*,#509,.F.);
#621=ORIENTED_EDGE($,*,*,#506,.T.);
#622=ORIENTED_EDGE($,*,*,#498,.F.);
#623=ORIENTED_EDGE($,*,*,#508,.F.);
#624=ORIENTED_EDGE($,*,*,#505,.F.);
#625=ORIENTED_EDGE($,*,*,#502,.F.);
#626=ORIENTED_EDGE($,*,*,#509,.T.);
#627=ORIENTED_EDGE($,*,*,#500,.T.);
#628=ORIENTED_EDGE($,*,*,#504,.T.);
#629=ORIENTED_EDGE($,*,*,#507,.T.);
#630=ORIENTED_EDGE($,*,*,#510,.T.);
#631=ORIENTED_EDGE($,*,*,#511,.T.);
#632=ORIENTED_EDGE($,*,*,#510,.F.);
#633=ORIENTED_EDGE($,*,*,#511,.F.);
#634=ORIENTED_EDGE($,*,*,#512,.T.);
#635=ORIENTED_EDGE($,*,*,#513,.F.);
#636=ORIENTED_EDGE($,*,*,#514,.F.);
#637=ORIENTED_EDGE($,*,*,#515,.T.);
#638=ORIENTED_EDGE($,*,*,#516,.T.);
#639=ORIENTED_EDGE($,*,*,#517,.F.);
#640=ORIENTED_EDGE($,*,*,#518,.F.);
#641=ORIENTED_EDGE($,*,*,#513,.T.);
#642=ORIENTED_EDGE($,*,*,#519,.T.);
#643=ORIENTED_EDGE($,*,*,#520,.F.);
#644=ORIENTED_EDGE($,*,*,#521,.F.);
#645=ORIENTED_EDGE($,*,*,#517,.T.);
#646=ORIENTED_EDGE($,*,*,#522,.T.);
#647=ORIENTED_EDGE($,*,*,#515,.F.);
#648=ORIENTED_EDGE($,*,*,#523,.F.);
#649=ORIENTED_EDGE($,*,*,#520,.T.);
#650=ORIENTED_EDGE($,*,*,#512,.F.);
#651=ORIENTED_EDGE($,*,*,#522,.F.);
#652=ORIENTED_EDGE($,*,*,#519,.F.);
#653=ORIENTED_EDGE($,*,*,#516,.F.);
#654=ORIENTED_EDGE($,*,*,#523,.T.);
#655=ORIENTED_EDGE($,*,*,#514,.T.);
#656=ORIENTED_EDGE($,*,*,#518,.T.);
#657=ORIENTED_EDGE($,*,*,#521,.T.);
#658=ORIENTED_EDGE($,*,*,#524,.T.);
#659=ORIENTED_EDGE($,*,*,#525,.T.);
#660=ORIENTED_EDGE($,*,*,#524,.F.);
#661=ORIENTED_EDGE($,*,*,#525,.F.);
#662=ORIENTED_EDGE($,*,*,#526,.T.);
#663=ORIENTED_EDGE($,*,*,#527,.F.);
#664=ORIENTED_EDGE($,*,*,#528,.F.);
#665=ORIENTED_EDGE($,*,*,#529,.T.);
#666=ORIENTED_EDGE($,*,*,#530,.T.);
#667=ORIENTED_EDGE($,*,*,#531,.F.);
#668=ORIENTED_EDGE($,*,*,#532,.F.);
#669=ORIENTED_EDGE($,*,*,#527,.T.);
#670=ORIENTED_EDGE($,*,*,#533,.T.);
#671=ORIENTED_EDGE($,*,*,#534,.F.);
#672=ORIENTED_EDGE($,*,*,#535,.F.);
#673=ORIENTED_EDGE($,*,*,#531,.T.);
#674=ORIENTED_EDGE($,*,*,#536,.T.);
#675=ORIENTED_EDGE($,*,*,#529,.F.);
#676=ORIENTED_EDGE($,*,*,#537,.F.);
#677=ORIENTED_EDGE($,*,*,#534,.T.);
#678=ORIENTED_EDGE($,*,*,#526,.F.);
#679=ORIENTED_EDGE($,*,*,#536,.F.);
#680=ORIENTED_EDGE($,*,*,#533,.F.);
#681=ORIENTED_EDGE($,*,*,#530,.F.);
#682=ORIENTED_EDGE($,*,*,#537,.T.);
#683=ORIENTED_EDGE($,*,*,#528,.T.);
#684=ORIENTED_EDGE($,*,*,#532,.T.);
#685=ORIENTED_EDGE($,*,*,#535,.T.);
#686=ORIENTED_EDGE($,*,*,#538,.T.);
#687=ORIENTED_EDGE($,*,*,#539,.T.);
#688=ORIENTED_EDGE($,*,*,#538,.F.);
#689=ORIENTED_EDGE($,*,*,#539,.F.);
#690=ORIENTED_EDGE($,*,*,#540,.T.);
#691=ORIENTED_EDGE($,*,*,#541,.T.);
#692=ORIENTED_EDGE($,*,*,#540,.F.);
#693=ORIENTED_EDGE($,*,*,#541,.F.);
#694=ORIENTED_EDGE($,*,*,#542,.T.);
#695=ORIENTED_EDGE($,*,*,#543,.T.);
#696=ORIENTED_EDGE($,*,*,#542,.F.);
#697=ORIENTED_EDGE($,*,*,#543,.F.);
#698=ORIENTED_EDGE($,*,*,#544,.T.);
#699=ORIENTED_EDGE($,*,*,#545,.T.);
#700=ORIENTED_EDGE($,*,*,#544,.F.);
#701=ORIENTED_EDGE($,*,*,#545,.F.);
#702=ORIENTED_EDGE($,*,*,#546,.T.);
#703=ORIENTED_EDGE($,*,*,#547,.T.);
#704=ORIENTED_EDGE($,*,*,#546,.F.);
#705=ORIENTED_EDGE($,*,*,#547,.F.);
#706=ORIENTED_EDGE($,*,*,#548,.T.);
#707=ORIENTED_EDGE($,*,*,#549,.T.);
#708=ORIENTED_EDGE($,*,*,#548,.F.);
#709=ORIENTED_EDGE($,*,*,#549,.F.);
#710=ORIENTED_EDGE($,*,*,#550,.T.);
#711=ORIENTED_EDGE($,*,*,#551,.T.);
#712=ORIENTED_EDGE($,*,*,#550,.F.);
#713=ORIENTED_EDGE($,*,*,#551,.F.);
#714=ORIENTED_EDGE($,*,*,#552,.T.);
#715=ORIENTED_EDGE($,*,*,#553,.T.);
#716=ORIENTED_EDGE($,*,*,#552,.F.);
#717=ORIENTED_EDGE($,*,*,#553,.F.);
#718=ORIENTED_EDGE($,*,*,#554,.T.);
#719=ORIENTED_EDGE($,*,*,#554,.F.);
#720=ORIENTED_EDGE($,*,*,#555,.T.);
#721=ORIENTED_EDGE($,*,*,#555,.F.);
#722=ORIENTED_EDGE($,*,*,#556,.T.);
#723=ORIENTED_EDGE($,*,*,#557,.F.);
#724=ORIENTED_EDGE($,*,*,#558,.F.);
#725=ORIENTED_EDGE($,*,*,#559,.T.);
#726=ORIENTED_EDGE($,*,*,#560,.T.);
#727=ORIENTED_EDGE($,*,*,#561,.F.);
#728=ORIENTED_EDGE($,*,*,#562,.F.);
#729=ORIENTED_EDGE($,*,*,#557,.T.);
#730=ORIENTED_EDGE($,*,*,#563,.T.);
#731=ORIENTED_EDGE($,*,*,#564,.F.);
#732=ORIENTED_EDGE($,*,*,#565,.F.);
#733=ORIENTED_EDGE($,*,*,#561,.T.);
#734=ORIENTED_EDGE($,*,*,#566,.T.);
#735=ORIENTED_EDGE($,*,*,#559,.F.);
#736=ORIENTED_EDGE($,*,*,#567,.F.);
#737=ORIENTED_EDGE($,*,*,#564,.T.);
#738=ORIENTED_EDGE($,*,*,#556,.F.);
#739=ORIENTED_EDGE($,*,*,#566,.F.);
#740=ORIENTED_EDGE($,*,*,#563,.F.);
#741=ORIENTED_EDGE($,*,*,#560,.F.);
#742=ORIENTED_EDGE($,*,*,#567,.T.);
#743=ORIENTED_EDGE($,*,*,#558,.T.);
#744=ORIENTED_EDGE($,*,*,#562,.T.);
#745=ORIENTED_EDGE($,*,*,#565,.T.);
#746=ORIENTED_EDGE($,*,*,#568,.T.);
#747=ORIENTED_EDGE($,*,*,#569,.F.);
#748=ORIENTED_EDGE($,*,*,#570,.F.);
#749=ORIENTED_EDGE($,*,*,#571,.T.);
#750=ORIENTED_EDGE($,*,*,#572,.T.);
#751=ORIENTED_EDGE($,*,*,#573,.F.);
#752=ORIENTED_EDGE($,*,*,#574,.F.);
#753=ORIENTED_EDGE($,*,*,#569,.T.);
#754=ORIENTED_EDGE($,*,*,#575,.T.);
#755=ORIENTED_EDGE($,*,*,#576,.F.);
#756=ORIENTED_EDGE($,*,*,#577,.F.);
#757=ORIENTED_EDGE($,*,*,#573,.T.);
#758=ORIENTED_EDGE($,*,*,#578,.T.);
#759=ORIENTED_EDGE($,*,*,#571,.F.);
#760=ORIENTED_EDGE($,*,*,#579,.F.);
#761=ORIENTED_EDGE($,*,*,#576,.T.);
#762=ORIENTED_EDGE($,*,*,#568,.F.);
#763=ORIENTED_EDGE($,*,*,#578,.F.);
#764=ORIENTED_EDGE($,*,*,#575,.F.);
#765=ORIENTED_EDGE($,*,*,#572,.F.);
#766=ORIENTED_EDGE($,*,*,#579,.T.);
#767=ORIENTED_EDGE($,*,*,#570,.T.);
#768=ORIENTED_EDGE($,*,*,#574,.T.);
#769=ORIENTED_EDGE($,*,*,#577,.T.);
#770=ORIENTED_EDGE($,*,*,#580,.T.);
#771=ORIENTED_EDGE($,*,*,#580,.F.);
#772=ORIENTED_EDGE($,*,*,#581,.T.);
#773=ORIENTED_EDGE($,*,*,#581,.F.);
#774=PLANE($,#935);
#775=PLANE($,#936);
#776=PLANE($,#937);
#777=PLANE($,#938);
#778=PLANE($,#939);
#779=PLANE($,#940);
#780=PLANE($,#941);
#781=PLANE($,#942);
#782=PLANE($,#943);
#783=PLANE($,#944);
#784=PLANE($,#945);
#785=PLANE($,#958);
#786=PLANE($,#959);
#787=PLANE($,#960);
#788=PLANE($,#961);
#789=PLANE($,#965);
#790=PLANE($,#966);
#791=PLANE($,#967);
#792=PLANE($,#971);
#793=PLANE($,#972);
#794=PLANE($,#973);
#795=PLANE($,#974);
#796=PLANE($,#978);
#797=PLANE($,#979);
#798=PLANE($,#980);
#799=PLANE($,#984);
#800=PLANE($,#985);
#801=PLANE($,#989);
#802=PLANE($,#990);
#803=PLANE($,#994);
#804=PLANE($,#995);
#805=PLANE($,#999);
#806=PLANE($,#1000);
#807=PLANE($,#1004);
#808=PLANE($,#1005);
#809=PLANE($,#1009);
#810=PLANE($,#1010);
#811=PLANE($,#1014);
#812=PLANE($,#1015);
#813=PLANE($,#1019);
#814=PLANE($,#1020);
#815=PLANE($,#1025);
#816=PLANE($,#1026);
#817=PLANE($,#1030);
#818=PLANE($,#1031);
#819=PLANE($,#1032);
#820=PLANE($,#1033);
#821=PLANE($,#1034);
#822=PLANE($,#1038);
#823=PLANE($,#1039);
#824=PLANE($,#1040);
#825=ADVANCED_FACE($,(#133),#774,.F.);
#826=ADVANCED_FACE($,(#134),#775,.F.);
#827=ADVANCED_FACE($,(#135),#776,.F.);
#828=ADVANCED_FACE($,(#136),#777,.F.);
#829=ADVANCED_FACE($,(#137),#778,.F.);
#830=ADVANCED_FACE($,(#138,#122),#779,.T.);
#831=ADVANCED_FACE($,(#139),#780,.T.);
#832=ADVANCED_FACE($,(#140),#781,.T.);
#833=ADVANCED_FACE($,(#141),#782,.T.);
#834=ADVANCED_FACE($,(#142),#783,.T.);
#835=ADVANCED_FACE($,(#143),#784,.F.);
#836=ADVANCED_FACE($,(#144,#123),#51,.T.);
#837=ADVANCED_FACE($,(#145),#785,.T.);
#838=ADVANCED_FACE($,(#146),#786,.F.);
#839=ADVANCED_FACE($,(#147),#787,.T.);
#840=ADVANCED_FACE($,(#148),#788,.T.);
#841=ADVANCED_FACE($,(#149),#52,.T.);
#842=ADVANCED_FACE($,(#150),#789,.T.);
#843=ADVANCED_FACE($,(#151),#790,.T.);
#844=ADVANCED_FACE($,(#152),#791,.F.);
#845=ADVANCED_FACE($,(#153,#124),#53,.T.);
#846=ADVANCED_FACE($,(#154),#792,.T.);
#847=ADVANCED_FACE($,(#155),#793,.F.);
#848=ADVANCED_FACE($,(#156),#794,.T.);
#849=ADVANCED_FACE($,(#157),#795,.T.);
#850=ADVANCED_FACE($,(#158),#54,.T.);
#851=ADVANCED_FACE($,(#159),#796,.T.);
#852=ADVANCED_FACE($,(#160),#797,.T.);
#853=ADVANCED_FACE($,(#161),#798,.F.);
#854=ADVANCED_FACE($,(#162,#125),#55,.T.);
#855=ADVANCED_FACE($,(#163),#799,.T.);
#856=ADVANCED_FACE($,(#164),#800,.F.);
#857=ADVANCED_FACE($,(#165,#126),#56,.T.);
#858=ADVANCED_FACE($,(#166),#801,.T.);
#859=ADVANCED_FACE($,(#167),#802,.F.);
#860=ADVANCED_FACE($,(#168,#127),#57,.T.);
#861=ADVANCED_FACE($,(#169),#803,.T.);
#862=ADVANCED_FACE($,(#170),#804,.F.);
#863=ADVANCED_FACE($,(#171,#128),#58,.T.);
#864=ADVANCED_FACE($,(#172),#805,.T.);
#865=ADVANCED_FACE($,(#173),#806,.F.);
#866=ADVANCED_FACE($,(#174,#129),#59,.T.);
#867=ADVANCED_FACE($,(#175),#807,.T.);
#868=ADVANCED_FACE($,(#176),#808,.F.);
#869=ADVANCED_FACE($,(#177,#130),#60,.T.);
#870=ADVANCED_FACE($,(#178),#809,.T.);
#871=ADVANCED_FACE($,(#179),#810,.F.);
#872=ADVANCED_FACE($,(#180,#131),#61,.T.);
#873=ADVANCED_FACE($,(#181),#811,.T.);
#874=ADVANCED_FACE($,(#182),#812,.F.);
#875=ADVANCED_FACE($,(#183,#132),#62,.T.);
#876=ADVANCED_FACE($,(#184),#813,.T.);
#877=ADVANCED_FACE($,(#185),#814,.F.);
#878=ADVANCED_FACE($,(#186),#15,.T.);
#879=ADVANCED_FACE($,(#187),#16,.T.);
#880=ADVANCED_FACE($,(#188),#815,.T.);
#881=ADVANCED_FACE($,(#189),#816,.T.);
#882=ADVANCED_FACE($,(#190),#63,.T.);
#883=ADVANCED_FACE($,(#191),#817,.T.);
#884=ADVANCED_FACE($,(#192),#818,.T.);
#885=ADVANCED_FACE($,(#193),#819,.F.);
#886=ADVANCED_FACE($,(#194),#820,.T.);
#887=ADVANCED_FACE($,(#195),#821,.T.);
#888=ADVANCED_FACE($,(#196),#64,.T.);
#889=ADVANCED_FACE($,(#197),#822,.T.);
#890=ADVANCED_FACE($,(#198),#823,.T.);
#891=ADVANCED_FACE($,(#199),#824,.F.);
#892=ADVANCED_FACE($,(#200),#17,.T.);
#893=ADVANCED_FACE($,(#201),#18,.T.);
#894=CLOSED_SHELL($,(#825,#826,#827,#828,#829,#830,#831,#832,#833,#834,
#835));
#895=CLOSED_SHELL($,(#836,#837,#838));
#896=CLOSED_SHELL($,(#839,#840,#841,#842,#843,#844));
#897=CLOSED_SHELL($,(#845,#846,#847));
#898=CLOSED_SHELL($,(#848,#849,#850,#851,#852,#853));
#899=CLOSED_SHELL($,(#854,#855,#856));
#900=CLOSED_SHELL($,(#857,#858,#859));
#901=CLOSED_SHELL($,(#860,#861,#862));
#902=CLOSED_SHELL($,(#863,#864,#865));
#903=CLOSED_SHELL($,(#866,#867,#868));
#904=CLOSED_SHELL($,(#869,#870,#871));
#905=CLOSED_SHELL($,(#872,#873,#874));
#906=CLOSED_SHELL($,(#875,#876,#877));
#907=CLOSED_SHELL($,(#878));
#908=CLOSED_SHELL($,(#879));
#909=CLOSED_SHELL($,(#880,#881,#882,#883,#884,#885));
#910=CLOSED_SHELL($,(#886,#887,#888,#889,#890,#891));
#911=CLOSED_SHELL($,(#892));
#912=CLOSED_SHELL($,(#893));
#913=MANIFOLD_SOLID_BREP('24F',#894);
#914=MANIFOLD_SOLID_BREP('AF7',#895);
#915=MANIFOLD_SOLID_BREP('AF8',#896);
#916=MANIFOLD_SOLID_BREP('B8B',#897);
#917=MANIFOLD_SOLID_BREP('B8C',#898);
#918=MANIFOLD_SOLID_BREP('B91',#899);
#919=MANIFOLD_SOLID_BREP('B92',#900);
#920=MANIFOLD_SOLID_BREP('B93',#901);
#921=MANIFOLD_SOLID_BREP('B94',#902);
#922=MANIFOLD_SOLID_BREP('B95',#903);
#923=MANIFOLD_SOLID_BREP('B96',#904);
#924=MANIFOLD_SOLID_BREP('B97',#905);
#925=MANIFOLD_SOLID_BREP('B98',#906);
#926=MANIFOLD_SOLID_BREP('C27',#907);
#927=MANIFOLD_SOLID_BREP('C2B',#908);
#928=MANIFOLD_SOLID_BREP('CB9',#909);
#929=MANIFOLD_SOLID_BREP('CBA',#910);
#930=MANIFOLD_SOLID_BREP('CBB',#911);
#931=MANIFOLD_SOLID_BREP('CBF',#912);
#932=AXIS2_PLACEMENT_3D('placement',#1335,#1045,#1046);
#933=AXIS2_PLACEMENT_3D('placement',#1336,#1047,#1048);
#934=AXIS2_PLACEMENT_3D('placement',#1337,#1049,#1050);
#935=AXIS2_PLACEMENT_3D($,#1338,#1051,#1052);
#936=AXIS2_PLACEMENT_3D($,#1347,#1057,#1058);
#937=AXIS2_PLACEMENT_3D($,#1353,#1062,#1063);
#938=AXIS2_PLACEMENT_3D($,#1359,#1067,#1068);
#939=AXIS2_PLACEMENT_3D($,#1362,#1071,#1072);
#940=AXIS2_PLACEMENT_3D($,#1363,#1073,#1074);
#941=AXIS2_PLACEMENT_3D($,#1372,#1079,#1080);
#942=AXIS2_PLACEMENT_3D($,#1378,#1084,#1085);
#943=AXIS2_PLACEMENT_3D($,#1384,#1089,#1090);
#944=AXIS2_PLACEMENT_3D($,#1387,#1093,#1094);
#945=AXIS2_PLACEMENT_3D($,#1388,#1095,#1096);
#946=AXIS2_PLACEMENT_3D($,#1389,#1097,#1098);
#947=AXIS2_PLACEMENT_3D($,#1390,#1099,#1100);
#948=AXIS2_PLACEMENT_3D($,#1391,#1101,#1102);
#949=AXIS2_PLACEMENT_3D($,#1392,#1103,#1104);
#950=AXIS2_PLACEMENT_3D($,#1393,#1105,#1106);
#951=AXIS2_PLACEMENT_3D($,#1394,#1107,#1108);
#952=AXIS2_PLACEMENT_3D($,#1395,#1109,#1110);
#953=AXIS2_PLACEMENT_3D($,#1396,#1111,#1112);
#954=AXIS2_PLACEMENT_3D($,#1397,#1113,#1114);
#955=AXIS2_PLACEMENT_3D($,#1398,#1115,#1116);
#956=AXIS2_PLACEMENT_3D($,#1400,#1117,#1118);
#957=AXIS2_PLACEMENT_3D($,#1402,#1119,#1120);
#958=AXIS2_PLACEMENT_3D($,#1403,#1121,#1122);
#959=AXIS2_PLACEMENT_3D($,#1404,#1123,#1124);
#960=AXIS2_PLACEMENT_3D($,#1405,#1125,#1126);
#961=AXIS2_PLACEMENT_3D($,#1414,#1131,#1132);
#962=AXIS2_PLACEMENT_3D($,#1420,#1136,#1137);
#963=AXIS2_PLACEMENT_3D($,#1422,#1138,#1139);
#964=AXIS2_PLACEMENT_3D($,#1425,#1141,#1142);
#965=AXIS2_PLACEMENT_3D($,#1426,#1143,#1144);
#966=AXIS2_PLACEMENT_3D($,#1429,#1147,#1148);
#967=AXIS2_PLACEMENT_3D($,#1430,#1149,#1150);
#968=AXIS2_PLACEMENT_3D($,#1431,#1151,#1152);
#969=AXIS2_PLACEMENT_3D($,#1433,#1153,#1154);
#970=AXIS2_PLACEMENT_3D($,#1435,#1155,#1156);
#971=AXIS2_PLACEMENT_3D($,#1436,#1157,#1158);
#972=AXIS2_PLACEMENT_3D($,#1437,#1159,#1160);
#973=AXIS2_PLACEMENT_3D($,#1438,#1161,#1162);
#974=AXIS2_PLACEMENT_3D($,#1447,#1167,#1168);
#975=AXIS2_PLACEMENT_3D($,#1453,#1172,#1173);
#976=AXIS2_PLACEMENT_3D($,#1455,#1174,#1175);
#977=AXIS2_PLACEMENT_3D($,#1458,#1177,#1178);
#978=AXIS2_PLACEMENT_3D($,#1459,#1179,#1180);
#979=AXIS2_PLACEMENT_3D($,#1462,#1183,#1184);
#980=AXIS2_PLACEMENT_3D($,#1463,#1185,#1186);
#981=AXIS2_PLACEMENT_3D($,#1464,#1187,#1188);
#982=AXIS2_PLACEMENT_3D($,#1466,#1189,#1190);
#983=AXIS2_PLACEMENT_3D($,#1468,#1191,#1192);
#984=AXIS2_PLACEMENT_3D($,#1469,#1193,#1194);
#985=AXIS2_PLACEMENT_3D($,#1470,#1195,#1196);
#986=AXIS2_PLACEMENT_3D($,#1471,#1197,#1198);
#987=AXIS2_PLACEMENT_3D($,#1473,#1199,#1200);
#988=AXIS2_PLACEMENT_3D($,#1475,#1201,#1202);
#989=AXIS2_PLACEMENT_3D($,#1476,#1203,#1204);
#990=AXIS2_PLACEMENT_3D($,#1477,#1205,#1206);
#991=AXIS2_PLACEMENT_3D($,#1478,#1207,#1208);
#992=AXIS2_PLACEMENT_3D($,#1480,#1209,#1210);
#993=AXIS2_PLACEMENT_3D($,#1482,#1211,#1212);
#994=AXIS2_PLACEMENT_3D($,#1483,#1213,#1214);
#995=AXIS2_PLACEMENT_3D($,#1484,#1215,#1216);
#996=AXIS2_PLACEMENT_3D($,#1485,#1217,#1218);
#997=AXIS2_PLACEMENT_3D($,#1487,#1219,#1220);
#998=AXIS2_PLACEMENT_3D($,#1489,#1221,#1222);
#999=AXIS2_PLACEMENT_3D($,#1490,#1223,#1224);
#1000=AXIS2_PLACEMENT_3D($,#1491,#1225,#1226);
#1001=AXIS2_PLACEMENT_3D($,#1492,#1227,#1228);
#1002=AXIS2_PLACEMENT_3D($,#1494,#1229,#1230);
#1003=AXIS2_PLACEMENT_3D($,#1496,#1231,#1232);
#1004=AXIS2_PLACEMENT_3D($,#1497,#1233,#1234);
#1005=AXIS2_PLACEMENT_3D($,#1498,#1235,#1236);
#1006=AXIS2_PLACEMENT_3D($,#1499,#1237,#1238);
#1007=AXIS2_PLACEMENT_3D($,#1501,#1239,#1240);
#1008=AXIS2_PLACEMENT_3D($,#1503,#1241,#1242);
#1009=AXIS2_PLACEMENT_3D($,#1504,#1243,#1244);
#1010=AXIS2_PLACEMENT_3D($,#1505,#1245,#1246);
#1011=AXIS2_PLACEMENT_3D($,#1506,#1247,#1248);
#1012=AXIS2_PLACEMENT_3D($,#1508,#1249,#1250);
#1013=AXIS2_PLACEMENT_3D($,#1510,#1251,#1252);
#1014=AXIS2_PLACEMENT_3D($,#1511,#1253,#1254);
#1015=AXIS2_PLACEMENT_3D($,#1512,#1255,#1256);
#1016=AXIS2_PLACEMENT_3D($,#1513,#1257,#1258);
#1017=AXIS2_PLACEMENT_3D($,#1515,#1259,#1260);
#1018=AXIS2_PLACEMENT_3D($,#1517,#1261,#1262);
#1019=AXIS2_PLACEMENT_3D($,#1518,#1263,#1264);
#1020=AXIS2_PLACEMENT_3D($,#1519,#1265,#1266);
#1021=AXIS2_PLACEMENT_3D($,#1520,#1267,#1268);
#1022=AXIS2_PLACEMENT_3D($,#1521,#1269,#1270);
#1023=AXIS2_PLACEMENT_3D($,#1524,#1271,#1272);
#1024=AXIS2_PLACEMENT_3D($,#1525,#1273,#1274);
#1025=AXIS2_PLACEMENT_3D($,#1528,#1275,#1276);
#1026=AXIS2_PLACEMENT_3D($,#1537,#1281,#1282);
#1027=AXIS2_PLACEMENT_3D($,#1543,#1286,#1287);
#1028=AXIS2_PLACEMENT_3D($,#1545,#1288,#1289);
#1029=AXIS2_PLACEMENT_3D($,#1548,#1291,#1292);
#1030=AXIS2_PLACEMENT_3D($,#1549,#1293,#1294);
#1031=AXIS2_PLACEMENT_3D($,#1552,#1297,#1298);
#1032=AXIS2_PLACEMENT_3D($,#1553,#1299,#1300);
#1033=AXIS2_PLACEMENT_3D($,#1554,#1301,#1302);
#1034=AXIS2_PLACEMENT_3D($,#1563,#1307,#1308);
#1035=AXIS2_PLACEMENT_3D($,#1569,#1312,#1313);
#1036=AXIS2_PLACEMENT_3D($,#1571,#1314,#1315);
#1037=AXIS2_PLACEMENT_3D($,#1574,#1317,#1318);
#1038=AXIS2_PLACEMENT_3D($,#1575,#1319,#1320);
#1039=AXIS2_PLACEMENT_3D($,#1578,#1323,#1324);
#1040=AXIS2_PLACEMENT_3D($,#1579,#1325,#1326);
#1041=AXIS2_PLACEMENT_3D($,#1580,#1327,#1328);
#1042=AXIS2_PLACEMENT_3D($,#1581,#1329,#1330);
#1043=AXIS2_PLACEMENT_3D($,#1584,#1331,#1332);
#1044=AXIS2_PLACEMENT_3D($,#1585,#1333,#1334);
#1045=DIRECTION('axis',(0.,0.,1.));
#1046=DIRECTION('refdir',(1.,0.,0.));
#1047=DIRECTION('axis',(0.,0.,1.));
#1048=DIRECTION('refdir',(1.,0.,0.));
#1049=DIRECTION('axis',(0.,0.,1.));
#1050=DIRECTION('refdir',(1.,0.,0.));
#1051=DIRECTION('center_axis',(0.,1.,0.));
#1052=DIRECTION('ref_axis',(0.,0.,1.));
#1053=DIRECTION($,(0.,0.,-1.));
#1054=DIRECTION($,(1.,0.,0.));
#1055=DIRECTION($,(0.,0.,1.));
#1056=DIRECTION($,(1.,0.,0.));
#1057=DIRECTION('center_axis',(0.,0.,-1.));
#1058=DIRECTION('ref_axis',(-1.,0.,0.));
#1059=DIRECTION($,(0.,-1.,0.));
#1060=DIRECTION($,(0.,1.,0.));
#1061=DIRECTION($,(1.,0.,0.));
#1062=DIRECTION('center_axis',(0.,-1.,0.));
#1063=DIRECTION('ref_axis',(0.,0.,-1.));
#1064=DIRECTION($,(0.,0.,1.));
#1065=DIRECTION($,(0.,0.,-1.));
#1066=DIRECTION($,(1.,0.,0.));
#1067=DIRECTION('center_axis',(0.,0.,1.));
#1068=DIRECTION('ref_axis',(1.,0.,0.));
#1069=DIRECTION($,(0.,1.,0.));
#1070=DIRECTION($,(0.,-1.,0.));
#1071=DIRECTION('center_axis',(1.,-1.80741721674618E-27,4.51739712495811E-29));
#1072=DIRECTION('ref_axis',(0.,0.,-1.));
#1073=DIRECTION('center_axis',(-1.,0.,0.));
#1074=DIRECTION('ref_axis',(0.,0.,1.));
#1075=DIRECTION($,(0.,1.,0.));
#1076=DIRECTION($,(0.,0.,1.));
#1077=DIRECTION($,(0.,1.,0.));
#1078=DIRECTION($,(0.,0.,1.));
#1079=DIRECTION('center_axis',(0.,1.,0.));
#1080=DIRECTION('ref_axis',(0.,0.,1.));
#1081=DIRECTION($,(1.,0.,0.));
#1082=DIRECTION($,(0.,0.,1.));
#1083=DIRECTION($,(1.,0.,0.));
#1084=DIRECTION('center_axis',(1.,0.,0.));
#1085=DIRECTION('ref_axis',(0.,0.,-1.));
#1086=DIRECTION($,(0.,-1.,0.));
#1087=DIRECTION($,(0.,0.,1.));
#1088=DIRECTION($,(0.,-1.,0.));
#1089=DIRECTION('center_axis',(0.,-1.,0.));
#1090=DIRECTION('ref_axis',(0.,0.,-1.));
#1091=DIRECTION($,(-1.,0.,0.));
#1092=DIRECTION($,(-1.,0.,0.));
#1093=DIRECTION('center_axis',(0.,0.,1.));
#1094=DIRECTION('ref_axis',(1.,0.,0.));
#1095=DIRECTION('center_axis',(0.,0.,1.));
#1096=DIRECTION('ref_axis',(1.,0.,0.));
#1097=DIRECTION($,(0.,0.,1.));
#1098=DIRECTION($,(1.,0.,0.));
#1099=DIRECTION($,(0.,0.,1.));
#1100=DIRECTION($,(1.,0.,0.));
#1101=DIRECTION($,(0.,0.,1.));
#1102=DIRECTION($,(1.,0.,0.));
#1103=DIRECTION($,(0.,0.,1.));
#1104=DIRECTION($,(1.,0.,0.));
#1105=DIRECTION($,(0.,0.,1.));
#1106=DIRECTION($,(1.,0.,0.));
#1107=DIRECTION($,(0.,0.,1.));
#1108=DIRECTION($,(1.,0.,0.));
#1109=DIRECTION($,(0.,0.,1.));
#1110=DIRECTION($,(1.,0.,0.));
#1111=DIRECTION($,(0.,0.,1.));
#1112=DIRECTION($,(1.,0.,0.));
#1113=DIRECTION($,(0.,0.,1.));
#1114=DIRECTION($,(1.,0.,0.));
#1115=DIRECTION('center_axis',(-1.,0.,0.));
#1116=DIRECTION('ref_axis',(0.,-1.,0.));
#1117=DIRECTION('center_axis',(1.,0.,0.));
#1118=DIRECTION('ref_axis',(0.,-1.,0.));
#1119=DIRECTION('center_axis',(-1.,0.,0.));
#1120=DIRECTION('ref_axis',(0.,-1.,0.));
#1121=DIRECTION('center_axis',(-1.,0.,0.));
#1122=DIRECTION('ref_axis',(0.,0.,1.));
#1123=DIRECTION('center_axis',(-1.,0.,0.));
#1124=DIRECTION('ref_axis',(0.,0.,1.));
#1125=DIRECTION('center_axis',(0.,-1.,0.));
#1126=DIRECTION('ref_axis',(0.,0.,-1.));
#1127=DIRECTION($,(0.,0.,1.));
#1128=DIRECTION($,(1.,0.,0.));
#1129=DIRECTION($,(0.,0.,1.));
#1130=DIRECTION($,(1.,0.,0.));
#1131=DIRECTION('center_axis',(0.,0.,1.));
#1132=DIRECTION('ref_axis',(1.,0.,0.));
#1133=DIRECTION($,(0.,1.,0.));
#1134=DIRECTION($,(1.,0.,0.));
#1135=DIRECTION($,(0.,1.,0.));
#1136=DIRECTION('center_axis',(1.,0.,0.));
#1137=DIRECTION('ref_axis',(0.,1.,-1.18631394233268E-14));
#1138=DIRECTION('center_axis',(-1.,0.,0.));
#1139=DIRECTION('ref_axis',(0.,1.,-1.18631394233268E-14));
#1140=DIRECTION($,(1.,0.,0.));
#1141=DIRECTION('center_axis',(-1.,0.,0.));
#1142=DIRECTION('ref_axis',(0.,1.,-1.18631394233268E-14));
#1143=DIRECTION('center_axis',(0.,0.,-1.));
#1144=DIRECTION('ref_axis',(-1.,0.,0.));
#1145=DIRECTION($,(0.,-1.,0.));
#1146=DIRECTION($,(0.,-1.,0.));
#1147=DIRECTION('center_axis',(1.,-1.34042497135076E-26,4.6366906150069E-28));
#1148=DIRECTION('ref_axis',(0.,0.,-1.));
#1149=DIRECTION('center_axis',(1.,-1.34042497135076E-26,4.6366906150069E-28));
#1150=DIRECTION('ref_axis',(0.,0.,-1.));
#1151=DIRECTION('center_axis',(-1.,0.,0.));
#1152=DIRECTION('ref_axis',(0.,-1.,0.));
#1153=DIRECTION('center_axis',(1.,0.,0.));
#1154=DIRECTION('ref_axis',(0.,-1.,0.));
#1155=DIRECTION('center_axis',(-1.,0.,0.));
#1156=DIRECTION('ref_axis',(0.,-1.,0.));
#1157=DIRECTION('center_axis',(-1.,0.,0.));
#1158=DIRECTION('ref_axis',(0.,0.,1.));
#1159=DIRECTION('center_axis',(-1.,0.,0.));
#1160=DIRECTION('ref_axis',(0.,0.,1.));
#1161=DIRECTION('center_axis',(0.,-1.,0.));
#1162=DIRECTION('ref_axis',(0.,0.,-1.));
#1163=DIRECTION($,(0.,0.,1.));
#1164=DIRECTION($,(1.,0.,0.));
#1165=DIRECTION($,(0.,0.,1.));
#1166=DIRECTION($,(1.,0.,0.));
#1167=DIRECTION('center_axis',(0.,0.,1.));
#1168=DIRECTION('ref_axis',(1.,0.,0.));
#1169=DIRECTION($,(0.,1.,0.));
#1170=DIRECTION($,(1.,0.,0.));
#1171=DIRECTION($,(0.,1.,0.));
#1172=DIRECTION('center_axis',(1.,0.,0.));
#1173=DIRECTION('ref_axis',(0.,1.,-1.18631394233268E-14));
#1174=DIRECTION('center_axis',(-1.,0.,0.));
#1175=DIRECTION('ref_axis',(0.,1.,-1.18631394233268E-14));
#1176=DIRECTION($,(1.,0.,0.));
#1177=DIRECTION('center_axis',(-1.,0.,0.));
#1178=DIRECTION('ref_axis',(0.,1.,-1.18631394233268E-14));
#1179=DIRECTION('center_axis',(0.,0.,-1.));
#1180=DIRECTION('ref_axis',(-1.,0.,0.));
#1181=DIRECTION($,(0.,-1.,0.));
#1182=DIRECTION($,(0.,-1.,0.));
#1183=DIRECTION('center_axis',(1.,-1.34042497135076E-26,4.6366906150069E-28));
#1184=DIRECTION('ref_axis',(0.,0.,-1.));
#1185=DIRECTION('center_axis',(1.,-1.34042497135076E-26,4.6366906150069E-28));
#1186=DIRECTION('ref_axis',(0.,0.,-1.));
#1187=DIRECTION('center_axis',(0.,0.,-1.));
#1188=DIRECTION('ref_axis',(-1.,0.,0.));
#1189=DIRECTION('center_axis',(2.22044604925031E-16,0.,1.));
#1190=DIRECTION('ref_axis',(-1.,0.,2.22044604925031E-16));
#1191=DIRECTION('center_axis',(-2.22044604925031E-16,0.,-1.));
#1192=DIRECTION('ref_axis',(-1.,0.,2.22044604925031E-16));
#1193=DIRECTION('center_axis',(-2.22044604925031E-16,0.,-1.));
#1194=DIRECTION('ref_axis',(-1.,0.,4.44089209850063E-16));
#1195=DIRECTION('center_axis',(-2.22044604925031E-16,0.,-1.));
#1196=DIRECTION('ref_axis',(-1.,0.,2.22044604925031E-16));
#1197=DIRECTION('center_axis',(0.,0.,-1.));
#1198=DIRECTION('ref_axis',(-1.,0.,0.));
#1199=DIRECTION('center_axis',(2.22044604925031E-16,0.,1.));
#1200=DIRECTION('ref_axis',(-1.,0.,2.22044604925031E-16));
#1201=DIRECTION('center_axis',(-2.22044604925031E-16,0.,-1.));
#1202=DIRECTION('ref_axis',(-1.,0.,2.22044604925031E-16));
#1203=DIRECTION('center_axis',(-2.22044604925031E-16,0.,-1.));
#1204=DIRECTION('ref_axis',(-1.,0.,4.44089209850063E-16));
#1205=DIRECTION('center_axis',(-2.22044604925031E-16,0.,-1.));
#1206=DIRECTION('ref_axis',(-1.,0.,2.22044604925031E-16));
#1207=DIRECTION('center_axis',(0.,0.,-1.));
#1208=DIRECTION('ref_axis',(-1.,0.,0.));
#1209=DIRECTION('center_axis',(2.22044604925031E-16,0.,1.));
#1210=DIRECTION('ref_axis',(-1.,0.,2.22044604925031E-16));
#1211=DIRECTION('center_axis',(-2.22044604925031E-16,0.,-1.));
#1212=DIRECTION('ref_axis',(-1.,0.,2.22044604925031E-16));
#1213=DIRECTION('center_axis',(-2.22044604925031E-16,0.,-1.));
#1214=DIRECTION('ref_axis',(-1.,0.,4.44089209850063E-16));
#1215=DIRECTION('center_axis',(-2.22044604925031E-16,0.,-1.));
#1216=DIRECTION('ref_axis',(-1.,0.,2.22044604925031E-16));
#1217=DIRECTION('center_axis',(0.,0.,-1.));
#1218=DIRECTION('ref_axis',(-1.,0.,0.));
#1219=DIRECTION('center_axis',(2.22044604925031E-16,0.,1.));
#1220=DIRECTION('ref_axis',(-1.,0.,2.22044604925031E-16));
#1221=DIRECTION('center_axis',(-2.22044604925031E-16,0.,-1.));
#1222=DIRECTION('ref_axis',(-1.,0.,2.22044604925031E-16));
#1223=DIRECTION('center_axis',(-2.22044604925031E-16,0.,-1.));
#1224=DIRECTION('ref_axis',(-1.,0.,4.44089209850063E-16));
#1225=DIRECTION('center_axis',(-2.22044604925031E-16,0.,-1.));
#1226=DIRECTION('ref_axis',(-1.,0.,2.22044604925031E-16));
#1227=DIRECTION('center_axis',(0.,0.,-1.));
#1228=DIRECTION('ref_axis',(-1.,0.,0.));
#1229=DIRECTION('center_axis',(2.22044604925031E-16,0.,1.));
#1230=DIRECTION('ref_axis',(-1.,0.,2.22044604925031E-16));
#1231=DIRECTION('center_axis',(-2.22044604925031E-16,0.,-1.));
#1232=DIRECTION('ref_axis',(-1.,0.,2.22044604925031E-16));
#1233=DIRECTION('center_axis',(-2.22044604925031E-16,0.,-1.));
#1234=DIRECTION('ref_axis',(-1.,0.,4.44089209850063E-16));
#1235=DIRECTION('center_axis',(-2.22044604925031E-16,0.,-1.));
#1236=DIRECTION('ref_axis',(-1.,0.,2.22044604925031E-16));
#1237=DIRECTION('center_axis',(0.,0.,-1.));
#1238=DIRECTION('ref_axis',(-1.,0.,0.));
#1239=DIRECTION('center_axis',(2.22044604925031E-16,0.,1.));
#1240=DIRECTION('ref_axis',(-1.,0.,2.22044604925031E-16));
#1241=DIRECTION('center_axis',(-2.22044604925031E-16,0.,-1.));
#1242=DIRECTION('ref_axis',(-1.,0.,2.22044604925031E-16));
#1243=DIRECTION('center_axis',(-2.22044604925031E-16,0.,-1.));
#1244=DIRECTION('ref_axis',(-1.,0.,4.44089209850063E-16));
#1245=DIRECTION('center_axis',(-2.22044604925031E-16,0.,-1.));
#1246=DIRECTION('ref_axis',(-1.,0.,2.22044604925031E-16));
#1247=DIRECTION('center_axis',(0.,0.,-1.));
#1248=DIRECTION('ref_axis',(-1.,0.,0.));
#1249=DIRECTION('center_axis',(2.22044604925031E-16,0.,1.));
#1250=DIRECTION('ref_axis',(-1.,0.,2.22044604925031E-16));
#1251=DIRECTION('center_axis',(-2.22044604925031E-16,0.,-1.));
#1252=DIRECTION('ref_axis',(-1.,0.,2.22044604925031E-16));
#1253=DIRECTION('center_axis',(-2.22044604925031E-16,0.,-1.));
#1254=DIRECTION('ref_axis',(-1.,0.,4.44089209850063E-16));
#1255=DIRECTION('center_axis',(-2.22044604925031E-16,0.,-1.));
#1256=DIRECTION('ref_axis',(-1.,0.,2.22044604925031E-16));
#1257=DIRECTION('center_axis',(0.,0.,-1.));
#1258=DIRECTION('ref_axis',(-1.,0.,0.));
#1259=DIRECTION('center_axis',(2.22044604925031E-16,0.,1.));
#1260=DIRECTION('ref_axis',(-1.,0.,2.22044604925031E-16));
#1261=DIRECTION('center_axis',(-2.22044604925031E-16,0.,-1.));
#1262=DIRECTION('ref_axis',(-1.,0.,2.22044604925031E-16));
#1263=DIRECTION('center_axis',(-2.22044604925031E-16,0.,-1.));
#1264=DIRECTION('ref_axis',(-1.,0.,4.44089209850063E-16));
#1265=DIRECTION('center_axis',(-2.22044604925031E-16,0.,-1.));
#1266=DIRECTION('ref_axis',(-1.,0.,2.22044604925031E-16));
#1267=DIRECTION('center_axis',(0.,0.,1.));
#1268=DIRECTION('ref_axis',(1.,0.,0.));
#1269=DIRECTION('center_axis',(0.,1.,0.));
#1270=DIRECTION('ref_axis',(0.,0.,-1.));
#1271=DIRECTION('center_axis',(0.,0.,1.));
#1272=DIRECTION('ref_axis',(1.,0.,0.));
#1273=DIRECTION('center_axis',(0.,1.,0.));
#1274=DIRECTION('ref_axis',(0.,0.,-1.));
#1275=DIRECTION('center_axis',(0.,-1.,0.));
#1276=DIRECTION('ref_axis',(0.,0.,-1.));
#1277=DIRECTION($,(0.,0.,1.));
#1278=DIRECTION($,(1.,0.,0.));
#1279=DIRECTION($,(0.,0.,1.));
#1280=DIRECTION($,(1.,0.,0.));
#1281=DIRECTION('center_axis',(0.,0.,1.));
#1282=DIRECTION('ref_axis',(1.,0.,0.));
#1283=DIRECTION($,(0.,1.,0.));
#1284=DIRECTION($,(1.,0.,0.));
#1285=DIRECTION($,(0.,1.,0.));
#1286=DIRECTION('center_axis',(1.,0.,0.));
#1287=DIRECTION('ref_axis',(0.,1.,-1.18631394233268E-14));
#1288=DIRECTION('center_axis',(-1.,0.,0.));
#1289=DIRECTION('ref_axis',(0.,1.,-1.18631394233268E-14));
#1290=DIRECTION($,(1.,0.,0.));
#1291=DIRECTION('center_axis',(-1.,0.,0.));
#1292=DIRECTION('ref_axis',(0.,1.,-1.18631394233268E-14));
#1293=DIRECTION('center_axis',(0.,0.,-1.));
#1294=DIRECTION('ref_axis',(-1.,0.,0.));
#1295=DIRECTION($,(0.,-1.,0.));
#1296=DIRECTION($,(0.,-1.,0.));
#1297=DIRECTION('center_axis',(1.,-1.34042497135076E-26,4.6366906150069E-28));
#1298=DIRECTION('ref_axis',(0.,0.,-1.));
#1299=DIRECTION('center_axis',(1.,-1.34042497135076E-26,4.6366906150069E-28));
#1300=DIRECTION('ref_axis',(0.,0.,-1.));
#1301=DIRECTION('center_axis',(0.,-1.,0.));
#1302=DIRECTION('ref_axis',(0.,0.,-1.));
#1303=DIRECTION($,(0.,0.,1.));
#1304=DIRECTION($,(1.,0.,0.));
#1305=DIRECTION($,(0.,0.,1.));
#1306=DIRECTION($,(1.,0.,0.));
#1307=DIRECTION('center_axis',(0.,0.,1.));
#1308=DIRECTION('ref_axis',(1.,0.,0.));
#1309=DIRECTION($,(0.,1.,0.));
#1310=DIRECTION($,(1.,0.,0.));
#1311=DIRECTION($,(0.,1.,0.));
#1312=DIRECTION('center_axis',(1.,0.,0.));
#1313=DIRECTION('ref_axis',(0.,1.,-1.18631394233268E-14));
#1314=DIRECTION('center_axis',(-1.,0.,0.));
#1315=DIRECTION('ref_axis',(0.,1.,-1.18631394233268E-14));
#1316=DIRECTION($,(1.,0.,0.));
#1317=DIRECTION('center_axis',(-1.,0.,0.));
#1318=DIRECTION('ref_axis',(0.,1.,-1.18631394233268E-14));
#1319=DIRECTION('center_axis',(0.,0.,-1.));
#1320=DIRECTION('ref_axis',(-1.,0.,0.));
#1321=DIRECTION($,(0.,-1.,0.));
#1322=DIRECTION($,(0.,-1.,0.));
#1323=DIRECTION('center_axis',(1.,-1.34042497135076E-26,4.6366906150069E-28));
#1324=DIRECTION('ref_axis',(0.,0.,-1.));
#1325=DIRECTION('center_axis',(1.,-1.34042497135076E-26,4.6366906150069E-28));
#1326=DIRECTION('ref_axis',(0.,0.,-1.));
#1327=DIRECTION('center_axis',(0.,0.,1.));
#1328=DIRECTION('ref_axis',(1.,0.,0.));
#1329=DIRECTION('center_axis',(0.,1.,0.));
#1330=DIRECTION('ref_axis',(0.,0.,-1.));
#1331=DIRECTION('center_axis',(0.,0.,1.));
#1332=DIRECTION('ref_axis',(1.,0.,0.));
#1333=DIRECTION('center_axis',(0.,1.,0.));
#1334=DIRECTION('ref_axis',(0.,0.,-1.));
#1335=CARTESIAN_POINT('',(0.,0.,0.));
#1336=CARTESIAN_POINT('',(0.,0.,0.));
#1337=CARTESIAN_POINT('',(0.,0.,0.));
#1338=CARTESIAN_POINT('Origin',(-8.88999999999999,2.04999999999998,10.8));
#1339=CARTESIAN_POINT('',(-8.38999999999987,2.04999999999998,10.8));
#1340=CARTESIAN_POINT('',(-8.38999999999987,2.04999999999998,0.5));
#1341=CARTESIAN_POINT($,(-8.38999999999999,2.04999999999998,0.5));
#1342=CARTESIAN_POINT('',(-8.88999999999999,2.04999999999998,10.8));
#1343=CARTESIAN_POINT($,(-8.88999999999999,2.04999999999998,10.8));
#1344=CARTESIAN_POINT('',(-8.88999999999999,2.04999999999998,0.5));
#1345=CARTESIAN_POINT($,(-8.88999999999999,2.05000000000001,5.4));
#1346=CARTESIAN_POINT($,(-8.88999999999999,2.04999999999998,0.5));
#1347=CARTESIAN_POINT('Origin',(-8.88999999999999,2.04999999999998,0.5));
#1348=CARTESIAN_POINT('',(-8.38999999999987,-2.05000000000001,0.5));
#1349=CARTESIAN_POINT($,(-8.38999999999999,-2.05000000000001,0.5));
#1350=CARTESIAN_POINT('',(-8.88999999999999,-2.05000000000001,0.5));
#1351=CARTESIAN_POINT($,(-8.88999999999999,-0.25,0.5));
#1352=CARTESIAN_POINT($,(-8.88999999999999,-2.05000000000001,0.5));
#1353=CARTESIAN_POINT('Origin',(-8.88999999999999,-2.05000000000001,0.5));
#1354=CARTESIAN_POINT('',(-8.38999999999987,-2.05000000000001,10.8));
#1355=CARTESIAN_POINT($,(-8.38999999999999,-2.05000000000001,10.8));
#1356=CARTESIAN_POINT('',(-8.88999999999999,-2.05000000000001,10.8));
#1357=CARTESIAN_POINT($,(-8.88999999999999,-2.05000000000001,0.25));
#1358=CARTESIAN_POINT($,(-8.88999999999999,-2.05000000000001,10.8));
#1359=CARTESIAN_POINT('Origin',(-8.88999999999999,-2.05000000000001,10.8));
#1360=CARTESIAN_POINT($,(-8.38999999999999,2.04999999999998,10.8));
#1361=CARTESIAN_POINT($,(-8.88999999999999,-2.30000000000001,10.8));
#1362=CARTESIAN_POINT('Origin',(-8.38999999999987,5.6843418860808E-14,5.65));
#1363=CARTESIAN_POINT('Origin',(-8.88999999999999,-2.55000000000001,0.));
#1364=CARTESIAN_POINT('',(-8.88999999999999,-2.55000000000001,11.3));
#1365=CARTESIAN_POINT('',(-8.88999999999999,2.54999999999998,11.3));
#1366=CARTESIAN_POINT($,(-8.88999999999999,-2.55000000000001,11.3));
#1367=CARTESIAN_POINT('',(-8.88999999999999,2.54999999999998,0.));
#1368=CARTESIAN_POINT($,(-8.88999999999999,2.54999999999998,0.));
#1369=CARTESIAN_POINT('',(-8.88999999999999,-2.55000000000001,0.));
#1370=CARTESIAN_POINT($,(-8.88999999999999,-2.55000000000001,0.));
#1371=CARTESIAN_POINT($,(-8.88999999999999,-2.55000000000001,0.));
#1372=CARTESIAN_POINT('Origin',(-8.88999999999999,2.54999999999998,0.));
#1373=CARTESIAN_POINT('',(4.71000000000004,2.54999999999998,11.3));
#1374=CARTESIAN_POINT($,(-8.88999999999999,2.54999999999998,11.3));
#1375=CARTESIAN_POINT('',(4.71000000000004,2.54999999999998,0.));
#1376=CARTESIAN_POINT($,(4.71000000000004,2.54999999999998,0.));
#1377=CARTESIAN_POINT($,(-8.88999999999999,2.54999999999998,0.));
#1378=CARTESIAN_POINT('Origin',(4.71000000000004,2.54999999999998,0.));
#1379=CARTESIAN_POINT('',(4.71000000000004,-2.55000000000001,11.3));
#1380=CARTESIAN_POINT($,(4.71000000000004,2.54999999999998,11.3));
#1381=CARTESIAN_POINT('',(4.71000000000004,-2.55000000000001,0.));
#1382=CARTESIAN_POINT($,(4.71000000000004,-2.55000000000001,0.));
#1383=CARTESIAN_POINT($,(4.71000000000004,2.54999999999998,0.));
#1384=CARTESIAN_POINT('Origin',(4.71000000000004,-2.55000000000001,0.));
#1385=CARTESIAN_POINT($,(4.71000000000004,-2.55000000000001,11.3));
#1386=CARTESIAN_POINT($,(4.71000000000004,-2.55000000000001,0.));
#1387=CARTESIAN_POINT('Origin',(-2.09000000000003,5.6843418860808E-14,11.3));
#1388=CARTESIAN_POINT('Origin',(-2.09000000000003,5.6843418860808E-14,0.));
#1389=CARTESIAN_POINT($,(0.,0.,0.));
#1390=CARTESIAN_POINT($,(0.,0.,0.));
#1391=CARTESIAN_POINT($,(0.,0.,0.));
#1392=CARTESIAN_POINT($,(0.,0.,0.));
#1393=CARTESIAN_POINT($,(0.,0.,0.));
#1394=CARTESIAN_POINT($,(0.,0.,0.));
#1395=CARTESIAN_POINT($,(0.,0.,0.));
#1396=CARTESIAN_POINT($,(0.,0.,0.));
#1397=CARTESIAN_POINT($,(0.,0.,0.));
#1398=CARTESIAN_POINT('Origin',(-8.88999999999999,0.,4.3942000000002));
#1399=CARTESIAN_POINT('',(-9.08999999999998,-0.900000000000006,4.3942000000002));
#1400=CARTESIAN_POINT('Origin',(-9.08999999999998,0.,4.3942000000002));
#1401=CARTESIAN_POINT('',(-8.88999999999999,-0.900000000000006,4.3942000000002));
#1402=CARTESIAN_POINT('Origin',(-8.88999999999999,0.,4.3942000000002));
#1403=CARTESIAN_POINT('Origin',(-9.08999999999998,0.,4.3942000000002));
#1404=CARTESIAN_POINT('Origin',(-8.88999999999999,0.,4.3942000000002));
#1405=CARTESIAN_POINT('Origin',(-8.88999999999999,-1.92000000000027,3.1942000000002));
#1406=CARTESIAN_POINT('',(-8.38999999999993,-1.92000000000027,3.1942000000002));
#1407=CARTESIAN_POINT('',(-8.38999999999993,-1.92000000000027,5.59));
#1408=CARTESIAN_POINT($,(-8.38999999999999,-1.92000000000027,3.1942000000002));
#1409=CARTESIAN_POINT('',(-8.88999999999999,-1.92000000000027,5.59));
#1410=CARTESIAN_POINT($,(-8.88999999999999,-1.92000000000027,5.59));
#1411=CARTESIAN_POINT('',(-8.88999999999999,-1.92000000000027,3.1942000000002));
#1412=CARTESIAN_POINT($,(-8.88999999999999,-1.92000000000027,3.1942000000002));
#1413=CARTESIAN_POINT($,(-8.88999999999999,-1.92000000000027,3.1942000000002));
#1414=CARTESIAN_POINT('Origin',(-8.88999999999999,-1.92000000000027,5.59));
#1415=CARTESIAN_POINT('',(-8.38999999999993,0.790961891182548,5.59));
#1416=CARTESIAN_POINT($,(-8.38999999999999,-1.92000000000027,5.59));
#1417=CARTESIAN_POINT('',(-8.88999999999999,0.790961891182548,5.59));
#1418=CARTESIAN_POINT($,(-8.88999999999999,0.790961891182548,5.59));
#1419=CARTESIAN_POINT($,(-8.88999999999999,-1.92000000000027,5.59));
#1420=CARTESIAN_POINT('Origin',(-8.88999999999999,0.719999999999743,4.3921000000001));
#1421=CARTESIAN_POINT('',(-8.38999999999993,0.790961891182519,3.1942000000002));
#1422=CARTESIAN_POINT('Origin',(-8.38999999999999,0.719999999999743,4.3921000000001));
#1423=CARTESIAN_POINT('',(-8.88999999999999,0.790961891182519,3.1942000000002));
#1424=CARTESIAN_POINT($,(-8.88999999999999,0.790961891182519,3.1942000000002));
#1425=CARTESIAN_POINT('Origin',(-8.88999999999999,0.719999999999743,4.3921000000001));
#1426=CARTESIAN_POINT('Origin',(-8.88999999999999,0.790961891182519,3.1942000000002));
#1427=CARTESIAN_POINT($,(-8.38999999999999,0.790961891182519,3.1942000000002));
#1428=CARTESIAN_POINT($,(-8.88999999999999,0.790961891182519,3.1942000000002));
#1429=CARTESIAN_POINT('Origin',(-8.38999999999993,-0.21244421703463,4.3921000000001));
#1430=CARTESIAN_POINT('Origin',(-8.88999999999993,-0.21244421703463,4.3921000000001));
#1431=CARTESIAN_POINT('Origin',(-8.88999999999999,2.55795384873636E-13,
1.8542000000002));
#1432=CARTESIAN_POINT('',(-9.08999999999998,-0.89999999999975,1.8542000000002));
#1433=CARTESIAN_POINT('Origin',(-9.08999999999998,2.55795384873636E-13,
1.8542000000002));
#1434=CARTESIAN_POINT('',(-8.88999999999999,-0.89999999999975,1.8542000000002));
#1435=CARTESIAN_POINT('Origin',(-8.88999999999999,2.55795384873636E-13,
1.8542000000002));
#1436=CARTESIAN_POINT('Origin',(-9.08999999999998,2.55795384873636E-13,
1.8542000000002));
#1437=CARTESIAN_POINT('Origin',(-8.88999999999999,2.55795384873636E-13,
1.8542000000002));
#1438=CARTESIAN_POINT('Origin',(-8.88999999999999,-1.92000000000002,0.6542000000002));
#1439=CARTESIAN_POINT('',(-8.38999999999993,-1.92000000000002,0.6542000000002));
#1440=CARTESIAN_POINT('',(-8.38999999999993,-1.92000000000002,3.05));
#1441=CARTESIAN_POINT($,(-8.38999999999999,-1.92000000000002,0.6542000000002));
#1442=CARTESIAN_POINT('',(-8.88999999999999,-1.92000000000002,3.05));
#1443=CARTESIAN_POINT($,(-8.88999999999999,-1.92000000000002,3.05));
#1444=CARTESIAN_POINT('',(-8.88999999999999,-1.92000000000002,0.6542000000002));
#1445=CARTESIAN_POINT($,(-8.88999999999999,-1.92000000000002,0.6542000000002));
#1446=CARTESIAN_POINT($,(-8.88999999999999,-1.92000000000002,0.6542000000002));
#1447=CARTESIAN_POINT('Origin',(-8.88999999999999,-1.92000000000002,3.05));
#1448=CARTESIAN_POINT('',(-8.38999999999993,0.790961891182803,3.05));
#1449=CARTESIAN_POINT($,(-8.38999999999999,-1.92000000000002,3.05));
#1450=CARTESIAN_POINT('',(-8.88999999999999,0.790961891182803,3.05));
#1451=CARTESIAN_POINT($,(-8.88999999999999,0.790961891182803,3.05));
#1452=CARTESIAN_POINT($,(-8.88999999999999,-1.92000000000002,3.05));
#1453=CARTESIAN_POINT('Origin',(-8.88999999999999,0.719999999999999,1.8521000000001));
#1454=CARTESIAN_POINT('',(-8.38999999999993,0.790961891182775,0.6542000000002));
#1455=CARTESIAN_POINT('Origin',(-8.38999999999999,0.719999999999999,1.8521000000001));
#1456=CARTESIAN_POINT('',(-8.88999999999999,0.790961891182775,0.6542000000002));
#1457=CARTESIAN_POINT($,(-8.88999999999999,0.790961891182775,0.6542000000002));
#1458=CARTESIAN_POINT('Origin',(-8.88999999999999,0.719999999999999,1.8521000000001));
#1459=CARTESIAN_POINT('Origin',(-8.88999999999999,0.790961891182775,0.6542000000002));
#1460=CARTESIAN_POINT($,(-8.38999999999999,0.790961891182775,0.6542000000002));
#1461=CARTESIAN_POINT($,(-8.88999999999999,0.790961891182775,0.6542000000002));
#1462=CARTESIAN_POINT('Origin',(-8.38999999999993,-0.212444217034374,1.8521000000001));
#1463=CARTESIAN_POINT('Origin',(-8.88999999999993,-0.212444217034374,1.8521000000001));
#1464=CARTESIAN_POINT('Origin',(-3.81,1.27000000000001,0.));
#1465=CARTESIAN_POINT('',(-4.20999999999998,1.27000000000001,-3.2));
#1466=CARTESIAN_POINT('Origin',(-3.81,1.27000000000001,-3.2));
#1467=CARTESIAN_POINT('',(-4.20999999999998,1.27000000000001,8.88178419700125E-17));
#1468=CARTESIAN_POINT('Origin',(-3.81,1.27000000000001,0.));
#1469=CARTESIAN_POINT('Origin',(-3.81,1.27000000000001,-3.2));
#1470=CARTESIAN_POINT('Origin',(-3.81,1.27000000000001,0.));
#1471=CARTESIAN_POINT('Origin',(-3.81,-1.27000000000001,0.));
#1472=CARTESIAN_POINT('',(-4.20999999999998,-1.27000000000001,-3.2));
#1473=CARTESIAN_POINT('Origin',(-3.81,-1.27000000000001,-3.2));
#1474=CARTESIAN_POINT('',(-4.20999999999998,-1.27000000000001,8.88178419700125E-17));
#1475=CARTESIAN_POINT('Origin',(-3.81,-1.27000000000001,0.));
#1476=CARTESIAN_POINT('Origin',(-3.81,-1.27000000000001,-3.2));
#1477=CARTESIAN_POINT('Origin',(-3.81,-1.27000000000001,0.));
#1478=CARTESIAN_POINT('Origin',(-1.26999999999998,-1.27000000000001,0.));
#1479=CARTESIAN_POINT('',(-1.66999999999996,-1.27000000000001,-3.2));
#1480=CARTESIAN_POINT('Origin',(-1.26999999999998,-1.27000000000001,-3.2));
#1481=CARTESIAN_POINT('',(-1.66999999999996,-1.27000000000001,8.88178419700125E-17));
#1482=CARTESIAN_POINT('Origin',(-1.26999999999998,-1.27000000000001,0.));
#1483=CARTESIAN_POINT('Origin',(-1.26999999999998,-1.27000000000001,-3.2));
#1484=CARTESIAN_POINT('Origin',(-1.26999999999998,-1.27000000000001,0.));
#1485=CARTESIAN_POINT('Origin',(1.27000000000004,-1.27000000000001,0.));
#1486=CARTESIAN_POINT('',(0.870000000000062,-1.27000000000001,-3.2));
#1487=CARTESIAN_POINT('Origin',(1.27000000000004,-1.27000000000001,-3.2));
#1488=CARTESIAN_POINT('',(0.870000000000062,-1.27000000000001,8.88178419700125E-17));
#1489=CARTESIAN_POINT('Origin',(1.27000000000004,-1.27000000000001,0.));
#1490=CARTESIAN_POINT('Origin',(1.27000000000004,-1.27000000000001,-3.2));
#1491=CARTESIAN_POINT('Origin',(1.27000000000004,-1.27000000000001,0.));
#1492=CARTESIAN_POINT('Origin',(3.81,-1.27000000000001,0.));
#1493=CARTESIAN_POINT('',(3.41000000000003,-1.27000000000001,-3.2));
#1494=CARTESIAN_POINT('Origin',(3.81,-1.27000000000001,-3.2));
#1495=CARTESIAN_POINT('',(3.41000000000003,-1.27000000000001,8.88178419700125E-17));
#1496=CARTESIAN_POINT('Origin',(3.81,-1.27000000000001,0.));
#1497=CARTESIAN_POINT('Origin',(3.81,-1.27000000000001,-3.2));
#1498=CARTESIAN_POINT('Origin',(3.81,-1.27000000000001,0.));
#1499=CARTESIAN_POINT('Origin',(-1.26999999999998,1.27000000000001,0.));
#1500=CARTESIAN_POINT('',(-1.66999999999996,1.27000000000001,-3.2));
#1501=CARTESIAN_POINT('Origin',(-1.26999999999998,1.27000000000001,-3.2));
#1502=CARTESIAN_POINT('',(-1.66999999999996,1.27000000000001,8.88178419700125E-17));
#1503=CARTESIAN_POINT('Origin',(-1.26999999999998,1.27000000000001,0.));
#1504=CARTESIAN_POINT('Origin',(-1.26999999999998,1.27000000000001,-3.2));
#1505=CARTESIAN_POINT('Origin',(-1.26999999999998,1.27000000000001,0.));
#1506=CARTESIAN_POINT('Origin',(1.27000000000004,1.27000000000001,0.));
#1507=CARTESIAN_POINT('',(0.870000000000062,1.27000000000001,-3.2));
#1508=CARTESIAN_POINT('Origin',(1.27000000000004,1.27000000000001,-3.2));
#1509=CARTESIAN_POINT('',(0.870000000000062,1.27000000000001,8.88178419700125E-17));
#1510=CARTESIAN_POINT('Origin',(1.27000000000004,1.27000000000001,0.));
#1511=CARTESIAN_POINT('Origin',(1.27000000000004,1.27000000000001,-3.2));
#1512=CARTESIAN_POINT('Origin',(1.27000000000004,1.27000000000001,0.));
#1513=CARTESIAN_POINT('Origin',(3.81,1.27000000000001,0.));
#1514=CARTESIAN_POINT('',(3.41000000000003,1.27000000000001,-3.2));
#1515=CARTESIAN_POINT('Origin',(3.81,1.27000000000001,-3.2));
#1516=CARTESIAN_POINT('',(3.41000000000003,1.27000000000001,8.88178419700125E-17));
#1517=CARTESIAN_POINT('Origin',(3.81,1.27000000000001,0.));
#1518=CARTESIAN_POINT('Origin',(3.81,1.27000000000001,-3.2));
#1519=CARTESIAN_POINT('Origin',(3.81,1.27000000000001,0.));
#1520=CARTESIAN_POINT('Origin',(-9.08999999999998,2.55795384873636E-13,
4.3942000000002));
#1521=CARTESIAN_POINT('Origin',(-9.08999999999998,2.55795384873636E-13,
4.3942000000002));
#1522=CARTESIAN_POINT('',(-9.08999999999998,2.55795384873636E-13,3.4942000000002));
#1523=CARTESIAN_POINT('',(-9.08999999999998,2.55795384873636E-13,5.2942000000002));
#1524=CARTESIAN_POINT('Origin',(-9.08999999999998,2.55795384873636E-13,
1.8542000000002));
#1525=CARTESIAN_POINT('Origin',(-9.08999999999998,2.55795384873636E-13,
1.8542000000002));
#1526=CARTESIAN_POINT('',(-9.08999999999998,2.55795384873636E-13,0.954200000000199));
#1527=CARTESIAN_POINT('',(-9.08999999999998,2.55795384873636E-13,2.7542000000002));
#1528=CARTESIAN_POINT('Origin',(-8.88999999999999,-1.92000000000002,8.2742000000002));
#1529=CARTESIAN_POINT('',(-8.38999999999993,-1.92000000000002,8.2742000000002));
#1530=CARTESIAN_POINT('',(-8.38999999999993,-1.92000000000002,10.67));
#1531=CARTESIAN_POINT($,(-8.38999999999999,-1.92000000000002,8.2742000000002));
#1532=CARTESIAN_POINT('',(-8.88999999999999,-1.92000000000002,10.67));
#1533=CARTESIAN_POINT($,(-8.88999999999999,-1.92000000000002,10.67));
#1534=CARTESIAN_POINT('',(-8.88999999999999,-1.92000000000002,8.2742000000002));
#1535=CARTESIAN_POINT($,(-8.88999999999999,-1.92000000000002,8.2742000000002));
#1536=CARTESIAN_POINT($,(-8.88999999999999,-1.92000000000002,8.2742000000002));
#1537=CARTESIAN_POINT('Origin',(-8.88999999999999,-1.92000000000002,10.67));
#1538=CARTESIAN_POINT('',(-8.38999999999993,0.790961891182803,10.67));
#1539=CARTESIAN_POINT($,(-8.38999999999999,-1.92000000000002,10.67));
#1540=CARTESIAN_POINT('',(-8.88999999999999,0.790961891182803,10.67));
#1541=CARTESIAN_POINT($,(-8.88999999999999,0.790961891182803,10.67));
#1542=CARTESIAN_POINT($,(-8.88999999999999,-1.92000000000002,10.67));
#1543=CARTESIAN_POINT('Origin',(-8.88999999999999,0.719999999999999,9.4721000000001));
#1544=CARTESIAN_POINT('',(-8.38999999999993,0.790961891182775,8.2742000000002));
#1545=CARTESIAN_POINT('Origin',(-8.38999999999999,0.719999999999999,9.4721000000001));
#1546=CARTESIAN_POINT('',(-8.88999999999999,0.790961891182775,8.2742000000002));
#1547=CARTESIAN_POINT($,(-8.88999999999999,0.790961891182775,8.2742000000002));
#1548=CARTESIAN_POINT('Origin',(-8.88999999999999,0.719999999999999,9.4721000000001));
#1549=CARTESIAN_POINT('Origin',(-8.88999999999999,0.790961891182775,8.2742000000002));
#1550=CARTESIAN_POINT($,(-8.38999999999999,0.790961891182775,8.2742000000002));
#1551=CARTESIAN_POINT($,(-8.88999999999999,0.790961891182775,8.2742000000002));
#1552=CARTESIAN_POINT('Origin',(-8.38999999999993,-0.212444217034374,9.4721000000001));
#1553=CARTESIAN_POINT('Origin',(-8.88999999999993,-0.212444217034374,9.4721000000001));
#1554=CARTESIAN_POINT('Origin',(-8.88999999999999,-1.92000000000002,5.7342000000002));
#1555=CARTESIAN_POINT('',(-8.38999999999993,-1.92000000000002,5.7342000000002));
#1556=CARTESIAN_POINT('',(-8.38999999999993,-1.92000000000002,8.13));
#1557=CARTESIAN_POINT($,(-8.38999999999999,-1.92000000000002,5.7342000000002));
#1558=CARTESIAN_POINT('',(-8.88999999999999,-1.92000000000002,8.13));
#1559=CARTESIAN_POINT($,(-8.88999999999999,-1.92000000000002,8.13));
#1560=CARTESIAN_POINT('',(-8.88999999999999,-1.92000000000002,5.7342000000002));
#1561=CARTESIAN_POINT($,(-8.88999999999999,-1.92000000000002,5.7342000000002));
#1562=CARTESIAN_POINT($,(-8.88999999999999,-1.92000000000002,5.7342000000002));
#1563=CARTESIAN_POINT('Origin',(-8.88999999999999,-1.92000000000002,8.13));
#1564=CARTESIAN_POINT('',(-8.38999999999993,0.790961891182803,8.13));
#1565=CARTESIAN_POINT($,(-8.38999999999999,-1.92000000000002,8.13));
#1566=CARTESIAN_POINT('',(-8.88999999999999,0.790961891182803,8.13));
#1567=CARTESIAN_POINT($,(-8.88999999999999,0.790961891182803,8.13));
#1568=CARTESIAN_POINT($,(-8.88999999999999,-1.92000000000002,8.13));
#1569=CARTESIAN_POINT('Origin',(-8.88999999999999,0.719999999999999,6.9321000000001));
#1570=CARTESIAN_POINT('',(-8.38999999999993,0.790961891182775,5.7342000000002));
#1571=CARTESIAN_POINT('Origin',(-8.38999999999999,0.719999999999999,6.9321000000001));
#1572=CARTESIAN_POINT('',(-8.88999999999999,0.790961891182775,5.7342000000002));
#1573=CARTESIAN_POINT($,(-8.88999999999999,0.790961891182775,5.7342000000002));
#1574=CARTESIAN_POINT('Origin',(-8.88999999999999,0.719999999999999,6.9321000000001));
#1575=CARTESIAN_POINT('Origin',(-8.88999999999999,0.790961891182775,5.7342000000002));
#1576=CARTESIAN_POINT($,(-8.38999999999999,0.790961891182775,5.7342000000002));
#1577=CARTESIAN_POINT($,(-8.88999999999999,0.790961891182775,5.7342000000002));
#1578=CARTESIAN_POINT('Origin',(-8.38999999999993,-0.212444217034374,6.9321000000001));
#1579=CARTESIAN_POINT('Origin',(-8.88999999999993,-0.212444217034374,6.9321000000001));
#1580=CARTESIAN_POINT('Origin',(-9.08999999999998,2.55795384873636E-13,
9.4742000000002));
#1581=CARTESIAN_POINT('Origin',(-9.08999999999998,2.55795384873636E-13,
9.4742000000002));
#1582=CARTESIAN_POINT('',(-9.08999999999998,2.55795384873636E-13,8.5742000000002));
#1583=CARTESIAN_POINT('',(-9.08999999999998,2.55795384873636E-13,10.3742000000002));
#1584=CARTESIAN_POINT('Origin',(-9.08999999999998,2.55795384873636E-13,
6.9342000000002));
#1585=CARTESIAN_POINT('Origin',(-9.08999999999998,2.55795384873636E-13,
6.9342000000002));
#1586=CARTESIAN_POINT('',(-9.08999999999998,2.55795384873636E-13,6.0342000000002));
#1587=CARTESIAN_POINT('',(-9.08999999999998,2.55795384873636E-13,7.8342000000002));
#1588=UNCERTAINTY_MEASURE_WITH_UNIT(LENGTH_MEASURE(0.01),#1596,
'DISTANCE_ACCURACY_VALUE',
'Maximum model space distance between geometric entities at asserted c
onnectivities');
#1589=UNCERTAINTY_MEASURE_WITH_UNIT(LENGTH_MEASURE(0.01),#1596,
'DISTANCE_ACCURACY_VALUE',
'Maximum model space distance between geometric entities at asserted c
onnectivities');
#1590=UNCERTAINTY_MEASURE_WITH_UNIT(LENGTH_MEASURE(0.01),#1596,
'DISTANCE_ACCURACY_VALUE',
'Maximum model space distance between geometric entities at asserted c
onnectivities');
#1591=UNCERTAINTY_MEASURE_WITH_UNIT(LENGTH_MEASURE(1.E-6),#1596,
'DISTANCE_ACCURACY_VALUE',
'Maximum model space distance between geometric entities at asserted c
onnectivities');
#1592=(
GEOMETRIC_REPRESENTATION_CONTEXT(3)
GLOBAL_UNCERTAINTY_ASSIGNED_CONTEXT((#1588))
GLOBAL_UNIT_ASSIGNED_CONTEXT((#1596,#1598,#1597))
REPRESENTATION_CONTEXT('','3D')
);
#1593=(
GEOMETRIC_REPRESENTATION_CONTEXT(3)
GLOBAL_UNCERTAINTY_ASSIGNED_CONTEXT((#1589))
GLOBAL_UNIT_ASSIGNED_CONTEXT((#1596,#1598,#1597))
REPRESENTATION_CONTEXT('','3D')
);
#1594=(
GEOMETRIC_REPRESENTATION_CONTEXT(3)
GLOBAL_UNCERTAINTY_ASSIGNED_CONTEXT((#1590))
GLOBAL_UNIT_ASSIGNED_CONTEXT((#1596,#1598,#1597))
REPRESENTATION_CONTEXT('','3D')
);
#1595=(
GEOMETRIC_REPRESENTATION_CONTEXT(3)
GLOBAL_UNCERTAINTY_ASSIGNED_CONTEXT((#1591))
GLOBAL_UNIT_ASSIGNED_CONTEXT((#1596,#12,#1597))
REPRESENTATION_CONTEXT('','3D')
);
#1596=(
LENGTH_UNIT()
NAMED_UNIT(*)
SI_UNIT(.MILLI.,.METRE.)
);
#1597=(
NAMED_UNIT(*)
SI_UNIT($,.STERADIAN.)
SOLID_ANGLE_UNIT()
);
#1598=(
NAMED_UNIT(*)
PLANE_ANGLE_UNIT()
SI_UNIT($,.RADIAN.)
);
#1599=SHAPE_DEFINITION_REPRESENTATION(#1602,#1614);
#1600=SHAPE_DEFINITION_REPRESENTATION(#1603,#1615);
#1601=SHAPE_DEFINITION_REPRESENTATION(#1604,#1616);
#1602=PRODUCT_DEFINITION_SHAPE('',$,#1618);
#1603=PRODUCT_DEFINITION_SHAPE('',$,#1619);
#1604=PRODUCT_DEFINITION_SHAPE('',$,#1620);
#1605=PRODUCT_DEFINITION_SHAPE($,$,#92);
#1606=PRODUCT_DEFINITION_SHAPE($,$,#93);
#1607=PRODUCT_DEFINITION_SHAPE($,$,#94);
#1608=PRODUCT_DEFINITION_SHAPE($,$,#95);
#1609=PRODUCT_DEFINITION_SHAPE($,$,#96);
#1610=PRODUCT_DEFINITION_SHAPE($,$,#97);
#1611=PRODUCT_DEFINITION_SHAPE($,$,#98);
#1612=PRODUCT_DEFINITION_SHAPE($,$,#99);
#1613=PRODUCT_DEFINITION_SHAPE($,$,#100);
#1614=SHAPE_REPRESENTATION('',(#932),#1592);
#1615=SHAPE_REPRESENTATION('',(#933),#1593);
#1616=SHAPE_REPRESENTATION('',(#934,#946,#947,#948,#949,#950,#951,#952,
#953,#954),#1594);
#1617=PRODUCT_DEFINITION_CONTEXT('part definition',#1628,'design');
#1618=PRODUCT_DEFINITION('AVE_RENDER','AVE_RENDER',#1621,#1617);
#1619=PRODUCT_DEFINITION('AVE_GLOBAL','AVE_GLOBAL',#1622,#1617);
#1620=PRODUCT_DEFINITION('Product','Product',#1623,#1617);
#1621=PRODUCT_DEFINITION_FORMATION('',$,#1630);
#1622=PRODUCT_DEFINITION_FORMATION('',$,#1631);
#1623=PRODUCT_DEFINITION_FORMATION('',$,#1632);
#1624=PRODUCT_RELATED_PRODUCT_CATEGORY('AVE_RENDER','AVE_RENDER',(#1630));
#1625=PRODUCT_RELATED_PRODUCT_CATEGORY('AVE_GLOBAL','AVE_GLOBAL',(#1631));
#1626=PRODUCT_RELATED_PRODUCT_CATEGORY('Product','Product',(#1632));
#1627=APPLICATION_PROTOCOL_DEFINITION('international standard',
'automotive_design',2009,#1628);
#1628=APPLICATION_CONTEXT(
'Core Data for Automotive Mechanical Design Process');
#1629=PRODUCT_CONTEXT('part definition',#1628,'mechanical');
#1630=PRODUCT('AVE_RENDER','AVE_RENDER',$,(#1629));
#1631=PRODUCT('AVE_GLOBAL','AVE_GLOBAL',$,(#1629));
#1632=PRODUCT('Product','Product',$,(#1629));
#1633=PRESENTATION_STYLE_ASSIGNMENT((#1638));
#1634=PRESENTATION_STYLE_ASSIGNMENT((#1639));
#1635=PRESENTATION_STYLE_ASSIGNMENT((#1640));
#1636=PRESENTATION_STYLE_ASSIGNMENT((#1641));
#1637=PRESENTATION_STYLE_ASSIGNMENT((#1642));
#1638=SURFACE_STYLE_USAGE(.BOTH.,#1643);
#1639=SURFACE_STYLE_USAGE(.BOTH.,#1644);
#1640=SURFACE_STYLE_USAGE(.BOTH.,#1645);
#1641=SURFACE_STYLE_USAGE(.BOTH.,#1646);
#1642=SURFACE_STYLE_USAGE(.BOTH.,#1647);
#1643=SURFACE_SIDE_STYLE($,(#1648));
#1644=SURFACE_SIDE_STYLE($,(#1649));
#1645=SURFACE_SIDE_STYLE($,(#1650));
#1646=SURFACE_SIDE_STYLE($,(#1651));
#1647=SURFACE_SIDE_STYLE($,(#1652));
#1648=SURFACE_STYLE_FILL_AREA(#1653);
#1649=SURFACE_STYLE_FILL_AREA(#1654);
#1650=SURFACE_STYLE_FILL_AREA(#1655);
#1651=SURFACE_STYLE_FILL_AREA(#1656);
#1652=SURFACE_STYLE_FILL_AREA(#1657);
#1653=FILL_AREA_STYLE($,(#1658));
#1654=FILL_AREA_STYLE($,(#1659));
#1655=FILL_AREA_STYLE($,(#1660));
#1656=FILL_AREA_STYLE($,(#1661));
#1657=FILL_AREA_STYLE($,(#1662));
#1658=FILL_AREA_STYLE_COLOUR($,#1663);
#1659=FILL_AREA_STYLE_COLOUR($,#1664);
#1660=FILL_AREA_STYLE_COLOUR($,#1665);
#1661=FILL_AREA_STYLE_COLOUR($,#1666);
#1662=FILL_AREA_STYLE_COLOUR($,#1667);
#1663=COLOUR_RGB('',1.,1.,1.);
#1664=COLOUR_RGB('',0.329411764705882,0.329411764705882,0.329411764705882);
#1665=COLOUR_RGB('',0.,1.,0.);
#1666=COLOUR_RGB('',0.749019607843137,0.749019607843137,0.749019607843137);
#1667=COLOUR_RGB('',1.,0.,0.);
ENDSEC;
END-ISO-10303-21;
