ISO-10303-21;
HEADER;
/* Generated by software containing ST-Developer
 * from STEP Tools, Inc. (www.steptools.com) 
 */

FILE_DESCRIPTION(
/* description */ (''),
/* implementation_level */ '2;1');

FILE_NAME(
/* name */ 
'G:\\Applications\\Altium\\CernLib\\StepLib\\LED_DIALIGHT_553-0222F.st
p',
/* time_stamp */ '2016-03-23T15:34:35+01:00',
/* author */ ('riccim'),
/* organization */ (''),
/* preprocessor_version */ 'ST-DEVELOPER v15.5',
/* originating_system */ 'AutoCAD Mechanical',
/* authorisation */ '');

FILE_SCHEMA (('AUTOMOTIVE_DESIGN { 1 0 10303 214 3 1 1 }'));
ENDSEC;

DATA;
#10=MECHANICAL_DESIGN_GEOMETRIC_PRESENTATION_REPRESENTATION('',(#20,#19,
#21,#22,#25,#24,#26,#27,#23),#1252);
#11=DIMENSIONAL_EXPONENTS(0.,0.,0.,0.,0.,0.,0.);
#12=(
CONVERSION_BASED_UNIT('degree',#13)
NAMED_UNIT(#11)
PLANE_ANGLE_UNIT()
);
#13=PLANE_ANGLE_MEASURE_WITH_UNIT(PLANE_ANGLE_MEASURE(0.01745329252),#1255);
#14=PRESENTATION_LAYER_ASSIGNMENT('3D','',(#770,#771,#772,#773,#774,#775,
#776,#777,#778));
#15=SPHERICAL_SURFACE($,#830,1.45);
#16=SPHERICAL_SURFACE($,#835,1.45);
#17=SHAPE_REPRESENTATION_RELATIONSHIP('SRR','None',#1258,#18);
#18=ADVANCED_BREP_SHAPE_REPRESENTATION($,(#770,#771,#772,#773,#774,#775,
#776,#777,#778),#1251);
#19=STYLED_ITEM($,(#1268),#770);
#20=STYLED_ITEM($,(#1268),#771);
#21=STYLED_ITEM($,(#1268),#772);
#22=STYLED_ITEM($,(#1269),#773);
#23=STYLED_ITEM($,(#1269),#774);
#24=STYLED_ITEM($,(#1269),#775);
#25=STYLED_ITEM($,(#1269),#776);
#26=STYLED_ITEM($,(#1270),#777);
#27=STYLED_ITEM($,(#1270),#778);
#28=FACE_BOUND($,#99,.T.);
#29=FACE_BOUND($,#102,.T.);
#30=FACE_BOUND($,#140,.T.);
#31=FACE_BOUND($,#144,.T.);
#32=CIRCLE($,#787,0.5);
#33=CIRCLE($,#788,0.5);
#34=CIRCLE($,#828,1.45);
#35=CIRCLE($,#829,1.45);
#36=CIRCLE($,#833,1.45);
#37=CIRCLE($,#834,1.45);
#38=CYLINDRICAL_SURFACE($,#786,0.5);
#39=CYLINDRICAL_SURFACE($,#827,1.45);
#40=CYLINDRICAL_SURFACE($,#832,1.45);
#41=FACE_OUTER_BOUND($,#92,.T.);
#42=FACE_OUTER_BOUND($,#93,.T.);
#43=FACE_OUTER_BOUND($,#94,.T.);
#44=FACE_OUTER_BOUND($,#95,.T.);
#45=FACE_OUTER_BOUND($,#96,.T.);
#46=FACE_OUTER_BOUND($,#97,.T.);
#47=FACE_OUTER_BOUND($,#98,.T.);
#48=FACE_OUTER_BOUND($,#100,.T.);
#49=FACE_OUTER_BOUND($,#101,.T.);
#50=FACE_OUTER_BOUND($,#103,.T.);
#51=FACE_OUTER_BOUND($,#104,.T.);
#52=FACE_OUTER_BOUND($,#105,.T.);
#53=FACE_OUTER_BOUND($,#106,.T.);
#54=FACE_OUTER_BOUND($,#107,.T.);
#55=FACE_OUTER_BOUND($,#108,.T.);
#56=FACE_OUTER_BOUND($,#109,.T.);
#57=FACE_OUTER_BOUND($,#110,.T.);
#58=FACE_OUTER_BOUND($,#111,.T.);
#59=FACE_OUTER_BOUND($,#112,.T.);
#60=FACE_OUTER_BOUND($,#113,.T.);
#61=FACE_OUTER_BOUND($,#114,.T.);
#62=FACE_OUTER_BOUND($,#115,.T.);
#63=FACE_OUTER_BOUND($,#116,.T.);
#64=FACE_OUTER_BOUND($,#117,.T.);
#65=FACE_OUTER_BOUND($,#118,.T.);
#66=FACE_OUTER_BOUND($,#119,.T.);
#67=FACE_OUTER_BOUND($,#120,.T.);
#68=FACE_OUTER_BOUND($,#121,.T.);
#69=FACE_OUTER_BOUND($,#122,.T.);
#70=FACE_OUTER_BOUND($,#123,.T.);
#71=FACE_OUTER_BOUND($,#124,.T.);
#72=FACE_OUTER_BOUND($,#125,.T.);
#73=FACE_OUTER_BOUND($,#126,.T.);
#74=FACE_OUTER_BOUND($,#127,.T.);
#75=FACE_OUTER_BOUND($,#128,.T.);
#76=FACE_OUTER_BOUND($,#129,.T.);
#77=FACE_OUTER_BOUND($,#130,.T.);
#78=FACE_OUTER_BOUND($,#131,.T.);
#79=FACE_OUTER_BOUND($,#132,.T.);
#80=FACE_OUTER_BOUND($,#133,.T.);
#81=FACE_OUTER_BOUND($,#134,.T.);
#82=FACE_OUTER_BOUND($,#135,.T.);
#83=FACE_OUTER_BOUND($,#136,.T.);
#84=FACE_OUTER_BOUND($,#137,.T.);
#85=FACE_OUTER_BOUND($,#138,.T.);
#86=FACE_OUTER_BOUND($,#139,.T.);
#87=FACE_OUTER_BOUND($,#141,.T.);
#88=FACE_OUTER_BOUND($,#142,.T.);
#89=FACE_OUTER_BOUND($,#143,.T.);
#90=FACE_OUTER_BOUND($,#145,.T.);
#91=FACE_OUTER_BOUND($,#146,.T.);
#92=EDGE_LOOP($,(#478,#479,#480,#481));
#93=EDGE_LOOP($,(#482,#483,#484,#485));
#94=EDGE_LOOP($,(#486,#487,#488,#489));
#95=EDGE_LOOP($,(#490,#491,#492,#493));
#96=EDGE_LOOP($,(#494,#495,#496,#497,#498));
#97=EDGE_LOOP($,(#499,#500,#501,#502));
#98=EDGE_LOOP($,(#503));
#99=EDGE_LOOP($,(#504));
#100=EDGE_LOOP($,(#505));
#101=EDGE_LOOP($,(#506,#507,#508,#509,#510));
#102=EDGE_LOOP($,(#511));
#103=EDGE_LOOP($,(#512,#513,#514,#515));
#104=EDGE_LOOP($,(#516,#517,#518,#519));
#105=EDGE_LOOP($,(#520,#521,#522,#523));
#106=EDGE_LOOP($,(#524,#525,#526,#527));
#107=EDGE_LOOP($,(#528,#529,#530,#531));
#108=EDGE_LOOP($,(#532,#533,#534,#535));
#109=EDGE_LOOP($,(#536,#537,#538,#539));
#110=EDGE_LOOP($,(#540,#541,#542,#543));
#111=EDGE_LOOP($,(#544,#545,#546,#547));
#112=EDGE_LOOP($,(#548,#549,#550,#551));
#113=EDGE_LOOP($,(#552,#553,#554,#555));
#114=EDGE_LOOP($,(#556,#557,#558,#559));
#115=EDGE_LOOP($,(#560,#561,#562,#563));
#116=EDGE_LOOP($,(#564,#565,#566,#567));
#117=EDGE_LOOP($,(#568,#569,#570,#571));
#118=EDGE_LOOP($,(#572,#573,#574,#575));
#119=EDGE_LOOP($,(#576,#577,#578,#579));
#120=EDGE_LOOP($,(#580,#581,#582,#583));
#121=EDGE_LOOP($,(#584,#585,#586,#587));
#122=EDGE_LOOP($,(#588,#589,#590,#591));
#123=EDGE_LOOP($,(#592,#593,#594,#595));
#124=EDGE_LOOP($,(#596,#597,#598,#599));
#125=EDGE_LOOP($,(#600,#601,#602,#603));
#126=EDGE_LOOP($,(#604,#605,#606,#607));
#127=EDGE_LOOP($,(#608,#609,#610,#611));
#128=EDGE_LOOP($,(#612,#613,#614,#615));
#129=EDGE_LOOP($,(#616,#617,#618,#619));
#130=EDGE_LOOP($,(#620,#621,#622,#623));
#131=EDGE_LOOP($,(#624,#625,#626,#627));
#132=EDGE_LOOP($,(#628,#629,#630,#631));
#133=EDGE_LOOP($,(#632,#633,#634,#635));
#134=EDGE_LOOP($,(#636,#637,#638,#639));
#135=EDGE_LOOP($,(#640,#641,#642,#643));
#136=EDGE_LOOP($,(#644,#645,#646,#647));
#137=EDGE_LOOP($,(#648,#649,#650,#651));
#138=EDGE_LOOP($,(#652,#653,#654,#655));
#139=EDGE_LOOP($,(#656));
#140=EDGE_LOOP($,(#657));
#141=EDGE_LOOP($,(#658));
#142=EDGE_LOOP($,(#659));
#143=EDGE_LOOP($,(#660));
#144=EDGE_LOOP($,(#661));
#145=EDGE_LOOP($,(#662));
#146=EDGE_LOOP($,(#663));
#147=LINE($,#1044,#234);
#148=LINE($,#1046,#235);
#149=LINE($,#1048,#236);
#150=LINE($,#1049,#237);
#151=LINE($,#1052,#238);
#152=LINE($,#1054,#239);
#153=LINE($,#1055,#240);
#154=LINE($,#1059,#241);
#155=LINE($,#1060,#242);
#156=LINE($,#1061,#243);
#157=LINE($,#1065,#244);
#158=LINE($,#1066,#245);
#159=LINE($,#1067,#246);
#160=LINE($,#1069,#247);
#161=LINE($,#1071,#248);
#162=LINE($,#1082,#249);
#163=LINE($,#1084,#250);
#164=LINE($,#1086,#251);
#165=LINE($,#1087,#252);
#166=LINE($,#1091,#253);
#167=LINE($,#1092,#254);
#168=LINE($,#1093,#255);
#169=LINE($,#1097,#256);
#170=LINE($,#1098,#257);
#171=LINE($,#1099,#258);
#172=LINE($,#1101,#259);
#173=LINE($,#1102,#260);
#174=LINE($,#1108,#261);
#175=LINE($,#1110,#262);
#176=LINE($,#1112,#263);
#177=LINE($,#1113,#264);
#178=LINE($,#1117,#265);
#179=LINE($,#1118,#266);
#180=LINE($,#1119,#267);
#181=LINE($,#1123,#268);
#182=LINE($,#1124,#269);
#183=LINE($,#1125,#270);
#184=LINE($,#1127,#271);
#185=LINE($,#1128,#272);
#186=LINE($,#1134,#273);
#187=LINE($,#1136,#274);
#188=LINE($,#1138,#275);
#189=LINE($,#1139,#276);
#190=LINE($,#1142,#277);
#191=LINE($,#1144,#278);
#192=LINE($,#1145,#279);
#193=LINE($,#1148,#280);
#194=LINE($,#1150,#281);
#195=LINE($,#1151,#282);
#196=LINE($,#1153,#283);
#197=LINE($,#1154,#284);
#198=LINE($,#1160,#285);
#199=LINE($,#1162,#286);
#200=LINE($,#1164,#287);
#201=LINE($,#1165,#288);
#202=LINE($,#1168,#289);
#203=LINE($,#1170,#290);
#204=LINE($,#1171,#291);
#205=LINE($,#1174,#292);
#206=LINE($,#1176,#293);
#207=LINE($,#1177,#294);
#208=LINE($,#1179,#295);
#209=LINE($,#1180,#296);
#210=LINE($,#1186,#297);
#211=LINE($,#1188,#298);
#212=LINE($,#1190,#299);
#213=LINE($,#1191,#300);
#214=LINE($,#1194,#301);
#215=LINE($,#1196,#302);
#216=LINE($,#1197,#303);
#217=LINE($,#1200,#304);
#218=LINE($,#1202,#305);
#219=LINE($,#1203,#306);
#220=LINE($,#1205,#307);
#221=LINE($,#1206,#308);
#222=LINE($,#1212,#309);
#223=LINE($,#1214,#310);
#224=LINE($,#1216,#311);
#225=LINE($,#1217,#312);
#226=LINE($,#1220,#313);
#227=LINE($,#1222,#314);
#228=LINE($,#1223,#315);
#229=LINE($,#1226,#316);
#230=LINE($,#1228,#317);
#231=LINE($,#1229,#318);
#232=LINE($,#1231,#319);
#233=LINE($,#1232,#320);
#234=VECTOR($,#841,8.128);
#235=VECTOR($,#842,4.02);
#236=VECTOR($,#843,8.128);
#237=VECTOR($,#844,4.02);
#238=VECTOR($,#847,9.15);
#239=VECTOR($,#848,8.128);
#240=VECTOR($,#849,9.15);
#241=VECTOR($,#852,8.128);
#242=VECTOR($,#853,4.32);
#243=VECTOR($,#854,4.32);
#244=VECTOR($,#857,8.128);
#245=VECTOR($,#858,8.85);
#246=VECTOR($,#859,8.85);
#247=VECTOR($,#862,0.424264068711929);
#248=VECTOR($,#865,0.42426406871193);
#249=VECTOR($,#878,8.128);
#250=VECTOR($,#879,0.5);
#251=VECTOR($,#880,8.128);
#252=VECTOR($,#881,0.5);
#253=VECTOR($,#884,8.128);
#254=VECTOR($,#885,0.5);
#255=VECTOR($,#886,0.5);
#256=VECTOR($,#889,8.128);
#257=VECTOR($,#890,0.5);
#258=VECTOR($,#891,0.5);
#259=VECTOR($,#894,0.5);
#260=VECTOR($,#895,0.5);
#261=VECTOR($,#902,8.128);
#262=VECTOR($,#903,0.5);
#263=VECTOR($,#904,8.128);
#264=VECTOR($,#905,0.5);
#265=VECTOR($,#908,8.128);
#266=VECTOR($,#909,0.5);
#267=VECTOR($,#910,0.5);
#268=VECTOR($,#913,8.128);
#269=VECTOR($,#914,0.5);
#270=VECTOR($,#915,0.5);
#271=VECTOR($,#918,0.5);
#272=VECTOR($,#919,0.5);
#273=VECTOR($,#926,0.46);
#274=VECTOR($,#927,4.18);
#275=VECTOR($,#928,0.46);
#276=VECTOR($,#929,4.18);
#277=VECTOR($,#932,0.46);
#278=VECTOR($,#933,4.18);
#279=VECTOR($,#934,0.46);
#280=VECTOR($,#937,0.46);
#281=VECTOR($,#938,4.18);
#282=VECTOR($,#939,0.46);
#283=VECTOR($,#942,0.46);
#284=VECTOR($,#943,0.46);
#285=VECTOR($,#950,0.46);
#286=VECTOR($,#951,4.18);
#287=VECTOR($,#952,0.46);
#288=VECTOR($,#953,4.18);
#289=VECTOR($,#956,0.46);
#290=VECTOR($,#957,4.18);
#291=VECTOR($,#958,0.46);
#292=VECTOR($,#961,0.46);
#293=VECTOR($,#962,4.18);
#294=VECTOR($,#963,0.46);
#295=VECTOR($,#966,0.46);
#296=VECTOR($,#967,0.46);
#297=VECTOR($,#974,0.46);
#298=VECTOR($,#975,4.18);
#299=VECTOR($,#976,0.46);
#300=VECTOR($,#977,4.18);
#301=VECTOR($,#980,0.46);
#302=VECTOR($,#981,4.18);
#303=VECTOR($,#982,0.46);
#304=VECTOR($,#985,0.46);
#305=VECTOR($,#986,4.18);
#306=VECTOR($,#987,0.46);
#307=VECTOR($,#990,0.46);
#308=VECTOR($,#991,0.46);
#309=VECTOR($,#998,0.46);
#310=VECTOR($,#999,4.18);
#311=VECTOR($,#1000,0.46);
#312=VECTOR($,#1001,4.18);
#313=VECTOR($,#1004,0.46);
#314=VECTOR($,#1005,4.18);
#315=VECTOR($,#1006,0.46);
#316=VECTOR($,#1009,0.46);
#317=VECTOR($,#1010,4.18);
#318=VECTOR($,#1011,0.46);
#319=VECTOR($,#1014,0.46);
#320=VECTOR($,#1015,0.46);
#321=VERTEX_POINT($,#1042);
#322=VERTEX_POINT($,#1043);
#323=VERTEX_POINT($,#1045);
#324=VERTEX_POINT($,#1047);
#325=VERTEX_POINT($,#1051);
#326=VERTEX_POINT($,#1053);
#327=VERTEX_POINT($,#1057);
#328=VERTEX_POINT($,#1058);
#329=VERTEX_POINT($,#1063);
#330=VERTEX_POINT($,#1064);
#331=VERTEX_POINT($,#1073);
#332=VERTEX_POINT($,#1075);
#333=VERTEX_POINT($,#1080);
#334=VERTEX_POINT($,#1081);
#335=VERTEX_POINT($,#1083);
#336=VERTEX_POINT($,#1085);
#337=VERTEX_POINT($,#1089);
#338=VERTEX_POINT($,#1090);
#339=VERTEX_POINT($,#1095);
#340=VERTEX_POINT($,#1096);
#341=VERTEX_POINT($,#1106);
#342=VERTEX_POINT($,#1107);
#343=VERTEX_POINT($,#1109);
#344=VERTEX_POINT($,#1111);
#345=VERTEX_POINT($,#1115);
#346=VERTEX_POINT($,#1116);
#347=VERTEX_POINT($,#1121);
#348=VERTEX_POINT($,#1122);
#349=VERTEX_POINT($,#1132);
#350=VERTEX_POINT($,#1133);
#351=VERTEX_POINT($,#1135);
#352=VERTEX_POINT($,#1137);
#353=VERTEX_POINT($,#1141);
#354=VERTEX_POINT($,#1143);
#355=VERTEX_POINT($,#1147);
#356=VERTEX_POINT($,#1149);
#357=VERTEX_POINT($,#1158);
#358=VERTEX_POINT($,#1159);
#359=VERTEX_POINT($,#1161);
#360=VERTEX_POINT($,#1163);
#361=VERTEX_POINT($,#1167);
#362=VERTEX_POINT($,#1169);
#363=VERTEX_POINT($,#1173);
#364=VERTEX_POINT($,#1175);
#365=VERTEX_POINT($,#1184);
#366=VERTEX_POINT($,#1185);
#367=VERTEX_POINT($,#1187);
#368=VERTEX_POINT($,#1189);
#369=VERTEX_POINT($,#1193);
#370=VERTEX_POINT($,#1195);
#371=VERTEX_POINT($,#1199);
#372=VERTEX_POINT($,#1201);
#373=VERTEX_POINT($,#1210);
#374=VERTEX_POINT($,#1211);
#375=VERTEX_POINT($,#1213);
#376=VERTEX_POINT($,#1215);
#377=VERTEX_POINT($,#1219);
#378=VERTEX_POINT($,#1221);
#379=VERTEX_POINT($,#1225);
#380=VERTEX_POINT($,#1227);
#381=VERTEX_POINT($,#1236);
#382=VERTEX_POINT($,#1238);
#383=VERTEX_POINT($,#1243);
#384=VERTEX_POINT($,#1245);
#385=EDGE_CURVE($,#321,#322,#147,.T.);
#386=EDGE_CURVE($,#323,#321,#148,.T.);
#387=EDGE_CURVE($,#324,#323,#149,.T.);
#388=EDGE_CURVE($,#322,#324,#150,.T.);
#389=EDGE_CURVE($,#325,#323,#151,.T.);
#390=EDGE_CURVE($,#326,#325,#152,.T.);
#391=EDGE_CURVE($,#326,#324,#153,.T.);
#392=EDGE_CURVE($,#327,#328,#154,.T.);
#393=EDGE_CURVE($,#328,#326,#155,.T.);
#394=EDGE_CURVE($,#325,#327,#156,.T.);
#395=EDGE_CURVE($,#329,#330,#157,.T.);
#396=EDGE_CURVE($,#328,#329,#158,.T.);
#397=EDGE_CURVE($,#327,#330,#159,.T.);
#398=EDGE_CURVE($,#330,#321,#160,.T.);
#399=EDGE_CURVE($,#322,#329,#161,.T.);
#400=EDGE_CURVE($,#331,#331,#32,.T.);
#401=EDGE_CURVE($,#332,#332,#33,.T.);
#402=EDGE_CURVE($,#333,#334,#162,.T.);
#403=EDGE_CURVE($,#335,#334,#163,.T.);
#404=EDGE_CURVE($,#336,#335,#164,.T.);
#405=EDGE_CURVE($,#336,#333,#165,.T.);
#406=EDGE_CURVE($,#337,#338,#166,.T.);
#407=EDGE_CURVE($,#338,#336,#167,.T.);
#408=EDGE_CURVE($,#335,#337,#168,.T.);
#409=EDGE_CURVE($,#339,#340,#169,.T.);
#410=EDGE_CURVE($,#338,#340,#170,.T.);
#411=EDGE_CURVE($,#337,#339,#171,.T.);
#412=EDGE_CURVE($,#340,#333,#172,.T.);
#413=EDGE_CURVE($,#334,#339,#173,.T.);
#414=EDGE_CURVE($,#341,#342,#174,.T.);
#415=EDGE_CURVE($,#343,#342,#175,.T.);
#416=EDGE_CURVE($,#344,#343,#176,.T.);
#417=EDGE_CURVE($,#344,#341,#177,.T.);
#418=EDGE_CURVE($,#345,#346,#178,.T.);
#419=EDGE_CURVE($,#346,#344,#179,.T.);
#420=EDGE_CURVE($,#343,#345,#180,.T.);
#421=EDGE_CURVE($,#347,#348,#181,.T.);
#422=EDGE_CURVE($,#346,#348,#182,.T.);
#423=EDGE_CURVE($,#345,#347,#183,.T.);
#424=EDGE_CURVE($,#348,#341,#184,.T.);
#425=EDGE_CURVE($,#342,#347,#185,.T.);
#426=EDGE_CURVE($,#349,#350,#186,.T.);
#427=EDGE_CURVE($,#351,#350,#187,.T.);
#428=EDGE_CURVE($,#351,#352,#188,.T.);
#429=EDGE_CURVE($,#352,#349,#189,.T.);
#430=EDGE_CURVE($,#350,#353,#190,.T.);
#431=EDGE_CURVE($,#354,#353,#191,.T.);
#432=EDGE_CURVE($,#354,#351,#192,.T.);
#433=EDGE_CURVE($,#353,#355,#193,.T.);
#434=EDGE_CURVE($,#356,#355,#194,.T.);
#435=EDGE_CURVE($,#356,#354,#195,.T.);
#436=EDGE_CURVE($,#355,#349,#196,.T.);
#437=EDGE_CURVE($,#352,#356,#197,.T.);
#438=EDGE_CURVE($,#357,#358,#198,.T.);
#439=EDGE_CURVE($,#359,#358,#199,.T.);
#440=EDGE_CURVE($,#359,#360,#200,.T.);
#441=EDGE_CURVE($,#360,#357,#201,.T.);
#442=EDGE_CURVE($,#358,#361,#202,.T.);
#443=EDGE_CURVE($,#362,#361,#203,.T.);
#444=EDGE_CURVE($,#362,#359,#204,.T.);
#445=EDGE_CURVE($,#361,#363,#205,.T.);
#446=EDGE_CURVE($,#364,#363,#206,.T.);
#447=EDGE_CURVE($,#364,#362,#207,.T.);
#448=EDGE_CURVE($,#363,#357,#208,.T.);
#449=EDGE_CURVE($,#360,#364,#209,.T.);
#450=EDGE_CURVE($,#365,#366,#210,.T.);
#451=EDGE_CURVE($,#367,#366,#211,.T.);
#452=EDGE_CURVE($,#367,#368,#212,.T.);
#453=EDGE_CURVE($,#368,#365,#213,.T.);
#454=EDGE_CURVE($,#366,#369,#214,.T.);
#455=EDGE_CURVE($,#370,#369,#215,.T.);
#456=EDGE_CURVE($,#370,#367,#216,.T.);
#457=EDGE_CURVE($,#369,#371,#217,.T.);
#458=EDGE_CURVE($,#372,#371,#218,.T.);
#459=EDGE_CURVE($,#372,#370,#219,.T.);
#460=EDGE_CURVE($,#371,#365,#220,.T.);
#461=EDGE_CURVE($,#368,#372,#221,.T.);
#462=EDGE_CURVE($,#373,#374,#222,.T.);
#463=EDGE_CURVE($,#375,#374,#223,.T.);
#464=EDGE_CURVE($,#375,#376,#224,.T.);
#465=EDGE_CURVE($,#376,#373,#225,.T.);
#466=EDGE_CURVE($,#374,#377,#226,.T.);
#467=EDGE_CURVE($,#378,#377,#227,.T.);
#468=EDGE_CURVE($,#378,#375,#228,.T.);
#469=EDGE_CURVE($,#377,#379,#229,.T.);
#470=EDGE_CURVE($,#380,#379,#230,.T.);
#471=EDGE_CURVE($,#380,#378,#231,.T.);
#472=EDGE_CURVE($,#379,#373,#232,.T.);
#473=EDGE_CURVE($,#376,#380,#233,.T.);
#474=EDGE_CURVE($,#381,#381,#34,.T.);
#475=EDGE_CURVE($,#382,#382,#35,.F.);
#476=EDGE_CURVE($,#383,#383,#36,.T.);
#477=EDGE_CURVE($,#384,#384,#37,.T.);
#478=ORIENTED_EDGE($,*,*,#385,.F.);
#479=ORIENTED_EDGE($,*,*,#386,.F.);
#480=ORIENTED_EDGE($,*,*,#387,.F.);
#481=ORIENTED_EDGE($,*,*,#388,.F.);
#482=ORIENTED_EDGE($,*,*,#387,.T.);
#483=ORIENTED_EDGE($,*,*,#389,.F.);
#484=ORIENTED_EDGE($,*,*,#390,.F.);
#485=ORIENTED_EDGE($,*,*,#391,.T.);
#486=ORIENTED_EDGE($,*,*,#392,.T.);
#487=ORIENTED_EDGE($,*,*,#393,.T.);
#488=ORIENTED_EDGE($,*,*,#390,.T.);
#489=ORIENTED_EDGE($,*,*,#394,.T.);
#490=ORIENTED_EDGE($,*,*,#395,.F.);
#491=ORIENTED_EDGE($,*,*,#396,.F.);
#492=ORIENTED_EDGE($,*,*,#392,.F.);
#493=ORIENTED_EDGE($,*,*,#397,.T.);
#494=ORIENTED_EDGE($,*,*,#398,.F.);
#495=ORIENTED_EDGE($,*,*,#397,.F.);
#496=ORIENTED_EDGE($,*,*,#394,.F.);
#497=ORIENTED_EDGE($,*,*,#389,.T.);
#498=ORIENTED_EDGE($,*,*,#386,.T.);
#499=ORIENTED_EDGE($,*,*,#399,.T.);
#500=ORIENTED_EDGE($,*,*,#395,.T.);
#501=ORIENTED_EDGE($,*,*,#398,.T.);
#502=ORIENTED_EDGE($,*,*,#385,.T.);
#503=ORIENTED_EDGE($,*,*,#400,.F.);
#504=ORIENTED_EDGE($,*,*,#401,.F.);
#505=ORIENTED_EDGE($,*,*,#400,.T.);
#506=ORIENTED_EDGE($,*,*,#399,.F.);
#507=ORIENTED_EDGE($,*,*,#388,.T.);
#508=ORIENTED_EDGE($,*,*,#391,.F.);
#509=ORIENTED_EDGE($,*,*,#393,.F.);
#510=ORIENTED_EDGE($,*,*,#396,.T.);
#511=ORIENTED_EDGE($,*,*,#401,.T.);
#512=ORIENTED_EDGE($,*,*,#402,.T.);
#513=ORIENTED_EDGE($,*,*,#403,.F.);
#514=ORIENTED_EDGE($,*,*,#404,.F.);
#515=ORIENTED_EDGE($,*,*,#405,.T.);
#516=ORIENTED_EDGE($,*,*,#406,.T.);
#517=ORIENTED_EDGE($,*,*,#407,.T.);
#518=ORIENTED_EDGE($,*,*,#404,.T.);
#519=ORIENTED_EDGE($,*,*,#408,.T.);
#520=ORIENTED_EDGE($,*,*,#409,.T.);
#521=ORIENTED_EDGE($,*,*,#410,.F.);
#522=ORIENTED_EDGE($,*,*,#406,.F.);
#523=ORIENTED_EDGE($,*,*,#411,.T.);
#524=ORIENTED_EDGE($,*,*,#412,.F.);
#525=ORIENTED_EDGE($,*,*,#409,.F.);
#526=ORIENTED_EDGE($,*,*,#413,.F.);
#527=ORIENTED_EDGE($,*,*,#402,.F.);
#528=ORIENTED_EDGE($,*,*,#412,.T.);
#529=ORIENTED_EDGE($,*,*,#405,.F.);
#530=ORIENTED_EDGE($,*,*,#407,.F.);
#531=ORIENTED_EDGE($,*,*,#410,.T.);
#532=ORIENTED_EDGE($,*,*,#413,.T.);
#533=ORIENTED_EDGE($,*,*,#411,.F.);
#534=ORIENTED_EDGE($,*,*,#408,.F.);
#535=ORIENTED_EDGE($,*,*,#403,.T.);
#536=ORIENTED_EDGE($,*,*,#414,.T.);
#537=ORIENTED_EDGE($,*,*,#415,.F.);
#538=ORIENTED_EDGE($,*,*,#416,.F.);
#539=ORIENTED_EDGE($,*,*,#417,.T.);
#540=ORIENTED_EDGE($,*,*,#418,.T.);
#541=ORIENTED_EDGE($,*,*,#419,.T.);
#542=ORIENTED_EDGE($,*,*,#416,.T.);
#543=ORIENTED_EDGE($,*,*,#420,.T.);
#544=ORIENTED_EDGE($,*,*,#421,.T.);
#545=ORIENTED_EDGE($,*,*,#422,.F.);
#546=ORIENTED_EDGE($,*,*,#418,.F.);
#547=ORIENTED_EDGE($,*,*,#423,.T.);
#548=ORIENTED_EDGE($,*,*,#424,.F.);
#549=ORIENTED_EDGE($,*,*,#421,.F.);
#550=ORIENTED_EDGE($,*,*,#425,.F.);
#551=ORIENTED_EDGE($,*,*,#414,.F.);
#552=ORIENTED_EDGE($,*,*,#424,.T.);
#553=ORIENTED_EDGE($,*,*,#417,.F.);
#554=ORIENTED_EDGE($,*,*,#419,.F.);
#555=ORIENTED_EDGE($,*,*,#422,.T.);
#556=ORIENTED_EDGE($,*,*,#425,.T.);
#557=ORIENTED_EDGE($,*,*,#423,.F.);
#558=ORIENTED_EDGE($,*,*,#420,.F.);
#559=ORIENTED_EDGE($,*,*,#415,.T.);
#560=ORIENTED_EDGE($,*,*,#426,.T.);
#561=ORIENTED_EDGE($,*,*,#427,.F.);
#562=ORIENTED_EDGE($,*,*,#428,.T.);
#563=ORIENTED_EDGE($,*,*,#429,.T.);
#564=ORIENTED_EDGE($,*,*,#430,.T.);
#565=ORIENTED_EDGE($,*,*,#431,.F.);
#566=ORIENTED_EDGE($,*,*,#432,.T.);
#567=ORIENTED_EDGE($,*,*,#427,.T.);
#568=ORIENTED_EDGE($,*,*,#433,.T.);
#569=ORIENTED_EDGE($,*,*,#434,.F.);
#570=ORIENTED_EDGE($,*,*,#435,.T.);
#571=ORIENTED_EDGE($,*,*,#431,.T.);
#572=ORIENTED_EDGE($,*,*,#436,.T.);
#573=ORIENTED_EDGE($,*,*,#429,.F.);
#574=ORIENTED_EDGE($,*,*,#437,.T.);
#575=ORIENTED_EDGE($,*,*,#434,.T.);
#576=ORIENTED_EDGE($,*,*,#426,.F.);
#577=ORIENTED_EDGE($,*,*,#436,.F.);
#578=ORIENTED_EDGE($,*,*,#433,.F.);
#579=ORIENTED_EDGE($,*,*,#430,.F.);
#580=ORIENTED_EDGE($,*,*,#437,.F.);
#581=ORIENTED_EDGE($,*,*,#428,.F.);
#582=ORIENTED_EDGE($,*,*,#432,.F.);
#583=ORIENTED_EDGE($,*,*,#435,.F.);
#584=ORIENTED_EDGE($,*,*,#438,.T.);
#585=ORIENTED_EDGE($,*,*,#439,.F.);
#586=ORIENTED_EDGE($,*,*,#440,.T.);
#587=ORIENTED_EDGE($,*,*,#441,.T.);
#588=ORIENTED_EDGE($,*,*,#442,.T.);
#589=ORIENTED_EDGE($,*,*,#443,.F.);
#590=ORIENTED_EDGE($,*,*,#444,.T.);
#591=ORIENTED_EDGE($,*,*,#439,.T.);
#592=ORIENTED_EDGE($,*,*,#445,.T.);
#593=ORIENTED_EDGE($,*,*,#446,.F.);
#594=ORIENTED_EDGE($,*,*,#447,.T.);
#595=ORIENTED_EDGE($,*,*,#443,.T.);
#596=ORIENTED_EDGE($,*,*,#448,.T.);
#597=ORIENTED_EDGE($,*,*,#441,.F.);
#598=ORIENTED_EDGE($,*,*,#449,.T.);
#599=ORIENTED_EDGE($,*,*,#446,.T.);
#600=ORIENTED_EDGE($,*,*,#438,.F.);
#601=ORIENTED_EDGE($,*,*,#448,.F.);
#602=ORIENTED_EDGE($,*,*,#445,.F.);
#603=ORIENTED_EDGE($,*,*,#442,.F.);
#604=ORIENTED_EDGE($,*,*,#449,.F.);
#605=ORIENTED_EDGE($,*,*,#440,.F.);
#606=ORIENTED_EDGE($,*,*,#444,.F.);
#607=ORIENTED_EDGE($,*,*,#447,.F.);
#608=ORIENTED_EDGE($,*,*,#450,.T.);
#609=ORIENTED_EDGE($,*,*,#451,.F.);
#610=ORIENTED_EDGE($,*,*,#452,.T.);
#611=ORIENTED_EDGE($,*,*,#453,.T.);
#612=ORIENTED_EDGE($,*,*,#454,.T.);
#613=ORIENTED_EDGE($,*,*,#455,.F.);
#614=ORIENTED_EDGE($,*,*,#456,.T.);
#615=ORIENTED_EDGE($,*,*,#451,.T.);
#616=ORIENTED_EDGE($,*,*,#457,.T.);
#617=ORIENTED_EDGE($,*,*,#458,.F.);
#618=ORIENTED_EDGE($,*,*,#459,.T.);
#619=ORIENTED_EDGE($,*,*,#455,.T.);
#620=ORIENTED_EDGE($,*,*,#460,.T.);
#621=ORIENTED_EDGE($,*,*,#453,.F.);
#622=ORIENTED_EDGE($,*,*,#461,.T.);
#623=ORIENTED_EDGE($,*,*,#458,.T.);
#624=ORIENTED_EDGE($,*,*,#450,.F.);
#625=ORIENTED_EDGE($,*,*,#460,.F.);
#626=ORIENTED_EDGE($,*,*,#457,.F.);
#627=ORIENTED_EDGE($,*,*,#454,.F.);
#628=ORIENTED_EDGE($,*,*,#461,.F.);
#629=ORIENTED_EDGE($,*,*,#452,.F.);
#630=ORIENTED_EDGE($,*,*,#456,.F.);
#631=ORIENTED_EDGE($,*,*,#459,.F.);
#632=ORIENTED_EDGE($,*,*,#462,.T.);
#633=ORIENTED_EDGE($,*,*,#463,.F.);
#634=ORIENTED_EDGE($,*,*,#464,.T.);
#635=ORIENTED_EDGE($,*,*,#465,.T.);
#636=ORIENTED_EDGE($,*,*,#466,.T.);
#637=ORIENTED_EDGE($,*,*,#467,.F.);
#638=ORIENTED_EDGE($,*,*,#468,.T.);
#639=ORIENTED_EDGE($,*,*,#463,.T.);
#640=ORIENTED_EDGE($,*,*,#469,.T.);
#641=ORIENTED_EDGE($,*,*,#470,.F.);
#642=ORIENTED_EDGE($,*,*,#471,.T.);
#643=ORIENTED_EDGE($,*,*,#467,.T.);
#644=ORIENTED_EDGE($,*,*,#472,.T.);
#645=ORIENTED_EDGE($,*,*,#465,.F.);
#646=ORIENTED_EDGE($,*,*,#473,.T.);
#647=ORIENTED_EDGE($,*,*,#470,.T.);
#648=ORIENTED_EDGE($,*,*,#462,.F.);
#649=ORIENTED_EDGE($,*,*,#472,.F.);
#650=ORIENTED_EDGE($,*,*,#469,.F.);
#651=ORIENTED_EDGE($,*,*,#466,.F.);
#652=ORIENTED_EDGE($,*,*,#473,.F.);
#653=ORIENTED_EDGE($,*,*,#464,.F.);
#654=ORIENTED_EDGE($,*,*,#468,.F.);
#655=ORIENTED_EDGE($,*,*,#471,.F.);
#656=ORIENTED_EDGE($,*,*,#474,.F.);
#657=ORIENTED_EDGE($,*,*,#475,.T.);
#658=ORIENTED_EDGE($,*,*,#474,.T.);
#659=ORIENTED_EDGE($,*,*,#475,.F.);
#660=ORIENTED_EDGE($,*,*,#476,.F.);
#661=ORIENTED_EDGE($,*,*,#477,.T.);
#662=ORIENTED_EDGE($,*,*,#476,.T.);
#663=ORIENTED_EDGE($,*,*,#477,.F.);
#664=PLANE($,#780);
#665=PLANE($,#781);
#666=PLANE($,#782);
#667=PLANE($,#783);
#668=PLANE($,#784);
#669=PLANE($,#785);
#670=PLANE($,#789);
#671=PLANE($,#790);
#672=PLANE($,#791);
#673=PLANE($,#792);
#674=PLANE($,#793);
#675=PLANE($,#794);
#676=PLANE($,#795);
#677=PLANE($,#796);
#678=PLANE($,#797);
#679=PLANE($,#798);
#680=PLANE($,#799);
#681=PLANE($,#800);
#682=PLANE($,#801);
#683=PLANE($,#802);
#684=PLANE($,#803);
#685=PLANE($,#804);
#686=PLANE($,#805);
#687=PLANE($,#806);
#688=PLANE($,#807);
#689=PLANE($,#808);
#690=PLANE($,#809);
#691=PLANE($,#810);
#692=PLANE($,#811);
#693=PLANE($,#812);
#694=PLANE($,#813);
#695=PLANE($,#814);
#696=PLANE($,#815);
#697=PLANE($,#816);
#698=PLANE($,#817);
#699=PLANE($,#818);
#700=PLANE($,#819);
#701=PLANE($,#820);
#702=PLANE($,#821);
#703=PLANE($,#822);
#704=PLANE($,#823);
#705=PLANE($,#824);
#706=PLANE($,#825);
#707=PLANE($,#826);
#708=PLANE($,#831);
#709=PLANE($,#836);
#710=ADVANCED_FACE($,(#41),#664,.T.);
#711=ADVANCED_FACE($,(#42),#665,.T.);
#712=ADVANCED_FACE($,(#43),#666,.F.);
#713=ADVANCED_FACE($,(#44),#667,.T.);
#714=ADVANCED_FACE($,(#45),#668,.T.);
#715=ADVANCED_FACE($,(#46),#669,.T.);
#716=ADVANCED_FACE($,(#47,#28),#38,.F.);
#717=ADVANCED_FACE($,(#48),#670,.F.);
#718=ADVANCED_FACE($,(#49,#29),#671,.T.);
#719=ADVANCED_FACE($,(#50),#672,.T.);
#720=ADVANCED_FACE($,(#51),#673,.T.);
#721=ADVANCED_FACE($,(#52),#674,.T.);
#722=ADVANCED_FACE($,(#53),#675,.F.);
#723=ADVANCED_FACE($,(#54),#676,.T.);
#724=ADVANCED_FACE($,(#55),#677,.T.);
#725=ADVANCED_FACE($,(#56),#678,.T.);
#726=ADVANCED_FACE($,(#57),#679,.T.);
#727=ADVANCED_FACE($,(#58),#680,.T.);
#728=ADVANCED_FACE($,(#59),#681,.F.);
#729=ADVANCED_FACE($,(#60),#682,.T.);
#730=ADVANCED_FACE($,(#61),#683,.T.);
#731=ADVANCED_FACE($,(#62),#684,.T.);
#732=ADVANCED_FACE($,(#63),#685,.T.);
#733=ADVANCED_FACE($,(#64),#686,.T.);
#734=ADVANCED_FACE($,(#65),#687,.T.);
#735=ADVANCED_FACE($,(#66),#688,.F.);
#736=ADVANCED_FACE($,(#67),#689,.T.);
#737=ADVANCED_FACE($,(#68),#690,.T.);
#738=ADVANCED_FACE($,(#69),#691,.T.);
#739=ADVANCED_FACE($,(#70),#692,.T.);
#740=ADVANCED_FACE($,(#71),#693,.T.);
#741=ADVANCED_FACE($,(#72),#694,.F.);
#742=ADVANCED_FACE($,(#73),#695,.T.);
#743=ADVANCED_FACE($,(#74),#696,.T.);
#744=ADVANCED_FACE($,(#75),#697,.T.);
#745=ADVANCED_FACE($,(#76),#698,.T.);
#746=ADVANCED_FACE($,(#77),#699,.T.);
#747=ADVANCED_FACE($,(#78),#700,.F.);
#748=ADVANCED_FACE($,(#79),#701,.T.);
#749=ADVANCED_FACE($,(#80),#702,.T.);
#750=ADVANCED_FACE($,(#81),#703,.T.);
#751=ADVANCED_FACE($,(#82),#704,.T.);
#752=ADVANCED_FACE($,(#83),#705,.T.);
#753=ADVANCED_FACE($,(#84),#706,.F.);
#754=ADVANCED_FACE($,(#85),#707,.T.);
#755=ADVANCED_FACE($,(#86,#30),#39,.T.);
#756=ADVANCED_FACE($,(#87),#15,.T.);
#757=ADVANCED_FACE($,(#88),#708,.F.);
#758=ADVANCED_FACE($,(#89,#31),#40,.T.);
#759=ADVANCED_FACE($,(#90),#16,.T.);
#760=ADVANCED_FACE($,(#91),#709,.F.);
#761=CLOSED_SHELL($,(#710,#711,#712,#713,#714,#715,#716,#717,#718));
#762=CLOSED_SHELL($,(#719,#720,#721,#722,#723,#724));
#763=CLOSED_SHELL($,(#725,#726,#727,#728,#729,#730));
#764=CLOSED_SHELL($,(#731,#732,#733,#734,#735,#736));
#765=CLOSED_SHELL($,(#737,#738,#739,#740,#741,#742));
#766=CLOSED_SHELL($,(#743,#744,#745,#746,#747,#748));
#767=CLOSED_SHELL($,(#749,#750,#751,#752,#753,#754));
#768=CLOSED_SHELL($,(#755,#756,#757));
#769=CLOSED_SHELL($,(#758,#759,#760));
#770=MANIFOLD_SOLID_BREP('834',#761);
#771=MANIFOLD_SOLID_BREP('835',#762);
#772=MANIFOLD_SOLID_BREP('836',#763);
#773=MANIFOLD_SOLID_BREP('837',#764);
#774=MANIFOLD_SOLID_BREP('838',#765);
#775=MANIFOLD_SOLID_BREP('839',#766);
#776=MANIFOLD_SOLID_BREP('83A',#767);
#777=MANIFOLD_SOLID_BREP('83B',#768);
#778=MANIFOLD_SOLID_BREP('83C',#769);
#779=AXIS2_PLACEMENT_3D('placement',#1040,#837,#838);
#780=AXIS2_PLACEMENT_3D($,#1041,#839,#840);
#781=AXIS2_PLACEMENT_3D($,#1050,#845,#846);
#782=AXIS2_PLACEMENT_3D($,#1056,#850,#851);
#783=AXIS2_PLACEMENT_3D($,#1062,#855,#856);
#784=AXIS2_PLACEMENT_3D($,#1068,#860,#861);
#785=AXIS2_PLACEMENT_3D($,#1070,#863,#864);
#786=AXIS2_PLACEMENT_3D($,#1072,#866,#867);
#787=AXIS2_PLACEMENT_3D($,#1074,#868,#869);
#788=AXIS2_PLACEMENT_3D($,#1076,#870,#871);
#789=AXIS2_PLACEMENT_3D($,#1077,#872,#873);
#790=AXIS2_PLACEMENT_3D($,#1078,#874,#875);
#791=AXIS2_PLACEMENT_3D($,#1079,#876,#877);
#792=AXIS2_PLACEMENT_3D($,#1088,#882,#883);
#793=AXIS2_PLACEMENT_3D($,#1094,#887,#888);
#794=AXIS2_PLACEMENT_3D($,#1100,#892,#893);
#795=AXIS2_PLACEMENT_3D($,#1103,#896,#897);
#796=AXIS2_PLACEMENT_3D($,#1104,#898,#899);
#797=AXIS2_PLACEMENT_3D($,#1105,#900,#901);
#798=AXIS2_PLACEMENT_3D($,#1114,#906,#907);
#799=AXIS2_PLACEMENT_3D($,#1120,#911,#912);
#800=AXIS2_PLACEMENT_3D($,#1126,#916,#917);
#801=AXIS2_PLACEMENT_3D($,#1129,#920,#921);
#802=AXIS2_PLACEMENT_3D($,#1130,#922,#923);
#803=AXIS2_PLACEMENT_3D($,#1131,#924,#925);
#804=AXIS2_PLACEMENT_3D($,#1140,#930,#931);
#805=AXIS2_PLACEMENT_3D($,#1146,#935,#936);
#806=AXIS2_PLACEMENT_3D($,#1152,#940,#941);
#807=AXIS2_PLACEMENT_3D($,#1155,#944,#945);
#808=AXIS2_PLACEMENT_3D($,#1156,#946,#947);
#809=AXIS2_PLACEMENT_3D($,#1157,#948,#949);
#810=AXIS2_PLACEMENT_3D($,#1166,#954,#955);
#811=AXIS2_PLACEMENT_3D($,#1172,#959,#960);
#812=AXIS2_PLACEMENT_3D($,#1178,#964,#965);
#813=AXIS2_PLACEMENT_3D($,#1181,#968,#969);
#814=AXIS2_PLACEMENT_3D($,#1182,#970,#971);
#815=AXIS2_PLACEMENT_3D($,#1183,#972,#973);
#816=AXIS2_PLACEMENT_3D($,#1192,#978,#979);
#817=AXIS2_PLACEMENT_3D($,#1198,#983,#984);
#818=AXIS2_PLACEMENT_3D($,#1204,#988,#989);
#819=AXIS2_PLACEMENT_3D($,#1207,#992,#993);
#820=AXIS2_PLACEMENT_3D($,#1208,#994,#995);
#821=AXIS2_PLACEMENT_3D($,#1209,#996,#997);
#822=AXIS2_PLACEMENT_3D($,#1218,#1002,#1003);
#823=AXIS2_PLACEMENT_3D($,#1224,#1007,#1008);
#824=AXIS2_PLACEMENT_3D($,#1230,#1012,#1013);
#825=AXIS2_PLACEMENT_3D($,#1233,#1016,#1017);
#826=AXIS2_PLACEMENT_3D($,#1234,#1018,#1019);
#827=AXIS2_PLACEMENT_3D($,#1235,#1020,#1021);
#828=AXIS2_PLACEMENT_3D($,#1237,#1022,#1023);
#829=AXIS2_PLACEMENT_3D($,#1239,#1024,#1025);
#830=AXIS2_PLACEMENT_3D($,#1240,#1026,#1027);
#831=AXIS2_PLACEMENT_3D($,#1241,#1028,#1029);
#832=AXIS2_PLACEMENT_3D($,#1242,#1030,#1031);
#833=AXIS2_PLACEMENT_3D($,#1244,#1032,#1033);
#834=AXIS2_PLACEMENT_3D($,#1246,#1034,#1035);
#835=AXIS2_PLACEMENT_3D($,#1247,#1036,#1037);
#836=AXIS2_PLACEMENT_3D($,#1248,#1038,#1039);
#837=DIRECTION('axis',(0.,0.,1.));
#838=DIRECTION('refdir',(1.,0.,0.));
#839=DIRECTION('center_axis',(0.,0.,1.));
#840=DIRECTION('ref_axis',(1.,0.,0.));
#841=DIRECTION($,(-1.,8.41875279336612E-17,0.));
#842=DIRECTION($,(0.,-1.,0.));
#843=DIRECTION($,(1.,0.,0.));
#844=DIRECTION($,(0.,1.,0.));
#845=DIRECTION('center_axis',(0.,1.,0.));
#846=DIRECTION('ref_axis',(0.,0.,1.));
#847=DIRECTION($,(0.,0.,1.));
#848=DIRECTION($,(1.,0.,0.));
#849=DIRECTION($,(0.,0.,1.));
#850=DIRECTION('center_axis',(0.,0.,1.));
#851=DIRECTION('ref_axis',(1.,0.,0.));
#852=DIRECTION($,(-1.,8.41875279336612E-17,0.));
#853=DIRECTION($,(0.,1.,0.));
#854=DIRECTION($,(0.,-1.,0.));
#855=DIRECTION('center_axis',(-8.41875279336612E-17,-1.,0.));
#856=DIRECTION('ref_axis',(0.,0.,-1.));
#857=DIRECTION($,(1.,-8.41875279336612E-17,0.));
#858=DIRECTION($,(0.,0.,1.));
#859=DIRECTION($,(0.,0.,1.));
#860=DIRECTION('center_axis',(1.,0.,0.));
#861=DIRECTION('ref_axis',(0.,0.,-1.));
#862=DIRECTION($,(0.,0.707106781186547,0.707106781186548));
#863=DIRECTION('center_axis',(-5.95295718932237E-17,-0.707106781186548,
0.707106781186547));
#864=DIRECTION('ref_axis',(1.,0.,0.));
#865=DIRECTION($,(0.,-0.707106781186547,-0.707106781186548));
#866=DIRECTION('center_axis',(1.,0.,0.));
#867=DIRECTION('ref_axis',(0.,1.,0.));
#868=DIRECTION('center_axis',(-1.,2.22044604925031E-16,-4.93038065763132E-32));
#869=DIRECTION('ref_axis',(2.22044604925031E-16,1.,0.));
#870=DIRECTION('center_axis',(1.,0.,0.));
#871=DIRECTION('ref_axis',(0.,1.,0.));
#872=DIRECTION('center_axis',(1.,-2.22044604925031E-16,4.93038065763132E-32));
#873=DIRECTION('ref_axis',(0.,0.,-1.));
#874=DIRECTION('center_axis',(-1.,0.,0.));
#875=DIRECTION('ref_axis',(0.,0.,1.));
#876=DIRECTION('center_axis',(0.,-1.,0.));
#877=DIRECTION('ref_axis',(0.,0.,-1.));
#878=DIRECTION($,(1.,0.,0.));
#879=DIRECTION($,(0.,0.,-1.));
#880=DIRECTION($,(1.,0.,0.));
#881=DIRECTION($,(0.,0.,-1.));
#882=DIRECTION('center_axis',(0.,0.,1.));
#883=DIRECTION('ref_axis',(1.,0.,0.));
#884=DIRECTION($,(-1.,0.,0.));
#885=DIRECTION($,(0.,-1.,0.));
#886=DIRECTION($,(0.,1.,0.));
#887=DIRECTION('center_axis',(0.,1.,0.));
#888=DIRECTION('ref_axis',(0.,0.,1.));
#889=DIRECTION($,(-1.,0.,0.));
#890=DIRECTION($,(0.,0.,-1.));
#891=DIRECTION($,(0.,0.,-1.));
#892=DIRECTION('center_axis',(0.,0.,1.));
#893=DIRECTION('ref_axis',(1.,0.,0.));
#894=DIRECTION($,(0.,-1.,0.));
#895=DIRECTION($,(0.,1.,0.));
#896=DIRECTION('center_axis',(-1.,0.,0.));
#897=DIRECTION('ref_axis',(0.,0.,1.));
#898=DIRECTION('center_axis',(1.,0.,0.));
#899=DIRECTION('ref_axis',(0.,0.,-1.));
#900=DIRECTION('center_axis',(0.,-1.,0.));
#901=DIRECTION('ref_axis',(0.,0.,-1.));
#902=DIRECTION($,(1.,0.,0.));
#903=DIRECTION($,(0.,0.,-1.));
#904=DIRECTION($,(1.,0.,0.));
#905=DIRECTION($,(0.,0.,-1.));
#906=DIRECTION('center_axis',(0.,0.,1.));
#907=DIRECTION('ref_axis',(1.,0.,0.));
#908=DIRECTION($,(-1.,0.,0.));
#909=DIRECTION($,(0.,-1.,0.));
#910=DIRECTION($,(0.,1.,0.));
#911=DIRECTION('center_axis',(0.,1.,0.));
#912=DIRECTION('ref_axis',(0.,0.,1.));
#913=DIRECTION($,(-1.,0.,0.));
#914=DIRECTION($,(0.,0.,-1.));
#915=DIRECTION($,(0.,0.,-1.));
#916=DIRECTION('center_axis',(0.,0.,1.));
#917=DIRECTION('ref_axis',(1.,0.,0.));
#918=DIRECTION($,(0.,-1.,0.));
#919=DIRECTION($,(0.,1.,0.));
#920=DIRECTION('center_axis',(-1.,0.,0.));
#921=DIRECTION('ref_axis',(0.,0.,1.));
#922=DIRECTION('center_axis',(1.,0.,0.));
#923=DIRECTION('ref_axis',(0.,0.,-1.));
#924=DIRECTION('center_axis',(0.,-1.,0.));
#925=DIRECTION('ref_axis',(0.,0.,-1.));
#926=DIRECTION($,(1.,0.,0.));
#927=DIRECTION($,(0.,0.,-1.));
#928=DIRECTION($,(-1.,0.,0.));
#929=DIRECTION($,(0.,0.,-1.));
#930=DIRECTION('center_axis',(1.,0.,0.));
#931=DIRECTION('ref_axis',(0.,0.,-1.));
#932=DIRECTION($,(0.,1.,0.));
#933=DIRECTION($,(0.,0.,-1.));
#934=DIRECTION($,(0.,-1.,0.));
#935=DIRECTION('center_axis',(0.,1.,0.));
#936=DIRECTION('ref_axis',(0.,0.,1.));
#937=DIRECTION($,(-1.,0.,0.));
#938=DIRECTION($,(0.,0.,-1.));
#939=DIRECTION($,(1.,0.,0.));
#940=DIRECTION('center_axis',(-1.,0.,0.));
#941=DIRECTION('ref_axis',(0.,0.,1.));
#942=DIRECTION($,(0.,-1.,0.));
#943=DIRECTION($,(0.,1.,0.));
#944=DIRECTION('center_axis',(0.,0.,1.));
#945=DIRECTION('ref_axis',(1.,0.,0.));
#946=DIRECTION('center_axis',(0.,0.,1.));
#947=DIRECTION('ref_axis',(1.,0.,0.));
#948=DIRECTION('center_axis',(0.,-1.,0.));
#949=DIRECTION('ref_axis',(0.,0.,-1.));
#950=DIRECTION($,(1.,0.,0.));
#951=DIRECTION($,(0.,0.,-1.));
#952=DIRECTION($,(-1.,0.,0.));
#953=DIRECTION($,(0.,0.,-1.));
#954=DIRECTION('center_axis',(1.,0.,0.));
#955=DIRECTION('ref_axis',(0.,0.,-1.));
#956=DIRECTION($,(0.,1.,0.));
#957=DIRECTION($,(0.,0.,-1.));
#958=DIRECTION($,(0.,-1.,0.));
#959=DIRECTION('center_axis',(0.,1.,0.));
#960=DIRECTION('ref_axis',(0.,0.,1.));
#961=DIRECTION($,(-1.,0.,0.));
#962=DIRECTION($,(0.,0.,-1.));
#963=DIRECTION($,(1.,0.,0.));
#964=DIRECTION('center_axis',(-1.,0.,0.));
#965=DIRECTION('ref_axis',(0.,0.,1.));
#966=DIRECTION($,(0.,-1.,0.));
#967=DIRECTION($,(0.,1.,0.));
#968=DIRECTION('center_axis',(0.,0.,1.));
#969=DIRECTION('ref_axis',(1.,0.,0.));
#970=DIRECTION('center_axis',(0.,0.,1.));
#971=DIRECTION('ref_axis',(1.,0.,0.));
#972=DIRECTION('center_axis',(0.,-1.,0.));
#973=DIRECTION('ref_axis',(0.,0.,-1.));
#974=DIRECTION($,(1.,0.,0.));
#975=DIRECTION($,(0.,0.,-1.));
#976=DIRECTION($,(-1.,0.,0.));
#977=DIRECTION($,(0.,0.,-1.));
#978=DIRECTION('center_axis',(1.,0.,0.));
#979=DIRECTION('ref_axis',(0.,0.,-1.));
#980=DIRECTION($,(0.,1.,0.));
#981=DIRECTION($,(0.,0.,-1.));
#982=DIRECTION($,(0.,-1.,0.));
#983=DIRECTION('center_axis',(0.,1.,0.));
#984=DIRECTION('ref_axis',(0.,0.,1.));
#985=DIRECTION($,(-1.,0.,0.));
#986=DIRECTION($,(0.,0.,-1.));
#987=DIRECTION($,(1.,0.,0.));
#988=DIRECTION('center_axis',(-1.,0.,0.));
#989=DIRECTION('ref_axis',(0.,0.,1.));
#990=DIRECTION($,(0.,-1.,0.));
#991=DIRECTION($,(0.,1.,0.));
#992=DIRECTION('center_axis',(0.,0.,1.));
#993=DIRECTION('ref_axis',(1.,0.,0.));
#994=DIRECTION('center_axis',(0.,0.,1.));
#995=DIRECTION('ref_axis',(1.,0.,0.));
#996=DIRECTION('center_axis',(0.,-1.,0.));
#997=DIRECTION('ref_axis',(0.,0.,-1.));
#998=DIRECTION($,(1.,0.,0.));
#999=DIRECTION($,(0.,0.,-1.));
#1000=DIRECTION($,(-1.,0.,0.));
#1001=DIRECTION($,(0.,0.,-1.));
#1002=DIRECTION('center_axis',(1.,0.,0.));
#1003=DIRECTION('ref_axis',(0.,0.,-1.));
#1004=DIRECTION($,(0.,1.,0.));
#1005=DIRECTION($,(0.,0.,-1.));
#1006=DIRECTION($,(0.,-1.,0.));
#1007=DIRECTION('center_axis',(0.,1.,0.));
#1008=DIRECTION('ref_axis',(0.,0.,1.));
#1009=DIRECTION($,(-1.,0.,0.));
#1010=DIRECTION($,(0.,0.,-1.));
#1011=DIRECTION($,(1.,0.,0.));
#1012=DIRECTION('center_axis',(-1.,0.,0.));
#1013=DIRECTION('ref_axis',(0.,0.,1.));
#1014=DIRECTION($,(0.,-1.,0.));
#1015=DIRECTION($,(0.,1.,0.));
#1016=DIRECTION('center_axis',(0.,0.,1.));
#1017=DIRECTION('ref_axis',(1.,0.,0.));
#1018=DIRECTION('center_axis',(0.,0.,1.));
#1019=DIRECTION('ref_axis',(1.,0.,0.));
#1020=DIRECTION('center_axis',(-1.,4.31154572669964E-16,-4.31154572669964E-16));
#1021=DIRECTION('ref_axis',(-4.31154572669964E-16,-1.,5.57682796602659E-33));
#1022=DIRECTION('center_axis',(-1.,4.31154572669964E-16,-4.31154572669964E-16));
#1023=DIRECTION('ref_axis',(0.,-1.,0.));
#1024=DIRECTION('center_axis',(1.,-4.44089209850063E-16,2.22044604925031E-16));
#1025=DIRECTION('ref_axis',(-4.31154572669964E-16,-1.,5.57682796602659E-33));
#1026=DIRECTION('center_axis',(-1.,3.82856869892695E-16,0.));
#1027=DIRECTION('ref_axis',(-6.125368411725E-16,-1.,0.));
#1028=DIRECTION('center_axis',(-1.,4.44089209850063E-16,-2.22044604925031E-16));
#1029=DIRECTION('ref_axis',(0.,0.,1.));
#1030=DIRECTION('center_axis',(-1.,4.31154572669964E-16,-4.31154572669964E-16));
#1031=DIRECTION('ref_axis',(-4.31154572669964E-16,-1.,5.57682796602659E-33));
#1032=DIRECTION('center_axis',(-1.,4.31154572669964E-16,-4.31154572669964E-16));
#1033=DIRECTION('ref_axis',(0.,-1.,0.));
#1034=DIRECTION('center_axis',(-1.,4.44089209850063E-16,-2.22044604925031E-16));
#1035=DIRECTION('ref_axis',(-4.44089209850063E-16,-1.,0.));
#1036=DIRECTION('center_axis',(-1.,3.82856869892695E-16,-3.0626842058625E-16));
#1037=DIRECTION('ref_axis',(-6.125368411725E-16,-1.,3.0626842058625E-16));
#1038=DIRECTION('center_axis',(-1.,4.44089209850063E-16,-2.22044604925031E-16));
#1039=DIRECTION('ref_axis',(0.,0.,1.));
#1040=CARTESIAN_POINT('',(0.,0.,0.));
#1041=CARTESIAN_POINT('Origin',(-0.44,1.21071799376742E-15,9.65));
#1042=CARTESIAN_POINT('',(2.413,-1.86,9.65));
#1043=CARTESIAN_POINT('',(-5.715,-1.86,9.65));
#1044=CARTESIAN_POINT($,(2.1975,-1.86,9.65));
#1045=CARTESIAN_POINT('',(2.413,2.16,9.65));
#1046=CARTESIAN_POINT($,(2.413,2.16,9.65));
#1047=CARTESIAN_POINT('',(-5.715,2.16,9.65));
#1048=CARTESIAN_POINT($,(-5.715,2.16,9.65));
#1049=CARTESIAN_POINT($,(-5.715,-2.16,9.65));
#1050=CARTESIAN_POINT('Origin',(-5.715,2.16,0.5));
#1051=CARTESIAN_POINT('',(2.413,2.16,0.5));
#1052=CARTESIAN_POINT($,(2.413,2.16,0.5));
#1053=CARTESIAN_POINT('',(-5.715,2.16,0.5));
#1054=CARTESIAN_POINT($,(-5.715,2.16,0.5));
#1055=CARTESIAN_POINT($,(-5.715,2.16,0.5));
#1056=CARTESIAN_POINT('Origin',(-0.44,1.21071799376742E-15,0.5));
#1057=CARTESIAN_POINT('',(2.413,-2.16,0.5));
#1058=CARTESIAN_POINT('',(-5.715,-2.16,0.5));
#1059=CARTESIAN_POINT($,(4.835,-2.16,0.5));
#1060=CARTESIAN_POINT($,(-5.715,-2.16,0.5));
#1061=CARTESIAN_POINT($,(2.413,2.16,0.5));
#1062=CARTESIAN_POINT('Origin',(4.835,-2.16,0.5));
#1063=CARTESIAN_POINT('',(-5.715,-2.16,9.35));
#1064=CARTESIAN_POINT('',(2.413,-2.16,9.35));
#1065=CARTESIAN_POINT($,(2.1975,-2.16,9.35));
#1066=CARTESIAN_POINT($,(-5.715,-2.16,0.5));
#1067=CARTESIAN_POINT($,(2.413,-2.16,0.5));
#1068=CARTESIAN_POINT('Origin',(2.413,2.16,0.5));
#1069=CARTESIAN_POINT($,(2.413,-3.2175,8.2925));
#1070=CARTESIAN_POINT('Origin',(2.1975,-2.01,9.5));
#1071=CARTESIAN_POINT($,(-5.715,-4.2975,7.2125));
#1072=CARTESIAN_POINT('Origin',(-5.715,-1.16,4.925));
#1073=CARTESIAN_POINT('',(-5.515,-0.659999999999998,4.925));
#1074=CARTESIAN_POINT('Origin',(-5.515,-1.16,4.925));
#1075=CARTESIAN_POINT('',(-5.715,-0.659999999999998,4.925));
#1076=CARTESIAN_POINT('Origin',(-5.715,-1.16,4.925));
#1077=CARTESIAN_POINT('Origin',(-5.515,-1.16,4.925));
#1078=CARTESIAN_POINT('Origin',(-5.715,-2.16,0.5));
#1079=CARTESIAN_POINT('Origin',(-5.715,1.66,0.5));
#1080=CARTESIAN_POINT('',(-5.715,1.66,1.19413819527831E-31));
#1081=CARTESIAN_POINT('',(2.413,1.66,0.));
#1082=CARTESIAN_POINT($,(-5.715,1.66,1.19413819527831E-31));
#1083=CARTESIAN_POINT('',(2.413,1.66,0.5));
#1084=CARTESIAN_POINT($,(2.413,1.66,0.5));
#1085=CARTESIAN_POINT('',(-5.715,1.66,0.5));
#1086=CARTESIAN_POINT($,(-5.715,1.66,0.5));
#1087=CARTESIAN_POINT($,(-5.715,1.66,0.5));
#1088=CARTESIAN_POINT('Origin',(-0.44,1.91,0.5));
#1089=CARTESIAN_POINT('',(2.413,2.16,0.5));
#1090=CARTESIAN_POINT('',(-5.715,2.16,0.5));
#1091=CARTESIAN_POINT($,(4.835,2.16,0.5));
#1092=CARTESIAN_POINT($,(-5.715,2.16,0.5));
#1093=CARTESIAN_POINT($,(2.413,1.66,0.5));
#1094=CARTESIAN_POINT('Origin',(4.835,2.16,0.5));
#1095=CARTESIAN_POINT('',(2.413,2.16,0.));
#1096=CARTESIAN_POINT('',(-5.715,2.16,1.19413819527831E-31));
#1097=CARTESIAN_POINT($,(4.835,2.16,1.19413819527831E-31));
#1098=CARTESIAN_POINT($,(-5.715,2.16,0.5));
#1099=CARTESIAN_POINT($,(2.413,2.16,0.5));
#1100=CARTESIAN_POINT('Origin',(-0.44,1.91,1.19413819527831E-31));
#1101=CARTESIAN_POINT($,(-5.715,2.16,1.19413819527831E-31));
#1102=CARTESIAN_POINT($,(2.413,1.66,0.));
#1103=CARTESIAN_POINT('Origin',(-5.715,2.16,0.5));
#1104=CARTESIAN_POINT('Origin',(2.413,1.66,0.5));
#1105=CARTESIAN_POINT('Origin',(-5.715,-2.16,0.5));
#1106=CARTESIAN_POINT('',(-5.715,-2.16,1.19413819527831E-31));
#1107=CARTESIAN_POINT('',(2.413,-2.16,2.18952885050753E-47));
#1108=CARTESIAN_POINT($,(-5.715,-2.16,1.19413819527831E-31));
#1109=CARTESIAN_POINT('',(2.413,-2.16,0.5));
#1110=CARTESIAN_POINT($,(2.413,-2.16,0.5));
#1111=CARTESIAN_POINT('',(-5.715,-2.16,0.5));
#1112=CARTESIAN_POINT($,(-5.715,-2.16,0.5));
#1113=CARTESIAN_POINT($,(-5.715,-2.16,0.5));
#1114=CARTESIAN_POINT('Origin',(-0.44,-1.91,0.5));
#1115=CARTESIAN_POINT('',(2.413,-1.66,0.5));
#1116=CARTESIAN_POINT('',(-5.715,-1.66,0.5));
#1117=CARTESIAN_POINT($,(4.835,-1.66,0.5));
#1118=CARTESIAN_POINT($,(-5.715,-1.66,0.5));
#1119=CARTESIAN_POINT($,(2.413,-2.16,0.5));
#1120=CARTESIAN_POINT('Origin',(4.835,-1.66,0.5));
#1121=CARTESIAN_POINT('',(2.413,-1.66,2.18952885050753E-47));
#1122=CARTESIAN_POINT('',(-5.715,-1.66,1.19413819527831E-31));
#1123=CARTESIAN_POINT($,(4.835,-1.66,1.19413819527831E-31));
#1124=CARTESIAN_POINT($,(-5.715,-1.66,0.5));
#1125=CARTESIAN_POINT($,(2.413,-1.66,0.5));
#1126=CARTESIAN_POINT('Origin',(-0.44,-1.91,1.19413819527831E-31));
#1127=CARTESIAN_POINT($,(-5.715,-1.66,1.19413819527831E-31));
#1128=CARTESIAN_POINT($,(2.413,-2.16,2.18952885050753E-47));
#1129=CARTESIAN_POINT('Origin',(-5.715,-1.66,0.5));
#1130=CARTESIAN_POINT('Origin',(2.413,-2.16,0.5));
#1131=CARTESIAN_POINT('Origin',(1.04,1.04,0.500000000000001));
#1132=CARTESIAN_POINT('',(1.04,1.04,-3.68));
#1133=CARTESIAN_POINT('',(1.5,1.04,-3.68));
#1134=CARTESIAN_POINT($,(1.5,1.04,-3.68));
#1135=CARTESIAN_POINT('',(1.5,1.04,0.500000000000001));
#1136=CARTESIAN_POINT($,(1.5,1.04,0.500000000000001));
#1137=CARTESIAN_POINT('',(1.04,1.04,0.500000000000001));
#1138=CARTESIAN_POINT($,(1.5,1.04,0.500000000000001));
#1139=CARTESIAN_POINT($,(1.04,1.04,0.500000000000001));
#1140=CARTESIAN_POINT('Origin',(1.5,1.04,0.500000000000001));
#1141=CARTESIAN_POINT('',(1.5,1.5,-3.68));
#1142=CARTESIAN_POINT($,(1.5,1.5,-3.68));
#1143=CARTESIAN_POINT('',(1.5,1.5,0.500000000000001));
#1144=CARTESIAN_POINT($,(1.5,1.5,0.500000000000001));
#1145=CARTESIAN_POINT($,(1.5,1.5,0.500000000000001));
#1146=CARTESIAN_POINT('Origin',(1.5,1.5,0.500000000000001));
#1147=CARTESIAN_POINT('',(1.04,1.5,-3.68));
#1148=CARTESIAN_POINT($,(1.04,1.5,-3.68));
#1149=CARTESIAN_POINT('',(1.04,1.5,0.500000000000001));
#1150=CARTESIAN_POINT($,(1.04,1.5,0.500000000000001));
#1151=CARTESIAN_POINT($,(1.04,1.5,0.500000000000001));
#1152=CARTESIAN_POINT('Origin',(1.04,1.5,0.500000000000001));
#1153=CARTESIAN_POINT($,(1.04,1.04,-3.68));
#1154=CARTESIAN_POINT($,(1.04,1.04,0.500000000000001));
#1155=CARTESIAN_POINT('Origin',(1.27,1.27,-3.68));
#1156=CARTESIAN_POINT('Origin',(1.27,1.27,0.500000000000001));
#1157=CARTESIAN_POINT('Origin',(-1.5,1.04,0.500000000000001));
#1158=CARTESIAN_POINT('',(-1.5,1.04,-3.68));
#1159=CARTESIAN_POINT('',(-1.04,1.04,-3.68));
#1160=CARTESIAN_POINT($,(-1.04,1.04,-3.68));
#1161=CARTESIAN_POINT('',(-1.04,1.04,0.500000000000001));
#1162=CARTESIAN_POINT($,(-1.04,1.04,0.500000000000001));
#1163=CARTESIAN_POINT('',(-1.5,1.04,0.500000000000001));
#1164=CARTESIAN_POINT($,(-1.04,1.04,0.500000000000001));
#1165=CARTESIAN_POINT($,(-1.5,1.04,0.500000000000001));
#1166=CARTESIAN_POINT('Origin',(-1.04,1.04,0.500000000000001));
#1167=CARTESIAN_POINT('',(-1.04,1.5,-3.68));
#1168=CARTESIAN_POINT($,(-1.04,1.5,-3.68));
#1169=CARTESIAN_POINT('',(-1.04,1.5,0.500000000000001));
#1170=CARTESIAN_POINT($,(-1.04,1.5,0.500000000000001));
#1171=CARTESIAN_POINT($,(-1.04,1.5,0.500000000000001));
#1172=CARTESIAN_POINT('Origin',(-1.04,1.5,0.500000000000001));
#1173=CARTESIAN_POINT('',(-1.5,1.5,-3.68));
#1174=CARTESIAN_POINT($,(-1.5,1.5,-3.68));
#1175=CARTESIAN_POINT('',(-1.5,1.5,0.500000000000001));
#1176=CARTESIAN_POINT($,(-1.5,1.5,0.500000000000001));
#1177=CARTESIAN_POINT($,(-1.5,1.5,0.500000000000001));
#1178=CARTESIAN_POINT('Origin',(-1.5,1.5,0.500000000000001));
#1179=CARTESIAN_POINT($,(-1.5,1.04,-3.68));
#1180=CARTESIAN_POINT($,(-1.5,1.04,0.500000000000001));
#1181=CARTESIAN_POINT('Origin',(-1.27,1.27,-3.68));
#1182=CARTESIAN_POINT('Origin',(-1.27,1.27,0.500000000000001));
#1183=CARTESIAN_POINT('Origin',(-1.5,-1.5,0.500000000000001));
#1184=CARTESIAN_POINT('',(-1.5,-1.5,-3.68));
#1185=CARTESIAN_POINT('',(-1.04,-1.5,-3.68));
#1186=CARTESIAN_POINT($,(-1.04,-1.5,-3.68));
#1187=CARTESIAN_POINT('',(-1.04,-1.5,0.500000000000001));
#1188=CARTESIAN_POINT($,(-1.04,-1.5,0.500000000000001));
#1189=CARTESIAN_POINT('',(-1.5,-1.5,0.500000000000001));
#1190=CARTESIAN_POINT($,(-1.04,-1.5,0.500000000000001));
#1191=CARTESIAN_POINT($,(-1.5,-1.5,0.500000000000001));
#1192=CARTESIAN_POINT('Origin',(-1.04,-1.5,0.500000000000001));
#1193=CARTESIAN_POINT('',(-1.04,-1.04,-3.68));
#1194=CARTESIAN_POINT($,(-1.04,-1.04,-3.68));
#1195=CARTESIAN_POINT('',(-1.04,-1.04,0.500000000000001));
#1196=CARTESIAN_POINT($,(-1.04,-1.04,0.500000000000001));
#1197=CARTESIAN_POINT($,(-1.04,-1.04,0.500000000000001));
#1198=CARTESIAN_POINT('Origin',(-1.04,-1.04,0.500000000000001));
#1199=CARTESIAN_POINT('',(-1.5,-1.04,-3.68));
#1200=CARTESIAN_POINT($,(-1.5,-1.04,-3.68));
#1201=CARTESIAN_POINT('',(-1.5,-1.04,0.500000000000001));
#1202=CARTESIAN_POINT($,(-1.5,-1.04,0.500000000000001));
#1203=CARTESIAN_POINT($,(-1.5,-1.04,0.500000000000001));
#1204=CARTESIAN_POINT('Origin',(-1.5,-1.04,0.500000000000001));
#1205=CARTESIAN_POINT($,(-1.5,-1.5,-3.68));
#1206=CARTESIAN_POINT($,(-1.5,-1.5,0.500000000000001));
#1207=CARTESIAN_POINT('Origin',(-1.27,-1.27,-3.68));
#1208=CARTESIAN_POINT('Origin',(-1.27,-1.27,0.500000000000001));
#1209=CARTESIAN_POINT('Origin',(1.04,-1.5,0.500000000000001));
#1210=CARTESIAN_POINT('',(1.04,-1.5,-3.68));
#1211=CARTESIAN_POINT('',(1.5,-1.5,-3.68));
#1212=CARTESIAN_POINT($,(1.5,-1.5,-3.68));
#1213=CARTESIAN_POINT('',(1.5,-1.5,0.500000000000001));
#1214=CARTESIAN_POINT($,(1.5,-1.5,0.500000000000001));
#1215=CARTESIAN_POINT('',(1.04,-1.5,0.500000000000001));
#1216=CARTESIAN_POINT($,(1.5,-1.5,0.500000000000001));
#1217=CARTESIAN_POINT($,(1.04,-1.5,0.500000000000001));
#1218=CARTESIAN_POINT('Origin',(1.5,-1.5,0.500000000000001));
#1219=CARTESIAN_POINT('',(1.5,-1.04,-3.68));
#1220=CARTESIAN_POINT($,(1.5,-1.04,-3.68));
#1221=CARTESIAN_POINT('',(1.5,-1.04,0.500000000000001));
#1222=CARTESIAN_POINT($,(1.5,-1.04,0.500000000000001));
#1223=CARTESIAN_POINT($,(1.5,-1.04,0.500000000000001));
#1224=CARTESIAN_POINT('Origin',(1.5,-1.04,0.500000000000001));
#1225=CARTESIAN_POINT('',(1.04,-1.04,-3.68));
#1226=CARTESIAN_POINT($,(1.04,-1.04,-3.68));
#1227=CARTESIAN_POINT('',(1.04,-1.04,0.500000000000001));
#1228=CARTESIAN_POINT($,(1.04,-1.04,0.500000000000001));
#1229=CARTESIAN_POINT($,(1.04,-1.04,0.500000000000001));
#1230=CARTESIAN_POINT('Origin',(1.04,-1.04,0.500000000000001));
#1231=CARTESIAN_POINT($,(1.04,-1.5,-3.68));
#1232=CARTESIAN_POINT($,(1.04,-1.5,0.500000000000001));
#1233=CARTESIAN_POINT('Origin',(1.27,-1.27,-3.68));
#1234=CARTESIAN_POINT('Origin',(1.27,-1.27,0.500000000000001));
#1235=CARTESIAN_POINT('Origin',(-5.715,2.93542967710891E-15,7.62));
#1236=CARTESIAN_POINT('',(-7.475,1.45,7.62));
#1237=CARTESIAN_POINT('Origin',(-7.475,3.69426172500805E-15,7.62));
#1238=CARTESIAN_POINT('',(-5.715,1.45,7.62));
#1239=CARTESIAN_POINT('Origin',(-5.715,2.80608330530792E-15,7.62));
#1240=CARTESIAN_POINT('Origin',(-7.475,3.82360809680904E-15,7.62));
#1241=CARTESIAN_POINT('Origin',(-5.715,2.93542967710891E-15,7.62));
#1242=CARTESIAN_POINT('Origin',(-5.415,2.04725125740879E-15,2.54));
#1243=CARTESIAN_POINT('',(-7.475,-1.45,2.54));
#1244=CARTESIAN_POINT('Origin',(-7.475,2.93542967710891E-15,2.54));
#1245=CARTESIAN_POINT('',(-5.715,-1.45,2.54));
#1246=CARTESIAN_POINT('Origin',(-5.715,2.04725125740879E-15,2.54));
#1247=CARTESIAN_POINT('Origin',(-7.475,2.93542967710891E-15,2.54));
#1248=CARTESIAN_POINT('Origin',(-5.715,2.04725125740879E-15,2.54));
#1249=UNCERTAINTY_MEASURE_WITH_UNIT(LENGTH_MEASURE(0.01),#1253,
'DISTANCE_ACCURACY_VALUE',
'Maximum model space distance between geometric entities at asserted c
onnectivities');
#1250=UNCERTAINTY_MEASURE_WITH_UNIT(LENGTH_MEASURE(1.E-6),#1253,
'DISTANCE_ACCURACY_VALUE',
'Maximum model space distance between geometric entities at asserted c
onnectivities');
#1251=(
GEOMETRIC_REPRESENTATION_CONTEXT(3)
GLOBAL_UNCERTAINTY_ASSIGNED_CONTEXT((#1249))
GLOBAL_UNIT_ASSIGNED_CONTEXT((#1253,#1255,#1254))
REPRESENTATION_CONTEXT('','3D')
);
#1252=(
GEOMETRIC_REPRESENTATION_CONTEXT(3)
GLOBAL_UNCERTAINTY_ASSIGNED_CONTEXT((#1250))
GLOBAL_UNIT_ASSIGNED_CONTEXT((#1253,#12,#1254))
REPRESENTATION_CONTEXT('','3D')
);
#1253=(
LENGTH_UNIT()
NAMED_UNIT(*)
SI_UNIT(.MILLI.,.METRE.)
);
#1254=(
NAMED_UNIT(*)
SI_UNIT($,.STERADIAN.)
SOLID_ANGLE_UNIT()
);
#1255=(
NAMED_UNIT(*)
PLANE_ANGLE_UNIT()
SI_UNIT($,.RADIAN.)
);
#1256=SHAPE_DEFINITION_REPRESENTATION(#1257,#1258);
#1257=PRODUCT_DEFINITION_SHAPE('',$,#1260);
#1258=SHAPE_REPRESENTATION('',(#779),#1251);
#1259=PRODUCT_DEFINITION_CONTEXT('part definition',#1264,'design');
#1260=PRODUCT_DEFINITION('Product','Product',#1261,#1259);
#1261=PRODUCT_DEFINITION_FORMATION('',$,#1266);
#1262=PRODUCT_RELATED_PRODUCT_CATEGORY('Product','Product',(#1266));
#1263=APPLICATION_PROTOCOL_DEFINITION('international standard',
'automotive_design',2009,#1264);
#1264=APPLICATION_CONTEXT(
'Core Data for Automotive Mechanical Design Process');
#1265=PRODUCT_CONTEXT('part definition',#1264,'mechanical');
#1266=PRODUCT('Product','Product',$,(#1265));
#1267=PRESENTATION_STYLE_ASSIGNMENT((#1271));
#1268=PRESENTATION_STYLE_ASSIGNMENT((#1272));
#1269=PRESENTATION_STYLE_ASSIGNMENT((#1273));
#1270=PRESENTATION_STYLE_ASSIGNMENT((#1274));
#1271=SURFACE_STYLE_USAGE(.BOTH.,#1275);
#1272=SURFACE_STYLE_USAGE(.BOTH.,#1276);
#1273=SURFACE_STYLE_USAGE(.BOTH.,#1277);
#1274=SURFACE_STYLE_USAGE(.BOTH.,#1278);
#1275=SURFACE_SIDE_STYLE($,(#1279));
#1276=SURFACE_SIDE_STYLE($,(#1280));
#1277=SURFACE_SIDE_STYLE($,(#1281));
#1278=SURFACE_SIDE_STYLE($,(#1282));
#1279=SURFACE_STYLE_FILL_AREA(#1283);
#1280=SURFACE_STYLE_FILL_AREA(#1284);
#1281=SURFACE_STYLE_FILL_AREA(#1285);
#1282=SURFACE_STYLE_FILL_AREA(#1286);
#1283=FILL_AREA_STYLE($,(#1287));
#1284=FILL_AREA_STYLE($,(#1288));
#1285=FILL_AREA_STYLE($,(#1289));
#1286=FILL_AREA_STYLE($,(#1290));
#1287=FILL_AREA_STYLE_COLOUR($,#1291);
#1288=FILL_AREA_STYLE_COLOUR($,#1292);
#1289=FILL_AREA_STYLE_COLOUR($,#1293);
#1290=FILL_AREA_STYLE_COLOUR($,#1294);
#1291=COLOUR_RGB('',1.,1.,1.);
#1292=COLOUR_RGB('',0.329411764705882,0.329411764705882,0.329411764705882);
#1293=COLOUR_RGB('',0.733333333333333,0.733333333333333,0.733333333333333);
#1294=COLOUR_RGB('',0.,1.,0.);
ENDSEC;
END-ISO-10303-21;
