ISO-10303-21;
HEADER;
/****************************************************************
 * Generated by software with PDElib inside                    *
 * PDElib Version v51a, created Fri 09/10/2010                  *
 * ITI Transcendata (http://www.transcendata.com/)              *
 ****************************************************************/
FILE_DESCRIPTION((''),'2;1');
FILE_NAME('LED_MENTOR_1801.7733.stp','2012-12-03T10:57:15',(''),(''),'Mechanical Desktop 2011','Mechanical Desktop 2011',', , ');
FILE_SCHEMA(('AUTOMOTIVE_DESIGN { 1 2 10303 214 1 1 1 1 }'));
ENDSEC;
DATA;
#10=(NAMED_UNIT(*)PLANE_ANGLE_UNIT()SI_UNIT($,.RADIAN.));
#11=DIMENSIONAL_EXPONENTS(0.0,0.0,0.0,0.0,0.0,0.0,0.0);
#12=PLANE_ANGLE_MEASURE_WITH_UNIT(PLANE_ANGLE_MEASURE(0.0174532925),#10);
#16=(CONVERSION_BASED_UNIT('DEGREE',#12)NAMED_UNIT(#11)PLANE_ANGLE_UNIT());
#20=(NAMED_UNIT(*)SI_UNIT($,.STERADIAN.)SOLID_ANGLE_UNIT());
#24=(LENGTH_UNIT()NAMED_UNIT(*)SI_UNIT(.MILLI.,.METRE.));
#26=UNCERTAINTY_MEASURE_WITH_UNIT(LENGTH_MEASURE(0.000001),#24,'DISTANCE_ACCURACY_VALUE','');
#28=(GEOMETRIC_REPRESENTATION_CONTEXT(3)GLOBAL_UNCERTAINTY_ASSIGNED_CONTEXT((#26))GLOBAL_UNIT_ASSIGNED_CONTEXT((#16,#20,#24))REPRESENTATION_CONTEXT('','3D'));
#29=APPLICATION_CONTEXT('automotive design');
#30=APPLICATION_PROTOCOL_DEFINITION('INTERNATIONAL_STANDARD','automotive_design',1998,#29);
#31=PRODUCT_CONTEXT('3D Mechanical Parts',#29,'mechanical');
#32=PRODUCT('Product','Product','',(#31));
#33=PRODUCT_RELATED_PRODUCT_CATEGORY('part',$,(#32));
#34=PRODUCT_CATEGORY('part',$);
#35=PERSON('1','Design','Joe',$,$,$);
#36=ORGANIZATION($,'None','None');
#37=PERSON_AND_ORGANIZATION(#35,#36);
#38=PERSON_AND_ORGANIZATION_ROLE('design_owner');
#39=APPLIED_PERSON_AND_ORGANIZATION_ASSIGNMENT(#37,#38,(#32));
#40=PRODUCT_DEFINITION_FORMATION_WITH_SPECIFIED_SOURCE('None','',#32,.BOUGHT.);
#41=PERSON('2','Creator','Joe',$,$,$);
#42=ORGANIZATION($,'None','None');
#43=PERSON_AND_ORGANIZATION(#41,#42);
#44=PERSON_AND_ORGANIZATION_ROLE('creator');
#45=APPLIED_PERSON_AND_ORGANIZATION_ASSIGNMENT(#43,#44,(#40));
#46=PERSON('3','Supplier','Joe',$,$,$);
#47=ORGANIZATION($,'None','None');
#48=PERSON_AND_ORGANIZATION(#46,#47);
#49=PERSON_AND_ORGANIZATION_ROLE('design_supplier');
#50=APPLIED_PERSON_AND_ORGANIZATION_ASSIGNMENT(#48,#49,(#40));
#51=PRODUCT_DEFINITION_CONTEXT('part definition',#29,'design');
#52=PRODUCT_DEFINITION('None','',#40,#51);
#53=PERSON('4','Creator','Joe',$,$,$);
#54=ORGANIZATION($,'None','None');
#55=PERSON_AND_ORGANIZATION(#53,#54);
#56=PERSON_AND_ORGANIZATION_ROLE('creator');
#57=APPLIED_PERSON_AND_ORGANIZATION_ASSIGNMENT(#55,#56,(#52));
#58=CARTESIAN_POINT('NONE',(0.0,0.0,0.0));
#59=DIRECTION('NONE',(0.0,0.0,1.0));
#60=DIRECTION('NONE',(1.0,0.0,0.0));
#61=AXIS2_PLACEMENT_3D('NONE',#58,#59,#60);
#62=SHAPE_REPRESENTATION('SR1',(#61),#28);
#63=PRODUCT_DEFINITION_SHAPE('PDS1','Test Part',#52);
#64=SHAPE_DEFINITION_REPRESENTATION(#63,#62);
#65=CARTESIAN_POINT('',(2.290000000000021,-1.019999999999982,0.0));
#66=DIRECTION('',(-1.0,0.0,0.0));
#67=DIRECTION('',(0.0,0.0,1.0));
#68=AXIS2_PLACEMENT_3D('',#65,#66,#67);
#69=PLANE('',#68);
#70=CARTESIAN_POINT('',(2.290000000000021,-1.019999999999982,-3.2));
#71=VERTEX_POINT('',#70);
#72=CARTESIAN_POINT('',(2.290000000000021,-1.519999999999982,-3.2));
#73=VERTEX_POINT('',#72);
#74=CARTESIAN_POINT('',(2.290000000000021,-1.019999999999982,-3.2));
#75=DIRECTION('',(0.0,-1.0,0.0));
#76=VECTOR('',#75,0.5);
#77=LINE('',#74,#76);
#78=EDGE_CURVE('',#71,#73,#77,.T.);
#79=ORIENTED_EDGE('',*,*,#78,.T.);
#80=CARTESIAN_POINT('',(2.290000000000021,-1.519999999999982,0.0));
#81=VERTEX_POINT('',#80);
#82=CARTESIAN_POINT('',(2.290000000000021,-1.519999999999982,0.0));
#83=DIRECTION('',(0.0,0.0,-1.0));
#84=VECTOR('',#83,3.2);
#85=LINE('',#82,#84);
#86=EDGE_CURVE('',#81,#73,#85,.T.);
#87=ORIENTED_EDGE('',*,*,#86,.F.);
#88=CARTESIAN_POINT('',(2.290000000000021,-1.019999999999982,0.0));
#89=VERTEX_POINT('',#88);
#90=CARTESIAN_POINT('',(2.290000000000021,-1.519999999999982,0.0));
#91=DIRECTION('',(0.0,1.0,0.0));
#92=VECTOR('',#91,0.5);
#93=LINE('',#90,#92);
#94=EDGE_CURVE('',#81,#89,#93,.T.);
#95=ORIENTED_EDGE('',*,*,#94,.T.);
#96=CARTESIAN_POINT('',(2.290000000000021,-1.019999999999982,0.0));
#97=DIRECTION('',(0.0,0.0,-1.0));
#98=VECTOR('',#97,3.2);
#99=LINE('',#96,#98);
#100=EDGE_CURVE('',#89,#71,#99,.T.);
#101=ORIENTED_EDGE('',*,*,#100,.T.);
#102=EDGE_LOOP('',(#79,#87,#95,#101));
#103=FACE_OUTER_BOUND('',#102,.T.);
#104=ADVANCED_FACE('',(#103),#69,.T.);
#105=CARTESIAN_POINT('',(2.290000000000021,-1.519999999999982,0.0));
#106=DIRECTION('',(0.0,-1.0,0.0));
#107=DIRECTION('',(0.0,0.0,-1.0));
#108=AXIS2_PLACEMENT_3D('',#105,#106,#107);
#109=PLANE('',#108);
#110=CARTESIAN_POINT('',(2.790000000000021,-1.519999999999982,-3.2));
#111=VERTEX_POINT('',#110);
#112=CARTESIAN_POINT('',(2.290000000000021,-1.519999999999982,-3.2));
#113=DIRECTION('',(1.0,0.0,0.0));
#114=VECTOR('',#113,0.5);
#115=LINE('',#112,#114);
#116=EDGE_CURVE('',#73,#111,#115,.T.);
#117=ORIENTED_EDGE('',*,*,#116,.T.);
#118=CARTESIAN_POINT('',(2.790000000000021,-1.519999999999982,0.0));
#119=VERTEX_POINT('',#118);
#120=CARTESIAN_POINT('',(2.790000000000021,-1.519999999999982,0.0));
#121=DIRECTION('',(0.0,0.0,-1.0));
#122=VECTOR('',#121,3.2);
#123=LINE('',#120,#122);
#124=EDGE_CURVE('',#119,#111,#123,.T.);
#125=ORIENTED_EDGE('',*,*,#124,.F.);
#126=CARTESIAN_POINT('',(2.790000000000021,-1.519999999999982,0.0));
#127=DIRECTION('',(-1.0,0.0,0.0));
#128=VECTOR('',#127,0.5);
#129=LINE('',#126,#128);
#130=EDGE_CURVE('',#119,#81,#129,.T.);
#131=ORIENTED_EDGE('',*,*,#130,.T.);
#132=ORIENTED_EDGE('',*,*,#86,.T.);
#133=EDGE_LOOP('',(#117,#125,#131,#132));
#134=FACE_OUTER_BOUND('',#133,.T.);
#135=ADVANCED_FACE('',(#134),#109,.T.);
#136=CARTESIAN_POINT('',(2.790000000000021,-1.519999999999982,0.0));
#137=DIRECTION('',(1.0,0.0,0.0));
#138=DIRECTION('',(0.0,0.0,-1.0));
#139=AXIS2_PLACEMENT_3D('',#136,#137,#138);
#140=PLANE('',#139);
#141=CARTESIAN_POINT('',(2.790000000000021,-1.019999999999982,-3.2));
#142=VERTEX_POINT('',#141);
#143=CARTESIAN_POINT('',(2.790000000000021,-1.519999999999982,-3.2));
#144=DIRECTION('',(0.0,1.0,0.0));
#145=VECTOR('',#144,0.5);
#146=LINE('',#143,#145);
#147=EDGE_CURVE('',#111,#142,#146,.T.);
#148=ORIENTED_EDGE('',*,*,#147,.T.);
#149=CARTESIAN_POINT('',(2.790000000000021,-1.019999999999982,0.0));
#150=VERTEX_POINT('',#149);
#151=CARTESIAN_POINT('',(2.790000000000021,-1.019999999999982,0.0));
#152=DIRECTION('',(0.0,0.0,-1.0));
#153=VECTOR('',#152,3.2);
#154=LINE('',#151,#153);
#155=EDGE_CURVE('',#150,#142,#154,.T.);
#156=ORIENTED_EDGE('',*,*,#155,.F.);
#157=CARTESIAN_POINT('',(2.790000000000021,-1.019999999999982,0.0));
#158=DIRECTION('',(0.0,-1.0,0.0));
#159=VECTOR('',#158,0.5);
#160=LINE('',#157,#159);
#161=EDGE_CURVE('',#150,#119,#160,.T.);
#162=ORIENTED_EDGE('',*,*,#161,.T.);
#163=ORIENTED_EDGE('',*,*,#124,.T.);
#164=EDGE_LOOP('',(#148,#156,#162,#163));
#165=FACE_OUTER_BOUND('',#164,.T.);
#166=ADVANCED_FACE('',(#165),#140,.T.);
#167=CARTESIAN_POINT('',(2.790000000000021,-1.019999999999982,0.0));
#168=DIRECTION('',(0.0,1.0,0.0));
#169=DIRECTION('',(0.0,0.0,1.0));
#170=AXIS2_PLACEMENT_3D('',#167,#168,#169);
#171=PLANE('',#170);
#172=CARTESIAN_POINT('',(2.790000000000021,-1.019999999999982,-3.2));
#173=DIRECTION('',(-1.0,0.0,0.0));
#174=VECTOR('',#173,0.5);
#175=LINE('',#172,#174);
#176=EDGE_CURVE('',#142,#71,#175,.T.);
#177=ORIENTED_EDGE('',*,*,#176,.T.);
#178=ORIENTED_EDGE('',*,*,#100,.F.);
#179=CARTESIAN_POINT('',(2.290000000000021,-1.019999999999982,0.0));
#180=DIRECTION('',(1.0,0.0,0.0));
#181=VECTOR('',#180,0.5);
#182=LINE('',#179,#181);
#183=EDGE_CURVE('',#89,#150,#182,.T.);
#184=ORIENTED_EDGE('',*,*,#183,.T.);
#185=ORIENTED_EDGE('',*,*,#155,.T.);
#186=EDGE_LOOP('',(#177,#178,#184,#185));
#187=FACE_OUTER_BOUND('',#186,.T.);
#188=ADVANCED_FACE('',(#187),#171,.T.);
#189=CARTESIAN_POINT('',(2.540000000000021,-1.269999999999982,0.0));
#190=DIRECTION('',(0.0,0.0,1.0));
#191=DIRECTION('',(1.0,0.0,0.0));
#192=AXIS2_PLACEMENT_3D('',#189,#190,#191);
#193=PLANE('',#192);
#194=ORIENTED_EDGE('',*,*,#183,.F.);
#195=ORIENTED_EDGE('',*,*,#94,.F.);
#196=ORIENTED_EDGE('',*,*,#130,.F.);
#197=ORIENTED_EDGE('',*,*,#161,.F.);
#198=EDGE_LOOP('',(#194,#195,#196,#197));
#199=FACE_OUTER_BOUND('',#198,.T.);
#200=ADVANCED_FACE('',(#199),#193,.T.);
#201=CARTESIAN_POINT('',(2.540000000000021,-1.269999999999982,-3.2));
#202=DIRECTION('',(0.0,0.0,1.0));
#203=DIRECTION('',(1.0,0.0,0.0));
#204=AXIS2_PLACEMENT_3D('',#201,#202,#203);
#205=PLANE('',#204);
#206=ORIENTED_EDGE('',*,*,#78,.F.);
#207=ORIENTED_EDGE('',*,*,#176,.F.);
#208=ORIENTED_EDGE('',*,*,#147,.F.);
#209=ORIENTED_EDGE('',*,*,#116,.F.);
#210=EDGE_LOOP('',(#206,#207,#208,#209));
#211=FACE_OUTER_BOUND('',#210,.T.);
#212=ADVANCED_FACE('',(#211),#205,.F.);
#213=CLOSED_SHELL('',(#104,#135,#166,#188,#200,#212));
#214=MANIFOLD_SOLID_BREP('7C8F',#213);
#215=COLOUR_RGB('254',0.866,0.866,0.866);
#216=SURFACE_STYLE_USAGE(.BOTH.,#217);
#217=SURFACE_SIDE_STYLE('NONE',(#218));
#218=SURFACE_STYLE_FILL_AREA(#219);
#219=FILL_AREA_STYLE('NONE',(#220));
#220=FILL_AREA_STYLE_COLOUR('NONE',#215);
#221=PRESENTATION_STYLE_ASSIGNMENT((#216));
#222=STYLED_ITEM('NONE',(#221),#214);
#223=MECHANICAL_DESIGN_GEOMETRIC_PRESENTATION_REPRESENTATION('NONE',(#222,#375,#526,#677,#773,#862,#1284),#28);
#224=PRESENTATION_LAYER_ASSIGNMENT('0','None',(#214,#374,#525,#676,#765,#861,#1276));
#225=CARTESIAN_POINT('',(2.289999999999992,1.52000000000001,0.0));
#226=DIRECTION('',(-1.0,0.0,0.0));
#227=DIRECTION('',(0.0,0.0,1.0));
#228=AXIS2_PLACEMENT_3D('',#225,#226,#227);
#229=PLANE('',#228);
#230=CARTESIAN_POINT('',(2.289999999999992,1.52000000000001,-3.2));
#231=VERTEX_POINT('',#230);
#232=CARTESIAN_POINT('',(2.289999999999992,1.02000000000001,-3.2));
#233=VERTEX_POINT('',#232);
#234=CARTESIAN_POINT('',(2.289999999999992,1.52000000000001,-3.2));
#235=DIRECTION('',(0.0,-1.0,0.0));
#236=VECTOR('',#235,0.5);
#237=LINE('',#234,#236);
#238=EDGE_CURVE('',#231,#233,#237,.T.);
#239=ORIENTED_EDGE('',*,*,#238,.T.);
#240=CARTESIAN_POINT('',(2.289999999999992,1.02000000000001,0.0));
#241=VERTEX_POINT('',#240);
#242=CARTESIAN_POINT('',(2.289999999999992,1.02000000000001,0.0));
#243=DIRECTION('',(0.0,0.0,-1.0));
#244=VECTOR('',#243,3.2);
#245=LINE('',#242,#244);
#246=EDGE_CURVE('',#241,#233,#245,.T.);
#247=ORIENTED_EDGE('',*,*,#246,.F.);
#248=CARTESIAN_POINT('',(2.289999999999992,1.52000000000001,0.0));
#249=VERTEX_POINT('',#248);
#250=CARTESIAN_POINT('',(2.289999999999992,1.02000000000001,0.0));
#251=DIRECTION('',(0.0,1.0,0.0));
#252=VECTOR('',#251,0.5);
#253=LINE('',#250,#252);
#254=EDGE_CURVE('',#241,#249,#253,.T.);
#255=ORIENTED_EDGE('',*,*,#254,.T.);
#256=CARTESIAN_POINT('',(2.289999999999992,1.52000000000001,0.0));
#257=DIRECTION('',(0.0,0.0,-1.0));
#258=VECTOR('',#257,3.2);
#259=LINE('',#256,#258);
#260=EDGE_CURVE('',#249,#231,#259,.T.);
#261=ORIENTED_EDGE('',*,*,#260,.T.);
#262=EDGE_LOOP('',(#239,#247,#255,#261));
#263=FACE_OUTER_BOUND('',#262,.T.);
#264=ADVANCED_FACE('',(#263),#229,.T.);
#265=CARTESIAN_POINT('',(2.289999999999992,1.02000000000001,0.0));
#266=DIRECTION('',(0.0,-1.0,0.0));
#267=DIRECTION('',(0.0,0.0,-1.0));
#268=AXIS2_PLACEMENT_3D('',#265,#266,#267);
#269=PLANE('',#268);
#270=CARTESIAN_POINT('',(2.789999999999992,1.02000000000001,-3.2));
#271=VERTEX_POINT('',#270);
#272=CARTESIAN_POINT('',(2.289999999999992,1.02000000000001,-3.2));
#273=DIRECTION('',(1.0,0.0,0.0));
#274=VECTOR('',#273,0.5);
#275=LINE('',#272,#274);
#276=EDGE_CURVE('',#233,#271,#275,.T.);
#277=ORIENTED_EDGE('',*,*,#276,.T.);
#278=CARTESIAN_POINT('',(2.789999999999992,1.02000000000001,0.0));
#279=VERTEX_POINT('',#278);
#280=CARTESIAN_POINT('',(2.789999999999992,1.02000000000001,0.0));
#281=DIRECTION('',(0.0,0.0,-1.0));
#282=VECTOR('',#281,3.2);
#283=LINE('',#280,#282);
#284=EDGE_CURVE('',#279,#271,#283,.T.);
#285=ORIENTED_EDGE('',*,*,#284,.F.);
#286=CARTESIAN_POINT('',(2.789999999999992,1.02000000000001,0.0));
#287=DIRECTION('',(-1.0,0.0,0.0));
#288=VECTOR('',#287,0.5);
#289=LINE('',#286,#288);
#290=EDGE_CURVE('',#279,#241,#289,.T.);
#291=ORIENTED_EDGE('',*,*,#290,.T.);
#292=ORIENTED_EDGE('',*,*,#246,.T.);
#293=EDGE_LOOP('',(#277,#285,#291,#292));
#294=FACE_OUTER_BOUND('',#293,.T.);
#295=ADVANCED_FACE('',(#294),#269,.T.);
#296=CARTESIAN_POINT('',(2.789999999999992,1.02000000000001,0.0));
#297=DIRECTION('',(1.0,0.0,0.0));
#298=DIRECTION('',(0.0,0.0,-1.0));
#299=AXIS2_PLACEMENT_3D('',#296,#297,#298);
#300=PLANE('',#299);
#301=CARTESIAN_POINT('',(2.789999999999992,1.52000000000001,-3.2));
#302=VERTEX_POINT('',#301);
#303=CARTESIAN_POINT('',(2.789999999999992,1.02000000000001,-3.2));
#304=DIRECTION('',(0.0,1.0,0.0));
#305=VECTOR('',#304,0.5);
#306=LINE('',#303,#305);
#307=EDGE_CURVE('',#271,#302,#306,.T.);
#308=ORIENTED_EDGE('',*,*,#307,.T.);
#309=CARTESIAN_POINT('',(2.789999999999992,1.52000000000001,0.0));
#310=VERTEX_POINT('',#309);
#311=CARTESIAN_POINT('',(2.789999999999992,1.52000000000001,0.0));
#312=DIRECTION('',(0.0,0.0,-1.0));
#313=VECTOR('',#312,3.2);
#314=LINE('',#311,#313);
#315=EDGE_CURVE('',#310,#302,#314,.T.);
#316=ORIENTED_EDGE('',*,*,#315,.F.);
#317=CARTESIAN_POINT('',(2.789999999999992,1.52000000000001,0.0));
#318=DIRECTION('',(0.0,-1.0,0.0));
#319=VECTOR('',#318,0.5);
#320=LINE('',#317,#319);
#321=EDGE_CURVE('',#310,#279,#320,.T.);
#322=ORIENTED_EDGE('',*,*,#321,.T.);
#323=ORIENTED_EDGE('',*,*,#284,.T.);
#324=EDGE_LOOP('',(#308,#316,#322,#323));
#325=FACE_OUTER_BOUND('',#324,.T.);
#326=ADVANCED_FACE('',(#325),#300,.T.);
#327=CARTESIAN_POINT('',(2.789999999999992,1.52000000000001,0.0));
#328=DIRECTION('',(0.0,1.0,0.0));
#329=DIRECTION('',(0.0,0.0,1.0));
#330=AXIS2_PLACEMENT_3D('',#327,#328,#329);
#331=PLANE('',#330);
#332=CARTESIAN_POINT('',(2.789999999999992,1.52000000000001,-3.2));
#333=DIRECTION('',(-1.0,0.0,0.0));
#334=VECTOR('',#333,0.5);
#335=LINE('',#332,#334);
#336=EDGE_CURVE('',#302,#231,#335,.T.);
#337=ORIENTED_EDGE('',*,*,#336,.T.);
#338=ORIENTED_EDGE('',*,*,#260,.F.);
#339=CARTESIAN_POINT('',(2.289999999999992,1.52000000000001,0.0));
#340=DIRECTION('',(1.0,0.0,0.0));
#341=VECTOR('',#340,0.5);
#342=LINE('',#339,#341);
#343=EDGE_CURVE('',#249,#310,#342,.T.);
#344=ORIENTED_EDGE('',*,*,#343,.T.);
#345=ORIENTED_EDGE('',*,*,#315,.T.);
#346=EDGE_LOOP('',(#337,#338,#344,#345));
#347=FACE_OUTER_BOUND('',#346,.T.);
#348=ADVANCED_FACE('',(#347),#331,.T.);
#349=CARTESIAN_POINT('',(2.539999999999992,1.27000000000001,0.0));
#350=DIRECTION('',(0.0,0.0,1.0));
#351=DIRECTION('',(1.0,0.0,0.0));
#352=AXIS2_PLACEMENT_3D('',#349,#350,#351);
#353=PLANE('',#352);
#354=ORIENTED_EDGE('',*,*,#343,.F.);
#355=ORIENTED_EDGE('',*,*,#254,.F.);
#356=ORIENTED_EDGE('',*,*,#290,.F.);
#357=ORIENTED_EDGE('',*,*,#321,.F.);
#358=EDGE_LOOP('',(#354,#355,#356,#357));
#359=FACE_OUTER_BOUND('',#358,.T.);
#360=ADVANCED_FACE('',(#359),#353,.T.);
#361=CARTESIAN_POINT('',(2.539999999999992,1.27000000000001,-3.2));
#362=DIRECTION('',(0.0,0.0,1.0));
#363=DIRECTION('',(1.0,0.0,0.0));
#364=AXIS2_PLACEMENT_3D('',#361,#362,#363);
#365=PLANE('',#364);
#366=ORIENTED_EDGE('',*,*,#238,.F.);
#367=ORIENTED_EDGE('',*,*,#336,.F.);
#368=ORIENTED_EDGE('',*,*,#307,.F.);
#369=ORIENTED_EDGE('',*,*,#276,.F.);
#370=EDGE_LOOP('',(#366,#367,#368,#369));
#371=FACE_OUTER_BOUND('',#370,.T.);
#372=ADVANCED_FACE('',(#371),#365,.F.);
#373=CLOSED_SHELL('',(#264,#295,#326,#348,#360,#372));
#374=MANIFOLD_SOLID_BREP('7C8B',#373);
#375=STYLED_ITEM('NONE',(#221),#374);
#376=CARTESIAN_POINT('',(-0.24999999999998,-1.019999999999982,0.0));
#377=DIRECTION('',(-1.0,0.0,0.0));
#378=DIRECTION('',(0.0,0.0,1.0));
#379=AXIS2_PLACEMENT_3D('',#376,#377,#378);
#380=PLANE('',#379);
#381=CARTESIAN_POINT('',(-0.24999999999998,-1.019999999999982,-3.2));
#382=VERTEX_POINT('',#381);
#383=CARTESIAN_POINT('',(-0.24999999999998,-1.519999999999982,-3.2));
#384=VERTEX_POINT('',#383);
#385=CARTESIAN_POINT('',(-0.24999999999998,-1.019999999999982,-3.2));
#386=DIRECTION('',(0.0,-1.0,0.0));
#387=VECTOR('',#386,0.5);
#388=LINE('',#385,#387);
#389=EDGE_CURVE('',#382,#384,#388,.T.);
#390=ORIENTED_EDGE('',*,*,#389,.T.);
#391=CARTESIAN_POINT('',(-0.24999999999998,-1.519999999999982,0.0));
#392=VERTEX_POINT('',#391);
#393=CARTESIAN_POINT('',(-0.24999999999998,-1.519999999999982,0.0));
#394=DIRECTION('',(0.0,0.0,-1.0));
#395=VECTOR('',#394,3.2);
#396=LINE('',#393,#395);
#397=EDGE_CURVE('',#392,#384,#396,.T.);
#398=ORIENTED_EDGE('',*,*,#397,.F.);
#399=CARTESIAN_POINT('',(-0.24999999999998,-1.019999999999982,0.0));
#400=VERTEX_POINT('',#399);
#401=CARTESIAN_POINT('',(-0.24999999999998,-1.519999999999982,0.0));
#402=DIRECTION('',(0.0,1.0,0.0));
#403=VECTOR('',#402,0.5);
#404=LINE('',#401,#403);
#405=EDGE_CURVE('',#392,#400,#404,.T.);
#406=ORIENTED_EDGE('',*,*,#405,.T.);
#407=CARTESIAN_POINT('',(-0.24999999999998,-1.019999999999982,0.0));
#408=DIRECTION('',(0.0,0.0,-1.0));
#409=VECTOR('',#408,3.2);
#410=LINE('',#407,#409);
#411=EDGE_CURVE('',#400,#382,#410,.T.);
#412=ORIENTED_EDGE('',*,*,#411,.T.);
#413=EDGE_LOOP('',(#390,#398,#406,#412));
#414=FACE_OUTER_BOUND('',#413,.T.);
#415=ADVANCED_FACE('',(#414),#380,.T.);
#416=CARTESIAN_POINT('',(-0.24999999999998,-1.519999999999982,0.0));
#417=DIRECTION('',(0.0,-1.0,0.0));
#418=DIRECTION('',(0.0,0.0,-1.0));
#419=AXIS2_PLACEMENT_3D('',#416,#417,#418);
#420=PLANE('',#419);
#421=CARTESIAN_POINT('',(0.25000000000002,-1.519999999999982,-3.2));
#422=VERTEX_POINT('',#421);
#423=CARTESIAN_POINT('',(-0.24999999999998,-1.519999999999982,-3.2));
#424=DIRECTION('',(1.0,0.0,0.0));
#425=VECTOR('',#424,0.5);
#426=LINE('',#423,#425);
#427=EDGE_CURVE('',#384,#422,#426,.T.);
#428=ORIENTED_EDGE('',*,*,#427,.T.);
#429=CARTESIAN_POINT('',(0.25000000000002,-1.519999999999982,0.0));
#430=VERTEX_POINT('',#429);
#431=CARTESIAN_POINT('',(0.25000000000002,-1.519999999999982,0.0));
#432=DIRECTION('',(0.0,0.0,-1.0));
#433=VECTOR('',#432,3.2);
#434=LINE('',#431,#433);
#435=EDGE_CURVE('',#430,#422,#434,.T.);
#436=ORIENTED_EDGE('',*,*,#435,.F.);
#437=CARTESIAN_POINT('',(0.25000000000002,-1.519999999999982,0.0));
#438=DIRECTION('',(-1.0,0.0,0.0));
#439=VECTOR('',#438,0.5);
#440=LINE('',#437,#439);
#441=EDGE_CURVE('',#430,#392,#440,.T.);
#442=ORIENTED_EDGE('',*,*,#441,.T.);
#443=ORIENTED_EDGE('',*,*,#397,.T.);
#444=EDGE_LOOP('',(#428,#436,#442,#443));
#445=FACE_OUTER_BOUND('',#444,.T.);
#446=ADVANCED_FACE('',(#445),#420,.T.);
#447=CARTESIAN_POINT('',(0.25000000000002,-1.519999999999982,0.0));
#448=DIRECTION('',(1.0,0.0,0.0));
#449=DIRECTION('',(0.0,0.0,-1.0));
#450=AXIS2_PLACEMENT_3D('',#447,#448,#449);
#451=PLANE('',#450);
#452=CARTESIAN_POINT('',(0.25000000000002,-1.019999999999982,-3.2));
#453=VERTEX_POINT('',#452);
#454=CARTESIAN_POINT('',(0.25000000000002,-1.519999999999982,-3.2));
#455=DIRECTION('',(0.0,1.0,0.0));
#456=VECTOR('',#455,0.5);
#457=LINE('',#454,#456);
#458=EDGE_CURVE('',#422,#453,#457,.T.);
#459=ORIENTED_EDGE('',*,*,#458,.T.);
#460=CARTESIAN_POINT('',(0.25000000000002,-1.019999999999982,0.0));
#461=VERTEX_POINT('',#460);
#462=CARTESIAN_POINT('',(0.25000000000002,-1.019999999999982,0.0));
#463=DIRECTION('',(0.0,0.0,-1.0));
#464=VECTOR('',#463,3.2);
#465=LINE('',#462,#464);
#466=EDGE_CURVE('',#461,#453,#465,.T.);
#467=ORIENTED_EDGE('',*,*,#466,.F.);
#468=CARTESIAN_POINT('',(0.25000000000002,-1.019999999999982,0.0));
#469=DIRECTION('',(0.0,-1.0,0.0));
#470=VECTOR('',#469,0.5);
#471=LINE('',#468,#470);
#472=EDGE_CURVE('',#461,#430,#471,.T.);
#473=ORIENTED_EDGE('',*,*,#472,.T.);
#474=ORIENTED_EDGE('',*,*,#435,.T.);
#475=EDGE_LOOP('',(#459,#467,#473,#474));
#476=FACE_OUTER_BOUND('',#475,.T.);
#477=ADVANCED_FACE('',(#476),#451,.T.);
#478=CARTESIAN_POINT('',(0.25000000000002,-1.019999999999982,0.0));
#479=DIRECTION('',(0.0,1.0,0.0));
#480=DIRECTION('',(0.0,0.0,1.0));
#481=AXIS2_PLACEMENT_3D('',#478,#479,#480);
#482=PLANE('',#481);
#483=CARTESIAN_POINT('',(0.25000000000002,-1.019999999999982,-3.2));
#484=DIRECTION('',(-1.0,0.0,0.0));
#485=VECTOR('',#484,0.5);
#486=LINE('',#483,#485);
#487=EDGE_CURVE('',#453,#382,#486,.T.);
#488=ORIENTED_EDGE('',*,*,#487,.T.);
#489=ORIENTED_EDGE('',*,*,#411,.F.);
#490=CARTESIAN_POINT('',(-0.24999999999998,-1.019999999999982,0.0));
#491=DIRECTION('',(1.0,0.0,0.0));
#492=VECTOR('',#491,0.5);
#493=LINE('',#490,#492);
#494=EDGE_CURVE('',#400,#461,#493,.T.);
#495=ORIENTED_EDGE('',*,*,#494,.T.);
#496=ORIENTED_EDGE('',*,*,#466,.T.);
#497=EDGE_LOOP('',(#488,#489,#495,#496));
#498=FACE_OUTER_BOUND('',#497,.T.);
#499=ADVANCED_FACE('',(#498),#482,.T.);
#500=CARTESIAN_POINT('',(2.042810E-014,-1.269999999999982,0.0));
#501=DIRECTION('',(0.0,0.0,1.0));
#502=DIRECTION('',(1.0,0.0,0.0));
#503=AXIS2_PLACEMENT_3D('',#500,#501,#502);
#504=PLANE('',#503);
#505=ORIENTED_EDGE('',*,*,#494,.F.);
#506=ORIENTED_EDGE('',*,*,#405,.F.);
#507=ORIENTED_EDGE('',*,*,#441,.F.);
#508=ORIENTED_EDGE('',*,*,#472,.F.);
#509=EDGE_LOOP('',(#505,#506,#507,#508));
#510=FACE_OUTER_BOUND('',#509,.T.);
#511=ADVANCED_FACE('',(#510),#504,.T.);
#512=CARTESIAN_POINT('',(2.042810E-014,-1.269999999999982,-3.2));
#513=DIRECTION('',(0.0,0.0,1.0));
#514=DIRECTION('',(1.0,0.0,0.0));
#515=AXIS2_PLACEMENT_3D('',#512,#513,#514);
#516=PLANE('',#515);
#517=ORIENTED_EDGE('',*,*,#389,.F.);
#518=ORIENTED_EDGE('',*,*,#487,.F.);
#519=ORIENTED_EDGE('',*,*,#458,.F.);
#520=ORIENTED_EDGE('',*,*,#427,.F.);
#521=EDGE_LOOP('',(#517,#518,#519,#520));
#522=FACE_OUTER_BOUND('',#521,.T.);
#523=ADVANCED_FACE('',(#522),#516,.F.);
#524=CLOSED_SHELL('',(#415,#446,#477,#499,#511,#523));
#525=MANIFOLD_SOLID_BREP('7C87',#524);
#526=STYLED_ITEM('NONE',(#221),#525);
#527=CARTESIAN_POINT('',(-0.250000000000008,1.52000000000001,0.0));
#528=DIRECTION('',(-1.0,0.0,0.0));
#529=DIRECTION('',(0.0,0.0,1.0));
#530=AXIS2_PLACEMENT_3D('',#527,#528,#529);
#531=PLANE('',#530);
#532=CARTESIAN_POINT('',(-0.250000000000008,1.52000000000001,-3.2));
#533=VERTEX_POINT('',#532);
#534=CARTESIAN_POINT('',(-0.250000000000008,1.02000000000001,-3.2));
#535=VERTEX_POINT('',#534);
#536=CARTESIAN_POINT('',(-0.250000000000008,1.52000000000001,-3.2));
#537=DIRECTION('',(0.0,-1.0,0.0));
#538=VECTOR('',#537,0.5);
#539=LINE('',#536,#538);
#540=EDGE_CURVE('',#533,#535,#539,.T.);
#541=ORIENTED_EDGE('',*,*,#540,.T.);
#542=CARTESIAN_POINT('',(-0.250000000000008,1.02000000000001,0.0));
#543=VERTEX_POINT('',#542);
#544=CARTESIAN_POINT('',(-0.250000000000008,1.02000000000001,0.0));
#545=DIRECTION('',(0.0,0.0,-1.0));
#546=VECTOR('',#545,3.2);
#547=LINE('',#544,#546);
#548=EDGE_CURVE('',#543,#535,#547,.T.);
#549=ORIENTED_EDGE('',*,*,#548,.F.);
#550=CARTESIAN_POINT('',(-0.250000000000008,1.52000000000001,0.0));
#551=VERTEX_POINT('',#550);
#552=CARTESIAN_POINT('',(-0.250000000000008,1.02000000000001,0.0));
#553=DIRECTION('',(0.0,1.0,0.0));
#554=VECTOR('',#553,0.5);
#555=LINE('',#552,#554);
#556=EDGE_CURVE('',#543,#551,#555,.T.);
#557=ORIENTED_EDGE('',*,*,#556,.T.);
#558=CARTESIAN_POINT('',(-0.250000000000008,1.52000000000001,0.0));
#559=DIRECTION('',(0.0,0.0,-1.0));
#560=VECTOR('',#559,3.2);
#561=LINE('',#558,#560);
#562=EDGE_CURVE('',#551,#533,#561,.T.);
#563=ORIENTED_EDGE('',*,*,#562,.T.);
#564=EDGE_LOOP('',(#541,#549,#557,#563));
#565=FACE_OUTER_BOUND('',#564,.T.);
#566=ADVANCED_FACE('',(#565),#531,.T.);
#567=CARTESIAN_POINT('',(-0.250000000000008,1.02000000000001,0.0));
#568=DIRECTION('',(0.0,-1.0,0.0));
#569=DIRECTION('',(0.0,0.0,-1.0));
#570=AXIS2_PLACEMENT_3D('',#567,#568,#569);
#571=PLANE('',#570);
#572=CARTESIAN_POINT('',(0.249999999999992,1.02000000000001,-3.2));
#573=VERTEX_POINT('',#572);
#574=CARTESIAN_POINT('',(-0.250000000000008,1.02000000000001,-3.2));
#575=DIRECTION('',(1.0,0.0,0.0));
#576=VECTOR('',#575,0.5);
#577=LINE('',#574,#576);
#578=EDGE_CURVE('',#535,#573,#577,.T.);
#579=ORIENTED_EDGE('',*,*,#578,.T.);
#580=CARTESIAN_POINT('',(0.249999999999992,1.02000000000001,0.0));
#581=VERTEX_POINT('',#580);
#582=CARTESIAN_POINT('',(0.249999999999992,1.02000000000001,0.0));
#583=DIRECTION('',(0.0,0.0,-1.0));
#584=VECTOR('',#583,3.2);
#585=LINE('',#582,#584);
#586=EDGE_CURVE('',#581,#573,#585,.T.);
#587=ORIENTED_EDGE('',*,*,#586,.F.);
#588=CARTESIAN_POINT('',(0.249999999999992,1.02000000000001,0.0));
#589=DIRECTION('',(-1.0,0.0,0.0));
#590=VECTOR('',#589,0.5);
#591=LINE('',#588,#590);
#592=EDGE_CURVE('',#581,#543,#591,.T.);
#593=ORIENTED_EDGE('',*,*,#592,.T.);
#594=ORIENTED_EDGE('',*,*,#548,.T.);
#595=EDGE_LOOP('',(#579,#587,#593,#594));
#596=FACE_OUTER_BOUND('',#595,.T.);
#597=ADVANCED_FACE('',(#596),#571,.T.);
#598=CARTESIAN_POINT('',(0.249999999999992,1.02000000000001,0.0));
#599=DIRECTION('',(1.0,0.0,0.0));
#600=DIRECTION('',(0.0,0.0,-1.0));
#601=AXIS2_PLACEMENT_3D('',#598,#599,#600);
#602=PLANE('',#601);
#603=CARTESIAN_POINT('',(0.249999999999992,1.52000000000001,-3.2));
#604=VERTEX_POINT('',#603);
#605=CARTESIAN_POINT('',(0.249999999999992,1.02000000000001,-3.2));
#606=DIRECTION('',(0.0,1.0,0.0));
#607=VECTOR('',#606,0.5);
#608=LINE('',#605,#607);
#609=EDGE_CURVE('',#573,#604,#608,.T.);
#610=ORIENTED_EDGE('',*,*,#609,.T.);
#611=CARTESIAN_POINT('',(0.249999999999992,1.52000000000001,0.0));
#612=VERTEX_POINT('',#611);
#613=CARTESIAN_POINT('',(0.249999999999992,1.52000000000001,0.0));
#614=DIRECTION('',(0.0,0.0,-1.0));
#615=VECTOR('',#614,3.2);
#616=LINE('',#613,#615);
#617=EDGE_CURVE('',#612,#604,#616,.T.);
#618=ORIENTED_EDGE('',*,*,#617,.F.);
#619=CARTESIAN_POINT('',(0.249999999999992,1.52000000000001,0.0));
#620=DIRECTION('',(0.0,-1.0,0.0));
#621=VECTOR('',#620,0.5);
#622=LINE('',#619,#621);
#623=EDGE_CURVE('',#612,#581,#622,.T.);
#624=ORIENTED_EDGE('',*,*,#623,.T.);
#625=ORIENTED_EDGE('',*,*,#586,.T.);
#626=EDGE_LOOP('',(#610,#618,#624,#625));
#627=FACE_OUTER_BOUND('',#626,.T.);
#628=ADVANCED_FACE('',(#627),#602,.T.);
#629=CARTESIAN_POINT('',(0.249999999999992,1.52000000000001,0.0));
#630=DIRECTION('',(0.0,1.0,0.0));
#631=DIRECTION('',(0.0,0.0,1.0));
#632=AXIS2_PLACEMENT_3D('',#629,#630,#631);
#633=PLANE('',#632);
#634=CARTESIAN_POINT('',(0.249999999999992,1.52000000000001,-3.2));
#635=DIRECTION('',(-1.0,0.0,0.0));
#636=VECTOR('',#635,0.5);
#637=LINE('',#634,#636);
#638=EDGE_CURVE('',#604,#533,#637,.T.);
#639=ORIENTED_EDGE('',*,*,#638,.T.);
#640=ORIENTED_EDGE('',*,*,#562,.F.);
#641=CARTESIAN_POINT('',(-0.250000000000008,1.52000000000001,0.0));
#642=DIRECTION('',(1.0,0.0,0.0));
#643=VECTOR('',#642,0.5);
#644=LINE('',#641,#643);
#645=EDGE_CURVE('',#551,#612,#644,.T.);
#646=ORIENTED_EDGE('',*,*,#645,.T.);
#647=ORIENTED_EDGE('',*,*,#617,.T.);
#648=EDGE_LOOP('',(#639,#640,#646,#647));
#649=FACE_OUTER_BOUND('',#648,.T.);
#650=ADVANCED_FACE('',(#649),#633,.T.);
#651=CARTESIAN_POINT('',(-7.993606E-015,1.27000000000001,0.0));
#652=DIRECTION('',(0.0,0.0,1.0));
#653=DIRECTION('',(1.0,0.0,0.0));
#654=AXIS2_PLACEMENT_3D('',#651,#652,#653);
#655=PLANE('',#654);
#656=ORIENTED_EDGE('',*,*,#645,.F.);
#657=ORIENTED_EDGE('',*,*,#556,.F.);
#658=ORIENTED_EDGE('',*,*,#592,.F.);
#659=ORIENTED_EDGE('',*,*,#623,.F.);
#660=EDGE_LOOP('',(#656,#657,#658,#659));
#661=FACE_OUTER_BOUND('',#660,.T.);
#662=ADVANCED_FACE('',(#661),#655,.T.);
#663=CARTESIAN_POINT('',(-7.993606E-015,1.27000000000001,-3.2));
#664=DIRECTION('',(0.0,0.0,1.0));
#665=DIRECTION('',(1.0,0.0,0.0));
#666=AXIS2_PLACEMENT_3D('',#663,#664,#665);
#667=PLANE('',#666);
#668=ORIENTED_EDGE('',*,*,#540,.F.);
#669=ORIENTED_EDGE('',*,*,#638,.F.);
#670=ORIENTED_EDGE('',*,*,#609,.F.);
#671=ORIENTED_EDGE('',*,*,#578,.F.);
#672=EDGE_LOOP('',(#668,#669,#670,#671));
#673=FACE_OUTER_BOUND('',#672,.T.);
#674=ADVANCED_FACE('',(#673),#667,.F.);
#675=CLOSED_SHELL('',(#566,#597,#628,#650,#662,#674));
#676=MANIFOLD_SOLID_BREP('7C83',#675);
#677=STYLED_ITEM('NONE',(#221),#676);
#678=CARTESIAN_POINT('',(-7.840000000000018,1.421085E-014,7.54));
#679=DIRECTION('',(-1.0,0.0,0.0));
#680=DIRECTION('',(0.0,0.0,1.0));
#681=AXIS2_PLACEMENT_3D('',#678,#679,#680);
#682=CYLINDRICAL_SURFACE('',#681,1.4);
#683=CARTESIAN_POINT('',(-8.840000000000032,1.421085E-014,8.940000000000001));
#684=VERTEX_POINT('',#683);
#685=CARTESIAN_POINT('',(-6.840000000000003,1.421085E-014,8.940000000000001));
#686=VERTEX_POINT('',#685);
#687=CARTESIAN_POINT('',(-8.840000000000018,1.421085E-014,8.94));
#688=DIRECTION('',(1.0,0.0,0.0));
#689=VECTOR('',#688,2.000000000000014);
#690=LINE('',#687,#689);
#691=EDGE_CURVE('',#684,#686,#690,.T.);
#692=ORIENTED_EDGE('',*,*,#691,.F.);
#693=CARTESIAN_POINT('',(-8.840000000000018,1.438230E-014,6.14));
#694=VERTEX_POINT('',#693);
#695=CARTESIAN_POINT('',(-8.840000000000018,1.421085E-014,7.54));
#696=DIRECTION('',(-1.0,0.0,0.0));
#697=DIRECTION('',(0.0,0.0,1.0));
#698=AXIS2_PLACEMENT_3D('',#695,#696,#697);
#699=CIRCLE('',#698,1.4);
#700=EDGE_CURVE('',#694,#684,#699,.T.);
#701=ORIENTED_EDGE('',*,*,#700,.F.);
#702=CARTESIAN_POINT('',(-6.840000000000003,1.403940E-014,6.140000000000001));
#703=VERTEX_POINT('',#702);
#704=CARTESIAN_POINT('',(-8.840000000000018,1.403940E-014,6.140000000000001));
#705=DIRECTION('',(1.0,0.0,0.0));
#706=VECTOR('',#705,2.000000000000014);
#707=LINE('',#704,#706);
#708=EDGE_CURVE('',#694,#703,#707,.T.);
#709=ORIENTED_EDGE('',*,*,#708,.T.);
#710=CARTESIAN_POINT('',(-6.840000000000003,1.421085E-014,7.54));
#711=DIRECTION('',(1.0,0.0,0.0));
#712=DIRECTION('',(0.0,0.0,1.0));
#713=AXIS2_PLACEMENT_3D('',#710,#711,#712);
#714=CIRCLE('',#713,1.4);
#715=EDGE_CURVE('',#686,#703,#714,.T.);
#716=ORIENTED_EDGE('',*,*,#715,.F.);
#717=EDGE_LOOP('',(#692,#701,#709,#716));
#718=FACE_OUTER_BOUND('',#717,.T.);
#719=ADVANCED_FACE('',(#718),#682,.T.);
#720=CARTESIAN_POINT('',(-7.840000000000018,1.421085E-014,7.54));
#721=DIRECTION('',(-1.0,0.0,0.0));
#722=DIRECTION('',(0.0,0.0,1.0));
#723=AXIS2_PLACEMENT_3D('',#720,#721,#722);
#724=CYLINDRICAL_SURFACE('',#723,1.4);
#725=ORIENTED_EDGE('',*,*,#691,.T.);
#726=CARTESIAN_POINT('',(-6.840000000000003,1.421085E-014,7.54));
#727=DIRECTION('',(1.0,0.0,0.0));
#728=DIRECTION('',(0.0,0.0,1.0));
#729=AXIS2_PLACEMENT_3D('',#726,#727,#728);
#730=CIRCLE('',#729,1.4);
#731=EDGE_CURVE('',#703,#686,#730,.T.);
#732=ORIENTED_EDGE('',*,*,#731,.F.);
#733=ORIENTED_EDGE('',*,*,#708,.F.);
#734=CARTESIAN_POINT('',(-8.840000000000018,1.421085E-014,7.54));
#735=DIRECTION('',(-1.0,0.0,0.0));
#736=DIRECTION('',(0.0,0.0,1.0));
#737=AXIS2_PLACEMENT_3D('',#734,#735,#736);
#738=CIRCLE('',#737,1.4);
#739=EDGE_CURVE('',#684,#694,#738,.T.);
#740=ORIENTED_EDGE('',*,*,#739,.F.);
#741=EDGE_LOOP('',(#725,#732,#733,#740));
#742=FACE_OUTER_BOUND('',#741,.T.);
#743=ADVANCED_FACE('',(#742),#724,.T.);
#744=CARTESIAN_POINT('',(-6.840000000000003,1.421085E-014,7.54));
#745=DIRECTION('',(1.0,0.0,0.0));
#746=DIRECTION('',(0.0,0.0,-1.0));
#747=AXIS2_PLACEMENT_3D('',#744,#745,#746);
#748=PLANE('',#747);
#749=ORIENTED_EDGE('',*,*,#715,.T.);
#750=ORIENTED_EDGE('',*,*,#731,.T.);
#751=EDGE_LOOP('',(#749,#750));
#752=FACE_OUTER_BOUND('',#751,.T.);
#753=ADVANCED_FACE('',(#752),#748,.T.);
#754=CARTESIAN_POINT('',(-8.840000000000018,1.421085E-014,7.54));
#755=DIRECTION('',(0.0,0.0,1.0));
#756=DIRECTION('',(1.0,0.0,0.0));
#757=AXIS2_PLACEMENT_3D('',#754,#755,#756);
#758=SPHERICAL_SURFACE('',#757,1.4);
#759=ORIENTED_EDGE('',*,*,#739,.T.);
#760=ORIENTED_EDGE('',*,*,#700,.T.);
#761=EDGE_LOOP('',(#759,#760));
#762=FACE_OUTER_BOUND('',#761,.T.);
#763=ADVANCED_FACE('',(#762),#758,.T.);
#764=CLOSED_SHELL('',(#719,#743,#753,#763));
#765=MANIFOLD_SOLID_BREP('7C7A',#764);
#766=DRAUGHTING_PRE_DEFINED_COLOUR('yellow');
#767=SURFACE_STYLE_USAGE(.BOTH.,#768);
#768=SURFACE_SIDE_STYLE('NONE',(#769));
#769=SURFACE_STYLE_FILL_AREA(#770);
#770=FILL_AREA_STYLE('NONE',(#771));
#771=FILL_AREA_STYLE_COLOUR('NONE',#766);
#772=PRESENTATION_STYLE_ASSIGNMENT((#767));
#773=STYLED_ITEM('NONE',(#772),#765);
#774=CARTESIAN_POINT('',(-7.840000000000018,1.421085E-014,2.46));
#775=DIRECTION('',(-1.0,0.0,0.0));
#776=DIRECTION('',(0.0,0.0,1.0));
#777=AXIS2_PLACEMENT_3D('',#774,#775,#776);
#778=CYLINDRICAL_SURFACE('',#777,1.4);
#779=CARTESIAN_POINT('',(-8.840000000000032,1.421085E-014,3.86));
#780=VERTEX_POINT('',#779);
#781=CARTESIAN_POINT('',(-6.840000000000003,1.421085E-014,3.86));
#782=VERTEX_POINT('',#781);
#783=CARTESIAN_POINT('',(-8.840000000000018,1.421085E-014,3.86));
#784=DIRECTION('',(1.0,0.0,0.0));
#785=VECTOR('',#784,2.000000000000014);
#786=LINE('',#783,#785);
#787=EDGE_CURVE('',#780,#782,#786,.T.);
#788=ORIENTED_EDGE('',*,*,#787,.F.);
#789=CARTESIAN_POINT('',(-8.840000000000018,1.438230E-014,1.06));
#790=VERTEX_POINT('',#789);
#791=CARTESIAN_POINT('',(-8.840000000000018,1.421085E-014,2.46));
#792=DIRECTION('',(-1.0,0.0,0.0));
#793=DIRECTION('',(0.0,0.0,1.0));
#794=AXIS2_PLACEMENT_3D('',#791,#792,#793);
#795=CIRCLE('',#794,1.4);
#796=EDGE_CURVE('',#790,#780,#795,.T.);
#797=ORIENTED_EDGE('',*,*,#796,.F.);
#798=CARTESIAN_POINT('',(-6.840000000000003,1.403940E-014,1.06));
#799=VERTEX_POINT('',#798);
#800=CARTESIAN_POINT('',(-8.840000000000018,1.403940E-014,1.06));
#801=DIRECTION('',(1.0,0.0,0.0));
#802=VECTOR('',#801,2.000000000000014);
#803=LINE('',#800,#802);
#804=EDGE_CURVE('',#790,#799,#803,.T.);
#805=ORIENTED_EDGE('',*,*,#804,.T.);
#806=CARTESIAN_POINT('',(-6.840000000000003,1.421085E-014,2.46));
#807=DIRECTION('',(1.0,0.0,0.0));
#808=DIRECTION('',(0.0,0.0,1.0));
#809=AXIS2_PLACEMENT_3D('',#806,#807,#808);
#810=CIRCLE('',#809,1.4);
#811=EDGE_CURVE('',#782,#799,#810,.T.);
#812=ORIENTED_EDGE('',*,*,#811,.F.);
#813=EDGE_LOOP('',(#788,#797,#805,#812));
#814=FACE_OUTER_BOUND('',#813,.T.);
#815=ADVANCED_FACE('',(#814),#778,.T.);
#816=CARTESIAN_POINT('',(-7.840000000000018,1.421085E-014,2.46));
#817=DIRECTION('',(-1.0,0.0,0.0));
#818=DIRECTION('',(0.0,0.0,1.0));
#819=AXIS2_PLACEMENT_3D('',#816,#817,#818);
#820=CYLINDRICAL_SURFACE('',#819,1.4);
#821=ORIENTED_EDGE('',*,*,#787,.T.);
#822=CARTESIAN_POINT('',(-6.840000000000003,1.421085E-014,2.46));
#823=DIRECTION('',(1.0,0.0,0.0));
#824=DIRECTION('',(0.0,0.0,1.0));
#825=AXIS2_PLACEMENT_3D('',#822,#823,#824);
#826=CIRCLE('',#825,1.4);
#827=EDGE_CURVE('',#799,#782,#826,.T.);
#828=ORIENTED_EDGE('',*,*,#827,.F.);
#829=ORIENTED_EDGE('',*,*,#804,.F.);
#830=CARTESIAN_POINT('',(-8.840000000000018,1.421085E-014,2.46));
#831=DIRECTION('',(-1.0,0.0,0.0));
#832=DIRECTION('',(0.0,0.0,1.0));
#833=AXIS2_PLACEMENT_3D('',#830,#831,#832);
#834=CIRCLE('',#833,1.4);
#835=EDGE_CURVE('',#780,#790,#834,.T.);
#836=ORIENTED_EDGE('',*,*,#835,.F.);
#837=EDGE_LOOP('',(#821,#828,#829,#836));
#838=FACE_OUTER_BOUND('',#837,.T.);
#839=ADVANCED_FACE('',(#838),#820,.T.);
#840=CARTESIAN_POINT('',(-6.840000000000003,1.421085E-014,2.46));
#841=DIRECTION('',(1.0,0.0,0.0));
#842=DIRECTION('',(0.0,0.0,-1.0));
#843=AXIS2_PLACEMENT_3D('',#840,#841,#842);
#844=PLANE('',#843);
#845=ORIENTED_EDGE('',*,*,#811,.T.);
#846=ORIENTED_EDGE('',*,*,#827,.T.);
#847=EDGE_LOOP('',(#845,#846));
#848=FACE_OUTER_BOUND('',#847,.T.);
#849=ADVANCED_FACE('',(#848),#844,.T.);
#850=CARTESIAN_POINT('',(-8.840000000000018,1.421085E-014,2.46));
#851=DIRECTION('',(0.0,0.0,1.0));
#852=DIRECTION('',(1.0,0.0,0.0));
#853=AXIS2_PLACEMENT_3D('',#850,#851,#852);
#854=SPHERICAL_SURFACE('',#853,1.4);
#855=ORIENTED_EDGE('',*,*,#835,.T.);
#856=ORIENTED_EDGE('',*,*,#796,.T.);
#857=EDGE_LOOP('',(#855,#856));
#858=FACE_OUTER_BOUND('',#857,.T.);
#859=ADVANCED_FACE('',(#858),#854,.T.);
#860=CLOSED_SHELL('',(#815,#839,#849,#859));
#861=MANIFOLD_SOLID_BREP('7C1C',#860);
#862=STYLED_ITEM('NONE',(#772),#861);
#863=CARTESIAN_POINT('',(-1.421085E-014,2.725000000000023,5.0));
#864=DIRECTION('',(0.0,0.0,1.0));
#865=DIRECTION('',(1.0,0.0,0.0));
#866=AXIS2_PLACEMENT_3D('',#863,#864,#865);
#867=PLANE('',#866);
#868=CARTESIAN_POINT('',(0.5,2.975000000000023,5.0));
#869=VERTEX_POINT('',#868);
#870=CARTESIAN_POINT('',(0.5,2.475000000000023,5.0));
#871=VERTEX_POINT('',#870);
#872=CARTESIAN_POINT('',(0.5,2.975000000000023,5.0));
#873=DIRECTION('',(0.0,-1.0,0.0));
#874=VECTOR('',#873,0.5);
#875=LINE('',#872,#874);
#876=EDGE_CURVE('',#869,#871,#875,.T.);
#877=ORIENTED_EDGE('',*,*,#876,.F.);
#878=CARTESIAN_POINT('',(-0.500000000000028,2.975000000000023,5.0));
#879=VERTEX_POINT('',#878);
#880=CARTESIAN_POINT('',(-0.500000000000028,2.975000000000023,5.0));
#881=DIRECTION('',(1.0,0.0,0.0));
#882=VECTOR('',#881,1.000000000000028);
#883=LINE('',#880,#882);
#884=EDGE_CURVE('',#879,#869,#883,.T.);
#885=ORIENTED_EDGE('',*,*,#884,.F.);
#886=CARTESIAN_POINT('',(-0.500000000000028,2.475000000000023,5.0));
#887=VERTEX_POINT('',#886);
#888=CARTESIAN_POINT('',(-0.500000000000028,2.475000000000023,5.0));
#889=DIRECTION('',(0.0,1.0,0.0));
#890=VECTOR('',#889,0.5);
#891=LINE('',#888,#890);
#892=EDGE_CURVE('',#887,#879,#891,.T.);
#893=ORIENTED_EDGE('',*,*,#892,.F.);
#894=CARTESIAN_POINT('',(0.5,2.475000000000023,5.0));
#895=DIRECTION('',(-1.0,0.0,0.0));
#896=VECTOR('',#895,1.000000000000028);
#897=LINE('',#894,#896);
#898=EDGE_CURVE('',#871,#887,#897,.T.);
#899=ORIENTED_EDGE('',*,*,#898,.F.);
#900=EDGE_LOOP('',(#877,#885,#893,#899));
#901=FACE_OUTER_BOUND('',#900,.T.);
#902=ADVANCED_FACE('',(#901),#867,.T.);
#903=CARTESIAN_POINT('',(-1.67847352024927,0.046728971962636,10.0));
#904=DIRECTION('',(0.0,0.0,1.0));
#905=DIRECTION('',(1.0,0.0,0.0));
#906=AXIS2_PLACEMENT_3D('',#903,#904,#905);
#907=PLANE('',#906);
#908=CARTESIAN_POINT('',(-6.840000000000003,2.475000000000023,10.0));
#909=VERTEX_POINT('',#908);
#910=CARTESIAN_POINT('',(3.259999999999991,2.475000000000023,10.0));
#911=VERTEX_POINT('',#910);
#912=CARTESIAN_POINT('',(-6.840000000000003,2.475000000000023,10.0));
#913=DIRECTION('',(1.0,0.0,0.0));
#914=VECTOR('',#913,10.099999999999994);
#915=LINE('',#912,#914);
#916=EDGE_CURVE('',#909,#911,#915,.T.);
#917=ORIENTED_EDGE('',*,*,#916,.F.);
#918=CARTESIAN_POINT('',(-6.840000000000003,-2.474999999999994,10.0));
#919=VERTEX_POINT('',#918);
#920=CARTESIAN_POINT('',(-6.840000000000003,-2.474999999999994,10.0));
#921=DIRECTION('',(0.0,1.0,0.0));
#922=VECTOR('',#921,4.950000000000017);
#923=LINE('',#920,#922);
#924=EDGE_CURVE('',#919,#909,#923,.T.);
#925=ORIENTED_EDGE('',*,*,#924,.F.);
#926=CARTESIAN_POINT('',(-0.500000000000028,-2.475000000000023,10.0));
#927=VERTEX_POINT('',#926);
#928=CARTESIAN_POINT('',(-0.500000000000028,-2.475000000000023,10.0));
#929=DIRECTION('',(-1.0,0.0,0.0));
#930=VECTOR('',#929,6.339999999999975);
#931=LINE('',#928,#930);
#932=EDGE_CURVE('',#927,#919,#931,.T.);
#933=ORIENTED_EDGE('',*,*,#932,.F.);
#934=CARTESIAN_POINT('',(-0.500000000000028,-1.975000000000023,10.0));
#935=VERTEX_POINT('',#934);
#936=CARTESIAN_POINT('',(-0.500000000000028,-1.975000000000023,10.0));
#937=DIRECTION('',(0.0,-1.0,0.0));
#938=VECTOR('',#937,0.5);
#939=LINE('',#936,#938);
#940=EDGE_CURVE('',#935,#927,#939,.T.);
#941=ORIENTED_EDGE('',*,*,#940,.F.);
#942=CARTESIAN_POINT('',(0.5,-1.975000000000023,10.0));
#943=VERTEX_POINT('',#942);
#944=CARTESIAN_POINT('',(0.5,-1.975000000000023,10.0));
#945=DIRECTION('',(-1.0,0.0,0.0));
#946=VECTOR('',#945,1.000000000000028);
#947=LINE('',#944,#946);
#948=EDGE_CURVE('',#943,#935,#947,.T.);
#949=ORIENTED_EDGE('',*,*,#948,.F.);
#950=CARTESIAN_POINT('',(0.5,-2.475000000000023,10.0));
#951=VERTEX_POINT('',#950);
#952=CARTESIAN_POINT('',(0.5,-2.475000000000023,10.0));
#953=DIRECTION('',(0.0,1.0,0.0));
#954=VECTOR('',#953,0.5);
#955=LINE('',#952,#954);
#956=EDGE_CURVE('',#951,#943,#955,.T.);
#957=ORIENTED_EDGE('',*,*,#956,.F.);
#958=CARTESIAN_POINT('',(3.259999999999991,-2.475000000000023,10.0));
#959=VERTEX_POINT('',#958);
#960=CARTESIAN_POINT('',(3.259999999999991,-2.475000000000023,10.0));
#961=DIRECTION('',(-1.0,0.0,0.0));
#962=VECTOR('',#961,2.759999999999991);
#963=LINE('',#960,#962);
#964=EDGE_CURVE('',#959,#951,#963,.T.);
#965=ORIENTED_EDGE('',*,*,#964,.F.);
#966=CARTESIAN_POINT('',(3.259999999999991,2.475000000000023,10.0));
#967=DIRECTION('',(0.0,-1.0,0.0));
#968=VECTOR('',#967,4.950000000000046);
#969=LINE('',#966,#968);
#970=EDGE_CURVE('',#911,#959,#969,.T.);
#971=ORIENTED_EDGE('',*,*,#970,.F.);
#972=EDGE_LOOP('',(#917,#925,#933,#941,#949,#957,#965,#971));
#973=FACE_OUTER_BOUND('',#972,.T.);
#974=ADVANCED_FACE('',(#973),#907,.T.);
#975=CARTESIAN_POINT('',(-1.678473520249241,0.046728971962608,0.0));
#976=DIRECTION('',(0.0,0.0,1.0));
#977=DIRECTION('',(1.0,0.0,0.0));
#978=AXIS2_PLACEMENT_3D('',#975,#976,#977);
#979=PLANE('',#978);
#980=CARTESIAN_POINT('',(0.5,-2.475000000000023,0.0));
#981=VERTEX_POINT('',#980);
#982=CARTESIAN_POINT('',(3.259999999999991,-2.475000000000023,0.0));
#983=VERTEX_POINT('',#982);
#984=CARTESIAN_POINT('',(0.5,-2.475000000000023,0.0));
#985=DIRECTION('',(1.0,0.0,0.0));
#986=VECTOR('',#985,2.759999999999991);
#987=LINE('',#984,#986);
#988=EDGE_CURVE('',#981,#983,#987,.T.);
#989=ORIENTED_EDGE('',*,*,#988,.F.);
#990=CARTESIAN_POINT('',(0.5,-1.975000000000023,0.0));
#991=VERTEX_POINT('',#990);
#992=CARTESIAN_POINT('',(0.5,-1.975000000000023,0.0));
#993=DIRECTION('',(0.0,-1.0,0.0));
#994=VECTOR('',#993,0.5);
#995=LINE('',#992,#994);
#996=EDGE_CURVE('',#991,#981,#995,.T.);
#997=ORIENTED_EDGE('',*,*,#996,.F.);
#998=CARTESIAN_POINT('',(-0.500000000000028,-1.975000000000023,0.0));
#999=VERTEX_POINT('',#998);
#1000=CARTESIAN_POINT('',(-0.500000000000028,-1.975000000000023,0.0));
#1001=DIRECTION('',(1.0,0.0,0.0));
#1002=VECTOR('',#1001,1.000000000000028);
#1003=LINE('',#1000,#1002);
#1004=EDGE_CURVE('',#999,#991,#1003,.T.);
#1005=ORIENTED_EDGE('',*,*,#1004,.F.);
#1006=CARTESIAN_POINT('',(-0.500000000000028,-2.475000000000023,0.0));
#1007=VERTEX_POINT('',#1006);
#1008=CARTESIAN_POINT('',(-0.500000000000028,-2.475000000000023,0.0));
#1009=DIRECTION('',(0.0,1.0,0.0));
#1010=VECTOR('',#1009,0.5);
#1011=LINE('',#1008,#1010);
#1012=EDGE_CURVE('',#1007,#999,#1011,.T.);
#1013=ORIENTED_EDGE('',*,*,#1012,.F.);
#1014=CARTESIAN_POINT('',(-6.840000000000003,-2.474999999999994,0.0));
#1015=VERTEX_POINT('',#1014);
#1016=CARTESIAN_POINT('',(-6.840000000000003,-2.474999999999994,0.0));
#1017=DIRECTION('',(1.0,0.0,0.0));
#1018=VECTOR('',#1017,6.339999999999975);
#1019=LINE('',#1016,#1018);
#1020=EDGE_CURVE('',#1015,#1007,#1019,.T.);
#1021=ORIENTED_EDGE('',*,*,#1020,.F.);
#1022=CARTESIAN_POINT('',(-6.840000000000003,2.475000000000023,0.0));
#1023=VERTEX_POINT('',#1022);
#1024=CARTESIAN_POINT('',(-6.840000000000003,2.475000000000023,0.0));
#1025=DIRECTION('',(0.0,-1.0,0.0));
#1026=VECTOR('',#1025,4.950000000000017);
#1027=LINE('',#1024,#1026);
#1028=EDGE_CURVE('',#1023,#1015,#1027,.T.);
#1029=ORIENTED_EDGE('',*,*,#1028,.F.);
#1030=CARTESIAN_POINT('',(-0.500000000000028,2.475000000000023,0.0));
#1031=VERTEX_POINT('',#1030);
#1032=CARTESIAN_POINT('',(-0.500000000000028,2.475000000000023,0.0));
#1033=DIRECTION('',(-1.0,0.0,0.0));
#1034=VECTOR('',#1033,6.339999999999975);
#1035=LINE('',#1032,#1034);
#1036=EDGE_CURVE('',#1031,#1023,#1035,.T.);
#1037=ORIENTED_EDGE('',*,*,#1036,.F.);
#1038=CARTESIAN_POINT('',(-0.5,2.975000000000023,0.0));
#1039=VERTEX_POINT('',#1038);
#1040=CARTESIAN_POINT('',(-0.5,2.975000000000023,0.0));
#1041=DIRECTION('',(0.0,-1.0,0.0));
#1042=VECTOR('',#1041,0.5);
#1043=LINE('',#1040,#1042);
#1044=EDGE_CURVE('',#1039,#1031,#1043,.T.);
#1045=ORIENTED_EDGE('',*,*,#1044,.F.);
#1046=CARTESIAN_POINT('',(0.5,2.975000000000023,0.0));
#1047=VERTEX_POINT('',#1046);
#1048=CARTESIAN_POINT('',(0.5,2.975000000000023,0.0));
#1049=DIRECTION('',(-1.0,0.0,0.0));
#1050=VECTOR('',#1049,1.0);
#1051=LINE('',#1048,#1050);
#1052=EDGE_CURVE('',#1047,#1039,#1051,.T.);
#1053=ORIENTED_EDGE('',*,*,#1052,.F.);
#1054=CARTESIAN_POINT('',(0.5,2.475000000000023,0.0));
#1055=VERTEX_POINT('',#1054);
#1056=CARTESIAN_POINT('',(0.5,2.475000000000023,0.0));
#1057=DIRECTION('',(0.0,1.0,0.0));
#1058=VECTOR('',#1057,0.5);
#1059=LINE('',#1056,#1058);
#1060=EDGE_CURVE('',#1055,#1047,#1059,.T.);
#1061=ORIENTED_EDGE('',*,*,#1060,.F.);
#1062=CARTESIAN_POINT('',(3.259999999999991,2.475000000000023,0.0));
#1063=VERTEX_POINT('',#1062);
#1064=CARTESIAN_POINT('',(3.259999999999991,2.475000000000023,0.0));
#1065=DIRECTION('',(-1.0,0.0,0.0));
#1066=VECTOR('',#1065,2.759999999999991);
#1067=LINE('',#1064,#1066);
#1068=EDGE_CURVE('',#1063,#1055,#1067,.T.);
#1069=ORIENTED_EDGE('',*,*,#1068,.F.);
#1070=CARTESIAN_POINT('',(3.259999999999991,-2.475000000000023,0.0));
#1071=DIRECTION('',(0.0,1.0,0.0));
#1072=VECTOR('',#1071,4.950000000000046);
#1073=LINE('',#1070,#1072);
#1074=EDGE_CURVE('',#983,#1063,#1073,.T.);
#1075=ORIENTED_EDGE('',*,*,#1074,.F.);
#1076=EDGE_LOOP('',(#989,#997,#1005,#1013,#1021,#1029,#1037,#1045,#1053,#1061,#1069,#1075));
#1077=FACE_OUTER_BOUND('',#1076,.T.);
#1078=ADVANCED_FACE('',(#1077),#979,.F.);
#1079=CARTESIAN_POINT('',(0.5,-2.475000000000023,0.0));
#1080=DIRECTION('',(-1.0,0.0,0.0));
#1081=DIRECTION('',(0.0,0.0,1.0));
#1082=AXIS2_PLACEMENT_3D('',#1079,#1080,#1081);
#1083=PLANE('',#1082);
#1084=ORIENTED_EDGE('',*,*,#956,.T.);
#1085=CARTESIAN_POINT('',(0.5,-1.975000000000023,0.0));
#1086=DIRECTION('',(0.0,0.0,1.0));
#1087=VECTOR('',#1086,10.0);
#1088=LINE('',#1085,#1087);
#1089=EDGE_CURVE('',#991,#943,#1088,.T.);
#1090=ORIENTED_EDGE('',*,*,#1089,.F.);
#1091=ORIENTED_EDGE('',*,*,#996,.T.);
#1092=CARTESIAN_POINT('',(0.5,-2.475000000000023,0.0));
#1093=DIRECTION('',(0.0,0.0,1.0));
#1094=VECTOR('',#1093,10.0);
#1095=LINE('',#1092,#1094);
#1096=EDGE_CURVE('',#981,#951,#1095,.T.);
#1097=ORIENTED_EDGE('',*,*,#1096,.T.);
#1098=EDGE_LOOP('',(#1084,#1090,#1091,#1097));
#1099=FACE_OUTER_BOUND('',#1098,.T.);
#1100=ADVANCED_FACE('',(#1099),#1083,.T.);
#1101=CARTESIAN_POINT('',(0.5,-1.975000000000023,0.0));
#1102=DIRECTION('',(0.0,-1.0,0.0));
#1103=DIRECTION('',(0.0,0.0,-1.0));
#1104=AXIS2_PLACEMENT_3D('',#1101,#1102,#1103);
#1105=PLANE('',#1104);
#1106=ORIENTED_EDGE('',*,*,#948,.T.);
#1107=CARTESIAN_POINT('',(-0.500000000000028,-1.975000000000023,0.0));
#1108=DIRECTION('',(0.0,0.0,1.0));
#1109=VECTOR('',#1108,10.0);
#1110=LINE('',#1107,#1109);
#1111=EDGE_CURVE('',#999,#935,#1110,.T.);
#1112=ORIENTED_EDGE('',*,*,#1111,.F.);
#1113=ORIENTED_EDGE('',*,*,#1004,.T.);
#1114=ORIENTED_EDGE('',*,*,#1089,.T.);
#1115=EDGE_LOOP('',(#1106,#1112,#1113,#1114));
#1116=FACE_OUTER_BOUND('',#1115,.T.);
#1117=ADVANCED_FACE('',(#1116),#1105,.T.);
#1118=CARTESIAN_POINT('',(-0.500000000000028,-1.975000000000023,0.0));
#1119=DIRECTION('',(1.0,0.0,0.0));
#1120=DIRECTION('',(0.0,0.0,-1.0));
#1121=AXIS2_PLACEMENT_3D('',#1118,#1119,#1120);
#1122=PLANE('',#1121);
#1123=ORIENTED_EDGE('',*,*,#940,.T.);
#1124=CARTESIAN_POINT('',(-0.500000000000028,-2.475000000000023,0.0));
#1125=DIRECTION('',(0.0,0.0,1.0));
#1126=VECTOR('',#1125,10.0);
#1127=LINE('',#1124,#1126);
#1128=EDGE_CURVE('',#1007,#927,#1127,.T.);
#1129=ORIENTED_EDGE('',*,*,#1128,.F.);
#1130=ORIENTED_EDGE('',*,*,#1012,.T.);
#1131=ORIENTED_EDGE('',*,*,#1111,.T.);
#1132=EDGE_LOOP('',(#1123,#1129,#1130,#1131));
#1133=FACE_OUTER_BOUND('',#1132,.T.);
#1134=ADVANCED_FACE('',(#1133),#1122,.T.);
#1135=CARTESIAN_POINT('',(-0.500000000000028,-2.475000000000023,0.0));
#1136=DIRECTION('',(0.0,-1.0,0.0));
#1137=DIRECTION('',(0.0,0.0,-1.0));
#1138=AXIS2_PLACEMENT_3D('',#1135,#1136,#1137);
#1139=PLANE('',#1138);
#1140=ORIENTED_EDGE('',*,*,#932,.T.);
#1141=CARTESIAN_POINT('',(-6.840000000000003,-2.474999999999994,0.0));
#1142=DIRECTION('',(0.0,0.0,1.0));
#1143=VECTOR('',#1142,10.0);
#1144=LINE('',#1141,#1143);
#1145=EDGE_CURVE('',#1015,#919,#1144,.T.);
#1146=ORIENTED_EDGE('',*,*,#1145,.F.);
#1147=ORIENTED_EDGE('',*,*,#1020,.T.);
#1148=ORIENTED_EDGE('',*,*,#1128,.T.);
#1149=EDGE_LOOP('',(#1140,#1146,#1147,#1148));
#1150=FACE_OUTER_BOUND('',#1149,.T.);
#1151=ADVANCED_FACE('',(#1150),#1139,.T.);
#1152=CARTESIAN_POINT('',(-6.840000000000003,-2.474999999999994,0.0));
#1153=DIRECTION('',(-1.0,0.0,0.0));
#1154=DIRECTION('',(0.0,0.0,1.0));
#1155=AXIS2_PLACEMENT_3D('',#1152,#1153,#1154);
#1156=PLANE('',#1155);
#1157=ORIENTED_EDGE('',*,*,#924,.T.);
#1158=CARTESIAN_POINT('',(-6.840000000000003,2.475000000000023,0.0));
#1159=DIRECTION('',(0.0,0.0,1.0));
#1160=VECTOR('',#1159,10.0);
#1161=LINE('',#1158,#1160);
#1162=EDGE_CURVE('',#1023,#909,#1161,.T.);
#1163=ORIENTED_EDGE('',*,*,#1162,.F.);
#1164=ORIENTED_EDGE('',*,*,#1028,.T.);
#1165=ORIENTED_EDGE('',*,*,#1145,.T.);
#1166=EDGE_LOOP('',(#1157,#1163,#1164,#1165));
#1167=FACE_OUTER_BOUND('',#1166,.T.);
#1168=ADVANCED_FACE('',(#1167),#1156,.T.);
#1169=CARTESIAN_POINT('',(-0.500000000000028,2.475000000000023,0.0));
#1170=DIRECTION('',(-1.0,0.0,0.0));
#1171=DIRECTION('',(0.0,0.0,1.0));
#1172=AXIS2_PLACEMENT_3D('',#1169,#1170,#1171);
#1173=PLANE('',#1172);
#1174=ORIENTED_EDGE('',*,*,#892,.T.);
#1175=CARTESIAN_POINT('',(-0.5,2.975000000000023,0.0));
#1176=DIRECTION('',(0.0,0.0,1.0));
#1177=VECTOR('',#1176,5.0);
#1178=LINE('',#1175,#1177);
#1179=EDGE_CURVE('',#1039,#879,#1178,.T.);
#1180=ORIENTED_EDGE('',*,*,#1179,.F.);
#1181=ORIENTED_EDGE('',*,*,#1044,.T.);
#1182=CARTESIAN_POINT('',(-0.500000000000028,2.475000000000023,0.0));
#1183=DIRECTION('',(0.0,0.0,1.0));
#1184=VECTOR('',#1183,5.0);
#1185=LINE('',#1182,#1184);
#1186=EDGE_CURVE('',#1031,#887,#1185,.T.);
#1187=ORIENTED_EDGE('',*,*,#1186,.T.);
#1188=EDGE_LOOP('',(#1174,#1180,#1181,#1187));
#1189=FACE_OUTER_BOUND('',#1188,.T.);
#1190=ADVANCED_FACE('',(#1189),#1173,.T.);
#1191=CARTESIAN_POINT('',(-0.5,2.975000000000023,0.0));
#1192=DIRECTION('',(0.0,1.0,0.0));
#1193=DIRECTION('',(0.0,0.0,1.0));
#1194=AXIS2_PLACEMENT_3D('',#1191,#1192,#1193);
#1195=PLANE('',#1194);
#1196=ORIENTED_EDGE('',*,*,#884,.T.);
#1197=CARTESIAN_POINT('',(0.5,2.975000000000023,0.0));
#1198=DIRECTION('',(0.0,0.0,1.0));
#1199=VECTOR('',#1198,5.0);
#1200=LINE('',#1197,#1199);
#1201=EDGE_CURVE('',#1047,#869,#1200,.T.);
#1202=ORIENTED_EDGE('',*,*,#1201,.F.);
#1203=ORIENTED_EDGE('',*,*,#1052,.T.);
#1204=ORIENTED_EDGE('',*,*,#1179,.T.);
#1205=EDGE_LOOP('',(#1196,#1202,#1203,#1204));
#1206=FACE_OUTER_BOUND('',#1205,.T.);
#1207=ADVANCED_FACE('',(#1206),#1195,.T.);
#1208=CARTESIAN_POINT('',(0.5,2.975000000000023,0.0));
#1209=DIRECTION('',(1.0,0.0,0.0));
#1210=DIRECTION('',(0.0,0.0,-1.0));
#1211=AXIS2_PLACEMENT_3D('',#1208,#1209,#1210);
#1212=PLANE('',#1211);
#1213=ORIENTED_EDGE('',*,*,#876,.T.);
#1214=CARTESIAN_POINT('',(0.5,2.475000000000023,0.0));
#1215=DIRECTION('',(0.0,0.0,1.0));
#1216=VECTOR('',#1215,5.0);
#1217=LINE('',#1214,#1216);
#1218=EDGE_CURVE('',#1055,#871,#1217,.T.);
#1219=ORIENTED_EDGE('',*,*,#1218,.F.);
#1220=ORIENTED_EDGE('',*,*,#1060,.T.);
#1221=ORIENTED_EDGE('',*,*,#1201,.T.);
#1222=EDGE_LOOP('',(#1213,#1219,#1220,#1221));
#1223=FACE_OUTER_BOUND('',#1222,.T.);
#1224=ADVANCED_FACE('',(#1223),#1212,.T.);
#1225=CARTESIAN_POINT('',(0.5,2.475000000000023,0.0));
#1226=DIRECTION('',(0.0,1.0,0.0));
#1227=DIRECTION('',(0.0,0.0,1.0));
#1228=AXIS2_PLACEMENT_3D('',#1225,#1226,#1227);
#1229=PLANE('',#1228);
#1230=ORIENTED_EDGE('',*,*,#916,.T.);
#1231=CARTESIAN_POINT('',(3.259999999999991,2.475000000000023,0.0));
#1232=DIRECTION('',(0.0,0.0,1.0));
#1233=VECTOR('',#1232,10.0);
#1234=LINE('',#1231,#1233);
#1235=EDGE_CURVE('',#1063,#911,#1234,.T.);
#1236=ORIENTED_EDGE('',*,*,#1235,.F.);
#1237=ORIENTED_EDGE('',*,*,#1068,.T.);
#1238=ORIENTED_EDGE('',*,*,#1218,.T.);
#1239=ORIENTED_EDGE('',*,*,#898,.T.);
#1240=ORIENTED_EDGE('',*,*,#1186,.F.);
#1241=ORIENTED_EDGE('',*,*,#1036,.T.);
#1242=ORIENTED_EDGE('',*,*,#1162,.T.);
#1243=EDGE_LOOP('',(#1230,#1236,#1237,#1238,#1239,#1240,#1241,#1242));
#1244=FACE_OUTER_BOUND('',#1243,.T.);
#1245=ADVANCED_FACE('',(#1244),#1229,.T.);
#1246=CARTESIAN_POINT('',(3.259999999999991,2.475000000000023,0.0));
#1247=DIRECTION('',(1.0,0.0,0.0));
#1248=DIRECTION('',(0.0,0.0,-1.0));
#1249=AXIS2_PLACEMENT_3D('',#1246,#1247,#1248);
#1250=PLANE('',#1249);
#1251=ORIENTED_EDGE('',*,*,#970,.T.);
#1252=CARTESIAN_POINT('',(3.259999999999991,-2.475000000000023,0.0));
#1253=DIRECTION('',(0.0,0.0,1.0));
#1254=VECTOR('',#1253,10.0);
#1255=LINE('',#1252,#1254);
#1256=EDGE_CURVE('',#983,#959,#1255,.T.);
#1257=ORIENTED_EDGE('',*,*,#1256,.F.);
#1258=ORIENTED_EDGE('',*,*,#1074,.T.);
#1259=ORIENTED_EDGE('',*,*,#1235,.T.);
#1260=EDGE_LOOP('',(#1251,#1257,#1258,#1259));
#1261=FACE_OUTER_BOUND('',#1260,.T.);
#1262=ADVANCED_FACE('',(#1261),#1250,.T.);
#1263=CARTESIAN_POINT('',(3.259999999999991,-2.475000000000023,0.0));
#1264=DIRECTION('',(0.0,-1.0,0.0));
#1265=DIRECTION('',(0.0,0.0,-1.0));
#1266=AXIS2_PLACEMENT_3D('',#1263,#1264,#1265);
#1267=PLANE('',#1266);
#1268=ORIENTED_EDGE('',*,*,#964,.T.);
#1269=ORIENTED_EDGE('',*,*,#1096,.F.);
#1270=ORIENTED_EDGE('',*,*,#988,.T.);
#1271=ORIENTED_EDGE('',*,*,#1256,.T.);
#1272=EDGE_LOOP('',(#1268,#1269,#1270,#1271));
#1273=FACE_OUTER_BOUND('',#1272,.T.);
#1274=ADVANCED_FACE('',(#1273),#1267,.T.);
#1275=CLOSED_SHELL('',(#902,#974,#1078,#1100,#1117,#1134,#1151,#1168,#1190,#1207,#1224,#1245,#1262,#1274));
#1276=MANIFOLD_SOLID_BREP('7C11',#1275);
#1277=COLOUR_RGB('250',0.33,0.33,0.33);
#1278=SURFACE_STYLE_USAGE(.BOTH.,#1279);
#1279=SURFACE_SIDE_STYLE('NONE',(#1280));
#1280=SURFACE_STYLE_FILL_AREA(#1281);
#1281=FILL_AREA_STYLE('NONE',(#1282));
#1282=FILL_AREA_STYLE_COLOUR('NONE',#1277);
#1283=PRESENTATION_STYLE_ASSIGNMENT((#1278));
#1284=STYLED_ITEM('NONE',(#1283),#1276);
#1285=ADVANCED_BREP_SHAPE_REPRESENTATION('ABSR1',(#214,#374,#525,#676,#765,#861,#1276),#28);
#1286=SHAPE_REPRESENTATION_RELATIONSHIP('SRRPL1','',#1285,#62);
ENDSEC;
END-ISO-10303-21;
