ISO-10303-21;
HEADER;
/****************************************************************
 * Generated by software with PDElib inside                    *
 * PDElib Version v51a, created Fri 09/10/2010                  *
 * ITI Transcendata (http://www.transcendata.com/)              *
 ****************************************************************/
FILE_DESCRIPTION((''),'2;1');
FILE_NAME('LED_DIALIGHT_550-3509F.stp','2012-07-13T10:05:40',(''),(''),'Mechanical Desktop 2011','Mechanical Desktop 2011',', , ');
FILE_SCHEMA(('AUTOMOTIVE_DESIGN { 1 2 10303 214 1 1 1 1 }'));
ENDSEC;
DATA;
#10=(NAMED_UNIT(*)PLANE_ANGLE_UNIT()SI_UNIT($,.RADIAN.));
#11=DIMENSIONAL_EXPONENTS(0.0,0.0,0.0,0.0,0.0,0.0,0.0);
#12=PLANE_ANGLE_MEASURE_WITH_UNIT(PLANE_ANGLE_MEASURE(0.0174532925),#10);
#16=(CONVERSION_BASED_UNIT('DEGREE',#12)NAMED_UNIT(#11)PLANE_ANGLE_UNIT());
#20=(NAMED_UNIT(*)SI_UNIT($,.STERADIAN.)SOLID_ANGLE_UNIT());
#24=(LENGTH_UNIT()NAMED_UNIT(*)SI_UNIT(.MILLI.,.METRE.));
#26=UNCERTAINTY_MEASURE_WITH_UNIT(LENGTH_MEASURE(0.000001),#24,'DISTANCE_ACCURACY_VALUE','');
#28=(GEOMETRIC_REPRESENTATION_CONTEXT(3)GLOBAL_UNCERTAINTY_ASSIGNED_CONTEXT((#26))GLOBAL_UNIT_ASSIGNED_CONTEXT((#16,#20,#24))REPRESENTATION_CONTEXT('','3D'));
#29=APPLICATION_CONTEXT('automotive design');
#30=APPLICATION_PROTOCOL_DEFINITION('INTERNATIONAL_STANDARD','automotive_design',1998,#29);
#31=PRODUCT_CONTEXT('3D Mechanical Parts',#29,'mechanical');
#32=PRODUCT('Product','Product','',(#31));
#33=PRODUCT_RELATED_PRODUCT_CATEGORY('part',$,(#32));
#34=PRODUCT_CATEGORY('part',$);
#35=PERSON('1','Design','Joe',$,$,$);
#36=ORGANIZATION($,'None','None');
#37=PERSON_AND_ORGANIZATION(#35,#36);
#38=PERSON_AND_ORGANIZATION_ROLE('design_owner');
#39=APPLIED_PERSON_AND_ORGANIZATION_ASSIGNMENT(#37,#38,(#32));
#40=PRODUCT_DEFINITION_FORMATION_WITH_SPECIFIED_SOURCE('None','',#32,.BOUGHT.);
#41=PERSON('2','Creator','Joe',$,$,$);
#42=ORGANIZATION($,'None','None');
#43=PERSON_AND_ORGANIZATION(#41,#42);
#44=PERSON_AND_ORGANIZATION_ROLE('creator');
#45=APPLIED_PERSON_AND_ORGANIZATION_ASSIGNMENT(#43,#44,(#40));
#46=PERSON('3','Supplier','Joe',$,$,$);
#47=ORGANIZATION($,'None','None');
#48=PERSON_AND_ORGANIZATION(#46,#47);
#49=PERSON_AND_ORGANIZATION_ROLE('design_supplier');
#50=APPLIED_PERSON_AND_ORGANIZATION_ASSIGNMENT(#48,#49,(#40));
#51=PRODUCT_DEFINITION_CONTEXT('part definition',#29,'design');
#52=PRODUCT_DEFINITION('None','',#40,#51);
#53=PERSON('4','Creator','Joe',$,$,$);
#54=ORGANIZATION($,'None','None');
#55=PERSON_AND_ORGANIZATION(#53,#54);
#56=PERSON_AND_ORGANIZATION_ROLE('creator');
#57=APPLIED_PERSON_AND_ORGANIZATION_ASSIGNMENT(#55,#56,(#52));
#58=CARTESIAN_POINT('NONE',(0.0,0.0,0.0));
#59=DIRECTION('NONE',(0.0,0.0,1.0));
#60=DIRECTION('NONE',(1.0,0.0,0.0));
#61=AXIS2_PLACEMENT_3D('NONE',#58,#59,#60);
#62=SHAPE_REPRESENTATION('SR1',(#61),#28);
#63=PRODUCT_DEFINITION_SHAPE('PDS1','Test Part',#52);
#64=SHAPE_DEFINITION_REPRESENTATION(#63,#62);
#65=CARTESIAN_POINT('',(-0.253999999999996,-2.79500000000001,-3.1));
#66=DIRECTION('',(-1.0,0.0,0.0));
#67=DIRECTION('',(0.0,0.0,1.0));
#68=AXIS2_PLACEMENT_3D('',#65,#66,#67);
#69=PLANE('',#68);
#70=CARTESIAN_POINT('',(-0.253999999999996,-2.286000000000008,-3.1));
#71=VERTEX_POINT('',#70);
#72=CARTESIAN_POINT('',(-0.253999999999996,-2.286000000000008,3.810749969295014));
#73=VERTEX_POINT('',#72);
#74=CARTESIAN_POINT('',(-0.253999999999996,-2.286000000000008,-3.1));
#75=DIRECTION('',(0.0,0.0,1.0));
#76=VECTOR('',#75,6.910749969295014);
#77=LINE('',#74,#76);
#78=EDGE_CURVE('',#71,#73,#77,.T.);
#79=ORIENTED_EDGE('',*,*,#78,.F.);
#80=CARTESIAN_POINT('',(-0.253999999999996,-2.794000000000008,-3.1));
#81=VERTEX_POINT('',#80);
#82=CARTESIAN_POINT('',(-0.253999999999996,-2.286000000000007,-3.1));
#83=DIRECTION('',(0.0,-1.0,0.0));
#84=VECTOR('',#83,0.508);
#85=LINE('',#82,#84);
#86=EDGE_CURVE('',#81,#71,#85,.F.);
#87=ORIENTED_EDGE('',*,*,#86,.F.);
#88=CARTESIAN_POINT('',(-0.253999999999996,-2.794000000000008,3.810749969295014));
#89=VERTEX_POINT('',#88);
#90=CARTESIAN_POINT('',(-0.253999999999996,-2.794000000000008,-3.1));
#91=DIRECTION('',(0.0,0.0,1.0));
#92=VECTOR('',#91,6.910749969295014);
#93=LINE('',#90,#92);
#94=EDGE_CURVE('',#81,#89,#93,.T.);
#95=ORIENTED_EDGE('',*,*,#94,.T.);
#96=CARTESIAN_POINT('',(-0.253999999999996,-2.794000000000008,3.810749969295014));
#97=DIRECTION('',(0.0,1.0,0.0));
#98=VECTOR('',#97,0.508);
#99=LINE('',#96,#98);
#100=EDGE_CURVE('',#73,#89,#99,.F.);
#101=ORIENTED_EDGE('',*,*,#100,.F.);
#102=EDGE_LOOP('',(#79,#87,#95,#101));
#103=FACE_OUTER_BOUND('',#102,.T.);
#104=ADVANCED_FACE('',(#103),#69,.T.);
#105=CARTESIAN_POINT('',(-0.254999999999999,-2.286000000000008,-3.1));
#106=DIRECTION('',(0.0,1.0,0.0));
#107=DIRECTION('',(0.0,0.0,1.0));
#108=AXIS2_PLACEMENT_3D('',#105,#106,#107);
#109=PLANE('',#108);
#110=ORIENTED_EDGE('',*,*,#78,.T.);
#111=CARTESIAN_POINT('',(0.253999999999996,-2.286000000000008,2.843428166732561));
#112=VERTEX_POINT('',#111);
#113=CARTESIAN_POINT('',(-1.017,-2.286000000000008,2.793000000000006));
#114=DIRECTION('',(1.110223E-016,-1.0,1.110223E-016));
#115=DIRECTION('',(0.707106781186547,1.570092E-016,0.707106781186547));
#116=AXIS2_PLACEMENT_3D('',#113,#114,#115);
#117=CIRCLE('',#116,1.271999999999999);
#118=EDGE_CURVE('',#112,#73,#117,.T.);
#119=ORIENTED_EDGE('',*,*,#118,.F.);
#120=CARTESIAN_POINT('',(0.253999999999996,-2.286000000000008,-3.1));
#121=VERTEX_POINT('',#120);
#122=CARTESIAN_POINT('',(0.253999999999996,-2.286000000000008,-3.1));
#123=DIRECTION('',(0.0,0.0,1.0));
#124=VECTOR('',#123,5.943428166732561);
#125=LINE('',#122,#124);
#126=EDGE_CURVE('',#121,#112,#125,.T.);
#127=ORIENTED_EDGE('',*,*,#126,.F.);
#128=CARTESIAN_POINT('',(0.253999999999996,-2.286000000000008,-3.1));
#129=DIRECTION('',(-1.0,0.0,0.0));
#130=VECTOR('',#129,0.507999999999993);
#131=LINE('',#128,#130);
#132=EDGE_CURVE('',#71,#121,#131,.F.);
#133=ORIENTED_EDGE('',*,*,#132,.F.);
#134=EDGE_LOOP('',(#110,#119,#127,#133));
#135=FACE_OUTER_BOUND('',#134,.T.);
#136=ADVANCED_FACE('',(#135),#109,.T.);
#137=CARTESIAN_POINT('',(-1.017,-2.540000000000008,2.793000000000006));
#138=DIRECTION('',(2.220446E-016,-1.0,4.930381E-032));
#139=DIRECTION('',(0.707106781186547,1.570092E-016,0.707106781186547));
#140=AXIS2_PLACEMENT_3D('',#137,#138,#139);
#141=CYLINDRICAL_SURFACE('',#140,1.271999999999999);
#142=ORIENTED_EDGE('',*,*,#100,.T.);
#143=CARTESIAN_POINT('',(0.253999999999997,-2.794000000000008,2.843428166732561));
#144=VERTEX_POINT('',#143);
#145=CARTESIAN_POINT('',(-1.017,-2.794000000000008,2.793000000000006));
#146=DIRECTION('',(1.110223E-016,-1.0,1.110223E-016));
#147=DIRECTION('',(0.707106781186547,1.570092E-016,0.707106781186547));
#148=AXIS2_PLACEMENT_3D('',#145,#146,#147);
#149=CIRCLE('',#148,1.271999999999999);
#150=EDGE_CURVE('',#144,#89,#149,.T.);
#151=ORIENTED_EDGE('',*,*,#150,.F.);
#152=CARTESIAN_POINT('',(0.253999999999996,-2.286000000000008,2.843428166732561));
#153=DIRECTION('',(0.0,-1.0,0.0));
#154=VECTOR('',#153,0.508);
#155=LINE('',#152,#154);
#156=EDGE_CURVE('',#112,#144,#155,.T.);
#157=ORIENTED_EDGE('',*,*,#156,.F.);
#158=ORIENTED_EDGE('',*,*,#118,.T.);
#159=EDGE_LOOP('',(#142,#151,#157,#158));
#160=FACE_OUTER_BOUND('',#159,.T.);
#161=ADVANCED_FACE('',(#160),#141,.T.);
#162=CARTESIAN_POINT('',(0.253999999999996,-2.285000000000005,-3.1));
#163=DIRECTION('',(1.0,0.0,0.0));
#164=DIRECTION('',(0.0,0.0,-1.0));
#165=AXIS2_PLACEMENT_3D('',#162,#163,#164);
#166=PLANE('',#165);
#167=ORIENTED_EDGE('',*,*,#156,.T.);
#168=CARTESIAN_POINT('',(0.253999999999996,-2.794000000000008,-3.1));
#169=VERTEX_POINT('',#168);
#170=CARTESIAN_POINT('',(0.253999999999996,-2.794000000000008,-3.1));
#171=DIRECTION('',(0.0,0.0,1.0));
#172=VECTOR('',#171,5.943428166732561);
#173=LINE('',#170,#172);
#174=EDGE_CURVE('',#169,#144,#173,.T.);
#175=ORIENTED_EDGE('',*,*,#174,.F.);
#176=CARTESIAN_POINT('',(0.253999999999996,-2.794000000000008,-3.1));
#177=DIRECTION('',(0.0,1.0,0.0));
#178=VECTOR('',#177,0.508);
#179=LINE('',#176,#178);
#180=EDGE_CURVE('',#121,#169,#179,.F.);
#181=ORIENTED_EDGE('',*,*,#180,.F.);
#182=ORIENTED_EDGE('',*,*,#126,.T.);
#183=EDGE_LOOP('',(#167,#175,#181,#182));
#184=FACE_OUTER_BOUND('',#183,.T.);
#185=ADVANCED_FACE('',(#184),#166,.T.);
#186=CARTESIAN_POINT('',(0.254999999999999,-2.794000000000008,-3.1));
#187=DIRECTION('',(0.0,-1.0,0.0));
#188=DIRECTION('',(0.0,0.0,-1.0));
#189=AXIS2_PLACEMENT_3D('',#186,#187,#188);
#190=PLANE('',#189);
#191=ORIENTED_EDGE('',*,*,#94,.F.);
#192=CARTESIAN_POINT('',(-0.253999999999996,-2.794000000000008,-3.1));
#193=DIRECTION('',(1.0,0.0,0.0));
#194=VECTOR('',#193,0.507999999999993);
#195=LINE('',#192,#194);
#196=EDGE_CURVE('',#169,#81,#195,.F.);
#197=ORIENTED_EDGE('',*,*,#196,.F.);
#198=ORIENTED_EDGE('',*,*,#174,.T.);
#199=ORIENTED_EDGE('',*,*,#150,.T.);
#200=EDGE_LOOP('',(#191,#197,#198,#199));
#201=FACE_OUTER_BOUND('',#200,.T.);
#202=ADVANCED_FACE('',(#201),#190,.T.);
#203=CARTESIAN_POINT('',(0.0,-2.540000000000008,-3.1));
#204=DIRECTION('',(0.0,0.0,1.0));
#205=DIRECTION('',(1.0,0.0,0.0));
#206=AXIS2_PLACEMENT_3D('',#203,#204,#205);
#207=PLANE('',#206);
#208=ORIENTED_EDGE('',*,*,#132,.T.);
#209=ORIENTED_EDGE('',*,*,#180,.T.);
#210=ORIENTED_EDGE('',*,*,#196,.T.);
#211=ORIENTED_EDGE('',*,*,#86,.T.);
#212=EDGE_LOOP('',(#208,#209,#210,#211));
#213=FACE_OUTER_BOUND('',#212,.T.);
#214=ADVANCED_FACE('',(#213),#207,.F.);
#215=CLOSED_SHELL('',(#104,#136,#161,#185,#202,#214));
#216=MANIFOLD_SOLID_BREP('16EE',#215);
#217=COLOUR_RGB('254',0.866,0.866,0.866);
#218=SURFACE_STYLE_USAGE(.BOTH.,#219);
#219=SURFACE_SIDE_STYLE('NONE',(#220));
#220=SURFACE_STYLE_FILL_AREA(#221);
#221=FILL_AREA_STYLE('NONE',(#222));
#222=FILL_AREA_STYLE_COLOUR('NONE',#217);
#223=PRESENTATION_STYLE_ASSIGNMENT((#218));
#224=STYLED_ITEM('NONE',(#223),#216);
#225=MECHANICAL_DESIGN_GEOMETRIC_PRESENTATION_REPRESENTATION('NONE',(#224,#379,#532,#627,#1640,#1781),#28);
#226=PRESENTATION_LAYER_ASSIGNMENT('3D','None',(#216,#378,#531,#619,#1632,#1773));
#227=CARTESIAN_POINT('',(-0.253999999999996,2.28499999999999,-3.1));
#228=DIRECTION('',(-1.0,0.0,0.0));
#229=DIRECTION('',(0.0,0.0,1.0));
#230=AXIS2_PLACEMENT_3D('',#227,#228,#229);
#231=PLANE('',#230);
#232=CARTESIAN_POINT('',(-0.253999999999996,2.793999999999993,-3.1));
#233=VERTEX_POINT('',#232);
#234=CARTESIAN_POINT('',(-0.253999999999996,2.793999999999993,3.810749969295014));
#235=VERTEX_POINT('',#234);
#236=CARTESIAN_POINT('',(-0.253999999999996,2.793999999999992,-3.1));
#237=DIRECTION('',(0.0,0.0,1.0));
#238=VECTOR('',#237,6.910749969295014);
#239=LINE('',#236,#238);
#240=EDGE_CURVE('',#233,#235,#239,.T.);
#241=ORIENTED_EDGE('',*,*,#240,.F.);
#242=CARTESIAN_POINT('',(-0.253999999999996,2.285999999999992,-3.1));
#243=VERTEX_POINT('',#242);
#244=CARTESIAN_POINT('',(-0.253999999999996,2.793999999999993,-3.1));
#245=DIRECTION('',(0.0,-1.0,0.0));
#246=VECTOR('',#245,0.508);
#247=LINE('',#244,#246);
#248=EDGE_CURVE('',#243,#233,#247,.F.);
#249=ORIENTED_EDGE('',*,*,#248,.F.);
#250=CARTESIAN_POINT('',(-0.253999999999996,2.285999999999992,3.810749969295014));
#251=VERTEX_POINT('',#250);
#252=CARTESIAN_POINT('',(-0.253999999999996,2.285999999999992,-3.1));
#253=DIRECTION('',(0.0,0.0,1.0));
#254=VECTOR('',#253,6.910749969295014);
#255=LINE('',#252,#254);
#256=EDGE_CURVE('',#243,#251,#255,.T.);
#257=ORIENTED_EDGE('',*,*,#256,.T.);
#258=CARTESIAN_POINT('',(-0.253999999999996,2.285999999999992,3.810749969295014));
#259=DIRECTION('',(0.0,1.0,0.0));
#260=VECTOR('',#259,0.508);
#261=LINE('',#258,#260);
#262=EDGE_CURVE('',#235,#251,#261,.F.);
#263=ORIENTED_EDGE('',*,*,#262,.F.);
#264=EDGE_LOOP('',(#241,#249,#257,#263));
#265=FACE_OUTER_BOUND('',#264,.T.);
#266=ADVANCED_FACE('',(#265),#231,.T.);
#267=CARTESIAN_POINT('',(-0.254999999999999,2.793999999999993,-3.1));
#268=DIRECTION('',(0.0,1.0,0.0));
#269=DIRECTION('',(0.0,0.0,1.0));
#270=AXIS2_PLACEMENT_3D('',#267,#268,#269);
#271=PLANE('',#270);
#272=ORIENTED_EDGE('',*,*,#240,.T.);
#273=CARTESIAN_POINT('',(0.253999999999996,2.793999999999993,2.843428166732561));
#274=VERTEX_POINT('',#273);
#275=CARTESIAN_POINT('',(-1.017,2.793999999999992,2.793000000000006));
#276=DIRECTION('',(1.110223E-016,-1.0,1.110223E-016));
#277=DIRECTION('',(0.707106781186547,1.570092E-016,0.707106781186547));
#278=AXIS2_PLACEMENT_3D('',#275,#276,#277);
#279=CIRCLE('',#278,1.271999999999999);
#280=EDGE_CURVE('',#274,#235,#279,.T.);
#281=ORIENTED_EDGE('',*,*,#280,.F.);
#282=CARTESIAN_POINT('',(0.253999999999996,2.793999999999993,-3.1));
#283=VERTEX_POINT('',#282);
#284=CARTESIAN_POINT('',(0.253999999999996,2.793999999999993,-3.1));
#285=DIRECTION('',(0.0,0.0,1.0));
#286=VECTOR('',#285,5.943428166732561);
#287=LINE('',#284,#286);
#288=EDGE_CURVE('',#283,#274,#287,.T.);
#289=ORIENTED_EDGE('',*,*,#288,.F.);
#290=CARTESIAN_POINT('',(0.253999999999996,2.793999999999993,-3.1));
#291=DIRECTION('',(-1.0,0.0,0.0));
#292=VECTOR('',#291,0.507999999999993);
#293=LINE('',#290,#292);
#294=EDGE_CURVE('',#233,#283,#293,.F.);
#295=ORIENTED_EDGE('',*,*,#294,.F.);
#296=EDGE_LOOP('',(#272,#281,#289,#295));
#297=FACE_OUTER_BOUND('',#296,.T.);
#298=ADVANCED_FACE('',(#297),#271,.T.);
#299=CARTESIAN_POINT('',(-1.017,2.539999999999992,2.793000000000006));
#300=DIRECTION('',(2.220446E-016,-1.0,4.930381E-032));
#301=DIRECTION('',(0.707106781186547,1.570092E-016,0.707106781186547));
#302=AXIS2_PLACEMENT_3D('',#299,#300,#301);
#303=CYLINDRICAL_SURFACE('',#302,1.271999999999999);
#304=ORIENTED_EDGE('',*,*,#262,.T.);
#305=CARTESIAN_POINT('',(0.253999999999997,2.285999999999993,2.843428166732561));
#306=VERTEX_POINT('',#305);
#307=CARTESIAN_POINT('',(-1.017,2.285999999999992,2.793000000000006));
#308=DIRECTION('',(1.110223E-016,-1.0,1.110223E-016));
#309=DIRECTION('',(0.707106781186547,1.570092E-016,0.707106781186547));
#310=AXIS2_PLACEMENT_3D('',#307,#308,#309);
#311=CIRCLE('',#310,1.271999999999999);
#312=EDGE_CURVE('',#306,#251,#311,.T.);
#313=ORIENTED_EDGE('',*,*,#312,.F.);
#314=CARTESIAN_POINT('',(0.253999999999996,2.793999999999993,2.843428166732561));
#315=DIRECTION('',(0.0,-1.0,0.0));
#316=VECTOR('',#315,0.508);
#317=LINE('',#314,#316);
#318=EDGE_CURVE('',#274,#306,#317,.T.);
#319=ORIENTED_EDGE('',*,*,#318,.F.);
#320=ORIENTED_EDGE('',*,*,#280,.T.);
#321=EDGE_LOOP('',(#304,#313,#319,#320));
#322=FACE_OUTER_BOUND('',#321,.T.);
#323=ADVANCED_FACE('',(#322),#303,.T.);
#324=CARTESIAN_POINT('',(0.253999999999996,2.794999999999995,-3.1));
#325=DIRECTION('',(1.0,0.0,0.0));
#326=DIRECTION('',(0.0,0.0,-1.0));
#327=AXIS2_PLACEMENT_3D('',#324,#325,#326);
#328=PLANE('',#327);
#329=ORIENTED_EDGE('',*,*,#318,.T.);
#330=CARTESIAN_POINT('',(0.253999999999996,2.285999999999993,-3.1));
#331=VERTEX_POINT('',#330);
#332=CARTESIAN_POINT('',(0.253999999999996,2.285999999999993,-3.1));
#333=DIRECTION('',(0.0,0.0,1.0));
#334=VECTOR('',#333,5.943428166732561);
#335=LINE('',#332,#334);
#336=EDGE_CURVE('',#331,#306,#335,.T.);
#337=ORIENTED_EDGE('',*,*,#336,.F.);
#338=CARTESIAN_POINT('',(0.253999999999996,2.285999999999993,-3.1));
#339=DIRECTION('',(0.0,1.0,0.0));
#340=VECTOR('',#339,0.508);
#341=LINE('',#338,#340);
#342=EDGE_CURVE('',#283,#331,#341,.F.);
#343=ORIENTED_EDGE('',*,*,#342,.F.);
#344=ORIENTED_EDGE('',*,*,#288,.T.);
#345=EDGE_LOOP('',(#329,#337,#343,#344));
#346=FACE_OUTER_BOUND('',#345,.T.);
#347=ADVANCED_FACE('',(#346),#328,.T.);
#348=CARTESIAN_POINT('',(0.254999999999999,2.285999999999993,-3.1));
#349=DIRECTION('',(0.0,-1.0,0.0));
#350=DIRECTION('',(0.0,0.0,-1.0));
#351=AXIS2_PLACEMENT_3D('',#348,#349,#350);
#352=PLANE('',#351);
#353=ORIENTED_EDGE('',*,*,#256,.F.);
#354=CARTESIAN_POINT('',(-0.253999999999996,2.285999999999993,-3.1));
#355=DIRECTION('',(1.0,0.0,0.0));
#356=VECTOR('',#355,0.507999999999993);
#357=LINE('',#354,#356);
#358=EDGE_CURVE('',#331,#243,#357,.F.);
#359=ORIENTED_EDGE('',*,*,#358,.F.);
#360=ORIENTED_EDGE('',*,*,#336,.T.);
#361=ORIENTED_EDGE('',*,*,#312,.T.);
#362=EDGE_LOOP('',(#353,#359,#360,#361));
#363=FACE_OUTER_BOUND('',#362,.T.);
#364=ADVANCED_FACE('',(#363),#352,.T.);
#365=CARTESIAN_POINT('',(0.0,2.539999999999992,-3.1));
#366=DIRECTION('',(0.0,0.0,1.0));
#367=DIRECTION('',(1.0,0.0,0.0));
#368=AXIS2_PLACEMENT_3D('',#365,#366,#367);
#369=PLANE('',#368);
#370=ORIENTED_EDGE('',*,*,#294,.T.);
#371=ORIENTED_EDGE('',*,*,#342,.T.);
#372=ORIENTED_EDGE('',*,*,#358,.T.);
#373=ORIENTED_EDGE('',*,*,#248,.T.);
#374=EDGE_LOOP('',(#370,#371,#372,#373));
#375=FACE_OUTER_BOUND('',#374,.T.);
#376=ADVANCED_FACE('',(#375),#369,.F.);
#377=CLOSED_SHELL('',(#266,#298,#323,#347,#364,#376));
#378=MANIFOLD_SOLID_BREP('16EB',#377);
#379=STYLED_ITEM('NONE',(#223),#378);
#380=CARTESIAN_POINT('',(-0.253999999999996,-0.25500000000001,-3.1));
#381=DIRECTION('',(-1.0,0.0,0.0));
#382=DIRECTION('',(0.0,0.0,1.0));
#383=AXIS2_PLACEMENT_3D('',#380,#381,#382);
#384=PLANE('',#383);
#385=CARTESIAN_POINT('',(-0.253999999999996,0.253999999999993,-3.1));
#386=VERTEX_POINT('',#385);
#387=CARTESIAN_POINT('',(-0.253999999999996,0.253999999999993,3.810749969295014));
#388=VERTEX_POINT('',#387);
#389=CARTESIAN_POINT('',(-0.253999999999996,0.253999999999992,-3.1));
#390=DIRECTION('',(0.0,0.0,1.0));
#391=VECTOR('',#390,6.910749969295014);
#392=LINE('',#389,#391);
#393=EDGE_CURVE('',#386,#388,#392,.T.);
#394=ORIENTED_EDGE('',*,*,#393,.F.);
#395=CARTESIAN_POINT('',(-0.253999999999996,-0.254000000000008,-3.1));
#396=VERTEX_POINT('',#395);
#397=CARTESIAN_POINT('',(-0.253999999999996,0.253999999999993,-3.1));
#398=DIRECTION('',(0.0,-1.0,0.0));
#399=VECTOR('',#398,0.508);
#400=LINE('',#397,#399);
#401=EDGE_CURVE('',#396,#386,#400,.F.);
#402=ORIENTED_EDGE('',*,*,#401,.F.);
#403=CARTESIAN_POINT('',(-0.253999999999996,-0.254000000000008,3.810749969295014));
#404=VERTEX_POINT('',#403);
#405=CARTESIAN_POINT('',(-0.253999999999996,-0.254000000000008,-3.1));
#406=DIRECTION('',(0.0,0.0,1.0));
#407=VECTOR('',#406,6.910749969295014);
#408=LINE('',#405,#407);
#409=EDGE_CURVE('',#396,#404,#408,.T.);
#410=ORIENTED_EDGE('',*,*,#409,.T.);
#411=CARTESIAN_POINT('',(-0.253999999999996,-0.254000000000008,3.810749969295014));
#412=DIRECTION('',(0.0,1.0,0.0));
#413=VECTOR('',#412,0.508);
#414=LINE('',#411,#413);
#415=EDGE_CURVE('',#388,#404,#414,.F.);
#416=ORIENTED_EDGE('',*,*,#415,.F.);
#417=EDGE_LOOP('',(#394,#402,#410,#416));
#418=FACE_OUTER_BOUND('',#417,.T.);
#419=ADVANCED_FACE('',(#418),#384,.T.);
#420=CARTESIAN_POINT('',(-0.254999999999999,0.253999999999993,-3.1));
#421=DIRECTION('',(0.0,1.0,0.0));
#422=DIRECTION('',(0.0,0.0,1.0));
#423=AXIS2_PLACEMENT_3D('',#420,#421,#422);
#424=PLANE('',#423);
#425=ORIENTED_EDGE('',*,*,#393,.T.);
#426=CARTESIAN_POINT('',(0.253999999999996,0.253999999999993,2.843428166732561));
#427=VERTEX_POINT('',#426);
#428=CARTESIAN_POINT('',(-1.017,0.253999999999992,2.793000000000006));
#429=DIRECTION('',(1.110223E-016,-1.0,1.110223E-016));
#430=DIRECTION('',(0.707106781186547,1.570092E-016,0.707106781186547));
#431=AXIS2_PLACEMENT_3D('',#428,#429,#430);
#432=CIRCLE('',#431,1.271999999999999);
#433=EDGE_CURVE('',#427,#388,#432,.T.);
#434=ORIENTED_EDGE('',*,*,#433,.F.);
#435=CARTESIAN_POINT('',(0.253999999999996,0.253999999999993,-3.1));
#436=VERTEX_POINT('',#435);
#437=CARTESIAN_POINT('',(0.253999999999996,0.253999999999993,-3.1));
#438=DIRECTION('',(0.0,0.0,1.0));
#439=VECTOR('',#438,5.943428166732561);
#440=LINE('',#437,#439);
#441=EDGE_CURVE('',#436,#427,#440,.T.);
#442=ORIENTED_EDGE('',*,*,#441,.F.);
#443=CARTESIAN_POINT('',(0.253999999999996,0.253999999999993,-3.1));
#444=DIRECTION('',(-1.0,0.0,0.0));
#445=VECTOR('',#444,0.507999999999993);
#446=LINE('',#443,#445);
#447=EDGE_CURVE('',#386,#436,#446,.F.);
#448=ORIENTED_EDGE('',*,*,#447,.F.);
#449=EDGE_LOOP('',(#425,#434,#442,#448));
#450=FACE_OUTER_BOUND('',#449,.T.);
#451=ADVANCED_FACE('',(#450),#424,.T.);
#452=CARTESIAN_POINT('',(-1.017,-7.387868E-015,2.793000000000006));
#453=DIRECTION('',(2.220446E-016,-1.0,4.930381E-032));
#454=DIRECTION('',(0.707106781186547,1.570092E-016,0.707106781186547));
#455=AXIS2_PLACEMENT_3D('',#452,#453,#454);
#456=CYLINDRICAL_SURFACE('',#455,1.271999999999999);
#457=ORIENTED_EDGE('',*,*,#415,.T.);
#458=CARTESIAN_POINT('',(0.253999999999997,-0.254000000000007,2.843428166732561));
#459=VERTEX_POINT('',#458);
#460=CARTESIAN_POINT('',(-1.017,-0.254000000000008,2.793000000000006));
#461=DIRECTION('',(1.110223E-016,-1.0,1.110223E-016));
#462=DIRECTION('',(0.707106781186547,1.570092E-016,0.707106781186547));
#463=AXIS2_PLACEMENT_3D('',#460,#461,#462);
#464=CIRCLE('',#463,1.271999999999999);
#465=EDGE_CURVE('',#459,#404,#464,.T.);
#466=ORIENTED_EDGE('',*,*,#465,.F.);
#467=CARTESIAN_POINT('',(0.253999999999996,0.253999999999993,2.843428166732561));
#468=DIRECTION('',(0.0,-1.0,0.0));
#469=VECTOR('',#468,0.508);
#470=LINE('',#467,#469);
#471=EDGE_CURVE('',#427,#459,#470,.T.);
#472=ORIENTED_EDGE('',*,*,#471,.F.);
#473=ORIENTED_EDGE('',*,*,#433,.T.);
#474=EDGE_LOOP('',(#457,#466,#472,#473));
#475=FACE_OUTER_BOUND('',#474,.T.);
#476=ADVANCED_FACE('',(#475),#456,.T.);
#477=CARTESIAN_POINT('',(0.253999999999996,0.254999999999995,-3.1));
#478=DIRECTION('',(1.0,0.0,0.0));
#479=DIRECTION('',(0.0,0.0,-1.0));
#480=AXIS2_PLACEMENT_3D('',#477,#478,#479);
#481=PLANE('',#480);
#482=ORIENTED_EDGE('',*,*,#471,.T.);
#483=CARTESIAN_POINT('',(0.253999999999996,-0.254000000000007,-3.1));
#484=VERTEX_POINT('',#483);
#485=CARTESIAN_POINT('',(0.253999999999996,-0.254000000000007,-3.1));
#486=DIRECTION('',(0.0,0.0,1.0));
#487=VECTOR('',#486,5.943428166732561);
#488=LINE('',#485,#487);
#489=EDGE_CURVE('',#484,#459,#488,.T.);
#490=ORIENTED_EDGE('',*,*,#489,.F.);
#491=CARTESIAN_POINT('',(0.253999999999996,-0.254000000000007,-3.1));
#492=DIRECTION('',(0.0,1.0,0.0));
#493=VECTOR('',#492,0.508);
#494=LINE('',#491,#493);
#495=EDGE_CURVE('',#436,#484,#494,.F.);
#496=ORIENTED_EDGE('',*,*,#495,.F.);
#497=ORIENTED_EDGE('',*,*,#441,.T.);
#498=EDGE_LOOP('',(#482,#490,#496,#497));
#499=FACE_OUTER_BOUND('',#498,.T.);
#500=ADVANCED_FACE('',(#499),#481,.T.);
#501=CARTESIAN_POINT('',(0.254999999999999,-0.254000000000007,-3.1));
#502=DIRECTION('',(0.0,-1.0,0.0));
#503=DIRECTION('',(0.0,0.0,-1.0));
#504=AXIS2_PLACEMENT_3D('',#501,#502,#503);
#505=PLANE('',#504);
#506=ORIENTED_EDGE('',*,*,#409,.F.);
#507=CARTESIAN_POINT('',(-0.253999999999996,-0.254000000000007,-3.1));
#508=DIRECTION('',(1.0,0.0,0.0));
#509=VECTOR('',#508,0.507999999999993);
#510=LINE('',#507,#509);
#511=EDGE_CURVE('',#484,#396,#510,.F.);
#512=ORIENTED_EDGE('',*,*,#511,.F.);
#513=ORIENTED_EDGE('',*,*,#489,.T.);
#514=ORIENTED_EDGE('',*,*,#465,.T.);
#515=EDGE_LOOP('',(#506,#512,#513,#514));
#516=FACE_OUTER_BOUND('',#515,.T.);
#517=ADVANCED_FACE('',(#516),#505,.T.);
#518=CARTESIAN_POINT('',(0.0,-7.993606E-015,-3.1));
#519=DIRECTION('',(0.0,0.0,1.0));
#520=DIRECTION('',(1.0,0.0,0.0));
#521=AXIS2_PLACEMENT_3D('',#518,#519,#520);
#522=PLANE('',#521);
#523=ORIENTED_EDGE('',*,*,#447,.T.);
#524=ORIENTED_EDGE('',*,*,#495,.T.);
#525=ORIENTED_EDGE('',*,*,#511,.T.);
#526=ORIENTED_EDGE('',*,*,#401,.T.);
#527=EDGE_LOOP('',(#523,#524,#525,#526));
#528=FACE_OUTER_BOUND('',#527,.T.);
#529=ADVANCED_FACE('',(#528),#522,.F.);
#530=CLOSED_SHELL('',(#419,#451,#476,#500,#517,#529));
#531=MANIFOLD_SOLID_BREP('16A9',#530);
#532=STYLED_ITEM('NONE',(#223),#531);
#533=CARTESIAN_POINT('',(-13.640000000000008,-7.105427E-015,1.394999999999999));
#534=CARTESIAN_POINT('',(-7.240000000000005,-7.105427E-015,1.394999999999999));
#535=CARTESIAN_POINT('',(-13.640000000000008,-7.105427E-015,6.225000000000001));
#536=CARTESIAN_POINT('',(-7.240000000000006,-7.105427E-015,6.225000000000001));
#537=B_SPLINE_SURFACE_WITH_KNOTS('',1,1,((#533,#535),(#534,#536)),.UNSPECIFIED.,.F.,.F.,.U.,(2,2),(2,2),(0.0,6.400000000000003),(0.0,4.830000000000002),.UNSPECIFIED.);
#538=CARTESIAN_POINT('',(-11.225000000000009,-7.105427E-015,1.394999999999999));
#539=VERTEX_POINT('',#538);
#540=CARTESIAN_POINT('',(-11.225000000000009,-7.105427E-015,6.224999999999999));
#541=VERTEX_POINT('',#540);
#542=CARTESIAN_POINT('',(-11.225000000000009,-7.105427E-015,3.81));
#543=DIRECTION('',(0.0,1.0,0.0));
#544=DIRECTION('',(0.0,0.0,-1.0));
#545=AXIS2_PLACEMENT_3D('',#542,#543,#544);
#546=CIRCLE('',#545,2.414999999999999);
#547=EDGE_CURVE('',#539,#541,#546,.T.);
#548=ORIENTED_EDGE('',*,*,#547,.F.);
#549=CARTESIAN_POINT('',(-7.240000000000005,-7.105427E-015,1.395));
#550=VERTEX_POINT('',#549);
#551=CARTESIAN_POINT('',(-7.240000000000006,-7.105427E-015,1.395));
#552=DIRECTION('',(-1.0,0.0,0.0));
#553=VECTOR('',#552,3.985000000000005);
#554=LINE('',#551,#553);
#555=EDGE_CURVE('',#550,#539,#554,.T.);
#556=ORIENTED_EDGE('',*,*,#555,.F.);
#557=CARTESIAN_POINT('',(-7.240000000000005,-7.105427E-015,6.225000000000001));
#558=VERTEX_POINT('',#557);
#559=CARTESIAN_POINT('',(-7.240000000000008,-7.105427E-015,6.225000000000001));
#560=DIRECTION('',(0.0,0.0,-1.0));
#561=VECTOR('',#560,4.83);
#562=LINE('',#559,#561);
#563=EDGE_CURVE('',#558,#550,#562,.T.);
#564=ORIENTED_EDGE('',*,*,#563,.F.);
#565=CARTESIAN_POINT('',(-11.22500000000001,-7.105427E-015,6.225));
#566=DIRECTION('',(1.0,0.0,0.0));
#567=VECTOR('',#566,3.985000000000005);
#568=LINE('',#565,#567);
#569=EDGE_CURVE('',#541,#558,#568,.T.);
#570=ORIENTED_EDGE('',*,*,#569,.F.);
#571=EDGE_LOOP('',(#548,#556,#564,#570));
#572=FACE_OUTER_BOUND('',#571,.T.);
#573=ADVANCED_FACE('',(#572),#537,.T.);
#574=CARTESIAN_POINT('',(-7.240000000000006,-7.105427E-015,3.810000000000001));
#575=DIRECTION('',(1.0,0.0,0.0));
#576=DIRECTION('',(0.0,1.0,0.0));
#577=AXIS2_PLACEMENT_3D('',#574,#575,#576);
#578=PLANE('',#577);
#579=ORIENTED_EDGE('',*,*,#563,.T.);
#580=CARTESIAN_POINT('',(-7.240000000000006,-7.105427E-015,3.810000000000001));
#581=DIRECTION('',(1.0,0.0,0.0));
#582=DIRECTION('',(0.0,1.0,0.0));
#583=AXIS2_PLACEMENT_3D('',#580,#581,#582);
#584=CIRCLE('',#583,2.415);
#585=EDGE_CURVE('',#550,#558,#584,.T.);
#586=ORIENTED_EDGE('',*,*,#585,.T.);
#587=EDGE_LOOP('',(#579,#586));
#588=FACE_OUTER_BOUND('',#587,.T.);
#589=ADVANCED_FACE('',(#588),#578,.T.);
#590=CARTESIAN_POINT('',(-11.225000000000009,0.0,3.81));
#591=DIRECTION('',(0.577350269189626,0.577350269189626,0.577350269189626));
#592=DIRECTION('',(-0.707106781186548,0.0,0.707106781186548));
#593=AXIS2_PLACEMENT_3D('',#590,#591,#592);
#594=SPHERICAL_SURFACE('',#593,2.414999999999999);
#595=ORIENTED_EDGE('',*,*,#547,.T.);
#596=CARTESIAN_POINT('',(-11.225000000000009,-7.105427E-015,3.81));
#597=DIRECTION('',(-1.0,0.0,0.0));
#598=DIRECTION('',(0.0,1.0,0.0));
#599=AXIS2_PLACEMENT_3D('',#596,#597,#598);
#600=CIRCLE('',#599,2.415);
#601=EDGE_CURVE('',#541,#539,#600,.T.);
#602=ORIENTED_EDGE('',*,*,#601,.T.);
#603=EDGE_LOOP('',(#595,#602));
#604=FACE_OUTER_BOUND('',#603,.T.);
#605=ADVANCED_FACE('',(#604),#594,.T.);
#606=CARTESIAN_POINT('',(-9.232500000000009,-7.105427E-015,3.81));
#607=DIRECTION('',(1.0,-1.105559E-032,2.220446E-016));
#608=DIRECTION('',(0.0,1.0,0.0));
#609=AXIS2_PLACEMENT_3D('',#606,#607,#608);
#610=CYLINDRICAL_SURFACE('',#609,2.415);
#611=ORIENTED_EDGE('',*,*,#569,.T.);
#612=ORIENTED_EDGE('',*,*,#585,.F.);
#613=ORIENTED_EDGE('',*,*,#555,.T.);
#614=ORIENTED_EDGE('',*,*,#601,.F.);
#615=EDGE_LOOP('',(#611,#612,#613,#614));
#616=FACE_OUTER_BOUND('',#615,.T.);
#617=ADVANCED_FACE('',(#616),#610,.T.);
#618=CLOSED_SHELL('',(#573,#589,#605,#617));
#619=MANIFOLD_SOLID_BREP('1669',#618);
#620=DRAUGHTING_PRE_DEFINED_COLOUR('red');
#621=SURFACE_STYLE_USAGE(.BOTH.,#622);
#622=SURFACE_SIDE_STYLE('NONE',(#623));
#623=SURFACE_STYLE_FILL_AREA(#624);
#624=FILL_AREA_STYLE('NONE',(#625));
#625=FILL_AREA_STYLE_COLOUR('NONE',#620);
#626=PRESENTATION_STYLE_ASSIGNMENT((#621));
#627=STYLED_ITEM('NONE',(#626),#619);
#628=CARTESIAN_POINT('',(-7.24000000000001,-2.810000000000009,1.64));
#629=DIRECTION('',(1.0,0.0,0.0));
#630=DIRECTION('',(0.0,-1.0,0.0));
#631=AXIS2_PLACEMENT_3D('',#628,#629,#630);
#632=CYLINDRICAL_SURFACE('',#631,0.75);
#633=CARTESIAN_POINT('',(-7.24000000000001,-3.560000000000009,1.64));
#634=VERTEX_POINT('',#633);
#635=CARTESIAN_POINT('',(-7.040000000000011,-3.560000000000009,1.64));
#636=VERTEX_POINT('',#635);
#637=CARTESIAN_POINT('',(-7.240000000000008,-3.560000000000009,1.64));
#638=DIRECTION('',(1.0,0.0,0.0));
#639=VECTOR('',#638,0.199999999999998);
#640=LINE('',#637,#639);
#641=EDGE_CURVE('',#634,#636,#640,.T.);
#642=ORIENTED_EDGE('',*,*,#641,.F.);
#643=CARTESIAN_POINT('',(-7.240000000000008,-2.060000000000009,1.64));
#644=VERTEX_POINT('',#643);
#645=CARTESIAN_POINT('',(-7.240000000000008,-2.810000000000009,1.64));
#646=DIRECTION('',(1.0,0.0,0.0));
#647=DIRECTION('',(0.0,-1.0,0.0));
#648=AXIS2_PLACEMENT_3D('',#645,#646,#647);
#649=CIRCLE('',#648,0.75);
#650=EDGE_CURVE('',#644,#634,#649,.T.);
#651=ORIENTED_EDGE('',*,*,#650,.F.);
#652=CARTESIAN_POINT('',(-7.040000000000011,-2.060000000000009,1.64));
#653=VERTEX_POINT('',#652);
#654=CARTESIAN_POINT('',(-7.240000000000008,-2.060000000000009,1.64));
#655=DIRECTION('',(1.0,0.0,0.0));
#656=VECTOR('',#655,0.199999999999998);
#657=LINE('',#654,#656);
#658=EDGE_CURVE('',#644,#653,#657,.T.);
#659=ORIENTED_EDGE('',*,*,#658,.T.);
#660=CARTESIAN_POINT('',(-7.040000000000011,-2.810000000000009,1.64));
#661=DIRECTION('',(-1.0,0.0,0.0));
#662=DIRECTION('',(0.0,-1.0,0.0));
#663=AXIS2_PLACEMENT_3D('',#660,#661,#662);
#664=CIRCLE('',#663,0.75);
#665=EDGE_CURVE('',#636,#653,#664,.T.);
#666=ORIENTED_EDGE('',*,*,#665,.F.);
#667=EDGE_LOOP('',(#642,#651,#659,#666));
#668=FACE_OUTER_BOUND('',#667,.T.);
#669=ADVANCED_FACE('',(#668),#632,.F.);
#670=CARTESIAN_POINT('',(2.409999999999998,2.920999999999992,4.826000000000006));
#671=CARTESIAN_POINT('',(-0.254999999999998,2.920999999999992,4.826000000000005));
#672=CARTESIAN_POINT('',(2.409999999999998,2.920999999999992,0.640000000000002));
#673=CARTESIAN_POINT('',(-0.254999999999997,2.920999999999992,0.640000000000001));
#674=B_SPLINE_SURFACE_WITH_KNOTS('',1,1,((#670,#672),(#671,#673)),.UNSPECIFIED.,.F.,.F.,.U.,(2,2),(2,2),(0.0,2.664999999999996),(0.0,4.186000000000004),.UNSPECIFIED.);
#675=CARTESIAN_POINT('',(0.507000000000006,2.920999999999992,4.826000000000003));
#676=VERTEX_POINT('',#675);
#677=CARTESIAN_POINT('',(2.409999999999996,2.920999999999992,2.923000000000013));
#678=VERTEX_POINT('',#677);
#679=CARTESIAN_POINT('',(0.507000000000006,2.920999999999993,4.826000000000003));
#680=DIRECTION('',(0.707106781186547,0.0,-0.707106781186548));
#681=VECTOR('',#680,2.691248409195986);
#682=LINE('',#679,#681);
#683=EDGE_CURVE('',#676,#678,#682,.T.);
#684=ORIENTED_EDGE('',*,*,#683,.F.);
#685=CARTESIAN_POINT('',(-0.254999999999997,2.920999999999992,4.826000000000004));
#686=VERTEX_POINT('',#685);
#687=CARTESIAN_POINT('',(-0.254999999999997,2.920999999999992,4.826000000000005));
#688=DIRECTION('',(1.0,0.0,0.0));
#689=VECTOR('',#688,0.762000000000003);
#690=LINE('',#687,#689);
#691=EDGE_CURVE('',#686,#676,#690,.T.);
#692=ORIENTED_EDGE('',*,*,#691,.F.);
#693=CARTESIAN_POINT('',(-0.254999999999996,2.920999999999992,0.640000000000002));
#694=VERTEX_POINT('',#693);
#695=CARTESIAN_POINT('',(-0.254999999999996,2.920999999999992,0.640000000000002));
#696=DIRECTION('',(0.0,0.0,1.0));
#697=VECTOR('',#696,4.186000000000002);
#698=LINE('',#695,#697);
#699=EDGE_CURVE('',#694,#686,#698,.T.);
#700=ORIENTED_EDGE('',*,*,#699,.F.);
#701=CARTESIAN_POINT('',(2.409999999999996,2.920999999999992,0.640000000000003));
#702=VERTEX_POINT('',#701);
#703=CARTESIAN_POINT('',(2.409999999999996,2.920999999999992,0.640000000000003));
#704=DIRECTION('',(-1.0,0.0,0.0));
#705=VECTOR('',#704,2.664999999999992);
#706=LINE('',#703,#705);
#707=EDGE_CURVE('',#702,#694,#706,.T.);
#708=ORIENTED_EDGE('',*,*,#707,.F.);
#709=CARTESIAN_POINT('',(2.409999999999998,2.920999999999992,2.923000000000013));
#710=DIRECTION('',(0.0,0.0,-1.0));
#711=VECTOR('',#710,2.283000000000011);
#712=LINE('',#709,#711);
#713=EDGE_CURVE('',#678,#702,#712,.T.);
#714=ORIENTED_EDGE('',*,*,#713,.F.);
#715=EDGE_LOOP('',(#684,#692,#700,#708,#714));
#716=FACE_OUTER_BOUND('',#715,.T.);
#717=ADVANCED_FACE('',(#716),#674,.T.);
#718=CARTESIAN_POINT('',(-0.254999999999996,2.158999999999992,0.640000000000002));
#719=CARTESIAN_POINT('',(-0.254999999999997,2.158999999999992,4.826000000000006));
#720=CARTESIAN_POINT('',(-0.254999999999996,2.920999999999992,0.640000000000002));
#721=CARTESIAN_POINT('',(-0.254999999999997,2.920999999999992,4.826000000000006));
#722=B_SPLINE_SURFACE_WITH_KNOTS('',1,1,((#718,#720),(#719,#721)),.UNSPECIFIED.,.F.,.F.,.U.,(2,2),(2,2),(0.0,4.186000000000004),(0.0,0.762),.UNSPECIFIED.);
#723=CARTESIAN_POINT('',(-0.254999999999996,2.158999999999992,0.640000000000002));
#724=VERTEX_POINT('',#723);
#725=CARTESIAN_POINT('',(-0.254999999999996,2.920999999999992,0.640000000000002));
#726=DIRECTION('',(0.0,-1.0,0.0));
#727=VECTOR('',#726,0.762);
#728=LINE('',#725,#727);
#729=EDGE_CURVE('',#694,#724,#728,.T.);
#730=ORIENTED_EDGE('',*,*,#729,.F.);
#731=ORIENTED_EDGE('',*,*,#699,.T.);
#732=CARTESIAN_POINT('',(-0.254999999999997,2.158999999999992,4.826000000000004));
#733=VERTEX_POINT('',#732);
#734=CARTESIAN_POINT('',(-0.254999999999997,2.920999999999992,4.826000000000005));
#735=DIRECTION('',(0.0,-1.0,0.0));
#736=VECTOR('',#735,0.762);
#737=LINE('',#734,#736);
#738=EDGE_CURVE('',#686,#733,#737,.T.);
#739=ORIENTED_EDGE('',*,*,#738,.T.);
#740=CARTESIAN_POINT('',(-0.254999999999997,2.158999999999992,4.826000000000004));
#741=DIRECTION('',(0.0,0.0,-1.0));
#742=VECTOR('',#741,4.186000000000002);
#743=LINE('',#740,#742);
#744=EDGE_CURVE('',#733,#724,#743,.T.);
#745=ORIENTED_EDGE('',*,*,#744,.T.);
#746=EDGE_LOOP('',(#730,#731,#739,#745));
#747=FACE_OUTER_BOUND('',#746,.T.);
#748=ADVANCED_FACE('',(#747),#722,.F.);
#749=CARTESIAN_POINT('',(-0.254999999999998,2.158999999999992,4.826000000000006));
#750=CARTESIAN_POINT('',(2.409999999999998,2.158999999999992,4.826000000000007));
#751=CARTESIAN_POINT('',(-0.254999999999997,2.158999999999992,0.640000000000001));
#752=CARTESIAN_POINT('',(2.409999999999998,2.158999999999992,0.640000000000002));
#753=B_SPLINE_SURFACE_WITH_KNOTS('',1,1,((#749,#751),(#750,#752)),.UNSPECIFIED.,.F.,.F.,.U.,(2,2),(2,2),(0.0,2.664999999999996),(0.0,4.186000000000004),.UNSPECIFIED.);
#754=CARTESIAN_POINT('',(2.409999999999996,2.158999999999992,2.923000000000013));
#755=VERTEX_POINT('',#754);
#756=CARTESIAN_POINT('',(0.507000000000006,2.158999999999992,4.826000000000003));
#757=VERTEX_POINT('',#756);
#758=CARTESIAN_POINT('',(2.409999999999996,2.158999999999993,2.923000000000013));
#759=DIRECTION('',(-0.707106781186547,0.0,0.707106781186548));
#760=VECTOR('',#759,2.691248409195986);
#761=LINE('',#758,#760);
#762=EDGE_CURVE('',#755,#757,#761,.T.);
#763=ORIENTED_EDGE('',*,*,#762,.F.);
#764=CARTESIAN_POINT('',(2.409999999999996,2.158999999999992,0.640000000000003));
#765=VERTEX_POINT('',#764);
#766=CARTESIAN_POINT('',(2.409999999999998,2.158999999999992,0.640000000000002));
#767=DIRECTION('',(0.0,0.0,1.0));
#768=VECTOR('',#767,2.283000000000011);
#769=LINE('',#766,#768);
#770=EDGE_CURVE('',#765,#755,#769,.T.);
#771=ORIENTED_EDGE('',*,*,#770,.F.);
#772=CARTESIAN_POINT('',(-0.254999999999996,2.158999999999992,0.640000000000002));
#773=DIRECTION('',(1.0,0.0,0.0));
#774=VECTOR('',#773,2.664999999999992);
#775=LINE('',#772,#774);
#776=EDGE_CURVE('',#724,#765,#775,.T.);
#777=ORIENTED_EDGE('',*,*,#776,.F.);
#778=ORIENTED_EDGE('',*,*,#744,.F.);
#779=CARTESIAN_POINT('',(0.507000000000006,2.158999999999992,4.826000000000006));
#780=DIRECTION('',(-1.0,0.0,0.0));
#781=VECTOR('',#780,0.762000000000003);
#782=LINE('',#779,#781);
#783=EDGE_CURVE('',#757,#733,#782,.T.);
#784=ORIENTED_EDGE('',*,*,#783,.F.);
#785=EDGE_LOOP('',(#763,#771,#777,#778,#784));
#786=FACE_OUTER_BOUND('',#785,.T.);
#787=ADVANCED_FACE('',(#786),#753,.T.);
#788=CARTESIAN_POINT('',(2.409999999999998,0.380999999999991,4.826000000000007));
#789=CARTESIAN_POINT('',(-0.254999999999998,0.380999999999991,4.826000000000006));
#790=CARTESIAN_POINT('',(2.409999999999998,0.380999999999991,0.640000000000003));
#791=CARTESIAN_POINT('',(-0.254999999999997,0.380999999999991,0.640000000000002));
#792=B_SPLINE_SURFACE_WITH_KNOTS('',1,1,((#788,#790),(#789,#791)),.UNSPECIFIED.,.F.,.F.,.U.,(2,2),(2,2),(0.0,2.664999999999996),(0.0,4.186000000000004),.UNSPECIFIED.);
#793=CARTESIAN_POINT('',(0.507000000000006,0.380999999999991,4.826000000000004));
#794=VERTEX_POINT('',#793);
#795=CARTESIAN_POINT('',(2.409999999999996,0.380999999999991,2.923000000000014));
#796=VERTEX_POINT('',#795);
#797=CARTESIAN_POINT('',(0.507000000000006,0.380999999999991,4.826000000000004));
#798=DIRECTION('',(0.707106781186547,0.0,-0.707106781186548));
#799=VECTOR('',#798,2.691248409195986);
#800=LINE('',#797,#799);
#801=EDGE_CURVE('',#794,#796,#800,.T.);
#802=ORIENTED_EDGE('',*,*,#801,.F.);
#803=CARTESIAN_POINT('',(-0.254999999999997,0.380999999999991,4.826000000000004));
#804=VERTEX_POINT('',#803);
#805=CARTESIAN_POINT('',(-0.254999999999997,0.38099999999999,4.826000000000006));
#806=DIRECTION('',(1.0,0.0,0.0));
#807=VECTOR('',#806,0.762000000000003);
#808=LINE('',#805,#807);
#809=EDGE_CURVE('',#804,#794,#808,.T.);
#810=ORIENTED_EDGE('',*,*,#809,.F.);
#811=CARTESIAN_POINT('',(-0.254999999999996,0.380999999999991,0.640000000000002));
#812=VERTEX_POINT('',#811);
#813=CARTESIAN_POINT('',(-0.254999999999996,0.380999999999991,0.640000000000002));
#814=DIRECTION('',(0.0,0.0,1.0));
#815=VECTOR('',#814,4.186000000000002);
#816=LINE('',#813,#815);
#817=EDGE_CURVE('',#812,#804,#816,.T.);
#818=ORIENTED_EDGE('',*,*,#817,.F.);
#819=CARTESIAN_POINT('',(2.409999999999996,0.380999999999991,0.640000000000003));
#820=VERTEX_POINT('',#819);
#821=CARTESIAN_POINT('',(2.409999999999996,0.380999999999991,0.640000000000003));
#822=DIRECTION('',(-1.0,0.0,0.0));
#823=VECTOR('',#822,2.664999999999992);
#824=LINE('',#821,#823);
#825=EDGE_CURVE('',#820,#812,#824,.T.);
#826=ORIENTED_EDGE('',*,*,#825,.F.);
#827=CARTESIAN_POINT('',(2.409999999999998,0.380999999999991,2.923000000000014));
#828=DIRECTION('',(0.0,0.0,-1.0));
#829=VECTOR('',#828,2.283000000000011);
#830=LINE('',#827,#829);
#831=EDGE_CURVE('',#796,#820,#830,.T.);
#832=ORIENTED_EDGE('',*,*,#831,.F.);
#833=EDGE_LOOP('',(#802,#810,#818,#826,#832));
#834=FACE_OUTER_BOUND('',#833,.T.);
#835=ADVANCED_FACE('',(#834),#792,.T.);
#836=CARTESIAN_POINT('',(-0.254999999999996,-0.381000000000009,0.640000000000002));
#837=CARTESIAN_POINT('',(-0.254999999999997,-0.381000000000009,4.826000000000006));
#838=CARTESIAN_POINT('',(-0.254999999999996,0.380999999999991,0.640000000000002));
#839=CARTESIAN_POINT('',(-0.254999999999997,0.380999999999991,4.826000000000006));
#840=B_SPLINE_SURFACE_WITH_KNOTS('',1,1,((#836,#838),(#837,#839)),.UNSPECIFIED.,.F.,.F.,.U.,(2,2),(2,2),(0.0,4.186000000000004),(0.0,0.762),.UNSPECIFIED.);
#841=CARTESIAN_POINT('',(-0.254999999999996,-0.381000000000009,0.640000000000002));
#842=VERTEX_POINT('',#841);
#843=CARTESIAN_POINT('',(-0.254999999999996,0.380999999999991,0.640000000000002));
#844=DIRECTION('',(0.0,-1.0,0.0));
#845=VECTOR('',#844,0.762);
#846=LINE('',#843,#845);
#847=EDGE_CURVE('',#812,#842,#846,.T.);
#848=ORIENTED_EDGE('',*,*,#847,.F.);
#849=ORIENTED_EDGE('',*,*,#817,.T.);
#850=CARTESIAN_POINT('',(-0.254999999999997,-0.381000000000009,4.826000000000004));
#851=VERTEX_POINT('',#850);
#852=CARTESIAN_POINT('',(-0.254999999999997,0.38099999999999,4.826000000000006));
#853=DIRECTION('',(0.0,-1.0,0.0));
#854=VECTOR('',#853,0.761999999999997);
#855=LINE('',#852,#854);
#856=EDGE_CURVE('',#804,#851,#855,.T.);
#857=ORIENTED_EDGE('',*,*,#856,.T.);
#858=CARTESIAN_POINT('',(-0.254999999999997,-0.381000000000009,4.826000000000004));
#859=DIRECTION('',(0.0,0.0,-1.0));
#860=VECTOR('',#859,4.186000000000002);
#861=LINE('',#858,#860);
#862=EDGE_CURVE('',#851,#842,#861,.T.);
#863=ORIENTED_EDGE('',*,*,#862,.T.);
#864=EDGE_LOOP('',(#848,#849,#857,#863));
#865=FACE_OUTER_BOUND('',#864,.T.);
#866=ADVANCED_FACE('',(#865),#840,.F.);
#867=CARTESIAN_POINT('',(-0.254999999999998,-0.381000000000009,4.826000000000006));
#868=CARTESIAN_POINT('',(2.409999999999998,-0.381000000000009,4.826000000000007));
#869=CARTESIAN_POINT('',(-0.254999999999997,-0.381000000000009,0.640000000000002));
#870=CARTESIAN_POINT('',(2.409999999999998,-0.381000000000009,0.640000000000003));
#871=B_SPLINE_SURFACE_WITH_KNOTS('',1,1,((#867,#869),(#868,#870)),.UNSPECIFIED.,.F.,.F.,.U.,(2,2),(2,2),(0.0,2.664999999999996),(0.0,4.186000000000004),.UNSPECIFIED.);
#872=CARTESIAN_POINT('',(2.409999999999996,-0.381000000000009,2.923000000000014));
#873=VERTEX_POINT('',#872);
#874=CARTESIAN_POINT('',(0.507000000000006,-0.381000000000009,4.826000000000004));
#875=VERTEX_POINT('',#874);
#876=CARTESIAN_POINT('',(2.409999999999996,-0.381000000000009,2.923000000000014));
#877=DIRECTION('',(-0.707106781186548,0.0,0.707106781186548));
#878=VECTOR('',#877,2.691248409195985);
#879=LINE('',#876,#878);
#880=EDGE_CURVE('',#873,#875,#879,.T.);
#881=ORIENTED_EDGE('',*,*,#880,.F.);
#882=CARTESIAN_POINT('',(2.409999999999996,-0.381000000000009,0.640000000000003));
#883=VERTEX_POINT('',#882);
#884=CARTESIAN_POINT('',(2.409999999999998,-0.381000000000009,0.640000000000003));
#885=DIRECTION('',(0.0,0.0,1.0));
#886=VECTOR('',#885,2.283000000000011);
#887=LINE('',#884,#886);
#888=EDGE_CURVE('',#883,#873,#887,.T.);
#889=ORIENTED_EDGE('',*,*,#888,.F.);
#890=CARTESIAN_POINT('',(-0.254999999999996,-0.381000000000009,0.640000000000002));
#891=DIRECTION('',(1.0,0.0,0.0));
#892=VECTOR('',#891,2.664999999999992);
#893=LINE('',#890,#892);
#894=EDGE_CURVE('',#842,#883,#893,.T.);
#895=ORIENTED_EDGE('',*,*,#894,.F.);
#896=ORIENTED_EDGE('',*,*,#862,.F.);
#897=CARTESIAN_POINT('',(0.507000000000006,-0.381000000000007,4.826000000000006));
#898=DIRECTION('',(-1.0,0.0,0.0));
#899=VECTOR('',#898,0.762000000000003);
#900=LINE('',#897,#899);
#901=EDGE_CURVE('',#875,#851,#900,.T.);
#902=ORIENTED_EDGE('',*,*,#901,.F.);
#903=EDGE_LOOP('',(#881,#889,#895,#896,#902));
#904=FACE_OUTER_BOUND('',#903,.T.);
#905=ADVANCED_FACE('',(#904),#871,.T.);
#906=CARTESIAN_POINT('',(2.409999999999998,-2.159000000000009,4.826000000000007));
#907=CARTESIAN_POINT('',(-0.254999999999998,-2.159000000000009,4.826000000000006));
#908=CARTESIAN_POINT('',(2.409999999999998,-2.159000000000009,0.640000000000003));
#909=CARTESIAN_POINT('',(-0.254999999999997,-2.159000000000009,0.640000000000002));
#910=B_SPLINE_SURFACE_WITH_KNOTS('',1,1,((#906,#908),(#907,#909)),.UNSPECIFIED.,.F.,.F.,.U.,(2,2),(2,2),(0.0,2.664999999999996),(0.0,4.186000000000004),.UNSPECIFIED.);
#911=CARTESIAN_POINT('',(0.507000000000006,-2.15900000000001,4.826000000000004));
#912=VERTEX_POINT('',#911);
#913=CARTESIAN_POINT('',(2.409999999999996,-2.159000000000009,2.923000000000014));
#914=VERTEX_POINT('',#913);
#915=CARTESIAN_POINT('',(0.507000000000006,-2.159000000000008,4.826000000000004));
#916=DIRECTION('',(0.707106781186547,0.0,-0.707106781186548));
#917=VECTOR('',#916,2.691248409195985);
#918=LINE('',#915,#917);
#919=EDGE_CURVE('',#912,#914,#918,.T.);
#920=ORIENTED_EDGE('',*,*,#919,.F.);
#921=CARTESIAN_POINT('',(-0.254999999999997,-2.159000000000009,4.826000000000004));
#922=VERTEX_POINT('',#921);
#923=CARTESIAN_POINT('',(-0.254999999999997,-2.15900000000001,4.826000000000006));
#924=DIRECTION('',(1.0,0.0,0.0));
#925=VECTOR('',#924,0.762000000000003);
#926=LINE('',#923,#925);
#927=EDGE_CURVE('',#922,#912,#926,.T.);
#928=ORIENTED_EDGE('',*,*,#927,.F.);
#929=CARTESIAN_POINT('',(-0.254999999999996,-2.159000000000009,0.640000000000003));
#930=VERTEX_POINT('',#929);
#931=CARTESIAN_POINT('',(-0.254999999999996,-2.159000000000009,0.640000000000003));
#932=DIRECTION('',(0.0,0.0,1.0));
#933=VECTOR('',#932,4.186000000000002);
#934=LINE('',#931,#933);
#935=EDGE_CURVE('',#930,#922,#934,.T.);
#936=ORIENTED_EDGE('',*,*,#935,.F.);
#937=CARTESIAN_POINT('',(2.409999999999996,-2.159000000000009,0.640000000000003));
#938=VERTEX_POINT('',#937);
#939=CARTESIAN_POINT('',(2.409999999999996,-2.159000000000009,0.640000000000003));
#940=DIRECTION('',(-1.0,0.0,0.0));
#941=VECTOR('',#940,2.664999999999992);
#942=LINE('',#939,#941);
#943=EDGE_CURVE('',#938,#930,#942,.T.);
#944=ORIENTED_EDGE('',*,*,#943,.F.);
#945=CARTESIAN_POINT('',(2.409999999999998,-2.159000000000009,2.923000000000014));
#946=DIRECTION('',(0.0,0.0,-1.0));
#947=VECTOR('',#946,2.283000000000011);
#948=LINE('',#945,#947);
#949=EDGE_CURVE('',#914,#938,#948,.T.);
#950=ORIENTED_EDGE('',*,*,#949,.F.);
#951=EDGE_LOOP('',(#920,#928,#936,#944,#950));
#952=FACE_OUTER_BOUND('',#951,.T.);
#953=ADVANCED_FACE('',(#952),#910,.T.);
#954=CARTESIAN_POINT('',(-0.254999999999996,-2.92100000000001,0.640000000000003));
#955=CARTESIAN_POINT('',(-0.254999999999997,-2.92100000000001,4.826000000000006));
#956=CARTESIAN_POINT('',(-0.254999999999996,-2.159000000000009,0.640000000000003));
#957=CARTESIAN_POINT('',(-0.254999999999997,-2.159000000000009,4.826000000000006));
#958=B_SPLINE_SURFACE_WITH_KNOTS('',1,1,((#954,#956),(#955,#957)),.UNSPECIFIED.,.F.,.F.,.U.,(2,2),(2,2),(0.0,4.186000000000004),(0.0,0.762000000000001),.UNSPECIFIED.);
#959=CARTESIAN_POINT('',(-0.254999999999996,-2.921000000000008,0.640000000000003));
#960=VERTEX_POINT('',#959);
#961=CARTESIAN_POINT('',(-0.254999999999996,-2.159000000000009,0.640000000000003));
#962=DIRECTION('',(0.0,-1.0,0.0));
#963=VECTOR('',#962,0.762);
#964=LINE('',#961,#963);
#965=EDGE_CURVE('',#930,#960,#964,.T.);
#966=ORIENTED_EDGE('',*,*,#965,.F.);
#967=ORIENTED_EDGE('',*,*,#935,.T.);
#968=CARTESIAN_POINT('',(-0.254999999999997,-2.921000000000008,4.826000000000004));
#969=VERTEX_POINT('',#968);
#970=CARTESIAN_POINT('',(-0.254999999999997,-2.15900000000001,4.826000000000007));
#971=DIRECTION('',(0.0,-1.0,0.0));
#972=VECTOR('',#971,0.762);
#973=LINE('',#970,#972);
#974=EDGE_CURVE('',#922,#969,#973,.T.);
#975=ORIENTED_EDGE('',*,*,#974,.T.);
#976=CARTESIAN_POINT('',(-0.254999999999997,-2.921000000000008,4.826000000000004));
#977=DIRECTION('',(0.0,0.0,-1.0));
#978=VECTOR('',#977,4.186000000000002);
#979=LINE('',#976,#978);
#980=EDGE_CURVE('',#969,#960,#979,.T.);
#981=ORIENTED_EDGE('',*,*,#980,.T.);
#982=EDGE_LOOP('',(#966,#967,#975,#981));
#983=FACE_OUTER_BOUND('',#982,.T.);
#984=ADVANCED_FACE('',(#983),#958,.F.);
#985=CARTESIAN_POINT('',(-0.254999999999998,-2.921000000000008,4.826000000000007));
#986=CARTESIAN_POINT('',(2.409999999999998,-2.921000000000008,4.826000000000008));
#987=CARTESIAN_POINT('',(-0.254999999999997,-2.921000000000008,0.640000000000002));
#988=CARTESIAN_POINT('',(2.409999999999998,-2.921000000000008,0.640000000000003));
#989=B_SPLINE_SURFACE_WITH_KNOTS('',1,1,((#985,#987),(#986,#988)),.UNSPECIFIED.,.F.,.F.,.U.,(2,2),(2,2),(0.0,2.664999999999996),(0.0,4.186000000000004),.UNSPECIFIED.);
#990=CARTESIAN_POINT('',(2.409999999999996,-2.921000000000008,2.923000000000014));
#991=VERTEX_POINT('',#990);
#992=CARTESIAN_POINT('',(0.507000000000006,-2.921000000000007,4.826000000000004));
#993=VERTEX_POINT('',#992);
#994=CARTESIAN_POINT('',(2.409999999999996,-2.921000000000008,2.923000000000014));
#995=DIRECTION('',(-0.707106781186547,0.0,0.707106781186548));
#996=VECTOR('',#995,2.691248409195985);
#997=LINE('',#994,#996);
#998=EDGE_CURVE('',#991,#993,#997,.T.);
#999=ORIENTED_EDGE('',*,*,#998,.F.);
#1000=CARTESIAN_POINT('',(2.409999999999996,-2.921000000000008,0.640000000000003));
#1001=VERTEX_POINT('',#1000);
#1002=CARTESIAN_POINT('',(2.409999999999998,-2.921000000000008,0.640000000000003));
#1003=DIRECTION('',(0.0,0.0,1.0));
#1004=VECTOR('',#1003,2.283000000000011);
#1005=LINE('',#1002,#1004);
#1006=EDGE_CURVE('',#1001,#991,#1005,.T.);
#1007=ORIENTED_EDGE('',*,*,#1006,.F.);
#1008=CARTESIAN_POINT('',(-0.254999999999996,-2.921000000000008,0.640000000000003));
#1009=DIRECTION('',(1.0,0.0,0.0));
#1010=VECTOR('',#1009,2.664999999999992);
#1011=LINE('',#1008,#1010);
#1012=EDGE_CURVE('',#960,#1001,#1011,.T.);
#1013=ORIENTED_EDGE('',*,*,#1012,.F.);
#1014=ORIENTED_EDGE('',*,*,#980,.F.);
#1015=CARTESIAN_POINT('',(0.507000000000006,-2.92100000000001,4.826000000000007));
#1016=DIRECTION('',(-1.0,0.0,0.0));
#1017=VECTOR('',#1016,0.762000000000003);
#1018=LINE('',#1015,#1017);
#1019=EDGE_CURVE('',#993,#969,#1018,.T.);
#1020=ORIENTED_EDGE('',*,*,#1019,.F.);
#1021=EDGE_LOOP('',(#999,#1007,#1013,#1014,#1020));
#1022=FACE_OUTER_BOUND('',#1021,.T.);
#1023=ADVANCED_FACE('',(#1022),#989,.T.);
#1024=CARTESIAN_POINT('',(13.294301421168822,19.999999999999989,4.826000000000001));
#1025=DIRECTION('',(0.0,0.0,-1.0));
#1026=DIRECTION('',(-1.0,0.0,0.0));
#1027=AXIS2_PLACEMENT_3D('',#1024,#1025,#1026);
#1028=PLANE('',#1027);
#1029=ORIENTED_EDGE('',*,*,#1019,.T.);
#1030=CARTESIAN_POINT('',(-0.254999999999996,-3.672035402879452,4.826000000000008));
#1031=VERTEX_POINT('',#1030);
#1032=CARTESIAN_POINT('',(-0.254999999999997,-2.92100000000001,4.826000000000007));
#1033=DIRECTION('',(0.0,-1.0,0.0));
#1034=VECTOR('',#1033,0.751035402879442);
#1035=LINE('',#1032,#1034);
#1036=EDGE_CURVE('',#969,#1031,#1035,.T.);
#1037=ORIENTED_EDGE('',*,*,#1036,.T.);
#1038=CARTESIAN_POINT('',(0.507000000000006,-3.672035402879452,4.826000000000005));
#1039=VERTEX_POINT('',#1038);
#1040=CARTESIAN_POINT('',(0.507000000000006,-3.672035402879452,4.826000000000008));
#1041=DIRECTION('',(-1.0,0.0,0.0));
#1042=VECTOR('',#1041,0.762000000000002);
#1043=LINE('',#1040,#1042);
#1044=EDGE_CURVE('',#1039,#1031,#1043,.T.);
#1045=ORIENTED_EDGE('',*,*,#1044,.F.);
#1046=CARTESIAN_POINT('',(0.507000000000006,-2.921000000000007,4.826000000000004));
#1047=DIRECTION('',(0.0,-1.0,0.0));
#1048=VECTOR('',#1047,0.751035402879445);
#1049=LINE('',#1046,#1048);
#1050=EDGE_CURVE('',#993,#1039,#1049,.T.);
#1051=ORIENTED_EDGE('',*,*,#1050,.F.);
#1052=EDGE_LOOP('',(#1029,#1037,#1045,#1051));
#1053=FACE_OUTER_BOUND('',#1052,.T.);
#1054=ADVANCED_FACE('',(#1053),#1028,.F.);
#1055=CARTESIAN_POINT('',(13.294301421168822,19.999999999999989,4.826000000000001));
#1056=DIRECTION('',(0.0,0.0,-1.0));
#1057=DIRECTION('',(-1.0,0.0,0.0));
#1058=AXIS2_PLACEMENT_3D('',#1055,#1056,#1057);
#1059=PLANE('',#1058);
#1060=ORIENTED_EDGE('',*,*,#901,.T.);
#1061=CARTESIAN_POINT('',(-0.254999999999997,-0.381000000000007,4.826000000000006));
#1062=DIRECTION('',(0.0,-1.0,0.0));
#1063=VECTOR('',#1062,1.778000000000002);
#1064=LINE('',#1061,#1063);
#1065=EDGE_CURVE('',#851,#922,#1064,.T.);
#1066=ORIENTED_EDGE('',*,*,#1065,.T.);
#1067=ORIENTED_EDGE('',*,*,#927,.T.);
#1068=CARTESIAN_POINT('',(0.507000000000006,-0.381000000000009,4.826000000000004));
#1069=DIRECTION('',(0.0,-1.0,0.0));
#1070=VECTOR('',#1069,1.778000000000001);
#1071=LINE('',#1068,#1070);
#1072=EDGE_CURVE('',#875,#912,#1071,.T.);
#1073=ORIENTED_EDGE('',*,*,#1072,.F.);
#1074=EDGE_LOOP('',(#1060,#1066,#1067,#1073));
#1075=FACE_OUTER_BOUND('',#1074,.T.);
#1076=ADVANCED_FACE('',(#1075),#1059,.F.);
#1077=CARTESIAN_POINT('',(13.294301421168822,19.999999999999989,4.826000000000001));
#1078=DIRECTION('',(0.0,0.0,-1.0));
#1079=DIRECTION('',(-1.0,0.0,0.0));
#1080=AXIS2_PLACEMENT_3D('',#1077,#1078,#1079);
#1081=PLANE('',#1080);
#1082=ORIENTED_EDGE('',*,*,#783,.T.);
#1083=CARTESIAN_POINT('',(-0.254999999999997,2.158999999999992,4.826000000000006));
#1084=DIRECTION('',(0.0,-1.0,0.0));
#1085=VECTOR('',#1084,1.778000000000002);
#1086=LINE('',#1083,#1085);
#1087=EDGE_CURVE('',#733,#804,#1086,.T.);
#1088=ORIENTED_EDGE('',*,*,#1087,.T.);
#1089=ORIENTED_EDGE('',*,*,#809,.T.);
#1090=CARTESIAN_POINT('',(0.507000000000006,2.158999999999992,4.826000000000003));
#1091=DIRECTION('',(0.0,-1.0,0.0));
#1092=VECTOR('',#1091,1.778000000000001);
#1093=LINE('',#1090,#1092);
#1094=EDGE_CURVE('',#757,#794,#1093,.T.);
#1095=ORIENTED_EDGE('',*,*,#1094,.F.);
#1096=EDGE_LOOP('',(#1082,#1088,#1089,#1095));
#1097=FACE_OUTER_BOUND('',#1096,.T.);
#1098=ADVANCED_FACE('',(#1097),#1081,.F.);
#1099=CARTESIAN_POINT('',(13.294301421168822,19.999999999999989,4.826000000000001));
#1100=DIRECTION('',(0.0,0.0,-1.0));
#1101=DIRECTION('',(-1.0,0.0,0.0));
#1102=AXIS2_PLACEMENT_3D('',#1099,#1100,#1101);
#1103=PLANE('',#1102);
#1104=ORIENTED_EDGE('',*,*,#691,.T.);
#1105=CARTESIAN_POINT('',(0.507000000000006,3.672035402879438,4.826000000000003));
#1106=VERTEX_POINT('',#1105);
#1107=CARTESIAN_POINT('',(0.507000000000006,3.672035402879438,4.826000000000003));
#1108=DIRECTION('',(0.0,-1.0,0.0));
#1109=VECTOR('',#1108,0.751035402879445);
#1110=LINE('',#1107,#1109);
#1111=EDGE_CURVE('',#1106,#676,#1110,.T.);
#1112=ORIENTED_EDGE('',*,*,#1111,.F.);
#1113=CARTESIAN_POINT('',(-0.254999999999996,3.672035402879438,4.826000000000006));
#1114=VERTEX_POINT('',#1113);
#1115=CARTESIAN_POINT('',(-0.254999999999996,3.672035402879438,4.826000000000006));
#1116=DIRECTION('',(1.0,0.0,0.0));
#1117=VECTOR('',#1116,0.762000000000002);
#1118=LINE('',#1115,#1117);
#1119=EDGE_CURVE('',#1114,#1106,#1118,.T.);
#1120=ORIENTED_EDGE('',*,*,#1119,.F.);
#1121=CARTESIAN_POINT('',(-0.254999999999997,3.672035402879438,4.826000000000005));
#1122=DIRECTION('',(0.0,-1.0,0.0));
#1123=VECTOR('',#1122,0.751035402879445);
#1124=LINE('',#1121,#1123);
#1125=EDGE_CURVE('',#1114,#686,#1124,.T.);
#1126=ORIENTED_EDGE('',*,*,#1125,.T.);
#1127=EDGE_LOOP('',(#1104,#1112,#1120,#1126));
#1128=FACE_OUTER_BOUND('',#1127,.T.);
#1129=ADVANCED_FACE('',(#1128),#1103,.F.);
#1130=CARTESIAN_POINT('',(0.507000000000006,-2.921000000000007,4.826000000000005));
#1131=CARTESIAN_POINT('',(0.507000000000006,-3.81000000000001,4.826000000000005));
#1132=CARTESIAN_POINT('',(2.409999999999998,-2.921000000000007,2.923000000000013));
#1133=CARTESIAN_POINT('',(2.409999999999998,-3.810000000000011,2.923000000000013));
#1134=B_SPLINE_SURFACE_WITH_KNOTS('',1,1,((#1130,#1132),(#1131,#1133)),.UNSPECIFIED.,.F.,.F.,.U.,(2,2),(2,2),(0.0,0.889000000000003),(0.0,2.691248409195989),.UNSPECIFIED.);
#1135=ORIENTED_EDGE('',*,*,#998,.T.);
#1136=ORIENTED_EDGE('',*,*,#1050,.T.);
#1137=CARTESIAN_POINT('',(1.523000000000008,-3.810000000000009,3.810000000000004));
#1138=VERTEX_POINT('',#1137);
#1139=CARTESIAN_POINT('',(1.523000000000006,-7.105427E-015,3.810000000000003));
#1140=DIRECTION('',(-0.707106781186547,-1.570092E-016,-0.707106781186547));
#1141=DIRECTION('',(-0.707106781186547,8.241955E-017,0.707106781186547));
#1142=AXIS2_PLACEMENT_3D('',#1139,#1140,#1141);
#1143=ELLIPSE('',#1142,5.388153672641491,3.81);
#1144=EDGE_CURVE('',#1138,#1039,#1143,.T.);
#1145=ORIENTED_EDGE('',*,*,#1144,.F.);
#1146=CARTESIAN_POINT('',(2.409999999999995,-3.810000000000009,2.923000000000016));
#1147=VERTEX_POINT('',#1146);
#1148=CARTESIAN_POINT('',(2.409999999999995,-3.810000000000009,2.923000000000016));
#1149=DIRECTION('',(-0.707106781186548,0.0,0.707106781186548));
#1150=VECTOR('',#1149,1.254407429824918);
#1151=LINE('',#1148,#1150);
#1152=EDGE_CURVE('',#1147,#1138,#1151,.T.);
#1153=ORIENTED_EDGE('',*,*,#1152,.F.);
#1154=CARTESIAN_POINT('',(2.409999999999998,-2.921000000000008,2.923000000000013));
#1155=DIRECTION('',(0.0,-1.0,0.0));
#1156=VECTOR('',#1155,0.889000000000001);
#1157=LINE('',#1154,#1156);
#1158=EDGE_CURVE('',#991,#1147,#1157,.T.);
#1159=ORIENTED_EDGE('',*,*,#1158,.F.);
#1160=EDGE_LOOP('',(#1135,#1136,#1145,#1153,#1159));
#1161=FACE_OUTER_BOUND('',#1160,.T.);
#1162=ADVANCED_FACE('',(#1161),#1134,.T.);
#1163=CARTESIAN_POINT('',(0.507000000000006,-0.381000000000008,4.826000000000004));
#1164=CARTESIAN_POINT('',(0.507000000000006,-2.159000000000011,4.826000000000004));
#1165=CARTESIAN_POINT('',(2.409999999999998,-0.381000000000008,2.923000000000012));
#1166=CARTESIAN_POINT('',(2.409999999999998,-2.159000000000011,2.923000000000012));
#1167=B_SPLINE_SURFACE_WITH_KNOTS('',1,1,((#1163,#1165),(#1164,#1166)),.UNSPECIFIED.,.F.,.F.,.U.,(2,2),(2,2),(0.0,1.778000000000003),(0.0,2.691248409195989),.UNSPECIFIED.);
#1168=ORIENTED_EDGE('',*,*,#880,.T.);
#1169=ORIENTED_EDGE('',*,*,#1072,.T.);
#1170=ORIENTED_EDGE('',*,*,#919,.T.);
#1171=CARTESIAN_POINT('',(2.409999999999998,-0.381000000000009,2.923000000000012));
#1172=DIRECTION('',(0.0,-1.0,0.0));
#1173=VECTOR('',#1172,1.778000000000001);
#1174=LINE('',#1171,#1173);
#1175=EDGE_CURVE('',#873,#914,#1174,.T.);
#1176=ORIENTED_EDGE('',*,*,#1175,.F.);
#1177=EDGE_LOOP('',(#1168,#1169,#1170,#1176));
#1178=FACE_OUTER_BOUND('',#1177,.T.);
#1179=ADVANCED_FACE('',(#1178),#1167,.T.);
#1180=CARTESIAN_POINT('',(0.507000000000006,2.158999999999993,4.826000000000003));
#1181=CARTESIAN_POINT('',(0.507000000000006,0.380999999999991,4.826000000000003));
#1182=CARTESIAN_POINT('',(2.409999999999998,2.158999999999993,2.923000000000011));
#1183=CARTESIAN_POINT('',(2.409999999999998,0.38099999999999,2.923000000000011));
#1184=B_SPLINE_SURFACE_WITH_KNOTS('',1,1,((#1180,#1182),(#1181,#1183)),.UNSPECIFIED.,.F.,.F.,.U.,(2,2),(2,2),(0.0,1.778000000000002),(0.0,2.691248409195989),.UNSPECIFIED.);
#1185=ORIENTED_EDGE('',*,*,#762,.T.);
#1186=ORIENTED_EDGE('',*,*,#1094,.T.);
#1187=ORIENTED_EDGE('',*,*,#801,.T.);
#1188=CARTESIAN_POINT('',(2.409999999999998,2.158999999999992,2.923000000000012));
#1189=DIRECTION('',(0.0,-1.0,0.0));
#1190=VECTOR('',#1189,1.778000000000001);
#1191=LINE('',#1188,#1190);
#1192=EDGE_CURVE('',#755,#796,#1191,.T.);
#1193=ORIENTED_EDGE('',*,*,#1192,.F.);
#1194=EDGE_LOOP('',(#1185,#1186,#1187,#1193));
#1195=FACE_OUTER_BOUND('',#1194,.T.);
#1196=ADVANCED_FACE('',(#1195),#1184,.T.);
#1197=CARTESIAN_POINT('',(0.507000000000006,3.809999999999995,4.826000000000003));
#1198=CARTESIAN_POINT('',(0.507000000000006,2.920999999999992,4.826000000000003));
#1199=CARTESIAN_POINT('',(2.409999999999998,3.809999999999994,2.923000000000011));
#1200=CARTESIAN_POINT('',(2.409999999999998,2.920999999999991,2.923000000000011));
#1201=B_SPLINE_SURFACE_WITH_KNOTS('',1,1,((#1197,#1199),(#1198,#1200)),.UNSPECIFIED.,.F.,.F.,.U.,(2,2),(2,2),(0.0,0.889000000000003),(0.0,2.691248409195989),.UNSPECIFIED.);
#1202=ORIENTED_EDGE('',*,*,#683,.T.);
#1203=CARTESIAN_POINT('',(2.409999999999996,3.809999999999992,2.923000000000013));
#1204=VERTEX_POINT('',#1203);
#1205=CARTESIAN_POINT('',(2.409999999999998,3.809999999999992,2.923000000000011));
#1206=DIRECTION('',(0.0,-1.0,0.0));
#1207=VECTOR('',#1206,0.888999999999999);
#1208=LINE('',#1205,#1207);
#1209=EDGE_CURVE('',#1204,#678,#1208,.T.);
#1210=ORIENTED_EDGE('',*,*,#1209,.F.);
#1211=CARTESIAN_POINT('',(1.523000000000006,3.809999999999992,3.810000000000003));
#1212=VERTEX_POINT('',#1211);
#1213=CARTESIAN_POINT('',(1.523000000000006,3.809999999999992,3.810000000000003));
#1214=DIRECTION('',(0.707106781186548,0.0,-0.707106781186548));
#1215=VECTOR('',#1214,1.254407429824922);
#1216=LINE('',#1213,#1215);
#1217=EDGE_CURVE('',#1212,#1204,#1216,.T.);
#1218=ORIENTED_EDGE('',*,*,#1217,.F.);
#1219=CARTESIAN_POINT('',(1.523000000000006,-7.105427E-015,3.810000000000003));
#1220=DIRECTION('',(-0.707106781186547,-1.570092E-016,-0.707106781186547));
#1221=DIRECTION('',(-0.707106781186547,8.241955E-017,0.707106781186547));
#1222=AXIS2_PLACEMENT_3D('',#1219,#1220,#1221);
#1223=ELLIPSE('',#1222,5.388153672641491,3.81);
#1224=EDGE_CURVE('',#1106,#1212,#1223,.T.);
#1225=ORIENTED_EDGE('',*,*,#1224,.F.);
#1226=ORIENTED_EDGE('',*,*,#1111,.T.);
#1227=EDGE_LOOP('',(#1202,#1210,#1218,#1225,#1226));
#1228=FACE_OUTER_BOUND('',#1227,.T.);
#1229=ADVANCED_FACE('',(#1228),#1201,.T.);
#1230=CARTESIAN_POINT('',(2.409999999999998,-7.105427E-015,3.185824715608417));
#1231=DIRECTION('',(1.0,0.0,0.0));
#1232=DIRECTION('',(0.0,0.0,-1.0));
#1233=AXIS2_PLACEMENT_3D('',#1230,#1231,#1232);
#1234=PLANE('',#1233);
#1235=ORIENTED_EDGE('',*,*,#1006,.T.);
#1236=ORIENTED_EDGE('',*,*,#1158,.T.);
#1237=CARTESIAN_POINT('',(2.409999999999998,-3.810000000000009,3.219647E-015));
#1238=VERTEX_POINT('',#1237);
#1239=CARTESIAN_POINT('',(2.409999999999996,-3.810000000000009,3.219647E-015));
#1240=DIRECTION('',(0.0,0.0,1.0));
#1241=VECTOR('',#1240,2.923000000000013);
#1242=LINE('',#1239,#1241);
#1243=EDGE_CURVE('',#1238,#1147,#1242,.T.);
#1244=ORIENTED_EDGE('',*,*,#1243,.F.);
#1245=CARTESIAN_POINT('',(2.409999999999998,-3.170000000000009,2.775558E-015));
#1246=VERTEX_POINT('',#1245);
#1247=CARTESIAN_POINT('',(2.409999999999996,-3.170000000000009,2.775558E-015));
#1248=DIRECTION('',(0.0,-1.0,0.0));
#1249=VECTOR('',#1248,0.640000000000001);
#1250=LINE('',#1247,#1249);
#1251=EDGE_CURVE('',#1246,#1238,#1250,.T.);
#1252=ORIENTED_EDGE('',*,*,#1251,.F.);
#1253=CARTESIAN_POINT('',(2.409999999999998,-3.170000000000009,0.640000000000003));
#1254=VERTEX_POINT('',#1253);
#1255=CARTESIAN_POINT('',(2.409999999999996,-3.170000000000009,0.640000000000003));
#1256=DIRECTION('',(0.0,0.0,-1.0));
#1257=VECTOR('',#1256,0.640000000000001);
#1258=LINE('',#1255,#1257);
#1259=EDGE_CURVE('',#1254,#1246,#1258,.T.);
#1260=ORIENTED_EDGE('',*,*,#1259,.F.);
#1261=CARTESIAN_POINT('',(2.409999999999996,-2.921000000000008,0.640000000000003));
#1262=DIRECTION('',(0.0,-1.0,0.0));
#1263=VECTOR('',#1262,0.249000000000001);
#1264=LINE('',#1261,#1263);
#1265=EDGE_CURVE('',#1001,#1254,#1264,.T.);
#1266=ORIENTED_EDGE('',*,*,#1265,.F.);
#1267=EDGE_LOOP('',(#1235,#1236,#1244,#1252,#1260,#1266));
#1268=FACE_OUTER_BOUND('',#1267,.T.);
#1269=ADVANCED_FACE('',(#1268),#1234,.T.);
#1270=CARTESIAN_POINT('',(2.409999999999998,-7.105427E-015,3.185824715608417));
#1271=DIRECTION('',(1.0,0.0,0.0));
#1272=DIRECTION('',(0.0,0.0,-1.0));
#1273=AXIS2_PLACEMENT_3D('',#1270,#1271,#1272);
#1274=PLANE('',#1273);
#1275=ORIENTED_EDGE('',*,*,#888,.T.);
#1276=ORIENTED_EDGE('',*,*,#1175,.T.);
#1277=ORIENTED_EDGE('',*,*,#949,.T.);
#1278=CARTESIAN_POINT('',(2.409999999999996,-0.381000000000009,0.640000000000003));
#1279=DIRECTION('',(0.0,-1.0,0.0));
#1280=VECTOR('',#1279,1.778);
#1281=LINE('',#1278,#1280);
#1282=EDGE_CURVE('',#883,#938,#1281,.T.);
#1283=ORIENTED_EDGE('',*,*,#1282,.F.);
#1284=EDGE_LOOP('',(#1275,#1276,#1277,#1283));
#1285=FACE_OUTER_BOUND('',#1284,.T.);
#1286=ADVANCED_FACE('',(#1285),#1274,.T.);
#1287=CARTESIAN_POINT('',(2.409999999999998,-7.105427E-015,3.185824715608417));
#1288=DIRECTION('',(1.0,0.0,0.0));
#1289=DIRECTION('',(0.0,0.0,-1.0));
#1290=AXIS2_PLACEMENT_3D('',#1287,#1288,#1289);
#1291=PLANE('',#1290);
#1292=ORIENTED_EDGE('',*,*,#770,.T.);
#1293=ORIENTED_EDGE('',*,*,#1192,.T.);
#1294=ORIENTED_EDGE('',*,*,#831,.T.);
#1295=CARTESIAN_POINT('',(2.409999999999996,2.158999999999992,0.640000000000003));
#1296=DIRECTION('',(0.0,-1.0,0.0));
#1297=VECTOR('',#1296,1.778000000000001);
#1298=LINE('',#1295,#1297);
#1299=EDGE_CURVE('',#765,#820,#1298,.T.);
#1300=ORIENTED_EDGE('',*,*,#1299,.F.);
#1301=EDGE_LOOP('',(#1292,#1293,#1294,#1300));
#1302=FACE_OUTER_BOUND('',#1301,.T.);
#1303=ADVANCED_FACE('',(#1302),#1291,.T.);
#1304=CARTESIAN_POINT('',(2.409999999999998,-7.105427E-015,3.185824715608417));
#1305=DIRECTION('',(1.0,0.0,0.0));
#1306=DIRECTION('',(0.0,0.0,-1.0));
#1307=AXIS2_PLACEMENT_3D('',#1304,#1305,#1306);
#1308=PLANE('',#1307);
#1309=ORIENTED_EDGE('',*,*,#713,.T.);
#1310=CARTESIAN_POINT('',(2.409999999999998,3.169999999999991,0.640000000000002));
#1311=VERTEX_POINT('',#1310);
#1312=CARTESIAN_POINT('',(2.409999999999996,3.169999999999991,0.640000000000002));
#1313=DIRECTION('',(0.0,-1.0,0.0));
#1314=VECTOR('',#1313,0.248999999999999);
#1315=LINE('',#1312,#1314);
#1316=EDGE_CURVE('',#1311,#702,#1315,.T.);
#1317=ORIENTED_EDGE('',*,*,#1316,.F.);
#1318=CARTESIAN_POINT('',(2.409999999999998,3.169999999999991,1.443290E-015));
#1319=VERTEX_POINT('',#1318);
#1320=CARTESIAN_POINT('',(2.409999999999996,3.169999999999991,1.443290E-015));
#1321=DIRECTION('',(0.0,0.0,1.0));
#1322=VECTOR('',#1321,0.640000000000001);
#1323=LINE('',#1320,#1322);
#1324=EDGE_CURVE('',#1319,#1311,#1323,.T.);
#1325=ORIENTED_EDGE('',*,*,#1324,.F.);
#1326=CARTESIAN_POINT('',(2.409999999999998,3.809999999999992,9.992007E-016));
#1327=VERTEX_POINT('',#1326);
#1328=CARTESIAN_POINT('',(2.409999999999996,3.809999999999992,9.992007E-016));
#1329=DIRECTION('',(0.0,-1.0,0.0));
#1330=VECTOR('',#1329,0.640000000000001);
#1331=LINE('',#1328,#1330);
#1332=EDGE_CURVE('',#1327,#1319,#1331,.T.);
#1333=ORIENTED_EDGE('',*,*,#1332,.F.);
#1334=CARTESIAN_POINT('',(2.409999999999996,3.809999999999992,2.923000000000013));
#1335=DIRECTION('',(0.0,0.0,-1.0));
#1336=VECTOR('',#1335,2.923000000000012);
#1337=LINE('',#1334,#1336);
#1338=EDGE_CURVE('',#1204,#1327,#1337,.T.);
#1339=ORIENTED_EDGE('',*,*,#1338,.F.);
#1340=ORIENTED_EDGE('',*,*,#1209,.T.);
#1341=EDGE_LOOP('',(#1309,#1317,#1325,#1333,#1339,#1340));
#1342=FACE_OUTER_BOUND('',#1341,.T.);
#1343=ADVANCED_FACE('',(#1342),#1308,.T.);
#1344=CARTESIAN_POINT('',(-7.24000000000001,3.169999999999991,0.64));
#1345=DIRECTION('',(0.0,0.0,-1.0));
#1346=DIRECTION('',(-1.0,0.0,0.0));
#1347=AXIS2_PLACEMENT_3D('',#1344,#1345,#1346);
#1348=PLANE('',#1347);
#1349=ORIENTED_EDGE('',*,*,#707,.T.);
#1350=ORIENTED_EDGE('',*,*,#729,.T.);
#1351=ORIENTED_EDGE('',*,*,#776,.T.);
#1352=ORIENTED_EDGE('',*,*,#1299,.T.);
#1353=ORIENTED_EDGE('',*,*,#825,.T.);
#1354=ORIENTED_EDGE('',*,*,#847,.T.);
#1355=ORIENTED_EDGE('',*,*,#894,.T.);
#1356=ORIENTED_EDGE('',*,*,#1282,.T.);
#1357=ORIENTED_EDGE('',*,*,#943,.T.);
#1358=ORIENTED_EDGE('',*,*,#965,.T.);
#1359=ORIENTED_EDGE('',*,*,#1012,.T.);
#1360=ORIENTED_EDGE('',*,*,#1265,.T.);
#1361=CARTESIAN_POINT('',(-7.24000000000001,-3.170000000000009,0.640000000000001));
#1362=VERTEX_POINT('',#1361);
#1363=CARTESIAN_POINT('',(-7.24000000000001,-3.170000000000009,0.640000000000001));
#1364=DIRECTION('',(1.0,0.0,0.0));
#1365=VECTOR('',#1364,9.650000000000008);
#1366=LINE('',#1363,#1365);
#1367=EDGE_CURVE('',#1362,#1254,#1366,.T.);
#1368=ORIENTED_EDGE('',*,*,#1367,.F.);
#1369=CARTESIAN_POINT('',(-7.24000000000001,3.169999999999991,0.64));
#1370=VERTEX_POINT('',#1369);
#1371=CARTESIAN_POINT('',(-7.24000000000001,3.169999999999991,0.64));
#1372=DIRECTION('',(0.0,-1.0,0.0));
#1373=VECTOR('',#1372,6.34);
#1374=LINE('',#1371,#1373);
#1375=EDGE_CURVE('',#1370,#1362,#1374,.T.);
#1376=ORIENTED_EDGE('',*,*,#1375,.F.);
#1377=CARTESIAN_POINT('',(-7.24000000000001,3.169999999999991,0.64));
#1378=DIRECTION('',(1.0,0.0,0.0));
#1379=VECTOR('',#1378,9.650000000000008);
#1380=LINE('',#1377,#1379);
#1381=EDGE_CURVE('',#1370,#1311,#1380,.T.);
#1382=ORIENTED_EDGE('',*,*,#1381,.T.);
#1383=ORIENTED_EDGE('',*,*,#1316,.T.);
#1384=EDGE_LOOP('',(#1349,#1350,#1351,#1352,#1353,#1354,#1355,#1356,#1357,#1358,#1359,#1360,#1368,#1376,#1382,#1383));
#1385=FACE_OUTER_BOUND('',#1384,.T.);
#1386=ADVANCED_FACE('',(#1385),#1348,.T.);
#1387=CARTESIAN_POINT('',(-0.254999999999997,19.999999999999989,4.826000000000001));
#1388=DIRECTION('',(-0.985266056548162,-3.852242E-017,-0.171028646179622));
#1389=DIRECTION('',(-0.171028646179622,0.0,0.985266056548162));
#1390=AXIS2_PLACEMENT_3D('',#1387,#1388,#1389);
#1391=PLANE('',#1390);
#1392=CARTESIAN_POINT('',(-0.078636363636356,-7.105427E-015,3.810000000000003));
#1393=DIRECTION('',(-0.985266056548162,-3.852242E-017,-0.171028646179622));
#1394=DIRECTION('',(-0.171028646179622,1.148415E-016,0.985266056548162));
#1395=AXIS2_PLACEMENT_3D('',#1392,#1393,#1394);
#1396=ELLIPSE('',#1395,3.866975802808203,3.810000000000001);
#1397=EDGE_CURVE('',#1031,#1114,#1396,.T.);
#1398=ORIENTED_EDGE('',*,*,#1397,.F.);
#1399=ORIENTED_EDGE('',*,*,#1036,.F.);
#1400=ORIENTED_EDGE('',*,*,#974,.F.);
#1401=ORIENTED_EDGE('',*,*,#1065,.F.);
#1402=ORIENTED_EDGE('',*,*,#856,.F.);
#1403=ORIENTED_EDGE('',*,*,#1087,.F.);
#1404=ORIENTED_EDGE('',*,*,#738,.F.);
#1405=ORIENTED_EDGE('',*,*,#1125,.F.);
#1406=EDGE_LOOP('',(#1398,#1399,#1400,#1401,#1402,#1403,#1404,#1405));
#1407=FACE_OUTER_BOUND('',#1406,.T.);
#1408=ADVANCED_FACE('',(#1407),#1391,.F.);
#1409=CARTESIAN_POINT('',(-7.24000000000001,-7.105427E-015,3.810000000000001));
#1410=DIRECTION('',(1.0,0.0,2.185931E-016));
#1411=DIRECTION('',(0.0,0.0,1.0));
#1412=AXIS2_PLACEMENT_3D('',#1409,#1410,#1411);
#1413=CYLINDRICAL_SURFACE('',#1412,3.810000000000001);
#1414=ORIENTED_EDGE('',*,*,#1044,.T.);
#1415=ORIENTED_EDGE('',*,*,#1397,.T.);
#1416=ORIENTED_EDGE('',*,*,#1119,.T.);
#1417=ORIENTED_EDGE('',*,*,#1224,.T.);
#1418=CARTESIAN_POINT('',(-7.24000000000001,3.809999999999992,3.810000000000001));
#1419=VERTEX_POINT('',#1418);
#1420=CARTESIAN_POINT('',(-7.24000000000001,3.809999999999992,3.810000000000001));
#1421=DIRECTION('',(1.0,0.0,0.0));
#1422=VECTOR('',#1421,8.763000000000016);
#1423=LINE('',#1420,#1422);
#1424=EDGE_CURVE('',#1419,#1212,#1423,.T.);
#1425=ORIENTED_EDGE('',*,*,#1424,.F.);
#1426=CARTESIAN_POINT('',(-7.24000000000001,-3.810000000000009,3.810000000000002));
#1427=VERTEX_POINT('',#1426);
#1428=CARTESIAN_POINT('',(-7.24000000000001,-7.105427E-015,3.810000000000001));
#1429=DIRECTION('',(-1.0,0.0,0.0));
#1430=DIRECTION('',(0.0,0.0,1.0));
#1431=AXIS2_PLACEMENT_3D('',#1428,#1429,#1430);
#1432=CIRCLE('',#1431,3.810000000000001);
#1433=EDGE_CURVE('',#1427,#1419,#1432,.T.);
#1434=ORIENTED_EDGE('',*,*,#1433,.F.);
#1435=CARTESIAN_POINT('',(-7.24000000000001,-3.810000000000009,3.810000000000002));
#1436=DIRECTION('',(1.0,0.0,0.0));
#1437=VECTOR('',#1436,8.763000000000018);
#1438=LINE('',#1435,#1437);
#1439=EDGE_CURVE('',#1427,#1138,#1438,.T.);
#1440=ORIENTED_EDGE('',*,*,#1439,.T.);
#1441=ORIENTED_EDGE('',*,*,#1144,.T.);
#1442=EDGE_LOOP('',(#1414,#1415,#1416,#1417,#1425,#1434,#1440,#1441));
#1443=FACE_OUTER_BOUND('',#1442,.T.);
#1444=ADVANCED_FACE('',(#1443),#1413,.T.);
#1445=CARTESIAN_POINT('',(-7.24000000000001,-2.810000000000009,1.64));
#1446=DIRECTION('',(1.0,0.0,0.0));
#1447=DIRECTION('',(0.0,-1.0,0.0));
#1448=AXIS2_PLACEMENT_3D('',#1445,#1446,#1447);
#1449=CYLINDRICAL_SURFACE('',#1448,0.75);
#1450=ORIENTED_EDGE('',*,*,#641,.T.);
#1451=CARTESIAN_POINT('',(-7.040000000000011,-2.810000000000009,1.64));
#1452=DIRECTION('',(-1.0,0.0,0.0));
#1453=DIRECTION('',(0.0,-1.0,0.0));
#1454=AXIS2_PLACEMENT_3D('',#1451,#1452,#1453);
#1455=CIRCLE('',#1454,0.75);
#1456=EDGE_CURVE('',#653,#636,#1455,.T.);
#1457=ORIENTED_EDGE('',*,*,#1456,.F.);
#1458=ORIENTED_EDGE('',*,*,#658,.F.);
#1459=CARTESIAN_POINT('',(-7.240000000000008,-2.810000000000009,1.64));
#1460=DIRECTION('',(1.0,0.0,0.0));
#1461=DIRECTION('',(0.0,-1.0,0.0));
#1462=AXIS2_PLACEMENT_3D('',#1459,#1460,#1461);
#1463=CIRCLE('',#1462,0.75);
#1464=EDGE_CURVE('',#634,#644,#1463,.T.);
#1465=ORIENTED_EDGE('',*,*,#1464,.F.);
#1466=EDGE_LOOP('',(#1450,#1457,#1458,#1465));
#1467=FACE_OUTER_BOUND('',#1466,.T.);
#1468=ADVANCED_FACE('',(#1467),#1449,.F.);
#1469=CARTESIAN_POINT('',(-7.040000000000011,-2.810000000000009,1.64));
#1470=DIRECTION('',(-1.0,0.0,0.0));
#1471=DIRECTION('',(0.0,0.0,1.0));
#1472=AXIS2_PLACEMENT_3D('',#1469,#1470,#1471);
#1473=PLANE('',#1472);
#1474=ORIENTED_EDGE('',*,*,#665,.T.);
#1475=ORIENTED_EDGE('',*,*,#1456,.T.);
#1476=EDGE_LOOP('',(#1474,#1475));
#1477=FACE_OUTER_BOUND('',#1476,.T.);
#1478=ADVANCED_FACE('',(#1477),#1473,.T.);
#1479=CARTESIAN_POINT('',(-7.24000000000001,-3.170000000000009,0.640000000000001));
#1480=DIRECTION('',(0.0,1.0,0.0));
#1481=DIRECTION('',(0.0,0.0,1.0));
#1482=AXIS2_PLACEMENT_3D('',#1479,#1480,#1481);
#1483=PLANE('',#1482);
#1484=ORIENTED_EDGE('',*,*,#1259,.T.);
#1485=CARTESIAN_POINT('',(-7.24000000000001,-3.170000000000009,6.661338E-016));
#1486=VERTEX_POINT('',#1485);
#1487=CARTESIAN_POINT('',(-7.24000000000001,-3.170000000000009,6.661338E-016));
#1488=DIRECTION('',(1.0,0.0,0.0));
#1489=VECTOR('',#1488,9.650000000000008);
#1490=LINE('',#1487,#1489);
#1491=EDGE_CURVE('',#1486,#1246,#1490,.T.);
#1492=ORIENTED_EDGE('',*,*,#1491,.F.);
#1493=CARTESIAN_POINT('',(-7.24000000000001,-3.170000000000009,0.640000000000001));
#1494=DIRECTION('',(0.0,0.0,-1.0));
#1495=VECTOR('',#1494,0.640000000000001);
#1496=LINE('',#1493,#1495);
#1497=EDGE_CURVE('',#1362,#1486,#1496,.T.);
#1498=ORIENTED_EDGE('',*,*,#1497,.F.);
#1499=ORIENTED_EDGE('',*,*,#1367,.T.);
#1500=EDGE_LOOP('',(#1484,#1492,#1498,#1499));
#1501=FACE_OUTER_BOUND('',#1500,.T.);
#1502=ADVANCED_FACE('',(#1501),#1483,.T.);
#1503=CARTESIAN_POINT('',(-7.24000000000001,-3.170000000000009,6.661338E-016));
#1504=DIRECTION('',(0.0,0.0,-1.0));
#1505=DIRECTION('',(-1.0,0.0,0.0));
#1506=AXIS2_PLACEMENT_3D('',#1503,#1504,#1505);
#1507=PLANE('',#1506);
#1508=ORIENTED_EDGE('',*,*,#1251,.T.);
#1509=CARTESIAN_POINT('',(-7.24000000000001,-3.810000000000009,1.110223E-015));
#1510=VERTEX_POINT('',#1509);
#1511=CARTESIAN_POINT('',(-7.24000000000001,-3.810000000000009,1.110223E-015));
#1512=DIRECTION('',(1.0,0.0,0.0));
#1513=VECTOR('',#1512,9.650000000000008);
#1514=LINE('',#1511,#1513);
#1515=EDGE_CURVE('',#1510,#1238,#1514,.T.);
#1516=ORIENTED_EDGE('',*,*,#1515,.F.);
#1517=CARTESIAN_POINT('',(-7.24000000000001,-3.170000000000009,6.661338E-016));
#1518=DIRECTION('',(0.0,-1.0,0.0));
#1519=VECTOR('',#1518,0.640000000000001);
#1520=LINE('',#1517,#1519);
#1521=EDGE_CURVE('',#1486,#1510,#1520,.T.);
#1522=ORIENTED_EDGE('',*,*,#1521,.F.);
#1523=ORIENTED_EDGE('',*,*,#1491,.T.);
#1524=EDGE_LOOP('',(#1508,#1516,#1522,#1523));
#1525=FACE_OUTER_BOUND('',#1524,.T.);
#1526=ADVANCED_FACE('',(#1525),#1507,.T.);
#1527=CARTESIAN_POINT('',(-7.24000000000001,-3.810000000000009,1.110223E-015));
#1528=DIRECTION('',(0.0,-1.0,0.0));
#1529=DIRECTION('',(0.0,0.0,-1.0));
#1530=AXIS2_PLACEMENT_3D('',#1527,#1528,#1529);
#1531=PLANE('',#1530);
#1532=ORIENTED_EDGE('',*,*,#1152,.T.);
#1533=ORIENTED_EDGE('',*,*,#1439,.F.);
#1534=CARTESIAN_POINT('',(-7.24000000000001,-3.810000000000009,1.110223E-015));
#1535=DIRECTION('',(0.0,0.0,1.0));
#1536=VECTOR('',#1535,3.810000000000001);
#1537=LINE('',#1534,#1536);
#1538=EDGE_CURVE('',#1510,#1427,#1537,.T.);
#1539=ORIENTED_EDGE('',*,*,#1538,.F.);
#1540=ORIENTED_EDGE('',*,*,#1515,.T.);
#1541=ORIENTED_EDGE('',*,*,#1243,.T.);
#1542=EDGE_LOOP('',(#1532,#1533,#1539,#1540,#1541));
#1543=FACE_OUTER_BOUND('',#1542,.T.);
#1544=ADVANCED_FACE('',(#1543),#1531,.T.);
#1545=CARTESIAN_POINT('',(-7.24000000000001,3.809999999999992,3.810000000000001));
#1546=DIRECTION('',(0.0,1.0,0.0));
#1547=DIRECTION('',(0.0,0.0,1.0));
#1548=AXIS2_PLACEMENT_3D('',#1545,#1546,#1547);
#1549=PLANE('',#1548);
#1550=ORIENTED_EDGE('',*,*,#1217,.T.);
#1551=ORIENTED_EDGE('',*,*,#1338,.T.);
#1552=CARTESIAN_POINT('',(-7.24000000000001,3.809999999999992,-1.110223E-015));
#1553=VERTEX_POINT('',#1552);
#1554=CARTESIAN_POINT('',(-7.24000000000001,3.809999999999992,-1.110223E-015));
#1555=DIRECTION('',(1.0,0.0,0.0));
#1556=VECTOR('',#1555,9.650000000000008);
#1557=LINE('',#1554,#1556);
#1558=EDGE_CURVE('',#1553,#1327,#1557,.T.);
#1559=ORIENTED_EDGE('',*,*,#1558,.F.);
#1560=CARTESIAN_POINT('',(-7.24000000000001,3.809999999999992,3.810000000000001));
#1561=DIRECTION('',(0.0,0.0,-1.0));
#1562=VECTOR('',#1561,3.810000000000002);
#1563=LINE('',#1560,#1562);
#1564=EDGE_CURVE('',#1419,#1553,#1563,.T.);
#1565=ORIENTED_EDGE('',*,*,#1564,.F.);
#1566=ORIENTED_EDGE('',*,*,#1424,.T.);
#1567=EDGE_LOOP('',(#1550,#1551,#1559,#1565,#1566));
#1568=FACE_OUTER_BOUND('',#1567,.T.);
#1569=ADVANCED_FACE('',(#1568),#1549,.T.);
#1570=CARTESIAN_POINT('',(-7.24000000000001,3.809999999999992,-1.110223E-015));
#1571=DIRECTION('',(0.0,0.0,-1.0));
#1572=DIRECTION('',(-1.0,0.0,0.0));
#1573=AXIS2_PLACEMENT_3D('',#1570,#1571,#1572);
#1574=PLANE('',#1573);
#1575=ORIENTED_EDGE('',*,*,#1332,.T.);
#1576=CARTESIAN_POINT('',(-7.24000000000001,3.169999999999991,-6.661338E-016));
#1577=VERTEX_POINT('',#1576);
#1578=CARTESIAN_POINT('',(-7.24000000000001,3.169999999999991,-6.661338E-016));
#1579=DIRECTION('',(1.0,0.0,0.0));
#1580=VECTOR('',#1579,9.650000000000008);
#1581=LINE('',#1578,#1580);
#1582=EDGE_CURVE('',#1577,#1319,#1581,.T.);
#1583=ORIENTED_EDGE('',*,*,#1582,.F.);
#1584=CARTESIAN_POINT('',(-7.24000000000001,3.809999999999992,-1.110223E-015));
#1585=DIRECTION('',(0.0,-1.0,0.0));
#1586=VECTOR('',#1585,0.640000000000001);
#1587=LINE('',#1584,#1586);
#1588=EDGE_CURVE('',#1553,#1577,#1587,.T.);
#1589=ORIENTED_EDGE('',*,*,#1588,.F.);
#1590=ORIENTED_EDGE('',*,*,#1558,.T.);
#1591=EDGE_LOOP('',(#1575,#1583,#1589,#1590));
#1592=FACE_OUTER_BOUND('',#1591,.T.);
#1593=ADVANCED_FACE('',(#1592),#1574,.T.);
#1594=CARTESIAN_POINT('',(-7.24000000000001,3.169999999999991,-6.661338E-016));
#1595=DIRECTION('',(0.0,-1.0,0.0));
#1596=DIRECTION('',(0.0,0.0,-1.0));
#1597=AXIS2_PLACEMENT_3D('',#1594,#1595,#1596);
#1598=PLANE('',#1597);
#1599=ORIENTED_EDGE('',*,*,#1324,.T.);
#1600=ORIENTED_EDGE('',*,*,#1381,.F.);
#1601=CARTESIAN_POINT('',(-7.24000000000001,3.169999999999991,-6.661338E-016));
#1602=DIRECTION('',(0.0,0.0,1.0));
#1603=VECTOR('',#1602,0.640000000000001);
#1604=LINE('',#1601,#1603);
#1605=EDGE_CURVE('',#1577,#1370,#1604,.T.);
#1606=ORIENTED_EDGE('',*,*,#1605,.F.);
#1607=ORIENTED_EDGE('',*,*,#1582,.T.);
#1608=EDGE_LOOP('',(#1599,#1600,#1606,#1607));
#1609=FACE_OUTER_BOUND('',#1608,.T.);
#1610=ADVANCED_FACE('',(#1609),#1598,.T.);
#1611=CARTESIAN_POINT('',(-7.240000000000008,-7.105427E-015,3.185824715608415));
#1612=DIRECTION('',(1.0,0.0,0.0));
#1613=DIRECTION('',(0.0,0.0,-1.0));
#1614=AXIS2_PLACEMENT_3D('',#1611,#1612,#1613);
#1615=PLANE('',#1614);
#1616=ORIENTED_EDGE('',*,*,#1375,.T.);
#1617=ORIENTED_EDGE('',*,*,#1497,.T.);
#1618=ORIENTED_EDGE('',*,*,#1521,.T.);
#1619=ORIENTED_EDGE('',*,*,#1538,.T.);
#1620=ORIENTED_EDGE('',*,*,#1433,.T.);
#1621=ORIENTED_EDGE('',*,*,#1564,.T.);
#1622=ORIENTED_EDGE('',*,*,#1588,.T.);
#1623=ORIENTED_EDGE('',*,*,#1605,.T.);
#1624=EDGE_LOOP('',(#1616,#1617,#1618,#1619,#1620,#1621,#1622,#1623));
#1625=FACE_OUTER_BOUND('',#1624,.T.);
#1626=ORIENTED_EDGE('',*,*,#1464,.T.);
#1627=ORIENTED_EDGE('',*,*,#650,.T.);
#1628=EDGE_LOOP('',(#1626,#1627));
#1629=FACE_BOUND('',#1628,.T.);
#1630=ADVANCED_FACE('',(#1625,#1629),#1615,.F.);
#1631=CLOSED_SHELL('',(#669,#717,#748,#787,#835,#866,#905,#953,#984,#1023,#1054,#1076,#1098,#1129,#1162,#1179,#1196,#1229,#1269,#1286,#1303,#1343,#1386,#1408,#1444,#1468,#1478,#1502,#1526,#1544,#1569,#1593,#1610,#1630));
#1632=MANIFOLD_SOLID_BREP('163B',#1631);
#1633=COLOUR_RGB('250',0.33,0.33,0.33);
#1634=SURFACE_STYLE_USAGE(.BOTH.,#1635);
#1635=SURFACE_SIDE_STYLE('NONE',(#1636));
#1636=SURFACE_STYLE_FILL_AREA(#1637);
#1637=FILL_AREA_STYLE('NONE',(#1638));
#1638=FILL_AREA_STYLE_COLOUR('NONE',#1633);
#1639=PRESENTATION_STYLE_ASSIGNMENT((#1634));
#1640=STYLED_ITEM('NONE',(#1639),#1632);
#1641=CARTESIAN_POINT('',(-11.225000000000009,-7.105427E-015,3.81));
#1642=DIRECTION('',(0.577350269189626,0.577350269189626,0.577350269189626));
#1643=DIRECTION('',(-0.707106781186548,0.0,0.707106781186548));
#1644=AXIS2_PLACEMENT_3D('',#1641,#1642,#1643);
#1645=SPHERICAL_SURFACE('',#1644,2.414999999999999);
#1646=CARTESIAN_POINT('',(-12.932662876565519,-7.105427E-015,5.517662876565512));
#1647=VERTEX_POINT('',#1646);
#1648=CARTESIAN_POINT('',(-12.619300900092954,-1.394300900092953,2.415699099907054));
#1649=VERTEX_POINT('',#1648);
#1650=CARTESIAN_POINT('',(-11.225000000000009,-7.105427E-015,3.81));
#1651=DIRECTION('',(0.408248290463863,-0.816496580927726,0.408248290463863));
#1652=DIRECTION('',(-0.707106781186547,0.0,0.707106781186548));
#1653=AXIS2_PLACEMENT_3D('',#1650,#1651,#1652);
#1654=CIRCLE('',#1653,2.414999999999999);
#1655=EDGE_CURVE('',#1647,#1649,#1654,.T.);
#1656=ORIENTED_EDGE('',*,*,#1655,.F.);
#1657=CARTESIAN_POINT('',(-11.225000000000009,-7.105427E-015,1.394999999999999));
#1658=VERTEX_POINT('',#1657);
#1659=CARTESIAN_POINT('',(-11.225000000000009,-7.105427E-015,3.81));
#1660=DIRECTION('',(0.0,-1.0,0.0));
#1661=DIRECTION('',(0.0,0.0,1.0));
#1662=AXIS2_PLACEMENT_3D('',#1659,#1660,#1661);
#1663=CIRCLE('',#1662,2.414999999999999);
#1664=EDGE_CURVE('',#1647,#1658,#1663,.T.);
#1665=ORIENTED_EDGE('',*,*,#1664,.T.);
#1666=CARTESIAN_POINT('',(-11.225000000000009,-1.080020833132407,1.6499583337352));
#1667=VERTEX_POINT('',#1666);
#1668=CARTESIAN_POINT('',(-11.225000000000009,-1.421085E-014,3.81));
#1669=DIRECTION('',(-1.0,0.0,0.0));
#1670=DIRECTION('',(0.0,1.0,0.0));
#1671=AXIS2_PLACEMENT_3D('',#1668,#1669,#1670);
#1672=CIRCLE('',#1671,2.415);
#1673=EDGE_CURVE('',#1658,#1667,#1672,.T.);
#1674=ORIENTED_EDGE('',*,*,#1673,.T.);
#1675=CARTESIAN_POINT('',(-11.225000000000009,-7.105427E-015,3.81));
#1676=DIRECTION('',(-0.408248290463863,0.816496580927726,-0.408248290463863));
#1677=DIRECTION('',(0.707106781186547,9.999199E-017,-0.707106781186548));
#1678=AXIS2_PLACEMENT_3D('',#1675,#1676,#1677);
#1679=CIRCLE('',#1678,2.414999999999999);
#1680=EDGE_CURVE('',#1667,#1649,#1679,.T.);
#1681=ORIENTED_EDGE('',*,*,#1680,.T.);
#1682=EDGE_LOOP('',(#1656,#1665,#1674,#1681));
#1683=FACE_OUTER_BOUND('',#1682,.T.);
#1684=ADVANCED_FACE('',(#1683),#1645,.T.);
#1685=CARTESIAN_POINT('',(-13.640000000000008,-7.105427E-015,1.395));
#1686=CARTESIAN_POINT('',(-7.240000000000004,-7.105427E-015,1.395));
#1687=CARTESIAN_POINT('',(-13.640000000000008,-7.105427E-015,6.225000000000001));
#1688=CARTESIAN_POINT('',(-7.240000000000002,-7.105427E-015,6.225000000000001));
#1689=B_SPLINE_SURFACE_WITH_KNOTS('',1,1,((#1685,#1687),(#1686,#1688)),.UNSPECIFIED.,.F.,.F.,.U.,(2,2),(2,2),(0.0,6.400000000000004),(0.0,4.830000000000001),.UNSPECIFIED.);
#1690=CARTESIAN_POINT('',(-11.225000000000009,-7.105427E-015,6.224999999999999));
#1691=VERTEX_POINT('',#1690);
#1692=CARTESIAN_POINT('',(-11.225000000000009,-7.105427E-015,3.81));
#1693=DIRECTION('',(0.0,-1.0,0.0));
#1694=DIRECTION('',(0.0,0.0,1.0));
#1695=AXIS2_PLACEMENT_3D('',#1692,#1693,#1694);
#1696=CIRCLE('',#1695,2.414999999999999);
#1697=EDGE_CURVE('',#1691,#1647,#1696,.T.);
#1698=ORIENTED_EDGE('',*,*,#1697,.F.);
#1699=CARTESIAN_POINT('',(-7.240000000000005,-7.105427E-015,6.225000000000001));
#1700=VERTEX_POINT('',#1699);
#1701=CARTESIAN_POINT('',(-7.240000000000004,-7.105427E-015,6.225));
#1702=DIRECTION('',(-1.0,0.0,0.0));
#1703=VECTOR('',#1702,3.985000000000005);
#1704=LINE('',#1701,#1703);
#1705=EDGE_CURVE('',#1700,#1691,#1704,.T.);
#1706=ORIENTED_EDGE('',*,*,#1705,.F.);
#1707=CARTESIAN_POINT('',(-7.240000000000005,-7.105427E-015,1.395));
#1708=VERTEX_POINT('',#1707);
#1709=CARTESIAN_POINT('',(-7.240000000000006,-7.105427E-015,1.395000000000001));
#1710=DIRECTION('',(0.0,0.0,1.0));
#1711=VECTOR('',#1710,4.83);
#1712=LINE('',#1709,#1711);
#1713=EDGE_CURVE('',#1708,#1700,#1712,.T.);
#1714=ORIENTED_EDGE('',*,*,#1713,.F.);
#1715=CARTESIAN_POINT('',(-11.225000000000009,-7.105427E-015,1.394999999999999));
#1716=DIRECTION('',(1.0,0.0,0.0));
#1717=VECTOR('',#1716,3.985000000000005);
#1718=LINE('',#1715,#1717);
#1719=EDGE_CURVE('',#1658,#1708,#1718,.T.);
#1720=ORIENTED_EDGE('',*,*,#1719,.F.);
#1721=ORIENTED_EDGE('',*,*,#1664,.F.);
#1722=EDGE_LOOP('',(#1698,#1706,#1714,#1720,#1721));
#1723=FACE_OUTER_BOUND('',#1722,.T.);
#1724=ADVANCED_FACE('',(#1723),#1689,.F.);
#1725=CARTESIAN_POINT('',(-7.240000000000006,-1.421085E-014,3.810000000000001));
#1726=DIRECTION('',(1.0,0.0,0.0));
#1727=DIRECTION('',(0.0,1.0,0.0));
#1728=AXIS2_PLACEMENT_3D('',#1725,#1726,#1727);
#1729=PLANE('',#1728);
#1730=ORIENTED_EDGE('',*,*,#1713,.T.);
#1731=CARTESIAN_POINT('',(-7.240000000000006,-1.421085E-014,3.810000000000001));
#1732=DIRECTION('',(1.0,0.0,0.0));
#1733=DIRECTION('',(0.0,1.0,0.0));
#1734=AXIS2_PLACEMENT_3D('',#1731,#1732,#1733);
#1735=CIRCLE('',#1734,2.415);
#1736=EDGE_CURVE('',#1700,#1708,#1735,.T.);
#1737=ORIENTED_EDGE('',*,*,#1736,.T.);
#1738=EDGE_LOOP('',(#1730,#1737));
#1739=FACE_OUTER_BOUND('',#1738,.T.);
#1740=ADVANCED_FACE('',(#1739),#1729,.T.);
#1741=CARTESIAN_POINT('',(-11.225000000000009,-7.105427E-015,3.81));
#1742=DIRECTION('',(0.577350269189626,0.577350269189626,0.577350269189626));
#1743=DIRECTION('',(-0.707106781186548,0.0,0.707106781186548));
#1744=AXIS2_PLACEMENT_3D('',#1741,#1742,#1743);
#1745=SPHERICAL_SURFACE('',#1744,2.414999999999999);
#1746=ORIENTED_EDGE('',*,*,#1655,.T.);
#1747=ORIENTED_EDGE('',*,*,#1680,.F.);
#1748=CARTESIAN_POINT('',(-11.225000000000009,-1.421085E-014,3.81));
#1749=DIRECTION('',(-1.0,0.0,0.0));
#1750=DIRECTION('',(0.0,1.0,0.0));
#1751=AXIS2_PLACEMENT_3D('',#1748,#1749,#1750);
#1752=CIRCLE('',#1751,2.415);
#1753=EDGE_CURVE('',#1667,#1691,#1752,.T.);
#1754=ORIENTED_EDGE('',*,*,#1753,.T.);
#1755=ORIENTED_EDGE('',*,*,#1697,.T.);
#1756=EDGE_LOOP('',(#1746,#1747,#1754,#1755));
#1757=FACE_OUTER_BOUND('',#1756,.T.);
#1758=ADVANCED_FACE('',(#1757),#1745,.T.);
#1759=CARTESIAN_POINT('',(-9.232500000000009,-1.421085E-014,3.81));
#1760=DIRECTION('',(1.0,-1.105559E-032,2.220446E-016));
#1761=DIRECTION('',(0.0,1.0,0.0));
#1762=AXIS2_PLACEMENT_3D('',#1759,#1760,#1761);
#1763=CYLINDRICAL_SURFACE('',#1762,2.415);
#1764=ORIENTED_EDGE('',*,*,#1719,.T.);
#1765=ORIENTED_EDGE('',*,*,#1736,.F.);
#1766=ORIENTED_EDGE('',*,*,#1705,.T.);
#1767=ORIENTED_EDGE('',*,*,#1753,.F.);
#1768=ORIENTED_EDGE('',*,*,#1673,.F.);
#1769=EDGE_LOOP('',(#1764,#1765,#1766,#1767,#1768));
#1770=FACE_OUTER_BOUND('',#1769,.T.);
#1771=ADVANCED_FACE('',(#1770),#1763,.T.);
#1772=CLOSED_SHELL('',(#1684,#1724,#1740,#1758,#1771));
#1773=MANIFOLD_SOLID_BREP('1626',#1772);
#1774=DRAUGHTING_PRE_DEFINED_COLOUR('green');
#1775=SURFACE_STYLE_USAGE(.BOTH.,#1776);
#1776=SURFACE_SIDE_STYLE('NONE',(#1777));
#1777=SURFACE_STYLE_FILL_AREA(#1778);
#1778=FILL_AREA_STYLE('NONE',(#1779));
#1779=FILL_AREA_STYLE_COLOUR('NONE',#1774);
#1780=PRESENTATION_STYLE_ASSIGNMENT((#1775));
#1781=STYLED_ITEM('NONE',(#1780),#1773);
#1782=ADVANCED_BREP_SHAPE_REPRESENTATION('ABSR1',(#216,#378,#531,#619,#1632,#1773),#28);
#1783=SHAPE_REPRESENTATION_RELATIONSHIP('SRRPL1','',#1782,#62);
ENDSEC;
END-ISO-10303-21;
