ISO-10303-21;
HEADER;
/* Generated by software containing ST-Developer
 * from STEP Tools, Inc. (www.steptools.com) 
 */

FILE_DESCRIPTION(
/* description */ (''),
/* implementation_level */ '2;1');

FILE_NAME(
/* name */ 
'G:\\Applications\\Altium\\CernLib\\StepLib\\LED_DIALIGHT_553-0711-300
F.stp',
/* time_stamp */ '2016-09-23T17:16:40+02:00',
/* author */ ('riccim'),
/* organization */ (''),
/* preprocessor_version */ 'ST-DEVELOPER v15.5',
/* originating_system */ 'AutoCAD Mechanical',
/* authorisation */ '');

FILE_SCHEMA (('AUTOMOTIVE_DESIGN { 1 0 10303 214 3 1 1 }'));
ENDSEC;

DATA;
#10=MECHANICAL_DESIGN_GEOMETRIC_PRESENTATION_REPRESENTATION('',(#28,#29,
#30,#23,#24,#25,#26,#27,#31),#1663);
#11=DIMENSIONAL_EXPONENTS(0.,0.,0.,0.,0.,0.,0.);
#12=(
CONVERSION_BASED_UNIT('degree',#13)
NAMED_UNIT(#11)
PLANE_ANGLE_UNIT()
);
#13=PLANE_ANGLE_MEASURE_WITH_UNIT(PLANE_ANGLE_MEASURE(0.01745329252),#1666);
#14=PRESENTATION_LAYER_ASSIGNMENT('3D','',(#1011,#1012,#1013,#1014,#1015,
#1016,#1017,#1018,#1019));
#15=CONICAL_SURFACE($,#1076,1.76779113576829,0.523598775597426);
#16=CONICAL_SURFACE($,#1077,1.76779113576829,0.523598775597426);
#17=(
BOUNDED_CURVE()
B_SPLINE_CURVE(2,(#1500,#1501,#1502),.UNSPECIFIED.,.F.,.F.)
B_SPLINE_CURVE_WITH_KNOTS((3,3),(0.,0.0468699398598574),.UNSPECIFIED.)
CURVE()
GEOMETRIC_REPRESENTATION_ITEM()
RATIONAL_B_SPLINE_CURVE((1.,1.0018216203989,1.00352350488931))
REPRESENTATION_ITEM($)
);
#18=(
BOUNDED_CURVE()
B_SPLINE_CURVE(2,(#1513,#1514,#1515),.UNSPECIFIED.,.F.,.F.)
B_SPLINE_CURVE_WITH_KNOTS((3,3),(1.3792559338171,1.4261258736735),
 .UNSPECIFIED.)
CURVE()
GEOMETRIC_REPRESENTATION_ITEM()
RATIONAL_B_SPLINE_CURVE((1.00352350488906,1.00182162039876,1.))
REPRESENTATION_ITEM($)
);
#19=(
BOUNDED_CURVE()
B_SPLINE_CURVE(2,(#1518,#1519,#1520),.UNSPECIFIED.,.F.,.F.)
B_SPLINE_CURVE_WITH_KNOTS((3,3),(0.,0.0468699398600525),.UNSPECIFIED.)
CURVE()
GEOMETRIC_REPRESENTATION_ITEM()
RATIONAL_B_SPLINE_CURVE((1.,1.00182162039888,1.00352350488929))
REPRESENTATION_ITEM($)
);
#20=(
BOUNDED_CURVE()
B_SPLINE_CURVE(2,(#1531,#1532,#1533),.UNSPECIFIED.,.F.,.F.)
B_SPLINE_CURVE_WITH_KNOTS((3,3),(1.37925593381665,1.426125873673),
 .UNSPECIFIED.)
CURVE()
GEOMETRIC_REPRESENTATION_ITEM()
RATIONAL_B_SPLINE_CURVE((1.00352350488902,1.00182162039874,1.))
REPRESENTATION_ITEM($)
);
#21=SHAPE_REPRESENTATION_RELATIONSHIP('SRR','None',#1669,#22);
#22=ADVANCED_BREP_SHAPE_REPRESENTATION($,(#1011,#1012,#1013,#1014,#1015,
#1016,#1017,#1018,#1019),#1662);
#23=STYLED_ITEM($,(#1679),#1011);
#24=STYLED_ITEM($,(#1680),#1012);
#25=STYLED_ITEM($,(#1680),#1013);
#26=STYLED_ITEM($,(#1680),#1014);
#27=STYLED_ITEM($,(#1680),#1015);
#28=STYLED_ITEM($,(#1681),#1016);
#29=STYLED_ITEM($,(#1679),#1017);
#30=STYLED_ITEM($,(#1682),#1018);
#31=STYLED_ITEM($,(#1682),#1019);
#32=SPHERICAL_SURFACE($,#1027,1.5494);
#33=SPHERICAL_SURFACE($,#1078,1.5494);
#34=SPHERICAL_SURFACE($,#1087,1.5494);
#35=SPHERICAL_SURFACE($,#1094,1.5494);
#36=CYLINDRICAL_SURFACE($,#1023,1.5494);
#37=CYLINDRICAL_SURFACE($,#1083,1.5494);
#38=CYLINDRICAL_SURFACE($,#1091,1.5494);
#39=CYLINDRICAL_SURFACE($,#1098,1.5494);
#40=FACE_OUTER_BOUND($,#102,.T.);
#41=FACE_OUTER_BOUND($,#103,.T.);
#42=FACE_OUTER_BOUND($,#104,.T.);
#43=FACE_OUTER_BOUND($,#105,.T.);
#44=FACE_OUTER_BOUND($,#106,.T.);
#45=FACE_OUTER_BOUND($,#107,.T.);
#46=FACE_OUTER_BOUND($,#108,.T.);
#47=FACE_OUTER_BOUND($,#109,.T.);
#48=FACE_OUTER_BOUND($,#110,.T.);
#49=FACE_OUTER_BOUND($,#111,.T.);
#50=FACE_OUTER_BOUND($,#112,.T.);
#51=FACE_OUTER_BOUND($,#113,.T.);
#52=FACE_OUTER_BOUND($,#114,.T.);
#53=FACE_OUTER_BOUND($,#115,.T.);
#54=FACE_OUTER_BOUND($,#116,.T.);
#55=FACE_OUTER_BOUND($,#117,.T.);
#56=FACE_OUTER_BOUND($,#118,.T.);
#57=FACE_OUTER_BOUND($,#119,.T.);
#58=FACE_OUTER_BOUND($,#120,.T.);
#59=FACE_OUTER_BOUND($,#121,.T.);
#60=FACE_OUTER_BOUND($,#122,.T.);
#61=FACE_OUTER_BOUND($,#123,.T.);
#62=FACE_OUTER_BOUND($,#124,.T.);
#63=FACE_OUTER_BOUND($,#125,.T.);
#64=FACE_OUTER_BOUND($,#126,.T.);
#65=FACE_OUTER_BOUND($,#127,.T.);
#66=FACE_OUTER_BOUND($,#128,.T.);
#67=FACE_OUTER_BOUND($,#129,.T.);
#68=FACE_OUTER_BOUND($,#130,.T.);
#69=FACE_OUTER_BOUND($,#131,.T.);
#70=FACE_OUTER_BOUND($,#132,.T.);
#71=FACE_OUTER_BOUND($,#133,.T.);
#72=FACE_OUTER_BOUND($,#134,.T.);
#73=FACE_OUTER_BOUND($,#135,.T.);
#74=FACE_OUTER_BOUND($,#136,.T.);
#75=FACE_OUTER_BOUND($,#137,.T.);
#76=FACE_OUTER_BOUND($,#138,.T.);
#77=FACE_OUTER_BOUND($,#139,.T.);
#78=FACE_OUTER_BOUND($,#140,.T.);
#79=FACE_OUTER_BOUND($,#141,.T.);
#80=FACE_OUTER_BOUND($,#142,.T.);
#81=FACE_OUTER_BOUND($,#143,.T.);
#82=FACE_OUTER_BOUND($,#144,.T.);
#83=FACE_OUTER_BOUND($,#145,.T.);
#84=FACE_OUTER_BOUND($,#146,.T.);
#85=FACE_OUTER_BOUND($,#147,.T.);
#86=FACE_OUTER_BOUND($,#148,.T.);
#87=FACE_OUTER_BOUND($,#149,.T.);
#88=FACE_OUTER_BOUND($,#150,.T.);
#89=FACE_OUTER_BOUND($,#151,.T.);
#90=FACE_OUTER_BOUND($,#152,.T.);
#91=FACE_OUTER_BOUND($,#153,.T.);
#92=FACE_OUTER_BOUND($,#154,.T.);
#93=FACE_OUTER_BOUND($,#155,.T.);
#94=FACE_OUTER_BOUND($,#156,.T.);
#95=FACE_OUTER_BOUND($,#157,.T.);
#96=FACE_OUTER_BOUND($,#158,.T.);
#97=FACE_OUTER_BOUND($,#159,.T.);
#98=FACE_OUTER_BOUND($,#160,.T.);
#99=FACE_OUTER_BOUND($,#161,.T.);
#100=FACE_OUTER_BOUND($,#162,.T.);
#101=FACE_OUTER_BOUND($,#163,.T.);
#102=EDGE_LOOP($,(#624,#625,#626,#627));
#103=EDGE_LOOP($,(#628,#629,#630,#631));
#104=EDGE_LOOP($,(#632,#633));
#105=EDGE_LOOP($,(#634,#635));
#106=EDGE_LOOP($,(#636,#637,#638,#639));
#107=EDGE_LOOP($,(#640,#641,#642,#643));
#108=EDGE_LOOP($,(#644,#645,#646,#647));
#109=EDGE_LOOP($,(#648,#649,#650,#651));
#110=EDGE_LOOP($,(#652,#653,#654,#655));
#111=EDGE_LOOP($,(#656,#657,#658,#659));
#112=EDGE_LOOP($,(#660,#661,#662,#663));
#113=EDGE_LOOP($,(#664,#665,#666,#667));
#114=EDGE_LOOP($,(#668,#669,#670,#671));
#115=EDGE_LOOP($,(#672,#673,#674,#675));
#116=EDGE_LOOP($,(#676,#677,#678,#679));
#117=EDGE_LOOP($,(#680,#681,#682,#683));
#118=EDGE_LOOP($,(#684,#685,#686,#687));
#119=EDGE_LOOP($,(#688,#689,#690,#691));
#120=EDGE_LOOP($,(#692,#693,#694,#695));
#121=EDGE_LOOP($,(#696,#697,#698,#699));
#122=EDGE_LOOP($,(#700,#701,#702,#703));
#123=EDGE_LOOP($,(#704,#705,#706,#707));
#124=EDGE_LOOP($,(#708,#709,#710,#711));
#125=EDGE_LOOP($,(#712,#713,#714,#715));
#126=EDGE_LOOP($,(#716,#717,#718,#719));
#127=EDGE_LOOP($,(#720,#721,#722,#723));
#128=EDGE_LOOP($,(#724,#725,#726,#727));
#129=EDGE_LOOP($,(#728,#729,#730,#731));
#130=EDGE_LOOP($,(#732,#733));
#131=EDGE_LOOP($,(#734,#735));
#132=EDGE_LOOP($,(#736,#737,#738,#739,#740,#741,#742,#743));
#133=EDGE_LOOP($,(#744,#745,#746,#747,#748,#749,#750,#751));
#134=EDGE_LOOP($,(#752,#753,#754,#755));
#135=EDGE_LOOP($,(#756,#757,#758,#759));
#136=EDGE_LOOP($,(#760,#761,#762,#763));
#137=EDGE_LOOP($,(#764,#765,#766,#767));
#138=EDGE_LOOP($,(#768,#769,#770,#771));
#139=EDGE_LOOP($,(#772,#773,#774,#775));
#140=EDGE_LOOP($,(#776,#777,#778,#779));
#141=EDGE_LOOP($,(#780,#781,#782,#783));
#142=EDGE_LOOP($,(#784,#785,#786,#787));
#143=EDGE_LOOP($,(#788,#789,#790,#791,#792,#793,#794,#795,#796,#797,#798,
#799,#800,#801,#802,#803,#804,#805,#806,#807));
#144=EDGE_LOOP($,(#808,#809,#810,#811,#812,#813,#814,#815,#816,#817,#818,
#819,#820,#821,#822,#823));
#145=EDGE_LOOP($,(#824,#825,#826,#827));
#146=EDGE_LOOP($,(#828,#829,#830,#831));
#147=EDGE_LOOP($,(#832,#833,#834,#835));
#148=EDGE_LOOP($,(#836,#837,#838,#839));
#149=EDGE_LOOP($,(#840,#841,#842,#843));
#150=EDGE_LOOP($,(#844,#845,#846,#847));
#151=EDGE_LOOP($,(#848,#849,#850,#851));
#152=EDGE_LOOP($,(#852,#853));
#153=EDGE_LOOP($,(#854,#855));
#154=EDGE_LOOP($,(#856,#857,#858,#859));
#155=EDGE_LOOP($,(#860,#861,#862,#863));
#156=EDGE_LOOP($,(#864,#865,#866,#867));
#157=EDGE_LOOP($,(#868,#869));
#158=EDGE_LOOP($,(#870,#871));
#159=EDGE_LOOP($,(#872,#873,#874,#875));
#160=EDGE_LOOP($,(#876,#877,#878,#879));
#161=EDGE_LOOP($,(#880,#881));
#162=EDGE_LOOP($,(#882,#883));
#163=EDGE_LOOP($,(#884,#885,#886,#887));
#164=CIRCLE($,#1022,1.5494);
#165=CIRCLE($,#1024,1.5494);
#166=CIRCLE($,#1025,1.5494);
#167=CIRCLE($,#1053,2.12996295963021);
#168=CIRCLE($,#1055,2.12996295963022);
#169=CIRCLE($,#1068,2.1446276564676);
#170=CIRCLE($,#1069,2.1446276564676);
#171=CIRCLE($,#1079,1.5494);
#172=CIRCLE($,#1080,1.5494);
#173=CIRCLE($,#1082,1.5494);
#174=CIRCLE($,#1086,1.5494);
#175=CIRCLE($,#1088,1.5494);
#176=CIRCLE($,#1090,1.5494);
#177=CIRCLE($,#1093,1.5494);
#178=CIRCLE($,#1095,1.5494);
#179=CIRCLE($,#1097,1.5494);
#180=LINE($,#1373,#292);
#181=LINE($,#1375,#293);
#182=LINE($,#1378,#294);
#183=LINE($,#1387,#295);
#184=LINE($,#1389,#296);
#185=LINE($,#1391,#297);
#186=LINE($,#1392,#298);
#187=LINE($,#1395,#299);
#188=LINE($,#1397,#300);
#189=LINE($,#1398,#301);
#190=LINE($,#1401,#302);
#191=LINE($,#1402,#303);
#192=LINE($,#1405,#304);
#193=LINE($,#1406,#305);
#194=LINE($,#1408,#306);
#195=LINE($,#1413,#307);
#196=LINE($,#1415,#308);
#197=LINE($,#1417,#309);
#198=LINE($,#1418,#310);
#199=LINE($,#1422,#311);
#200=LINE($,#1423,#312);
#201=LINE($,#1424,#313);
#202=LINE($,#1427,#314);
#203=LINE($,#1428,#315);
#204=LINE($,#1431,#316);
#205=LINE($,#1432,#317);
#206=LINE($,#1434,#318);
#207=LINE($,#1439,#319);
#208=LINE($,#1441,#320);
#209=LINE($,#1443,#321);
#210=LINE($,#1444,#322);
#211=LINE($,#1447,#323);
#212=LINE($,#1449,#324);
#213=LINE($,#1450,#325);
#214=LINE($,#1453,#326);
#215=LINE($,#1454,#327);
#216=LINE($,#1457,#328);
#217=LINE($,#1458,#329);
#218=LINE($,#1460,#330);
#219=LINE($,#1465,#331);
#220=LINE($,#1467,#332);
#221=LINE($,#1469,#333);
#222=LINE($,#1470,#334);
#223=LINE($,#1474,#335);
#224=LINE($,#1475,#336);
#225=LINE($,#1476,#337);
#226=LINE($,#1479,#338);
#227=LINE($,#1480,#339);
#228=LINE($,#1483,#340);
#229=LINE($,#1484,#341);
#230=LINE($,#1486,#342);
#231=LINE($,#1491,#343);
#232=LINE($,#1496,#344);
#233=LINE($,#1504,#345);
#234=LINE($,#1506,#346);
#235=LINE($,#1508,#347);
#236=LINE($,#1510,#348);
#237=LINE($,#1512,#349);
#238=LINE($,#1522,#350);
#239=LINE($,#1524,#351);
#240=LINE($,#1526,#352);
#241=LINE($,#1528,#353);
#242=LINE($,#1530,#354);
#243=LINE($,#1537,#355);
#244=LINE($,#1539,#356);
#245=LINE($,#1541,#357);
#246=LINE($,#1542,#358);
#247=LINE($,#1545,#359);
#248=LINE($,#1547,#360);
#249=LINE($,#1548,#361);
#250=LINE($,#1552,#362);
#251=LINE($,#1553,#363);
#252=LINE($,#1554,#364);
#253=LINE($,#1558,#365);
#254=LINE($,#1560,#366);
#255=LINE($,#1562,#367);
#256=LINE($,#1563,#368);
#257=LINE($,#1566,#369);
#258=LINE($,#1568,#370);
#259=LINE($,#1569,#371);
#260=LINE($,#1572,#372);
#261=LINE($,#1574,#373);
#262=LINE($,#1575,#374);
#263=LINE($,#1577,#375);
#264=LINE($,#1578,#376);
#265=LINE($,#1581,#377);
#266=LINE($,#1583,#378);
#267=LINE($,#1584,#379);
#268=LINE($,#1587,#380);
#269=LINE($,#1589,#381);
#270=LINE($,#1590,#382);
#271=LINE($,#1594,#383);
#272=LINE($,#1595,#384);
#273=LINE($,#1598,#385);
#274=LINE($,#1599,#386);
#275=LINE($,#1600,#387);
#276=LINE($,#1602,#388);
#277=LINE($,#1604,#389);
#278=LINE($,#1605,#390);
#279=LINE($,#1607,#391);
#280=LINE($,#1608,#392);
#281=LINE($,#1610,#393);
#282=LINE($,#1612,#394);
#283=LINE($,#1626,#395);
#284=LINE($,#1629,#396);
#285=LINE($,#1630,#397);
#286=LINE($,#1635,#398);
#287=LINE($,#1637,#399);
#288=LINE($,#1640,#400);
#289=LINE($,#1649,#401);
#290=LINE($,#1651,#402);
#291=LINE($,#1654,#403);
#292=VECTOR($,#1103,3.09879999999998);
#293=VECTOR($,#1104,1.49619999999996);
#294=VECTOR($,#1107,1.49619999999996);
#295=VECTOR($,#1120,0.507999999999999);
#296=VECTOR($,#1121,0.508);
#297=VECTOR($,#1122,0.507999999999999);
#298=VECTOR($,#1123,0.508);
#299=VECTOR($,#1126,4.191);
#300=VECTOR($,#1127,0.507999999999999);
#301=VECTOR($,#1128,4.191);
#302=VECTOR($,#1131,0.508);
#303=VECTOR($,#1132,4.191);
#304=VECTOR($,#1135,0.507999999999999);
#305=VECTOR($,#1136,4.191);
#306=VECTOR($,#1139,0.508);
#307=VECTOR($,#1144,0.507999999999999);
#308=VECTOR($,#1145,0.507999999999999);
#309=VECTOR($,#1146,0.507999999999999);
#310=VECTOR($,#1147,0.507999999999999);
#311=VECTOR($,#1150,0.507999999999999);
#312=VECTOR($,#1151,4.191);
#313=VECTOR($,#1152,4.191);
#314=VECTOR($,#1155,0.507999999999999);
#315=VECTOR($,#1156,4.191);
#316=VECTOR($,#1159,0.507999999999999);
#317=VECTOR($,#1160,4.191);
#318=VECTOR($,#1163,0.507999999999999);
#319=VECTOR($,#1168,0.507999999999999);
#320=VECTOR($,#1169,0.507999999999999);
#321=VECTOR($,#1170,0.507999999999999);
#322=VECTOR($,#1171,0.507999999999999);
#323=VECTOR($,#1174,4.191);
#324=VECTOR($,#1175,0.507999999999999);
#325=VECTOR($,#1176,4.191);
#326=VECTOR($,#1179,0.507999999999999);
#327=VECTOR($,#1180,4.191);
#328=VECTOR($,#1183,0.507999999999999);
#329=VECTOR($,#1184,4.191);
#330=VECTOR($,#1187,0.507999999999999);
#331=VECTOR($,#1192,0.507999999999999);
#332=VECTOR($,#1193,0.508);
#333=VECTOR($,#1194,0.507999999999999);
#334=VECTOR($,#1195,0.508);
#335=VECTOR($,#1198,0.508);
#336=VECTOR($,#1199,4.191);
#337=VECTOR($,#1200,4.191);
#338=VECTOR($,#1203,0.507999999999999);
#339=VECTOR($,#1204,4.191);
#340=VECTOR($,#1207,0.508);
#341=VECTOR($,#1208,4.191);
#342=VECTOR($,#1211,0.507999999999999);
#343=VECTOR($,#1216,1.27705631731195);
#344=VECTOR($,#1221,1.27705631731246);
#345=VECTOR($,#1226,0.965140112788362);
#346=VECTOR($,#1227,8.768);
#347=VECTOR($,#1228,3.302000000001);
#348=VECTOR($,#1229,8.768);
#349=VECTOR($,#1230,0.965140112789442);
#350=VECTOR($,#1233,0.964630979290906);
#351=VECTOR($,#1234,8.768);
#352=VECTOR($,#1235,3.30098173216202);
#353=VECTOR($,#1236,8.768);
#354=VECTOR($,#1237,0.964630979289894);
#355=VECTOR($,#1240,0.707106781186548);
#356=VECTOR($,#1241,8.768);
#357=VECTOR($,#1242,0.707106781186548);
#358=VECTOR($,#1243,8.768);
#359=VECTOR($,#1246,0.707106781186547);
#360=VECTOR($,#1247,8.768);
#361=VECTOR($,#1248,0.707106781186548);
#362=VECTOR($,#1251,8.768);
#363=VECTOR($,#1252,0.718420489684079);
#364=VECTOR($,#1253,0.718420489684079);
#365=VECTOR($,#1256,0.707106781186548);
#366=VECTOR($,#1257,8.768);
#367=VECTOR($,#1258,0.707106781186547);
#368=VECTOR($,#1259,8.768);
#369=VECTOR($,#1262,0.707106781186548);
#370=VECTOR($,#1263,8.768);
#371=VECTOR($,#1264,0.707106781186548);
#372=VECTOR($,#1267,4.32600000000019);
#373=VECTOR($,#1268,8.768);
#374=VECTOR($,#1269,4.32599999999979);
#375=VECTOR($,#1272,3.81800000000123);
#376=VECTOR($,#1273,3.81800000000123);
#377=VECTOR($,#1276,3.81800000000021);
#378=VECTOR($,#1277,8.768);
#379=VECTOR($,#1278,3.81800000000021);
#380=VECTOR($,#1281,4.32599999999979);
#381=VECTOR($,#1282,8.768);
#382=VECTOR($,#1283,4.32600000000019);
#383=VECTOR($,#1288,0.508509133498421);
#384=VECTOR($,#1289,0.507999999999736);
#385=VECTOR($,#1292,0.507999999999868);
#386=VECTOR($,#1293,0.508509133499436);
#387=VECTOR($,#1294,0.718420489685526);
#388=VECTOR($,#1297,0.718420489685533);
#389=VECTOR($,#1298,0.5085091339195);
#390=VECTOR($,#1299,0.507999999999824);
#391=VECTOR($,#1300,0.507999999999492);
#392=VECTOR($,#1301,0.508509133918484);
#393=VECTOR($,#1304,8.768);
#394=VECTOR($,#1307,8.768);
#395=VECTOR($,#1326,3.0988);
#396=VECTOR($,#1331,1.49619999999996);
#397=VECTOR($,#1332,1.49619999999996);
#398=VECTOR($,#1337,3.09879999999998);
#399=VECTOR($,#1338,1.49619999999996);
#400=VECTOR($,#1341,1.49619999999996);
#401=VECTOR($,#1354,3.09879999999998);
#402=VECTOR($,#1355,1.49619999999996);
#403=VECTOR($,#1358,1.49619999999996);
#404=VERTEX_POINT($,#1371);
#405=VERTEX_POINT($,#1372);
#406=VERTEX_POINT($,#1374);
#407=VERTEX_POINT($,#1376);
#408=VERTEX_POINT($,#1385);
#409=VERTEX_POINT($,#1386);
#410=VERTEX_POINT($,#1388);
#411=VERTEX_POINT($,#1390);
#412=VERTEX_POINT($,#1394);
#413=VERTEX_POINT($,#1396);
#414=VERTEX_POINT($,#1400);
#415=VERTEX_POINT($,#1404);
#416=VERTEX_POINT($,#1411);
#417=VERTEX_POINT($,#1412);
#418=VERTEX_POINT($,#1414);
#419=VERTEX_POINT($,#1416);
#420=VERTEX_POINT($,#1420);
#421=VERTEX_POINT($,#1421);
#422=VERTEX_POINT($,#1426);
#423=VERTEX_POINT($,#1430);
#424=VERTEX_POINT($,#1437);
#425=VERTEX_POINT($,#1438);
#426=VERTEX_POINT($,#1440);
#427=VERTEX_POINT($,#1442);
#428=VERTEX_POINT($,#1446);
#429=VERTEX_POINT($,#1448);
#430=VERTEX_POINT($,#1452);
#431=VERTEX_POINT($,#1456);
#432=VERTEX_POINT($,#1463);
#433=VERTEX_POINT($,#1464);
#434=VERTEX_POINT($,#1466);
#435=VERTEX_POINT($,#1468);
#436=VERTEX_POINT($,#1472);
#437=VERTEX_POINT($,#1473);
#438=VERTEX_POINT($,#1478);
#439=VERTEX_POINT($,#1482);
#440=VERTEX_POINT($,#1489);
#441=VERTEX_POINT($,#1490);
#442=VERTEX_POINT($,#1494);
#443=VERTEX_POINT($,#1495);
#444=VERTEX_POINT($,#1499);
#445=VERTEX_POINT($,#1503);
#446=VERTEX_POINT($,#1505);
#447=VERTEX_POINT($,#1507);
#448=VERTEX_POINT($,#1509);
#449=VERTEX_POINT($,#1511);
#450=VERTEX_POINT($,#1517);
#451=VERTEX_POINT($,#1521);
#452=VERTEX_POINT($,#1523);
#453=VERTEX_POINT($,#1525);
#454=VERTEX_POINT($,#1527);
#455=VERTEX_POINT($,#1529);
#456=VERTEX_POINT($,#1535);
#457=VERTEX_POINT($,#1536);
#458=VERTEX_POINT($,#1538);
#459=VERTEX_POINT($,#1540);
#460=VERTEX_POINT($,#1544);
#461=VERTEX_POINT($,#1546);
#462=VERTEX_POINT($,#1550);
#463=VERTEX_POINT($,#1551);
#464=VERTEX_POINT($,#1556);
#465=VERTEX_POINT($,#1557);
#466=VERTEX_POINT($,#1559);
#467=VERTEX_POINT($,#1561);
#468=VERTEX_POINT($,#1565);
#469=VERTEX_POINT($,#1567);
#470=VERTEX_POINT($,#1571);
#471=VERTEX_POINT($,#1573);
#472=VERTEX_POINT($,#1580);
#473=VERTEX_POINT($,#1582);
#474=VERTEX_POINT($,#1586);
#475=VERTEX_POINT($,#1588);
#476=VERTEX_POINT($,#1593);
#477=VERTEX_POINT($,#1597);
#478=VERTEX_POINT($,#1603);
#479=VERTEX_POINT($,#1606);
#480=VERTEX_POINT($,#1619);
#481=VERTEX_POINT($,#1620);
#482=VERTEX_POINT($,#1624);
#483=VERTEX_POINT($,#1625);
#484=VERTEX_POINT($,#1633);
#485=VERTEX_POINT($,#1634);
#486=VERTEX_POINT($,#1636);
#487=VERTEX_POINT($,#1638);
#488=VERTEX_POINT($,#1647);
#489=VERTEX_POINT($,#1648);
#490=VERTEX_POINT($,#1650);
#491=VERTEX_POINT($,#1652);
#492=EDGE_CURVE($,#404,#405,#180,.T.);
#493=EDGE_CURVE($,#405,#406,#181,.T.);
#494=EDGE_CURVE($,#406,#407,#164,.T.);
#495=EDGE_CURVE($,#407,#404,#182,.T.);
#496=EDGE_CURVE($,#404,#405,#165,.T.);
#497=EDGE_CURVE($,#407,#406,#166,.T.);
#498=EDGE_CURVE($,#408,#409,#183,.T.);
#499=EDGE_CURVE($,#408,#410,#184,.T.);
#500=EDGE_CURVE($,#410,#411,#185,.T.);
#501=EDGE_CURVE($,#409,#411,#186,.T.);
#502=EDGE_CURVE($,#412,#409,#187,.T.);
#503=EDGE_CURVE($,#412,#413,#188,.T.);
#504=EDGE_CURVE($,#413,#408,#189,.T.);
#505=EDGE_CURVE($,#413,#414,#190,.T.);
#506=EDGE_CURVE($,#414,#410,#191,.T.);
#507=EDGE_CURVE($,#414,#415,#192,.T.);
#508=EDGE_CURVE($,#411,#415,#193,.T.);
#509=EDGE_CURVE($,#415,#412,#194,.T.);
#510=EDGE_CURVE($,#416,#417,#195,.T.);
#511=EDGE_CURVE($,#418,#416,#196,.T.);
#512=EDGE_CURVE($,#419,#418,#197,.T.);
#513=EDGE_CURVE($,#417,#419,#198,.T.);
#514=EDGE_CURVE($,#420,#421,#199,.T.);
#515=EDGE_CURVE($,#418,#420,#200,.T.);
#516=EDGE_CURVE($,#421,#416,#201,.T.);
#517=EDGE_CURVE($,#420,#422,#202,.T.);
#518=EDGE_CURVE($,#422,#419,#203,.T.);
#519=EDGE_CURVE($,#422,#423,#204,.T.);
#520=EDGE_CURVE($,#423,#417,#205,.T.);
#521=EDGE_CURVE($,#421,#423,#206,.T.);
#522=EDGE_CURVE($,#424,#425,#207,.T.);
#523=EDGE_CURVE($,#426,#425,#208,.T.);
#524=EDGE_CURVE($,#427,#426,#209,.T.);
#525=EDGE_CURVE($,#427,#424,#210,.T.);
#526=EDGE_CURVE($,#424,#428,#211,.T.);
#527=EDGE_CURVE($,#428,#429,#212,.T.);
#528=EDGE_CURVE($,#425,#429,#213,.T.);
#529=EDGE_CURVE($,#429,#430,#214,.T.);
#530=EDGE_CURVE($,#426,#430,#215,.T.);
#531=EDGE_CURVE($,#430,#431,#216,.T.);
#532=EDGE_CURVE($,#431,#427,#217,.T.);
#533=EDGE_CURVE($,#431,#428,#218,.T.);
#534=EDGE_CURVE($,#432,#433,#219,.T.);
#535=EDGE_CURVE($,#434,#432,#220,.T.);
#536=EDGE_CURVE($,#435,#434,#221,.T.);
#537=EDGE_CURVE($,#433,#435,#222,.T.);
#538=EDGE_CURVE($,#436,#437,#223,.T.);
#539=EDGE_CURVE($,#437,#433,#224,.T.);
#540=EDGE_CURVE($,#435,#436,#225,.T.);
#541=EDGE_CURVE($,#438,#437,#226,.T.);
#542=EDGE_CURVE($,#432,#438,#227,.T.);
#543=EDGE_CURVE($,#439,#438,#228,.T.);
#544=EDGE_CURVE($,#434,#439,#229,.T.);
#545=EDGE_CURVE($,#439,#436,#230,.T.);
#546=EDGE_CURVE($,#440,#441,#231,.T.);
#547=EDGE_CURVE($,#440,#441,#167,.T.);
#548=EDGE_CURVE($,#442,#443,#232,.T.);
#549=EDGE_CURVE($,#442,#443,#168,.T.);
#550=EDGE_CURVE($,#444,#443,#17,.T.);
#551=EDGE_CURVE($,#444,#445,#233,.T.);
#552=EDGE_CURVE($,#446,#445,#234,.T.);
#553=EDGE_CURVE($,#446,#447,#235,.T.);
#554=EDGE_CURVE($,#447,#448,#236,.T.);
#555=EDGE_CURVE($,#448,#449,#237,.T.);
#556=EDGE_CURVE($,#442,#449,#18,.T.);
#557=EDGE_CURVE($,#450,#441,#19,.T.);
#558=EDGE_CURVE($,#451,#450,#238,.T.);
#559=EDGE_CURVE($,#452,#451,#239,.T.);
#560=EDGE_CURVE($,#453,#452,#240,.T.);
#561=EDGE_CURVE($,#453,#454,#241,.T.);
#562=EDGE_CURVE($,#455,#454,#242,.T.);
#563=EDGE_CURVE($,#440,#455,#20,.T.);
#564=EDGE_CURVE($,#456,#457,#243,.T.);
#565=EDGE_CURVE($,#458,#456,#244,.T.);
#566=EDGE_CURVE($,#459,#458,#245,.T.);
#567=EDGE_CURVE($,#457,#459,#246,.T.);
#568=EDGE_CURVE($,#460,#456,#247,.T.);
#569=EDGE_CURVE($,#461,#460,#248,.T.);
#570=EDGE_CURVE($,#458,#461,#249,.T.);
#571=EDGE_CURVE($,#462,#463,#250,.T.);
#572=EDGE_CURVE($,#448,#462,#251,.T.);
#573=EDGE_CURVE($,#463,#447,#252,.T.);
#574=EDGE_CURVE($,#464,#465,#253,.T.);
#575=EDGE_CURVE($,#466,#464,#254,.T.);
#576=EDGE_CURVE($,#467,#466,#255,.T.);
#577=EDGE_CURVE($,#465,#467,#256,.T.);
#578=EDGE_CURVE($,#468,#464,#257,.T.);
#579=EDGE_CURVE($,#469,#468,#258,.T.);
#580=EDGE_CURVE($,#466,#469,#259,.T.);
#581=EDGE_CURVE($,#470,#459,#260,.T.);
#582=EDGE_CURVE($,#471,#470,#261,.T.);
#583=EDGE_CURVE($,#457,#471,#262,.T.);
#584=EDGE_CURVE($,#462,#460,#263,.T.);
#585=EDGE_CURVE($,#461,#463,#264,.T.);
#586=EDGE_CURVE($,#467,#472,#265,.T.);
#587=EDGE_CURVE($,#472,#473,#266,.T.);
#588=EDGE_CURVE($,#473,#465,#267,.T.);
#589=EDGE_CURVE($,#468,#474,#268,.T.);
#590=EDGE_CURVE($,#474,#475,#269,.T.);
#591=EDGE_CURVE($,#475,#469,#270,.T.);
#592=EDGE_CURVE($,#444,#449,#169,.F.);
#593=EDGE_CURVE($,#471,#476,#271,.T.);
#594=EDGE_CURVE($,#451,#476,#272,.T.);
#595=EDGE_CURVE($,#450,#455,#170,.F.);
#596=EDGE_CURVE($,#454,#477,#273,.T.);
#597=EDGE_CURVE($,#477,#474,#274,.T.);
#598=EDGE_CURVE($,#473,#445,#275,.T.);
#599=EDGE_CURVE($,#472,#446,#276,.T.);
#600=EDGE_CURVE($,#475,#478,#277,.T.);
#601=EDGE_CURVE($,#478,#453,#278,.T.);
#602=EDGE_CURVE($,#479,#452,#279,.T.);
#603=EDGE_CURVE($,#479,#470,#280,.T.);
#604=EDGE_CURVE($,#478,#477,#281,.T.);
#605=EDGE_CURVE($,#476,#479,#282,.T.);
#606=EDGE_CURVE($,#480,#481,#171,.T.);
#607=EDGE_CURVE($,#480,#481,#172,.T.);
#608=EDGE_CURVE($,#482,#483,#283,.T.);
#609=EDGE_CURVE($,#483,#482,#173,.T.);
#610=EDGE_CURVE($,#483,#480,#284,.T.);
#611=EDGE_CURVE($,#481,#482,#285,.T.);
#612=EDGE_CURVE($,#484,#485,#286,.T.);
#613=EDGE_CURVE($,#486,#484,#287,.T.);
#614=EDGE_CURVE($,#487,#486,#174,.T.);
#615=EDGE_CURVE($,#485,#487,#288,.T.);
#616=EDGE_CURVE($,#487,#486,#175,.T.);
#617=EDGE_CURVE($,#485,#484,#176,.T.);
#618=EDGE_CURVE($,#488,#489,#289,.T.);
#619=EDGE_CURVE($,#490,#488,#290,.T.);
#620=EDGE_CURVE($,#491,#490,#177,.T.);
#621=EDGE_CURVE($,#489,#491,#291,.T.);
#622=EDGE_CURVE($,#491,#490,#178,.T.);
#623=EDGE_CURVE($,#489,#488,#179,.T.);
#624=ORIENTED_EDGE($,*,*,#492,.T.);
#625=ORIENTED_EDGE($,*,*,#493,.T.);
#626=ORIENTED_EDGE($,*,*,#494,.T.);
#627=ORIENTED_EDGE($,*,*,#495,.T.);
#628=ORIENTED_EDGE($,*,*,#493,.F.);
#629=ORIENTED_EDGE($,*,*,#496,.F.);
#630=ORIENTED_EDGE($,*,*,#495,.F.);
#631=ORIENTED_EDGE($,*,*,#497,.T.);
#632=ORIENTED_EDGE($,*,*,#492,.F.);
#633=ORIENTED_EDGE($,*,*,#496,.T.);
#634=ORIENTED_EDGE($,*,*,#494,.F.);
#635=ORIENTED_EDGE($,*,*,#497,.F.);
#636=ORIENTED_EDGE($,*,*,#498,.F.);
#637=ORIENTED_EDGE($,*,*,#499,.T.);
#638=ORIENTED_EDGE($,*,*,#500,.T.);
#639=ORIENTED_EDGE($,*,*,#501,.F.);
#640=ORIENTED_EDGE($,*,*,#498,.T.);
#641=ORIENTED_EDGE($,*,*,#502,.F.);
#642=ORIENTED_EDGE($,*,*,#503,.T.);
#643=ORIENTED_EDGE($,*,*,#504,.T.);
#644=ORIENTED_EDGE($,*,*,#499,.F.);
#645=ORIENTED_EDGE($,*,*,#504,.F.);
#646=ORIENTED_EDGE($,*,*,#505,.T.);
#647=ORIENTED_EDGE($,*,*,#506,.T.);
#648=ORIENTED_EDGE($,*,*,#500,.F.);
#649=ORIENTED_EDGE($,*,*,#506,.F.);
#650=ORIENTED_EDGE($,*,*,#507,.T.);
#651=ORIENTED_EDGE($,*,*,#508,.F.);
#652=ORIENTED_EDGE($,*,*,#501,.T.);
#653=ORIENTED_EDGE($,*,*,#508,.T.);
#654=ORIENTED_EDGE($,*,*,#509,.T.);
#655=ORIENTED_EDGE($,*,*,#502,.T.);
#656=ORIENTED_EDGE($,*,*,#507,.F.);
#657=ORIENTED_EDGE($,*,*,#505,.F.);
#658=ORIENTED_EDGE($,*,*,#503,.F.);
#659=ORIENTED_EDGE($,*,*,#509,.F.);
#660=ORIENTED_EDGE($,*,*,#510,.F.);
#661=ORIENTED_EDGE($,*,*,#511,.F.);
#662=ORIENTED_EDGE($,*,*,#512,.F.);
#663=ORIENTED_EDGE($,*,*,#513,.F.);
#664=ORIENTED_EDGE($,*,*,#514,.F.);
#665=ORIENTED_EDGE($,*,*,#515,.F.);
#666=ORIENTED_EDGE($,*,*,#511,.T.);
#667=ORIENTED_EDGE($,*,*,#516,.F.);
#668=ORIENTED_EDGE($,*,*,#517,.T.);
#669=ORIENTED_EDGE($,*,*,#518,.T.);
#670=ORIENTED_EDGE($,*,*,#512,.T.);
#671=ORIENTED_EDGE($,*,*,#515,.T.);
#672=ORIENTED_EDGE($,*,*,#519,.T.);
#673=ORIENTED_EDGE($,*,*,#520,.T.);
#674=ORIENTED_EDGE($,*,*,#513,.T.);
#675=ORIENTED_EDGE($,*,*,#518,.F.);
#676=ORIENTED_EDGE($,*,*,#521,.F.);
#677=ORIENTED_EDGE($,*,*,#516,.T.);
#678=ORIENTED_EDGE($,*,*,#510,.T.);
#679=ORIENTED_EDGE($,*,*,#520,.F.);
#680=ORIENTED_EDGE($,*,*,#521,.T.);
#681=ORIENTED_EDGE($,*,*,#519,.F.);
#682=ORIENTED_EDGE($,*,*,#517,.F.);
#683=ORIENTED_EDGE($,*,*,#514,.T.);
#684=ORIENTED_EDGE($,*,*,#522,.T.);
#685=ORIENTED_EDGE($,*,*,#523,.F.);
#686=ORIENTED_EDGE($,*,*,#524,.F.);
#687=ORIENTED_EDGE($,*,*,#525,.T.);
#688=ORIENTED_EDGE($,*,*,#522,.F.);
#689=ORIENTED_EDGE($,*,*,#526,.T.);
#690=ORIENTED_EDGE($,*,*,#527,.T.);
#691=ORIENTED_EDGE($,*,*,#528,.F.);
#692=ORIENTED_EDGE($,*,*,#523,.T.);
#693=ORIENTED_EDGE($,*,*,#528,.T.);
#694=ORIENTED_EDGE($,*,*,#529,.T.);
#695=ORIENTED_EDGE($,*,*,#530,.F.);
#696=ORIENTED_EDGE($,*,*,#524,.T.);
#697=ORIENTED_EDGE($,*,*,#530,.T.);
#698=ORIENTED_EDGE($,*,*,#531,.T.);
#699=ORIENTED_EDGE($,*,*,#532,.T.);
#700=ORIENTED_EDGE($,*,*,#525,.F.);
#701=ORIENTED_EDGE($,*,*,#532,.F.);
#702=ORIENTED_EDGE($,*,*,#533,.T.);
#703=ORIENTED_EDGE($,*,*,#526,.F.);
#704=ORIENTED_EDGE($,*,*,#527,.F.);
#705=ORIENTED_EDGE($,*,*,#533,.F.);
#706=ORIENTED_EDGE($,*,*,#531,.F.);
#707=ORIENTED_EDGE($,*,*,#529,.F.);
#708=ORIENTED_EDGE($,*,*,#534,.F.);
#709=ORIENTED_EDGE($,*,*,#535,.F.);
#710=ORIENTED_EDGE($,*,*,#536,.F.);
#711=ORIENTED_EDGE($,*,*,#537,.F.);
#712=ORIENTED_EDGE($,*,*,#538,.T.);
#713=ORIENTED_EDGE($,*,*,#539,.T.);
#714=ORIENTED_EDGE($,*,*,#537,.T.);
#715=ORIENTED_EDGE($,*,*,#540,.T.);
#716=ORIENTED_EDGE($,*,*,#541,.F.);
#717=ORIENTED_EDGE($,*,*,#542,.F.);
#718=ORIENTED_EDGE($,*,*,#534,.T.);
#719=ORIENTED_EDGE($,*,*,#539,.F.);
#720=ORIENTED_EDGE($,*,*,#543,.F.);
#721=ORIENTED_EDGE($,*,*,#544,.F.);
#722=ORIENTED_EDGE($,*,*,#535,.T.);
#723=ORIENTED_EDGE($,*,*,#542,.T.);
#724=ORIENTED_EDGE($,*,*,#545,.T.);
#725=ORIENTED_EDGE($,*,*,#540,.F.);
#726=ORIENTED_EDGE($,*,*,#536,.T.);
#727=ORIENTED_EDGE($,*,*,#544,.T.);
#728=ORIENTED_EDGE($,*,*,#545,.F.);
#729=ORIENTED_EDGE($,*,*,#543,.T.);
#730=ORIENTED_EDGE($,*,*,#541,.T.);
#731=ORIENTED_EDGE($,*,*,#538,.F.);
#732=ORIENTED_EDGE($,*,*,#546,.F.);
#733=ORIENTED_EDGE($,*,*,#547,.T.);
#734=ORIENTED_EDGE($,*,*,#548,.F.);
#735=ORIENTED_EDGE($,*,*,#549,.T.);
#736=ORIENTED_EDGE($,*,*,#550,.F.);
#737=ORIENTED_EDGE($,*,*,#551,.T.);
#738=ORIENTED_EDGE($,*,*,#552,.F.);
#739=ORIENTED_EDGE($,*,*,#553,.T.);
#740=ORIENTED_EDGE($,*,*,#554,.T.);
#741=ORIENTED_EDGE($,*,*,#555,.T.);
#742=ORIENTED_EDGE($,*,*,#556,.F.);
#743=ORIENTED_EDGE($,*,*,#548,.T.);
#744=ORIENTED_EDGE($,*,*,#557,.F.);
#745=ORIENTED_EDGE($,*,*,#558,.F.);
#746=ORIENTED_EDGE($,*,*,#559,.F.);
#747=ORIENTED_EDGE($,*,*,#560,.F.);
#748=ORIENTED_EDGE($,*,*,#561,.T.);
#749=ORIENTED_EDGE($,*,*,#562,.F.);
#750=ORIENTED_EDGE($,*,*,#563,.F.);
#751=ORIENTED_EDGE($,*,*,#546,.T.);
#752=ORIENTED_EDGE($,*,*,#564,.F.);
#753=ORIENTED_EDGE($,*,*,#565,.F.);
#754=ORIENTED_EDGE($,*,*,#566,.F.);
#755=ORIENTED_EDGE($,*,*,#567,.F.);
#756=ORIENTED_EDGE($,*,*,#568,.F.);
#757=ORIENTED_EDGE($,*,*,#569,.F.);
#758=ORIENTED_EDGE($,*,*,#570,.F.);
#759=ORIENTED_EDGE($,*,*,#565,.T.);
#760=ORIENTED_EDGE($,*,*,#571,.F.);
#761=ORIENTED_EDGE($,*,*,#572,.F.);
#762=ORIENTED_EDGE($,*,*,#554,.F.);
#763=ORIENTED_EDGE($,*,*,#573,.F.);
#764=ORIENTED_EDGE($,*,*,#574,.F.);
#765=ORIENTED_EDGE($,*,*,#575,.F.);
#766=ORIENTED_EDGE($,*,*,#576,.F.);
#767=ORIENTED_EDGE($,*,*,#577,.F.);
#768=ORIENTED_EDGE($,*,*,#578,.F.);
#769=ORIENTED_EDGE($,*,*,#579,.F.);
#770=ORIENTED_EDGE($,*,*,#580,.F.);
#771=ORIENTED_EDGE($,*,*,#575,.T.);
#772=ORIENTED_EDGE($,*,*,#567,.T.);
#773=ORIENTED_EDGE($,*,*,#581,.F.);
#774=ORIENTED_EDGE($,*,*,#582,.F.);
#775=ORIENTED_EDGE($,*,*,#583,.F.);
#776=ORIENTED_EDGE($,*,*,#569,.T.);
#777=ORIENTED_EDGE($,*,*,#584,.F.);
#778=ORIENTED_EDGE($,*,*,#571,.T.);
#779=ORIENTED_EDGE($,*,*,#585,.F.);
#780=ORIENTED_EDGE($,*,*,#577,.T.);
#781=ORIENTED_EDGE($,*,*,#586,.T.);
#782=ORIENTED_EDGE($,*,*,#587,.T.);
#783=ORIENTED_EDGE($,*,*,#588,.T.);
#784=ORIENTED_EDGE($,*,*,#579,.T.);
#785=ORIENTED_EDGE($,*,*,#589,.T.);
#786=ORIENTED_EDGE($,*,*,#590,.T.);
#787=ORIENTED_EDGE($,*,*,#591,.T.);
#788=ORIENTED_EDGE($,*,*,#592,.T.);
#789=ORIENTED_EDGE($,*,*,#555,.F.);
#790=ORIENTED_EDGE($,*,*,#572,.T.);
#791=ORIENTED_EDGE($,*,*,#584,.T.);
#792=ORIENTED_EDGE($,*,*,#568,.T.);
#793=ORIENTED_EDGE($,*,*,#564,.T.);
#794=ORIENTED_EDGE($,*,*,#583,.T.);
#795=ORIENTED_EDGE($,*,*,#593,.T.);
#796=ORIENTED_EDGE($,*,*,#594,.F.);
#797=ORIENTED_EDGE($,*,*,#558,.T.);
#798=ORIENTED_EDGE($,*,*,#595,.T.);
#799=ORIENTED_EDGE($,*,*,#562,.T.);
#800=ORIENTED_EDGE($,*,*,#596,.T.);
#801=ORIENTED_EDGE($,*,*,#597,.T.);
#802=ORIENTED_EDGE($,*,*,#589,.F.);
#803=ORIENTED_EDGE($,*,*,#578,.T.);
#804=ORIENTED_EDGE($,*,*,#574,.T.);
#805=ORIENTED_EDGE($,*,*,#588,.F.);
#806=ORIENTED_EDGE($,*,*,#598,.T.);
#807=ORIENTED_EDGE($,*,*,#551,.F.);
#808=ORIENTED_EDGE($,*,*,#570,.T.);
#809=ORIENTED_EDGE($,*,*,#585,.T.);
#810=ORIENTED_EDGE($,*,*,#573,.T.);
#811=ORIENTED_EDGE($,*,*,#553,.F.);
#812=ORIENTED_EDGE($,*,*,#599,.F.);
#813=ORIENTED_EDGE($,*,*,#586,.F.);
#814=ORIENTED_EDGE($,*,*,#576,.T.);
#815=ORIENTED_EDGE($,*,*,#580,.T.);
#816=ORIENTED_EDGE($,*,*,#591,.F.);
#817=ORIENTED_EDGE($,*,*,#600,.T.);
#818=ORIENTED_EDGE($,*,*,#601,.T.);
#819=ORIENTED_EDGE($,*,*,#560,.T.);
#820=ORIENTED_EDGE($,*,*,#602,.F.);
#821=ORIENTED_EDGE($,*,*,#603,.T.);
#822=ORIENTED_EDGE($,*,*,#581,.T.);
#823=ORIENTED_EDGE($,*,*,#566,.T.);
#824=ORIENTED_EDGE($,*,*,#561,.F.);
#825=ORIENTED_EDGE($,*,*,#601,.F.);
#826=ORIENTED_EDGE($,*,*,#604,.T.);
#827=ORIENTED_EDGE($,*,*,#596,.F.);
#828=ORIENTED_EDGE($,*,*,#559,.T.);
#829=ORIENTED_EDGE($,*,*,#594,.T.);
#830=ORIENTED_EDGE($,*,*,#605,.T.);
#831=ORIENTED_EDGE($,*,*,#602,.T.);
#832=ORIENTED_EDGE($,*,*,#605,.F.);
#833=ORIENTED_EDGE($,*,*,#593,.F.);
#834=ORIENTED_EDGE($,*,*,#582,.T.);
#835=ORIENTED_EDGE($,*,*,#603,.F.);
#836=ORIENTED_EDGE($,*,*,#552,.T.);
#837=ORIENTED_EDGE($,*,*,#598,.F.);
#838=ORIENTED_EDGE($,*,*,#587,.F.);
#839=ORIENTED_EDGE($,*,*,#599,.T.);
#840=ORIENTED_EDGE($,*,*,#604,.F.);
#841=ORIENTED_EDGE($,*,*,#600,.F.);
#842=ORIENTED_EDGE($,*,*,#590,.F.);
#843=ORIENTED_EDGE($,*,*,#597,.F.);
#844=ORIENTED_EDGE($,*,*,#549,.F.);
#845=ORIENTED_EDGE($,*,*,#556,.T.);
#846=ORIENTED_EDGE($,*,*,#592,.F.);
#847=ORIENTED_EDGE($,*,*,#550,.T.);
#848=ORIENTED_EDGE($,*,*,#547,.F.);
#849=ORIENTED_EDGE($,*,*,#563,.T.);
#850=ORIENTED_EDGE($,*,*,#595,.F.);
#851=ORIENTED_EDGE($,*,*,#557,.T.);
#852=ORIENTED_EDGE($,*,*,#606,.T.);
#853=ORIENTED_EDGE($,*,*,#607,.F.);
#854=ORIENTED_EDGE($,*,*,#608,.T.);
#855=ORIENTED_EDGE($,*,*,#609,.T.);
#856=ORIENTED_EDGE($,*,*,#610,.T.);
#857=ORIENTED_EDGE($,*,*,#607,.T.);
#858=ORIENTED_EDGE($,*,*,#611,.T.);
#859=ORIENTED_EDGE($,*,*,#609,.F.);
#860=ORIENTED_EDGE($,*,*,#608,.F.);
#861=ORIENTED_EDGE($,*,*,#611,.F.);
#862=ORIENTED_EDGE($,*,*,#606,.F.);
#863=ORIENTED_EDGE($,*,*,#610,.F.);
#864=ORIENTED_EDGE($,*,*,#612,.F.);
#865=ORIENTED_EDGE($,*,*,#613,.F.);
#866=ORIENTED_EDGE($,*,*,#614,.F.);
#867=ORIENTED_EDGE($,*,*,#615,.F.);
#868=ORIENTED_EDGE($,*,*,#614,.T.);
#869=ORIENTED_EDGE($,*,*,#616,.F.);
#870=ORIENTED_EDGE($,*,*,#612,.T.);
#871=ORIENTED_EDGE($,*,*,#617,.T.);
#872=ORIENTED_EDGE($,*,*,#615,.T.);
#873=ORIENTED_EDGE($,*,*,#616,.T.);
#874=ORIENTED_EDGE($,*,*,#613,.T.);
#875=ORIENTED_EDGE($,*,*,#617,.F.);
#876=ORIENTED_EDGE($,*,*,#618,.F.);
#877=ORIENTED_EDGE($,*,*,#619,.F.);
#878=ORIENTED_EDGE($,*,*,#620,.F.);
#879=ORIENTED_EDGE($,*,*,#621,.F.);
#880=ORIENTED_EDGE($,*,*,#620,.T.);
#881=ORIENTED_EDGE($,*,*,#622,.F.);
#882=ORIENTED_EDGE($,*,*,#618,.T.);
#883=ORIENTED_EDGE($,*,*,#623,.T.);
#884=ORIENTED_EDGE($,*,*,#621,.T.);
#885=ORIENTED_EDGE($,*,*,#622,.T.);
#886=ORIENTED_EDGE($,*,*,#619,.T.);
#887=ORIENTED_EDGE($,*,*,#623,.F.);
#888=PLANE($,#1021);
#889=PLANE($,#1026);
#890=PLANE($,#1028);
#891=PLANE($,#1029);
#892=PLANE($,#1030);
#893=PLANE($,#1031);
#894=PLANE($,#1032);
#895=PLANE($,#1033);
#896=PLANE($,#1034);
#897=PLANE($,#1035);
#898=PLANE($,#1036);
#899=PLANE($,#1037);
#900=PLANE($,#1038);
#901=PLANE($,#1039);
#902=PLANE($,#1040);
#903=PLANE($,#1041);
#904=PLANE($,#1042);
#905=PLANE($,#1043);
#906=PLANE($,#1044);
#907=PLANE($,#1045);
#908=PLANE($,#1046);
#909=PLANE($,#1047);
#910=PLANE($,#1048);
#911=PLANE($,#1049);
#912=PLANE($,#1050);
#913=PLANE($,#1051);
#914=PLANE($,#1052);
#915=PLANE($,#1054);
#916=PLANE($,#1056);
#917=PLANE($,#1057);
#918=PLANE($,#1058);
#919=PLANE($,#1059);
#920=PLANE($,#1060);
#921=PLANE($,#1061);
#922=PLANE($,#1062);
#923=PLANE($,#1063);
#924=PLANE($,#1064);
#925=PLANE($,#1065);
#926=PLANE($,#1066);
#927=PLANE($,#1067);
#928=PLANE($,#1070);
#929=PLANE($,#1071);
#930=PLANE($,#1072);
#931=PLANE($,#1073);
#932=PLANE($,#1074);
#933=PLANE($,#1075);
#934=PLANE($,#1081);
#935=PLANE($,#1084);
#936=PLANE($,#1085);
#937=PLANE($,#1089);
#938=PLANE($,#1092);
#939=PLANE($,#1096);
#940=ADVANCED_FACE($,(#40),#888,.T.);
#941=ADVANCED_FACE($,(#41),#36,.T.);
#942=ADVANCED_FACE($,(#42),#889,.T.);
#943=ADVANCED_FACE($,(#43),#32,.T.);
#944=ADVANCED_FACE($,(#44),#890,.T.);
#945=ADVANCED_FACE($,(#45),#891,.T.);
#946=ADVANCED_FACE($,(#46),#892,.F.);
#947=ADVANCED_FACE($,(#47),#893,.F.);
#948=ADVANCED_FACE($,(#48),#894,.T.);
#949=ADVANCED_FACE($,(#49),#895,.F.);
#950=ADVANCED_FACE($,(#50),#896,.F.);
#951=ADVANCED_FACE($,(#51),#897,.F.);
#952=ADVANCED_FACE($,(#52),#898,.T.);
#953=ADVANCED_FACE($,(#53),#899,.T.);
#954=ADVANCED_FACE($,(#54),#900,.F.);
#955=ADVANCED_FACE($,(#55),#901,.T.);
#956=ADVANCED_FACE($,(#56),#902,.T.);
#957=ADVANCED_FACE($,(#57),#903,.F.);
#958=ADVANCED_FACE($,(#58),#904,.T.);
#959=ADVANCED_FACE($,(#59),#905,.T.);
#960=ADVANCED_FACE($,(#60),#906,.F.);
#961=ADVANCED_FACE($,(#61),#907,.F.);
#962=ADVANCED_FACE($,(#62),#908,.F.);
#963=ADVANCED_FACE($,(#63),#909,.T.);
#964=ADVANCED_FACE($,(#64),#910,.F.);
#965=ADVANCED_FACE($,(#65),#911,.F.);
#966=ADVANCED_FACE($,(#66),#912,.T.);
#967=ADVANCED_FACE($,(#67),#913,.T.);
#968=ADVANCED_FACE($,(#68),#914,.T.);
#969=ADVANCED_FACE($,(#69),#915,.T.);
#970=ADVANCED_FACE($,(#70),#916,.T.);
#971=ADVANCED_FACE($,(#71),#917,.F.);
#972=ADVANCED_FACE($,(#72),#918,.F.);
#973=ADVANCED_FACE($,(#73),#919,.F.);
#974=ADVANCED_FACE($,(#74),#920,.F.);
#975=ADVANCED_FACE($,(#75),#921,.T.);
#976=ADVANCED_FACE($,(#76),#922,.T.);
#977=ADVANCED_FACE($,(#77),#923,.F.);
#978=ADVANCED_FACE($,(#78),#924,.F.);
#979=ADVANCED_FACE($,(#79),#925,.T.);
#980=ADVANCED_FACE($,(#80),#926,.T.);
#981=ADVANCED_FACE($,(#81),#927,.T.);
#982=ADVANCED_FACE($,(#82),#928,.F.);
#983=ADVANCED_FACE($,(#83),#929,.F.);
#984=ADVANCED_FACE($,(#84),#930,.T.);
#985=ADVANCED_FACE($,(#85),#931,.F.);
#986=ADVANCED_FACE($,(#86),#932,.T.);
#987=ADVANCED_FACE($,(#87),#933,.F.);
#988=ADVANCED_FACE($,(#88),#15,.F.);
#989=ADVANCED_FACE($,(#89),#16,.F.);
#990=ADVANCED_FACE($,(#90),#33,.T.);
#991=ADVANCED_FACE($,(#91),#934,.T.);
#992=ADVANCED_FACE($,(#92),#37,.T.);
#993=ADVANCED_FACE($,(#93),#935,.T.);
#994=ADVANCED_FACE($,(#94),#936,.F.);
#995=ADVANCED_FACE($,(#95),#34,.T.);
#996=ADVANCED_FACE($,(#96),#937,.T.);
#997=ADVANCED_FACE($,(#97),#38,.T.);
#998=ADVANCED_FACE($,(#98),#938,.F.);
#999=ADVANCED_FACE($,(#99),#35,.T.);
#1000=ADVANCED_FACE($,(#100),#939,.T.);
#1001=ADVANCED_FACE($,(#101),#39,.T.);
#1002=CLOSED_SHELL($,(#940,#941,#942,#943));
#1003=CLOSED_SHELL($,(#944,#945,#946,#947,#948,#949));
#1004=CLOSED_SHELL($,(#950,#951,#952,#953,#954,#955));
#1005=CLOSED_SHELL($,(#956,#957,#958,#959,#960,#961));
#1006=CLOSED_SHELL($,(#962,#963,#964,#965,#966,#967));
#1007=CLOSED_SHELL($,(#968,#969,#970,#971,#972,#973,#974,#975,#976,#977,
#978,#979,#980,#981,#982,#983,#984,#985,#986,#987,#988,#989));
#1008=CLOSED_SHELL($,(#990,#991,#992,#993));
#1009=CLOSED_SHELL($,(#994,#995,#996,#997));
#1010=CLOSED_SHELL($,(#998,#999,#1000,#1001));
#1011=MANIFOLD_SOLID_BREP('1F65',#1002);
#1012=MANIFOLD_SOLID_BREP('1FF2',#1003);
#1013=MANIFOLD_SOLID_BREP('1FF2',#1004);
#1014=MANIFOLD_SOLID_BREP('1FF2',#1005);
#1015=MANIFOLD_SOLID_BREP('1FF2',#1006);
#1016=MANIFOLD_SOLID_BREP('1FF7',#1007);
#1017=MANIFOLD_SOLID_BREP('230C',#1008);
#1018=MANIFOLD_SOLID_BREP('231C',#1009);
#1019=MANIFOLD_SOLID_BREP('231F',#1010);
#1020=AXIS2_PLACEMENT_3D('placement',#1369,#1099,#1100);
#1021=AXIS2_PLACEMENT_3D($,#1370,#1101,#1102);
#1022=AXIS2_PLACEMENT_3D($,#1377,#1105,#1106);
#1023=AXIS2_PLACEMENT_3D($,#1379,#1108,#1109);
#1024=AXIS2_PLACEMENT_3D($,#1380,#1110,#1111);
#1025=AXIS2_PLACEMENT_3D($,#1381,#1112,#1113);
#1026=AXIS2_PLACEMENT_3D($,#1382,#1114,#1115);
#1027=AXIS2_PLACEMENT_3D($,#1383,#1116,#1117);
#1028=AXIS2_PLACEMENT_3D($,#1384,#1118,#1119);
#1029=AXIS2_PLACEMENT_3D($,#1393,#1124,#1125);
#1030=AXIS2_PLACEMENT_3D($,#1399,#1129,#1130);
#1031=AXIS2_PLACEMENT_3D($,#1403,#1133,#1134);
#1032=AXIS2_PLACEMENT_3D($,#1407,#1137,#1138);
#1033=AXIS2_PLACEMENT_3D($,#1409,#1140,#1141);
#1034=AXIS2_PLACEMENT_3D($,#1410,#1142,#1143);
#1035=AXIS2_PLACEMENT_3D($,#1419,#1148,#1149);
#1036=AXIS2_PLACEMENT_3D($,#1425,#1153,#1154);
#1037=AXIS2_PLACEMENT_3D($,#1429,#1157,#1158);
#1038=AXIS2_PLACEMENT_3D($,#1433,#1161,#1162);
#1039=AXIS2_PLACEMENT_3D($,#1435,#1164,#1165);
#1040=AXIS2_PLACEMENT_3D($,#1436,#1166,#1167);
#1041=AXIS2_PLACEMENT_3D($,#1445,#1172,#1173);
#1042=AXIS2_PLACEMENT_3D($,#1451,#1177,#1178);
#1043=AXIS2_PLACEMENT_3D($,#1455,#1181,#1182);
#1044=AXIS2_PLACEMENT_3D($,#1459,#1185,#1186);
#1045=AXIS2_PLACEMENT_3D($,#1461,#1188,#1189);
#1046=AXIS2_PLACEMENT_3D($,#1462,#1190,#1191);
#1047=AXIS2_PLACEMENT_3D($,#1471,#1196,#1197);
#1048=AXIS2_PLACEMENT_3D($,#1477,#1201,#1202);
#1049=AXIS2_PLACEMENT_3D($,#1481,#1205,#1206);
#1050=AXIS2_PLACEMENT_3D($,#1485,#1209,#1210);
#1051=AXIS2_PLACEMENT_3D($,#1487,#1212,#1213);
#1052=AXIS2_PLACEMENT_3D($,#1488,#1214,#1215);
#1053=AXIS2_PLACEMENT_3D($,#1492,#1217,#1218);
#1054=AXIS2_PLACEMENT_3D($,#1493,#1219,#1220);
#1055=AXIS2_PLACEMENT_3D($,#1497,#1222,#1223);
#1056=AXIS2_PLACEMENT_3D($,#1498,#1224,#1225);
#1057=AXIS2_PLACEMENT_3D($,#1516,#1231,#1232);
#1058=AXIS2_PLACEMENT_3D($,#1534,#1238,#1239);
#1059=AXIS2_PLACEMENT_3D($,#1543,#1244,#1245);
#1060=AXIS2_PLACEMENT_3D($,#1549,#1249,#1250);
#1061=AXIS2_PLACEMENT_3D($,#1555,#1254,#1255);
#1062=AXIS2_PLACEMENT_3D($,#1564,#1260,#1261);
#1063=AXIS2_PLACEMENT_3D($,#1570,#1265,#1266);
#1064=AXIS2_PLACEMENT_3D($,#1576,#1270,#1271);
#1065=AXIS2_PLACEMENT_3D($,#1579,#1274,#1275);
#1066=AXIS2_PLACEMENT_3D($,#1585,#1279,#1280);
#1067=AXIS2_PLACEMENT_3D($,#1591,#1284,#1285);
#1068=AXIS2_PLACEMENT_3D($,#1592,#1286,#1287);
#1069=AXIS2_PLACEMENT_3D($,#1596,#1290,#1291);
#1070=AXIS2_PLACEMENT_3D($,#1601,#1295,#1296);
#1071=AXIS2_PLACEMENT_3D($,#1609,#1302,#1303);
#1072=AXIS2_PLACEMENT_3D($,#1611,#1305,#1306);
#1073=AXIS2_PLACEMENT_3D($,#1613,#1308,#1309);
#1074=AXIS2_PLACEMENT_3D($,#1614,#1310,#1311);
#1075=AXIS2_PLACEMENT_3D($,#1615,#1312,#1313);
#1076=AXIS2_PLACEMENT_3D($,#1616,#1314,#1315);
#1077=AXIS2_PLACEMENT_3D($,#1617,#1316,#1317);
#1078=AXIS2_PLACEMENT_3D($,#1618,#1318,#1319);
#1079=AXIS2_PLACEMENT_3D($,#1621,#1320,#1321);
#1080=AXIS2_PLACEMENT_3D($,#1622,#1322,#1323);
#1081=AXIS2_PLACEMENT_3D($,#1623,#1324,#1325);
#1082=AXIS2_PLACEMENT_3D($,#1627,#1327,#1328);
#1083=AXIS2_PLACEMENT_3D($,#1628,#1329,#1330);
#1084=AXIS2_PLACEMENT_3D($,#1631,#1333,#1334);
#1085=AXIS2_PLACEMENT_3D($,#1632,#1335,#1336);
#1086=AXIS2_PLACEMENT_3D($,#1639,#1339,#1340);
#1087=AXIS2_PLACEMENT_3D($,#1641,#1342,#1343);
#1088=AXIS2_PLACEMENT_3D($,#1642,#1344,#1345);
#1089=AXIS2_PLACEMENT_3D($,#1643,#1346,#1347);
#1090=AXIS2_PLACEMENT_3D($,#1644,#1348,#1349);
#1091=AXIS2_PLACEMENT_3D($,#1645,#1350,#1351);
#1092=AXIS2_PLACEMENT_3D($,#1646,#1352,#1353);
#1093=AXIS2_PLACEMENT_3D($,#1653,#1356,#1357);
#1094=AXIS2_PLACEMENT_3D($,#1655,#1359,#1360);
#1095=AXIS2_PLACEMENT_3D($,#1656,#1361,#1362);
#1096=AXIS2_PLACEMENT_3D($,#1657,#1363,#1364);
#1097=AXIS2_PLACEMENT_3D($,#1658,#1365,#1366);
#1098=AXIS2_PLACEMENT_3D($,#1659,#1367,#1368);
#1099=DIRECTION('axis',(0.,0.,1.));
#1100=DIRECTION('refdir',(1.,0.,0.));
#1101=DIRECTION('center_axis',(0.,1.,0.));
#1102=DIRECTION('ref_axis',(-1.,0.,0.));
#1103=DIRECTION($,(0.,0.,-1.));
#1104=DIRECTION($,(-1.,2.22044604925031E-16,-3.44509284839767E-16));
#1105=DIRECTION('center_axis',(0.,1.,0.));
#1106=DIRECTION('ref_axis',(0.,0.,-1.));
#1107=DIRECTION($,(1.,-2.22044604925031E-16,3.44509284839767E-16));
#1108=DIRECTION('center_axis',(1.,-2.22044604925031E-16,3.44509284839767E-16));
#1109=DIRECTION('ref_axis',(2.22044604925031E-16,1.,0.));
#1110=DIRECTION('center_axis',(1.,-2.22044604925031E-16,3.44509284839767E-16));
#1111=DIRECTION('ref_axis',(-2.22044604925031E-16,-1.,0.));
#1112=DIRECTION('center_axis',(1.,-2.22044604925031E-16,3.44509284839767E-16));
#1113=DIRECTION('ref_axis',(-2.22044604925102E-16,-1.,2.058917699356E-13));
#1114=DIRECTION('center_axis',(1.,0.,0.));
#1115=DIRECTION('ref_axis',(0.,0.,-1.));
#1116=DIRECTION('center_axis',(0.577350269189626,0.577350269189626,0.577350269189626));
#1117=DIRECTION('ref_axis',(-0.707106781186547,0.,0.707106781186548));
#1118=DIRECTION('center_axis',(-3.44509284839767E-16,7.64964280452511E-32,
1.));
#1119=DIRECTION('ref_axis',(2.18547839493141E-16,1.,0.));
#1120=DIRECTION($,(-1.,-3.3084646133795E-14,-3.44509284839767E-16));
#1121=DIRECTION($,(2.22044604925031E-16,1.,0.));
#1122=DIRECTION($,(-1.,-3.3084646133795E-14,-3.44509284839767E-16));
#1123=DIRECTION($,(2.22044604925031E-16,1.,0.));
#1124=DIRECTION('center_axis',(-2.22044604925031E-16,-1.,0.));
#1125=DIRECTION('ref_axis',(1.,-2.18547839493141E-16,3.409346296093E-16));
#1126=DIRECTION($,(5.58395043855802E-14,-1.23988606905057E-29,1.));
#1127=DIRECTION($,(1.,-2.22044604925031E-16,3.44509284839767E-16));
#1128=DIRECTION($,(-5.58556605160998E-14,1.2402448072124E-29,1.));
#1129=DIRECTION('center_axis',(-1.,2.22044604925031E-16,-3.44509284839767E-16));
#1130=DIRECTION('ref_axis',(-2.18547839493141E-16,-1.,0.));
#1131=DIRECTION($,(2.22044604925031E-16,1.,0.));
#1132=DIRECTION($,(-5.58556605160998E-14,1.2402448072124E-29,1.));
#1133=DIRECTION('center_axis',(-2.22044604925031E-16,-1.,0.));
#1134=DIRECTION('ref_axis',(-1.,2.18547839493141E-16,-3.409346296093E-16));
#1135=DIRECTION($,(-1.,2.22044604925031E-16,-3.44509284839767E-16));
#1136=DIRECTION($,(-5.58395043855802E-14,1.23988606905057E-29,-1.));
#1137=DIRECTION('center_axis',(-1.,2.22044604925031E-16,-3.44509284839767E-16));
#1138=DIRECTION('ref_axis',(2.18547839493141E-16,1.,0.));
#1139=DIRECTION($,(-2.22044604925031E-16,-1.,0.));
#1140=DIRECTION('center_axis',(-3.44509284839767E-16,7.64964280452511E-32,
1.));
#1141=DIRECTION('ref_axis',(-2.18547839493141E-16,-1.,0.));
#1142=DIRECTION('center_axis',(-3.44509284839767E-16,7.64964280452511E-32,
1.));
#1143=DIRECTION('ref_axis',(-2.18547839493141E-16,-1.,0.));
#1144=DIRECTION($,(-1.,2.22044604925031E-16,-3.44509284839767E-16));
#1145=DIRECTION($,(2.22044604925031E-16,1.,0.));
#1146=DIRECTION($,(1.,-2.22044604925031E-16,3.44509284839767E-16));
#1147=DIRECTION($,(-2.22044604925031E-16,-1.,0.));
#1148=DIRECTION('center_axis',(-1.,2.22044604925031E-16,-3.44509284839767E-16));
#1149=DIRECTION('ref_axis',(-2.18547839493141E-16,-1.,0.));
#1150=DIRECTION($,(2.22044604925031E-16,1.,0.));
#1151=DIRECTION($,(-5.45099356377598E-14,1.21036371231753E-29,1.));
#1152=DIRECTION($,(5.45099356377598E-14,-1.21036371231753E-29,-1.));
#1153=DIRECTION('center_axis',(-2.22044604925031E-16,-1.,0.));
#1154=DIRECTION('ref_axis',(1.,-2.18547839493141E-16,3.409346296093E-16));
#1155=DIRECTION($,(-1.,-3.3084646133795E-14,-3.44509284839767E-16));
#1156=DIRECTION($,(1.4820603029174E-13,-3.29083494436366E-29,-1.));
#1157=DIRECTION('center_axis',(-1.,2.22044604925031E-16,-3.44509284839767E-16));
#1158=DIRECTION('ref_axis',(2.18547839493141E-16,1.,0.));
#1159=DIRECTION($,(2.22044604925031E-16,1.,0.));
#1160=DIRECTION($,(1.4820603029174E-13,-3.29083494436366E-29,-1.));
#1161=DIRECTION('center_axis',(-2.22044604925031E-16,-1.,0.));
#1162=DIRECTION('ref_axis',(-1.,2.18547839493141E-16,-3.409346296093E-16));
#1163=DIRECTION($,(-1.,-3.3084646133795E-14,-3.44509284839767E-16));
#1164=DIRECTION('center_axis',(-3.44509284839767E-16,7.64964280452511E-32,
1.));
#1165=DIRECTION('ref_axis',(2.18547839493141E-16,1.,0.));
#1166=DIRECTION('center_axis',(-3.44509284839767E-16,7.64964280452511E-32,
1.));
#1167=DIRECTION('ref_axis',(2.18547839493141E-16,1.,0.));
#1168=DIRECTION($,(-1.,-3.3084646133795E-14,-3.44509284839767E-16));
#1169=DIRECTION($,(2.22044604925031E-16,1.,0.));
#1170=DIRECTION($,(-1.,-3.3084646133795E-14,-3.44509284839767E-16));
#1171=DIRECTION($,(2.22044604925031E-16,1.,0.));
#1172=DIRECTION('center_axis',(-2.22044604925031E-16,-1.,0.));
#1173=DIRECTION('ref_axis',(-1.,2.18547839493141E-16,-3.409346296093E-16));
#1174=DIRECTION($,(5.58556605160998E-14,-1.2402448072124E-29,-1.));
#1175=DIRECTION($,(-1.,2.22044604925031E-16,-3.44509284839767E-16));
#1176=DIRECTION($,(-5.58395043855802E-14,1.23988606905057E-29,-1.));
#1177=DIRECTION('center_axis',(-1.,2.22044604925031E-16,-3.44509284839767E-16));
#1178=DIRECTION('ref_axis',(2.18547839493141E-16,1.,0.));
#1179=DIRECTION($,(-2.22044604925031E-16,-1.,0.));
#1180=DIRECTION($,(-5.58395043855802E-14,1.23988606905057E-29,-1.));
#1181=DIRECTION('center_axis',(-2.22044604925031E-16,-1.,0.));
#1182=DIRECTION('ref_axis',(1.,-2.18547839493141E-16,3.409346296093E-16));
#1183=DIRECTION($,(1.,-2.22044604925031E-16,3.44509284839767E-16));
#1184=DIRECTION($,(-5.58556605160998E-14,1.2402448072124E-29,1.));
#1185=DIRECTION('center_axis',(-1.,2.22044604925031E-16,-3.44509284839767E-16));
#1186=DIRECTION('ref_axis',(-2.18547839493141E-16,-1.,0.));
#1187=DIRECTION($,(2.22044604925031E-16,1.,0.));
#1188=DIRECTION('center_axis',(-3.44509284839767E-16,7.64964280452511E-32,
1.));
#1189=DIRECTION('ref_axis',(-2.18547839493141E-16,-1.,0.));
#1190=DIRECTION('center_axis',(-3.44509284839767E-16,7.64964280452511E-32,
1.));
#1191=DIRECTION('ref_axis',(-2.18547839493141E-16,-1.,0.));
#1192=DIRECTION($,(-1.,2.22044604925031E-16,-3.44509284839767E-16));
#1193=DIRECTION($,(2.22044604925031E-16,1.,0.));
#1194=DIRECTION($,(1.,-2.22044604925031E-16,3.44509284839767E-16));
#1195=DIRECTION($,(-2.22044604925031E-16,-1.,0.));
#1196=DIRECTION('center_axis',(-1.,2.22044604925031E-16,-3.44509284839767E-16));
#1197=DIRECTION('ref_axis',(2.18547839493141E-16,1.,0.));
#1198=DIRECTION($,(2.22044604925031E-16,1.,0.));
#1199=DIRECTION($,(1.4837424590154E-13,-3.29457008122568E-29,-1.));
#1200=DIRECTION($,(-1.4820603029174E-13,3.29083494436366E-29,1.));
#1201=DIRECTION('center_axis',(-2.22044604925031E-16,-1.,0.));
#1202=DIRECTION('ref_axis',(-1.,2.18547839493141E-16,-3.409346296093E-16));
#1203=DIRECTION($,(-1.,-3.3084646133795E-14,-3.44509284839767E-16));
#1204=DIRECTION($,(-5.45099356377598E-14,1.21036371231753E-29,1.));
#1205=DIRECTION('center_axis',(-1.,2.22044604925031E-16,-3.44509284839767E-16));
#1206=DIRECTION('ref_axis',(-2.18547839493141E-16,-1.,0.));
#1207=DIRECTION($,(2.22044604925031E-16,1.,0.));
#1208=DIRECTION($,(-5.45099356377598E-14,1.21036371231753E-29,1.));
#1209=DIRECTION('center_axis',(-2.22044604925031E-16,-1.,0.));
#1210=DIRECTION('ref_axis',(1.,-2.18547839493141E-16,3.409346296093E-16));
#1211=DIRECTION($,(-1.,-3.3084646133795E-14,-3.44509284839767E-16));
#1212=DIRECTION('center_axis',(-3.44509284839767E-16,7.64964280452511E-32,
1.));
#1213=DIRECTION('ref_axis',(2.18547839493141E-16,1.,0.));
#1214=DIRECTION('center_axis',(-1.,2.22044604925031E-16,-3.44509284839767E-16));
#1215=DIRECTION('ref_axis',(-2.09805925913415E-16,-1.,0.));
#1216=DIRECTION($,(2.22044604925031E-16,1.,0.));
#1217=DIRECTION('center_axis',(-1.,2.22044604925031E-16,-3.44509284839767E-16));
#1218=DIRECTION('ref_axis',(-2.22044604925031E-16,-1.,0.));
#1219=DIRECTION('center_axis',(-1.,2.22044604925031E-16,-3.44509284839767E-16));
#1220=DIRECTION('ref_axis',(-2.09805925913415E-16,-1.,0.));
#1221=DIRECTION($,(-2.22044604925031E-16,-1.,0.));
#1222=DIRECTION('center_axis',(-1.,2.22044604925031E-16,-3.44509284839767E-16));
#1223=DIRECTION('ref_axis',(-2.22044604925031E-16,-1.,0.));
#1224=DIRECTION('center_axis',(-3.44509284839767E-16,7.64964280452511E-32,
1.));
#1225=DIRECTION('ref_axis',(2.18547839493141E-16,1.,0.));
#1226=DIRECTION($,(-2.22044604925027E-16,-1.,-1.369275063704E-14));
#1227=DIRECTION($,(-1.,1.9043794319275E-14,1.56149466941502E-14));
#1228=DIRECTION($,(2.22044604925016E-16,1.,4.4408920985E-14));
#1229=DIRECTION($,(-1.,-3.44509284839801E-16,-3.44509284839767E-16));
#1230=DIRECTION($,(-2.22044604925027E-16,-1.,-1.369275063704E-14));
#1231=DIRECTION('center_axis',(-3.44509284839767E-16,7.64964280452511E-32,
1.));
#1232=DIRECTION('ref_axis',(2.18547839493141E-16,1.,0.));
#1233=DIRECTION($,(-2.22044604925031E-16,-1.,0.));
#1234=DIRECTION($,(-1.,2.22044604925031E-16,-3.44509284839767E-16));
#1235=DIRECTION($,(2.22044604925031E-16,1.,0.));
#1236=DIRECTION($,(-1.,2.22044604925031E-16,-3.44509284839767E-16));
#1237=DIRECTION($,(-2.22044604925031E-16,-1.,0.));
#1238=DIRECTION('center_axis',(0.,-0.707106781186548,-0.707106781186548));
#1239=DIRECTION('ref_axis',(1.77635683940025E-15,-0.707106781186547,0.707106781186548));
#1240=DIRECTION($,(4.00614097360304E-16,0.707106781186548,-0.707106781186548));
#1241=DIRECTION($,(-1.,0.,0.));
#1242=DIRECTION($,(-4.00614097360304E-16,-0.707106781186548,0.707106781186548));
#1243=DIRECTION($,(1.,-2.22044604925031E-16,2.22044604925031E-16));
#1244=DIRECTION('center_axis',(0.,-0.707106781186548,0.707106781186547));
#1245=DIRECTION('ref_axis',(-4.44089209850063E-16,0.707106781186547,0.707106781186548));
#1246=DIRECTION($,(8.65956056235494E-17,-0.707106781186547,-0.707106781186548));
#1247=DIRECTION($,(-1.,2.22044604925031E-16,2.22044604925031E-16));
#1248=DIRECTION($,(-8.65956056235495E-17,0.707106781186547,0.707106781186548));
#1249=DIRECTION('center_axis',(2.42574728355461E-29,-0.707106781186548,
-0.707106781186548));
#1250=DIRECTION('ref_axis',(1.77635683940025E-15,-0.707106781186547,0.707106781186548));
#1251=DIRECTION($,(1.,-2.22044604925031E-16,2.22044604925066E-16));
#1252=DIRECTION($,(4.00614097360304E-16,0.707106781186547,-0.707106781186547));
#1253=DIRECTION($,(-4.00614097360304E-16,-0.707106781186548,0.707106781186548));
#1254=DIRECTION('center_axis',(-3.14018491736779E-16,-0.707106781186548,
-0.707106781186547));
#1255=DIRECTION('ref_axis',(-8.88178419700125E-16,-0.707106781186547,0.707106781186548));
#1256=DIRECTION($,(-4.00614097360304E-16,-0.707106781186547,0.707106781186548));
#1257=DIRECTION($,(-1.,4.44089209850097E-16,0.));
#1258=DIRECTION($,(4.00614097360304E-16,0.707106781186547,-0.707106781186548));
#1259=DIRECTION($,(1.,-2.22044604925031E-16,-2.22044604925066E-16));
#1260=DIRECTION('center_axis',(-3.14018491736779E-16,-0.707106781186548,
0.707106781186548));
#1261=DIRECTION('ref_axis',(2.22044604925031E-15,0.707106781186547,0.707106781186548));
#1262=DIRECTION($,(-8.65956056235493E-17,0.707106781186548,0.707106781186548));
#1263=DIRECTION($,(-1.,2.22044604925031E-16,-2.22044604925066E-16));
#1264=DIRECTION($,(8.65956056235493E-17,-0.707106781186548,-0.707106781186548));
#1265=DIRECTION('center_axis',(-2.22044604925031E-16,-1.,0.));
#1266=DIRECTION('ref_axis',(3.409346296093E-16,0.,-1.));
#1267=DIRECTION($,(-3.44509284839767E-16,7.64964280452511E-32,1.));
#1268=DIRECTION($,(1.,-2.22044604925031E-16,-4.97022629970902E-14));
#1269=DIRECTION($,(3.44509284839767E-16,-7.64964280452511E-32,-1.));
#1270=DIRECTION('center_axis',(-2.22044604925031E-16,-1.,0.));
#1271=DIRECTION('ref_axis',(3.409346296093E-16,0.,-1.));
#1272=DIRECTION($,(3.44509284839767E-16,-7.64964280452511E-32,-1.));
#1273=DIRECTION($,(-3.44509284839767E-16,7.64964280452511E-32,1.));
#1274=DIRECTION('center_axis',(-2.22044604925031E-16,-1.,0.));
#1275=DIRECTION('ref_axis',(3.409346296093E-16,0.,-1.));
#1276=DIRECTION($,(-3.4450928483976E-16,3.122502256758E-14,1.));
#1277=DIRECTION($,(-1.,2.22044604925031E-16,-3.44509284839767E-16));
#1278=DIRECTION($,(3.4450928483976E-16,-3.122502256758E-14,-1.));
#1279=DIRECTION('center_axis',(-2.22044604925031E-16,-1.,0.));
#1280=DIRECTION('ref_axis',(3.409346296093E-16,0.,-1.));
#1281=DIRECTION($,(3.4450928483976E-16,-3.122502256758E-14,-1.));
#1282=DIRECTION($,(1.,-2.22044604925031E-16,-4.97022629970902E-14));
#1283=DIRECTION($,(-3.4450928483976E-16,3.122502256758E-14,1.));
#1284=DIRECTION('center_axis',(-1.,2.22044604925031E-16,-3.44509284839767E-16));
#1285=DIRECTION('ref_axis',(-2.09805925913415E-16,-1.,0.));
#1286=DIRECTION('center_axis',(-1.,2.22044604925031E-16,-3.44509284839767E-16));
#1287=DIRECTION('ref_axis',(-2.22044604925031E-16,-1.,0.));
#1288=DIRECTION($,(-2.22044604925176E-16,-1.,4.186801996349E-13));
#1289=DIRECTION($,(3.44509284839767E-16,-7.64964280452511E-32,-1.));
#1290=DIRECTION('center_axis',(-1.,2.22044604925031E-16,-3.44509284839767E-16));
#1291=DIRECTION('ref_axis',(-2.22044604925031E-16,-1.,0.));
#1292=DIRECTION($,(3.44509284839767E-16,-7.64964280452511E-32,-1.));
#1293=DIRECTION($,(-2.22044604925153E-16,-1.,3.536786968745E-13));
#1294=DIRECTION($,(-8.65956056235493E-17,0.707106781186547,0.707106781186547));
#1295=DIRECTION('center_axis',(-1.,2.22044604925031E-16,-3.44509284839767E-16));
#1296=DIRECTION('ref_axis',(-2.27289753072867E-16,-1.,0.));
#1297=DIRECTION($,(-8.65956056235776E-17,0.707106781186498,0.707106781186597));
#1298=DIRECTION($,(2.22044604925153E-16,1.,-3.534426213757E-13));
#1299=DIRECTION($,(-3.44509284839869E-16,-4.607425552195E-13,1.));
#1300=DIRECTION($,(-3.44509284839767E-16,7.64964280452511E-32,1.));
#1301=DIRECTION($,(2.22044604925175E-16,1.,-4.184007365582E-13));
#1302=DIRECTION('center_axis',(-2.22044604925031E-16,-1.,0.));
#1303=DIRECTION('ref_axis',(1.,-2.18547839493141E-16,3.45305586399163E-16));
#1304=DIRECTION($,(-1.,2.22044604925031E-16,-3.44509284839767E-16));
#1305=DIRECTION('center_axis',(-2.22044604925031E-16,-1.,0.));
#1306=DIRECTION('ref_axis',(1.,-2.18547839493141E-16,3.45305586399163E-16));
#1307=DIRECTION($,(1.,-2.22044604925031E-16,3.44509284839767E-16));
#1308=DIRECTION('center_axis',(-3.44509284839767E-16,7.64964280452511E-32,
1.));
#1309=DIRECTION('ref_axis',(-2.18547839493141E-16,-1.,0.));
#1310=DIRECTION('center_axis',(-4.00614097360304E-16,-0.707106781186548,
0.707106781186548));
#1311=DIRECTION('ref_axis',(-1.,2.18547839493141E-16,-3.49676543189026E-16));
#1312=DIRECTION('center_axis',(-3.44509284839767E-16,7.64964280452511E-32,
1.));
#1313=DIRECTION('ref_axis',(-2.18547839493141E-16,-1.,0.));
#1314=DIRECTION('center_axis',(-1.,2.22044604925031E-16,-3.44509284839767E-16));
#1315=DIRECTION('ref_axis',(-2.22044604925031E-16,-1.,0.));
#1316=DIRECTION('center_axis',(-1.,2.22044604925031E-16,-3.44509284839767E-16));
#1317=DIRECTION('ref_axis',(-2.22044604925031E-16,-1.,0.));
#1318=DIRECTION('center_axis',(0.577350269189626,0.577350269189626,0.577350269189626));
#1319=DIRECTION('ref_axis',(-0.707106781186548,0.,0.707106781186548));
#1320=DIRECTION('center_axis',(0.,-1.,0.));
#1321=DIRECTION('ref_axis',(0.,0.,-1.));
#1322=DIRECTION('center_axis',(1.,-2.22044604925031E-16,3.44509284839767E-16));
#1323=DIRECTION('ref_axis',(-2.22044604925102E-16,-1.,2.056642652174E-13));
#1324=DIRECTION('center_axis',(1.,0.,0.));
#1325=DIRECTION('ref_axis',(0.,0.,-1.));
#1326=DIRECTION($,(0.,0.,1.));
#1327=DIRECTION('center_axis',(1.,-2.22044604925031E-16,3.44509284839767E-16));
#1328=DIRECTION('ref_axis',(-2.22044604925031E-16,-1.,0.));
#1329=DIRECTION('center_axis',(1.,-2.22044604925031E-16,3.44509284839767E-16));
#1330=DIRECTION('ref_axis',(2.22044604925031E-16,1.,0.));
#1331=DIRECTION($,(-1.,2.22044604925031E-16,-3.44509284839767E-16));
#1332=DIRECTION($,(1.,-2.22044604925031E-16,3.44509284839767E-16));
#1333=DIRECTION('center_axis',(0.,1.,0.));
#1334=DIRECTION('ref_axis',(-1.,0.,0.));
#1335=DIRECTION('center_axis',(0.,1.,0.));
#1336=DIRECTION('ref_axis',(-1.,0.,0.));
#1337=DIRECTION($,(0.,0.,-1.));
#1338=DIRECTION($,(1.,-2.22044604925031E-16,3.44509284839767E-16));
#1339=DIRECTION('center_axis',(0.,1.,0.));
#1340=DIRECTION('ref_axis',(0.,0.,-1.));
#1341=DIRECTION($,(-1.,2.22044604925031E-16,-3.44509284839767E-16));
#1342=DIRECTION('center_axis',(0.577350269189626,0.577350269189626,0.577350269189626));
#1343=DIRECTION('ref_axis',(-0.707106781186547,0.,0.707106781186548));
#1344=DIRECTION('center_axis',(1.,-2.22044604925031E-16,3.44509284839767E-16));
#1345=DIRECTION('ref_axis',(-2.22044604925102E-16,-1.,2.058917699356E-13));
#1346=DIRECTION('center_axis',(1.,0.,0.));
#1347=DIRECTION('ref_axis',(0.,0.,-1.));
#1348=DIRECTION('center_axis',(1.,-2.22044604925031E-16,3.44509284839767E-16));
#1349=DIRECTION('ref_axis',(-2.22044604925031E-16,-1.,0.));
#1350=DIRECTION('center_axis',(1.,-2.22044604925031E-16,3.44509284839767E-16));
#1351=DIRECTION('ref_axis',(2.22044604925031E-16,1.,0.));
#1352=DIRECTION('center_axis',(0.,1.,0.));
#1353=DIRECTION('ref_axis',(-1.,0.,0.));
#1354=DIRECTION($,(0.,0.,-1.));
#1355=DIRECTION($,(1.,-2.22044604925031E-16,3.44509284839767E-16));
#1356=DIRECTION('center_axis',(0.,1.,0.));
#1357=DIRECTION('ref_axis',(0.,0.,-1.));
#1358=DIRECTION($,(-1.,2.22044604925031E-16,-3.44509284839767E-16));
#1359=DIRECTION('center_axis',(0.577350269189626,0.577350269189626,0.577350269189626));
#1360=DIRECTION('ref_axis',(-0.707106781186548,0.,0.707106781186548));
#1361=DIRECTION('center_axis',(1.,-2.22044604925031E-16,3.44509284839767E-16));
#1362=DIRECTION('ref_axis',(-2.22044604925102E-16,-1.,2.056642652174E-13));
#1363=DIRECTION('center_axis',(1.,0.,0.));
#1364=DIRECTION('ref_axis',(0.,0.,-1.));
#1365=DIRECTION('center_axis',(1.,-2.22044604925031E-16,3.44509284839767E-16));
#1366=DIRECTION('ref_axis',(-2.22044604925031E-16,-1.,0.));
#1367=DIRECTION('center_axis',(1.,-2.22044604925031E-16,3.44509284839767E-16));
#1368=DIRECTION('ref_axis',(2.22044604925031E-16,1.,0.));
#1369=CARTESIAN_POINT('',(0.,0.,0.));
#1370=CARTESIAN_POINT('Origin',(0.,0.,-6.96658724867342));
#1371=CARTESIAN_POINT('',(-6.32960000000005,0.,4.08940000000041));
#1372=CARTESIAN_POINT('',(-6.32960000000004,0.,0.990600000000427));
#1373=CARTESIAN_POINT($,(-6.32960000000005,0.,-2.21329362433647));
#1374=CARTESIAN_POINT('',(-7.8258,0.,0.990600000000427));
#1375=CARTESIAN_POINT($,(-7.702724,0.,0.990600000000427));
#1376=CARTESIAN_POINT('',(-7.8258,0.,4.08940000000041));
#1377=CARTESIAN_POINT('Origin',(-7.8258,0.,2.54000000000042));
#1378=CARTESIAN_POINT($,(-7.702724,0.,4.08940000000041));
#1379=CARTESIAN_POINT('Origin',(-7.702724,0.,2.54000000000042));
#1380=CARTESIAN_POINT('Origin',(-6.32960000000005,0.,2.54000000000042));
#1381=CARTESIAN_POINT('Origin',(-7.8258,0.,2.54000000000042));
#1382=CARTESIAN_POINT('Origin',(-6.32960000000005,0.,2.54000000000042));
#1383=CARTESIAN_POINT('Origin',(-7.8258,0.,2.54000000000042));
#1384=CARTESIAN_POINT('Origin',(-1.651,0.,0.508000000000379));
#1385=CARTESIAN_POINT('',(1.524,1.01599999999999,0.508000000000379));
#1386=CARTESIAN_POINT('',(1.016,1.01599999999999,0.508000000000379));
#1387=CARTESIAN_POINT($,(1.524,1.01599999999999,0.508000000000379));
#1388=CARTESIAN_POINT('',(1.524,1.52399999999999,0.508000000000379));
#1389=CARTESIAN_POINT($,(1.524,1.01599999999999,0.508000000000379));
#1390=CARTESIAN_POINT('',(1.016,1.52399999999999,0.508000000000379));
#1391=CARTESIAN_POINT($,(1.524,1.52399999999999,0.508000000000379));
#1392=CARTESIAN_POINT($,(1.016,1.01599999999999,0.508000000000379));
#1393=CARTESIAN_POINT('Origin',(1.27,1.01599999999999,-1.58749999999958));
#1394=CARTESIAN_POINT('',(1.016,1.01599999999999,-3.68299999999959));
#1395=CARTESIAN_POINT($,(1.016,1.01599999999999,-3.68299999999959));
#1396=CARTESIAN_POINT('',(1.524,1.01599999999999,-3.68299999999959));
#1397=CARTESIAN_POINT($,(1.016,1.01599999999999,-3.68299999999959));
#1398=CARTESIAN_POINT($,(1.524,1.01599999999999,-3.68299999999959));
#1399=CARTESIAN_POINT('Origin',(1.524,1.27,-1.58749999999958));
#1400=CARTESIAN_POINT('',(1.524,1.52399999999999,-3.68299999999959));
#1401=CARTESIAN_POINT($,(1.524,1.01599999999999,-3.68299999999959));
#1402=CARTESIAN_POINT($,(1.524,1.52399999999999,-3.68299999999959));
#1403=CARTESIAN_POINT('Origin',(1.27,1.52399999999999,-1.58749999999958));
#1404=CARTESIAN_POINT('',(1.016,1.52399999999999,-3.68299999999959));
#1405=CARTESIAN_POINT($,(1.524,1.52399999999999,-3.68299999999959));
#1406=CARTESIAN_POINT($,(1.016,1.52399999999999,0.508000000000379));
#1407=CARTESIAN_POINT('Origin',(1.016,1.27,-1.58749999999958));
#1408=CARTESIAN_POINT($,(1.016,1.52399999999999,-3.68299999999959));
#1409=CARTESIAN_POINT('Origin',(1.27,1.27,-3.68299999999959));
#1410=CARTESIAN_POINT('Origin',(-1.26999999999746,-1.26999999999998,-3.68299999999959));
#1411=CARTESIAN_POINT('',(-1.016,-1.01599999999999,-3.68299999999959));
#1412=CARTESIAN_POINT('',(-1.524,-1.01599999999999,-3.68299999999959));
#1413=CARTESIAN_POINT($,(-1.016,-1.01599999999999,-3.68299999999959));
#1414=CARTESIAN_POINT('',(-1.016,-1.524,-3.68299999999959));
#1415=CARTESIAN_POINT($,(-1.016,-1.524,-3.68299999999959));
#1416=CARTESIAN_POINT('',(-1.524,-1.524,-3.68299999999959));
#1417=CARTESIAN_POINT($,(-1.524,-1.524,-3.68299999999959));
#1418=CARTESIAN_POINT($,(-1.524,-1.01599999999999,-3.68299999999959));
#1419=CARTESIAN_POINT('Origin',(-1.016,-1.26999999999998,-1.58749999999958));
#1420=CARTESIAN_POINT('',(-1.016,-1.524,0.508000000000379));
#1421=CARTESIAN_POINT('',(-1.016,-1.01599999999999,0.508000000000379));
#1422=CARTESIAN_POINT($,(-1.016,-1.524,0.508000000000379));
#1423=CARTESIAN_POINT($,(-1.016,-1.524,-3.68299999999959));
#1424=CARTESIAN_POINT($,(-1.016,-1.01599999999999,0.508000000000379));
#1425=CARTESIAN_POINT('Origin',(-1.27,-1.524,-1.58749999999958));
#1426=CARTESIAN_POINT('',(-1.524,-1.524,0.508000000000379));
#1427=CARTESIAN_POINT($,(-1.016,-1.524,0.508000000000379));
#1428=CARTESIAN_POINT($,(-1.524,-1.524,0.508000000000379));
#1429=CARTESIAN_POINT('Origin',(-1.524,-1.26999999999998,-1.58749999999958));
#1430=CARTESIAN_POINT('',(-1.524,-1.01599999999999,0.508000000000379));
#1431=CARTESIAN_POINT($,(-1.524,-1.524,0.508000000000379));
#1432=CARTESIAN_POINT($,(-1.524,-1.01599999999999,0.508000000000379));
#1433=CARTESIAN_POINT('Origin',(-1.27,-1.01599999999999,-1.58749999999958));
#1434=CARTESIAN_POINT($,(-1.016,-1.01599999999999,0.508000000000379));
#1435=CARTESIAN_POINT('Origin',(-1.651,0.,0.508000000000379));
#1436=CARTESIAN_POINT('Origin',(-1.651,0.,0.508000000000379));
#1437=CARTESIAN_POINT('',(1.524,-1.01599999999999,0.508000000000379));
#1438=CARTESIAN_POINT('',(1.016,-1.01599999999999,0.508000000000379));
#1439=CARTESIAN_POINT($,(1.524,-1.01599999999999,0.508000000000379));
#1440=CARTESIAN_POINT('',(1.016,-1.524,0.508000000000379));
#1441=CARTESIAN_POINT($,(1.016,-1.524,0.508000000000379));
#1442=CARTESIAN_POINT('',(1.524,-1.524,0.508000000000379));
#1443=CARTESIAN_POINT($,(1.524,-1.524,0.508000000000379));
#1444=CARTESIAN_POINT($,(1.524,-1.524,0.508000000000379));
#1445=CARTESIAN_POINT('Origin',(1.27,-1.01599999999999,-1.58749999999958));
#1446=CARTESIAN_POINT('',(1.524,-1.01599999999999,-3.68299999999959));
#1447=CARTESIAN_POINT($,(1.524,-1.01599999999999,0.508000000000379));
#1448=CARTESIAN_POINT('',(1.016,-1.01599999999999,-3.68299999999959));
#1449=CARTESIAN_POINT($,(1.524,-1.01599999999999,-3.68299999999959));
#1450=CARTESIAN_POINT($,(1.016,-1.01599999999999,0.508000000000379));
#1451=CARTESIAN_POINT('Origin',(1.016,-1.26999999999998,-1.58749999999958));
#1452=CARTESIAN_POINT('',(1.016,-1.524,-3.68299999999959));
#1453=CARTESIAN_POINT($,(1.016,-1.01599999999999,-3.68299999999959));
#1454=CARTESIAN_POINT($,(1.016,-1.524,0.508000000000379));
#1455=CARTESIAN_POINT('Origin',(1.27,-1.524,-1.58749999999958));
#1456=CARTESIAN_POINT('',(1.524,-1.524,-3.68299999999959));
#1457=CARTESIAN_POINT($,(1.016,-1.524,-3.68299999999959));
#1458=CARTESIAN_POINT($,(1.524,-1.524,-3.68299999999959));
#1459=CARTESIAN_POINT('Origin',(1.524,-1.26999999999998,-1.58749999999958));
#1460=CARTESIAN_POINT($,(1.524,-1.524,-3.68299999999959));
#1461=CARTESIAN_POINT('Origin',(1.27,-1.26999999999998,-3.68299999999959));
#1462=CARTESIAN_POINT('Origin',(-1.26999999999746,1.27,-3.68299999999959));
#1463=CARTESIAN_POINT('',(-1.016,1.52399999999999,-3.68299999999959));
#1464=CARTESIAN_POINT('',(-1.524,1.52399999999999,-3.68299999999959));
#1465=CARTESIAN_POINT($,(-1.016,1.52399999999999,-3.68299999999959));
#1466=CARTESIAN_POINT('',(-1.016,1.01599999999999,-3.68299999999959));
#1467=CARTESIAN_POINT($,(-1.016,1.01599999999999,-3.68299999999959));
#1468=CARTESIAN_POINT('',(-1.524,1.01599999999999,-3.68299999999959));
#1469=CARTESIAN_POINT($,(-1.524,1.01599999999999,-3.68299999999959));
#1470=CARTESIAN_POINT($,(-1.524,1.52399999999999,-3.68299999999959));
#1471=CARTESIAN_POINT('Origin',(-1.524,1.27,-1.58749999999958));
#1472=CARTESIAN_POINT('',(-1.524,1.01599999999999,0.508000000000379));
#1473=CARTESIAN_POINT('',(-1.524,1.52399999999999,0.508000000000379));
#1474=CARTESIAN_POINT($,(-1.524,1.01599999999999,0.508000000000379));
#1475=CARTESIAN_POINT($,(-1.524,1.52399999999999,0.508000000000379));
#1476=CARTESIAN_POINT($,(-1.524,1.01599999999999,-3.68299999999959));
#1477=CARTESIAN_POINT('Origin',(-1.27,1.52399999999999,-1.58749999999958));
#1478=CARTESIAN_POINT('',(-1.016,1.52399999999999,0.508000000000379));
#1479=CARTESIAN_POINT($,(-1.016,1.52399999999999,0.508000000000379));
#1480=CARTESIAN_POINT($,(-1.016,1.52399999999999,-3.68299999999959));
#1481=CARTESIAN_POINT('Origin',(-1.016,1.27,-1.58749999999958));
#1482=CARTESIAN_POINT('',(-1.016,1.01599999999999,0.508000000000379));
#1483=CARTESIAN_POINT($,(-1.016,1.01599999999999,0.508000000000379));
#1484=CARTESIAN_POINT($,(-1.016,1.01599999999999,-3.68299999999959));
#1485=CARTESIAN_POINT('Origin',(-1.27,1.01599999999999,-1.58749999999958));
#1486=CARTESIAN_POINT($,(-1.016,1.01599999999999,0.508000000000379));
#1487=CARTESIAN_POINT('Origin',(-1.651,0.,0.508000000000379));
#1488=CARTESIAN_POINT('Origin',(-6.3296,0.,2.54000000000042));
#1489=CARTESIAN_POINT('',(-6.32960000000005,-0.638528158656072,0.508000000000493));
#1490=CARTESIAN_POINT('',(-6.32959999999995,0.638528158655859,0.508000000000322));
#1491=CARTESIAN_POINT($,(-6.3296,0.,0.508000000000379));
#1492=CARTESIAN_POINT('Origin',(-6.3296,0.,2.54000000000042));
#1493=CARTESIAN_POINT('Origin',(-6.3296,-5.11590769747272E-13,7.62000000000296));
#1494=CARTESIAN_POINT('',(-6.3296,0.6385281586562,9.65200000000027));
#1495=CARTESIAN_POINT('',(-6.32960000000002,-0.638528158656243,9.65200000000033));
#1496=CARTESIAN_POINT($,(-6.32960000000001,0.126999999999754,9.65200000000038));
#1497=CARTESIAN_POINT('Origin',(-6.3296,0.,7.6200000000004));
#1498=CARTESIAN_POINT('Origin',(-1.651,0.254000000000019,9.65200000000038));
#1499=CARTESIAN_POINT('',(-6.355,-0.68585988721162,9.65200000000033));
#1500=CARTESIAN_POINT('Ctrl Pts',(-6.35499999999999,-0.685859887211592,
9.65200000000033));
#1501=CARTESIAN_POINT('Ctrl Pts',(-6.3418461202217,-0.662112833235023,9.65200000000033));
#1502=CARTESIAN_POINT('Ctrl Pts',(-6.32960000000001,-0.638528158656247,
9.65200000000033));
#1503=CARTESIAN_POINT('',(-6.355,-1.65099999999998,9.65200000000038));
#1504=CARTESIAN_POINT($,(-6.355,2.15899999999999,9.65200000000038));
#1505=CARTESIAN_POINT('',(2.413,-1.65099999999998,9.65200000000038));
#1506=CARTESIAN_POINT($,(2.413,-1.65099999999998,9.65200000000038));
#1507=CARTESIAN_POINT('',(2.413,1.65100000000101,9.65200000000038));
#1508=CARTESIAN_POINT($,(2.413,-1.65099999999998,9.65200000000038));
#1509=CARTESIAN_POINT('',(-6.355,1.65100000000101,9.65200000000038));
#1510=CARTESIAN_POINT($,(0.380999999999997,1.65100000000103,9.65200000000038));
#1511=CARTESIAN_POINT('',(-6.355,0.685859887211564,9.65200000000033));
#1512=CARTESIAN_POINT($,(-6.355,2.15899999999999,9.65200000000038));
#1513=CARTESIAN_POINT('Ctrl Pts',(-6.32960000000181,0.63852815865972,9.65200000000033));
#1514=CARTESIAN_POINT('Ctrl Pts',(-6.34184612022266,0.662112833236771,9.65200000000033));
#1515=CARTESIAN_POINT('Ctrl Pts',(-6.35499999999999,0.685859887211592,9.65200000000033));
#1516=CARTESIAN_POINT('Origin',(-1.651,0.,0.508000000000379));
#1517=CARTESIAN_POINT('',(-6.355,0.685859887210654,0.508000000000152));
#1518=CARTESIAN_POINT('Ctrl Pts',(-6.35500000000001,0.685859887211379,0.508000000000379));
#1519=CARTESIAN_POINT('Ctrl Pts',(-6.34184612022167,0.662112833234724,0.508000000000379));
#1520=CARTESIAN_POINT('Ctrl Pts',(-6.32959999999995,0.638528158655862,0.508000000000379));
#1521=CARTESIAN_POINT('',(-6.355,1.65049086650157,0.508000000000266));
#1522=CARTESIAN_POINT($,(-6.355,1.65083028869374,0.508000000000152));
#1523=CARTESIAN_POINT('',(2.413,1.65049086608151,0.507999999999868));
#1524=CARTESIAN_POINT($,(-1.651,1.65049086608151,0.508000000000379));
#1525=CARTESIAN_POINT('',(2.413,-1.6504908660805,0.50799999999964));
#1526=CARTESIAN_POINT($,(2.413,-1.6504908660805,0.50799999999964));
#1527=CARTESIAN_POINT('',(-6.355,-1.65049086650055,0.508000000000266));
#1528=CARTESIAN_POINT($,(-1.651,-1.6504908660805,0.508000000000379));
#1529=CARTESIAN_POINT('',(-6.355,-0.685859887210654,0.508000000000152));
#1530=CARTESIAN_POINT($,(-6.355,1.65083028869374,0.508000000000152));
#1531=CARTESIAN_POINT('Ctrl Pts',(-6.32960000000188,-0.638528158659588,
0.508000000000379));
#1532=CARTESIAN_POINT('Ctrl Pts',(-6.3418461202227,-0.662112833236607,0.508000000000379));
#1533=CARTESIAN_POINT('Ctrl Pts',(-6.35500000000001,-0.685859887211393,
0.508000000000379));
#1534=CARTESIAN_POINT('Origin',(2.413,2.15900000000001,4.32600000000019));
#1535=CARTESIAN_POINT('',(-6.355,1.65900000000001,4.82600000000019));
#1536=CARTESIAN_POINT('',(-6.355,2.15900000000001,4.32600000000019));
#1537=CARTESIAN_POINT($,(-6.355,1.49424999999995,4.99075000000028));
#1538=CARTESIAN_POINT('',(2.413,1.65900000000001,4.82600000000019));
#1539=CARTESIAN_POINT($,(2.413,1.65900000000001,4.82600000000019));
#1540=CARTESIAN_POINT('',(2.413,2.15900000000001,4.32600000000019));
#1541=CARTESIAN_POINT($,(2.413,1.49424999999995,4.99075000000028));
#1542=CARTESIAN_POINT($,(0.380999999999998,2.15899999999999,4.32600000000019));
#1543=CARTESIAN_POINT('Origin',(2.413,1.65900000000001,4.82600000000019));
#1544=CARTESIAN_POINT('',(-6.355,2.15900000000001,5.32600000000019));
#1545=CARTESIAN_POINT($,(-6.355,1.24425000000006,4.41125000000022));
#1546=CARTESIAN_POINT('',(2.413,2.15900000000001,5.32600000000019));
#1547=CARTESIAN_POINT($,(0.380999999999999,2.15899999999999,5.32600000000019));
#1548=CARTESIAN_POINT($,(2.413,1.24425000000006,4.41125000000022));
#1549=CARTESIAN_POINT('Origin',(2.413,2.15100000000101,9.15200000000038));
#1550=CARTESIAN_POINT('',(-6.355,2.15899999999999,9.14400000000143));
#1551=CARTESIAN_POINT('',(2.413,2.15899999999999,9.14400000000143));
#1552=CARTESIAN_POINT($,(0.380999999999997,2.15899999999999,9.14400000000143));
#1553=CARTESIAN_POINT($,(-6.355,2.69475000000075,8.60825000000068));
#1554=CARTESIAN_POINT($,(2.413,2.69475000000075,8.60825000000068));
#1555=CARTESIAN_POINT('Origin',(2.413,-1.65899999999897,4.82600000000019));
#1556=CARTESIAN_POINT('',(-6.355,-1.65899999999897,4.82600000000019));
#1557=CARTESIAN_POINT('',(-6.355,-2.15899999999897,5.32600000000019));
#1558=CARTESIAN_POINT($,(-6.355,-1.24424999999928,4.41125000000051));
#1559=CARTESIAN_POINT('',(2.413,-1.65899999999897,4.82600000000019));
#1560=CARTESIAN_POINT($,(2.413,-1.65899999999897,4.82600000000019));
#1561=CARTESIAN_POINT('',(2.413,-2.15899999999897,5.32600000000019));
#1562=CARTESIAN_POINT($,(2.413,-1.24424999999928,4.41125000000051));
#1563=CARTESIAN_POINT($,(0.380999999999998,-2.15899999999999,5.32600000000122));
#1564=CARTESIAN_POINT('Origin',(2.413,-2.15899999999897,4.32600000000019));
#1565=CARTESIAN_POINT('',(-6.355,-2.15899999999897,4.32600000000019));
#1566=CARTESIAN_POINT($,(-6.355,-1.49424999999917,4.99074999999999));
#1567=CARTESIAN_POINT('',(2.413,-2.15899999999897,4.32600000000019));
#1568=CARTESIAN_POINT($,(0.380999999999997,-2.15899999999999,4.32599999999917));
#1569=CARTESIAN_POINT($,(2.413,-1.49424999999917,4.99074999999999));
#1570=CARTESIAN_POINT('Origin',(-1.651,2.15899999999999,4.82600000000042));
#1571=CARTESIAN_POINT('',(2.413,2.15899999999999,0.));
#1572=CARTESIAN_POINT($,(2.413,2.15899999999999,0.));
#1573=CARTESIAN_POINT('',(-6.355,2.15899999999999,3.97903932025656E-13));
#1574=CARTESIAN_POINT($,(-5.715,2.15899999999999,3.97903932025656E-13));
#1575=CARTESIAN_POINT($,(-6.355,2.15899999999999,9.65200000000038));
#1576=CARTESIAN_POINT('Origin',(-1.651,2.15899999999999,4.82600000000042));
#1577=CARTESIAN_POINT($,(-6.355,2.15899999999999,9.65200000000038));
#1578=CARTESIAN_POINT($,(2.413,2.15899999999999,0.));
#1579=CARTESIAN_POINT('Origin',(-1.651,-2.15899999999999,4.5720000000004));
#1580=CARTESIAN_POINT('',(2.413,-2.15899999999999,9.1440000000004));
#1581=CARTESIAN_POINT($,(2.413,-2.15899999999999,0.));
#1582=CARTESIAN_POINT('',(-6.355,-2.15899999999999,9.1440000000004));
#1583=CARTESIAN_POINT($,(2.413,-2.15899999999999,9.1440000000004));
#1584=CARTESIAN_POINT($,(-6.355,-2.15899999999999,9.1440000000004));
#1585=CARTESIAN_POINT('Origin',(-1.651,-2.15899999999999,4.5720000000004));
#1586=CARTESIAN_POINT('',(-6.355,-2.15899999999999,3.97903932025656E-13));
#1587=CARTESIAN_POINT($,(-6.355,-2.15899999999999,9.1440000000004));
#1588=CARTESIAN_POINT('',(2.413,-2.15899999999999,0.));
#1589=CARTESIAN_POINT($,(-5.715,-2.15899999999999,3.97903932025656E-13));
#1590=CARTESIAN_POINT($,(2.413,-2.15899999999999,0.));
#1591=CARTESIAN_POINT('Origin',(-6.355,0.,4.82600000000042));
#1592=CARTESIAN_POINT('Origin',(-6.355,0.,7.6200000000004));
#1593=CARTESIAN_POINT('',(-6.355,1.65049086650157,5.11590769747272E-13));
#1594=CARTESIAN_POINT($,(-6.355,2.15899999999999,3.97903932025656E-13));
#1595=CARTESIAN_POINT($,(-6.355,1.65049086608151,2.54000000000036));
#1596=CARTESIAN_POINT('Origin',(-6.355,0.,2.54000000000042));
#1597=CARTESIAN_POINT('',(-6.355,-1.65049086650055,3.97903932025656E-13));
#1598=CARTESIAN_POINT($,(-6.355,-1.6504908660805,2.54000000000008));
#1599=CARTESIAN_POINT($,(-6.355,-1.6508302886935,3.97903932025656E-13));
#1600=CARTESIAN_POINT($,(-6.355,-2.15899999999999,9.1440000000004));
#1601=CARTESIAN_POINT('Origin',(2.413,0.,4.82600000000042));
#1602=CARTESIAN_POINT($,(2.413,-2.15899999999999,9.1440000000004));
#1603=CARTESIAN_POINT('',(2.413,-1.6504908660805,-1.70530256582424E-13));
#1604=CARTESIAN_POINT($,(2.413,-2.15899999999999,0.));
#1605=CARTESIAN_POINT($,(2.413,-1.6504908660805,-1.70530256582424E-13));
#1606=CARTESIAN_POINT('',(2.413,1.65049086608151,3.97903932025656E-13));
#1607=CARTESIAN_POINT($,(2.413,1.65049086608151,3.97903932025656E-13));
#1608=CARTESIAN_POINT($,(2.413,1.65049086608151,3.97903932025656E-13));
#1609=CARTESIAN_POINT('Origin',(-1.651,-1.6504908660805,0.253999999999792));
#1610=CARTESIAN_POINT($,(-1.651,-1.6504908660805,3.97903932025656E-13));
#1611=CARTESIAN_POINT('Origin',(-1.651,1.65049086608151,0.25400000000036));
#1612=CARTESIAN_POINT($,(-1.651,1.65049086608151,3.97903932025656E-13));
#1613=CARTESIAN_POINT('Origin',(-1.651,1.90474543304074,3.97903932025656E-13));
#1614=CARTESIAN_POINT('Origin',(-1.651,-1.905,9.39800000000042));
#1615=CARTESIAN_POINT('Origin',(-1.651,-1.90474543303898,3.97903932025656E-13));
#1616=CARTESIAN_POINT('Origin',(-5.7023,0.,7.6200000000004));
#1617=CARTESIAN_POINT('Origin',(-5.7023,0.,2.54000000000042));
#1618=CARTESIAN_POINT('Origin',(-7.8258,0.,7.62000000000039));
#1619=CARTESIAN_POINT('',(-7.82580000000001,0.,9.16940000000039));
#1620=CARTESIAN_POINT('',(-7.8258,0.,6.07060000000039));
#1621=CARTESIAN_POINT('Origin',(-7.8258,0.,7.62000000000039));
#1622=CARTESIAN_POINT('Origin',(-7.8258,0.,7.62000000000039));
#1623=CARTESIAN_POINT('Origin',(-6.32960000000005,0.,7.62000000000039));
#1624=CARTESIAN_POINT('',(-6.32960000000005,0.,6.07060000000039));
#1625=CARTESIAN_POINT('',(-6.32960000000005,0.,9.16940000000039));
#1626=CARTESIAN_POINT($,(-6.32960000000005,0.,0.326706375663478));
#1627=CARTESIAN_POINT('Origin',(-6.32960000000005,0.,7.62000000000039));
#1628=CARTESIAN_POINT('Origin',(-7.702724,0.,7.62000000000039));
#1629=CARTESIAN_POINT($,(-7.70272400000001,0.,9.16940000000039));
#1630=CARTESIAN_POINT($,(-7.702724,0.,6.07060000000039));
#1631=CARTESIAN_POINT('Origin',(0.,0.,-6.96658724867343));
#1632=CARTESIAN_POINT('Origin',(0.,0.,-6.96658724867342));
#1633=CARTESIAN_POINT('',(-6.32960000000005,0.,4.08940000000041));
#1634=CARTESIAN_POINT('',(-6.32960000000004,0.,0.990600000000427));
#1635=CARTESIAN_POINT($,(-6.32960000000005,0.,-2.21329362433647));
#1636=CARTESIAN_POINT('',(-7.8258,0.,4.08940000000041));
#1637=CARTESIAN_POINT($,(-7.702724,0.,4.08940000000041));
#1638=CARTESIAN_POINT('',(-7.8258,0.,0.990600000000427));
#1639=CARTESIAN_POINT('Origin',(-7.8258,0.,2.54000000000042));
#1640=CARTESIAN_POINT($,(-7.702724,0.,0.990600000000427));
#1641=CARTESIAN_POINT('Origin',(-7.8258,0.,2.54000000000042));
#1642=CARTESIAN_POINT('Origin',(-7.8258,0.,2.54000000000042));
#1643=CARTESIAN_POINT('Origin',(-6.32960000000005,0.,2.54000000000042));
#1644=CARTESIAN_POINT('Origin',(-6.32960000000005,0.,2.54000000000042));
#1645=CARTESIAN_POINT('Origin',(-7.702724,0.,2.54000000000042));
#1646=CARTESIAN_POINT('Origin',(0.,0.,-6.96658724867342));
#1647=CARTESIAN_POINT('',(-6.32960000000005,0.,9.16940000000039));
#1648=CARTESIAN_POINT('',(-6.32960000000005,0.,6.07060000000041));
#1649=CARTESIAN_POINT($,(-6.32960000000005,0.,0.326706375663491));
#1650=CARTESIAN_POINT('',(-7.82580000000001,0.,9.16940000000039));
#1651=CARTESIAN_POINT($,(-7.70272400000001,0.,9.16940000000039));
#1652=CARTESIAN_POINT('',(-7.8258,0.,6.07060000000041));
#1653=CARTESIAN_POINT('Origin',(-7.8258,0.,7.6200000000004));
#1654=CARTESIAN_POINT($,(-7.702724,0.,6.07060000000041));
#1655=CARTESIAN_POINT('Origin',(-7.8258,0.,7.6200000000004));
#1656=CARTESIAN_POINT('Origin',(-7.8258,0.,7.6200000000004));
#1657=CARTESIAN_POINT('Origin',(-6.32960000000005,0.,7.6200000000004));
#1658=CARTESIAN_POINT('Origin',(-6.32960000000005,0.,7.6200000000004));
#1659=CARTESIAN_POINT('Origin',(-7.702724,0.,7.6200000000004));
#1660=UNCERTAINTY_MEASURE_WITH_UNIT(LENGTH_MEASURE(0.01),#1664,
'DISTANCE_ACCURACY_VALUE',
'Maximum model space distance between geometric entities at asserted c
onnectivities');
#1661=UNCERTAINTY_MEASURE_WITH_UNIT(LENGTH_MEASURE(1.E-6),#1664,
'DISTANCE_ACCURACY_VALUE',
'Maximum model space distance between geometric entities at asserted c
onnectivities');
#1662=(
GEOMETRIC_REPRESENTATION_CONTEXT(3)
GLOBAL_UNCERTAINTY_ASSIGNED_CONTEXT((#1660))
GLOBAL_UNIT_ASSIGNED_CONTEXT((#1664,#1666,#1665))
REPRESENTATION_CONTEXT('','3D')
);
#1663=(
GEOMETRIC_REPRESENTATION_CONTEXT(3)
GLOBAL_UNCERTAINTY_ASSIGNED_CONTEXT((#1661))
GLOBAL_UNIT_ASSIGNED_CONTEXT((#1664,#12,#1665))
REPRESENTATION_CONTEXT('','3D')
);
#1664=(
LENGTH_UNIT()
NAMED_UNIT(*)
SI_UNIT(.MILLI.,.METRE.)
);
#1665=(
NAMED_UNIT(*)
SI_UNIT($,.STERADIAN.)
SOLID_ANGLE_UNIT()
);
#1666=(
NAMED_UNIT(*)
PLANE_ANGLE_UNIT()
SI_UNIT($,.RADIAN.)
);
#1667=SHAPE_DEFINITION_REPRESENTATION(#1668,#1669);
#1668=PRODUCT_DEFINITION_SHAPE('',$,#1671);
#1669=SHAPE_REPRESENTATION('',(#1020),#1662);
#1670=PRODUCT_DEFINITION_CONTEXT('part definition',#1675,'design');
#1671=PRODUCT_DEFINITION('Product','Product',#1672,#1670);
#1672=PRODUCT_DEFINITION_FORMATION('',$,#1677);
#1673=PRODUCT_RELATED_PRODUCT_CATEGORY('Product','Product',(#1677));
#1674=APPLICATION_PROTOCOL_DEFINITION('international standard',
'automotive_design',2009,#1675);
#1675=APPLICATION_CONTEXT(
'Core Data for Automotive Mechanical Design Process');
#1676=PRODUCT_CONTEXT('part definition',#1675,'mechanical');
#1677=PRODUCT('Product','Product',$,(#1676));
#1678=PRESENTATION_STYLE_ASSIGNMENT((#1683));
#1679=PRESENTATION_STYLE_ASSIGNMENT((#1684));
#1680=PRESENTATION_STYLE_ASSIGNMENT((#1685));
#1681=PRESENTATION_STYLE_ASSIGNMENT((#1686));
#1682=PRESENTATION_STYLE_ASSIGNMENT((#1687));
#1683=SURFACE_STYLE_USAGE(.BOTH.,#1688);
#1684=SURFACE_STYLE_USAGE(.BOTH.,#1689);
#1685=SURFACE_STYLE_USAGE(.BOTH.,#1690);
#1686=SURFACE_STYLE_USAGE(.BOTH.,#1691);
#1687=SURFACE_STYLE_USAGE(.BOTH.,#1692);
#1688=SURFACE_SIDE_STYLE($,(#1693));
#1689=SURFACE_SIDE_STYLE($,(#1694));
#1690=SURFACE_SIDE_STYLE($,(#1695));
#1691=SURFACE_SIDE_STYLE($,(#1696));
#1692=SURFACE_SIDE_STYLE($,(#1697));
#1693=SURFACE_STYLE_FILL_AREA(#1698);
#1694=SURFACE_STYLE_FILL_AREA(#1699);
#1695=SURFACE_STYLE_FILL_AREA(#1700);
#1696=SURFACE_STYLE_FILL_AREA(#1701);
#1697=SURFACE_STYLE_FILL_AREA(#1702);
#1698=FILL_AREA_STYLE($,(#1703));
#1699=FILL_AREA_STYLE($,(#1704));
#1700=FILL_AREA_STYLE($,(#1705));
#1701=FILL_AREA_STYLE($,(#1706));
#1702=FILL_AREA_STYLE($,(#1707));
#1703=FILL_AREA_STYLE_COLOUR($,#1708);
#1704=FILL_AREA_STYLE_COLOUR($,#1709);
#1705=FILL_AREA_STYLE_COLOUR($,#1710);
#1706=FILL_AREA_STYLE_COLOUR($,#1711);
#1707=FILL_AREA_STYLE_COLOUR($,#1712);
#1708=COLOUR_RGB('',1.,1.,1.);
#1709=COLOUR_RGB('',0.,1.,0.);
#1710=COLOUR_RGB('',0.749019607843137,0.749019607843137,0.749019607843137);
#1711=COLOUR_RGB('',0.329411764705882,0.329411764705882,0.329411764705882);
#1712=COLOUR_RGB('',1.,0.,0.);
ENDSEC;
END-ISO-10303-21;
