ISO-10303-21;
HEADER;
/****************************************************************
 * Generated by software with PDElib inside                    *
 * PDElib Version v51a, created Fri 09/10/2010                  *
 * ITI Transcendata (http://www.transcendata.com/)              *
 ****************************************************************/
FILE_DESCRIPTION((''),'2;1');
FILE_NAME('LEDM3528X210N_ORANGE.stp','2012-07-05T09:04:43',(''),(''),'Mechanical Desktop 2011','Mechanical Desktop 2011',', , ');
FILE_SCHEMA(('AUTOMOTIVE_DESIGN { 1 2 10303 214 1 1 1 1 }'));
ENDSEC;
DATA;
#10=(NAMED_UNIT(*)PLANE_ANGLE_UNIT()SI_UNIT($,.RADIAN.));
#11=DIMENSIONAL_EXPONENTS(0.0,0.0,0.0,0.0,0.0,0.0,0.0);
#12=PLANE_ANGLE_MEASURE_WITH_UNIT(PLANE_ANGLE_MEASURE(0.0174532925),#10);
#16=(CONVERSION_BASED_UNIT('DEGREE',#12)NAMED_UNIT(#11)PLANE_ANGLE_UNIT());
#20=(NAMED_UNIT(*)SI_UNIT($,.STERADIAN.)SOLID_ANGLE_UNIT());
#24=(LENGTH_UNIT()NAMED_UNIT(*)SI_UNIT(.MILLI.,.METRE.));
#26=UNCERTAINTY_MEASURE_WITH_UNIT(LENGTH_MEASURE(0.000001),#24,'DISTANCE_ACCURACY_VALUE','');
#28=(GEOMETRIC_REPRESENTATION_CONTEXT(3)GLOBAL_UNCERTAINTY_ASSIGNED_CONTEXT((#26))GLOBAL_UNIT_ASSIGNED_CONTEXT((#16,#20,#24))REPRESENTATION_CONTEXT('','3D'));
#29=APPLICATION_CONTEXT('automotive design');
#30=APPLICATION_PROTOCOL_DEFINITION('INTERNATIONAL_STANDARD','automotive_design',1998,#29);
#31=PRODUCT_CONTEXT('3D Mechanical Parts',#29,'mechanical');
#32=PRODUCT('Product','Product','',(#31));
#33=PRODUCT_RELATED_PRODUCT_CATEGORY('part',$,(#32));
#34=PRODUCT_CATEGORY('part',$);
#35=PERSON('1','Design','Joe',$,$,$);
#36=ORGANIZATION($,'None','None');
#37=PERSON_AND_ORGANIZATION(#35,#36);
#38=PERSON_AND_ORGANIZATION_ROLE('design_owner');
#39=APPLIED_PERSON_AND_ORGANIZATION_ASSIGNMENT(#37,#38,(#32));
#40=PRODUCT_DEFINITION_FORMATION_WITH_SPECIFIED_SOURCE('None','',#32,.BOUGHT.);
#41=PERSON('2','Creator','Joe',$,$,$);
#42=ORGANIZATION($,'None','None');
#43=PERSON_AND_ORGANIZATION(#41,#42);
#44=PERSON_AND_ORGANIZATION_ROLE('creator');
#45=APPLIED_PERSON_AND_ORGANIZATION_ASSIGNMENT(#43,#44,(#40));
#46=PERSON('3','Supplier','Joe',$,$,$);
#47=ORGANIZATION($,'None','None');
#48=PERSON_AND_ORGANIZATION(#46,#47);
#49=PERSON_AND_ORGANIZATION_ROLE('design_supplier');
#50=APPLIED_PERSON_AND_ORGANIZATION_ASSIGNMENT(#48,#49,(#40));
#51=PRODUCT_DEFINITION_CONTEXT('part definition',#29,'design');
#52=PRODUCT_DEFINITION('None','',#40,#51);
#53=PERSON('4','Creator','Joe',$,$,$);
#54=ORGANIZATION($,'None','None');
#55=PERSON_AND_ORGANIZATION(#53,#54);
#56=PERSON_AND_ORGANIZATION_ROLE('creator');
#57=APPLIED_PERSON_AND_ORGANIZATION_ASSIGNMENT(#55,#56,(#52));
#58=CARTESIAN_POINT('NONE',(0.0,0.0,0.0));
#59=DIRECTION('NONE',(0.0,0.0,1.0));
#60=DIRECTION('NONE',(1.0,0.0,0.0));
#61=AXIS2_PLACEMENT_3D('NONE',#58,#59,#60);
#62=SHAPE_REPRESENTATION('SR1',(#61),#28);
#63=PRODUCT_DEFINITION_SHAPE('PDS1','Test Part',#52);
#64=SHAPE_DEFINITION_REPRESENTATION(#63,#62);
#65=CARTESIAN_POINT('',(0.25,0.25,1.2));
#66=DIRECTION('',(1.0,0.0,0.0));
#67=DIRECTION('',(0.0,0.0,-1.0));
#68=AXIS2_PLACEMENT_3D('',#65,#66,#67);
#69=PLANE('',#68);
#70=CARTESIAN_POINT('',(0.25,0.25,1.4));
#71=VERTEX_POINT('',#70);
#72=CARTESIAN_POINT('',(0.25,-0.25,1.4));
#73=VERTEX_POINT('',#72);
#74=CARTESIAN_POINT('',(0.25,0.25,1.4));
#75=DIRECTION('',(0.0,-1.0,0.0));
#76=VECTOR('',#75,0.5);
#77=LINE('',#74,#76);
#78=EDGE_CURVE('',#71,#73,#77,.T.);
#79=ORIENTED_EDGE('',*,*,#78,.T.);
#80=CARTESIAN_POINT('',(0.25,-0.25,1.2));
#81=VERTEX_POINT('',#80);
#82=CARTESIAN_POINT('',(0.25,-0.25,1.2));
#83=DIRECTION('',(0.0,0.0,1.0));
#84=VECTOR('',#83,0.2);
#85=LINE('',#82,#84);
#86=EDGE_CURVE('',#81,#73,#85,.T.);
#87=ORIENTED_EDGE('',*,*,#86,.F.);
#88=CARTESIAN_POINT('',(0.25,0.25,1.2));
#89=VERTEX_POINT('',#88);
#90=CARTESIAN_POINT('',(0.25,-0.25,1.2));
#91=DIRECTION('',(0.0,1.0,0.0));
#92=VECTOR('',#91,0.5);
#93=LINE('',#90,#92);
#94=EDGE_CURVE('',#81,#89,#93,.T.);
#95=ORIENTED_EDGE('',*,*,#94,.T.);
#96=CARTESIAN_POINT('',(0.25,0.25,1.2));
#97=DIRECTION('',(0.0,0.0,1.0));
#98=VECTOR('',#97,0.2);
#99=LINE('',#96,#98);
#100=EDGE_CURVE('',#89,#71,#99,.T.);
#101=ORIENTED_EDGE('',*,*,#100,.T.);
#102=EDGE_LOOP('',(#79,#87,#95,#101));
#103=FACE_OUTER_BOUND('',#102,.T.);
#104=ADVANCED_FACE('',(#103),#69,.T.);
#105=CARTESIAN_POINT('',(0.25,-0.25,1.2));
#106=DIRECTION('',(0.0,-1.0,0.0));
#107=DIRECTION('',(0.0,0.0,-1.0));
#108=AXIS2_PLACEMENT_3D('',#105,#106,#107);
#109=PLANE('',#108);
#110=CARTESIAN_POINT('',(-0.250000000000001,-0.25,1.4));
#111=VERTEX_POINT('',#110);
#112=CARTESIAN_POINT('',(0.25,-0.25,1.4));
#113=DIRECTION('',(-1.0,0.0,0.0));
#114=VECTOR('',#113,0.500000000000001);
#115=LINE('',#112,#114);
#116=EDGE_CURVE('',#73,#111,#115,.T.);
#117=ORIENTED_EDGE('',*,*,#116,.T.);
#118=CARTESIAN_POINT('',(-0.250000000000001,-0.25,1.2));
#119=VERTEX_POINT('',#118);
#120=CARTESIAN_POINT('',(-0.250000000000001,-0.25,1.2));
#121=DIRECTION('',(0.0,0.0,1.0));
#122=VECTOR('',#121,0.2);
#123=LINE('',#120,#122);
#124=EDGE_CURVE('',#119,#111,#123,.T.);
#125=ORIENTED_EDGE('',*,*,#124,.F.);
#126=CARTESIAN_POINT('',(-0.250000000000001,-0.25,1.2));
#127=DIRECTION('',(1.0,0.0,0.0));
#128=VECTOR('',#127,0.500000000000001);
#129=LINE('',#126,#128);
#130=EDGE_CURVE('',#119,#81,#129,.T.);
#131=ORIENTED_EDGE('',*,*,#130,.T.);
#132=ORIENTED_EDGE('',*,*,#86,.T.);
#133=EDGE_LOOP('',(#117,#125,#131,#132));
#134=FACE_OUTER_BOUND('',#133,.T.);
#135=ADVANCED_FACE('',(#134),#109,.T.);
#136=CARTESIAN_POINT('',(-0.250000000000001,-0.25,1.2));
#137=DIRECTION('',(-1.0,0.0,0.0));
#138=DIRECTION('',(0.0,0.0,1.0));
#139=AXIS2_PLACEMENT_3D('',#136,#137,#138);
#140=PLANE('',#139);
#141=CARTESIAN_POINT('',(-0.25,0.25,1.4));
#142=VERTEX_POINT('',#141);
#143=CARTESIAN_POINT('',(-0.250000000000001,-0.25,1.4));
#144=DIRECTION('',(0.0,1.0,0.0));
#145=VECTOR('',#144,0.5);
#146=LINE('',#143,#145);
#147=EDGE_CURVE('',#111,#142,#146,.T.);
#148=ORIENTED_EDGE('',*,*,#147,.T.);
#149=CARTESIAN_POINT('',(-0.25,0.25,1.2));
#150=VERTEX_POINT('',#149);
#151=CARTESIAN_POINT('',(-0.25,0.25,1.2));
#152=DIRECTION('',(0.0,0.0,1.0));
#153=VECTOR('',#152,0.2);
#154=LINE('',#151,#153);
#155=EDGE_CURVE('',#150,#142,#154,.T.);
#156=ORIENTED_EDGE('',*,*,#155,.F.);
#157=CARTESIAN_POINT('',(-0.25,0.25,1.2));
#158=DIRECTION('',(0.0,-1.0,0.0));
#159=VECTOR('',#158,0.5);
#160=LINE('',#157,#159);
#161=EDGE_CURVE('',#150,#119,#160,.T.);
#162=ORIENTED_EDGE('',*,*,#161,.T.);
#163=ORIENTED_EDGE('',*,*,#124,.T.);
#164=EDGE_LOOP('',(#148,#156,#162,#163));
#165=FACE_OUTER_BOUND('',#164,.T.);
#166=ADVANCED_FACE('',(#165),#140,.T.);
#167=CARTESIAN_POINT('',(-0.25,0.25,1.2));
#168=DIRECTION('',(0.0,1.0,0.0));
#169=DIRECTION('',(0.0,0.0,1.0));
#170=AXIS2_PLACEMENT_3D('',#167,#168,#169);
#171=PLANE('',#170);
#172=CARTESIAN_POINT('',(-0.25,0.25,1.4));
#173=DIRECTION('',(1.0,0.0,0.0));
#174=VECTOR('',#173,0.5);
#175=LINE('',#172,#174);
#176=EDGE_CURVE('',#142,#71,#175,.T.);
#177=ORIENTED_EDGE('',*,*,#176,.T.);
#178=ORIENTED_EDGE('',*,*,#100,.F.);
#179=CARTESIAN_POINT('',(0.25,0.25,1.2));
#180=DIRECTION('',(-1.0,0.0,0.0));
#181=VECTOR('',#180,0.5);
#182=LINE('',#179,#181);
#183=EDGE_CURVE('',#89,#150,#182,.T.);
#184=ORIENTED_EDGE('',*,*,#183,.T.);
#185=ORIENTED_EDGE('',*,*,#155,.T.);
#186=EDGE_LOOP('',(#177,#178,#184,#185));
#187=FACE_OUTER_BOUND('',#186,.T.);
#188=ADVANCED_FACE('',(#187),#171,.T.);
#189=CARTESIAN_POINT('',(-8.881784E-016,-6.661338E-016,1.4));
#190=DIRECTION('',(0.0,0.0,1.0));
#191=DIRECTION('',(1.0,0.0,0.0));
#192=AXIS2_PLACEMENT_3D('',#189,#190,#191);
#193=PLANE('',#192);
#194=ORIENTED_EDGE('',*,*,#78,.F.);
#195=ORIENTED_EDGE('',*,*,#176,.F.);
#196=ORIENTED_EDGE('',*,*,#147,.F.);
#197=ORIENTED_EDGE('',*,*,#116,.F.);
#198=EDGE_LOOP('',(#194,#195,#196,#197));
#199=FACE_OUTER_BOUND('',#198,.T.);
#200=ADVANCED_FACE('',(#199),#193,.T.);
#201=CARTESIAN_POINT('',(-8.881784E-016,-6.661338E-016,1.2));
#202=DIRECTION('',(0.0,0.0,1.0));
#203=DIRECTION('',(1.0,0.0,0.0));
#204=AXIS2_PLACEMENT_3D('',#201,#202,#203);
#205=PLANE('',#204);
#206=ORIENTED_EDGE('',*,*,#183,.F.);
#207=ORIENTED_EDGE('',*,*,#94,.F.);
#208=ORIENTED_EDGE('',*,*,#130,.F.);
#209=ORIENTED_EDGE('',*,*,#161,.F.);
#210=EDGE_LOOP('',(#206,#207,#208,#209));
#211=FACE_OUTER_BOUND('',#210,.T.);
#212=ADVANCED_FACE('',(#211),#205,.F.);
#213=CLOSED_SHELL('',(#104,#135,#166,#188,#200,#212));
#214=MANIFOLD_SOLID_BREP('68F',#213);
#215=COLOUR_RGB('20',1.0,0.25,0.0);
#216=SURFACE_STYLE_USAGE(.BOTH.,#217);
#217=SURFACE_SIDE_STYLE('NONE',(#218));
#218=SURFACE_STYLE_FILL_AREA(#219);
#219=FILL_AREA_STYLE('NONE',(#220));
#220=FILL_AREA_STYLE_COLOUR('NONE',#215);
#221=PRESENTATION_STYLE_ASSIGNMENT((#216));
#222=STYLED_ITEM('NONE',(#221),#214);
#223=MECHANICAL_DESIGN_GEOMETRIC_PRESENTATION_REPRESENTATION('NONE',(#222,#494,#645,#866,#1017,#1315,#1598),#28);
#224=PRESENTATION_LAYER_ASSIGNMENT('3D','None',(#214,#486,#644,#865,#1016,#1307,#1597));
#225=CARTESIAN_POINT('',(1.679289321881345,-1.1,0.170710678118655));
#226=CARTESIAN_POINT('',(1.679289321881345,1.1,0.170710678118655));
#227=CARTESIAN_POINT('',(1.608578643762691,-1.1,0.1));
#228=CARTESIAN_POINT('',(1.608578643762691,1.1,0.1));
#229=CARTESIAN_POINT('',(1.679289321881345,-1.1,0.029289321881345));
#230=CARTESIAN_POINT('',(1.679289321881346,1.1,0.029289321881345));
#231=CARTESIAN_POINT('',(1.75,-1.1,-0.041421356237309));
#232=CARTESIAN_POINT('',(1.75,1.1,-0.041421356237309));
#233=CARTESIAN_POINT('',(1.820710678118655,-1.1,0.029289321881345));
#234=CARTESIAN_POINT('',(1.820710678118655,1.1,0.029289321881345));
#235=CARTESIAN_POINT('',(1.891421356237309,-1.1,0.1));
#236=CARTESIAN_POINT('',(1.89142135623731,1.1,0.1));
#237=CARTESIAN_POINT('',(1.820710678118655,-1.1,0.170710678118655));
#238=CARTESIAN_POINT('',(1.820710678118655,1.1,0.170710678118655));
#239=CARTESIAN_POINT('',(1.75,-1.1,0.24142135623731));
#240=CARTESIAN_POINT('',(1.75,1.1,0.24142135623731));
#241=CARTESIAN_POINT('',(1.679289321881345,-1.1,0.170710678118655));
#242=CARTESIAN_POINT('',(1.679289321881345,1.1,0.170710678118655));
#250=(BOUNDED_SURFACE()B_SPLINE_SURFACE(1,2,((#225,#227,#229,#231,#233,#235,#237,#239,#241),(#226,#228,#230,#232,#234,#236,#238,#240,#242)),.UNSPECIFIED.,.F.,.T.,.U.)B_SPLINE_SURFACE_WITH_KNOTS((2,2),(3,2,2,2,3),(-5.5,16.5),(0.0,0.15707963267949,0.314159265358979,0.471238898038469,0.628318530717959),.UNSPECIFIED.)GEOMETRIC_REPRESENTATION_ITEM()RATIONAL_B_SPLINE_SURFACE(((1.0,0.707106781186548,1.0,0.707106781186548,1.0,0.707106781186548,1.0,0.707106781186548,1.0),(1.0,0.707106781186548,1.0,0.707106781186548,1.0,0.707106781186548,1.0,0.707106781186548,1.0)))REPRESENTATION_ITEM('')SURFACE());
#251=CARTESIAN_POINT('',(1.85,1.1,0.1));
#252=VERTEX_POINT('',#251);
#253=CARTESIAN_POINT('',(1.75,1.1,0.0));
#254=VERTEX_POINT('',#253);
#255=CARTESIAN_POINT('',(1.75,1.1,0.1));
#256=DIRECTION('',(0.0,1.0,0.0));
#257=DIRECTION('',(0.707106781186548,0.0,-0.707106781186547));
#258=AXIS2_PLACEMENT_3D('',#255,#256,#257);
#259=CIRCLE('',#258,0.1);
#260=EDGE_CURVE('',#252,#254,#259,.T.);
#261=ORIENTED_EDGE('',*,*,#260,.F.);
#262=CARTESIAN_POINT('',(1.85,-1.1,0.1));
#263=VERTEX_POINT('',#262);
#264=CARTESIAN_POINT('',(1.85,-1.1,0.1));
#265=DIRECTION('',(0.0,1.0,0.0));
#266=VECTOR('',#265,2.2);
#267=LINE('',#264,#266);
#268=EDGE_CURVE('',#263,#252,#267,.T.);
#269=ORIENTED_EDGE('',*,*,#268,.F.);
#270=CARTESIAN_POINT('',(1.75,-1.1,0.0));
#271=VERTEX_POINT('',#270);
#272=CARTESIAN_POINT('',(1.75,-1.1,0.1));
#273=DIRECTION('',(0.0,-1.0,0.0));
#274=DIRECTION('',(0.707106781186548,0.0,-0.707106781186547));
#275=AXIS2_PLACEMENT_3D('',#272,#273,#274);
#276=CIRCLE('',#275,0.1);
#277=EDGE_CURVE('',#271,#263,#276,.T.);
#278=ORIENTED_EDGE('',*,*,#277,.F.);
#279=CARTESIAN_POINT('',(1.75,1.1,0.0));
#280=DIRECTION('',(0.0,-1.0,0.0));
#281=VECTOR('',#280,2.2);
#282=LINE('',#279,#281);
#283=EDGE_CURVE('',#254,#271,#282,.T.);
#284=ORIENTED_EDGE('',*,*,#283,.F.);
#285=EDGE_LOOP('',(#261,#269,#278,#284));
#286=FACE_OUTER_BOUND('',#285,.T.);
#287=ADVANCED_FACE('',(#286),#250,.T.);
#288=CARTESIAN_POINT('',(1.85,1.1,0.1));
#289=CARTESIAN_POINT('',(1.85,1.1,1.1));
#290=CARTESIAN_POINT('',(1.85,-1.1,0.1));
#291=CARTESIAN_POINT('',(1.85,-1.1,1.1));
#292=B_SPLINE_SURFACE_WITH_KNOTS('',1,1,((#288,#290),(#289,#291)),.UNSPECIFIED.,.F.,.F.,.U.,(2,2),(2,2),(0.0,1.0),(0.0,2.2),.UNSPECIFIED.);
#293=ORIENTED_EDGE('',*,*,#268,.T.);
#294=CARTESIAN_POINT('',(1.85,1.1,1.1));
#295=VERTEX_POINT('',#294);
#296=CARTESIAN_POINT('',(1.85,1.1,0.1));
#297=DIRECTION('',(0.0,0.0,1.0));
#298=VECTOR('',#297,1.0);
#299=LINE('',#296,#298);
#300=EDGE_CURVE('',#252,#295,#299,.T.);
#301=ORIENTED_EDGE('',*,*,#300,.T.);
#302=CARTESIAN_POINT('',(1.85,-1.1,1.1));
#303=VERTEX_POINT('',#302);
#304=CARTESIAN_POINT('',(1.85,1.1,1.1));
#305=DIRECTION('',(0.0,-1.0,0.0));
#306=VECTOR('',#305,2.2);
#307=LINE('',#304,#306);
#308=EDGE_CURVE('',#295,#303,#307,.T.);
#309=ORIENTED_EDGE('',*,*,#308,.T.);
#310=CARTESIAN_POINT('',(1.85,-1.1,0.1));
#311=DIRECTION('',(0.0,0.0,1.0));
#312=VECTOR('',#311,1.0);
#313=LINE('',#310,#312);
#314=EDGE_CURVE('',#263,#303,#313,.T.);
#315=ORIENTED_EDGE('',*,*,#314,.F.);
#316=EDGE_LOOP('',(#293,#301,#309,#315));
#317=FACE_OUTER_BOUND('',#316,.T.);
#318=ADVANCED_FACE('',(#317),#292,.T.);
#319=CARTESIAN_POINT('',(1.7,-1.1,1.2));
#320=CARTESIAN_POINT('',(1.7,-1.1,0.0));
#321=CARTESIAN_POINT('',(1.85,-1.1,1.2));
#322=CARTESIAN_POINT('',(1.85,-1.1,0.0));
#323=B_SPLINE_SURFACE_WITH_KNOTS('',1,1,((#319,#321),(#320,#322)),.UNSPECIFIED.,.F.,.F.,.U.,(2,2),(2,2),(0.0,1.2),(0.0,0.15),.UNSPECIFIED.);
#324=ORIENTED_EDGE('',*,*,#277,.T.);
#325=ORIENTED_EDGE('',*,*,#314,.T.);
#326=CARTESIAN_POINT('',(1.75,-1.1,1.2));
#327=VERTEX_POINT('',#326);
#328=CARTESIAN_POINT('',(1.75,-1.1,1.1));
#329=DIRECTION('',(0.0,-1.0,0.0));
#330=DIRECTION('',(0.707106781186547,0.0,0.707106781186547));
#331=AXIS2_PLACEMENT_3D('',#328,#329,#330);
#332=CIRCLE('',#331,0.1);
#333=EDGE_CURVE('',#303,#327,#332,.T.);
#334=ORIENTED_EDGE('',*,*,#333,.T.);
#335=CARTESIAN_POINT('',(1.7,-1.1,1.2));
#336=VERTEX_POINT('',#335);
#337=CARTESIAN_POINT('',(1.7,-1.1,1.2));
#338=DIRECTION('',(1.0,0.0,0.0));
#339=VECTOR('',#338,0.05);
#340=LINE('',#337,#339);
#341=EDGE_CURVE('',#336,#327,#340,.T.);
#342=ORIENTED_EDGE('',*,*,#341,.F.);
#343=CARTESIAN_POINT('',(1.7,-1.1,0.0));
#344=VERTEX_POINT('',#343);
#345=CARTESIAN_POINT('',(1.7,-1.1,0.0));
#346=DIRECTION('',(0.0,0.0,1.0));
#347=VECTOR('',#346,1.2);
#348=LINE('',#345,#347);
#349=EDGE_CURVE('',#344,#336,#348,.T.);
#350=ORIENTED_EDGE('',*,*,#349,.F.);
#351=CARTESIAN_POINT('',(1.7,-1.1,0.0));
#352=DIRECTION('',(1.0,0.0,0.0));
#353=VECTOR('',#352,0.05);
#354=LINE('',#351,#353);
#355=EDGE_CURVE('',#344,#271,#354,.T.);
#356=ORIENTED_EDGE('',*,*,#355,.T.);
#357=EDGE_LOOP('',(#324,#325,#334,#342,#350,#356));
#358=FACE_OUTER_BOUND('',#357,.T.);
#359=ADVANCED_FACE('',(#358),#323,.T.);
#360=CARTESIAN_POINT('',(1.679289321881345,-1.1,1.029289321881345));
#361=CARTESIAN_POINT('',(1.679289321881345,1.1,1.029289321881345));
#362=CARTESIAN_POINT('',(1.75,-1.1,0.95857864376269));
#363=CARTESIAN_POINT('',(1.75,1.1,0.95857864376269));
#364=CARTESIAN_POINT('',(1.820710678118655,-1.1,1.029289321881345));
#365=CARTESIAN_POINT('',(1.820710678118655,1.1,1.029289321881345));
#366=CARTESIAN_POINT('',(1.89142135623731,-1.1,1.1));
#367=CARTESIAN_POINT('',(1.89142135623731,1.1,1.1));
#368=CARTESIAN_POINT('',(1.820710678118655,-1.1,1.170710678118655));
#369=CARTESIAN_POINT('',(1.820710678118655,1.1,1.170710678118655));
#370=CARTESIAN_POINT('',(1.75,-1.1,1.24142135623731));
#371=CARTESIAN_POINT('',(1.75,1.1,1.24142135623731));
#372=CARTESIAN_POINT('',(1.679289321881345,-1.1,1.170710678118655));
#373=CARTESIAN_POINT('',(1.679289321881345,1.1,1.170710678118655));
#374=CARTESIAN_POINT('',(1.60857864376269,-1.1,1.1));
#375=CARTESIAN_POINT('',(1.608578643762691,1.1,1.1));
#376=CARTESIAN_POINT('',(1.679289321881345,-1.1,1.029289321881345));
#377=CARTESIAN_POINT('',(1.679289321881345,1.1,1.029289321881345));
#385=(BOUNDED_SURFACE()B_SPLINE_SURFACE(1,2,((#360,#362,#364,#366,#368,#370,#372,#374,#376),(#361,#363,#365,#367,#369,#371,#373,#375,#377)),.UNSPECIFIED.,.F.,.T.,.U.)B_SPLINE_SURFACE_WITH_KNOTS((2,2),(3,2,2,2,3),(-5.5,16.5),(0.0,0.15707963267949,0.314159265358979,0.471238898038469,0.628318530717959),.UNSPECIFIED.)GEOMETRIC_REPRESENTATION_ITEM()RATIONAL_B_SPLINE_SURFACE(((1.0,0.707106781186548,1.0,0.707106781186548,1.0,0.707106781186548,1.0,0.707106781186548,1.0),(1.0,0.707106781186548,1.0,0.707106781186548,1.0,0.707106781186548,1.0,0.707106781186548,1.0)))REPRESENTATION_ITEM('')SURFACE());
#386=CARTESIAN_POINT('',(1.75,1.1,1.2));
#387=VERTEX_POINT('',#386);
#388=CARTESIAN_POINT('',(1.75,1.1,1.1));
#389=DIRECTION('',(0.0,1.0,0.0));
#390=DIRECTION('',(0.707106781186547,0.0,0.707106781186547));
#391=AXIS2_PLACEMENT_3D('',#388,#389,#390);
#392=CIRCLE('',#391,0.1);
#393=EDGE_CURVE('',#387,#295,#392,.T.);
#394=ORIENTED_EDGE('',*,*,#393,.F.);
#395=CARTESIAN_POINT('',(1.75,-1.1,1.2));
#396=DIRECTION('',(0.0,1.0,0.0));
#397=VECTOR('',#396,2.2);
#398=LINE('',#395,#397);
#399=EDGE_CURVE('',#327,#387,#398,.T.);
#400=ORIENTED_EDGE('',*,*,#399,.F.);
#401=ORIENTED_EDGE('',*,*,#333,.F.);
#402=ORIENTED_EDGE('',*,*,#308,.F.);
#403=EDGE_LOOP('',(#394,#400,#401,#402));
#404=FACE_OUTER_BOUND('',#403,.T.);
#405=ADVANCED_FACE('',(#404),#385,.T.);
#406=CARTESIAN_POINT('',(1.75,1.1,1.2));
#407=CARTESIAN_POINT('',(1.7,1.1,1.2));
#408=CARTESIAN_POINT('',(1.75,-1.1,1.2));
#409=CARTESIAN_POINT('',(1.7,-1.1,1.2));
#410=B_SPLINE_SURFACE_WITH_KNOTS('',1,1,((#406,#408),(#407,#409)),.UNSPECIFIED.,.F.,.F.,.U.,(2,2),(2,2),(0.0,0.05),(0.0,2.2),.UNSPECIFIED.);
#411=ORIENTED_EDGE('',*,*,#399,.T.);
#412=CARTESIAN_POINT('',(1.7,1.1,1.2));
#413=VERTEX_POINT('',#412);
#414=CARTESIAN_POINT('',(1.75,1.1,1.2));
#415=DIRECTION('',(-1.0,0.0,0.0));
#416=VECTOR('',#415,0.05);
#417=LINE('',#414,#416);
#418=EDGE_CURVE('',#387,#413,#417,.T.);
#419=ORIENTED_EDGE('',*,*,#418,.T.);
#420=CARTESIAN_POINT('',(1.7,1.1,1.2));
#421=DIRECTION('',(0.0,-1.0,0.0));
#422=VECTOR('',#421,2.2);
#423=LINE('',#420,#422);
#424=EDGE_CURVE('',#413,#336,#423,.T.);
#425=ORIENTED_EDGE('',*,*,#424,.T.);
#426=ORIENTED_EDGE('',*,*,#341,.T.);
#427=EDGE_LOOP('',(#411,#419,#425,#426));
#428=FACE_OUTER_BOUND('',#427,.T.);
#429=ADVANCED_FACE('',(#428),#410,.T.);
#430=CARTESIAN_POINT('',(1.7,1.1,-6.938894E-018));
#431=CARTESIAN_POINT('',(1.7,1.1,1.2));
#432=CARTESIAN_POINT('',(1.85,1.1,-6.938894E-018));
#433=CARTESIAN_POINT('',(1.850000000000001,1.1,1.2));
#434=B_SPLINE_SURFACE_WITH_KNOTS('',1,1,((#430,#432),(#431,#433)),.UNSPECIFIED.,.F.,.F.,.U.,(2,2),(2,2),(0.0,1.2),(0.0,0.15),.UNSPECIFIED.);
#435=ORIENTED_EDGE('',*,*,#260,.T.);
#436=CARTESIAN_POINT('',(1.7,1.1,0.0));
#437=VERTEX_POINT('',#436);
#438=CARTESIAN_POINT('',(1.75,1.1,0.0));
#439=DIRECTION('',(-1.0,0.0,0.0));
#440=VECTOR('',#439,0.05);
#441=LINE('',#438,#440);
#442=EDGE_CURVE('',#254,#437,#441,.T.);
#443=ORIENTED_EDGE('',*,*,#442,.T.);
#444=CARTESIAN_POINT('',(1.7,1.1,0.0));
#445=DIRECTION('',(0.0,0.0,1.0));
#446=VECTOR('',#445,1.2);
#447=LINE('',#444,#446);
#448=EDGE_CURVE('',#437,#413,#447,.T.);
#449=ORIENTED_EDGE('',*,*,#448,.T.);
#450=ORIENTED_EDGE('',*,*,#418,.F.);
#451=ORIENTED_EDGE('',*,*,#393,.T.);
#452=ORIENTED_EDGE('',*,*,#300,.F.);
#453=EDGE_LOOP('',(#435,#443,#449,#450,#451,#452));
#454=FACE_OUTER_BOUND('',#453,.T.);
#455=ADVANCED_FACE('',(#454),#434,.T.);
#456=CARTESIAN_POINT('',(1.7,1.1,1.2));
#457=CARTESIAN_POINT('',(1.7,1.1,0.0));
#458=CARTESIAN_POINT('',(1.7,-1.1,1.2));
#459=CARTESIAN_POINT('',(1.7,-1.1,0.0));
#460=B_SPLINE_SURFACE_WITH_KNOTS('',1,1,((#456,#458),(#457,#459)),.UNSPECIFIED.,.F.,.F.,.U.,(2,2),(2,2),(0.0,1.2),(0.0,2.2),.UNSPECIFIED.);
#461=ORIENTED_EDGE('',*,*,#424,.F.);
#462=ORIENTED_EDGE('',*,*,#448,.F.);
#463=CARTESIAN_POINT('',(1.7,1.1,0.0));
#464=DIRECTION('',(0.0,-1.0,0.0));
#465=VECTOR('',#464,2.2);
#466=LINE('',#463,#465);
#467=EDGE_CURVE('',#437,#344,#466,.T.);
#468=ORIENTED_EDGE('',*,*,#467,.T.);
#469=ORIENTED_EDGE('',*,*,#349,.T.);
#470=EDGE_LOOP('',(#461,#462,#468,#469));
#471=FACE_OUTER_BOUND('',#470,.T.);
#472=ADVANCED_FACE('',(#471),#460,.T.);
#473=CARTESIAN_POINT('',(1.75,1.1,0.0));
#474=CARTESIAN_POINT('',(1.7,1.1,0.0));
#475=CARTESIAN_POINT('',(1.75,-1.1,0.0));
#476=CARTESIAN_POINT('',(1.7,-1.1,0.0));
#477=B_SPLINE_SURFACE_WITH_KNOTS('',1,1,((#473,#475),(#474,#476)),.UNSPECIFIED.,.F.,.F.,.U.,(2,2),(2,2),(0.0,0.05),(0.0,2.2),.UNSPECIFIED.);
#478=ORIENTED_EDGE('',*,*,#283,.T.);
#479=ORIENTED_EDGE('',*,*,#355,.F.);
#480=ORIENTED_EDGE('',*,*,#467,.F.);
#481=ORIENTED_EDGE('',*,*,#442,.F.);
#482=EDGE_LOOP('',(#478,#479,#480,#481));
#483=FACE_OUTER_BOUND('',#482,.T.);
#484=ADVANCED_FACE('',(#483),#477,.F.);
#485=CLOSED_SHELL('',(#287,#318,#359,#405,#429,#455,#472,#484));
#486=MANIFOLD_SOLID_BREP('687',#485);
#487=COLOUR_RGB('252',0.598,0.598,0.598);
#488=SURFACE_STYLE_USAGE(.BOTH.,#489);
#489=SURFACE_SIDE_STYLE('NONE',(#490));
#490=SURFACE_STYLE_FILL_AREA(#491);
#491=FILL_AREA_STYLE('NONE',(#492));
#492=FILL_AREA_STYLE_COLOUR('NONE',#487);
#493=PRESENTATION_STYLE_ASSIGNMENT((#488));
#494=STYLED_ITEM('NONE',(#493),#486);
#495=CARTESIAN_POINT('',(1.05,-1.1,0.15));
#496=CARTESIAN_POINT('',(1.05,-1.1,0.0));
#497=CARTESIAN_POINT('',(1.7,-1.1,0.15));
#498=CARTESIAN_POINT('',(1.7,-1.1,0.0));
#499=B_SPLINE_SURFACE_WITH_KNOTS('',1,1,((#495,#497),(#496,#498)),.UNSPECIFIED.,.F.,.F.,.U.,(2,2),(2,2),(0.0,0.15),(0.0,0.65),.UNSPECIFIED.);
#500=CARTESIAN_POINT('',(1.05,-1.1,0.15));
#501=VERTEX_POINT('',#500);
#502=CARTESIAN_POINT('',(1.7,-1.1,0.15));
#503=VERTEX_POINT('',#502);
#504=CARTESIAN_POINT('',(1.05,-1.1,0.15));
#505=DIRECTION('',(1.0,0.0,0.0));
#506=VECTOR('',#505,0.65);
#507=LINE('',#504,#506);
#508=EDGE_CURVE('',#501,#503,#507,.T.);
#509=ORIENTED_EDGE('',*,*,#508,.F.);
#510=CARTESIAN_POINT('',(1.05,-1.1,0.0));
#511=VERTEX_POINT('',#510);
#512=CARTESIAN_POINT('',(1.05,-1.1,0.0));
#513=DIRECTION('',(0.0,0.0,1.0));
#514=VECTOR('',#513,0.15);
#515=LINE('',#512,#514);
#516=EDGE_CURVE('',#511,#501,#515,.T.);
#517=ORIENTED_EDGE('',*,*,#516,.F.);
#518=CARTESIAN_POINT('',(1.7,-1.1,0.0));
#519=VERTEX_POINT('',#518);
#520=CARTESIAN_POINT('',(1.7,-1.1,0.0));
#521=DIRECTION('',(-1.0,0.0,0.0));
#522=VECTOR('',#521,0.65);
#523=LINE('',#520,#522);
#524=EDGE_CURVE('',#519,#511,#523,.T.);
#525=ORIENTED_EDGE('',*,*,#524,.F.);
#526=CARTESIAN_POINT('',(1.7,-1.1,0.0));
#527=DIRECTION('',(0.0,0.0,1.0));
#528=VECTOR('',#527,0.15);
#529=LINE('',#526,#528);
#530=EDGE_CURVE('',#519,#503,#529,.T.);
#531=ORIENTED_EDGE('',*,*,#530,.T.);
#532=EDGE_LOOP('',(#509,#517,#525,#531));
#533=FACE_OUTER_BOUND('',#532,.T.);
#534=ADVANCED_FACE('',(#533),#499,.T.);
#535=CARTESIAN_POINT('',(1.7,1.1,0.0));
#536=CARTESIAN_POINT('',(1.7,1.1,0.15));
#537=CARTESIAN_POINT('',(1.7,-1.1,0.0));
#538=CARTESIAN_POINT('',(1.7,-1.1,0.15));
#539=B_SPLINE_SURFACE_WITH_KNOTS('',1,1,((#535,#537),(#536,#538)),.UNSPECIFIED.,.F.,.F.,.U.,(2,2),(2,2),(0.0,0.15),(0.0,2.2),.UNSPECIFIED.);
#540=CARTESIAN_POINT('',(1.7,1.1,0.15));
#541=VERTEX_POINT('',#540);
#542=CARTESIAN_POINT('',(1.7,-1.1,0.15));
#543=DIRECTION('',(0.0,1.0,0.0));
#544=VECTOR('',#543,2.2);
#545=LINE('',#542,#544);
#546=EDGE_CURVE('',#503,#541,#545,.T.);
#547=ORIENTED_EDGE('',*,*,#546,.F.);
#548=ORIENTED_EDGE('',*,*,#530,.F.);
#549=CARTESIAN_POINT('',(1.7,1.1,0.0));
#550=VERTEX_POINT('',#549);
#551=CARTESIAN_POINT('',(1.7,1.1,0.0));
#552=DIRECTION('',(0.0,-1.0,0.0));
#553=VECTOR('',#552,2.2);
#554=LINE('',#551,#553);
#555=EDGE_CURVE('',#550,#519,#554,.T.);
#556=ORIENTED_EDGE('',*,*,#555,.F.);
#557=CARTESIAN_POINT('',(1.7,1.1,0.0));
#558=DIRECTION('',(0.0,0.0,1.0));
#559=VECTOR('',#558,0.15);
#560=LINE('',#557,#559);
#561=EDGE_CURVE('',#550,#541,#560,.T.);
#562=ORIENTED_EDGE('',*,*,#561,.T.);
#563=EDGE_LOOP('',(#547,#548,#556,#562));
#564=FACE_OUTER_BOUND('',#563,.T.);
#565=ADVANCED_FACE('',(#564),#539,.T.);
#566=CARTESIAN_POINT('',(1.05,1.1,0.0));
#567=CARTESIAN_POINT('',(1.05,1.1,0.15));
#568=CARTESIAN_POINT('',(1.7,1.1,0.0));
#569=CARTESIAN_POINT('',(1.7,1.1,0.15));
#570=B_SPLINE_SURFACE_WITH_KNOTS('',1,1,((#566,#568),(#567,#569)),.UNSPECIFIED.,.F.,.F.,.U.,(2,2),(2,2),(0.0,0.15),(0.0,0.65),.UNSPECIFIED.);
#571=CARTESIAN_POINT('',(1.05,1.1,0.15));
#572=VERTEX_POINT('',#571);
#573=CARTESIAN_POINT('',(1.7,1.1,0.15));
#574=DIRECTION('',(-1.0,0.0,0.0));
#575=VECTOR('',#574,0.65);
#576=LINE('',#573,#575);
#577=EDGE_CURVE('',#541,#572,#576,.T.);
#578=ORIENTED_EDGE('',*,*,#577,.F.);
#579=ORIENTED_EDGE('',*,*,#561,.F.);
#580=CARTESIAN_POINT('',(1.05,1.1,0.0));
#581=VERTEX_POINT('',#580);
#582=CARTESIAN_POINT('',(1.05,1.1,0.0));
#583=DIRECTION('',(1.0,0.0,0.0));
#584=VECTOR('',#583,0.65);
#585=LINE('',#582,#584);
#586=EDGE_CURVE('',#581,#550,#585,.T.);
#587=ORIENTED_EDGE('',*,*,#586,.F.);
#588=CARTESIAN_POINT('',(1.05,1.1,0.0));
#589=DIRECTION('',(0.0,0.0,1.0));
#590=VECTOR('',#589,0.15);
#591=LINE('',#588,#590);
#592=EDGE_CURVE('',#581,#572,#591,.T.);
#593=ORIENTED_EDGE('',*,*,#592,.T.);
#594=EDGE_LOOP('',(#578,#579,#587,#593));
#595=FACE_OUTER_BOUND('',#594,.T.);
#596=ADVANCED_FACE('',(#595),#570,.T.);
#597=CARTESIAN_POINT('',(1.05,1.1,0.15));
#598=CARTESIAN_POINT('',(1.05,1.1,0.0));
#599=CARTESIAN_POINT('',(1.05,-1.1,0.15));
#600=CARTESIAN_POINT('',(1.05,-1.1,0.0));
#601=B_SPLINE_SURFACE_WITH_KNOTS('',1,1,((#597,#599),(#598,#600)),.UNSPECIFIED.,.F.,.F.,.U.,(2,2),(2,2),(0.0,0.15),(0.0,2.2),.UNSPECIFIED.);
#602=CARTESIAN_POINT('',(1.05,1.1,0.15));
#603=DIRECTION('',(0.0,-1.0,0.0));
#604=VECTOR('',#603,2.2);
#605=LINE('',#602,#604);
#606=EDGE_CURVE('',#572,#501,#605,.T.);
#607=ORIENTED_EDGE('',*,*,#606,.F.);
#608=ORIENTED_EDGE('',*,*,#592,.F.);
#609=CARTESIAN_POINT('',(1.05,-1.1,0.0));
#610=DIRECTION('',(0.0,1.0,0.0));
#611=VECTOR('',#610,2.2);
#612=LINE('',#609,#611);
#613=EDGE_CURVE('',#511,#581,#612,.T.);
#614=ORIENTED_EDGE('',*,*,#613,.F.);
#615=ORIENTED_EDGE('',*,*,#516,.T.);
#616=EDGE_LOOP('',(#607,#608,#614,#615));
#617=FACE_OUTER_BOUND('',#616,.T.);
#618=ADVANCED_FACE('',(#617),#601,.T.);
#619=CARTESIAN_POINT('',(1.7,1.1,0.15));
#620=CARTESIAN_POINT('',(1.05,1.1,0.15));
#621=CARTESIAN_POINT('',(1.7,-1.1,0.15));
#622=CARTESIAN_POINT('',(1.05,-1.1,0.15));
#623=B_SPLINE_SURFACE_WITH_KNOTS('',1,1,((#619,#621),(#620,#622)),.UNSPECIFIED.,.F.,.F.,.U.,(2,2),(2,2),(0.0,0.65),(0.0,2.2),.UNSPECIFIED.);
#624=ORIENTED_EDGE('',*,*,#508,.T.);
#625=ORIENTED_EDGE('',*,*,#546,.T.);
#626=ORIENTED_EDGE('',*,*,#577,.T.);
#627=ORIENTED_EDGE('',*,*,#606,.T.);
#628=EDGE_LOOP('',(#624,#625,#626,#627));
#629=FACE_OUTER_BOUND('',#628,.T.);
#630=ADVANCED_FACE('',(#629),#623,.T.);
#631=CARTESIAN_POINT('',(1.7,1.1,0.0));
#632=CARTESIAN_POINT('',(1.05,1.1,0.0));
#633=CARTESIAN_POINT('',(1.7,-1.1,0.0));
#634=CARTESIAN_POINT('',(1.05,-1.1,0.0));
#635=B_SPLINE_SURFACE_WITH_KNOTS('',1,1,((#631,#633),(#632,#634)),.UNSPECIFIED.,.F.,.F.,.U.,(2,2),(2,2),(0.0,0.65),(0.0,2.2),.UNSPECIFIED.);
#636=ORIENTED_EDGE('',*,*,#613,.T.);
#637=ORIENTED_EDGE('',*,*,#586,.T.);
#638=ORIENTED_EDGE('',*,*,#555,.T.);
#639=ORIENTED_EDGE('',*,*,#524,.T.);
#640=EDGE_LOOP('',(#636,#637,#638,#639));
#641=FACE_OUTER_BOUND('',#640,.T.);
#642=ADVANCED_FACE('',(#641),#635,.F.);
#643=CLOSED_SHELL('',(#534,#565,#596,#618,#630,#642));
#644=MANIFOLD_SOLID_BREP('686',#643);
#645=STYLED_ITEM('NONE',(#493),#644);
#646=CARTESIAN_POINT('',(-1.75,-0.55,0.1));
#647=DIRECTION('',(-1.009294E-016,1.0,0.0));
#648=DIRECTION('',(-0.707106781186548,0.0,-0.707106781186547));
#649=AXIS2_PLACEMENT_3D('',#646,#647,#648);
#650=CYLINDRICAL_SURFACE('',#649,0.1);
#651=CARTESIAN_POINT('',(-1.85,1.1,0.1));
#652=VERTEX_POINT('',#651);
#653=CARTESIAN_POINT('',(-1.75,1.1,0.0));
#654=VERTEX_POINT('',#653);
#655=CARTESIAN_POINT('',(-1.75,1.1,0.1));
#656=DIRECTION('',(0.0,-1.0,0.0));
#657=DIRECTION('',(-0.707106781186548,0.0,-0.707106781186547));
#658=AXIS2_PLACEMENT_3D('',#655,#656,#657);
#659=CIRCLE('',#658,0.1);
#660=EDGE_CURVE('',#652,#654,#659,.T.);
#661=ORIENTED_EDGE('',*,*,#660,.T.);
#662=CARTESIAN_POINT('',(-1.75,-1.1,0.0));
#663=VERTEX_POINT('',#662);
#664=CARTESIAN_POINT('',(-1.75,1.1,0.0));
#665=DIRECTION('',(0.0,-1.0,0.0));
#666=VECTOR('',#665,2.2);
#667=LINE('',#664,#666);
#668=EDGE_CURVE('',#654,#663,#667,.T.);
#669=ORIENTED_EDGE('',*,*,#668,.T.);
#670=CARTESIAN_POINT('',(-1.85,-1.1,0.1));
#671=VERTEX_POINT('',#670);
#672=CARTESIAN_POINT('',(-1.75,-1.1,0.1));
#673=DIRECTION('',(0.0,1.0,0.0));
#674=DIRECTION('',(-0.707106781186548,0.0,-0.707106781186547));
#675=AXIS2_PLACEMENT_3D('',#672,#673,#674);
#676=CIRCLE('',#675,0.1);
#677=EDGE_CURVE('',#663,#671,#676,.T.);
#678=ORIENTED_EDGE('',*,*,#677,.T.);
#679=CARTESIAN_POINT('',(-1.85,-1.1,0.1));
#680=DIRECTION('',(0.0,1.0,0.0));
#681=VECTOR('',#680,2.2);
#682=LINE('',#679,#681);
#683=EDGE_CURVE('',#671,#652,#682,.T.);
#684=ORIENTED_EDGE('',*,*,#683,.T.);
#685=EDGE_LOOP('',(#661,#669,#678,#684));
#686=FACE_OUTER_BOUND('',#685,.T.);
#687=ADVANCED_FACE('',(#686),#650,.T.);
#688=CARTESIAN_POINT('',(-1.85,-1.1,0.0));
#689=DIRECTION('',(-1.0,0.0,0.0));
#690=DIRECTION('',(0.0,0.0,1.0));
#691=AXIS2_PLACEMENT_3D('',#688,#689,#690);
#692=PLANE('',#691);
#693=ORIENTED_EDGE('',*,*,#683,.F.);
#694=CARTESIAN_POINT('',(-1.85,-1.1,1.1));
#695=VERTEX_POINT('',#694);
#696=CARTESIAN_POINT('',(-1.85,-1.1,0.1));
#697=DIRECTION('',(0.0,0.0,1.0));
#698=VECTOR('',#697,1.0);
#699=LINE('',#696,#698);
#700=EDGE_CURVE('',#671,#695,#699,.T.);
#701=ORIENTED_EDGE('',*,*,#700,.T.);
#702=CARTESIAN_POINT('',(-1.85,1.1,1.1));
#703=VERTEX_POINT('',#702);
#704=CARTESIAN_POINT('',(-1.85,1.1,1.1));
#705=DIRECTION('',(0.0,-1.0,0.0));
#706=VECTOR('',#705,2.2);
#707=LINE('',#704,#706);
#708=EDGE_CURVE('',#703,#695,#707,.T.);
#709=ORIENTED_EDGE('',*,*,#708,.F.);
#710=CARTESIAN_POINT('',(-1.85,1.1,0.1));
#711=DIRECTION('',(0.0,0.0,1.0));
#712=VECTOR('',#711,1.0);
#713=LINE('',#710,#712);
#714=EDGE_CURVE('',#652,#703,#713,.T.);
#715=ORIENTED_EDGE('',*,*,#714,.F.);
#716=EDGE_LOOP('',(#693,#701,#709,#715));
#717=FACE_OUTER_BOUND('',#716,.T.);
#718=ADVANCED_FACE('',(#717),#692,.T.);
#719=CARTESIAN_POINT('',(-1.7,-1.1,0.0));
#720=DIRECTION('',(0.0,-1.0,0.0));
#721=DIRECTION('',(0.0,0.0,-1.0));
#722=AXIS2_PLACEMENT_3D('',#719,#720,#721);
#723=PLANE('',#722);
#724=ORIENTED_EDGE('',*,*,#677,.F.);
#725=CARTESIAN_POINT('',(-1.7,-1.1,0.0));
#726=VERTEX_POINT('',#725);
#727=CARTESIAN_POINT('',(-1.7,-1.1,0.0));
#728=DIRECTION('',(-1.0,0.0,0.0));
#729=VECTOR('',#728,0.05);
#730=LINE('',#727,#729);
#731=EDGE_CURVE('',#726,#663,#730,.T.);
#732=ORIENTED_EDGE('',*,*,#731,.F.);
#733=CARTESIAN_POINT('',(-1.7,-1.1,1.2));
#734=VERTEX_POINT('',#733);
#735=CARTESIAN_POINT('',(-1.7,-1.1,0.0));
#736=DIRECTION('',(0.0,0.0,1.0));
#737=VECTOR('',#736,1.2);
#738=LINE('',#735,#737);
#739=EDGE_CURVE('',#726,#734,#738,.T.);
#740=ORIENTED_EDGE('',*,*,#739,.T.);
#741=CARTESIAN_POINT('',(-1.75,-1.1,1.2));
#742=VERTEX_POINT('',#741);
#743=CARTESIAN_POINT('',(-1.7,-1.1,1.2));
#744=DIRECTION('',(-1.0,0.0,0.0));
#745=VECTOR('',#744,0.05);
#746=LINE('',#743,#745);
#747=EDGE_CURVE('',#734,#742,#746,.T.);
#748=ORIENTED_EDGE('',*,*,#747,.T.);
#749=CARTESIAN_POINT('',(-1.75,-1.1,1.1));
#750=DIRECTION('',(0.0,1.0,0.0));
#751=DIRECTION('',(-0.707106781186547,0.0,0.707106781186547));
#752=AXIS2_PLACEMENT_3D('',#749,#750,#751);
#753=CIRCLE('',#752,0.1);
#754=EDGE_CURVE('',#695,#742,#753,.T.);
#755=ORIENTED_EDGE('',*,*,#754,.F.);
#756=ORIENTED_EDGE('',*,*,#700,.F.);
#757=EDGE_LOOP('',(#724,#732,#740,#748,#755,#756));
#758=FACE_OUTER_BOUND('',#757,.T.);
#759=ADVANCED_FACE('',(#758),#723,.T.);
#760=CARTESIAN_POINT('',(-1.75,-0.55,1.1));
#761=DIRECTION('',(-1.009294E-016,1.0,0.0));
#762=DIRECTION('',(-0.707106781186547,0.0,0.707106781186547));
#763=AXIS2_PLACEMENT_3D('',#760,#761,#762);
#764=CYLINDRICAL_SURFACE('',#763,0.1);
#765=CARTESIAN_POINT('',(-1.75,1.1,1.2));
#766=VERTEX_POINT('',#765);
#767=CARTESIAN_POINT('',(-1.75,1.1,1.1));
#768=DIRECTION('',(0.0,-1.0,0.0));
#769=DIRECTION('',(-0.707106781186547,0.0,0.707106781186547));
#770=AXIS2_PLACEMENT_3D('',#767,#768,#769);
#771=CIRCLE('',#770,0.1);
#772=EDGE_CURVE('',#766,#703,#771,.T.);
#773=ORIENTED_EDGE('',*,*,#772,.T.);
#774=ORIENTED_EDGE('',*,*,#708,.T.);
#775=ORIENTED_EDGE('',*,*,#754,.T.);
#776=CARTESIAN_POINT('',(-1.75,-1.1,1.2));
#777=DIRECTION('',(0.0,1.0,0.0));
#778=VECTOR('',#777,2.2);
#779=LINE('',#776,#778);
#780=EDGE_CURVE('',#742,#766,#779,.T.);
#781=ORIENTED_EDGE('',*,*,#780,.T.);
#782=EDGE_LOOP('',(#773,#774,#775,#781));
#783=FACE_OUTER_BOUND('',#782,.T.);
#784=ADVANCED_FACE('',(#783),#764,.T.);
#785=CARTESIAN_POINT('',(-1.775,4.857226E-017,1.2));
#786=DIRECTION('',(0.0,0.0,1.0));
#787=DIRECTION('',(1.0,0.0,0.0));
#788=AXIS2_PLACEMENT_3D('',#785,#786,#787);
#789=PLANE('',#788);
#790=ORIENTED_EDGE('',*,*,#780,.F.);
#791=ORIENTED_EDGE('',*,*,#747,.F.);
#792=CARTESIAN_POINT('',(-1.7,1.1,1.2));
#793=VERTEX_POINT('',#792);
#794=CARTESIAN_POINT('',(-1.7,1.1,1.2));
#795=DIRECTION('',(0.0,-1.0,0.0));
#796=VECTOR('',#795,2.2);
#797=LINE('',#794,#796);
#798=EDGE_CURVE('',#793,#734,#797,.T.);
#799=ORIENTED_EDGE('',*,*,#798,.F.);
#800=CARTESIAN_POINT('',(-1.75,1.1,1.2));
#801=DIRECTION('',(1.0,0.0,0.0));
#802=VECTOR('',#801,0.05);
#803=LINE('',#800,#802);
#804=EDGE_CURVE('',#766,#793,#803,.T.);
#805=ORIENTED_EDGE('',*,*,#804,.F.);
#806=EDGE_LOOP('',(#790,#791,#799,#805));
#807=FACE_OUTER_BOUND('',#806,.T.);
#808=ADVANCED_FACE('',(#807),#789,.T.);
#809=CARTESIAN_POINT('',(-1.85,1.1,0.0));
#810=DIRECTION('',(0.0,1.0,0.0));
#811=DIRECTION('',(0.0,0.0,1.0));
#812=AXIS2_PLACEMENT_3D('',#809,#810,#811);
#813=PLANE('',#812);
#814=ORIENTED_EDGE('',*,*,#660,.F.);
#815=ORIENTED_EDGE('',*,*,#714,.T.);
#816=ORIENTED_EDGE('',*,*,#772,.F.);
#817=ORIENTED_EDGE('',*,*,#804,.T.);
#818=CARTESIAN_POINT('',(-1.7,1.1,0.0));
#819=VERTEX_POINT('',#818);
#820=CARTESIAN_POINT('',(-1.7,1.1,0.0));
#821=DIRECTION('',(0.0,0.0,1.0));
#822=VECTOR('',#821,1.2);
#823=LINE('',#820,#822);
#824=EDGE_CURVE('',#819,#793,#823,.T.);
#825=ORIENTED_EDGE('',*,*,#824,.F.);
#826=CARTESIAN_POINT('',(-1.75,1.1,0.0));
#827=DIRECTION('',(1.0,0.0,0.0));
#828=VECTOR('',#827,0.05);
#829=LINE('',#826,#828);
#830=EDGE_CURVE('',#654,#819,#829,.T.);
#831=ORIENTED_EDGE('',*,*,#830,.F.);
#832=EDGE_LOOP('',(#814,#815,#816,#817,#825,#831));
#833=FACE_OUTER_BOUND('',#832,.T.);
#834=ADVANCED_FACE('',(#833),#813,.T.);
#835=CARTESIAN_POINT('',(-1.7,1.1,0.0));
#836=DIRECTION('',(1.0,0.0,0.0));
#837=DIRECTION('',(0.0,0.0,-1.0));
#838=AXIS2_PLACEMENT_3D('',#835,#836,#837);
#839=PLANE('',#838);
#840=ORIENTED_EDGE('',*,*,#798,.T.);
#841=ORIENTED_EDGE('',*,*,#739,.F.);
#842=CARTESIAN_POINT('',(-1.7,1.1,0.0));
#843=DIRECTION('',(0.0,-1.0,0.0));
#844=VECTOR('',#843,2.2);
#845=LINE('',#842,#844);
#846=EDGE_CURVE('',#819,#726,#845,.T.);
#847=ORIENTED_EDGE('',*,*,#846,.F.);
#848=ORIENTED_EDGE('',*,*,#824,.T.);
#849=EDGE_LOOP('',(#840,#841,#847,#848));
#850=FACE_OUTER_BOUND('',#849,.T.);
#851=ADVANCED_FACE('',(#850),#839,.T.);
#852=CARTESIAN_POINT('',(-1.775,4.857226E-017,0.0));
#853=DIRECTION('',(0.0,0.0,1.0));
#854=DIRECTION('',(1.0,0.0,0.0));
#855=AXIS2_PLACEMENT_3D('',#852,#853,#854);
#856=PLANE('',#855);
#857=ORIENTED_EDGE('',*,*,#668,.F.);
#858=ORIENTED_EDGE('',*,*,#830,.T.);
#859=ORIENTED_EDGE('',*,*,#846,.T.);
#860=ORIENTED_EDGE('',*,*,#731,.T.);
#861=EDGE_LOOP('',(#857,#858,#859,#860));
#862=FACE_OUTER_BOUND('',#861,.T.);
#863=ADVANCED_FACE('',(#862),#856,.F.);
#864=CLOSED_SHELL('',(#687,#718,#759,#784,#808,#834,#851,#863));
#865=MANIFOLD_SOLID_BREP('685',#864);
#866=STYLED_ITEM('NONE',(#493),#865);
#867=CARTESIAN_POINT('',(-1.05,-1.1,0.0));
#868=DIRECTION('',(0.0,-1.0,0.0));
#869=DIRECTION('',(0.0,0.0,-1.0));
#870=AXIS2_PLACEMENT_3D('',#867,#868,#869);
#871=PLANE('',#870);
#872=CARTESIAN_POINT('',(-1.05,-1.1,0.15));
#873=VERTEX_POINT('',#872);
#874=CARTESIAN_POINT('',(-1.7,-1.1,0.15));
#875=VERTEX_POINT('',#874);
#876=CARTESIAN_POINT('',(-1.05,-1.1,0.15));
#877=DIRECTION('',(-1.0,0.0,0.0));
#878=VECTOR('',#877,0.65);
#879=LINE('',#876,#878);
#880=EDGE_CURVE('',#873,#875,#879,.T.);
#881=ORIENTED_EDGE('',*,*,#880,.T.);
#882=CARTESIAN_POINT('',(-1.7,-1.1,0.0));
#883=VERTEX_POINT('',#882);
#884=CARTESIAN_POINT('',(-1.7,-1.1,0.0));
#885=DIRECTION('',(0.0,0.0,1.0));
#886=VECTOR('',#885,0.15);
#887=LINE('',#884,#886);
#888=EDGE_CURVE('',#883,#875,#887,.T.);
#889=ORIENTED_EDGE('',*,*,#888,.F.);
#890=CARTESIAN_POINT('',(-1.05,-1.1,0.0));
#891=VERTEX_POINT('',#890);
#892=CARTESIAN_POINT('',(-1.7,-1.1,0.0));
#893=DIRECTION('',(1.0,0.0,0.0));
#894=VECTOR('',#893,0.65);
#895=LINE('',#892,#894);
#896=EDGE_CURVE('',#883,#891,#895,.T.);
#897=ORIENTED_EDGE('',*,*,#896,.T.);
#898=CARTESIAN_POINT('',(-1.05,-1.1,0.0));
#899=DIRECTION('',(0.0,0.0,1.0));
#900=VECTOR('',#899,0.15);
#901=LINE('',#898,#900);
#902=EDGE_CURVE('',#891,#873,#901,.T.);
#903=ORIENTED_EDGE('',*,*,#902,.T.);
#904=EDGE_LOOP('',(#881,#889,#897,#903));
#905=FACE_OUTER_BOUND('',#904,.T.);
#906=ADVANCED_FACE('',(#905),#871,.T.);
#907=CARTESIAN_POINT('',(-1.7,-1.1,0.0));
#908=DIRECTION('',(-1.0,0.0,0.0));
#909=DIRECTION('',(0.0,0.0,1.0));
#910=AXIS2_PLACEMENT_3D('',#907,#908,#909);
#911=PLANE('',#910);
#912=CARTESIAN_POINT('',(-1.7,1.1,0.15));
#913=VERTEX_POINT('',#912);
#914=CARTESIAN_POINT('',(-1.7,-1.1,0.15));
#915=DIRECTION('',(0.0,1.0,0.0));
#916=VECTOR('',#915,2.2);
#917=LINE('',#914,#916);
#918=EDGE_CURVE('',#875,#913,#917,.T.);
#919=ORIENTED_EDGE('',*,*,#918,.T.);
#920=CARTESIAN_POINT('',(-1.7,1.1,0.0));
#921=VERTEX_POINT('',#920);
#922=CARTESIAN_POINT('',(-1.7,1.1,0.0));
#923=DIRECTION('',(0.0,0.0,1.0));
#924=VECTOR('',#923,0.15);
#925=LINE('',#922,#924);
#926=EDGE_CURVE('',#921,#913,#925,.T.);
#927=ORIENTED_EDGE('',*,*,#926,.F.);
#928=CARTESIAN_POINT('',(-1.7,1.1,0.0));
#929=DIRECTION('',(0.0,-1.0,0.0));
#930=VECTOR('',#929,2.2);
#931=LINE('',#928,#930);
#932=EDGE_CURVE('',#921,#883,#931,.T.);
#933=ORIENTED_EDGE('',*,*,#932,.T.);
#934=ORIENTED_EDGE('',*,*,#888,.T.);
#935=EDGE_LOOP('',(#919,#927,#933,#934));
#936=FACE_OUTER_BOUND('',#935,.T.);
#937=ADVANCED_FACE('',(#936),#911,.T.);
#938=CARTESIAN_POINT('',(-1.7,1.1,0.0));
#939=DIRECTION('',(0.0,1.0,0.0));
#940=DIRECTION('',(0.0,0.0,1.0));
#941=AXIS2_PLACEMENT_3D('',#938,#939,#940);
#942=PLANE('',#941);
#943=CARTESIAN_POINT('',(-1.05,1.1,0.15));
#944=VERTEX_POINT('',#943);
#945=CARTESIAN_POINT('',(-1.7,1.1,0.15));
#946=DIRECTION('',(1.0,0.0,0.0));
#947=VECTOR('',#946,0.65);
#948=LINE('',#945,#947);
#949=EDGE_CURVE('',#913,#944,#948,.T.);
#950=ORIENTED_EDGE('',*,*,#949,.T.);
#951=CARTESIAN_POINT('',(-1.05,1.1,0.0));
#952=VERTEX_POINT('',#951);
#953=CARTESIAN_POINT('',(-1.05,1.1,0.0));
#954=DIRECTION('',(0.0,0.0,1.0));
#955=VECTOR('',#954,0.15);
#956=LINE('',#953,#955);
#957=EDGE_CURVE('',#952,#944,#956,.T.);
#958=ORIENTED_EDGE('',*,*,#957,.F.);
#959=CARTESIAN_POINT('',(-1.05,1.1,0.0));
#960=DIRECTION('',(-1.0,0.0,0.0));
#961=VECTOR('',#960,0.65);
#962=LINE('',#959,#961);
#963=EDGE_CURVE('',#952,#921,#962,.T.);
#964=ORIENTED_EDGE('',*,*,#963,.T.);
#965=ORIENTED_EDGE('',*,*,#926,.T.);
#966=EDGE_LOOP('',(#950,#958,#964,#965));
#967=FACE_OUTER_BOUND('',#966,.T.);
#968=ADVANCED_FACE('',(#967),#942,.T.);
#969=CARTESIAN_POINT('',(-1.05,1.1,0.0));
#970=DIRECTION('',(1.0,0.0,0.0));
#971=DIRECTION('',(0.0,0.0,-1.0));
#972=AXIS2_PLACEMENT_3D('',#969,#970,#971);
#973=PLANE('',#972);
#974=CARTESIAN_POINT('',(-1.05,1.1,0.15));
#975=DIRECTION('',(0.0,-1.0,0.0));
#976=VECTOR('',#975,2.2);
#977=LINE('',#974,#976);
#978=EDGE_CURVE('',#944,#873,#977,.T.);
#979=ORIENTED_EDGE('',*,*,#978,.T.);
#980=ORIENTED_EDGE('',*,*,#902,.F.);
#981=CARTESIAN_POINT('',(-1.05,-1.1,0.0));
#982=DIRECTION('',(0.0,1.0,0.0));
#983=VECTOR('',#982,2.2);
#984=LINE('',#981,#983);
#985=EDGE_CURVE('',#891,#952,#984,.T.);
#986=ORIENTED_EDGE('',*,*,#985,.T.);
#987=ORIENTED_EDGE('',*,*,#957,.T.);
#988=EDGE_LOOP('',(#979,#980,#986,#987));
#989=FACE_OUTER_BOUND('',#988,.T.);
#990=ADVANCED_FACE('',(#989),#973,.T.);
#991=CARTESIAN_POINT('',(-1.375,0.0,0.15));
#992=DIRECTION('',(0.0,0.0,1.0));
#993=DIRECTION('',(1.0,0.0,0.0));
#994=AXIS2_PLACEMENT_3D('',#991,#992,#993);
#995=PLANE('',#994);
#996=ORIENTED_EDGE('',*,*,#880,.F.);
#997=ORIENTED_EDGE('',*,*,#978,.F.);
#998=ORIENTED_EDGE('',*,*,#949,.F.);
#999=ORIENTED_EDGE('',*,*,#918,.F.);
#1000=EDGE_LOOP('',(#996,#997,#998,#999));
#1001=FACE_OUTER_BOUND('',#1000,.T.);
#1002=ADVANCED_FACE('',(#1001),#995,.T.);
#1003=CARTESIAN_POINT('',(-1.375,0.0,0.0));
#1004=DIRECTION('',(0.0,0.0,1.0));
#1005=DIRECTION('',(1.0,0.0,0.0));
#1006=AXIS2_PLACEMENT_3D('',#1003,#1004,#1005);
#1007=PLANE('',#1006);
#1008=ORIENTED_EDGE('',*,*,#985,.F.);
#1009=ORIENTED_EDGE('',*,*,#896,.F.);
#1010=ORIENTED_EDGE('',*,*,#932,.F.);
#1011=ORIENTED_EDGE('',*,*,#963,.F.);
#1012=EDGE_LOOP('',(#1008,#1009,#1010,#1011));
#1013=FACE_OUTER_BOUND('',#1012,.T.);
#1014=ADVANCED_FACE('',(#1013),#1007,.F.);
#1015=CLOSED_SHELL('',(#906,#937,#968,#990,#1002,#1014));
#1016=MANIFOLD_SOLID_BREP('684',#1015);
#1017=STYLED_ITEM('NONE',(#493),#1016);
#1018=CARTESIAN_POINT('',(2.220446E-016,5.551115E-016,1.650000000000001));
#1019=DIRECTION('',(0.0,0.0,1.0));
#1020=DIRECTION('',(-1.0,0.0,0.0));
#1021=AXIS2_PLACEMENT_3D('',#1018,#1019,#1020);
#1022=CONICAL_SURFACE('',#1021,0.95,29.054604099077146);
#1023=CARTESIAN_POINT('',(-0.7,5.551115E-016,1.2));
#1024=VERTEX_POINT('',#1023);
#1025=CARTESIAN_POINT('',(-1.2,5.551115E-016,2.100000000000001));
#1026=VERTEX_POINT('',#1025);
#1027=CARTESIAN_POINT('',(-0.7,5.551115E-016,1.2));
#1028=DIRECTION('',(-0.485642931178632,0.0,0.874157276121538));
#1029=VECTOR('',#1028,1.0295630140987);
#1030=LINE('',#1027,#1029);
#1031=EDGE_CURVE('',#1024,#1026,#1030,.T.);
#1032=ORIENTED_EDGE('',*,*,#1031,.F.);
#1033=CARTESIAN_POINT('',(0.7,6.408340E-016,1.200000000000001));
#1034=VERTEX_POINT('',#1033);
#1035=CARTESIAN_POINT('',(2.220446E-016,5.551115E-016,1.2));
#1036=DIRECTION('',(0.0,0.0,1.0));
#1037=DIRECTION('',(-1.0,0.0,0.0));
#1038=AXIS2_PLACEMENT_3D('',#1035,#1036,#1037);
#1039=CIRCLE('',#1038,0.7);
#1040=EDGE_CURVE('',#1034,#1024,#1039,.T.);
#1041=ORIENTED_EDGE('',*,*,#1040,.F.);
#1042=CARTESIAN_POINT('',(1.2,5.551115E-016,2.100000000000001));
#1043=VERTEX_POINT('',#1042);
#1044=CARTESIAN_POINT('',(0.7,6.408368E-016,1.200000000000001));
#1045=DIRECTION('',(0.485642931178632,5.947411E-017,0.874157276121538));
#1046=VECTOR('',#1045,1.0295630140987);
#1047=LINE('',#1044,#1046);
#1048=EDGE_CURVE('',#1034,#1043,#1047,.T.);
#1049=ORIENTED_EDGE('',*,*,#1048,.T.);
#1050=CARTESIAN_POINT('',(2.220446E-016,5.551115E-016,2.100000000000001));
#1051=DIRECTION('',(0.0,0.0,-1.0));
#1052=DIRECTION('',(-1.0,0.0,0.0));
#1053=AXIS2_PLACEMENT_3D('',#1050,#1051,#1052);
#1054=CIRCLE('',#1053,1.2);
#1055=EDGE_CURVE('',#1026,#1043,#1054,.T.);
#1056=ORIENTED_EDGE('',*,*,#1055,.F.);
#1057=EDGE_LOOP('',(#1032,#1041,#1049,#1056));
#1058=FACE_OUTER_BOUND('',#1057,.T.);
#1059=ADVANCED_FACE('',(#1058),#1022,.F.);
#1060=CARTESIAN_POINT('',(-1.487867965644036,1.287867965644036,1.6));
#1061=DIRECTION('',(0.0,0.0,1.0));
#1062=DIRECTION('',(1.0,0.0,0.0));
#1063=AXIS2_PLACEMENT_3D('',#1060,#1061,#1062);
#1064=PLANE('',#1063);
#1065=CARTESIAN_POINT('',(-1.666666666666667,0.933333333333334,1.6));
#1066=VERTEX_POINT('',#1065);
#1067=CARTESIAN_POINT('',(-1.666666666666667,1.466666666666667,1.6));
#1068=VERTEX_POINT('',#1067);
#1069=CARTESIAN_POINT('',(-1.666666666666667,0.933333333333334,1.6));
#1070=DIRECTION('',(0.0,1.0,0.0));
#1071=VECTOR('',#1070,0.533333333333333);
#1072=LINE('',#1069,#1071);
#1073=EDGE_CURVE('',#1066,#1068,#1072,.T.);
#1074=ORIENTED_EDGE('',*,*,#1073,.F.);
#1075=CARTESIAN_POINT('',(-1.133333333333332,1.466666666666668,1.6));
#1076=VERTEX_POINT('',#1075);
#1077=CARTESIAN_POINT('',(-1.133333333333332,1.466666666666668,1.6));
#1078=DIRECTION('',(-0.707106781186547,-0.707106781186547,0.0));
#1079=VECTOR('',#1078,0.754247233265652);
#1080=LINE('',#1077,#1079);
#1081=EDGE_CURVE('',#1076,#1066,#1080,.T.);
#1082=ORIENTED_EDGE('',*,*,#1081,.F.);
#1083=CARTESIAN_POINT('',(-1.666666666666667,1.466666666666668,1.6));
#1084=DIRECTION('',(1.0,0.0,0.0));
#1085=VECTOR('',#1084,0.533333333333334);
#1086=LINE('',#1083,#1085);
#1087=EDGE_CURVE('',#1068,#1076,#1086,.T.);
#1088=ORIENTED_EDGE('',*,*,#1087,.F.);
#1089=EDGE_LOOP('',(#1074,#1082,#1088));
#1090=FACE_OUTER_BOUND('',#1089,.T.);
#1091=ADVANCED_FACE('',(#1090),#1064,.T.);
#1092=CARTESIAN_POINT('',(-1.1,1.5,1.6));
#1093=DIRECTION('',(0.707106781186548,-0.707106781186548,0.0));
#1094=DIRECTION('',(0.0,0.0,-1.0));
#1095=AXIS2_PLACEMENT_3D('',#1092,#1093,#1094);
#1096=PLANE('',#1095);
#1097=CARTESIAN_POINT('',(-1.625,0.975,2.1));
#1098=VERTEX_POINT('',#1097);
#1099=CARTESIAN_POINT('',(-1.625,0.975000000000001,2.1));
#1100=DIRECTION('',(-0.082760588860237,-0.082760588860237,-0.993127066322841));
#1101=VECTOR('',#1100,0.503460248899774);
#1102=LINE('',#1099,#1101);
#1103=EDGE_CURVE('',#1098,#1066,#1102,.T.);
#1104=ORIENTED_EDGE('',*,*,#1103,.F.);
#1105=CARTESIAN_POINT('',(-1.174999999999999,1.425000000000001,2.1));
#1106=VERTEX_POINT('',#1105);
#1107=CARTESIAN_POINT('',(-1.174999999999999,1.425000000000001,2.1));
#1108=DIRECTION('',(-0.707106781186548,-0.707106781186548,6.978189E-016));
#1109=VECTOR('',#1108,0.636396103067894);
#1110=LINE('',#1107,#1109);
#1111=EDGE_CURVE('',#1106,#1098,#1110,.T.);
#1112=ORIENTED_EDGE('',*,*,#1111,.F.);
#1113=CARTESIAN_POINT('',(-1.133333333333333,1.466666666666668,1.6));
#1114=DIRECTION('',(-0.082760588860236,-0.082760588860236,0.993127066322842));
#1115=VECTOR('',#1114,0.503460248899773);
#1116=LINE('',#1113,#1115);
#1117=EDGE_CURVE('',#1076,#1106,#1116,.T.);
#1118=ORIENTED_EDGE('',*,*,#1117,.F.);
#1119=ORIENTED_EDGE('',*,*,#1081,.T.);
#1120=EDGE_LOOP('',(#1104,#1112,#1118,#1119));
#1121=FACE_OUTER_BOUND('',#1120,.T.);
#1122=ADVANCED_FACE('',(#1121),#1096,.F.);
#1123=CARTESIAN_POINT('',(-1.65,0.750000000000001,1.8));
#1124=DIRECTION('',(-0.99654575824488,3.687960E-017,0.08304547985374));
#1125=DIRECTION('',(0.08304547985374,4.425552E-016,0.99654575824488));
#1126=AXIS2_PLACEMENT_3D('',#1123,#1124,#1125);
#1127=PLANE('',#1126);
#1128=ORIENTED_EDGE('',*,*,#1103,.T.);
#1129=ORIENTED_EDGE('',*,*,#1073,.T.);
#1130=CARTESIAN_POINT('',(-1.7,1.5,1.2));
#1131=VERTEX_POINT('',#1130);
#1132=CARTESIAN_POINT('',(-1.7,1.5,1.2));
#1133=DIRECTION('',(0.082760588860237,-0.082760588860236,0.993127066322842));
#1134=VECTOR('',#1133,0.402768199119819);
#1135=LINE('',#1132,#1134);
#1136=EDGE_CURVE('',#1131,#1068,#1135,.T.);
#1137=ORIENTED_EDGE('',*,*,#1136,.F.);
#1138=CARTESIAN_POINT('',(-1.7,-1.5,1.200000000000001));
#1139=VERTEX_POINT('',#1138);
#1140=CARTESIAN_POINT('',(-1.7,1.5,1.2));
#1141=DIRECTION('',(0.0,-1.0,0.0));
#1142=VECTOR('',#1141,3.0);
#1143=LINE('',#1140,#1142);
#1144=EDGE_CURVE('',#1131,#1139,#1143,.T.);
#1145=ORIENTED_EDGE('',*,*,#1144,.T.);
#1146=CARTESIAN_POINT('',(-1.625,-1.424999999999999,2.100000000000001));
#1147=VERTEX_POINT('',#1146);
#1148=CARTESIAN_POINT('',(-1.625,-1.424999999999999,2.100000000000001));
#1149=DIRECTION('',(-0.082760588860237,-0.082760588860237,-0.993127066322841));
#1150=VECTOR('',#1149,0.906228448019593);
#1151=LINE('',#1148,#1150);
#1152=EDGE_CURVE('',#1147,#1139,#1151,.T.);
#1153=ORIENTED_EDGE('',*,*,#1152,.F.);
#1154=CARTESIAN_POINT('',(-1.625,-1.424999999999999,2.100000000000001));
#1155=DIRECTION('',(0.0,1.0,0.0));
#1156=VECTOR('',#1155,2.4);
#1157=LINE('',#1154,#1156);
#1158=EDGE_CURVE('',#1147,#1098,#1157,.T.);
#1159=ORIENTED_EDGE('',*,*,#1158,.T.);
#1160=EDGE_LOOP('',(#1128,#1129,#1137,#1145,#1153,#1159));
#1161=FACE_OUTER_BOUND('',#1160,.T.);
#1162=ADVANCED_FACE('',(#1161),#1127,.T.);
#1163=CARTESIAN_POINT('',(0.85,1.450000000000001,1.8));
#1164=DIRECTION('',(1.016980E-017,0.99654575824488,0.08304547985374));
#1165=DIRECTION('',(-1.220376E-016,0.08304547985374,-0.99654575824488));
#1166=AXIS2_PLACEMENT_3D('',#1163,#1164,#1165);
#1167=PLANE('',#1166);
#1168=ORIENTED_EDGE('',*,*,#1087,.T.);
#1169=ORIENTED_EDGE('',*,*,#1117,.T.);
#1170=CARTESIAN_POINT('',(1.625,1.425,2.1));
#1171=VERTEX_POINT('',#1170);
#1172=CARTESIAN_POINT('',(-1.174999999999999,1.425000000000001,2.1));
#1173=DIRECTION('',(1.0,0.0,0.0));
#1174=VECTOR('',#1173,2.799999999999999);
#1175=LINE('',#1172,#1174);
#1176=EDGE_CURVE('',#1106,#1171,#1175,.T.);
#1177=ORIENTED_EDGE('',*,*,#1176,.T.);
#1178=CARTESIAN_POINT('',(1.7,1.5,1.2));
#1179=VERTEX_POINT('',#1178);
#1180=CARTESIAN_POINT('',(1.7,1.5,1.2));
#1181=DIRECTION('',(-0.082760588860237,-0.082760588860236,0.993127066322842));
#1182=VECTOR('',#1181,0.906228448019593);
#1183=LINE('',#1180,#1182);
#1184=EDGE_CURVE('',#1179,#1171,#1183,.T.);
#1185=ORIENTED_EDGE('',*,*,#1184,.F.);
#1186=CARTESIAN_POINT('',(1.7,1.5,1.2));
#1187=DIRECTION('',(-1.0,0.0,0.0));
#1188=VECTOR('',#1187,3.4);
#1189=LINE('',#1186,#1188);
#1190=EDGE_CURVE('',#1179,#1131,#1189,.T.);
#1191=ORIENTED_EDGE('',*,*,#1190,.T.);
#1192=ORIENTED_EDGE('',*,*,#1136,.T.);
#1193=EDGE_LOOP('',(#1168,#1169,#1177,#1185,#1191,#1192));
#1194=FACE_OUTER_BOUND('',#1193,.T.);
#1195=ADVANCED_FACE('',(#1194),#1167,.T.);
#1196=CARTESIAN_POINT('',(2.220446E-016,5.551115E-016,1.650000000000001));
#1197=DIRECTION('',(0.0,0.0,1.0));
#1198=DIRECTION('',(-1.0,0.0,0.0));
#1199=AXIS2_PLACEMENT_3D('',#1196,#1197,#1198);
#1200=CONICAL_SURFACE('',#1199,0.95,29.054604099077146);
#1201=ORIENTED_EDGE('',*,*,#1031,.T.);
#1202=CARTESIAN_POINT('',(2.220446E-016,5.551115E-016,2.100000000000001));
#1203=DIRECTION('',(0.0,0.0,-1.0));
#1204=DIRECTION('',(-1.0,0.0,0.0));
#1205=AXIS2_PLACEMENT_3D('',#1202,#1203,#1204);
#1206=CIRCLE('',#1205,1.2);
#1207=EDGE_CURVE('',#1043,#1026,#1206,.T.);
#1208=ORIENTED_EDGE('',*,*,#1207,.F.);
#1209=ORIENTED_EDGE('',*,*,#1048,.F.);
#1210=CARTESIAN_POINT('',(2.220446E-016,5.551115E-016,1.2));
#1211=DIRECTION('',(0.0,0.0,1.0));
#1212=DIRECTION('',(-1.0,0.0,0.0));
#1213=AXIS2_PLACEMENT_3D('',#1210,#1211,#1212);
#1214=CIRCLE('',#1213,0.7);
#1215=EDGE_CURVE('',#1024,#1034,#1214,.T.);
#1216=ORIENTED_EDGE('',*,*,#1215,.F.);
#1217=EDGE_LOOP('',(#1201,#1208,#1209,#1216));
#1218=FACE_OUTER_BOUND('',#1217,.T.);
#1219=ADVANCED_FACE('',(#1218),#1200,.F.);
#1220=CARTESIAN_POINT('',(1.65,-0.749999999999999,1.800000000000001));
#1221=DIRECTION('',(0.99654575824488,3.687960E-017,0.08304547985374));
#1222=DIRECTION('',(0.08304547985374,-4.425552E-016,-0.99654575824488));
#1223=AXIS2_PLACEMENT_3D('',#1220,#1221,#1222);
#1224=PLANE('',#1223);
#1225=CARTESIAN_POINT('',(1.7,-1.5,1.200000000000001));
#1226=VERTEX_POINT('',#1225);
#1227=CARTESIAN_POINT('',(1.7,-1.5,1.200000000000001));
#1228=DIRECTION('',(0.0,1.0,0.0));
#1229=VECTOR('',#1228,3.0);
#1230=LINE('',#1227,#1229);
#1231=EDGE_CURVE('',#1226,#1179,#1230,.T.);
#1232=ORIENTED_EDGE('',*,*,#1231,.T.);
#1233=ORIENTED_EDGE('',*,*,#1184,.T.);
#1234=CARTESIAN_POINT('',(1.625,-1.425,2.100000000000001));
#1235=VERTEX_POINT('',#1234);
#1236=CARTESIAN_POINT('',(1.625,1.425,2.1));
#1237=DIRECTION('',(0.0,-1.0,0.0));
#1238=VECTOR('',#1237,2.85);
#1239=LINE('',#1236,#1238);
#1240=EDGE_CURVE('',#1171,#1235,#1239,.T.);
#1241=ORIENTED_EDGE('',*,*,#1240,.T.);
#1242=CARTESIAN_POINT('',(1.7,-1.5,1.200000000000001));
#1243=DIRECTION('',(-0.082760588860237,0.082760588860237,0.993127066322841));
#1244=VECTOR('',#1243,0.906228448019593);
#1245=LINE('',#1242,#1244);
#1246=EDGE_CURVE('',#1226,#1235,#1245,.T.);
#1247=ORIENTED_EDGE('',*,*,#1246,.F.);
#1248=EDGE_LOOP('',(#1232,#1233,#1241,#1247));
#1249=FACE_OUTER_BOUND('',#1248,.T.);
#1250=ADVANCED_FACE('',(#1249),#1224,.T.);
#1251=CARTESIAN_POINT('',(0.0,8.215650E-016,2.100000000000001));
#1252=DIRECTION('',(0.0,0.0,-1.0));
#1253=DIRECTION('',(-1.0,0.0,0.0));
#1254=AXIS2_PLACEMENT_3D('',#1251,#1252,#1253);
#1255=PLANE('',#1254);
#1256=ORIENTED_EDGE('',*,*,#1111,.T.);
#1257=ORIENTED_EDGE('',*,*,#1158,.F.);
#1258=CARTESIAN_POINT('',(1.625,-1.424999999999999,2.100000000000001));
#1259=DIRECTION('',(-1.0,0.0,0.0));
#1260=VECTOR('',#1259,3.25);
#1261=LINE('',#1258,#1260);
#1262=EDGE_CURVE('',#1235,#1147,#1261,.T.);
#1263=ORIENTED_EDGE('',*,*,#1262,.F.);
#1264=ORIENTED_EDGE('',*,*,#1240,.F.);
#1265=ORIENTED_EDGE('',*,*,#1176,.F.);
#1266=EDGE_LOOP('',(#1256,#1257,#1263,#1264,#1265));
#1267=FACE_OUTER_BOUND('',#1266,.T.);
#1268=ORIENTED_EDGE('',*,*,#1207,.T.);
#1269=ORIENTED_EDGE('',*,*,#1055,.T.);
#1270=EDGE_LOOP('',(#1268,#1269));
#1271=FACE_BOUND('',#1270,.T.);
#1272=ADVANCED_FACE('',(#1267,#1271),#1255,.F.);
#1273=CARTESIAN_POINT('',(-0.85,-1.449999999999999,1.800000000000001));
#1274=DIRECTION('',(1.016980E-017,-0.99654575824488,0.08304547985374));
#1275=DIRECTION('',(1.220376E-016,0.083045479853741,0.99654575824488));
#1276=AXIS2_PLACEMENT_3D('',#1273,#1274,#1275);
#1277=PLANE('',#1276);
#1278=CARTESIAN_POINT('',(-1.7,-1.5,1.200000000000001));
#1279=DIRECTION('',(1.0,0.0,0.0));
#1280=VECTOR('',#1279,3.4);
#1281=LINE('',#1278,#1280);
#1282=EDGE_CURVE('',#1139,#1226,#1281,.T.);
#1283=ORIENTED_EDGE('',*,*,#1282,.T.);
#1284=ORIENTED_EDGE('',*,*,#1246,.T.);
#1285=ORIENTED_EDGE('',*,*,#1262,.T.);
#1286=ORIENTED_EDGE('',*,*,#1152,.T.);
#1287=EDGE_LOOP('',(#1283,#1284,#1285,#1286));
#1288=FACE_OUTER_BOUND('',#1287,.T.);
#1289=ADVANCED_FACE('',(#1288),#1277,.T.);
#1290=CARTESIAN_POINT('',(0.0,0.0,1.2));
#1291=DIRECTION('',(0.0,0.0,-1.0));
#1292=DIRECTION('',(-1.0,0.0,0.0));
#1293=AXIS2_PLACEMENT_3D('',#1290,#1291,#1292);
#1294=PLANE('',#1293);
#1295=ORIENTED_EDGE('',*,*,#1231,.F.);
#1296=ORIENTED_EDGE('',*,*,#1282,.F.);
#1297=ORIENTED_EDGE('',*,*,#1144,.F.);
#1298=ORIENTED_EDGE('',*,*,#1190,.F.);
#1299=EDGE_LOOP('',(#1295,#1296,#1297,#1298));
#1300=FACE_OUTER_BOUND('',#1299,.T.);
#1301=ORIENTED_EDGE('',*,*,#1040,.T.);
#1302=ORIENTED_EDGE('',*,*,#1215,.T.);
#1303=EDGE_LOOP('',(#1301,#1302));
#1304=FACE_BOUND('',#1303,.T.);
#1305=ADVANCED_FACE('',(#1300,#1304),#1294,.T.);
#1306=CLOSED_SHELL('',(#1059,#1091,#1122,#1162,#1195,#1219,#1250,#1272,#1289,#1305));
#1307=MANIFOLD_SOLID_BREP('675',#1306);
#1308=COLOUR_RGB('254',0.866,0.866,0.866);
#1309=SURFACE_STYLE_USAGE(.BOTH.,#1310);
#1310=SURFACE_SIDE_STYLE('NONE',(#1311));
#1311=SURFACE_STYLE_FILL_AREA(#1312);
#1312=FILL_AREA_STYLE('NONE',(#1313));
#1313=FILL_AREA_STYLE_COLOUR('NONE',#1308);
#1314=PRESENTATION_STYLE_ASSIGNMENT((#1309));
#1315=STYLED_ITEM('NONE',(#1314),#1307);
#1316=CARTESIAN_POINT('',(-0.75,1.5,0.0));
#1317=DIRECTION('',(1.0,0.0,0.0));
#1318=DIRECTION('',(0.0,0.0,-1.0));
#1319=AXIS2_PLACEMENT_3D('',#1316,#1317,#1318);
#1320=PLANE('',#1319);
#1321=CARTESIAN_POINT('',(-0.75,-1.4125,0.15));
#1322=VERTEX_POINT('',#1321);
#1323=CARTESIAN_POINT('',(-0.75,-1.4,0.0));
#1324=VERTEX_POINT('',#1323);
#1325=CARTESIAN_POINT('',(-0.75,-1.4125,0.15));
#1326=DIRECTION('',(0.0,0.08304547985374,-0.99654575824488));
#1327=VECTOR('',#1326,0.150519932234904);
#1328=LINE('',#1325,#1327);
#1329=EDGE_CURVE('',#1322,#1324,#1328,.T.);
#1330=ORIENTED_EDGE('',*,*,#1329,.F.);
#1331=CARTESIAN_POINT('',(-0.75,1.4125,0.15));
#1332=VERTEX_POINT('',#1331);
#1333=CARTESIAN_POINT('',(-0.75,1.4125,0.15));
#1334=DIRECTION('',(0.0,-1.0,0.0));
#1335=VECTOR('',#1334,2.825);
#1336=LINE('',#1333,#1335);
#1337=EDGE_CURVE('',#1332,#1322,#1336,.T.);
#1338=ORIENTED_EDGE('',*,*,#1337,.F.);
#1339=CARTESIAN_POINT('',(-0.75,1.4,0.0));
#1340=VERTEX_POINT('',#1339);
#1341=CARTESIAN_POINT('',(-0.75,1.4,-5.551115E-017));
#1342=DIRECTION('',(0.0,0.08304547985374,0.99654575824488));
#1343=VECTOR('',#1342,0.150519932234904);
#1344=LINE('',#1341,#1343);
#1345=EDGE_CURVE('',#1340,#1332,#1344,.T.);
#1346=ORIENTED_EDGE('',*,*,#1345,.F.);
#1347=CARTESIAN_POINT('',(-0.75,-1.4,0.0));
#1348=DIRECTION('',(0.0,1.0,0.0));
#1349=VECTOR('',#1348,2.8);
#1350=LINE('',#1347,#1349);
#1351=EDGE_CURVE('',#1324,#1340,#1350,.T.);
#1352=ORIENTED_EDGE('',*,*,#1351,.F.);
#1353=EDGE_LOOP('',(#1330,#1338,#1346,#1352));
#1354=FACE_OUTER_BOUND('',#1353,.T.);
#1355=ADVANCED_FACE('',(#1354),#1320,.F.);
#1356=CARTESIAN_POINT('',(-1.225,2.775558E-017,0.15));
#1357=DIRECTION('',(0.0,0.0,1.0));
#1358=DIRECTION('',(1.0,0.0,0.0));
#1359=AXIS2_PLACEMENT_3D('',#1356,#1357,#1358);
#1360=PLANE('',#1359);
#1361=CARTESIAN_POINT('',(-1.6125,-1.4125,0.15));
#1362=VERTEX_POINT('',#1361);
#1363=CARTESIAN_POINT('',(-1.6125,-1.4125,0.15));
#1364=DIRECTION('',(1.0,0.0,0.0));
#1365=VECTOR('',#1364,0.862499999999999);
#1366=LINE('',#1363,#1365);
#1367=EDGE_CURVE('',#1362,#1322,#1366,.T.);
#1368=ORIENTED_EDGE('',*,*,#1367,.F.);
#1369=CARTESIAN_POINT('',(-1.6125,1.4125,0.15));
#1370=VERTEX_POINT('',#1369);
#1371=CARTESIAN_POINT('',(-1.6125,1.4125,0.15));
#1372=DIRECTION('',(0.0,-1.0,0.0));
#1373=VECTOR('',#1372,2.825);
#1374=LINE('',#1371,#1373);
#1375=EDGE_CURVE('',#1370,#1362,#1374,.T.);
#1376=ORIENTED_EDGE('',*,*,#1375,.F.);
#1377=CARTESIAN_POINT('',(-0.75,1.4125,0.15));
#1378=DIRECTION('',(-1.0,0.0,0.0));
#1379=VECTOR('',#1378,0.8625);
#1380=LINE('',#1377,#1379);
#1381=EDGE_CURVE('',#1332,#1370,#1380,.T.);
#1382=ORIENTED_EDGE('',*,*,#1381,.F.);
#1383=ORIENTED_EDGE('',*,*,#1337,.T.);
#1384=EDGE_LOOP('',(#1368,#1376,#1382,#1383));
#1385=FACE_OUTER_BOUND('',#1384,.T.);
#1386=ADVANCED_FACE('',(#1385),#1360,.F.);
#1387=CARTESIAN_POINT('',(1.225,0.0,0.15));
#1388=DIRECTION('',(0.0,0.0,1.0));
#1389=DIRECTION('',(1.0,0.0,0.0));
#1390=AXIS2_PLACEMENT_3D('',#1387,#1388,#1389);
#1391=PLANE('',#1390);
#1392=CARTESIAN_POINT('',(0.75,-1.4125,0.15));
#1393=VERTEX_POINT('',#1392);
#1394=CARTESIAN_POINT('',(1.6125,-1.4125,0.15));
#1395=VERTEX_POINT('',#1394);
#1396=CARTESIAN_POINT('',(0.75,-1.4125,0.15));
#1397=DIRECTION('',(1.0,0.0,0.0));
#1398=VECTOR('',#1397,0.8625);
#1399=LINE('',#1396,#1398);
#1400=EDGE_CURVE('',#1393,#1395,#1399,.T.);
#1401=ORIENTED_EDGE('',*,*,#1400,.F.);
#1402=CARTESIAN_POINT('',(0.75,1.4125,0.15));
#1403=VERTEX_POINT('',#1402);
#1404=CARTESIAN_POINT('',(0.75,-1.4125,0.15));
#1405=DIRECTION('',(0.0,1.0,0.0));
#1406=VECTOR('',#1405,2.825);
#1407=LINE('',#1404,#1406);
#1408=EDGE_CURVE('',#1393,#1403,#1407,.T.);
#1409=ORIENTED_EDGE('',*,*,#1408,.T.);
#1410=CARTESIAN_POINT('',(1.6125,1.4125,0.15));
#1411=VERTEX_POINT('',#1410);
#1412=CARTESIAN_POINT('',(1.6125,1.4125,0.15));
#1413=DIRECTION('',(-1.0,0.0,0.0));
#1414=VECTOR('',#1413,0.8625);
#1415=LINE('',#1412,#1414);
#1416=EDGE_CURVE('',#1411,#1403,#1415,.T.);
#1417=ORIENTED_EDGE('',*,*,#1416,.F.);
#1418=CARTESIAN_POINT('',(1.6125,-1.4125,0.15));
#1419=DIRECTION('',(0.0,1.0,0.0));
#1420=VECTOR('',#1419,2.825);
#1421=LINE('',#1418,#1420);
#1422=EDGE_CURVE('',#1395,#1411,#1421,.T.);
#1423=ORIENTED_EDGE('',*,*,#1422,.F.);
#1424=EDGE_LOOP('',(#1401,#1409,#1417,#1423));
#1425=FACE_OUTER_BOUND('',#1424,.T.);
#1426=ADVANCED_FACE('',(#1425),#1391,.F.);
#1427=CARTESIAN_POINT('',(0.75,-1.5,0.0));
#1428=DIRECTION('',(-1.0,0.0,0.0));
#1429=DIRECTION('',(0.0,0.0,1.0));
#1430=AXIS2_PLACEMENT_3D('',#1427,#1428,#1429);
#1431=PLANE('',#1430);
#1432=CARTESIAN_POINT('',(0.75,-1.4,0.0));
#1433=VERTEX_POINT('',#1432);
#1434=CARTESIAN_POINT('',(0.75,-1.4,-5.551115E-017));
#1435=DIRECTION('',(0.0,-0.08304547985374,0.99654575824488));
#1436=VECTOR('',#1435,0.150519932234904);
#1437=LINE('',#1434,#1436);
#1438=EDGE_CURVE('',#1433,#1393,#1437,.T.);
#1439=ORIENTED_EDGE('',*,*,#1438,.F.);
#1440=CARTESIAN_POINT('',(0.75,1.4,0.0));
#1441=VERTEX_POINT('',#1440);
#1442=CARTESIAN_POINT('',(0.75,1.4,0.0));
#1443=DIRECTION('',(0.0,-1.0,0.0));
#1444=VECTOR('',#1443,2.8);
#1445=LINE('',#1442,#1444);
#1446=EDGE_CURVE('',#1441,#1433,#1445,.T.);
#1447=ORIENTED_EDGE('',*,*,#1446,.F.);
#1448=CARTESIAN_POINT('',(0.75,1.4125,0.15));
#1449=DIRECTION('',(0.0,-0.08304547985374,-0.99654575824488));
#1450=VECTOR('',#1449,0.150519932234904);
#1451=LINE('',#1448,#1450);
#1452=EDGE_CURVE('',#1403,#1441,#1451,.T.);
#1453=ORIENTED_EDGE('',*,*,#1452,.F.);
#1454=ORIENTED_EDGE('',*,*,#1408,.F.);
#1455=EDGE_LOOP('',(#1439,#1447,#1453,#1454));
#1456=FACE_OUTER_BOUND('',#1455,.T.);
#1457=ADVANCED_FACE('',(#1456),#1431,.F.);
#1458=CARTESIAN_POINT('',(1.65,0.75,0.6));
#1459=DIRECTION('',(0.99654575824488,0.0,-0.08304547985374));
#1460=DIRECTION('',(-0.08304547985374,0.0,-0.99654575824488));
#1461=AXIS2_PLACEMENT_3D('',#1458,#1459,#1460);
#1462=PLANE('',#1461);
#1463=ORIENTED_EDGE('',*,*,#1422,.T.);
#1464=CARTESIAN_POINT('',(1.7,1.5,1.2));
#1465=VERTEX_POINT('',#1464);
#1466=CARTESIAN_POINT('',(1.7,1.5,1.2));
#1467=DIRECTION('',(-0.082760588860237,-0.082760588860237,-0.993127066322842));
#1468=VECTOR('',#1467,1.057266522689525);
#1469=LINE('',#1466,#1468);
#1470=EDGE_CURVE('',#1465,#1411,#1469,.T.);
#1471=ORIENTED_EDGE('',*,*,#1470,.F.);
#1472=CARTESIAN_POINT('',(1.7,-1.5,1.2));
#1473=VERTEX_POINT('',#1472);
#1474=CARTESIAN_POINT('',(1.7,1.5,1.2));
#1475=DIRECTION('',(0.0,-1.0,0.0));
#1476=VECTOR('',#1475,3.0);
#1477=LINE('',#1474,#1476);
#1478=EDGE_CURVE('',#1465,#1473,#1477,.T.);
#1479=ORIENTED_EDGE('',*,*,#1478,.T.);
#1480=CARTESIAN_POINT('',(1.6125,-1.4125,0.15));
#1481=DIRECTION('',(0.082760588860237,-0.082760588860237,0.993127066322842));
#1482=VECTOR('',#1481,1.057266522689525);
#1483=LINE('',#1480,#1482);
#1484=EDGE_CURVE('',#1395,#1473,#1483,.T.);
#1485=ORIENTED_EDGE('',*,*,#1484,.F.);
#1486=EDGE_LOOP('',(#1463,#1471,#1479,#1485));
#1487=FACE_OUTER_BOUND('',#1486,.T.);
#1488=ADVANCED_FACE('',(#1487),#1462,.T.);
#1489=CARTESIAN_POINT('',(0.85,-1.45,0.6));
#1490=DIRECTION('',(0.0,-0.99654575824488,-0.08304547985374));
#1491=DIRECTION('',(0.0,0.08304547985374,-0.99654575824488));
#1492=AXIS2_PLACEMENT_3D('',#1489,#1490,#1491);
#1493=PLANE('',#1492);
#1494=ORIENTED_EDGE('',*,*,#1367,.T.);
#1495=ORIENTED_EDGE('',*,*,#1329,.T.);
#1496=CARTESIAN_POINT('',(-0.75,-1.4,0.0));
#1497=DIRECTION('',(1.0,0.0,0.0));
#1498=VECTOR('',#1497,1.5);
#1499=LINE('',#1496,#1498);
#1500=EDGE_CURVE('',#1324,#1433,#1499,.T.);
#1501=ORIENTED_EDGE('',*,*,#1500,.T.);
#1502=ORIENTED_EDGE('',*,*,#1438,.T.);
#1503=ORIENTED_EDGE('',*,*,#1400,.T.);
#1504=ORIENTED_EDGE('',*,*,#1484,.T.);
#1505=CARTESIAN_POINT('',(-1.7,-1.5,1.2));
#1506=VERTEX_POINT('',#1505);
#1507=CARTESIAN_POINT('',(1.7,-1.5,1.2));
#1508=DIRECTION('',(-1.0,0.0,0.0));
#1509=VECTOR('',#1508,3.4);
#1510=LINE('',#1507,#1509);
#1511=EDGE_CURVE('',#1473,#1506,#1510,.T.);
#1512=ORIENTED_EDGE('',*,*,#1511,.T.);
#1513=CARTESIAN_POINT('',(-1.7,-1.5,1.2));
#1514=DIRECTION('',(0.082760588860237,0.082760588860237,-0.993127066322842));
#1515=VECTOR('',#1514,1.057266522689525);
#1516=LINE('',#1513,#1515);
#1517=EDGE_CURVE('',#1506,#1362,#1516,.T.);
#1518=ORIENTED_EDGE('',*,*,#1517,.T.);
#1519=EDGE_LOOP('',(#1494,#1495,#1501,#1502,#1503,#1504,#1512,#1518));
#1520=FACE_OUTER_BOUND('',#1519,.T.);
#1521=ADVANCED_FACE('',(#1520),#1493,.T.);
#1522=CARTESIAN_POINT('',(-1.110223E-016,9.462128E-018,0.0));
#1523=DIRECTION('',(0.0,0.0,1.0));
#1524=DIRECTION('',(1.0,0.0,0.0));
#1525=AXIS2_PLACEMENT_3D('',#1522,#1523,#1524);
#1526=PLANE('',#1525);
#1527=ORIENTED_EDGE('',*,*,#1351,.T.);
#1528=CARTESIAN_POINT('',(0.75,1.4,0.0));
#1529=DIRECTION('',(-1.0,0.0,0.0));
#1530=VECTOR('',#1529,1.5);
#1531=LINE('',#1528,#1530);
#1532=EDGE_CURVE('',#1441,#1340,#1531,.T.);
#1533=ORIENTED_EDGE('',*,*,#1532,.F.);
#1534=ORIENTED_EDGE('',*,*,#1446,.T.);
#1535=ORIENTED_EDGE('',*,*,#1500,.F.);
#1536=EDGE_LOOP('',(#1527,#1533,#1534,#1535));
#1537=FACE_OUTER_BOUND('',#1536,.T.);
#1538=ADVANCED_FACE('',(#1537),#1526,.F.);
#1539=CARTESIAN_POINT('',(-1.65,-0.75,0.6));
#1540=DIRECTION('',(-0.99654575824488,0.0,-0.08304547985374));
#1541=DIRECTION('',(-0.08304547985374,0.0,0.99654575824488));
#1542=AXIS2_PLACEMENT_3D('',#1539,#1540,#1541);
#1543=PLANE('',#1542);
#1544=ORIENTED_EDGE('',*,*,#1375,.T.);
#1545=ORIENTED_EDGE('',*,*,#1517,.F.);
#1546=CARTESIAN_POINT('',(-1.7,1.5,1.2));
#1547=VERTEX_POINT('',#1546);
#1548=CARTESIAN_POINT('',(-1.7,-1.5,1.2));
#1549=DIRECTION('',(0.0,1.0,0.0));
#1550=VECTOR('',#1549,3.0);
#1551=LINE('',#1548,#1550);
#1552=EDGE_CURVE('',#1506,#1547,#1551,.T.);
#1553=ORIENTED_EDGE('',*,*,#1552,.T.);
#1554=CARTESIAN_POINT('',(-1.7,1.5,1.2));
#1555=DIRECTION('',(0.082760588860237,-0.082760588860237,-0.993127066322842));
#1556=VECTOR('',#1555,1.057266522689525);
#1557=LINE('',#1554,#1556);
#1558=EDGE_CURVE('',#1547,#1370,#1557,.T.);
#1559=ORIENTED_EDGE('',*,*,#1558,.T.);
#1560=EDGE_LOOP('',(#1544,#1545,#1553,#1559));
#1561=FACE_OUTER_BOUND('',#1560,.T.);
#1562=ADVANCED_FACE('',(#1561),#1543,.T.);
#1563=CARTESIAN_POINT('',(-0.85,1.45,0.6));
#1564=DIRECTION('',(0.0,0.99654575824488,-0.08304547985374));
#1565=DIRECTION('',(0.0,0.08304547985374,0.99654575824488));
#1566=AXIS2_PLACEMENT_3D('',#1563,#1564,#1565);
#1567=PLANE('',#1566);
#1568=ORIENTED_EDGE('',*,*,#1381,.T.);
#1569=ORIENTED_EDGE('',*,*,#1558,.F.);
#1570=CARTESIAN_POINT('',(-1.7,1.5,1.2));
#1571=DIRECTION('',(1.0,0.0,0.0));
#1572=VECTOR('',#1571,3.4);
#1573=LINE('',#1570,#1572);
#1574=EDGE_CURVE('',#1547,#1465,#1573,.T.);
#1575=ORIENTED_EDGE('',*,*,#1574,.T.);
#1576=ORIENTED_EDGE('',*,*,#1470,.T.);
#1577=ORIENTED_EDGE('',*,*,#1416,.T.);
#1578=ORIENTED_EDGE('',*,*,#1452,.T.);
#1579=ORIENTED_EDGE('',*,*,#1532,.T.);
#1580=ORIENTED_EDGE('',*,*,#1345,.T.);
#1581=EDGE_LOOP('',(#1568,#1569,#1575,#1576,#1577,#1578,#1579,#1580));
#1582=FACE_OUTER_BOUND('',#1581,.T.);
#1583=ADVANCED_FACE('',(#1582),#1567,.T.);
#1584=CARTESIAN_POINT('',(-1.110223E-016,9.462128E-018,1.2));
#1585=DIRECTION('',(0.0,0.0,1.0));
#1586=DIRECTION('',(1.0,0.0,0.0));
#1587=AXIS2_PLACEMENT_3D('',#1584,#1585,#1586);
#1588=PLANE('',#1587);
#1589=ORIENTED_EDGE('',*,*,#1552,.F.);
#1590=ORIENTED_EDGE('',*,*,#1511,.F.);
#1591=ORIENTED_EDGE('',*,*,#1478,.F.);
#1592=ORIENTED_EDGE('',*,*,#1574,.F.);
#1593=EDGE_LOOP('',(#1589,#1590,#1591,#1592));
#1594=FACE_OUTER_BOUND('',#1593,.T.);
#1595=ADVANCED_FACE('',(#1594),#1588,.T.);
#1596=CLOSED_SHELL('',(#1355,#1386,#1426,#1457,#1488,#1521,#1538,#1562,#1583,#1595));
#1597=MANIFOLD_SOLID_BREP('672',#1596);
#1598=STYLED_ITEM('NONE',(#1314),#1597);
#1599=ADVANCED_BREP_SHAPE_REPRESENTATION('ABSR1',(#214,#486,#644,#865,#1016,#1307,#1597),#28);
#1600=SHAPE_REPRESENTATION_RELATIONSHIP('SRRPL1','',#1599,#62);
ENDSEC;
END-ISO-10303-21;
