ISO-10303-21;
HEADER;
/****************************************************************
 * Generated by software with PDElib inside                    *
 * PDElib Version v51a, created Fri 09/10/2010                  *
 * ITI Transcendata (http://www.transcendata.com/)              *
 ****************************************************************/
FILE_DESCRIPTION((''),'2;1');
FILE_NAME('SENS_LEM_LA 25-NP-SP7.stp','2013-10-22T09:52:44',(''),(''),'Mechanical Desktop 2011','Mechanical Desktop 2011',', , ');
FILE_SCHEMA(('AUTOMOTIVE_DESIGN { 1 2 10303 214 1 1 1 1 }'));
ENDSEC;
DATA;
#10=(NAMED_UNIT(*)PLANE_ANGLE_UNIT()SI_UNIT($,.RADIAN.));
#11=DIMENSIONAL_EXPONENTS(0.0,0.0,0.0,0.0,0.0,0.0,0.0);
#12=PLANE_ANGLE_MEASURE_WITH_UNIT(PLANE_ANGLE_MEASURE(0.0174532925),#10);
#16=(CONVERSION_BASED_UNIT('DEGREE',#12)NAMED_UNIT(#11)PLANE_ANGLE_UNIT());
#20=(NAMED_UNIT(*)SI_UNIT($,.STERADIAN.)SOLID_ANGLE_UNIT());
#24=(LENGTH_UNIT()NAMED_UNIT(*)SI_UNIT(.MILLI.,.METRE.));
#26=UNCERTAINTY_MEASURE_WITH_UNIT(LENGTH_MEASURE(0.000001),#24,'DISTANCE_ACCURACY_VALUE','');
#28=(GEOMETRIC_REPRESENTATION_CONTEXT(3)GLOBAL_UNCERTAINTY_ASSIGNED_CONTEXT((#26))GLOBAL_UNIT_ASSIGNED_CONTEXT((#16,#20,#24))REPRESENTATION_CONTEXT('','3D'));
#29=APPLICATION_CONTEXT('automotive design');
#30=APPLICATION_PROTOCOL_DEFINITION('INTERNATIONAL_STANDARD','automotive_design',1998,#29);
#31=PRODUCT_CONTEXT('3D Mechanical Parts',#29,'mechanical');
#32=PRODUCT('Product','Product','',(#31));
#33=PRODUCT_RELATED_PRODUCT_CATEGORY('part',$,(#32));
#34=PRODUCT_CATEGORY('part',$);
#35=PERSON('1','Design','Joe',$,$,$);
#36=ORGANIZATION($,'None','None');
#37=PERSON_AND_ORGANIZATION(#35,#36);
#38=PERSON_AND_ORGANIZATION_ROLE('design_owner');
#39=APPLIED_PERSON_AND_ORGANIZATION_ASSIGNMENT(#37,#38,(#32));
#40=PRODUCT_DEFINITION_FORMATION_WITH_SPECIFIED_SOURCE('None','',#32,.BOUGHT.);
#41=PERSON('2','Creator','Joe',$,$,$);
#42=ORGANIZATION($,'None','None');
#43=PERSON_AND_ORGANIZATION(#41,#42);
#44=PERSON_AND_ORGANIZATION_ROLE('creator');
#45=APPLIED_PERSON_AND_ORGANIZATION_ASSIGNMENT(#43,#44,(#40));
#46=PERSON('3','Supplier','Joe',$,$,$);
#47=ORGANIZATION($,'None','None');
#48=PERSON_AND_ORGANIZATION(#46,#47);
#49=PERSON_AND_ORGANIZATION_ROLE('design_supplier');
#50=APPLIED_PERSON_AND_ORGANIZATION_ASSIGNMENT(#48,#49,(#40));
#51=PRODUCT_DEFINITION_CONTEXT('part definition',#29,'design');
#52=PRODUCT_DEFINITION('None','',#40,#51);
#53=PERSON('4','Creator','Joe',$,$,$);
#54=ORGANIZATION($,'None','None');
#55=PERSON_AND_ORGANIZATION(#53,#54);
#56=PERSON_AND_ORGANIZATION_ROLE('creator');
#57=APPLIED_PERSON_AND_ORGANIZATION_ASSIGNMENT(#55,#56,(#52));
#58=CARTESIAN_POINT('NONE',(0.0,0.0,0.0));
#59=DIRECTION('NONE',(0.0,0.0,1.0));
#60=DIRECTION('NONE',(1.0,0.0,0.0));
#61=AXIS2_PLACEMENT_3D('NONE',#58,#59,#60);
#62=SHAPE_REPRESENTATION('SR1',(#61),#28);
#63=PRODUCT_DEFINITION_SHAPE('PDS1','Test Part',#52);
#64=SHAPE_DEFINITION_REPRESENTATION(#63,#62);
#65=CARTESIAN_POINT('',(-9.159999999999997,7.620000000000001,1.0));
#66=DIRECTION('',(0.0,0.0,-1.0));
#67=DIRECTION('',(0.0,-1.0,0.0));
#68=AXIS2_PLACEMENT_3D('',#65,#66,#67);
#69=CYLINDRICAL_SURFACE('',#68,0.5);
#70=CARTESIAN_POINT('',(-9.159999999999998,7.120000000000001,-3.0));
#71=VERTEX_POINT('',#70);
#72=CARTESIAN_POINT('',(-9.159999999999998,7.120000000000001,1.0));
#73=VERTEX_POINT('',#72);
#74=CARTESIAN_POINT('',(-9.159999999999997,7.120000000000001,-3.0));
#75=DIRECTION('',(0.0,0.0,1.0));
#76=VECTOR('',#75,4.0);
#77=LINE('',#74,#76);
#78=EDGE_CURVE('',#71,#73,#77,.T.);
#79=ORIENTED_EDGE('',*,*,#78,.F.);
#80=CARTESIAN_POINT('',(-9.159999999999997,8.120000000000001,-3.0));
#81=VERTEX_POINT('',#80);
#82=CARTESIAN_POINT('',(-9.159999999999997,7.620000000000001,-3.0));
#83=DIRECTION('',(0.0,0.0,1.0));
#84=DIRECTION('',(0.0,-1.0,0.0));
#85=AXIS2_PLACEMENT_3D('',#82,#83,#84);
#86=CIRCLE('',#85,0.5);
#87=EDGE_CURVE('',#71,#81,#86,.T.);
#88=ORIENTED_EDGE('',*,*,#87,.T.);
#89=CARTESIAN_POINT('',(-9.159999999999997,8.120000000000001,1.0));
#90=VERTEX_POINT('',#89);
#91=CARTESIAN_POINT('',(-9.159999999999997,8.120000000000001,-3.0));
#92=DIRECTION('',(0.0,0.0,1.0));
#93=VECTOR('',#92,4.0);
#94=LINE('',#91,#93);
#95=EDGE_CURVE('',#81,#90,#94,.T.);
#96=ORIENTED_EDGE('',*,*,#95,.T.);
#97=CARTESIAN_POINT('',(-9.159999999999997,7.620000000000001,1.0));
#98=DIRECTION('',(0.0,0.0,1.0));
#99=DIRECTION('',(0.0,-1.0,0.0));
#100=AXIS2_PLACEMENT_3D('',#97,#98,#99);
#101=CIRCLE('',#100,0.5);
#102=EDGE_CURVE('',#73,#90,#101,.T.);
#103=ORIENTED_EDGE('',*,*,#102,.F.);
#104=EDGE_LOOP('',(#79,#88,#96,#103));
#105=FACE_OUTER_BOUND('',#104,.T.);
#106=ADVANCED_FACE('',(#105),#69,.T.);
#107=CARTESIAN_POINT('',(-9.159999999999997,7.620000000000001,1.0));
#108=DIRECTION('',(0.0,0.0,-1.0));
#109=DIRECTION('',(0.0,-1.0,0.0));
#110=AXIS2_PLACEMENT_3D('',#107,#108,#109);
#111=CYLINDRICAL_SURFACE('',#110,0.5);
#112=ORIENTED_EDGE('',*,*,#78,.T.);
#113=CARTESIAN_POINT('',(-9.159999999999997,7.620000000000001,1.0));
#114=DIRECTION('',(0.0,0.0,1.0));
#115=DIRECTION('',(0.0,-1.0,0.0));
#116=AXIS2_PLACEMENT_3D('',#113,#114,#115);
#117=CIRCLE('',#116,0.5);
#118=EDGE_CURVE('',#90,#73,#117,.T.);
#119=ORIENTED_EDGE('',*,*,#118,.F.);
#120=ORIENTED_EDGE('',*,*,#95,.F.);
#121=CARTESIAN_POINT('',(-9.159999999999997,7.620000000000001,-3.0));
#122=DIRECTION('',(0.0,0.0,1.0));
#123=DIRECTION('',(0.0,-1.0,0.0));
#124=AXIS2_PLACEMENT_3D('',#121,#122,#123);
#125=CIRCLE('',#124,0.5);
#126=EDGE_CURVE('',#81,#71,#125,.T.);
#127=ORIENTED_EDGE('',*,*,#126,.T.);
#128=EDGE_LOOP('',(#112,#119,#120,#127));
#129=FACE_OUTER_BOUND('',#128,.T.);
#130=ADVANCED_FACE('',(#129),#111,.T.);
#131=CARTESIAN_POINT('',(-9.159999999999997,7.620000000000001,-3.0));
#132=DIRECTION('',(0.0,0.0,1.0));
#133=DIRECTION('',(0.0,-1.0,0.0));
#134=AXIS2_PLACEMENT_3D('',#131,#132,#133);
#135=PLANE('',#134);
#136=ORIENTED_EDGE('',*,*,#87,.F.);
#137=ORIENTED_EDGE('',*,*,#126,.F.);
#138=EDGE_LOOP('',(#136,#137));
#139=FACE_OUTER_BOUND('',#138,.T.);
#140=ADVANCED_FACE('',(#139),#135,.F.);
#141=CARTESIAN_POINT('',(-9.159999999999997,7.620000000000001,1.0));
#142=DIRECTION('',(0.0,0.0,1.0));
#143=DIRECTION('',(0.0,-1.0,0.0));
#144=AXIS2_PLACEMENT_3D('',#141,#142,#143);
#145=PLANE('',#144);
#146=ORIENTED_EDGE('',*,*,#102,.T.);
#147=ORIENTED_EDGE('',*,*,#118,.T.);
#148=EDGE_LOOP('',(#146,#147));
#149=FACE_OUTER_BOUND('',#148,.T.);
#150=ADVANCED_FACE('',(#149),#145,.T.);
#151=CLOSED_SHELL('',(#106,#130,#140,#150));
#152=MANIFOLD_SOLID_BREP('764',#151);
#153=COLOUR_RGB('254',0.866,0.866,0.866);
#154=SURFACE_STYLE_USAGE(.BOTH.,#155);
#155=SURFACE_SIDE_STYLE('NONE',(#156));
#156=SURFACE_STYLE_FILL_AREA(#157);
#157=FILL_AREA_STYLE('NONE',(#158));
#158=FILL_AREA_STYLE_COLOUR('NONE',#153);
#159=PRESENTATION_STYLE_ASSIGNMENT((#154));
#160=STYLED_ITEM('NONE',(#159),#152);
#161=MECHANICAL_DESIGN_GEOMETRIC_PRESENTATION_REPRESENTATION('NONE',(#160,#251,#340,#429,#518,#816,#1560,#1711,#1862,#2013,#2164),#28);
#162=PRESENTATION_LAYER_ASSIGNMENT('3D','None',(#152,#250,#339,#428,#517,#808,#1552,#1710,#1861,#2012,#2163));
#163=CARTESIAN_POINT('',(-9.159999999999998,1.682609E-015,1.0));
#164=DIRECTION('',(0.0,0.0,-1.0));
#165=DIRECTION('',(0.0,-1.0,0.0));
#166=AXIS2_PLACEMENT_3D('',#163,#164,#165);
#167=CYLINDRICAL_SURFACE('',#166,0.5);
#168=CARTESIAN_POINT('',(-9.159999999999998,-0.499999999999998,-3.0));
#169=VERTEX_POINT('',#168);
#170=CARTESIAN_POINT('',(-9.159999999999998,-0.499999999999998,1.0));
#171=VERTEX_POINT('',#170);
#172=CARTESIAN_POINT('',(-9.159999999999998,-0.499999999999998,-3.0));
#173=DIRECTION('',(0.0,0.0,1.0));
#174=VECTOR('',#173,4.0);
#175=LINE('',#172,#174);
#176=EDGE_CURVE('',#169,#171,#175,.T.);
#177=ORIENTED_EDGE('',*,*,#176,.F.);
#178=CARTESIAN_POINT('',(-9.159999999999998,0.500000000000002,-3.0));
#179=VERTEX_POINT('',#178);
#180=CARTESIAN_POINT('',(-9.159999999999998,1.682609E-015,-3.0));
#181=DIRECTION('',(0.0,0.0,1.0));
#182=DIRECTION('',(0.0,-1.0,0.0));
#183=AXIS2_PLACEMENT_3D('',#180,#181,#182);
#184=CIRCLE('',#183,0.5);
#185=EDGE_CURVE('',#169,#179,#184,.T.);
#186=ORIENTED_EDGE('',*,*,#185,.T.);
#187=CARTESIAN_POINT('',(-9.159999999999998,0.500000000000002,1.0));
#188=VERTEX_POINT('',#187);
#189=CARTESIAN_POINT('',(-9.159999999999998,0.500000000000002,-3.0));
#190=DIRECTION('',(0.0,0.0,1.0));
#191=VECTOR('',#190,4.0);
#192=LINE('',#189,#191);
#193=EDGE_CURVE('',#179,#188,#192,.T.);
#194=ORIENTED_EDGE('',*,*,#193,.T.);
#195=CARTESIAN_POINT('',(-9.159999999999998,1.682609E-015,1.0));
#196=DIRECTION('',(0.0,0.0,1.0));
#197=DIRECTION('',(0.0,-1.0,0.0));
#198=AXIS2_PLACEMENT_3D('',#195,#196,#197);
#199=CIRCLE('',#198,0.5);
#200=EDGE_CURVE('',#171,#188,#199,.T.);
#201=ORIENTED_EDGE('',*,*,#200,.F.);
#202=EDGE_LOOP('',(#177,#186,#194,#201));
#203=FACE_OUTER_BOUND('',#202,.T.);
#204=ADVANCED_FACE('',(#203),#167,.T.);
#205=CARTESIAN_POINT('',(-9.159999999999998,1.682609E-015,1.0));
#206=DIRECTION('',(0.0,0.0,-1.0));
#207=DIRECTION('',(0.0,-1.0,0.0));
#208=AXIS2_PLACEMENT_3D('',#205,#206,#207);
#209=CYLINDRICAL_SURFACE('',#208,0.5);
#210=ORIENTED_EDGE('',*,*,#176,.T.);
#211=CARTESIAN_POINT('',(-9.159999999999998,1.682609E-015,1.0));
#212=DIRECTION('',(0.0,0.0,1.0));
#213=DIRECTION('',(0.0,-1.0,0.0));
#214=AXIS2_PLACEMENT_3D('',#211,#212,#213);
#215=CIRCLE('',#214,0.5);
#216=EDGE_CURVE('',#188,#171,#215,.T.);
#217=ORIENTED_EDGE('',*,*,#216,.F.);
#218=ORIENTED_EDGE('',*,*,#193,.F.);
#219=CARTESIAN_POINT('',(-9.159999999999998,1.682609E-015,-3.0));
#220=DIRECTION('',(0.0,0.0,1.0));
#221=DIRECTION('',(0.0,-1.0,0.0));
#222=AXIS2_PLACEMENT_3D('',#219,#220,#221);
#223=CIRCLE('',#222,0.5);
#224=EDGE_CURVE('',#179,#169,#223,.T.);
#225=ORIENTED_EDGE('',*,*,#224,.T.);
#226=EDGE_LOOP('',(#210,#217,#218,#225));
#227=FACE_OUTER_BOUND('',#226,.T.);
#228=ADVANCED_FACE('',(#227),#209,.T.);
#229=CARTESIAN_POINT('',(-9.159999999999998,1.682609E-015,-3.0));
#230=DIRECTION('',(0.0,0.0,1.0));
#231=DIRECTION('',(0.0,-1.0,0.0));
#232=AXIS2_PLACEMENT_3D('',#229,#230,#231);
#233=PLANE('',#232);
#234=ORIENTED_EDGE('',*,*,#185,.F.);
#235=ORIENTED_EDGE('',*,*,#224,.F.);
#236=EDGE_LOOP('',(#234,#235));
#237=FACE_OUTER_BOUND('',#236,.T.);
#238=ADVANCED_FACE('',(#237),#233,.F.);
#239=CARTESIAN_POINT('',(-9.159999999999998,1.682609E-015,1.0));
#240=DIRECTION('',(0.0,0.0,1.0));
#241=DIRECTION('',(0.0,-1.0,0.0));
#242=AXIS2_PLACEMENT_3D('',#239,#240,#241);
#243=PLANE('',#242);
#244=ORIENTED_EDGE('',*,*,#200,.T.);
#245=ORIENTED_EDGE('',*,*,#216,.T.);
#246=EDGE_LOOP('',(#244,#245));
#247=FACE_OUTER_BOUND('',#246,.T.);
#248=ADVANCED_FACE('',(#247),#243,.T.);
#249=CLOSED_SHELL('',(#204,#228,#238,#248));
#250=MANIFOLD_SOLID_BREP('760',#249);
#251=STYLED_ITEM('NONE',(#159),#250);
#252=CARTESIAN_POINT('',(-9.16,-7.619999999999996,1.0));
#253=DIRECTION('',(0.0,0.0,-1.0));
#254=DIRECTION('',(0.0,-1.0,0.0));
#255=AXIS2_PLACEMENT_3D('',#252,#253,#254);
#256=CYLINDRICAL_SURFACE('',#255,0.5);
#257=CARTESIAN_POINT('',(-9.16,-8.119999999999996,-3.0));
#258=VERTEX_POINT('',#257);
#259=CARTESIAN_POINT('',(-9.16,-8.119999999999996,1.0));
#260=VERTEX_POINT('',#259);
#261=CARTESIAN_POINT('',(-9.16,-8.119999999999996,-3.0));
#262=DIRECTION('',(0.0,0.0,1.0));
#263=VECTOR('',#262,4.0);
#264=LINE('',#261,#263);
#265=EDGE_CURVE('',#258,#260,#264,.T.);
#266=ORIENTED_EDGE('',*,*,#265,.F.);
#267=CARTESIAN_POINT('',(-9.16,-7.119999999999996,-3.0));
#268=VERTEX_POINT('',#267);
#269=CARTESIAN_POINT('',(-9.16,-7.619999999999996,-3.0));
#270=DIRECTION('',(0.0,0.0,1.0));
#271=DIRECTION('',(0.0,-1.0,0.0));
#272=AXIS2_PLACEMENT_3D('',#269,#270,#271);
#273=CIRCLE('',#272,0.5);
#274=EDGE_CURVE('',#258,#268,#273,.T.);
#275=ORIENTED_EDGE('',*,*,#274,.T.);
#276=CARTESIAN_POINT('',(-9.16,-7.119999999999996,1.0));
#277=VERTEX_POINT('',#276);
#278=CARTESIAN_POINT('',(-9.16,-7.119999999999996,-3.0));
#279=DIRECTION('',(0.0,0.0,1.0));
#280=VECTOR('',#279,4.0);
#281=LINE('',#278,#280);
#282=EDGE_CURVE('',#268,#277,#281,.T.);
#283=ORIENTED_EDGE('',*,*,#282,.T.);
#284=CARTESIAN_POINT('',(-9.16,-7.619999999999996,1.0));
#285=DIRECTION('',(0.0,0.0,1.0));
#286=DIRECTION('',(0.0,-1.0,0.0));
#287=AXIS2_PLACEMENT_3D('',#284,#285,#286);
#288=CIRCLE('',#287,0.5);
#289=EDGE_CURVE('',#260,#277,#288,.T.);
#290=ORIENTED_EDGE('',*,*,#289,.F.);
#291=EDGE_LOOP('',(#266,#275,#283,#290));
#292=FACE_OUTER_BOUND('',#291,.T.);
#293=ADVANCED_FACE('',(#292),#256,.T.);
#294=CARTESIAN_POINT('',(-9.16,-7.619999999999996,1.0));
#295=DIRECTION('',(0.0,0.0,-1.0));
#296=DIRECTION('',(0.0,-1.0,0.0));
#297=AXIS2_PLACEMENT_3D('',#294,#295,#296);
#298=CYLINDRICAL_SURFACE('',#297,0.5);
#299=ORIENTED_EDGE('',*,*,#265,.T.);
#300=CARTESIAN_POINT('',(-9.16,-7.619999999999996,1.0));
#301=DIRECTION('',(0.0,0.0,1.0));
#302=DIRECTION('',(0.0,-1.0,0.0));
#303=AXIS2_PLACEMENT_3D('',#300,#301,#302);
#304=CIRCLE('',#303,0.5);
#305=EDGE_CURVE('',#277,#260,#304,.T.);
#306=ORIENTED_EDGE('',*,*,#305,.F.);
#307=ORIENTED_EDGE('',*,*,#282,.F.);
#308=CARTESIAN_POINT('',(-9.16,-7.619999999999996,-3.0));
#309=DIRECTION('',(0.0,0.0,1.0));
#310=DIRECTION('',(0.0,-1.0,0.0));
#311=AXIS2_PLACEMENT_3D('',#308,#309,#310);
#312=CIRCLE('',#311,0.5);
#313=EDGE_CURVE('',#268,#258,#312,.T.);
#314=ORIENTED_EDGE('',*,*,#313,.T.);
#315=EDGE_LOOP('',(#299,#306,#307,#314));
#316=FACE_OUTER_BOUND('',#315,.T.);
#317=ADVANCED_FACE('',(#316),#298,.T.);
#318=CARTESIAN_POINT('',(-9.16,-7.619999999999996,-3.0));
#319=DIRECTION('',(0.0,0.0,1.0));
#320=DIRECTION('',(0.0,-1.0,0.0));
#321=AXIS2_PLACEMENT_3D('',#318,#319,#320);
#322=PLANE('',#321);
#323=ORIENTED_EDGE('',*,*,#274,.F.);
#324=ORIENTED_EDGE('',*,*,#313,.F.);
#325=EDGE_LOOP('',(#323,#324));
#326=FACE_OUTER_BOUND('',#325,.T.);
#327=ADVANCED_FACE('',(#326),#322,.F.);
#328=CARTESIAN_POINT('',(-9.16,-7.619999999999996,1.0));
#329=DIRECTION('',(0.0,0.0,1.0));
#330=DIRECTION('',(0.0,-1.0,0.0));
#331=AXIS2_PLACEMENT_3D('',#328,#329,#330);
#332=PLANE('',#331);
#333=ORIENTED_EDGE('',*,*,#289,.T.);
#334=ORIENTED_EDGE('',*,*,#305,.T.);
#335=EDGE_LOOP('',(#333,#334));
#336=FACE_OUTER_BOUND('',#335,.T.);
#337=ADVANCED_FACE('',(#336),#332,.T.);
#338=CLOSED_SHELL('',(#293,#317,#327,#337));
#339=MANIFOLD_SOLID_BREP('75C',#338);
#340=STYLED_ITEM('NONE',(#159),#339);
#341=CARTESIAN_POINT('',(11.159999999999998,-7.62,1.0));
#342=DIRECTION('',(0.0,0.0,-1.0));
#343=DIRECTION('',(0.0,-1.0,0.0));
#344=AXIS2_PLACEMENT_3D('',#341,#342,#343);
#345=CYLINDRICAL_SURFACE('',#344,0.3175);
#346=CARTESIAN_POINT('',(11.159999999999998,-7.9375,-3.0));
#347=VERTEX_POINT('',#346);
#348=CARTESIAN_POINT('',(11.159999999999998,-7.9375,1.0));
#349=VERTEX_POINT('',#348);
#350=CARTESIAN_POINT('',(11.159999999999998,-7.9375,-3.0));
#351=DIRECTION('',(0.0,0.0,1.0));
#352=VECTOR('',#351,4.0);
#353=LINE('',#350,#352);
#354=EDGE_CURVE('',#347,#349,#353,.T.);
#355=ORIENTED_EDGE('',*,*,#354,.F.);
#356=CARTESIAN_POINT('',(11.159999999999998,-7.3025,-3.0));
#357=VERTEX_POINT('',#356);
#358=CARTESIAN_POINT('',(11.159999999999998,-7.62,-3.0));
#359=DIRECTION('',(0.0,0.0,1.0));
#360=DIRECTION('',(0.0,-1.0,0.0));
#361=AXIS2_PLACEMENT_3D('',#358,#359,#360);
#362=CIRCLE('',#361,0.3175);
#363=EDGE_CURVE('',#347,#357,#362,.T.);
#364=ORIENTED_EDGE('',*,*,#363,.T.);
#365=CARTESIAN_POINT('',(11.159999999999998,-7.3025,1.0));
#366=VERTEX_POINT('',#365);
#367=CARTESIAN_POINT('',(11.159999999999998,-7.3025,-3.0));
#368=DIRECTION('',(0.0,0.0,1.0));
#369=VECTOR('',#368,4.0);
#370=LINE('',#367,#369);
#371=EDGE_CURVE('',#357,#366,#370,.T.);
#372=ORIENTED_EDGE('',*,*,#371,.T.);
#373=CARTESIAN_POINT('',(11.159999999999998,-7.62,1.0));
#374=DIRECTION('',(0.0,0.0,1.0));
#375=DIRECTION('',(0.0,-1.0,0.0));
#376=AXIS2_PLACEMENT_3D('',#373,#374,#375);
#377=CIRCLE('',#376,0.3175);
#378=EDGE_CURVE('',#349,#366,#377,.T.);
#379=ORIENTED_EDGE('',*,*,#378,.F.);
#380=EDGE_LOOP('',(#355,#364,#372,#379));
#381=FACE_OUTER_BOUND('',#380,.T.);
#382=ADVANCED_FACE('',(#381),#345,.T.);
#383=CARTESIAN_POINT('',(11.159999999999998,-7.62,1.0));
#384=DIRECTION('',(0.0,0.0,-1.0));
#385=DIRECTION('',(0.0,-1.0,0.0));
#386=AXIS2_PLACEMENT_3D('',#383,#384,#385);
#387=CYLINDRICAL_SURFACE('',#386,0.3175);
#388=ORIENTED_EDGE('',*,*,#354,.T.);
#389=CARTESIAN_POINT('',(11.159999999999998,-7.62,1.0));
#390=DIRECTION('',(0.0,0.0,1.0));
#391=DIRECTION('',(0.0,-1.0,0.0));
#392=AXIS2_PLACEMENT_3D('',#389,#390,#391);
#393=CIRCLE('',#392,0.3175);
#394=EDGE_CURVE('',#366,#349,#393,.T.);
#395=ORIENTED_EDGE('',*,*,#394,.F.);
#396=ORIENTED_EDGE('',*,*,#371,.F.);
#397=CARTESIAN_POINT('',(11.159999999999998,-7.62,-3.0));
#398=DIRECTION('',(0.0,0.0,1.0));
#399=DIRECTION('',(0.0,-1.0,0.0));
#400=AXIS2_PLACEMENT_3D('',#397,#398,#399);
#401=CIRCLE('',#400,0.3175);
#402=EDGE_CURVE('',#357,#347,#401,.T.);
#403=ORIENTED_EDGE('',*,*,#402,.T.);
#404=EDGE_LOOP('',(#388,#395,#396,#403));
#405=FACE_OUTER_BOUND('',#404,.T.);
#406=ADVANCED_FACE('',(#405),#387,.T.);
#407=CARTESIAN_POINT('',(11.159999999999998,-7.62,-3.0));
#408=DIRECTION('',(0.0,0.0,1.0));
#409=DIRECTION('',(0.0,-1.0,0.0));
#410=AXIS2_PLACEMENT_3D('',#407,#408,#409);
#411=PLANE('',#410);
#412=ORIENTED_EDGE('',*,*,#363,.F.);
#413=ORIENTED_EDGE('',*,*,#402,.F.);
#414=EDGE_LOOP('',(#412,#413));
#415=FACE_OUTER_BOUND('',#414,.T.);
#416=ADVANCED_FACE('',(#415),#411,.F.);
#417=CARTESIAN_POINT('',(11.159999999999998,-7.62,1.0));
#418=DIRECTION('',(0.0,0.0,1.0));
#419=DIRECTION('',(0.0,-1.0,0.0));
#420=AXIS2_PLACEMENT_3D('',#417,#418,#419);
#421=PLANE('',#420);
#422=ORIENTED_EDGE('',*,*,#378,.T.);
#423=ORIENTED_EDGE('',*,*,#394,.T.);
#424=EDGE_LOOP('',(#422,#423));
#425=FACE_OUTER_BOUND('',#424,.T.);
#426=ADVANCED_FACE('',(#425),#421,.T.);
#427=CLOSED_SHELL('',(#382,#406,#416,#426));
#428=MANIFOLD_SOLID_BREP('758',#427);
#429=STYLED_ITEM('NONE',(#159),#428);
#430=CARTESIAN_POINT('',(11.160000000000002,7.619999999999997,1.0));
#431=DIRECTION('',(0.0,0.0,-1.0));
#432=DIRECTION('',(0.0,-1.0,0.0));
#433=AXIS2_PLACEMENT_3D('',#430,#431,#432);
#434=CYLINDRICAL_SURFACE('',#433,0.3175);
#435=CARTESIAN_POINT('',(11.160000000000002,7.302499999999997,-3.0));
#436=VERTEX_POINT('',#435);
#437=CARTESIAN_POINT('',(11.160000000000002,7.302499999999997,1.0));
#438=VERTEX_POINT('',#437);
#439=CARTESIAN_POINT('',(11.160000000000002,7.302499999999997,-3.0));
#440=DIRECTION('',(0.0,0.0,1.0));
#441=VECTOR('',#440,4.0);
#442=LINE('',#439,#441);
#443=EDGE_CURVE('',#436,#438,#442,.T.);
#444=ORIENTED_EDGE('',*,*,#443,.F.);
#445=CARTESIAN_POINT('',(11.160000000000002,7.937499999999996,-3.0));
#446=VERTEX_POINT('',#445);
#447=CARTESIAN_POINT('',(11.160000000000002,7.619999999999997,-3.0));
#448=DIRECTION('',(0.0,0.0,1.0));
#449=DIRECTION('',(0.0,-1.0,0.0));
#450=AXIS2_PLACEMENT_3D('',#447,#448,#449);
#451=CIRCLE('',#450,0.3175);
#452=EDGE_CURVE('',#436,#446,#451,.T.);
#453=ORIENTED_EDGE('',*,*,#452,.T.);
#454=CARTESIAN_POINT('',(11.160000000000002,7.937499999999996,1.0));
#455=VERTEX_POINT('',#454);
#456=CARTESIAN_POINT('',(11.160000000000002,7.937499999999996,-3.0));
#457=DIRECTION('',(0.0,0.0,1.0));
#458=VECTOR('',#457,4.0);
#459=LINE('',#456,#458);
#460=EDGE_CURVE('',#446,#455,#459,.T.);
#461=ORIENTED_EDGE('',*,*,#460,.T.);
#462=CARTESIAN_POINT('',(11.160000000000002,7.619999999999997,1.0));
#463=DIRECTION('',(0.0,0.0,1.0));
#464=DIRECTION('',(0.0,-1.0,0.0));
#465=AXIS2_PLACEMENT_3D('',#462,#463,#464);
#466=CIRCLE('',#465,0.3175);
#467=EDGE_CURVE('',#438,#455,#466,.T.);
#468=ORIENTED_EDGE('',*,*,#467,.F.);
#469=EDGE_LOOP('',(#444,#453,#461,#468));
#470=FACE_OUTER_BOUND('',#469,.T.);
#471=ADVANCED_FACE('',(#470),#434,.T.);
#472=CARTESIAN_POINT('',(11.160000000000002,7.619999999999997,1.0));
#473=DIRECTION('',(0.0,0.0,-1.0));
#474=DIRECTION('',(0.0,-1.0,0.0));
#475=AXIS2_PLACEMENT_3D('',#472,#473,#474);
#476=CYLINDRICAL_SURFACE('',#475,0.3175);
#477=ORIENTED_EDGE('',*,*,#443,.T.);
#478=CARTESIAN_POINT('',(11.160000000000002,7.619999999999997,1.0));
#479=DIRECTION('',(0.0,0.0,1.0));
#480=DIRECTION('',(0.0,-1.0,0.0));
#481=AXIS2_PLACEMENT_3D('',#478,#479,#480);
#482=CIRCLE('',#481,0.3175);
#483=EDGE_CURVE('',#455,#438,#482,.T.);
#484=ORIENTED_EDGE('',*,*,#483,.F.);
#485=ORIENTED_EDGE('',*,*,#460,.F.);
#486=CARTESIAN_POINT('',(11.160000000000002,7.619999999999997,-3.0));
#487=DIRECTION('',(0.0,0.0,1.0));
#488=DIRECTION('',(0.0,-1.0,0.0));
#489=AXIS2_PLACEMENT_3D('',#486,#487,#488);
#490=CIRCLE('',#489,0.3175);
#491=EDGE_CURVE('',#446,#436,#490,.T.);
#492=ORIENTED_EDGE('',*,*,#491,.T.);
#493=EDGE_LOOP('',(#477,#484,#485,#492));
#494=FACE_OUTER_BOUND('',#493,.T.);
#495=ADVANCED_FACE('',(#494),#476,.T.);
#496=CARTESIAN_POINT('',(11.160000000000002,7.619999999999997,-3.0));
#497=DIRECTION('',(0.0,0.0,1.0));
#498=DIRECTION('',(0.0,-1.0,0.0));
#499=AXIS2_PLACEMENT_3D('',#496,#497,#498);
#500=PLANE('',#499);
#501=ORIENTED_EDGE('',*,*,#452,.F.);
#502=ORIENTED_EDGE('',*,*,#491,.F.);
#503=EDGE_LOOP('',(#501,#502));
#504=FACE_OUTER_BOUND('',#503,.T.);
#505=ADVANCED_FACE('',(#504),#500,.F.);
#506=CARTESIAN_POINT('',(11.160000000000002,7.619999999999997,1.0));
#507=DIRECTION('',(0.0,0.0,1.0));
#508=DIRECTION('',(0.0,-1.0,0.0));
#509=AXIS2_PLACEMENT_3D('',#506,#507,#508);
#510=PLANE('',#509);
#511=ORIENTED_EDGE('',*,*,#467,.T.);
#512=ORIENTED_EDGE('',*,*,#483,.T.);
#513=EDGE_LOOP('',(#511,#512));
#514=FACE_OUTER_BOUND('',#513,.T.);
#515=ADVANCED_FACE('',(#514),#510,.T.);
#516=CLOSED_SHELL('',(#471,#495,#505,#515));
#517=MANIFOLD_SOLID_BREP('754',#516);
#518=STYLED_ITEM('NONE',(#159),#517);
#519=CARTESIAN_POINT('',(-13.600000000000001,-12.000000000000002,1.2));
#520=DIRECTION('',(0.0,0.0,1.0));
#521=DIRECTION('',(-0.707106781186548,-0.707106781186547,0.0));
#522=AXIS2_PLACEMENT_3D('',#519,#520,#521);
#523=CYLINDRICAL_SURFACE('',#522,0.2);
#524=CARTESIAN_POINT('',(-13.600000000000001,-12.200000000000001,1.4));
#525=VERTEX_POINT('',#524);
#526=CARTESIAN_POINT('',(-13.800000000000001,-12.000000000000002,1.4));
#527=VERTEX_POINT('',#526);
#528=CARTESIAN_POINT('',(-13.600000000000001,-12.000000000000002,1.4));
#529=DIRECTION('',(0.0,0.0,-1.0));
#530=DIRECTION('',(-0.707106781186548,-0.707106781186547,0.0));
#531=AXIS2_PLACEMENT_3D('',#528,#529,#530);
#532=CIRCLE('',#531,0.2);
#533=EDGE_CURVE('',#525,#527,#532,.T.);
#534=ORIENTED_EDGE('',*,*,#533,.T.);
#535=CARTESIAN_POINT('',(-13.800000000000001,-12.000000000000002,1.2));
#536=VERTEX_POINT('',#535);
#537=CARTESIAN_POINT('',(-13.800000000000001,-12.000000000000002,1.2));
#538=DIRECTION('',(0.0,0.0,1.0));
#539=VECTOR('',#538,0.2);
#540=LINE('',#537,#539);
#541=EDGE_CURVE('',#536,#527,#540,.T.);
#542=ORIENTED_EDGE('',*,*,#541,.F.);
#543=CARTESIAN_POINT('',(-13.600000000000001,-12.200000000000001,1.2));
#544=VERTEX_POINT('',#543);
#545=CARTESIAN_POINT('',(-13.600000000000001,-12.000000000000002,1.2));
#546=DIRECTION('',(0.0,0.0,1.0));
#547=DIRECTION('',(-0.707106781186548,-0.707106781186547,0.0));
#548=AXIS2_PLACEMENT_3D('',#545,#546,#547);
#549=CIRCLE('',#548,0.2);
#550=EDGE_CURVE('',#536,#544,#549,.T.);
#551=ORIENTED_EDGE('',*,*,#550,.T.);
#552=CARTESIAN_POINT('',(-13.600000000000001,-12.200000000000001,1.2));
#553=DIRECTION('',(0.0,0.0,1.0));
#554=VECTOR('',#553,0.2);
#555=LINE('',#552,#554);
#556=EDGE_CURVE('',#544,#525,#555,.T.);
#557=ORIENTED_EDGE('',*,*,#556,.T.);
#558=EDGE_LOOP('',(#534,#542,#551,#557));
#559=FACE_OUTER_BOUND('',#558,.T.);
#560=ADVANCED_FACE('',(#559),#523,.T.);
#561=CARTESIAN_POINT('',(-13.800000000000001,-12.000000000000002,1.2));
#562=DIRECTION('',(-1.0,0.0,0.0));
#563=DIRECTION('',(0.0,0.0,-1.0));
#564=AXIS2_PLACEMENT_3D('',#561,#562,#563);
#565=PLANE('',#564);
#566=CARTESIAN_POINT('',(-13.800000000000001,12.000000000000002,1.4));
#567=VERTEX_POINT('',#566);
#568=CARTESIAN_POINT('',(-13.800000000000001,-12.000000000000002,1.4));
#569=DIRECTION('',(0.0,1.0,0.0));
#570=VECTOR('',#569,24.000000000000004);
#571=LINE('',#568,#570);
#572=EDGE_CURVE('',#527,#567,#571,.T.);
#573=ORIENTED_EDGE('',*,*,#572,.T.);
#574=CARTESIAN_POINT('',(-13.800000000000001,12.000000000000002,1.2));
#575=VERTEX_POINT('',#574);
#576=CARTESIAN_POINT('',(-13.800000000000001,12.000000000000002,1.2));
#577=DIRECTION('',(0.0,0.0,1.0));
#578=VECTOR('',#577,0.2);
#579=LINE('',#576,#578);
#580=EDGE_CURVE('',#575,#567,#579,.T.);
#581=ORIENTED_EDGE('',*,*,#580,.F.);
#582=CARTESIAN_POINT('',(-13.800000000000001,12.000000000000002,1.2));
#583=DIRECTION('',(0.0,-1.0,0.0));
#584=VECTOR('',#583,24.000000000000004);
#585=LINE('',#582,#584);
#586=EDGE_CURVE('',#575,#536,#585,.T.);
#587=ORIENTED_EDGE('',*,*,#586,.T.);
#588=ORIENTED_EDGE('',*,*,#541,.T.);
#589=EDGE_LOOP('',(#573,#581,#587,#588));
#590=FACE_OUTER_BOUND('',#589,.T.);
#591=ADVANCED_FACE('',(#590),#565,.T.);
#592=CARTESIAN_POINT('',(-13.600000000000001,12.000000000000002,1.2));
#593=DIRECTION('',(0.0,0.0,1.0));
#594=DIRECTION('',(-0.707106781186547,0.707106781186548,0.0));
#595=AXIS2_PLACEMENT_3D('',#592,#593,#594);
#596=CYLINDRICAL_SURFACE('',#595,0.2);
#597=CARTESIAN_POINT('',(-13.600000000000001,12.200000000000001,1.4));
#598=VERTEX_POINT('',#597);
#599=CARTESIAN_POINT('',(-13.600000000000001,12.000000000000002,1.4));
#600=DIRECTION('',(0.0,0.0,-1.0));
#601=DIRECTION('',(-0.707106781186547,0.707106781186548,0.0));
#602=AXIS2_PLACEMENT_3D('',#599,#600,#601);
#603=CIRCLE('',#602,0.2);
#604=EDGE_CURVE('',#567,#598,#603,.T.);
#605=ORIENTED_EDGE('',*,*,#604,.T.);
#606=CARTESIAN_POINT('',(-13.600000000000001,12.200000000000001,1.2));
#607=VERTEX_POINT('',#606);
#608=CARTESIAN_POINT('',(-13.600000000000001,12.200000000000001,1.2));
#609=DIRECTION('',(0.0,0.0,1.0));
#610=VECTOR('',#609,0.2);
#611=LINE('',#608,#610);
#612=EDGE_CURVE('',#607,#598,#611,.T.);
#613=ORIENTED_EDGE('',*,*,#612,.F.);
#614=CARTESIAN_POINT('',(-13.600000000000001,12.000000000000002,1.2));
#615=DIRECTION('',(0.0,0.0,1.0));
#616=DIRECTION('',(-0.707106781186547,0.707106781186548,0.0));
#617=AXIS2_PLACEMENT_3D('',#614,#615,#616);
#618=CIRCLE('',#617,0.2);
#619=EDGE_CURVE('',#607,#575,#618,.T.);
#620=ORIENTED_EDGE('',*,*,#619,.T.);
#621=ORIENTED_EDGE('',*,*,#580,.T.);
#622=EDGE_LOOP('',(#605,#613,#620,#621));
#623=FACE_OUTER_BOUND('',#622,.T.);
#624=ADVANCED_FACE('',(#623),#596,.T.);
#625=CARTESIAN_POINT('',(-13.600000000000001,12.200000000000001,1.2));
#626=DIRECTION('',(0.0,1.0,0.0));
#627=DIRECTION('',(0.0,0.0,1.0));
#628=AXIS2_PLACEMENT_3D('',#625,#626,#627);
#629=PLANE('',#628);
#630=CARTESIAN_POINT('',(13.600000000000001,12.200000000000001,1.4));
#631=VERTEX_POINT('',#630);
#632=CARTESIAN_POINT('',(-13.600000000000001,12.200000000000003,1.4));
#633=DIRECTION('',(1.0,0.0,0.0));
#634=VECTOR('',#633,27.200000000000003);
#635=LINE('',#632,#634);
#636=EDGE_CURVE('',#598,#631,#635,.T.);
#637=ORIENTED_EDGE('',*,*,#636,.T.);
#638=CARTESIAN_POINT('',(13.600000000000001,12.200000000000001,1.2));
#639=VERTEX_POINT('',#638);
#640=CARTESIAN_POINT('',(13.600000000000001,12.200000000000001,1.2));
#641=DIRECTION('',(0.0,0.0,1.0));
#642=VECTOR('',#641,0.2);
#643=LINE('',#640,#642);
#644=EDGE_CURVE('',#639,#631,#643,.T.);
#645=ORIENTED_EDGE('',*,*,#644,.F.);
#646=CARTESIAN_POINT('',(13.600000000000001,12.200000000000001,1.2));
#647=DIRECTION('',(-1.0,0.0,0.0));
#648=VECTOR('',#647,27.200000000000003);
#649=LINE('',#646,#648);
#650=EDGE_CURVE('',#639,#607,#649,.T.);
#651=ORIENTED_EDGE('',*,*,#650,.T.);
#652=ORIENTED_EDGE('',*,*,#612,.T.);
#653=EDGE_LOOP('',(#637,#645,#651,#652));
#654=FACE_OUTER_BOUND('',#653,.T.);
#655=ADVANCED_FACE('',(#654),#629,.T.);
#656=CARTESIAN_POINT('',(13.600000000000001,12.000000000000002,1.2));
#657=DIRECTION('',(0.0,0.0,1.0));
#658=DIRECTION('',(0.707106781186548,0.707106781186547,0.0));
#659=AXIS2_PLACEMENT_3D('',#656,#657,#658);
#660=CYLINDRICAL_SURFACE('',#659,0.2);
#661=CARTESIAN_POINT('',(13.800000000000001,12.000000000000002,1.4));
#662=VERTEX_POINT('',#661);
#663=CARTESIAN_POINT('',(13.600000000000001,12.000000000000002,1.4));
#664=DIRECTION('',(0.0,0.0,-1.0));
#665=DIRECTION('',(0.707106781186548,0.707106781186547,0.0));
#666=AXIS2_PLACEMENT_3D('',#663,#664,#665);
#667=CIRCLE('',#666,0.2);
#668=EDGE_CURVE('',#631,#662,#667,.T.);
#669=ORIENTED_EDGE('',*,*,#668,.T.);
#670=CARTESIAN_POINT('',(13.800000000000001,12.000000000000002,1.2));
#671=VERTEX_POINT('',#670);
#672=CARTESIAN_POINT('',(13.800000000000001,12.000000000000002,1.2));
#673=DIRECTION('',(0.0,0.0,1.0));
#674=VECTOR('',#673,0.2);
#675=LINE('',#672,#674);
#676=EDGE_CURVE('',#671,#662,#675,.T.);
#677=ORIENTED_EDGE('',*,*,#676,.F.);
#678=CARTESIAN_POINT('',(13.600000000000001,12.000000000000002,1.2));
#679=DIRECTION('',(0.0,0.0,1.0));
#680=DIRECTION('',(0.707106781186548,0.707106781186547,0.0));
#681=AXIS2_PLACEMENT_3D('',#678,#679,#680);
#682=CIRCLE('',#681,0.2);
#683=EDGE_CURVE('',#671,#639,#682,.T.);
#684=ORIENTED_EDGE('',*,*,#683,.T.);
#685=ORIENTED_EDGE('',*,*,#644,.T.);
#686=EDGE_LOOP('',(#669,#677,#684,#685));
#687=FACE_OUTER_BOUND('',#686,.T.);
#688=ADVANCED_FACE('',(#687),#660,.T.);
#689=CARTESIAN_POINT('',(13.800000000000001,12.000000000000002,1.2));
#690=DIRECTION('',(1.0,0.0,0.0));
#691=DIRECTION('',(0.0,0.0,1.0));
#692=AXIS2_PLACEMENT_3D('',#689,#690,#691);
#693=PLANE('',#692);
#694=CARTESIAN_POINT('',(13.800000000000001,-12.000000000000002,1.4));
#695=VERTEX_POINT('',#694);
#696=CARTESIAN_POINT('',(13.800000000000001,12.000000000000002,1.4));
#697=DIRECTION('',(0.0,-1.0,0.0));
#698=VECTOR('',#697,24.000000000000004);
#699=LINE('',#696,#698);
#700=EDGE_CURVE('',#662,#695,#699,.T.);
#701=ORIENTED_EDGE('',*,*,#700,.T.);
#702=CARTESIAN_POINT('',(13.800000000000001,-12.000000000000002,1.2));
#703=VERTEX_POINT('',#702);
#704=CARTESIAN_POINT('',(13.800000000000001,-12.000000000000002,1.2));
#705=DIRECTION('',(0.0,0.0,1.0));
#706=VECTOR('',#705,0.2);
#707=LINE('',#704,#706);
#708=EDGE_CURVE('',#703,#695,#707,.T.);
#709=ORIENTED_EDGE('',*,*,#708,.F.);
#710=CARTESIAN_POINT('',(13.800000000000001,-12.000000000000002,1.2));
#711=DIRECTION('',(0.0,1.0,0.0));
#712=VECTOR('',#711,24.000000000000004);
#713=LINE('',#710,#712);
#714=EDGE_CURVE('',#703,#671,#713,.T.);
#715=ORIENTED_EDGE('',*,*,#714,.T.);
#716=ORIENTED_EDGE('',*,*,#676,.T.);
#717=EDGE_LOOP('',(#701,#709,#715,#716));
#718=FACE_OUTER_BOUND('',#717,.T.);
#719=ADVANCED_FACE('',(#718),#693,.T.);
#720=CARTESIAN_POINT('',(13.600000000000001,-12.000000000000002,1.2));
#721=DIRECTION('',(0.0,0.0,1.0));
#722=DIRECTION('',(0.707106781186547,-0.707106781186548,0.0));
#723=AXIS2_PLACEMENT_3D('',#720,#721,#722);
#724=CYLINDRICAL_SURFACE('',#723,0.2);
#725=CARTESIAN_POINT('',(13.600000000000001,-12.200000000000001,1.4));
#726=VERTEX_POINT('',#725);
#727=CARTESIAN_POINT('',(13.600000000000001,-12.000000000000002,1.4));
#728=DIRECTION('',(0.0,0.0,-1.0));
#729=DIRECTION('',(0.707106781186547,-0.707106781186548,0.0));
#730=AXIS2_PLACEMENT_3D('',#727,#728,#729);
#731=CIRCLE('',#730,0.2);
#732=EDGE_CURVE('',#695,#726,#731,.T.);
#733=ORIENTED_EDGE('',*,*,#732,.T.);
#734=CARTESIAN_POINT('',(13.600000000000001,-12.200000000000001,1.2));
#735=VERTEX_POINT('',#734);
#736=CARTESIAN_POINT('',(13.600000000000001,-12.200000000000001,1.2));
#737=DIRECTION('',(0.0,0.0,1.0));
#738=VECTOR('',#737,0.2);
#739=LINE('',#736,#738);
#740=EDGE_CURVE('',#735,#726,#739,.T.);
#741=ORIENTED_EDGE('',*,*,#740,.F.);
#742=CARTESIAN_POINT('',(13.600000000000001,-12.000000000000002,1.2));
#743=DIRECTION('',(0.0,0.0,1.0));
#744=DIRECTION('',(0.707106781186547,-0.707106781186548,0.0));
#745=AXIS2_PLACEMENT_3D('',#742,#743,#744);
#746=CIRCLE('',#745,0.2);
#747=EDGE_CURVE('',#735,#703,#746,.T.);
#748=ORIENTED_EDGE('',*,*,#747,.T.);
#749=ORIENTED_EDGE('',*,*,#708,.T.);
#750=EDGE_LOOP('',(#733,#741,#748,#749));
#751=FACE_OUTER_BOUND('',#750,.T.);
#752=ADVANCED_FACE('',(#751),#724,.T.);
#753=CARTESIAN_POINT('',(13.600000000000001,-12.200000000000001,1.2));
#754=DIRECTION('',(0.0,-1.0,0.0));
#755=DIRECTION('',(0.0,0.0,-1.0));
#756=AXIS2_PLACEMENT_3D('',#753,#754,#755);
#757=PLANE('',#756);
#758=CARTESIAN_POINT('',(13.600000000000001,-12.200000000000003,1.4));
#759=DIRECTION('',(-1.0,0.0,0.0));
#760=VECTOR('',#759,27.200000000000003);
#761=LINE('',#758,#760);
#762=EDGE_CURVE('',#726,#525,#761,.T.);
#763=ORIENTED_EDGE('',*,*,#762,.T.);
#764=ORIENTED_EDGE('',*,*,#556,.F.);
#765=CARTESIAN_POINT('',(-13.600000000000001,-12.200000000000001,1.2));
#766=DIRECTION('',(1.0,0.0,0.0));
#767=VECTOR('',#766,27.200000000000003);
#768=LINE('',#765,#767);
#769=EDGE_CURVE('',#544,#735,#768,.T.);
#770=ORIENTED_EDGE('',*,*,#769,.T.);
#771=ORIENTED_EDGE('',*,*,#740,.T.);
#772=EDGE_LOOP('',(#763,#764,#770,#771));
#773=FACE_OUTER_BOUND('',#772,.T.);
#774=ADVANCED_FACE('',(#773),#757,.T.);
#775=CARTESIAN_POINT('',(2.775558E-017,-6.245005E-017,1.2));
#776=DIRECTION('',(0.0,0.0,1.0));
#777=DIRECTION('',(0.0,-1.0,0.0));
#778=AXIS2_PLACEMENT_3D('',#775,#776,#777);
#779=PLANE('',#778);
#780=ORIENTED_EDGE('',*,*,#769,.F.);
#781=ORIENTED_EDGE('',*,*,#550,.F.);
#782=ORIENTED_EDGE('',*,*,#586,.F.);
#783=ORIENTED_EDGE('',*,*,#619,.F.);
#784=ORIENTED_EDGE('',*,*,#650,.F.);
#785=ORIENTED_EDGE('',*,*,#683,.F.);
#786=ORIENTED_EDGE('',*,*,#714,.F.);
#787=ORIENTED_EDGE('',*,*,#747,.F.);
#788=EDGE_LOOP('',(#780,#781,#782,#783,#784,#785,#786,#787));
#789=FACE_OUTER_BOUND('',#788,.T.);
#790=ADVANCED_FACE('',(#789),#779,.F.);
#791=CARTESIAN_POINT('',(-1.387779E-017,6.245005E-017,1.4));
#792=DIRECTION('',(0.0,0.0,1.0));
#793=DIRECTION('',(0.0,-1.0,0.0));
#794=AXIS2_PLACEMENT_3D('',#791,#792,#793);
#795=PLANE('',#794);
#796=ORIENTED_EDGE('',*,*,#533,.F.);
#797=ORIENTED_EDGE('',*,*,#762,.F.);
#798=ORIENTED_EDGE('',*,*,#732,.F.);
#799=ORIENTED_EDGE('',*,*,#700,.F.);
#800=ORIENTED_EDGE('',*,*,#668,.F.);
#801=ORIENTED_EDGE('',*,*,#636,.F.);
#802=ORIENTED_EDGE('',*,*,#604,.F.);
#803=ORIENTED_EDGE('',*,*,#572,.F.);
#804=EDGE_LOOP('',(#796,#797,#798,#799,#800,#801,#802,#803));
#805=FACE_OUTER_BOUND('',#804,.T.);
#806=ADVANCED_FACE('',(#805),#795,.T.);
#807=CLOSED_SHELL('',(#560,#591,#624,#655,#688,#719,#752,#774,#790,#806));
#808=MANIFOLD_SOLID_BREP('74B',#807);
#809=COLOUR_RGB('250',0.33,0.33,0.33);
#810=SURFACE_STYLE_USAGE(.BOTH.,#811);
#811=SURFACE_SIDE_STYLE('NONE',(#812));
#812=SURFACE_STYLE_FILL_AREA(#813);
#813=FILL_AREA_STYLE('NONE',(#814));
#814=FILL_AREA_STYLE_COLOUR('NONE',#809);
#815=PRESENTATION_STYLE_ASSIGNMENT((#810));
#816=STYLED_ITEM('NONE',(#815),#808);
#817=CARTESIAN_POINT('',(-13.600000000000001,-12.000000000000002,1.0));
#818=DIRECTION('',(0.0,0.0,1.0));
#819=DIRECTION('',(-0.707106781186548,-0.707106781186547,0.0));
#820=AXIS2_PLACEMENT_3D('',#817,#818,#819);
#821=CYLINDRICAL_SURFACE('',#820,0.2);
#822=CARTESIAN_POINT('',(-13.600000000000001,-12.200000000000001,1.4));
#823=VERTEX_POINT('',#822);
#824=CARTESIAN_POINT('',(-13.800000000000001,-12.000000000000002,1.4));
#825=VERTEX_POINT('',#824);
#826=CARTESIAN_POINT('',(-13.600000000000001,-12.000000000000002,1.4));
#827=DIRECTION('',(0.0,0.0,-1.0));
#828=DIRECTION('',(-0.707106781186548,-0.707106781186547,0.0));
#829=AXIS2_PLACEMENT_3D('',#826,#827,#828);
#830=CIRCLE('',#829,0.2);
#831=EDGE_CURVE('',#823,#825,#830,.T.);
#832=ORIENTED_EDGE('',*,*,#831,.F.);
#833=CARTESIAN_POINT('',(-13.600000000000001,-12.200000000000001,1.0));
#834=VERTEX_POINT('',#833);
#835=CARTESIAN_POINT('',(-13.600000000000001,-12.200000000000001,1.0));
#836=DIRECTION('',(0.0,0.0,1.0));
#837=VECTOR('',#836,0.4);
#838=LINE('',#835,#837);
#839=EDGE_CURVE('',#834,#823,#838,.T.);
#840=ORIENTED_EDGE('',*,*,#839,.F.);
#841=CARTESIAN_POINT('',(-13.800000000000001,-12.000000000000002,1.0));
#842=VERTEX_POINT('',#841);
#843=CARTESIAN_POINT('',(-13.600000000000001,-12.000000000000002,1.0));
#844=DIRECTION('',(0.0,0.0,1.0));
#845=DIRECTION('',(-0.707106781186548,-0.707106781186547,0.0));
#846=AXIS2_PLACEMENT_3D('',#843,#844,#845);
#847=CIRCLE('',#846,0.2);
#848=EDGE_CURVE('',#842,#834,#847,.T.);
#849=ORIENTED_EDGE('',*,*,#848,.F.);
#850=CARTESIAN_POINT('',(-13.800000000000001,-12.000000000000002,1.0));
#851=DIRECTION('',(0.0,0.0,1.0));
#852=VECTOR('',#851,0.4);
#853=LINE('',#850,#852);
#854=EDGE_CURVE('',#842,#825,#853,.T.);
#855=ORIENTED_EDGE('',*,*,#854,.T.);
#856=EDGE_LOOP('',(#832,#840,#849,#855));
#857=FACE_OUTER_BOUND('',#856,.T.);
#858=ADVANCED_FACE('',(#857),#821,.F.);
#859=CARTESIAN_POINT('',(-13.800000000000001,-12.000000000000002,1.0));
#860=DIRECTION('',(-1.0,0.0,0.0));
#861=DIRECTION('',(0.0,0.0,-1.0));
#862=AXIS2_PLACEMENT_3D('',#859,#860,#861);
#863=PLANE('',#862);
#864=CARTESIAN_POINT('',(-13.800000000000001,12.000000000000002,1.4));
#865=VERTEX_POINT('',#864);
#866=CARTESIAN_POINT('',(-13.800000000000001,-12.000000000000002,1.4));
#867=DIRECTION('',(0.0,1.0,0.0));
#868=VECTOR('',#867,24.000000000000004);
#869=LINE('',#866,#868);
#870=EDGE_CURVE('',#825,#865,#869,.T.);
#871=ORIENTED_EDGE('',*,*,#870,.F.);
#872=ORIENTED_EDGE('',*,*,#854,.F.);
#873=CARTESIAN_POINT('',(-13.800000000000001,12.000000000000002,1.0));
#874=VERTEX_POINT('',#873);
#875=CARTESIAN_POINT('',(-13.800000000000001,12.000000000000004,1.0));
#876=DIRECTION('',(0.0,-1.0,0.0));
#877=VECTOR('',#876,24.000000000000004);
#878=LINE('',#875,#877);
#879=EDGE_CURVE('',#874,#842,#878,.T.);
#880=ORIENTED_EDGE('',*,*,#879,.F.);
#881=CARTESIAN_POINT('',(-13.800000000000001,12.000000000000002,1.0));
#882=DIRECTION('',(0.0,0.0,1.0));
#883=VECTOR('',#882,0.4);
#884=LINE('',#881,#883);
#885=EDGE_CURVE('',#874,#865,#884,.T.);
#886=ORIENTED_EDGE('',*,*,#885,.T.);
#887=EDGE_LOOP('',(#871,#872,#880,#886));
#888=FACE_OUTER_BOUND('',#887,.T.);
#889=ADVANCED_FACE('',(#888),#863,.F.);
#890=CARTESIAN_POINT('',(-13.600000000000001,12.000000000000002,1.0));
#891=DIRECTION('',(0.0,0.0,1.0));
#892=DIRECTION('',(-0.707106781186547,0.707106781186548,0.0));
#893=AXIS2_PLACEMENT_3D('',#890,#891,#892);
#894=CYLINDRICAL_SURFACE('',#893,0.2);
#895=CARTESIAN_POINT('',(-13.600000000000001,12.200000000000001,1.4));
#896=VERTEX_POINT('',#895);
#897=CARTESIAN_POINT('',(-13.600000000000001,12.000000000000002,1.4));
#898=DIRECTION('',(0.0,0.0,-1.0));
#899=DIRECTION('',(-0.707106781186547,0.707106781186548,0.0));
#900=AXIS2_PLACEMENT_3D('',#897,#898,#899);
#901=CIRCLE('',#900,0.2);
#902=EDGE_CURVE('',#865,#896,#901,.T.);
#903=ORIENTED_EDGE('',*,*,#902,.F.);
#904=ORIENTED_EDGE('',*,*,#885,.F.);
#905=CARTESIAN_POINT('',(-13.600000000000001,12.200000000000001,1.0));
#906=VERTEX_POINT('',#905);
#907=CARTESIAN_POINT('',(-13.600000000000001,12.000000000000002,1.0));
#908=DIRECTION('',(0.0,0.0,1.0));
#909=DIRECTION('',(-0.707106781186547,0.707106781186548,0.0));
#910=AXIS2_PLACEMENT_3D('',#907,#908,#909);
#911=CIRCLE('',#910,0.2);
#912=EDGE_CURVE('',#906,#874,#911,.T.);
#913=ORIENTED_EDGE('',*,*,#912,.F.);
#914=CARTESIAN_POINT('',(-13.600000000000001,12.200000000000001,1.0));
#915=DIRECTION('',(0.0,0.0,1.0));
#916=VECTOR('',#915,0.4);
#917=LINE('',#914,#916);
#918=EDGE_CURVE('',#906,#896,#917,.T.);
#919=ORIENTED_EDGE('',*,*,#918,.T.);
#920=EDGE_LOOP('',(#903,#904,#913,#919));
#921=FACE_OUTER_BOUND('',#920,.T.);
#922=ADVANCED_FACE('',(#921),#894,.F.);
#923=CARTESIAN_POINT('',(-13.600000000000001,12.200000000000001,1.0));
#924=DIRECTION('',(0.0,1.0,0.0));
#925=DIRECTION('',(0.0,0.0,1.0));
#926=AXIS2_PLACEMENT_3D('',#923,#924,#925);
#927=PLANE('',#926);
#928=CARTESIAN_POINT('',(13.600000000000001,12.200000000000001,1.4));
#929=VERTEX_POINT('',#928);
#930=CARTESIAN_POINT('',(-13.600000000000001,12.200000000000003,1.4));
#931=DIRECTION('',(1.0,0.0,0.0));
#932=VECTOR('',#931,27.200000000000003);
#933=LINE('',#930,#932);
#934=EDGE_CURVE('',#896,#929,#933,.T.);
#935=ORIENTED_EDGE('',*,*,#934,.F.);
#936=ORIENTED_EDGE('',*,*,#918,.F.);
#937=CARTESIAN_POINT('',(13.600000000000001,12.200000000000001,1.0));
#938=VERTEX_POINT('',#937);
#939=CARTESIAN_POINT('',(13.600000000000001,12.199999999999998,1.0));
#940=DIRECTION('',(-1.0,0.0,0.0));
#941=VECTOR('',#940,27.200000000000003);
#942=LINE('',#939,#941);
#943=EDGE_CURVE('',#938,#906,#942,.T.);
#944=ORIENTED_EDGE('',*,*,#943,.F.);
#945=CARTESIAN_POINT('',(13.600000000000001,12.200000000000001,1.0));
#946=DIRECTION('',(0.0,0.0,1.0));
#947=VECTOR('',#946,0.4);
#948=LINE('',#945,#947);
#949=EDGE_CURVE('',#938,#929,#948,.T.);
#950=ORIENTED_EDGE('',*,*,#949,.T.);
#951=EDGE_LOOP('',(#935,#936,#944,#950));
#952=FACE_OUTER_BOUND('',#951,.T.);
#953=ADVANCED_FACE('',(#952),#927,.F.);
#954=CARTESIAN_POINT('',(13.600000000000001,12.000000000000002,1.0));
#955=DIRECTION('',(0.0,0.0,1.0));
#956=DIRECTION('',(0.707106781186548,0.707106781186547,0.0));
#957=AXIS2_PLACEMENT_3D('',#954,#955,#956);
#958=CYLINDRICAL_SURFACE('',#957,0.2);
#959=CARTESIAN_POINT('',(13.800000000000001,12.000000000000002,1.4));
#960=VERTEX_POINT('',#959);
#961=CARTESIAN_POINT('',(13.600000000000001,12.000000000000002,1.4));
#962=DIRECTION('',(0.0,0.0,-1.0));
#963=DIRECTION('',(0.707106781186548,0.707106781186547,0.0));
#964=AXIS2_PLACEMENT_3D('',#961,#962,#963);
#965=CIRCLE('',#964,0.2);
#966=EDGE_CURVE('',#929,#960,#965,.T.);
#967=ORIENTED_EDGE('',*,*,#966,.F.);
#968=ORIENTED_EDGE('',*,*,#949,.F.);
#969=CARTESIAN_POINT('',(13.800000000000001,12.000000000000002,1.0));
#970=VERTEX_POINT('',#969);
#971=CARTESIAN_POINT('',(13.600000000000001,12.000000000000002,1.0));
#972=DIRECTION('',(0.0,0.0,1.0));
#973=DIRECTION('',(0.707106781186548,0.707106781186547,0.0));
#974=AXIS2_PLACEMENT_3D('',#971,#972,#973);
#975=CIRCLE('',#974,0.2);
#976=EDGE_CURVE('',#970,#938,#975,.T.);
#977=ORIENTED_EDGE('',*,*,#976,.F.);
#978=CARTESIAN_POINT('',(13.800000000000001,12.000000000000002,1.0));
#979=DIRECTION('',(0.0,0.0,1.0));
#980=VECTOR('',#979,0.4);
#981=LINE('',#978,#980);
#982=EDGE_CURVE('',#970,#960,#981,.T.);
#983=ORIENTED_EDGE('',*,*,#982,.T.);
#984=EDGE_LOOP('',(#967,#968,#977,#983));
#985=FACE_OUTER_BOUND('',#984,.T.);
#986=ADVANCED_FACE('',(#985),#958,.F.);
#987=CARTESIAN_POINT('',(13.800000000000001,12.000000000000002,1.0));
#988=DIRECTION('',(1.0,0.0,0.0));
#989=DIRECTION('',(0.0,0.0,1.0));
#990=AXIS2_PLACEMENT_3D('',#987,#988,#989);
#991=PLANE('',#990);
#992=CARTESIAN_POINT('',(13.800000000000001,-12.000000000000002,1.4));
#993=VERTEX_POINT('',#992);
#994=CARTESIAN_POINT('',(13.800000000000001,12.000000000000002,1.4));
#995=DIRECTION('',(0.0,-1.0,0.0));
#996=VECTOR('',#995,24.000000000000004);
#997=LINE('',#994,#996);
#998=EDGE_CURVE('',#960,#993,#997,.T.);
#999=ORIENTED_EDGE('',*,*,#998,.F.);
#1000=ORIENTED_EDGE('',*,*,#982,.F.);
#1001=CARTESIAN_POINT('',(13.800000000000001,-12.000000000000002,1.0));
#1002=VERTEX_POINT('',#1001);
#1003=CARTESIAN_POINT('',(13.800000000000001,-12.000000000000004,1.0));
#1004=DIRECTION('',(0.0,1.0,0.0));
#1005=VECTOR('',#1004,24.000000000000004);
#1006=LINE('',#1003,#1005);
#1007=EDGE_CURVE('',#1002,#970,#1006,.T.);
#1008=ORIENTED_EDGE('',*,*,#1007,.F.);
#1009=CARTESIAN_POINT('',(13.800000000000001,-12.000000000000002,1.0));
#1010=DIRECTION('',(0.0,0.0,1.0));
#1011=VECTOR('',#1010,0.4);
#1012=LINE('',#1009,#1011);
#1013=EDGE_CURVE('',#1002,#993,#1012,.T.);
#1014=ORIENTED_EDGE('',*,*,#1013,.T.);
#1015=EDGE_LOOP('',(#999,#1000,#1008,#1014));
#1016=FACE_OUTER_BOUND('',#1015,.T.);
#1017=ADVANCED_FACE('',(#1016),#991,.F.);
#1018=CARTESIAN_POINT('',(13.600000000000001,-12.000000000000002,1.0));
#1019=DIRECTION('',(0.0,0.0,1.0));
#1020=DIRECTION('',(0.707106781186547,-0.707106781186548,0.0));
#1021=AXIS2_PLACEMENT_3D('',#1018,#1019,#1020);
#1022=CYLINDRICAL_SURFACE('',#1021,0.2);
#1023=CARTESIAN_POINT('',(13.600000000000001,-12.200000000000001,1.4));
#1024=VERTEX_POINT('',#1023);
#1025=CARTESIAN_POINT('',(13.600000000000001,-12.000000000000002,1.4));
#1026=DIRECTION('',(0.0,0.0,-1.0));
#1027=DIRECTION('',(0.707106781186547,-0.707106781186548,0.0));
#1028=AXIS2_PLACEMENT_3D('',#1025,#1026,#1027);
#1029=CIRCLE('',#1028,0.2);
#1030=EDGE_CURVE('',#993,#1024,#1029,.T.);
#1031=ORIENTED_EDGE('',*,*,#1030,.F.);
#1032=ORIENTED_EDGE('',*,*,#1013,.F.);
#1033=CARTESIAN_POINT('',(13.600000000000001,-12.200000000000001,1.0));
#1034=VERTEX_POINT('',#1033);
#1035=CARTESIAN_POINT('',(13.600000000000001,-12.000000000000002,1.0));
#1036=DIRECTION('',(0.0,0.0,1.0));
#1037=DIRECTION('',(0.707106781186547,-0.707106781186548,0.0));
#1038=AXIS2_PLACEMENT_3D('',#1035,#1036,#1037);
#1039=CIRCLE('',#1038,0.2);
#1040=EDGE_CURVE('',#1034,#1002,#1039,.T.);
#1041=ORIENTED_EDGE('',*,*,#1040,.F.);
#1042=CARTESIAN_POINT('',(13.600000000000001,-12.200000000000001,1.0));
#1043=DIRECTION('',(0.0,0.0,1.0));
#1044=VECTOR('',#1043,0.4);
#1045=LINE('',#1042,#1044);
#1046=EDGE_CURVE('',#1034,#1024,#1045,.T.);
#1047=ORIENTED_EDGE('',*,*,#1046,.T.);
#1048=EDGE_LOOP('',(#1031,#1032,#1041,#1047));
#1049=FACE_OUTER_BOUND('',#1048,.T.);
#1050=ADVANCED_FACE('',(#1049),#1022,.F.);
#1051=CARTESIAN_POINT('',(13.600000000000001,-12.200000000000001,1.0));
#1052=DIRECTION('',(0.0,-1.0,0.0));
#1053=DIRECTION('',(0.0,0.0,-1.0));
#1054=AXIS2_PLACEMENT_3D('',#1051,#1052,#1053);
#1055=PLANE('',#1054);
#1056=CARTESIAN_POINT('',(13.600000000000001,-12.200000000000003,1.4));
#1057=DIRECTION('',(-1.0,0.0,0.0));
#1058=VECTOR('',#1057,27.200000000000003);
#1059=LINE('',#1056,#1058);
#1060=EDGE_CURVE('',#1024,#823,#1059,.T.);
#1061=ORIENTED_EDGE('',*,*,#1060,.F.);
#1062=ORIENTED_EDGE('',*,*,#1046,.F.);
#1063=CARTESIAN_POINT('',(-13.600000000000001,-12.199999999999998,1.0));
#1064=DIRECTION('',(1.0,0.0,0.0));
#1065=VECTOR('',#1064,27.200000000000003);
#1066=LINE('',#1063,#1065);
#1067=EDGE_CURVE('',#834,#1034,#1066,.T.);
#1068=ORIENTED_EDGE('',*,*,#1067,.F.);
#1069=ORIENTED_EDGE('',*,*,#839,.T.);
#1070=EDGE_LOOP('',(#1061,#1062,#1068,#1069));
#1071=FACE_OUTER_BOUND('',#1070,.T.);
#1072=ADVANCED_FACE('',(#1071),#1055,.F.);
#1073=CARTESIAN_POINT('',(-1.387779E-017,6.245005E-017,1.4));
#1074=DIRECTION('',(0.0,0.0,1.0));
#1075=DIRECTION('',(0.0,-1.0,0.0));
#1076=AXIS2_PLACEMENT_3D('',#1073,#1074,#1075);
#1077=PLANE('',#1076);
#1078=ORIENTED_EDGE('',*,*,#831,.T.);
#1079=ORIENTED_EDGE('',*,*,#870,.T.);
#1080=ORIENTED_EDGE('',*,*,#902,.T.);
#1081=ORIENTED_EDGE('',*,*,#934,.T.);
#1082=ORIENTED_EDGE('',*,*,#966,.T.);
#1083=ORIENTED_EDGE('',*,*,#998,.T.);
#1084=ORIENTED_EDGE('',*,*,#1030,.T.);
#1085=ORIENTED_EDGE('',*,*,#1060,.T.);
#1086=EDGE_LOOP('',(#1078,#1079,#1080,#1081,#1082,#1083,#1084,#1085));
#1087=FACE_OUTER_BOUND('',#1086,.T.);
#1088=ADVANCED_FACE('',(#1087),#1077,.F.);
#1089=CARTESIAN_POINT('',(13.600000000000001,6.0,15.449999999999999));
#1090=DIRECTION('',(-3.566122E-017,-1.0,0.0));
#1091=DIRECTION('',(0.707106781186548,-1.298891E-016,0.707106781186548));
#1092=AXIS2_PLACEMENT_3D('',#1089,#1090,#1091);
#1093=CYLINDRICAL_SURFACE('',#1092,1.0);
#1094=CARTESIAN_POINT('',(14.600000000000001,12.0,15.449999999999999));
#1095=VERTEX_POINT('',#1094);
#1096=CARTESIAN_POINT('',(13.600000000000001,12.000000000000002,16.449999999999999));
#1097=VERTEX_POINT('',#1096);
#1098=CARTESIAN_POINT('',(13.600000000000003,12.000000000000002,15.449999999999999));
#1099=DIRECTION('',(0.0,-1.0,0.0));
#1100=DIRECTION('',(1.0,0.0,0.0));
#1101=AXIS2_PLACEMENT_3D('',#1098,#1099,#1100);
#1102=CIRCLE('',#1101,0.999999999999998);
#1103=EDGE_CURVE('',#1095,#1097,#1102,.T.);
#1104=ORIENTED_EDGE('',*,*,#1103,.T.);
#1105=CARTESIAN_POINT('',(13.600000000000003,-12.000000000000002,16.449999999999999));
#1106=VERTEX_POINT('',#1105);
#1107=CARTESIAN_POINT('',(13.600000000000001,12.0,16.449999999999999));
#1108=DIRECTION('',(0.0,-1.0,0.0));
#1109=VECTOR('',#1108,24.000000000000004);
#1110=LINE('',#1107,#1109);
#1111=EDGE_CURVE('',#1097,#1106,#1110,.T.);
#1112=ORIENTED_EDGE('',*,*,#1111,.T.);
#1113=CARTESIAN_POINT('',(14.600000000000001,-12.000000000000004,15.449999999999999));
#1114=VERTEX_POINT('',#1113);
#1115=CARTESIAN_POINT('',(13.600000000000003,-12.000000000000002,15.449999999999999));
#1116=DIRECTION('',(0.0,1.0,0.0));
#1117=DIRECTION('',(0.0,0.0,1.0));
#1118=AXIS2_PLACEMENT_3D('',#1115,#1116,#1117);
#1119=CIRCLE('',#1118,1.0);
#1120=EDGE_CURVE('',#1106,#1114,#1119,.T.);
#1121=ORIENTED_EDGE('',*,*,#1120,.T.);
#1122=CARTESIAN_POINT('',(14.600000000000001,-12.000000000000004,15.449999999999999));
#1123=DIRECTION('',(0.0,1.0,0.0));
#1124=VECTOR('',#1123,24.000000000000004);
#1125=LINE('',#1122,#1124);
#1126=EDGE_CURVE('',#1114,#1095,#1125,.T.);
#1127=ORIENTED_EDGE('',*,*,#1126,.T.);
#1128=EDGE_LOOP('',(#1104,#1112,#1121,#1127));
#1129=FACE_OUTER_BOUND('',#1128,.T.);
#1130=ADVANCED_FACE('',(#1129),#1093,.T.);
#1131=CARTESIAN_POINT('',(6.8,-12.0,15.449999999999999));
#1132=DIRECTION('',(-1.0,5.307648E-017,0.0));
#1133=DIRECTION('',(-1.298891E-016,-0.707106781186548,0.707106781186548));
#1134=AXIS2_PLACEMENT_3D('',#1131,#1132,#1133);
#1135=CYLINDRICAL_SURFACE('',#1134,1.0);
#1136=CARTESIAN_POINT('',(13.600000000000001,-13.000000000000002,15.449999999999999));
#1137=VERTEX_POINT('',#1136);
#1138=CARTESIAN_POINT('',(13.600000000000001,-12.000000000000002,15.449999999999999));
#1139=DIRECTION('',(-1.0,0.0,0.0));
#1140=DIRECTION('',(0.0,-1.0,0.0));
#1141=AXIS2_PLACEMENT_3D('',#1138,#1139,#1140);
#1142=CIRCLE('',#1141,1.0);
#1143=EDGE_CURVE('',#1137,#1106,#1142,.T.);
#1144=ORIENTED_EDGE('',*,*,#1143,.T.);
#1145=CARTESIAN_POINT('',(-13.600000000000001,-12.000000000000002,16.449999999999999));
#1146=VERTEX_POINT('',#1145);
#1147=CARTESIAN_POINT('',(13.600000000000001,-12.0,16.449999999999999));
#1148=DIRECTION('',(-1.0,0.0,0.0));
#1149=VECTOR('',#1148,27.200000000000003);
#1150=LINE('',#1147,#1149);
#1151=EDGE_CURVE('',#1106,#1146,#1150,.T.);
#1152=ORIENTED_EDGE('',*,*,#1151,.T.);
#1153=CARTESIAN_POINT('',(-13.600000000000001,-13.000000000000002,15.449999999999999));
#1154=VERTEX_POINT('',#1153);
#1155=CARTESIAN_POINT('',(-13.600000000000001,-12.000000000000002,15.449999999999999));
#1156=DIRECTION('',(1.0,0.0,0.0));
#1157=DIRECTION('',(0.0,0.0,1.0));
#1158=AXIS2_PLACEMENT_3D('',#1155,#1156,#1157);
#1159=CIRCLE('',#1158,1.0);
#1160=EDGE_CURVE('',#1146,#1154,#1159,.T.);
#1161=ORIENTED_EDGE('',*,*,#1160,.T.);
#1162=CARTESIAN_POINT('',(-13.600000000000001,-12.999999999999998,15.449999999999999));
#1163=DIRECTION('',(1.0,0.0,0.0));
#1164=VECTOR('',#1163,27.200000000000003);
#1165=LINE('',#1162,#1164);
#1166=EDGE_CURVE('',#1154,#1137,#1165,.T.);
#1167=ORIENTED_EDGE('',*,*,#1166,.T.);
#1168=EDGE_LOOP('',(#1144,#1152,#1161,#1167));
#1169=FACE_OUTER_BOUND('',#1168,.T.);
#1170=ADVANCED_FACE('',(#1169),#1135,.T.);
#1171=CARTESIAN_POINT('',(-13.600000000000001,-6.0,15.449999999999999));
#1172=DIRECTION('',(3.566122E-017,1.0,0.0));
#1173=DIRECTION('',(-0.707106781186548,1.298891E-016,0.707106781186548));
#1174=AXIS2_PLACEMENT_3D('',#1171,#1172,#1173);
#1175=CYLINDRICAL_SURFACE('',#1174,1.0);
#1176=CARTESIAN_POINT('',(-14.600000000000001,-12.0,15.449999999999999));
#1177=VERTEX_POINT('',#1176);
#1178=CARTESIAN_POINT('',(-13.600000000000003,-12.000000000000002,15.449999999999999));
#1179=DIRECTION('',(0.0,1.0,0.0));
#1180=DIRECTION('',(-1.0,0.0,0.0));
#1181=AXIS2_PLACEMENT_3D('',#1178,#1179,#1180);
#1182=CIRCLE('',#1181,0.999999999999998);
#1183=EDGE_CURVE('',#1177,#1146,#1182,.T.);
#1184=ORIENTED_EDGE('',*,*,#1183,.T.);
#1185=CARTESIAN_POINT('',(-13.600000000000003,12.000000000000002,16.449999999999999));
#1186=VERTEX_POINT('',#1185);
#1187=CARTESIAN_POINT('',(-13.600000000000001,-12.0,16.449999999999999));
#1188=DIRECTION('',(0.0,1.0,0.0));
#1189=VECTOR('',#1188,24.000000000000004);
#1190=LINE('',#1187,#1189);
#1191=EDGE_CURVE('',#1146,#1186,#1190,.T.);
#1192=ORIENTED_EDGE('',*,*,#1191,.T.);
#1193=CARTESIAN_POINT('',(-14.600000000000001,12.000000000000004,15.449999999999999));
#1194=VERTEX_POINT('',#1193);
#1195=CARTESIAN_POINT('',(-13.600000000000003,12.000000000000002,15.449999999999999));
#1196=DIRECTION('',(0.0,-1.0,0.0));
#1197=DIRECTION('',(0.0,0.0,1.0));
#1198=AXIS2_PLACEMENT_3D('',#1195,#1196,#1197);
#1199=CIRCLE('',#1198,1.0);
#1200=EDGE_CURVE('',#1186,#1194,#1199,.T.);
#1201=ORIENTED_EDGE('',*,*,#1200,.T.);
#1202=CARTESIAN_POINT('',(-14.600000000000001,12.000000000000004,15.449999999999999));
#1203=DIRECTION('',(0.0,-1.0,0.0));
#1204=VECTOR('',#1203,24.000000000000004);
#1205=LINE('',#1202,#1204);
#1206=EDGE_CURVE('',#1194,#1177,#1205,.T.);
#1207=ORIENTED_EDGE('',*,*,#1206,.T.);
#1208=EDGE_LOOP('',(#1184,#1192,#1201,#1207));
#1209=FACE_OUTER_BOUND('',#1208,.T.);
#1210=ADVANCED_FACE('',(#1209),#1175,.T.);
#1211=CARTESIAN_POINT('',(-13.600000000000003,-12.000000000000002,15.449999999999999));
#1212=DIRECTION('',(0.0,0.0,1.0));
#1213=DIRECTION('',(0.0,-1.0,0.0));
#1214=AXIS2_PLACEMENT_3D('',#1211,#1212,#1213);
#1215=SPHERICAL_SURFACE('',#1214,1.0);
#1216=ORIENTED_EDGE('',*,*,#1183,.F.);
#1217=CARTESIAN_POINT('',(-13.600000000000001,-12.000000000000002,15.449999999999999));
#1218=DIRECTION('',(0.0,0.0,1.0));
#1219=DIRECTION('',(-0.707106781186548,-0.707106781186547,0.0));
#1220=AXIS2_PLACEMENT_3D('',#1217,#1218,#1219);
#1221=CIRCLE('',#1220,1.0);
#1222=EDGE_CURVE('',#1177,#1154,#1221,.T.);
#1223=ORIENTED_EDGE('',*,*,#1222,.T.);
#1224=ORIENTED_EDGE('',*,*,#1160,.F.);
#1225=EDGE_LOOP('',(#1216,#1223,#1224));
#1226=FACE_OUTER_BOUND('',#1225,.T.);
#1227=ADVANCED_FACE('',(#1226),#1215,.T.);
#1228=CARTESIAN_POINT('',(-6.8,12.0,15.449999999999999));
#1229=DIRECTION('',(1.0,-5.307648E-017,0.0));
#1230=DIRECTION('',(1.298891E-016,0.707106781186548,0.707106781186548));
#1231=AXIS2_PLACEMENT_3D('',#1228,#1229,#1230);
#1232=CYLINDRICAL_SURFACE('',#1231,1.0);
#1233=CARTESIAN_POINT('',(-13.600000000000001,13.000000000000002,15.449999999999999));
#1234=VERTEX_POINT('',#1233);
#1235=CARTESIAN_POINT('',(-13.600000000000001,12.000000000000002,15.449999999999999));
#1236=DIRECTION('',(1.0,0.0,0.0));
#1237=DIRECTION('',(0.0,1.0,0.0));
#1238=AXIS2_PLACEMENT_3D('',#1235,#1236,#1237);
#1239=CIRCLE('',#1238,1.0);
#1240=EDGE_CURVE('',#1234,#1186,#1239,.T.);
#1241=ORIENTED_EDGE('',*,*,#1240,.T.);
#1242=CARTESIAN_POINT('',(-13.600000000000001,12.0,16.449999999999999));
#1243=DIRECTION('',(1.0,0.0,0.0));
#1244=VECTOR('',#1243,27.200000000000003);
#1245=LINE('',#1242,#1244);
#1246=EDGE_CURVE('',#1186,#1097,#1245,.T.);
#1247=ORIENTED_EDGE('',*,*,#1246,.T.);
#1248=CARTESIAN_POINT('',(13.600000000000001,13.000000000000002,15.449999999999999));
#1249=VERTEX_POINT('',#1248);
#1250=CARTESIAN_POINT('',(13.600000000000001,12.000000000000002,15.449999999999999));
#1251=DIRECTION('',(-1.0,0.0,0.0));
#1252=DIRECTION('',(0.0,0.0,1.0));
#1253=AXIS2_PLACEMENT_3D('',#1250,#1251,#1252);
#1254=CIRCLE('',#1253,1.0);
#1255=EDGE_CURVE('',#1097,#1249,#1254,.T.);
#1256=ORIENTED_EDGE('',*,*,#1255,.T.);
#1257=CARTESIAN_POINT('',(13.600000000000001,12.999999999999998,15.449999999999999));
#1258=DIRECTION('',(-1.0,0.0,0.0));
#1259=VECTOR('',#1258,27.200000000000003);
#1260=LINE('',#1257,#1259);
#1261=EDGE_CURVE('',#1249,#1234,#1260,.T.);
#1262=ORIENTED_EDGE('',*,*,#1261,.T.);
#1263=EDGE_LOOP('',(#1241,#1247,#1256,#1262));
#1264=FACE_OUTER_BOUND('',#1263,.T.);
#1265=ADVANCED_FACE('',(#1264),#1232,.T.);
#1266=CARTESIAN_POINT('',(-13.600000000000003,12.000000000000002,15.449999999999999));
#1267=DIRECTION('',(0.0,0.0,1.0));
#1268=DIRECTION('',(0.0,-1.0,0.0));
#1269=AXIS2_PLACEMENT_3D('',#1266,#1267,#1268);
#1270=SPHERICAL_SURFACE('',#1269,1.0);
#1271=ORIENTED_EDGE('',*,*,#1240,.F.);
#1272=CARTESIAN_POINT('',(-13.600000000000001,12.000000000000002,15.449999999999999));
#1273=DIRECTION('',(0.0,0.0,1.0));
#1274=DIRECTION('',(-0.707106781186547,0.707106781186548,0.0));
#1275=AXIS2_PLACEMENT_3D('',#1272,#1273,#1274);
#1276=CIRCLE('',#1275,1.0);
#1277=EDGE_CURVE('',#1234,#1194,#1276,.T.);
#1278=ORIENTED_EDGE('',*,*,#1277,.T.);
#1279=ORIENTED_EDGE('',*,*,#1200,.F.);
#1280=EDGE_LOOP('',(#1271,#1278,#1279));
#1281=FACE_OUTER_BOUND('',#1280,.T.);
#1282=ADVANCED_FACE('',(#1281),#1270,.T.);
#1283=CARTESIAN_POINT('',(13.600000000000001,-12.000000000000002,15.449999999999999));
#1284=DIRECTION('',(0.0,0.0,1.0));
#1285=DIRECTION('',(0.0,-1.0,0.0));
#1286=AXIS2_PLACEMENT_3D('',#1283,#1284,#1285);
#1287=SPHERICAL_SURFACE('',#1286,1.0);
#1288=ORIENTED_EDGE('',*,*,#1143,.F.);
#1289=CARTESIAN_POINT('',(13.600000000000001,-12.000000000000002,15.449999999999999));
#1290=DIRECTION('',(0.0,0.0,1.0));
#1291=DIRECTION('',(0.707106781186547,-0.707106781186548,0.0));
#1292=AXIS2_PLACEMENT_3D('',#1289,#1290,#1291);
#1293=CIRCLE('',#1292,1.0);
#1294=EDGE_CURVE('',#1137,#1114,#1293,.T.);
#1295=ORIENTED_EDGE('',*,*,#1294,.T.);
#1296=ORIENTED_EDGE('',*,*,#1120,.F.);
#1297=EDGE_LOOP('',(#1288,#1295,#1296));
#1298=FACE_OUTER_BOUND('',#1297,.T.);
#1299=ADVANCED_FACE('',(#1298),#1287,.T.);
#1300=CARTESIAN_POINT('',(13.600000000000001,12.000000000000002,15.449999999999999));
#1301=DIRECTION('',(0.0,0.0,1.0));
#1302=DIRECTION('',(0.0,-1.0,0.0));
#1303=AXIS2_PLACEMENT_3D('',#1300,#1301,#1302);
#1304=SPHERICAL_SURFACE('',#1303,1.0);
#1305=ORIENTED_EDGE('',*,*,#1103,.F.);
#1306=CARTESIAN_POINT('',(13.600000000000001,12.000000000000002,15.449999999999999));
#1307=DIRECTION('',(0.0,0.0,1.0));
#1308=DIRECTION('',(0.707106781186548,0.707106781186547,0.0));
#1309=AXIS2_PLACEMENT_3D('',#1306,#1307,#1308);
#1310=CIRCLE('',#1309,1.0);
#1311=EDGE_CURVE('',#1095,#1249,#1310,.T.);
#1312=ORIENTED_EDGE('',*,*,#1311,.T.);
#1313=ORIENTED_EDGE('',*,*,#1255,.F.);
#1314=EDGE_LOOP('',(#1305,#1312,#1313));
#1315=FACE_OUTER_BOUND('',#1314,.T.);
#1316=ADVANCED_FACE('',(#1315),#1304,.T.);
#1317=CARTESIAN_POINT('',(-13.600000000000001,-12.000000000000002,1.0));
#1318=DIRECTION('',(0.0,0.0,1.0));
#1319=DIRECTION('',(-0.707106781186548,-0.707106781186547,0.0));
#1320=AXIS2_PLACEMENT_3D('',#1317,#1318,#1319);
#1321=CYLINDRICAL_SURFACE('',#1320,1.0);
#1322=ORIENTED_EDGE('',*,*,#1222,.F.);
#1323=CARTESIAN_POINT('',(-14.600000000000001,-12.0,1.0));
#1324=VERTEX_POINT('',#1323);
#1325=CARTESIAN_POINT('',(-14.600000000000001,-12.0,1.0));
#1326=DIRECTION('',(0.0,0.0,1.0));
#1327=VECTOR('',#1326,14.449999999999999);
#1328=LINE('',#1325,#1327);
#1329=EDGE_CURVE('',#1324,#1177,#1328,.T.);
#1330=ORIENTED_EDGE('',*,*,#1329,.F.);
#1331=CARTESIAN_POINT('',(-13.600000000000001,-13.000000000000002,1.0));
#1332=VERTEX_POINT('',#1331);
#1333=CARTESIAN_POINT('',(-13.600000000000001,-12.000000000000002,1.0));
#1334=DIRECTION('',(0.0,0.0,1.0));
#1335=DIRECTION('',(-0.707106781186548,-0.707106781186547,0.0));
#1336=AXIS2_PLACEMENT_3D('',#1333,#1334,#1335);
#1337=CIRCLE('',#1336,1.0);
#1338=EDGE_CURVE('',#1324,#1332,#1337,.T.);
#1339=ORIENTED_EDGE('',*,*,#1338,.T.);
#1340=CARTESIAN_POINT('',(-13.600000000000001,-13.000000000000002,1.0));
#1341=DIRECTION('',(0.0,0.0,1.0));
#1342=VECTOR('',#1341,14.449999999999999);
#1343=LINE('',#1340,#1342);
#1344=EDGE_CURVE('',#1332,#1154,#1343,.T.);
#1345=ORIENTED_EDGE('',*,*,#1344,.T.);
#1346=EDGE_LOOP('',(#1322,#1330,#1339,#1345));
#1347=FACE_OUTER_BOUND('',#1346,.T.);
#1348=ADVANCED_FACE('',(#1347),#1321,.T.);
#1349=CARTESIAN_POINT('',(-14.600000000000001,-12.0,1.0));
#1350=DIRECTION('',(-1.0,0.0,0.0));
#1351=DIRECTION('',(0.0,0.0,-1.0));
#1352=AXIS2_PLACEMENT_3D('',#1349,#1350,#1351);
#1353=PLANE('',#1352);
#1354=ORIENTED_EDGE('',*,*,#1206,.F.);
#1355=CARTESIAN_POINT('',(-14.600000000000001,12.000000000000004,1.0));
#1356=VERTEX_POINT('',#1355);
#1357=CARTESIAN_POINT('',(-14.600000000000001,12.000000000000004,1.0));
#1358=DIRECTION('',(0.0,0.0,1.0));
#1359=VECTOR('',#1358,14.449999999999999);
#1360=LINE('',#1357,#1359);
#1361=EDGE_CURVE('',#1356,#1194,#1360,.T.);
#1362=ORIENTED_EDGE('',*,*,#1361,.F.);
#1363=CARTESIAN_POINT('',(-14.600000000000001,12.000000000000004,1.0));
#1364=DIRECTION('',(0.0,-1.0,0.0));
#1365=VECTOR('',#1364,24.000000000000004);
#1366=LINE('',#1363,#1365);
#1367=EDGE_CURVE('',#1356,#1324,#1366,.T.);
#1368=ORIENTED_EDGE('',*,*,#1367,.T.);
#1369=ORIENTED_EDGE('',*,*,#1329,.T.);
#1370=EDGE_LOOP('',(#1354,#1362,#1368,#1369));
#1371=FACE_OUTER_BOUND('',#1370,.T.);
#1372=ADVANCED_FACE('',(#1371),#1353,.T.);
#1373=CARTESIAN_POINT('',(-13.600000000000001,12.000000000000002,1.0));
#1374=DIRECTION('',(0.0,0.0,1.0));
#1375=DIRECTION('',(-0.707106781186547,0.707106781186548,0.0));
#1376=AXIS2_PLACEMENT_3D('',#1373,#1374,#1375);
#1377=CYLINDRICAL_SURFACE('',#1376,1.0);
#1378=ORIENTED_EDGE('',*,*,#1277,.F.);
#1379=CARTESIAN_POINT('',(-13.600000000000001,13.000000000000002,1.0));
#1380=VERTEX_POINT('',#1379);
#1381=CARTESIAN_POINT('',(-13.600000000000001,13.000000000000002,1.0));
#1382=DIRECTION('',(0.0,0.0,1.0));
#1383=VECTOR('',#1382,14.449999999999999);
#1384=LINE('',#1381,#1383);
#1385=EDGE_CURVE('',#1380,#1234,#1384,.T.);
#1386=ORIENTED_EDGE('',*,*,#1385,.F.);
#1387=CARTESIAN_POINT('',(-13.600000000000001,12.000000000000002,1.0));
#1388=DIRECTION('',(0.0,0.0,1.0));
#1389=DIRECTION('',(-0.707106781186547,0.707106781186548,0.0));
#1390=AXIS2_PLACEMENT_3D('',#1387,#1388,#1389);
#1391=CIRCLE('',#1390,1.0);
#1392=EDGE_CURVE('',#1380,#1356,#1391,.T.);
#1393=ORIENTED_EDGE('',*,*,#1392,.T.);
#1394=ORIENTED_EDGE('',*,*,#1361,.T.);
#1395=EDGE_LOOP('',(#1378,#1386,#1393,#1394));
#1396=FACE_OUTER_BOUND('',#1395,.T.);
#1397=ADVANCED_FACE('',(#1396),#1377,.T.);
#1398=CARTESIAN_POINT('',(-13.600000000000001,13.000000000000002,1.0));
#1399=DIRECTION('',(0.0,1.0,0.0));
#1400=DIRECTION('',(0.0,0.0,1.0));
#1401=AXIS2_PLACEMENT_3D('',#1398,#1399,#1400);
#1402=PLANE('',#1401);
#1403=ORIENTED_EDGE('',*,*,#1261,.F.);
#1404=CARTESIAN_POINT('',(13.600000000000001,13.000000000000002,1.0));
#1405=VERTEX_POINT('',#1404);
#1406=CARTESIAN_POINT('',(13.600000000000001,13.000000000000002,1.0));
#1407=DIRECTION('',(0.0,0.0,1.0));
#1408=VECTOR('',#1407,14.449999999999999);
#1409=LINE('',#1406,#1408);
#1410=EDGE_CURVE('',#1405,#1249,#1409,.T.);
#1411=ORIENTED_EDGE('',*,*,#1410,.F.);
#1412=CARTESIAN_POINT('',(13.600000000000001,13.000000000000002,1.0));
#1413=DIRECTION('',(-1.0,0.0,0.0));
#1414=VECTOR('',#1413,27.200000000000003);
#1415=LINE('',#1412,#1414);
#1416=EDGE_CURVE('',#1405,#1380,#1415,.T.);
#1417=ORIENTED_EDGE('',*,*,#1416,.T.);
#1418=ORIENTED_EDGE('',*,*,#1385,.T.);
#1419=EDGE_LOOP('',(#1403,#1411,#1417,#1418));
#1420=FACE_OUTER_BOUND('',#1419,.T.);
#1421=ADVANCED_FACE('',(#1420),#1402,.T.);
#1422=CARTESIAN_POINT('',(-2.775558E-016,8.326673E-017,16.449999999999999));
#1423=DIRECTION('',(0.0,0.0,1.0));
#1424=DIRECTION('',(0.0,-1.0,0.0));
#1425=AXIS2_PLACEMENT_3D('',#1422,#1423,#1424);
#1426=PLANE('',#1425);
#1427=ORIENTED_EDGE('',*,*,#1111,.F.);
#1428=ORIENTED_EDGE('',*,*,#1246,.F.);
#1429=ORIENTED_EDGE('',*,*,#1191,.F.);
#1430=ORIENTED_EDGE('',*,*,#1151,.F.);
#1431=EDGE_LOOP('',(#1427,#1428,#1429,#1430));
#1432=FACE_OUTER_BOUND('',#1431,.T.);
#1433=ADVANCED_FACE('',(#1432),#1426,.T.);
#1434=CARTESIAN_POINT('',(13.600000000000001,12.000000000000002,1.0));
#1435=DIRECTION('',(0.0,0.0,1.0));
#1436=DIRECTION('',(0.707106781186548,0.707106781186547,0.0));
#1437=AXIS2_PLACEMENT_3D('',#1434,#1435,#1436);
#1438=CYLINDRICAL_SURFACE('',#1437,1.0);
#1439=ORIENTED_EDGE('',*,*,#1311,.F.);
#1440=CARTESIAN_POINT('',(14.600000000000001,12.0,1.0));
#1441=VERTEX_POINT('',#1440);
#1442=CARTESIAN_POINT('',(14.600000000000001,12.0,1.0));
#1443=DIRECTION('',(0.0,0.0,1.0));
#1444=VECTOR('',#1443,14.449999999999999);
#1445=LINE('',#1442,#1444);
#1446=EDGE_CURVE('',#1441,#1095,#1445,.T.);
#1447=ORIENTED_EDGE('',*,*,#1446,.F.);
#1448=CARTESIAN_POINT('',(13.600000000000001,12.000000000000002,1.0));
#1449=DIRECTION('',(0.0,0.0,1.0));
#1450=DIRECTION('',(0.707106781186548,0.707106781186547,0.0));
#1451=AXIS2_PLACEMENT_3D('',#1448,#1449,#1450);
#1452=CIRCLE('',#1451,1.0);
#1453=EDGE_CURVE('',#1441,#1405,#1452,.T.);
#1454=ORIENTED_EDGE('',*,*,#1453,.T.);
#1455=ORIENTED_EDGE('',*,*,#1410,.T.);
#1456=EDGE_LOOP('',(#1439,#1447,#1454,#1455));
#1457=FACE_OUTER_BOUND('',#1456,.T.);
#1458=ADVANCED_FACE('',(#1457),#1438,.T.);
#1459=CARTESIAN_POINT('',(14.600000000000001,12.0,1.0));
#1460=DIRECTION('',(1.0,0.0,0.0));
#1461=DIRECTION('',(0.0,0.0,1.0));
#1462=AXIS2_PLACEMENT_3D('',#1459,#1460,#1461);
#1463=PLANE('',#1462);
#1464=ORIENTED_EDGE('',*,*,#1126,.F.);
#1465=CARTESIAN_POINT('',(14.600000000000001,-12.000000000000004,1.0));
#1466=VERTEX_POINT('',#1465);
#1467=CARTESIAN_POINT('',(14.600000000000001,-12.000000000000004,1.0));
#1468=DIRECTION('',(0.0,0.0,1.0));
#1469=VECTOR('',#1468,14.449999999999999);
#1470=LINE('',#1467,#1469);
#1471=EDGE_CURVE('',#1466,#1114,#1470,.T.);
#1472=ORIENTED_EDGE('',*,*,#1471,.F.);
#1473=CARTESIAN_POINT('',(14.600000000000001,-12.000000000000004,1.0));
#1474=DIRECTION('',(0.0,1.0,0.0));
#1475=VECTOR('',#1474,24.000000000000004);
#1476=LINE('',#1473,#1475);
#1477=EDGE_CURVE('',#1466,#1441,#1476,.T.);
#1478=ORIENTED_EDGE('',*,*,#1477,.T.);
#1479=ORIENTED_EDGE('',*,*,#1446,.T.);
#1480=EDGE_LOOP('',(#1464,#1472,#1478,#1479));
#1481=FACE_OUTER_BOUND('',#1480,.T.);
#1482=ADVANCED_FACE('',(#1481),#1463,.T.);
#1483=CARTESIAN_POINT('',(13.600000000000001,-12.000000000000002,1.0));
#1484=DIRECTION('',(0.0,0.0,1.0));
#1485=DIRECTION('',(0.707106781186547,-0.707106781186548,0.0));
#1486=AXIS2_PLACEMENT_3D('',#1483,#1484,#1485);
#1487=CYLINDRICAL_SURFACE('',#1486,1.0);
#1488=ORIENTED_EDGE('',*,*,#1294,.F.);
#1489=CARTESIAN_POINT('',(13.600000000000001,-13.000000000000002,1.0));
#1490=VERTEX_POINT('',#1489);
#1491=CARTESIAN_POINT('',(13.600000000000001,-13.000000000000002,1.0));
#1492=DIRECTION('',(0.0,0.0,1.0));
#1493=VECTOR('',#1492,14.449999999999999);
#1494=LINE('',#1491,#1493);
#1495=EDGE_CURVE('',#1490,#1137,#1494,.T.);
#1496=ORIENTED_EDGE('',*,*,#1495,.F.);
#1497=CARTESIAN_POINT('',(13.600000000000001,-12.000000000000002,1.0));
#1498=DIRECTION('',(0.0,0.0,1.0));
#1499=DIRECTION('',(0.707106781186547,-0.707106781186548,0.0));
#1500=AXIS2_PLACEMENT_3D('',#1497,#1498,#1499);
#1501=CIRCLE('',#1500,1.0);
#1502=EDGE_CURVE('',#1490,#1466,#1501,.T.);
#1503=ORIENTED_EDGE('',*,*,#1502,.T.);
#1504=ORIENTED_EDGE('',*,*,#1471,.T.);
#1505=EDGE_LOOP('',(#1488,#1496,#1503,#1504));
#1506=FACE_OUTER_BOUND('',#1505,.T.);
#1507=ADVANCED_FACE('',(#1506),#1487,.T.);
#1508=CARTESIAN_POINT('',(13.600000000000001,-13.000000000000002,1.0));
#1509=DIRECTION('',(0.0,-1.0,0.0));
#1510=DIRECTION('',(0.0,0.0,-1.0));
#1511=AXIS2_PLACEMENT_3D('',#1508,#1509,#1510);
#1512=PLANE('',#1511);
#1513=ORIENTED_EDGE('',*,*,#1166,.F.);
#1514=ORIENTED_EDGE('',*,*,#1344,.F.);
#1515=CARTESIAN_POINT('',(-13.600000000000001,-13.000000000000002,1.0));
#1516=DIRECTION('',(1.0,0.0,0.0));
#1517=VECTOR('',#1516,27.200000000000003);
#1518=LINE('',#1515,#1517);
#1519=EDGE_CURVE('',#1332,#1490,#1518,.T.);
#1520=ORIENTED_EDGE('',*,*,#1519,.T.);
#1521=ORIENTED_EDGE('',*,*,#1495,.T.);
#1522=EDGE_LOOP('',(#1513,#1514,#1520,#1521));
#1523=FACE_OUTER_BOUND('',#1522,.T.);
#1524=ADVANCED_FACE('',(#1523),#1512,.T.);
#1525=CARTESIAN_POINT('',(-1.387779E-016,-8.326673E-017,1.0));
#1526=DIRECTION('',(0.0,0.0,1.0));
#1527=DIRECTION('',(0.0,-1.0,0.0));
#1528=AXIS2_PLACEMENT_3D('',#1525,#1526,#1527);
#1529=PLANE('',#1528);
#1530=ORIENTED_EDGE('',*,*,#1519,.F.);
#1531=ORIENTED_EDGE('',*,*,#1338,.F.);
#1532=ORIENTED_EDGE('',*,*,#1367,.F.);
#1533=ORIENTED_EDGE('',*,*,#1392,.F.);
#1534=ORIENTED_EDGE('',*,*,#1416,.F.);
#1535=ORIENTED_EDGE('',*,*,#1453,.F.);
#1536=ORIENTED_EDGE('',*,*,#1477,.F.);
#1537=ORIENTED_EDGE('',*,*,#1502,.F.);
#1538=EDGE_LOOP('',(#1530,#1531,#1532,#1533,#1534,#1535,#1536,#1537));
#1539=FACE_OUTER_BOUND('',#1538,.T.);
#1540=ORIENTED_EDGE('',*,*,#848,.T.);
#1541=ORIENTED_EDGE('',*,*,#1067,.T.);
#1542=ORIENTED_EDGE('',*,*,#1040,.T.);
#1543=ORIENTED_EDGE('',*,*,#1007,.T.);
#1544=ORIENTED_EDGE('',*,*,#976,.T.);
#1545=ORIENTED_EDGE('',*,*,#943,.T.);
#1546=ORIENTED_EDGE('',*,*,#912,.T.);
#1547=ORIENTED_EDGE('',*,*,#879,.T.);
#1548=EDGE_LOOP('',(#1540,#1541,#1542,#1543,#1544,#1545,#1546,#1547));
#1549=FACE_BOUND('',#1548,.T.);
#1550=ADVANCED_FACE('',(#1539,#1549),#1529,.F.);
#1551=CLOSED_SHELL('',(#858,#889,#922,#953,#986,#1017,#1050,#1072,#1088,#1130,#1170,#1210,#1227,#1265,#1282,#1299,#1316,#1348,#1372,#1397,#1421,#1433,#1458,#1482,#1507,#1524,#1550));
#1552=MANIFOLD_SOLID_BREP('739',#1551);
#1553=COLOUR_RGB('140',0.0,0.75,1.0);
#1554=SURFACE_STYLE_USAGE(.BOTH.,#1555);
#1555=SURFACE_SIDE_STYLE('NONE',(#1556));
#1556=SURFACE_STYLE_FILL_AREA(#1557);
#1557=FILL_AREA_STYLE('NONE',(#1558));
#1558=FILL_AREA_STYLE_COLOUR('NONE',#1553);
#1559=PRESENTATION_STYLE_ASSIGNMENT((#1554));
#1560=STYLED_ITEM('NONE',(#1559),#1552);
#1561=CARTESIAN_POINT('',(-12.100000000000001,-12.200000000000001,0.0));
#1562=DIRECTION('',(0.0,1.0,0.0));
#1563=DIRECTION('',(0.0,0.0,1.0));
#1564=AXIS2_PLACEMENT_3D('',#1561,#1562,#1563);
#1565=PLANE('',#1564);
#1566=CARTESIAN_POINT('',(-12.100000000000001,-12.200000000000001,1.0));
#1567=VERTEX_POINT('',#1566);
#1568=CARTESIAN_POINT('',(-9.100000000000001,-12.200000000000001,1.0));
#1569=VERTEX_POINT('',#1568);
#1570=CARTESIAN_POINT('',(-12.100000000000001,-12.200000000000001,1.0));
#1571=DIRECTION('',(1.0,0.0,0.0));
#1572=VECTOR('',#1571,3.0);
#1573=LINE('',#1570,#1572);
#1574=EDGE_CURVE('',#1567,#1569,#1573,.T.);
#1575=ORIENTED_EDGE('',*,*,#1574,.T.);
#1576=CARTESIAN_POINT('',(-9.100000000000001,-12.200000000000001,0.0));
#1577=VERTEX_POINT('',#1576);
#1578=CARTESIAN_POINT('',(-9.100000000000001,-12.200000000000001,0.0));
#1579=DIRECTION('',(0.0,0.0,1.0));
#1580=VECTOR('',#1579,1.0);
#1581=LINE('',#1578,#1580);
#1582=EDGE_CURVE('',#1577,#1569,#1581,.T.);
#1583=ORIENTED_EDGE('',*,*,#1582,.F.);
#1584=CARTESIAN_POINT('',(-12.100000000000001,-12.200000000000001,0.0));
#1585=VERTEX_POINT('',#1584);
#1586=CARTESIAN_POINT('',(-12.100000000000001,-12.200000000000001,0.0));
#1587=DIRECTION('',(1.0,0.0,0.0));
#1588=VECTOR('',#1587,3.0);
#1589=LINE('',#1586,#1588);
#1590=EDGE_CURVE('',#1585,#1577,#1589,.T.);
#1591=ORIENTED_EDGE('',*,*,#1590,.F.);
#1592=CARTESIAN_POINT('',(-12.100000000000001,-12.200000000000001,0.0));
#1593=DIRECTION('',(0.0,0.0,1.0));
#1594=VECTOR('',#1593,1.0);
#1595=LINE('',#1592,#1594);
#1596=EDGE_CURVE('',#1585,#1567,#1595,.T.);
#1597=ORIENTED_EDGE('',*,*,#1596,.T.);
#1598=EDGE_LOOP('',(#1575,#1583,#1591,#1597));
#1599=FACE_OUTER_BOUND('',#1598,.T.);
#1600=ADVANCED_FACE('',(#1599),#1565,.T.);
#1601=CARTESIAN_POINT('',(-9.100000000000001,-12.200000000000001,0.0));
#1602=DIRECTION('',(1.0,0.0,0.0));
#1603=DIRECTION('',(0.0,0.0,1.0));
#1604=AXIS2_PLACEMENT_3D('',#1601,#1602,#1603);
#1605=PLANE('',#1604);
#1606=CARTESIAN_POINT('',(-9.100000000000001,-12.999999999999998,1.0));
#1607=VERTEX_POINT('',#1606);
#1608=CARTESIAN_POINT('',(-9.100000000000001,-12.200000000000001,1.0));
#1609=DIRECTION('',(0.0,-1.0,0.0));
#1610=VECTOR('',#1609,0.799999999999997);
#1611=LINE('',#1608,#1610);
#1612=EDGE_CURVE('',#1569,#1607,#1611,.T.);
#1613=ORIENTED_EDGE('',*,*,#1612,.T.);
#1614=CARTESIAN_POINT('',(-9.100000000000001,-12.999999999999998,0.0));
#1615=VERTEX_POINT('',#1614);
#1616=CARTESIAN_POINT('',(-9.100000000000001,-12.999999999999998,0.0));
#1617=DIRECTION('',(0.0,0.0,1.0));
#1618=VECTOR('',#1617,1.0);
#1619=LINE('',#1616,#1618);
#1620=EDGE_CURVE('',#1615,#1607,#1619,.T.);
#1621=ORIENTED_EDGE('',*,*,#1620,.F.);
#1622=CARTESIAN_POINT('',(-9.100000000000001,-12.200000000000001,0.0));
#1623=DIRECTION('',(0.0,-1.0,0.0));
#1624=VECTOR('',#1623,0.799999999999997);
#1625=LINE('',#1622,#1624);
#1626=EDGE_CURVE('',#1577,#1615,#1625,.T.);
#1627=ORIENTED_EDGE('',*,*,#1626,.F.);
#1628=ORIENTED_EDGE('',*,*,#1582,.T.);
#1629=EDGE_LOOP('',(#1613,#1621,#1627,#1628));
#1630=FACE_OUTER_BOUND('',#1629,.T.);
#1631=ADVANCED_FACE('',(#1630),#1605,.T.);
#1632=CARTESIAN_POINT('',(-9.100000000000001,-12.999999999999998,0.0));
#1633=DIRECTION('',(0.0,-1.0,0.0));
#1634=DIRECTION('',(0.0,0.0,-1.0));
#1635=AXIS2_PLACEMENT_3D('',#1632,#1633,#1634);
#1636=PLANE('',#1635);
#1637=CARTESIAN_POINT('',(-12.100000000000001,-12.999999999999998,1.0));
#1638=VERTEX_POINT('',#1637);
#1639=CARTESIAN_POINT('',(-9.100000000000001,-12.999999999999998,1.0));
#1640=DIRECTION('',(-1.0,0.0,0.0));
#1641=VECTOR('',#1640,3.0);
#1642=LINE('',#1639,#1641);
#1643=EDGE_CURVE('',#1607,#1638,#1642,.T.);
#1644=ORIENTED_EDGE('',*,*,#1643,.T.);
#1645=CARTESIAN_POINT('',(-12.100000000000001,-12.999999999999998,0.0));
#1646=VERTEX_POINT('',#1645);
#1647=CARTESIAN_POINT('',(-12.100000000000001,-12.999999999999998,0.0));
#1648=DIRECTION('',(0.0,0.0,1.0));
#1649=VECTOR('',#1648,1.0);
#1650=LINE('',#1647,#1649);
#1651=EDGE_CURVE('',#1646,#1638,#1650,.T.);
#1652=ORIENTED_EDGE('',*,*,#1651,.F.);
#1653=CARTESIAN_POINT('',(-9.100000000000001,-12.999999999999998,0.0));
#1654=DIRECTION('',(-1.0,0.0,0.0));
#1655=VECTOR('',#1654,3.0);
#1656=LINE('',#1653,#1655);
#1657=EDGE_CURVE('',#1615,#1646,#1656,.T.);
#1658=ORIENTED_EDGE('',*,*,#1657,.F.);
#1659=ORIENTED_EDGE('',*,*,#1620,.T.);
#1660=EDGE_LOOP('',(#1644,#1652,#1658,#1659));
#1661=FACE_OUTER_BOUND('',#1660,.T.);
#1662=ADVANCED_FACE('',(#1661),#1636,.T.);
#1663=CARTESIAN_POINT('',(-12.100000000000001,-12.999999999999998,0.0));
#1664=DIRECTION('',(-1.0,0.0,0.0));
#1665=DIRECTION('',(0.0,0.0,-1.0));
#1666=AXIS2_PLACEMENT_3D('',#1663,#1664,#1665);
#1667=PLANE('',#1666);
#1668=CARTESIAN_POINT('',(-12.100000000000001,-12.999999999999998,1.0));
#1669=DIRECTION('',(0.0,1.0,0.0));
#1670=VECTOR('',#1669,0.799999999999997);
#1671=LINE('',#1668,#1670);
#1672=EDGE_CURVE('',#1638,#1567,#1671,.T.);
#1673=ORIENTED_EDGE('',*,*,#1672,.T.);
#1674=ORIENTED_EDGE('',*,*,#1596,.F.);
#1675=CARTESIAN_POINT('',(-12.100000000000001,-12.999999999999998,0.0));
#1676=DIRECTION('',(0.0,1.0,0.0));
#1677=VECTOR('',#1676,0.799999999999997);
#1678=LINE('',#1675,#1677);
#1679=EDGE_CURVE('',#1646,#1585,#1678,.T.);
#1680=ORIENTED_EDGE('',*,*,#1679,.F.);
#1681=ORIENTED_EDGE('',*,*,#1651,.T.);
#1682=EDGE_LOOP('',(#1673,#1674,#1680,#1681));
#1683=FACE_OUTER_BOUND('',#1682,.T.);
#1684=ADVANCED_FACE('',(#1683),#1667,.T.);
#1685=CARTESIAN_POINT('',(-10.6,-12.6,1.0));
#1686=DIRECTION('',(0.0,0.0,1.0));
#1687=DIRECTION('',(0.0,-1.0,0.0));
#1688=AXIS2_PLACEMENT_3D('',#1685,#1686,#1687);
#1689=PLANE('',#1688);
#1690=ORIENTED_EDGE('',*,*,#1574,.F.);
#1691=ORIENTED_EDGE('',*,*,#1672,.F.);
#1692=ORIENTED_EDGE('',*,*,#1643,.F.);
#1693=ORIENTED_EDGE('',*,*,#1612,.F.);
#1694=EDGE_LOOP('',(#1690,#1691,#1692,#1693));
#1695=FACE_OUTER_BOUND('',#1694,.T.);
#1696=ADVANCED_FACE('',(#1695),#1689,.T.);
#1697=CARTESIAN_POINT('',(-10.6,-12.6,0.0));
#1698=DIRECTION('',(0.0,0.0,1.0));
#1699=DIRECTION('',(0.0,-1.0,0.0));
#1700=AXIS2_PLACEMENT_3D('',#1697,#1698,#1699);
#1701=PLANE('',#1700);
#1702=ORIENTED_EDGE('',*,*,#1679,.T.);
#1703=ORIENTED_EDGE('',*,*,#1590,.T.);
#1704=ORIENTED_EDGE('',*,*,#1626,.T.);
#1705=ORIENTED_EDGE('',*,*,#1657,.T.);
#1706=EDGE_LOOP('',(#1702,#1703,#1704,#1705));
#1707=FACE_OUTER_BOUND('',#1706,.T.);
#1708=ADVANCED_FACE('',(#1707),#1701,.F.);
#1709=CLOSED_SHELL('',(#1600,#1631,#1662,#1684,#1696,#1708));
#1710=MANIFOLD_SOLID_BREP('735',#1709);
#1711=STYLED_ITEM('NONE',(#1559),#1710);
#1712=CARTESIAN_POINT('',(-12.099999999999998,13.000000000000002,0.0));
#1713=DIRECTION('',(0.0,1.0,0.0));
#1714=DIRECTION('',(0.0,0.0,1.0));
#1715=AXIS2_PLACEMENT_3D('',#1712,#1713,#1714);
#1716=PLANE('',#1715);
#1717=CARTESIAN_POINT('',(-12.099999999999998,13.000000000000002,1.0));
#1718=VERTEX_POINT('',#1717);
#1719=CARTESIAN_POINT('',(-9.099999999999998,13.000000000000002,1.0));
#1720=VERTEX_POINT('',#1719);
#1721=CARTESIAN_POINT('',(-12.099999999999998,13.000000000000002,1.0));
#1722=DIRECTION('',(1.0,0.0,0.0));
#1723=VECTOR('',#1722,3.0);
#1724=LINE('',#1721,#1723);
#1725=EDGE_CURVE('',#1718,#1720,#1724,.T.);
#1726=ORIENTED_EDGE('',*,*,#1725,.T.);
#1727=CARTESIAN_POINT('',(-9.099999999999998,13.000000000000002,0.0));
#1728=VERTEX_POINT('',#1727);
#1729=CARTESIAN_POINT('',(-9.099999999999998,13.000000000000002,0.0));
#1730=DIRECTION('',(0.0,0.0,1.0));
#1731=VECTOR('',#1730,1.0);
#1732=LINE('',#1729,#1731);
#1733=EDGE_CURVE('',#1728,#1720,#1732,.T.);
#1734=ORIENTED_EDGE('',*,*,#1733,.F.);
#1735=CARTESIAN_POINT('',(-12.099999999999998,13.000000000000002,0.0));
#1736=VERTEX_POINT('',#1735);
#1737=CARTESIAN_POINT('',(-9.099999999999998,13.000000000000002,0.0));
#1738=DIRECTION('',(-1.0,0.0,0.0));
#1739=VECTOR('',#1738,3.0);
#1740=LINE('',#1737,#1739);
#1741=EDGE_CURVE('',#1728,#1736,#1740,.T.);
#1742=ORIENTED_EDGE('',*,*,#1741,.T.);
#1743=CARTESIAN_POINT('',(-12.099999999999998,13.000000000000002,0.0));
#1744=DIRECTION('',(0.0,0.0,1.0));
#1745=VECTOR('',#1744,1.0);
#1746=LINE('',#1743,#1745);
#1747=EDGE_CURVE('',#1736,#1718,#1746,.T.);
#1748=ORIENTED_EDGE('',*,*,#1747,.T.);
#1749=EDGE_LOOP('',(#1726,#1734,#1742,#1748));
#1750=FACE_OUTER_BOUND('',#1749,.T.);
#1751=ADVANCED_FACE('',(#1750),#1716,.T.);
#1752=CARTESIAN_POINT('',(-9.099999999999998,13.000000000000002,0.0));
#1753=DIRECTION('',(1.0,0.0,0.0));
#1754=DIRECTION('',(0.0,0.0,1.0));
#1755=AXIS2_PLACEMENT_3D('',#1752,#1753,#1754);
#1756=PLANE('',#1755);
#1757=CARTESIAN_POINT('',(-9.099999999999998,12.200000000000001,1.0));
#1758=VERTEX_POINT('',#1757);
#1759=CARTESIAN_POINT('',(-9.099999999999998,13.000000000000002,1.0));
#1760=DIRECTION('',(0.0,-1.0,0.0));
#1761=VECTOR('',#1760,0.800000000000001);
#1762=LINE('',#1759,#1761);
#1763=EDGE_CURVE('',#1720,#1758,#1762,.T.);
#1764=ORIENTED_EDGE('',*,*,#1763,.T.);
#1765=CARTESIAN_POINT('',(-9.099999999999998,12.200000000000001,0.0));
#1766=VERTEX_POINT('',#1765);
#1767=CARTESIAN_POINT('',(-9.099999999999998,12.200000000000001,0.0));
#1768=DIRECTION('',(0.0,0.0,1.0));
#1769=VECTOR('',#1768,1.0);
#1770=LINE('',#1767,#1769);
#1771=EDGE_CURVE('',#1766,#1758,#1770,.T.);
#1772=ORIENTED_EDGE('',*,*,#1771,.F.);
#1773=CARTESIAN_POINT('',(-9.099999999999998,12.200000000000001,0.0));
#1774=DIRECTION('',(0.0,1.0,0.0));
#1775=VECTOR('',#1774,0.800000000000001);
#1776=LINE('',#1773,#1775);
#1777=EDGE_CURVE('',#1766,#1728,#1776,.T.);
#1778=ORIENTED_EDGE('',*,*,#1777,.T.);
#1779=ORIENTED_EDGE('',*,*,#1733,.T.);
#1780=EDGE_LOOP('',(#1764,#1772,#1778,#1779));
#1781=FACE_OUTER_BOUND('',#1780,.T.);
#1782=ADVANCED_FACE('',(#1781),#1756,.T.);
#1783=CARTESIAN_POINT('',(-9.099999999999998,12.200000000000001,0.0));
#1784=DIRECTION('',(0.0,-1.0,0.0));
#1785=DIRECTION('',(0.0,0.0,-1.0));
#1786=AXIS2_PLACEMENT_3D('',#1783,#1784,#1785);
#1787=PLANE('',#1786);
#1788=CARTESIAN_POINT('',(-12.099999999999998,12.200000000000001,1.0));
#1789=VERTEX_POINT('',#1788);
#1790=CARTESIAN_POINT('',(-9.099999999999998,12.200000000000001,1.0));
#1791=DIRECTION('',(-1.0,0.0,0.0));
#1792=VECTOR('',#1791,3.0);
#1793=LINE('',#1790,#1792);
#1794=EDGE_CURVE('',#1758,#1789,#1793,.T.);
#1795=ORIENTED_EDGE('',*,*,#1794,.T.);
#1796=CARTESIAN_POINT('',(-12.099999999999998,12.200000000000001,0.0));
#1797=VERTEX_POINT('',#1796);
#1798=CARTESIAN_POINT('',(-12.099999999999998,12.200000000000001,0.0));
#1799=DIRECTION('',(0.0,0.0,1.0));
#1800=VECTOR('',#1799,1.0);
#1801=LINE('',#1798,#1800);
#1802=EDGE_CURVE('',#1797,#1789,#1801,.T.);
#1803=ORIENTED_EDGE('',*,*,#1802,.F.);
#1804=CARTESIAN_POINT('',(-12.099999999999998,12.200000000000001,0.0));
#1805=DIRECTION('',(1.0,0.0,0.0));
#1806=VECTOR('',#1805,3.0);
#1807=LINE('',#1804,#1806);
#1808=EDGE_CURVE('',#1797,#1766,#1807,.T.);
#1809=ORIENTED_EDGE('',*,*,#1808,.T.);
#1810=ORIENTED_EDGE('',*,*,#1771,.T.);
#1811=EDGE_LOOP('',(#1795,#1803,#1809,#1810));
#1812=FACE_OUTER_BOUND('',#1811,.T.);
#1813=ADVANCED_FACE('',(#1812),#1787,.T.);
#1814=CARTESIAN_POINT('',(-12.099999999999998,12.200000000000001,0.0));
#1815=DIRECTION('',(-1.0,0.0,0.0));
#1816=DIRECTION('',(0.0,0.0,-1.0));
#1817=AXIS2_PLACEMENT_3D('',#1814,#1815,#1816);
#1818=PLANE('',#1817);
#1819=CARTESIAN_POINT('',(-12.099999999999998,12.200000000000001,1.0));
#1820=DIRECTION('',(0.0,1.0,0.0));
#1821=VECTOR('',#1820,0.800000000000001);
#1822=LINE('',#1819,#1821);
#1823=EDGE_CURVE('',#1789,#1718,#1822,.T.);
#1824=ORIENTED_EDGE('',*,*,#1823,.T.);
#1825=ORIENTED_EDGE('',*,*,#1747,.F.);
#1826=CARTESIAN_POINT('',(-12.099999999999998,13.000000000000002,0.0));
#1827=DIRECTION('',(0.0,-1.0,0.0));
#1828=VECTOR('',#1827,0.800000000000001);
#1829=LINE('',#1826,#1828);
#1830=EDGE_CURVE('',#1736,#1797,#1829,.T.);
#1831=ORIENTED_EDGE('',*,*,#1830,.T.);
#1832=ORIENTED_EDGE('',*,*,#1802,.T.);
#1833=EDGE_LOOP('',(#1824,#1825,#1831,#1832));
#1834=FACE_OUTER_BOUND('',#1833,.T.);
#1835=ADVANCED_FACE('',(#1834),#1818,.T.);
#1836=CARTESIAN_POINT('',(-10.599999999999998,12.600000000000003,0.0));
#1837=DIRECTION('',(0.0,0.0,1.0));
#1838=DIRECTION('',(0.0,-1.0,0.0));
#1839=AXIS2_PLACEMENT_3D('',#1836,#1837,#1838);
#1840=PLANE('',#1839);
#1841=ORIENTED_EDGE('',*,*,#1830,.F.);
#1842=ORIENTED_EDGE('',*,*,#1741,.F.);
#1843=ORIENTED_EDGE('',*,*,#1777,.F.);
#1844=ORIENTED_EDGE('',*,*,#1808,.F.);
#1845=EDGE_LOOP('',(#1841,#1842,#1843,#1844));
#1846=FACE_OUTER_BOUND('',#1845,.T.);
#1847=ADVANCED_FACE('',(#1846),#1840,.F.);
#1848=CARTESIAN_POINT('',(-10.599999999999998,12.600000000000003,1.0));
#1849=DIRECTION('',(0.0,0.0,1.0));
#1850=DIRECTION('',(0.0,-1.0,0.0));
#1851=AXIS2_PLACEMENT_3D('',#1848,#1849,#1850);
#1852=PLANE('',#1851);
#1853=ORIENTED_EDGE('',*,*,#1725,.F.);
#1854=ORIENTED_EDGE('',*,*,#1823,.F.);
#1855=ORIENTED_EDGE('',*,*,#1794,.F.);
#1856=ORIENTED_EDGE('',*,*,#1763,.F.);
#1857=EDGE_LOOP('',(#1853,#1854,#1855,#1856));
#1858=FACE_OUTER_BOUND('',#1857,.T.);
#1859=ADVANCED_FACE('',(#1858),#1852,.T.);
#1860=CLOSED_SHELL('',(#1751,#1782,#1813,#1835,#1847,#1859));
#1861=MANIFOLD_SOLID_BREP('731',#1860);
#1862=STYLED_ITEM('NONE',(#1559),#1861);
#1863=CARTESIAN_POINT('',(9.100000000000001,12.200000000000001,0.0));
#1864=DIRECTION('',(-1.0,0.0,0.0));
#1865=DIRECTION('',(0.0,0.0,-1.0));
#1866=AXIS2_PLACEMENT_3D('',#1863,#1864,#1865);
#1867=PLANE('',#1866);
#1868=CARTESIAN_POINT('',(9.100000000000001,12.200000000000001,1.0));
#1869=VERTEX_POINT('',#1868);
#1870=CARTESIAN_POINT('',(9.100000000000001,13.000000000000002,1.0));
#1871=VERTEX_POINT('',#1870);
#1872=CARTESIAN_POINT('',(9.100000000000001,12.200000000000001,1.0));
#1873=DIRECTION('',(0.0,1.0,0.0));
#1874=VECTOR('',#1873,0.800000000000001);
#1875=LINE('',#1872,#1874);
#1876=EDGE_CURVE('',#1869,#1871,#1875,.T.);
#1877=ORIENTED_EDGE('',*,*,#1876,.T.);
#1878=CARTESIAN_POINT('',(9.100000000000001,13.000000000000002,0.0));
#1879=VERTEX_POINT('',#1878);
#1880=CARTESIAN_POINT('',(9.100000000000001,13.000000000000002,0.0));
#1881=DIRECTION('',(0.0,0.0,1.0));
#1882=VECTOR('',#1881,1.0);
#1883=LINE('',#1880,#1882);
#1884=EDGE_CURVE('',#1879,#1871,#1883,.T.);
#1885=ORIENTED_EDGE('',*,*,#1884,.F.);
#1886=CARTESIAN_POINT('',(9.100000000000001,12.200000000000001,0.0));
#1887=VERTEX_POINT('',#1886);
#1888=CARTESIAN_POINT('',(9.100000000000001,13.000000000000002,0.0));
#1889=DIRECTION('',(0.0,-1.0,0.0));
#1890=VECTOR('',#1889,0.800000000000001);
#1891=LINE('',#1888,#1890);
#1892=EDGE_CURVE('',#1879,#1887,#1891,.T.);
#1893=ORIENTED_EDGE('',*,*,#1892,.T.);
#1894=CARTESIAN_POINT('',(9.100000000000001,12.200000000000001,0.0));
#1895=DIRECTION('',(0.0,0.0,1.0));
#1896=VECTOR('',#1895,1.0);
#1897=LINE('',#1894,#1896);
#1898=EDGE_CURVE('',#1887,#1869,#1897,.T.);
#1899=ORIENTED_EDGE('',*,*,#1898,.T.);
#1900=EDGE_LOOP('',(#1877,#1885,#1893,#1899));
#1901=FACE_OUTER_BOUND('',#1900,.T.);
#1902=ADVANCED_FACE('',(#1901),#1867,.T.);
#1903=CARTESIAN_POINT('',(9.100000000000001,13.000000000000002,0.0));
#1904=DIRECTION('',(0.0,1.0,0.0));
#1905=DIRECTION('',(0.0,0.0,1.0));
#1906=AXIS2_PLACEMENT_3D('',#1903,#1904,#1905);
#1907=PLANE('',#1906);
#1908=CARTESIAN_POINT('',(12.100000000000001,13.000000000000002,1.0));
#1909=VERTEX_POINT('',#1908);
#1910=CARTESIAN_POINT('',(9.100000000000001,13.000000000000002,1.0));
#1911=DIRECTION('',(1.0,0.0,0.0));
#1912=VECTOR('',#1911,3.0);
#1913=LINE('',#1910,#1912);
#1914=EDGE_CURVE('',#1871,#1909,#1913,.T.);
#1915=ORIENTED_EDGE('',*,*,#1914,.T.);
#1916=CARTESIAN_POINT('',(12.100000000000001,13.000000000000002,0.0));
#1917=VERTEX_POINT('',#1916);
#1918=CARTESIAN_POINT('',(12.100000000000001,13.000000000000002,0.0));
#1919=DIRECTION('',(0.0,0.0,1.0));
#1920=VECTOR('',#1919,1.0);
#1921=LINE('',#1918,#1920);
#1922=EDGE_CURVE('',#1917,#1909,#1921,.T.);
#1923=ORIENTED_EDGE('',*,*,#1922,.F.);
#1924=CARTESIAN_POINT('',(12.100000000000001,13.000000000000002,0.0));
#1925=DIRECTION('',(-1.0,0.0,0.0));
#1926=VECTOR('',#1925,3.0);
#1927=LINE('',#1924,#1926);
#1928=EDGE_CURVE('',#1917,#1879,#1927,.T.);
#1929=ORIENTED_EDGE('',*,*,#1928,.T.);
#1930=ORIENTED_EDGE('',*,*,#1884,.T.);
#1931=EDGE_LOOP('',(#1915,#1923,#1929,#1930));
#1932=FACE_OUTER_BOUND('',#1931,.T.);
#1933=ADVANCED_FACE('',(#1932),#1907,.T.);
#1934=CARTESIAN_POINT('',(12.100000000000001,13.000000000000002,0.0));
#1935=DIRECTION('',(1.0,0.0,0.0));
#1936=DIRECTION('',(0.0,0.0,1.0));
#1937=AXIS2_PLACEMENT_3D('',#1934,#1935,#1936);
#1938=PLANE('',#1937);
#1939=CARTESIAN_POINT('',(12.100000000000001,12.200000000000001,1.0));
#1940=VERTEX_POINT('',#1939);
#1941=CARTESIAN_POINT('',(12.100000000000001,13.000000000000002,1.0));
#1942=DIRECTION('',(0.0,-1.0,0.0));
#1943=VECTOR('',#1942,0.800000000000001);
#1944=LINE('',#1941,#1943);
#1945=EDGE_CURVE('',#1909,#1940,#1944,.T.);
#1946=ORIENTED_EDGE('',*,*,#1945,.T.);
#1947=CARTESIAN_POINT('',(12.100000000000001,12.200000000000001,0.0));
#1948=VERTEX_POINT('',#1947);
#1949=CARTESIAN_POINT('',(12.100000000000001,12.200000000000001,0.0));
#1950=DIRECTION('',(0.0,0.0,1.0));
#1951=VECTOR('',#1950,1.0);
#1952=LINE('',#1949,#1951);
#1953=EDGE_CURVE('',#1948,#1940,#1952,.T.);
#1954=ORIENTED_EDGE('',*,*,#1953,.F.);
#1955=CARTESIAN_POINT('',(12.100000000000001,12.200000000000001,0.0));
#1956=DIRECTION('',(0.0,1.0,0.0));
#1957=VECTOR('',#1956,0.800000000000001);
#1958=LINE('',#1955,#1957);
#1959=EDGE_CURVE('',#1948,#1917,#1958,.T.);
#1960=ORIENTED_EDGE('',*,*,#1959,.T.);
#1961=ORIENTED_EDGE('',*,*,#1922,.T.);
#1962=EDGE_LOOP('',(#1946,#1954,#1960,#1961));
#1963=FACE_OUTER_BOUND('',#1962,.T.);
#1964=ADVANCED_FACE('',(#1963),#1938,.T.);
#1965=CARTESIAN_POINT('',(12.100000000000001,12.200000000000001,0.0));
#1966=DIRECTION('',(0.0,-1.0,0.0));
#1967=DIRECTION('',(0.0,0.0,-1.0));
#1968=AXIS2_PLACEMENT_3D('',#1965,#1966,#1967);
#1969=PLANE('',#1968);
#1970=CARTESIAN_POINT('',(12.100000000000001,12.200000000000001,1.0));
#1971=DIRECTION('',(-1.0,0.0,0.0));
#1972=VECTOR('',#1971,3.0);
#1973=LINE('',#1970,#1972);
#1974=EDGE_CURVE('',#1940,#1869,#1973,.T.);
#1975=ORIENTED_EDGE('',*,*,#1974,.T.);
#1976=ORIENTED_EDGE('',*,*,#1898,.F.);
#1977=CARTESIAN_POINT('',(9.100000000000001,12.200000000000001,0.0));
#1978=DIRECTION('',(1.0,0.0,0.0));
#1979=VECTOR('',#1978,3.0);
#1980=LINE('',#1977,#1979);
#1981=EDGE_CURVE('',#1887,#1948,#1980,.T.);
#1982=ORIENTED_EDGE('',*,*,#1981,.T.);
#1983=ORIENTED_EDGE('',*,*,#1953,.T.);
#1984=EDGE_LOOP('',(#1975,#1976,#1982,#1983));
#1985=FACE_OUTER_BOUND('',#1984,.T.);
#1986=ADVANCED_FACE('',(#1985),#1969,.T.);
#1987=CARTESIAN_POINT('',(10.6,12.600000000000001,0.0));
#1988=DIRECTION('',(0.0,0.0,1.0));
#1989=DIRECTION('',(0.0,-1.0,0.0));
#1990=AXIS2_PLACEMENT_3D('',#1987,#1988,#1989);
#1991=PLANE('',#1990);
#1992=ORIENTED_EDGE('',*,*,#1981,.F.);
#1993=ORIENTED_EDGE('',*,*,#1892,.F.);
#1994=ORIENTED_EDGE('',*,*,#1928,.F.);
#1995=ORIENTED_EDGE('',*,*,#1959,.F.);
#1996=EDGE_LOOP('',(#1992,#1993,#1994,#1995));
#1997=FACE_OUTER_BOUND('',#1996,.T.);
#1998=ADVANCED_FACE('',(#1997),#1991,.F.);
#1999=CARTESIAN_POINT('',(10.600000000000001,12.600000000000003,1.0));
#2000=DIRECTION('',(0.0,0.0,1.0));
#2001=DIRECTION('',(0.0,-1.0,0.0));
#2002=AXIS2_PLACEMENT_3D('',#1999,#2000,#2001);
#2003=PLANE('',#2002);
#2004=ORIENTED_EDGE('',*,*,#1876,.F.);
#2005=ORIENTED_EDGE('',*,*,#1974,.F.);
#2006=ORIENTED_EDGE('',*,*,#1945,.F.);
#2007=ORIENTED_EDGE('',*,*,#1914,.F.);
#2008=EDGE_LOOP('',(#2004,#2005,#2006,#2007));
#2009=FACE_OUTER_BOUND('',#2008,.T.);
#2010=ADVANCED_FACE('',(#2009),#2003,.T.);
#2011=CLOSED_SHELL('',(#1902,#1933,#1964,#1986,#1998,#2010));
#2012=MANIFOLD_SOLID_BREP('72D',#2011);
#2013=STYLED_ITEM('NONE',(#1559),#2012);
#2014=CARTESIAN_POINT('',(12.099999999999998,-13.000000000000002,0.0));
#2015=DIRECTION('',(0.0,-1.0,0.0));
#2016=DIRECTION('',(0.0,0.0,-1.0));
#2017=AXIS2_PLACEMENT_3D('',#2014,#2015,#2016);
#2018=PLANE('',#2017);
#2019=CARTESIAN_POINT('',(12.099999999999998,-13.000000000000002,1.0));
#2020=VERTEX_POINT('',#2019);
#2021=CARTESIAN_POINT('',(9.099999999999998,-13.000000000000002,1.0));
#2022=VERTEX_POINT('',#2021);
#2023=CARTESIAN_POINT('',(12.099999999999998,-13.000000000000002,1.0));
#2024=DIRECTION('',(-1.0,0.0,0.0));
#2025=VECTOR('',#2024,3.0);
#2026=LINE('',#2023,#2025);
#2027=EDGE_CURVE('',#2020,#2022,#2026,.T.);
#2028=ORIENTED_EDGE('',*,*,#2027,.T.);
#2029=CARTESIAN_POINT('',(9.099999999999998,-13.000000000000002,0.0));
#2030=VERTEX_POINT('',#2029);
#2031=CARTESIAN_POINT('',(9.099999999999998,-13.000000000000002,0.0));
#2032=DIRECTION('',(0.0,0.0,1.0));
#2033=VECTOR('',#2032,1.0);
#2034=LINE('',#2031,#2033);
#2035=EDGE_CURVE('',#2030,#2022,#2034,.T.);
#2036=ORIENTED_EDGE('',*,*,#2035,.F.);
#2037=CARTESIAN_POINT('',(12.099999999999998,-13.000000000000002,0.0));
#2038=VERTEX_POINT('',#2037);
#2039=CARTESIAN_POINT('',(9.099999999999998,-13.000000000000002,0.0));
#2040=DIRECTION('',(1.0,0.0,0.0));
#2041=VECTOR('',#2040,3.0);
#2042=LINE('',#2039,#2041);
#2043=EDGE_CURVE('',#2030,#2038,#2042,.T.);
#2044=ORIENTED_EDGE('',*,*,#2043,.T.);
#2045=CARTESIAN_POINT('',(12.099999999999998,-13.000000000000002,0.0));
#2046=DIRECTION('',(0.0,0.0,1.0));
#2047=VECTOR('',#2046,1.0);
#2048=LINE('',#2045,#2047);
#2049=EDGE_CURVE('',#2038,#2020,#2048,.T.);
#2050=ORIENTED_EDGE('',*,*,#2049,.T.);
#2051=EDGE_LOOP('',(#2028,#2036,#2044,#2050));
#2052=FACE_OUTER_BOUND('',#2051,.T.);
#2053=ADVANCED_FACE('',(#2052),#2018,.T.);
#2054=CARTESIAN_POINT('',(9.099999999999998,-13.000000000000002,0.0));
#2055=DIRECTION('',(-1.0,0.0,0.0));
#2056=DIRECTION('',(0.0,0.0,-1.0));
#2057=AXIS2_PLACEMENT_3D('',#2054,#2055,#2056);
#2058=PLANE('',#2057);
#2059=CARTESIAN_POINT('',(9.099999999999998,-12.200000000000001,1.0));
#2060=VERTEX_POINT('',#2059);
#2061=CARTESIAN_POINT('',(9.099999999999998,-13.000000000000002,1.0));
#2062=DIRECTION('',(0.0,1.0,0.0));
#2063=VECTOR('',#2062,0.800000000000001);
#2064=LINE('',#2061,#2063);
#2065=EDGE_CURVE('',#2022,#2060,#2064,.T.);
#2066=ORIENTED_EDGE('',*,*,#2065,.T.);
#2067=CARTESIAN_POINT('',(9.099999999999998,-12.200000000000001,0.0));
#2068=VERTEX_POINT('',#2067);
#2069=CARTESIAN_POINT('',(9.099999999999998,-12.200000000000001,0.0));
#2070=DIRECTION('',(0.0,0.0,1.0));
#2071=VECTOR('',#2070,1.0);
#2072=LINE('',#2069,#2071);
#2073=EDGE_CURVE('',#2068,#2060,#2072,.T.);
#2074=ORIENTED_EDGE('',*,*,#2073,.F.);
#2075=CARTESIAN_POINT('',(9.099999999999998,-12.200000000000001,0.0));
#2076=DIRECTION('',(0.0,-1.0,0.0));
#2077=VECTOR('',#2076,0.800000000000001);
#2078=LINE('',#2075,#2077);
#2079=EDGE_CURVE('',#2068,#2030,#2078,.T.);
#2080=ORIENTED_EDGE('',*,*,#2079,.T.);
#2081=ORIENTED_EDGE('',*,*,#2035,.T.);
#2082=EDGE_LOOP('',(#2066,#2074,#2080,#2081));
#2083=FACE_OUTER_BOUND('',#2082,.T.);
#2084=ADVANCED_FACE('',(#2083),#2058,.T.);
#2085=CARTESIAN_POINT('',(9.099999999999998,-12.200000000000001,0.0));
#2086=DIRECTION('',(0.0,1.0,0.0));
#2087=DIRECTION('',(0.0,0.0,1.0));
#2088=AXIS2_PLACEMENT_3D('',#2085,#2086,#2087);
#2089=PLANE('',#2088);
#2090=CARTESIAN_POINT('',(12.099999999999998,-12.200000000000001,1.0));
#2091=VERTEX_POINT('',#2090);
#2092=CARTESIAN_POINT('',(9.099999999999998,-12.200000000000001,1.0));
#2093=DIRECTION('',(1.0,0.0,0.0));
#2094=VECTOR('',#2093,3.0);
#2095=LINE('',#2092,#2094);
#2096=EDGE_CURVE('',#2060,#2091,#2095,.T.);
#2097=ORIENTED_EDGE('',*,*,#2096,.T.);
#2098=CARTESIAN_POINT('',(12.099999999999998,-12.200000000000001,0.0));
#2099=VERTEX_POINT('',#2098);
#2100=CARTESIAN_POINT('',(12.099999999999998,-12.200000000000001,0.0));
#2101=DIRECTION('',(0.0,0.0,1.0));
#2102=VECTOR('',#2101,1.0);
#2103=LINE('',#2100,#2102);
#2104=EDGE_CURVE('',#2099,#2091,#2103,.T.);
#2105=ORIENTED_EDGE('',*,*,#2104,.F.);
#2106=CARTESIAN_POINT('',(12.099999999999998,-12.200000000000001,0.0));
#2107=DIRECTION('',(-1.0,0.0,0.0));
#2108=VECTOR('',#2107,3.0);
#2109=LINE('',#2106,#2108);
#2110=EDGE_CURVE('',#2099,#2068,#2109,.T.);
#2111=ORIENTED_EDGE('',*,*,#2110,.T.);
#2112=ORIENTED_EDGE('',*,*,#2073,.T.);
#2113=EDGE_LOOP('',(#2097,#2105,#2111,#2112));
#2114=FACE_OUTER_BOUND('',#2113,.T.);
#2115=ADVANCED_FACE('',(#2114),#2089,.T.);
#2116=CARTESIAN_POINT('',(12.099999999999998,-12.200000000000001,0.0));
#2117=DIRECTION('',(1.0,0.0,0.0));
#2118=DIRECTION('',(0.0,0.0,1.0));
#2119=AXIS2_PLACEMENT_3D('',#2116,#2117,#2118);
#2120=PLANE('',#2119);
#2121=CARTESIAN_POINT('',(12.099999999999998,-12.200000000000001,1.0));
#2122=DIRECTION('',(0.0,-1.0,0.0));
#2123=VECTOR('',#2122,0.800000000000001);
#2124=LINE('',#2121,#2123);
#2125=EDGE_CURVE('',#2091,#2020,#2124,.T.);
#2126=ORIENTED_EDGE('',*,*,#2125,.T.);
#2127=ORIENTED_EDGE('',*,*,#2049,.F.);
#2128=CARTESIAN_POINT('',(12.099999999999998,-13.000000000000002,0.0));
#2129=DIRECTION('',(0.0,1.0,0.0));
#2130=VECTOR('',#2129,0.800000000000001);
#2131=LINE('',#2128,#2130);
#2132=EDGE_CURVE('',#2038,#2099,#2131,.T.);
#2133=ORIENTED_EDGE('',*,*,#2132,.T.);
#2134=ORIENTED_EDGE('',*,*,#2104,.T.);
#2135=EDGE_LOOP('',(#2126,#2127,#2133,#2134));
#2136=FACE_OUTER_BOUND('',#2135,.T.);
#2137=ADVANCED_FACE('',(#2136),#2120,.T.);
#2138=CARTESIAN_POINT('',(10.599999999999998,-12.600000000000003,0.0));
#2139=DIRECTION('',(0.0,0.0,1.0));
#2140=DIRECTION('',(0.0,-1.0,0.0));
#2141=AXIS2_PLACEMENT_3D('',#2138,#2139,#2140);
#2142=PLANE('',#2141);
#2143=ORIENTED_EDGE('',*,*,#2132,.F.);
#2144=ORIENTED_EDGE('',*,*,#2043,.F.);
#2145=ORIENTED_EDGE('',*,*,#2079,.F.);
#2146=ORIENTED_EDGE('',*,*,#2110,.F.);
#2147=EDGE_LOOP('',(#2143,#2144,#2145,#2146));
#2148=FACE_OUTER_BOUND('',#2147,.T.);
#2149=ADVANCED_FACE('',(#2148),#2142,.F.);
#2150=CARTESIAN_POINT('',(10.599999999999998,-12.600000000000003,1.0));
#2151=DIRECTION('',(0.0,0.0,1.0));
#2152=DIRECTION('',(0.0,-1.0,0.0));
#2153=AXIS2_PLACEMENT_3D('',#2150,#2151,#2152);
#2154=PLANE('',#2153);
#2155=ORIENTED_EDGE('',*,*,#2027,.F.);
#2156=ORIENTED_EDGE('',*,*,#2125,.F.);
#2157=ORIENTED_EDGE('',*,*,#2096,.F.);
#2158=ORIENTED_EDGE('',*,*,#2065,.F.);
#2159=EDGE_LOOP('',(#2155,#2156,#2157,#2158));
#2160=FACE_OUTER_BOUND('',#2159,.T.);
#2161=ADVANCED_FACE('',(#2160),#2154,.T.);
#2162=CLOSED_SHELL('',(#2053,#2084,#2115,#2137,#2149,#2161));
#2163=MANIFOLD_SOLID_BREP('729',#2162);
#2164=STYLED_ITEM('NONE',(#1559),#2163);
#2165=ADVANCED_BREP_SHAPE_REPRESENTATION('ABSR1',(#152,#250,#339,#428,#517,#808,#1552,#1710,#1861,#2012,#2163),#28);
#2166=SHAPE_REPRESENTATION_RELATIONSHIP('SRRPL1','',#2165,#62);
ENDSEC;
END-ISO-10303-21;
