ISO-10303-21;
HEADER;
/****************************************************************
 * Generated by software with PDElib inside                    *
 * PDElib Version v51a, created Wed 11/30/2011                  *
 * ITI Transcendata (http://www.transcendata.com/)              *
 ****************************************************************/
FILE_DESCRIPTION((''),'2;1');
FILE_NAME('LEMO_HEN.2M.308.XLNP_Part2.stp','2014-12-03T12:52:05',(''),(''),'Mechanical Desktop 2011','Mechanical Desktop 2011',', , ');
FILE_SCHEMA(('AUTOMOTIVE_DESIGN { 1 2 10303 214 1 1 1 1 }'));
ENDSEC;
DATA;
#10=(NAMED_UNIT(*)PLANE_ANGLE_UNIT()SI_UNIT($,.RADIAN.));
#11=DIMENSIONAL_EXPONENTS(0.0,0.0,0.0,0.0,0.0,0.0,0.0);
#12=PLANE_ANGLE_MEASURE_WITH_UNIT(PLANE_ANGLE_MEASURE(0.0174532925),#10);
#16=(CONVERSION_BASED_UNIT('DEGREE',#12)NAMED_UNIT(#11)PLANE_ANGLE_UNIT());
#20=(NAMED_UNIT(*)SI_UNIT($,.STERADIAN.)SOLID_ANGLE_UNIT());
#24=(LENGTH_UNIT()NAMED_UNIT(*)SI_UNIT(.MILLI.,.METRE.));
#26=UNCERTAINTY_MEASURE_WITH_UNIT(LENGTH_MEASURE(0.000001),#24,'DISTANCE_ACCURACY_VALUE','');
#28=(GEOMETRIC_REPRESENTATION_CONTEXT(3)GLOBAL_UNCERTAINTY_ASSIGNED_CONTEXT((#26))GLOBAL_UNIT_ASSIGNED_CONTEXT((#16,#20,#24))REPRESENTATION_CONTEXT('','3D'));
#29=APPLICATION_CONTEXT('automotive design');
#30=APPLICATION_PROTOCOL_DEFINITION('INTERNATIONAL_STANDARD','automotive_design',1998,#29);
#31=PRODUCT_CONTEXT('3D Mechanical Parts',#29,'mechanical');
#32=PRODUCT('Product','Product','',(#31));
#33=PRODUCT_RELATED_PRODUCT_CATEGORY('part',$,(#32));
#34=PRODUCT_CATEGORY('part',$);
#35=PERSON('1','Design','Joe',$,$,$);
#36=ORGANIZATION($,'None','None');
#37=PERSON_AND_ORGANIZATION(#35,#36);
#38=PERSON_AND_ORGANIZATION_ROLE('design_owner');
#39=APPLIED_PERSON_AND_ORGANIZATION_ASSIGNMENT(#37,#38,(#32));
#40=PRODUCT_DEFINITION_FORMATION_WITH_SPECIFIED_SOURCE('None','',#32,.BOUGHT.);
#41=PERSON('2','Creator','Joe',$,$,$);
#42=ORGANIZATION($,'None','None');
#43=PERSON_AND_ORGANIZATION(#41,#42);
#44=PERSON_AND_ORGANIZATION_ROLE('creator');
#45=APPLIED_PERSON_AND_ORGANIZATION_ASSIGNMENT(#43,#44,(#40));
#46=PERSON('3','Supplier','Joe',$,$,$);
#47=ORGANIZATION($,'None','None');
#48=PERSON_AND_ORGANIZATION(#46,#47);
#49=PERSON_AND_ORGANIZATION_ROLE('design_supplier');
#50=APPLIED_PERSON_AND_ORGANIZATION_ASSIGNMENT(#48,#49,(#40));
#51=PRODUCT_DEFINITION_CONTEXT('part definition',#29,'design');
#52=PRODUCT_DEFINITION('None','',#40,#51);
#53=PERSON('4','Creator','Joe',$,$,$);
#54=ORGANIZATION($,'None','None');
#55=PERSON_AND_ORGANIZATION(#53,#54);
#56=PERSON_AND_ORGANIZATION_ROLE('creator');
#57=APPLIED_PERSON_AND_ORGANIZATION_ASSIGNMENT(#55,#56,(#52));
#58=CARTESIAN_POINT('NONE',(0.0,0.0,0.0));
#59=DIRECTION('NONE',(0.0,0.0,1.0));
#60=DIRECTION('NONE',(1.0,0.0,0.0));
#61=AXIS2_PLACEMENT_3D('NONE',#58,#59,#60);
#62=SHAPE_REPRESENTATION('SR1',(#61),#28);
#63=PRODUCT_DEFINITION_SHAPE('PDS1','Test Part',#52);
#64=SHAPE_DEFINITION_REPRESENTATION(#63,#62);
#65=CARTESIAN_POINT('',(8.334882E-032,-6.429396E-016,8.300000000000001));
#66=DIRECTION('',(0.0,0.0,1.0));
#67=DIRECTION('',(1.0,0.0,0.0));
#68=AXIS2_PLACEMENT_3D('',#65,#66,#67);
#69=CYLINDRICAL_SURFACE('',#68,10.5);
#70=CARTESIAN_POINT('',(10.5,-6.429396E-016,9.300000000000001));
#71=VERTEX_POINT('',#70);
#72=CARTESIAN_POINT('',(10.5,-6.429396E-016,8.300000000000001));
#73=VERTEX_POINT('',#72);
#74=CARTESIAN_POINT('',(10.5,-6.429396E-016,9.300000000000001));
#75=DIRECTION('',(0.0,0.0,-1.0));
#76=VECTOR('',#75,1.0);
#77=LINE('',#74,#76);
#78=EDGE_CURVE('',#71,#73,#77,.T.);
#79=ORIENTED_EDGE('',*,*,#78,.F.);
#80=CARTESIAN_POINT('',(9.000000000018705,-5.408326913164856,9.300000000000001));
#81=VERTEX_POINT('',#80);
#82=CARTESIAN_POINT('',(8.334882E-032,-6.429396E-016,9.300000000000001));
#83=DIRECTION('',(0.0,0.0,1.0));
#84=DIRECTION('',(-1.0,0.0,0.0));
#85=AXIS2_PLACEMENT_3D('',#82,#83,#84);
#86=CIRCLE('',#85,10.5);
#87=EDGE_CURVE('',#81,#71,#86,.T.);
#88=ORIENTED_EDGE('',*,*,#87,.F.);
#89=CARTESIAN_POINT('',(-9.000000000004677,-5.408326913156421,9.300000000000001));
#90=VERTEX_POINT('',#89);
#91=CARTESIAN_POINT('',(8.334882E-032,-6.429396E-016,9.300000000000001));
#92=DIRECTION('',(0.0,0.0,1.0));
#93=DIRECTION('',(-1.0,0.0,0.0));
#94=AXIS2_PLACEMENT_3D('',#91,#92,#93);
#95=CIRCLE('',#94,10.5);
#96=EDGE_CURVE('',#90,#81,#95,.T.);
#97=ORIENTED_EDGE('',*,*,#96,.F.);
#98=CARTESIAN_POINT('',(-10.5,-1.928819E-015,9.300000000000001));
#99=VERTEX_POINT('',#98);
#100=CARTESIAN_POINT('',(8.334882E-032,-6.429396E-016,9.300000000000001));
#101=DIRECTION('',(0.0,0.0,1.0));
#102=DIRECTION('',(-1.0,0.0,0.0));
#103=AXIS2_PLACEMENT_3D('',#100,#101,#102);
#104=CIRCLE('',#103,10.5);
#105=EDGE_CURVE('',#99,#90,#104,.T.);
#106=ORIENTED_EDGE('',*,*,#105,.F.);
#107=CARTESIAN_POINT('',(-10.5,-1.928819E-015,8.300000000000001));
#108=VERTEX_POINT('',#107);
#109=CARTESIAN_POINT('',(-10.5,-1.928819E-015,9.300000000000001));
#110=DIRECTION('',(0.0,0.0,-1.0));
#111=VECTOR('',#110,1.0);
#112=LINE('',#109,#111);
#113=EDGE_CURVE('',#99,#108,#112,.T.);
#114=ORIENTED_EDGE('',*,*,#113,.T.);
#115=CARTESIAN_POINT('',(8.334882E-032,-6.429396E-016,8.300000000000001));
#116=DIRECTION('',(0.0,0.0,1.0));
#117=DIRECTION('',(1.0,0.0,0.0));
#118=AXIS2_PLACEMENT_3D('',#115,#116,#117);
#119=CIRCLE('',#118,10.5);
#120=EDGE_CURVE('',#108,#73,#119,.T.);
#121=ORIENTED_EDGE('',*,*,#120,.T.);
#122=EDGE_LOOP('',(#79,#88,#97,#106,#114,#121));
#123=FACE_OUTER_BOUND('',#122,.T.);
#124=ADVANCED_FACE('',(#123),#69,.T.);
#125=CARTESIAN_POINT('',(-0.114152778410587,1.100269E-015,12.432296078256233));
#126=DIRECTION('',(0.0,0.0,1.0));
#127=DIRECTION('',(1.0,0.0,0.0));
#128=AXIS2_PLACEMENT_3D('',#125,#126,#127);
#129=CYLINDRICAL_SURFACE('',#128,8.400744759751552);
#130=CARTESIAN_POINT('',(8.286591981340965,1.100269E-015,8.300000000000001));
#131=VERTEX_POINT('',#130);
#132=CARTESIAN_POINT('',(8.286591981340965,1.100269E-015,11.5));
#133=VERTEX_POINT('',#132);
#134=CARTESIAN_POINT('',(8.286591981340965,1.100269E-015,8.300000000000001));
#135=DIRECTION('',(0.0,0.0,1.0));
#136=VECTOR('',#135,3.199999999999999);
#137=LINE('',#134,#136);
#138=EDGE_CURVE('',#131,#133,#137,.T.);
#139=ORIENTED_EDGE('',*,*,#138,.F.);
#140=CARTESIAN_POINT('',(-8.514897538162138,7.147409E-017,8.300000000000001));
#141=VERTEX_POINT('',#140);
#142=CARTESIAN_POINT('',(-0.114152778410587,1.100269E-015,8.300000000000001));
#143=DIRECTION('',(0.0,0.0,1.0));
#144=DIRECTION('',(1.0,0.0,0.0));
#145=AXIS2_PLACEMENT_3D('',#142,#143,#144);
#146=CIRCLE('',#145,8.400744759751552);
#147=EDGE_CURVE('',#141,#131,#146,.T.);
#148=ORIENTED_EDGE('',*,*,#147,.F.);
#149=CARTESIAN_POINT('',(-8.514897538162138,2.129063E-015,11.5));
#150=VERTEX_POINT('',#149);
#151=CARTESIAN_POINT('',(-8.514897538162138,7.147409E-017,8.300000000000001));
#152=DIRECTION('',(0.0,0.0,1.0));
#153=VECTOR('',#152,3.199999999999999);
#154=LINE('',#151,#153);
#155=EDGE_CURVE('',#141,#150,#154,.T.);
#156=ORIENTED_EDGE('',*,*,#155,.T.);
#157=CARTESIAN_POINT('',(-0.114152778410587,1.100269E-015,11.5));
#158=DIRECTION('',(0.0,0.0,-1.0));
#159=DIRECTION('',(1.0,0.0,0.0));
#160=AXIS2_PLACEMENT_3D('',#157,#158,#159);
#161=CIRCLE('',#160,8.400744759751552);
#162=EDGE_CURVE('',#133,#150,#161,.T.);
#163=ORIENTED_EDGE('',*,*,#162,.F.);
#164=EDGE_LOOP('',(#139,#148,#156,#163));
#165=FACE_OUTER_BOUND('',#164,.T.);
#166=ADVANCED_FACE('',(#165),#129,.F.);
#167=CARTESIAN_POINT('',(-0.114152778410587,1.100269E-015,12.432296078256233));
#168=DIRECTION('',(0.0,0.0,1.0));
#169=DIRECTION('',(1.0,0.0,0.0));
#170=AXIS2_PLACEMENT_3D('',#167,#168,#169);
#171=CYLINDRICAL_SURFACE('',#170,8.400744759751552);
#172=ORIENTED_EDGE('',*,*,#138,.T.);
#173=CARTESIAN_POINT('',(-0.114152778410587,1.100269E-015,11.5));
#174=DIRECTION('',(0.0,0.0,-1.0));
#175=DIRECTION('',(1.0,0.0,0.0));
#176=AXIS2_PLACEMENT_3D('',#173,#174,#175);
#177=CIRCLE('',#176,8.400744759751552);
#178=EDGE_CURVE('',#150,#133,#177,.T.);
#179=ORIENTED_EDGE('',*,*,#178,.F.);
#180=ORIENTED_EDGE('',*,*,#155,.F.);
#181=CARTESIAN_POINT('',(-0.114152778410587,1.100269E-015,8.300000000000001));
#182=DIRECTION('',(0.0,0.0,1.0));
#183=DIRECTION('',(1.0,0.0,0.0));
#184=AXIS2_PLACEMENT_3D('',#181,#182,#183);
#185=CIRCLE('',#184,8.400744759751552);
#186=EDGE_CURVE('',#131,#141,#185,.T.);
#187=ORIENTED_EDGE('',*,*,#186,.F.);
#188=EDGE_LOOP('',(#172,#179,#180,#187));
#189=FACE_OUTER_BOUND('',#188,.T.);
#190=ADVANCED_FACE('',(#189),#171,.F.);
#191=CARTESIAN_POINT('',(9.000000000018705,-5.408326913164856,9.300000000000001));
#192=DIRECTION('',(-1.0,-1.729281E-012,0.0));
#193=DIRECTION('',(0.0,0.0,1.0));
#194=AXIS2_PLACEMENT_3D('',#191,#192,#193);
#195=PLANE('',#194);
#196=CARTESIAN_POINT('',(9.000000000005814,2.047657197847179,11.5));
#197=VERTEX_POINT('',#196);
#198=CARTESIAN_POINT('',(9.0,5.408326913195991,9.300000000000001));
#199=VERTEX_POINT('',#198);
#200=CARTESIAN_POINT('',(9.000000000005812,2.047657197847176,11.5));
#201=CARTESIAN_POINT('',(9.000000000003094,3.619830612579555,10.895808015661377));
#202=CARTESIAN_POINT('',(9.0,5.408326913195985,9.300000000000001));
#210=(BOUNDED_CURVE()B_SPLINE_CURVE(2,(#200,#201,#202),.UNSPECIFIED.,.F.,.U.)B_SPLINE_CURVE_WITH_KNOTS((3,3),(0.0,4.032799100403501),.UNSPECIFIED.)CURVE()GEOMETRIC_REPRESENTATION_ITEM()RATIONAL_B_SPLINE_CURVE((1.0,1.014830158105957,1.0))REPRESENTATION_ITEM(''));
#211=EDGE_CURVE('',#197,#199,#210,.T.);
#212=ORIENTED_EDGE('',*,*,#211,.F.);
#213=CARTESIAN_POINT('',(9.000000000012895,-2.047657197816053,11.5));
#214=VERTEX_POINT('',#213);
#215=CARTESIAN_POINT('',(9.000000000012895,-2.047657197816053,11.5));
#216=DIRECTION('',(-1.729375E-012,1.0,0.0));
#217=VECTOR('',#216,4.095314395663232);
#218=LINE('',#215,#217);
#219=EDGE_CURVE('',#214,#197,#218,.T.);
#220=ORIENTED_EDGE('',*,*,#219,.F.);
#221=CARTESIAN_POINT('',(9.000000000018707,-5.408326913164858,9.300000000000001));
#222=CARTESIAN_POINT('',(9.000000000015614,-3.619830612548422,10.89580801566138));
#223=CARTESIAN_POINT('',(9.000000000012896,-2.04765719781605,11.5));
#231=(BOUNDED_CURVE()B_SPLINE_CURVE(2,(#221,#222,#223),.UNSPECIFIED.,.F.,.U.)B_SPLINE_CURVE_WITH_KNOTS((3,3),(0.0,4.0327991004035),.UNSPECIFIED.)CURVE()GEOMETRIC_REPRESENTATION_ITEM()RATIONAL_B_SPLINE_CURVE((1.0,1.014830158105914,1.0))REPRESENTATION_ITEM(''));
#232=EDGE_CURVE('',#81,#214,#231,.T.);
#233=ORIENTED_EDGE('',*,*,#232,.F.);
#234=CARTESIAN_POINT('',(9.0,5.408326913195991,9.300000000000001));
#235=DIRECTION('',(1.729281E-012,-1.0,0.0));
#236=VECTOR('',#235,10.816653826360845);
#237=LINE('',#234,#236);
#238=EDGE_CURVE('',#199,#81,#237,.T.);
#239=ORIENTED_EDGE('',*,*,#238,.F.);
#240=EDGE_LOOP('',(#212,#220,#233,#239));
#241=FACE_OUTER_BOUND('',#240,.T.);
#242=ADVANCED_FACE('',(#241),#195,.F.);
#243=CARTESIAN_POINT('',(9.458903091725716,1.636136E-011,9.299999999999997));
#244=DIRECTION('',(0.0,0.0,1.0));
#245=DIRECTION('',(1.0,0.0,0.0));
#246=AXIS2_PLACEMENT_3D('',#243,#244,#245);
#247=PLANE('',#246);
#248=ORIENTED_EDGE('',*,*,#87,.T.);
#249=CARTESIAN_POINT('',(8.334882E-032,-6.429396E-016,9.300000000000001));
#250=DIRECTION('',(0.0,0.0,1.0));
#251=DIRECTION('',(-1.0,0.0,0.0));
#252=AXIS2_PLACEMENT_3D('',#249,#250,#251);
#253=CIRCLE('',#252,10.5);
#254=EDGE_CURVE('',#71,#199,#253,.T.);
#255=ORIENTED_EDGE('',*,*,#254,.T.);
#256=ORIENTED_EDGE('',*,*,#238,.T.);
#257=EDGE_LOOP('',(#248,#255,#256));
#258=FACE_OUTER_BOUND('',#257,.T.);
#259=ADVANCED_FACE('',(#258),#247,.T.);
#260=CARTESIAN_POINT('',(-9.0,5.408326913195991,9.300000000000001));
#261=DIRECTION('',(1.0,-4.324024E-013,0.0));
#262=DIRECTION('',(0.0,0.0,-1.0));
#263=AXIS2_PLACEMENT_3D('',#260,#261,#262);
#264=PLANE('',#263);
#265=CARTESIAN_POINT('',(-9.0,5.408326913195991,9.300000000000001));
#266=VERTEX_POINT('',#265);
#267=CARTESIAN_POINT('',(-9.000000000001453,2.047657197866348,11.5));
#268=VERTEX_POINT('',#267);
#269=CARTESIAN_POINT('',(-9.0,5.408326913195985,9.300000000000001));
#270=CARTESIAN_POINT('',(-9.000000000000771,3.619830612589744,10.895808015655728));
#271=CARTESIAN_POINT('',(-9.000000000001451,2.047657197866346,11.5));
#279=(BOUNDED_CURVE()B_SPLINE_CURVE(2,(#269,#270,#271),.UNSPECIFIED.,.F.,.U.)B_SPLINE_CURVE_WITH_KNOTS((3,3),(0.0,4.032799100387042),.UNSPECIFIED.)CURVE()GEOMETRIC_REPRESENTATION_ITEM()RATIONAL_B_SPLINE_CURVE((1.0,1.014830158105793,1.0))REPRESENTATION_ITEM(''));
#280=EDGE_CURVE('',#266,#268,#279,.T.);
#281=ORIENTED_EDGE('',*,*,#280,.F.);
#282=CARTESIAN_POINT('',(-9.000000000004677,-5.408326913156421,9.300000000000001));
#283=DIRECTION('',(4.324024E-013,1.0,0.0));
#284=VECTOR('',#283,10.816653826352411);
#285=LINE('',#282,#284);
#286=EDGE_CURVE('',#90,#266,#285,.T.);
#287=ORIENTED_EDGE('',*,*,#286,.F.);
#288=CARTESIAN_POINT('',(-9.000000000003222,-2.047657197858566,11.5));
#289=VERTEX_POINT('',#288);
#290=CARTESIAN_POINT('',(-9.000000000003222,-2.047657197858563,11.5));
#291=CARTESIAN_POINT('',(-9.000000000003904,-3.619830612581956,10.895808015655732));
#292=CARTESIAN_POINT('',(-9.000000000004677,-5.408326913188203,9.300000000000001));
#300=(BOUNDED_CURVE()B_SPLINE_CURVE(2,(#290,#291,#292),.UNSPECIFIED.,.F.,.U.)B_SPLINE_CURVE_WITH_KNOTS((3,3),(0.0,4.032799100387042),.UNSPECIFIED.)CURVE()GEOMETRIC_REPRESENTATION_ITEM()RATIONAL_B_SPLINE_CURVE((1.0,1.014830158105779,1.0))REPRESENTATION_ITEM(''));
#301=EDGE_CURVE('',#289,#90,#300,.T.);
#302=ORIENTED_EDGE('',*,*,#301,.F.);
#303=CARTESIAN_POINT('',(-9.000000000001453,2.047657197866348,11.5));
#304=DIRECTION('',(-4.324522E-013,-1.0,0.0));
#305=VECTOR('',#304,4.095314395724914);
#306=LINE('',#303,#305);
#307=EDGE_CURVE('',#268,#289,#306,.T.);
#308=ORIENTED_EDGE('',*,*,#307,.F.);
#309=EDGE_LOOP('',(#281,#287,#302,#308));
#310=FACE_OUTER_BOUND('',#309,.T.);
#311=ADVANCED_FACE('',(#310),#264,.F.);
#312=CARTESIAN_POINT('',(-9.458903091718346,1.998273E-011,9.300000000000001));
#313=DIRECTION('',(0.0,0.0,1.0));
#314=DIRECTION('',(1.0,0.0,0.0));
#315=AXIS2_PLACEMENT_3D('',#312,#313,#314);
#316=PLANE('',#315);
#317=ORIENTED_EDGE('',*,*,#286,.T.);
#318=CARTESIAN_POINT('',(8.334882E-032,-6.429396E-016,9.300000000000001));
#319=DIRECTION('',(0.0,0.0,1.0));
#320=DIRECTION('',(-1.0,0.0,0.0));
#321=AXIS2_PLACEMENT_3D('',#318,#319,#320);
#322=CIRCLE('',#321,10.5);
#323=EDGE_CURVE('',#266,#99,#322,.T.);
#324=ORIENTED_EDGE('',*,*,#323,.T.);
#325=ORIENTED_EDGE('',*,*,#105,.T.);
#326=EDGE_LOOP('',(#317,#324,#325));
#327=FACE_OUTER_BOUND('',#326,.T.);
#328=ADVANCED_FACE('',(#327),#316,.T.);
#329=CARTESIAN_POINT('',(8.334882E-032,-6.429396E-016,10.4));
#330=DIRECTION('',(0.0,0.0,-1.0));
#331=DIRECTION('',(-1.0,0.0,0.0));
#332=AXIS2_PLACEMENT_3D('',#329,#330,#331);
#333=CONICAL_SURFACE('',#332,9.865,29.99666776968845);
#334=ORIENTED_EDGE('',*,*,#232,.T.);
#335=CARTESIAN_POINT('',(8.334882E-032,-6.429396E-016,11.5));
#336=DIRECTION('',(0.0,0.0,-1.0));
#337=DIRECTION('',(-1.0,0.0,0.0));
#338=AXIS2_PLACEMENT_3D('',#335,#336,#337);
#339=CIRCLE('',#338,9.23);
#340=EDGE_CURVE('',#214,#289,#339,.T.);
#341=ORIENTED_EDGE('',*,*,#340,.T.);
#342=ORIENTED_EDGE('',*,*,#301,.T.);
#343=ORIENTED_EDGE('',*,*,#96,.T.);
#344=EDGE_LOOP('',(#334,#341,#342,#343));
#345=FACE_OUTER_BOUND('',#344,.T.);
#346=ADVANCED_FACE('',(#345),#333,.T.);
#347=CARTESIAN_POINT('',(8.334882E-032,-6.429396E-016,10.4));
#348=DIRECTION('',(0.0,0.0,-1.0));
#349=DIRECTION('',(-1.0,0.0,0.0));
#350=AXIS2_PLACEMENT_3D('',#347,#348,#349);
#351=CONICAL_SURFACE('',#350,9.865,29.99666776968845);
#352=ORIENTED_EDGE('',*,*,#211,.T.);
#353=CARTESIAN_POINT('',(8.334882E-032,-6.429396E-016,9.300000000000001));
#354=DIRECTION('',(0.0,0.0,1.0));
#355=DIRECTION('',(-1.0,0.0,0.0));
#356=AXIS2_PLACEMENT_3D('',#353,#354,#355);
#357=CIRCLE('',#356,10.5);
#358=EDGE_CURVE('',#199,#266,#357,.T.);
#359=ORIENTED_EDGE('',*,*,#358,.T.);
#360=ORIENTED_EDGE('',*,*,#280,.T.);
#361=CARTESIAN_POINT('',(8.334882E-032,-6.429396E-016,11.5));
#362=DIRECTION('',(0.0,0.0,-1.0));
#363=DIRECTION('',(-1.0,0.0,0.0));
#364=AXIS2_PLACEMENT_3D('',#361,#362,#363);
#365=CIRCLE('',#364,9.23);
#366=EDGE_CURVE('',#268,#197,#365,.T.);
#367=ORIENTED_EDGE('',*,*,#366,.T.);
#368=EDGE_LOOP('',(#352,#359,#360,#367));
#369=FACE_OUTER_BOUND('',#368,.T.);
#370=ADVANCED_FACE('',(#369),#351,.T.);
#371=CARTESIAN_POINT('',(8.334882E-032,-6.429396E-016,8.300000000000001));
#372=DIRECTION('',(0.0,0.0,1.0));
#373=DIRECTION('',(1.0,0.0,0.0));
#374=AXIS2_PLACEMENT_3D('',#371,#372,#373);
#375=CYLINDRICAL_SURFACE('',#374,10.5);
#376=ORIENTED_EDGE('',*,*,#78,.T.);
#377=CARTESIAN_POINT('',(8.334882E-032,-6.429396E-016,8.300000000000001));
#378=DIRECTION('',(0.0,0.0,1.0));
#379=DIRECTION('',(1.0,0.0,0.0));
#380=AXIS2_PLACEMENT_3D('',#377,#378,#379);
#381=CIRCLE('',#380,10.5);
#382=EDGE_CURVE('',#73,#108,#381,.T.);
#383=ORIENTED_EDGE('',*,*,#382,.T.);
#384=ORIENTED_EDGE('',*,*,#113,.F.);
#385=ORIENTED_EDGE('',*,*,#323,.F.);
#386=ORIENTED_EDGE('',*,*,#358,.F.);
#387=ORIENTED_EDGE('',*,*,#254,.F.);
#388=EDGE_LOOP('',(#376,#383,#384,#385,#386,#387));
#389=FACE_OUTER_BOUND('',#388,.T.);
#390=ADVANCED_FACE('',(#389),#375,.T.);
#391=CARTESIAN_POINT('',(8.334882E-032,-6.429396E-016,11.5));
#392=DIRECTION('',(0.0,0.0,1.0));
#393=DIRECTION('',(1.0,0.0,0.0));
#394=AXIS2_PLACEMENT_3D('',#391,#392,#393);
#395=PLANE('',#394);
#396=ORIENTED_EDGE('',*,*,#219,.T.);
#397=ORIENTED_EDGE('',*,*,#366,.F.);
#398=ORIENTED_EDGE('',*,*,#307,.T.);
#399=ORIENTED_EDGE('',*,*,#340,.F.);
#400=EDGE_LOOP('',(#396,#397,#398,#399));
#401=FACE_OUTER_BOUND('',#400,.T.);
#402=ORIENTED_EDGE('',*,*,#178,.T.);
#403=ORIENTED_EDGE('',*,*,#162,.T.);
#404=EDGE_LOOP('',(#402,#403));
#405=FACE_BOUND('',#404,.T.);
#406=ADVANCED_FACE('',(#401,#405),#395,.T.);
#407=CARTESIAN_POINT('',(8.334882E-032,-6.429396E-016,8.300000000000001));
#408=DIRECTION('',(0.0,0.0,1.0));
#409=DIRECTION('',(1.0,0.0,0.0));
#410=AXIS2_PLACEMENT_3D('',#407,#408,#409);
#411=PLANE('',#410);
#412=ORIENTED_EDGE('',*,*,#382,.F.);
#413=ORIENTED_EDGE('',*,*,#120,.F.);
#414=EDGE_LOOP('',(#412,#413));
#415=FACE_OUTER_BOUND('',#414,.T.);
#416=ORIENTED_EDGE('',*,*,#147,.T.);
#417=ORIENTED_EDGE('',*,*,#186,.T.);
#418=EDGE_LOOP('',(#416,#417));
#419=FACE_BOUND('',#418,.T.);
#420=ADVANCED_FACE('',(#415,#419),#411,.F.);
#421=CLOSED_SHELL('',(#124,#166,#190,#242,#259,#311,#328,#346,#370,#390,#406,#420));
#422=MANIFOLD_SOLID_BREP('3E32',#421);
#423=COLOUR_RGB('251',0.464,0.464,0.464);
#424=SURFACE_STYLE_USAGE(.BOTH.,#425);
#425=SURFACE_SIDE_STYLE('NONE',(#426));
#426=SURFACE_STYLE_FILL_AREA(#427);
#427=FILL_AREA_STYLE('NONE',(#428));
#428=FILL_AREA_STYLE_COLOUR('NONE',#423);
#429=PRESENTATION_STYLE_ASSIGNMENT((#424));
#430=STYLED_ITEM('NONE',(#429),#422);
#431=MECHANICAL_DESIGN_GEOMETRIC_PRESENTATION_REPRESENTATION('NONE',(#430),#28);
#432=PRESENTATION_LAYER_ASSIGNMENT('3D','None',(#422));
#433=ADVANCED_BREP_SHAPE_REPRESENTATION('ABSR1',(#422),#28);
#434=SHAPE_REPRESENTATION_RELATIONSHIP('SRRPL1','',#433,#62);
ENDSEC;
END-ISO-10303-21;
