ISO-10303-21;
HEADER;
/****************************************************************
 * Generated by software with PDElib inside                    *
 * PDElib Version v51a, created Fri 09/10/2010                  *
 * ITI Transcendata (http://www.transcendata.com/)              *
 ****************************************************************/
FILE_DESCRIPTION((''),'2;1');
FILE_NAME('LEMO_EDA-02834-V1-0_Part2.stp','2013-09-19T12:16:31',(''),(''),'Mechanical Desktop 2011','Mechanical Desktop 2011',', , ');
FILE_SCHEMA(('AUTOMOTIVE_DESIGN { 1 2 10303 214 1 1 1 1 }'));
ENDSEC;
DATA;
#10=(NAMED_UNIT(*)PLANE_ANGLE_UNIT()SI_UNIT($,.RADIAN.));
#11=DIMENSIONAL_EXPONENTS(0.0,0.0,0.0,0.0,0.0,0.0,0.0);
#12=PLANE_ANGLE_MEASURE_WITH_UNIT(PLANE_ANGLE_MEASURE(0.0174532925),#10);
#16=(CONVERSION_BASED_UNIT('DEGREE',#12)NAMED_UNIT(#11)PLANE_ANGLE_UNIT());
#20=(NAMED_UNIT(*)SI_UNIT($,.STERADIAN.)SOLID_ANGLE_UNIT());
#24=(LENGTH_UNIT()NAMED_UNIT(*)SI_UNIT(.MILLI.,.METRE.));
#26=UNCERTAINTY_MEASURE_WITH_UNIT(LENGTH_MEASURE(0.000001),#24,'DISTANCE_ACCURACY_VALUE','');
#28=(GEOMETRIC_REPRESENTATION_CONTEXT(3)GLOBAL_UNCERTAINTY_ASSIGNED_CONTEXT((#26))GLOBAL_UNIT_ASSIGNED_CONTEXT((#16,#20,#24))REPRESENTATION_CONTEXT('','3D'));
#29=APPLICATION_CONTEXT('automotive design');
#30=APPLICATION_PROTOCOL_DEFINITION('INTERNATIONAL_STANDARD','automotive_design',1998,#29);
#31=PRODUCT_CONTEXT('3D Mechanical Parts',#29,'mechanical');
#32=PRODUCT('Product','Product','',(#31));
#33=PRODUCT_RELATED_PRODUCT_CATEGORY('part',$,(#32));
#34=PRODUCT_CATEGORY('part',$);
#35=PERSON('1','Design','Joe',$,$,$);
#36=ORGANIZATION($,'None','None');
#37=PERSON_AND_ORGANIZATION(#35,#36);
#38=PERSON_AND_ORGANIZATION_ROLE('design_owner');
#39=APPLIED_PERSON_AND_ORGANIZATION_ASSIGNMENT(#37,#38,(#32));
#40=PRODUCT_DEFINITION_FORMATION_WITH_SPECIFIED_SOURCE('None','',#32,.BOUGHT.);
#41=PERSON('2','Creator','Joe',$,$,$);
#42=ORGANIZATION($,'None','None');
#43=PERSON_AND_ORGANIZATION(#41,#42);
#44=PERSON_AND_ORGANIZATION_ROLE('creator');
#45=APPLIED_PERSON_AND_ORGANIZATION_ASSIGNMENT(#43,#44,(#40));
#46=PERSON('3','Supplier','Joe',$,$,$);
#47=ORGANIZATION($,'None','None');
#48=PERSON_AND_ORGANIZATION(#46,#47);
#49=PERSON_AND_ORGANIZATION_ROLE('design_supplier');
#50=APPLIED_PERSON_AND_ORGANIZATION_ASSIGNMENT(#48,#49,(#40));
#51=PRODUCT_DEFINITION_CONTEXT('part definition',#29,'design');
#52=PRODUCT_DEFINITION('None','',#40,#51);
#53=PERSON('4','Creator','Joe',$,$,$);
#54=ORGANIZATION($,'None','None');
#55=PERSON_AND_ORGANIZATION(#53,#54);
#56=PERSON_AND_ORGANIZATION_ROLE('creator');
#57=APPLIED_PERSON_AND_ORGANIZATION_ASSIGNMENT(#55,#56,(#52));
#58=CARTESIAN_POINT('NONE',(0.0,0.0,0.0));
#59=DIRECTION('NONE',(0.0,0.0,1.0));
#60=DIRECTION('NONE',(1.0,0.0,0.0));
#61=AXIS2_PLACEMENT_3D('NONE',#58,#59,#60);
#62=SHAPE_REPRESENTATION('SR1',(#61),#28);
#63=PRODUCT_DEFINITION_SHAPE('PDS1','Test Part',#52);
#64=SHAPE_DEFINITION_REPRESENTATION(#63,#62);
#65=CARTESIAN_POINT('',(-1.339213E-014,3.693095E-015,32.056406478314834));
#66=DIRECTION('',(4.440892E-016,-1.224647E-016,-1.0));
#67=DIRECTION('',(0.052269977766057,0.998632990354483,-9.908474E-017));
#68=AXIS2_PLACEMENT_3D('',#65,#66,#67);
#69=CONICAL_SURFACE('',#68,0.577350268391895,29.999999965720054);
#70=CARTESIAN_POINT('',(0.36588984436239,6.990430932481381,20.932050807568871));
#71=VERTEX_POINT('',#70);
#72=CARTESIAN_POINT('',(0.357803650692183,6.835941871827737,21.200000000345423));
#73=VERTEX_POINT('',#72);
#74=CARTESIAN_POINT('',(0.365889844385284,6.990430932918765,20.932050807821739));
#75=DIRECTION('',(-0.026134988855946,-0.499316494659808,0.866025404083588));
#76=VECTOR('',#75,0.309401076758504);
#77=LINE('',#74,#76);
#78=EDGE_CURVE('',#71,#73,#77,.T.);
#79=ORIENTED_EDGE('',*,*,#78,.F.);
#80=CARTESIAN_POINT('',(-0.636495961546957,6.97100228739989,20.932050807615699));
#81=VERTEX_POINT('',#80);
#82=CARTESIAN_POINT('',(-8.451928E-015,2.330754E-015,20.932050807568871));
#83=DIRECTION('',(6.570459E-018,3.315462E-017,1.0));
#84=DIRECTION('',(-0.194395717022819,-0.980923190266794,3.379940E-017));
#85=AXIS2_PLACEMENT_3D('',#82,#83,#84);
#86=CIRCLE('',#85,7.000000000000001);
#87=EDGE_CURVE('',#71,#81,#86,.T.);
#88=ORIENTED_EDGE('',*,*,#87,.T.);
#89=CARTESIAN_POINT('',(-0.58375290374562,7.978673608274033,19.199999999936029));
#90=VERTEX_POINT('',#89);
#91=CARTESIAN_POINT('',(-0.636495961549242,6.971002287399683,20.932050807568871));
#92=CARTESIAN_POINT('',(-0.611882534572276,7.441248903820463,20.124810245212519));
#93=CARTESIAN_POINT('',(-0.583752903742879,7.978673608274232,19.199999999999999));
#101=(BOUNDED_CURVE()B_SPLINE_CURVE(2,(#91,#92,#93),.UNSPECIFIED.,.F.,.U.)B_SPLINE_CURVE_WITH_KNOTS((3,3),(0.033208082487486,0.231476504409715),.UNSPECIFIED.)CURVE()GEOMETRIC_REPRESENTATION_ITEM()RATIONAL_B_SPLINE_CURVE((1.00076078520109,1.00265152164419,1.0))REPRESENTATION_ITEM(''));
#102=EDGE_CURVE('',#81,#90,#101,.T.);
#103=ORIENTED_EDGE('',*,*,#102,.T.);
#104=CARTESIAN_POINT('',(-7.874133652741634,1.413513076968799,19.199999999936029));
#105=VERTEX_POINT('',#104);
#106=CARTESIAN_POINT('',(-7.682743E-015,2.118639E-015,19.199999999999999));
#107=DIRECTION('',(4.492684E-016,-2.351539E-017,-1.0));
#108=DIRECTION('',(-0.998632990354483,0.052269977766057,-4.498834E-016));
#109=AXIS2_PLACEMENT_3D('',#106,#107,#108);
#110=CIRCLE('',#109,8.0);
#111=EDGE_CURVE('',#105,#90,#110,.T.);
#112=ORIENTED_EDGE('',*,*,#111,.F.);
#113=CARTESIAN_POINT('',(-6.866462331868015,1.360770019157483,20.932050807615695));
#114=VERTEX_POINT('',#113);
#115=CARTESIAN_POINT('',(-7.874133652742118,1.413513076966093,19.199999999999996));
#116=CARTESIAN_POINT('',(-7.336708948219617,1.385383446133103,20.124810245330625));
#117=CARTESIAN_POINT('',(-6.86646233186757,1.360770019159733,20.932050807568871));
#125=(BOUNDED_CURVE()B_SPLINE_CURVE(2,(#115,#116,#117),.UNSPECIFIED.,.F.,.U.)B_SPLINE_CURVE_WITH_KNOTS((3,3),(0.0,0.200454074572762),.UNSPECIFIED.)CURVE()GEOMETRIC_REPRESENTATION_ITEM()RATIONAL_B_SPLINE_CURVE((1.0,1.00227033792549,1.0))REPRESENTATION_ITEM(''));
#126=EDGE_CURVE('',#105,#114,#125,.T.);
#127=ORIENTED_EDGE('',*,*,#126,.T.);
#128=CARTESIAN_POINT('',(-6.971002287399896,-0.636495961546945,20.932050807615695));
#129=VERTEX_POINT('',#128);
#130=CARTESIAN_POINT('',(-8.451928E-015,2.330754E-015,20.932050807568871));
#131=DIRECTION('',(-4.506597E-016,8.931006E-017,1.0));
#132=DIRECTION('',(0.980923190266794,-0.194395717022819,4.594240E-016));
#133=AXIS2_PLACEMENT_3D('',#130,#131,#132);
#134=CIRCLE('',#133,7.000000000000001);
#135=EDGE_CURVE('',#114,#129,#134,.T.);
#136=ORIENTED_EDGE('',*,*,#135,.T.);
#137=CARTESIAN_POINT('',(-7.978673608274038,-0.583752903745608,19.199999999936026));
#138=VERTEX_POINT('',#137);
#139=CARTESIAN_POINT('',(-6.971002287399689,-0.636495961549229,20.932050807568871));
#140=CARTESIAN_POINT('',(-7.441248903801277,-0.611882534573269,20.124810245245484));
#141=CARTESIAN_POINT('',(-7.978673608274238,-0.583752903742867,19.199999999999996));
#149=(BOUNDED_CURVE()B_SPLINE_CURVE(2,(#139,#140,#141),.UNSPECIFIED.,.F.,.U.)B_SPLINE_CURVE_WITH_KNOTS((3,3),(0.0,0.200454074572762),.UNSPECIFIED.)CURVE()GEOMETRIC_REPRESENTATION_ITEM()RATIONAL_B_SPLINE_CURVE((1.0,1.00227033791723,1.0))REPRESENTATION_ITEM(''));
#150=EDGE_CURVE('',#129,#138,#149,.T.);
#151=ORIENTED_EDGE('',*,*,#150,.T.);
#152=CARTESIAN_POINT('',(-1.413513076968804,-7.874133652741623,19.199999999936033));
#153=VERTEX_POINT('',#152);
#154=CARTESIAN_POINT('',(-7.682743E-015,2.118639E-015,19.199999999999999));
#155=DIRECTION('',(4.492684E-016,-2.351539E-017,-1.0));
#156=DIRECTION('',(-0.998632990354483,0.052269977766057,-4.498834E-016));
#157=AXIS2_PLACEMENT_3D('',#154,#155,#156);
#158=CIRCLE('',#157,8.0);
#159=EDGE_CURVE('',#153,#138,#158,.T.);
#160=ORIENTED_EDGE('',*,*,#159,.F.);
#161=CARTESIAN_POINT('',(-1.360770019157489,-6.866462331868004,20.932050807615699));
#162=VERTEX_POINT('',#161);
#163=CARTESIAN_POINT('',(-1.413513076966099,-7.874133652742107,19.199999999999999));
#164=CARTESIAN_POINT('',(-1.385383446133109,-7.336708948219607,20.124810245330629));
#165=CARTESIAN_POINT('',(-1.360770019159739,-6.866462331867559,20.932050807568874));
#173=(BOUNDED_CURVE()B_SPLINE_CURVE(2,(#163,#164,#165),.UNSPECIFIED.,.F.,.U.)B_SPLINE_CURVE_WITH_KNOTS((3,3),(0.0,0.200454074572762),.UNSPECIFIED.)CURVE()GEOMETRIC_REPRESENTATION_ITEM()RATIONAL_B_SPLINE_CURVE((1.0,1.00227033792611,1.0))REPRESENTATION_ITEM(''));
#174=EDGE_CURVE('',#153,#162,#173,.T.);
#175=ORIENTED_EDGE('',*,*,#174,.T.);
#176=CARTESIAN_POINT('',(-0.365889844362408,-6.990430932481376,20.932050807568871));
#177=VERTEX_POINT('',#176);
#178=CARTESIAN_POINT('',(-8.451928E-015,2.330754E-015,20.932050807568871));
#179=DIRECTION('',(6.570459E-018,3.315462E-017,1.0));
#180=DIRECTION('',(0.194395717022819,0.980923190266794,-3.379940E-017));
#181=AXIS2_PLACEMENT_3D('',#178,#179,#180);
#182=CIRCLE('',#181,7.000000000000001);
#183=EDGE_CURVE('',#162,#177,#182,.T.);
#184=ORIENTED_EDGE('',*,*,#183,.T.);
#185=CARTESIAN_POINT('',(-0.357803650671931,-6.83594187144048,21.200000000095955));
#186=VERTEX_POINT('',#185);
#187=CARTESIAN_POINT('',(-0.365889844385302,-6.990430932918761,20.932050807821739));
#188=DIRECTION('',(0.026134988855945,0.499316494659807,0.866025404083588));
#189=VECTOR('',#188,0.309401076736355);
#190=LINE('',#187,#189);
#191=EDGE_CURVE('',#177,#186,#190,.T.);
#192=ORIENTED_EDGE('',*,*,#191,.T.);
#193=CARTESIAN_POINT('',(-8.570922E-015,2.363568E-015,21.199999999999999));
#194=DIRECTION('',(5.179157E-018,9.894929E-017,1.0));
#195=DIRECTION('',(0.052269977766057,0.998632990354483,-9.908474E-017));
#196=AXIS2_PLACEMENT_3D('',#193,#194,#195);
#197=CIRCLE('',#196,6.84529946162075);
#198=EDGE_CURVE('',#73,#186,#197,.T.);
#199=ORIENTED_EDGE('',*,*,#198,.F.);
#200=EDGE_LOOP('',(#79,#88,#103,#112,#127,#136,#151,#160,#175,#184,#192,#199));
#201=FACE_OUTER_BOUND('',#200,.T.);
#202=ADVANCED_FACE('',(#201),#69,.T.);
#203=CARTESIAN_POINT('',(-6.938894E-015,1.913511E-015,17.524999999999999));
#204=DIRECTION('',(-4.440892E-016,1.224647E-016,1.0));
#205=DIRECTION('',(-0.998632990354483,0.052269977766057,-4.498834E-016));
#206=AXIS2_PLACEMENT_3D('',#203,#204,#205);
#207=CYLINDRICAL_SURFACE('',#206,6.0);
#208=CARTESIAN_POINT('',(-5.991797942126902,0.313619866596344,17.699999999999996));
#209=VERTEX_POINT('',#208);
#210=CARTESIAN_POINT('',(-5.991797942126904,0.313619866596344,21.199999999999996));
#211=VERTEX_POINT('',#210);
#212=CARTESIAN_POINT('',(-5.991797942126902,0.313619866596344,17.699999999999996));
#213=DIRECTION('',(0.0,0.0,1.0));
#214=VECTOR('',#213,3.5);
#215=LINE('',#212,#214);
#216=EDGE_CURVE('',#209,#211,#215,.T.);
#217=ORIENTED_EDGE('',*,*,#216,.F.);
#218=CARTESIAN_POINT('',(5.991797942126893,-0.31361986659634,17.700000000000003));
#219=VERTEX_POINT('',#218);
#220=CARTESIAN_POINT('',(-7.016610E-015,1.934942E-015,17.699999999999999));
#221=DIRECTION('',(-4.492684E-016,2.351539E-017,1.0));
#222=DIRECTION('',(-0.998632990354483,0.052269977766057,-4.498834E-016));
#223=AXIS2_PLACEMENT_3D('',#220,#221,#222);
#224=CIRCLE('',#223,6.0);
#225=EDGE_CURVE('',#219,#209,#224,.T.);
#226=ORIENTED_EDGE('',*,*,#225,.F.);
#227=CARTESIAN_POINT('',(5.991797942126891,-0.313619866596339,21.200000000000003));
#228=VERTEX_POINT('',#227);
#229=CARTESIAN_POINT('',(5.991797942126888,-0.313619866596339,17.700000000000003));
#230=DIRECTION('',(0.0,0.0,1.0));
#231=VECTOR('',#230,3.5);
#232=LINE('',#229,#231);
#233=EDGE_CURVE('',#219,#228,#232,.T.);
#234=ORIENTED_EDGE('',*,*,#233,.T.);
#235=CARTESIAN_POINT('',(-8.570922E-015,2.363568E-015,21.199999999999999));
#236=DIRECTION('',(4.492684E-016,-2.351539E-017,-1.0));
#237=DIRECTION('',(-0.998632990354483,0.052269977766057,-4.498834E-016));
#238=AXIS2_PLACEMENT_3D('',#235,#236,#237);
#239=CIRCLE('',#238,6.0);
#240=EDGE_CURVE('',#211,#228,#239,.T.);
#241=ORIENTED_EDGE('',*,*,#240,.F.);
#242=EDGE_LOOP('',(#217,#226,#234,#241));
#243=FACE_OUTER_BOUND('',#242,.T.);
#244=ADVANCED_FACE('',(#243),#207,.F.);
#245=CARTESIAN_POINT('',(-6.938894E-015,1.913511E-015,17.524999999999999));
#246=DIRECTION('',(-4.440892E-016,1.224647E-016,1.0));
#247=DIRECTION('',(-0.998632990354483,0.052269977766057,-4.498834E-016));
#248=AXIS2_PLACEMENT_3D('',#245,#246,#247);
#249=CYLINDRICAL_SURFACE('',#248,6.0);
#250=ORIENTED_EDGE('',*,*,#216,.T.);
#251=CARTESIAN_POINT('',(-8.570922E-015,2.363568E-015,21.199999999999999));
#252=DIRECTION('',(4.492684E-016,-2.351539E-017,-1.0));
#253=DIRECTION('',(-0.998632990354483,0.052269977766057,-4.498834E-016));
#254=AXIS2_PLACEMENT_3D('',#251,#252,#253);
#255=CIRCLE('',#254,6.0);
#256=EDGE_CURVE('',#228,#211,#255,.T.);
#257=ORIENTED_EDGE('',*,*,#256,.F.);
#258=ORIENTED_EDGE('',*,*,#233,.F.);
#259=CARTESIAN_POINT('',(-7.016610E-015,1.934942E-015,17.699999999999999));
#260=DIRECTION('',(-4.492684E-016,2.351539E-017,1.0));
#261=DIRECTION('',(-0.998632990354483,0.052269977766057,-4.498834E-016));
#262=AXIS2_PLACEMENT_3D('',#259,#260,#261);
#263=CIRCLE('',#262,6.0);
#264=EDGE_CURVE('',#209,#219,#263,.T.);
#265=ORIENTED_EDGE('',*,*,#264,.F.);
#266=EDGE_LOOP('',(#250,#257,#258,#265));
#267=FACE_OUTER_BOUND('',#266,.T.);
#268=ADVANCED_FACE('',(#267),#249,.F.);
#269=CARTESIAN_POINT('',(-1.339213E-014,3.693095E-015,32.056406478314834));
#270=DIRECTION('',(4.440892E-016,-1.224647E-016,-1.0));
#271=DIRECTION('',(0.052269977766057,0.998632990354483,-9.908474E-017));
#272=AXIS2_PLACEMENT_3D('',#269,#270,#271);
#273=CONICAL_SURFACE('',#272,0.577350268391895,29.999999965720054);
#274=ORIENTED_EDGE('',*,*,#78,.T.);
#275=CARTESIAN_POINT('',(-8.570922E-015,2.363568E-015,21.199999999999999));
#276=DIRECTION('',(5.179157E-018,9.894929E-017,1.0));
#277=DIRECTION('',(0.052269977766057,0.998632990354483,-9.908474E-017));
#278=AXIS2_PLACEMENT_3D('',#275,#276,#277);
#279=CIRCLE('',#278,6.84529946162075);
#280=EDGE_CURVE('',#186,#73,#279,.T.);
#281=ORIENTED_EDGE('',*,*,#280,.F.);
#282=ORIENTED_EDGE('',*,*,#191,.F.);
#283=CARTESIAN_POINT('',(0.636495961546939,-6.971002287399886,20.932050807615699));
#284=VERTEX_POINT('',#283);
#285=CARTESIAN_POINT('',(-8.451928E-015,2.330754E-015,20.932050807568871));
#286=DIRECTION('',(6.570459E-018,3.315462E-017,1.0));
#287=DIRECTION('',(0.194395717022819,0.980923190266794,-3.379940E-017));
#288=AXIS2_PLACEMENT_3D('',#285,#286,#287);
#289=CIRCLE('',#288,7.000000000000001);
#290=EDGE_CURVE('',#177,#284,#289,.T.);
#291=ORIENTED_EDGE('',*,*,#290,.T.);
#292=CARTESIAN_POINT('',(0.583752903745603,-7.978673608274027,19.199999999936033));
#293=VERTEX_POINT('',#292);
#294=CARTESIAN_POINT('',(0.636495961549224,-6.971002287399678,20.932050807568874));
#295=CARTESIAN_POINT('',(0.611882534573264,-7.441248903801267,20.124810245245492));
#296=CARTESIAN_POINT('',(0.583752903742862,-7.978673608274227,19.199999999999999));
#304=(BOUNDED_CURVE()B_SPLINE_CURVE(2,(#294,#295,#296),.UNSPECIFIED.,.F.,.U.)B_SPLINE_CURVE_WITH_KNOTS((3,3),(0.0,0.200454074572762),.UNSPECIFIED.)CURVE()GEOMETRIC_REPRESENTATION_ITEM()RATIONAL_B_SPLINE_CURVE((1.0,1.00227033791636,1.0))REPRESENTATION_ITEM(''));
#305=EDGE_CURVE('',#284,#293,#304,.T.);
#306=ORIENTED_EDGE('',*,*,#305,.T.);
#307=CARTESIAN_POINT('',(7.874133652741618,-1.413513076968794,19.199999999936036));
#308=VERTEX_POINT('',#307);
#309=CARTESIAN_POINT('',(-7.682743E-015,2.118639E-015,19.199999999999999));
#310=DIRECTION('',(4.492684E-016,-2.351539E-017,-1.0));
#311=DIRECTION('',(-0.998632990354483,0.052269977766057,-4.498834E-016));
#312=AXIS2_PLACEMENT_3D('',#309,#310,#311);
#313=CIRCLE('',#312,8.0);
#314=EDGE_CURVE('',#308,#293,#313,.T.);
#315=ORIENTED_EDGE('',*,*,#314,.F.);
#316=CARTESIAN_POINT('',(6.866462331867996,-1.360770019157478,20.932050807615703));
#317=VERTEX_POINT('',#316);
#318=CARTESIAN_POINT('',(7.874133652742102,-1.413513076966089,19.200000000000003));
#319=CARTESIAN_POINT('',(7.336708948219601,-1.385383446133099,20.124810245330632));
#320=CARTESIAN_POINT('',(6.866462331867552,-1.360770019159728,20.932050807568878));
#328=(BOUNDED_CURVE()B_SPLINE_CURVE(2,(#318,#319,#320),.UNSPECIFIED.,.F.,.U.)B_SPLINE_CURVE_WITH_KNOTS((3,3),(0.0,0.200454074572762),.UNSPECIFIED.)CURVE()GEOMETRIC_REPRESENTATION_ITEM()RATIONAL_B_SPLINE_CURVE((1.0,1.00227033792549,1.0))REPRESENTATION_ITEM(''));
#329=EDGE_CURVE('',#308,#317,#328,.T.);
#330=ORIENTED_EDGE('',*,*,#329,.T.);
#331=CARTESIAN_POINT('',(6.971002287399879,0.636495961546949,20.932050807615703));
#332=VERTEX_POINT('',#331);
#333=CARTESIAN_POINT('',(-8.451928E-015,2.330754E-015,20.932050807568871));
#334=DIRECTION('',(-4.506597E-016,8.931006E-017,1.0));
#335=DIRECTION('',(-0.980923190266794,0.194395717022819,-4.594240E-016));
#336=AXIS2_PLACEMENT_3D('',#333,#334,#335);
#337=CIRCLE('',#336,7.000000000000001);
#338=EDGE_CURVE('',#317,#332,#337,.T.);
#339=ORIENTED_EDGE('',*,*,#338,.T.);
#340=CARTESIAN_POINT('',(7.978673608274022,0.583752903745612,19.199999999936033));
#341=VERTEX_POINT('',#340);
#342=CARTESIAN_POINT('',(6.971002287399672,0.636495961549233,20.932050807568878));
#343=CARTESIAN_POINT('',(7.441248903801261,0.611882534573273,20.124810245245492));
#344=CARTESIAN_POINT('',(7.978673608274222,0.583752903742871,19.200000000000003));
#352=(BOUNDED_CURVE()B_SPLINE_CURVE(2,(#342,#343,#344),.UNSPECIFIED.,.F.,.U.)B_SPLINE_CURVE_WITH_KNOTS((3,3),(0.0,0.200454074572762),.UNSPECIFIED.)CURVE()GEOMETRIC_REPRESENTATION_ITEM()RATIONAL_B_SPLINE_CURVE((1.0,1.00227033791723,1.0))REPRESENTATION_ITEM(''));
#353=EDGE_CURVE('',#332,#341,#352,.T.);
#354=ORIENTED_EDGE('',*,*,#353,.T.);
#355=CARTESIAN_POINT('',(1.413513076968789,7.874133652741628,19.199999999936033));
#356=VERTEX_POINT('',#355);
#357=CARTESIAN_POINT('',(-7.682743E-015,2.118639E-015,19.199999999999999));
#358=DIRECTION('',(4.492684E-016,-2.351539E-017,-1.0));
#359=DIRECTION('',(-0.998632990354483,0.052269977766057,-4.498834E-016));
#360=AXIS2_PLACEMENT_3D('',#357,#358,#359);
#361=CIRCLE('',#360,8.0);
#362=EDGE_CURVE('',#356,#341,#361,.T.);
#363=ORIENTED_EDGE('',*,*,#362,.F.);
#364=CARTESIAN_POINT('',(1.360770019157472,6.866462331868007,20.932050807615699));
#365=VERTEX_POINT('',#364);
#366=CARTESIAN_POINT('',(1.413513076966083,7.874133652742112,19.199999999999999));
#367=CARTESIAN_POINT('',(1.385383446136833,7.336708948291173,20.124810245207648));
#368=CARTESIAN_POINT('',(1.360770019159722,6.866462331867564,20.932050807568874));
#376=(BOUNDED_CURVE()B_SPLINE_CURVE(2,(#366,#367,#368),.UNSPECIFIED.,.F.,.U.)B_SPLINE_CURVE_WITH_KNOTS((3,3),(0.0,0.198268421922566),.UNSPECIFIED.)CURVE()GEOMETRIC_REPRESENTATION_ITEM()RATIONAL_B_SPLINE_CURVE((1.0,1.00265152164808,1.0007607852022))REPRESENTATION_ITEM(''));
#377=EDGE_CURVE('',#356,#365,#376,.T.);
#378=ORIENTED_EDGE('',*,*,#377,.T.);
#379=CARTESIAN_POINT('',(-8.451928E-015,2.330754E-015,20.932050807568871));
#380=DIRECTION('',(6.570459E-018,3.315462E-017,1.0));
#381=DIRECTION('',(-0.194395717022819,-0.980923190266794,3.379940E-017));
#382=AXIS2_PLACEMENT_3D('',#379,#380,#381);
#383=CIRCLE('',#382,7.000000000000001);
#384=EDGE_CURVE('',#365,#71,#383,.T.);
#385=ORIENTED_EDGE('',*,*,#384,.T.);
#386=EDGE_LOOP('',(#274,#281,#282,#291,#306,#315,#330,#339,#354,#363,#378,#385));
#387=FACE_OUTER_BOUND('',#386,.T.);
#388=ADVANCED_FACE('',(#387),#273,.T.);
#389=CARTESIAN_POINT('',(-1.416150229856417,-7.924517218785836,17.538397459621557));
#390=DIRECTION('',(-0.998632990354483,0.052269977766057,-4.498834E-016));
#391=DIRECTION('',(0.0,0.0,-1.0));
#392=AXIS2_PLACEMENT_3D('',#389,#390,#391);
#393=PLANE('',#392);
#394=CARTESIAN_POINT('',(-1.360770019159738,-6.86646233186756,17.699999999999999));
#395=VERTEX_POINT('',#394);
#396=CARTESIAN_POINT('',(-1.413513076966098,-7.874133652742108,17.699999999999999));
#397=VERTEX_POINT('',#396);
#398=CARTESIAN_POINT('',(-1.360770019159738,-6.86646233186756,17.699999999999999));
#399=DIRECTION('',(-0.052269977766057,-0.998632990354482,0.0));
#400=VECTOR('',#399,1.009050702918254);
#401=LINE('',#398,#400);
#402=EDGE_CURVE('',#395,#397,#401,.T.);
#403=ORIENTED_EDGE('',*,*,#402,.F.);
#404=CARTESIAN_POINT('',(-1.360770019159739,-6.866462331867559,20.932050807615699));
#405=DIRECTION('',(0.0,0.0,-1.0));
#406=VECTOR('',#405,3.2320508076157);
#407=LINE('',#404,#406);
#408=EDGE_CURVE('',#162,#395,#407,.T.);
#409=ORIENTED_EDGE('',*,*,#408,.F.);
#410=ORIENTED_EDGE('',*,*,#174,.F.);
#411=CARTESIAN_POINT('',(-1.413513076966098,-7.874133652742108,17.699999999999999));
#412=DIRECTION('',(0.0,0.0,1.0));
#413=VECTOR('',#412,1.499999999936033);
#414=LINE('',#411,#413);
#415=EDGE_CURVE('',#397,#153,#414,.T.);
#416=ORIENTED_EDGE('',*,*,#415,.F.);
#417=EDGE_LOOP('',(#403,#409,#410,#416));
#418=FACE_OUTER_BOUND('',#417,.T.);
#419=ADVANCED_FACE('',(#418),#393,.F.);
#420=CARTESIAN_POINT('',(-8.570922E-015,2.363568E-015,21.199999999999999));
#421=DIRECTION('',(4.440892E-016,-1.224647E-016,-1.0));
#422=DIRECTION('',(0.194395717022818,0.980923190266794,-3.379940E-017));
#423=AXIS2_PLACEMENT_3D('',#420,#421,#422);
#424=CYLINDRICAL_SURFACE('',#423,7.000000000000001);
#425=CARTESIAN_POINT('',(0.636495961549225,-6.971002287399679,17.700000000000003));
#426=VERTEX_POINT('',#425);
#427=CARTESIAN_POINT('',(-7.016610E-015,1.934942E-015,17.699999999999999));
#428=DIRECTION('',(-6.570459E-018,-3.315462E-017,-1.0));
#429=DIRECTION('',(0.194395717022819,0.980923190266794,-3.379940E-017));
#430=AXIS2_PLACEMENT_3D('',#427,#428,#429);
#431=CIRCLE('',#430,7.000000000000001);
#432=EDGE_CURVE('',#426,#395,#431,.T.);
#433=ORIENTED_EDGE('',*,*,#432,.F.);
#434=CARTESIAN_POINT('',(0.636495961549224,-6.971002287399678,20.932050807615699));
#435=DIRECTION('',(0.0,0.0,-1.0));
#436=VECTOR('',#435,3.2320508076157);
#437=LINE('',#434,#436);
#438=EDGE_CURVE('',#284,#426,#437,.T.);
#439=ORIENTED_EDGE('',*,*,#438,.F.);
#440=ORIENTED_EDGE('',*,*,#290,.F.);
#441=ORIENTED_EDGE('',*,*,#183,.F.);
#442=ORIENTED_EDGE('',*,*,#408,.T.);
#443=EDGE_LOOP('',(#433,#439,#440,#441,#442));
#444=FACE_OUTER_BOUND('',#443,.T.);
#445=ADVANCED_FACE('',(#444),#424,.T.);
#446=CARTESIAN_POINT('',(0.581115750852545,-8.029057174317954,17.538397459621557));
#447=DIRECTION('',(0.998632990354483,-0.052269977766057,4.498834E-016));
#448=DIRECTION('',(0.0,0.0,1.0));
#449=AXIS2_PLACEMENT_3D('',#446,#447,#448);
#450=PLANE('',#449);
#451=CARTESIAN_POINT('',(0.583752903742863,-7.978673608274228,17.700000000000003));
#452=VERTEX_POINT('',#451);
#453=CARTESIAN_POINT('',(0.583752903742863,-7.978673608274228,17.700000000000003));
#454=DIRECTION('',(0.052269977766057,0.998632990354482,0.0));
#455=VECTOR('',#454,1.009050702918255);
#456=LINE('',#453,#455);
#457=EDGE_CURVE('',#452,#426,#456,.T.);
#458=ORIENTED_EDGE('',*,*,#457,.F.);
#459=CARTESIAN_POINT('',(0.583752903742862,-7.978673608274227,19.199999999936033));
#460=DIRECTION('',(0.0,0.0,-1.0));
#461=VECTOR('',#460,1.499999999936033);
#462=LINE('',#459,#461);
#463=EDGE_CURVE('',#293,#452,#462,.T.);
#464=ORIENTED_EDGE('',*,*,#463,.F.);
#465=ORIENTED_EDGE('',*,*,#305,.F.);
#466=ORIENTED_EDGE('',*,*,#438,.T.);
#467=EDGE_LOOP('',(#458,#464,#465,#466));
#468=FACE_OUTER_BOUND('',#467,.T.);
#469=ADVANCED_FACE('',(#468),#450,.F.);
#470=CARTESIAN_POINT('',(-7.924517218785846,1.416150229856413,21.093653347947313));
#471=DIRECTION('',(0.052269977766057,0.998632990354483,-9.908474E-017));
#472=DIRECTION('',(0.0,0.0,1.0));
#473=AXIS2_PLACEMENT_3D('',#470,#471,#472);
#474=PLANE('',#473);
#475=CARTESIAN_POINT('',(-6.866462331867568,1.360770019159733,17.699999999999996));
#476=VERTEX_POINT('',#475);
#477=CARTESIAN_POINT('',(-7.874133652742117,1.413513076966093,17.699999999999996));
#478=VERTEX_POINT('',#477);
#479=CARTESIAN_POINT('',(-6.866462331867568,1.360770019159733,17.699999999999996));
#480=DIRECTION('',(-0.998632990354482,0.052269977766057,0.0));
#481=VECTOR('',#480,1.009050702918254);
#482=LINE('',#479,#481);
#483=EDGE_CURVE('',#476,#478,#482,.T.);
#484=ORIENTED_EDGE('',*,*,#483,.F.);
#485=CARTESIAN_POINT('',(-6.86646233186757,1.360770019159733,20.932050807615695));
#486=DIRECTION('',(0.0,0.0,-1.0));
#487=VECTOR('',#486,3.2320508076157);
#488=LINE('',#485,#487);
#489=EDGE_CURVE('',#114,#476,#488,.T.);
#490=ORIENTED_EDGE('',*,*,#489,.F.);
#491=ORIENTED_EDGE('',*,*,#126,.F.);
#492=CARTESIAN_POINT('',(-7.874133652742117,1.413513076966093,17.699999999999996));
#493=DIRECTION('',(0.0,0.0,1.0));
#494=VECTOR('',#493,1.499999999936033);
#495=LINE('',#492,#494);
#496=EDGE_CURVE('',#478,#105,#495,.T.);
#497=ORIENTED_EDGE('',*,*,#496,.F.);
#498=EDGE_LOOP('',(#484,#490,#491,#497));
#499=FACE_OUTER_BOUND('',#498,.T.);
#500=ADVANCED_FACE('',(#499),#474,.F.);
#501=CARTESIAN_POINT('',(-8.570922E-015,2.363568E-015,21.199999999999999));
#502=DIRECTION('',(4.440892E-016,-1.224647E-016,-1.0));
#503=DIRECTION('',(0.980923190266794,-0.194395717022818,4.594240E-016));
#504=AXIS2_PLACEMENT_3D('',#501,#502,#503);
#505=CYLINDRICAL_SURFACE('',#504,7.000000000000001);
#506=CARTESIAN_POINT('',(-6.971002287399688,-0.636495961549229,17.699999999999996));
#507=VERTEX_POINT('',#506);
#508=CARTESIAN_POINT('',(-7.016610E-015,1.934942E-015,17.699999999999999));
#509=DIRECTION('',(4.506597E-016,-8.931006E-017,-1.0));
#510=DIRECTION('',(0.980923190266794,-0.194395717022819,4.594240E-016));
#511=AXIS2_PLACEMENT_3D('',#508,#509,#510);
#512=CIRCLE('',#511,7.000000000000001);
#513=EDGE_CURVE('',#507,#476,#512,.T.);
#514=ORIENTED_EDGE('',*,*,#513,.F.);
#515=CARTESIAN_POINT('',(-6.971002287399689,-0.636495961549229,20.932050807615695));
#516=DIRECTION('',(0.0,0.0,-1.0));
#517=VECTOR('',#516,3.2320508076157);
#518=LINE('',#515,#517);
#519=EDGE_CURVE('',#129,#507,#518,.T.);
#520=ORIENTED_EDGE('',*,*,#519,.F.);
#521=ORIENTED_EDGE('',*,*,#135,.F.);
#522=ORIENTED_EDGE('',*,*,#489,.T.);
#523=EDGE_LOOP('',(#514,#520,#521,#522));
#524=FACE_OUTER_BOUND('',#523,.T.);
#525=ADVANCED_FACE('',(#524),#505,.T.);
#526=CARTESIAN_POINT('',(-8.029057174317964,-0.581115750852549,21.093653347947313));
#527=DIRECTION('',(-0.052269977766057,-0.998632990354483,9.908474E-017));
#528=DIRECTION('',(0.0,0.0,-1.0));
#529=AXIS2_PLACEMENT_3D('',#526,#527,#528);
#530=PLANE('',#529);
#531=CARTESIAN_POINT('',(-7.978673608274237,-0.583752903742867,17.699999999999996));
#532=VERTEX_POINT('',#531);
#533=CARTESIAN_POINT('',(-7.978673608274237,-0.583752903742867,17.699999999999996));
#534=DIRECTION('',(0.998632990354482,-0.052269977766057,0.0));
#535=VECTOR('',#534,1.009050702918255);
#536=LINE('',#533,#535);
#537=EDGE_CURVE('',#532,#507,#536,.T.);
#538=ORIENTED_EDGE('',*,*,#537,.F.);
#539=CARTESIAN_POINT('',(-7.978673608274238,-0.583752903742867,19.199999999936026));
#540=DIRECTION('',(0.0,0.0,-1.0));
#541=VECTOR('',#540,1.49999999993603);
#542=LINE('',#539,#541);
#543=EDGE_CURVE('',#138,#532,#542,.T.);
#544=ORIENTED_EDGE('',*,*,#543,.F.);
#545=ORIENTED_EDGE('',*,*,#150,.F.);
#546=ORIENTED_EDGE('',*,*,#519,.T.);
#547=EDGE_LOOP('',(#538,#544,#545,#546));
#548=FACE_OUTER_BOUND('',#547,.T.);
#549=ADVANCED_FACE('',(#548),#530,.F.);
#550=CARTESIAN_POINT('',(6.816078765823824,-1.35813286626941,21.09365334794732));
#551=DIRECTION('',(-0.052269977766057,-0.998632990354483,9.908474E-017));
#552=DIRECTION('',(0.0,0.0,-1.0));
#553=AXIS2_PLACEMENT_3D('',#550,#551,#552);
#554=PLANE('',#553);
#555=CARTESIAN_POINT('',(6.866462331867554,-1.360770019159729,17.700000000000003));
#556=VERTEX_POINT('',#555);
#557=CARTESIAN_POINT('',(7.874133652742103,-1.413513076966089,17.700000000000003));
#558=VERTEX_POINT('',#557);
#559=CARTESIAN_POINT('',(6.866462331867554,-1.360770019159729,17.700000000000003));
#560=DIRECTION('',(0.998632990354482,-0.052269977766057,0.0));
#561=VECTOR('',#560,1.009050702918254);
#562=LINE('',#559,#561);
#563=EDGE_CURVE('',#556,#558,#562,.T.);
#564=ORIENTED_EDGE('',*,*,#563,.F.);
#565=CARTESIAN_POINT('',(6.866462331867552,-1.360770019159728,20.932050807615703));
#566=DIRECTION('',(0.0,0.0,-1.0));
#567=VECTOR('',#566,3.2320508076157);
#568=LINE('',#565,#567);
#569=EDGE_CURVE('',#317,#556,#568,.T.);
#570=ORIENTED_EDGE('',*,*,#569,.F.);
#571=ORIENTED_EDGE('',*,*,#329,.F.);
#572=CARTESIAN_POINT('',(7.874133652742103,-1.413513076966089,17.700000000000003));
#573=DIRECTION('',(0.0,0.0,1.0));
#574=VECTOR('',#573,1.499999999936033);
#575=LINE('',#572,#574);
#576=EDGE_CURVE('',#558,#308,#575,.T.);
#577=ORIENTED_EDGE('',*,*,#576,.F.);
#578=EDGE_LOOP('',(#564,#570,#571,#577));
#579=FACE_OUTER_BOUND('',#578,.T.);
#580=ADVANCED_FACE('',(#579),#554,.F.);
#581=CARTESIAN_POINT('',(-8.570922E-015,2.363568E-015,21.199999999999999));
#582=DIRECTION('',(4.440892E-016,-1.224647E-016,-1.0));
#583=DIRECTION('',(-0.980923190266794,0.194395717022818,-4.594240E-016));
#584=AXIS2_PLACEMENT_3D('',#581,#582,#583);
#585=CYLINDRICAL_SURFACE('',#584,7.000000000000001);
#586=CARTESIAN_POINT('',(6.971002287399673,0.636495961549233,17.700000000000003));
#587=VERTEX_POINT('',#586);
#588=CARTESIAN_POINT('',(-7.016610E-015,1.934942E-015,17.699999999999999));
#589=DIRECTION('',(4.506597E-016,-8.931006E-017,-1.0));
#590=DIRECTION('',(-0.980923190266794,0.194395717022819,-4.594240E-016));
#591=AXIS2_PLACEMENT_3D('',#588,#589,#590);
#592=CIRCLE('',#591,7.000000000000001);
#593=EDGE_CURVE('',#587,#556,#592,.T.);
#594=ORIENTED_EDGE('',*,*,#593,.F.);
#595=CARTESIAN_POINT('',(6.971002287399672,0.636495961549233,20.932050807615703));
#596=DIRECTION('',(0.0,0.0,-1.0));
#597=VECTOR('',#596,3.2320508076157);
#598=LINE('',#595,#597);
#599=EDGE_CURVE('',#332,#587,#598,.T.);
#600=ORIENTED_EDGE('',*,*,#599,.F.);
#601=ORIENTED_EDGE('',*,*,#338,.F.);
#602=ORIENTED_EDGE('',*,*,#569,.T.);
#603=EDGE_LOOP('',(#594,#600,#601,#602));
#604=FACE_OUTER_BOUND('',#603,.T.);
#605=ADVANCED_FACE('',(#604),#585,.T.);
#606=CARTESIAN_POINT('',(6.920618721355943,0.639133114439551,21.09365334794732));
#607=DIRECTION('',(0.052269977766057,0.998632990354483,-9.908474E-017));
#608=DIRECTION('',(0.0,0.0,1.0));
#609=AXIS2_PLACEMENT_3D('',#606,#607,#608);
#610=PLANE('',#609);
#611=CARTESIAN_POINT('',(7.978673608274223,0.583752903742871,17.700000000000003));
#612=VERTEX_POINT('',#611);
#613=CARTESIAN_POINT('',(7.978673608274223,0.583752903742871,17.700000000000003));
#614=DIRECTION('',(-0.998632990354482,0.052269977766057,0.0));
#615=VECTOR('',#614,1.009050702918255);
#616=LINE('',#613,#615);
#617=EDGE_CURVE('',#612,#587,#616,.T.);
#618=ORIENTED_EDGE('',*,*,#617,.F.);
#619=CARTESIAN_POINT('',(7.978673608274222,0.583752903742871,19.199999999936033));
#620=DIRECTION('',(0.0,0.0,-1.0));
#621=VECTOR('',#620,1.49999999993603);
#622=LINE('',#619,#621);
#623=EDGE_CURVE('',#341,#612,#622,.T.);
#624=ORIENTED_EDGE('',*,*,#623,.F.);
#625=ORIENTED_EDGE('',*,*,#353,.F.);
#626=ORIENTED_EDGE('',*,*,#599,.T.);
#627=EDGE_LOOP('',(#618,#624,#625,#626));
#628=FACE_OUTER_BOUND('',#627,.T.);
#629=ADVANCED_FACE('',(#628),#610,.F.);
#630=CARTESIAN_POINT('',(-6.983303E-015,1.925757E-015,17.625));
#631=DIRECTION('',(-4.440892E-016,1.224647E-016,1.0));
#632=DIRECTION('',(-0.998632990354483,0.052269977766057,-4.498834E-016));
#633=AXIS2_PLACEMENT_3D('',#630,#631,#632);
#634=CYLINDRICAL_SURFACE('',#633,8.0);
#635=ORIENTED_EDGE('',*,*,#623,.T.);
#636=CARTESIAN_POINT('',(1.413513076966084,7.874133652742112,17.699999999999999));
#637=VERTEX_POINT('',#636);
#638=CARTESIAN_POINT('',(-7.016610E-015,1.934942E-015,17.699999999999999));
#639=DIRECTION('',(4.492684E-016,-2.351539E-017,-1.0));
#640=DIRECTION('',(-0.998632990354483,0.052269977766057,-4.498834E-016));
#641=AXIS2_PLACEMENT_3D('',#638,#639,#640);
#642=CIRCLE('',#641,8.0);
#643=EDGE_CURVE('',#637,#612,#642,.T.);
#644=ORIENTED_EDGE('',*,*,#643,.F.);
#645=CARTESIAN_POINT('',(1.413513076966084,7.874133652742112,17.699999999999999));
#646=DIRECTION('',(0.0,0.0,1.0));
#647=VECTOR('',#646,1.499999999936033);
#648=LINE('',#645,#647);
#649=EDGE_CURVE('',#637,#356,#648,.T.);
#650=ORIENTED_EDGE('',*,*,#649,.T.);
#651=ORIENTED_EDGE('',*,*,#362,.T.);
#652=EDGE_LOOP('',(#635,#644,#650,#651));
#653=FACE_OUTER_BOUND('',#652,.T.);
#654=ADVANCED_FACE('',(#653),#634,.T.);
#655=CARTESIAN_POINT('',(-6.983303E-015,1.925757E-015,17.625));
#656=DIRECTION('',(-4.440892E-016,1.224647E-016,1.0));
#657=DIRECTION('',(-0.998632990354483,0.052269977766057,-4.498834E-016));
#658=AXIS2_PLACEMENT_3D('',#655,#656,#657);
#659=CYLINDRICAL_SURFACE('',#658,8.0);
#660=ORIENTED_EDGE('',*,*,#496,.T.);
#661=ORIENTED_EDGE('',*,*,#111,.T.);
#662=CARTESIAN_POINT('',(-0.583752903742878,7.978673608274232,17.699999999999999));
#663=VERTEX_POINT('',#662);
#664=CARTESIAN_POINT('',(-0.583752903742879,7.978673608274232,19.199999999936033));
#665=DIRECTION('',(0.0,0.0,-1.0));
#666=VECTOR('',#665,1.499999999936033);
#667=LINE('',#664,#666);
#668=EDGE_CURVE('',#90,#663,#667,.T.);
#669=ORIENTED_EDGE('',*,*,#668,.T.);
#670=CARTESIAN_POINT('',(-7.016610E-015,1.934942E-015,17.699999999999999));
#671=DIRECTION('',(4.492684E-016,-2.351539E-017,-1.0));
#672=DIRECTION('',(-0.998632990354483,0.052269977766057,-4.498834E-016));
#673=AXIS2_PLACEMENT_3D('',#670,#671,#672);
#674=CIRCLE('',#673,8.0);
#675=EDGE_CURVE('',#478,#663,#674,.T.);
#676=ORIENTED_EDGE('',*,*,#675,.F.);
#677=EDGE_LOOP('',(#660,#661,#669,#676));
#678=FACE_OUTER_BOUND('',#677,.T.);
#679=ADVANCED_FACE('',(#678),#659,.T.);
#680=CARTESIAN_POINT('',(-6.983303E-015,1.925757E-015,17.625));
#681=DIRECTION('',(-4.440892E-016,1.224647E-016,1.0));
#682=DIRECTION('',(-0.998632990354483,0.052269977766057,-4.498834E-016));
#683=AXIS2_PLACEMENT_3D('',#680,#681,#682);
#684=CYLINDRICAL_SURFACE('',#683,8.0);
#685=ORIENTED_EDGE('',*,*,#463,.T.);
#686=CARTESIAN_POINT('',(-7.016610E-015,1.934942E-015,17.699999999999999));
#687=DIRECTION('',(4.492684E-016,-2.351539E-017,-1.0));
#688=DIRECTION('',(-0.998632990354483,0.052269977766057,-4.498834E-016));
#689=AXIS2_PLACEMENT_3D('',#686,#687,#688);
#690=CIRCLE('',#689,8.0);
#691=EDGE_CURVE('',#558,#452,#690,.T.);
#692=ORIENTED_EDGE('',*,*,#691,.F.);
#693=ORIENTED_EDGE('',*,*,#576,.T.);
#694=ORIENTED_EDGE('',*,*,#314,.T.);
#695=EDGE_LOOP('',(#685,#692,#693,#694));
#696=FACE_OUTER_BOUND('',#695,.T.);
#697=ADVANCED_FACE('',(#696),#684,.T.);
#698=CARTESIAN_POINT('',(1.358132866269405,6.816078765823835,17.538397459621557));
#699=DIRECTION('',(0.998632990354483,-0.052269977766057,4.498834E-016));
#700=DIRECTION('',(0.0,0.0,1.0));
#701=AXIS2_PLACEMENT_3D('',#698,#699,#700);
#702=PLANE('',#701);
#703=CARTESIAN_POINT('',(1.360770019159724,6.866462331867563,17.699999999999999));
#704=VERTEX_POINT('',#703);
#705=CARTESIAN_POINT('',(1.360770019159724,6.866462331867563,17.699999999999999));
#706=DIRECTION('',(0.052269977766057,0.998632990354482,0.0));
#707=VECTOR('',#706,1.009050702918254);
#708=LINE('',#705,#707);
#709=EDGE_CURVE('',#704,#637,#708,.T.);
#710=ORIENTED_EDGE('',*,*,#709,.F.);
#711=CARTESIAN_POINT('',(1.360770019159722,6.866462331867564,20.932050807615699));
#712=DIRECTION('',(0.0,0.0,-1.0));
#713=VECTOR('',#712,3.2320508076157);
#714=LINE('',#711,#713);
#715=EDGE_CURVE('',#365,#704,#714,.T.);
#716=ORIENTED_EDGE('',*,*,#715,.F.);
#717=ORIENTED_EDGE('',*,*,#377,.F.);
#718=ORIENTED_EDGE('',*,*,#649,.F.);
#719=EDGE_LOOP('',(#710,#716,#717,#718));
#720=FACE_OUTER_BOUND('',#719,.T.);
#721=ADVANCED_FACE('',(#720),#702,.F.);
#722=CARTESIAN_POINT('',(-8.570922E-015,2.363568E-015,21.199999999999999));
#723=DIRECTION('',(4.440892E-016,-1.224647E-016,-1.0));
#724=DIRECTION('',(-0.194395717022818,-0.980923190266794,3.379940E-017));
#725=AXIS2_PLACEMENT_3D('',#722,#723,#724);
#726=CYLINDRICAL_SURFACE('',#725,7.000000000000001);
#727=CARTESIAN_POINT('',(-0.63649596154924,6.971002287399682,17.699999999999999));
#728=VERTEX_POINT('',#727);
#729=CARTESIAN_POINT('',(-7.016610E-015,1.934942E-015,17.699999999999999));
#730=DIRECTION('',(-6.570459E-018,-3.315462E-017,-1.0));
#731=DIRECTION('',(-0.194395717022819,-0.980923190266794,3.379940E-017));
#732=AXIS2_PLACEMENT_3D('',#729,#730,#731);
#733=CIRCLE('',#732,7.000000000000001);
#734=EDGE_CURVE('',#728,#704,#733,.T.);
#735=ORIENTED_EDGE('',*,*,#734,.F.);
#736=CARTESIAN_POINT('',(-0.636495961549242,6.971002287399683,20.932050807615695));
#737=DIRECTION('',(0.0,0.0,-1.0));
#738=VECTOR('',#737,3.2320508076157);
#739=LINE('',#736,#738);
#740=EDGE_CURVE('',#81,#728,#739,.T.);
#741=ORIENTED_EDGE('',*,*,#740,.F.);
#742=ORIENTED_EDGE('',*,*,#87,.F.);
#743=ORIENTED_EDGE('',*,*,#384,.F.);
#744=ORIENTED_EDGE('',*,*,#715,.T.);
#745=EDGE_LOOP('',(#735,#741,#742,#743,#744));
#746=FACE_OUTER_BOUND('',#745,.T.);
#747=ADVANCED_FACE('',(#746),#726,.T.);
#748=CARTESIAN_POINT('',(-0.639133114439557,6.920618721355954,17.538397459621557));
#749=DIRECTION('',(-0.998632990354483,0.052269977766057,-4.498834E-016));
#750=DIRECTION('',(0.0,0.0,-1.0));
#751=AXIS2_PLACEMENT_3D('',#748,#749,#750);
#752=PLANE('',#751);
#753=CARTESIAN_POINT('',(-0.583752903742878,7.978673608274232,17.699999999999999));
#754=DIRECTION('',(-0.052269977766057,-0.998632990354482,0.0));
#755=VECTOR('',#754,1.009050702918255);
#756=LINE('',#753,#755);
#757=EDGE_CURVE('',#663,#728,#756,.T.);
#758=ORIENTED_EDGE('',*,*,#757,.F.);
#759=ORIENTED_EDGE('',*,*,#668,.F.);
#760=ORIENTED_EDGE('',*,*,#102,.F.);
#761=ORIENTED_EDGE('',*,*,#740,.T.);
#762=EDGE_LOOP('',(#758,#759,#760,#761));
#763=FACE_OUTER_BOUND('',#762,.T.);
#764=ADVANCED_FACE('',(#763),#752,.F.);
#765=CARTESIAN_POINT('',(-6.983303E-015,1.925757E-015,17.625));
#766=DIRECTION('',(-4.440892E-016,1.224647E-016,1.0));
#767=DIRECTION('',(-0.998632990354483,0.052269977766057,-4.498834E-016));
#768=AXIS2_PLACEMENT_3D('',#765,#766,#767);
#769=CYLINDRICAL_SURFACE('',#768,8.0);
#770=ORIENTED_EDGE('',*,*,#415,.T.);
#771=ORIENTED_EDGE('',*,*,#159,.T.);
#772=ORIENTED_EDGE('',*,*,#543,.T.);
#773=CARTESIAN_POINT('',(-7.016610E-015,1.934942E-015,17.699999999999999));
#774=DIRECTION('',(4.492684E-016,-2.351539E-017,-1.0));
#775=DIRECTION('',(-0.998632990354483,0.052269977766057,-4.498834E-016));
#776=AXIS2_PLACEMENT_3D('',#773,#774,#775);
#777=CIRCLE('',#776,8.0);
#778=EDGE_CURVE('',#397,#532,#777,.T.);
#779=ORIENTED_EDGE('',*,*,#778,.F.);
#780=EDGE_LOOP('',(#770,#771,#772,#779));
#781=FACE_OUTER_BOUND('',#780,.T.);
#782=ADVANCED_FACE('',(#781),#769,.T.);
#783=CARTESIAN_POINT('',(7.913120074080286,7.125952042626275,21.200000000000003));
#784=DIRECTION('',(0.0,0.0,-1.0));
#785=DIRECTION('',(1.0,0.0,0.0));
#786=AXIS2_PLACEMENT_3D('',#783,#784,#785);
#787=PLANE('',#786);
#788=ORIENTED_EDGE('',*,*,#280,.T.);
#789=ORIENTED_EDGE('',*,*,#198,.T.);
#790=EDGE_LOOP('',(#788,#789));
#791=FACE_OUTER_BOUND('',#790,.T.);
#792=ORIENTED_EDGE('',*,*,#256,.T.);
#793=ORIENTED_EDGE('',*,*,#240,.T.);
#794=EDGE_LOOP('',(#792,#793));
#795=FACE_BOUND('',#794,.T.);
#796=ADVANCED_FACE('',(#791,#795),#787,.F.);
#797=CARTESIAN_POINT('',(9.175412088831731,8.262675898286251,17.700000000000003));
#798=DIRECTION('',(0.0,0.0,-1.0));
#799=DIRECTION('',(1.0,0.0,0.0));
#800=AXIS2_PLACEMENT_3D('',#797,#798,#799);
#801=PLANE('',#800);
#802=ORIENTED_EDGE('',*,*,#402,.T.);
#803=ORIENTED_EDGE('',*,*,#778,.T.);
#804=ORIENTED_EDGE('',*,*,#537,.T.);
#805=ORIENTED_EDGE('',*,*,#513,.T.);
#806=ORIENTED_EDGE('',*,*,#483,.T.);
#807=ORIENTED_EDGE('',*,*,#675,.T.);
#808=ORIENTED_EDGE('',*,*,#757,.T.);
#809=ORIENTED_EDGE('',*,*,#734,.T.);
#810=ORIENTED_EDGE('',*,*,#709,.T.);
#811=ORIENTED_EDGE('',*,*,#643,.T.);
#812=ORIENTED_EDGE('',*,*,#617,.T.);
#813=ORIENTED_EDGE('',*,*,#593,.T.);
#814=ORIENTED_EDGE('',*,*,#563,.T.);
#815=ORIENTED_EDGE('',*,*,#691,.T.);
#816=ORIENTED_EDGE('',*,*,#457,.T.);
#817=ORIENTED_EDGE('',*,*,#432,.T.);
#818=EDGE_LOOP('',(#802,#803,#804,#805,#806,#807,#808,#809,#810,#811,#812,#813,#814,#815,#816,#817));
#819=FACE_OUTER_BOUND('',#818,.T.);
#820=ORIENTED_EDGE('',*,*,#225,.T.);
#821=ORIENTED_EDGE('',*,*,#264,.T.);
#822=EDGE_LOOP('',(#820,#821));
#823=FACE_BOUND('',#822,.T.);
#824=ADVANCED_FACE('',(#819,#823),#801,.T.);
#825=CLOSED_SHELL('',(#202,#244,#268,#388,#419,#445,#469,#500,#525,#549,#580,#605,#629,#654,#679,#697,#721,#747,#764,#782,#796,#824));
#826=MANIFOLD_SOLID_BREP('4FAD',#825);
#827=COLOUR_RGB('254',0.866,0.866,0.866);
#828=SURFACE_STYLE_USAGE(.BOTH.,#829);
#829=SURFACE_SIDE_STYLE('NONE',(#830));
#830=SURFACE_STYLE_FILL_AREA(#831);
#831=FILL_AREA_STYLE('NONE',(#832));
#832=FILL_AREA_STYLE_COLOUR('NONE',#827);
#833=PRESENTATION_STYLE_ASSIGNMENT((#828));
#834=STYLED_ITEM('NONE',(#833),#826);
#835=MECHANICAL_DESIGN_GEOMETRIC_PRESENTATION_REPRESENTATION('NONE',(#834),#28);
#836=PRESENTATION_LAYER_ASSIGNMENT('3D','None',(#826));
#837=ADVANCED_BREP_SHAPE_REPRESENTATION('ABSR1',(#826),#28);
#838=SHAPE_REPRESENTATION_RELATIONSHIP('SRRPL1','',#837,#62);
ENDSEC;
END-ISO-10303-21;
