ISO-10303-21;
HEADER;
/****************************************************************
 * Generated by software with PDElib inside                    *
 * PDElib Version v51a, created Fri 09/10/2010                  *
 * ITI Transcendata (http://www.transcendata.com/)              *
 ****************************************************************/
FILE_DESCRIPTION((''),'2;1');
FILE_NAME('ECP.1S.302.CLN_Part1.stp','2013-03-20T12:56:32',(''),(''),'Mechanical Desktop 2011','Mechanical Desktop 2011',', , ');
FILE_SCHEMA(('AUTOMOTIVE_DESIGN { 1 2 10303 214 1 1 1 1 }'));
ENDSEC;
DATA;
#10=(NAMED_UNIT(*)PLANE_ANGLE_UNIT()SI_UNIT($,.RADIAN.));
#11=DIMENSIONAL_EXPONENTS(0.0,0.0,0.0,0.0,0.0,0.0,0.0);
#12=PLANE_ANGLE_MEASURE_WITH_UNIT(PLANE_ANGLE_MEASURE(0.0174532925),#10);
#16=(CONVERSION_BASED_UNIT('DEGREE',#12)NAMED_UNIT(#11)PLANE_ANGLE_UNIT());
#20=(NAMED_UNIT(*)SI_UNIT($,.STERADIAN.)SOLID_ANGLE_UNIT());
#24=(LENGTH_UNIT()NAMED_UNIT(*)SI_UNIT(.MILLI.,.METRE.));
#26=UNCERTAINTY_MEASURE_WITH_UNIT(LENGTH_MEASURE(0.000001),#24,'DISTANCE_ACCURACY_VALUE','');
#28=(GEOMETRIC_REPRESENTATION_CONTEXT(3)GLOBAL_UNCERTAINTY_ASSIGNED_CONTEXT((#26))GLOBAL_UNIT_ASSIGNED_CONTEXT((#16,#20,#24))REPRESENTATION_CONTEXT('','3D'));
#29=APPLICATION_CONTEXT('automotive design');
#30=APPLICATION_PROTOCOL_DEFINITION('INTERNATIONAL_STANDARD','automotive_design',1998,#29);
#31=PRODUCT_CONTEXT('3D Mechanical Parts',#29,'mechanical');
#32=PRODUCT('Product','Product','',(#31));
#33=PRODUCT_RELATED_PRODUCT_CATEGORY('part',$,(#32));
#34=PRODUCT_CATEGORY('part',$);
#35=PERSON('1','Design','Joe',$,$,$);
#36=ORGANIZATION($,'None','None');
#37=PERSON_AND_ORGANIZATION(#35,#36);
#38=PERSON_AND_ORGANIZATION_ROLE('design_owner');
#39=APPLIED_PERSON_AND_ORGANIZATION_ASSIGNMENT(#37,#38,(#32));
#40=PRODUCT_DEFINITION_FORMATION_WITH_SPECIFIED_SOURCE('None','',#32,.BOUGHT.);
#41=PERSON('2','Creator','Joe',$,$,$);
#42=ORGANIZATION($,'None','None');
#43=PERSON_AND_ORGANIZATION(#41,#42);
#44=PERSON_AND_ORGANIZATION_ROLE('creator');
#45=APPLIED_PERSON_AND_ORGANIZATION_ASSIGNMENT(#43,#44,(#40));
#46=PERSON('3','Supplier','Joe',$,$,$);
#47=ORGANIZATION($,'None','None');
#48=PERSON_AND_ORGANIZATION(#46,#47);
#49=PERSON_AND_ORGANIZATION_ROLE('design_supplier');
#50=APPLIED_PERSON_AND_ORGANIZATION_ASSIGNMENT(#48,#49,(#40));
#51=PRODUCT_DEFINITION_CONTEXT('part definition',#29,'design');
#52=PRODUCT_DEFINITION('None','',#40,#51);
#53=PERSON('4','Creator','Joe',$,$,$);
#54=ORGANIZATION($,'None','None');
#55=PERSON_AND_ORGANIZATION(#53,#54);
#56=PERSON_AND_ORGANIZATION_ROLE('creator');
#57=APPLIED_PERSON_AND_ORGANIZATION_ASSIGNMENT(#55,#56,(#52));
#58=CARTESIAN_POINT('NONE',(0.0,0.0,0.0));
#59=DIRECTION('NONE',(0.0,0.0,1.0));
#60=DIRECTION('NONE',(1.0,0.0,0.0));
#61=AXIS2_PLACEMENT_3D('NONE',#58,#59,#60);
#62=SHAPE_REPRESENTATION('SR1',(#61),#28);
#63=PRODUCT_DEFINITION_SHAPE('PDS1','Test Part',#52);
#64=SHAPE_DEFINITION_REPRESENTATION(#63,#62);
#65=CARTESIAN_POINT('',(0.0,-1.5,-1.5));
#66=DIRECTION('',(0.0,-1.224647E-016,-1.0));
#67=DIRECTION('',(1.0,0.0,0.0));
#68=AXIS2_PLACEMENT_3D('',#65,#66,#67);
#69=CYLINDRICAL_SURFACE('',#68,0.35);
#70=CARTESIAN_POINT('',(0.35,-1.5,-3.0));
#71=VERTEX_POINT('',#70);
#72=CARTESIAN_POINT('',(0.35,-1.5,0.0));
#73=VERTEX_POINT('',#72);
#74=CARTESIAN_POINT('',(0.35,-1.5,-3.0));
#75=DIRECTION('',(0.0,0.0,1.0));
#76=VECTOR('',#75,3.0);
#77=LINE('',#74,#76);
#78=EDGE_CURVE('',#71,#73,#77,.T.);
#79=ORIENTED_EDGE('',*,*,#78,.F.);
#80=CARTESIAN_POINT('',(-0.35,-1.5,-3.0));
#81=VERTEX_POINT('',#80);
#82=CARTESIAN_POINT('',(0.0,-1.5,-3.0));
#83=DIRECTION('',(0.0,0.0,-1.0));
#84=DIRECTION('',(1.0,0.0,0.0));
#85=AXIS2_PLACEMENT_3D('',#82,#83,#84);
#86=CIRCLE('',#85,0.35);
#87=EDGE_CURVE('',#81,#71,#86,.T.);
#88=ORIENTED_EDGE('',*,*,#87,.F.);
#89=CARTESIAN_POINT('',(-0.35,-1.5,-2.220446E-016));
#90=VERTEX_POINT('',#89);
#91=CARTESIAN_POINT('',(-0.35,-1.5,-3.0));
#92=DIRECTION('',(0.0,0.0,1.0));
#93=VECTOR('',#92,3.0);
#94=LINE('',#91,#93);
#95=EDGE_CURVE('',#81,#90,#94,.T.);
#96=ORIENTED_EDGE('',*,*,#95,.T.);
#97=CARTESIAN_POINT('',(0.0,-1.5,0.0));
#98=DIRECTION('',(0.0,0.0,1.0));
#99=DIRECTION('',(1.0,0.0,0.0));
#100=AXIS2_PLACEMENT_3D('',#97,#98,#99);
#101=CIRCLE('',#100,0.35);
#102=EDGE_CURVE('',#73,#90,#101,.T.);
#103=ORIENTED_EDGE('',*,*,#102,.F.);
#104=EDGE_LOOP('',(#79,#88,#96,#103));
#105=FACE_OUTER_BOUND('',#104,.T.);
#106=ADVANCED_FACE('',(#105),#69,.T.);
#107=CARTESIAN_POINT('',(0.0,-1.5,-1.5));
#108=DIRECTION('',(0.0,-1.224647E-016,-1.0));
#109=DIRECTION('',(1.0,0.0,0.0));
#110=AXIS2_PLACEMENT_3D('',#107,#108,#109);
#111=CYLINDRICAL_SURFACE('',#110,0.35);
#112=ORIENTED_EDGE('',*,*,#78,.T.);
#113=CARTESIAN_POINT('',(0.0,-1.5,0.0));
#114=DIRECTION('',(0.0,0.0,1.0));
#115=DIRECTION('',(1.0,0.0,0.0));
#116=AXIS2_PLACEMENT_3D('',#113,#114,#115);
#117=CIRCLE('',#116,0.35);
#118=EDGE_CURVE('',#90,#73,#117,.T.);
#119=ORIENTED_EDGE('',*,*,#118,.F.);
#120=ORIENTED_EDGE('',*,*,#95,.F.);
#121=CARTESIAN_POINT('',(0.0,-1.5,-3.0));
#122=DIRECTION('',(0.0,0.0,-1.0));
#123=DIRECTION('',(1.0,0.0,0.0));
#124=AXIS2_PLACEMENT_3D('',#121,#122,#123);
#125=CIRCLE('',#124,0.35);
#126=EDGE_CURVE('',#71,#81,#125,.T.);
#127=ORIENTED_EDGE('',*,*,#126,.F.);
#128=EDGE_LOOP('',(#112,#119,#120,#127));
#129=FACE_OUTER_BOUND('',#128,.T.);
#130=ADVANCED_FACE('',(#129),#111,.T.);
#131=CARTESIAN_POINT('',(0.0,-1.5,0.0));
#132=DIRECTION('',(0.0,0.0,1.0));
#133=DIRECTION('',(-1.0,0.0,0.0));
#134=AXIS2_PLACEMENT_3D('',#131,#132,#133);
#135=PLANE('',#134);
#136=ORIENTED_EDGE('',*,*,#102,.T.);
#137=ORIENTED_EDGE('',*,*,#118,.T.);
#138=EDGE_LOOP('',(#136,#137));
#139=FACE_OUTER_BOUND('',#138,.T.);
#140=ADVANCED_FACE('',(#139),#135,.T.);
#141=CARTESIAN_POINT('',(0.0,-1.5,-3.0));
#142=DIRECTION('',(0.0,0.0,-1.0));
#143=DIRECTION('',(1.0,0.0,0.0));
#144=AXIS2_PLACEMENT_3D('',#141,#142,#143);
#145=PLANE('',#144);
#146=ORIENTED_EDGE('',*,*,#126,.T.);
#147=ORIENTED_EDGE('',*,*,#87,.T.);
#148=EDGE_LOOP('',(#146,#147));
#149=FACE_OUTER_BOUND('',#148,.T.);
#150=ADVANCED_FACE('',(#149),#145,.T.);
#151=CLOSED_SHELL('',(#106,#130,#140,#150));
#152=MANIFOLD_SOLID_BREP('1D7D',#151);
#153=COLOUR_RGB('40',1.0,0.75,0.0);
#154=SURFACE_STYLE_USAGE(.BOTH.,#155);
#155=SURFACE_SIDE_STYLE('NONE',(#156));
#156=SURFACE_STYLE_FILL_AREA(#157);
#157=FILL_AREA_STYLE('NONE',(#158));
#158=FILL_AREA_STYLE_COLOUR('NONE',#153);
#159=PRESENTATION_STYLE_ASSIGNMENT((#154));
#160=STYLED_ITEM('NONE',(#159),#152);
#161=MECHANICAL_DESIGN_GEOMETRIC_PRESENTATION_REPRESENTATION('NONE',(#160,#251,#340,#429,#518,#614,#777,#892,#981,#1142,#1576),#28);
#162=PRESENTATION_LAYER_ASSIGNMENT('3D','None',(#152,#250,#339,#428,#517,#606,#776,#891,#980,#1141,#1568));
#163=CARTESIAN_POINT('',(0.0,1.5,-1.5));
#164=DIRECTION('',(0.0,-1.224647E-016,-1.0));
#165=DIRECTION('',(1.0,0.0,0.0));
#166=AXIS2_PLACEMENT_3D('',#163,#164,#165);
#167=CYLINDRICAL_SURFACE('',#166,0.35);
#168=CARTESIAN_POINT('',(0.35,1.5,-3.0));
#169=VERTEX_POINT('',#168);
#170=CARTESIAN_POINT('',(0.35,1.5,0.0));
#171=VERTEX_POINT('',#170);
#172=CARTESIAN_POINT('',(0.35,1.5,-3.0));
#173=DIRECTION('',(0.0,0.0,1.0));
#174=VECTOR('',#173,3.0);
#175=LINE('',#172,#174);
#176=EDGE_CURVE('',#169,#171,#175,.T.);
#177=ORIENTED_EDGE('',*,*,#176,.F.);
#178=CARTESIAN_POINT('',(-0.35,1.5,-3.0));
#179=VERTEX_POINT('',#178);
#180=CARTESIAN_POINT('',(0.0,1.5,-3.0));
#181=DIRECTION('',(0.0,0.0,-1.0));
#182=DIRECTION('',(1.0,0.0,0.0));
#183=AXIS2_PLACEMENT_3D('',#180,#181,#182);
#184=CIRCLE('',#183,0.35);
#185=EDGE_CURVE('',#179,#169,#184,.T.);
#186=ORIENTED_EDGE('',*,*,#185,.F.);
#187=CARTESIAN_POINT('',(-0.35,1.5,-2.220446E-016));
#188=VERTEX_POINT('',#187);
#189=CARTESIAN_POINT('',(-0.35,1.5,-3.0));
#190=DIRECTION('',(0.0,0.0,1.0));
#191=VECTOR('',#190,3.0);
#192=LINE('',#189,#191);
#193=EDGE_CURVE('',#179,#188,#192,.T.);
#194=ORIENTED_EDGE('',*,*,#193,.T.);
#195=CARTESIAN_POINT('',(0.0,1.5,0.0));
#196=DIRECTION('',(0.0,0.0,1.0));
#197=DIRECTION('',(1.0,0.0,0.0));
#198=AXIS2_PLACEMENT_3D('',#195,#196,#197);
#199=CIRCLE('',#198,0.35);
#200=EDGE_CURVE('',#171,#188,#199,.T.);
#201=ORIENTED_EDGE('',*,*,#200,.F.);
#202=EDGE_LOOP('',(#177,#186,#194,#201));
#203=FACE_OUTER_BOUND('',#202,.T.);
#204=ADVANCED_FACE('',(#203),#167,.T.);
#205=CARTESIAN_POINT('',(0.0,1.5,-1.5));
#206=DIRECTION('',(0.0,-1.224647E-016,-1.0));
#207=DIRECTION('',(1.0,0.0,0.0));
#208=AXIS2_PLACEMENT_3D('',#205,#206,#207);
#209=CYLINDRICAL_SURFACE('',#208,0.35);
#210=ORIENTED_EDGE('',*,*,#176,.T.);
#211=CARTESIAN_POINT('',(0.0,1.5,0.0));
#212=DIRECTION('',(0.0,0.0,1.0));
#213=DIRECTION('',(1.0,0.0,0.0));
#214=AXIS2_PLACEMENT_3D('',#211,#212,#213);
#215=CIRCLE('',#214,0.35);
#216=EDGE_CURVE('',#188,#171,#215,.T.);
#217=ORIENTED_EDGE('',*,*,#216,.F.);
#218=ORIENTED_EDGE('',*,*,#193,.F.);
#219=CARTESIAN_POINT('',(0.0,1.5,-3.0));
#220=DIRECTION('',(0.0,0.0,-1.0));
#221=DIRECTION('',(1.0,0.0,0.0));
#222=AXIS2_PLACEMENT_3D('',#219,#220,#221);
#223=CIRCLE('',#222,0.35);
#224=EDGE_CURVE('',#169,#179,#223,.T.);
#225=ORIENTED_EDGE('',*,*,#224,.F.);
#226=EDGE_LOOP('',(#210,#217,#218,#225));
#227=FACE_OUTER_BOUND('',#226,.T.);
#228=ADVANCED_FACE('',(#227),#209,.T.);
#229=CARTESIAN_POINT('',(0.0,1.5,0.0));
#230=DIRECTION('',(0.0,0.0,1.0));
#231=DIRECTION('',(-1.0,0.0,0.0));
#232=AXIS2_PLACEMENT_3D('',#229,#230,#231);
#233=PLANE('',#232);
#234=ORIENTED_EDGE('',*,*,#200,.T.);
#235=ORIENTED_EDGE('',*,*,#216,.T.);
#236=EDGE_LOOP('',(#234,#235));
#237=FACE_OUTER_BOUND('',#236,.T.);
#238=ADVANCED_FACE('',(#237),#233,.T.);
#239=CARTESIAN_POINT('',(0.0,1.5,-3.0));
#240=DIRECTION('',(0.0,0.0,-1.0));
#241=DIRECTION('',(1.0,0.0,0.0));
#242=AXIS2_PLACEMENT_3D('',#239,#240,#241);
#243=PLANE('',#242);
#244=ORIENTED_EDGE('',*,*,#224,.T.);
#245=ORIENTED_EDGE('',*,*,#185,.T.);
#246=EDGE_LOOP('',(#244,#245));
#247=FACE_OUTER_BOUND('',#246,.T.);
#248=ADVANCED_FACE('',(#247),#243,.T.);
#249=CLOSED_SHELL('',(#204,#228,#238,#248));
#250=MANIFOLD_SOLID_BREP('1D79',#249);
#251=STYLED_ITEM('NONE',(#159),#250);
#252=CARTESIAN_POINT('',(0.0,-1.5,1.0));
#253=DIRECTION('',(0.0,-1.224647E-016,-1.0));
#254=DIRECTION('',(1.0,0.0,0.0));
#255=AXIS2_PLACEMENT_3D('',#252,#253,#254);
#256=CYLINDRICAL_SURFACE('',#255,0.75);
#257=CARTESIAN_POINT('',(0.75,-1.5,0.0));
#258=VERTEX_POINT('',#257);
#259=CARTESIAN_POINT('',(0.75,-1.5,2.0));
#260=VERTEX_POINT('',#259);
#261=CARTESIAN_POINT('',(0.75,-1.5,0.0));
#262=DIRECTION('',(0.0,0.0,1.0));
#263=VECTOR('',#262,2.0);
#264=LINE('',#261,#263);
#265=EDGE_CURVE('',#258,#260,#264,.T.);
#266=ORIENTED_EDGE('',*,*,#265,.F.);
#267=CARTESIAN_POINT('',(-0.75,-1.5,0.0));
#268=VERTEX_POINT('',#267);
#269=CARTESIAN_POINT('',(0.0,-1.5,0.0));
#270=DIRECTION('',(0.0,0.0,-1.0));
#271=DIRECTION('',(1.0,0.0,0.0));
#272=AXIS2_PLACEMENT_3D('',#269,#270,#271);
#273=CIRCLE('',#272,0.75);
#274=EDGE_CURVE('',#268,#258,#273,.T.);
#275=ORIENTED_EDGE('',*,*,#274,.F.);
#276=CARTESIAN_POINT('',(-0.75,-1.5,2.0));
#277=VERTEX_POINT('',#276);
#278=CARTESIAN_POINT('',(-0.75,-1.5,0.0));
#279=DIRECTION('',(0.0,0.0,1.0));
#280=VECTOR('',#279,2.0);
#281=LINE('',#278,#280);
#282=EDGE_CURVE('',#268,#277,#281,.T.);
#283=ORIENTED_EDGE('',*,*,#282,.T.);
#284=CARTESIAN_POINT('',(0.0,-1.5,2.0));
#285=DIRECTION('',(0.0,0.0,1.0));
#286=DIRECTION('',(1.0,0.0,0.0));
#287=AXIS2_PLACEMENT_3D('',#284,#285,#286);
#288=CIRCLE('',#287,0.75);
#289=EDGE_CURVE('',#260,#277,#288,.T.);
#290=ORIENTED_EDGE('',*,*,#289,.F.);
#291=EDGE_LOOP('',(#266,#275,#283,#290));
#292=FACE_OUTER_BOUND('',#291,.T.);
#293=ADVANCED_FACE('',(#292),#256,.T.);
#294=CARTESIAN_POINT('',(0.0,-1.5,1.0));
#295=DIRECTION('',(0.0,-1.224647E-016,-1.0));
#296=DIRECTION('',(1.0,0.0,0.0));
#297=AXIS2_PLACEMENT_3D('',#294,#295,#296);
#298=CYLINDRICAL_SURFACE('',#297,0.75);
#299=ORIENTED_EDGE('',*,*,#265,.T.);
#300=CARTESIAN_POINT('',(0.0,-1.5,2.0));
#301=DIRECTION('',(0.0,0.0,1.0));
#302=DIRECTION('',(1.0,0.0,0.0));
#303=AXIS2_PLACEMENT_3D('',#300,#301,#302);
#304=CIRCLE('',#303,0.75);
#305=EDGE_CURVE('',#277,#260,#304,.T.);
#306=ORIENTED_EDGE('',*,*,#305,.F.);
#307=ORIENTED_EDGE('',*,*,#282,.F.);
#308=CARTESIAN_POINT('',(0.0,-1.5,0.0));
#309=DIRECTION('',(0.0,0.0,-1.0));
#310=DIRECTION('',(1.0,0.0,0.0));
#311=AXIS2_PLACEMENT_3D('',#308,#309,#310);
#312=CIRCLE('',#311,0.75);
#313=EDGE_CURVE('',#258,#268,#312,.T.);
#314=ORIENTED_EDGE('',*,*,#313,.F.);
#315=EDGE_LOOP('',(#299,#306,#307,#314));
#316=FACE_OUTER_BOUND('',#315,.T.);
#317=ADVANCED_FACE('',(#316),#298,.T.);
#318=CARTESIAN_POINT('',(0.0,-1.5,2.0));
#319=DIRECTION('',(0.0,0.0,1.0));
#320=DIRECTION('',(-1.0,0.0,0.0));
#321=AXIS2_PLACEMENT_3D('',#318,#319,#320);
#322=PLANE('',#321);
#323=ORIENTED_EDGE('',*,*,#289,.T.);
#324=ORIENTED_EDGE('',*,*,#305,.T.);
#325=EDGE_LOOP('',(#323,#324));
#326=FACE_OUTER_BOUND('',#325,.T.);
#327=ADVANCED_FACE('',(#326),#322,.T.);
#328=CARTESIAN_POINT('',(0.0,-1.5,0.0));
#329=DIRECTION('',(0.0,0.0,-1.0));
#330=DIRECTION('',(1.0,0.0,0.0));
#331=AXIS2_PLACEMENT_3D('',#328,#329,#330);
#332=PLANE('',#331);
#333=ORIENTED_EDGE('',*,*,#313,.T.);
#334=ORIENTED_EDGE('',*,*,#274,.T.);
#335=EDGE_LOOP('',(#333,#334));
#336=FACE_OUTER_BOUND('',#335,.T.);
#337=ADVANCED_FACE('',(#336),#332,.T.);
#338=CLOSED_SHELL('',(#293,#317,#327,#337));
#339=MANIFOLD_SOLID_BREP('1D75',#338);
#340=STYLED_ITEM('NONE',(#159),#339);
#341=CARTESIAN_POINT('',(0.0,1.5,1.0));
#342=DIRECTION('',(0.0,-1.224647E-016,-1.0));
#343=DIRECTION('',(1.0,0.0,0.0));
#344=AXIS2_PLACEMENT_3D('',#341,#342,#343);
#345=CYLINDRICAL_SURFACE('',#344,0.75);
#346=CARTESIAN_POINT('',(0.75,1.5,0.0));
#347=VERTEX_POINT('',#346);
#348=CARTESIAN_POINT('',(0.75,1.5,2.0));
#349=VERTEX_POINT('',#348);
#350=CARTESIAN_POINT('',(0.75,1.5,0.0));
#351=DIRECTION('',(0.0,0.0,1.0));
#352=VECTOR('',#351,2.0);
#353=LINE('',#350,#352);
#354=EDGE_CURVE('',#347,#349,#353,.T.);
#355=ORIENTED_EDGE('',*,*,#354,.F.);
#356=CARTESIAN_POINT('',(-0.75,1.5,0.0));
#357=VERTEX_POINT('',#356);
#358=CARTESIAN_POINT('',(0.0,1.5,0.0));
#359=DIRECTION('',(0.0,0.0,-1.0));
#360=DIRECTION('',(1.0,0.0,0.0));
#361=AXIS2_PLACEMENT_3D('',#358,#359,#360);
#362=CIRCLE('',#361,0.75);
#363=EDGE_CURVE('',#357,#347,#362,.T.);
#364=ORIENTED_EDGE('',*,*,#363,.F.);
#365=CARTESIAN_POINT('',(-0.75,1.5,2.0));
#366=VERTEX_POINT('',#365);
#367=CARTESIAN_POINT('',(-0.75,1.5,0.0));
#368=DIRECTION('',(0.0,0.0,1.0));
#369=VECTOR('',#368,2.0);
#370=LINE('',#367,#369);
#371=EDGE_CURVE('',#357,#366,#370,.T.);
#372=ORIENTED_EDGE('',*,*,#371,.T.);
#373=CARTESIAN_POINT('',(0.0,1.5,2.0));
#374=DIRECTION('',(0.0,0.0,1.0));
#375=DIRECTION('',(1.0,0.0,0.0));
#376=AXIS2_PLACEMENT_3D('',#373,#374,#375);
#377=CIRCLE('',#376,0.75);
#378=EDGE_CURVE('',#349,#366,#377,.T.);
#379=ORIENTED_EDGE('',*,*,#378,.F.);
#380=EDGE_LOOP('',(#355,#364,#372,#379));
#381=FACE_OUTER_BOUND('',#380,.T.);
#382=ADVANCED_FACE('',(#381),#345,.T.);
#383=CARTESIAN_POINT('',(0.0,1.5,1.0));
#384=DIRECTION('',(0.0,-1.224647E-016,-1.0));
#385=DIRECTION('',(1.0,0.0,0.0));
#386=AXIS2_PLACEMENT_3D('',#383,#384,#385);
#387=CYLINDRICAL_SURFACE('',#386,0.75);
#388=ORIENTED_EDGE('',*,*,#354,.T.);
#389=CARTESIAN_POINT('',(0.0,1.5,2.0));
#390=DIRECTION('',(0.0,0.0,1.0));
#391=DIRECTION('',(1.0,0.0,0.0));
#392=AXIS2_PLACEMENT_3D('',#389,#390,#391);
#393=CIRCLE('',#392,0.75);
#394=EDGE_CURVE('',#366,#349,#393,.T.);
#395=ORIENTED_EDGE('',*,*,#394,.F.);
#396=ORIENTED_EDGE('',*,*,#371,.F.);
#397=CARTESIAN_POINT('',(0.0,1.5,0.0));
#398=DIRECTION('',(0.0,0.0,-1.0));
#399=DIRECTION('',(1.0,0.0,0.0));
#400=AXIS2_PLACEMENT_3D('',#397,#398,#399);
#401=CIRCLE('',#400,0.75);
#402=EDGE_CURVE('',#347,#357,#401,.T.);
#403=ORIENTED_EDGE('',*,*,#402,.F.);
#404=EDGE_LOOP('',(#388,#395,#396,#403));
#405=FACE_OUTER_BOUND('',#404,.T.);
#406=ADVANCED_FACE('',(#405),#387,.T.);
#407=CARTESIAN_POINT('',(0.0,1.5,2.0));
#408=DIRECTION('',(0.0,0.0,1.0));
#409=DIRECTION('',(-1.0,0.0,0.0));
#410=AXIS2_PLACEMENT_3D('',#407,#408,#409);
#411=PLANE('',#410);
#412=ORIENTED_EDGE('',*,*,#378,.T.);
#413=ORIENTED_EDGE('',*,*,#394,.T.);
#414=EDGE_LOOP('',(#412,#413));
#415=FACE_OUTER_BOUND('',#414,.T.);
#416=ADVANCED_FACE('',(#415),#411,.T.);
#417=CARTESIAN_POINT('',(0.0,1.5,0.0));
#418=DIRECTION('',(0.0,0.0,-1.0));
#419=DIRECTION('',(1.0,0.0,0.0));
#420=AXIS2_PLACEMENT_3D('',#417,#418,#419);
#421=PLANE('',#420);
#422=ORIENTED_EDGE('',*,*,#402,.T.);
#423=ORIENTED_EDGE('',*,*,#363,.T.);
#424=EDGE_LOOP('',(#422,#423));
#425=FACE_OUTER_BOUND('',#424,.T.);
#426=ADVANCED_FACE('',(#425),#421,.T.);
#427=CLOSED_SHELL('',(#382,#406,#416,#426));
#428=MANIFOLD_SOLID_BREP('1D71',#427);
#429=STYLED_ITEM('NONE',(#159),#428);
#430=CARTESIAN_POINT('',(0.0,1.5,10.000000000000002));
#431=DIRECTION('',(0.0,0.0,1.0));
#432=DIRECTION('',(1.0,0.0,0.0));
#433=AXIS2_PLACEMENT_3D('',#430,#431,#432);
#434=CYLINDRICAL_SURFACE('',#433,0.75);
#435=CARTESIAN_POINT('',(0.75,1.5,10.500000000000002));
#436=VERTEX_POINT('',#435);
#437=CARTESIAN_POINT('',(0.75,1.5,9.500000000000002));
#438=VERTEX_POINT('',#437);
#439=CARTESIAN_POINT('',(0.75,1.5,10.500000000000002));
#440=DIRECTION('',(0.0,0.0,-1.0));
#441=VECTOR('',#440,1.0);
#442=LINE('',#439,#441);
#443=EDGE_CURVE('',#436,#438,#442,.T.);
#444=ORIENTED_EDGE('',*,*,#443,.F.);
#445=CARTESIAN_POINT('',(-0.75,1.5,10.500000000000002));
#446=VERTEX_POINT('',#445);
#447=CARTESIAN_POINT('',(0.0,1.5,10.500000000000002));
#448=DIRECTION('',(0.0,0.0,1.0));
#449=DIRECTION('',(1.0,0.0,0.0));
#450=AXIS2_PLACEMENT_3D('',#447,#448,#449);
#451=CIRCLE('',#450,0.75);
#452=EDGE_CURVE('',#446,#436,#451,.T.);
#453=ORIENTED_EDGE('',*,*,#452,.F.);
#454=CARTESIAN_POINT('',(-0.75,1.5,9.500000000000002));
#455=VERTEX_POINT('',#454);
#456=CARTESIAN_POINT('',(-0.75,1.5,10.500000000000002));
#457=DIRECTION('',(0.0,0.0,-1.0));
#458=VECTOR('',#457,1.0);
#459=LINE('',#456,#458);
#460=EDGE_CURVE('',#446,#455,#459,.T.);
#461=ORIENTED_EDGE('',*,*,#460,.T.);
#462=CARTESIAN_POINT('',(0.0,1.5,9.500000000000002));
#463=DIRECTION('',(0.0,0.0,-1.0));
#464=DIRECTION('',(1.0,0.0,0.0));
#465=AXIS2_PLACEMENT_3D('',#462,#463,#464);
#466=CIRCLE('',#465,0.75);
#467=EDGE_CURVE('',#438,#455,#466,.T.);
#468=ORIENTED_EDGE('',*,*,#467,.F.);
#469=EDGE_LOOP('',(#444,#453,#461,#468));
#470=FACE_OUTER_BOUND('',#469,.T.);
#471=ADVANCED_FACE('',(#470),#434,.T.);
#472=CARTESIAN_POINT('',(0.0,1.5,10.000000000000002));
#473=DIRECTION('',(0.0,0.0,1.0));
#474=DIRECTION('',(1.0,0.0,0.0));
#475=AXIS2_PLACEMENT_3D('',#472,#473,#474);
#476=CYLINDRICAL_SURFACE('',#475,0.75);
#477=ORIENTED_EDGE('',*,*,#443,.T.);
#478=CARTESIAN_POINT('',(0.0,1.5,9.500000000000002));
#479=DIRECTION('',(0.0,0.0,-1.0));
#480=DIRECTION('',(1.0,0.0,0.0));
#481=AXIS2_PLACEMENT_3D('',#478,#479,#480);
#482=CIRCLE('',#481,0.75);
#483=EDGE_CURVE('',#455,#438,#482,.T.);
#484=ORIENTED_EDGE('',*,*,#483,.F.);
#485=ORIENTED_EDGE('',*,*,#460,.F.);
#486=CARTESIAN_POINT('',(0.0,1.5,10.500000000000002));
#487=DIRECTION('',(0.0,0.0,1.0));
#488=DIRECTION('',(1.0,0.0,0.0));
#489=AXIS2_PLACEMENT_3D('',#486,#487,#488);
#490=CIRCLE('',#489,0.75);
#491=EDGE_CURVE('',#436,#446,#490,.T.);
#492=ORIENTED_EDGE('',*,*,#491,.F.);
#493=EDGE_LOOP('',(#477,#484,#485,#492));
#494=FACE_OUTER_BOUND('',#493,.T.);
#495=ADVANCED_FACE('',(#494),#476,.T.);
#496=CARTESIAN_POINT('',(0.0,1.5,9.500000000000002));
#497=DIRECTION('',(0.0,0.0,-1.0));
#498=DIRECTION('',(-1.0,0.0,0.0));
#499=AXIS2_PLACEMENT_3D('',#496,#497,#498);
#500=PLANE('',#499);
#501=ORIENTED_EDGE('',*,*,#467,.T.);
#502=ORIENTED_EDGE('',*,*,#483,.T.);
#503=EDGE_LOOP('',(#501,#502));
#504=FACE_OUTER_BOUND('',#503,.T.);
#505=ADVANCED_FACE('',(#504),#500,.T.);
#506=CARTESIAN_POINT('',(0.0,1.5,10.500000000000002));
#507=DIRECTION('',(0.0,0.0,1.0));
#508=DIRECTION('',(1.0,0.0,0.0));
#509=AXIS2_PLACEMENT_3D('',#506,#507,#508);
#510=PLANE('',#509);
#511=ORIENTED_EDGE('',*,*,#491,.T.);
#512=ORIENTED_EDGE('',*,*,#452,.T.);
#513=EDGE_LOOP('',(#511,#512));
#514=FACE_OUTER_BOUND('',#513,.T.);
#515=ADVANCED_FACE('',(#514),#510,.T.);
#516=CLOSED_SHELL('',(#471,#495,#505,#515));
#517=MANIFOLD_SOLID_BREP('1D6D',#516);
#518=STYLED_ITEM('NONE',(#159),#517);
#519=CARTESIAN_POINT('',(0.0,0.0,2.500000000000002));
#520=DIRECTION('',(0.0,0.0,1.0));
#521=DIRECTION('',(1.0,0.0,0.0));
#522=AXIS2_PLACEMENT_3D('',#519,#520,#521);
#523=CYLINDRICAL_SURFACE('',#522,3.5);
#524=CARTESIAN_POINT('',(3.5,0.0,3.000000000000002));
#525=VERTEX_POINT('',#524);
#526=CARTESIAN_POINT('',(3.5,0.0,2.000000000000002));
#527=VERTEX_POINT('',#526);
#528=CARTESIAN_POINT('',(3.5,0.0,3.000000000000002));
#529=DIRECTION('',(0.0,0.0,-1.0));
#530=VECTOR('',#529,1.0);
#531=LINE('',#528,#530);
#532=EDGE_CURVE('',#525,#527,#531,.T.);
#533=ORIENTED_EDGE('',*,*,#532,.F.);
#534=CARTESIAN_POINT('',(-3.5,-4.286264E-016,3.000000000000002));
#535=VERTEX_POINT('',#534);
#536=CARTESIAN_POINT('',(0.0,0.0,3.000000000000002));
#537=DIRECTION('',(0.0,0.0,1.0));
#538=DIRECTION('',(1.0,0.0,0.0));
#539=AXIS2_PLACEMENT_3D('',#536,#537,#538);
#540=CIRCLE('',#539,3.5);
#541=EDGE_CURVE('',#535,#525,#540,.T.);
#542=ORIENTED_EDGE('',*,*,#541,.F.);
#543=CARTESIAN_POINT('',(-3.5,-4.286264E-016,2.000000000000002));
#544=VERTEX_POINT('',#543);
#545=CARTESIAN_POINT('',(-3.5,-4.286264E-016,3.000000000000002));
#546=DIRECTION('',(0.0,0.0,-1.0));
#547=VECTOR('',#546,1.0);
#548=LINE('',#545,#547);
#549=EDGE_CURVE('',#535,#544,#548,.T.);
#550=ORIENTED_EDGE('',*,*,#549,.T.);
#551=CARTESIAN_POINT('',(0.0,0.0,2.000000000000002));
#552=DIRECTION('',(0.0,0.0,-1.0));
#553=DIRECTION('',(1.0,0.0,0.0));
#554=AXIS2_PLACEMENT_3D('',#551,#552,#553);
#555=CIRCLE('',#554,3.5);
#556=EDGE_CURVE('',#527,#544,#555,.T.);
#557=ORIENTED_EDGE('',*,*,#556,.F.);
#558=EDGE_LOOP('',(#533,#542,#550,#557));
#559=FACE_OUTER_BOUND('',#558,.T.);
#560=ADVANCED_FACE('',(#559),#523,.T.);
#561=CARTESIAN_POINT('',(0.0,0.0,2.500000000000002));
#562=DIRECTION('',(0.0,0.0,1.0));
#563=DIRECTION('',(1.0,0.0,0.0));
#564=AXIS2_PLACEMENT_3D('',#561,#562,#563);
#565=CYLINDRICAL_SURFACE('',#564,3.5);
#566=ORIENTED_EDGE('',*,*,#532,.T.);
#567=CARTESIAN_POINT('',(0.0,0.0,2.000000000000002));
#568=DIRECTION('',(0.0,0.0,-1.0));
#569=DIRECTION('',(1.0,0.0,0.0));
#570=AXIS2_PLACEMENT_3D('',#567,#568,#569);
#571=CIRCLE('',#570,3.5);
#572=EDGE_CURVE('',#544,#527,#571,.T.);
#573=ORIENTED_EDGE('',*,*,#572,.F.);
#574=ORIENTED_EDGE('',*,*,#549,.F.);
#575=CARTESIAN_POINT('',(0.0,0.0,3.000000000000002));
#576=DIRECTION('',(0.0,0.0,1.0));
#577=DIRECTION('',(1.0,0.0,0.0));
#578=AXIS2_PLACEMENT_3D('',#575,#576,#577);
#579=CIRCLE('',#578,3.5);
#580=EDGE_CURVE('',#525,#535,#579,.T.);
#581=ORIENTED_EDGE('',*,*,#580,.F.);
#582=EDGE_LOOP('',(#566,#573,#574,#581));
#583=FACE_OUTER_BOUND('',#582,.T.);
#584=ADVANCED_FACE('',(#583),#565,.T.);
#585=CARTESIAN_POINT('',(0.0,0.0,2.000000000000002));
#586=DIRECTION('',(0.0,0.0,-1.0));
#587=DIRECTION('',(-1.0,0.0,0.0));
#588=AXIS2_PLACEMENT_3D('',#585,#586,#587);
#589=PLANE('',#588);
#590=ORIENTED_EDGE('',*,*,#556,.T.);
#591=ORIENTED_EDGE('',*,*,#572,.T.);
#592=EDGE_LOOP('',(#590,#591));
#593=FACE_OUTER_BOUND('',#592,.T.);
#594=ADVANCED_FACE('',(#593),#589,.T.);
#595=CARTESIAN_POINT('',(0.0,0.0,3.000000000000002));
#596=DIRECTION('',(0.0,0.0,1.0));
#597=DIRECTION('',(1.0,0.0,0.0));
#598=AXIS2_PLACEMENT_3D('',#595,#596,#597);
#599=PLANE('',#598);
#600=ORIENTED_EDGE('',*,*,#580,.T.);
#601=ORIENTED_EDGE('',*,*,#541,.T.);
#602=EDGE_LOOP('',(#600,#601));
#603=FACE_OUTER_BOUND('',#602,.T.);
#604=ADVANCED_FACE('',(#603),#599,.T.);
#605=CLOSED_SHELL('',(#560,#584,#594,#604));
#606=MANIFOLD_SOLID_BREP('1D49',#605);
#607=COLOUR_RGB('43',0.65,0.56875,0.325);
#608=SURFACE_STYLE_USAGE(.BOTH.,#609);
#609=SURFACE_SIDE_STYLE('NONE',(#610));
#610=SURFACE_STYLE_FILL_AREA(#611);
#611=FILL_AREA_STYLE('NONE',(#612));
#612=FILL_AREA_STYLE_COLOUR('NONE',#607);
#613=PRESENTATION_STYLE_ASSIGNMENT((#608));
#614=STYLED_ITEM('NONE',(#613),#606);
#615=CARTESIAN_POINT('',(0.0,1.5,19.0));
#616=DIRECTION('',(0.0,0.0,-1.0));
#617=DIRECTION('',(1.0,0.0,0.0));
#618=AXIS2_PLACEMENT_3D('',#615,#616,#617);
#619=CYLINDRICAL_SURFACE('',#618,1.0);
#620=CARTESIAN_POINT('',(1.0,1.5,9.500000000000002));
#621=VERTEX_POINT('',#620);
#622=CARTESIAN_POINT('',(1.0,1.5,19.0));
#623=VERTEX_POINT('',#622);
#624=CARTESIAN_POINT('',(1.0,1.5,9.500000000000002));
#625=DIRECTION('',(0.0,0.0,1.0));
#626=VECTOR('',#625,9.499999999999998);
#627=LINE('',#624,#626);
#628=EDGE_CURVE('',#621,#623,#627,.T.);
#629=ORIENTED_EDGE('',*,*,#628,.F.);
#630=CARTESIAN_POINT('',(-1.0,1.5,9.500000000000002));
#631=VERTEX_POINT('',#630);
#632=CARTESIAN_POINT('',(0.0,1.5,9.500000000000002));
#633=DIRECTION('',(0.0,0.0,1.0));
#634=DIRECTION('',(1.0,0.0,0.0));
#635=AXIS2_PLACEMENT_3D('',#632,#633,#634);
#636=CIRCLE('',#635,1.0);
#637=EDGE_CURVE('',#621,#631,#636,.T.);
#638=ORIENTED_EDGE('',*,*,#637,.T.);
#639=CARTESIAN_POINT('',(-1.0,1.5,19.0));
#640=VERTEX_POINT('',#639);
#641=CARTESIAN_POINT('',(-1.0,1.5,9.500000000000002));
#642=DIRECTION('',(0.0,0.0,1.0));
#643=VECTOR('',#642,9.499999999999998);
#644=LINE('',#641,#643);
#645=EDGE_CURVE('',#631,#640,#644,.T.);
#646=ORIENTED_EDGE('',*,*,#645,.T.);
#647=CARTESIAN_POINT('',(0.0,1.5,19.0));
#648=DIRECTION('',(0.0,0.0,1.0));
#649=DIRECTION('',(1.0,0.0,0.0));
#650=AXIS2_PLACEMENT_3D('',#647,#648,#649);
#651=CIRCLE('',#650,1.0);
#652=EDGE_CURVE('',#623,#640,#651,.T.);
#653=ORIENTED_EDGE('',*,*,#652,.F.);
#654=EDGE_LOOP('',(#629,#638,#646,#653));
#655=FACE_OUTER_BOUND('',#654,.T.);
#656=ADVANCED_FACE('',(#655),#619,.T.);
#657=CARTESIAN_POINT('',(0.0,1.5,19.0));
#658=DIRECTION('',(0.0,0.0,-1.0));
#659=DIRECTION('',(1.0,0.0,0.0));
#660=AXIS2_PLACEMENT_3D('',#657,#658,#659);
#661=CYLINDRICAL_SURFACE('',#660,0.75);
#662=CARTESIAN_POINT('',(0.75,1.5,19.0));
#663=VERTEX_POINT('',#662);
#664=CARTESIAN_POINT('',(0.75,1.5,9.500000000000002));
#665=VERTEX_POINT('',#664);
#666=CARTESIAN_POINT('',(0.75,1.5,19.0));
#667=DIRECTION('',(0.0,0.0,-1.0));
#668=VECTOR('',#667,9.499999999999998);
#669=LINE('',#666,#668);
#670=EDGE_CURVE('',#663,#665,#669,.T.);
#671=ORIENTED_EDGE('',*,*,#670,.F.);
#672=CARTESIAN_POINT('',(-0.75,1.5,19.0));
#673=VERTEX_POINT('',#672);
#674=CARTESIAN_POINT('',(0.0,1.5,19.0));
#675=DIRECTION('',(0.0,0.0,-1.0));
#676=DIRECTION('',(1.0,0.0,0.0));
#677=AXIS2_PLACEMENT_3D('',#674,#675,#676);
#678=CIRCLE('',#677,0.75);
#679=EDGE_CURVE('',#673,#663,#678,.T.);
#680=ORIENTED_EDGE('',*,*,#679,.F.);
#681=CARTESIAN_POINT('',(-0.75,1.5,9.500000000000002));
#682=VERTEX_POINT('',#681);
#683=CARTESIAN_POINT('',(-0.75,1.5,19.0));
#684=DIRECTION('',(0.0,0.0,-1.0));
#685=VECTOR('',#684,9.499999999999998);
#686=LINE('',#683,#685);
#687=EDGE_CURVE('',#673,#682,#686,.T.);
#688=ORIENTED_EDGE('',*,*,#687,.T.);
#689=CARTESIAN_POINT('',(0.0,1.5,9.500000000000002));
#690=DIRECTION('',(0.0,0.0,1.0));
#691=DIRECTION('',(1.0,0.0,0.0));
#692=AXIS2_PLACEMENT_3D('',#689,#690,#691);
#693=CIRCLE('',#692,0.75);
#694=EDGE_CURVE('',#665,#682,#693,.T.);
#695=ORIENTED_EDGE('',*,*,#694,.F.);
#696=EDGE_LOOP('',(#671,#680,#688,#695));
#697=FACE_OUTER_BOUND('',#696,.T.);
#698=ADVANCED_FACE('',(#697),#661,.F.);
#699=CARTESIAN_POINT('',(0.0,1.5,19.0));
#700=DIRECTION('',(0.0,0.0,-1.0));
#701=DIRECTION('',(1.0,0.0,0.0));
#702=AXIS2_PLACEMENT_3D('',#699,#700,#701);
#703=CYLINDRICAL_SURFACE('',#702,0.75);
#704=ORIENTED_EDGE('',*,*,#670,.T.);
#705=CARTESIAN_POINT('',(0.0,1.5,9.500000000000002));
#706=DIRECTION('',(0.0,0.0,1.0));
#707=DIRECTION('',(1.0,0.0,0.0));
#708=AXIS2_PLACEMENT_3D('',#705,#706,#707);
#709=CIRCLE('',#708,0.75);
#710=EDGE_CURVE('',#682,#665,#709,.T.);
#711=ORIENTED_EDGE('',*,*,#710,.F.);
#712=ORIENTED_EDGE('',*,*,#687,.F.);
#713=CARTESIAN_POINT('',(0.0,1.5,19.0));
#714=DIRECTION('',(0.0,0.0,-1.0));
#715=DIRECTION('',(1.0,0.0,0.0));
#716=AXIS2_PLACEMENT_3D('',#713,#714,#715);
#717=CIRCLE('',#716,0.75);
#718=EDGE_CURVE('',#663,#673,#717,.T.);
#719=ORIENTED_EDGE('',*,*,#718,.F.);
#720=EDGE_LOOP('',(#704,#711,#712,#719));
#721=FACE_OUTER_BOUND('',#720,.T.);
#722=ADVANCED_FACE('',(#721),#703,.F.);
#723=CARTESIAN_POINT('',(0.0,1.5,19.0));
#724=DIRECTION('',(0.0,0.0,-1.0));
#725=DIRECTION('',(1.0,0.0,0.0));
#726=AXIS2_PLACEMENT_3D('',#723,#724,#725);
#727=CYLINDRICAL_SURFACE('',#726,1.0);
#728=ORIENTED_EDGE('',*,*,#628,.T.);
#729=CARTESIAN_POINT('',(0.0,1.5,19.0));
#730=DIRECTION('',(0.0,0.0,1.0));
#731=DIRECTION('',(1.0,0.0,0.0));
#732=AXIS2_PLACEMENT_3D('',#729,#730,#731);
#733=CIRCLE('',#732,1.0);
#734=EDGE_CURVE('',#640,#623,#733,.T.);
#735=ORIENTED_EDGE('',*,*,#734,.F.);
#736=ORIENTED_EDGE('',*,*,#645,.F.);
#737=CARTESIAN_POINT('',(0.0,1.5,9.500000000000002));
#738=DIRECTION('',(0.0,0.0,1.0));
#739=DIRECTION('',(1.0,0.0,0.0));
#740=AXIS2_PLACEMENT_3D('',#737,#738,#739);
#741=CIRCLE('',#740,1.0);
#742=EDGE_CURVE('',#631,#621,#741,.T.);
#743=ORIENTED_EDGE('',*,*,#742,.T.);
#744=EDGE_LOOP('',(#728,#735,#736,#743));
#745=FACE_OUTER_BOUND('',#744,.T.);
#746=ADVANCED_FACE('',(#745),#727,.T.);
#747=CARTESIAN_POINT('',(0.0,1.5,9.500000000000002));
#748=DIRECTION('',(0.0,0.0,1.0));
#749=DIRECTION('',(1.0,0.0,0.0));
#750=AXIS2_PLACEMENT_3D('',#747,#748,#749);
#751=PLANE('',#750);
#752=ORIENTED_EDGE('',*,*,#637,.F.);
#753=ORIENTED_EDGE('',*,*,#742,.F.);
#754=EDGE_LOOP('',(#752,#753));
#755=FACE_OUTER_BOUND('',#754,.T.);
#756=ORIENTED_EDGE('',*,*,#694,.T.);
#757=ORIENTED_EDGE('',*,*,#710,.T.);
#758=EDGE_LOOP('',(#756,#757));
#759=FACE_BOUND('',#758,.T.);
#760=ADVANCED_FACE('',(#755,#759),#751,.F.);
#761=CARTESIAN_POINT('',(0.0,1.5,19.0));
#762=DIRECTION('',(0.0,0.0,1.0));
#763=DIRECTION('',(1.0,0.0,0.0));
#764=AXIS2_PLACEMENT_3D('',#761,#762,#763);
#765=PLANE('',#764);
#766=ORIENTED_EDGE('',*,*,#652,.T.);
#767=ORIENTED_EDGE('',*,*,#734,.T.);
#768=EDGE_LOOP('',(#766,#767));
#769=FACE_OUTER_BOUND('',#768,.T.);
#770=ORIENTED_EDGE('',*,*,#718,.T.);
#771=ORIENTED_EDGE('',*,*,#679,.T.);
#772=EDGE_LOOP('',(#770,#771));
#773=FACE_BOUND('',#772,.T.);
#774=ADVANCED_FACE('',(#769,#773),#765,.T.);
#775=CLOSED_SHELL('',(#656,#698,#722,#746,#760,#774));
#776=MANIFOLD_SOLID_BREP('1D40',#775);
#777=STYLED_ITEM('NONE',(#159),#776);
#778=CARTESIAN_POINT('',(0.0,-1.5,16.200000000000003));
#779=DIRECTION('',(0.0,0.0,-1.0));
#780=DIRECTION('',(1.0,0.0,0.0));
#781=AXIS2_PLACEMENT_3D('',#778,#779,#780);
#782=CYLINDRICAL_SURFACE('',#781,0.5);
#783=CARTESIAN_POINT('',(0.5,-1.5,9.500000000000002));
#784=VERTEX_POINT('',#783);
#785=CARTESIAN_POINT('',(0.5,-1.5,15.700000000000001));
#786=VERTEX_POINT('',#785);
#787=CARTESIAN_POINT('',(0.5,-1.5,9.500000000000002));
#788=DIRECTION('',(0.0,0.0,1.0));
#789=VECTOR('',#788,6.199999999999999);
#790=LINE('',#787,#789);
#791=EDGE_CURVE('',#784,#786,#790,.T.);
#792=ORIENTED_EDGE('',*,*,#791,.F.);
#793=CARTESIAN_POINT('',(-0.5,-1.5,9.500000000000002));
#794=VERTEX_POINT('',#793);
#795=CARTESIAN_POINT('',(0.0,-1.5,9.500000000000002));
#796=DIRECTION('',(0.0,0.0,1.0));
#797=DIRECTION('',(1.0,0.0,0.0));
#798=AXIS2_PLACEMENT_3D('',#795,#796,#797);
#799=CIRCLE('',#798,0.5);
#800=EDGE_CURVE('',#784,#794,#799,.T.);
#801=ORIENTED_EDGE('',*,*,#800,.T.);
#802=CARTESIAN_POINT('',(-0.5,-1.5,15.700000000000001));
#803=VERTEX_POINT('',#802);
#804=CARTESIAN_POINT('',(-0.5,-1.5,9.500000000000002));
#805=DIRECTION('',(0.0,0.0,1.0));
#806=VECTOR('',#805,6.199999999999999);
#807=LINE('',#804,#806);
#808=EDGE_CURVE('',#794,#803,#807,.T.);
#809=ORIENTED_EDGE('',*,*,#808,.T.);
#810=CARTESIAN_POINT('',(0.0,-1.5,15.700000000000001));
#811=DIRECTION('',(0.0,0.0,1.0));
#812=DIRECTION('',(1.0,0.0,0.0));
#813=AXIS2_PLACEMENT_3D('',#810,#811,#812);
#814=CIRCLE('',#813,0.5);
#815=EDGE_CURVE('',#786,#803,#814,.T.);
#816=ORIENTED_EDGE('',*,*,#815,.F.);
#817=EDGE_LOOP('',(#792,#801,#809,#816));
#818=FACE_OUTER_BOUND('',#817,.T.);
#819=ADVANCED_FACE('',(#818),#782,.T.);
#820=CARTESIAN_POINT('',(0.0,-1.5,15.700000000000001));
#821=DIRECTION('',(0.0,0.0,1.0));
#822=DIRECTION('',(1.0,0.0,0.0));
#823=AXIS2_PLACEMENT_3D('',#820,#821,#822);
#824=SPHERICAL_SURFACE('',#823,0.5);
#825=CARTESIAN_POINT('',(-3.061617E-017,-1.5,16.200000000000003));
#826=VERTEX_POINT('',#825);
#827=CARTESIAN_POINT('',(0.0,-1.5,15.700000000000001));
#828=DIRECTION('',(0.0,1.0,0.0));
#829=DIRECTION('',(1.0,0.0,0.0));
#830=AXIS2_PLACEMENT_3D('',#827,#828,#829);
#831=CIRCLE('',#830,0.5);
#832=EDGE_CURVE('',#826,#786,#831,.T.);
#833=ORIENTED_EDGE('',*,*,#832,.F.);
#834=CARTESIAN_POINT('',(0.0,-1.5,15.700000000000001));
#835=DIRECTION('',(0.0,-1.0,0.0));
#836=DIRECTION('',(-1.0,0.0,0.0));
#837=AXIS2_PLACEMENT_3D('',#834,#835,#836);
#838=CIRCLE('',#837,0.5);
#839=EDGE_CURVE('',#826,#803,#838,.T.);
#840=ORIENTED_EDGE('',*,*,#839,.T.);
#841=CARTESIAN_POINT('',(0.0,-1.5,15.700000000000001));
#842=DIRECTION('',(0.0,0.0,1.0));
#843=DIRECTION('',(1.0,0.0,0.0));
#844=AXIS2_PLACEMENT_3D('',#841,#842,#843);
#845=CIRCLE('',#844,0.5);
#846=EDGE_CURVE('',#803,#786,#845,.T.);
#847=ORIENTED_EDGE('',*,*,#846,.T.);
#848=EDGE_LOOP('',(#833,#840,#847));
#849=FACE_OUTER_BOUND('',#848,.T.);
#850=ADVANCED_FACE('',(#849),#824,.T.);
#851=CARTESIAN_POINT('',(0.0,-1.5,15.700000000000001));
#852=DIRECTION('',(0.0,0.0,1.0));
#853=DIRECTION('',(1.0,0.0,0.0));
#854=AXIS2_PLACEMENT_3D('',#851,#852,#853);
#855=SPHERICAL_SURFACE('',#854,0.5);
#856=ORIENTED_EDGE('',*,*,#832,.T.);
#857=ORIENTED_EDGE('',*,*,#815,.T.);
#858=ORIENTED_EDGE('',*,*,#839,.F.);
#859=EDGE_LOOP('',(#856,#857,#858));
#860=FACE_OUTER_BOUND('',#859,.T.);
#861=ADVANCED_FACE('',(#860),#855,.T.);
#862=CARTESIAN_POINT('',(0.0,-1.5,16.200000000000003));
#863=DIRECTION('',(0.0,0.0,-1.0));
#864=DIRECTION('',(1.0,0.0,0.0));
#865=AXIS2_PLACEMENT_3D('',#862,#863,#864);
#866=CYLINDRICAL_SURFACE('',#865,0.5);
#867=ORIENTED_EDGE('',*,*,#791,.T.);
#868=ORIENTED_EDGE('',*,*,#846,.F.);
#869=ORIENTED_EDGE('',*,*,#808,.F.);
#870=CARTESIAN_POINT('',(0.0,-1.5,9.500000000000002));
#871=DIRECTION('',(0.0,0.0,1.0));
#872=DIRECTION('',(1.0,0.0,0.0));
#873=AXIS2_PLACEMENT_3D('',#870,#871,#872);
#874=CIRCLE('',#873,0.5);
#875=EDGE_CURVE('',#794,#784,#874,.T.);
#876=ORIENTED_EDGE('',*,*,#875,.T.);
#877=EDGE_LOOP('',(#867,#868,#869,#876));
#878=FACE_OUTER_BOUND('',#877,.T.);
#879=ADVANCED_FACE('',(#878),#866,.T.);
#880=CARTESIAN_POINT('',(0.0,-1.5,9.500000000000002));
#881=DIRECTION('',(0.0,0.0,1.0));
#882=DIRECTION('',(1.0,0.0,0.0));
#883=AXIS2_PLACEMENT_3D('',#880,#881,#882);
#884=PLANE('',#883);
#885=ORIENTED_EDGE('',*,*,#800,.F.);
#886=ORIENTED_EDGE('',*,*,#875,.F.);
#887=EDGE_LOOP('',(#885,#886));
#888=FACE_OUTER_BOUND('',#887,.T.);
#889=ADVANCED_FACE('',(#888),#884,.F.);
#890=CLOSED_SHELL('',(#819,#850,#861,#879,#889));
#891=MANIFOLD_SOLID_BREP('1D34',#890);
#892=STYLED_ITEM('NONE',(#159),#891);
#893=CARTESIAN_POINT('',(0.0,1.683889E-016,8.000000000000002));
#894=DIRECTION('',(0.0,-1.224647E-016,-1.0));
#895=DIRECTION('',(1.0,0.0,0.0));
#896=AXIS2_PLACEMENT_3D('',#893,#894,#895);
#897=CYLINDRICAL_SURFACE('',#896,2.75);
#898=CARTESIAN_POINT('',(2.75,-1.530808E-017,6.500000000000002));
#899=VERTEX_POINT('',#898);
#900=CARTESIAN_POINT('',(2.75,3.520860E-016,9.500000000000002));
#901=VERTEX_POINT('',#900);
#902=CARTESIAN_POINT('',(2.75,-1.530808E-017,6.500000000000002));
#903=DIRECTION('',(0.0,0.0,1.0));
#904=VECTOR('',#903,3.0);
#905=LINE('',#902,#904);
#906=EDGE_CURVE('',#899,#901,#905,.T.);
#907=ORIENTED_EDGE('',*,*,#906,.F.);
#908=CARTESIAN_POINT('',(-2.75,3.214698E-016,6.500000000000002));
#909=VERTEX_POINT('',#908);
#910=CARTESIAN_POINT('',(0.0,-1.530808E-017,6.500000000000002));
#911=DIRECTION('',(0.0,0.0,-1.0));
#912=DIRECTION('',(1.0,0.0,0.0));
#913=AXIS2_PLACEMENT_3D('',#910,#911,#912);
#914=CIRCLE('',#913,2.75);
#915=EDGE_CURVE('',#909,#899,#914,.T.);
#916=ORIENTED_EDGE('',*,*,#915,.F.);
#917=CARTESIAN_POINT('',(-2.75,6.888638E-016,9.500000000000002));
#918=VERTEX_POINT('',#917);
#919=CARTESIAN_POINT('',(-2.75,3.214698E-016,6.500000000000002));
#920=DIRECTION('',(0.0,0.0,1.0));
#921=VECTOR('',#920,3.0);
#922=LINE('',#919,#921);
#923=EDGE_CURVE('',#909,#918,#922,.T.);
#924=ORIENTED_EDGE('',*,*,#923,.T.);
#925=CARTESIAN_POINT('',(0.0,3.520860E-016,9.500000000000002));
#926=DIRECTION('',(0.0,0.0,1.0));
#927=DIRECTION('',(1.0,0.0,0.0));
#928=AXIS2_PLACEMENT_3D('',#925,#926,#927);
#929=CIRCLE('',#928,2.75);
#930=EDGE_CURVE('',#901,#918,#929,.T.);
#931=ORIENTED_EDGE('',*,*,#930,.F.);
#932=EDGE_LOOP('',(#907,#916,#924,#931));
#933=FACE_OUTER_BOUND('',#932,.T.);
#934=ADVANCED_FACE('',(#933),#897,.T.);
#935=CARTESIAN_POINT('',(0.0,1.683889E-016,8.000000000000002));
#936=DIRECTION('',(0.0,-1.224647E-016,-1.0));
#937=DIRECTION('',(1.0,0.0,0.0));
#938=AXIS2_PLACEMENT_3D('',#935,#936,#937);
#939=CYLINDRICAL_SURFACE('',#938,2.75);
#940=ORIENTED_EDGE('',*,*,#906,.T.);
#941=CARTESIAN_POINT('',(0.0,3.520860E-016,9.500000000000002));
#942=DIRECTION('',(0.0,0.0,1.0));
#943=DIRECTION('',(1.0,0.0,0.0));
#944=AXIS2_PLACEMENT_3D('',#941,#942,#943);
#945=CIRCLE('',#944,2.75);
#946=EDGE_CURVE('',#918,#901,#945,.T.);
#947=ORIENTED_EDGE('',*,*,#946,.F.);
#948=ORIENTED_EDGE('',*,*,#923,.F.);
#949=CARTESIAN_POINT('',(0.0,-1.530808E-017,6.500000000000002));
#950=DIRECTION('',(0.0,0.0,-1.0));
#951=DIRECTION('',(1.0,0.0,0.0));
#952=AXIS2_PLACEMENT_3D('',#949,#950,#951);
#953=CIRCLE('',#952,2.75);
#954=EDGE_CURVE('',#899,#909,#953,.T.);
#955=ORIENTED_EDGE('',*,*,#954,.F.);
#956=EDGE_LOOP('',(#940,#947,#948,#955));
#957=FACE_OUTER_BOUND('',#956,.T.);
#958=ADVANCED_FACE('',(#957),#939,.T.);
#959=CARTESIAN_POINT('',(0.0,3.520860E-016,9.500000000000002));
#960=DIRECTION('',(0.0,0.0,1.0));
#961=DIRECTION('',(-1.0,0.0,0.0));
#962=AXIS2_PLACEMENT_3D('',#959,#960,#961);
#963=PLANE('',#962);
#964=ORIENTED_EDGE('',*,*,#930,.T.);
#965=ORIENTED_EDGE('',*,*,#946,.T.);
#966=EDGE_LOOP('',(#964,#965));
#967=FACE_OUTER_BOUND('',#966,.T.);
#968=ADVANCED_FACE('',(#967),#963,.T.);
#969=CARTESIAN_POINT('',(0.0,-1.530808E-017,6.500000000000002));
#970=DIRECTION('',(0.0,0.0,-1.0));
#971=DIRECTION('',(1.0,0.0,0.0));
#972=AXIS2_PLACEMENT_3D('',#969,#970,#971);
#973=PLANE('',#972);
#974=ORIENTED_EDGE('',*,*,#954,.T.);
#975=ORIENTED_EDGE('',*,*,#915,.T.);
#976=EDGE_LOOP('',(#974,#975));
#977=FACE_OUTER_BOUND('',#976,.T.);
#978=ADVANCED_FACE('',(#977),#973,.T.);
#979=CLOSED_SHELL('',(#934,#958,#968,#978));
#980=MANIFOLD_SOLID_BREP('1D21',#979);
#981=STYLED_ITEM('NONE',(#613),#980);
#982=CARTESIAN_POINT('',(0.0,1.5,19.0));
#983=DIRECTION('',(0.0,0.0,-1.0));
#984=DIRECTION('',(1.0,0.0,0.0));
#985=AXIS2_PLACEMENT_3D('',#982,#983,#984);
#986=CYLINDRICAL_SURFACE('',#985,1.0);
#987=CARTESIAN_POINT('',(1.0,1.5,19.0));
#988=VERTEX_POINT('',#987);
#989=CARTESIAN_POINT('',(1.0,1.5,9.500000000000002));
#990=VERTEX_POINT('',#989);
#991=CARTESIAN_POINT('',(1.0,1.5,19.0));
#992=DIRECTION('',(0.0,0.0,-1.0));
#993=VECTOR('',#992,9.499999999999998);
#994=LINE('',#991,#993);
#995=EDGE_CURVE('',#988,#990,#994,.T.);
#996=ORIENTED_EDGE('',*,*,#995,.F.);
#997=CARTESIAN_POINT('',(-1.0,1.5,19.0));
#998=VERTEX_POINT('',#997);
#999=CARTESIAN_POINT('',(0.0,1.5,19.0));
#1000=DIRECTION('',(0.0,0.0,-1.0));
#1001=DIRECTION('',(1.0,0.0,0.0));
#1002=AXIS2_PLACEMENT_3D('',#999,#1000,#1001);
#1003=CIRCLE('',#1002,1.0);
#1004=EDGE_CURVE('',#998,#988,#1003,.T.);
#1005=ORIENTED_EDGE('',*,*,#1004,.F.);
#1006=CARTESIAN_POINT('',(-1.0,1.5,9.500000000000002));
#1007=VERTEX_POINT('',#1006);
#1008=CARTESIAN_POINT('',(-1.0,1.5,19.0));
#1009=DIRECTION('',(0.0,0.0,-1.0));
#1010=VECTOR('',#1009,9.499999999999998);
#1011=LINE('',#1008,#1010);
#1012=EDGE_CURVE('',#998,#1007,#1011,.T.);
#1013=ORIENTED_EDGE('',*,*,#1012,.T.);
#1014=CARTESIAN_POINT('',(0.0,1.5,9.500000000000002));
#1015=DIRECTION('',(0.0,0.0,1.0));
#1016=DIRECTION('',(1.0,0.0,0.0));
#1017=AXIS2_PLACEMENT_3D('',#1014,#1015,#1016);
#1018=CIRCLE('',#1017,1.0);
#1019=EDGE_CURVE('',#990,#1007,#1018,.T.);
#1020=ORIENTED_EDGE('',*,*,#1019,.F.);
#1021=EDGE_LOOP('',(#996,#1005,#1013,#1020));
#1022=FACE_OUTER_BOUND('',#1021,.T.);
#1023=ADVANCED_FACE('',(#1022),#986,.F.);
#1024=CARTESIAN_POINT('',(0.0,1.5,19.0));
#1025=DIRECTION('',(0.0,0.0,-1.0));
#1026=DIRECTION('',(1.0,0.0,0.0));
#1027=AXIS2_PLACEMENT_3D('',#1024,#1025,#1026);
#1028=CYLINDRICAL_SURFACE('',#1027,1.0);
#1029=ORIENTED_EDGE('',*,*,#995,.T.);
#1030=CARTESIAN_POINT('',(0.0,1.5,9.500000000000002));
#1031=DIRECTION('',(0.0,0.0,1.0));
#1032=DIRECTION('',(1.0,0.0,0.0));
#1033=AXIS2_PLACEMENT_3D('',#1030,#1031,#1032);
#1034=CIRCLE('',#1033,1.0);
#1035=EDGE_CURVE('',#1007,#990,#1034,.T.);
#1036=ORIENTED_EDGE('',*,*,#1035,.F.);
#1037=ORIENTED_EDGE('',*,*,#1012,.F.);
#1038=CARTESIAN_POINT('',(0.0,1.5,19.0));
#1039=DIRECTION('',(0.0,0.0,-1.0));
#1040=DIRECTION('',(1.0,0.0,0.0));
#1041=AXIS2_PLACEMENT_3D('',#1038,#1039,#1040);
#1042=CIRCLE('',#1041,1.0);
#1043=EDGE_CURVE('',#988,#998,#1042,.T.);
#1044=ORIENTED_EDGE('',*,*,#1043,.F.);
#1045=EDGE_LOOP('',(#1029,#1036,#1037,#1044));
#1046=FACE_OUTER_BOUND('',#1045,.T.);
#1047=ADVANCED_FACE('',(#1046),#1028,.F.);
#1048=CARTESIAN_POINT('',(2.75,0.0,19.0));
#1049=DIRECTION('',(0.0,1.0,0.0));
#1050=DIRECTION('',(0.0,0.0,1.0));
#1051=AXIS2_PLACEMENT_3D('',#1048,#1049,#1050);
#1052=PLANE('',#1051);
#1053=CARTESIAN_POINT('',(2.75,0.0,9.500000000000002));
#1054=VERTEX_POINT('',#1053);
#1055=CARTESIAN_POINT('',(-2.75,3.367779E-016,9.500000000000002));
#1056=VERTEX_POINT('',#1055);
#1057=CARTESIAN_POINT('',(2.75,0.0,9.500000000000002));
#1058=DIRECTION('',(-1.0,0.0,0.0));
#1059=VECTOR('',#1058,5.5);
#1060=LINE('',#1057,#1059);
#1061=EDGE_CURVE('',#1054,#1056,#1060,.T.);
#1062=ORIENTED_EDGE('',*,*,#1061,.F.);
#1063=CARTESIAN_POINT('',(2.75,0.0,19.0));
#1064=VERTEX_POINT('',#1063);
#1065=CARTESIAN_POINT('',(2.75,0.0,19.0));
#1066=DIRECTION('',(0.0,0.0,-1.0));
#1067=VECTOR('',#1066,9.499999999999998);
#1068=LINE('',#1065,#1067);
#1069=EDGE_CURVE('',#1064,#1054,#1068,.T.);
#1070=ORIENTED_EDGE('',*,*,#1069,.F.);
#1071=CARTESIAN_POINT('',(-2.75,3.367779E-016,19.0));
#1072=VERTEX_POINT('',#1071);
#1073=CARTESIAN_POINT('',(-2.75,3.367779E-016,19.0));
#1074=DIRECTION('',(1.0,0.0,0.0));
#1075=VECTOR('',#1074,5.5);
#1076=LINE('',#1073,#1075);
#1077=EDGE_CURVE('',#1072,#1064,#1076,.T.);
#1078=ORIENTED_EDGE('',*,*,#1077,.F.);
#1079=CARTESIAN_POINT('',(-2.75,3.367779E-016,9.500000000000002));
#1080=DIRECTION('',(0.0,0.0,1.0));
#1081=VECTOR('',#1080,9.499999999999998);
#1082=LINE('',#1079,#1081);
#1083=EDGE_CURVE('',#1056,#1072,#1082,.T.);
#1084=ORIENTED_EDGE('',*,*,#1083,.F.);
#1085=EDGE_LOOP('',(#1062,#1070,#1078,#1084));
#1086=FACE_OUTER_BOUND('',#1085,.T.);
#1087=ADVANCED_FACE('',(#1086),#1052,.F.);
#1088=CARTESIAN_POINT('',(0.0,0.0,9.500000000000002));
#1089=DIRECTION('',(0.0,0.0,1.0));
#1090=DIRECTION('',(1.0,0.0,0.0));
#1091=AXIS2_PLACEMENT_3D('',#1088,#1089,#1090);
#1092=CYLINDRICAL_SURFACE('',#1091,2.75);
#1093=ORIENTED_EDGE('',*,*,#1083,.T.);
#1094=CARTESIAN_POINT('',(0.0,0.0,19.0));
#1095=DIRECTION('',(0.0,0.0,-1.0));
#1096=DIRECTION('',(1.0,0.0,0.0));
#1097=AXIS2_PLACEMENT_3D('',#1094,#1095,#1096);
#1098=CIRCLE('',#1097,2.75);
#1099=EDGE_CURVE('',#1072,#1064,#1098,.T.);
#1100=ORIENTED_EDGE('',*,*,#1099,.T.);
#1101=ORIENTED_EDGE('',*,*,#1069,.T.);
#1102=CARTESIAN_POINT('',(0.0,0.0,9.500000000000002));
#1103=DIRECTION('',(0.0,0.0,1.0));
#1104=DIRECTION('',(1.0,0.0,0.0));
#1105=AXIS2_PLACEMENT_3D('',#1102,#1103,#1104);
#1106=CIRCLE('',#1105,2.75);
#1107=EDGE_CURVE('',#1054,#1056,#1106,.T.);
#1108=ORIENTED_EDGE('',*,*,#1107,.T.);
#1109=EDGE_LOOP('',(#1093,#1100,#1101,#1108));
#1110=FACE_OUTER_BOUND('',#1109,.T.);
#1111=ADVANCED_FACE('',(#1110),#1092,.T.);
#1112=CARTESIAN_POINT('',(0.0,0.0,19.0));
#1113=DIRECTION('',(0.0,0.0,1.0));
#1114=DIRECTION('',(1.0,0.0,0.0));
#1115=AXIS2_PLACEMENT_3D('',#1112,#1113,#1114);
#1116=PLANE('',#1115);
#1117=ORIENTED_EDGE('',*,*,#1077,.T.);
#1118=ORIENTED_EDGE('',*,*,#1099,.F.);
#1119=EDGE_LOOP('',(#1117,#1118));
#1120=FACE_OUTER_BOUND('',#1119,.T.);
#1121=ORIENTED_EDGE('',*,*,#1043,.T.);
#1122=ORIENTED_EDGE('',*,*,#1004,.T.);
#1123=EDGE_LOOP('',(#1121,#1122));
#1124=FACE_BOUND('',#1123,.T.);
#1125=ADVANCED_FACE('',(#1120,#1124),#1116,.T.);
#1126=CARTESIAN_POINT('',(0.0,0.0,9.500000000000002));
#1127=DIRECTION('',(0.0,0.0,1.0));
#1128=DIRECTION('',(1.0,0.0,0.0));
#1129=AXIS2_PLACEMENT_3D('',#1126,#1127,#1128);
#1130=PLANE('',#1129);
#1131=ORIENTED_EDGE('',*,*,#1061,.T.);
#1132=ORIENTED_EDGE('',*,*,#1107,.F.);
#1133=EDGE_LOOP('',(#1131,#1132));
#1134=FACE_OUTER_BOUND('',#1133,.T.);
#1135=ORIENTED_EDGE('',*,*,#1019,.T.);
#1136=ORIENTED_EDGE('',*,*,#1035,.T.);
#1137=EDGE_LOOP('',(#1135,#1136));
#1138=FACE_BOUND('',#1137,.T.);
#1139=ADVANCED_FACE('',(#1134,#1138),#1130,.F.);
#1140=CLOSED_SHELL('',(#1023,#1047,#1087,#1111,#1125,#1139));
#1141=MANIFOLD_SOLID_BREP('1D15',#1140);
#1142=STYLED_ITEM('NONE',(#613),#1141);
#1143=CARTESIAN_POINT('',(0.0,0.0,19.5));
#1144=DIRECTION('',(0.0,0.0,-1.0));
#1145=DIRECTION('',(1.0,0.0,0.0));
#1146=AXIS2_PLACEMENT_3D('',#1143,#1144,#1145);
#1147=CYLINDRICAL_SURFACE('',#1146,4.5);
#1148=CARTESIAN_POINT('',(4.5,0.0,19.5));
#1149=VERTEX_POINT('',#1148);
#1150=CARTESIAN_POINT('',(4.5,0.0,6.500000000000002));
#1151=VERTEX_POINT('',#1150);
#1152=CARTESIAN_POINT('',(4.5,0.0,19.5));
#1153=DIRECTION('',(0.0,0.0,-1.0));
#1154=VECTOR('',#1153,12.999999999999998);
#1155=LINE('',#1152,#1154);
#1156=EDGE_CURVE('',#1149,#1151,#1155,.T.);
#1157=ORIENTED_EDGE('',*,*,#1156,.F.);
#1158=CARTESIAN_POINT('',(-4.5,5.510911E-016,19.5));
#1159=VERTEX_POINT('',#1158);
#1160=CARTESIAN_POINT('',(0.0,0.0,19.5));
#1161=DIRECTION('',(0.0,0.0,-1.0));
#1162=DIRECTION('',(1.0,0.0,0.0));
#1163=AXIS2_PLACEMENT_3D('',#1160,#1161,#1162);
#1164=CIRCLE('',#1163,4.5);
#1165=EDGE_CURVE('',#1159,#1149,#1164,.T.);
#1166=ORIENTED_EDGE('',*,*,#1165,.F.);
#1167=CARTESIAN_POINT('',(-4.5,5.510911E-016,6.500000000000002));
#1168=VERTEX_POINT('',#1167);
#1169=CARTESIAN_POINT('',(-4.5,5.510911E-016,19.5));
#1170=DIRECTION('',(0.0,0.0,-1.0));
#1171=VECTOR('',#1170,12.999999999999998);
#1172=LINE('',#1169,#1171);
#1173=EDGE_CURVE('',#1159,#1168,#1172,.T.);
#1174=ORIENTED_EDGE('',*,*,#1173,.T.);
#1175=CARTESIAN_POINT('',(0.0,0.0,6.500000000000002));
#1176=DIRECTION('',(0.0,0.0,1.0));
#1177=DIRECTION('',(1.0,0.0,0.0));
#1178=AXIS2_PLACEMENT_3D('',#1175,#1176,#1177);
#1179=CIRCLE('',#1178,4.5);
#1180=EDGE_CURVE('',#1151,#1168,#1179,.T.);
#1181=ORIENTED_EDGE('',*,*,#1180,.F.);
#1182=EDGE_LOOP('',(#1157,#1166,#1174,#1181));
#1183=FACE_OUTER_BOUND('',#1182,.T.);
#1184=ADVANCED_FACE('',(#1183),#1147,.F.);
#1185=CARTESIAN_POINT('',(0.0,0.0,19.5));
#1186=DIRECTION('',(0.0,0.0,-1.0));
#1187=DIRECTION('',(1.0,0.0,0.0));
#1188=AXIS2_PLACEMENT_3D('',#1185,#1186,#1187);
#1189=CYLINDRICAL_SURFACE('',#1188,4.5);
#1190=ORIENTED_EDGE('',*,*,#1156,.T.);
#1191=CARTESIAN_POINT('',(0.0,0.0,6.500000000000002));
#1192=DIRECTION('',(0.0,0.0,1.0));
#1193=DIRECTION('',(1.0,0.0,0.0));
#1194=AXIS2_PLACEMENT_3D('',#1191,#1192,#1193);
#1195=CIRCLE('',#1194,4.5);
#1196=EDGE_CURVE('',#1168,#1151,#1195,.T.);
#1197=ORIENTED_EDGE('',*,*,#1196,.F.);
#1198=ORIENTED_EDGE('',*,*,#1173,.F.);
#1199=CARTESIAN_POINT('',(0.0,0.0,19.5));
#1200=DIRECTION('',(0.0,0.0,-1.0));
#1201=DIRECTION('',(1.0,0.0,0.0));
#1202=AXIS2_PLACEMENT_3D('',#1199,#1200,#1201);
#1203=CIRCLE('',#1202,4.5);
#1204=EDGE_CURVE('',#1149,#1159,#1203,.T.);
#1205=ORIENTED_EDGE('',*,*,#1204,.F.);
#1206=EDGE_LOOP('',(#1190,#1197,#1198,#1205));
#1207=FACE_OUTER_BOUND('',#1206,.T.);
#1208=ADVANCED_FACE('',(#1207),#1189,.F.);
#1209=CARTESIAN_POINT('',(0.0,0.0,6.500000000000002));
#1210=DIRECTION('',(0.0,0.0,1.0));
#1211=DIRECTION('',(1.0,0.0,0.0));
#1212=AXIS2_PLACEMENT_3D('',#1209,#1210,#1211);
#1213=PLANE('',#1212);
#1214=ORIENTED_EDGE('',*,*,#1180,.T.);
#1215=ORIENTED_EDGE('',*,*,#1196,.T.);
#1216=EDGE_LOOP('',(#1214,#1215));
#1217=FACE_OUTER_BOUND('',#1216,.T.);
#1218=ADVANCED_FACE('',(#1217),#1213,.T.);
#1219=CARTESIAN_POINT('',(0.0,0.0,-1.300000010141164));
#1220=DIRECTION('',(0.0,0.0,1.0));
#1221=DIRECTION('',(-1.0,0.0,0.0));
#1222=AXIS2_PLACEMENT_3D('',#1219,#1220,#1221);
#1223=CONICAL_SURFACE('',#1222,0.999999998205103,44.999999948580005);
#1224=CARTESIAN_POINT('',(5.250000000002387,2.904737509651248,3.700000000058169));
#1225=VERTEX_POINT('',#1224);
#1226=CARTESIAN_POINT('',(5.249999999999783,0.726291952326236,3.000000000000002));
#1227=VERTEX_POINT('',#1226);
#1228=CARTESIAN_POINT('',(5.25,2.904737509655559,3.700000000000001));
#1229=CARTESIAN_POINT('',(5.25,1.74804075354643,3.140016590872151));
#1230=CARTESIAN_POINT('',(5.25,0.726291952316706,3.000000000000002));
#1238=(BOUNDED_CURVE()B_SPLINE_CURVE(2,(#1228,#1229,#1230),.UNSPECIFIED.,.F.,.U.)B_SPLINE_CURVE_WITH_KNOTS((3,3),(0.0,0.229531710052642),.UNSPECIFIED.)CURVE()GEOMETRIC_REPRESENTATION_ITEM()RATIONAL_B_SPLINE_CURVE((1.0,1.01911715404192,1.0))REPRESENTATION_ITEM(''));
#1239=EDGE_CURVE('',#1225,#1227,#1238,.T.);
#1240=ORIENTED_EDGE('',*,*,#1239,.T.);
#1241=CARTESIAN_POINT('',(-5.249999999999783,0.726291952326243,3.000000000000002));
#1242=VERTEX_POINT('',#1241);
#1243=CARTESIAN_POINT('',(0.0,0.0,3.000000000000002));
#1244=DIRECTION('',(0.0,0.0,1.0));
#1245=DIRECTION('',(-1.0,0.0,0.0));
#1246=AXIS2_PLACEMENT_3D('',#1243,#1244,#1245);
#1247=CIRCLE('',#1246,5.3);
#1248=EDGE_CURVE('',#1227,#1242,#1247,.T.);
#1249=ORIENTED_EDGE('',*,*,#1248,.T.);
#1250=CARTESIAN_POINT('',(-5.250000000002387,2.904737509651248,3.700000000058169));
#1251=VERTEX_POINT('',#1250);
#1252=CARTESIAN_POINT('',(-5.25,0.726291952316712,3.000000000000002));
#1253=CARTESIAN_POINT('',(-5.25,1.74804075354644,3.140016590872154));
#1254=CARTESIAN_POINT('',(-5.25,2.904737509655559,3.700000000000001));
#1262=(BOUNDED_CURVE()B_SPLINE_CURVE(2,(#1252,#1253,#1254),.UNSPECIFIED.,.F.,.U.)B_SPLINE_CURVE_WITH_KNOTS((3,3),(0.0,0.229531710052642),.UNSPECIFIED.)CURVE()GEOMETRIC_REPRESENTATION_ITEM()RATIONAL_B_SPLINE_CURVE((1.0,1.01911715404192,1.0))REPRESENTATION_ITEM(''));
#1263=EDGE_CURVE('',#1242,#1251,#1262,.T.);
#1264=ORIENTED_EDGE('',*,*,#1263,.T.);
#1265=CARTESIAN_POINT('',(0.0,0.0,3.700000000000002));
#1266=DIRECTION('',(0.0,0.0,-1.0));
#1267=DIRECTION('',(-1.0,0.0,0.0));
#1268=AXIS2_PLACEMENT_3D('',#1265,#1266,#1267);
#1269=CIRCLE('',#1268,6.0);
#1270=EDGE_CURVE('',#1251,#1225,#1269,.T.);
#1271=ORIENTED_EDGE('',*,*,#1270,.T.);
#1272=EDGE_LOOP('',(#1240,#1249,#1264,#1271));
#1273=FACE_OUTER_BOUND('',#1272,.T.);
#1274=ADVANCED_FACE('',(#1273),#1223,.T.);
#1275=CARTESIAN_POINT('',(-5.775,-5.83,19.5));
#1276=DIRECTION('',(0.0,0.0,1.0));
#1277=DIRECTION('',(1.0,0.0,0.0));
#1278=AXIS2_PLACEMENT_3D('',#1275,#1276,#1277);
#1279=PLANE('',#1278);
#1280=CARTESIAN_POINT('',(5.249999999999783,-0.726291952326235,19.5));
#1281=VERTEX_POINT('',#1280);
#1282=CARTESIAN_POINT('',(5.249999999999783,0.726291952326231,19.5));
#1283=VERTEX_POINT('',#1282);
#1284=CARTESIAN_POINT('',(5.25,-0.726291952326235,19.5));
#1285=DIRECTION('',(0.0,1.0,0.0));
#1286=VECTOR('',#1285,1.452583904652466);
#1287=LINE('',#1284,#1286);
#1288=EDGE_CURVE('',#1281,#1283,#1287,.T.);
#1289=ORIENTED_EDGE('',*,*,#1288,.T.);
#1290=CARTESIAN_POINT('',(-5.249999999999783,0.72629195232624,19.5));
#1291=VERTEX_POINT('',#1290);
#1292=CARTESIAN_POINT('',(0.0,0.0,19.5));
#1293=DIRECTION('',(0.0,0.0,-1.0));
#1294=DIRECTION('',(-1.0,0.0,0.0));
#1295=AXIS2_PLACEMENT_3D('',#1292,#1293,#1294);
#1296=CIRCLE('',#1295,5.3);
#1297=EDGE_CURVE('',#1291,#1283,#1296,.T.);
#1298=ORIENTED_EDGE('',*,*,#1297,.F.);
#1299=CARTESIAN_POINT('',(-5.249999999999783,-0.726291952326244,19.5));
#1300=VERTEX_POINT('',#1299);
#1301=CARTESIAN_POINT('',(-5.25,0.72629195232624,19.5));
#1302=DIRECTION('',(0.0,-1.0,0.0));
#1303=VECTOR('',#1302,1.452583904652484);
#1304=LINE('',#1301,#1303);
#1305=EDGE_CURVE('',#1291,#1300,#1304,.T.);
#1306=ORIENTED_EDGE('',*,*,#1305,.T.);
#1307=CARTESIAN_POINT('',(0.0,0.0,19.5));
#1308=DIRECTION('',(0.0,0.0,-1.0));
#1309=DIRECTION('',(-1.0,0.0,0.0));
#1310=AXIS2_PLACEMENT_3D('',#1307,#1308,#1309);
#1311=CIRCLE('',#1310,5.3);
#1312=EDGE_CURVE('',#1281,#1300,#1311,.T.);
#1313=ORIENTED_EDGE('',*,*,#1312,.F.);
#1314=EDGE_LOOP('',(#1289,#1298,#1306,#1313));
#1315=FACE_OUTER_BOUND('',#1314,.T.);
#1316=ORIENTED_EDGE('',*,*,#1204,.T.);
#1317=ORIENTED_EDGE('',*,*,#1165,.T.);
#1318=EDGE_LOOP('',(#1316,#1317));
#1319=FACE_BOUND('',#1318,.T.);
#1320=ADVANCED_FACE('',(#1315,#1319),#1279,.T.);
#1321=CARTESIAN_POINT('',(0.0,0.0,23.80000001014119));
#1322=DIRECTION('',(0.0,0.0,-1.0));
#1323=DIRECTION('',(-1.0,0.0,0.0));
#1324=AXIS2_PLACEMENT_3D('',#1321,#1322,#1323);
#1325=CONICAL_SURFACE('',#1324,0.999999998205099,44.999999948579884);
#1326=CARTESIAN_POINT('',(5.250000000002387,2.904737509651248,18.799999999941832));
#1327=VERTEX_POINT('',#1326);
#1328=CARTESIAN_POINT('',(5.25,0.726291952316695,19.5));
#1329=CARTESIAN_POINT('',(5.25,1.74804075354643,19.359983409127899));
#1330=CARTESIAN_POINT('',(5.25,2.904737509655559,18.800000000000004));
#1338=(BOUNDED_CURVE()B_SPLINE_CURVE(2,(#1328,#1329,#1330),.UNSPECIFIED.,.F.,.U.)B_SPLINE_CURVE_WITH_KNOTS((3,3),(0.0,0.229531710052643),.UNSPECIFIED.)CURVE()GEOMETRIC_REPRESENTATION_ITEM()RATIONAL_B_SPLINE_CURVE((1.0,1.01911715404195,1.0))REPRESENTATION_ITEM(''));
#1339=EDGE_CURVE('',#1283,#1327,#1338,.T.);
#1340=ORIENTED_EDGE('',*,*,#1339,.T.);
#1341=CARTESIAN_POINT('',(-5.250000000002387,2.904737509651252,18.799999999941832));
#1342=VERTEX_POINT('',#1341);
#1343=CARTESIAN_POINT('',(0.0,0.0,18.800000000000004));
#1344=DIRECTION('',(0.0,0.0,1.0));
#1345=DIRECTION('',(-1.0,0.0,0.0));
#1346=AXIS2_PLACEMENT_3D('',#1343,#1344,#1345);
#1347=CIRCLE('',#1346,6.0);
#1348=EDGE_CURVE('',#1327,#1342,#1347,.T.);
#1349=ORIENTED_EDGE('',*,*,#1348,.T.);
#1350=CARTESIAN_POINT('',(-5.25,2.90473750965557,18.800000000000004));
#1351=CARTESIAN_POINT('',(-5.25,1.74804075354644,19.359983409127899));
#1352=CARTESIAN_POINT('',(-5.25,0.726291952316705,19.5));
#1360=(BOUNDED_CURVE()B_SPLINE_CURVE(2,(#1350,#1351,#1352),.UNSPECIFIED.,.F.,.U.)B_SPLINE_CURVE_WITH_KNOTS((3,3),(0.0,0.229531710052643),.UNSPECIFIED.)CURVE()GEOMETRIC_REPRESENTATION_ITEM()RATIONAL_B_SPLINE_CURVE((1.0,1.01911715404191,1.0))REPRESENTATION_ITEM(''));
#1361=EDGE_CURVE('',#1342,#1291,#1360,.T.);
#1362=ORIENTED_EDGE('',*,*,#1361,.T.);
#1363=ORIENTED_EDGE('',*,*,#1297,.T.);
#1364=EDGE_LOOP('',(#1340,#1349,#1362,#1363));
#1365=FACE_OUTER_BOUND('',#1364,.T.);
#1366=ADVANCED_FACE('',(#1365),#1325,.T.);
#1367=CARTESIAN_POINT('',(0.0,0.0,23.80000001014119));
#1368=DIRECTION('',(0.0,0.0,-1.0));
#1369=DIRECTION('',(-1.0,0.0,0.0));
#1370=AXIS2_PLACEMENT_3D('',#1367,#1368,#1369);
#1371=CONICAL_SURFACE('',#1370,0.999999998205099,44.999999948579884);
#1372=CARTESIAN_POINT('',(5.250000000002385,-2.904737509651254,18.799999999941832));
#1373=VERTEX_POINT('',#1372);
#1374=CARTESIAN_POINT('',(5.25,-2.904737509655571,18.800000000000004));
#1375=CARTESIAN_POINT('',(5.25,-1.74804075354644,19.359983409127899));
#1376=CARTESIAN_POINT('',(5.25,-0.726291952316699,19.5));
#1384=(BOUNDED_CURVE()B_SPLINE_CURVE(2,(#1374,#1375,#1376),.UNSPECIFIED.,.F.,.U.)B_SPLINE_CURVE_WITH_KNOTS((3,3),(0.0,0.229531710052643),.UNSPECIFIED.)CURVE()GEOMETRIC_REPRESENTATION_ITEM()RATIONAL_B_SPLINE_CURVE((1.0,1.01911715404191,1.0))REPRESENTATION_ITEM(''));
#1385=EDGE_CURVE('',#1373,#1281,#1384,.T.);
#1386=ORIENTED_EDGE('',*,*,#1385,.T.);
#1387=ORIENTED_EDGE('',*,*,#1312,.T.);
#1388=CARTESIAN_POINT('',(-5.250000000002385,-2.904737509651258,18.799999999941832));
#1389=VERTEX_POINT('',#1388);
#1390=CARTESIAN_POINT('',(-5.25,-0.726291952316709,19.5));
#1391=CARTESIAN_POINT('',(-5.25,-1.74804075354644,19.359983409127899));
#1392=CARTESIAN_POINT('',(-5.25,-2.904737509655571,18.800000000000004));
#1400=(BOUNDED_CURVE()B_SPLINE_CURVE(2,(#1390,#1391,#1392),.UNSPECIFIED.,.F.,.U.)B_SPLINE_CURVE_WITH_KNOTS((3,3),(0.0,0.229531710052642),.UNSPECIFIED.)CURVE()GEOMETRIC_REPRESENTATION_ITEM()RATIONAL_B_SPLINE_CURVE((1.0,1.01911715404189,1.0))REPRESENTATION_ITEM(''));
#1401=EDGE_CURVE('',#1300,#1389,#1400,.T.);
#1402=ORIENTED_EDGE('',*,*,#1401,.T.);
#1403=CARTESIAN_POINT('',(0.0,0.0,18.800000000000004));
#1404=DIRECTION('',(0.0,0.0,1.0));
#1405=DIRECTION('',(-1.0,0.0,0.0));
#1406=AXIS2_PLACEMENT_3D('',#1403,#1404,#1405);
#1407=CIRCLE('',#1406,6.0);
#1408=EDGE_CURVE('',#1389,#1373,#1407,.T.);
#1409=ORIENTED_EDGE('',*,*,#1408,.T.);
#1410=EDGE_LOOP('',(#1386,#1387,#1402,#1409));
#1411=FACE_OUTER_BOUND('',#1410,.T.);
#1412=ADVANCED_FACE('',(#1411),#1371,.T.);
#1413=CARTESIAN_POINT('',(0.0,0.0,2.944999999999999));
#1414=DIRECTION('',(0.0,0.0,1.0));
#1415=DIRECTION('',(1.0,0.0,0.0));
#1416=AXIS2_PLACEMENT_3D('',#1413,#1414,#1415);
#1417=CYLINDRICAL_SURFACE('',#1416,6.0);
#1418=CARTESIAN_POINT('',(5.25,2.904737509655559,18.799999999941836));
#1419=DIRECTION('',(0.0,0.0,-1.0));
#1420=VECTOR('',#1419,15.099999999883666);
#1421=LINE('',#1418,#1420);
#1422=EDGE_CURVE('',#1327,#1225,#1421,.T.);
#1423=ORIENTED_EDGE('',*,*,#1422,.T.);
#1424=ORIENTED_EDGE('',*,*,#1270,.F.);
#1425=CARTESIAN_POINT('',(-5.25,2.904737509655559,3.700000000058169));
#1426=DIRECTION('',(0.0,0.0,1.0));
#1427=VECTOR('',#1426,15.099999999883668);
#1428=LINE('',#1425,#1427);
#1429=EDGE_CURVE('',#1251,#1342,#1428,.T.);
#1430=ORIENTED_EDGE('',*,*,#1429,.T.);
#1431=ORIENTED_EDGE('',*,*,#1348,.F.);
#1432=EDGE_LOOP('',(#1423,#1424,#1430,#1431));
#1433=FACE_OUTER_BOUND('',#1432,.T.);
#1434=ADVANCED_FACE('',(#1433),#1417,.T.);
#1435=CARTESIAN_POINT('',(0.0,0.0,2.944999999999999));
#1436=DIRECTION('',(0.0,0.0,1.0));
#1437=DIRECTION('',(1.0,0.0,0.0));
#1438=AXIS2_PLACEMENT_3D('',#1435,#1436,#1437);
#1439=CYLINDRICAL_SURFACE('',#1438,6.0);
#1440=CARTESIAN_POINT('',(5.250000000002385,-2.904737509651254,3.70000000005817));
#1441=VERTEX_POINT('',#1440);
#1442=CARTESIAN_POINT('',(5.25,-2.904737509655559,3.70000000005817));
#1443=DIRECTION('',(0.0,0.0,1.0));
#1444=VECTOR('',#1443,15.099999999883662);
#1445=LINE('',#1442,#1444);
#1446=EDGE_CURVE('',#1441,#1373,#1445,.T.);
#1447=ORIENTED_EDGE('',*,*,#1446,.T.);
#1448=ORIENTED_EDGE('',*,*,#1408,.F.);
#1449=CARTESIAN_POINT('',(-5.250000000002385,-2.904737509651258,3.70000000005817));
#1450=VERTEX_POINT('',#1449);
#1451=CARTESIAN_POINT('',(-5.25,-2.904737509655571,18.799999999941836));
#1452=DIRECTION('',(0.0,0.0,-1.0));
#1453=VECTOR('',#1452,15.099999999883664);
#1454=LINE('',#1451,#1453);
#1455=EDGE_CURVE('',#1389,#1450,#1454,.T.);
#1456=ORIENTED_EDGE('',*,*,#1455,.T.);
#1457=CARTESIAN_POINT('',(0.0,0.0,3.700000000000002));
#1458=DIRECTION('',(0.0,0.0,-1.0));
#1459=DIRECTION('',(-1.0,0.0,0.0));
#1460=AXIS2_PLACEMENT_3D('',#1457,#1458,#1459);
#1461=CIRCLE('',#1460,6.0);
#1462=EDGE_CURVE('',#1441,#1450,#1461,.T.);
#1463=ORIENTED_EDGE('',*,*,#1462,.F.);
#1464=EDGE_LOOP('',(#1447,#1448,#1456,#1463));
#1465=FACE_OUTER_BOUND('',#1464,.T.);
#1466=ADVANCED_FACE('',(#1465),#1439,.T.);
#1467=CARTESIAN_POINT('',(0.0,0.0,-1.300000010141164));
#1468=DIRECTION('',(0.0,0.0,1.0));
#1469=DIRECTION('',(-1.0,0.0,0.0));
#1470=AXIS2_PLACEMENT_3D('',#1467,#1468,#1469);
#1471=CONICAL_SURFACE('',#1470,0.999999998205103,44.999999948580005);
#1472=CARTESIAN_POINT('',(5.249999999999783,-0.72629195232624,3.000000000000002));
#1473=VERTEX_POINT('',#1472);
#1474=CARTESIAN_POINT('',(5.25,-0.726291952316709,3.000000000000002));
#1475=CARTESIAN_POINT('',(5.25,-1.74804075354644,3.140016590872152));
#1476=CARTESIAN_POINT('',(5.25,-2.904737509655571,3.700000000000002));
#1484=(BOUNDED_CURVE()B_SPLINE_CURVE(2,(#1474,#1475,#1476),.UNSPECIFIED.,.F.,.U.)B_SPLINE_CURVE_WITH_KNOTS((3,3),(0.0,0.229531710052642),.UNSPECIFIED.)CURVE()GEOMETRIC_REPRESENTATION_ITEM()RATIONAL_B_SPLINE_CURVE((1.0,1.01911715404192,1.0))REPRESENTATION_ITEM(''));
#1485=EDGE_CURVE('',#1473,#1441,#1484,.T.);
#1486=ORIENTED_EDGE('',*,*,#1485,.T.);
#1487=ORIENTED_EDGE('',*,*,#1462,.T.);
#1488=CARTESIAN_POINT('',(-5.249999999999783,-0.726291952326247,3.000000000000002));
#1489=VERTEX_POINT('',#1488);
#1490=CARTESIAN_POINT('',(-5.25,-2.904737509655571,3.700000000000002));
#1491=CARTESIAN_POINT('',(-5.25,-1.74804075354644,3.140016590872153));
#1492=CARTESIAN_POINT('',(-5.25,-0.726291952316716,3.000000000000002));
#1500=(BOUNDED_CURVE()B_SPLINE_CURVE(2,(#1490,#1491,#1492),.UNSPECIFIED.,.F.,.U.)B_SPLINE_CURVE_WITH_KNOTS((3,3),(0.0,0.229531710052642),.UNSPECIFIED.)CURVE()GEOMETRIC_REPRESENTATION_ITEM()RATIONAL_B_SPLINE_CURVE((1.0,1.01911715404191,1.0))REPRESENTATION_ITEM(''));
#1501=EDGE_CURVE('',#1450,#1489,#1500,.T.);
#1502=ORIENTED_EDGE('',*,*,#1501,.T.);
#1503=CARTESIAN_POINT('',(0.0,0.0,3.000000000000002));
#1504=DIRECTION('',(0.0,0.0,1.0));
#1505=DIRECTION('',(-1.0,0.0,0.0));
#1506=AXIS2_PLACEMENT_3D('',#1503,#1504,#1505);
#1507=CIRCLE('',#1506,5.3);
#1508=EDGE_CURVE('',#1489,#1473,#1507,.T.);
#1509=ORIENTED_EDGE('',*,*,#1508,.T.);
#1510=EDGE_LOOP('',(#1486,#1487,#1502,#1509));
#1511=FACE_OUTER_BOUND('',#1510,.T.);
#1512=ADVANCED_FACE('',(#1511),#1471,.T.);
#1513=CARTESIAN_POINT('',(5.775,5.83,3.000000000000002));
#1514=DIRECTION('',(0.0,0.0,-1.0));
#1515=DIRECTION('',(-1.0,0.0,0.0));
#1516=AXIS2_PLACEMENT_3D('',#1513,#1514,#1515);
#1517=PLANE('',#1516);
#1518=CARTESIAN_POINT('',(5.25,0.726291952326236,3.000000000000002));
#1519=DIRECTION('',(0.0,-1.0,0.0));
#1520=VECTOR('',#1519,1.452583904652476);
#1521=LINE('',#1518,#1520);
#1522=EDGE_CURVE('',#1227,#1473,#1521,.T.);
#1523=ORIENTED_EDGE('',*,*,#1522,.T.);
#1524=ORIENTED_EDGE('',*,*,#1508,.F.);
#1525=CARTESIAN_POINT('',(-5.25,-0.726291952326246,3.000000000000002));
#1526=DIRECTION('',(0.0,1.0,0.0));
#1527=VECTOR('',#1526,1.45258390465249);
#1528=LINE('',#1525,#1527);
#1529=EDGE_CURVE('',#1489,#1242,#1528,.T.);
#1530=ORIENTED_EDGE('',*,*,#1529,.T.);
#1531=ORIENTED_EDGE('',*,*,#1248,.F.);
#1532=EDGE_LOOP('',(#1523,#1524,#1530,#1531));
#1533=FACE_OUTER_BOUND('',#1532,.T.);
#1534=ADVANCED_FACE('',(#1533),#1517,.T.);
#1535=CARTESIAN_POINT('',(-5.25,-3.195211260621128,2.175000000000003));
#1536=DIRECTION('',(1.0,0.0,0.0));
#1537=DIRECTION('',(0.0,0.0,-1.0));
#1538=AXIS2_PLACEMENT_3D('',#1535,#1536,#1537);
#1539=PLANE('',#1538);
#1540=ORIENTED_EDGE('',*,*,#1263,.F.);
#1541=ORIENTED_EDGE('',*,*,#1529,.F.);
#1542=ORIENTED_EDGE('',*,*,#1501,.F.);
#1543=ORIENTED_EDGE('',*,*,#1455,.F.);
#1544=ORIENTED_EDGE('',*,*,#1401,.F.);
#1545=ORIENTED_EDGE('',*,*,#1305,.F.);
#1546=ORIENTED_EDGE('',*,*,#1361,.F.);
#1547=ORIENTED_EDGE('',*,*,#1429,.F.);
#1548=EDGE_LOOP('',(#1540,#1541,#1542,#1543,#1544,#1545,#1546,#1547));
#1549=FACE_OUTER_BOUND('',#1548,.T.);
#1550=ADVANCED_FACE('',(#1549),#1539,.F.);
#1551=CARTESIAN_POINT('',(5.25,-3.195211260621127,2.175000000000003));
#1552=DIRECTION('',(-1.0,0.0,0.0));
#1553=DIRECTION('',(0.0,0.0,1.0));
#1554=AXIS2_PLACEMENT_3D('',#1551,#1552,#1553);
#1555=PLANE('',#1554);
#1556=ORIENTED_EDGE('',*,*,#1339,.F.);
#1557=ORIENTED_EDGE('',*,*,#1288,.F.);
#1558=ORIENTED_EDGE('',*,*,#1385,.F.);
#1559=ORIENTED_EDGE('',*,*,#1446,.F.);
#1560=ORIENTED_EDGE('',*,*,#1485,.F.);
#1561=ORIENTED_EDGE('',*,*,#1522,.F.);
#1562=ORIENTED_EDGE('',*,*,#1239,.F.);
#1563=ORIENTED_EDGE('',*,*,#1422,.F.);
#1564=EDGE_LOOP('',(#1556,#1557,#1558,#1559,#1560,#1561,#1562,#1563));
#1565=FACE_OUTER_BOUND('',#1564,.T.);
#1566=ADVANCED_FACE('',(#1565),#1555,.F.);
#1567=CLOSED_SHELL('',(#1184,#1208,#1218,#1274,#1320,#1366,#1412,#1434,#1466,#1512,#1534,#1550,#1566));
#1568=MANIFOLD_SOLID_BREP('1BC8',#1567);
#1569=COLOUR_RGB('254',0.866,0.866,0.866);
#1570=SURFACE_STYLE_USAGE(.BOTH.,#1571);
#1571=SURFACE_SIDE_STYLE('NONE',(#1572));
#1572=SURFACE_STYLE_FILL_AREA(#1573);
#1573=FILL_AREA_STYLE('NONE',(#1574));
#1574=FILL_AREA_STYLE_COLOUR('NONE',#1569);
#1575=PRESENTATION_STYLE_ASSIGNMENT((#1570));
#1576=STYLED_ITEM('NONE',(#1575),#1568);
#1577=ADVANCED_BREP_SHAPE_REPRESENTATION('ABSR1',(#152,#250,#339,#428,#517,#606,#776,#891,#980,#1141,#1568),#28);
#1578=SHAPE_REPRESENTATION_RELATIONSHIP('SRRPL1','',#1577,#62);
ENDSEC;
END-ISO-10303-21;
