ISO-10303-21;
HEADER;
/****************************************************************
 * Generated by software with PDElib inside                    *
 * PDElib Version v51a, created Fri 09/10/2010                  *
 * ITI Transcendata (http://www.transcendata.com/)              *
 ****************************************************************/
FILE_DESCRIPTION((''),'2;1');
FILE_NAME('MIL-MAX_851-43-004-20-001000.stp','2012-04-19T11:40:02',(''),(''),'Mechanical Desktop 2011','Mechanical Desktop 2011',', , ');
FILE_SCHEMA(('AUTOMOTIVE_DESIGN { 1 2 10303 214 1 1 1 1 }'));
ENDSEC;
DATA;
#10=(NAMED_UNIT(*)PLANE_ANGLE_UNIT()SI_UNIT($,.RADIAN.));
#11=DIMENSIONAL_EXPONENTS(0.0,0.0,0.0,0.0,0.0,0.0,0.0);
#12=PLANE_ANGLE_MEASURE_WITH_UNIT(PLANE_ANGLE_MEASURE(0.0174532925),#10);
#16=(CONVERSION_BASED_UNIT('DEGREE',#12)NAMED_UNIT(#11)PLANE_ANGLE_UNIT());
#20=(NAMED_UNIT(*)SI_UNIT($,.STERADIAN.)SOLID_ANGLE_UNIT());
#24=(LENGTH_UNIT()NAMED_UNIT(*)SI_UNIT(.MILLI.,.METRE.));
#26=UNCERTAINTY_MEASURE_WITH_UNIT(LENGTH_MEASURE(0.000001),#24,'DISTANCE_ACCURACY_VALUE','');
#28=(GEOMETRIC_REPRESENTATION_CONTEXT(3)GLOBAL_UNCERTAINTY_ASSIGNED_CONTEXT((#26))GLOBAL_UNIT_ASSIGNED_CONTEXT((#16,#20,#24))REPRESENTATION_CONTEXT('','3D'));
#29=APPLICATION_CONTEXT('automotive design');
#30=APPLICATION_PROTOCOL_DEFINITION('INTERNATIONAL_STANDARD','automotive_design',1998,#29);
#31=PRODUCT_CONTEXT('3D Mechanical Parts',#29,'mechanical');
#32=PRODUCT('Product','Product','',(#31));
#33=PRODUCT_RELATED_PRODUCT_CATEGORY('part',$,(#32));
#34=PRODUCT_CATEGORY('part',$);
#35=PERSON('1','Design','Joe',$,$,$);
#36=ORGANIZATION($,'None','None');
#37=PERSON_AND_ORGANIZATION(#35,#36);
#38=PERSON_AND_ORGANIZATION_ROLE('design_owner');
#39=APPLIED_PERSON_AND_ORGANIZATION_ASSIGNMENT(#37,#38,(#32));
#40=PRODUCT_DEFINITION_FORMATION_WITH_SPECIFIED_SOURCE('None','',#32,.BOUGHT.);
#41=PERSON('2','Creator','Joe',$,$,$);
#42=ORGANIZATION($,'None','None');
#43=PERSON_AND_ORGANIZATION(#41,#42);
#44=PERSON_AND_ORGANIZATION_ROLE('creator');
#45=APPLIED_PERSON_AND_ORGANIZATION_ASSIGNMENT(#43,#44,(#40));
#46=PERSON('3','Supplier','Joe',$,$,$);
#47=ORGANIZATION($,'None','None');
#48=PERSON_AND_ORGANIZATION(#46,#47);
#49=PERSON_AND_ORGANIZATION_ROLE('design_supplier');
#50=APPLIED_PERSON_AND_ORGANIZATION_ASSIGNMENT(#48,#49,(#40));
#51=PRODUCT_DEFINITION_CONTEXT('part definition',#29,'design');
#52=PRODUCT_DEFINITION('None','',#40,#51);
#53=PERSON('4','Creator','Joe',$,$,$);
#54=ORGANIZATION($,'None','None');
#55=PERSON_AND_ORGANIZATION(#53,#54);
#56=PERSON_AND_ORGANIZATION_ROLE('creator');
#57=APPLIED_PERSON_AND_ORGANIZATION_ASSIGNMENT(#55,#56,(#52));
#58=CARTESIAN_POINT('NONE',(0.0,0.0,0.0));
#59=DIRECTION('NONE',(0.0,0.0,1.0));
#60=DIRECTION('NONE',(1.0,0.0,0.0));
#61=AXIS2_PLACEMENT_3D('NONE',#58,#59,#60);
#62=SHAPE_REPRESENTATION('SR1',(#61),#28);
#63=PRODUCT_DEFINITION_SHAPE('PDS1','Test Part',#52);
#64=SHAPE_DEFINITION_REPRESENTATION(#63,#62);
#65=CARTESIAN_POINT('',(-1.905,0.5,0.605000000000001));
#66=DIRECTION('',(-1.0,1.836970E-016,2.220446E-016));
#67=DIRECTION('',(0.0,0.0,-1.0));
#68=AXIS2_PLACEMENT_3D('',#65,#66,#67);
#69=TOROIDAL_SURFACE('',#68,0.5,0.225);
#70=CARTESIAN_POINT('',(-1.905,0.5,1.330000000000001));
#71=VERTEX_POINT('',#70);
#72=CARTESIAN_POINT('',(-1.905,-0.225,0.605000000000001));
#73=VERTEX_POINT('',#72);
#74=CARTESIAN_POINT('',(-1.905,0.5,0.605000000000001));
#75=DIRECTION('',(1.0,0.0,0.0));
#76=DIRECTION('',(0.0,0.0,-1.0));
#77=AXIS2_PLACEMENT_3D('',#74,#75,#76);
#78=CIRCLE('',#77,0.725);
#79=EDGE_CURVE('',#71,#73,#78,.T.);
#80=ORIENTED_EDGE('',*,*,#79,.F.);
#81=CARTESIAN_POINT('',(-1.905,0.5,0.88));
#82=VERTEX_POINT('',#81);
#83=CARTESIAN_POINT('',(-1.905,0.5,1.105));
#84=DIRECTION('',(0.0,-1.0,0.0));
#85=DIRECTION('',(0.0,0.0,1.0));
#86=AXIS2_PLACEMENT_3D('',#83,#84,#85);
#87=CIRCLE('',#86,0.225);
#88=EDGE_CURVE('',#71,#82,#87,.T.);
#89=ORIENTED_EDGE('',*,*,#88,.T.);
#90=CARTESIAN_POINT('',(-1.905,0.225,0.605000000000001));
#91=VERTEX_POINT('',#90);
#92=CARTESIAN_POINT('',(-1.905,0.5,0.605000000000001));
#93=DIRECTION('',(1.0,0.0,0.0));
#94=DIRECTION('',(0.0,0.0,-1.0));
#95=AXIS2_PLACEMENT_3D('',#92,#93,#94);
#96=CIRCLE('',#95,0.275);
#97=EDGE_CURVE('',#82,#91,#96,.T.);
#98=ORIENTED_EDGE('',*,*,#97,.T.);
#99=CARTESIAN_POINT('',(-1.905,3.499428E-016,0.605000000000001));
#100=DIRECTION('',(0.0,0.0,-1.0));
#101=DIRECTION('',(0.0,-1.0,0.0));
#102=AXIS2_PLACEMENT_3D('',#99,#100,#101);
#103=CIRCLE('',#102,0.225);
#104=EDGE_CURVE('',#73,#91,#103,.T.);
#105=ORIENTED_EDGE('',*,*,#104,.F.);
#106=EDGE_LOOP('',(#80,#89,#98,#105));
#107=FACE_OUTER_BOUND('',#106,.T.);
#108=ADVANCED_FACE('',(#107),#69,.T.);
#109=CARTESIAN_POINT('',(-1.905000000000001,3.499428E-016,-3.599999999999999));
#110=DIRECTION('',(2.220446E-016,-4.078893E-032,1.0));
#111=DIRECTION('',(0.0,-1.0,0.0));
#112=AXIS2_PLACEMENT_3D('',#109,#110,#111);
#113=CYLINDRICAL_SURFACE('',#112,0.225);
#114=CARTESIAN_POINT('',(-1.905000000000001,-0.225,-3.599999999999999));
#115=VERTEX_POINT('',#114);
#116=CARTESIAN_POINT('',(-1.905,-0.225,0.605000000000001));
#117=DIRECTION('',(0.0,0.0,-1.0));
#118=VECTOR('',#117,4.205);
#119=LINE('',#116,#118);
#120=EDGE_CURVE('',#73,#115,#119,.T.);
#121=ORIENTED_EDGE('',*,*,#120,.F.);
#122=ORIENTED_EDGE('',*,*,#104,.T.);
#123=CARTESIAN_POINT('',(-1.905000000000001,0.225,-3.599999999999999));
#124=VERTEX_POINT('',#123);
#125=CARTESIAN_POINT('',(-1.905,0.225,0.605000000000001));
#126=DIRECTION('',(0.0,0.0,-1.0));
#127=VECTOR('',#126,4.205);
#128=LINE('',#125,#127);
#129=EDGE_CURVE('',#91,#124,#128,.T.);
#130=ORIENTED_EDGE('',*,*,#129,.T.);
#131=CARTESIAN_POINT('',(-1.905000000000001,3.499428E-016,-3.599999999999999));
#132=DIRECTION('',(0.0,0.0,1.0));
#133=DIRECTION('',(0.0,-1.0,0.0));
#134=AXIS2_PLACEMENT_3D('',#131,#132,#133);
#135=CIRCLE('',#134,0.225);
#136=EDGE_CURVE('',#124,#115,#135,.T.);
#137=ORIENTED_EDGE('',*,*,#136,.T.);
#138=EDGE_LOOP('',(#121,#122,#130,#137));
#139=FACE_OUTER_BOUND('',#138,.T.);
#140=ADVANCED_FACE('',(#139),#113,.T.);
#141=CARTESIAN_POINT('',(-1.905,0.5,1.105));
#142=DIRECTION('',(1.836970E-016,1.0,0.0));
#143=DIRECTION('',(0.0,0.0,1.0));
#144=AXIS2_PLACEMENT_3D('',#141,#142,#143);
#145=CYLINDRICAL_SURFACE('',#144,0.225);
#146=CARTESIAN_POINT('',(-1.905,1.535499999999999,1.330000000000001));
#147=VERTEX_POINT('',#146);
#148=CARTESIAN_POINT('',(-1.905,1.535499999999999,1.330000000000001));
#149=DIRECTION('',(0.0,-1.0,0.0));
#150=VECTOR('',#149,1.035499999999999);
#151=LINE('',#148,#150);
#152=EDGE_CURVE('',#147,#71,#151,.T.);
#153=ORIENTED_EDGE('',*,*,#152,.F.);
#154=CARTESIAN_POINT('',(-1.905,1.535499999999999,0.88));
#155=VERTEX_POINT('',#154);
#156=CARTESIAN_POINT('',(-1.905,1.535499999999999,1.105));
#157=DIRECTION('',(0.0,-1.0,0.0));
#158=DIRECTION('',(0.0,0.0,1.0));
#159=AXIS2_PLACEMENT_3D('',#156,#157,#158);
#160=CIRCLE('',#159,0.225);
#161=EDGE_CURVE('',#147,#155,#160,.T.);
#162=ORIENTED_EDGE('',*,*,#161,.T.);
#163=CARTESIAN_POINT('',(-1.905,1.535499999999999,0.88));
#164=DIRECTION('',(0.0,-1.0,0.0));
#165=VECTOR('',#164,1.035499999999999);
#166=LINE('',#163,#165);
#167=EDGE_CURVE('',#155,#82,#166,.T.);
#168=ORIENTED_EDGE('',*,*,#167,.T.);
#169=ORIENTED_EDGE('',*,*,#88,.F.);
#170=EDGE_LOOP('',(#153,#162,#168,#169));
#171=FACE_OUTER_BOUND('',#170,.T.);
#172=ADVANCED_FACE('',(#171),#145,.T.);
#173=CARTESIAN_POINT('',(-1.905,0.5,1.105));
#174=DIRECTION('',(1.836970E-016,1.0,0.0));
#175=DIRECTION('',(0.0,0.0,1.0));
#176=AXIS2_PLACEMENT_3D('',#173,#174,#175);
#177=CYLINDRICAL_SURFACE('',#176,0.225);
#178=ORIENTED_EDGE('',*,*,#152,.T.);
#179=CARTESIAN_POINT('',(-1.905,0.5,1.105));
#180=DIRECTION('',(0.0,-1.0,0.0));
#181=DIRECTION('',(0.0,0.0,1.0));
#182=AXIS2_PLACEMENT_3D('',#179,#180,#181);
#183=CIRCLE('',#182,0.225);
#184=EDGE_CURVE('',#82,#71,#183,.T.);
#185=ORIENTED_EDGE('',*,*,#184,.F.);
#186=ORIENTED_EDGE('',*,*,#167,.F.);
#187=CARTESIAN_POINT('',(-1.905,1.535499999999999,1.105));
#188=DIRECTION('',(0.0,-1.0,0.0));
#189=DIRECTION('',(0.0,0.0,1.0));
#190=AXIS2_PLACEMENT_3D('',#187,#188,#189);
#191=CIRCLE('',#190,0.225);
#192=EDGE_CURVE('',#155,#147,#191,.T.);
#193=ORIENTED_EDGE('',*,*,#192,.T.);
#194=EDGE_LOOP('',(#178,#185,#186,#193));
#195=FACE_OUTER_BOUND('',#194,.T.);
#196=ADVANCED_FACE('',(#195),#177,.T.);
#197=CARTESIAN_POINT('',(-1.905,0.5,0.605000000000001));
#198=DIRECTION('',(-1.0,1.836970E-016,2.220446E-016));
#199=DIRECTION('',(0.0,0.0,-1.0));
#200=AXIS2_PLACEMENT_3D('',#197,#198,#199);
#201=TOROIDAL_SURFACE('',#200,0.5,0.225);
#202=ORIENTED_EDGE('',*,*,#79,.T.);
#203=CARTESIAN_POINT('',(-1.905,3.499428E-016,0.605000000000001));
#204=DIRECTION('',(0.0,0.0,-1.0));
#205=DIRECTION('',(0.0,-1.0,0.0));
#206=AXIS2_PLACEMENT_3D('',#203,#204,#205);
#207=CIRCLE('',#206,0.225);
#208=EDGE_CURVE('',#91,#73,#207,.T.);
#209=ORIENTED_EDGE('',*,*,#208,.F.);
#210=ORIENTED_EDGE('',*,*,#97,.F.);
#211=ORIENTED_EDGE('',*,*,#184,.T.);
#212=EDGE_LOOP('',(#202,#209,#210,#211));
#213=FACE_OUTER_BOUND('',#212,.T.);
#214=ADVANCED_FACE('',(#213),#201,.T.);
#215=CARTESIAN_POINT('',(-1.905000000000001,3.499428E-016,-3.599999999999999));
#216=DIRECTION('',(2.220446E-016,-4.078893E-032,1.0));
#217=DIRECTION('',(0.0,-1.0,0.0));
#218=AXIS2_PLACEMENT_3D('',#215,#216,#217);
#219=CYLINDRICAL_SURFACE('',#218,0.225);
#220=ORIENTED_EDGE('',*,*,#120,.T.);
#221=CARTESIAN_POINT('',(-1.905000000000001,3.499428E-016,-3.599999999999999));
#222=DIRECTION('',(0.0,0.0,1.0));
#223=DIRECTION('',(0.0,-1.0,0.0));
#224=AXIS2_PLACEMENT_3D('',#221,#222,#223);
#225=CIRCLE('',#224,0.225);
#226=EDGE_CURVE('',#115,#124,#225,.T.);
#227=ORIENTED_EDGE('',*,*,#226,.T.);
#228=ORIENTED_EDGE('',*,*,#129,.F.);
#229=ORIENTED_EDGE('',*,*,#208,.T.);
#230=EDGE_LOOP('',(#220,#227,#228,#229));
#231=FACE_OUTER_BOUND('',#230,.T.);
#232=ADVANCED_FACE('',(#231),#219,.T.);
#233=CARTESIAN_POINT('',(-1.905000000000001,3.499428E-016,-3.599999999999999));
#234=DIRECTION('',(0.0,0.0,1.0));
#235=DIRECTION('',(0.0,-1.0,0.0));
#236=AXIS2_PLACEMENT_3D('',#233,#234,#235);
#237=PLANE('',#236);
#238=ORIENTED_EDGE('',*,*,#226,.F.);
#239=ORIENTED_EDGE('',*,*,#136,.F.);
#240=EDGE_LOOP('',(#238,#239));
#241=FACE_OUTER_BOUND('',#240,.T.);
#242=ADVANCED_FACE('',(#241),#237,.F.);
#243=CARTESIAN_POINT('',(-1.905,1.535499999999999,1.105));
#244=DIRECTION('',(0.0,1.0,0.0));
#245=DIRECTION('',(0.0,0.0,1.0));
#246=AXIS2_PLACEMENT_3D('',#243,#244,#245);
#247=PLANE('',#246);
#248=ORIENTED_EDGE('',*,*,#161,.F.);
#249=ORIENTED_EDGE('',*,*,#192,.F.);
#250=EDGE_LOOP('',(#248,#249));
#251=FACE_OUTER_BOUND('',#250,.T.);
#252=ADVANCED_FACE('',(#251),#247,.T.);
#253=CLOSED_SHELL('',(#108,#140,#172,#196,#214,#232,#242,#252));
#254=MANIFOLD_SOLID_BREP('11B9',#253);
#255=COLOUR_RGB('254',0.866,0.866,0.866);
#256=SURFACE_STYLE_USAGE(.BOTH.,#257);
#257=SURFACE_SIDE_STYLE('NONE',(#258));
#258=SURFACE_STYLE_FILL_AREA(#259);
#259=FILL_AREA_STYLE('NONE',(#260));
#260=FILL_AREA_STYLE_COLOUR('NONE',#255);
#261=PRESENTATION_STYLE_ASSIGNMENT((#256));
#262=STYLED_ITEM('NONE',(#261),#254);
#263=MECHANICAL_DESIGN_GEOMETRIC_PRESENTATION_REPRESENTATION('NONE',(#262,#455,#646,#837,#1647),#28);
#264=PRESENTATION_LAYER_ASSIGNMENT('3D','None',(#254,#454,#645,#836,#1639));
#265=CARTESIAN_POINT('',(1.905,0.5,0.605));
#266=DIRECTION('',(-1.0,1.836970E-016,2.220446E-016));
#267=DIRECTION('',(0.0,0.0,-1.0));
#268=AXIS2_PLACEMENT_3D('',#265,#266,#267);
#269=TOROIDAL_SURFACE('',#268,0.5,0.225);
#270=CARTESIAN_POINT('',(1.905,0.5,1.33));
#271=VERTEX_POINT('',#270);
#272=CARTESIAN_POINT('',(1.905,-0.225,0.605));
#273=VERTEX_POINT('',#272);
#274=CARTESIAN_POINT('',(1.905,0.5,0.605));
#275=DIRECTION('',(1.0,0.0,0.0));
#276=DIRECTION('',(0.0,0.0,-1.0));
#277=AXIS2_PLACEMENT_3D('',#274,#275,#276);
#278=CIRCLE('',#277,0.725);
#279=EDGE_CURVE('',#271,#273,#278,.T.);
#280=ORIENTED_EDGE('',*,*,#279,.F.);
#281=CARTESIAN_POINT('',(1.905,0.5,0.88));
#282=VERTEX_POINT('',#281);
#283=CARTESIAN_POINT('',(1.905,0.5,1.105));
#284=DIRECTION('',(0.0,-1.0,0.0));
#285=DIRECTION('',(0.0,0.0,1.0));
#286=AXIS2_PLACEMENT_3D('',#283,#284,#285);
#287=CIRCLE('',#286,0.225);
#288=EDGE_CURVE('',#271,#282,#287,.T.);
#289=ORIENTED_EDGE('',*,*,#288,.T.);
#290=CARTESIAN_POINT('',(1.905,0.225,0.605));
#291=VERTEX_POINT('',#290);
#292=CARTESIAN_POINT('',(1.905,0.5,0.605));
#293=DIRECTION('',(1.0,0.0,0.0));
#294=DIRECTION('',(0.0,0.0,-1.0));
#295=AXIS2_PLACEMENT_3D('',#292,#293,#294);
#296=CIRCLE('',#295,0.275);
#297=EDGE_CURVE('',#282,#291,#296,.T.);
#298=ORIENTED_EDGE('',*,*,#297,.T.);
#299=CARTESIAN_POINT('',(1.905,-3.499428E-016,0.605));
#300=DIRECTION('',(0.0,0.0,-1.0));
#301=DIRECTION('',(0.0,-1.0,0.0));
#302=AXIS2_PLACEMENT_3D('',#299,#300,#301);
#303=CIRCLE('',#302,0.225);
#304=EDGE_CURVE('',#273,#291,#303,.T.);
#305=ORIENTED_EDGE('',*,*,#304,.F.);
#306=EDGE_LOOP('',(#280,#289,#298,#305));
#307=FACE_OUTER_BOUND('',#306,.T.);
#308=ADVANCED_FACE('',(#307),#269,.T.);
#309=CARTESIAN_POINT('',(1.904999999999999,-3.499428E-016,-3.6));
#310=DIRECTION('',(2.220446E-016,-4.078893E-032,1.0));
#311=DIRECTION('',(0.0,-1.0,0.0));
#312=AXIS2_PLACEMENT_3D('',#309,#310,#311);
#313=CYLINDRICAL_SURFACE('',#312,0.225);
#314=CARTESIAN_POINT('',(1.904999999999999,-0.225,-3.6));
#315=VERTEX_POINT('',#314);
#316=CARTESIAN_POINT('',(1.905,-0.225,0.605));
#317=DIRECTION('',(0.0,0.0,-1.0));
#318=VECTOR('',#317,4.205);
#319=LINE('',#316,#318);
#320=EDGE_CURVE('',#273,#315,#319,.T.);
#321=ORIENTED_EDGE('',*,*,#320,.F.);
#322=ORIENTED_EDGE('',*,*,#304,.T.);
#323=CARTESIAN_POINT('',(1.904999999999999,0.225,-3.6));
#324=VERTEX_POINT('',#323);
#325=CARTESIAN_POINT('',(1.905,0.225,0.605));
#326=DIRECTION('',(0.0,0.0,-1.0));
#327=VECTOR('',#326,4.205);
#328=LINE('',#325,#327);
#329=EDGE_CURVE('',#291,#324,#328,.T.);
#330=ORIENTED_EDGE('',*,*,#329,.T.);
#331=CARTESIAN_POINT('',(1.904999999999999,-3.499428E-016,-3.6));
#332=DIRECTION('',(0.0,0.0,1.0));
#333=DIRECTION('',(0.0,-1.0,0.0));
#334=AXIS2_PLACEMENT_3D('',#331,#332,#333);
#335=CIRCLE('',#334,0.225);
#336=EDGE_CURVE('',#324,#315,#335,.T.);
#337=ORIENTED_EDGE('',*,*,#336,.T.);
#338=EDGE_LOOP('',(#321,#322,#330,#337));
#339=FACE_OUTER_BOUND('',#338,.T.);
#340=ADVANCED_FACE('',(#339),#313,.T.);
#341=CARTESIAN_POINT('',(1.905,0.5,1.105));
#342=DIRECTION('',(1.836970E-016,1.0,0.0));
#343=DIRECTION('',(0.0,0.0,1.0));
#344=AXIS2_PLACEMENT_3D('',#341,#342,#343);
#345=CYLINDRICAL_SURFACE('',#344,0.225);
#346=CARTESIAN_POINT('',(1.905000000000001,1.535499999999999,1.33));
#347=VERTEX_POINT('',#346);
#348=CARTESIAN_POINT('',(1.905000000000001,1.535499999999999,1.33));
#349=DIRECTION('',(0.0,-1.0,0.0));
#350=VECTOR('',#349,1.035499999999999);
#351=LINE('',#348,#350);
#352=EDGE_CURVE('',#347,#271,#351,.T.);
#353=ORIENTED_EDGE('',*,*,#352,.F.);
#354=CARTESIAN_POINT('',(1.905000000000001,1.535499999999999,0.88));
#355=VERTEX_POINT('',#354);
#356=CARTESIAN_POINT('',(1.905000000000001,1.535499999999999,1.105));
#357=DIRECTION('',(0.0,-1.0,0.0));
#358=DIRECTION('',(0.0,0.0,1.0));
#359=AXIS2_PLACEMENT_3D('',#356,#357,#358);
#360=CIRCLE('',#359,0.225);
#361=EDGE_CURVE('',#347,#355,#360,.T.);
#362=ORIENTED_EDGE('',*,*,#361,.T.);
#363=CARTESIAN_POINT('',(1.905000000000001,1.535499999999999,0.88));
#364=DIRECTION('',(0.0,-1.0,0.0));
#365=VECTOR('',#364,1.035499999999999);
#366=LINE('',#363,#365);
#367=EDGE_CURVE('',#355,#282,#366,.T.);
#368=ORIENTED_EDGE('',*,*,#367,.T.);
#369=ORIENTED_EDGE('',*,*,#288,.F.);
#370=EDGE_LOOP('',(#353,#362,#368,#369));
#371=FACE_OUTER_BOUND('',#370,.T.);
#372=ADVANCED_FACE('',(#371),#345,.T.);
#373=CARTESIAN_POINT('',(1.905,0.5,1.105));
#374=DIRECTION('',(1.836970E-016,1.0,0.0));
#375=DIRECTION('',(0.0,0.0,1.0));
#376=AXIS2_PLACEMENT_3D('',#373,#374,#375);
#377=CYLINDRICAL_SURFACE('',#376,0.225);
#378=ORIENTED_EDGE('',*,*,#352,.T.);
#379=CARTESIAN_POINT('',(1.905,0.5,1.105));
#380=DIRECTION('',(0.0,-1.0,0.0));
#381=DIRECTION('',(0.0,0.0,1.0));
#382=AXIS2_PLACEMENT_3D('',#379,#380,#381);
#383=CIRCLE('',#382,0.225);
#384=EDGE_CURVE('',#282,#271,#383,.T.);
#385=ORIENTED_EDGE('',*,*,#384,.F.);
#386=ORIENTED_EDGE('',*,*,#367,.F.);
#387=CARTESIAN_POINT('',(1.905000000000001,1.535499999999999,1.105));
#388=DIRECTION('',(0.0,-1.0,0.0));
#389=DIRECTION('',(0.0,0.0,1.0));
#390=AXIS2_PLACEMENT_3D('',#387,#388,#389);
#391=CIRCLE('',#390,0.225);
#392=EDGE_CURVE('',#355,#347,#391,.T.);
#393=ORIENTED_EDGE('',*,*,#392,.T.);
#394=EDGE_LOOP('',(#378,#385,#386,#393));
#395=FACE_OUTER_BOUND('',#394,.T.);
#396=ADVANCED_FACE('',(#395),#377,.T.);
#397=CARTESIAN_POINT('',(1.905,0.5,0.605));
#398=DIRECTION('',(-1.0,1.836970E-016,2.220446E-016));
#399=DIRECTION('',(0.0,0.0,-1.0));
#400=AXIS2_PLACEMENT_3D('',#397,#398,#399);
#401=TOROIDAL_SURFACE('',#400,0.5,0.225);
#402=ORIENTED_EDGE('',*,*,#279,.T.);
#403=CARTESIAN_POINT('',(1.905,-3.499428E-016,0.605));
#404=DIRECTION('',(0.0,0.0,-1.0));
#405=DIRECTION('',(0.0,-1.0,0.0));
#406=AXIS2_PLACEMENT_3D('',#403,#404,#405);
#407=CIRCLE('',#406,0.225);
#408=EDGE_CURVE('',#291,#273,#407,.T.);
#409=ORIENTED_EDGE('',*,*,#408,.F.);
#410=ORIENTED_EDGE('',*,*,#297,.F.);
#411=ORIENTED_EDGE('',*,*,#384,.T.);
#412=EDGE_LOOP('',(#402,#409,#410,#411));
#413=FACE_OUTER_BOUND('',#412,.T.);
#414=ADVANCED_FACE('',(#413),#401,.T.);
#415=CARTESIAN_POINT('',(1.904999999999999,-3.499428E-016,-3.6));
#416=DIRECTION('',(2.220446E-016,-4.078893E-032,1.0));
#417=DIRECTION('',(0.0,-1.0,0.0));
#418=AXIS2_PLACEMENT_3D('',#415,#416,#417);
#419=CYLINDRICAL_SURFACE('',#418,0.225);
#420=ORIENTED_EDGE('',*,*,#320,.T.);
#421=CARTESIAN_POINT('',(1.904999999999999,-3.499428E-016,-3.6));
#422=DIRECTION('',(0.0,0.0,1.0));
#423=DIRECTION('',(0.0,-1.0,0.0));
#424=AXIS2_PLACEMENT_3D('',#421,#422,#423);
#425=CIRCLE('',#424,0.225);
#426=EDGE_CURVE('',#315,#324,#425,.T.);
#427=ORIENTED_EDGE('',*,*,#426,.T.);
#428=ORIENTED_EDGE('',*,*,#329,.F.);
#429=ORIENTED_EDGE('',*,*,#408,.T.);
#430=EDGE_LOOP('',(#420,#427,#428,#429));
#431=FACE_OUTER_BOUND('',#430,.T.);
#432=ADVANCED_FACE('',(#431),#419,.T.);
#433=CARTESIAN_POINT('',(1.904999999999999,-3.499428E-016,-3.6));
#434=DIRECTION('',(0.0,0.0,1.0));
#435=DIRECTION('',(0.0,-1.0,0.0));
#436=AXIS2_PLACEMENT_3D('',#433,#434,#435);
#437=PLANE('',#436);
#438=ORIENTED_EDGE('',*,*,#426,.F.);
#439=ORIENTED_EDGE('',*,*,#336,.F.);
#440=EDGE_LOOP('',(#438,#439));
#441=FACE_OUTER_BOUND('',#440,.T.);
#442=ADVANCED_FACE('',(#441),#437,.F.);
#443=CARTESIAN_POINT('',(1.905000000000001,1.535499999999999,1.105));
#444=DIRECTION('',(0.0,1.0,0.0));
#445=DIRECTION('',(0.0,0.0,1.0));
#446=AXIS2_PLACEMENT_3D('',#443,#444,#445);
#447=PLANE('',#446);
#448=ORIENTED_EDGE('',*,*,#361,.F.);
#449=ORIENTED_EDGE('',*,*,#392,.F.);
#450=EDGE_LOOP('',(#448,#449));
#451=FACE_OUTER_BOUND('',#450,.T.);
#452=ADVANCED_FACE('',(#451),#447,.T.);
#453=CLOSED_SHELL('',(#308,#340,#372,#396,#414,#432,#442,#452));
#454=MANIFOLD_SOLID_BREP('11B5',#453);
#455=STYLED_ITEM('NONE',(#261),#454);
#456=CARTESIAN_POINT('',(0.635,0.5,0.605));
#457=DIRECTION('',(-1.0,1.836970E-016,2.220446E-016));
#458=DIRECTION('',(0.0,0.0,-1.0));
#459=AXIS2_PLACEMENT_3D('',#456,#457,#458);
#460=TOROIDAL_SURFACE('',#459,0.5,0.225);
#461=CARTESIAN_POINT('',(0.635,0.5,1.33));
#462=VERTEX_POINT('',#461);
#463=CARTESIAN_POINT('',(0.635,-0.225,0.605));
#464=VERTEX_POINT('',#463);
#465=CARTESIAN_POINT('',(0.635,0.5,0.605));
#466=DIRECTION('',(1.0,0.0,0.0));
#467=DIRECTION('',(0.0,0.0,-1.0));
#468=AXIS2_PLACEMENT_3D('',#465,#466,#467);
#469=CIRCLE('',#468,0.725);
#470=EDGE_CURVE('',#462,#464,#469,.T.);
#471=ORIENTED_EDGE('',*,*,#470,.F.);
#472=CARTESIAN_POINT('',(0.635,0.5,0.88));
#473=VERTEX_POINT('',#472);
#474=CARTESIAN_POINT('',(0.635,0.5,1.105));
#475=DIRECTION('',(0.0,-1.0,0.0));
#476=DIRECTION('',(0.0,0.0,1.0));
#477=AXIS2_PLACEMENT_3D('',#474,#475,#476);
#478=CIRCLE('',#477,0.225);
#479=EDGE_CURVE('',#462,#473,#478,.T.);
#480=ORIENTED_EDGE('',*,*,#479,.T.);
#481=CARTESIAN_POINT('',(0.635,0.225,0.605));
#482=VERTEX_POINT('',#481);
#483=CARTESIAN_POINT('',(0.635,0.5,0.605));
#484=DIRECTION('',(1.0,0.0,0.0));
#485=DIRECTION('',(0.0,0.0,-1.0));
#486=AXIS2_PLACEMENT_3D('',#483,#484,#485);
#487=CIRCLE('',#486,0.275);
#488=EDGE_CURVE('',#473,#482,#487,.T.);
#489=ORIENTED_EDGE('',*,*,#488,.T.);
#490=CARTESIAN_POINT('',(0.635,-1.166476E-016,0.605));
#491=DIRECTION('',(0.0,0.0,-1.0));
#492=DIRECTION('',(0.0,-1.0,0.0));
#493=AXIS2_PLACEMENT_3D('',#490,#491,#492);
#494=CIRCLE('',#493,0.225);
#495=EDGE_CURVE('',#464,#482,#494,.T.);
#496=ORIENTED_EDGE('',*,*,#495,.F.);
#497=EDGE_LOOP('',(#471,#480,#489,#496));
#498=FACE_OUTER_BOUND('',#497,.T.);
#499=ADVANCED_FACE('',(#498),#460,.T.);
#500=CARTESIAN_POINT('',(0.634999999999999,-1.166476E-016,-3.6));
#501=DIRECTION('',(2.220446E-016,-4.078893E-032,1.0));
#502=DIRECTION('',(0.0,-1.0,0.0));
#503=AXIS2_PLACEMENT_3D('',#500,#501,#502);
#504=CYLINDRICAL_SURFACE('',#503,0.225);
#505=CARTESIAN_POINT('',(0.634999999999999,-0.225,-3.6));
#506=VERTEX_POINT('',#505);
#507=CARTESIAN_POINT('',(0.635,-0.225,0.605));
#508=DIRECTION('',(0.0,0.0,-1.0));
#509=VECTOR('',#508,4.205);
#510=LINE('',#507,#509);
#511=EDGE_CURVE('',#464,#506,#510,.T.);
#512=ORIENTED_EDGE('',*,*,#511,.F.);
#513=ORIENTED_EDGE('',*,*,#495,.T.);
#514=CARTESIAN_POINT('',(0.634999999999999,0.225,-3.6));
#515=VERTEX_POINT('',#514);
#516=CARTESIAN_POINT('',(0.635,0.225,0.605));
#517=DIRECTION('',(0.0,0.0,-1.0));
#518=VECTOR('',#517,4.205);
#519=LINE('',#516,#518);
#520=EDGE_CURVE('',#482,#515,#519,.T.);
#521=ORIENTED_EDGE('',*,*,#520,.T.);
#522=CARTESIAN_POINT('',(0.634999999999999,-1.166476E-016,-3.6));
#523=DIRECTION('',(0.0,0.0,1.0));
#524=DIRECTION('',(0.0,-1.0,0.0));
#525=AXIS2_PLACEMENT_3D('',#522,#523,#524);
#526=CIRCLE('',#525,0.225);
#527=EDGE_CURVE('',#515,#506,#526,.T.);
#528=ORIENTED_EDGE('',*,*,#527,.T.);
#529=EDGE_LOOP('',(#512,#513,#521,#528));
#530=FACE_OUTER_BOUND('',#529,.T.);
#531=ADVANCED_FACE('',(#530),#504,.T.);
#532=CARTESIAN_POINT('',(0.635,0.5,1.105));
#533=DIRECTION('',(1.836970E-016,1.0,0.0));
#534=DIRECTION('',(0.0,0.0,1.0));
#535=AXIS2_PLACEMENT_3D('',#532,#533,#534);
#536=CYLINDRICAL_SURFACE('',#535,0.225);
#537=CARTESIAN_POINT('',(0.635000000000001,1.535499999999999,1.33));
#538=VERTEX_POINT('',#537);
#539=CARTESIAN_POINT('',(0.635000000000001,1.535499999999999,1.33));
#540=DIRECTION('',(0.0,-1.0,0.0));
#541=VECTOR('',#540,1.035499999999999);
#542=LINE('',#539,#541);
#543=EDGE_CURVE('',#538,#462,#542,.T.);
#544=ORIENTED_EDGE('',*,*,#543,.F.);
#545=CARTESIAN_POINT('',(0.635,1.535499999999999,0.88));
#546=VERTEX_POINT('',#545);
#547=CARTESIAN_POINT('',(0.635000000000001,1.535499999999999,1.105));
#548=DIRECTION('',(0.0,-1.0,0.0));
#549=DIRECTION('',(0.0,0.0,1.0));
#550=AXIS2_PLACEMENT_3D('',#547,#548,#549);
#551=CIRCLE('',#550,0.225);
#552=EDGE_CURVE('',#538,#546,#551,.T.);
#553=ORIENTED_EDGE('',*,*,#552,.T.);
#554=CARTESIAN_POINT('',(0.635,1.535499999999999,0.88));
#555=DIRECTION('',(0.0,-1.0,0.0));
#556=VECTOR('',#555,1.035499999999999);
#557=LINE('',#554,#556);
#558=EDGE_CURVE('',#546,#473,#557,.T.);
#559=ORIENTED_EDGE('',*,*,#558,.T.);
#560=ORIENTED_EDGE('',*,*,#479,.F.);
#561=EDGE_LOOP('',(#544,#553,#559,#560));
#562=FACE_OUTER_BOUND('',#561,.T.);
#563=ADVANCED_FACE('',(#562),#536,.T.);
#564=CARTESIAN_POINT('',(0.635,0.5,1.105));
#565=DIRECTION('',(1.836970E-016,1.0,0.0));
#566=DIRECTION('',(0.0,0.0,1.0));
#567=AXIS2_PLACEMENT_3D('',#564,#565,#566);
#568=CYLINDRICAL_SURFACE('',#567,0.225);
#569=ORIENTED_EDGE('',*,*,#543,.T.);
#570=CARTESIAN_POINT('',(0.635,0.5,1.105));
#571=DIRECTION('',(0.0,-1.0,0.0));
#572=DIRECTION('',(0.0,0.0,1.0));
#573=AXIS2_PLACEMENT_3D('',#570,#571,#572);
#574=CIRCLE('',#573,0.225);
#575=EDGE_CURVE('',#473,#462,#574,.T.);
#576=ORIENTED_EDGE('',*,*,#575,.F.);
#577=ORIENTED_EDGE('',*,*,#558,.F.);
#578=CARTESIAN_POINT('',(0.635000000000001,1.535499999999999,1.105));
#579=DIRECTION('',(0.0,-1.0,0.0));
#580=DIRECTION('',(0.0,0.0,1.0));
#581=AXIS2_PLACEMENT_3D('',#578,#579,#580);
#582=CIRCLE('',#581,0.225);
#583=EDGE_CURVE('',#546,#538,#582,.T.);
#584=ORIENTED_EDGE('',*,*,#583,.T.);
#585=EDGE_LOOP('',(#569,#576,#577,#584));
#586=FACE_OUTER_BOUND('',#585,.T.);
#587=ADVANCED_FACE('',(#586),#568,.T.);
#588=CARTESIAN_POINT('',(0.635,0.5,0.605));
#589=DIRECTION('',(-1.0,1.836970E-016,2.220446E-016));
#590=DIRECTION('',(0.0,0.0,-1.0));
#591=AXIS2_PLACEMENT_3D('',#588,#589,#590);
#592=TOROIDAL_SURFACE('',#591,0.5,0.225);
#593=ORIENTED_EDGE('',*,*,#470,.T.);
#594=CARTESIAN_POINT('',(0.635,-1.166476E-016,0.605));
#595=DIRECTION('',(0.0,0.0,-1.0));
#596=DIRECTION('',(0.0,-1.0,0.0));
#597=AXIS2_PLACEMENT_3D('',#594,#595,#596);
#598=CIRCLE('',#597,0.225);
#599=EDGE_CURVE('',#482,#464,#598,.T.);
#600=ORIENTED_EDGE('',*,*,#599,.F.);
#601=ORIENTED_EDGE('',*,*,#488,.F.);
#602=ORIENTED_EDGE('',*,*,#575,.T.);
#603=EDGE_LOOP('',(#593,#600,#601,#602));
#604=FACE_OUTER_BOUND('',#603,.T.);
#605=ADVANCED_FACE('',(#604),#592,.T.);
#606=CARTESIAN_POINT('',(0.634999999999999,-1.166476E-016,-3.6));
#607=DIRECTION('',(2.220446E-016,-4.078893E-032,1.0));
#608=DIRECTION('',(0.0,-1.0,0.0));
#609=AXIS2_PLACEMENT_3D('',#606,#607,#608);
#610=CYLINDRICAL_SURFACE('',#609,0.225);
#611=ORIENTED_EDGE('',*,*,#511,.T.);
#612=CARTESIAN_POINT('',(0.634999999999999,-1.166476E-016,-3.6));
#613=DIRECTION('',(0.0,0.0,1.0));
#614=DIRECTION('',(0.0,-1.0,0.0));
#615=AXIS2_PLACEMENT_3D('',#612,#613,#614);
#616=CIRCLE('',#615,0.225);
#617=EDGE_CURVE('',#506,#515,#616,.T.);
#618=ORIENTED_EDGE('',*,*,#617,.T.);
#619=ORIENTED_EDGE('',*,*,#520,.F.);
#620=ORIENTED_EDGE('',*,*,#599,.T.);
#621=EDGE_LOOP('',(#611,#618,#619,#620));
#622=FACE_OUTER_BOUND('',#621,.T.);
#623=ADVANCED_FACE('',(#622),#610,.T.);
#624=CARTESIAN_POINT('',(0.634999999999999,-1.166476E-016,-3.6));
#625=DIRECTION('',(0.0,0.0,1.0));
#626=DIRECTION('',(0.0,-1.0,0.0));
#627=AXIS2_PLACEMENT_3D('',#624,#625,#626);
#628=PLANE('',#627);
#629=ORIENTED_EDGE('',*,*,#617,.F.);
#630=ORIENTED_EDGE('',*,*,#527,.F.);
#631=EDGE_LOOP('',(#629,#630));
#632=FACE_OUTER_BOUND('',#631,.T.);
#633=ADVANCED_FACE('',(#632),#628,.F.);
#634=CARTESIAN_POINT('',(0.635000000000001,1.535499999999999,1.105));
#635=DIRECTION('',(0.0,1.0,0.0));
#636=DIRECTION('',(0.0,0.0,1.0));
#637=AXIS2_PLACEMENT_3D('',#634,#635,#636);
#638=PLANE('',#637);
#639=ORIENTED_EDGE('',*,*,#552,.F.);
#640=ORIENTED_EDGE('',*,*,#583,.F.);
#641=EDGE_LOOP('',(#639,#640));
#642=FACE_OUTER_BOUND('',#641,.T.);
#643=ADVANCED_FACE('',(#642),#638,.T.);
#644=CLOSED_SHELL('',(#499,#531,#563,#587,#605,#623,#633,#643));
#645=MANIFOLD_SOLID_BREP('11B1',#644);
#646=STYLED_ITEM('NONE',(#261),#645);
#647=CARTESIAN_POINT('',(-0.635,0.5,0.605));
#648=DIRECTION('',(-1.0,1.836970E-016,2.220446E-016));
#649=DIRECTION('',(0.0,0.0,-1.0));
#650=AXIS2_PLACEMENT_3D('',#647,#648,#649);
#651=TOROIDAL_SURFACE('',#650,0.5,0.225);
#652=CARTESIAN_POINT('',(-0.635,0.5,1.33));
#653=VERTEX_POINT('',#652);
#654=CARTESIAN_POINT('',(-0.635,-0.225,0.605));
#655=VERTEX_POINT('',#654);
#656=CARTESIAN_POINT('',(-0.635,0.5,0.605));
#657=DIRECTION('',(1.0,0.0,0.0));
#658=DIRECTION('',(0.0,0.0,-1.0));
#659=AXIS2_PLACEMENT_3D('',#656,#657,#658);
#660=CIRCLE('',#659,0.725);
#661=EDGE_CURVE('',#653,#655,#660,.T.);
#662=ORIENTED_EDGE('',*,*,#661,.F.);
#663=CARTESIAN_POINT('',(-0.635,0.5,0.88));
#664=VERTEX_POINT('',#663);
#665=CARTESIAN_POINT('',(-0.635,0.5,1.105));
#666=DIRECTION('',(0.0,-1.0,0.0));
#667=DIRECTION('',(0.0,0.0,1.0));
#668=AXIS2_PLACEMENT_3D('',#665,#666,#667);
#669=CIRCLE('',#668,0.225);
#670=EDGE_CURVE('',#653,#664,#669,.T.);
#671=ORIENTED_EDGE('',*,*,#670,.T.);
#672=CARTESIAN_POINT('',(-0.635,0.225,0.605));
#673=VERTEX_POINT('',#672);
#674=CARTESIAN_POINT('',(-0.635,0.5,0.605));
#675=DIRECTION('',(1.0,0.0,0.0));
#676=DIRECTION('',(0.0,0.0,-1.0));
#677=AXIS2_PLACEMENT_3D('',#674,#675,#676);
#678=CIRCLE('',#677,0.275);
#679=EDGE_CURVE('',#664,#673,#678,.T.);
#680=ORIENTED_EDGE('',*,*,#679,.T.);
#681=CARTESIAN_POINT('',(-0.635,1.166476E-016,0.605));
#682=DIRECTION('',(0.0,0.0,-1.0));
#683=DIRECTION('',(0.0,-1.0,0.0));
#684=AXIS2_PLACEMENT_3D('',#681,#682,#683);
#685=CIRCLE('',#684,0.225);
#686=EDGE_CURVE('',#655,#673,#685,.T.);
#687=ORIENTED_EDGE('',*,*,#686,.F.);
#688=EDGE_LOOP('',(#662,#671,#680,#687));
#689=FACE_OUTER_BOUND('',#688,.T.);
#690=ADVANCED_FACE('',(#689),#651,.T.);
#691=CARTESIAN_POINT('',(-0.635000000000001,1.166476E-016,-3.6));
#692=DIRECTION('',(2.220446E-016,-4.078893E-032,1.0));
#693=DIRECTION('',(0.0,-1.0,0.0));
#694=AXIS2_PLACEMENT_3D('',#691,#692,#693);
#695=CYLINDRICAL_SURFACE('',#694,0.225);
#696=CARTESIAN_POINT('',(-0.635000000000001,-0.225,-3.6));
#697=VERTEX_POINT('',#696);
#698=CARTESIAN_POINT('',(-0.635,-0.225,0.605));
#699=DIRECTION('',(0.0,0.0,-1.0));
#700=VECTOR('',#699,4.205);
#701=LINE('',#698,#700);
#702=EDGE_CURVE('',#655,#697,#701,.T.);
#703=ORIENTED_EDGE('',*,*,#702,.F.);
#704=ORIENTED_EDGE('',*,*,#686,.T.);
#705=CARTESIAN_POINT('',(-0.635000000000001,0.225,-3.6));
#706=VERTEX_POINT('',#705);
#707=CARTESIAN_POINT('',(-0.635,0.225,0.605));
#708=DIRECTION('',(0.0,0.0,-1.0));
#709=VECTOR('',#708,4.205);
#710=LINE('',#707,#709);
#711=EDGE_CURVE('',#673,#706,#710,.T.);
#712=ORIENTED_EDGE('',*,*,#711,.T.);
#713=CARTESIAN_POINT('',(-0.635000000000001,1.166476E-016,-3.6));
#714=DIRECTION('',(0.0,0.0,1.0));
#715=DIRECTION('',(0.0,-1.0,0.0));
#716=AXIS2_PLACEMENT_3D('',#713,#714,#715);
#717=CIRCLE('',#716,0.225);
#718=EDGE_CURVE('',#706,#697,#717,.T.);
#719=ORIENTED_EDGE('',*,*,#718,.T.);
#720=EDGE_LOOP('',(#703,#704,#712,#719));
#721=FACE_OUTER_BOUND('',#720,.T.);
#722=ADVANCED_FACE('',(#721),#695,.T.);
#723=CARTESIAN_POINT('',(-0.635,0.5,1.105));
#724=DIRECTION('',(1.836970E-016,1.0,0.0));
#725=DIRECTION('',(0.0,0.0,1.0));
#726=AXIS2_PLACEMENT_3D('',#723,#724,#725);
#727=CYLINDRICAL_SURFACE('',#726,0.225);
#728=CARTESIAN_POINT('',(-0.634999999999999,1.535499999999999,1.33));
#729=VERTEX_POINT('',#728);
#730=CARTESIAN_POINT('',(-0.634999999999999,1.535499999999999,1.33));
#731=DIRECTION('',(0.0,-1.0,0.0));
#732=VECTOR('',#731,1.035499999999999);
#733=LINE('',#730,#732);
#734=EDGE_CURVE('',#729,#653,#733,.T.);
#735=ORIENTED_EDGE('',*,*,#734,.F.);
#736=CARTESIAN_POINT('',(-0.635,1.535499999999999,0.88));
#737=VERTEX_POINT('',#736);
#738=CARTESIAN_POINT('',(-0.634999999999999,1.535499999999999,1.105));
#739=DIRECTION('',(0.0,-1.0,0.0));
#740=DIRECTION('',(0.0,0.0,1.0));
#741=AXIS2_PLACEMENT_3D('',#738,#739,#740);
#742=CIRCLE('',#741,0.225);
#743=EDGE_CURVE('',#729,#737,#742,.T.);
#744=ORIENTED_EDGE('',*,*,#743,.T.);
#745=CARTESIAN_POINT('',(-0.635,1.535499999999999,0.88));
#746=DIRECTION('',(0.0,-1.0,0.0));
#747=VECTOR('',#746,1.035499999999999);
#748=LINE('',#745,#747);
#749=EDGE_CURVE('',#737,#664,#748,.T.);
#750=ORIENTED_EDGE('',*,*,#749,.T.);
#751=ORIENTED_EDGE('',*,*,#670,.F.);
#752=EDGE_LOOP('',(#735,#744,#750,#751));
#753=FACE_OUTER_BOUND('',#752,.T.);
#754=ADVANCED_FACE('',(#753),#727,.T.);
#755=CARTESIAN_POINT('',(-0.635,0.5,1.105));
#756=DIRECTION('',(1.836970E-016,1.0,0.0));
#757=DIRECTION('',(0.0,0.0,1.0));
#758=AXIS2_PLACEMENT_3D('',#755,#756,#757);
#759=CYLINDRICAL_SURFACE('',#758,0.225);
#760=ORIENTED_EDGE('',*,*,#734,.T.);
#761=CARTESIAN_POINT('',(-0.635,0.5,1.105));
#762=DIRECTION('',(0.0,-1.0,0.0));
#763=DIRECTION('',(0.0,0.0,1.0));
#764=AXIS2_PLACEMENT_3D('',#761,#762,#763);
#765=CIRCLE('',#764,0.225);
#766=EDGE_CURVE('',#664,#653,#765,.T.);
#767=ORIENTED_EDGE('',*,*,#766,.F.);
#768=ORIENTED_EDGE('',*,*,#749,.F.);
#769=CARTESIAN_POINT('',(-0.634999999999999,1.535499999999999,1.105));
#770=DIRECTION('',(0.0,-1.0,0.0));
#771=DIRECTION('',(0.0,0.0,1.0));
#772=AXIS2_PLACEMENT_3D('',#769,#770,#771);
#773=CIRCLE('',#772,0.225);
#774=EDGE_CURVE('',#737,#729,#773,.T.);
#775=ORIENTED_EDGE('',*,*,#774,.T.);
#776=EDGE_LOOP('',(#760,#767,#768,#775));
#777=FACE_OUTER_BOUND('',#776,.T.);
#778=ADVANCED_FACE('',(#777),#759,.T.);
#779=CARTESIAN_POINT('',(-0.635,0.5,0.605));
#780=DIRECTION('',(-1.0,1.836970E-016,2.220446E-016));
#781=DIRECTION('',(0.0,0.0,-1.0));
#782=AXIS2_PLACEMENT_3D('',#779,#780,#781);
#783=TOROIDAL_SURFACE('',#782,0.5,0.225);
#784=ORIENTED_EDGE('',*,*,#661,.T.);
#785=CARTESIAN_POINT('',(-0.635,1.166476E-016,0.605));
#786=DIRECTION('',(0.0,0.0,-1.0));
#787=DIRECTION('',(0.0,-1.0,0.0));
#788=AXIS2_PLACEMENT_3D('',#785,#786,#787);
#789=CIRCLE('',#788,0.225);
#790=EDGE_CURVE('',#673,#655,#789,.T.);
#791=ORIENTED_EDGE('',*,*,#790,.F.);
#792=ORIENTED_EDGE('',*,*,#679,.F.);
#793=ORIENTED_EDGE('',*,*,#766,.T.);
#794=EDGE_LOOP('',(#784,#791,#792,#793));
#795=FACE_OUTER_BOUND('',#794,.T.);
#796=ADVANCED_FACE('',(#795),#783,.T.);
#797=CARTESIAN_POINT('',(-0.635000000000001,1.166476E-016,-3.6));
#798=DIRECTION('',(2.220446E-016,-4.078893E-032,1.0));
#799=DIRECTION('',(0.0,-1.0,0.0));
#800=AXIS2_PLACEMENT_3D('',#797,#798,#799);
#801=CYLINDRICAL_SURFACE('',#800,0.225);
#802=ORIENTED_EDGE('',*,*,#702,.T.);
#803=CARTESIAN_POINT('',(-0.635000000000001,1.166476E-016,-3.6));
#804=DIRECTION('',(0.0,0.0,1.0));
#805=DIRECTION('',(0.0,-1.0,0.0));
#806=AXIS2_PLACEMENT_3D('',#803,#804,#805);
#807=CIRCLE('',#806,0.225);
#808=EDGE_CURVE('',#697,#706,#807,.T.);
#809=ORIENTED_EDGE('',*,*,#808,.T.);
#810=ORIENTED_EDGE('',*,*,#711,.F.);
#811=ORIENTED_EDGE('',*,*,#790,.T.);
#812=EDGE_LOOP('',(#802,#809,#810,#811));
#813=FACE_OUTER_BOUND('',#812,.T.);
#814=ADVANCED_FACE('',(#813),#801,.T.);
#815=CARTESIAN_POINT('',(-0.635000000000001,1.166476E-016,-3.6));
#816=DIRECTION('',(0.0,0.0,1.0));
#817=DIRECTION('',(0.0,-1.0,0.0));
#818=AXIS2_PLACEMENT_3D('',#815,#816,#817);
#819=PLANE('',#818);
#820=ORIENTED_EDGE('',*,*,#808,.F.);
#821=ORIENTED_EDGE('',*,*,#718,.F.);
#822=EDGE_LOOP('',(#820,#821));
#823=FACE_OUTER_BOUND('',#822,.T.);
#824=ADVANCED_FACE('',(#823),#819,.F.);
#825=CARTESIAN_POINT('',(-0.634999999999999,1.535499999999999,1.105));
#826=DIRECTION('',(0.0,1.0,0.0));
#827=DIRECTION('',(0.0,0.0,1.0));
#828=AXIS2_PLACEMENT_3D('',#825,#826,#827);
#829=PLANE('',#828);
#830=ORIENTED_EDGE('',*,*,#743,.F.);
#831=ORIENTED_EDGE('',*,*,#774,.F.);
#832=EDGE_LOOP('',(#830,#831));
#833=FACE_OUTER_BOUND('',#832,.T.);
#834=ADVANCED_FACE('',(#833),#829,.T.);
#835=CLOSED_SHELL('',(#690,#722,#754,#778,#796,#814,#824,#834));
#836=MANIFOLD_SOLID_BREP('11AD',#835);
#837=STYLED_ITEM('NONE',(#261),#836);
#838=CARTESIAN_POINT('',(1.905000000000001,5.307999999999998,1.105));
#839=DIRECTION('',(-1.836970E-016,-1.0,0.0));
#840=DIRECTION('',(1.0,0.0,0.0));
#841=AXIS2_PLACEMENT_3D('',#838,#839,#840);
#842=CYLINDRICAL_SURFACE('',#841,0.4);
#843=CARTESIAN_POINT('',(2.305000000000001,5.107999999999999,1.105));
#844=VERTEX_POINT('',#843);
#845=CARTESIAN_POINT('',(2.305000000000001,4.307999999999998,1.105));
#846=VERTEX_POINT('',#845);
#847=CARTESIAN_POINT('',(2.305000000000001,5.107999999999999,1.105));
#848=DIRECTION('',(0.0,-1.0,0.0));
#849=VECTOR('',#848,0.800000000000001);
#850=LINE('',#847,#849);
#851=EDGE_CURVE('',#844,#846,#850,.T.);
#852=ORIENTED_EDGE('',*,*,#851,.F.);
#853=CARTESIAN_POINT('',(1.505000000000001,5.107999999999999,1.105));
#854=VERTEX_POINT('',#853);
#855=CARTESIAN_POINT('',(1.905000000000001,5.107999999999999,1.105));
#856=DIRECTION('',(0.0,-1.0,0.0));
#857=DIRECTION('',(-1.0,0.0,0.0));
#858=AXIS2_PLACEMENT_3D('',#855,#856,#857);
#859=CIRCLE('',#858,0.4);
#860=EDGE_CURVE('',#854,#844,#859,.T.);
#861=ORIENTED_EDGE('',*,*,#860,.F.);
#862=CARTESIAN_POINT('',(1.505000000000001,4.307999999999998,1.105));
#863=VERTEX_POINT('',#862);
#864=CARTESIAN_POINT('',(1.505000000000001,5.107999999999999,1.105));
#865=DIRECTION('',(0.0,-1.0,0.0));
#866=VECTOR('',#865,0.800000000000001);
#867=LINE('',#864,#866);
#868=EDGE_CURVE('',#854,#863,#867,.T.);
#869=ORIENTED_EDGE('',*,*,#868,.T.);
#870=CARTESIAN_POINT('',(1.905000000000001,4.307999999999998,1.105));
#871=DIRECTION('',(0.0,1.0,0.0));
#872=DIRECTION('',(1.0,0.0,0.0));
#873=AXIS2_PLACEMENT_3D('',#870,#871,#872);
#874=CIRCLE('',#873,0.4);
#875=EDGE_CURVE('',#846,#863,#874,.T.);
#876=ORIENTED_EDGE('',*,*,#875,.F.);
#877=EDGE_LOOP('',(#852,#861,#869,#876));
#878=FACE_OUTER_BOUND('',#877,.T.);
#879=ADVANCED_FACE('',(#878),#842,.F.);
#880=CARTESIAN_POINT('',(1.905000000000001,5.207999999999998,1.105));
#881=DIRECTION('',(1.836970E-016,1.0,0.0));
#882=DIRECTION('',(-1.0,0.0,0.0));
#883=AXIS2_PLACEMENT_3D('',#880,#881,#882);
#884=CONICAL_SURFACE('',#883,0.5,44.999999999999979);
#885=CARTESIAN_POINT('',(1.305,5.307999999999999,1.105));
#886=VERTEX_POINT('',#885);
#887=CARTESIAN_POINT('',(1.305,5.307999999999999,1.105));
#888=DIRECTION('',(0.707106781186547,-0.707106781186547,0.0));
#889=VECTOR('',#888,0.282842712474619);
#890=LINE('',#887,#889);
#891=EDGE_CURVE('',#886,#854,#890,.T.);
#892=ORIENTED_EDGE('',*,*,#891,.F.);
#893=CARTESIAN_POINT('',(2.505000000000001,5.307999999999998,1.105));
#894=VERTEX_POINT('',#893);
#895=CARTESIAN_POINT('',(1.905000000000001,5.307999999999999,1.105));
#896=DIRECTION('',(0.0,1.0,0.0));
#897=DIRECTION('',(-1.0,0.0,0.0));
#898=AXIS2_PLACEMENT_3D('',#895,#896,#897);
#899=CIRCLE('',#898,0.6);
#900=EDGE_CURVE('',#886,#894,#899,.T.);
#901=ORIENTED_EDGE('',*,*,#900,.T.);
#902=CARTESIAN_POINT('',(2.505000000000001,5.307999999999998,1.105));
#903=DIRECTION('',(-0.707106781186548,-0.707106781186548,0.0));
#904=VECTOR('',#903,0.282842712474618);
#905=LINE('',#902,#904);
#906=EDGE_CURVE('',#894,#844,#905,.T.);
#907=ORIENTED_EDGE('',*,*,#906,.T.);
#908=CARTESIAN_POINT('',(1.905000000000001,5.107999999999999,1.105));
#909=DIRECTION('',(0.0,-1.0,0.0));
#910=DIRECTION('',(-1.0,0.0,0.0));
#911=AXIS2_PLACEMENT_3D('',#908,#909,#910);
#912=CIRCLE('',#911,0.4);
#913=EDGE_CURVE('',#844,#854,#912,.T.);
#914=ORIENTED_EDGE('',*,*,#913,.T.);
#915=EDGE_LOOP('',(#892,#901,#907,#914));
#916=FACE_OUTER_BOUND('',#915,.T.);
#917=ADVANCED_FACE('',(#916),#884,.F.);
#918=CARTESIAN_POINT('',(0.635000000000001,5.307999999999998,1.105));
#919=DIRECTION('',(-1.836970E-016,-1.0,0.0));
#920=DIRECTION('',(1.0,0.0,0.0));
#921=AXIS2_PLACEMENT_3D('',#918,#919,#920);
#922=CYLINDRICAL_SURFACE('',#921,0.4);
#923=CARTESIAN_POINT('',(1.035000000000002,5.107999999999999,1.105));
#924=VERTEX_POINT('',#923);
#925=CARTESIAN_POINT('',(1.035000000000002,4.307999999999998,1.105));
#926=VERTEX_POINT('',#925);
#927=CARTESIAN_POINT('',(1.035000000000002,5.107999999999999,1.105));
#928=DIRECTION('',(0.0,-1.0,0.0));
#929=VECTOR('',#928,0.800000000000001);
#930=LINE('',#927,#929);
#931=EDGE_CURVE('',#924,#926,#930,.T.);
#932=ORIENTED_EDGE('',*,*,#931,.F.);
#933=CARTESIAN_POINT('',(0.235000000000001,5.107999999999999,1.105));
#934=VERTEX_POINT('',#933);
#935=CARTESIAN_POINT('',(0.635000000000001,5.107999999999999,1.105));
#936=DIRECTION('',(0.0,-1.0,0.0));
#937=DIRECTION('',(-1.0,0.0,0.0));
#938=AXIS2_PLACEMENT_3D('',#935,#936,#937);
#939=CIRCLE('',#938,0.4);
#940=EDGE_CURVE('',#934,#924,#939,.T.);
#941=ORIENTED_EDGE('',*,*,#940,.F.);
#942=CARTESIAN_POINT('',(0.235000000000001,4.307999999999998,1.105));
#943=VERTEX_POINT('',#942);
#944=CARTESIAN_POINT('',(0.235000000000001,5.107999999999999,1.105));
#945=DIRECTION('',(0.0,-1.0,0.0));
#946=VECTOR('',#945,0.800000000000001);
#947=LINE('',#944,#946);
#948=EDGE_CURVE('',#934,#943,#947,.T.);
#949=ORIENTED_EDGE('',*,*,#948,.T.);
#950=CARTESIAN_POINT('',(0.635000000000001,4.307999999999998,1.105));
#951=DIRECTION('',(0.0,1.0,0.0));
#952=DIRECTION('',(1.0,0.0,0.0));
#953=AXIS2_PLACEMENT_3D('',#950,#951,#952);
#954=CIRCLE('',#953,0.4);
#955=EDGE_CURVE('',#926,#943,#954,.T.);
#956=ORIENTED_EDGE('',*,*,#955,.F.);
#957=EDGE_LOOP('',(#932,#941,#949,#956));
#958=FACE_OUTER_BOUND('',#957,.T.);
#959=ADVANCED_FACE('',(#958),#922,.F.);
#960=CARTESIAN_POINT('',(0.635000000000001,5.207999999999998,1.105));
#961=DIRECTION('',(1.836970E-016,1.0,0.0));
#962=DIRECTION('',(-1.0,0.0,0.0));
#963=AXIS2_PLACEMENT_3D('',#960,#961,#962);
#964=CONICAL_SURFACE('',#963,0.5,44.999999999999986);
#965=CARTESIAN_POINT('',(0.035000000000001,5.307999999999999,1.105));
#966=VERTEX_POINT('',#965);
#967=CARTESIAN_POINT('',(0.035000000000001,5.307999999999999,1.105));
#968=DIRECTION('',(0.707106781186548,-0.707106781186547,0.0));
#969=VECTOR('',#968,0.282842712474619);
#970=LINE('',#967,#969);
#971=EDGE_CURVE('',#966,#934,#970,.T.);
#972=ORIENTED_EDGE('',*,*,#971,.F.);
#973=CARTESIAN_POINT('',(1.235000000000001,5.307999999999999,1.105));
#974=VERTEX_POINT('',#973);
#975=CARTESIAN_POINT('',(0.635000000000001,5.307999999999999,1.105));
#976=DIRECTION('',(0.0,1.0,0.0));
#977=DIRECTION('',(-1.0,0.0,0.0));
#978=AXIS2_PLACEMENT_3D('',#975,#976,#977);
#979=CIRCLE('',#978,0.6);
#980=EDGE_CURVE('',#966,#974,#979,.T.);
#981=ORIENTED_EDGE('',*,*,#980,.T.);
#982=CARTESIAN_POINT('',(1.235000000000002,5.307999999999999,1.105));
#983=DIRECTION('',(-0.707106781186547,-0.707106781186548,0.0));
#984=VECTOR('',#983,0.282842712474619);
#985=LINE('',#982,#984);
#986=EDGE_CURVE('',#974,#924,#985,.T.);
#987=ORIENTED_EDGE('',*,*,#986,.T.);
#988=CARTESIAN_POINT('',(0.635000000000001,5.107999999999999,1.105));
#989=DIRECTION('',(0.0,-1.0,0.0));
#990=DIRECTION('',(-1.0,0.0,0.0));
#991=AXIS2_PLACEMENT_3D('',#988,#989,#990);
#992=CIRCLE('',#991,0.4);
#993=EDGE_CURVE('',#924,#934,#992,.T.);
#994=ORIENTED_EDGE('',*,*,#993,.T.);
#995=EDGE_LOOP('',(#972,#981,#987,#994));
#996=FACE_OUTER_BOUND('',#995,.T.);
#997=ADVANCED_FACE('',(#996),#964,.F.);
#998=CARTESIAN_POINT('',(-0.634999999999999,5.307999999999999,1.105000000000001));
#999=DIRECTION('',(-1.836970E-016,-1.0,0.0));
#1000=DIRECTION('',(1.0,0.0,0.0));
#1001=AXIS2_PLACEMENT_3D('',#998,#999,#1000);
#1002=CYLINDRICAL_SURFACE('',#1001,0.4);
#1003=CARTESIAN_POINT('',(-0.234999999999999,5.107999999999999,1.105000000000001));
#1004=VERTEX_POINT('',#1003);
#1005=CARTESIAN_POINT('',(-0.234999999999999,4.307999999999998,1.105));
#1006=VERTEX_POINT('',#1005);
#1007=CARTESIAN_POINT('',(-0.234999999999999,5.107999999999999,1.105000000000001));
#1008=DIRECTION('',(0.0,-1.0,0.0));
#1009=VECTOR('',#1008,0.800000000000001);
#1010=LINE('',#1007,#1009);
#1011=EDGE_CURVE('',#1004,#1006,#1010,.T.);
#1012=ORIENTED_EDGE('',*,*,#1011,.F.);
#1013=CARTESIAN_POINT('',(-1.034999999999999,5.107999999999999,1.105000000000001));
#1014=VERTEX_POINT('',#1013);
#1015=CARTESIAN_POINT('',(-0.634999999999999,5.107999999999999,1.105000000000001));
#1016=DIRECTION('',(0.0,-1.0,0.0));
#1017=DIRECTION('',(-1.0,0.0,0.0));
#1018=AXIS2_PLACEMENT_3D('',#1015,#1016,#1017);
#1019=CIRCLE('',#1018,0.4);
#1020=EDGE_CURVE('',#1014,#1004,#1019,.T.);
#1021=ORIENTED_EDGE('',*,*,#1020,.F.);
#1022=CARTESIAN_POINT('',(-1.034999999999999,4.307999999999998,1.105000000000001));
#1023=VERTEX_POINT('',#1022);
#1024=CARTESIAN_POINT('',(-1.034999999999999,5.107999999999999,1.105000000000001));
#1025=DIRECTION('',(0.0,-1.0,0.0));
#1026=VECTOR('',#1025,0.800000000000001);
#1027=LINE('',#1024,#1026);
#1028=EDGE_CURVE('',#1014,#1023,#1027,.T.);
#1029=ORIENTED_EDGE('',*,*,#1028,.T.);
#1030=CARTESIAN_POINT('',(-0.634999999999999,4.307999999999998,1.105));
#1031=DIRECTION('',(0.0,1.0,0.0));
#1032=DIRECTION('',(1.0,0.0,0.0));
#1033=AXIS2_PLACEMENT_3D('',#1030,#1031,#1032);
#1034=CIRCLE('',#1033,0.4);
#1035=EDGE_CURVE('',#1006,#1023,#1034,.T.);
#1036=ORIENTED_EDGE('',*,*,#1035,.F.);
#1037=EDGE_LOOP('',(#1012,#1021,#1029,#1036));
#1038=FACE_OUTER_BOUND('',#1037,.T.);
#1039=ADVANCED_FACE('',(#1038),#1002,.F.);
#1040=CARTESIAN_POINT('',(-0.634999999999999,5.207999999999998,1.105000000000001));
#1041=DIRECTION('',(1.836970E-016,1.0,0.0));
#1042=DIRECTION('',(-1.0,0.0,0.0));
#1043=AXIS2_PLACEMENT_3D('',#1040,#1041,#1042);
#1044=CONICAL_SURFACE('',#1043,0.5,44.999999999999979);
#1045=CARTESIAN_POINT('',(-1.234999999999999,5.307999999999999,1.105000000000001));
#1046=VERTEX_POINT('',#1045);
#1047=CARTESIAN_POINT('',(-1.234999999999999,5.307999999999999,1.105000000000001));
#1048=DIRECTION('',(0.707106781186547,-0.707106781186547,0.0));
#1049=VECTOR('',#1048,0.282842712474619);
#1050=LINE('',#1047,#1049);
#1051=EDGE_CURVE('',#1046,#1014,#1050,.T.);
#1052=ORIENTED_EDGE('',*,*,#1051,.F.);
#1053=CARTESIAN_POINT('',(-0.034999999999999,5.307999999999999,1.105000000000001));
#1054=VERTEX_POINT('',#1053);
#1055=CARTESIAN_POINT('',(-0.634999999999999,5.307999999999999,1.105000000000001));
#1056=DIRECTION('',(0.0,1.0,0.0));
#1057=DIRECTION('',(-1.0,0.0,0.0));
#1058=AXIS2_PLACEMENT_3D('',#1055,#1056,#1057);
#1059=CIRCLE('',#1058,0.6);
#1060=EDGE_CURVE('',#1046,#1054,#1059,.T.);
#1061=ORIENTED_EDGE('',*,*,#1060,.T.);
#1062=CARTESIAN_POINT('',(-0.034999999999998,5.307999999999999,1.105000000000001));
#1063=DIRECTION('',(-0.707106781186547,-0.707106781186548,0.0));
#1064=VECTOR('',#1063,0.282842712474619);
#1065=LINE('',#1062,#1064);
#1066=EDGE_CURVE('',#1054,#1004,#1065,.T.);
#1067=ORIENTED_EDGE('',*,*,#1066,.T.);
#1068=CARTESIAN_POINT('',(-0.634999999999999,5.107999999999999,1.105000000000001));
#1069=DIRECTION('',(0.0,-1.0,0.0));
#1070=DIRECTION('',(-1.0,0.0,0.0));
#1071=AXIS2_PLACEMENT_3D('',#1068,#1069,#1070);
#1072=CIRCLE('',#1071,0.4);
#1073=EDGE_CURVE('',#1004,#1014,#1072,.T.);
#1074=ORIENTED_EDGE('',*,*,#1073,.T.);
#1075=EDGE_LOOP('',(#1052,#1061,#1067,#1074));
#1076=FACE_OUTER_BOUND('',#1075,.T.);
#1077=ADVANCED_FACE('',(#1076),#1044,.F.);
#1078=CARTESIAN_POINT('',(-1.904999999999999,5.307999999999999,1.105000000000001));
#1079=DIRECTION('',(-1.836970E-016,-1.0,0.0));
#1080=DIRECTION('',(1.0,0.0,0.0));
#1081=AXIS2_PLACEMENT_3D('',#1078,#1079,#1080);
#1082=CYLINDRICAL_SURFACE('',#1081,0.4);
#1083=CARTESIAN_POINT('',(-1.504999999999999,5.107999999999999,1.105000000000001));
#1084=VERTEX_POINT('',#1083);
#1085=CARTESIAN_POINT('',(-1.504999999999999,4.307999999999998,1.105000000000001));
#1086=VERTEX_POINT('',#1085);
#1087=CARTESIAN_POINT('',(-1.504999999999999,5.107999999999999,1.105000000000001));
#1088=DIRECTION('',(0.0,-1.0,0.0));
#1089=VECTOR('',#1088,0.800000000000001);
#1090=LINE('',#1087,#1089);
#1091=EDGE_CURVE('',#1084,#1086,#1090,.T.);
#1092=ORIENTED_EDGE('',*,*,#1091,.F.);
#1093=CARTESIAN_POINT('',(-2.305,5.107999999999999,1.105000000000001));
#1094=VERTEX_POINT('',#1093);
#1095=CARTESIAN_POINT('',(-1.904999999999999,5.107999999999999,1.105000000000001));
#1096=DIRECTION('',(0.0,-1.0,0.0));
#1097=DIRECTION('',(-1.0,0.0,0.0));
#1098=AXIS2_PLACEMENT_3D('',#1095,#1096,#1097);
#1099=CIRCLE('',#1098,0.4);
#1100=EDGE_CURVE('',#1094,#1084,#1099,.T.);
#1101=ORIENTED_EDGE('',*,*,#1100,.F.);
#1102=CARTESIAN_POINT('',(-2.304999999999999,4.307999999999998,1.105000000000001));
#1103=VERTEX_POINT('',#1102);
#1104=CARTESIAN_POINT('',(-2.304999999999999,5.107999999999999,1.105000000000001));
#1105=DIRECTION('',(0.0,-1.0,0.0));
#1106=VECTOR('',#1105,0.800000000000001);
#1107=LINE('',#1104,#1106);
#1108=EDGE_CURVE('',#1094,#1103,#1107,.T.);
#1109=ORIENTED_EDGE('',*,*,#1108,.T.);
#1110=CARTESIAN_POINT('',(-1.904999999999999,4.307999999999998,1.105000000000001));
#1111=DIRECTION('',(0.0,1.0,0.0));
#1112=DIRECTION('',(1.0,0.0,0.0));
#1113=AXIS2_PLACEMENT_3D('',#1110,#1111,#1112);
#1114=CIRCLE('',#1113,0.4);
#1115=EDGE_CURVE('',#1086,#1103,#1114,.T.);
#1116=ORIENTED_EDGE('',*,*,#1115,.F.);
#1117=EDGE_LOOP('',(#1092,#1101,#1109,#1116));
#1118=FACE_OUTER_BOUND('',#1117,.T.);
#1119=ADVANCED_FACE('',(#1118),#1082,.F.);
#1120=CARTESIAN_POINT('',(-1.904999999999999,5.207999999999998,1.105000000000001));
#1121=DIRECTION('',(1.836970E-016,1.0,0.0));
#1122=DIRECTION('',(-1.0,0.0,0.0));
#1123=AXIS2_PLACEMENT_3D('',#1120,#1121,#1122);
#1124=CONICAL_SURFACE('',#1123,0.5,44.999999999999993);
#1125=CARTESIAN_POINT('',(-2.505,5.307999999999999,1.105000000000001));
#1126=VERTEX_POINT('',#1125);
#1127=CARTESIAN_POINT('',(-2.505,5.307999999999999,1.105000000000001));
#1128=DIRECTION('',(0.707106781186547,-0.707106781186547,0.0));
#1129=VECTOR('',#1128,0.282842712474619);
#1130=LINE('',#1127,#1129);
#1131=EDGE_CURVE('',#1126,#1094,#1130,.T.);
#1132=ORIENTED_EDGE('',*,*,#1131,.F.);
#1133=CARTESIAN_POINT('',(-1.304999999999999,5.307999999999999,1.105000000000001));
#1134=VERTEX_POINT('',#1133);
#1135=CARTESIAN_POINT('',(-1.904999999999999,5.307999999999999,1.105000000000001));
#1136=DIRECTION('',(0.0,1.0,0.0));
#1137=DIRECTION('',(-1.0,0.0,0.0));
#1138=AXIS2_PLACEMENT_3D('',#1135,#1136,#1137);
#1139=CIRCLE('',#1138,0.6);
#1140=EDGE_CURVE('',#1126,#1134,#1139,.T.);
#1141=ORIENTED_EDGE('',*,*,#1140,.T.);
#1142=CARTESIAN_POINT('',(-1.304999999999999,5.307999999999999,1.105000000000001));
#1143=DIRECTION('',(-0.707106781186547,-0.707106781186547,0.0));
#1144=VECTOR('',#1143,0.282842712474619);
#1145=LINE('',#1142,#1144);
#1146=EDGE_CURVE('',#1134,#1084,#1145,.T.);
#1147=ORIENTED_EDGE('',*,*,#1146,.T.);
#1148=CARTESIAN_POINT('',(-1.904999999999999,5.107999999999999,1.105000000000001));
#1149=DIRECTION('',(0.0,-1.0,0.0));
#1150=DIRECTION('',(-1.0,0.0,0.0));
#1151=AXIS2_PLACEMENT_3D('',#1148,#1149,#1150);
#1152=CIRCLE('',#1151,0.4);
#1153=EDGE_CURVE('',#1084,#1094,#1152,.T.);
#1154=ORIENTED_EDGE('',*,*,#1153,.T.);
#1155=EDGE_LOOP('',(#1132,#1141,#1147,#1154));
#1156=FACE_OUTER_BOUND('',#1155,.T.);
#1157=ADVANCED_FACE('',(#1156),#1124,.F.);
#1158=CARTESIAN_POINT('',(-1.904999999999999,4.307999999999998,1.105000000000001));
#1159=DIRECTION('',(0.0,-1.0,0.0));
#1160=DIRECTION('',(0.0,0.0,-1.0));
#1161=AXIS2_PLACEMENT_3D('',#1158,#1159,#1160);
#1162=PLANE('',#1161);
#1163=ORIENTED_EDGE('',*,*,#1115,.T.);
#1164=CARTESIAN_POINT('',(-1.904999999999999,4.307999999999998,1.105000000000001));
#1165=DIRECTION('',(0.0,1.0,0.0));
#1166=DIRECTION('',(1.0,0.0,0.0));
#1167=AXIS2_PLACEMENT_3D('',#1164,#1165,#1166);
#1168=CIRCLE('',#1167,0.4);
#1169=EDGE_CURVE('',#1103,#1086,#1168,.T.);
#1170=ORIENTED_EDGE('',*,*,#1169,.T.);
#1171=EDGE_LOOP('',(#1163,#1170));
#1172=FACE_OUTER_BOUND('',#1171,.T.);
#1173=ADVANCED_FACE('',(#1172),#1162,.F.);
#1174=CARTESIAN_POINT('',(-0.634999999999999,4.307999999999998,1.105));
#1175=DIRECTION('',(0.0,-1.0,0.0));
#1176=DIRECTION('',(0.0,0.0,-1.0));
#1177=AXIS2_PLACEMENT_3D('',#1174,#1175,#1176);
#1178=PLANE('',#1177);
#1179=ORIENTED_EDGE('',*,*,#1035,.T.);
#1180=CARTESIAN_POINT('',(-0.634999999999999,4.307999999999998,1.105));
#1181=DIRECTION('',(0.0,1.0,0.0));
#1182=DIRECTION('',(1.0,0.0,0.0));
#1183=AXIS2_PLACEMENT_3D('',#1180,#1181,#1182);
#1184=CIRCLE('',#1183,0.4);
#1185=EDGE_CURVE('',#1023,#1006,#1184,.T.);
#1186=ORIENTED_EDGE('',*,*,#1185,.T.);
#1187=EDGE_LOOP('',(#1179,#1186));
#1188=FACE_OUTER_BOUND('',#1187,.T.);
#1189=ADVANCED_FACE('',(#1188),#1178,.F.);
#1190=CARTESIAN_POINT('',(0.635000000000001,4.307999999999998,1.105));
#1191=DIRECTION('',(0.0,-1.0,0.0));
#1192=DIRECTION('',(0.0,0.0,-1.0));
#1193=AXIS2_PLACEMENT_3D('',#1190,#1191,#1192);
#1194=PLANE('',#1193);
#1195=ORIENTED_EDGE('',*,*,#955,.T.);
#1196=CARTESIAN_POINT('',(0.635000000000001,4.307999999999998,1.105));
#1197=DIRECTION('',(0.0,1.0,0.0));
#1198=DIRECTION('',(1.0,0.0,0.0));
#1199=AXIS2_PLACEMENT_3D('',#1196,#1197,#1198);
#1200=CIRCLE('',#1199,0.4);
#1201=EDGE_CURVE('',#943,#926,#1200,.T.);
#1202=ORIENTED_EDGE('',*,*,#1201,.T.);
#1203=EDGE_LOOP('',(#1195,#1202));
#1204=FACE_OUTER_BOUND('',#1203,.T.);
#1205=ADVANCED_FACE('',(#1204),#1194,.F.);
#1206=CARTESIAN_POINT('',(1.905000000000001,4.307999999999998,1.105));
#1207=DIRECTION('',(0.0,-1.0,0.0));
#1208=DIRECTION('',(0.0,0.0,-1.0));
#1209=AXIS2_PLACEMENT_3D('',#1206,#1207,#1208);
#1210=PLANE('',#1209);
#1211=ORIENTED_EDGE('',*,*,#875,.T.);
#1212=CARTESIAN_POINT('',(1.905000000000001,4.307999999999998,1.105));
#1213=DIRECTION('',(0.0,1.0,0.0));
#1214=DIRECTION('',(1.0,0.0,0.0));
#1215=AXIS2_PLACEMENT_3D('',#1212,#1213,#1214);
#1216=CIRCLE('',#1215,0.4);
#1217=EDGE_CURVE('',#863,#846,#1216,.T.);
#1218=ORIENTED_EDGE('',*,*,#1217,.T.);
#1219=EDGE_LOOP('',(#1211,#1218));
#1220=FACE_OUTER_BOUND('',#1219,.T.);
#1221=ADVANCED_FACE('',(#1220),#1210,.F.);
#1222=CARTESIAN_POINT('',(-1.904999999999999,5.207999999999998,1.105000000000001));
#1223=DIRECTION('',(1.836970E-016,1.0,0.0));
#1224=DIRECTION('',(-1.0,0.0,0.0));
#1225=AXIS2_PLACEMENT_3D('',#1222,#1223,#1224);
#1226=CONICAL_SURFACE('',#1225,0.5,44.999999999999993);
#1227=ORIENTED_EDGE('',*,*,#1131,.T.);
#1228=ORIENTED_EDGE('',*,*,#1100,.T.);
#1229=ORIENTED_EDGE('',*,*,#1146,.F.);
#1230=CARTESIAN_POINT('',(-1.904999999999999,5.307999999999999,1.105000000000001));
#1231=DIRECTION('',(0.0,1.0,0.0));
#1232=DIRECTION('',(-1.0,0.0,0.0));
#1233=AXIS2_PLACEMENT_3D('',#1230,#1231,#1232);
#1234=CIRCLE('',#1233,0.6);
#1235=EDGE_CURVE('',#1134,#1126,#1234,.T.);
#1236=ORIENTED_EDGE('',*,*,#1235,.T.);
#1237=EDGE_LOOP('',(#1227,#1228,#1229,#1236));
#1238=FACE_OUTER_BOUND('',#1237,.T.);
#1239=ADVANCED_FACE('',(#1238),#1226,.F.);
#1240=CARTESIAN_POINT('',(-2.730499999999999,5.308,2.21));
#1241=CARTESIAN_POINT('',(-2.730499999999999,5.308,0.0));
#1242=CARTESIAN_POINT('',(2.730500000000002,5.307999999999999,2.21));
#1243=CARTESIAN_POINT('',(2.730500000000002,5.308,0.0));
#1244=B_SPLINE_SURFACE_WITH_KNOTS('',1,1,((#1240,#1242),(#1241,#1243)),.UNSPECIFIED.,.F.,.F.,.U.,(2,2),(2,2),(0.0,2.21),(0.0,5.461000000000001),.UNSPECIFIED.);
#1245=CARTESIAN_POINT('',(-2.730499999999999,5.308,2.21));
#1246=VERTEX_POINT('',#1245);
#1247=CARTESIAN_POINT('',(-2.730499999999999,5.308,0.0));
#1248=VERTEX_POINT('',#1247);
#1249=CARTESIAN_POINT('',(-2.730499999999999,5.308,2.21));
#1250=DIRECTION('',(0.0,0.0,-1.0));
#1251=VECTOR('',#1250,2.21);
#1252=LINE('',#1249,#1251);
#1253=EDGE_CURVE('',#1246,#1248,#1252,.T.);
#1254=ORIENTED_EDGE('',*,*,#1253,.F.);
#1255=CARTESIAN_POINT('',(2.730500000000002,5.307999999999998,2.21));
#1256=VERTEX_POINT('',#1255);
#1257=CARTESIAN_POINT('',(-2.730499999999999,5.308,2.21));
#1258=DIRECTION('',(1.0,0.0,0.0));
#1259=VECTOR('',#1258,5.461000000000001);
#1260=LINE('',#1257,#1259);
#1261=EDGE_CURVE('',#1246,#1256,#1260,.T.);
#1262=ORIENTED_EDGE('',*,*,#1261,.T.);
#1263=CARTESIAN_POINT('',(2.730500000000002,5.307999999999998,0.0));
#1264=VERTEX_POINT('',#1263);
#1265=CARTESIAN_POINT('',(2.730500000000002,5.307999999999998,2.21));
#1266=DIRECTION('',(0.0,0.0,-1.0));
#1267=VECTOR('',#1266,2.21);
#1268=LINE('',#1265,#1267);
#1269=EDGE_CURVE('',#1256,#1264,#1268,.T.);
#1270=ORIENTED_EDGE('',*,*,#1269,.T.);
#1271=CARTESIAN_POINT('',(2.730500000000002,5.307999999999998,0.0));
#1272=DIRECTION('',(-1.0,0.0,0.0));
#1273=VECTOR('',#1272,5.461000000000001);
#1274=LINE('',#1271,#1273);
#1275=EDGE_CURVE('',#1264,#1248,#1274,.T.);
#1276=ORIENTED_EDGE('',*,*,#1275,.T.);
#1277=EDGE_LOOP('',(#1254,#1262,#1270,#1276));
#1278=FACE_OUTER_BOUND('',#1277,.T.);
#1279=CARTESIAN_POINT('',(-0.634999999999999,5.307999999999999,1.105000000000001));
#1280=DIRECTION('',(0.0,1.0,0.0));
#1281=DIRECTION('',(-1.0,0.0,0.0));
#1282=AXIS2_PLACEMENT_3D('',#1279,#1280,#1281);
#1283=CIRCLE('',#1282,0.6);
#1284=EDGE_CURVE('',#1054,#1046,#1283,.T.);
#1285=ORIENTED_EDGE('',*,*,#1284,.F.);
#1286=ORIENTED_EDGE('',*,*,#1060,.F.);
#1287=EDGE_LOOP('',(#1285,#1286));
#1288=FACE_BOUND('',#1287,.T.);
#1289=CARTESIAN_POINT('',(1.905000000000001,5.307999999999999,1.105));
#1290=DIRECTION('',(0.0,1.0,0.0));
#1291=DIRECTION('',(-1.0,0.0,0.0));
#1292=AXIS2_PLACEMENT_3D('',#1289,#1290,#1291);
#1293=CIRCLE('',#1292,0.6);
#1294=EDGE_CURVE('',#894,#886,#1293,.T.);
#1295=ORIENTED_EDGE('',*,*,#1294,.F.);
#1296=ORIENTED_EDGE('',*,*,#900,.F.);
#1297=EDGE_LOOP('',(#1295,#1296));
#1298=FACE_BOUND('',#1297,.T.);
#1299=CARTESIAN_POINT('',(0.635000000000001,5.307999999999999,1.105));
#1300=DIRECTION('',(0.0,1.0,0.0));
#1301=DIRECTION('',(-1.0,0.0,0.0));
#1302=AXIS2_PLACEMENT_3D('',#1299,#1300,#1301);
#1303=CIRCLE('',#1302,0.6);
#1304=EDGE_CURVE('',#974,#966,#1303,.T.);
#1305=ORIENTED_EDGE('',*,*,#1304,.F.);
#1306=ORIENTED_EDGE('',*,*,#980,.F.);
#1307=EDGE_LOOP('',(#1305,#1306));
#1308=FACE_BOUND('',#1307,.T.);
#1309=ORIENTED_EDGE('',*,*,#1235,.F.);
#1310=ORIENTED_EDGE('',*,*,#1140,.F.);
#1311=EDGE_LOOP('',(#1309,#1310));
#1312=FACE_BOUND('',#1311,.T.);
#1313=ADVANCED_FACE('',(#1278,#1288,#1298,#1308,#1312),#1244,.F.);
#1314=CARTESIAN_POINT('',(-1.904999999999999,5.307999999999999,1.105000000000001));
#1315=DIRECTION('',(-1.836970E-016,-1.0,0.0));
#1316=DIRECTION('',(1.0,0.0,0.0));
#1317=AXIS2_PLACEMENT_3D('',#1314,#1315,#1316);
#1318=CYLINDRICAL_SURFACE('',#1317,0.4);
#1319=ORIENTED_EDGE('',*,*,#1091,.T.);
#1320=ORIENTED_EDGE('',*,*,#1169,.F.);
#1321=ORIENTED_EDGE('',*,*,#1108,.F.);
#1322=ORIENTED_EDGE('',*,*,#1153,.F.);
#1323=EDGE_LOOP('',(#1319,#1320,#1321,#1322));
#1324=FACE_OUTER_BOUND('',#1323,.T.);
#1325=ADVANCED_FACE('',(#1324),#1318,.F.);
#1326=CARTESIAN_POINT('',(-0.634999999999999,5.207999999999998,1.105000000000001));
#1327=DIRECTION('',(1.836970E-016,1.0,0.0));
#1328=DIRECTION('',(-1.0,0.0,0.0));
#1329=AXIS2_PLACEMENT_3D('',#1326,#1327,#1328);
#1330=CONICAL_SURFACE('',#1329,0.5,44.999999999999979);
#1331=ORIENTED_EDGE('',*,*,#1051,.T.);
#1332=ORIENTED_EDGE('',*,*,#1020,.T.);
#1333=ORIENTED_EDGE('',*,*,#1066,.F.);
#1334=ORIENTED_EDGE('',*,*,#1284,.T.);
#1335=EDGE_LOOP('',(#1331,#1332,#1333,#1334));
#1336=FACE_OUTER_BOUND('',#1335,.T.);
#1337=ADVANCED_FACE('',(#1336),#1330,.F.);
#1338=CARTESIAN_POINT('',(-0.634999999999999,5.307999999999999,1.105000000000001));
#1339=DIRECTION('',(-1.836970E-016,-1.0,0.0));
#1340=DIRECTION('',(1.0,0.0,0.0));
#1341=AXIS2_PLACEMENT_3D('',#1338,#1339,#1340);
#1342=CYLINDRICAL_SURFACE('',#1341,0.4);
#1343=ORIENTED_EDGE('',*,*,#1011,.T.);
#1344=ORIENTED_EDGE('',*,*,#1185,.F.);
#1345=ORIENTED_EDGE('',*,*,#1028,.F.);
#1346=ORIENTED_EDGE('',*,*,#1073,.F.);
#1347=EDGE_LOOP('',(#1343,#1344,#1345,#1346));
#1348=FACE_OUTER_BOUND('',#1347,.T.);
#1349=ADVANCED_FACE('',(#1348),#1342,.F.);
#1350=CARTESIAN_POINT('',(0.635000000000001,5.207999999999998,1.105));
#1351=DIRECTION('',(1.836970E-016,1.0,0.0));
#1352=DIRECTION('',(-1.0,0.0,0.0));
#1353=AXIS2_PLACEMENT_3D('',#1350,#1351,#1352);
#1354=CONICAL_SURFACE('',#1353,0.5,44.999999999999986);
#1355=ORIENTED_EDGE('',*,*,#971,.T.);
#1356=ORIENTED_EDGE('',*,*,#940,.T.);
#1357=ORIENTED_EDGE('',*,*,#986,.F.);
#1358=ORIENTED_EDGE('',*,*,#1304,.T.);
#1359=EDGE_LOOP('',(#1355,#1356,#1357,#1358));
#1360=FACE_OUTER_BOUND('',#1359,.T.);
#1361=ADVANCED_FACE('',(#1360),#1354,.F.);
#1362=CARTESIAN_POINT('',(0.635000000000001,5.307999999999998,1.105));
#1363=DIRECTION('',(-1.836970E-016,-1.0,0.0));
#1364=DIRECTION('',(1.0,0.0,0.0));
#1365=AXIS2_PLACEMENT_3D('',#1362,#1363,#1364);
#1366=CYLINDRICAL_SURFACE('',#1365,0.4);
#1367=ORIENTED_EDGE('',*,*,#931,.T.);
#1368=ORIENTED_EDGE('',*,*,#1201,.F.);
#1369=ORIENTED_EDGE('',*,*,#948,.F.);
#1370=ORIENTED_EDGE('',*,*,#993,.F.);
#1371=EDGE_LOOP('',(#1367,#1368,#1369,#1370));
#1372=FACE_OUTER_BOUND('',#1371,.T.);
#1373=ADVANCED_FACE('',(#1372),#1366,.F.);
#1374=CARTESIAN_POINT('',(1.905000000000001,5.207999999999998,1.105));
#1375=DIRECTION('',(1.836970E-016,1.0,0.0));
#1376=DIRECTION('',(-1.0,0.0,0.0));
#1377=AXIS2_PLACEMENT_3D('',#1374,#1375,#1376);
#1378=CONICAL_SURFACE('',#1377,0.5,44.999999999999979);
#1379=ORIENTED_EDGE('',*,*,#891,.T.);
#1380=ORIENTED_EDGE('',*,*,#860,.T.);
#1381=ORIENTED_EDGE('',*,*,#906,.F.);
#1382=ORIENTED_EDGE('',*,*,#1294,.T.);
#1383=EDGE_LOOP('',(#1379,#1380,#1381,#1382));
#1384=FACE_OUTER_BOUND('',#1383,.T.);
#1385=ADVANCED_FACE('',(#1384),#1378,.F.);
#1386=CARTESIAN_POINT('',(1.905000000000001,5.307999999999998,1.105));
#1387=DIRECTION('',(-1.836970E-016,-1.0,0.0));
#1388=DIRECTION('',(1.0,0.0,0.0));
#1389=AXIS2_PLACEMENT_3D('',#1386,#1387,#1388);
#1390=CYLINDRICAL_SURFACE('',#1389,0.4);
#1391=ORIENTED_EDGE('',*,*,#851,.T.);
#1392=ORIENTED_EDGE('',*,*,#1217,.F.);
#1393=ORIENTED_EDGE('',*,*,#868,.F.);
#1394=ORIENTED_EDGE('',*,*,#913,.F.);
#1395=EDGE_LOOP('',(#1391,#1392,#1393,#1394));
#1396=FACE_OUTER_BOUND('',#1395,.T.);
#1397=ADVANCED_FACE('',(#1396),#1390,.F.);
#1398=CARTESIAN_POINT('',(6.731243E-016,1.376749999999999,1.8925));
#1399=DIRECTION('',(0.0,0.0,-1.0));
#1400=DIRECTION('',(1.0,0.0,0.0));
#1401=AXIS2_PLACEMENT_3D('',#1398,#1399,#1400);
#1402=PLANE('',#1401);
#1403=CARTESIAN_POINT('',(2.730500000000002,1.535499999999999,1.892499999999999));
#1404=VERTEX_POINT('',#1403);
#1405=CARTESIAN_POINT('',(-2.7305,1.535499999999999,1.8925));
#1406=VERTEX_POINT('',#1405);
#1407=CARTESIAN_POINT('',(2.730500000000002,1.535499999999999,1.892499999999999));
#1408=DIRECTION('',(-1.0,0.0,0.0));
#1409=VECTOR('',#1408,5.461000000000002);
#1410=LINE('',#1407,#1409);
#1411=EDGE_CURVE('',#1404,#1406,#1410,.T.);
#1412=ORIENTED_EDGE('',*,*,#1411,.F.);
#1413=CARTESIAN_POINT('',(2.730500000000002,1.217999999999999,1.892499999999999));
#1414=VERTEX_POINT('',#1413);
#1415=CARTESIAN_POINT('',(2.730500000000002,1.217999999999999,1.892499999999999));
#1416=DIRECTION('',(0.0,1.0,0.0));
#1417=VECTOR('',#1416,0.3175);
#1418=LINE('',#1415,#1417);
#1419=EDGE_CURVE('',#1414,#1404,#1418,.T.);
#1420=ORIENTED_EDGE('',*,*,#1419,.F.);
#1421=CARTESIAN_POINT('',(-2.7305,1.218,1.8925));
#1422=VERTEX_POINT('',#1421);
#1423=CARTESIAN_POINT('',(-2.730500000000001,1.218,1.8925));
#1424=DIRECTION('',(1.0,0.0,0.0));
#1425=VECTOR('',#1424,5.461000000000002);
#1426=LINE('',#1423,#1425);
#1427=EDGE_CURVE('',#1422,#1414,#1426,.T.);
#1428=ORIENTED_EDGE('',*,*,#1427,.F.);
#1429=CARTESIAN_POINT('',(-2.7305,1.535499999999999,1.8925));
#1430=DIRECTION('',(0.0,-1.0,0.0));
#1431=VECTOR('',#1430,0.3175);
#1432=LINE('',#1429,#1431);
#1433=EDGE_CURVE('',#1406,#1422,#1432,.T.);
#1434=ORIENTED_EDGE('',*,*,#1433,.F.);
#1435=EDGE_LOOP('',(#1412,#1420,#1428,#1434));
#1436=FACE_OUTER_BOUND('',#1435,.T.);
#1437=ADVANCED_FACE('',(#1436),#1402,.T.);
#1438=CARTESIAN_POINT('',(5.274261E-016,1.535499999999999,1.105));
#1439=DIRECTION('',(0.0,-1.0,0.0));
#1440=DIRECTION('',(-1.0,0.0,0.0));
#1441=AXIS2_PLACEMENT_3D('',#1438,#1439,#1440);
#1442=PLANE('',#1441);
#1443=CARTESIAN_POINT('',(2.730500000000002,1.535499999999999,0.3175));
#1444=VERTEX_POINT('',#1443);
#1445=CARTESIAN_POINT('',(-2.7305,1.535499999999999,0.317500000000001));
#1446=VERTEX_POINT('',#1445);
#1447=CARTESIAN_POINT('',(2.730500000000002,1.535499999999999,0.3175));
#1448=DIRECTION('',(-1.0,0.0,0.0));
#1449=VECTOR('',#1448,5.461000000000002);
#1450=LINE('',#1447,#1449);
#1451=EDGE_CURVE('',#1444,#1446,#1450,.T.);
#1452=ORIENTED_EDGE('',*,*,#1451,.F.);
#1453=CARTESIAN_POINT('',(2.730500000000002,1.535499999999999,1.892499999999999));
#1454=DIRECTION('',(0.0,0.0,-1.0));
#1455=VECTOR('',#1454,1.574999999999999);
#1456=LINE('',#1453,#1455);
#1457=EDGE_CURVE('',#1404,#1444,#1456,.T.);
#1458=ORIENTED_EDGE('',*,*,#1457,.F.);
#1459=ORIENTED_EDGE('',*,*,#1411,.T.);
#1460=CARTESIAN_POINT('',(-2.7305,1.535499999999999,0.317500000000001));
#1461=DIRECTION('',(0.0,0.0,1.0));
#1462=VECTOR('',#1461,1.574999999999999);
#1463=LINE('',#1460,#1462);
#1464=EDGE_CURVE('',#1446,#1406,#1463,.T.);
#1465=ORIENTED_EDGE('',*,*,#1464,.F.);
#1466=EDGE_LOOP('',(#1452,#1458,#1459,#1465));
#1467=FACE_OUTER_BOUND('',#1466,.T.);
#1468=ADVANCED_FACE('',(#1467),#1442,.T.);
#1469=CARTESIAN_POINT('',(3.234040E-016,1.376749999999999,0.3175));
#1470=DIRECTION('',(0.0,0.0,1.0));
#1471=DIRECTION('',(-1.0,0.0,0.0));
#1472=AXIS2_PLACEMENT_3D('',#1469,#1470,#1471);
#1473=PLANE('',#1472);
#1474=CARTESIAN_POINT('',(2.730500000000002,1.217999999999999,0.3175));
#1475=VERTEX_POINT('',#1474);
#1476=CARTESIAN_POINT('',(-2.7305,1.218,0.317500000000001));
#1477=VERTEX_POINT('',#1476);
#1478=CARTESIAN_POINT('',(2.730500000000002,1.217999999999999,0.3175));
#1479=DIRECTION('',(-1.0,0.0,0.0));
#1480=VECTOR('',#1479,5.461000000000002);
#1481=LINE('',#1478,#1480);
#1482=EDGE_CURVE('',#1475,#1477,#1481,.T.);
#1483=ORIENTED_EDGE('',*,*,#1482,.F.);
#1484=CARTESIAN_POINT('',(2.730500000000002,1.535499999999999,0.3175));
#1485=DIRECTION('',(0.0,-1.0,0.0));
#1486=VECTOR('',#1485,0.3175);
#1487=LINE('',#1484,#1486);
#1488=EDGE_CURVE('',#1444,#1475,#1487,.T.);
#1489=ORIENTED_EDGE('',*,*,#1488,.F.);
#1490=ORIENTED_EDGE('',*,*,#1451,.T.);
#1491=CARTESIAN_POINT('',(-2.7305,1.218,0.317500000000001));
#1492=DIRECTION('',(0.0,1.0,0.0));
#1493=VECTOR('',#1492,0.3175);
#1494=LINE('',#1491,#1493);
#1495=EDGE_CURVE('',#1477,#1446,#1494,.T.);
#1496=ORIENTED_EDGE('',*,*,#1495,.F.);
#1497=EDGE_LOOP('',(#1483,#1489,#1490,#1496));
#1498=FACE_OUTER_BOUND('',#1497,.T.);
#1499=ADVANCED_FACE('',(#1498),#1473,.T.);
#1500=CARTESIAN_POINT('',(2.730500000000001,1.217999999999999,0.0));
#1501=CARTESIAN_POINT('',(2.730500000000001,1.217999999999999,2.21));
#1502=CARTESIAN_POINT('',(2.730500000000002,5.307999999999998,0.0));
#1503=CARTESIAN_POINT('',(2.730500000000002,5.307999999999998,2.21));
#1504=B_SPLINE_SURFACE_WITH_KNOTS('',1,1,((#1500,#1502),(#1501,#1503)),.UNSPECIFIED.,.F.,.F.,.U.,(2,2),(2,2),(0.0,2.21),(0.0,4.09),.UNSPECIFIED.);
#1505=ORIENTED_EDGE('',*,*,#1419,.T.);
#1506=ORIENTED_EDGE('',*,*,#1457,.T.);
#1507=ORIENTED_EDGE('',*,*,#1488,.T.);
#1508=CARTESIAN_POINT('',(2.730500000000002,1.217999999999999,0.0));
#1509=VERTEX_POINT('',#1508);
#1510=CARTESIAN_POINT('',(2.730500000000002,1.217999999999999,0.3175));
#1511=DIRECTION('',(0.0,0.0,-1.0));
#1512=VECTOR('',#1511,0.3175);
#1513=LINE('',#1510,#1512);
#1514=EDGE_CURVE('',#1475,#1509,#1513,.T.);
#1515=ORIENTED_EDGE('',*,*,#1514,.T.);
#1516=CARTESIAN_POINT('',(2.730500000000001,1.217999999999999,0.0));
#1517=DIRECTION('',(0.0,1.0,0.0));
#1518=VECTOR('',#1517,4.09);
#1519=LINE('',#1516,#1518);
#1520=EDGE_CURVE('',#1509,#1264,#1519,.T.);
#1521=ORIENTED_EDGE('',*,*,#1520,.T.);
#1522=ORIENTED_EDGE('',*,*,#1269,.F.);
#1523=CARTESIAN_POINT('',(2.730500000000002,1.217999999999999,2.21));
#1524=VERTEX_POINT('',#1523);
#1525=CARTESIAN_POINT('',(2.730500000000002,5.307999999999998,2.21));
#1526=DIRECTION('',(0.0,-1.0,0.0));
#1527=VECTOR('',#1526,4.09);
#1528=LINE('',#1525,#1527);
#1529=EDGE_CURVE('',#1256,#1524,#1528,.T.);
#1530=ORIENTED_EDGE('',*,*,#1529,.T.);
#1531=CARTESIAN_POINT('',(2.730500000000002,1.217999999999999,2.21));
#1532=DIRECTION('',(0.0,0.0,-1.0));
#1533=VECTOR('',#1532,0.317500000000001);
#1534=LINE('',#1531,#1533);
#1535=EDGE_CURVE('',#1524,#1414,#1534,.T.);
#1536=ORIENTED_EDGE('',*,*,#1535,.T.);
#1537=EDGE_LOOP('',(#1505,#1506,#1507,#1515,#1521,#1522,#1530,#1536));
#1538=FACE_OUTER_BOUND('',#1537,.T.);
#1539=ADVANCED_FACE('',(#1538),#1504,.F.);
#1540=CARTESIAN_POINT('',(-2.730500000000001,1.218,0.0));
#1541=CARTESIAN_POINT('',(-2.730500000000001,1.218,0.317500000000001));
#1542=CARTESIAN_POINT('',(2.730500000000002,1.217999999999998,0.0));
#1543=CARTESIAN_POINT('',(2.730500000000002,1.217999999999999,0.317500000000001));
#1544=B_SPLINE_SURFACE_WITH_KNOTS('',1,1,((#1540,#1542),(#1541,#1543)),.UNSPECIFIED.,.F.,.F.,.U.,(2,2),(2,2),(0.0,0.317500000000001),(0.0,5.461000000000002),.UNSPECIFIED.);
#1545=ORIENTED_EDGE('',*,*,#1482,.T.);
#1546=CARTESIAN_POINT('',(-2.7305,1.218,0.0));
#1547=VERTEX_POINT('',#1546);
#1548=CARTESIAN_POINT('',(-2.7305,1.218,0.317500000000001));
#1549=DIRECTION('',(0.0,0.0,-1.0));
#1550=VECTOR('',#1549,0.317500000000001);
#1551=LINE('',#1548,#1550);
#1552=EDGE_CURVE('',#1477,#1547,#1551,.T.);
#1553=ORIENTED_EDGE('',*,*,#1552,.T.);
#1554=CARTESIAN_POINT('',(-2.7305,1.218,0.0));
#1555=DIRECTION('',(1.0,0.0,0.0));
#1556=VECTOR('',#1555,5.461000000000001);
#1557=LINE('',#1554,#1556);
#1558=EDGE_CURVE('',#1547,#1509,#1557,.T.);
#1559=ORIENTED_EDGE('',*,*,#1558,.T.);
#1560=ORIENTED_EDGE('',*,*,#1514,.F.);
#1561=EDGE_LOOP('',(#1545,#1553,#1559,#1560));
#1562=FACE_OUTER_BOUND('',#1561,.T.);
#1563=ADVANCED_FACE('',(#1562),#1544,.F.);
#1564=CARTESIAN_POINT('',(-2.7305,5.308000000000002,2.21));
#1565=CARTESIAN_POINT('',(-2.730500000000001,1.217999999999999,2.21));
#1566=CARTESIAN_POINT('',(2.730500000000003,5.308000000000001,2.21));
#1567=CARTESIAN_POINT('',(2.730500000000002,1.217999999999998,2.21));
#1568=B_SPLINE_SURFACE_WITH_KNOTS('',1,1,((#1564,#1566),(#1565,#1567)),.UNSPECIFIED.,.F.,.F.,.U.,(2,2),(2,2),(0.0,4.090000000000003),(0.0,5.461000000000003),.UNSPECIFIED.);
#1569=CARTESIAN_POINT('',(-2.7305,1.218,2.21));
#1570=VERTEX_POINT('',#1569);
#1571=CARTESIAN_POINT('',(2.730500000000002,1.217999999999999,2.21));
#1572=DIRECTION('',(-1.0,0.0,0.0));
#1573=VECTOR('',#1572,5.461000000000001);
#1574=LINE('',#1571,#1573);
#1575=EDGE_CURVE('',#1524,#1570,#1574,.T.);
#1576=ORIENTED_EDGE('',*,*,#1575,.F.);
#1577=ORIENTED_EDGE('',*,*,#1529,.F.);
#1578=ORIENTED_EDGE('',*,*,#1261,.F.);
#1579=CARTESIAN_POINT('',(-2.7305,1.218,2.21));
#1580=DIRECTION('',(0.0,1.0,0.0));
#1581=VECTOR('',#1580,4.09);
#1582=LINE('',#1579,#1581);
#1583=EDGE_CURVE('',#1570,#1246,#1582,.T.);
#1584=ORIENTED_EDGE('',*,*,#1583,.F.);
#1585=EDGE_LOOP('',(#1576,#1577,#1578,#1584));
#1586=FACE_OUTER_BOUND('',#1585,.T.);
#1587=ADVANCED_FACE('',(#1586),#1568,.T.);
#1588=CARTESIAN_POINT('',(-2.7305,5.308000000000002,0.0));
#1589=CARTESIAN_POINT('',(-2.730500000000001,1.217999999999999,0.0));
#1590=CARTESIAN_POINT('',(2.730500000000003,5.308000000000001,0.0));
#1591=CARTESIAN_POINT('',(2.730500000000002,1.217999999999998,0.0));
#1592=B_SPLINE_SURFACE_WITH_KNOTS('',1,1,((#1588,#1590),(#1589,#1591)),.UNSPECIFIED.,.F.,.F.,.U.,(2,2),(2,2),(0.0,4.090000000000003),(0.0,5.461000000000003),.UNSPECIFIED.);
#1593=ORIENTED_EDGE('',*,*,#1558,.F.);
#1594=CARTESIAN_POINT('',(-2.730499999999999,5.308,0.0));
#1595=DIRECTION('',(0.0,-1.0,0.0));
#1596=VECTOR('',#1595,4.09);
#1597=LINE('',#1594,#1596);
#1598=EDGE_CURVE('',#1248,#1547,#1597,.T.);
#1599=ORIENTED_EDGE('',*,*,#1598,.F.);
#1600=ORIENTED_EDGE('',*,*,#1275,.F.);
#1601=ORIENTED_EDGE('',*,*,#1520,.F.);
#1602=EDGE_LOOP('',(#1593,#1599,#1600,#1601));
#1603=FACE_OUTER_BOUND('',#1602,.T.);
#1604=ADVANCED_FACE('',(#1603),#1592,.F.);
#1605=CARTESIAN_POINT('',(-2.7305,1.218,2.21));
#1606=CARTESIAN_POINT('',(-2.7305,1.218,0.0));
#1607=CARTESIAN_POINT('',(-2.730499999999999,5.308,2.21));
#1608=CARTESIAN_POINT('',(-2.730499999999999,5.308,0.0));
#1609=B_SPLINE_SURFACE_WITH_KNOTS('',1,1,((#1605,#1607),(#1606,#1608)),.UNSPECIFIED.,.F.,.F.,.U.,(2,2),(2,2),(0.0,2.21),(0.0,4.09),.UNSPECIFIED.);
#1610=ORIENTED_EDGE('',*,*,#1433,.T.);
#1611=CARTESIAN_POINT('',(-2.7305,1.218,2.21));
#1612=DIRECTION('',(0.0,0.0,-1.0));
#1613=VECTOR('',#1612,0.3175);
#1614=LINE('',#1611,#1613);
#1615=EDGE_CURVE('',#1570,#1422,#1614,.T.);
#1616=ORIENTED_EDGE('',*,*,#1615,.F.);
#1617=ORIENTED_EDGE('',*,*,#1583,.T.);
#1618=ORIENTED_EDGE('',*,*,#1253,.T.);
#1619=ORIENTED_EDGE('',*,*,#1598,.T.);
#1620=ORIENTED_EDGE('',*,*,#1552,.F.);
#1621=ORIENTED_EDGE('',*,*,#1495,.T.);
#1622=ORIENTED_EDGE('',*,*,#1464,.T.);
#1623=EDGE_LOOP('',(#1610,#1616,#1617,#1618,#1619,#1620,#1621,#1622));
#1624=FACE_OUTER_BOUND('',#1623,.T.);
#1625=ADVANCED_FACE('',(#1624),#1609,.F.);
#1626=CARTESIAN_POINT('',(-2.730500000000001,1.218,1.892499999999999));
#1627=CARTESIAN_POINT('',(-2.730500000000001,1.218,2.21));
#1628=CARTESIAN_POINT('',(2.730500000000001,1.217999999999998,1.892499999999999));
#1629=CARTESIAN_POINT('',(2.730500000000001,1.217999999999999,2.21));
#1630=B_SPLINE_SURFACE_WITH_KNOTS('',1,1,((#1626,#1628),(#1627,#1629)),.UNSPECIFIED.,.F.,.F.,.U.,(2,2),(2,2),(0.0,0.317500000000001),(0.0,5.461000000000002),.UNSPECIFIED.);
#1631=ORIENTED_EDGE('',*,*,#1427,.T.);
#1632=ORIENTED_EDGE('',*,*,#1535,.F.);
#1633=ORIENTED_EDGE('',*,*,#1575,.T.);
#1634=ORIENTED_EDGE('',*,*,#1615,.T.);
#1635=EDGE_LOOP('',(#1631,#1632,#1633,#1634));
#1636=FACE_OUTER_BOUND('',#1635,.T.);
#1637=ADVANCED_FACE('',(#1636),#1630,.F.);
#1638=CLOSED_SHELL('',(#879,#917,#959,#997,#1039,#1077,#1119,#1157,#1173,#1189,#1205,#1221,#1239,#1313,#1325,#1337,#1349,#1361,#1373,#1385,#1397,#1437,#1468,#1499,#1539,#1563,#1587,#1604,#1625,#1637));
#1639=MANIFOLD_SOLID_BREP('118C',#1638);
#1640=COLOUR_RGB('250',0.33,0.33,0.33);
#1641=SURFACE_STYLE_USAGE(.BOTH.,#1642);
#1642=SURFACE_SIDE_STYLE('NONE',(#1643));
#1643=SURFACE_STYLE_FILL_AREA(#1644);
#1644=FILL_AREA_STYLE('NONE',(#1645));
#1645=FILL_AREA_STYLE_COLOUR('NONE',#1640);
#1646=PRESENTATION_STYLE_ASSIGNMENT((#1641));
#1647=STYLED_ITEM('NONE',(#1646),#1639);
#1648=ADVANCED_BREP_SHAPE_REPRESENTATION('ABSR1',(#254,#454,#645,#836,#1639),#28);
#1649=SHAPE_REPRESENTATION_RELATIONSHIP('SRRPL1','',#1648,#62);
ENDSEC;
END-ISO-10303-21;
