ISO-10303-21;
HEADER;
/****************************************************************
 * Generated by software with PDElib inside                    *
 * PDElib Version v51a, created Fri 09/10/2010                  *
 * ITI Transcendata (http://www.transcendata.com/)              *
 ****************************************************************/
FILE_DESCRIPTION((''),'2;1');
FILE_NAME('MINI-CIRCUITS_AF320.stp','2013-12-09T16:01:27',(''),(''),'Mechanical Desktop 2011','Mechanical Desktop 2011',', , ');
FILE_SCHEMA(('AUTOMOTIVE_DESIGN { 1 2 10303 214 1 1 1 1 }'));
ENDSEC;
DATA;
#10=(NAMED_UNIT(*)PLANE_ANGLE_UNIT()SI_UNIT($,.RADIAN.));
#11=DIMENSIONAL_EXPONENTS(0.0,0.0,0.0,0.0,0.0,0.0,0.0);
#12=PLANE_ANGLE_MEASURE_WITH_UNIT(PLANE_ANGLE_MEASURE(0.0174532925),#10);
#16=(CONVERSION_BASED_UNIT('DEGREE',#12)NAMED_UNIT(#11)PLANE_ANGLE_UNIT());
#20=(NAMED_UNIT(*)SI_UNIT($,.STERADIAN.)SOLID_ANGLE_UNIT());
#24=(LENGTH_UNIT()NAMED_UNIT(*)SI_UNIT(.MILLI.,.METRE.));
#26=UNCERTAINTY_MEASURE_WITH_UNIT(LENGTH_MEASURE(0.000001),#24,'DISTANCE_ACCURACY_VALUE','');
#28=(GEOMETRIC_REPRESENTATION_CONTEXT(3)GLOBAL_UNCERTAINTY_ASSIGNED_CONTEXT((#26))GLOBAL_UNIT_ASSIGNED_CONTEXT((#16,#20,#24))REPRESENTATION_CONTEXT('','3D'));
#29=APPLICATION_CONTEXT('automotive design');
#30=APPLICATION_PROTOCOL_DEFINITION('INTERNATIONAL_STANDARD','automotive_design',1998,#29);
#31=PRODUCT_CONTEXT('3D Mechanical Parts',#29,'mechanical');
#32=PRODUCT('Product','Product','',(#31));
#33=PRODUCT_RELATED_PRODUCT_CATEGORY('part',$,(#32));
#34=PRODUCT_CATEGORY('part',$);
#35=PERSON('1','Design','Joe',$,$,$);
#36=ORGANIZATION($,'None','None');
#37=PERSON_AND_ORGANIZATION(#35,#36);
#38=PERSON_AND_ORGANIZATION_ROLE('design_owner');
#39=APPLIED_PERSON_AND_ORGANIZATION_ASSIGNMENT(#37,#38,(#32));
#40=PRODUCT_DEFINITION_FORMATION_WITH_SPECIFIED_SOURCE('None','',#32,.BOUGHT.);
#41=PERSON('2','Creator','Joe',$,$,$);
#42=ORGANIZATION($,'None','None');
#43=PERSON_AND_ORGANIZATION(#41,#42);
#44=PERSON_AND_ORGANIZATION_ROLE('creator');
#45=APPLIED_PERSON_AND_ORGANIZATION_ASSIGNMENT(#43,#44,(#40));
#46=PERSON('3','Supplier','Joe',$,$,$);
#47=ORGANIZATION($,'None','None');
#48=PERSON_AND_ORGANIZATION(#46,#47);
#49=PERSON_AND_ORGANIZATION_ROLE('design_supplier');
#50=APPLIED_PERSON_AND_ORGANIZATION_ASSIGNMENT(#48,#49,(#40));
#51=PRODUCT_DEFINITION_CONTEXT('part definition',#29,'design');
#52=PRODUCT_DEFINITION('None','',#40,#51);
#53=PERSON('4','Creator','Joe',$,$,$);
#54=ORGANIZATION($,'None','None');
#55=PERSON_AND_ORGANIZATION(#53,#54);
#56=PERSON_AND_ORGANIZATION_ROLE('creator');
#57=APPLIED_PERSON_AND_ORGANIZATION_ASSIGNMENT(#55,#56,(#52));
#58=CARTESIAN_POINT('NONE',(0.0,0.0,0.0));
#59=DIRECTION('NONE',(0.0,0.0,1.0));
#60=DIRECTION('NONE',(1.0,0.0,0.0));
#61=AXIS2_PLACEMENT_3D('NONE',#58,#59,#60);
#62=SHAPE_REPRESENTATION('SR1',(#61),#28);
#63=PRODUCT_DEFINITION_SHAPE('PDS1','Test Part',#52);
#64=SHAPE_DEFINITION_REPRESENTATION(#63,#62);
#65=CARTESIAN_POINT('',(-0.890000000000002,-0.368650070512054,0.05));
#66=DIRECTION('',(0.0,1.0,0.0));
#67=VECTOR('',#66,0.737300141024109);
#68=LINE('',#65,#67);
#69=CARTESIAN_POINT('',(-0.890000000000002,0.368650070512055,0.05));
#70=TRIMMED_CURVE('2277',#68,(PARAMETER_VALUE(0.0),#65),(PARAMETER_VALUE(1.0),#69),.T.,.PARAMETER.);
#71=DRAUGHTING_PRE_DEFINED_COLOUR('cyan');
#72=CURVE_STYLE('NONE',#73,POSITIVE_LENGTH_MEASURE(0.2),#71);
#73=DRAUGHTING_PRE_DEFINED_CURVE_FONT('continuous');
#74=PRESENTATION_STYLE_ASSIGNMENT((#72));
#75=STYLED_ITEM('NONE',(#74),#70);
#76=MECHANICAL_DESIGN_GEOMETRIC_PRESENTATION_REPRESENTATION('NONE',(#75,#84,#91,#98,#105,#112,#119,#126,#137,#145,#152,#159,#166,#173,#180,#187,#345,#497,#645,#928,#1079,#1230),#28);
#77=PRESENTATION_LAYER_ASSIGNMENT('Top Overlay','None',(#70,#83,#90,#97,#104,#111,#118,#125));
#78=CARTESIAN_POINT('',(-0.368650070512055,-0.89,0.05));
#79=DIRECTION('',(-0.707106781186548,0.707106781186547,0.0));
#80=VECTOR('',#79,0.737300141024111);
#81=LINE('',#78,#80);
#82=CARTESIAN_POINT('',(-0.890000000000002,-0.368650070512054,0.05));
#83=TRIMMED_CURVE('2276',#81,(PARAMETER_VALUE(0.0),#78),(PARAMETER_VALUE(1.0),#82),.T.,.PARAMETER.);
#84=STYLED_ITEM('NONE',(#74),#83);
#85=CARTESIAN_POINT('',(0.368650070512054,-0.89,0.05));
#86=DIRECTION('',(-1.0,0.0,0.0));
#87=VECTOR('',#86,0.737300141024109);
#88=LINE('',#85,#87);
#89=CARTESIAN_POINT('',(-0.368650070512055,-0.89,0.05));
#90=TRIMMED_CURVE('2275',#88,(PARAMETER_VALUE(0.0),#85),(PARAMETER_VALUE(1.0),#89),.T.,.PARAMETER.);
#91=STYLED_ITEM('NONE',(#74),#90);
#92=CARTESIAN_POINT('',(0.889999999999999,-0.368650070512056,0.05));
#93=DIRECTION('',(-0.707106781186548,-0.707106781186547,0.0));
#94=VECTOR('',#93,0.737300141024108);
#95=LINE('',#92,#94);
#96=CARTESIAN_POINT('',(0.368650070512054,-0.89,0.05));
#97=TRIMMED_CURVE('2274',#95,(PARAMETER_VALUE(0.0),#92),(PARAMETER_VALUE(1.0),#96),.T.,.PARAMETER.);
#98=STYLED_ITEM('NONE',(#74),#97);
#99=CARTESIAN_POINT('',(0.889999999999999,0.368650070512056,0.05));
#100=DIRECTION('',(0.0,-1.0,0.0));
#101=VECTOR('',#100,0.737300141024112);
#102=LINE('',#99,#101);
#103=CARTESIAN_POINT('',(0.889999999999999,-0.368650070512056,0.05));
#104=TRIMMED_CURVE('2273',#102,(PARAMETER_VALUE(0.0),#99),(PARAMETER_VALUE(1.0),#103),.T.,.PARAMETER.);
#105=STYLED_ITEM('NONE',(#74),#104);
#106=CARTESIAN_POINT('',(0.368650070512054,0.89,0.05));
#107=DIRECTION('',(0.707106781186548,-0.707106781186547,-1.882244E-017));
#108=VECTOR('',#107,0.737300141024108);
#109=LINE('',#106,#108);
#110=CARTESIAN_POINT('',(0.889999999999999,0.368650070512056,0.05));
#111=TRIMMED_CURVE('2272',#109,(PARAMETER_VALUE(0.0),#106),(PARAMETER_VALUE(1.0),#110),.T.,.PARAMETER.);
#112=STYLED_ITEM('NONE',(#74),#111);
#113=CARTESIAN_POINT('',(0.368650070512054,0.89,0.05));
#114=DIRECTION('',(-1.0,0.0,0.0));
#115=VECTOR('',#114,0.737300141024111);
#116=LINE('',#113,#115);
#117=CARTESIAN_POINT('',(-0.368650070512057,0.89,0.05));
#118=TRIMMED_CURVE('2271',#116,(PARAMETER_VALUE(0.0),#113),(PARAMETER_VALUE(1.0),#117),.T.,.PARAMETER.);
#119=STYLED_ITEM('NONE',(#74),#118);
#120=CARTESIAN_POINT('',(-0.890000000000002,0.368650070512055,0.05));
#121=DIRECTION('',(0.707106781186547,0.707106781186548,0.0));
#122=VECTOR('',#121,0.737300141024109);
#123=LINE('',#120,#122);
#124=CARTESIAN_POINT('',(-0.368650070512057,0.89,0.05));
#125=TRIMMED_CURVE('2270',#123,(PARAMETER_VALUE(0.0),#120),(PARAMETER_VALUE(1.0),#124),.T.,.PARAMETER.);
#126=STYLED_ITEM('NONE',(#74),#125);
#127=CARTESIAN_POINT('',(-0.89,-0.368650070512054,0.05));
#128=DIRECTION('',(0.0,1.0,0.0));
#129=VECTOR('',#128,0.737300141024109);
#130=LINE('',#127,#129);
#131=CARTESIAN_POINT('',(-0.89,0.368650070512055,0.05));
#132=TRIMMED_CURVE('225D',#130,(PARAMETER_VALUE(0.0),#127),(PARAMETER_VALUE(1.0),#131),.T.,.PARAMETER.);
#133=DRAUGHTING_PRE_DEFINED_COLOUR('red');
#134=CURVE_STYLE('NONE',#135,POSITIVE_LENGTH_MEASURE(0.2),#133);
#135=DRAUGHTING_PRE_DEFINED_CURVE_FONT('continuous');
#136=PRESENTATION_STYLE_ASSIGNMENT((#134));
#137=STYLED_ITEM('NONE',(#136),#132);
#138=PRESENTATION_LAYER_ASSIGNMENT('Mechanical 14','None',(#132,#144,#151,#158,#165,#172,#179,#186));
#139=CARTESIAN_POINT('',(-0.368650070512054,-0.89,0.05));
#140=DIRECTION('',(-0.707106781186547,0.707106781186548,0.0));
#141=VECTOR('',#140,0.73730014102411);
#142=LINE('',#139,#141);
#143=CARTESIAN_POINT('',(-0.89,-0.368650070512054,0.05));
#144=TRIMMED_CURVE('225C',#142,(PARAMETER_VALUE(0.0),#139),(PARAMETER_VALUE(1.0),#143),.T.,.PARAMETER.);
#145=STYLED_ITEM('NONE',(#136),#144);
#146=CARTESIAN_POINT('',(0.368650070512056,-0.89,0.05));
#147=DIRECTION('',(-1.0,0.0,0.0));
#148=VECTOR('',#147,0.737300141024111);
#149=LINE('',#146,#148);
#150=CARTESIAN_POINT('',(-0.368650070512054,-0.89,0.05));
#151=TRIMMED_CURVE('225B',#149,(PARAMETER_VALUE(0.0),#146),(PARAMETER_VALUE(1.0),#150),.T.,.PARAMETER.);
#152=STYLED_ITEM('NONE',(#136),#151);
#153=CARTESIAN_POINT('',(0.89,-0.368650070512056,0.05));
#154=DIRECTION('',(-0.707106781186547,-0.707106781186547,0.0));
#155=VECTOR('',#154,0.737300141024107);
#156=LINE('',#153,#155);
#157=CARTESIAN_POINT('',(0.368650070512056,-0.89,0.05));
#158=TRIMMED_CURVE('225A',#156,(PARAMETER_VALUE(0.0),#153),(PARAMETER_VALUE(1.0),#157),.T.,.PARAMETER.);
#159=STYLED_ITEM('NONE',(#136),#158);
#160=CARTESIAN_POINT('',(0.89,0.368650070512056,0.05));
#161=DIRECTION('',(0.0,-1.0,0.0));
#162=VECTOR('',#161,0.737300141024112);
#163=LINE('',#160,#162);
#164=CARTESIAN_POINT('',(0.89,-0.368650070512056,0.05));
#165=TRIMMED_CURVE('2259',#163,(PARAMETER_VALUE(0.0),#160),(PARAMETER_VALUE(1.0),#164),.T.,.PARAMETER.);
#166=STYLED_ITEM('NONE',(#136),#165);
#167=CARTESIAN_POINT('',(0.368650070512056,0.89,0.05));
#168=DIRECTION('',(0.707106781186547,-0.707106781186548,-1.882244E-017));
#169=VECTOR('',#168,0.737300141024107);
#170=LINE('',#167,#169);
#171=CARTESIAN_POINT('',(0.89,0.368650070512056,0.05));
#172=TRIMMED_CURVE('2258',#170,(PARAMETER_VALUE(0.0),#167),(PARAMETER_VALUE(1.0),#171),.T.,.PARAMETER.);
#173=STYLED_ITEM('NONE',(#136),#172);
#174=CARTESIAN_POINT('',(0.368650070512056,0.89,0.05));
#175=DIRECTION('',(-1.0,0.0,0.0));
#176=VECTOR('',#175,0.737300141024111);
#177=LINE('',#174,#176);
#178=CARTESIAN_POINT('',(-0.368650070512055,0.89,0.05));
#179=TRIMMED_CURVE('2257',#177,(PARAMETER_VALUE(0.0),#174),(PARAMETER_VALUE(1.0),#178),.T.,.PARAMETER.);
#180=STYLED_ITEM('NONE',(#136),#179);
#181=CARTESIAN_POINT('',(-0.89,0.368650070512055,0.05));
#182=DIRECTION('',(0.707106781186548,0.707106781186547,0.0));
#183=VECTOR('',#182,0.737300141024109);
#184=LINE('',#181,#183);
#185=CARTESIAN_POINT('',(-0.368650070512055,0.89,0.05));
#186=TRIMMED_CURVE('2256',#184,(PARAMETER_VALUE(0.0),#181),(PARAMETER_VALUE(1.0),#185),.T.,.PARAMETER.);
#187=STYLED_ITEM('NONE',(#136),#186);
#188=CARTESIAN_POINT('',(2.539999999999999,0.254999999999999,0.0));
#189=DIRECTION('',(1.0,0.0,0.0));
#190=DIRECTION('',(0.0,0.0,-1.0));
#191=AXIS2_PLACEMENT_3D('',#188,#189,#190);
#192=PLANE('',#191);
#193=CARTESIAN_POINT('',(2.54,0.254999999999999,0.13));
#194=VERTEX_POINT('',#193);
#195=CARTESIAN_POINT('',(2.539999999999999,-0.255000000000001,0.13));
#196=VERTEX_POINT('',#195);
#197=CARTESIAN_POINT('',(2.539999999999999,0.254999999999999,0.13));
#198=DIRECTION('',(0.0,-1.0,0.0));
#199=VECTOR('',#198,0.51);
#200=LINE('',#197,#199);
#201=EDGE_CURVE('',#194,#196,#200,.T.);
#202=ORIENTED_EDGE('',*,*,#201,.T.);
#203=CARTESIAN_POINT('',(2.539999999999999,-0.255000000000001,0.0));
#204=VERTEX_POINT('',#203);
#205=CARTESIAN_POINT('',(2.539999999999999,-0.255000000000001,0.0));
#206=DIRECTION('',(0.0,0.0,1.0));
#207=VECTOR('',#206,0.13);
#208=LINE('',#205,#207);
#209=EDGE_CURVE('',#204,#196,#208,.T.);
#210=ORIENTED_EDGE('',*,*,#209,.F.);
#211=CARTESIAN_POINT('',(2.54,0.254999999999999,0.0));
#212=VERTEX_POINT('',#211);
#213=CARTESIAN_POINT('',(2.539999999999999,-0.255000000000001,0.0));
#214=DIRECTION('',(0.0,1.0,0.0));
#215=VECTOR('',#214,0.51);
#216=LINE('',#213,#215);
#217=EDGE_CURVE('',#204,#212,#216,.T.);
#218=ORIENTED_EDGE('',*,*,#217,.T.);
#219=CARTESIAN_POINT('',(2.54,0.254999999999999,0.0));
#220=DIRECTION('',(0.0,0.0,1.0));
#221=VECTOR('',#220,0.13);
#222=LINE('',#219,#221);
#223=EDGE_CURVE('',#212,#194,#222,.T.);
#224=ORIENTED_EDGE('',*,*,#223,.T.);
#225=EDGE_LOOP('',(#202,#210,#218,#224));
#226=FACE_OUTER_BOUND('',#225,.T.);
#227=ADVANCED_FACE('',(#226),#192,.T.);
#228=CARTESIAN_POINT('',(2.029999999999999,-0.255000000000001,0.0));
#229=DIRECTION('',(0.0,-1.0,0.0));
#230=DIRECTION('',(0.0,0.0,1.0));
#231=AXIS2_PLACEMENT_3D('',#228,#229,#230);
#232=PLANE('',#231);
#233=CARTESIAN_POINT('',(0.64311600970695,-0.255,0.13));
#234=VERTEX_POINT('',#233);
#235=CARTESIAN_POINT('',(2.539999999999999,-0.255000000000001,0.13));
#236=DIRECTION('',(-1.0,0.0,0.0));
#237=VECTOR('',#236,1.896883990293049);
#238=LINE('',#235,#237);
#239=EDGE_CURVE('',#196,#234,#238,.T.);
#240=ORIENTED_EDGE('',*,*,#239,.T.);
#241=CARTESIAN_POINT('',(0.64311600970695,-0.255,0.0));
#242=VERTEX_POINT('',#241);
#243=CARTESIAN_POINT('',(0.64311600970695,-0.255,0.0));
#244=DIRECTION('',(0.0,0.0,1.0));
#245=VECTOR('',#244,0.13);
#246=LINE('',#243,#245);
#247=EDGE_CURVE('',#242,#234,#246,.T.);
#248=ORIENTED_EDGE('',*,*,#247,.F.);
#249=CARTESIAN_POINT('',(2.539999999999999,-0.255000000000001,0.0));
#250=DIRECTION('',(-1.0,0.0,0.0));
#251=VECTOR('',#250,1.896883990293049);
#252=LINE('',#249,#251);
#253=EDGE_CURVE('',#204,#242,#252,.T.);
#254=ORIENTED_EDGE('',*,*,#253,.F.);
#255=ORIENTED_EDGE('',*,*,#209,.T.);
#256=EDGE_LOOP('',(#240,#248,#254,#255));
#257=FACE_OUTER_BOUND('',#256,.T.);
#258=ADVANCED_FACE('',(#257),#232,.T.);
#259=CARTESIAN_POINT('',(0.64311600970695,-0.255,0.0));
#260=DIRECTION('',(-1.0,0.0,0.0));
#261=DIRECTION('',(0.0,0.0,-1.0));
#262=AXIS2_PLACEMENT_3D('',#259,#260,#261);
#263=PLANE('',#262);
#264=CARTESIAN_POINT('',(0.643116009706951,0.254999999999999,0.13));
#265=VERTEX_POINT('',#264);
#266=CARTESIAN_POINT('',(0.64311600970695,-0.255,0.13));
#267=DIRECTION('',(0.0,1.0,0.0));
#268=VECTOR('',#267,0.509999999999999);
#269=LINE('',#266,#268);
#270=EDGE_CURVE('',#234,#265,#269,.T.);
#271=ORIENTED_EDGE('',*,*,#270,.T.);
#272=CARTESIAN_POINT('',(0.643116009706951,0.254999999999999,0.0));
#273=VERTEX_POINT('',#272);
#274=CARTESIAN_POINT('',(0.643116009706951,0.254999999999999,0.0));
#275=DIRECTION('',(0.0,0.0,1.0));
#276=VECTOR('',#275,0.13);
#277=LINE('',#274,#276);
#278=EDGE_CURVE('',#273,#265,#277,.T.);
#279=ORIENTED_EDGE('',*,*,#278,.F.);
#280=CARTESIAN_POINT('',(0.64311600970695,-0.255,0.0));
#281=DIRECTION('',(0.0,1.0,0.0));
#282=VECTOR('',#281,0.509999999999999);
#283=LINE('',#280,#282);
#284=EDGE_CURVE('',#242,#273,#283,.T.);
#285=ORIENTED_EDGE('',*,*,#284,.F.);
#286=ORIENTED_EDGE('',*,*,#247,.T.);
#287=EDGE_LOOP('',(#271,#279,#285,#286));
#288=FACE_OUTER_BOUND('',#287,.T.);
#289=ADVANCED_FACE('',(#288),#263,.T.);
#290=CARTESIAN_POINT('',(0.643116009706951,0.254999999999999,0.0));
#291=DIRECTION('',(0.0,1.0,0.0));
#292=DIRECTION('',(0.0,0.0,-1.0));
#293=AXIS2_PLACEMENT_3D('',#290,#291,#292);
#294=PLANE('',#293);
#295=CARTESIAN_POINT('',(0.643116009706951,0.254999999999999,0.13));
#296=DIRECTION('',(1.0,0.0,0.0));
#297=VECTOR('',#296,1.896883990293049);
#298=LINE('',#295,#297);
#299=EDGE_CURVE('',#265,#194,#298,.T.);
#300=ORIENTED_EDGE('',*,*,#299,.T.);
#301=ORIENTED_EDGE('',*,*,#223,.F.);
#302=CARTESIAN_POINT('',(0.643116009706951,0.254999999999999,0.0));
#303=DIRECTION('',(1.0,0.0,0.0));
#304=VECTOR('',#303,1.896883990293049);
#305=LINE('',#302,#304);
#306=EDGE_CURVE('',#273,#212,#305,.T.);
#307=ORIENTED_EDGE('',*,*,#306,.F.);
#308=ORIENTED_EDGE('',*,*,#278,.T.);
#309=EDGE_LOOP('',(#300,#301,#307,#308));
#310=FACE_OUTER_BOUND('',#309,.T.);
#311=ADVANCED_FACE('',(#310),#294,.T.);
#312=CARTESIAN_POINT('',(1.516870234056045,0.028803878912389,0.13));
#313=DIRECTION('',(0.0,0.0,1.0));
#314=DIRECTION('',(-1.0,0.0,0.0));
#315=AXIS2_PLACEMENT_3D('',#312,#313,#314);
#316=PLANE('',#315);
#317=ORIENTED_EDGE('',*,*,#299,.F.);
#318=ORIENTED_EDGE('',*,*,#270,.F.);
#319=ORIENTED_EDGE('',*,*,#239,.F.);
#320=ORIENTED_EDGE('',*,*,#201,.F.);
#321=EDGE_LOOP('',(#317,#318,#319,#320));
#322=FACE_OUTER_BOUND('',#321,.T.);
#323=ADVANCED_FACE('',(#322),#316,.T.);
#324=CARTESIAN_POINT('',(1.516870234056044,0.028803878912389,0.0));
#325=DIRECTION('',(0.0,0.0,1.0));
#326=DIRECTION('',(-1.0,0.0,0.0));
#327=AXIS2_PLACEMENT_3D('',#324,#325,#326);
#328=PLANE('',#327);
#329=ORIENTED_EDGE('',*,*,#306,.T.);
#330=ORIENTED_EDGE('',*,*,#217,.F.);
#331=ORIENTED_EDGE('',*,*,#253,.T.);
#332=ORIENTED_EDGE('',*,*,#284,.T.);
#333=EDGE_LOOP('',(#329,#330,#331,#332));
#334=FACE_OUTER_BOUND('',#333,.T.);
#335=ADVANCED_FACE('',(#334),#328,.F.);
#336=CLOSED_SHELL('',(#227,#258,#289,#311,#323,#335));
#337=MANIFOLD_SOLID_BREP('2240',#336);
#338=COLOUR_RGB('254',0.866,0.866,0.866);
#339=SURFACE_STYLE_USAGE(.BOTH.,#340);
#340=SURFACE_SIDE_STYLE('NONE',(#341));
#341=SURFACE_STYLE_FILL_AREA(#342);
#342=FILL_AREA_STYLE('NONE',(#343));
#343=FILL_AREA_STYLE_COLOUR('NONE',#338);
#344=PRESENTATION_STYLE_ASSIGNMENT((#339));
#345=STYLED_ITEM('NONE',(#344),#337);
#346=PRESENTATION_LAYER_ASSIGNMENT('3D','None',(#337,#496,#637,#927,#1078,#1229));
#347=CARTESIAN_POINT('',(-0.510000000000001,-2.54,0.0));
#348=DIRECTION('',(-1.0,0.0,0.0));
#349=DIRECTION('',(0.0,0.0,-1.0));
#350=AXIS2_PLACEMENT_3D('',#347,#348,#349);
#351=PLANE('',#350);
#352=CARTESIAN_POINT('',(-0.510000000000001,-2.54,0.13));
#353=VERTEX_POINT('',#352);
#354=CARTESIAN_POINT('',(-0.51,-0.416069612585582,0.13));
#355=VERTEX_POINT('',#354);
#356=CARTESIAN_POINT('',(-0.51,-2.54,0.13));
#357=DIRECTION('',(0.0,1.0,0.0));
#358=VECTOR('',#357,2.123930387414418);
#359=LINE('',#356,#358);
#360=EDGE_CURVE('',#353,#355,#359,.T.);
#361=ORIENTED_EDGE('',*,*,#360,.T.);
#362=CARTESIAN_POINT('',(-0.51,-0.416069612585582,0.0));
#363=VERTEX_POINT('',#362);
#364=CARTESIAN_POINT('',(-0.51,-0.416069612585582,0.0));
#365=DIRECTION('',(0.0,0.0,1.0));
#366=VECTOR('',#365,0.13);
#367=LINE('',#364,#366);
#368=EDGE_CURVE('',#363,#355,#367,.T.);
#369=ORIENTED_EDGE('',*,*,#368,.F.);
#370=CARTESIAN_POINT('',(-0.510000000000001,-2.54,0.0));
#371=VERTEX_POINT('',#370);
#372=CARTESIAN_POINT('',(-0.51,-0.416069612585582,0.0));
#373=DIRECTION('',(0.0,-1.0,0.0));
#374=VECTOR('',#373,2.123930387414418);
#375=LINE('',#372,#374);
#376=EDGE_CURVE('',#363,#371,#375,.T.);
#377=ORIENTED_EDGE('',*,*,#376,.T.);
#378=CARTESIAN_POINT('',(-0.510000000000001,-2.54,0.0));
#379=DIRECTION('',(0.0,0.0,1.0));
#380=VECTOR('',#379,0.13);
#381=LINE('',#378,#380);
#382=EDGE_CURVE('',#371,#353,#381,.T.);
#383=ORIENTED_EDGE('',*,*,#382,.T.);
#384=EDGE_LOOP('',(#361,#369,#377,#383));
#385=FACE_OUTER_BOUND('',#384,.T.);
#386=ADVANCED_FACE('',(#385),#351,.T.);
#387=CARTESIAN_POINT('',(-0.51,-0.416069612585582,0.0));
#388=DIRECTION('',(0.0,1.0,0.0));
#389=DIRECTION('',(0.0,0.0,-1.0));
#390=AXIS2_PLACEMENT_3D('',#387,#388,#389);
#391=PLANE('',#390);
#392=CARTESIAN_POINT('',(0.509999999999999,-0.416069612585584,0.13));
#393=VERTEX_POINT('',#392);
#394=CARTESIAN_POINT('',(-0.51,-0.416069612585582,0.13));
#395=DIRECTION('',(1.0,0.0,0.0));
#396=VECTOR('',#395,1.019999999999999);
#397=LINE('',#394,#396);
#398=EDGE_CURVE('',#355,#393,#397,.T.);
#399=ORIENTED_EDGE('',*,*,#398,.T.);
#400=CARTESIAN_POINT('',(0.509999999999999,-0.416069612585584,0.0));
#401=VERTEX_POINT('',#400);
#402=CARTESIAN_POINT('',(0.509999999999999,-0.416069612585584,0.0));
#403=DIRECTION('',(0.0,0.0,1.0));
#404=VECTOR('',#403,0.13);
#405=LINE('',#402,#404);
#406=EDGE_CURVE('',#401,#393,#405,.T.);
#407=ORIENTED_EDGE('',*,*,#406,.F.);
#408=CARTESIAN_POINT('',(0.509999999999999,-0.416069612585584,0.0));
#409=DIRECTION('',(-1.0,0.0,0.0));
#410=VECTOR('',#409,1.019999999999999);
#411=LINE('',#408,#410);
#412=EDGE_CURVE('',#401,#363,#411,.T.);
#413=ORIENTED_EDGE('',*,*,#412,.T.);
#414=ORIENTED_EDGE('',*,*,#368,.T.);
#415=EDGE_LOOP('',(#399,#407,#413,#414));
#416=FACE_OUTER_BOUND('',#415,.T.);
#417=ADVANCED_FACE('',(#416),#391,.T.);
#418=CARTESIAN_POINT('',(0.509999999999999,-0.416069612585584,0.0));
#419=DIRECTION('',(1.0,0.0,0.0));
#420=DIRECTION('',(0.0,0.0,1.0));
#421=AXIS2_PLACEMENT_3D('',#418,#419,#420);
#422=PLANE('',#421);
#423=CARTESIAN_POINT('',(0.509999999999999,-2.54,0.13));
#424=VERTEX_POINT('',#423);
#425=CARTESIAN_POINT('',(0.509999999999999,-0.416069612585583,0.13));
#426=DIRECTION('',(0.0,-1.0,0.0));
#427=VECTOR('',#426,2.123930387414416);
#428=LINE('',#425,#427);
#429=EDGE_CURVE('',#393,#424,#428,.T.);
#430=ORIENTED_EDGE('',*,*,#429,.T.);
#431=CARTESIAN_POINT('',(0.509999999999999,-2.54,0.0));
#432=VERTEX_POINT('',#431);
#433=CARTESIAN_POINT('',(0.509999999999999,-2.54,0.0));
#434=DIRECTION('',(0.0,0.0,1.0));
#435=VECTOR('',#434,0.13);
#436=LINE('',#433,#435);
#437=EDGE_CURVE('',#432,#424,#436,.T.);
#438=ORIENTED_EDGE('',*,*,#437,.F.);
#439=CARTESIAN_POINT('',(0.509999999999999,-2.54,0.0));
#440=DIRECTION('',(0.0,1.0,0.0));
#441=VECTOR('',#440,2.123930387414416);
#442=LINE('',#439,#441);
#443=EDGE_CURVE('',#432,#401,#442,.T.);
#444=ORIENTED_EDGE('',*,*,#443,.T.);
#445=ORIENTED_EDGE('',*,*,#406,.T.);
#446=EDGE_LOOP('',(#430,#438,#444,#445));
#447=FACE_OUTER_BOUND('',#446,.T.);
#448=ADVANCED_FACE('',(#447),#422,.T.);
#449=CARTESIAN_POINT('',(0.509999999999999,-2.54,0.0));
#450=DIRECTION('',(0.0,-1.0,0.0));
#451=DIRECTION('',(0.0,0.0,1.0));
#452=AXIS2_PLACEMENT_3D('',#449,#450,#451);
#453=PLANE('',#452);
#454=CARTESIAN_POINT('',(0.509999999999999,-2.54,0.13));
#455=DIRECTION('',(-1.0,0.0,0.0));
#456=VECTOR('',#455,1.02);
#457=LINE('',#454,#456);
#458=EDGE_CURVE('',#424,#353,#457,.T.);
#459=ORIENTED_EDGE('',*,*,#458,.T.);
#460=ORIENTED_EDGE('',*,*,#382,.F.);
#461=CARTESIAN_POINT('',(-0.510000000000001,-2.54,0.0));
#462=DIRECTION('',(1.0,0.0,0.0));
#463=VECTOR('',#462,1.02);
#464=LINE('',#461,#463);
#465=EDGE_CURVE('',#371,#432,#464,.T.);
#466=ORIENTED_EDGE('',*,*,#465,.T.);
#467=ORIENTED_EDGE('',*,*,#437,.T.);
#468=EDGE_LOOP('',(#459,#460,#466,#467));
#469=FACE_OUTER_BOUND('',#468,.T.);
#470=ADVANCED_FACE('',(#469),#453,.T.);
#471=CARTESIAN_POINT('',(-5.695851E-016,-1.478034806292791,0.0));
#472=DIRECTION('',(0.0,0.0,1.0));
#473=DIRECTION('',(-1.0,0.0,0.0));
#474=AXIS2_PLACEMENT_3D('',#471,#472,#473);
#475=PLANE('',#474);
#476=ORIENTED_EDGE('',*,*,#465,.F.);
#477=ORIENTED_EDGE('',*,*,#376,.F.);
#478=ORIENTED_EDGE('',*,*,#412,.F.);
#479=ORIENTED_EDGE('',*,*,#443,.F.);
#480=EDGE_LOOP('',(#476,#477,#478,#479));
#481=FACE_OUTER_BOUND('',#480,.T.);
#482=ADVANCED_FACE('',(#481),#475,.F.);
#483=CARTESIAN_POINT('',(-5.695851E-016,-1.478034806292791,0.13));
#484=DIRECTION('',(0.0,0.0,1.0));
#485=DIRECTION('',(-1.0,0.0,0.0));
#486=AXIS2_PLACEMENT_3D('',#483,#484,#485);
#487=PLANE('',#486);
#488=ORIENTED_EDGE('',*,*,#360,.F.);
#489=ORIENTED_EDGE('',*,*,#458,.F.);
#490=ORIENTED_EDGE('',*,*,#429,.F.);
#491=ORIENTED_EDGE('',*,*,#398,.F.);
#492=EDGE_LOOP('',(#488,#489,#490,#491));
#493=FACE_OUTER_BOUND('',#492,.T.);
#494=ADVANCED_FACE('',(#493),#487,.T.);
#495=CLOSED_SHELL('',(#386,#417,#448,#470,#482,#494));
#496=MANIFOLD_SOLID_BREP('223C',#495);
#497=STYLED_ITEM('NONE',(#344),#496);
#498=CARTESIAN_POINT('',(0.0,0.0,0.45));
#499=DIRECTION('',(0.0,0.0,1.0));
#500=DIRECTION('',(1.0,0.0,0.0));
#501=AXIS2_PLACEMENT_3D('',#498,#499,#500);
#502=CYLINDRICAL_SURFACE('',#501,0.865);
#503=CARTESIAN_POINT('',(0.865,2.118639E-016,1.3));
#504=VERTEX_POINT('',#503);
#505=CARTESIAN_POINT('',(0.865,0.0,0.45));
#506=VERTEX_POINT('',#505);
#507=CARTESIAN_POINT('',(0.865,0.0,1.3));
#508=DIRECTION('',(0.0,0.0,-1.0));
#509=VECTOR('',#508,0.85);
#510=LINE('',#507,#509);
#511=EDGE_CURVE('',#504,#506,#510,.T.);
#512=ORIENTED_EDGE('',*,*,#511,.F.);
#513=CARTESIAN_POINT('',(-0.865,0.0,1.3));
#514=VERTEX_POINT('',#513);
#515=CARTESIAN_POINT('',(0.0,0.0,1.3));
#516=DIRECTION('',(0.0,0.0,1.0));
#517=DIRECTION('',(-1.0,0.0,0.0));
#518=AXIS2_PLACEMENT_3D('',#515,#516,#517);
#519=CIRCLE('',#518,0.865);
#520=EDGE_CURVE('',#514,#504,#519,.T.);
#521=ORIENTED_EDGE('',*,*,#520,.F.);
#522=CARTESIAN_POINT('',(-0.865,-1.059319E-016,0.45));
#523=VERTEX_POINT('',#522);
#524=CARTESIAN_POINT('',(-0.865,-1.059319E-016,1.3));
#525=DIRECTION('',(0.0,0.0,-1.0));
#526=VECTOR('',#525,0.85);
#527=LINE('',#524,#526);
#528=EDGE_CURVE('',#514,#523,#527,.T.);
#529=ORIENTED_EDGE('',*,*,#528,.T.);
#530=CARTESIAN_POINT('',(0.0,0.0,0.45));
#531=DIRECTION('',(0.0,0.0,1.0));
#532=DIRECTION('',(1.0,0.0,0.0));
#533=AXIS2_PLACEMENT_3D('',#530,#531,#532);
#534=CIRCLE('',#533,0.865);
#535=EDGE_CURVE('',#523,#506,#534,.T.);
#536=ORIENTED_EDGE('',*,*,#535,.T.);
#537=EDGE_LOOP('',(#512,#521,#529,#536));
#538=FACE_OUTER_BOUND('',#537,.T.);
#539=ADVANCED_FACE('',(#538),#502,.T.);
#540=CARTESIAN_POINT('',(0.0,0.0,1.3));
#541=DIRECTION('',(0.0,0.0,-1.0));
#542=DIRECTION('',(-1.0,0.0,0.0));
#543=AXIS2_PLACEMENT_3D('',#540,#541,#542);
#544=TOROIDAL_SURFACE('',#543,0.815,0.05);
#545=CARTESIAN_POINT('',(-0.815,0.0,1.35));
#546=VERTEX_POINT('',#545);
#547=CARTESIAN_POINT('',(-0.815,0.0,1.3));
#548=DIRECTION('',(0.0,1.0,0.0));
#549=DIRECTION('',(-1.0,0.0,0.0));
#550=AXIS2_PLACEMENT_3D('',#547,#548,#549);
#551=CIRCLE('',#550,0.05);
#552=EDGE_CURVE('',#514,#546,#551,.T.);
#553=ORIENTED_EDGE('',*,*,#552,.F.);
#554=ORIENTED_EDGE('',*,*,#520,.T.);
#555=CARTESIAN_POINT('',(0.815,0.0,1.35));
#556=VERTEX_POINT('',#555);
#557=CARTESIAN_POINT('',(0.815,-9.980871E-017,1.3));
#558=DIRECTION('',(0.0,-1.0,0.0));
#559=DIRECTION('',(1.0,0.0,0.0));
#560=AXIS2_PLACEMENT_3D('',#557,#558,#559);
#561=CIRCLE('',#560,0.05);
#562=EDGE_CURVE('',#504,#556,#561,.T.);
#563=ORIENTED_EDGE('',*,*,#562,.T.);
#564=CARTESIAN_POINT('',(0.0,0.0,1.35));
#565=DIRECTION('',(0.0,0.0,-1.0));
#566=DIRECTION('',(-1.0,0.0,0.0));
#567=AXIS2_PLACEMENT_3D('',#564,#565,#566);
#568=CIRCLE('',#567,0.815);
#569=EDGE_CURVE('',#556,#546,#568,.T.);
#570=ORIENTED_EDGE('',*,*,#569,.T.);
#571=EDGE_LOOP('',(#553,#554,#563,#570));
#572=FACE_OUTER_BOUND('',#571,.T.);
#573=ADVANCED_FACE('',(#572),#544,.T.);
#574=CARTESIAN_POINT('',(0.0,0.0,1.3));
#575=DIRECTION('',(0.0,0.0,-1.0));
#576=DIRECTION('',(-1.0,0.0,0.0));
#577=AXIS2_PLACEMENT_3D('',#574,#575,#576);
#578=TOROIDAL_SURFACE('',#577,0.815,0.05);
#579=ORIENTED_EDGE('',*,*,#552,.T.);
#580=CARTESIAN_POINT('',(0.0,0.0,1.35));
#581=DIRECTION('',(0.0,0.0,-1.0));
#582=DIRECTION('',(-1.0,0.0,0.0));
#583=AXIS2_PLACEMENT_3D('',#580,#581,#582);
#584=CIRCLE('',#583,0.815);
#585=EDGE_CURVE('',#546,#556,#584,.T.);
#586=ORIENTED_EDGE('',*,*,#585,.T.);
#587=ORIENTED_EDGE('',*,*,#562,.F.);
#588=CARTESIAN_POINT('',(0.0,0.0,1.3));
#589=DIRECTION('',(0.0,0.0,1.0));
#590=DIRECTION('',(-1.0,0.0,0.0));
#591=AXIS2_PLACEMENT_3D('',#588,#589,#590);
#592=CIRCLE('',#591,0.865);
#593=EDGE_CURVE('',#504,#514,#592,.T.);
#594=ORIENTED_EDGE('',*,*,#593,.T.);
#595=EDGE_LOOP('',(#579,#586,#587,#594));
#596=FACE_OUTER_BOUND('',#595,.T.);
#597=ADVANCED_FACE('',(#596),#578,.T.);
#598=CARTESIAN_POINT('',(0.0,0.0,0.45));
#599=DIRECTION('',(0.0,0.0,1.0));
#600=DIRECTION('',(1.0,0.0,0.0));
#601=AXIS2_PLACEMENT_3D('',#598,#599,#600);
#602=CYLINDRICAL_SURFACE('',#601,0.865);
#603=ORIENTED_EDGE('',*,*,#511,.T.);
#604=CARTESIAN_POINT('',(0.0,0.0,0.45));
#605=DIRECTION('',(0.0,0.0,1.0));
#606=DIRECTION('',(1.0,0.0,0.0));
#607=AXIS2_PLACEMENT_3D('',#604,#605,#606);
#608=CIRCLE('',#607,0.865);
#609=EDGE_CURVE('',#506,#523,#608,.T.);
#610=ORIENTED_EDGE('',*,*,#609,.T.);
#611=ORIENTED_EDGE('',*,*,#528,.F.);
#612=ORIENTED_EDGE('',*,*,#593,.F.);
#613=EDGE_LOOP('',(#603,#610,#611,#612));
#614=FACE_OUTER_BOUND('',#613,.T.);
#615=ADVANCED_FACE('',(#614),#602,.T.);
#616=CARTESIAN_POINT('',(0.0,0.0,1.35));
#617=DIRECTION('',(0.0,0.0,1.0));
#618=DIRECTION('',(1.0,0.0,0.0));
#619=AXIS2_PLACEMENT_3D('',#616,#617,#618);
#620=PLANE('',#619);
#621=ORIENTED_EDGE('',*,*,#569,.F.);
#622=ORIENTED_EDGE('',*,*,#585,.F.);
#623=EDGE_LOOP('',(#621,#622));
#624=FACE_OUTER_BOUND('',#623,.T.);
#625=ADVANCED_FACE('',(#624),#620,.T.);
#626=CARTESIAN_POINT('',(0.0,0.0,0.45));
#627=DIRECTION('',(0.0,0.0,1.0));
#628=DIRECTION('',(1.0,0.0,0.0));
#629=AXIS2_PLACEMENT_3D('',#626,#627,#628);
#630=PLANE('',#629);
#631=ORIENTED_EDGE('',*,*,#609,.F.);
#632=ORIENTED_EDGE('',*,*,#535,.F.);
#633=EDGE_LOOP('',(#631,#632));
#634=FACE_OUTER_BOUND('',#633,.T.);
#635=ADVANCED_FACE('',(#634),#630,.F.);
#636=CLOSED_SHELL('',(#539,#573,#597,#615,#625,#635));
#637=MANIFOLD_SOLID_BREP('2236',#636);
#638=DRAUGHTING_PRE_DEFINED_COLOUR('white');
#639=SURFACE_STYLE_USAGE(.BOTH.,#640);
#640=SURFACE_SIDE_STYLE('NONE',(#641));
#641=SURFACE_STYLE_FILL_AREA(#642);
#642=FILL_AREA_STYLE('NONE',(#643));
#643=FILL_AREA_STYLE_COLOUR('NONE',#638);
#644=PRESENTATION_STYLE_ASSIGNMENT((#639));
#645=STYLED_ITEM('NONE',(#644),#637);
#646=CARTESIAN_POINT('',(0.368650070512056,-0.89,0.05));
#647=DIRECTION('',(0.0,-1.0,0.0));
#648=DIRECTION('',(0.0,0.0,-1.0));
#649=AXIS2_PLACEMENT_3D('',#646,#647,#648);
#650=PLANE('',#649);
#651=CARTESIAN_POINT('',(0.368650070512056,-0.89,0.45));
#652=VERTEX_POINT('',#651);
#653=CARTESIAN_POINT('',(-0.368650070512054,-0.89,0.45));
#654=VERTEX_POINT('',#653);
#655=CARTESIAN_POINT('',(0.368650070512056,-0.89,0.45));
#656=DIRECTION('',(-1.0,0.0,0.0));
#657=VECTOR('',#656,0.737300141024111);
#658=LINE('',#655,#657);
#659=EDGE_CURVE('',#652,#654,#658,.T.);
#660=ORIENTED_EDGE('',*,*,#659,.T.);
#661=CARTESIAN_POINT('',(-0.368650070512054,-0.89,0.05));
#662=VERTEX_POINT('',#661);
#663=CARTESIAN_POINT('',(-0.368650070512054,-0.89,0.05));
#664=DIRECTION('',(0.0,0.0,1.0));
#665=VECTOR('',#664,0.4);
#666=LINE('',#663,#665);
#667=EDGE_CURVE('',#662,#654,#666,.T.);
#668=ORIENTED_EDGE('',*,*,#667,.F.);
#669=CARTESIAN_POINT('',(0.368650070512056,-0.89,0.05));
#670=VERTEX_POINT('',#669);
#671=CARTESIAN_POINT('',(0.368650070512056,-0.89,0.05));
#672=DIRECTION('',(-1.0,0.0,0.0));
#673=VECTOR('',#672,0.737300141024111);
#674=LINE('',#671,#673);
#675=EDGE_CURVE('',#670,#662,#674,.T.);
#676=ORIENTED_EDGE('',*,*,#675,.F.);
#677=CARTESIAN_POINT('',(0.368650070512056,-0.89,0.05));
#678=DIRECTION('',(0.0,0.0,1.0));
#679=VECTOR('',#678,0.4);
#680=LINE('',#677,#679);
#681=EDGE_CURVE('',#670,#652,#680,.T.);
#682=ORIENTED_EDGE('',*,*,#681,.T.);
#683=EDGE_LOOP('',(#660,#668,#676,#682));
#684=FACE_OUTER_BOUND('',#683,.T.);
#685=ADVANCED_FACE('',(#684),#650,.T.);
#686=CARTESIAN_POINT('',(-0.368650070512054,-0.89,0.05));
#687=DIRECTION('',(-0.707106781186548,-0.707106781186547,0.0));
#688=DIRECTION('',(0.0,0.0,1.0));
#689=AXIS2_PLACEMENT_3D('',#686,#687,#688);
#690=PLANE('',#689);
#691=CARTESIAN_POINT('',(-0.89,-0.368650070512054,0.45));
#692=VERTEX_POINT('',#691);
#693=CARTESIAN_POINT('',(-0.368650070512054,-0.89,0.45));
#694=DIRECTION('',(-0.707106781186547,0.707106781186548,0.0));
#695=VECTOR('',#694,0.73730014102411);
#696=LINE('',#693,#695);
#697=EDGE_CURVE('',#654,#692,#696,.T.);
#698=ORIENTED_EDGE('',*,*,#697,.T.);
#699=CARTESIAN_POINT('',(-0.89,-0.368650070512054,0.05));
#700=VERTEX_POINT('',#699);
#701=CARTESIAN_POINT('',(-0.89,-0.368650070512054,0.05));
#702=DIRECTION('',(0.0,0.0,1.0));
#703=VECTOR('',#702,0.4);
#704=LINE('',#701,#703);
#705=EDGE_CURVE('',#700,#692,#704,.T.);
#706=ORIENTED_EDGE('',*,*,#705,.F.);
#707=CARTESIAN_POINT('',(-0.368650070512054,-0.89,0.05));
#708=DIRECTION('',(-0.707106781186547,0.707106781186548,0.0));
#709=VECTOR('',#708,0.73730014102411);
#710=LINE('',#707,#709);
#711=EDGE_CURVE('',#662,#700,#710,.T.);
#712=ORIENTED_EDGE('',*,*,#711,.F.);
#713=ORIENTED_EDGE('',*,*,#667,.T.);
#714=EDGE_LOOP('',(#698,#706,#712,#713));
#715=FACE_OUTER_BOUND('',#714,.T.);
#716=ADVANCED_FACE('',(#715),#690,.T.);
#717=CARTESIAN_POINT('',(-0.89,-0.368650070512054,0.05));
#718=DIRECTION('',(-1.0,0.0,0.0));
#719=DIRECTION('',(0.0,0.0,1.0));
#720=AXIS2_PLACEMENT_3D('',#717,#718,#719);
#721=PLANE('',#720);
#722=CARTESIAN_POINT('',(-0.89,0.368650070512055,0.45));
#723=VERTEX_POINT('',#722);
#724=CARTESIAN_POINT('',(-0.89,-0.368650070512054,0.45));
#725=DIRECTION('',(0.0,1.0,0.0));
#726=VECTOR('',#725,0.737300141024109);
#727=LINE('',#724,#726);
#728=EDGE_CURVE('',#692,#723,#727,.T.);
#729=ORIENTED_EDGE('',*,*,#728,.T.);
#730=CARTESIAN_POINT('',(-0.89,0.368650070512055,0.05));
#731=VERTEX_POINT('',#730);
#732=CARTESIAN_POINT('',(-0.89,0.368650070512055,0.05));
#733=DIRECTION('',(0.0,0.0,1.0));
#734=VECTOR('',#733,0.4);
#735=LINE('',#732,#734);
#736=EDGE_CURVE('',#731,#723,#735,.T.);
#737=ORIENTED_EDGE('',*,*,#736,.F.);
#738=CARTESIAN_POINT('',(-0.89,-0.368650070512054,0.05));
#739=DIRECTION('',(0.0,1.0,0.0));
#740=VECTOR('',#739,0.737300141024109);
#741=LINE('',#738,#740);
#742=EDGE_CURVE('',#700,#731,#741,.T.);
#743=ORIENTED_EDGE('',*,*,#742,.F.);
#744=ORIENTED_EDGE('',*,*,#705,.T.);
#745=EDGE_LOOP('',(#729,#737,#743,#744));
#746=FACE_OUTER_BOUND('',#745,.T.);
#747=ADVANCED_FACE('',(#746),#721,.T.);
#748=CARTESIAN_POINT('',(-0.89,0.368650070512055,0.05));
#749=DIRECTION('',(-0.707106781186547,0.707106781186548,0.0));
#750=DIRECTION('',(0.0,0.0,1.0));
#751=AXIS2_PLACEMENT_3D('',#748,#749,#750);
#752=PLANE('',#751);
#753=CARTESIAN_POINT('',(-0.368650070512055,0.89,0.45));
#754=VERTEX_POINT('',#753);
#755=CARTESIAN_POINT('',(-0.89,0.368650070512055,0.45));
#756=DIRECTION('',(0.707106781186548,0.707106781186547,0.0));
#757=VECTOR('',#756,0.737300141024109);
#758=LINE('',#755,#757);
#759=EDGE_CURVE('',#723,#754,#758,.T.);
#760=ORIENTED_EDGE('',*,*,#759,.T.);
#761=CARTESIAN_POINT('',(-0.368650070512055,0.89,0.05));
#762=VERTEX_POINT('',#761);
#763=CARTESIAN_POINT('',(-0.368650070512055,0.89,0.05));
#764=DIRECTION('',(0.0,0.0,1.0));
#765=VECTOR('',#764,0.4);
#766=LINE('',#763,#765);
#767=EDGE_CURVE('',#762,#754,#766,.T.);
#768=ORIENTED_EDGE('',*,*,#767,.F.);
#769=CARTESIAN_POINT('',(-0.89,0.368650070512055,0.05));
#770=DIRECTION('',(0.707106781186548,0.707106781186547,0.0));
#771=VECTOR('',#770,0.737300141024109);
#772=LINE('',#769,#771);
#773=EDGE_CURVE('',#731,#762,#772,.T.);
#774=ORIENTED_EDGE('',*,*,#773,.F.);
#775=ORIENTED_EDGE('',*,*,#736,.T.);
#776=EDGE_LOOP('',(#760,#768,#774,#775));
#777=FACE_OUTER_BOUND('',#776,.T.);
#778=ADVANCED_FACE('',(#777),#752,.T.);
#779=CARTESIAN_POINT('',(-0.368650070512055,0.89,0.05));
#780=DIRECTION('',(0.0,1.0,0.0));
#781=DIRECTION('',(0.0,0.0,1.0));
#782=AXIS2_PLACEMENT_3D('',#779,#780,#781);
#783=PLANE('',#782);
#784=CARTESIAN_POINT('',(0.368650070512056,0.89,0.45));
#785=VERTEX_POINT('',#784);
#786=CARTESIAN_POINT('',(-0.368650070512055,0.89,0.45));
#787=DIRECTION('',(1.0,0.0,0.0));
#788=VECTOR('',#787,0.737300141024111);
#789=LINE('',#786,#788);
#790=EDGE_CURVE('',#754,#785,#789,.T.);
#791=ORIENTED_EDGE('',*,*,#790,.T.);
#792=CARTESIAN_POINT('',(0.368650070512056,0.89,0.05));
#793=VERTEX_POINT('',#792);
#794=CARTESIAN_POINT('',(0.368650070512056,0.89,0.05));
#795=DIRECTION('',(0.0,0.0,1.0));
#796=VECTOR('',#795,0.4);
#797=LINE('',#794,#796);
#798=EDGE_CURVE('',#793,#785,#797,.T.);
#799=ORIENTED_EDGE('',*,*,#798,.F.);
#800=CARTESIAN_POINT('',(-0.368650070512055,0.89,0.05));
#801=DIRECTION('',(1.0,0.0,0.0));
#802=VECTOR('',#801,0.737300141024111);
#803=LINE('',#800,#802);
#804=EDGE_CURVE('',#762,#793,#803,.T.);
#805=ORIENTED_EDGE('',*,*,#804,.F.);
#806=ORIENTED_EDGE('',*,*,#767,.T.);
#807=EDGE_LOOP('',(#791,#799,#805,#806));
#808=FACE_OUTER_BOUND('',#807,.T.);
#809=ADVANCED_FACE('',(#808),#783,.T.);
#810=CARTESIAN_POINT('',(0.368650070512056,0.89,0.05));
#811=DIRECTION('',(0.707106781186548,0.707106781186547,0.0));
#812=DIRECTION('',(0.0,0.0,-1.0));
#813=AXIS2_PLACEMENT_3D('',#810,#811,#812);
#814=PLANE('',#813);
#815=CARTESIAN_POINT('',(0.89,0.368650070512056,0.45));
#816=VERTEX_POINT('',#815);
#817=CARTESIAN_POINT('',(0.368650070512056,0.89,0.45));
#818=DIRECTION('',(0.707106781186547,-0.707106781186548,0.0));
#819=VECTOR('',#818,0.737300141024107);
#820=LINE('',#817,#819);
#821=EDGE_CURVE('',#785,#816,#820,.T.);
#822=ORIENTED_EDGE('',*,*,#821,.T.);
#823=CARTESIAN_POINT('',(0.89,0.368650070512056,0.05));
#824=VERTEX_POINT('',#823);
#825=CARTESIAN_POINT('',(0.89,0.368650070512056,0.05));
#826=DIRECTION('',(0.0,0.0,1.0));
#827=VECTOR('',#826,0.4);
#828=LINE('',#825,#827);
#829=EDGE_CURVE('',#824,#816,#828,.T.);
#830=ORIENTED_EDGE('',*,*,#829,.F.);
#831=CARTESIAN_POINT('',(0.368650070512056,0.89,0.05));
#832=DIRECTION('',(0.707106781186547,-0.707106781186548,0.0));
#833=VECTOR('',#832,0.737300141024107);
#834=LINE('',#831,#833);
#835=EDGE_CURVE('',#793,#824,#834,.T.);
#836=ORIENTED_EDGE('',*,*,#835,.F.);
#837=ORIENTED_EDGE('',*,*,#798,.T.);
#838=EDGE_LOOP('',(#822,#830,#836,#837));
#839=FACE_OUTER_BOUND('',#838,.T.);
#840=ADVANCED_FACE('',(#839),#814,.T.);
#841=CARTESIAN_POINT('',(0.89,0.368650070512056,0.0));
#842=DIRECTION('',(1.0,0.0,0.0));
#843=DIRECTION('',(0.0,0.0,-1.0));
#844=AXIS2_PLACEMENT_3D('',#841,#842,#843);
#845=PLANE('',#844);
#846=CARTESIAN_POINT('',(0.89,-0.368650070512056,0.45));
#847=VERTEX_POINT('',#846);
#848=CARTESIAN_POINT('',(0.89,0.368650070512056,0.45));
#849=DIRECTION('',(0.0,-1.0,0.0));
#850=VECTOR('',#849,0.737300141024112);
#851=LINE('',#848,#850);
#852=EDGE_CURVE('',#816,#847,#851,.T.);
#853=ORIENTED_EDGE('',*,*,#852,.T.);
#854=CARTESIAN_POINT('',(0.89,-0.368650070512056,0.05));
#855=VERTEX_POINT('',#854);
#856=CARTESIAN_POINT('',(0.89,-0.368650070512056,0.05));
#857=DIRECTION('',(0.0,0.0,1.0));
#858=VECTOR('',#857,0.4);
#859=LINE('',#856,#858);
#860=EDGE_CURVE('',#855,#847,#859,.T.);
#861=ORIENTED_EDGE('',*,*,#860,.F.);
#862=CARTESIAN_POINT('',(0.89,0.368650070512056,0.05));
#863=DIRECTION('',(0.0,-1.0,0.0));
#864=VECTOR('',#863,0.737300141024112);
#865=LINE('',#862,#864);
#866=EDGE_CURVE('',#824,#855,#865,.T.);
#867=ORIENTED_EDGE('',*,*,#866,.F.);
#868=ORIENTED_EDGE('',*,*,#829,.T.);
#869=EDGE_LOOP('',(#853,#861,#867,#868));
#870=FACE_OUTER_BOUND('',#869,.T.);
#871=ADVANCED_FACE('',(#870),#845,.T.);
#872=CARTESIAN_POINT('',(0.89,-0.368650070512056,0.05));
#873=DIRECTION('',(0.707106781186548,-0.707106781186548,0.0));
#874=DIRECTION('',(0.0,0.0,-1.0));
#875=AXIS2_PLACEMENT_3D('',#872,#873,#874);
#876=PLANE('',#875);
#877=CARTESIAN_POINT('',(0.89,-0.368650070512056,0.45));
#878=DIRECTION('',(-0.707106781186547,-0.707106781186547,0.0));
#879=VECTOR('',#878,0.737300141024107);
#880=LINE('',#877,#879);
#881=EDGE_CURVE('',#847,#652,#880,.T.);
#882=ORIENTED_EDGE('',*,*,#881,.T.);
#883=ORIENTED_EDGE('',*,*,#681,.F.);
#884=CARTESIAN_POINT('',(0.89,-0.368650070512056,0.05));
#885=DIRECTION('',(-0.707106781186547,-0.707106781186547,0.0));
#886=VECTOR('',#885,0.737300141024107);
#887=LINE('',#884,#886);
#888=EDGE_CURVE('',#855,#670,#887,.T.);
#889=ORIENTED_EDGE('',*,*,#888,.F.);
#890=ORIENTED_EDGE('',*,*,#860,.T.);
#891=EDGE_LOOP('',(#882,#883,#889,#890));
#892=FACE_OUTER_BOUND('',#891,.T.);
#893=ADVANCED_FACE('',(#892),#876,.T.);
#894=CARTESIAN_POINT('',(4.466124E-016,-1.387779E-017,0.45));
#895=DIRECTION('',(0.0,0.0,1.0));
#896=DIRECTION('',(1.0,0.0,0.0));
#897=AXIS2_PLACEMENT_3D('',#894,#895,#896);
#898=PLANE('',#897);
#899=ORIENTED_EDGE('',*,*,#659,.F.);
#900=ORIENTED_EDGE('',*,*,#881,.F.);
#901=ORIENTED_EDGE('',*,*,#852,.F.);
#902=ORIENTED_EDGE('',*,*,#821,.F.);
#903=ORIENTED_EDGE('',*,*,#790,.F.);
#904=ORIENTED_EDGE('',*,*,#759,.F.);
#905=ORIENTED_EDGE('',*,*,#728,.F.);
#906=ORIENTED_EDGE('',*,*,#697,.F.);
#907=EDGE_LOOP('',(#899,#900,#901,#902,#903,#904,#905,#906));
#908=FACE_OUTER_BOUND('',#907,.T.);
#909=ADVANCED_FACE('',(#908),#898,.T.);
#910=CARTESIAN_POINT('',(4.579670E-016,-1.640102E-017,0.05));
#911=DIRECTION('',(0.0,0.0,1.0));
#912=DIRECTION('',(1.0,0.0,0.0));
#913=AXIS2_PLACEMENT_3D('',#910,#911,#912);
#914=PLANE('',#913);
#915=ORIENTED_EDGE('',*,*,#888,.T.);
#916=ORIENTED_EDGE('',*,*,#675,.T.);
#917=ORIENTED_EDGE('',*,*,#711,.T.);
#918=ORIENTED_EDGE('',*,*,#742,.T.);
#919=ORIENTED_EDGE('',*,*,#773,.T.);
#920=ORIENTED_EDGE('',*,*,#804,.T.);
#921=ORIENTED_EDGE('',*,*,#835,.T.);
#922=ORIENTED_EDGE('',*,*,#866,.T.);
#923=EDGE_LOOP('',(#915,#916,#917,#918,#919,#920,#921,#922));
#924=FACE_OUTER_BOUND('',#923,.T.);
#925=ADVANCED_FACE('',(#924),#914,.F.);
#926=CLOSED_SHELL('',(#685,#716,#747,#778,#809,#840,#871,#893,#909,#925));
#927=MANIFOLD_SOLID_BREP('2232',#926);
#928=STYLED_ITEM('NONE',(#344),#927);
#929=CARTESIAN_POINT('',(0.51,2.54,0.0));
#930=DIRECTION('',(1.0,0.0,0.0));
#931=DIRECTION('',(0.0,0.0,-1.0));
#932=AXIS2_PLACEMENT_3D('',#929,#930,#931);
#933=PLANE('',#932);
#934=CARTESIAN_POINT('',(0.51,2.54,0.13));
#935=VERTEX_POINT('',#934);
#936=CARTESIAN_POINT('',(0.51,0.416069612585582,0.13));
#937=VERTEX_POINT('',#936);
#938=CARTESIAN_POINT('',(0.51,2.54,0.13));
#939=DIRECTION('',(0.0,-1.0,0.0));
#940=VECTOR('',#939,2.123930387414418);
#941=LINE('',#938,#940);
#942=EDGE_CURVE('',#935,#937,#941,.T.);
#943=ORIENTED_EDGE('',*,*,#942,.T.);
#944=CARTESIAN_POINT('',(0.51,0.416069612585582,0.0));
#945=VERTEX_POINT('',#944);
#946=CARTESIAN_POINT('',(0.51,0.416069612585582,0.0));
#947=DIRECTION('',(0.0,0.0,1.0));
#948=VECTOR('',#947,0.13);
#949=LINE('',#946,#948);
#950=EDGE_CURVE('',#945,#937,#949,.T.);
#951=ORIENTED_EDGE('',*,*,#950,.F.);
#952=CARTESIAN_POINT('',(0.51,2.54,0.0));
#953=VERTEX_POINT('',#952);
#954=CARTESIAN_POINT('',(0.51,0.416069612585582,0.0));
#955=DIRECTION('',(0.0,1.0,0.0));
#956=VECTOR('',#955,2.123930387414418);
#957=LINE('',#954,#956);
#958=EDGE_CURVE('',#945,#953,#957,.T.);
#959=ORIENTED_EDGE('',*,*,#958,.T.);
#960=CARTESIAN_POINT('',(0.51,2.54,0.0));
#961=DIRECTION('',(0.0,0.0,1.0));
#962=VECTOR('',#961,0.13);
#963=LINE('',#960,#962);
#964=EDGE_CURVE('',#953,#935,#963,.T.);
#965=ORIENTED_EDGE('',*,*,#964,.T.);
#966=EDGE_LOOP('',(#943,#951,#959,#965));
#967=FACE_OUTER_BOUND('',#966,.T.);
#968=ADVANCED_FACE('',(#967),#933,.T.);
#969=CARTESIAN_POINT('',(0.51,0.416069612585582,0.0));
#970=DIRECTION('',(0.0,-1.0,0.0));
#971=DIRECTION('',(0.0,0.0,-1.0));
#972=AXIS2_PLACEMENT_3D('',#969,#970,#971);
#973=PLANE('',#972);
#974=CARTESIAN_POINT('',(-0.509999999999999,0.416069612585583,0.13));
#975=VERTEX_POINT('',#974);
#976=CARTESIAN_POINT('',(0.51,0.416069612585582,0.13));
#977=DIRECTION('',(-1.0,0.0,0.0));
#978=VECTOR('',#977,1.019999999999999);
#979=LINE('',#976,#978);
#980=EDGE_CURVE('',#937,#975,#979,.T.);
#981=ORIENTED_EDGE('',*,*,#980,.T.);
#982=CARTESIAN_POINT('',(-0.509999999999999,0.416069612585583,0.0));
#983=VERTEX_POINT('',#982);
#984=CARTESIAN_POINT('',(-0.509999999999999,0.416069612585583,0.0));
#985=DIRECTION('',(0.0,0.0,1.0));
#986=VECTOR('',#985,0.13);
#987=LINE('',#984,#986);
#988=EDGE_CURVE('',#983,#975,#987,.T.);
#989=ORIENTED_EDGE('',*,*,#988,.F.);
#990=CARTESIAN_POINT('',(-0.509999999999999,0.416069612585583,0.0));
#991=DIRECTION('',(1.0,0.0,0.0));
#992=VECTOR('',#991,1.019999999999999);
#993=LINE('',#990,#992);
#994=EDGE_CURVE('',#983,#945,#993,.T.);
#995=ORIENTED_EDGE('',*,*,#994,.T.);
#996=ORIENTED_EDGE('',*,*,#950,.T.);
#997=EDGE_LOOP('',(#981,#989,#995,#996));
#998=FACE_OUTER_BOUND('',#997,.T.);
#999=ADVANCED_FACE('',(#998),#973,.T.);
#1000=CARTESIAN_POINT('',(-0.509999999999999,0.416069612585583,0.0));
#1001=DIRECTION('',(-1.0,0.0,0.0));
#1002=DIRECTION('',(0.0,0.0,1.0));
#1003=AXIS2_PLACEMENT_3D('',#1000,#1001,#1002);
#1004=PLANE('',#1003);
#1005=CARTESIAN_POINT('',(-0.51,2.54,0.13));
#1006=VERTEX_POINT('',#1005);
#1007=CARTESIAN_POINT('',(-0.509999999999999,0.416069612585583,0.13));
#1008=DIRECTION('',(0.0,1.0,0.0));
#1009=VECTOR('',#1008,2.123930387414416);
#1010=LINE('',#1007,#1009);
#1011=EDGE_CURVE('',#975,#1006,#1010,.T.);
#1012=ORIENTED_EDGE('',*,*,#1011,.T.);
#1013=CARTESIAN_POINT('',(-0.51,2.54,0.0));
#1014=VERTEX_POINT('',#1013);
#1015=CARTESIAN_POINT('',(-0.51,2.54,0.0));
#1016=DIRECTION('',(0.0,0.0,1.0));
#1017=VECTOR('',#1016,0.13);
#1018=LINE('',#1015,#1017);
#1019=EDGE_CURVE('',#1014,#1006,#1018,.T.);
#1020=ORIENTED_EDGE('',*,*,#1019,.F.);
#1021=CARTESIAN_POINT('',(-0.51,2.54,0.0));
#1022=DIRECTION('',(0.0,-1.0,0.0));
#1023=VECTOR('',#1022,2.123930387414416);
#1024=LINE('',#1021,#1023);
#1025=EDGE_CURVE('',#1014,#983,#1024,.T.);
#1026=ORIENTED_EDGE('',*,*,#1025,.T.);
#1027=ORIENTED_EDGE('',*,*,#988,.T.);
#1028=EDGE_LOOP('',(#1012,#1020,#1026,#1027));
#1029=FACE_OUTER_BOUND('',#1028,.T.);
#1030=ADVANCED_FACE('',(#1029),#1004,.T.);
#1031=CARTESIAN_POINT('',(-0.51,2.54,0.0));
#1032=DIRECTION('',(0.0,1.0,0.0));
#1033=DIRECTION('',(0.0,0.0,1.0));
#1034=AXIS2_PLACEMENT_3D('',#1031,#1032,#1033);
#1035=PLANE('',#1034);
#1036=CARTESIAN_POINT('',(-0.51,2.54,0.13));
#1037=DIRECTION('',(1.0,0.0,0.0));
#1038=VECTOR('',#1037,1.02);
#1039=LINE('',#1036,#1038);
#1040=EDGE_CURVE('',#1006,#935,#1039,.T.);
#1041=ORIENTED_EDGE('',*,*,#1040,.T.);
#1042=ORIENTED_EDGE('',*,*,#964,.F.);
#1043=CARTESIAN_POINT('',(0.51,2.54,0.0));
#1044=DIRECTION('',(-1.0,0.0,0.0));
#1045=VECTOR('',#1044,1.02);
#1046=LINE('',#1043,#1045);
#1047=EDGE_CURVE('',#953,#1014,#1046,.T.);
#1048=ORIENTED_EDGE('',*,*,#1047,.T.);
#1049=ORIENTED_EDGE('',*,*,#1019,.T.);
#1050=EDGE_LOOP('',(#1041,#1042,#1048,#1049));
#1051=FACE_OUTER_BOUND('',#1050,.T.);
#1052=ADVANCED_FACE('',(#1051),#1035,.T.);
#1053=CARTESIAN_POINT('',(3.885781E-016,1.478034806292791,0.0));
#1054=DIRECTION('',(0.0,0.0,1.0));
#1055=DIRECTION('',(1.0,0.0,0.0));
#1056=AXIS2_PLACEMENT_3D('',#1053,#1054,#1055);
#1057=PLANE('',#1056);
#1058=ORIENTED_EDGE('',*,*,#1047,.F.);
#1059=ORIENTED_EDGE('',*,*,#958,.F.);
#1060=ORIENTED_EDGE('',*,*,#994,.F.);
#1061=ORIENTED_EDGE('',*,*,#1025,.F.);
#1062=EDGE_LOOP('',(#1058,#1059,#1060,#1061));
#1063=FACE_OUTER_BOUND('',#1062,.T.);
#1064=ADVANCED_FACE('',(#1063),#1057,.F.);
#1065=CARTESIAN_POINT('',(3.885781E-016,1.478034806292791,0.13));
#1066=DIRECTION('',(0.0,0.0,1.0));
#1067=DIRECTION('',(1.0,0.0,0.0));
#1068=AXIS2_PLACEMENT_3D('',#1065,#1066,#1067);
#1069=PLANE('',#1068);
#1070=ORIENTED_EDGE('',*,*,#942,.F.);
#1071=ORIENTED_EDGE('',*,*,#1040,.F.);
#1072=ORIENTED_EDGE('',*,*,#1011,.F.);
#1073=ORIENTED_EDGE('',*,*,#980,.F.);
#1074=EDGE_LOOP('',(#1070,#1071,#1072,#1073));
#1075=FACE_OUTER_BOUND('',#1074,.T.);
#1076=ADVANCED_FACE('',(#1075),#1069,.T.);
#1077=CLOSED_SHELL('',(#968,#999,#1030,#1052,#1064,#1076));
#1078=MANIFOLD_SOLID_BREP('2217',#1077);
#1079=STYLED_ITEM('NONE',(#344),#1078);
#1080=CARTESIAN_POINT('',(-2.54,-0.255,0.0));
#1081=DIRECTION('',(-0.707106781186547,0.707106781186548,0.0));
#1082=DIRECTION('',(0.0,0.0,1.0));
#1083=AXIS2_PLACEMENT_3D('',#1080,#1081,#1082);
#1084=PLANE('',#1083);
#1085=CARTESIAN_POINT('',(-2.54,-0.255,0.13));
#1086=VERTEX_POINT('',#1085);
#1087=CARTESIAN_POINT('',(-2.029999999999999,0.255,0.13));
#1088=VERTEX_POINT('',#1087);
#1089=CARTESIAN_POINT('',(-2.54,-0.255,0.13));
#1090=DIRECTION('',(0.707106781186548,0.707106781186547,0.0));
#1091=VECTOR('',#1090,0.721248916810279);
#1092=LINE('',#1089,#1091);
#1093=EDGE_CURVE('',#1086,#1088,#1092,.T.);
#1094=ORIENTED_EDGE('',*,*,#1093,.T.);
#1095=CARTESIAN_POINT('',(-2.029999999999999,0.255,0.0));
#1096=VERTEX_POINT('',#1095);
#1097=CARTESIAN_POINT('',(-2.029999999999999,0.255,0.0));
#1098=DIRECTION('',(0.0,0.0,1.0));
#1099=VECTOR('',#1098,0.13);
#1100=LINE('',#1097,#1099);
#1101=EDGE_CURVE('',#1096,#1088,#1100,.T.);
#1102=ORIENTED_EDGE('',*,*,#1101,.F.);
#1103=CARTESIAN_POINT('',(-2.54,-0.255,0.0));
#1104=VERTEX_POINT('',#1103);
#1105=CARTESIAN_POINT('',(-2.54,-0.255,0.0));
#1106=DIRECTION('',(0.707106781186548,0.707106781186547,0.0));
#1107=VECTOR('',#1106,0.721248916810279);
#1108=LINE('',#1105,#1107);
#1109=EDGE_CURVE('',#1104,#1096,#1108,.T.);
#1110=ORIENTED_EDGE('',*,*,#1109,.F.);
#1111=CARTESIAN_POINT('',(-2.54,-0.255,0.0));
#1112=DIRECTION('',(0.0,0.0,1.0));
#1113=VECTOR('',#1112,0.13);
#1114=LINE('',#1111,#1113);
#1115=EDGE_CURVE('',#1104,#1086,#1114,.T.);
#1116=ORIENTED_EDGE('',*,*,#1115,.T.);
#1117=EDGE_LOOP('',(#1094,#1102,#1110,#1116));
#1118=FACE_OUTER_BOUND('',#1117,.T.);
#1119=ADVANCED_FACE('',(#1118),#1084,.T.);
#1120=CARTESIAN_POINT('',(-2.029999999999999,0.255,0.0));
#1121=DIRECTION('',(0.0,1.0,0.0));
#1122=DIRECTION('',(0.0,0.0,1.0));
#1123=AXIS2_PLACEMENT_3D('',#1120,#1121,#1122);
#1124=PLANE('',#1123);
#1125=CARTESIAN_POINT('',(-0.64311600970695,0.255,0.13));
#1126=VERTEX_POINT('',#1125);
#1127=CARTESIAN_POINT('',(-2.029999999999999,0.255,0.13));
#1128=DIRECTION('',(1.0,0.0,0.0));
#1129=VECTOR('',#1128,1.386883990293049);
#1130=LINE('',#1127,#1129);
#1131=EDGE_CURVE('',#1088,#1126,#1130,.T.);
#1132=ORIENTED_EDGE('',*,*,#1131,.T.);
#1133=CARTESIAN_POINT('',(-0.64311600970695,0.255,0.0));
#1134=VERTEX_POINT('',#1133);
#1135=CARTESIAN_POINT('',(-0.64311600970695,0.255,0.0));
#1136=DIRECTION('',(0.0,0.0,1.0));
#1137=VECTOR('',#1136,0.13);
#1138=LINE('',#1135,#1137);
#1139=EDGE_CURVE('',#1134,#1126,#1138,.T.);
#1140=ORIENTED_EDGE('',*,*,#1139,.F.);
#1141=CARTESIAN_POINT('',(-2.029999999999999,0.255,0.0));
#1142=DIRECTION('',(1.0,0.0,0.0));
#1143=VECTOR('',#1142,1.386883990293049);
#1144=LINE('',#1141,#1143);
#1145=EDGE_CURVE('',#1096,#1134,#1144,.T.);
#1146=ORIENTED_EDGE('',*,*,#1145,.F.);
#1147=ORIENTED_EDGE('',*,*,#1101,.T.);
#1148=EDGE_LOOP('',(#1132,#1140,#1146,#1147));
#1149=FACE_OUTER_BOUND('',#1148,.T.);
#1150=ADVANCED_FACE('',(#1149),#1124,.T.);
#1151=CARTESIAN_POINT('',(-0.64311600970695,0.255,0.0));
#1152=DIRECTION('',(1.0,0.0,0.0));
#1153=DIRECTION('',(0.0,0.0,-1.0));
#1154=AXIS2_PLACEMENT_3D('',#1151,#1152,#1153);
#1155=PLANE('',#1154);
#1156=CARTESIAN_POINT('',(-0.643116009706951,-0.254999999999999,0.13));
#1157=VERTEX_POINT('',#1156);
#1158=CARTESIAN_POINT('',(-0.64311600970695,0.255,0.13));
#1159=DIRECTION('',(0.0,-1.0,0.0));
#1160=VECTOR('',#1159,0.509999999999999);
#1161=LINE('',#1158,#1160);
#1162=EDGE_CURVE('',#1126,#1157,#1161,.T.);
#1163=ORIENTED_EDGE('',*,*,#1162,.T.);
#1164=CARTESIAN_POINT('',(-0.643116009706951,-0.254999999999999,0.0));
#1165=VERTEX_POINT('',#1164);
#1166=CARTESIAN_POINT('',(-0.643116009706951,-0.254999999999999,0.0));
#1167=DIRECTION('',(0.0,0.0,1.0));
#1168=VECTOR('',#1167,0.13);
#1169=LINE('',#1166,#1168);
#1170=EDGE_CURVE('',#1165,#1157,#1169,.T.);
#1171=ORIENTED_EDGE('',*,*,#1170,.F.);
#1172=CARTESIAN_POINT('',(-0.64311600970695,0.255,0.0));
#1173=DIRECTION('',(0.0,-1.0,0.0));
#1174=VECTOR('',#1173,0.509999999999999);
#1175=LINE('',#1172,#1174);
#1176=EDGE_CURVE('',#1134,#1165,#1175,.T.);
#1177=ORIENTED_EDGE('',*,*,#1176,.F.);
#1178=ORIENTED_EDGE('',*,*,#1139,.T.);
#1179=EDGE_LOOP('',(#1163,#1171,#1177,#1178));
#1180=FACE_OUTER_BOUND('',#1179,.T.);
#1181=ADVANCED_FACE('',(#1180),#1155,.T.);
#1182=CARTESIAN_POINT('',(-0.643116009706951,-0.254999999999999,0.0));
#1183=DIRECTION('',(0.0,-1.0,0.0));
#1184=DIRECTION('',(0.0,0.0,-1.0));
#1185=AXIS2_PLACEMENT_3D('',#1182,#1183,#1184);
#1186=PLANE('',#1185);
#1187=CARTESIAN_POINT('',(-0.643116009706951,-0.254999999999999,0.13));
#1188=DIRECTION('',(-1.0,0.0,0.0));
#1189=VECTOR('',#1188,1.896883990293049);
#1190=LINE('',#1187,#1189);
#1191=EDGE_CURVE('',#1157,#1086,#1190,.T.);
#1192=ORIENTED_EDGE('',*,*,#1191,.T.);
#1193=ORIENTED_EDGE('',*,*,#1115,.F.);
#1194=CARTESIAN_POINT('',(-0.643116009706951,-0.254999999999999,0.0));
#1195=DIRECTION('',(-1.0,0.0,0.0));
#1196=VECTOR('',#1195,1.896883990293049);
#1197=LINE('',#1194,#1196);
#1198=EDGE_CURVE('',#1165,#1104,#1197,.T.);
#1199=ORIENTED_EDGE('',*,*,#1198,.F.);
#1200=ORIENTED_EDGE('',*,*,#1170,.T.);
#1201=EDGE_LOOP('',(#1192,#1193,#1199,#1200));
#1202=FACE_OUTER_BOUND('',#1201,.T.);
#1203=ADVANCED_FACE('',(#1202),#1186,.T.);
#1204=CARTESIAN_POINT('',(-1.516870234056045,-0.02880387891239,0.13));
#1205=DIRECTION('',(0.0,0.0,1.0));
#1206=DIRECTION('',(1.0,0.0,0.0));
#1207=AXIS2_PLACEMENT_3D('',#1204,#1205,#1206);
#1208=PLANE('',#1207);
#1209=ORIENTED_EDGE('',*,*,#1093,.F.);
#1210=ORIENTED_EDGE('',*,*,#1191,.F.);
#1211=ORIENTED_EDGE('',*,*,#1162,.F.);
#1212=ORIENTED_EDGE('',*,*,#1131,.F.);
#1213=EDGE_LOOP('',(#1209,#1210,#1211,#1212));
#1214=FACE_OUTER_BOUND('',#1213,.T.);
#1215=ADVANCED_FACE('',(#1214),#1208,.T.);
#1216=CARTESIAN_POINT('',(-1.516870234056044,-0.02880387891239,0.0));
#1217=DIRECTION('',(0.0,0.0,1.0));
#1218=DIRECTION('',(1.0,0.0,0.0));
#1219=AXIS2_PLACEMENT_3D('',#1216,#1217,#1218);
#1220=PLANE('',#1219);
#1221=ORIENTED_EDGE('',*,*,#1198,.T.);
#1222=ORIENTED_EDGE('',*,*,#1109,.T.);
#1223=ORIENTED_EDGE('',*,*,#1145,.T.);
#1224=ORIENTED_EDGE('',*,*,#1176,.T.);
#1225=EDGE_LOOP('',(#1221,#1222,#1223,#1224));
#1226=FACE_OUTER_BOUND('',#1225,.T.);
#1227=ADVANCED_FACE('',(#1226),#1220,.F.);
#1228=CLOSED_SHELL('',(#1119,#1150,#1181,#1203,#1215,#1227));
#1229=MANIFOLD_SOLID_BREP('2213',#1228);
#1230=STYLED_ITEM('NONE',(#344),#1229);
#1231=ADVANCED_BREP_SHAPE_REPRESENTATION('ABSR1',(#337,#496,#637,#927,#1078,#1229),#28);
#1232=SHAPE_REPRESENTATION_RELATIONSHIP('SRRPL1','',#1231,#62);
#1233=GEOMETRIC_CURVE_SET('GCS1',(#70,#83,#90,#97,#104,#111,#118,#125,#132,#144,#151,#158,#165,#172,#179,#186));
#1234=GEOMETRICALLY_BOUNDED_WIREFRAME_SHAPE_REPRESENTATION('GBWSR1',(#1233),#28);
#1235=SHAPE_REPRESENTATION_RELATIONSHIP('SRRPL2','',#1234,#62);
ENDSEC;
END-ISO-10303-21;
