ISO-10303-21;
HEADER;
/****************************************************************
 * Generated by software with PDE/Lib inside                    *
 * PDE/Lib Version 3.2.2, created Thu Mar 23, 2000 at 18:38:49  *
 * International Technegroup Inc. (www.iti-oh.com)              *
 ****************************************************************/
FILE_DESCRIPTION((''),'2;1');
FILE_NAME('NICOMATIC_C12000B.stp','2009-03-25T10:25:21',(''),(''),'Mechanical Desktop 2006','Mechanical Desktop 2006',', , ');
FILE_SCHEMA(('AUTOMOTIVE_DESIGN { 1 2 10303 214 0 1 1 1 }'));
ENDSEC;
DATA;
#8=(NAMED_UNIT(*)PLANE_ANGLE_UNIT()SI_UNIT($,.RADIAN.));
#9=DIMENSIONAL_EXPONENTS(0.0,0.0,0.0,0.0,0.0,0.0,0.0);
#10=PLANE_ANGLE_MEASURE_WITH_UNIT(PLANE_ANGLE_MEASURE(0.017453292500000),#8);
#14=(CONVERSION_BASED_UNIT('DEGREE',#10)NAMED_UNIT(#9)PLANE_ANGLE_UNIT());
#18=(NAMED_UNIT(*)SI_UNIT($,.STERADIAN.)SOLID_ANGLE_UNIT());
#22=(LENGTH_UNIT()NAMED_UNIT(*)SI_UNIT(.MILLI.,.METRE.));
#23=UNCERTAINTY_MEASURE_WITH_UNIT(LENGTH_MEASURE(0.000001000000000),#22,'DISTANCE_ACCURACY_VALUE','');
#28=(GEOMETRIC_REPRESENTATION_CONTEXT(3)GLOBAL_UNCERTAINTY_ASSIGNED_CONTEXT((#23))GLOBAL_UNIT_ASSIGNED_CONTEXT((#14,#18,#22))REPRESENTATION_CONTEXT('None','None'));
#29=APPLICATION_CONTEXT('automotive design');
#30=APPLICATION_PROTOCOL_DEFINITION('DRAFT_INTERNATIONAL_STANDARD','automotive_design',1998,#29);
#31=PRODUCT_CONTEXT('3D Mechanical Parts',#29,'mechanical');
#32=PRODUCT('Product','Product','',(#31));
#33=PRODUCT_RELATED_PRODUCT_CATEGORY('part',$,(#32));
#34=PRODUCT_CATEGORY('part',$);
#35=PERSON('1','Design','Joe',$,$,$);
#36=ORGANIZATION($,'None','None');
#37=PERSON_AND_ORGANIZATION(#35,#36);
#38=PERSON_AND_ORGANIZATION_ROLE('design_owner');
#39=APPLIED_PERSON_AND_ORGANIZATION_ASSIGNMENT(#37,#38,(#32));
#40=PRODUCT_DEFINITION_FORMATION_WITH_SPECIFIED_SOURCE('None','',#32,.BOUGHT.);
#41=PERSON('2','Creator','Joe',$,$,$);
#42=ORGANIZATION($,'None','None');
#43=PERSON_AND_ORGANIZATION(#41,#42);
#44=PERSON_AND_ORGANIZATION_ROLE('creator');
#45=APPLIED_PERSON_AND_ORGANIZATION_ASSIGNMENT(#43,#44,(#40));
#46=PERSON('3','Supplier','Joe',$,$,$);
#47=ORGANIZATION($,'None','None');
#48=PERSON_AND_ORGANIZATION(#46,#47);
#49=PERSON_AND_ORGANIZATION_ROLE('design_supplier');
#50=APPLIED_PERSON_AND_ORGANIZATION_ASSIGNMENT(#48,#49,(#40));
#51=PRODUCT_DEFINITION_CONTEXT('part definition',#29,'design');
#52=PRODUCT_DEFINITION('None','',#40,#51);
#53=PERSON('4','Creator','Joe',$,$,$);
#54=ORGANIZATION($,'None','None');
#55=PERSON_AND_ORGANIZATION(#53,#54);
#56=PERSON_AND_ORGANIZATION_ROLE('creator');
#57=APPLIED_PERSON_AND_ORGANIZATION_ASSIGNMENT(#55,#56,(#52));
#58=CARTESIAN_POINT('NONE',(0.0,0.0,0.0));
#59=DIRECTION('NONE',(0.0,0.0,1.0));
#60=DIRECTION('NONE',(1.0,0.0,0.0));
#61=AXIS2_PLACEMENT_3D('NONE',#58,#59,#60);
#62=SHAPE_REPRESENTATION('SR1',(#61),#28);
#63=PRODUCT_DEFINITION_SHAPE('PDS1','Test Part',#52);
#64=SHAPE_DEFINITION_REPRESENTATION(#63,#62);
#65=CARTESIAN_POINT('',(-0.899810039626759,0.675000000000000,0.349487472557735));
#66=DIRECTION('',(2.220446E-016,-1.0,6.123032E-017));
#67=DIRECTION('',(-0.791289107811296,-2.131403E-016,-0.611442186849422));
#68=AXIS2_PLACEMENT_3D('',#65,#66,#67);
#69=CYLINDRICAL_SURFACE('',#68,0.350000000000001);
#70=CARTESIAN_POINT('',(-1.176761227360713,0.675000000000000,0.135482707160437));
#71=VERTEX_POINT('',#70);
#72=CARTESIAN_POINT('',(-1.176761227360713,-0.675000000000000,0.135482707160437));
#73=VERTEX_POINT('',#72);
#74=CARTESIAN_POINT('',(-1.176761227360713,0.675000000000000,0.135482707160437));
#75=DIRECTION('',(0.0,-1.0,0.0));
#76=VECTOR('',#75,1.350000000000000);
#77=LINE('',#74,#76);
#78=EDGE_CURVE('',#71,#73,#77,.T.);
#79=ORIENTED_EDGE('',*,*,#78,.F.);
#80=CARTESIAN_POINT('',(-0.880875771085096,0.675000000000000,1.539433E-015));
#81=VERTEX_POINT('',#80);
#82=CARTESIAN_POINT('',(-0.899810039626759,0.675000000000000,0.349487472557735));
#83=DIRECTION('',(-1.686556E-016,1.0,-1.303230E-016));
#84=DIRECTION('',(-0.791289107811296,-2.131403E-016,-0.611442186849422));
#85=AXIS2_PLACEMENT_3D('',#82,#83,#84);
#86=CIRCLE('',#85,0.350000000000001);
#87=EDGE_CURVE('',#81,#71,#86,.T.);
#88=ORIENTED_EDGE('',*,*,#87,.F.);
#89=CARTESIAN_POINT('',(-0.880875771085096,-0.675000000000000,1.622094E-015));
#90=VERTEX_POINT('',#89);
#91=CARTESIAN_POINT('',(-0.880875771085096,0.675000000000000,1.539433E-015));
#92=DIRECTION('',(0.0,-1.0,0.0));
#93=VECTOR('',#92,1.350000000000000);
#94=LINE('',#91,#93);
#95=EDGE_CURVE('',#81,#90,#94,.T.);
#96=ORIENTED_EDGE('',*,*,#95,.T.);
#97=CARTESIAN_POINT('',(-0.899810039626759,-0.675000000000000,0.349487472557735));
#98=DIRECTION('',(-1.686556E-016,1.0,-1.303230E-016));
#99=DIRECTION('',(-0.791289107811296,-2.131403E-016,-0.611442186849422));
#100=AXIS2_PLACEMENT_3D('',#97,#98,#99);
#101=CIRCLE('',#100,0.350000000000001);
#102=EDGE_CURVE('',#90,#73,#101,.T.);
#103=ORIENTED_EDGE('',*,*,#102,.T.);
#104=EDGE_LOOP('',(#79,#88,#96,#103));
#105=FACE_OUTER_BOUND('',#104,.T.);
#106=ADVANCED_FACE('',(#105),#69,.T.);
#107=CARTESIAN_POINT('',(0.899810039626761,0.675000000000000,0.349487472557733));
#108=DIRECTION('',(2.220446E-016,-1.0,6.123032E-017));
#109=DIRECTION('',(0.791289107811295,1.382627E-016,-0.611442186849423));
#110=AXIS2_PLACEMENT_3D('',#107,#108,#109);
#111=CYLINDRICAL_SURFACE('',#110,0.350000000000000);
#112=CARTESIAN_POINT('',(1.176761227360714,0.675000000000000,0.135482707160435));
#113=VERTEX_POINT('',#112);
#114=CARTESIAN_POINT('',(1.176761227360714,-0.675000000000000,0.135482707160435));
#115=VERTEX_POINT('',#114);
#116=CARTESIAN_POINT('',(1.176761227360714,0.675000000000000,0.135482707160435));
#117=DIRECTION('',(0.0,-1.0,0.0));
#118=VECTOR('',#117,1.350000000000000);
#119=LINE('',#116,#118);
#120=EDGE_CURVE('',#113,#115,#119,.T.);
#121=ORIENTED_EDGE('',*,*,#120,.F.);
#122=CARTESIAN_POINT('',(1.233216690945697,0.675000000000000,0.455976931455283));
#123=VERTEX_POINT('',#122);
#124=CARTESIAN_POINT('',(0.899810039626761,0.675000000000000,0.349487472557733));
#125=DIRECTION('',(-1.094058E-016,1.000000000000000,8.453963E-017));
#126=DIRECTION('',(0.791289107811295,1.382627E-016,-0.611442186849423));
#127=AXIS2_PLACEMENT_3D('',#124,#125,#126);
#128=CIRCLE('',#127,0.350000000000000);
#129=EDGE_CURVE('',#123,#113,#128,.T.);
#130=ORIENTED_EDGE('',*,*,#129,.F.);
#131=CARTESIAN_POINT('',(1.233216690945698,-0.675000000000000,0.455976931455283));
#132=VERTEX_POINT('',#131);
#133=CARTESIAN_POINT('',(1.233216690945697,0.675000000000000,0.455976931455283));
#134=DIRECTION('',(0.0,-1.0,0.0));
#135=VECTOR('',#134,1.350000000000000);
#136=LINE('',#133,#135);
#137=EDGE_CURVE('',#123,#132,#136,.T.);
#138=ORIENTED_EDGE('',*,*,#137,.T.);
#139=CARTESIAN_POINT('',(0.899810039626761,-0.675000000000000,0.349487472557734));
#140=DIRECTION('',(-1.094058E-016,1.000000000000000,8.453963E-017));
#141=DIRECTION('',(0.791289107811295,1.382627E-016,-0.611442186849423));
#142=AXIS2_PLACEMENT_3D('',#139,#140,#141);
#143=CIRCLE('',#142,0.350000000000000);
#144=EDGE_CURVE('',#132,#115,#143,.T.);
#145=ORIENTED_EDGE('',*,*,#144,.T.);
#146=EDGE_LOOP('',(#121,#130,#138,#145));
#147=FACE_OUTER_BOUND('',#146,.T.);
#148=ADVANCED_FACE('',(#147),#111,.T.);
#149=CARTESIAN_POINT('',(0.644854974773826,0.675000000000000,1.147723422758214));
#150=DIRECTION('',(2.220446E-016,-1.0,6.123032E-017));
#151=DIRECTION('',(0.589806918893745,1.804096E-016,0.807544301215152));
#152=AXIS2_PLACEMENT_3D('',#149,#150,#151);
#153=CYLINDRICAL_SURFACE('',#152,0.350000000000000);
#154=CARTESIAN_POINT('',(0.851287396386637,0.675000000000000,1.430363928183517));
#155=VERTEX_POINT('',#154);
#156=CARTESIAN_POINT('',(0.851287396386637,-0.675000000000000,1.430363928183517));
#157=VERTEX_POINT('',#156);
#158=CARTESIAN_POINT('',(0.851287396386637,0.675000000000000,1.430363928183517));
#159=DIRECTION('',(0.0,-1.0,0.0));
#160=VECTOR('',#159,1.350000000000000);
#161=LINE('',#158,#160);
#162=EDGE_CURVE('',#155,#157,#161,.T.);
#163=ORIENTED_EDGE('',*,*,#162,.F.);
#164=CARTESIAN_POINT('',(0.644854974773828,0.675000000000000,1.497723422758213));
#165=VERTEX_POINT('',#164);
#166=CARTESIAN_POINT('',(0.644854974773826,0.675000000000000,1.147723422758214));
#167=DIRECTION('',(-1.064069E-016,1.0,-1.456888E-016));
#168=DIRECTION('',(0.589806918893745,1.804096E-016,0.807544301215152));
#169=AXIS2_PLACEMENT_3D('',#166,#167,#168);
#170=CIRCLE('',#169,0.350000000000000);
#171=EDGE_CURVE('',#165,#155,#170,.T.);
#172=ORIENTED_EDGE('',*,*,#171,.F.);
#173=CARTESIAN_POINT('',(0.644854974773828,-0.675000000000000,1.497723422758213));
#174=VERTEX_POINT('',#173);
#175=CARTESIAN_POINT('',(0.644854974773828,0.675000000000000,1.497723422758213));
#176=DIRECTION('',(0.0,-1.0,0.0));
#177=VECTOR('',#176,1.350000000000000);
#178=LINE('',#175,#177);
#179=EDGE_CURVE('',#165,#174,#178,.T.);
#180=ORIENTED_EDGE('',*,*,#179,.T.);
#181=CARTESIAN_POINT('',(0.644854974773826,-0.675000000000000,1.147723422758214));
#182=DIRECTION('',(-1.064069E-016,1.0,-1.456888E-016));
#183=DIRECTION('',(0.589806918893745,1.804096E-016,0.807544301215152));
#184=AXIS2_PLACEMENT_3D('',#181,#182,#183);
#185=CIRCLE('',#184,0.350000000000000);
#186=EDGE_CURVE('',#174,#157,#185,.T.);
#187=ORIENTED_EDGE('',*,*,#186,.T.);
#188=EDGE_LOOP('',(#163,#172,#180,#187));
#189=FACE_OUTER_BOUND('',#188,.T.);
#190=ADVANCED_FACE('',(#189),#153,.T.);
#191=CARTESIAN_POINT('',(-0.644854974773829,0.675000000000000,1.147723422758215));
#192=DIRECTION('',(2.220446E-016,-1.0,6.123032E-017));
#193=DIRECTION('',(-0.589806918893741,-8.151725E-017,0.807544301215155));
#194=AXIS2_PLACEMENT_3D('',#191,#192,#193);
#195=CYLINDRICAL_SURFACE('',#194,0.350000000000000);
#196=CARTESIAN_POINT('',(-0.851287396386638,0.675000000000000,1.430363928183519));
#197=VERTEX_POINT('',#196);
#198=CARTESIAN_POINT('',(-0.851287396386638,-0.675000000000000,1.430363928183519));
#199=VERTEX_POINT('',#198);
#200=CARTESIAN_POINT('',(-0.851287396386638,0.675000000000000,1.430363928183519));
#201=DIRECTION('',(0.0,-1.0,0.0));
#202=VECTOR('',#201,1.350000000000000);
#203=LINE('',#200,#202);
#204=EDGE_CURVE('',#197,#199,#203,.T.);
#205=ORIENTED_EDGE('',*,*,#204,.F.);
#206=CARTESIAN_POINT('',(-0.978261626092765,0.675000000000000,1.254212881655766));
#207=VERTEX_POINT('',#206);
#208=CARTESIAN_POINT('',(-0.644854974773829,0.675000000000000,1.147723422758215));
#209=DIRECTION('',(-4.807944E-017,1.000000000000000,6.582879E-017));
#210=DIRECTION('',(-0.589806918893741,-8.151725E-017,0.807544301215155));
#211=AXIS2_PLACEMENT_3D('',#208,#209,#210);
#212=CIRCLE('',#211,0.350000000000000);
#213=EDGE_CURVE('',#207,#197,#212,.T.);
#214=ORIENTED_EDGE('',*,*,#213,.F.);
#215=CARTESIAN_POINT('',(-0.978261626092765,-0.675000000000000,1.254212881655766));
#216=VERTEX_POINT('',#215);
#217=CARTESIAN_POINT('',(-0.978261626092765,0.675000000000000,1.254212881655766));
#218=DIRECTION('',(0.0,-1.0,0.0));
#219=VECTOR('',#218,1.350000000000000);
#220=LINE('',#217,#219);
#221=EDGE_CURVE('',#207,#216,#220,.T.);
#222=ORIENTED_EDGE('',*,*,#221,.T.);
#223=CARTESIAN_POINT('',(-0.644854974773828,-0.675000000000000,1.147723422758215));
#224=DIRECTION('',(-4.807944E-017,1.000000000000000,6.582879E-017));
#225=DIRECTION('',(-0.589806918893741,-8.151725E-017,0.807544301215155));
#226=AXIS2_PLACEMENT_3D('',#223,#224,#225);
#227=CIRCLE('',#226,0.350000000000000);
#228=EDGE_CURVE('',#216,#199,#227,.T.);
#229=ORIENTED_EDGE('',*,*,#228,.T.);
#230=EDGE_LOOP('',(#205,#214,#222,#229));
#231=FACE_OUTER_BOUND('',#230,.T.);
#232=ADVANCED_FACE('',(#231),#195,.T.);
#233=CARTESIAN_POINT('',(0.899810039626763,0.675000000000000,0.349487472557733));
#234=DIRECTION('',(2.220446E-016,-1.0,6.123032E-017));
#235=DIRECTION('',(0.791289107811295,1.382627E-016,-0.611442186849423));
#236=AXIS2_PLACEMENT_3D('',#233,#234,#235);
#237=CYLINDRICAL_SURFACE('',#236,0.149999999999999);
#238=CARTESIAN_POINT('',(1.018503405798457,-0.675000000000000,0.257771144530321));
#239=VERTEX_POINT('',#238);
#240=CARTESIAN_POINT('',(1.018503405798456,0.675000000000000,0.257771144530320));
#241=VERTEX_POINT('',#240);
#242=CARTESIAN_POINT('',(1.018503405798457,-0.675000000000000,0.257771144530321));
#243=DIRECTION('',(0.0,1.0,0.0));
#244=VECTOR('',#243,1.350000000000000);
#245=LINE('',#242,#244);
#246=EDGE_CURVE('',#239,#241,#245,.T.);
#247=ORIENTED_EDGE('',*,*,#246,.F.);
#248=CARTESIAN_POINT('',(1.042698604477733,-0.675000000000000,0.395125812085255));
#249=VERTEX_POINT('',#248);
#250=CARTESIAN_POINT('',(0.899810039626763,-0.675000000000000,0.349487472557734));
#251=DIRECTION('',(-1.094058E-016,1.0,8.453963E-017));
#252=DIRECTION('',(0.791289107811295,1.382627E-016,-0.611442186849423));
#253=AXIS2_PLACEMENT_3D('',#250,#251,#252);
#254=CIRCLE('',#253,0.149999999999999);
#255=EDGE_CURVE('',#249,#239,#254,.T.);
#256=ORIENTED_EDGE('',*,*,#255,.F.);
#257=CARTESIAN_POINT('',(1.042698604477733,0.675000000000000,0.395125812085254));
#258=VERTEX_POINT('',#257);
#259=CARTESIAN_POINT('',(1.042698604477733,0.675000000000000,0.395125812085254));
#260=DIRECTION('',(0.0,-1.0,0.0));
#261=VECTOR('',#260,1.350000000000000);
#262=LINE('',#259,#261);
#263=EDGE_CURVE('',#258,#249,#262,.T.);
#264=ORIENTED_EDGE('',*,*,#263,.F.);
#265=CARTESIAN_POINT('',(0.899810039626763,0.675000000000000,0.349487472557733));
#266=DIRECTION('',(1.094058E-016,-1.0,-8.453963E-017));
#267=DIRECTION('',(0.791289107811295,1.382627E-016,-0.611442186849423));
#268=AXIS2_PLACEMENT_3D('',#265,#266,#267);
#269=CIRCLE('',#268,0.149999999999999);
#270=EDGE_CURVE('',#241,#258,#269,.T.);
#271=ORIENTED_EDGE('',*,*,#270,.F.);
#272=EDGE_LOOP('',(#247,#256,#264,#271));
#273=FACE_OUTER_BOUND('',#272,.T.);
#274=ADVANCED_FACE('',(#273),#237,.F.);
#275=CARTESIAN_POINT('',(0.644854974773828,0.675000000000000,1.147723422758214));
#276=DIRECTION('',(2.220446E-016,-1.0,6.123032E-017));
#277=DIRECTION('',(0.589806918893752,1.804096E-016,0.807544301215146));
#278=AXIS2_PLACEMENT_3D('',#275,#276,#277);
#279=CYLINDRICAL_SURFACE('',#278,0.150000000000000);
#280=CARTESIAN_POINT('',(0.733326012607891,-0.675000000000000,1.268855067940486));
#281=VERTEX_POINT('',#280);
#282=CARTESIAN_POINT('',(0.733326012607891,0.675000000000000,1.268855067940486));
#283=VERTEX_POINT('',#282);
#284=CARTESIAN_POINT('',(0.733326012607891,-0.675000000000000,1.268855067940486));
#285=DIRECTION('',(0.0,1.0,0.0));
#286=VECTOR('',#285,1.350000000000000);
#287=LINE('',#284,#286);
#288=EDGE_CURVE('',#281,#283,#287,.T.);
#289=ORIENTED_EDGE('',*,*,#288,.F.);
#290=CARTESIAN_POINT('',(0.644854974773828,-0.675000000000000,1.297723422758214));
#291=VERTEX_POINT('',#290);
#292=CARTESIAN_POINT('',(0.644854974773828,-0.675000000000000,1.147723422758214));
#293=DIRECTION('',(-1.064069E-016,1.000000000000000,-1.456888E-016));
#294=DIRECTION('',(0.589806918893752,1.804096E-016,0.807544301215146));
#295=AXIS2_PLACEMENT_3D('',#292,#293,#294);
#296=CIRCLE('',#295,0.150000000000000);
#297=EDGE_CURVE('',#291,#281,#296,.T.);
#298=ORIENTED_EDGE('',*,*,#297,.F.);
#299=CARTESIAN_POINT('',(0.644854974773828,0.675000000000000,1.297723422758214));
#300=VERTEX_POINT('',#299);
#301=CARTESIAN_POINT('',(0.644854974773828,0.675000000000000,1.297723422758214));
#302=DIRECTION('',(0.0,-1.0,0.0));
#303=VECTOR('',#302,1.350000000000000);
#304=LINE('',#301,#303);
#305=EDGE_CURVE('',#300,#291,#304,.T.);
#306=ORIENTED_EDGE('',*,*,#305,.F.);
#307=CARTESIAN_POINT('',(0.644854974773828,0.675000000000000,1.147723422758214));
#308=DIRECTION('',(1.064069E-016,-1.000000000000000,1.456888E-016));
#309=DIRECTION('',(0.589806918893752,1.804096E-016,0.807544301215146));
#310=AXIS2_PLACEMENT_3D('',#307,#308,#309);
#311=CIRCLE('',#310,0.150000000000000);
#312=EDGE_CURVE('',#283,#300,#311,.T.);
#313=ORIENTED_EDGE('',*,*,#312,.F.);
#314=EDGE_LOOP('',(#289,#298,#306,#313));
#315=FACE_OUTER_BOUND('',#314,.T.);
#316=ADVANCED_FACE('',(#315),#279,.F.);
#317=CARTESIAN_POINT('',(-0.644854974773827,0.675000000000000,1.147723422758217));
#318=DIRECTION('',(2.220446E-016,-1.0,6.123032E-017));
#319=DIRECTION('',(-0.589806918893741,-8.151725E-017,0.807544301215154));
#320=AXIS2_PLACEMENT_3D('',#317,#318,#319);
#321=CYLINDRICAL_SURFACE('',#320,0.150000000000000);
#322=CARTESIAN_POINT('',(-0.733326012607888,-0.675000000000000,1.268855067940490));
#323=VERTEX_POINT('',#322);
#324=CARTESIAN_POINT('',(-0.733326012607888,0.675000000000000,1.268855067940490));
#325=VERTEX_POINT('',#324);
#326=CARTESIAN_POINT('',(-0.733326012607888,-0.675000000000000,1.268855067940490));
#327=DIRECTION('',(0.0,1.0,0.0));
#328=VECTOR('',#327,1.350000000000000);
#329=LINE('',#326,#328);
#330=EDGE_CURVE('',#323,#325,#329,.T.);
#331=ORIENTED_EDGE('',*,*,#330,.F.);
#332=CARTESIAN_POINT('',(-0.787743539624801,-0.675000000000000,1.193361762285738));
#333=VERTEX_POINT('',#332);
#334=CARTESIAN_POINT('',(-0.644854974773827,-0.675000000000000,1.147723422758217));
#335=DIRECTION('',(-4.807944E-017,1.0,6.582879E-017));
#336=DIRECTION('',(-0.589806918893741,-8.151725E-017,0.807544301215154));
#337=AXIS2_PLACEMENT_3D('',#334,#335,#336);
#338=CIRCLE('',#337,0.150000000000000);
#339=EDGE_CURVE('',#333,#323,#338,.T.);
#340=ORIENTED_EDGE('',*,*,#339,.F.);
#341=CARTESIAN_POINT('',(-0.787743539624801,0.675000000000000,1.193361762285738));
#342=VERTEX_POINT('',#341);
#343=CARTESIAN_POINT('',(-0.787743539624801,0.675000000000000,1.193361762285738));
#344=DIRECTION('',(0.0,-1.0,0.0));
#345=VECTOR('',#344,1.350000000000000);
#346=LINE('',#343,#345);
#347=EDGE_CURVE('',#342,#333,#346,.T.);
#348=ORIENTED_EDGE('',*,*,#347,.F.);
#349=CARTESIAN_POINT('',(-0.644854974773827,0.675000000000000,1.147723422758217));
#350=DIRECTION('',(4.807944E-017,-1.0,-6.582879E-017));
#351=DIRECTION('',(-0.589806918893741,-8.151725E-017,0.807544301215154));
#352=AXIS2_PLACEMENT_3D('',#349,#350,#351);
#353=CIRCLE('',#352,0.150000000000000);
#354=EDGE_CURVE('',#325,#342,#353,.T.);
#355=ORIENTED_EDGE('',*,*,#354,.F.);
#356=EDGE_LOOP('',(#331,#340,#348,#355));
#357=FACE_OUTER_BOUND('',#356,.T.);
#358=ADVANCED_FACE('',(#357),#321,.F.);
#359=CARTESIAN_POINT('',(-0.899810039626763,0.675000000000000,0.349487472557731));
#360=DIRECTION('',(2.220446E-016,-1.0,6.123032E-017));
#361=DIRECTION('',(-0.791289107811301,-2.131403E-016,-0.611442186849416));
#362=AXIS2_PLACEMENT_3D('',#359,#360,#361);
#363=CYLINDRICAL_SURFACE('',#362,0.149999999999998);
#364=CARTESIAN_POINT('',(-1.018503405798457,-0.675000000000000,0.257771144530320));
#365=VERTEX_POINT('',#364);
#366=CARTESIAN_POINT('',(-1.018503405798457,0.675000000000000,0.257771144530320));
#367=VERTEX_POINT('',#366);
#368=CARTESIAN_POINT('',(-1.018503405798457,-0.675000000000000,0.257771144530320));
#369=DIRECTION('',(0.0,1.0,0.0));
#370=VECTOR('',#369,1.350000000000000);
#371=LINE('',#368,#370);
#372=EDGE_CURVE('',#365,#367,#371,.T.);
#373=ORIENTED_EDGE('',*,*,#372,.F.);
#374=CARTESIAN_POINT('',(-0.891695353108906,-0.675000000000000,0.199707127175848));
#375=VERTEX_POINT('',#374);
#376=CARTESIAN_POINT('',(-0.899810039626763,-0.675000000000000,0.349487472557731));
#377=DIRECTION('',(-1.686556E-016,1.0,-1.303230E-016));
#378=DIRECTION('',(-0.791289107811301,-2.131403E-016,-0.611442186849416));
#379=AXIS2_PLACEMENT_3D('',#376,#377,#378);
#380=CIRCLE('',#379,0.149999999999998);
#381=EDGE_CURVE('',#375,#365,#380,.T.);
#382=ORIENTED_EDGE('',*,*,#381,.F.);
#383=CARTESIAN_POINT('',(-0.891695353108906,0.675000000000000,0.199707127175848));
#384=VERTEX_POINT('',#383);
#385=CARTESIAN_POINT('',(-0.891695353108906,0.675000000000000,0.199707127175848));
#386=DIRECTION('',(0.0,-1.0,0.0));
#387=VECTOR('',#386,1.350000000000000);
#388=LINE('',#385,#387);
#389=EDGE_CURVE('',#384,#375,#388,.T.);
#390=ORIENTED_EDGE('',*,*,#389,.F.);
#391=CARTESIAN_POINT('',(-0.899810039626763,0.675000000000000,0.349487472557731));
#392=DIRECTION('',(1.686556E-016,-1.0,1.303230E-016));
#393=DIRECTION('',(-0.791289107811301,-2.131403E-016,-0.611442186849416));
#394=AXIS2_PLACEMENT_3D('',#391,#392,#393);
#395=CIRCLE('',#394,0.149999999999998);
#396=EDGE_CURVE('',#367,#384,#395,.T.);
#397=ORIENTED_EDGE('',*,*,#396,.F.);
#398=EDGE_LOOP('',(#373,#382,#390,#397));
#399=FACE_OUTER_BOUND('',#398,.T.);
#400=ADVANCED_FACE('',(#399),#363,.F.);
#401=CARTESIAN_POINT('',(-0.349999999999999,-0.475000000000000,1.297723422758216));
#402=DIRECTION('',(-1.0,0.0,0.0));
#403=DIRECTION('',(0.0,0.0,1.0));
#404=AXIS2_PLACEMENT_3D('',#401,#402,#403);
#405=PLANE('',#404);
#406=CARTESIAN_POINT('',(-0.349999999999999,-0.675000000000000,1.297723422758216));
#407=VERTEX_POINT('',#406);
#408=CARTESIAN_POINT('',(-0.349999999999999,-0.675000000000000,1.497723422758216));
#409=VERTEX_POINT('',#408);
#410=CARTESIAN_POINT('',(-0.349999999999999,-0.675000000000000,1.297723422758216));
#411=DIRECTION('',(0.0,0.0,1.0));
#412=VECTOR('',#411,0.199999999999999);
#413=LINE('',#410,#412);
#414=EDGE_CURVE('',#407,#409,#413,.T.);
#415=ORIENTED_EDGE('',*,*,#414,.F.);
#416=CARTESIAN_POINT('',(-0.349999999999999,-0.475000000000000,1.297723422758216));
#417=VERTEX_POINT('',#416);
#418=CARTESIAN_POINT('',(-0.349999999999999,-0.475000000000000,1.297723422758216));
#419=DIRECTION('',(0.0,-1.0,0.0));
#420=VECTOR('',#419,0.200000000000000);
#421=LINE('',#418,#420);
#422=EDGE_CURVE('',#417,#407,#421,.T.);
#423=ORIENTED_EDGE('',*,*,#422,.F.);
#424=CARTESIAN_POINT('',(-0.349999999999999,-0.475000000000000,1.497723422758216));
#425=VERTEX_POINT('',#424);
#426=CARTESIAN_POINT('',(-0.349999999999999,-0.475000000000000,1.497723422758216));
#427=DIRECTION('',(0.0,0.0,-1.0));
#428=VECTOR('',#427,0.199999999999999);
#429=LINE('',#426,#428);
#430=EDGE_CURVE('',#425,#417,#429,.T.);
#431=ORIENTED_EDGE('',*,*,#430,.F.);
#432=CARTESIAN_POINT('',(-0.349999999999999,-0.675000000000000,1.497723422758216));
#433=DIRECTION('',(0.0,1.0,0.0));
#434=VECTOR('',#433,0.200000000000000);
#435=LINE('',#432,#434);
#436=EDGE_CURVE('',#409,#425,#435,.T.);
#437=ORIENTED_EDGE('',*,*,#436,.F.);
#438=EDGE_LOOP('',(#415,#423,#431,#437));
#439=FACE_OUTER_BOUND('',#438,.T.);
#440=ADVANCED_FACE('',(#439),#405,.F.);
#441=CARTESIAN_POINT('',(0.350000000000001,-0.475000000000000,1.497723422758214));
#442=DIRECTION('',(1.0,0.0,0.0));
#443=DIRECTION('',(0.0,0.0,-1.0));
#444=AXIS2_PLACEMENT_3D('',#441,#442,#443);
#445=PLANE('',#444);
#446=CARTESIAN_POINT('',(0.350000000000001,-0.675000000000000,1.497723422758214));
#447=VERTEX_POINT('',#446);
#448=CARTESIAN_POINT('',(0.350000000000001,-0.675000000000000,1.297723422758215));
#449=VERTEX_POINT('',#448);
#450=CARTESIAN_POINT('',(0.350000000000001,-0.675000000000000,1.497723422758214));
#451=DIRECTION('',(0.0,0.0,-1.0));
#452=VECTOR('',#451,0.199999999999999);
#453=LINE('',#450,#452);
#454=EDGE_CURVE('',#447,#449,#453,.T.);
#455=ORIENTED_EDGE('',*,*,#454,.F.);
#456=CARTESIAN_POINT('',(0.350000000000001,-0.475000000000000,1.497723422758214));
#457=VERTEX_POINT('',#456);
#458=CARTESIAN_POINT('',(0.350000000000001,-0.475000000000000,1.497723422758214));
#459=DIRECTION('',(0.0,-1.0,0.0));
#460=VECTOR('',#459,0.200000000000000);
#461=LINE('',#458,#460);
#462=EDGE_CURVE('',#457,#447,#461,.T.);
#463=ORIENTED_EDGE('',*,*,#462,.F.);
#464=CARTESIAN_POINT('',(0.350000000000001,-0.475000000000000,1.297723422758215));
#465=VERTEX_POINT('',#464);
#466=CARTESIAN_POINT('',(0.350000000000001,-0.475000000000000,1.297723422758215));
#467=DIRECTION('',(0.0,0.0,1.0));
#468=VECTOR('',#467,0.199999999999999);
#469=LINE('',#466,#468);
#470=EDGE_CURVE('',#465,#457,#469,.T.);
#471=ORIENTED_EDGE('',*,*,#470,.F.);
#472=CARTESIAN_POINT('',(0.350000000000001,-0.675000000000000,1.297723422758215));
#473=DIRECTION('',(0.0,1.0,0.0));
#474=VECTOR('',#473,0.200000000000000);
#475=LINE('',#472,#474);
#476=EDGE_CURVE('',#449,#465,#475,.T.);
#477=ORIENTED_EDGE('',*,*,#476,.F.);
#478=EDGE_LOOP('',(#455,#463,#471,#477));
#479=FACE_OUTER_BOUND('',#478,.T.);
#480=ADVANCED_FACE('',(#479),#445,.F.);
#481=CARTESIAN_POINT('',(1.776357E-015,-0.475000000000000,1.397723422758215));
#482=DIRECTION('',(0.0,1.0,0.0));
#483=DIRECTION('',(0.0,0.0,1.0));
#484=AXIS2_PLACEMENT_3D('',#481,#482,#483);
#485=PLANE('',#484);
#486=CARTESIAN_POINT('',(0.350000000000001,-0.475000000000000,1.297723422758215));
#487=DIRECTION('',(-1.0,0.0,0.0));
#488=VECTOR('',#487,0.700000000000000);
#489=LINE('',#486,#488);
#490=EDGE_CURVE('',#465,#417,#489,.T.);
#491=ORIENTED_EDGE('',*,*,#490,.F.);
#492=ORIENTED_EDGE('',*,*,#470,.T.);
#493=CARTESIAN_POINT('',(-0.349999999999999,-0.475000000000000,1.497723422758216));
#494=DIRECTION('',(1.0,0.0,0.0));
#495=VECTOR('',#494,0.699999999999999);
#496=LINE('',#493,#495);
#497=EDGE_CURVE('',#425,#457,#496,.T.);
#498=ORIENTED_EDGE('',*,*,#497,.F.);
#499=ORIENTED_EDGE('',*,*,#430,.T.);
#500=EDGE_LOOP('',(#491,#492,#498,#499));
#501=FACE_OUTER_BOUND('',#500,.T.);
#502=ADVANCED_FACE('',(#501),#485,.F.);
#503=CARTESIAN_POINT('',(-0.349999999999999,0.675000000000000,1.297723422758216));
#504=DIRECTION('',(-1.0,0.0,0.0));
#505=DIRECTION('',(0.0,0.0,1.0));
#506=AXIS2_PLACEMENT_3D('',#503,#504,#505);
#507=PLANE('',#506);
#508=CARTESIAN_POINT('',(-0.349999999999999,0.475000000000000,1.297723422758216));
#509=VERTEX_POINT('',#508);
#510=CARTESIAN_POINT('',(-0.349999999999999,0.475000000000000,1.497723422758216));
#511=VERTEX_POINT('',#510);
#512=CARTESIAN_POINT('',(-0.349999999999999,0.475000000000000,1.297723422758216));
#513=DIRECTION('',(0.0,0.0,1.0));
#514=VECTOR('',#513,0.199999999999999);
#515=LINE('',#512,#514);
#516=EDGE_CURVE('',#509,#511,#515,.T.);
#517=ORIENTED_EDGE('',*,*,#516,.F.);
#518=CARTESIAN_POINT('',(-0.349999999999999,0.675000000000000,1.297723422758216));
#519=VERTEX_POINT('',#518);
#520=CARTESIAN_POINT('',(-0.349999999999999,0.675000000000000,1.297723422758216));
#521=DIRECTION('',(0.0,-1.0,0.0));
#522=VECTOR('',#521,0.200000000000000);
#523=LINE('',#520,#522);
#524=EDGE_CURVE('',#519,#509,#523,.T.);
#525=ORIENTED_EDGE('',*,*,#524,.F.);
#526=CARTESIAN_POINT('',(-0.349999999999999,0.675000000000000,1.497723422758216));
#527=VERTEX_POINT('',#526);
#528=CARTESIAN_POINT('',(-0.349999999999999,0.675000000000000,1.497723422758216));
#529=DIRECTION('',(0.0,0.0,-1.0));
#530=VECTOR('',#529,0.199999999999999);
#531=LINE('',#528,#530);
#532=EDGE_CURVE('',#527,#519,#531,.T.);
#533=ORIENTED_EDGE('',*,*,#532,.F.);
#534=CARTESIAN_POINT('',(-0.349999999999999,0.475000000000000,1.497723422758216));
#535=DIRECTION('',(0.0,1.0,0.0));
#536=VECTOR('',#535,0.200000000000000);
#537=LINE('',#534,#536);
#538=EDGE_CURVE('',#511,#527,#537,.T.);
#539=ORIENTED_EDGE('',*,*,#538,.F.);
#540=EDGE_LOOP('',(#517,#525,#533,#539));
#541=FACE_OUTER_BOUND('',#540,.T.);
#542=ADVANCED_FACE('',(#541),#507,.F.);
#543=CARTESIAN_POINT('',(0.350000000000000,0.675000000000000,1.497723422758214));
#544=DIRECTION('',(1.0,0.0,0.0));
#545=DIRECTION('',(0.0,0.0,-1.0));
#546=AXIS2_PLACEMENT_3D('',#543,#544,#545);
#547=PLANE('',#546);
#548=CARTESIAN_POINT('',(0.350000000000000,0.475000000000000,1.497723422758214));
#549=VERTEX_POINT('',#548);
#550=CARTESIAN_POINT('',(0.350000000000001,0.475000000000000,1.297723422758215));
#551=VERTEX_POINT('',#550);
#552=CARTESIAN_POINT('',(0.350000000000000,0.475000000000000,1.497723422758214));
#553=DIRECTION('',(0.0,0.0,-1.0));
#554=VECTOR('',#553,0.199999999999999);
#555=LINE('',#552,#554);
#556=EDGE_CURVE('',#549,#551,#555,.T.);
#557=ORIENTED_EDGE('',*,*,#556,.F.);
#558=CARTESIAN_POINT('',(0.350000000000000,0.675000000000000,1.497723422758214));
#559=VERTEX_POINT('',#558);
#560=CARTESIAN_POINT('',(0.350000000000000,0.675000000000000,1.497723422758214));
#561=DIRECTION('',(0.0,-1.0,0.0));
#562=VECTOR('',#561,0.200000000000000);
#563=LINE('',#560,#562);
#564=EDGE_CURVE('',#559,#549,#563,.T.);
#565=ORIENTED_EDGE('',*,*,#564,.F.);
#566=CARTESIAN_POINT('',(0.350000000000001,0.675000000000000,1.297723422758215));
#567=VERTEX_POINT('',#566);
#568=CARTESIAN_POINT('',(0.350000000000001,0.675000000000000,1.297723422758215));
#569=DIRECTION('',(0.0,0.0,1.0));
#570=VECTOR('',#569,0.199999999999999);
#571=LINE('',#568,#570);
#572=EDGE_CURVE('',#567,#559,#571,.T.);
#573=ORIENTED_EDGE('',*,*,#572,.F.);
#574=CARTESIAN_POINT('',(0.350000000000001,0.475000000000000,1.297723422758215));
#575=DIRECTION('',(0.0,1.0,0.0));
#576=VECTOR('',#575,0.200000000000000);
#577=LINE('',#574,#576);
#578=EDGE_CURVE('',#551,#567,#577,.T.);
#579=ORIENTED_EDGE('',*,*,#578,.F.);
#580=EDGE_LOOP('',(#557,#565,#573,#579));
#581=FACE_OUTER_BOUND('',#580,.T.);
#582=ADVANCED_FACE('',(#581),#547,.F.);
#583=CARTESIAN_POINT('',(1.332268E-015,0.475000000000000,1.397723422758215));
#584=DIRECTION('',(0.0,1.0,0.0));
#585=DIRECTION('',(0.0,0.0,1.0));
#586=AXIS2_PLACEMENT_3D('',#583,#584,#585);
#587=PLANE('',#586);
#588=ORIENTED_EDGE('',*,*,#516,.T.);
#589=CARTESIAN_POINT('',(0.350000000000000,0.475000000000000,1.497723422758214));
#590=DIRECTION('',(-1.0,0.0,0.0));
#591=VECTOR('',#590,0.699999999999999);
#592=LINE('',#589,#591);
#593=EDGE_CURVE('',#549,#511,#592,.T.);
#594=ORIENTED_EDGE('',*,*,#593,.F.);
#595=ORIENTED_EDGE('',*,*,#556,.T.);
#596=CARTESIAN_POINT('',(-0.349999999999999,0.475000000000000,1.297723422758216));
#597=DIRECTION('',(1.0,0.0,0.0));
#598=VECTOR('',#597,0.700000000000000);
#599=LINE('',#596,#598);
#600=EDGE_CURVE('',#509,#551,#599,.T.);
#601=ORIENTED_EDGE('',*,*,#600,.F.);
#602=EDGE_LOOP('',(#588,#594,#595,#601));
#603=FACE_OUTER_BOUND('',#602,.T.);
#604=ADVANCED_FACE('',(#603),#587,.T.);
#605=CARTESIAN_POINT('',(-0.499267817939619,0.675000000000000,0.020674467698691));
#606=DIRECTION('',(-0.998535635879237,0.0,-0.054097910119042));
#607=DIRECTION('',(-0.054097910119042,0.0,0.998535635879237));
#608=AXIS2_PLACEMENT_3D('',#605,#606,#607);
#609=PLANE('',#608);
#610=CARTESIAN_POINT('',(-0.499267817939619,0.475000000000000,0.020674467698691));
#611=VERTEX_POINT('',#610);
#612=CARTESIAN_POINT('',(-0.510087399963427,0.475000000000000,0.220381594874538));
#613=VERTEX_POINT('',#612);
#614=CARTESIAN_POINT('',(-0.499267817939619,0.475000000000000,0.020674467698691));
#615=DIRECTION('',(-0.054097910119042,0.0,0.998535635879237));
#616=VECTOR('',#615,0.200000000000000);
#617=LINE('',#614,#616);
#618=EDGE_CURVE('',#611,#613,#617,.T.);
#619=ORIENTED_EDGE('',*,*,#618,.F.);
#620=CARTESIAN_POINT('',(-0.499267817939619,0.675000000000000,0.020674467698691));
#621=VERTEX_POINT('',#620);
#622=CARTESIAN_POINT('',(-0.499267817939619,0.675000000000000,0.020674467698691));
#623=DIRECTION('',(0.0,-1.0,0.0));
#624=VECTOR('',#623,0.200000000000000);
#625=LINE('',#622,#624);
#626=EDGE_CURVE('',#621,#611,#625,.T.);
#627=ORIENTED_EDGE('',*,*,#626,.F.);
#628=CARTESIAN_POINT('',(-0.510087399963427,0.675000000000000,0.220381594874538));
#629=VERTEX_POINT('',#628);
#630=CARTESIAN_POINT('',(-0.510087399963427,0.675000000000000,0.220381594874538));
#631=DIRECTION('',(0.054097910119042,0.0,-0.998535635879237));
#632=VECTOR('',#631,0.200000000000000);
#633=LINE('',#630,#632);
#634=EDGE_CURVE('',#629,#621,#633,.T.);
#635=ORIENTED_EDGE('',*,*,#634,.F.);
#636=CARTESIAN_POINT('',(-0.510087399963427,0.475000000000000,0.220381594874538));
#637=DIRECTION('',(0.0,1.0,0.0));
#638=VECTOR('',#637,0.200000000000000);
#639=LINE('',#636,#638);
#640=EDGE_CURVE('',#613,#629,#639,.T.);
#641=ORIENTED_EDGE('',*,*,#640,.F.);
#642=EDGE_LOOP('',(#619,#627,#635,#641));
#643=FACE_OUTER_BOUND('',#642,.T.);
#644=ADVANCED_FACE('',(#643),#609,.F.);
#645=CARTESIAN_POINT('',(-0.255043699981713,0.475000000000000,0.134052508816375));
#646=DIRECTION('',(0.0,1.0,0.0));
#647=DIRECTION('',(0.0,0.0,1.0));
#648=AXIS2_PLACEMENT_3D('',#645,#646,#647);
#649=PLANE('',#648);
#650=ORIENTED_EDGE('',*,*,#618,.T.);
#651=CARTESIAN_POINT('',(-0.010819582023809,0.475000000000000,0.247430549934059));
#652=VERTEX_POINT('',#651);
#653=CARTESIAN_POINT('',(-0.010819582023809,0.475000000000000,0.247430549934059));
#654=DIRECTION('',(-0.998535635879237,-2.220446E-016,-0.054097910119042));
#655=VECTOR('',#654,0.500000000000000);
#656=LINE('',#653,#655);
#657=EDGE_CURVE('',#652,#613,#656,.T.);
#658=ORIENTED_EDGE('',*,*,#657,.F.);
#659=CARTESIAN_POINT('',(-1.936834E-015,0.475000000000000,0.047723422758212));
#660=VERTEX_POINT('',#659);
#661=CARTESIAN_POINT('',(-1.936834E-015,0.475000000000000,0.047723422758212));
#662=DIRECTION('',(-0.054097910119033,0.0,0.998535635879237));
#663=VECTOR('',#662,0.199999999999999);
#664=LINE('',#661,#663);
#665=EDGE_CURVE('',#660,#652,#664,.T.);
#666=ORIENTED_EDGE('',*,*,#665,.F.);
#667=CARTESIAN_POINT('',(-0.499267817939619,0.475000000000000,0.020674467698691));
#668=DIRECTION('',(0.998535635879237,2.220446E-016,0.054097910119042));
#669=VECTOR('',#668,0.499999999999999);
#670=LINE('',#667,#669);
#671=EDGE_CURVE('',#611,#660,#670,.T.);
#672=ORIENTED_EDGE('',*,*,#671,.F.);
#673=EDGE_LOOP('',(#650,#658,#666,#672));
#674=FACE_OUTER_BOUND('',#673,.T.);
#675=ADVANCED_FACE('',(#674),#649,.T.);
#676=CARTESIAN_POINT('',(0.510087399963424,0.675000000000000,0.220381594874538));
#677=DIRECTION('',(0.998535635879237,0.0,-0.054097910119033));
#678=DIRECTION('',(-0.054097910119033,0.0,-0.998535635879237));
#679=AXIS2_PLACEMENT_3D('',#676,#677,#678);
#680=PLANE('',#679);
#681=CARTESIAN_POINT('',(0.510087399963424,0.475000000000000,0.220381594874538));
#682=VERTEX_POINT('',#681);
#683=CARTESIAN_POINT('',(0.499267817939617,0.475000000000000,0.020674467698691));
#684=VERTEX_POINT('',#683);
#685=CARTESIAN_POINT('',(0.510087399963424,0.475000000000000,0.220381594874538));
#686=DIRECTION('',(-0.054097910119034,0.0,-0.998535635879237));
#687=VECTOR('',#686,0.199999999999999);
#688=LINE('',#685,#687);
#689=EDGE_CURVE('',#682,#684,#688,.T.);
#690=ORIENTED_EDGE('',*,*,#689,.F.);
#691=CARTESIAN_POINT('',(0.510087399963424,0.675000000000000,0.220381594874538));
#692=VERTEX_POINT('',#691);
#693=CARTESIAN_POINT('',(0.510087399963424,0.675000000000000,0.220381594874538));
#694=DIRECTION('',(0.0,-1.0,0.0));
#695=VECTOR('',#694,0.200000000000000);
#696=LINE('',#693,#695);
#697=EDGE_CURVE('',#692,#682,#696,.T.);
#698=ORIENTED_EDGE('',*,*,#697,.F.);
#699=CARTESIAN_POINT('',(0.499267817939617,0.675000000000000,0.020674467698691));
#700=VERTEX_POINT('',#699);
#701=CARTESIAN_POINT('',(0.499267817939617,0.675000000000000,0.020674467698691));
#702=DIRECTION('',(0.054097910119034,0.0,0.998535635879237));
#703=VECTOR('',#702,0.199999999999999);
#704=LINE('',#701,#703);
#705=EDGE_CURVE('',#700,#692,#704,.T.);
#706=ORIENTED_EDGE('',*,*,#705,.F.);
#707=CARTESIAN_POINT('',(0.499267817939617,0.475000000000000,0.020674467698691));
#708=DIRECTION('',(0.0,1.0,0.0));
#709=VECTOR('',#708,0.200000000000000);
#710=LINE('',#707,#709);
#711=EDGE_CURVE('',#684,#700,#710,.T.);
#712=ORIENTED_EDGE('',*,*,#711,.F.);
#713=EDGE_LOOP('',(#690,#698,#706,#712));
#714=FACE_OUTER_BOUND('',#713,.T.);
#715=ADVANCED_FACE('',(#714),#680,.F.);
#716=CARTESIAN_POINT('',(0.255043699981711,0.475000000000000,0.134052508816375));
#717=DIRECTION('',(0.0,1.0,0.0));
#718=DIRECTION('',(0.0,0.0,1.0));
#719=AXIS2_PLACEMENT_3D('',#716,#717,#718);
#720=PLANE('',#719);
#721=ORIENTED_EDGE('',*,*,#689,.T.);
#722=CARTESIAN_POINT('',(-1.936834E-015,0.475000000000000,0.047723422758212));
#723=DIRECTION('',(0.998535635879237,2.220446E-016,-0.054097910119041));
#724=VECTOR('',#723,0.500000000000000);
#725=LINE('',#722,#724);
#726=EDGE_CURVE('',#660,#684,#725,.T.);
#727=ORIENTED_EDGE('',*,*,#726,.F.);
#728=CARTESIAN_POINT('',(0.010819582023807,0.475000000000000,0.247430549934059));
#729=VERTEX_POINT('',#728);
#730=CARTESIAN_POINT('',(0.010819582023807,0.475000000000000,0.247430549934059));
#731=DIRECTION('',(-0.054097910119047,0.0,-0.998535635879237));
#732=VECTOR('',#731,0.199999999999999);
#733=LINE('',#730,#732);
#734=EDGE_CURVE('',#729,#660,#733,.T.);
#735=ORIENTED_EDGE('',*,*,#734,.F.);
#736=CARTESIAN_POINT('',(0.510087399963424,0.475000000000000,0.220381594874538));
#737=DIRECTION('',(-0.998535635879237,-2.220446E-016,0.054097910119042));
#738=VECTOR('',#737,0.499999999999998);
#739=LINE('',#736,#738);
#740=EDGE_CURVE('',#682,#729,#739,.T.);
#741=ORIENTED_EDGE('',*,*,#740,.F.);
#742=EDGE_LOOP('',(#721,#727,#735,#741));
#743=FACE_OUTER_BOUND('',#742,.T.);
#744=ADVANCED_FACE('',(#743),#720,.T.);
#745=CARTESIAN_POINT('',(0.510087399963424,-0.475000000000000,0.220381594874538));
#746=DIRECTION('',(0.998535635879237,0.0,-0.054097910119033));
#747=DIRECTION('',(-0.054097910119033,0.0,-0.998535635879237));
#748=AXIS2_PLACEMENT_3D('',#745,#746,#747);
#749=PLANE('',#748);
#750=CARTESIAN_POINT('',(0.510087399963424,-0.675000000000000,0.220381594874538));
#751=VERTEX_POINT('',#750);
#752=CARTESIAN_POINT('',(0.499267817939617,-0.675000000000000,0.020674467698691));
#753=VERTEX_POINT('',#752);
#754=CARTESIAN_POINT('',(0.510087399963424,-0.675000000000000,0.220381594874538));
#755=DIRECTION('',(-0.054097910119033,0.0,-0.998535635879237));
#756=VECTOR('',#755,0.199999999999999);
#757=LINE('',#754,#756);
#758=EDGE_CURVE('',#751,#753,#757,.T.);
#759=ORIENTED_EDGE('',*,*,#758,.F.);
#760=CARTESIAN_POINT('',(0.510087399963424,-0.475000000000000,0.220381594874538));
#761=VERTEX_POINT('',#760);
#762=CARTESIAN_POINT('',(0.510087399963424,-0.475000000000000,0.220381594874538));
#763=DIRECTION('',(0.0,-1.0,0.0));
#764=VECTOR('',#763,0.200000000000000);
#765=LINE('',#762,#764);
#766=EDGE_CURVE('',#761,#751,#765,.T.);
#767=ORIENTED_EDGE('',*,*,#766,.F.);
#768=CARTESIAN_POINT('',(0.499267817939617,-0.475000000000000,0.020674467698691));
#769=VERTEX_POINT('',#768);
#770=CARTESIAN_POINT('',(0.499267817939617,-0.475000000000000,0.020674467698691));
#771=DIRECTION('',(0.054097910119033,0.0,0.998535635879237));
#772=VECTOR('',#771,0.199999999999999);
#773=LINE('',#770,#772);
#774=EDGE_CURVE('',#769,#761,#773,.T.);
#775=ORIENTED_EDGE('',*,*,#774,.F.);
#776=CARTESIAN_POINT('',(0.499267817939617,-0.675000000000000,0.020674467698691));
#777=DIRECTION('',(0.0,1.0,0.0));
#778=VECTOR('',#777,0.200000000000000);
#779=LINE('',#776,#778);
#780=EDGE_CURVE('',#753,#769,#779,.T.);
#781=ORIENTED_EDGE('',*,*,#780,.F.);
#782=EDGE_LOOP('',(#759,#767,#775,#781));
#783=FACE_OUTER_BOUND('',#782,.T.);
#784=ADVANCED_FACE('',(#783),#749,.F.);
#785=CARTESIAN_POINT('',(0.255043699981711,-0.475000000000000,0.134052508816375));
#786=DIRECTION('',(0.0,1.0,0.0));
#787=DIRECTION('',(0.0,0.0,1.0));
#788=AXIS2_PLACEMENT_3D('',#785,#786,#787);
#789=PLANE('',#788);
#790=CARTESIAN_POINT('',(0.010819582023808,-0.475000000000000,0.247430549934059));
#791=VERTEX_POINT('',#790);
#792=CARTESIAN_POINT('',(0.010819582023808,-0.475000000000000,0.247430549934059));
#793=DIRECTION('',(0.998535635879237,2.220446E-016,-0.054097910119042));
#794=VECTOR('',#793,0.499999999999998);
#795=LINE('',#792,#794);
#796=EDGE_CURVE('',#791,#761,#795,.T.);
#797=ORIENTED_EDGE('',*,*,#796,.F.);
#798=CARTESIAN_POINT('',(-1.776357E-015,-0.475000000000000,0.047723422758212));
#799=VERTEX_POINT('',#798);
#800=CARTESIAN_POINT('',(-1.776357E-015,-0.475000000000000,0.047723422758212));
#801=DIRECTION('',(0.054097910119047,0.0,0.998535635879237));
#802=VECTOR('',#801,0.199999999999999);
#803=LINE('',#800,#802);
#804=EDGE_CURVE('',#799,#791,#803,.T.);
#805=ORIENTED_EDGE('',*,*,#804,.F.);
#806=CARTESIAN_POINT('',(0.499267817939617,-0.475000000000000,0.020674467698691));
#807=DIRECTION('',(-0.998535635879237,-2.220446E-016,0.054097910119041));
#808=VECTOR('',#807,0.500000000000000);
#809=LINE('',#806,#808);
#810=EDGE_CURVE('',#769,#799,#809,.T.);
#811=ORIENTED_EDGE('',*,*,#810,.F.);
#812=ORIENTED_EDGE('',*,*,#774,.T.);
#813=EDGE_LOOP('',(#797,#805,#811,#812));
#814=FACE_OUTER_BOUND('',#813,.T.);
#815=ADVANCED_FACE('',(#814),#789,.F.);
#816=CARTESIAN_POINT('',(-0.499267817939619,-0.475000000000000,0.020674467698691));
#817=DIRECTION('',(-0.998535635879237,0.0,-0.054097910119042));
#818=DIRECTION('',(-0.054097910119042,0.0,0.998535635879237));
#819=AXIS2_PLACEMENT_3D('',#816,#817,#818);
#820=PLANE('',#819);
#821=CARTESIAN_POINT('',(-0.499267817939619,-0.675000000000000,0.020674467698691));
#822=VERTEX_POINT('',#821);
#823=CARTESIAN_POINT('',(-0.510087399963427,-0.675000000000000,0.220381594874538));
#824=VERTEX_POINT('',#823);
#825=CARTESIAN_POINT('',(-0.499267817939619,-0.675000000000000,0.020674467698691));
#826=DIRECTION('',(-0.054097910119042,0.0,0.998535635879237));
#827=VECTOR('',#826,0.200000000000000);
#828=LINE('',#825,#827);
#829=EDGE_CURVE('',#822,#824,#828,.T.);
#830=ORIENTED_EDGE('',*,*,#829,.F.);
#831=CARTESIAN_POINT('',(-0.499267817939619,-0.475000000000000,0.020674467698691));
#832=VERTEX_POINT('',#831);
#833=CARTESIAN_POINT('',(-0.499267817939619,-0.475000000000000,0.020674467698691));
#834=DIRECTION('',(0.0,-1.0,0.0));
#835=VECTOR('',#834,0.200000000000000);
#836=LINE('',#833,#835);
#837=EDGE_CURVE('',#832,#822,#836,.T.);
#838=ORIENTED_EDGE('',*,*,#837,.F.);
#839=CARTESIAN_POINT('',(-0.510087399963427,-0.475000000000000,0.220381594874538));
#840=VERTEX_POINT('',#839);
#841=CARTESIAN_POINT('',(-0.510087399963427,-0.475000000000000,0.220381594874538));
#842=DIRECTION('',(0.054097910119042,0.0,-0.998535635879237));
#843=VECTOR('',#842,0.200000000000000);
#844=LINE('',#841,#843);
#845=EDGE_CURVE('',#840,#832,#844,.T.);
#846=ORIENTED_EDGE('',*,*,#845,.F.);
#847=CARTESIAN_POINT('',(-0.510087399963427,-0.675000000000000,0.220381594874538));
#848=DIRECTION('',(0.0,1.0,0.0));
#849=VECTOR('',#848,0.200000000000000);
#850=LINE('',#847,#849);
#851=EDGE_CURVE('',#824,#840,#850,.T.);
#852=ORIENTED_EDGE('',*,*,#851,.F.);
#853=EDGE_LOOP('',(#830,#838,#846,#852));
#854=FACE_OUTER_BOUND('',#853,.T.);
#855=ADVANCED_FACE('',(#854),#820,.F.);
#856=CARTESIAN_POINT('',(-0.255043699981713,-0.475000000000000,0.134052508816375));
#857=DIRECTION('',(0.0,1.0,0.0));
#858=DIRECTION('',(0.0,0.0,1.0));
#859=AXIS2_PLACEMENT_3D('',#856,#857,#858);
#860=PLANE('',#859);
#861=CARTESIAN_POINT('',(-1.776357E-015,-0.475000000000000,0.047723422758212));
#862=DIRECTION('',(-0.998535635879237,-2.220446E-016,-0.054097910119042));
#863=VECTOR('',#862,0.499999999999999);
#864=LINE('',#861,#863);
#865=EDGE_CURVE('',#799,#832,#864,.T.);
#866=ORIENTED_EDGE('',*,*,#865,.F.);
#867=CARTESIAN_POINT('',(-0.010819582023808,-0.475000000000000,0.247430549934059));
#868=VERTEX_POINT('',#867);
#869=CARTESIAN_POINT('',(-0.010819582023808,-0.475000000000000,0.247430549934059));
#870=DIRECTION('',(0.054097910119033,0.0,-0.998535635879237));
#871=VECTOR('',#870,0.199999999999999);
#872=LINE('',#869,#871);
#873=EDGE_CURVE('',#868,#799,#872,.T.);
#874=ORIENTED_EDGE('',*,*,#873,.F.);
#875=CARTESIAN_POINT('',(-0.510087399963427,-0.475000000000000,0.220381594874538));
#876=DIRECTION('',(0.998535635879237,2.220446E-016,0.054097910119041));
#877=VECTOR('',#876,0.500000000000000);
#878=LINE('',#875,#877);
#879=EDGE_CURVE('',#840,#868,#878,.T.);
#880=ORIENTED_EDGE('',*,*,#879,.F.);
#881=ORIENTED_EDGE('',*,*,#845,.T.);
#882=EDGE_LOOP('',(#866,#874,#880,#881));
#883=FACE_OUTER_BOUND('',#882,.T.);
#884=ADVANCED_FACE('',(#883),#860,.F.);
#885=CARTESIAN_POINT('',(-0.644854974773827,0.675000000000000,1.497723422758216));
#886=DIRECTION('',(0.0,0.0,1.0));
#887=DIRECTION('',(0.0,-1.0,0.0));
#888=AXIS2_PLACEMENT_3D('',#885,#886,#887);
#889=PLANE('',#888);
#890=ORIENTED_EDGE('',*,*,#436,.T.);
#891=ORIENTED_EDGE('',*,*,#497,.T.);
#892=ORIENTED_EDGE('',*,*,#462,.T.);
#893=CARTESIAN_POINT('',(0.350000000000001,-0.675000000000000,1.497723422758214));
#894=DIRECTION('',(1.0,0.0,0.0));
#895=VECTOR('',#894,0.294854974773828);
#896=LINE('',#893,#895);
#897=EDGE_CURVE('',#447,#174,#896,.T.);
#898=ORIENTED_EDGE('',*,*,#897,.T.);
#899=ORIENTED_EDGE('',*,*,#179,.F.);
#900=CARTESIAN_POINT('',(0.350000000000000,0.675000000000000,1.497723422758214));
#901=DIRECTION('',(1.0,0.0,0.0));
#902=VECTOR('',#901,0.294854974773828);
#903=LINE('',#900,#902);
#904=EDGE_CURVE('',#559,#165,#903,.T.);
#905=ORIENTED_EDGE('',*,*,#904,.F.);
#906=ORIENTED_EDGE('',*,*,#564,.T.);
#907=ORIENTED_EDGE('',*,*,#593,.T.);
#908=ORIENTED_EDGE('',*,*,#538,.T.);
#909=CARTESIAN_POINT('',(-0.644854974773827,0.675000000000000,1.497723422758216));
#910=VERTEX_POINT('',#909);
#911=CARTESIAN_POINT('',(-0.644854974773827,0.675000000000000,1.497723422758216));
#912=DIRECTION('',(1.0,0.0,0.0));
#913=VECTOR('',#912,0.294854974773828);
#914=LINE('',#911,#913);
#915=EDGE_CURVE('',#910,#527,#914,.T.);
#916=ORIENTED_EDGE('',*,*,#915,.F.);
#917=CARTESIAN_POINT('',(-0.644854974773827,-0.675000000000000,1.497723422758216));
#918=VERTEX_POINT('',#917);
#919=CARTESIAN_POINT('',(-0.644854974773827,0.675000000000000,1.497723422758216));
#920=DIRECTION('',(0.0,-1.0,0.0));
#921=VECTOR('',#920,1.350000000000000);
#922=LINE('',#919,#921);
#923=EDGE_CURVE('',#910,#918,#922,.T.);
#924=ORIENTED_EDGE('',*,*,#923,.T.);
#925=CARTESIAN_POINT('',(-0.644854974773827,-0.675000000000000,1.497723422758216));
#926=DIRECTION('',(1.0,0.0,0.0));
#927=VECTOR('',#926,0.294854974773828);
#928=LINE('',#925,#927);
#929=EDGE_CURVE('',#918,#409,#928,.T.);
#930=ORIENTED_EDGE('',*,*,#929,.T.);
#931=EDGE_LOOP('',(#890,#891,#892,#898,#899,#905,#906,#907,#908,#916,#924,#930));
#932=FACE_OUTER_BOUND('',#931,.T.);
#933=ADVANCED_FACE('',(#932),#889,.T.);
#934=CARTESIAN_POINT('',(-3.055799E-016,0.675000000000000,0.701209684625365));
#935=DIRECTION('',(0.0,-1.0,0.0));
#936=DIRECTION('',(1.0,0.0,0.0));
#937=AXIS2_PLACEMENT_3D('',#934,#935,#936);
#938=PLANE('',#937);
#939=ORIENTED_EDGE('',*,*,#572,.T.);
#940=ORIENTED_EDGE('',*,*,#904,.T.);
#941=ORIENTED_EDGE('',*,*,#171,.T.);
#942=CARTESIAN_POINT('',(0.978261626092765,0.675000000000000,1.254212881655761));
#943=VERTEX_POINT('',#942);
#944=CARTESIAN_POINT('',(0.644854974773826,0.675000000000000,1.147723422758214));
#945=DIRECTION('',(-1.064069E-016,1.0,-1.456888E-016));
#946=DIRECTION('',(0.589806918893745,1.804096E-016,0.807544301215152));
#947=AXIS2_PLACEMENT_3D('',#944,#945,#946);
#948=CIRCLE('',#947,0.350000000000000);
#949=EDGE_CURVE('',#155,#943,#948,.T.);
#950=ORIENTED_EDGE('',*,*,#949,.T.);
#951=CARTESIAN_POINT('',(0.978261626092765,0.675000000000000,1.254212881655761));
#952=DIRECTION('',(0.304255596850137,0.0,-0.952590432339821));
#953=VECTOR('',#952,0.837963434337456);
#954=LINE('',#951,#953);
#955=EDGE_CURVE('',#943,#123,#954,.T.);
#956=ORIENTED_EDGE('',*,*,#955,.T.);
#957=ORIENTED_EDGE('',*,*,#129,.T.);
#958=CARTESIAN_POINT('',(0.880875771085096,0.675000000000000,1.930620E-015));
#959=VERTEX_POINT('',#958);
#960=CARTESIAN_POINT('',(0.899810039626761,0.675000000000000,0.349487472557733));
#961=DIRECTION('',(-1.094058E-016,1.000000000000000,8.453963E-017));
#962=DIRECTION('',(0.791289107811295,1.382627E-016,-0.611442186849423));
#963=AXIS2_PLACEMENT_3D('',#960,#961,#962);
#964=CIRCLE('',#963,0.350000000000000);
#965=EDGE_CURVE('',#113,#959,#964,.T.);
#966=ORIENTED_EDGE('',*,*,#965,.T.);
#967=CARTESIAN_POINT('',(0.880875771085096,0.675000000000000,1.930620E-015));
#968=DIRECTION('',(-0.998535635879237,-2.905069E-016,0.054097910119041));
#969=VECTOR('',#968,0.382167585646017);
#970=LINE('',#967,#969);
#971=EDGE_CURVE('',#959,#700,#970,.T.);
#972=ORIENTED_EDGE('',*,*,#971,.T.);
#973=ORIENTED_EDGE('',*,*,#705,.T.);
#974=CARTESIAN_POINT('',(0.891695353108904,0.675000000000000,0.199707127175849));
#975=VERTEX_POINT('',#974);
#976=CARTESIAN_POINT('',(0.510087399963424,0.675000000000000,0.220381594874538));
#977=DIRECTION('',(0.998535635879237,2.905069E-016,-0.054097910119041));
#978=VECTOR('',#977,0.382167585646019);
#979=LINE('',#976,#978);
#980=EDGE_CURVE('',#692,#975,#979,.T.);
#981=ORIENTED_EDGE('',*,*,#980,.T.);
#982=CARTESIAN_POINT('',(0.899810039626763,0.675000000000000,0.349487472557733));
#983=DIRECTION('',(1.094058E-016,-1.0,-8.453963E-017));
#984=DIRECTION('',(0.791289107811295,1.382627E-016,-0.611442186849423));
#985=AXIS2_PLACEMENT_3D('',#982,#983,#984);
#986=CIRCLE('',#985,0.149999999999999);
#987=EDGE_CURVE('',#975,#241,#986,.T.);
#988=ORIENTED_EDGE('',*,*,#987,.T.);
#989=ORIENTED_EDGE('',*,*,#270,.T.);
#990=CARTESIAN_POINT('',(0.787743539624800,0.675000000000000,1.193361762285733));
#991=VERTEX_POINT('',#990);
#992=CARTESIAN_POINT('',(1.042698604477733,0.675000000000000,0.395125812085254));
#993=DIRECTION('',(-0.304255596850137,0.0,0.952590432339821));
#994=VECTOR('',#993,0.837963434337456);
#995=LINE('',#992,#994);
#996=EDGE_CURVE('',#258,#991,#995,.T.);
#997=ORIENTED_EDGE('',*,*,#996,.T.);
#998=CARTESIAN_POINT('',(0.644854974773828,0.675000000000000,1.147723422758214));
#999=DIRECTION('',(1.064069E-016,-1.000000000000000,1.456888E-016));
#1000=DIRECTION('',(0.589806918893752,1.804096E-016,0.807544301215146));
#1001=AXIS2_PLACEMENT_3D('',#998,#999,#1000);
#1002=CIRCLE('',#1001,0.150000000000000);
#1003=EDGE_CURVE('',#991,#283,#1002,.T.);
#1004=ORIENTED_EDGE('',*,*,#1003,.T.);
#1005=ORIENTED_EDGE('',*,*,#312,.T.);
#1006=CARTESIAN_POINT('',(0.644854974773828,0.675000000000000,1.297723422758214));
#1007=DIRECTION('',(-1.0,0.0,0.0));
#1008=VECTOR('',#1007,0.294854974773827);
#1009=LINE('',#1006,#1008);
#1010=EDGE_CURVE('',#300,#567,#1009,.T.);
#1011=ORIENTED_EDGE('',*,*,#1010,.T.);
#1012=EDGE_LOOP('',(#939,#940,#941,#950,#956,#957,#966,#972,#973,#981,#988,#989,#997,#1004,#1005,#1011));
#1013=FACE_OUTER_BOUND('',#1012,.T.);
#1014=ADVANCED_FACE('',(#1013),#938,.F.);
#1015=CARTESIAN_POINT('',(-3.055799E-016,0.675000000000000,0.701209684625365));
#1016=DIRECTION('',(0.0,-1.0,0.0));
#1017=DIRECTION('',(1.0,0.0,0.0));
#1018=AXIS2_PLACEMENT_3D('',#1015,#1016,#1017);
#1019=PLANE('',#1018);
#1020=ORIENTED_EDGE('',*,*,#532,.T.);
#1021=CARTESIAN_POINT('',(-0.644854974773827,0.675000000000000,1.297723422758217));
#1022=VERTEX_POINT('',#1021);
#1023=CARTESIAN_POINT('',(-0.349999999999999,0.675000000000000,1.297723422758216));
#1024=DIRECTION('',(-1.0,0.0,0.0));
#1025=VECTOR('',#1024,0.294854974773828);
#1026=LINE('',#1023,#1025);
#1027=EDGE_CURVE('',#519,#1022,#1026,.T.);
#1028=ORIENTED_EDGE('',*,*,#1027,.T.);
#1029=CARTESIAN_POINT('',(-0.644854974773827,0.675000000000000,1.147723422758217));
#1030=DIRECTION('',(4.807944E-017,-1.0,-6.582879E-017));
#1031=DIRECTION('',(-0.589806918893741,-8.151725E-017,0.807544301215154));
#1032=AXIS2_PLACEMENT_3D('',#1029,#1030,#1031);
#1033=CIRCLE('',#1032,0.150000000000000);
#1034=EDGE_CURVE('',#1022,#325,#1033,.T.);
#1035=ORIENTED_EDGE('',*,*,#1034,.T.);
#1036=ORIENTED_EDGE('',*,*,#354,.T.);
#1037=CARTESIAN_POINT('',(-1.042698604477734,0.675000000000000,0.395125812085256));
#1038=VERTEX_POINT('',#1037);
#1039=CARTESIAN_POINT('',(-0.787743539624801,0.675000000000000,1.193361762285738));
#1040=DIRECTION('',(-0.304255596850135,-1.324906E-016,-0.952590432339822));
#1041=VECTOR('',#1040,0.837963434337459);
#1042=LINE('',#1039,#1041);
#1043=EDGE_CURVE('',#342,#1038,#1042,.T.);
#1044=ORIENTED_EDGE('',*,*,#1043,.T.);
#1045=CARTESIAN_POINT('',(-0.899810039626763,0.675000000000000,0.349487472557731));
#1046=DIRECTION('',(1.686556E-016,-1.0,1.303230E-016));
#1047=DIRECTION('',(-0.791289107811301,-2.131403E-016,-0.611442186849416));
#1048=AXIS2_PLACEMENT_3D('',#1045,#1046,#1047);
#1049=CIRCLE('',#1048,0.149999999999998);
#1050=EDGE_CURVE('',#1038,#367,#1049,.T.);
#1051=ORIENTED_EDGE('',*,*,#1050,.T.);
#1052=ORIENTED_EDGE('',*,*,#396,.T.);
#1053=CARTESIAN_POINT('',(-0.891695353108906,0.675000000000000,0.199707127175848));
#1054=DIRECTION('',(0.998535635879237,2.905069E-016,0.054097910119042));
#1055=VECTOR('',#1054,0.382167585646018);
#1056=LINE('',#1053,#1055);
#1057=EDGE_CURVE('',#384,#629,#1056,.T.);
#1058=ORIENTED_EDGE('',*,*,#1057,.T.);
#1059=ORIENTED_EDGE('',*,*,#634,.T.);
#1060=CARTESIAN_POINT('',(-0.499267817939619,0.675000000000000,0.020674467698691));
#1061=DIRECTION('',(-0.998535635879237,-2.905069E-016,-0.054097910119042));
#1062=VECTOR('',#1061,0.382167585646016);
#1063=LINE('',#1060,#1062);
#1064=EDGE_CURVE('',#621,#81,#1063,.T.);
#1065=ORIENTED_EDGE('',*,*,#1064,.T.);
#1066=ORIENTED_EDGE('',*,*,#87,.T.);
#1067=CARTESIAN_POINT('',(-1.233216690945698,0.675000000000000,0.455976931455284));
#1068=VERTEX_POINT('',#1067);
#1069=CARTESIAN_POINT('',(-0.899810039626759,0.675000000000000,0.349487472557735));
#1070=DIRECTION('',(-1.686556E-016,1.0,-1.303230E-016));
#1071=DIRECTION('',(-0.791289107811296,-2.131403E-016,-0.611442186849422));
#1072=AXIS2_PLACEMENT_3D('',#1069,#1070,#1071);
#1073=CIRCLE('',#1072,0.350000000000001);
#1074=EDGE_CURVE('',#71,#1068,#1073,.T.);
#1075=ORIENTED_EDGE('',*,*,#1074,.T.);
#1076=CARTESIAN_POINT('',(-1.233216690945698,0.675000000000000,0.455976931455284));
#1077=DIRECTION('',(0.304255596850135,1.324906E-016,0.952590432339822));
#1078=VECTOR('',#1077,0.837963434337459);
#1079=LINE('',#1076,#1078);
#1080=EDGE_CURVE('',#1068,#207,#1079,.T.);
#1081=ORIENTED_EDGE('',*,*,#1080,.T.);
#1082=ORIENTED_EDGE('',*,*,#213,.T.);
#1083=CARTESIAN_POINT('',(-0.644854974773829,0.675000000000000,1.147723422758215));
#1084=DIRECTION('',(-4.807944E-017,1.000000000000000,6.582879E-017));
#1085=DIRECTION('',(-0.589806918893741,-8.151725E-017,0.807544301215155));
#1086=AXIS2_PLACEMENT_3D('',#1083,#1084,#1085);
#1087=CIRCLE('',#1086,0.350000000000000);
#1088=EDGE_CURVE('',#197,#910,#1087,.T.);
#1089=ORIENTED_EDGE('',*,*,#1088,.T.);
#1090=ORIENTED_EDGE('',*,*,#915,.T.);
#1091=EDGE_LOOP('',(#1020,#1028,#1035,#1036,#1044,#1051,#1052,#1058,#1059,#1065,#1066,#1075,#1081,#1082,#1089,#1090));
#1092=FACE_OUTER_BOUND('',#1091,.T.);
#1093=ADVANCED_FACE('',(#1092),#1019,.F.);
#1094=CARTESIAN_POINT('',(0.891695353108904,0.675000000000000,0.199707127175849));
#1095=DIRECTION('',(-0.054097910119041,-7.315280E-017,-0.998535635879237));
#1096=DIRECTION('',(0.0,1.0,0.0));
#1097=AXIS2_PLACEMENT_3D('',#1094,#1095,#1096);
#1098=PLANE('',#1097);
#1099=ORIENTED_EDGE('',*,*,#697,.T.);
#1100=ORIENTED_EDGE('',*,*,#740,.T.);
#1101=CARTESIAN_POINT('',(0.010819582023807,0.475000000000000,0.247430549934059));
#1102=DIRECTION('',(0.0,-1.0,0.0));
#1103=VECTOR('',#1102,0.950000000000000);
#1104=LINE('',#1101,#1103);
#1105=EDGE_CURVE('',#729,#791,#1104,.T.);
#1106=ORIENTED_EDGE('',*,*,#1105,.T.);
#1107=ORIENTED_EDGE('',*,*,#796,.T.);
#1108=ORIENTED_EDGE('',*,*,#766,.T.);
#1109=CARTESIAN_POINT('',(0.891695353108904,-0.675000000000000,0.199707127175849));
#1110=VERTEX_POINT('',#1109);
#1111=CARTESIAN_POINT('',(0.891695353108904,-0.675000000000000,0.199707127175849));
#1112=DIRECTION('',(-0.998535635879237,-2.905069E-016,0.054097910119041));
#1113=VECTOR('',#1112,0.382167585646019);
#1114=LINE('',#1111,#1113);
#1115=EDGE_CURVE('',#1110,#751,#1114,.T.);
#1116=ORIENTED_EDGE('',*,*,#1115,.F.);
#1117=CARTESIAN_POINT('',(0.891695353108904,0.675000000000000,0.199707127175849));
#1118=DIRECTION('',(0.0,-1.0,0.0));
#1119=VECTOR('',#1118,1.350000000000000);
#1120=LINE('',#1117,#1119);
#1121=EDGE_CURVE('',#975,#1110,#1120,.T.);
#1122=ORIENTED_EDGE('',*,*,#1121,.F.);
#1123=ORIENTED_EDGE('',*,*,#980,.F.);
#1124=EDGE_LOOP('',(#1099,#1100,#1106,#1107,#1108,#1116,#1122,#1123));
#1125=FACE_OUTER_BOUND('',#1124,.T.);
#1126=ADVANCED_FACE('',(#1125),#1098,.F.);
#1127=CARTESIAN_POINT('',(-1.936834E-015,0.675000000000000,0.047723422758212));
#1128=DIRECTION('',(0.054097910119042,-4.912851E-017,-0.998535635879237));
#1129=DIRECTION('',(0.0,1.0,0.0));
#1130=AXIS2_PLACEMENT_3D('',#1127,#1128,#1129);
#1131=PLANE('',#1130);
#1132=ORIENTED_EDGE('',*,*,#626,.T.);
#1133=ORIENTED_EDGE('',*,*,#671,.T.);
#1134=CARTESIAN_POINT('',(-1.936834E-015,0.475000000000000,0.047723422758212));
#1135=DIRECTION('',(0.0,-1.0,0.0));
#1136=VECTOR('',#1135,0.950000000000000);
#1137=LINE('',#1134,#1136);
#1138=EDGE_CURVE('',#660,#799,#1137,.T.);
#1139=ORIENTED_EDGE('',*,*,#1138,.T.);
#1140=ORIENTED_EDGE('',*,*,#865,.T.);
#1141=ORIENTED_EDGE('',*,*,#837,.T.);
#1142=CARTESIAN_POINT('',(-0.499267817939619,-0.675000000000000,0.020674467698691));
#1143=DIRECTION('',(-0.998535635879237,-2.905069E-016,-0.054097910119042));
#1144=VECTOR('',#1143,0.382167585646016);
#1145=LINE('',#1142,#1144);
#1146=EDGE_CURVE('',#822,#90,#1145,.T.);
#1147=ORIENTED_EDGE('',*,*,#1146,.T.);
#1148=ORIENTED_EDGE('',*,*,#95,.F.);
#1149=ORIENTED_EDGE('',*,*,#1064,.F.);
#1150=EDGE_LOOP('',(#1132,#1133,#1139,#1140,#1141,#1147,#1148,#1149));
#1151=FACE_OUTER_BOUND('',#1150,.T.);
#1152=ADVANCED_FACE('',(#1151),#1131,.T.);
#1153=CARTESIAN_POINT('',(-5.819719E-018,-0.675000000000000,0.701209684625365));
#1154=DIRECTION('',(0.0,-1.0,0.0));
#1155=DIRECTION('',(1.0,0.0,0.0));
#1156=AXIS2_PLACEMENT_3D('',#1153,#1154,#1155);
#1157=PLANE('',#1156);
#1158=ORIENTED_EDGE('',*,*,#454,.T.);
#1159=CARTESIAN_POINT('',(0.350000000000001,-0.675000000000000,1.297723422758215));
#1160=DIRECTION('',(1.0,0.0,0.0));
#1161=VECTOR('',#1160,0.294854974773827);
#1162=LINE('',#1159,#1161);
#1163=EDGE_CURVE('',#449,#291,#1162,.T.);
#1164=ORIENTED_EDGE('',*,*,#1163,.T.);
#1165=ORIENTED_EDGE('',*,*,#297,.T.);
#1166=CARTESIAN_POINT('',(0.787743539624801,-0.675000000000000,1.193361762285733));
#1167=VERTEX_POINT('',#1166);
#1168=CARTESIAN_POINT('',(0.644854974773828,-0.675000000000000,1.147723422758214));
#1169=DIRECTION('',(-1.064069E-016,1.000000000000000,-1.456888E-016));
#1170=DIRECTION('',(0.589806918893752,1.804096E-016,0.807544301215146));
#1171=AXIS2_PLACEMENT_3D('',#1168,#1169,#1170);
#1172=CIRCLE('',#1171,0.150000000000000);
#1173=EDGE_CURVE('',#281,#1167,#1172,.T.);
#1174=ORIENTED_EDGE('',*,*,#1173,.T.);
#1175=CARTESIAN_POINT('',(0.787743539624801,-0.675000000000000,1.193361762285733));
#1176=DIRECTION('',(0.304255596850136,0.0,-0.952590432339821));
#1177=VECTOR('',#1176,0.837963434337456);
#1178=LINE('',#1175,#1177);
#1179=EDGE_CURVE('',#1167,#249,#1178,.T.);
#1180=ORIENTED_EDGE('',*,*,#1179,.T.);
#1181=ORIENTED_EDGE('',*,*,#255,.T.);
#1182=CARTESIAN_POINT('',(0.899810039626763,-0.675000000000000,0.349487472557734));
#1183=DIRECTION('',(-1.094058E-016,1.0,8.453963E-017));
#1184=DIRECTION('',(0.791289107811295,1.382627E-016,-0.611442186849423));
#1185=AXIS2_PLACEMENT_3D('',#1182,#1183,#1184);
#1186=CIRCLE('',#1185,0.149999999999999);
#1187=EDGE_CURVE('',#239,#1110,#1186,.T.);
#1188=ORIENTED_EDGE('',*,*,#1187,.T.);
#1189=ORIENTED_EDGE('',*,*,#1115,.T.);
#1190=ORIENTED_EDGE('',*,*,#758,.T.);
#1191=CARTESIAN_POINT('',(0.880875771085096,-0.675000000000000,2.013281E-015));
#1192=VERTEX_POINT('',#1191);
#1193=CARTESIAN_POINT('',(0.880875771085096,-0.675000000000000,2.013281E-015));
#1194=DIRECTION('',(-0.998535635879237,-2.905069E-016,0.054097910119041));
#1195=VECTOR('',#1194,0.382167585646018);
#1196=LINE('',#1193,#1195);
#1197=EDGE_CURVE('',#1192,#753,#1196,.T.);
#1198=ORIENTED_EDGE('',*,*,#1197,.F.);
#1199=CARTESIAN_POINT('',(0.899810039626761,-0.675000000000000,0.349487472557734));
#1200=DIRECTION('',(-1.094058E-016,1.000000000000000,8.453963E-017));
#1201=DIRECTION('',(0.791289107811295,1.382627E-016,-0.611442186849423));
#1202=AXIS2_PLACEMENT_3D('',#1199,#1200,#1201);
#1203=CIRCLE('',#1202,0.350000000000000);
#1204=EDGE_CURVE('',#115,#1192,#1203,.T.);
#1205=ORIENTED_EDGE('',*,*,#1204,.F.);
#1206=ORIENTED_EDGE('',*,*,#144,.F.);
#1207=CARTESIAN_POINT('',(0.978261626092765,-0.675000000000000,1.254212881655761));
#1208=VERTEX_POINT('',#1207);
#1209=CARTESIAN_POINT('',(0.978261626092765,-0.675000000000000,1.254212881655761));
#1210=DIRECTION('',(0.304255596850136,0.0,-0.952590432339821));
#1211=VECTOR('',#1210,0.837963434337456);
#1212=LINE('',#1209,#1211);
#1213=EDGE_CURVE('',#1208,#132,#1212,.T.);
#1214=ORIENTED_EDGE('',*,*,#1213,.F.);
#1215=CARTESIAN_POINT('',(0.644854974773826,-0.675000000000000,1.147723422758214));
#1216=DIRECTION('',(-1.064069E-016,1.0,-1.456888E-016));
#1217=DIRECTION('',(0.589806918893745,1.804096E-016,0.807544301215152));
#1218=AXIS2_PLACEMENT_3D('',#1215,#1216,#1217);
#1219=CIRCLE('',#1218,0.350000000000000);
#1220=EDGE_CURVE('',#157,#1208,#1219,.T.);
#1221=ORIENTED_EDGE('',*,*,#1220,.F.);
#1222=ORIENTED_EDGE('',*,*,#186,.F.);
#1223=ORIENTED_EDGE('',*,*,#897,.F.);
#1224=EDGE_LOOP('',(#1158,#1164,#1165,#1174,#1180,#1181,#1188,#1189,#1190,#1198,#1205,#1206,#1214,#1221,#1222,#1223));
#1225=FACE_OUTER_BOUND('',#1224,.T.);
#1226=ADVANCED_FACE('',(#1225),#1157,.T.);
#1227=CARTESIAN_POINT('',(-0.899810039626763,0.675000000000000,0.349487472557731));
#1228=DIRECTION('',(2.220446E-016,-1.0,6.123032E-017));
#1229=DIRECTION('',(-0.791289107811301,-2.131403E-016,-0.611442186849416));
#1230=AXIS2_PLACEMENT_3D('',#1227,#1228,#1229);
#1231=CYLINDRICAL_SURFACE('',#1230,0.149999999999998);
#1232=ORIENTED_EDGE('',*,*,#372,.T.);
#1233=ORIENTED_EDGE('',*,*,#1050,.F.);
#1234=CARTESIAN_POINT('',(-1.042698604477733,-0.675000000000000,0.395125812085256));
#1235=VERTEX_POINT('',#1234);
#1236=CARTESIAN_POINT('',(-1.042698604477734,0.675000000000000,0.395125812085256));
#1237=DIRECTION('',(0.0,-1.0,0.0));
#1238=VECTOR('',#1237,1.350000000000000);
#1239=LINE('',#1236,#1238);
#1240=EDGE_CURVE('',#1038,#1235,#1239,.T.);
#1241=ORIENTED_EDGE('',*,*,#1240,.T.);
#1242=CARTESIAN_POINT('',(-0.899810039626763,-0.675000000000000,0.349487472557731));
#1243=DIRECTION('',(-1.686556E-016,1.0,-1.303230E-016));
#1244=DIRECTION('',(-0.791289107811301,-2.131403E-016,-0.611442186849416));
#1245=AXIS2_PLACEMENT_3D('',#1242,#1243,#1244);
#1246=CIRCLE('',#1245,0.149999999999998);
#1247=EDGE_CURVE('',#365,#1235,#1246,.T.);
#1248=ORIENTED_EDGE('',*,*,#1247,.F.);
#1249=EDGE_LOOP('',(#1232,#1233,#1241,#1248));
#1250=FACE_OUTER_BOUND('',#1249,.T.);
#1251=ADVANCED_FACE('',(#1250),#1231,.F.);
#1252=CARTESIAN_POINT('',(-1.042698604477734,0.675000000000000,0.395125812085256));
#1253=DIRECTION('',(-0.952590432339822,-1.928879E-016,0.304255596850135));
#1254=DIRECTION('',(0.0,-1.0,0.0));
#1255=AXIS2_PLACEMENT_3D('',#1252,#1253,#1254);
#1256=PLANE('',#1255);
#1257=CARTESIAN_POINT('',(-1.042698604477733,-0.675000000000000,0.395125812085256));
#1258=DIRECTION('',(0.304255596850135,1.324906E-016,0.952590432339821));
#1259=VECTOR('',#1258,0.837963434337459);
#1260=LINE('',#1257,#1259);
#1261=EDGE_CURVE('',#1235,#333,#1260,.T.);
#1262=ORIENTED_EDGE('',*,*,#1261,.F.);
#1263=ORIENTED_EDGE('',*,*,#1240,.F.);
#1264=ORIENTED_EDGE('',*,*,#1043,.F.);
#1265=ORIENTED_EDGE('',*,*,#347,.T.);
#1266=EDGE_LOOP('',(#1262,#1263,#1264,#1265));
#1267=FACE_OUTER_BOUND('',#1266,.T.);
#1268=ADVANCED_FACE('',(#1267),#1256,.F.);
#1269=CARTESIAN_POINT('',(-0.644854974773827,0.675000000000000,1.147723422758217));
#1270=DIRECTION('',(2.220446E-016,-1.0,6.123032E-017));
#1271=DIRECTION('',(-0.589806918893741,-8.151725E-017,0.807544301215154));
#1272=AXIS2_PLACEMENT_3D('',#1269,#1270,#1271);
#1273=CYLINDRICAL_SURFACE('',#1272,0.150000000000000);
#1274=ORIENTED_EDGE('',*,*,#330,.T.);
#1275=ORIENTED_EDGE('',*,*,#1034,.F.);
#1276=CARTESIAN_POINT('',(-0.644854974773827,-0.675000000000000,1.297723422758217));
#1277=VERTEX_POINT('',#1276);
#1278=CARTESIAN_POINT('',(-0.644854974773827,0.675000000000000,1.297723422758217));
#1279=DIRECTION('',(0.0,-1.0,0.0));
#1280=VECTOR('',#1279,1.350000000000000);
#1281=LINE('',#1278,#1280);
#1282=EDGE_CURVE('',#1022,#1277,#1281,.T.);
#1283=ORIENTED_EDGE('',*,*,#1282,.T.);
#1284=CARTESIAN_POINT('',(-0.644854974773827,-0.675000000000000,1.147723422758217));
#1285=DIRECTION('',(-4.807944E-017,1.0,6.582879E-017));
#1286=DIRECTION('',(-0.589806918893741,-8.151725E-017,0.807544301215154));
#1287=AXIS2_PLACEMENT_3D('',#1284,#1285,#1286);
#1288=CIRCLE('',#1287,0.150000000000000);
#1289=EDGE_CURVE('',#323,#1277,#1288,.T.);
#1290=ORIENTED_EDGE('',*,*,#1289,.F.);
#1291=EDGE_LOOP('',(#1274,#1275,#1283,#1290));
#1292=FACE_OUTER_BOUND('',#1291,.T.);
#1293=ADVANCED_FACE('',(#1292),#1273,.F.);
#1294=CARTESIAN_POINT('',(-0.644854974773827,0.675000000000000,1.297723422758217));
#1295=DIRECTION('',(0.0,0.0,1.0));
#1296=DIRECTION('',(0.0,-1.0,0.0));
#1297=AXIS2_PLACEMENT_3D('',#1294,#1295,#1296);
#1298=PLANE('',#1297);
#1299=ORIENTED_EDGE('',*,*,#422,.T.);
#1300=CARTESIAN_POINT('',(-0.644854974773827,-0.675000000000000,1.297723422758217));
#1301=DIRECTION('',(1.0,0.0,0.0));
#1302=VECTOR('',#1301,0.294854974773828);
#1303=LINE('',#1300,#1302);
#1304=EDGE_CURVE('',#1277,#407,#1303,.T.);
#1305=ORIENTED_EDGE('',*,*,#1304,.F.);
#1306=ORIENTED_EDGE('',*,*,#1282,.F.);
#1307=ORIENTED_EDGE('',*,*,#1027,.F.);
#1308=ORIENTED_EDGE('',*,*,#524,.T.);
#1309=ORIENTED_EDGE('',*,*,#600,.T.);
#1310=ORIENTED_EDGE('',*,*,#578,.T.);
#1311=ORIENTED_EDGE('',*,*,#1010,.F.);
#1312=ORIENTED_EDGE('',*,*,#305,.T.);
#1313=ORIENTED_EDGE('',*,*,#1163,.F.);
#1314=ORIENTED_EDGE('',*,*,#476,.T.);
#1315=ORIENTED_EDGE('',*,*,#490,.T.);
#1316=EDGE_LOOP('',(#1299,#1305,#1306,#1307,#1308,#1309,#1310,#1311,#1312,#1313,#1314,#1315));
#1317=FACE_OUTER_BOUND('',#1316,.T.);
#1318=ADVANCED_FACE('',(#1317),#1298,.F.);
#1319=CARTESIAN_POINT('',(0.644854974773828,0.675000000000000,1.147723422758214));
#1320=DIRECTION('',(2.220446E-016,-1.0,6.123032E-017));
#1321=DIRECTION('',(0.589806918893752,1.804096E-016,0.807544301215146));
#1322=AXIS2_PLACEMENT_3D('',#1319,#1320,#1321);
#1323=CYLINDRICAL_SURFACE('',#1322,0.150000000000000);
#1324=ORIENTED_EDGE('',*,*,#288,.T.);
#1325=ORIENTED_EDGE('',*,*,#1003,.F.);
#1326=CARTESIAN_POINT('',(0.787743539624800,0.675000000000000,1.193361762285733));
#1327=DIRECTION('',(0.0,-1.0,0.0));
#1328=VECTOR('',#1327,1.350000000000000);
#1329=LINE('',#1326,#1328);
#1330=EDGE_CURVE('',#991,#1167,#1329,.T.);
#1331=ORIENTED_EDGE('',*,*,#1330,.T.);
#1332=ORIENTED_EDGE('',*,*,#1173,.F.);
#1333=EDGE_LOOP('',(#1324,#1325,#1331,#1332));
#1334=FACE_OUTER_BOUND('',#1333,.T.);
#1335=ADVANCED_FACE('',(#1334),#1323,.F.);
#1336=CARTESIAN_POINT('',(0.787743539624800,0.675000000000000,1.193361762285733));
#1337=DIRECTION('',(0.952590432339821,2.301472E-016,0.304255596850137));
#1338=DIRECTION('',(0.0,1.0,0.0));
#1339=AXIS2_PLACEMENT_3D('',#1336,#1337,#1338);
#1340=PLANE('',#1339);
#1341=ORIENTED_EDGE('',*,*,#1179,.F.);
#1342=ORIENTED_EDGE('',*,*,#1330,.F.);
#1343=ORIENTED_EDGE('',*,*,#996,.F.);
#1344=ORIENTED_EDGE('',*,*,#263,.T.);
#1345=EDGE_LOOP('',(#1341,#1342,#1343,#1344));
#1346=FACE_OUTER_BOUND('',#1345,.T.);
#1347=ADVANCED_FACE('',(#1346),#1340,.F.);
#1348=CARTESIAN_POINT('',(0.899810039626763,0.675000000000000,0.349487472557733));
#1349=DIRECTION('',(2.220446E-016,-1.0,6.123032E-017));
#1350=DIRECTION('',(0.791289107811295,1.382627E-016,-0.611442186849423));
#1351=AXIS2_PLACEMENT_3D('',#1348,#1349,#1350);
#1352=CYLINDRICAL_SURFACE('',#1351,0.149999999999999);
#1353=ORIENTED_EDGE('',*,*,#246,.T.);
#1354=ORIENTED_EDGE('',*,*,#987,.F.);
#1355=ORIENTED_EDGE('',*,*,#1121,.T.);
#1356=ORIENTED_EDGE('',*,*,#1187,.F.);
#1357=EDGE_LOOP('',(#1353,#1354,#1355,#1356));
#1358=FACE_OUTER_BOUND('',#1357,.T.);
#1359=ADVANCED_FACE('',(#1358),#1352,.F.);
#1360=CARTESIAN_POINT('',(0.010819582023808,0.675000000000000,0.247430549934059));
#1361=DIRECTION('',(0.998535635879236,2.184070E-016,-0.054097910119051));
#1362=DIRECTION('',(0.0,1.0,0.0));
#1363=AXIS2_PLACEMENT_3D('',#1360,#1361,#1362);
#1364=PLANE('',#1363);
#1365=ORIENTED_EDGE('',*,*,#734,.T.);
#1366=ORIENTED_EDGE('',*,*,#1138,.T.);
#1367=ORIENTED_EDGE('',*,*,#804,.T.);
#1368=ORIENTED_EDGE('',*,*,#1105,.F.);
#1369=EDGE_LOOP('',(#1365,#1366,#1367,#1368));
#1370=FACE_OUTER_BOUND('',#1369,.T.);
#1371=ADVANCED_FACE('',(#1370),#1364,.F.);
#1372=CARTESIAN_POINT('',(-1.936834E-015,0.675000000000000,0.047723422758212));
#1373=DIRECTION('',(-0.998535635879237,-2.250319E-016,-0.054097910119033));
#1374=DIRECTION('',(0.0,-1.0,0.0));
#1375=AXIS2_PLACEMENT_3D('',#1372,#1373,#1374);
#1376=PLANE('',#1375);
#1377=ORIENTED_EDGE('',*,*,#665,.T.);
#1378=CARTESIAN_POINT('',(-0.010819582023809,0.475000000000000,0.247430549934059));
#1379=DIRECTION('',(0.0,-1.0,0.0));
#1380=VECTOR('',#1379,0.950000000000000);
#1381=LINE('',#1378,#1380);
#1382=EDGE_CURVE('',#652,#868,#1381,.T.);
#1383=ORIENTED_EDGE('',*,*,#1382,.T.);
#1384=ORIENTED_EDGE('',*,*,#873,.T.);
#1385=CARTESIAN_POINT('',(-1.936834E-015,0.475000000000000,0.047723422758212));
#1386=DIRECTION('',(0.0,-1.0,0.0));
#1387=VECTOR('',#1386,0.950000000000000);
#1388=LINE('',#1385,#1387);
#1389=EDGE_CURVE('',#660,#799,#1388,.T.);
#1390=ORIENTED_EDGE('',*,*,#1389,.F.);
#1391=EDGE_LOOP('',(#1377,#1383,#1384,#1390));
#1392=FACE_OUTER_BOUND('',#1391,.T.);
#1393=ADVANCED_FACE('',(#1392),#1376,.F.);
#1394=CARTESIAN_POINT('',(-0.010819582023809,0.675000000000000,0.247430549934059));
#1395=DIRECTION('',(0.054097910119042,-4.912851E-017,-0.998535635879237));
#1396=DIRECTION('',(0.0,1.0,0.0));
#1397=AXIS2_PLACEMENT_3D('',#1394,#1395,#1396);
#1398=PLANE('',#1397);
#1399=ORIENTED_EDGE('',*,*,#640,.T.);
#1400=ORIENTED_EDGE('',*,*,#1057,.F.);
#1401=ORIENTED_EDGE('',*,*,#389,.T.);
#1402=CARTESIAN_POINT('',(-0.510087399963427,-0.675000000000000,0.220381594874538));
#1403=DIRECTION('',(-0.998535635879237,-2.905069E-016,-0.054097910119042));
#1404=VECTOR('',#1403,0.382167585646017);
#1405=LINE('',#1402,#1404);
#1406=EDGE_CURVE('',#824,#375,#1405,.T.);
#1407=ORIENTED_EDGE('',*,*,#1406,.F.);
#1408=ORIENTED_EDGE('',*,*,#851,.T.);
#1409=ORIENTED_EDGE('',*,*,#879,.T.);
#1410=ORIENTED_EDGE('',*,*,#1382,.F.);
#1411=ORIENTED_EDGE('',*,*,#657,.T.);
#1412=EDGE_LOOP('',(#1399,#1400,#1401,#1407,#1408,#1409,#1410,#1411));
#1413=FACE_OUTER_BOUND('',#1412,.T.);
#1414=ADVANCED_FACE('',(#1413),#1398,.F.);
#1415=CARTESIAN_POINT('',(-5.819719E-018,-0.675000000000000,0.701209684625365));
#1416=DIRECTION('',(0.0,-1.0,0.0));
#1417=DIRECTION('',(1.0,0.0,0.0));
#1418=AXIS2_PLACEMENT_3D('',#1415,#1416,#1417);
#1419=PLANE('',#1418);
#1420=ORIENTED_EDGE('',*,*,#414,.T.);
#1421=ORIENTED_EDGE('',*,*,#929,.F.);
#1422=CARTESIAN_POINT('',(-0.644854974773828,-0.675000000000000,1.147723422758215));
#1423=DIRECTION('',(-4.807944E-017,1.000000000000000,6.582879E-017));
#1424=DIRECTION('',(-0.589806918893741,-8.151725E-017,0.807544301215155));
#1425=AXIS2_PLACEMENT_3D('',#1422,#1423,#1424);
#1426=CIRCLE('',#1425,0.350000000000000);
#1427=EDGE_CURVE('',#199,#918,#1426,.T.);
#1428=ORIENTED_EDGE('',*,*,#1427,.F.);
#1429=ORIENTED_EDGE('',*,*,#228,.F.);
#1430=CARTESIAN_POINT('',(-1.233216690945698,-0.675000000000000,0.455976931455284));
#1431=VERTEX_POINT('',#1430);
#1432=CARTESIAN_POINT('',(-1.233216690945698,-0.675000000000000,0.455976931455284));
#1433=DIRECTION('',(0.304255596850135,1.324906E-016,0.952590432339821));
#1434=VECTOR('',#1433,0.837963434337459);
#1435=LINE('',#1432,#1434);
#1436=EDGE_CURVE('',#1431,#216,#1435,.T.);
#1437=ORIENTED_EDGE('',*,*,#1436,.F.);
#1438=CARTESIAN_POINT('',(-0.899810039626759,-0.675000000000000,0.349487472557735));
#1439=DIRECTION('',(-1.686556E-016,1.0,-1.303230E-016));
#1440=DIRECTION('',(-0.791289107811296,-2.131403E-016,-0.611442186849422));
#1441=AXIS2_PLACEMENT_3D('',#1438,#1439,#1440);
#1442=CIRCLE('',#1441,0.350000000000001);
#1443=EDGE_CURVE('',#73,#1431,#1442,.T.);
#1444=ORIENTED_EDGE('',*,*,#1443,.F.);
#1445=ORIENTED_EDGE('',*,*,#102,.F.);
#1446=ORIENTED_EDGE('',*,*,#1146,.F.);
#1447=ORIENTED_EDGE('',*,*,#829,.T.);
#1448=ORIENTED_EDGE('',*,*,#1406,.T.);
#1449=ORIENTED_EDGE('',*,*,#381,.T.);
#1450=ORIENTED_EDGE('',*,*,#1247,.T.);
#1451=ORIENTED_EDGE('',*,*,#1261,.T.);
#1452=ORIENTED_EDGE('',*,*,#339,.T.);
#1453=ORIENTED_EDGE('',*,*,#1289,.T.);
#1454=ORIENTED_EDGE('',*,*,#1304,.T.);
#1455=EDGE_LOOP('',(#1420,#1421,#1428,#1429,#1437,#1444,#1445,#1446,#1447,#1448,#1449,#1450,#1451,#1452,#1453,#1454));
#1456=FACE_OUTER_BOUND('',#1455,.T.);
#1457=ADVANCED_FACE('',(#1456),#1419,.T.);
#1458=CARTESIAN_POINT('',(-1.233216690945698,0.675000000000000,0.455976931455284));
#1459=DIRECTION('',(-0.952590432339822,-1.928879E-016,0.304255596850135));
#1460=DIRECTION('',(0.0,-1.0,0.0));
#1461=AXIS2_PLACEMENT_3D('',#1458,#1459,#1460);
#1462=PLANE('',#1461);
#1463=ORIENTED_EDGE('',*,*,#1436,.T.);
#1464=ORIENTED_EDGE('',*,*,#221,.F.);
#1465=ORIENTED_EDGE('',*,*,#1080,.F.);
#1466=CARTESIAN_POINT('',(-1.233216690945698,0.675000000000000,0.455976931455284));
#1467=DIRECTION('',(0.0,-1.0,0.0));
#1468=VECTOR('',#1467,1.350000000000000);
#1469=LINE('',#1466,#1468);
#1470=EDGE_CURVE('',#1068,#1431,#1469,.T.);
#1471=ORIENTED_EDGE('',*,*,#1470,.T.);
#1472=EDGE_LOOP('',(#1463,#1464,#1465,#1471));
#1473=FACE_OUTER_BOUND('',#1472,.T.);
#1474=ADVANCED_FACE('',(#1473),#1462,.T.);
#1475=CARTESIAN_POINT('',(-0.644854974773829,0.675000000000000,1.147723422758215));
#1476=DIRECTION('',(2.220446E-016,-1.0,6.123032E-017));
#1477=DIRECTION('',(-0.589806918893741,-8.151725E-017,0.807544301215155));
#1478=AXIS2_PLACEMENT_3D('',#1475,#1476,#1477);
#1479=CYLINDRICAL_SURFACE('',#1478,0.350000000000000);
#1480=ORIENTED_EDGE('',*,*,#204,.T.);
#1481=ORIENTED_EDGE('',*,*,#1427,.T.);
#1482=ORIENTED_EDGE('',*,*,#923,.F.);
#1483=ORIENTED_EDGE('',*,*,#1088,.F.);
#1484=EDGE_LOOP('',(#1480,#1481,#1482,#1483));
#1485=FACE_OUTER_BOUND('',#1484,.T.);
#1486=ADVANCED_FACE('',(#1485),#1479,.T.);
#1487=CARTESIAN_POINT('',(0.644854974773826,0.675000000000000,1.147723422758214));
#1488=DIRECTION('',(2.220446E-016,-1.0,6.123032E-017));
#1489=DIRECTION('',(0.589806918893745,1.804096E-016,0.807544301215152));
#1490=AXIS2_PLACEMENT_3D('',#1487,#1488,#1489);
#1491=CYLINDRICAL_SURFACE('',#1490,0.350000000000000);
#1492=ORIENTED_EDGE('',*,*,#162,.T.);
#1493=ORIENTED_EDGE('',*,*,#1220,.T.);
#1494=CARTESIAN_POINT('',(0.978261626092765,0.675000000000000,1.254212881655761));
#1495=DIRECTION('',(0.0,-1.0,0.0));
#1496=VECTOR('',#1495,1.350000000000000);
#1497=LINE('',#1494,#1496);
#1498=EDGE_CURVE('',#943,#1208,#1497,.T.);
#1499=ORIENTED_EDGE('',*,*,#1498,.F.);
#1500=ORIENTED_EDGE('',*,*,#949,.F.);
#1501=EDGE_LOOP('',(#1492,#1493,#1499,#1500));
#1502=FACE_OUTER_BOUND('',#1501,.T.);
#1503=ADVANCED_FACE('',(#1502),#1491,.T.);
#1504=CARTESIAN_POINT('',(0.978261626092765,0.675000000000000,1.254212881655761));
#1505=DIRECTION('',(0.952590432339821,2.301472E-016,0.304255596850137));
#1506=DIRECTION('',(0.0,1.0,0.0));
#1507=AXIS2_PLACEMENT_3D('',#1504,#1505,#1506);
#1508=PLANE('',#1507);
#1509=ORIENTED_EDGE('',*,*,#1213,.T.);
#1510=ORIENTED_EDGE('',*,*,#137,.F.);
#1511=ORIENTED_EDGE('',*,*,#955,.F.);
#1512=ORIENTED_EDGE('',*,*,#1498,.T.);
#1513=EDGE_LOOP('',(#1509,#1510,#1511,#1512));
#1514=FACE_OUTER_BOUND('',#1513,.T.);
#1515=ADVANCED_FACE('',(#1514),#1508,.T.);
#1516=CARTESIAN_POINT('',(0.899810039626761,0.675000000000000,0.349487472557733));
#1517=DIRECTION('',(2.220446E-016,-1.0,6.123032E-017));
#1518=DIRECTION('',(0.791289107811295,1.382627E-016,-0.611442186849423));
#1519=AXIS2_PLACEMENT_3D('',#1516,#1517,#1518);
#1520=CYLINDRICAL_SURFACE('',#1519,0.350000000000000);
#1521=ORIENTED_EDGE('',*,*,#120,.T.);
#1522=ORIENTED_EDGE('',*,*,#1204,.T.);
#1523=CARTESIAN_POINT('',(0.880875771085096,0.675000000000000,1.930620E-015));
#1524=DIRECTION('',(0.0,-1.0,0.0));
#1525=VECTOR('',#1524,1.350000000000000);
#1526=LINE('',#1523,#1525);
#1527=EDGE_CURVE('',#959,#1192,#1526,.T.);
#1528=ORIENTED_EDGE('',*,*,#1527,.F.);
#1529=ORIENTED_EDGE('',*,*,#965,.F.);
#1530=EDGE_LOOP('',(#1521,#1522,#1528,#1529));
#1531=FACE_OUTER_BOUND('',#1530,.T.);
#1532=ADVANCED_FACE('',(#1531),#1520,.T.);
#1533=CARTESIAN_POINT('',(0.880875771085096,0.675000000000000,1.930620E-015));
#1534=DIRECTION('',(-0.054097910119041,-7.315280E-017,-0.998535635879237));
#1535=DIRECTION('',(0.0,1.0,0.0));
#1536=AXIS2_PLACEMENT_3D('',#1533,#1534,#1535);
#1537=PLANE('',#1536);
#1538=ORIENTED_EDGE('',*,*,#711,.T.);
#1539=ORIENTED_EDGE('',*,*,#971,.F.);
#1540=ORIENTED_EDGE('',*,*,#1527,.T.);
#1541=ORIENTED_EDGE('',*,*,#1197,.T.);
#1542=ORIENTED_EDGE('',*,*,#780,.T.);
#1543=ORIENTED_EDGE('',*,*,#810,.T.);
#1544=ORIENTED_EDGE('',*,*,#1389,.F.);
#1545=ORIENTED_EDGE('',*,*,#726,.T.);
#1546=EDGE_LOOP('',(#1538,#1539,#1540,#1541,#1542,#1543,#1544,#1545));
#1547=FACE_OUTER_BOUND('',#1546,.T.);
#1548=ADVANCED_FACE('',(#1547),#1537,.T.);
#1549=CARTESIAN_POINT('',(-0.899810039626759,0.675000000000000,0.349487472557735));
#1550=DIRECTION('',(2.220446E-016,-1.0,6.123032E-017));
#1551=DIRECTION('',(-0.791289107811296,-2.131403E-016,-0.611442186849422));
#1552=AXIS2_PLACEMENT_3D('',#1549,#1550,#1551);
#1553=CYLINDRICAL_SURFACE('',#1552,0.350000000000001);
#1554=ORIENTED_EDGE('',*,*,#78,.T.);
#1555=ORIENTED_EDGE('',*,*,#1443,.T.);
#1556=ORIENTED_EDGE('',*,*,#1470,.F.);
#1557=ORIENTED_EDGE('',*,*,#1074,.F.);
#1558=EDGE_LOOP('',(#1554,#1555,#1556,#1557));
#1559=FACE_OUTER_BOUND('',#1558,.T.);
#1560=ADVANCED_FACE('',(#1559),#1553,.T.);
#1561=CLOSED_SHELL('',(#106,#148,#190,#232,#274,#316,#358,#400,#440,#480,#502,#542,#582,#604,#644,#675,#715,#744,#784,#815,#855,#884,#933,#1014,#1093,#1126,#1152,#1226,#1251,#1268,#1293,#1318,#1335,#1347,#1359,#1371,#1393,#1414,#1457,#1474,#1486,#1503,#1515,#1532,#1548,#1560));
#1562=MANIFOLD_SOLID_BREP('3BE',#1561);
#1563=COLOUR_RGB('253',0.732000000000000,0.732000000000000,0.732000000000000);
#1564=SURFACE_STYLE_USAGE(.BOTH.,#1565);
#1565=SURFACE_SIDE_STYLE('NONE',(#1566));
#1566=SURFACE_STYLE_FILL_AREA(#1567);
#1567=FILL_AREA_STYLE('NONE',(#1568));
#1568=FILL_AREA_STYLE_COLOUR('NONE',#1563);
#1569=PRESENTATION_STYLE_ASSIGNMENT((#1564));
#1570=STYLED_ITEM('NONE',(#1569),#1562);
#1571=MECHANICAL_DESIGN_GEOMETRIC_PRESENTATION_REPRESENTATION('NONE',(#1570),#28);
#1572=PRESENTATION_LAYER_ASSIGNMENT('3D','None',(#1562));
#1573=ADVANCED_BREP_SHAPE_REPRESENTATION('ABSR1',(#1562),#28);
#1574=SHAPE_REPRESENTATION_RELATIONSHIP('SRRPL1','',#1573,#62);
ENDSEC;
END-ISO-10303-21;
