ISO-10303-21;
HEADER;
/****************************************************************
 * Generated by software with PDE/Lib inside                    *
 * PDElib Version v51a, created Mon 11/23/2009                  *
 * ITI Transcendata (http://www.transcendata.com/)              *
 ****************************************************************/
FILE_DESCRIPTION((''),'2;1');
FILE_NAME('NTE_TO-3PML.stp','2011-09-29T14:01:39',(''),(''),'Mechanical Desktop 2011','Mechanical Desktop 2011',', , ');
FILE_SCHEMA(('AUTOMOTIVE_DESIGN { 1 2 10303 214 1 1 1 1 }'));
ENDSEC;
DATA;
#10=(NAMED_UNIT(*)PLANE_ANGLE_UNIT()SI_UNIT($,.RADIAN.));
#11=DIMENSIONAL_EXPONENTS(0.0,0.0,0.0,0.0,0.0,0.0,0.0);
#12=PLANE_ANGLE_MEASURE_WITH_UNIT(PLANE_ANGLE_MEASURE(0.017453292500000),#10);
#16=(CONVERSION_BASED_UNIT('DEGREE',#12)NAMED_UNIT(#11)PLANE_ANGLE_UNIT());
#20=(NAMED_UNIT(*)SI_UNIT($,.STERADIAN.)SOLID_ANGLE_UNIT());
#24=(LENGTH_UNIT()NAMED_UNIT(*)SI_UNIT(.MILLI.,.METRE.));
#26=UNCERTAINTY_MEASURE_WITH_UNIT(LENGTH_MEASURE(0.000001000000000),#24,'DISTANCE_ACCURACY_VALUE','');
#28=(GEOMETRIC_REPRESENTATION_CONTEXT(3)GLOBAL_UNCERTAINTY_ASSIGNED_CONTEXT((#26))GLOBAL_UNIT_ASSIGNED_CONTEXT((#16,#20,#24))REPRESENTATION_CONTEXT('','3D'));
#29=APPLICATION_CONTEXT('automotive design');
#30=APPLICATION_PROTOCOL_DEFINITION('INTERNATIONAL_STANDARD','automotive_design',1998,#29);
#31=PRODUCT_CONTEXT('3D Mechanical Parts',#29,'mechanical');
#32=PRODUCT('Product','Product','',(#31));
#33=PRODUCT_RELATED_PRODUCT_CATEGORY('part',$,(#32));
#34=PRODUCT_CATEGORY('part',$);
#35=PERSON('1','Design','Joe',$,$,$);
#36=ORGANIZATION($,'None','None');
#37=PERSON_AND_ORGANIZATION(#35,#36);
#38=PERSON_AND_ORGANIZATION_ROLE('design_owner');
#39=APPLIED_PERSON_AND_ORGANIZATION_ASSIGNMENT(#37,#38,(#32));
#40=PRODUCT_DEFINITION_FORMATION_WITH_SPECIFIED_SOURCE('None','',#32,.BOUGHT.);
#41=PERSON('2','Creator','Joe',$,$,$);
#42=ORGANIZATION($,'None','None');
#43=PERSON_AND_ORGANIZATION(#41,#42);
#44=PERSON_AND_ORGANIZATION_ROLE('creator');
#45=APPLIED_PERSON_AND_ORGANIZATION_ASSIGNMENT(#43,#44,(#40));
#46=PERSON('3','Supplier','Joe',$,$,$);
#47=ORGANIZATION($,'None','None');
#48=PERSON_AND_ORGANIZATION(#46,#47);
#49=PERSON_AND_ORGANIZATION_ROLE('design_supplier');
#50=APPLIED_PERSON_AND_ORGANIZATION_ASSIGNMENT(#48,#49,(#40));
#51=PRODUCT_DEFINITION_CONTEXT('part definition',#29,'design');
#52=PRODUCT_DEFINITION('None','',#40,#51);
#53=PERSON('4','Creator','Joe',$,$,$);
#54=ORGANIZATION($,'None','None');
#55=PERSON_AND_ORGANIZATION(#53,#54);
#56=PERSON_AND_ORGANIZATION_ROLE('creator');
#57=APPLIED_PERSON_AND_ORGANIZATION_ASSIGNMENT(#55,#56,(#52));
#58=CARTESIAN_POINT('NONE',(0.0,0.0,0.0));
#59=DIRECTION('NONE',(0.0,0.0,1.0));
#60=DIRECTION('NONE',(1.0,0.0,0.0));
#61=AXIS2_PLACEMENT_3D('NONE',#58,#59,#60);
#62=SHAPE_REPRESENTATION('SR1',(#61),#28);
#63=PRODUCT_DEFINITION_SHAPE('PDS1','Test Part',#52);
#64=SHAPE_DEFINITION_REPRESENTATION(#63,#62);
#65=CARTESIAN_POINT('',(4.949999999999998,-0.300000000000001,2.000000000000001));
#66=DIRECTION('',(0.0,-1.0,0.0));
#67=DIRECTION('',(1.0,0.0,0.0));
#68=AXIS2_PLACEMENT_3D('',#65,#66,#67);
#69=PLANE('',#68);
#70=CARTESIAN_POINT('',(4.949999999999999,-0.300000000000003,-3.999999999999996));
#71=VERTEX_POINT('',#70);
#72=CARTESIAN_POINT('',(5.949999999999999,-0.300000000000003,-3.999999999999996));
#73=VERTEX_POINT('',#72);
#74=CARTESIAN_POINT('',(4.949999999999999,-0.300000000000004,-3.999999999999997));
#75=DIRECTION('',(1.0,0.0,0.0));
#76=VECTOR('',#75,1.0);
#77=LINE('',#74,#76);
#78=EDGE_CURVE('',#71,#73,#77,.T.);
#79=ORIENTED_EDGE('',*,*,#78,.T.);
#80=CARTESIAN_POINT('',(5.949999999999998,-0.300000000000001,2.000000000000001));
#81=VERTEX_POINT('',#80);
#82=CARTESIAN_POINT('',(5.949999999999998,-0.300000000000001,2.000000000000001));
#83=DIRECTION('',(0.0,0.0,-1.0));
#84=VECTOR('',#83,5.999999999999996);
#85=LINE('',#82,#84);
#86=EDGE_CURVE('',#81,#73,#85,.T.);
#87=ORIENTED_EDGE('',*,*,#86,.F.);
#88=CARTESIAN_POINT('',(4.949999999999998,-0.300000000000001,2.000000000000001));
#89=VERTEX_POINT('',#88);
#90=CARTESIAN_POINT('',(4.949999999999998,-0.300000000000001,2.000000000000001));
#91=DIRECTION('',(1.0,0.0,0.0));
#92=VECTOR('',#91,1.0);
#93=LINE('',#90,#92);
#94=EDGE_CURVE('',#89,#81,#93,.T.);
#95=ORIENTED_EDGE('',*,*,#94,.F.);
#96=CARTESIAN_POINT('',(4.949999999999998,-0.300000000000001,2.000000000000001));
#97=DIRECTION('',(0.0,0.0,-1.0));
#98=VECTOR('',#97,5.999999999999996);
#99=LINE('',#96,#98);
#100=EDGE_CURVE('',#89,#71,#99,.T.);
#101=ORIENTED_EDGE('',*,*,#100,.T.);
#102=EDGE_LOOP('',(#79,#87,#95,#101));
#103=FACE_OUTER_BOUND('',#102,.T.);
#104=ADVANCED_FACE('',(#103),#69,.T.);
#105=CARTESIAN_POINT('',(5.949999999999998,-0.300000000000001,2.000000000000001));
#106=DIRECTION('',(1.0,0.0,0.0));
#107=DIRECTION('',(0.0,1.0,0.0));
#108=AXIS2_PLACEMENT_3D('',#105,#106,#107);
#109=PLANE('',#108);
#110=CARTESIAN_POINT('',(5.949999999999999,0.299999999999996,-3.999999999999996));
#111=VERTEX_POINT('',#110);
#112=CARTESIAN_POINT('',(5.949999999999999,-0.300000000000003,-3.999999999999997));
#113=DIRECTION('',(0.0,1.0,0.0));
#114=VECTOR('',#113,0.599999999999999);
#115=LINE('',#112,#114);
#116=EDGE_CURVE('',#73,#111,#115,.T.);
#117=ORIENTED_EDGE('',*,*,#116,.T.);
#118=CARTESIAN_POINT('',(5.949999999999998,0.299999999999999,2.000000000000001));
#119=VERTEX_POINT('',#118);
#120=CARTESIAN_POINT('',(5.949999999999998,0.299999999999999,2.000000000000001));
#121=DIRECTION('',(0.0,0.0,-1.0));
#122=VECTOR('',#121,5.999999999999996);
#123=LINE('',#120,#122);
#124=EDGE_CURVE('',#119,#111,#123,.T.);
#125=ORIENTED_EDGE('',*,*,#124,.F.);
#126=CARTESIAN_POINT('',(5.949999999999998,-0.300000000000001,2.000000000000001));
#127=DIRECTION('',(0.0,1.0,0.0));
#128=VECTOR('',#127,0.600000000000000);
#129=LINE('',#126,#128);
#130=EDGE_CURVE('',#81,#119,#129,.T.);
#131=ORIENTED_EDGE('',*,*,#130,.F.);
#132=ORIENTED_EDGE('',*,*,#86,.T.);
#133=EDGE_LOOP('',(#117,#125,#131,#132));
#134=FACE_OUTER_BOUND('',#133,.T.);
#135=ADVANCED_FACE('',(#134),#109,.T.);
#136=CARTESIAN_POINT('',(5.949999999999998,0.299999999999999,2.000000000000001));
#137=DIRECTION('',(0.0,1.0,0.0));
#138=DIRECTION('',(-1.0,0.0,0.0));
#139=AXIS2_PLACEMENT_3D('',#136,#137,#138);
#140=PLANE('',#139);
#141=CARTESIAN_POINT('',(4.949999999999999,0.299999999999997,-3.999999999999996));
#142=VERTEX_POINT('',#141);
#143=CARTESIAN_POINT('',(5.949999999999999,0.299999999999996,-3.999999999999997));
#144=DIRECTION('',(-1.0,0.0,0.0));
#145=VECTOR('',#144,1.0);
#146=LINE('',#143,#145);
#147=EDGE_CURVE('',#111,#142,#146,.T.);
#148=ORIENTED_EDGE('',*,*,#147,.T.);
#149=CARTESIAN_POINT('',(4.949999999999998,0.299999999999999,2.000000000000001));
#150=VERTEX_POINT('',#149);
#151=CARTESIAN_POINT('',(4.949999999999998,0.299999999999999,2.000000000000001));
#152=DIRECTION('',(0.0,0.0,-1.0));
#153=VECTOR('',#152,5.999999999999996);
#154=LINE('',#151,#153);
#155=EDGE_CURVE('',#150,#142,#154,.T.);
#156=ORIENTED_EDGE('',*,*,#155,.F.);
#157=CARTESIAN_POINT('',(5.949999999999998,0.299999999999999,2.000000000000001));
#158=DIRECTION('',(-1.0,0.0,0.0));
#159=VECTOR('',#158,1.0);
#160=LINE('',#157,#159);
#161=EDGE_CURVE('',#119,#150,#160,.T.);
#162=ORIENTED_EDGE('',*,*,#161,.F.);
#163=ORIENTED_EDGE('',*,*,#124,.T.);
#164=EDGE_LOOP('',(#148,#156,#162,#163));
#165=FACE_OUTER_BOUND('',#164,.T.);
#166=ADVANCED_FACE('',(#165),#140,.T.);
#167=CARTESIAN_POINT('',(4.949999999999998,0.299999999999999,2.000000000000001));
#168=DIRECTION('',(-1.0,0.0,0.0));
#169=DIRECTION('',(0.0,-1.0,0.0));
#170=AXIS2_PLACEMENT_3D('',#167,#168,#169);
#171=PLANE('',#170);
#172=CARTESIAN_POINT('',(4.949999999999999,0.299999999999997,-3.999999999999997));
#173=DIRECTION('',(0.0,-1.0,0.0));
#174=VECTOR('',#173,0.600000000000000);
#175=LINE('',#172,#174);
#176=EDGE_CURVE('',#142,#71,#175,.T.);
#177=ORIENTED_EDGE('',*,*,#176,.T.);
#178=ORIENTED_EDGE('',*,*,#100,.F.);
#179=CARTESIAN_POINT('',(4.949999999999998,0.299999999999999,2.000000000000001));
#180=DIRECTION('',(0.0,-1.0,0.0));
#181=VECTOR('',#180,0.600000000000000);
#182=LINE('',#179,#181);
#183=EDGE_CURVE('',#150,#89,#182,.T.);
#184=ORIENTED_EDGE('',*,*,#183,.F.);
#185=ORIENTED_EDGE('',*,*,#155,.T.);
#186=EDGE_LOOP('',(#177,#178,#184,#185));
#187=FACE_OUTER_BOUND('',#186,.T.);
#188=ADVANCED_FACE('',(#187),#171,.T.);
#189=CARTESIAN_POINT('',(5.449999999999998,-4.440892E-015,-3.999999999999996));
#190=DIRECTION('',(0.0,0.0,1.0));
#191=DIRECTION('',(0.0,-1.0,0.0));
#192=AXIS2_PLACEMENT_3D('',#189,#190,#191);
#193=PLANE('',#192);
#194=ORIENTED_EDGE('',*,*,#176,.F.);
#195=ORIENTED_EDGE('',*,*,#147,.F.);
#196=ORIENTED_EDGE('',*,*,#116,.F.);
#197=ORIENTED_EDGE('',*,*,#78,.F.);
#198=EDGE_LOOP('',(#194,#195,#196,#197));
#199=FACE_OUTER_BOUND('',#198,.T.);
#200=ADVANCED_FACE('',(#199),#193,.F.);
#201=CARTESIAN_POINT('',(5.449999999999998,-1.332268E-015,2.000000000000002));
#202=DIRECTION('',(0.0,0.0,1.0));
#203=DIRECTION('',(0.0,-1.0,0.0));
#204=AXIS2_PLACEMENT_3D('',#201,#202,#203);
#205=PLANE('',#204);
#206=ORIENTED_EDGE('',*,*,#161,.T.);
#207=ORIENTED_EDGE('',*,*,#183,.T.);
#208=ORIENTED_EDGE('',*,*,#94,.T.);
#209=ORIENTED_EDGE('',*,*,#130,.T.);
#210=EDGE_LOOP('',(#206,#207,#208,#209));
#211=FACE_OUTER_BOUND('',#210,.T.);
#212=ADVANCED_FACE('',(#211),#205,.T.);
#213=CLOSED_SHELL('',(#104,#135,#166,#188,#200,#212));
#214=MANIFOLD_SOLID_BREP('DB7',#213);
#215=COLOUR_RGB('254',0.866000000000000,0.866000000000000,0.866000000000000);
#216=SURFACE_STYLE_USAGE(.BOTH.,#217);
#217=SURFACE_SIDE_STYLE('NONE',(#218));
#218=SURFACE_STYLE_FILL_AREA(#219);
#219=FILL_AREA_STYLE('NONE',(#220));
#220=FILL_AREA_STYLE_COLOUR('NONE',#215);
#221=PRESENTATION_STYLE_ASSIGNMENT((#216));
#222=STYLED_ITEM('NONE',(#221),#214);
#223=MECHANICAL_DESIGN_GEOMETRIC_PRESENTATION_REPRESENTATION('NONE',(#222,#375,#526,#1080,#1305,#1530,#1681,#1832,#1983),#28);
#224=PRESENTATION_LAYER_ASSIGNMENT('3D','None',(#214,#374,#525,#1072,#1304,#1529,#1680,#1831,#1982));
#225=CARTESIAN_POINT('',(-0.500000000000000,-0.300000000000000,2.0));
#226=DIRECTION('',(0.0,-1.0,0.0));
#227=DIRECTION('',(1.0,0.0,0.0));
#228=AXIS2_PLACEMENT_3D('',#225,#226,#227);
#229=PLANE('',#228);
#230=CARTESIAN_POINT('',(-0.499999999999999,-0.300000000000003,-3.999999999999997));
#231=VERTEX_POINT('',#230);
#232=CARTESIAN_POINT('',(0.500000000000001,-0.300000000000003,-3.999999999999997));
#233=VERTEX_POINT('',#232);
#234=CARTESIAN_POINT('',(-0.499999999999999,-0.300000000000004,-3.999999999999999));
#235=DIRECTION('',(1.0,0.0,0.0));
#236=VECTOR('',#235,1.0);
#237=LINE('',#234,#236);
#238=EDGE_CURVE('',#231,#233,#237,.T.);
#239=ORIENTED_EDGE('',*,*,#238,.T.);
#240=CARTESIAN_POINT('',(0.500000000000000,-0.300000000000000,2.0));
#241=VERTEX_POINT('',#240);
#242=CARTESIAN_POINT('',(0.500000000000000,-0.300000000000000,2.0));
#243=DIRECTION('',(0.0,0.0,-1.0));
#244=VECTOR('',#243,5.999999999999997);
#245=LINE('',#242,#244);
#246=EDGE_CURVE('',#241,#233,#245,.T.);
#247=ORIENTED_EDGE('',*,*,#246,.F.);
#248=CARTESIAN_POINT('',(-0.500000000000000,-0.300000000000000,2.0));
#249=VERTEX_POINT('',#248);
#250=CARTESIAN_POINT('',(-0.500000000000000,-0.300000000000000,2.0));
#251=DIRECTION('',(1.0,0.0,0.0));
#252=VECTOR('',#251,1.0);
#253=LINE('',#250,#252);
#254=EDGE_CURVE('',#249,#241,#253,.T.);
#255=ORIENTED_EDGE('',*,*,#254,.F.);
#256=CARTESIAN_POINT('',(-0.500000000000000,-0.300000000000000,2.0));
#257=DIRECTION('',(0.0,0.0,-1.0));
#258=VECTOR('',#257,5.999999999999997);
#259=LINE('',#256,#258);
#260=EDGE_CURVE('',#249,#231,#259,.T.);
#261=ORIENTED_EDGE('',*,*,#260,.T.);
#262=EDGE_LOOP('',(#239,#247,#255,#261));
#263=FACE_OUTER_BOUND('',#262,.T.);
#264=ADVANCED_FACE('',(#263),#229,.T.);
#265=CARTESIAN_POINT('',(0.500000000000000,-0.300000000000000,2.0));
#266=DIRECTION('',(1.0,0.0,0.0));
#267=DIRECTION('',(0.0,1.0,0.0));
#268=AXIS2_PLACEMENT_3D('',#265,#266,#267);
#269=PLANE('',#268);
#270=CARTESIAN_POINT('',(0.500000000000001,0.299999999999997,-3.999999999999997));
#271=VERTEX_POINT('',#270);
#272=CARTESIAN_POINT('',(0.500000000000001,-0.300000000000003,-3.999999999999999));
#273=DIRECTION('',(0.0,1.0,0.0));
#274=VECTOR('',#273,0.600000000000000);
#275=LINE('',#272,#274);
#276=EDGE_CURVE('',#233,#271,#275,.T.);
#277=ORIENTED_EDGE('',*,*,#276,.T.);
#278=CARTESIAN_POINT('',(0.500000000000000,0.299999999999999,2.0));
#279=VERTEX_POINT('',#278);
#280=CARTESIAN_POINT('',(0.500000000000000,0.299999999999999,2.0));
#281=DIRECTION('',(0.0,0.0,-1.0));
#282=VECTOR('',#281,5.999999999999997);
#283=LINE('',#280,#282);
#284=EDGE_CURVE('',#279,#271,#283,.T.);
#285=ORIENTED_EDGE('',*,*,#284,.F.);
#286=CARTESIAN_POINT('',(0.500000000000000,-0.300000000000000,2.0));
#287=DIRECTION('',(0.0,1.0,0.0));
#288=VECTOR('',#287,0.600000000000000);
#289=LINE('',#286,#288);
#290=EDGE_CURVE('',#241,#279,#289,.T.);
#291=ORIENTED_EDGE('',*,*,#290,.F.);
#292=ORIENTED_EDGE('',*,*,#246,.T.);
#293=EDGE_LOOP('',(#277,#285,#291,#292));
#294=FACE_OUTER_BOUND('',#293,.T.);
#295=ADVANCED_FACE('',(#294),#269,.T.);
#296=CARTESIAN_POINT('',(0.500000000000000,0.299999999999999,2.0));
#297=DIRECTION('',(0.0,1.0,0.0));
#298=DIRECTION('',(-1.0,0.0,0.0));
#299=AXIS2_PLACEMENT_3D('',#296,#297,#298);
#300=PLANE('',#299);
#301=CARTESIAN_POINT('',(-0.499999999999999,0.299999999999997,-3.999999999999997));
#302=VERTEX_POINT('',#301);
#303=CARTESIAN_POINT('',(0.500000000000001,0.299999999999997,-3.999999999999999));
#304=DIRECTION('',(-1.0,0.0,0.0));
#305=VECTOR('',#304,1.0);
#306=LINE('',#303,#305);
#307=EDGE_CURVE('',#271,#302,#306,.T.);
#308=ORIENTED_EDGE('',*,*,#307,.T.);
#309=CARTESIAN_POINT('',(-0.500000000000000,0.300000000000000,2.0));
#310=VERTEX_POINT('',#309);
#311=CARTESIAN_POINT('',(-0.500000000000000,0.300000000000000,2.0));
#312=DIRECTION('',(0.0,0.0,-1.0));
#313=VECTOR('',#312,5.999999999999997);
#314=LINE('',#311,#313);
#315=EDGE_CURVE('',#310,#302,#314,.T.);
#316=ORIENTED_EDGE('',*,*,#315,.F.);
#317=CARTESIAN_POINT('',(0.500000000000000,0.299999999999999,2.0));
#318=DIRECTION('',(-1.0,0.0,0.0));
#319=VECTOR('',#318,1.0);
#320=LINE('',#317,#319);
#321=EDGE_CURVE('',#279,#310,#320,.T.);
#322=ORIENTED_EDGE('',*,*,#321,.F.);
#323=ORIENTED_EDGE('',*,*,#284,.T.);
#324=EDGE_LOOP('',(#308,#316,#322,#323));
#325=FACE_OUTER_BOUND('',#324,.T.);
#326=ADVANCED_FACE('',(#325),#300,.T.);
#327=CARTESIAN_POINT('',(-0.500000000000000,0.300000000000000,2.0));
#328=DIRECTION('',(-1.0,0.0,0.0));
#329=DIRECTION('',(0.0,-1.0,0.0));
#330=AXIS2_PLACEMENT_3D('',#327,#328,#329);
#331=PLANE('',#330);
#332=CARTESIAN_POINT('',(-0.499999999999999,0.299999999999997,-3.999999999999999));
#333=DIRECTION('',(0.0,-1.0,0.0));
#334=VECTOR('',#333,0.600000000000000);
#335=LINE('',#332,#334);
#336=EDGE_CURVE('',#302,#231,#335,.T.);
#337=ORIENTED_EDGE('',*,*,#336,.T.);
#338=ORIENTED_EDGE('',*,*,#260,.F.);
#339=CARTESIAN_POINT('',(-0.500000000000000,0.300000000000000,2.0));
#340=DIRECTION('',(0.0,-1.0,0.0));
#341=VECTOR('',#340,0.600000000000000);
#342=LINE('',#339,#341);
#343=EDGE_CURVE('',#310,#249,#342,.T.);
#344=ORIENTED_EDGE('',*,*,#343,.F.);
#345=ORIENTED_EDGE('',*,*,#315,.T.);
#346=EDGE_LOOP('',(#337,#338,#344,#345));
#347=FACE_OUTER_BOUND('',#346,.T.);
#348=ADVANCED_FACE('',(#347),#331,.T.);
#349=CARTESIAN_POINT('',(1.451019E-016,-3.996803E-015,-3.999999999999997));
#350=DIRECTION('',(0.0,0.0,1.0));
#351=DIRECTION('',(0.0,-1.0,0.0));
#352=AXIS2_PLACEMENT_3D('',#349,#350,#351);
#353=PLANE('',#352);
#354=ORIENTED_EDGE('',*,*,#336,.F.);
#355=ORIENTED_EDGE('',*,*,#307,.F.);
#356=ORIENTED_EDGE('',*,*,#276,.F.);
#357=ORIENTED_EDGE('',*,*,#238,.F.);
#358=EDGE_LOOP('',(#354,#355,#356,#357));
#359=FACE_OUTER_BOUND('',#358,.T.);
#360=ADVANCED_FACE('',(#359),#353,.F.);
#361=CARTESIAN_POINT('',(-9.651212E-016,-1.332268E-015,2.000000000000001));
#362=DIRECTION('',(0.0,0.0,1.0));
#363=DIRECTION('',(0.0,-1.0,0.0));
#364=AXIS2_PLACEMENT_3D('',#361,#362,#363);
#365=PLANE('',#364);
#366=ORIENTED_EDGE('',*,*,#321,.T.);
#367=ORIENTED_EDGE('',*,*,#343,.T.);
#368=ORIENTED_EDGE('',*,*,#254,.T.);
#369=ORIENTED_EDGE('',*,*,#290,.T.);
#370=EDGE_LOOP('',(#366,#367,#368,#369));
#371=FACE_OUTER_BOUND('',#370,.T.);
#372=ADVANCED_FACE('',(#371),#365,.T.);
#373=CLOSED_SHELL('',(#264,#295,#326,#348,#360,#372));
#374=MANIFOLD_SOLID_BREP('DB3',#373);
#375=STYLED_ITEM('NONE',(#221),#374);
#376=CARTESIAN_POINT('',(-5.950000000000000,-0.299999999999998,1.999999999999999));
#377=DIRECTION('',(0.0,-1.0,0.0));
#378=DIRECTION('',(1.0,0.0,0.0));
#379=AXIS2_PLACEMENT_3D('',#376,#377,#378);
#380=PLANE('',#379);
#381=CARTESIAN_POINT('',(-5.949999999999999,-0.300000000000000,-3.999999999999999));
#382=VERTEX_POINT('',#381);
#383=CARTESIAN_POINT('',(-4.949999999999999,-0.300000000000001,-3.999999999999999));
#384=VERTEX_POINT('',#383);
#385=CARTESIAN_POINT('',(-5.949999999999999,-0.300000000000001,-4.000000000000001));
#386=DIRECTION('',(1.0,0.0,0.0));
#387=VECTOR('',#386,1.0);
#388=LINE('',#385,#387);
#389=EDGE_CURVE('',#382,#384,#388,.T.);
#390=ORIENTED_EDGE('',*,*,#389,.T.);
#391=CARTESIAN_POINT('',(-4.950000000000000,-0.299999999999998,1.999999999999999));
#392=VERTEX_POINT('',#391);
#393=CARTESIAN_POINT('',(-4.950000000000000,-0.299999999999998,1.999999999999999));
#394=DIRECTION('',(0.0,0.0,-1.0));
#395=VECTOR('',#394,5.999999999999998);
#396=LINE('',#393,#395);
#397=EDGE_CURVE('',#392,#384,#396,.T.);
#398=ORIENTED_EDGE('',*,*,#397,.F.);
#399=CARTESIAN_POINT('',(-5.950000000000000,-0.299999999999998,1.999999999999999));
#400=VERTEX_POINT('',#399);
#401=CARTESIAN_POINT('',(-5.950000000000000,-0.299999999999998,1.999999999999999));
#402=DIRECTION('',(1.0,0.0,0.0));
#403=VECTOR('',#402,1.0);
#404=LINE('',#401,#403);
#405=EDGE_CURVE('',#400,#392,#404,.T.);
#406=ORIENTED_EDGE('',*,*,#405,.F.);
#407=CARTESIAN_POINT('',(-5.950000000000000,-0.299999999999998,1.999999999999999));
#408=DIRECTION('',(0.0,0.0,-1.0));
#409=VECTOR('',#408,5.999999999999998);
#410=LINE('',#407,#409);
#411=EDGE_CURVE('',#400,#382,#410,.T.);
#412=ORIENTED_EDGE('',*,*,#411,.T.);
#413=EDGE_LOOP('',(#390,#398,#406,#412));
#414=FACE_OUTER_BOUND('',#413,.T.);
#415=ADVANCED_FACE('',(#414),#380,.T.);
#416=CARTESIAN_POINT('',(-4.950000000000000,-0.299999999999998,1.999999999999999));
#417=DIRECTION('',(1.0,0.0,0.0));
#418=DIRECTION('',(0.0,1.0,0.0));
#419=AXIS2_PLACEMENT_3D('',#416,#417,#418);
#420=PLANE('',#419);
#421=CARTESIAN_POINT('',(-4.949999999999999,0.299999999999999,-3.999999999999999));
#422=VERTEX_POINT('',#421);
#423=CARTESIAN_POINT('',(-4.949999999999999,-0.300000000000001,-4.000000000000001));
#424=DIRECTION('',(0.0,1.0,0.0));
#425=VECTOR('',#424,0.600000000000000);
#426=LINE('',#423,#425);
#427=EDGE_CURVE('',#384,#422,#426,.T.);
#428=ORIENTED_EDGE('',*,*,#427,.T.);
#429=CARTESIAN_POINT('',(-4.950000000000000,0.300000000000002,1.999999999999999));
#430=VERTEX_POINT('',#429);
#431=CARTESIAN_POINT('',(-4.950000000000000,0.300000000000002,1.999999999999999));
#432=DIRECTION('',(0.0,0.0,-1.0));
#433=VECTOR('',#432,5.999999999999998);
#434=LINE('',#431,#433);
#435=EDGE_CURVE('',#430,#422,#434,.T.);
#436=ORIENTED_EDGE('',*,*,#435,.F.);
#437=CARTESIAN_POINT('',(-4.950000000000000,-0.299999999999998,1.999999999999999));
#438=DIRECTION('',(0.0,1.0,0.0));
#439=VECTOR('',#438,0.600000000000000);
#440=LINE('',#437,#439);
#441=EDGE_CURVE('',#392,#430,#440,.T.);
#442=ORIENTED_EDGE('',*,*,#441,.F.);
#443=ORIENTED_EDGE('',*,*,#397,.T.);
#444=EDGE_LOOP('',(#428,#436,#442,#443));
#445=FACE_OUTER_BOUND('',#444,.T.);
#446=ADVANCED_FACE('',(#445),#420,.T.);
#447=CARTESIAN_POINT('',(-4.950000000000000,0.300000000000002,1.999999999999999));
#448=DIRECTION('',(0.0,1.0,0.0));
#449=DIRECTION('',(-1.0,0.0,0.0));
#450=AXIS2_PLACEMENT_3D('',#447,#448,#449);
#451=PLANE('',#450);
#452=CARTESIAN_POINT('',(-5.949999999999999,0.299999999999999,-3.999999999999999));
#453=VERTEX_POINT('',#452);
#454=CARTESIAN_POINT('',(-4.949999999999999,0.299999999999999,-4.000000000000001));
#455=DIRECTION('',(-1.0,0.0,0.0));
#456=VECTOR('',#455,1.0);
#457=LINE('',#454,#456);
#458=EDGE_CURVE('',#422,#453,#457,.T.);
#459=ORIENTED_EDGE('',*,*,#458,.T.);
#460=CARTESIAN_POINT('',(-5.950000000000000,0.300000000000002,1.999999999999999));
#461=VERTEX_POINT('',#460);
#462=CARTESIAN_POINT('',(-5.950000000000000,0.300000000000002,1.999999999999999));
#463=DIRECTION('',(0.0,0.0,-1.0));
#464=VECTOR('',#463,5.999999999999998);
#465=LINE('',#462,#464);
#466=EDGE_CURVE('',#461,#453,#465,.T.);
#467=ORIENTED_EDGE('',*,*,#466,.F.);
#468=CARTESIAN_POINT('',(-4.950000000000000,0.300000000000002,1.999999999999999));
#469=DIRECTION('',(-1.0,0.0,0.0));
#470=VECTOR('',#469,1.0);
#471=LINE('',#468,#470);
#472=EDGE_CURVE('',#430,#461,#471,.T.);
#473=ORIENTED_EDGE('',*,*,#472,.F.);
#474=ORIENTED_EDGE('',*,*,#435,.T.);
#475=EDGE_LOOP('',(#459,#467,#473,#474));
#476=FACE_OUTER_BOUND('',#475,.T.);
#477=ADVANCED_FACE('',(#476),#451,.T.);
#478=CARTESIAN_POINT('',(-5.950000000000000,0.300000000000002,1.999999999999999));
#479=DIRECTION('',(-1.0,0.0,0.0));
#480=DIRECTION('',(0.0,-1.0,0.0));
#481=AXIS2_PLACEMENT_3D('',#478,#479,#480);
#482=PLANE('',#481);
#483=CARTESIAN_POINT('',(-5.949999999999999,0.299999999999999,-4.000000000000001));
#484=DIRECTION('',(0.0,-1.0,0.0));
#485=VECTOR('',#484,0.599999999999999);
#486=LINE('',#483,#485);
#487=EDGE_CURVE('',#453,#382,#486,.T.);
#488=ORIENTED_EDGE('',*,*,#487,.T.);
#489=ORIENTED_EDGE('',*,*,#411,.F.);
#490=CARTESIAN_POINT('',(-5.950000000000000,0.300000000000002,1.999999999999999));
#491=DIRECTION('',(0.0,-1.0,0.0));
#492=VECTOR('',#491,0.600000000000000);
#493=LINE('',#490,#492);
#494=EDGE_CURVE('',#461,#400,#493,.T.);
#495=ORIENTED_EDGE('',*,*,#494,.F.);
#496=ORIENTED_EDGE('',*,*,#466,.T.);
#497=EDGE_LOOP('',(#488,#489,#495,#496));
#498=FACE_OUTER_BOUND('',#497,.T.);
#499=ADVANCED_FACE('',(#498),#482,.T.);
#500=CARTESIAN_POINT('',(-5.450000000000000,-1.776357E-015,-3.999999999999999));
#501=DIRECTION('',(0.0,0.0,1.0));
#502=DIRECTION('',(0.0,-1.0,0.0));
#503=AXIS2_PLACEMENT_3D('',#500,#501,#502);
#504=PLANE('',#503);
#505=ORIENTED_EDGE('',*,*,#487,.F.);
#506=ORIENTED_EDGE('',*,*,#458,.F.);
#507=ORIENTED_EDGE('',*,*,#427,.F.);
#508=ORIENTED_EDGE('',*,*,#389,.F.);
#509=EDGE_LOOP('',(#505,#506,#507,#508));
#510=FACE_OUTER_BOUND('',#509,.T.);
#511=ADVANCED_FACE('',(#510),#504,.F.);
#512=CARTESIAN_POINT('',(-5.450000000000001,8.881784E-016,2.0));
#513=DIRECTION('',(0.0,0.0,1.0));
#514=DIRECTION('',(0.0,-1.0,0.0));
#515=AXIS2_PLACEMENT_3D('',#512,#513,#514);
#516=PLANE('',#515);
#517=ORIENTED_EDGE('',*,*,#472,.T.);
#518=ORIENTED_EDGE('',*,*,#494,.T.);
#519=ORIENTED_EDGE('',*,*,#405,.T.);
#520=ORIENTED_EDGE('',*,*,#441,.T.);
#521=EDGE_LOOP('',(#517,#518,#519,#520));
#522=FACE_OUTER_BOUND('',#521,.T.);
#523=ADVANCED_FACE('',(#522),#516,.T.);
#524=CLOSED_SHELL('',(#415,#446,#477,#499,#511,#523));
#525=MANIFOLD_SOLID_BREP('DAF',#524);
#526=STYLED_ITEM('NONE',(#221),#525);
#527=CARTESIAN_POINT('',(4.420000000000000,1.332268E-015,9.214705882352941));
#528=DIRECTION('',(-0.992613517897528,-0.121319429965253,-1.860377E-016));
#529=DIRECTION('',(0.121319429965253,-0.992613517897528,3.081208E-016));
#530=AXIS2_PLACEMENT_3D('',#527,#528,#529);
#531=PLANE('',#530);
#532=CARTESIAN_POINT('',(4.420000000000001,4.440892E-016,6.000000000000001));
#533=VERTEX_POINT('',#532);
#534=CARTESIAN_POINT('',(4.640000000000001,-1.799999999999999,6.220000000000002));
#535=VERTEX_POINT('',#534);
#536=CARTESIAN_POINT('',(4.420000000000002,5.551115E-016,6.000000000000001));
#537=DIRECTION('',(0.120436352022618,-0.985388334730510,0.120436352022618));
#538=VECTOR('',#537,1.826690997404870);
#539=LINE('',#536,#538);
#540=EDGE_CURVE('',#533,#535,#539,.T.);
#541=ORIENTED_EDGE('',*,*,#540,.T.);
#542=CARTESIAN_POINT('',(4.640000000000001,-1.799999999999999,8.000000000000002));
#543=VERTEX_POINT('',#542);
#544=CARTESIAN_POINT('',(4.640000000000001,-1.799999999999999,6.220000000000001));
#545=DIRECTION('',(0.0,0.0,1.0));
#546=VECTOR('',#545,1.780000000000001);
#547=LINE('',#544,#546);
#548=EDGE_CURVE('',#535,#543,#547,.T.);
#549=ORIENTED_EDGE('',*,*,#548,.T.);
#550=CARTESIAN_POINT('',(4.200000000000001,1.800000000000001,8.0));
#551=VERTEX_POINT('',#550);
#552=CARTESIAN_POINT('',(4.200000000000001,1.800000000000001,8.0));
#553=DIRECTION('',(0.121319429965253,-0.992613517897528,0.0));
#554=VECTOR('',#553,3.626789213615812);
#555=LINE('',#552,#554);
#556=EDGE_CURVE('',#543,#551,#555,.F.);
#557=ORIENTED_EDGE('',*,*,#556,.T.);
#558=CARTESIAN_POINT('',(4.200000000000001,1.800000000000000,6.220000000000001));
#559=VERTEX_POINT('',#558);
#560=CARTESIAN_POINT('',(4.200000000000001,1.800000000000000,6.220000000000001));
#561=DIRECTION('',(0.0,0.0,1.0));
#562=VECTOR('',#561,1.779999999999999);
#563=LINE('',#560,#562);
#564=EDGE_CURVE('',#559,#551,#563,.T.);
#565=ORIENTED_EDGE('',*,*,#564,.F.);
#566=CARTESIAN_POINT('',(4.200000000000000,1.800000000000001,6.220000000000001));
#567=DIRECTION('',(0.120436352022618,-0.985388334730510,-0.120436352022618));
#568=VECTOR('',#567,1.826690997404871);
#569=LINE('',#566,#568);
#570=EDGE_CURVE('',#559,#533,#569,.T.);
#571=ORIENTED_EDGE('',*,*,#570,.T.);
#572=EDGE_LOOP('',(#541,#549,#557,#565,#571));
#573=FACE_OUTER_BOUND('',#572,.T.);
#574=ADVANCED_FACE('',(#573),#531,.T.);
#575=CARTESIAN_POINT('',(-2.709151E-015,-1.799999999999997,12.429411764705881));
#576=DIRECTION('',(0.0,-1.0,0.0));
#577=DIRECTION('',(1.0,0.0,0.0));
#578=AXIS2_PLACEMENT_3D('',#575,#576,#577);
#579=PLANE('',#578);
#580=CARTESIAN_POINT('',(1.459999999999998,-1.799999999999999,8.0));
#581=VERTEX_POINT('',#580);
#582=CARTESIAN_POINT('',(4.640000000000000,-1.799999999999999,8.0));
#583=DIRECTION('',(-1.0,0.0,0.0));
#584=VECTOR('',#583,3.180000000000002);
#585=LINE('',#582,#584);
#586=EDGE_CURVE('',#543,#581,#585,.T.);
#587=ORIENTED_EDGE('',*,*,#586,.F.);
#588=ORIENTED_EDGE('',*,*,#548,.F.);
#589=CARTESIAN_POINT('',(7.567999999999999,-1.800000000000000,6.220000000000003));
#590=VERTEX_POINT('',#589);
#591=CARTESIAN_POINT('',(7.567999999999998,-1.800000000000000,6.220000000000002));
#592=DIRECTION('',(-1.0,0.0,0.0));
#593=VECTOR('',#592,2.927999999999997);
#594=LINE('',#591,#593);
#595=EDGE_CURVE('',#590,#535,#594,.T.);
#596=ORIENTED_EDGE('',*,*,#595,.F.);
#597=CARTESIAN_POINT('',(7.567999999999996,-1.799999999999997,19.699999999999996));
#598=VERTEX_POINT('',#597);
#599=CARTESIAN_POINT('',(7.567999999999999,-1.800000000000000,6.220000000000002));
#600=DIRECTION('',(0.0,0.0,1.0));
#601=VECTOR('',#600,13.479999999999993);
#602=LINE('',#599,#601);
#603=EDGE_CURVE('',#598,#590,#602,.F.);
#604=ORIENTED_EDGE('',*,*,#603,.F.);
#605=CARTESIAN_POINT('',(-7.568000000000003,-1.799999999999993,19.699999999999992));
#606=VERTEX_POINT('',#605);
#607=CARTESIAN_POINT('',(-7.568000000000003,-1.799999999999993,19.699999999999992));
#608=DIRECTION('',(1.0,0.0,0.0));
#609=VECTOR('',#608,15.135999999999999);
#610=LINE('',#607,#609);
#611=EDGE_CURVE('',#606,#598,#610,.T.);
#612=ORIENTED_EDGE('',*,*,#611,.F.);
#613=CARTESIAN_POINT('',(-7.568000000000001,-1.799999999999997,6.219999999999999));
#614=VERTEX_POINT('',#613);
#615=CARTESIAN_POINT('',(-7.568000000000003,-1.799999999999993,19.699999999999996));
#616=DIRECTION('',(0.0,0.0,-1.0));
#617=VECTOR('',#616,13.479999999999997);
#618=LINE('',#615,#617);
#619=EDGE_CURVE('',#614,#606,#618,.F.);
#620=ORIENTED_EDGE('',*,*,#619,.F.);
#621=CARTESIAN_POINT('',(-4.640000000000002,-1.799999999999998,6.220000000000000));
#622=VERTEX_POINT('',#621);
#623=CARTESIAN_POINT('',(-4.640000000000002,-1.799999999999997,6.219999999999999));
#624=DIRECTION('',(-1.0,0.0,0.0));
#625=VECTOR('',#624,2.927999999999999);
#626=LINE('',#623,#625);
#627=EDGE_CURVE('',#622,#614,#626,.T.);
#628=ORIENTED_EDGE('',*,*,#627,.F.);
#629=CARTESIAN_POINT('',(-4.640000000000002,-1.799999999999997,8.0));
#630=VERTEX_POINT('',#629);
#631=CARTESIAN_POINT('',(-4.640000000000002,-1.799999999999997,8.0));
#632=DIRECTION('',(0.0,0.0,-1.0));
#633=VECTOR('',#632,1.780000000000000);
#634=LINE('',#631,#633);
#635=EDGE_CURVE('',#630,#622,#634,.T.);
#636=ORIENTED_EDGE('',*,*,#635,.F.);
#637=CARTESIAN_POINT('',(-1.460000000000002,-1.799999999999998,8.0));
#638=VERTEX_POINT('',#637);
#639=CARTESIAN_POINT('',(-1.460000000000001,-1.799999999999997,8.0));
#640=DIRECTION('',(-1.0,0.0,0.0));
#641=VECTOR('',#640,3.180000000000002);
#642=LINE('',#639,#641);
#643=EDGE_CURVE('',#638,#630,#642,.T.);
#644=ORIENTED_EDGE('',*,*,#643,.F.);
#645=CARTESIAN_POINT('',(-1.460000000000001,-1.799999999999999,6.220000000000000));
#646=VERTEX_POINT('',#645);
#647=CARTESIAN_POINT('',(-1.460000000000001,-1.799999999999999,6.220000000000001));
#648=DIRECTION('',(0.0,0.0,1.0));
#649=VECTOR('',#648,1.780000000000001);
#650=LINE('',#647,#649);
#651=EDGE_CURVE('',#646,#638,#650,.T.);
#652=ORIENTED_EDGE('',*,*,#651,.F.);
#653=CARTESIAN_POINT('',(1.459999999999998,-1.799999999999999,6.220000000000001));
#654=VERTEX_POINT('',#653);
#655=CARTESIAN_POINT('',(1.459999999999998,-1.799999999999999,6.220000000000001));
#656=DIRECTION('',(-1.0,0.0,0.0));
#657=VECTOR('',#656,2.919999999999999);
#658=LINE('',#655,#657);
#659=EDGE_CURVE('',#654,#646,#658,.T.);
#660=ORIENTED_EDGE('',*,*,#659,.F.);
#661=CARTESIAN_POINT('',(1.459999999999998,-1.799999999999998,8.000000000000002));
#662=DIRECTION('',(0.0,0.0,-1.0));
#663=VECTOR('',#662,1.780000000000000);
#664=LINE('',#661,#663);
#665=EDGE_CURVE('',#581,#654,#664,.T.);
#666=ORIENTED_EDGE('',*,*,#665,.F.);
#667=EDGE_LOOP('',(#587,#588,#596,#604,#612,#620,#628,#636,#644,#652,#660,#666));
#668=FACE_OUTER_BOUND('',#667,.T.);
#669=ADVANCED_FACE('',(#668),#579,.T.);
#670=CARTESIAN_POINT('',(3.999999999999999,-0.899999999999999,6.110000000000001));
#671=DIRECTION('',(1.934662E-016,-0.121319429965254,-0.992613517897528));
#672=DIRECTION('',(2.473428E-016,0.992613517897528,-0.121319429965254));
#673=AXIS2_PLACEMENT_3D('',#670,#671,#672);
#674=PLANE('',#673);
#675=ORIENTED_EDGE('',*,*,#540,.F.);
#676=CARTESIAN_POINT('',(7.783999999999999,-4.440892E-016,6.000000000000002));
#677=VERTEX_POINT('',#676);
#678=CARTESIAN_POINT('',(4.420000000000001,3.508305E-016,6.000000000000001));
#679=DIRECTION('',(1.0,0.0,0.0));
#680=VECTOR('',#679,3.363999999999998);
#681=LINE('',#678,#680);
#682=EDGE_CURVE('',#533,#677,#681,.T.);
#683=ORIENTED_EDGE('',*,*,#682,.T.);
#684=CARTESIAN_POINT('',(7.783999999999999,-4.440892E-016,6.000000000000002));
#685=DIRECTION('',(-0.118277513459346,-0.985645945494549,0.120467837782667));
#686=VECTOR('',#685,1.826213569109594);
#687=LINE('',#684,#686);
#688=EDGE_CURVE('',#677,#590,#687,.T.);
#689=ORIENTED_EDGE('',*,*,#688,.T.);
#690=ORIENTED_EDGE('',*,*,#595,.T.);
#691=EDGE_LOOP('',(#675,#683,#689,#690));
#692=FACE_OUTER_BOUND('',#691,.T.);
#693=ADVANCED_FACE('',(#692),#674,.T.);
#694=CARTESIAN_POINT('',(4.000000000000000,0.900000000000000,6.110000000000001));
#695=DIRECTION('',(2.473428E-016,0.121319429965253,-0.992613517897528));
#696=DIRECTION('',(1.934662E-016,0.992613517897528,0.121319429965253));
#697=AXIS2_PLACEMENT_3D('',#694,#695,#696);
#698=PLANE('',#697);
#699=ORIENTED_EDGE('',*,*,#570,.F.);
#700=CARTESIAN_POINT('',(8.0,1.799999999999999,6.220000000000002));
#701=VERTEX_POINT('',#700);
#702=CARTESIAN_POINT('',(4.200000000000001,1.800000000000000,6.220000000000001));
#703=DIRECTION('',(1.0,0.0,0.0));
#704=VECTOR('',#703,3.799999999999999);
#705=LINE('',#702,#704);
#706=EDGE_CURVE('',#559,#701,#705,.T.);
#707=ORIENTED_EDGE('',*,*,#706,.T.);
#708=CARTESIAN_POINT('',(7.999999999999998,1.800000000000000,6.220000000000001));
#709=DIRECTION('',(-0.118277513459346,-0.985645945494549,-0.120467837782667));
#710=VECTOR('',#709,1.826213569109593);
#711=LINE('',#708,#710);
#712=EDGE_CURVE('',#701,#677,#711,.T.);
#713=ORIENTED_EDGE('',*,*,#712,.T.);
#714=ORIENTED_EDGE('',*,*,#682,.F.);
#715=EDGE_LOOP('',(#699,#707,#713,#714));
#716=FACE_OUTER_BOUND('',#715,.T.);
#717=ADVANCED_FACE('',(#716),#698,.T.);
#718=CARTESIAN_POINT('',(1.679999999999998,2.220446E-015,10.214705882352940));
#719=DIRECTION('',(0.992613517897528,-0.121319429965254,1.445690E-016));
#720=DIRECTION('',(0.121319429965254,0.992613517897528,-2.542442E-016));
#721=AXIS2_PLACEMENT_3D('',#718,#719,#720);
#722=PLANE('',#721);
#723=CARTESIAN_POINT('',(1.679999999999999,8.881784E-016,6.000000000000001));
#724=VERTEX_POINT('',#723);
#725=CARTESIAN_POINT('',(1.899999999999999,1.800000000000001,6.220000000000001));
#726=VERTEX_POINT('',#725);
#727=CARTESIAN_POINT('',(1.679999999999999,8.881784E-016,6.0));
#728=DIRECTION('',(0.120436352022618,0.985388334730510,0.120436352022618));
#729=VECTOR('',#728,1.826690997404870);
#730=LINE('',#727,#729);
#731=EDGE_CURVE('',#724,#726,#730,.T.);
#732=ORIENTED_EDGE('',*,*,#731,.T.);
#733=CARTESIAN_POINT('',(1.899999999999999,1.800000000000001,8.0));
#734=VERTEX_POINT('',#733);
#735=CARTESIAN_POINT('',(1.899999999999999,1.800000000000001,8.0));
#736=DIRECTION('',(0.0,0.0,-1.0));
#737=VECTOR('',#736,1.779999999999999);
#738=LINE('',#735,#737);
#739=EDGE_CURVE('',#734,#726,#738,.T.);
#740=ORIENTED_EDGE('',*,*,#739,.F.);
#741=CARTESIAN_POINT('',(1.459999999999998,-1.799999999999999,8.0));
#742=DIRECTION('',(0.121319429965254,0.992613517897528,0.0));
#743=VECTOR('',#742,3.626789213615812);
#744=LINE('',#741,#743);
#745=EDGE_CURVE('',#734,#581,#744,.F.);
#746=ORIENTED_EDGE('',*,*,#745,.T.);
#747=ORIENTED_EDGE('',*,*,#665,.T.);
#748=CARTESIAN_POINT('',(1.459999999999998,-1.799999999999998,6.220000000000001));
#749=DIRECTION('',(0.120436352022618,0.985388334730510,-0.120436352022618));
#750=VECTOR('',#749,1.826690997404870);
#751=LINE('',#748,#750);
#752=EDGE_CURVE('',#654,#724,#751,.T.);
#753=ORIENTED_EDGE('',*,*,#752,.T.);
#754=EDGE_LOOP('',(#732,#740,#746,#747,#753));
#755=FACE_OUTER_BOUND('',#754,.T.);
#756=ADVANCED_FACE('',(#755),#722,.T.);
#757=CARTESIAN_POINT('',(0.949999999999999,-0.899999999999998,6.110000000000000));
#758=DIRECTION('',(1.934662E-016,-0.121319429965254,-0.992613517897528));
#759=DIRECTION('',(2.473428E-016,0.992613517897528,-0.121319429965254));
#760=AXIS2_PLACEMENT_3D('',#757,#758,#759);
#761=PLANE('',#760);
#762=ORIENTED_EDGE('',*,*,#752,.F.);
#763=ORIENTED_EDGE('',*,*,#659,.T.);
#764=CARTESIAN_POINT('',(-1.680000000000001,1.776357E-015,6.0));
#765=VERTEX_POINT('',#764);
#766=CARTESIAN_POINT('',(-1.680000000000001,1.332268E-015,6.0));
#767=DIRECTION('',(0.120436352022618,-0.985388334730510,0.120436352022618));
#768=VECTOR('',#767,1.826690997404870);
#769=LINE('',#766,#768);
#770=EDGE_CURVE('',#765,#646,#769,.T.);
#771=ORIENTED_EDGE('',*,*,#770,.F.);
#772=CARTESIAN_POINT('',(-1.680000000000001,1.472156E-015,5.999999999999999));
#773=DIRECTION('',(1.0,0.0,0.0));
#774=VECTOR('',#773,3.359999999999999);
#775=LINE('',#772,#774);
#776=EDGE_CURVE('',#765,#724,#775,.T.);
#777=ORIENTED_EDGE('',*,*,#776,.T.);
#778=EDGE_LOOP('',(#762,#763,#771,#777));
#779=FACE_OUTER_BOUND('',#778,.T.);
#780=ADVANCED_FACE('',(#779),#761,.T.);
#781=CARTESIAN_POINT('',(-1.680000000000002,2.664535E-015,9.214705882352940));
#782=DIRECTION('',(-0.992613517897528,-0.121319429965253,-2.962400E-016));
#783=DIRECTION('',(0.121319429965253,-0.992613517897528,3.081208E-016));
#784=AXIS2_PLACEMENT_3D('',#781,#782,#783);
#785=PLANE('',#784);
#786=ORIENTED_EDGE('',*,*,#770,.T.);
#787=ORIENTED_EDGE('',*,*,#651,.T.);
#788=CARTESIAN_POINT('',(-1.900000000000001,1.800000000000002,7.999999999999999));
#789=VERTEX_POINT('',#788);
#790=CARTESIAN_POINT('',(-1.900000000000001,1.800000000000002,8.0));
#791=DIRECTION('',(0.121319429965253,-0.992613517897528,0.0));
#792=VECTOR('',#791,3.626789213615812);
#793=LINE('',#790,#792);
#794=EDGE_CURVE('',#638,#789,#793,.F.);
#795=ORIENTED_EDGE('',*,*,#794,.T.);
#796=CARTESIAN_POINT('',(-1.900000000000000,1.800000000000002,6.220000000000000));
#797=VERTEX_POINT('',#796);
#798=CARTESIAN_POINT('',(-1.900000000000000,1.800000000000002,6.219999999999999));
#799=DIRECTION('',(0.0,0.0,1.0));
#800=VECTOR('',#799,1.780000000000000);
#801=LINE('',#798,#800);
#802=EDGE_CURVE('',#797,#789,#801,.T.);
#803=ORIENTED_EDGE('',*,*,#802,.F.);
#804=CARTESIAN_POINT('',(-1.900000000000000,1.800000000000002,6.220000000000000));
#805=DIRECTION('',(0.120436352022618,-0.985388334730510,-0.120436352022618));
#806=VECTOR('',#805,1.826690997404870);
#807=LINE('',#804,#806);
#808=EDGE_CURVE('',#797,#765,#807,.T.);
#809=ORIENTED_EDGE('',*,*,#808,.T.);
#810=EDGE_LOOP('',(#786,#787,#795,#803,#809));
#811=FACE_OUTER_BOUND('',#810,.T.);
#812=ADVANCED_FACE('',(#811),#785,.T.);
#813=CARTESIAN_POINT('',(0.949999999999999,0.900000000000001,6.110000000000000));
#814=DIRECTION('',(2.473428E-016,0.121319429965253,-0.992613517897528));
#815=DIRECTION('',(1.934662E-016,0.992613517897528,0.121319429965253));
#816=AXIS2_PLACEMENT_3D('',#813,#814,#815);
#817=PLANE('',#816);
#818=ORIENTED_EDGE('',*,*,#731,.F.);
#819=ORIENTED_EDGE('',*,*,#776,.F.);
#820=ORIENTED_EDGE('',*,*,#808,.F.);
#821=CARTESIAN_POINT('',(-1.900000000000000,1.800000000000002,6.219999999999999));
#822=DIRECTION('',(1.0,0.0,0.0));
#823=VECTOR('',#822,3.799999999999999);
#824=LINE('',#821,#823);
#825=EDGE_CURVE('',#797,#726,#824,.T.);
#826=ORIENTED_EDGE('',*,*,#825,.T.);
#827=EDGE_LOOP('',(#818,#819,#820,#826));
#828=FACE_OUTER_BOUND('',#827,.T.);
#829=ADVANCED_FACE('',(#828),#817,.T.);
#830=CARTESIAN_POINT('',(-4.420000000000004,3.552714E-015,10.214705882352938));
#831=DIRECTION('',(0.992613517897528,-0.121319429965254,2.547712E-016));
#832=DIRECTION('',(0.121319429965254,0.992613517897528,-2.542442E-016));
#833=AXIS2_PLACEMENT_3D('',#830,#831,#832);
#834=PLANE('',#833);
#835=CARTESIAN_POINT('',(-4.420000000000003,2.220446E-015,5.999999999999999));
#836=VERTEX_POINT('',#835);
#837=CARTESIAN_POINT('',(-4.200000000000001,1.800000000000002,6.219999999999999));
#838=VERTEX_POINT('',#837);
#839=CARTESIAN_POINT('',(-4.420000000000003,2.109424E-015,5.999999999999998));
#840=DIRECTION('',(0.120436352022618,0.985388334730510,0.120436352022618));
#841=VECTOR('',#840,1.826690997404870);
#842=LINE('',#839,#841);
#843=EDGE_CURVE('',#836,#838,#842,.T.);
#844=ORIENTED_EDGE('',*,*,#843,.T.);
#845=CARTESIAN_POINT('',(-4.200000000000001,1.800000000000003,7.999999999999999));
#846=VERTEX_POINT('',#845);
#847=CARTESIAN_POINT('',(-4.200000000000001,1.800000000000003,7.999999999999999));
#848=DIRECTION('',(0.0,0.0,-1.0));
#849=VECTOR('',#848,1.780000000000000);
#850=LINE('',#847,#849);
#851=EDGE_CURVE('',#846,#838,#850,.T.);
#852=ORIENTED_EDGE('',*,*,#851,.F.);
#853=CARTESIAN_POINT('',(-4.640000000000003,-1.799999999999998,8.0));
#854=DIRECTION('',(0.121319429965254,0.992613517897528,-2.448939E-016));
#855=VECTOR('',#854,3.626789213615812);
#856=LINE('',#853,#855);
#857=EDGE_CURVE('',#846,#630,#856,.F.);
#858=ORIENTED_EDGE('',*,*,#857,.T.);
#859=ORIENTED_EDGE('',*,*,#635,.T.);
#860=CARTESIAN_POINT('',(-4.640000000000002,-1.799999999999997,6.219999999999999));
#861=DIRECTION('',(0.120436352022618,0.985388334730510,-0.120436352022618));
#862=VECTOR('',#861,1.826690997404870);
#863=LINE('',#860,#862);
#864=EDGE_CURVE('',#622,#836,#863,.T.);
#865=ORIENTED_EDGE('',*,*,#864,.T.);
#866=EDGE_LOOP('',(#844,#852,#858,#859,#865));
#867=FACE_OUTER_BOUND('',#866,.T.);
#868=ADVANCED_FACE('',(#867),#834,.T.);
#869=CARTESIAN_POINT('',(-2.100000000000001,0.900000000000002,6.109999999999999));
#870=DIRECTION('',(2.473428E-016,0.121319429965253,-0.992613517897528));
#871=DIRECTION('',(1.934662E-016,0.992613517897528,0.121319429965253));
#872=AXIS2_PLACEMENT_3D('',#869,#870,#871);
#873=PLANE('',#872);
#874=ORIENTED_EDGE('',*,*,#843,.F.);
#875=CARTESIAN_POINT('',(-7.784000000000001,3.108624E-015,5.999999999999998));
#876=VERTEX_POINT('',#875);
#877=CARTESIAN_POINT('',(-7.784000000000001,3.038458E-015,5.999999999999999));
#878=DIRECTION('',(1.0,0.0,0.0));
#879=VECTOR('',#878,3.363999999999998);
#880=LINE('',#877,#879);
#881=EDGE_CURVE('',#876,#836,#880,.T.);
#882=ORIENTED_EDGE('',*,*,#881,.F.);
#883=CARTESIAN_POINT('',(-8.0,1.800000000000003,6.219999999999998));
#884=VERTEX_POINT('',#883);
#885=CARTESIAN_POINT('',(-7.784000000000000,3.219647E-015,5.999999999999998));
#886=DIRECTION('',(-0.118277513459346,0.985645945494549,0.120467837782667));
#887=VECTOR('',#886,1.826213569109593);
#888=LINE('',#885,#887);
#889=EDGE_CURVE('',#876,#884,#888,.T.);
#890=ORIENTED_EDGE('',*,*,#889,.T.);
#891=CARTESIAN_POINT('',(-8.0,1.800000000000003,6.219999999999999));
#892=DIRECTION('',(1.0,0.0,0.0));
#893=VECTOR('',#892,3.799999999999999);
#894=LINE('',#891,#893);
#895=EDGE_CURVE('',#884,#838,#894,.T.);
#896=ORIENTED_EDGE('',*,*,#895,.T.);
#897=EDGE_LOOP('',(#874,#882,#890,#896));
#898=FACE_OUTER_BOUND('',#897,.T.);
#899=ADVANCED_FACE('',(#898),#873,.T.);
#900=CARTESIAN_POINT('',(-4.000000000000004,-0.549999999999994,19.849999999999994));
#901=DIRECTION('',(-3.571500E-016,-0.119145220618431,0.992876838486922));
#902=DIRECTION('',(-1.940074E-016,-0.992876838486922,-0.119145220618431));
#903=AXIS2_PLACEMENT_3D('',#900,#901,#902);
#904=PLANE('',#903);
#905=CARTESIAN_POINT('',(7.867999999999995,0.700000000000004,19.999999999999996));
#906=VERTEX_POINT('',#905);
#907=CARTESIAN_POINT('',(7.567999999999996,-1.799999999999997,19.699999999999999));
#908=DIRECTION('',(0.118308451008765,0.985903758406374,0.118308451008765));
#909=VECTOR('',#908,2.535744466621193);
#910=LINE('',#907,#909);
#911=EDGE_CURVE('',#598,#906,#910,.T.);
#912=ORIENTED_EDGE('',*,*,#911,.T.);
#913=CARTESIAN_POINT('',(-7.868000000000004,0.700000000000007,19.999999999999993));
#914=VERTEX_POINT('',#913);
#915=CARTESIAN_POINT('',(7.867999999999995,0.700000000000004,19.999999999999996));
#916=DIRECTION('',(-1.0,0.0,0.0));
#917=VECTOR('',#916,15.735999999999999);
#918=LINE('',#915,#917);
#919=EDGE_CURVE('',#906,#914,#918,.T.);
#920=ORIENTED_EDGE('',*,*,#919,.T.);
#921=CARTESIAN_POINT('',(-7.868000000000003,0.700000000000007,19.999999999999993));
#922=DIRECTION('',(0.118308451008765,-0.985903758406374,-0.118308451008764));
#923=VECTOR('',#922,2.535744466621193);
#924=LINE('',#921,#923);
#925=EDGE_CURVE('',#914,#606,#924,.T.);
#926=ORIENTED_EDGE('',*,*,#925,.T.);
#927=ORIENTED_EDGE('',*,*,#611,.T.);
#928=EDGE_LOOP('',(#912,#920,#926,#927));
#929=FACE_OUTER_BOUND('',#928,.T.);
#930=ADVANCED_FACE('',(#929),#904,.T.);
#931=CARTESIAN_POINT('',(-8.000000000000004,1.800000000000007,19.999999999999993));
#932=DIRECTION('',(0.0,0.0,1.0));
#933=DIRECTION('',(0.0,-1.0,0.0));
#934=AXIS2_PLACEMENT_3D('',#931,#932,#933);
#935=PLANE('',#934);
#936=ORIENTED_EDGE('',*,*,#919,.F.);
#937=CARTESIAN_POINT('',(7.999999999999997,1.800000000000003,19.999999999999996));
#938=VERTEX_POINT('',#937);
#939=CARTESIAN_POINT('',(7.999999999999996,1.800000000000004,20.0));
#940=DIRECTION('',(-0.119145220618431,-0.992876838486922,0.0));
#941=VECTOR('',#940,1.107891691457247);
#942=LINE('',#939,#941);
#943=EDGE_CURVE('',#938,#906,#942,.T.);
#944=ORIENTED_EDGE('',*,*,#943,.F.);
#945=CARTESIAN_POINT('',(-8.000000000000004,1.800000000000007,19.999999999999993));
#946=VERTEX_POINT('',#945);
#947=CARTESIAN_POINT('',(-8.000000000000004,1.800000000000007,19.999999999999993));
#948=DIRECTION('',(1.0,0.0,0.0));
#949=VECTOR('',#948,16.0);
#950=LINE('',#947,#949);
#951=EDGE_CURVE('',#946,#938,#950,.T.);
#952=ORIENTED_EDGE('',*,*,#951,.F.);
#953=CARTESIAN_POINT('',(-7.868000000000004,0.700000000000007,19.999999999999993));
#954=DIRECTION('',(-0.119145220618430,0.992876838486922,0.0));
#955=VECTOR('',#954,1.107891691457247);
#956=LINE('',#953,#955);
#957=EDGE_CURVE('',#914,#946,#956,.T.);
#958=ORIENTED_EDGE('',*,*,#957,.F.);
#959=EDGE_LOOP('',(#936,#944,#952,#958));
#960=FACE_OUTER_BOUND('',#959,.T.);
#961=ADVANCED_FACE('',(#960),#935,.T.);
#962=CARTESIAN_POINT('',(7.849999999999996,0.550000000000002,16.214705882352941));
#963=DIRECTION('',(0.992876838486922,-0.119145220618431,2.542138E-016));
#964=DIRECTION('',(0.119145220618431,0.992876838486922,-2.548016E-016));
#965=AXIS2_PLACEMENT_3D('',#962,#963,#964);
#966=PLANE('',#965);
#967=ORIENTED_EDGE('',*,*,#911,.F.);
#968=ORIENTED_EDGE('',*,*,#603,.T.);
#969=ORIENTED_EDGE('',*,*,#688,.F.);
#970=ORIENTED_EDGE('',*,*,#712,.F.);
#971=CARTESIAN_POINT('',(7.999999999999997,1.800000000000003,19.999999999999996));
#972=DIRECTION('',(0.0,0.0,-1.0));
#973=VECTOR('',#972,13.779999999999996);
#974=LINE('',#971,#973);
#975=EDGE_CURVE('',#938,#701,#974,.T.);
#976=ORIENTED_EDGE('',*,*,#975,.F.);
#977=ORIENTED_EDGE('',*,*,#943,.T.);
#978=EDGE_LOOP('',(#967,#968,#969,#970,#976,#977));
#979=FACE_OUTER_BOUND('',#978,.T.);
#980=ADVANCED_FACE('',(#979),#966,.T.);
#981=CARTESIAN_POINT('',(-2.100000000000001,-0.899999999999997,6.109999999999999));
#982=DIRECTION('',(1.934662E-016,-0.121319429965254,-0.992613517897528));
#983=DIRECTION('',(2.473428E-016,0.992613517897528,-0.121319429965254));
#984=AXIS2_PLACEMENT_3D('',#981,#982,#983);
#985=PLANE('',#984);
#986=ORIENTED_EDGE('',*,*,#864,.F.);
#987=ORIENTED_EDGE('',*,*,#627,.T.);
#988=CARTESIAN_POINT('',(-7.568000000000001,-1.799999999999997,6.219999999999999));
#989=DIRECTION('',(-0.118277513459345,0.985645945494549,-0.120467837782667));
#990=VECTOR('',#989,1.826213569109593);
#991=LINE('',#988,#990);
#992=EDGE_CURVE('',#614,#876,#991,.T.);
#993=ORIENTED_EDGE('',*,*,#992,.T.);
#994=ORIENTED_EDGE('',*,*,#881,.T.);
#995=EDGE_LOOP('',(#986,#987,#993,#994));
#996=FACE_OUTER_BOUND('',#995,.T.);
#997=ADVANCED_FACE('',(#996),#985,.T.);
#998=CARTESIAN_POINT('',(4.200000000000001,1.800000000000001,8.0));
#999=DIRECTION('',(0.0,0.0,-1.0));
#1000=DIRECTION('',(0.0,1.0,0.0));
#1001=AXIS2_PLACEMENT_3D('',#998,#999,#1000);
#1002=PLANE('',#1001);
#1003=ORIENTED_EDGE('',*,*,#586,.T.);
#1004=ORIENTED_EDGE('',*,*,#745,.F.);
#1005=CARTESIAN_POINT('',(4.200000000000001,1.800000000000001,8.0));
#1006=DIRECTION('',(-1.0,0.0,0.0));
#1007=VECTOR('',#1006,2.300000000000001);
#1008=LINE('',#1005,#1007);
#1009=EDGE_CURVE('',#551,#734,#1008,.T.);
#1010=ORIENTED_EDGE('',*,*,#1009,.F.);
#1011=ORIENTED_EDGE('',*,*,#556,.F.);
#1012=EDGE_LOOP('',(#1003,#1004,#1010,#1011));
#1013=FACE_OUTER_BOUND('',#1012,.T.);
#1014=ADVANCED_FACE('',(#1013),#1002,.T.);
#1015=CARTESIAN_POINT('',(-1.900000000000001,1.800000000000002,7.999999999999999));
#1016=DIRECTION('',(0.0,0.0,-1.0));
#1017=DIRECTION('',(0.0,1.0,0.0));
#1018=AXIS2_PLACEMENT_3D('',#1015,#1016,#1017);
#1019=PLANE('',#1018);
#1020=ORIENTED_EDGE('',*,*,#643,.T.);
#1021=ORIENTED_EDGE('',*,*,#857,.F.);
#1022=CARTESIAN_POINT('',(-1.900000000000001,1.800000000000002,7.999999999999999));
#1023=DIRECTION('',(-1.0,0.0,0.0));
#1024=VECTOR('',#1023,2.300000000000001);
#1025=LINE('',#1022,#1024);
#1026=EDGE_CURVE('',#789,#846,#1025,.T.);
#1027=ORIENTED_EDGE('',*,*,#1026,.F.);
#1028=ORIENTED_EDGE('',*,*,#794,.F.);
#1029=EDGE_LOOP('',(#1020,#1021,#1027,#1028));
#1030=FACE_OUTER_BOUND('',#1029,.T.);
#1031=ADVANCED_FACE('',(#1030),#1019,.T.);
#1032=CARTESIAN_POINT('',(-7.850000000000001,0.550000000000004,9.214705882352938));
#1033=DIRECTION('',(-0.992876838486922,-0.119145220618430,-1.867121E-016));
#1034=DIRECTION('',(0.119145220618430,-0.992876838486922,3.077127E-016));
#1035=AXIS2_PLACEMENT_3D('',#1032,#1033,#1034);
#1036=PLANE('',#1035);
#1037=ORIENTED_EDGE('',*,*,#925,.F.);
#1038=ORIENTED_EDGE('',*,*,#957,.T.);
#1039=CARTESIAN_POINT('',(-8.0,1.800000000000003,6.219999999999999));
#1040=DIRECTION('',(0.0,0.0,1.0));
#1041=VECTOR('',#1040,13.779999999999994);
#1042=LINE('',#1039,#1041);
#1043=EDGE_CURVE('',#884,#946,#1042,.T.);
#1044=ORIENTED_EDGE('',*,*,#1043,.F.);
#1045=ORIENTED_EDGE('',*,*,#889,.F.);
#1046=ORIENTED_EDGE('',*,*,#992,.F.);
#1047=ORIENTED_EDGE('',*,*,#619,.T.);
#1048=EDGE_LOOP('',(#1037,#1038,#1044,#1045,#1046,#1047));
#1049=FACE_OUTER_BOUND('',#1048,.T.);
#1050=ADVANCED_FACE('',(#1049),#1036,.T.);
#1051=CARTESIAN_POINT('',(-1.493457E-015,1.800000000000003,12.429411764705881));
#1052=DIRECTION('',(0.0,-1.0,0.0));
#1053=DIRECTION('',(1.0,0.0,0.0));
#1054=AXIS2_PLACEMENT_3D('',#1051,#1052,#1053);
#1055=PLANE('',#1054);
#1056=ORIENTED_EDGE('',*,*,#895,.F.);
#1057=ORIENTED_EDGE('',*,*,#1043,.T.);
#1058=ORIENTED_EDGE('',*,*,#951,.T.);
#1059=ORIENTED_EDGE('',*,*,#975,.T.);
#1060=ORIENTED_EDGE('',*,*,#706,.F.);
#1061=ORIENTED_EDGE('',*,*,#564,.T.);
#1062=ORIENTED_EDGE('',*,*,#1009,.T.);
#1063=ORIENTED_EDGE('',*,*,#739,.T.);
#1064=ORIENTED_EDGE('',*,*,#825,.F.);
#1065=ORIENTED_EDGE('',*,*,#802,.T.);
#1066=ORIENTED_EDGE('',*,*,#1026,.T.);
#1067=ORIENTED_EDGE('',*,*,#851,.T.);
#1068=EDGE_LOOP('',(#1056,#1057,#1058,#1059,#1060,#1061,#1062,#1063,#1064,#1065,#1066,#1067));
#1069=FACE_OUTER_BOUND('',#1068,.T.);
#1070=ADVANCED_FACE('',(#1069),#1055,.F.);
#1071=CLOSED_SHELL('',(#574,#669,#693,#717,#756,#780,#812,#829,#868,#899,#930,#961,#980,#997,#1014,#1031,#1050,#1070));
#1072=MANIFOLD_SOLID_BREP('D5F',#1071);
#1073=COLOUR_RGB('250',0.330000000000000,0.330000000000000,0.330000000000000);
#1074=SURFACE_STYLE_USAGE(.BOTH.,#1075);
#1075=SURFACE_SIDE_STYLE('NONE',(#1076));
#1076=SURFACE_STYLE_FILL_AREA(#1077);
#1077=FILL_AREA_STYLE('NONE',(#1078));
#1078=FILL_AREA_STYLE_COLOUR('NONE',#1073);
#1079=PRESENTATION_STYLE_ASSIGNMENT((#1074));
#1080=STYLED_ITEM('NONE',(#1079),#1072);
#1081=CARTESIAN_POINT('',(-3.896110E-015,3.800000000000006,22.999999999999993));
#1082=DIRECTION('',(-2.220446E-016,-1.0,2.832749E-016));
#1083=DIRECTION('',(1.0,0.0,0.0));
#1084=AXIS2_PLACEMENT_3D('',#1081,#1082,#1083);
#1085=CYLINDRICAL_SURFACE('',#1084,1.700000000000000);
#1086=CARTESIAN_POINT('',(1.699999999999996,1.800000000000006,22.999999999999993));
#1087=VERTEX_POINT('',#1086);
#1088=CARTESIAN_POINT('',(1.699999999999995,0.700000000000006,22.999999999999993));
#1089=VERTEX_POINT('',#1088);
#1090=CARTESIAN_POINT('',(1.699999999999996,1.800000000000006,22.999999999999993));
#1091=DIRECTION('',(0.0,-1.0,0.0));
#1092=VECTOR('',#1091,1.099999999999999);
#1093=LINE('',#1090,#1092);
#1094=EDGE_CURVE('',#1087,#1089,#1093,.T.);
#1095=ORIENTED_EDGE('',*,*,#1094,.F.);
#1096=CARTESIAN_POINT('',(-1.700000000000004,1.800000000000007,22.999999999999993));
#1097=VERTEX_POINT('',#1096);
#1098=CARTESIAN_POINT('',(-4.340199E-015,1.800000000000006,22.999999999999993));
#1099=DIRECTION('',(0.0,-1.0,0.0));
#1100=DIRECTION('',(1.0,0.0,0.0));
#1101=AXIS2_PLACEMENT_3D('',#1098,#1099,#1100);
#1102=CIRCLE('',#1101,1.700000000000000);
#1103=EDGE_CURVE('',#1097,#1087,#1102,.T.);
#1104=ORIENTED_EDGE('',*,*,#1103,.F.);
#1105=CARTESIAN_POINT('',(-1.700000000000005,0.700000000000007,22.999999999999993));
#1106=VERTEX_POINT('',#1105);
#1107=CARTESIAN_POINT('',(-1.700000000000004,1.800000000000007,22.999999999999993));
#1108=DIRECTION('',(0.0,-1.0,0.0));
#1109=VECTOR('',#1108,1.099999999999999);
#1110=LINE('',#1107,#1109);
#1111=EDGE_CURVE('',#1097,#1106,#1110,.T.);
#1112=ORIENTED_EDGE('',*,*,#1111,.T.);
#1113=CARTESIAN_POINT('',(-4.584448E-015,0.700000000000007,22.999999999999993));
#1114=DIRECTION('',(0.0,1.0,0.0));
#1115=DIRECTION('',(1.0,0.0,0.0));
#1116=AXIS2_PLACEMENT_3D('',#1113,#1114,#1115);
#1117=CIRCLE('',#1116,1.700000000000000);
#1118=EDGE_CURVE('',#1089,#1106,#1117,.T.);
#1119=ORIENTED_EDGE('',*,*,#1118,.F.);
#1120=EDGE_LOOP('',(#1095,#1104,#1112,#1119));
#1121=FACE_OUTER_BOUND('',#1120,.T.);
#1122=ADVANCED_FACE('',(#1121),#1085,.F.);
#1123=CARTESIAN_POINT('',(-3.896110E-015,3.800000000000006,22.999999999999993));
#1124=DIRECTION('',(-2.220446E-016,-1.0,2.832749E-016));
#1125=DIRECTION('',(1.0,0.0,0.0));
#1126=AXIS2_PLACEMENT_3D('',#1123,#1124,#1125);
#1127=CYLINDRICAL_SURFACE('',#1126,1.700000000000000);
#1128=ORIENTED_EDGE('',*,*,#1094,.T.);
#1129=CARTESIAN_POINT('',(-4.584448E-015,0.700000000000007,22.999999999999993));
#1130=DIRECTION('',(0.0,1.0,0.0));
#1131=DIRECTION('',(1.0,0.0,0.0));
#1132=AXIS2_PLACEMENT_3D('',#1129,#1130,#1131);
#1133=CIRCLE('',#1132,1.700000000000000);
#1134=EDGE_CURVE('',#1106,#1089,#1133,.T.);
#1135=ORIENTED_EDGE('',*,*,#1134,.F.);
#1136=ORIENTED_EDGE('',*,*,#1111,.F.);
#1137=CARTESIAN_POINT('',(-4.340199E-015,1.800000000000006,22.999999999999993));
#1138=DIRECTION('',(0.0,-1.0,0.0));
#1139=DIRECTION('',(1.0,0.0,0.0));
#1140=AXIS2_PLACEMENT_3D('',#1137,#1138,#1139);
#1141=CIRCLE('',#1140,1.700000000000000);
#1142=EDGE_CURVE('',#1087,#1097,#1141,.T.);
#1143=ORIENTED_EDGE('',*,*,#1142,.F.);
#1144=EDGE_LOOP('',(#1128,#1135,#1136,#1143));
#1145=FACE_OUTER_BOUND('',#1144,.T.);
#1146=ADVANCED_FACE('',(#1145),#1127,.F.);
#1147=CARTESIAN_POINT('',(-3.796190E-015,1.250000000000005,19.999999999999993));
#1148=DIRECTION('',(0.0,0.0,1.0));
#1149=DIRECTION('',(0.0,-1.0,0.0));
#1150=AXIS2_PLACEMENT_3D('',#1147,#1148,#1149);
#1151=PLANE('',#1150);
#1152=CARTESIAN_POINT('',(7.867999999999996,0.700000000000004,19.999999999999996));
#1153=VERTEX_POINT('',#1152);
#1154=CARTESIAN_POINT('',(7.999999999999997,1.800000000000004,19.999999999999996));
#1155=VERTEX_POINT('',#1154);
#1156=CARTESIAN_POINT('',(7.867999999999996,0.700000000000004,19.999999999999996));
#1157=DIRECTION('',(0.119145220618431,0.992876838486922,0.0));
#1158=VECTOR('',#1157,1.107891691457247);
#1159=LINE('',#1156,#1158);
#1160=EDGE_CURVE('',#1153,#1155,#1159,.T.);
#1161=ORIENTED_EDGE('',*,*,#1160,.F.);
#1162=CARTESIAN_POINT('',(-7.868000000000004,0.700000000000008,19.999999999999993));
#1163=VERTEX_POINT('',#1162);
#1164=CARTESIAN_POINT('',(-7.868000000000004,0.700000000000008,19.999999999999993));
#1165=DIRECTION('',(1.0,0.0,0.0));
#1166=VECTOR('',#1165,15.736000000000001);
#1167=LINE('',#1164,#1166);
#1168=EDGE_CURVE('',#1163,#1153,#1167,.T.);
#1169=ORIENTED_EDGE('',*,*,#1168,.F.);
#1170=CARTESIAN_POINT('',(-8.000000000000004,1.800000000000007,19.999999999999993));
#1171=VERTEX_POINT('',#1170);
#1172=CARTESIAN_POINT('',(-8.000000000000002,1.800000000000007,19.999999999999993));
#1173=DIRECTION('',(0.119145220618430,-0.992876838486922,0.0));
#1174=VECTOR('',#1173,1.107891691457246);
#1175=LINE('',#1172,#1174);
#1176=EDGE_CURVE('',#1171,#1163,#1175,.T.);
#1177=ORIENTED_EDGE('',*,*,#1176,.F.);
#1178=CARTESIAN_POINT('',(7.999999999999996,1.800000000000004,19.999999999999996));
#1179=DIRECTION('',(-1.0,0.0,0.0));
#1180=VECTOR('',#1179,16.0);
#1181=LINE('',#1178,#1180);
#1182=EDGE_CURVE('',#1155,#1171,#1181,.T.);
#1183=ORIENTED_EDGE('',*,*,#1182,.F.);
#1184=EDGE_LOOP('',(#1161,#1169,#1177,#1183));
#1185=FACE_OUTER_BOUND('',#1184,.T.);
#1186=ADVANCED_FACE('',(#1185),#1151,.F.);
#1187=CARTESIAN_POINT('',(-7.850000000000004,0.550000000000009,23.999999999999993));
#1188=DIRECTION('',(-0.992876838486922,-0.119145220618430,-1.867121E-016));
#1189=DIRECTION('',(0.119145220618430,-0.992876838486922,3.077127E-016));
#1190=AXIS2_PLACEMENT_3D('',#1187,#1188,#1189);
#1191=PLANE('',#1190);
#1192=ORIENTED_EDGE('',*,*,#1176,.T.);
#1193=CARTESIAN_POINT('',(-7.868000000000006,0.700000000000010,27.867999999999995));
#1194=VERTEX_POINT('',#1193);
#1195=CARTESIAN_POINT('',(-7.868000000000006,0.700000000000010,27.867999999999991));
#1196=DIRECTION('',(0.0,0.0,-1.0));
#1197=VECTOR('',#1196,7.867999999999999);
#1198=LINE('',#1195,#1197);
#1199=EDGE_CURVE('',#1163,#1194,#1198,.F.);
#1200=ORIENTED_EDGE('',*,*,#1199,.T.);
#1201=CARTESIAN_POINT('',(-8.000000000000005,1.800000000000010,27.999999999999993));
#1202=VERTEX_POINT('',#1201);
#1203=CARTESIAN_POINT('',(-8.000000000000005,1.800000000000010,27.999999999999993));
#1204=DIRECTION('',(0.118308451008765,-0.985903758406374,-0.118308451008766));
#1205=VECTOR('',#1204,1.115727565313325);
#1206=LINE('',#1203,#1205);
#1207=EDGE_CURVE('',#1202,#1194,#1206,.T.);
#1208=ORIENTED_EDGE('',*,*,#1207,.F.);
#1209=CARTESIAN_POINT('',(-8.000000000000004,1.800000000000007,19.999999999999993));
#1210=DIRECTION('',(0.0,0.0,1.0));
#1211=VECTOR('',#1210,8.0);
#1212=LINE('',#1209,#1211);
#1213=EDGE_CURVE('',#1171,#1202,#1212,.T.);
#1214=ORIENTED_EDGE('',*,*,#1213,.F.);
#1215=EDGE_LOOP('',(#1192,#1200,#1208,#1214));
#1216=FACE_OUTER_BOUND('',#1215,.T.);
#1217=ADVANCED_FACE('',(#1216),#1191,.T.);
#1218=CARTESIAN_POINT('',(-5.694671E-015,0.550000000000008,27.849999999999994));
#1219=DIRECTION('',(-2.469185E-016,-0.119145220618431,0.992876838486922));
#1220=DIRECTION('',(-1.940074E-016,-0.992876838486922,-0.119145220618431));
#1221=AXIS2_PLACEMENT_3D('',#1218,#1219,#1220);
#1222=PLANE('',#1221);
#1223=CARTESIAN_POINT('',(7.999999999999996,1.800000000000006,28.0));
#1224=VERTEX_POINT('',#1223);
#1225=CARTESIAN_POINT('',(-8.000000000000005,1.800000000000010,27.999999999999989));
#1226=DIRECTION('',(1.0,0.0,0.0));
#1227=VECTOR('',#1226,16.0);
#1228=LINE('',#1225,#1227);
#1229=EDGE_CURVE('',#1202,#1224,#1228,.T.);
#1230=ORIENTED_EDGE('',*,*,#1229,.F.);
#1231=ORIENTED_EDGE('',*,*,#1207,.T.);
#1232=CARTESIAN_POINT('',(7.867999999999995,0.700000000000006,27.867999999999995));
#1233=VERTEX_POINT('',#1232);
#1234=CARTESIAN_POINT('',(7.867999999999995,0.700000000000007,27.867999999999995));
#1235=DIRECTION('',(-1.0,0.0,0.0));
#1236=VECTOR('',#1235,15.736000000000001);
#1237=LINE('',#1234,#1236);
#1238=EDGE_CURVE('',#1194,#1233,#1237,.F.);
#1239=ORIENTED_EDGE('',*,*,#1238,.T.);
#1240=CARTESIAN_POINT('',(7.999999999999996,1.800000000000006,28.0));
#1241=DIRECTION('',(-0.118308451008765,-0.985903758406373,-0.118308451008766));
#1242=VECTOR('',#1241,1.115727565313325);
#1243=LINE('',#1240,#1242);
#1244=EDGE_CURVE('',#1224,#1233,#1243,.T.);
#1245=ORIENTED_EDGE('',*,*,#1244,.F.);
#1246=EDGE_LOOP('',(#1230,#1231,#1239,#1245));
#1247=FACE_OUTER_BOUND('',#1246,.T.);
#1248=ADVANCED_FACE('',(#1247),#1222,.T.);
#1249=CARTESIAN_POINT('',(7.849999999999995,0.550000000000005,23.999999999999993));
#1250=DIRECTION('',(0.992876838486922,-0.119145220618431,2.542138E-016));
#1251=DIRECTION('',(0.119145220618431,0.992876838486922,-2.548016E-016));
#1252=AXIS2_PLACEMENT_3D('',#1249,#1250,#1251);
#1253=PLANE('',#1252);
#1254=ORIENTED_EDGE('',*,*,#1160,.T.);
#1255=CARTESIAN_POINT('',(7.999999999999996,1.800000000000006,28.0));
#1256=DIRECTION('',(0.0,0.0,-1.0));
#1257=VECTOR('',#1256,8.0);
#1258=LINE('',#1255,#1257);
#1259=EDGE_CURVE('',#1224,#1155,#1258,.T.);
#1260=ORIENTED_EDGE('',*,*,#1259,.F.);
#1261=ORIENTED_EDGE('',*,*,#1244,.T.);
#1262=CARTESIAN_POINT('',(7.867999999999997,0.700000000000004,19.999999999999993));
#1263=DIRECTION('',(0.0,0.0,1.0));
#1264=VECTOR('',#1263,7.867999999999999);
#1265=LINE('',#1262,#1264);
#1266=EDGE_CURVE('',#1233,#1153,#1265,.F.);
#1267=ORIENTED_EDGE('',*,*,#1266,.T.);
#1268=EDGE_LOOP('',(#1254,#1260,#1261,#1267));
#1269=FACE_OUTER_BOUND('',#1268,.T.);
#1270=ADVANCED_FACE('',(#1269),#1253,.T.);
#1271=CARTESIAN_POINT('',(-4.806493E-015,0.700000000000007,23.999999999999993));
#1272=DIRECTION('',(0.0,-1.0,0.0));
#1273=DIRECTION('',(1.0,0.0,0.0));
#1274=AXIS2_PLACEMENT_3D('',#1271,#1272,#1273);
#1275=PLANE('',#1274);
#1276=ORIENTED_EDGE('',*,*,#1266,.F.);
#1277=ORIENTED_EDGE('',*,*,#1238,.F.);
#1278=ORIENTED_EDGE('',*,*,#1199,.F.);
#1279=ORIENTED_EDGE('',*,*,#1168,.T.);
#1280=EDGE_LOOP('',(#1276,#1277,#1278,#1279));
#1281=FACE_OUTER_BOUND('',#1280,.T.);
#1282=ORIENTED_EDGE('',*,*,#1118,.T.);
#1283=ORIENTED_EDGE('',*,*,#1134,.T.);
#1284=EDGE_LOOP('',(#1282,#1283));
#1285=FACE_BOUND('',#1284,.T.);
#1286=ADVANCED_FACE('',(#1281,#1285),#1275,.T.);
#1287=CARTESIAN_POINT('',(-4.562244E-015,1.800000000000007,23.999999999999993));
#1288=DIRECTION('',(0.0,-1.0,0.0));
#1289=DIRECTION('',(1.0,0.0,0.0));
#1290=AXIS2_PLACEMENT_3D('',#1287,#1288,#1289);
#1291=PLANE('',#1290);
#1292=ORIENTED_EDGE('',*,*,#1259,.T.);
#1293=ORIENTED_EDGE('',*,*,#1182,.T.);
#1294=ORIENTED_EDGE('',*,*,#1213,.T.);
#1295=ORIENTED_EDGE('',*,*,#1229,.T.);
#1296=EDGE_LOOP('',(#1292,#1293,#1294,#1295));
#1297=FACE_OUTER_BOUND('',#1296,.T.);
#1298=ORIENTED_EDGE('',*,*,#1103,.T.);
#1299=ORIENTED_EDGE('',*,*,#1142,.T.);
#1300=EDGE_LOOP('',(#1298,#1299));
#1301=FACE_BOUND('',#1300,.T.);
#1302=ADVANCED_FACE('',(#1297,#1301),#1291,.F.);
#1303=CLOSED_SHELL('',(#1122,#1146,#1186,#1217,#1248,#1270,#1286,#1302));
#1304=MANIFOLD_SOLID_BREP('D5B',#1303);
#1305=STYLED_ITEM('NONE',(#1079),#1304);
#1306=CARTESIAN_POINT('',(-3.896110E-015,3.800000000000006,22.999999999999993));
#1307=DIRECTION('',(-2.220446E-016,-1.0,2.832749E-016));
#1308=DIRECTION('',(1.0,0.0,0.0));
#1309=AXIS2_PLACEMENT_3D('',#1306,#1307,#1308);
#1310=CYLINDRICAL_SURFACE('',#1309,1.700000000000000);
#1311=CARTESIAN_POINT('',(1.699999999999996,3.800000000000006,22.999999999999993));
#1312=VERTEX_POINT('',#1311);
#1313=CARTESIAN_POINT('',(1.699999999999996,1.800000000000006,22.999999999999993));
#1314=VERTEX_POINT('',#1313);
#1315=CARTESIAN_POINT('',(1.699999999999996,3.800000000000006,22.999999999999993));
#1316=DIRECTION('',(0.0,-1.0,0.0));
#1317=VECTOR('',#1316,2.0);
#1318=LINE('',#1315,#1317);
#1319=EDGE_CURVE('',#1312,#1314,#1318,.T.);
#1320=ORIENTED_EDGE('',*,*,#1319,.F.);
#1321=CARTESIAN_POINT('',(-1.700000000000004,3.800000000000007,22.999999999999993));
#1322=VERTEX_POINT('',#1321);
#1323=CARTESIAN_POINT('',(-3.896110E-015,3.800000000000006,22.999999999999993));
#1324=DIRECTION('',(0.0,-1.0,0.0));
#1325=DIRECTION('',(1.0,0.0,0.0));
#1326=AXIS2_PLACEMENT_3D('',#1323,#1324,#1325);
#1327=CIRCLE('',#1326,1.700000000000000);
#1328=EDGE_CURVE('',#1322,#1312,#1327,.T.);
#1329=ORIENTED_EDGE('',*,*,#1328,.F.);
#1330=CARTESIAN_POINT('',(-1.700000000000004,1.800000000000007,22.999999999999993));
#1331=VERTEX_POINT('',#1330);
#1332=CARTESIAN_POINT('',(-1.700000000000004,3.800000000000007,22.999999999999993));
#1333=DIRECTION('',(0.0,-1.0,0.0));
#1334=VECTOR('',#1333,2.0);
#1335=LINE('',#1332,#1334);
#1336=EDGE_CURVE('',#1322,#1331,#1335,.T.);
#1337=ORIENTED_EDGE('',*,*,#1336,.T.);
#1338=CARTESIAN_POINT('',(-4.340199E-015,1.800000000000006,22.999999999999993));
#1339=DIRECTION('',(0.0,1.0,0.0));
#1340=DIRECTION('',(1.0,0.0,0.0));
#1341=AXIS2_PLACEMENT_3D('',#1338,#1339,#1340);
#1342=CIRCLE('',#1341,1.700000000000000);
#1343=EDGE_CURVE('',#1314,#1331,#1342,.T.);
#1344=ORIENTED_EDGE('',*,*,#1343,.F.);
#1345=EDGE_LOOP('',(#1320,#1329,#1337,#1344));
#1346=FACE_OUTER_BOUND('',#1345,.T.);
#1347=ADVANCED_FACE('',(#1346),#1310,.F.);
#1348=CARTESIAN_POINT('',(-3.896110E-015,3.800000000000006,22.999999999999993));
#1349=DIRECTION('',(-2.220446E-016,-1.0,2.832749E-016));
#1350=DIRECTION('',(1.0,0.0,0.0));
#1351=AXIS2_PLACEMENT_3D('',#1348,#1349,#1350);
#1352=CYLINDRICAL_SURFACE('',#1351,1.700000000000000);
#1353=ORIENTED_EDGE('',*,*,#1319,.T.);
#1354=CARTESIAN_POINT('',(-4.340199E-015,1.800000000000006,22.999999999999993));
#1355=DIRECTION('',(0.0,1.0,0.0));
#1356=DIRECTION('',(1.0,0.0,0.0));
#1357=AXIS2_PLACEMENT_3D('',#1354,#1355,#1356);
#1358=CIRCLE('',#1357,1.700000000000000);
#1359=EDGE_CURVE('',#1331,#1314,#1358,.T.);
#1360=ORIENTED_EDGE('',*,*,#1359,.F.);
#1361=ORIENTED_EDGE('',*,*,#1336,.F.);
#1362=CARTESIAN_POINT('',(-3.896110E-015,3.800000000000006,22.999999999999993));
#1363=DIRECTION('',(0.0,-1.0,0.0));
#1364=DIRECTION('',(1.0,0.0,0.0));
#1365=AXIS2_PLACEMENT_3D('',#1362,#1363,#1364);
#1366=CIRCLE('',#1365,1.700000000000000);
#1367=EDGE_CURVE('',#1312,#1322,#1366,.T.);
#1368=ORIENTED_EDGE('',*,*,#1367,.F.);
#1369=EDGE_LOOP('',(#1353,#1360,#1361,#1368));
#1370=FACE_OUTER_BOUND('',#1369,.T.);
#1371=ADVANCED_FACE('',(#1370),#1352,.F.);
#1372=CARTESIAN_POINT('',(-4.000000000000004,2.800000000000008,27.879999999999995));
#1373=DIRECTION('',(-1.940074E-016,0.119145220618430,0.992876838486922));
#1374=DIRECTION('',(-2.469185E-016,-0.992876838486922,0.119145220618430));
#1375=AXIS2_PLACEMENT_3D('',#1372,#1373,#1374);
#1376=PLANE('',#1375);
#1377=CARTESIAN_POINT('',(-8.000000000000005,1.800000000000009,27.999999999999993));
#1378=VERTEX_POINT('',#1377);
#1379=CARTESIAN_POINT('',(7.999999999999996,1.800000000000006,28.0));
#1380=VERTEX_POINT('',#1379);
#1381=CARTESIAN_POINT('',(-8.000000000000005,1.800000000000009,27.999999999999993));
#1382=DIRECTION('',(1.0,0.0,0.0));
#1383=VECTOR('',#1382,16.0);
#1384=LINE('',#1381,#1383);
#1385=EDGE_CURVE('',#1378,#1380,#1384,.T.);
#1386=ORIENTED_EDGE('',*,*,#1385,.T.);
#1387=CARTESIAN_POINT('',(7.759999999999995,3.800000000000006,27.759999999999998));
#1388=VERTEX_POINT('',#1387);
#1389=CARTESIAN_POINT('',(7.999999999999996,1.800000000000006,28.0));
#1390=DIRECTION('',(-0.118308451008765,0.985903758406374,-0.118308451008764));
#1391=VECTOR('',#1390,2.028595573296954);
#1392=LINE('',#1389,#1391);
#1393=EDGE_CURVE('',#1380,#1388,#1392,.T.);
#1394=ORIENTED_EDGE('',*,*,#1393,.T.);
#1395=CARTESIAN_POINT('',(-7.760000000000004,3.800000000000009,27.759999999999998));
#1396=VERTEX_POINT('',#1395);
#1397=CARTESIAN_POINT('',(7.759999999999995,3.800000000000006,27.760000000000002));
#1398=DIRECTION('',(-1.0,0.0,0.0));
#1399=VECTOR('',#1398,15.520000000000000);
#1400=LINE('',#1397,#1399);
#1401=EDGE_CURVE('',#1388,#1396,#1400,.T.);
#1402=ORIENTED_EDGE('',*,*,#1401,.T.);
#1403=CARTESIAN_POINT('',(-7.760000000000004,3.800000000000009,27.759999999999998));
#1404=DIRECTION('',(-0.118308451008765,-0.985903758406374,0.118308451008764));
#1405=VECTOR('',#1404,2.028595573296954);
#1406=LINE('',#1403,#1405);
#1407=EDGE_CURVE('',#1396,#1378,#1406,.T.);
#1408=ORIENTED_EDGE('',*,*,#1407,.T.);
#1409=EDGE_LOOP('',(#1386,#1394,#1402,#1408));
#1410=FACE_OUTER_BOUND('',#1409,.T.);
#1411=ADVANCED_FACE('',(#1410),#1376,.T.);
#1412=CARTESIAN_POINT('',(7.879999999999996,2.800000000000004,22.999999999999993));
#1413=DIRECTION('',(0.992876838486922,0.119145220618431,1.867121E-016));
#1414=DIRECTION('',(-0.119145220618431,0.992876838486922,-3.077127E-016));
#1415=AXIS2_PLACEMENT_3D('',#1412,#1413,#1414);
#1416=PLANE('',#1415);
#1417=CARTESIAN_POINT('',(8.0,1.800000000000000,8.000000000000002));
#1418=VERTEX_POINT('',#1417);
#1419=CARTESIAN_POINT('',(7.999999999999996,1.800000000000006,28.0));
#1420=DIRECTION('',(0.0,0.0,-1.0));
#1421=VECTOR('',#1420,19.999999999999993);
#1422=LINE('',#1419,#1421);
#1423=EDGE_CURVE('',#1380,#1418,#1422,.T.);
#1424=ORIENTED_EDGE('',*,*,#1423,.T.);
#1425=CARTESIAN_POINT('',(7.759999999999999,3.800000000000000,8.240000000000000));
#1426=VERTEX_POINT('',#1425);
#1427=CARTESIAN_POINT('',(8.0,1.800000000000000,8.000000000000002));
#1428=DIRECTION('',(-0.118308451008765,0.985903758406374,0.118308451008765));
#1429=VECTOR('',#1428,2.028595573296955);
#1430=LINE('',#1427,#1429);
#1431=EDGE_CURVE('',#1418,#1426,#1430,.T.);
#1432=ORIENTED_EDGE('',*,*,#1431,.T.);
#1433=CARTESIAN_POINT('',(7.760000000000000,3.800000000000000,8.239999999999998));
#1434=DIRECTION('',(0.0,0.0,1.0));
#1435=VECTOR('',#1434,19.519999999999996);
#1436=LINE('',#1433,#1435);
#1437=EDGE_CURVE('',#1426,#1388,#1436,.T.);
#1438=ORIENTED_EDGE('',*,*,#1437,.T.);
#1439=ORIENTED_EDGE('',*,*,#1393,.F.);
#1440=EDGE_LOOP('',(#1424,#1432,#1438,#1439));
#1441=FACE_OUTER_BOUND('',#1440,.T.);
#1442=ADVANCED_FACE('',(#1441),#1416,.T.);
#1443=CARTESIAN_POINT('',(4.000000000000000,2.800000000000001,8.119999999999999));
#1444=DIRECTION('',(2.606974E-016,0.119145220618430,-0.992876838486922));
#1445=DIRECTION('',(1.940074E-016,0.992876838486922,0.119145220618430));
#1446=AXIS2_PLACEMENT_3D('',#1443,#1444,#1445);
#1447=PLANE('',#1446);
#1448=CARTESIAN_POINT('',(-8.0,1.800000000000003,7.999999999999998));
#1449=VERTEX_POINT('',#1448);
#1450=CARTESIAN_POINT('',(8.0,1.800000000000000,8.000000000000002));
#1451=DIRECTION('',(-1.0,0.0,0.0));
#1452=VECTOR('',#1451,16.0);
#1453=LINE('',#1450,#1452);
#1454=EDGE_CURVE('',#1418,#1449,#1453,.T.);
#1455=ORIENTED_EDGE('',*,*,#1454,.T.);
#1456=CARTESIAN_POINT('',(-7.760000000000001,3.800000000000003,8.239999999999997));
#1457=VERTEX_POINT('',#1456);
#1458=CARTESIAN_POINT('',(-8.0,1.800000000000003,7.999999999999998));
#1459=DIRECTION('',(0.118308451008765,0.985903758406374,0.118308451008765));
#1460=VECTOR('',#1459,2.028595573296954);
#1461=LINE('',#1458,#1460);
#1462=EDGE_CURVE('',#1449,#1457,#1461,.T.);
#1463=ORIENTED_EDGE('',*,*,#1462,.T.);
#1464=CARTESIAN_POINT('',(-7.760000000000000,3.800000000000003,8.239999999999997));
#1465=DIRECTION('',(1.0,0.0,0.0));
#1466=VECTOR('',#1465,15.520000000000000);
#1467=LINE('',#1464,#1466);
#1468=EDGE_CURVE('',#1457,#1426,#1467,.T.);
#1469=ORIENTED_EDGE('',*,*,#1468,.T.);
#1470=ORIENTED_EDGE('',*,*,#1431,.F.);
#1471=EDGE_LOOP('',(#1455,#1463,#1469,#1470));
#1472=FACE_OUTER_BOUND('',#1471,.T.);
#1473=ADVANCED_FACE('',(#1472),#1447,.T.);
#1474=CARTESIAN_POINT('',(-7.880000000000002,2.800000000000005,12.999999999999996));
#1475=DIRECTION('',(-0.992876838486922,0.119145220618431,-2.542138E-016));
#1476=DIRECTION('',(-0.119145220618431,-0.992876838486922,2.548016E-016));
#1477=AXIS2_PLACEMENT_3D('',#1474,#1475,#1476);
#1478=PLANE('',#1477);
#1479=CARTESIAN_POINT('',(-8.0,1.800000000000003,7.999999999999998));
#1480=DIRECTION('',(0.0,0.0,1.0));
#1481=VECTOR('',#1480,19.999999999999993);
#1482=LINE('',#1479,#1481);
#1483=EDGE_CURVE('',#1449,#1378,#1482,.T.);
#1484=ORIENTED_EDGE('',*,*,#1483,.T.);
#1485=ORIENTED_EDGE('',*,*,#1407,.F.);
#1486=CARTESIAN_POINT('',(-7.760000000000005,3.800000000000009,27.759999999999994));
#1487=DIRECTION('',(0.0,0.0,-1.0));
#1488=VECTOR('',#1487,19.519999999999996);
#1489=LINE('',#1486,#1488);
#1490=EDGE_CURVE('',#1396,#1457,#1489,.T.);
#1491=ORIENTED_EDGE('',*,*,#1490,.T.);
#1492=ORIENTED_EDGE('',*,*,#1462,.F.);
#1493=EDGE_LOOP('',(#1484,#1485,#1491,#1492));
#1494=FACE_OUTER_BOUND('',#1493,.T.);
#1495=ADVANCED_FACE('',(#1494),#1478,.T.);
#1496=CARTESIAN_POINT('',(-2.785887E-015,3.800000000000005,17.999999999999996));
#1497=DIRECTION('',(0.0,-1.0,0.0));
#1498=DIRECTION('',(1.0,0.0,0.0));
#1499=AXIS2_PLACEMENT_3D('',#1496,#1497,#1498);
#1500=PLANE('',#1499);
#1501=ORIENTED_EDGE('',*,*,#1401,.F.);
#1502=ORIENTED_EDGE('',*,*,#1437,.F.);
#1503=ORIENTED_EDGE('',*,*,#1468,.F.);
#1504=ORIENTED_EDGE('',*,*,#1490,.F.);
#1505=EDGE_LOOP('',(#1501,#1502,#1503,#1504));
#1506=FACE_OUTER_BOUND('',#1505,.T.);
#1507=ORIENTED_EDGE('',*,*,#1367,.T.);
#1508=ORIENTED_EDGE('',*,*,#1328,.T.);
#1509=EDGE_LOOP('',(#1507,#1508));
#1510=FACE_BOUND('',#1509,.T.);
#1511=ADVANCED_FACE('',(#1506,#1510),#1500,.F.);
#1512=CARTESIAN_POINT('',(-3.229976E-015,1.800000000000005,17.999999999999993));
#1513=DIRECTION('',(0.0,-1.0,0.0));
#1514=DIRECTION('',(1.0,0.0,0.0));
#1515=AXIS2_PLACEMENT_3D('',#1512,#1513,#1514);
#1516=PLANE('',#1515);
#1517=ORIENTED_EDGE('',*,*,#1423,.F.);
#1518=ORIENTED_EDGE('',*,*,#1385,.F.);
#1519=ORIENTED_EDGE('',*,*,#1483,.F.);
#1520=ORIENTED_EDGE('',*,*,#1454,.F.);
#1521=EDGE_LOOP('',(#1517,#1518,#1519,#1520));
#1522=FACE_OUTER_BOUND('',#1521,.T.);
#1523=ORIENTED_EDGE('',*,*,#1359,.T.);
#1524=ORIENTED_EDGE('',*,*,#1343,.T.);
#1525=EDGE_LOOP('',(#1523,#1524));
#1526=FACE_BOUND('',#1525,.T.);
#1527=ADVANCED_FACE('',(#1522,#1526),#1516,.T.);
#1528=CLOSED_SHELL('',(#1347,#1371,#1411,#1442,#1473,#1495,#1511,#1527));
#1529=MANIFOLD_SOLID_BREP('D57',#1528);
#1530=STYLED_ITEM('NONE',(#1079),#1529);
#1531=CARTESIAN_POINT('',(4.449999999999999,0.299999999999999,2.000000000000001));
#1532=DIRECTION('',(-1.0,0.0,0.0));
#1533=DIRECTION('',(0.0,-1.0,0.0));
#1534=AXIS2_PLACEMENT_3D('',#1531,#1532,#1533);
#1535=PLANE('',#1534);
#1536=CARTESIAN_POINT('',(4.449999999999999,-0.300000000000000,2.000000000000001));
#1537=VERTEX_POINT('',#1536);
#1538=CARTESIAN_POINT('',(4.449999999999998,-0.299999999999999,6.000000000000001));
#1539=VERTEX_POINT('',#1538);
#1540=CARTESIAN_POINT('',(4.449999999999999,-0.300000000000000,2.000000000000001));
#1541=DIRECTION('',(0.0,0.0,1.0));
#1542=VECTOR('',#1541,4.0);
#1543=LINE('',#1540,#1542);
#1544=EDGE_CURVE('',#1537,#1539,#1543,.T.);
#1545=ORIENTED_EDGE('',*,*,#1544,.T.);
#1546=CARTESIAN_POINT('',(4.449999999999998,0.300000000000000,6.000000000000001));
#1547=VERTEX_POINT('',#1546);
#1548=CARTESIAN_POINT('',(4.449999999999998,0.300000000000000,6.000000000000001));
#1549=DIRECTION('',(0.0,-1.0,0.0));
#1550=VECTOR('',#1549,0.600000000000000);
#1551=LINE('',#1548,#1550);
#1552=EDGE_CURVE('',#1547,#1539,#1551,.T.);
#1553=ORIENTED_EDGE('',*,*,#1552,.F.);
#1554=CARTESIAN_POINT('',(4.449999999999999,0.299999999999999,2.000000000000001));
#1555=VERTEX_POINT('',#1554);
#1556=CARTESIAN_POINT('',(4.449999999999998,0.300000000000000,6.000000000000001));
#1557=DIRECTION('',(0.0,0.0,-1.0));
#1558=VECTOR('',#1557,4.0);
#1559=LINE('',#1556,#1558);
#1560=EDGE_CURVE('',#1547,#1555,#1559,.T.);
#1561=ORIENTED_EDGE('',*,*,#1560,.T.);
#1562=CARTESIAN_POINT('',(4.449999999999999,0.299999999999999,2.000000000000001));
#1563=DIRECTION('',(0.0,-1.0,0.0));
#1564=VECTOR('',#1563,0.600000000000000);
#1565=LINE('',#1562,#1564);
#1566=EDGE_CURVE('',#1555,#1537,#1565,.T.);
#1567=ORIENTED_EDGE('',*,*,#1566,.T.);
#1568=EDGE_LOOP('',(#1545,#1553,#1561,#1567));
#1569=FACE_OUTER_BOUND('',#1568,.T.);
#1570=ADVANCED_FACE('',(#1569),#1535,.T.);
#1571=CARTESIAN_POINT('',(4.449999999999998,0.300000000000000,6.000000000000001));
#1572=DIRECTION('',(0.0,0.0,1.0));
#1573=DIRECTION('',(0.0,-1.0,0.0));
#1574=AXIS2_PLACEMENT_3D('',#1571,#1572,#1573);
#1575=PLANE('',#1574);
#1576=CARTESIAN_POINT('',(6.449999999999998,-0.300000000000000,6.000000000000002));
#1577=VERTEX_POINT('',#1576);
#1578=CARTESIAN_POINT('',(4.449999999999998,-0.300000000000000,6.000000000000001));
#1579=DIRECTION('',(1.0,0.0,0.0));
#1580=VECTOR('',#1579,2.0);
#1581=LINE('',#1578,#1580);
#1582=EDGE_CURVE('',#1539,#1577,#1581,.T.);
#1583=ORIENTED_EDGE('',*,*,#1582,.T.);
#1584=CARTESIAN_POINT('',(6.449999999999998,0.300000000000000,6.000000000000002));
#1585=VERTEX_POINT('',#1584);
#1586=CARTESIAN_POINT('',(6.449999999999998,0.300000000000000,6.000000000000002));
#1587=DIRECTION('',(0.0,-1.0,0.0));
#1588=VECTOR('',#1587,0.600000000000000);
#1589=LINE('',#1586,#1588);
#1590=EDGE_CURVE('',#1585,#1577,#1589,.T.);
#1591=ORIENTED_EDGE('',*,*,#1590,.F.);
#1592=CARTESIAN_POINT('',(6.449999999999998,0.300000000000000,6.000000000000002));
#1593=DIRECTION('',(-1.0,0.0,0.0));
#1594=VECTOR('',#1593,2.0);
#1595=LINE('',#1592,#1594);
#1596=EDGE_CURVE('',#1585,#1547,#1595,.T.);
#1597=ORIENTED_EDGE('',*,*,#1596,.T.);
#1598=ORIENTED_EDGE('',*,*,#1552,.T.);
#1599=EDGE_LOOP('',(#1583,#1591,#1597,#1598));
#1600=FACE_OUTER_BOUND('',#1599,.T.);
#1601=ADVANCED_FACE('',(#1600),#1575,.T.);
#1602=CARTESIAN_POINT('',(6.449999999999998,0.300000000000000,6.000000000000002));
#1603=DIRECTION('',(1.0,0.0,0.0));
#1604=DIRECTION('',(0.0,1.0,0.0));
#1605=AXIS2_PLACEMENT_3D('',#1602,#1603,#1604);
#1606=PLANE('',#1605);
#1607=CARTESIAN_POINT('',(6.449999999999999,-0.300000000000001,2.000000000000002));
#1608=VERTEX_POINT('',#1607);
#1609=CARTESIAN_POINT('',(6.449999999999998,-0.300000000000000,6.000000000000002));
#1610=DIRECTION('',(0.0,0.0,-1.0));
#1611=VECTOR('',#1610,4.0);
#1612=LINE('',#1609,#1611);
#1613=EDGE_CURVE('',#1577,#1608,#1612,.T.);
#1614=ORIENTED_EDGE('',*,*,#1613,.T.);
#1615=CARTESIAN_POINT('',(6.449999999999999,0.299999999999998,2.000000000000002));
#1616=VERTEX_POINT('',#1615);
#1617=CARTESIAN_POINT('',(6.449999999999999,0.299999999999998,2.000000000000002));
#1618=DIRECTION('',(0.0,-1.0,0.0));
#1619=VECTOR('',#1618,0.600000000000000);
#1620=LINE('',#1617,#1619);
#1621=EDGE_CURVE('',#1616,#1608,#1620,.T.);
#1622=ORIENTED_EDGE('',*,*,#1621,.F.);
#1623=CARTESIAN_POINT('',(6.449999999999999,0.299999999999998,2.000000000000002));
#1624=DIRECTION('',(0.0,0.0,1.0));
#1625=VECTOR('',#1624,4.0);
#1626=LINE('',#1623,#1625);
#1627=EDGE_CURVE('',#1616,#1585,#1626,.T.);
#1628=ORIENTED_EDGE('',*,*,#1627,.T.);
#1629=ORIENTED_EDGE('',*,*,#1590,.T.);
#1630=EDGE_LOOP('',(#1614,#1622,#1628,#1629));
#1631=FACE_OUTER_BOUND('',#1630,.T.);
#1632=ADVANCED_FACE('',(#1631),#1606,.T.);
#1633=CARTESIAN_POINT('',(6.449999999999999,0.299999999999998,2.000000000000002));
#1634=DIRECTION('',(0.0,0.0,-1.0));
#1635=DIRECTION('',(0.0,1.0,0.0));
#1636=AXIS2_PLACEMENT_3D('',#1633,#1634,#1635);
#1637=PLANE('',#1636);
#1638=CARTESIAN_POINT('',(6.449999999999999,-0.300000000000001,2.000000000000001));
#1639=DIRECTION('',(-1.0,0.0,0.0));
#1640=VECTOR('',#1639,2.0);
#1641=LINE('',#1638,#1640);
#1642=EDGE_CURVE('',#1608,#1537,#1641,.T.);
#1643=ORIENTED_EDGE('',*,*,#1642,.T.);
#1644=ORIENTED_EDGE('',*,*,#1566,.F.);
#1645=CARTESIAN_POINT('',(4.449999999999999,0.299999999999999,2.000000000000001));
#1646=DIRECTION('',(1.0,0.0,0.0));
#1647=VECTOR('',#1646,2.0);
#1648=LINE('',#1645,#1647);
#1649=EDGE_CURVE('',#1555,#1616,#1648,.T.);
#1650=ORIENTED_EDGE('',*,*,#1649,.T.);
#1651=ORIENTED_EDGE('',*,*,#1621,.T.);
#1652=EDGE_LOOP('',(#1643,#1644,#1650,#1651));
#1653=FACE_OUTER_BOUND('',#1652,.T.);
#1654=ADVANCED_FACE('',(#1653),#1637,.T.);
#1655=CARTESIAN_POINT('',(5.450000000000000,0.300000000000000,4.000000000000002));
#1656=DIRECTION('',(0.0,-1.0,0.0));
#1657=DIRECTION('',(1.0,0.0,0.0));
#1658=AXIS2_PLACEMENT_3D('',#1655,#1656,#1657);
#1659=PLANE('',#1658);
#1660=ORIENTED_EDGE('',*,*,#1649,.F.);
#1661=ORIENTED_EDGE('',*,*,#1560,.F.);
#1662=ORIENTED_EDGE('',*,*,#1596,.F.);
#1663=ORIENTED_EDGE('',*,*,#1627,.F.);
#1664=EDGE_LOOP('',(#1660,#1661,#1662,#1663));
#1665=FACE_OUTER_BOUND('',#1664,.T.);
#1666=ADVANCED_FACE('',(#1665),#1659,.F.);
#1667=CARTESIAN_POINT('',(5.450000000000000,-0.300000000000000,4.000000000000002));
#1668=DIRECTION('',(0.0,-1.0,0.0));
#1669=DIRECTION('',(1.0,0.0,0.0));
#1670=AXIS2_PLACEMENT_3D('',#1667,#1668,#1669);
#1671=PLANE('',#1670);
#1672=ORIENTED_EDGE('',*,*,#1544,.F.);
#1673=ORIENTED_EDGE('',*,*,#1642,.F.);
#1674=ORIENTED_EDGE('',*,*,#1613,.F.);
#1675=ORIENTED_EDGE('',*,*,#1582,.F.);
#1676=EDGE_LOOP('',(#1672,#1673,#1674,#1675));
#1677=FACE_OUTER_BOUND('',#1676,.T.);
#1678=ADVANCED_FACE('',(#1677),#1671,.T.);
#1679=CLOSED_SHELL('',(#1570,#1601,#1632,#1654,#1666,#1678));
#1680=MANIFOLD_SOLID_BREP('D53',#1679);
#1681=STYLED_ITEM('NONE',(#221),#1680);
#1682=CARTESIAN_POINT('',(-1.400000000000000,0.300000000000000,2.0));
#1683=DIRECTION('',(-1.0,0.0,0.0));
#1684=DIRECTION('',(0.0,-1.0,0.0));
#1685=AXIS2_PLACEMENT_3D('',#1682,#1683,#1684);
#1686=PLANE('',#1685);
#1687=CARTESIAN_POINT('',(-1.400000000000000,-0.300000000000000,2.0));
#1688=VERTEX_POINT('',#1687);
#1689=CARTESIAN_POINT('',(-1.400000000000001,-0.299999999999999,6.0));
#1690=VERTEX_POINT('',#1689);
#1691=CARTESIAN_POINT('',(-1.400000000000000,-0.300000000000000,2.0));
#1692=DIRECTION('',(0.0,0.0,1.0));
#1693=VECTOR('',#1692,4.0);
#1694=LINE('',#1691,#1693);
#1695=EDGE_CURVE('',#1688,#1690,#1694,.T.);
#1696=ORIENTED_EDGE('',*,*,#1695,.T.);
#1697=CARTESIAN_POINT('',(-1.400000000000001,0.300000000000002,6.0));
#1698=VERTEX_POINT('',#1697);
#1699=CARTESIAN_POINT('',(-1.400000000000001,0.300000000000002,6.0));
#1700=DIRECTION('',(0.0,-1.0,0.0));
#1701=VECTOR('',#1700,0.600000000000001);
#1702=LINE('',#1699,#1701);
#1703=EDGE_CURVE('',#1698,#1690,#1702,.T.);
#1704=ORIENTED_EDGE('',*,*,#1703,.F.);
#1705=CARTESIAN_POINT('',(-1.400000000000000,0.300000000000000,2.0));
#1706=VERTEX_POINT('',#1705);
#1707=CARTESIAN_POINT('',(-1.400000000000001,0.300000000000002,6.0));
#1708=DIRECTION('',(0.0,0.0,-1.0));
#1709=VECTOR('',#1708,4.0);
#1710=LINE('',#1707,#1709);
#1711=EDGE_CURVE('',#1698,#1706,#1710,.T.);
#1712=ORIENTED_EDGE('',*,*,#1711,.T.);
#1713=CARTESIAN_POINT('',(-1.400000000000000,0.300000000000000,2.0));
#1714=DIRECTION('',(0.0,-1.0,0.0));
#1715=VECTOR('',#1714,0.600000000000001);
#1716=LINE('',#1713,#1715);
#1717=EDGE_CURVE('',#1706,#1688,#1716,.T.);
#1718=ORIENTED_EDGE('',*,*,#1717,.T.);
#1719=EDGE_LOOP('',(#1696,#1704,#1712,#1718));
#1720=FACE_OUTER_BOUND('',#1719,.T.);
#1721=ADVANCED_FACE('',(#1720),#1686,.T.);
#1722=CARTESIAN_POINT('',(-1.400000000000001,0.300000000000002,6.0));
#1723=DIRECTION('',(0.0,0.0,1.0));
#1724=DIRECTION('',(0.0,-1.0,0.0));
#1725=AXIS2_PLACEMENT_3D('',#1722,#1723,#1724);
#1726=PLANE('',#1725);
#1727=CARTESIAN_POINT('',(1.399999999999999,-0.299999999999999,6.000000000000001));
#1728=VERTEX_POINT('',#1727);
#1729=CARTESIAN_POINT('',(-1.400000000000001,-0.299999999999998,6.0));
#1730=DIRECTION('',(1.0,0.0,0.0));
#1731=VECTOR('',#1730,2.799999999999999);
#1732=LINE('',#1729,#1731);
#1733=EDGE_CURVE('',#1690,#1728,#1732,.T.);
#1734=ORIENTED_EDGE('',*,*,#1733,.T.);
#1735=CARTESIAN_POINT('',(1.399999999999999,0.300000000000001,6.0));
#1736=VERTEX_POINT('',#1735);
#1737=CARTESIAN_POINT('',(1.399999999999999,0.300000000000001,6.0));
#1738=DIRECTION('',(0.0,-1.0,0.0));
#1739=VECTOR('',#1738,0.600000000000001);
#1740=LINE('',#1737,#1739);
#1741=EDGE_CURVE('',#1736,#1728,#1740,.T.);
#1742=ORIENTED_EDGE('',*,*,#1741,.F.);
#1743=CARTESIAN_POINT('',(1.399999999999999,0.300000000000001,6.0));
#1744=DIRECTION('',(-1.0,0.0,0.0));
#1745=VECTOR('',#1744,2.799999999999999);
#1746=LINE('',#1743,#1745);
#1747=EDGE_CURVE('',#1736,#1698,#1746,.T.);
#1748=ORIENTED_EDGE('',*,*,#1747,.T.);
#1749=ORIENTED_EDGE('',*,*,#1703,.T.);
#1750=EDGE_LOOP('',(#1734,#1742,#1748,#1749));
#1751=FACE_OUTER_BOUND('',#1750,.T.);
#1752=ADVANCED_FACE('',(#1751),#1726,.T.);
#1753=CARTESIAN_POINT('',(1.399999999999999,0.300000000000001,6.0));
#1754=DIRECTION('',(1.0,0.0,0.0));
#1755=DIRECTION('',(0.0,1.0,0.0));
#1756=AXIS2_PLACEMENT_3D('',#1753,#1754,#1755);
#1757=PLANE('',#1756);
#1758=CARTESIAN_POINT('',(1.400000000000000,-0.300000000000001,2.0));
#1759=VERTEX_POINT('',#1758);
#1760=CARTESIAN_POINT('',(1.399999999999999,-0.299999999999999,6.0));
#1761=DIRECTION('',(0.0,0.0,-1.0));
#1762=VECTOR('',#1761,4.0);
#1763=LINE('',#1760,#1762);
#1764=EDGE_CURVE('',#1728,#1759,#1763,.T.);
#1765=ORIENTED_EDGE('',*,*,#1764,.T.);
#1766=CARTESIAN_POINT('',(1.400000000000000,0.300000000000000,2.0));
#1767=VERTEX_POINT('',#1766);
#1768=CARTESIAN_POINT('',(1.400000000000000,0.300000000000000,2.0));
#1769=DIRECTION('',(0.0,-1.0,0.0));
#1770=VECTOR('',#1769,0.600000000000001);
#1771=LINE('',#1768,#1770);
#1772=EDGE_CURVE('',#1767,#1759,#1771,.T.);
#1773=ORIENTED_EDGE('',*,*,#1772,.F.);
#1774=CARTESIAN_POINT('',(1.400000000000000,0.300000000000000,2.0));
#1775=DIRECTION('',(0.0,0.0,1.0));
#1776=VECTOR('',#1775,4.0);
#1777=LINE('',#1774,#1776);
#1778=EDGE_CURVE('',#1767,#1736,#1777,.T.);
#1779=ORIENTED_EDGE('',*,*,#1778,.T.);
#1780=ORIENTED_EDGE('',*,*,#1741,.T.);
#1781=EDGE_LOOP('',(#1765,#1773,#1779,#1780));
#1782=FACE_OUTER_BOUND('',#1781,.T.);
#1783=ADVANCED_FACE('',(#1782),#1757,.T.);
#1784=CARTESIAN_POINT('',(1.400000000000000,0.300000000000000,2.0));
#1785=DIRECTION('',(0.0,0.0,-1.0));
#1786=DIRECTION('',(0.0,1.0,0.0));
#1787=AXIS2_PLACEMENT_3D('',#1784,#1785,#1786);
#1788=PLANE('',#1787);
#1789=CARTESIAN_POINT('',(1.400000000000000,-0.300000000000000,2.000000000000000));
#1790=DIRECTION('',(-1.0,0.0,0.0));
#1791=VECTOR('',#1790,2.799999999999999);
#1792=LINE('',#1789,#1791);
#1793=EDGE_CURVE('',#1759,#1688,#1792,.T.);
#1794=ORIENTED_EDGE('',*,*,#1793,.T.);
#1795=ORIENTED_EDGE('',*,*,#1717,.F.);
#1796=CARTESIAN_POINT('',(-1.400000000000000,0.300000000000000,2.0));
#1797=DIRECTION('',(1.0,0.0,0.0));
#1798=VECTOR('',#1797,2.799999999999999);
#1799=LINE('',#1796,#1798);
#1800=EDGE_CURVE('',#1706,#1767,#1799,.T.);
#1801=ORIENTED_EDGE('',*,*,#1800,.T.);
#1802=ORIENTED_EDGE('',*,*,#1772,.T.);
#1803=EDGE_LOOP('',(#1794,#1795,#1801,#1802));
#1804=FACE_OUTER_BOUND('',#1803,.T.);
#1805=ADVANCED_FACE('',(#1804),#1788,.T.);
#1806=CARTESIAN_POINT('',(-4.544186E-016,0.300000000000000,4.0));
#1807=DIRECTION('',(0.0,-1.0,0.0));
#1808=DIRECTION('',(1.0,0.0,0.0));
#1809=AXIS2_PLACEMENT_3D('',#1806,#1807,#1808);
#1810=PLANE('',#1809);
#1811=ORIENTED_EDGE('',*,*,#1800,.F.);
#1812=ORIENTED_EDGE('',*,*,#1711,.F.);
#1813=ORIENTED_EDGE('',*,*,#1747,.F.);
#1814=ORIENTED_EDGE('',*,*,#1778,.F.);
#1815=EDGE_LOOP('',(#1811,#1812,#1813,#1814));
#1816=FACE_OUTER_BOUND('',#1815,.T.);
#1817=ADVANCED_FACE('',(#1816),#1810,.F.);
#1818=CARTESIAN_POINT('',(-5.876453E-016,-0.300000000000000,4.0));
#1819=DIRECTION('',(0.0,-1.0,0.0));
#1820=DIRECTION('',(1.0,0.0,0.0));
#1821=AXIS2_PLACEMENT_3D('',#1818,#1819,#1820);
#1822=PLANE('',#1821);
#1823=ORIENTED_EDGE('',*,*,#1695,.F.);
#1824=ORIENTED_EDGE('',*,*,#1793,.F.);
#1825=ORIENTED_EDGE('',*,*,#1764,.F.);
#1826=ORIENTED_EDGE('',*,*,#1733,.F.);
#1827=EDGE_LOOP('',(#1823,#1824,#1825,#1826));
#1828=FACE_OUTER_BOUND('',#1827,.T.);
#1829=ADVANCED_FACE('',(#1828),#1822,.T.);
#1830=CLOSED_SHELL('',(#1721,#1752,#1783,#1805,#1817,#1829));
#1831=MANIFOLD_SOLID_BREP('D4F',#1830);
#1832=STYLED_ITEM('NONE',(#221),#1831);
#1833=CARTESIAN_POINT('',(-6.450000000000000,0.300000000000002,1.999999999999998));
#1834=DIRECTION('',(-1.0,0.0,0.0));
#1835=DIRECTION('',(0.0,-1.0,0.0));
#1836=AXIS2_PLACEMENT_3D('',#1833,#1834,#1835);
#1837=PLANE('',#1836);
#1838=CARTESIAN_POINT('',(-6.450000000000000,-0.299999999999998,1.999999999999998));
#1839=VERTEX_POINT('',#1838);
#1840=CARTESIAN_POINT('',(-6.450000000000001,-0.299999999999997,5.999999999999998));
#1841=VERTEX_POINT('',#1840);
#1842=CARTESIAN_POINT('',(-6.450000000000000,-0.299999999999998,1.999999999999998));
#1843=DIRECTION('',(0.0,0.0,1.0));
#1844=VECTOR('',#1843,4.0);
#1845=LINE('',#1842,#1844);
#1846=EDGE_CURVE('',#1839,#1841,#1845,.T.);
#1847=ORIENTED_EDGE('',*,*,#1846,.T.);
#1848=CARTESIAN_POINT('',(-6.450000000000001,0.300000000000002,5.999999999999998));
#1849=VERTEX_POINT('',#1848);
#1850=CARTESIAN_POINT('',(-6.450000000000001,0.300000000000002,5.999999999999998));
#1851=DIRECTION('',(0.0,-1.0,0.0));
#1852=VECTOR('',#1851,0.600000000000000);
#1853=LINE('',#1850,#1852);
#1854=EDGE_CURVE('',#1849,#1841,#1853,.T.);
#1855=ORIENTED_EDGE('',*,*,#1854,.F.);
#1856=CARTESIAN_POINT('',(-6.450000000000000,0.300000000000002,1.999999999999998));
#1857=VERTEX_POINT('',#1856);
#1858=CARTESIAN_POINT('',(-6.450000000000001,0.300000000000002,5.999999999999998));
#1859=DIRECTION('',(0.0,0.0,-1.0));
#1860=VECTOR('',#1859,4.0);
#1861=LINE('',#1858,#1860);
#1862=EDGE_CURVE('',#1849,#1857,#1861,.T.);
#1863=ORIENTED_EDGE('',*,*,#1862,.T.);
#1864=CARTESIAN_POINT('',(-6.450000000000000,0.300000000000002,1.999999999999998));
#1865=DIRECTION('',(0.0,-1.0,0.0));
#1866=VECTOR('',#1865,0.600000000000000);
#1867=LINE('',#1864,#1866);
#1868=EDGE_CURVE('',#1857,#1839,#1867,.T.);
#1869=ORIENTED_EDGE('',*,*,#1868,.T.);
#1870=EDGE_LOOP('',(#1847,#1855,#1863,#1869));
#1871=FACE_OUTER_BOUND('',#1870,.T.);
#1872=ADVANCED_FACE('',(#1871),#1837,.T.);
#1873=CARTESIAN_POINT('',(-6.450000000000001,0.300000000000002,5.999999999999998));
#1874=DIRECTION('',(0.0,0.0,1.0));
#1875=DIRECTION('',(0.0,-1.0,0.0));
#1876=AXIS2_PLACEMENT_3D('',#1873,#1874,#1875);
#1877=PLANE('',#1876);
#1878=CARTESIAN_POINT('',(-4.450000000000001,-0.299999999999998,5.999999999999999));
#1879=VERTEX_POINT('',#1878);
#1880=CARTESIAN_POINT('',(-6.450000000000001,-0.299999999999997,5.999999999999998));
#1881=DIRECTION('',(1.0,0.0,0.0));
#1882=VECTOR('',#1881,2.0);
#1883=LINE('',#1880,#1882);
#1884=EDGE_CURVE('',#1841,#1879,#1883,.T.);
#1885=ORIENTED_EDGE('',*,*,#1884,.T.);
#1886=CARTESIAN_POINT('',(-4.450000000000001,0.300000000000002,5.999999999999999));
#1887=VERTEX_POINT('',#1886);
#1888=CARTESIAN_POINT('',(-4.450000000000001,0.300000000000002,5.999999999999999));
#1889=DIRECTION('',(0.0,-1.0,0.0));
#1890=VECTOR('',#1889,0.600000000000000);
#1891=LINE('',#1888,#1890);
#1892=EDGE_CURVE('',#1887,#1879,#1891,.T.);
#1893=ORIENTED_EDGE('',*,*,#1892,.F.);
#1894=CARTESIAN_POINT('',(-4.450000000000001,0.300000000000002,5.999999999999999));
#1895=DIRECTION('',(-1.0,0.0,0.0));
#1896=VECTOR('',#1895,2.0);
#1897=LINE('',#1894,#1896);
#1898=EDGE_CURVE('',#1887,#1849,#1897,.T.);
#1899=ORIENTED_EDGE('',*,*,#1898,.T.);
#1900=ORIENTED_EDGE('',*,*,#1854,.T.);
#1901=EDGE_LOOP('',(#1885,#1893,#1899,#1900));
#1902=FACE_OUTER_BOUND('',#1901,.T.);
#1903=ADVANCED_FACE('',(#1902),#1877,.T.);
#1904=CARTESIAN_POINT('',(-4.450000000000001,0.300000000000002,5.999999999999999));
#1905=DIRECTION('',(1.0,0.0,0.0));
#1906=DIRECTION('',(0.0,1.0,0.0));
#1907=AXIS2_PLACEMENT_3D('',#1904,#1905,#1906);
#1908=PLANE('',#1907);
#1909=CARTESIAN_POINT('',(-4.450000000000000,-0.299999999999998,1.999999999999999));
#1910=VERTEX_POINT('',#1909);
#1911=CARTESIAN_POINT('',(-4.450000000000001,-0.299999999999997,5.999999999999999));
#1912=DIRECTION('',(0.0,0.0,-1.0));
#1913=VECTOR('',#1912,4.0);
#1914=LINE('',#1911,#1913);
#1915=EDGE_CURVE('',#1879,#1910,#1914,.T.);
#1916=ORIENTED_EDGE('',*,*,#1915,.T.);
#1917=CARTESIAN_POINT('',(-4.450000000000000,0.300000000000001,1.999999999999999));
#1918=VERTEX_POINT('',#1917);
#1919=CARTESIAN_POINT('',(-4.450000000000000,0.300000000000001,1.999999999999999));
#1920=DIRECTION('',(0.0,-1.0,0.0));
#1921=VECTOR('',#1920,0.600000000000000);
#1922=LINE('',#1919,#1921);
#1923=EDGE_CURVE('',#1918,#1910,#1922,.T.);
#1924=ORIENTED_EDGE('',*,*,#1923,.F.);
#1925=CARTESIAN_POINT('',(-4.450000000000000,0.300000000000001,1.999999999999999));
#1926=DIRECTION('',(0.0,0.0,1.0));
#1927=VECTOR('',#1926,4.0);
#1928=LINE('',#1925,#1927);
#1929=EDGE_CURVE('',#1918,#1887,#1928,.T.);
#1930=ORIENTED_EDGE('',*,*,#1929,.T.);
#1931=ORIENTED_EDGE('',*,*,#1892,.T.);
#1932=EDGE_LOOP('',(#1916,#1924,#1930,#1931));
#1933=FACE_OUTER_BOUND('',#1932,.T.);
#1934=ADVANCED_FACE('',(#1933),#1908,.T.);
#1935=CARTESIAN_POINT('',(-4.450000000000000,0.300000000000001,1.999999999999999));
#1936=DIRECTION('',(0.0,0.0,-1.0));
#1937=DIRECTION('',(0.0,1.0,0.0));
#1938=AXIS2_PLACEMENT_3D('',#1935,#1936,#1937);
#1939=PLANE('',#1938);
#1940=CARTESIAN_POINT('',(-4.450000000000000,-0.299999999999999,1.999999999999999));
#1941=DIRECTION('',(-1.0,0.0,0.0));
#1942=VECTOR('',#1941,2.0);
#1943=LINE('',#1940,#1942);
#1944=EDGE_CURVE('',#1910,#1839,#1943,.T.);
#1945=ORIENTED_EDGE('',*,*,#1944,.T.);
#1946=ORIENTED_EDGE('',*,*,#1868,.F.);
#1947=CARTESIAN_POINT('',(-6.450000000000000,0.300000000000002,1.999999999999998));
#1948=DIRECTION('',(1.0,0.0,0.0));
#1949=VECTOR('',#1948,2.0);
#1950=LINE('',#1947,#1949);
#1951=EDGE_CURVE('',#1857,#1918,#1950,.T.);
#1952=ORIENTED_EDGE('',*,*,#1951,.T.);
#1953=ORIENTED_EDGE('',*,*,#1923,.T.);
#1954=EDGE_LOOP('',(#1945,#1946,#1952,#1953));
#1955=FACE_OUTER_BOUND('',#1954,.T.);
#1956=ADVANCED_FACE('',(#1955),#1939,.T.);
#1957=CARTESIAN_POINT('',(-5.450000000000000,0.300000000000002,3.999999999999999));
#1958=DIRECTION('',(0.0,-1.0,0.0));
#1959=DIRECTION('',(1.0,0.0,0.0));
#1960=AXIS2_PLACEMENT_3D('',#1957,#1958,#1959);
#1961=PLANE('',#1960);
#1962=ORIENTED_EDGE('',*,*,#1951,.F.);
#1963=ORIENTED_EDGE('',*,*,#1862,.F.);
#1964=ORIENTED_EDGE('',*,*,#1898,.F.);
#1965=ORIENTED_EDGE('',*,*,#1929,.F.);
#1966=EDGE_LOOP('',(#1962,#1963,#1964,#1965));
#1967=FACE_OUTER_BOUND('',#1966,.T.);
#1968=ADVANCED_FACE('',(#1967),#1961,.F.);
#1969=CARTESIAN_POINT('',(-5.450000000000001,-0.299999999999998,4.000000000000000));
#1970=DIRECTION('',(0.0,-1.0,0.0));
#1971=DIRECTION('',(1.0,0.0,0.0));
#1972=AXIS2_PLACEMENT_3D('',#1969,#1970,#1971);
#1973=PLANE('',#1972);
#1974=ORIENTED_EDGE('',*,*,#1846,.F.);
#1975=ORIENTED_EDGE('',*,*,#1944,.F.);
#1976=ORIENTED_EDGE('',*,*,#1915,.F.);
#1977=ORIENTED_EDGE('',*,*,#1884,.F.);
#1978=EDGE_LOOP('',(#1974,#1975,#1976,#1977));
#1979=FACE_OUTER_BOUND('',#1978,.T.);
#1980=ADVANCED_FACE('',(#1979),#1973,.T.);
#1981=CLOSED_SHELL('',(#1872,#1903,#1934,#1956,#1968,#1980));
#1982=MANIFOLD_SOLID_BREP('D4B',#1981);
#1983=STYLED_ITEM('NONE',(#221),#1982);
#1984=ADVANCED_BREP_SHAPE_REPRESENTATION('ABSR1',(#214,#374,#525,#1072,#1304,#1529,#1680,#1831,#1982),#28);
#1985=SHAPE_REPRESENTATION_RELATIONSHIP('SRRPL1','',#1984,#62);
ENDSEC;
END-ISO-10303-21;
