ISO-10303-21;
HEADER;
/****************************************************************
 * Generated by software with PDElib inside                    *
 * PDElib Version v51a, created Fri 09/10/2010                  *
 * ITI Transcendata (http://www.transcendata.com/)              *
 ****************************************************************/
FILE_DESCRIPTION((''),'2;1');
FILE_NAME('OSC_ABRACON_ASEMPL.stp','2012-03-08T08:34:26',(''),(''),'Mechanical Desktop 2011','Mechanical Desktop 2011',', , ');
FILE_SCHEMA(('AUTOMOTIVE_DESIGN { 1 2 10303 214 1 1 1 1 }'));
ENDSEC;
DATA;
#10=(NAMED_UNIT(*)PLANE_ANGLE_UNIT()SI_UNIT($,.RADIAN.));
#11=DIMENSIONAL_EXPONENTS(0.0,0.0,0.0,0.0,0.0,0.0,0.0);
#12=PLANE_ANGLE_MEASURE_WITH_UNIT(PLANE_ANGLE_MEASURE(0.0174532925),#10);
#16=(CONVERSION_BASED_UNIT('DEGREE',#12)NAMED_UNIT(#11)PLANE_ANGLE_UNIT());
#20=(NAMED_UNIT(*)SI_UNIT($,.STERADIAN.)SOLID_ANGLE_UNIT());
#24=(LENGTH_UNIT()NAMED_UNIT(*)SI_UNIT(.MILLI.,.METRE.));
#26=UNCERTAINTY_MEASURE_WITH_UNIT(LENGTH_MEASURE(0.000001),#24,'DISTANCE_ACCURACY_VALUE','');
#28=(GEOMETRIC_REPRESENTATION_CONTEXT(3)GLOBAL_UNCERTAINTY_ASSIGNED_CONTEXT((#26))GLOBAL_UNIT_ASSIGNED_CONTEXT((#16,#20,#24))REPRESENTATION_CONTEXT('','3D'));
#29=APPLICATION_CONTEXT('automotive design');
#30=APPLICATION_PROTOCOL_DEFINITION('INTERNATIONAL_STANDARD','automotive_design',1998,#29);
#31=PRODUCT_CONTEXT('3D Mechanical Parts',#29,'mechanical');
#32=PRODUCT('Product','Product','',(#31));
#33=PRODUCT_RELATED_PRODUCT_CATEGORY('part',$,(#32));
#34=PRODUCT_CATEGORY('part',$);
#35=PERSON('1','Design','Joe',$,$,$);
#36=ORGANIZATION($,'None','None');
#37=PERSON_AND_ORGANIZATION(#35,#36);
#38=PERSON_AND_ORGANIZATION_ROLE('design_owner');
#39=APPLIED_PERSON_AND_ORGANIZATION_ASSIGNMENT(#37,#38,(#32));
#40=PRODUCT_DEFINITION_FORMATION_WITH_SPECIFIED_SOURCE('None','',#32,.BOUGHT.);
#41=PERSON('2','Creator','Joe',$,$,$);
#42=ORGANIZATION($,'None','None');
#43=PERSON_AND_ORGANIZATION(#41,#42);
#44=PERSON_AND_ORGANIZATION_ROLE('creator');
#45=APPLIED_PERSON_AND_ORGANIZATION_ASSIGNMENT(#43,#44,(#40));
#46=PERSON('3','Supplier','Joe',$,$,$);
#47=ORGANIZATION($,'None','None');
#48=PERSON_AND_ORGANIZATION(#46,#47);
#49=PERSON_AND_ORGANIZATION_ROLE('design_supplier');
#50=APPLIED_PERSON_AND_ORGANIZATION_ASSIGNMENT(#48,#49,(#40));
#51=PRODUCT_DEFINITION_CONTEXT('part definition',#29,'design');
#52=PRODUCT_DEFINITION('None','',#40,#51);
#53=PERSON('4','Creator','Joe',$,$,$);
#54=ORGANIZATION($,'None','None');
#55=PERSON_AND_ORGANIZATION(#53,#54);
#56=PERSON_AND_ORGANIZATION_ROLE('creator');
#57=APPLIED_PERSON_AND_ORGANIZATION_ASSIGNMENT(#55,#56,(#52));
#58=CARTESIAN_POINT('NONE',(0.0,0.0,0.0));
#59=DIRECTION('NONE',(0.0,0.0,1.0));
#60=DIRECTION('NONE',(1.0,0.0,0.0));
#61=AXIS2_PLACEMENT_3D('NONE',#58,#59,#60);
#62=SHAPE_REPRESENTATION('SR1',(#61),#28);
#63=PRODUCT_DEFINITION_SHAPE('PDS1','Test Part',#52);
#64=SHAPE_DEFINITION_REPRESENTATION(#63,#62);
#65=CARTESIAN_POINT('',(-0.75,1.1,1.0));
#66=DIRECTION('',(0.0,0.0,-1.0));
#67=DIRECTION('',(0.0,-1.0,0.0));
#68=AXIS2_PLACEMENT_3D('',#65,#66,#67);
#69=CYLINDRICAL_SURFACE('',#68,0.25);
#70=CARTESIAN_POINT('',(-0.75,0.85,0.9));
#71=VERTEX_POINT('',#70);
#72=CARTESIAN_POINT('',(-0.75,0.85,1.0));
#73=VERTEX_POINT('',#72);
#74=CARTESIAN_POINT('',(-0.75,0.85,0.9));
#75=DIRECTION('',(0.0,0.0,1.0));
#76=VECTOR('',#75,0.1);
#77=LINE('',#74,#76);
#78=EDGE_CURVE('',#71,#73,#77,.T.);
#79=ORIENTED_EDGE('',*,*,#78,.F.);
#80=CARTESIAN_POINT('',(-0.75,1.35,0.9));
#81=VERTEX_POINT('',#80);
#82=CARTESIAN_POINT('',(-0.75,1.1,0.9));
#83=DIRECTION('',(0.0,0.0,1.0));
#84=DIRECTION('',(0.0,-1.0,0.0));
#85=AXIS2_PLACEMENT_3D('',#82,#83,#84);
#86=CIRCLE('',#85,0.25);
#87=EDGE_CURVE('',#71,#81,#86,.T.);
#88=ORIENTED_EDGE('',*,*,#87,.T.);
#89=CARTESIAN_POINT('',(-0.75,1.35,1.0));
#90=VERTEX_POINT('',#89);
#91=CARTESIAN_POINT('',(-0.75,1.35,0.9));
#92=DIRECTION('',(0.0,0.0,1.0));
#93=VECTOR('',#92,0.1);
#94=LINE('',#91,#93);
#95=EDGE_CURVE('',#81,#90,#94,.T.);
#96=ORIENTED_EDGE('',*,*,#95,.T.);
#97=CARTESIAN_POINT('',(-0.75,1.1,1.0));
#98=DIRECTION('',(0.0,0.0,1.0));
#99=DIRECTION('',(0.0,-1.0,0.0));
#100=AXIS2_PLACEMENT_3D('',#97,#98,#99);
#101=CIRCLE('',#100,0.25);
#102=EDGE_CURVE('',#73,#90,#101,.T.);
#103=ORIENTED_EDGE('',*,*,#102,.F.);
#104=EDGE_LOOP('',(#79,#88,#96,#103));
#105=FACE_OUTER_BOUND('',#104,.T.);
#106=ADVANCED_FACE('',(#105),#69,.T.);
#107=CARTESIAN_POINT('',(-0.75,1.1,1.0));
#108=DIRECTION('',(0.0,0.0,-1.0));
#109=DIRECTION('',(0.0,-1.0,0.0));
#110=AXIS2_PLACEMENT_3D('',#107,#108,#109);
#111=CYLINDRICAL_SURFACE('',#110,0.25);
#112=ORIENTED_EDGE('',*,*,#78,.T.);
#113=CARTESIAN_POINT('',(-0.75,1.1,1.0));
#114=DIRECTION('',(0.0,0.0,1.0));
#115=DIRECTION('',(0.0,-1.0,0.0));
#116=AXIS2_PLACEMENT_3D('',#113,#114,#115);
#117=CIRCLE('',#116,0.25);
#118=EDGE_CURVE('',#90,#73,#117,.T.);
#119=ORIENTED_EDGE('',*,*,#118,.F.);
#120=ORIENTED_EDGE('',*,*,#95,.F.);
#121=CARTESIAN_POINT('',(-0.75,1.1,0.9));
#122=DIRECTION('',(0.0,0.0,1.0));
#123=DIRECTION('',(0.0,-1.0,0.0));
#124=AXIS2_PLACEMENT_3D('',#121,#122,#123);
#125=CIRCLE('',#124,0.25);
#126=EDGE_CURVE('',#81,#71,#125,.T.);
#127=ORIENTED_EDGE('',*,*,#126,.T.);
#128=EDGE_LOOP('',(#112,#119,#120,#127));
#129=FACE_OUTER_BOUND('',#128,.T.);
#130=ADVANCED_FACE('',(#129),#111,.T.);
#131=CARTESIAN_POINT('',(-0.75,1.1,0.9));
#132=DIRECTION('',(0.0,0.0,1.0));
#133=DIRECTION('',(0.0,-1.0,0.0));
#134=AXIS2_PLACEMENT_3D('',#131,#132,#133);
#135=PLANE('',#134);
#136=ORIENTED_EDGE('',*,*,#87,.F.);
#137=ORIENTED_EDGE('',*,*,#126,.F.);
#138=EDGE_LOOP('',(#136,#137));
#139=FACE_OUTER_BOUND('',#138,.T.);
#140=ADVANCED_FACE('',(#139),#135,.F.);
#141=CARTESIAN_POINT('',(-0.75,1.1,1.0));
#142=DIRECTION('',(0.0,0.0,1.0));
#143=DIRECTION('',(0.0,-1.0,0.0));
#144=AXIS2_PLACEMENT_3D('',#141,#142,#143);
#145=PLANE('',#144);
#146=ORIENTED_EDGE('',*,*,#102,.T.);
#147=ORIENTED_EDGE('',*,*,#118,.T.);
#148=EDGE_LOOP('',(#146,#147));
#149=FACE_OUTER_BOUND('',#148,.T.);
#150=ADVANCED_FACE('',(#149),#145,.T.);
#151=CLOSED_SHELL('',(#106,#130,#140,#150));
#152=MANIFOLD_SOLID_BREP('11B3',#151);
#153=DRAUGHTING_PRE_DEFINED_COLOUR('white');
#154=SURFACE_STYLE_USAGE(.BOTH.,#155);
#155=SURFACE_SIDE_STYLE('NONE',(#156));
#156=SURFACE_STYLE_FILL_AREA(#157);
#157=FILL_AREA_STYLE('NONE',(#158));
#158=FILL_AREA_STYLE_COLOUR('NONE',#153);
#159=PRESENTATION_STYLE_ASSIGNMENT((#154));
#160=STYLED_ITEM('NONE',(#159),#152);
#161=MECHANICAL_DESIGN_GEOMETRIC_PRESENTATION_REPRESENTATION('NONE',(#160,#320,#471,#655,#806,#957,#1108,#1346),#28);
#162=PRESENTATION_LAYER_ASSIGNMENT('3D','None',(#152,#312,#470,#654,#805,#956,#1107,#1338));
#163=CARTESIAN_POINT('',(-0.45,-0.600000000000001,0.0));
#164=CARTESIAN_POINT('',(-0.45,-0.600000000000001,0.05));
#165=CARTESIAN_POINT('',(-0.45,-1.5,0.0));
#166=CARTESIAN_POINT('',(-0.45,-1.5,0.05));
#167=B_SPLINE_SURFACE_WITH_KNOTS('',1,1,((#163,#165),(#164,#166)),.UNSPECIFIED.,.F.,.F.,.U.,(2,2),(2,2),(0.0,0.05),(0.0,0.899999999999999),.UNSPECIFIED.);
#168=CARTESIAN_POINT('',(-0.45,-1.5,0.05));
#169=VERTEX_POINT('',#168);
#170=CARTESIAN_POINT('',(-0.45,-0.6,0.05));
#171=VERTEX_POINT('',#170);
#172=CARTESIAN_POINT('',(-0.45,-1.5,0.05));
#173=DIRECTION('',(0.0,1.0,0.0));
#174=VECTOR('',#173,0.899999999999999);
#175=LINE('',#172,#174);
#176=EDGE_CURVE('',#169,#171,#175,.T.);
#177=ORIENTED_EDGE('',*,*,#176,.F.);
#178=CARTESIAN_POINT('',(-0.45,-1.5,0.0));
#179=VERTEX_POINT('',#178);
#180=CARTESIAN_POINT('',(-0.45,-1.5,0.0));
#181=DIRECTION('',(0.0,0.0,1.0));
#182=VECTOR('',#181,0.05);
#183=LINE('',#180,#182);
#184=EDGE_CURVE('',#179,#169,#183,.T.);
#185=ORIENTED_EDGE('',*,*,#184,.F.);
#186=CARTESIAN_POINT('',(-0.45,-0.6,0.0));
#187=VERTEX_POINT('',#186);
#188=CARTESIAN_POINT('',(-0.45,-1.5,0.0));
#189=DIRECTION('',(0.0,1.0,0.0));
#190=VECTOR('',#189,0.899999999999999);
#191=LINE('',#188,#190);
#192=EDGE_CURVE('',#179,#187,#191,.T.);
#193=ORIENTED_EDGE('',*,*,#192,.T.);
#194=CARTESIAN_POINT('',(-0.45,-0.6,0.0));
#195=DIRECTION('',(0.0,0.0,1.0));
#196=VECTOR('',#195,0.05);
#197=LINE('',#194,#196);
#198=EDGE_CURVE('',#187,#171,#197,.T.);
#199=ORIENTED_EDGE('',*,*,#198,.T.);
#200=EDGE_LOOP('',(#177,#185,#193,#199));
#201=FACE_OUTER_BOUND('',#200,.T.);
#202=ADVANCED_FACE('',(#201),#167,.T.);
#203=CARTESIAN_POINT('',(-0.45,-0.6,0.05));
#204=CARTESIAN_POINT('',(-0.45,-0.6,0.0));
#205=CARTESIAN_POINT('',(-1.15,-0.6,0.05));
#206=CARTESIAN_POINT('',(-1.15,-0.6,0.0));
#207=B_SPLINE_SURFACE_WITH_KNOTS('',1,1,((#203,#205),(#204,#206)),.UNSPECIFIED.,.F.,.F.,.U.,(2,2),(2,2),(0.0,0.05),(0.0,0.7),.UNSPECIFIED.);
#208=CARTESIAN_POINT('',(-1.15,-0.6,0.05));
#209=VERTEX_POINT('',#208);
#210=CARTESIAN_POINT('',(-0.45,-0.6,0.05));
#211=DIRECTION('',(-1.0,0.0,0.0));
#212=VECTOR('',#211,0.7);
#213=LINE('',#210,#212);
#214=EDGE_CURVE('',#171,#209,#213,.T.);
#215=ORIENTED_EDGE('',*,*,#214,.F.);
#216=ORIENTED_EDGE('',*,*,#198,.F.);
#217=CARTESIAN_POINT('',(-1.15,-0.6,0.0));
#218=VERTEX_POINT('',#217);
#219=CARTESIAN_POINT('',(-0.45,-0.6,0.0));
#220=DIRECTION('',(-1.0,0.0,0.0));
#221=VECTOR('',#220,0.7);
#222=LINE('',#219,#221);
#223=EDGE_CURVE('',#187,#218,#222,.T.);
#224=ORIENTED_EDGE('',*,*,#223,.T.);
#225=CARTESIAN_POINT('',(-1.15,-0.6,0.0));
#226=DIRECTION('',(0.0,0.0,1.0));
#227=VECTOR('',#226,0.05);
#228=LINE('',#225,#227);
#229=EDGE_CURVE('',#218,#209,#228,.T.);
#230=ORIENTED_EDGE('',*,*,#229,.T.);
#231=EDGE_LOOP('',(#215,#216,#224,#230));
#232=FACE_OUTER_BOUND('',#231,.T.);
#233=ADVANCED_FACE('',(#232),#207,.T.);
#234=CARTESIAN_POINT('',(-1.15,-0.6,0.05));
#235=CARTESIAN_POINT('',(-1.15,-0.6,0.0));
#236=CARTESIAN_POINT('',(-1.15,-1.5,0.05));
#237=CARTESIAN_POINT('',(-1.15,-1.5,0.0));
#238=B_SPLINE_SURFACE_WITH_KNOTS('',1,1,((#234,#236),(#235,#237)),.UNSPECIFIED.,.F.,.F.,.U.,(2,2),(2,2),(0.0,0.05),(0.0,0.899999999999999),.UNSPECIFIED.);
#239=CARTESIAN_POINT('',(-1.15,-1.5,0.05));
#240=VERTEX_POINT('',#239);
#241=CARTESIAN_POINT('',(-1.15,-0.6,0.05));
#242=DIRECTION('',(0.0,-1.0,0.0));
#243=VECTOR('',#242,0.899999999999999);
#244=LINE('',#241,#243);
#245=EDGE_CURVE('',#209,#240,#244,.T.);
#246=ORIENTED_EDGE('',*,*,#245,.F.);
#247=ORIENTED_EDGE('',*,*,#229,.F.);
#248=CARTESIAN_POINT('',(-1.15,-1.5,0.0));
#249=VERTEX_POINT('',#248);
#250=CARTESIAN_POINT('',(-1.15,-0.6,0.0));
#251=DIRECTION('',(0.0,-1.0,0.0));
#252=VECTOR('',#251,0.899999999999999);
#253=LINE('',#250,#252);
#254=EDGE_CURVE('',#218,#249,#253,.T.);
#255=ORIENTED_EDGE('',*,*,#254,.T.);
#256=CARTESIAN_POINT('',(-1.15,-1.5,0.0));
#257=DIRECTION('',(0.0,0.0,1.0));
#258=VECTOR('',#257,0.05);
#259=LINE('',#256,#258);
#260=EDGE_CURVE('',#249,#240,#259,.T.);
#261=ORIENTED_EDGE('',*,*,#260,.T.);
#262=EDGE_LOOP('',(#246,#247,#255,#261));
#263=FACE_OUTER_BOUND('',#262,.T.);
#264=ADVANCED_FACE('',(#263),#238,.T.);
#265=CARTESIAN_POINT('',(-0.45,-1.5,0.0));
#266=CARTESIAN_POINT('',(-0.45,-1.5,0.05));
#267=CARTESIAN_POINT('',(-1.15,-1.5,0.0));
#268=CARTESIAN_POINT('',(-1.15,-1.5,0.05));
#269=B_SPLINE_SURFACE_WITH_KNOTS('',1,1,((#265,#267),(#266,#268)),.UNSPECIFIED.,.F.,.F.,.U.,(2,2),(2,2),(0.0,0.05),(0.0,0.7),.UNSPECIFIED.);
#270=CARTESIAN_POINT('',(-1.15,-1.5,0.05));
#271=DIRECTION('',(1.0,0.0,0.0));
#272=VECTOR('',#271,0.7);
#273=LINE('',#270,#272);
#274=EDGE_CURVE('',#240,#169,#273,.T.);
#275=ORIENTED_EDGE('',*,*,#274,.F.);
#276=ORIENTED_EDGE('',*,*,#260,.F.);
#277=CARTESIAN_POINT('',(-1.15,-1.5,0.0));
#278=DIRECTION('',(1.0,0.0,0.0));
#279=VECTOR('',#278,0.7);
#280=LINE('',#277,#279);
#281=EDGE_CURVE('',#249,#179,#280,.T.);
#282=ORIENTED_EDGE('',*,*,#281,.T.);
#283=ORIENTED_EDGE('',*,*,#184,.T.);
#284=EDGE_LOOP('',(#275,#276,#282,#283));
#285=FACE_OUTER_BOUND('',#284,.T.);
#286=ADVANCED_FACE('',(#285),#269,.T.);
#287=CARTESIAN_POINT('',(-0.45,-1.5,0.05));
#288=CARTESIAN_POINT('',(-0.45,-0.6,0.05));
#289=CARTESIAN_POINT('',(-1.15,-1.5,0.05));
#290=CARTESIAN_POINT('',(-1.15,-0.6,0.05));
#291=B_SPLINE_SURFACE_WITH_KNOTS('',1,1,((#287,#289),(#288,#290)),.UNSPECIFIED.,.F.,.F.,.U.,(2,2),(2,2),(0.0,0.9),(0.0,0.7),.UNSPECIFIED.);
#292=ORIENTED_EDGE('',*,*,#176,.T.);
#293=ORIENTED_EDGE('',*,*,#214,.T.);
#294=ORIENTED_EDGE('',*,*,#245,.T.);
#295=ORIENTED_EDGE('',*,*,#274,.T.);
#296=EDGE_LOOP('',(#292,#293,#294,#295));
#297=FACE_OUTER_BOUND('',#296,.T.);
#298=ADVANCED_FACE('',(#297),#291,.T.);
#299=CARTESIAN_POINT('',(-0.45,-1.5,0.0));
#300=CARTESIAN_POINT('',(-0.45,-0.6,0.0));
#301=CARTESIAN_POINT('',(-1.15,-1.5,0.0));
#302=CARTESIAN_POINT('',(-1.15,-0.6,0.0));
#303=B_SPLINE_SURFACE_WITH_KNOTS('',1,1,((#299,#301),(#300,#302)),.UNSPECIFIED.,.F.,.F.,.U.,(2,2),(2,2),(0.0,0.9),(0.0,0.7),.UNSPECIFIED.);
#304=ORIENTED_EDGE('',*,*,#281,.F.);
#305=ORIENTED_EDGE('',*,*,#254,.F.);
#306=ORIENTED_EDGE('',*,*,#223,.F.);
#307=ORIENTED_EDGE('',*,*,#192,.F.);
#308=EDGE_LOOP('',(#304,#305,#306,#307));
#309=FACE_OUTER_BOUND('',#308,.T.);
#310=ADVANCED_FACE('',(#309),#303,.F.);
#311=CLOSED_SHELL('',(#202,#233,#264,#286,#298,#310));
#312=MANIFOLD_SOLID_BREP('11AC',#311);
#313=COLOUR_RGB('254',0.866,0.866,0.866);
#314=SURFACE_STYLE_USAGE(.BOTH.,#315);
#315=SURFACE_SIDE_STYLE('NONE',(#316));
#316=SURFACE_STYLE_FILL_AREA(#317);
#317=FILL_AREA_STYLE('NONE',(#318));
#318=FILL_AREA_STYLE_COLOUR('NONE',#313);
#319=PRESENTATION_STYLE_ASSIGNMENT((#314));
#320=STYLED_ITEM('NONE',(#319),#312);
#321=CARTESIAN_POINT('',(-0.45,-0.249999999999999,0.0));
#322=DIRECTION('',(0.0,-1.0,0.0));
#323=DIRECTION('',(0.0,0.0,-1.0));
#324=AXIS2_PLACEMENT_3D('',#321,#322,#323);
#325=PLANE('',#324);
#326=CARTESIAN_POINT('',(-0.45,-0.249999999999999,0.05));
#327=VERTEX_POINT('',#326);
#328=CARTESIAN_POINT('',(-1.15,-0.249999999999999,0.05));
#329=VERTEX_POINT('',#328);
#330=CARTESIAN_POINT('',(-0.45,-0.249999999999999,0.05));
#331=DIRECTION('',(-1.0,0.0,0.0));
#332=VECTOR('',#331,0.7);
#333=LINE('',#330,#332);
#334=EDGE_CURVE('',#327,#329,#333,.T.);
#335=ORIENTED_EDGE('',*,*,#334,.T.);
#336=CARTESIAN_POINT('',(-1.15,-0.249999999999999,0.0));
#337=VERTEX_POINT('',#336);
#338=CARTESIAN_POINT('',(-1.15,-0.249999999999999,0.0));
#339=DIRECTION('',(0.0,0.0,1.0));
#340=VECTOR('',#339,0.05);
#341=LINE('',#338,#340);
#342=EDGE_CURVE('',#337,#329,#341,.T.);
#343=ORIENTED_EDGE('',*,*,#342,.F.);
#344=CARTESIAN_POINT('',(-0.45,-0.249999999999999,0.0));
#345=VERTEX_POINT('',#344);
#346=CARTESIAN_POINT('',(-0.45,-0.249999999999999,0.0));
#347=DIRECTION('',(-1.0,0.0,0.0));
#348=VECTOR('',#347,0.7);
#349=LINE('',#346,#348);
#350=EDGE_CURVE('',#345,#337,#349,.T.);
#351=ORIENTED_EDGE('',*,*,#350,.F.);
#352=CARTESIAN_POINT('',(-0.45,-0.249999999999999,0.0));
#353=DIRECTION('',(0.0,0.0,1.0));
#354=VECTOR('',#353,0.05);
#355=LINE('',#352,#354);
#356=EDGE_CURVE('',#345,#327,#355,.T.);
#357=ORIENTED_EDGE('',*,*,#356,.T.);
#358=EDGE_LOOP('',(#335,#343,#351,#357));
#359=FACE_OUTER_BOUND('',#358,.T.);
#360=ADVANCED_FACE('',(#359),#325,.T.);
#361=CARTESIAN_POINT('',(-1.15,-0.249999999999999,0.0));
#362=DIRECTION('',(-1.0,0.0,0.0));
#363=DIRECTION('',(0.0,0.0,-1.0));
#364=AXIS2_PLACEMENT_3D('',#361,#362,#363);
#365=PLANE('',#364);
#366=CARTESIAN_POINT('',(-1.15,0.250000000000001,0.05));
#367=VERTEX_POINT('',#366);
#368=CARTESIAN_POINT('',(-1.15,-0.249999999999999,0.05));
#369=DIRECTION('',(0.0,1.0,0.0));
#370=VECTOR('',#369,0.5);
#371=LINE('',#368,#370);
#372=EDGE_CURVE('',#329,#367,#371,.T.);
#373=ORIENTED_EDGE('',*,*,#372,.T.);
#374=CARTESIAN_POINT('',(-1.15,0.250000000000001,0.0));
#375=VERTEX_POINT('',#374);
#376=CARTESIAN_POINT('',(-1.15,0.250000000000001,0.0));
#377=DIRECTION('',(0.0,0.0,1.0));
#378=VECTOR('',#377,0.05);
#379=LINE('',#376,#378);
#380=EDGE_CURVE('',#375,#367,#379,.T.);
#381=ORIENTED_EDGE('',*,*,#380,.F.);
#382=CARTESIAN_POINT('',(-1.15,-0.249999999999999,0.0));
#383=DIRECTION('',(0.0,1.0,0.0));
#384=VECTOR('',#383,0.5);
#385=LINE('',#382,#384);
#386=EDGE_CURVE('',#337,#375,#385,.T.);
#387=ORIENTED_EDGE('',*,*,#386,.F.);
#388=ORIENTED_EDGE('',*,*,#342,.T.);
#389=EDGE_LOOP('',(#373,#381,#387,#388));
#390=FACE_OUTER_BOUND('',#389,.T.);
#391=ADVANCED_FACE('',(#390),#365,.T.);
#392=CARTESIAN_POINT('',(-1.15,0.250000000000001,0.0));
#393=DIRECTION('',(0.0,1.0,0.0));
#394=DIRECTION('',(0.0,0.0,1.0));
#395=AXIS2_PLACEMENT_3D('',#392,#393,#394);
#396=PLANE('',#395);
#397=CARTESIAN_POINT('',(-0.45,0.250000000000001,0.05));
#398=VERTEX_POINT('',#397);
#399=CARTESIAN_POINT('',(-1.15,0.250000000000001,0.05));
#400=DIRECTION('',(1.0,0.0,0.0));
#401=VECTOR('',#400,0.7);
#402=LINE('',#399,#401);
#403=EDGE_CURVE('',#367,#398,#402,.T.);
#404=ORIENTED_EDGE('',*,*,#403,.T.);
#405=CARTESIAN_POINT('',(-0.45,0.250000000000001,0.0));
#406=VERTEX_POINT('',#405);
#407=CARTESIAN_POINT('',(-0.45,0.250000000000001,0.0));
#408=DIRECTION('',(0.0,0.0,1.0));
#409=VECTOR('',#408,0.05);
#410=LINE('',#407,#409);
#411=EDGE_CURVE('',#406,#398,#410,.T.);
#412=ORIENTED_EDGE('',*,*,#411,.F.);
#413=CARTESIAN_POINT('',(-1.15,0.250000000000001,0.0));
#414=DIRECTION('',(1.0,0.0,0.0));
#415=VECTOR('',#414,0.7);
#416=LINE('',#413,#415);
#417=EDGE_CURVE('',#375,#406,#416,.T.);
#418=ORIENTED_EDGE('',*,*,#417,.F.);
#419=ORIENTED_EDGE('',*,*,#380,.T.);
#420=EDGE_LOOP('',(#404,#412,#418,#419));
#421=FACE_OUTER_BOUND('',#420,.T.);
#422=ADVANCED_FACE('',(#421),#396,.T.);
#423=CARTESIAN_POINT('',(-0.45,0.250000000000001,0.0));
#424=DIRECTION('',(1.0,0.0,0.0));
#425=DIRECTION('',(0.0,0.0,1.0));
#426=AXIS2_PLACEMENT_3D('',#423,#424,#425);
#427=PLANE('',#426);
#428=CARTESIAN_POINT('',(-0.45,0.250000000000001,0.05));
#429=DIRECTION('',(0.0,-1.0,0.0));
#430=VECTOR('',#429,0.5);
#431=LINE('',#428,#430);
#432=EDGE_CURVE('',#398,#327,#431,.T.);
#433=ORIENTED_EDGE('',*,*,#432,.T.);
#434=ORIENTED_EDGE('',*,*,#356,.F.);
#435=CARTESIAN_POINT('',(-0.45,0.250000000000001,0.0));
#436=DIRECTION('',(0.0,-1.0,0.0));
#437=VECTOR('',#436,0.5);
#438=LINE('',#435,#437);
#439=EDGE_CURVE('',#406,#345,#438,.T.);
#440=ORIENTED_EDGE('',*,*,#439,.F.);
#441=ORIENTED_EDGE('',*,*,#411,.T.);
#442=EDGE_LOOP('',(#433,#434,#440,#441));
#443=FACE_OUTER_BOUND('',#442,.T.);
#444=ADVANCED_FACE('',(#443),#427,.T.);
#445=CARTESIAN_POINT('',(-0.8,1.049014E-015,0.05));
#446=DIRECTION('',(0.0,0.0,1.0));
#447=DIRECTION('',(0.0,-1.0,0.0));
#448=AXIS2_PLACEMENT_3D('',#445,#446,#447);
#449=PLANE('',#448);
#450=ORIENTED_EDGE('',*,*,#334,.F.);
#451=ORIENTED_EDGE('',*,*,#432,.F.);
#452=ORIENTED_EDGE('',*,*,#403,.F.);
#453=ORIENTED_EDGE('',*,*,#372,.F.);
#454=EDGE_LOOP('',(#450,#451,#452,#453));
#455=FACE_OUTER_BOUND('',#454,.T.);
#456=ADVANCED_FACE('',(#455),#449,.T.);
#457=CARTESIAN_POINT('',(-0.8,1.049014E-015,0.0));
#458=DIRECTION('',(0.0,0.0,1.0));
#459=DIRECTION('',(0.0,-1.0,0.0));
#460=AXIS2_PLACEMENT_3D('',#457,#458,#459);
#461=PLANE('',#460);
#462=ORIENTED_EDGE('',*,*,#439,.T.);
#463=ORIENTED_EDGE('',*,*,#350,.T.);
#464=ORIENTED_EDGE('',*,*,#386,.T.);
#465=ORIENTED_EDGE('',*,*,#417,.T.);
#466=EDGE_LOOP('',(#462,#463,#464,#465));
#467=FACE_OUTER_BOUND('',#466,.T.);
#468=ADVANCED_FACE('',(#467),#461,.F.);
#469=CLOSED_SHELL('',(#360,#391,#422,#444,#456,#468));
#470=MANIFOLD_SOLID_BREP('11A8',#469);
#471=STYLED_ITEM('NONE',(#319),#470);
#472=CARTESIAN_POINT('',(-0.45,1.299999999999999,0.0));
#473=CARTESIAN_POINT('',(-0.45,1.299999999999999,0.05));
#474=CARTESIAN_POINT('',(-0.45,0.599999999999999,0.0));
#475=CARTESIAN_POINT('',(-0.45,0.599999999999999,0.05));
#476=B_SPLINE_SURFACE_WITH_KNOTS('',1,1,((#472,#474),(#473,#475)),.UNSPECIFIED.,.F.,.F.,.U.,(2,2),(2,2),(0.0,0.05),(0.0,0.7),.UNSPECIFIED.);
#477=CARTESIAN_POINT('',(-0.45,0.599999999999999,0.05));
#478=VERTEX_POINT('',#477);
#479=CARTESIAN_POINT('',(-0.45,1.299999999999999,0.05));
#480=VERTEX_POINT('',#479);
#481=CARTESIAN_POINT('',(-0.45,0.599999999999999,0.05));
#482=DIRECTION('',(0.0,1.0,0.0));
#483=VECTOR('',#482,0.7);
#484=LINE('',#481,#483);
#485=EDGE_CURVE('',#478,#480,#484,.T.);
#486=ORIENTED_EDGE('',*,*,#485,.F.);
#487=CARTESIAN_POINT('',(-0.45,0.599999999999999,0.0));
#488=VERTEX_POINT('',#487);
#489=CARTESIAN_POINT('',(-0.45,0.599999999999999,0.0));
#490=DIRECTION('',(0.0,0.0,1.0));
#491=VECTOR('',#490,0.05);
#492=LINE('',#489,#491);
#493=EDGE_CURVE('',#488,#478,#492,.T.);
#494=ORIENTED_EDGE('',*,*,#493,.F.);
#495=CARTESIAN_POINT('',(-0.45,1.299999999999999,0.0));
#496=VERTEX_POINT('',#495);
#497=CARTESIAN_POINT('',(-0.45,0.599999999999999,0.0));
#498=DIRECTION('',(0.0,1.0,0.0));
#499=VECTOR('',#498,0.7);
#500=LINE('',#497,#499);
#501=EDGE_CURVE('',#488,#496,#500,.T.);
#502=ORIENTED_EDGE('',*,*,#501,.T.);
#503=CARTESIAN_POINT('',(-0.45,1.299999999999999,0.0));
#504=DIRECTION('',(0.0,0.0,1.0));
#505=VECTOR('',#504,0.05);
#506=LINE('',#503,#505);
#507=EDGE_CURVE('',#496,#480,#506,.T.);
#508=ORIENTED_EDGE('',*,*,#507,.T.);
#509=EDGE_LOOP('',(#486,#494,#502,#508));
#510=FACE_OUTER_BOUND('',#509,.T.);
#511=ADVANCED_FACE('',(#510),#476,.T.);
#512=CARTESIAN_POINT('',(-0.45,1.299999999999999,0.05));
#513=CARTESIAN_POINT('',(-0.45,1.299999999999999,0.0));
#514=CARTESIAN_POINT('',(-0.65,1.499999999999999,0.05));
#515=CARTESIAN_POINT('',(-0.65,1.499999999999999,0.0));
#516=B_SPLINE_SURFACE_WITH_KNOTS('',1,1,((#512,#514),(#513,#515)),.UNSPECIFIED.,.F.,.F.,.U.,(2,2),(2,2),(0.0,0.05),(0.0,0.282842712474619),.UNSPECIFIED.);
#517=CARTESIAN_POINT('',(-0.65,1.499999999999999,0.05));
#518=VERTEX_POINT('',#517);
#519=CARTESIAN_POINT('',(-0.45,1.299999999999999,0.05));
#520=DIRECTION('',(-0.707106781186548,0.707106781186547,0.0));
#521=VECTOR('',#520,0.282842712474619);
#522=LINE('',#519,#521);
#523=EDGE_CURVE('',#480,#518,#522,.T.);
#524=ORIENTED_EDGE('',*,*,#523,.F.);
#525=ORIENTED_EDGE('',*,*,#507,.F.);
#526=CARTESIAN_POINT('',(-0.65,1.499999999999999,0.0));
#527=VERTEX_POINT('',#526);
#528=CARTESIAN_POINT('',(-0.45,1.299999999999999,0.0));
#529=DIRECTION('',(-0.707106781186548,0.707106781186547,0.0));
#530=VECTOR('',#529,0.282842712474619);
#531=LINE('',#528,#530);
#532=EDGE_CURVE('',#496,#527,#531,.T.);
#533=ORIENTED_EDGE('',*,*,#532,.T.);
#534=CARTESIAN_POINT('',(-0.65,1.499999999999999,0.0));
#535=DIRECTION('',(0.0,0.0,1.0));
#536=VECTOR('',#535,0.05);
#537=LINE('',#534,#536);
#538=EDGE_CURVE('',#527,#518,#537,.T.);
#539=ORIENTED_EDGE('',*,*,#538,.T.);
#540=EDGE_LOOP('',(#524,#525,#533,#539));
#541=FACE_OUTER_BOUND('',#540,.T.);
#542=ADVANCED_FACE('',(#541),#516,.T.);
#543=CARTESIAN_POINT('',(-0.65,1.499999999999999,0.05));
#544=CARTESIAN_POINT('',(-0.65,1.499999999999999,0.0));
#545=CARTESIAN_POINT('',(-1.15,1.499999999999999,0.05));
#546=CARTESIAN_POINT('',(-1.15,1.499999999999999,0.0));
#547=B_SPLINE_SURFACE_WITH_KNOTS('',1,1,((#543,#545),(#544,#546)),.UNSPECIFIED.,.F.,.F.,.U.,(2,2),(2,2),(0.0,0.05),(0.0,0.5),.UNSPECIFIED.);
#548=CARTESIAN_POINT('',(-1.15,1.499999999999999,0.05));
#549=VERTEX_POINT('',#548);
#550=CARTESIAN_POINT('',(-0.65,1.499999999999999,0.05));
#551=DIRECTION('',(-1.0,0.0,0.0));
#552=VECTOR('',#551,0.5);
#553=LINE('',#550,#552);
#554=EDGE_CURVE('',#518,#549,#553,.T.);
#555=ORIENTED_EDGE('',*,*,#554,.F.);
#556=ORIENTED_EDGE('',*,*,#538,.F.);
#557=CARTESIAN_POINT('',(-1.15,1.499999999999999,0.0));
#558=VERTEX_POINT('',#557);
#559=CARTESIAN_POINT('',(-0.65,1.499999999999999,0.0));
#560=DIRECTION('',(-1.0,0.0,0.0));
#561=VECTOR('',#560,0.5);
#562=LINE('',#559,#561);
#563=EDGE_CURVE('',#527,#558,#562,.T.);
#564=ORIENTED_EDGE('',*,*,#563,.T.);
#565=CARTESIAN_POINT('',(-1.15,1.499999999999999,0.0));
#566=DIRECTION('',(0.0,0.0,1.0));
#567=VECTOR('',#566,0.05);
#568=LINE('',#565,#567);
#569=EDGE_CURVE('',#558,#549,#568,.T.);
#570=ORIENTED_EDGE('',*,*,#569,.T.);
#571=EDGE_LOOP('',(#555,#556,#564,#570));
#572=FACE_OUTER_BOUND('',#571,.T.);
#573=ADVANCED_FACE('',(#572),#547,.T.);
#574=CARTESIAN_POINT('',(-1.15,1.499999999999999,0.05));
#575=CARTESIAN_POINT('',(-1.15,1.499999999999999,0.0));
#576=CARTESIAN_POINT('',(-1.15,0.599999999999999,0.05));
#577=CARTESIAN_POINT('',(-1.15,0.599999999999999,0.0));
#578=B_SPLINE_SURFACE_WITH_KNOTS('',1,1,((#574,#576),(#575,#577)),.UNSPECIFIED.,.F.,.F.,.U.,(2,2),(2,2),(0.0,0.05),(0.0,0.9),.UNSPECIFIED.);
#579=CARTESIAN_POINT('',(-1.15,0.599999999999999,0.05));
#580=VERTEX_POINT('',#579);
#581=CARTESIAN_POINT('',(-1.15,1.499999999999999,0.05));
#582=DIRECTION('',(0.0,-1.0,0.0));
#583=VECTOR('',#582,0.9);
#584=LINE('',#581,#583);
#585=EDGE_CURVE('',#549,#580,#584,.T.);
#586=ORIENTED_EDGE('',*,*,#585,.F.);
#587=ORIENTED_EDGE('',*,*,#569,.F.);
#588=CARTESIAN_POINT('',(-1.15,0.599999999999999,0.0));
#589=VERTEX_POINT('',#588);
#590=CARTESIAN_POINT('',(-1.15,1.499999999999999,0.0));
#591=DIRECTION('',(0.0,-1.0,0.0));
#592=VECTOR('',#591,0.9);
#593=LINE('',#590,#592);
#594=EDGE_CURVE('',#558,#589,#593,.T.);
#595=ORIENTED_EDGE('',*,*,#594,.T.);
#596=CARTESIAN_POINT('',(-1.15,0.599999999999999,0.0));
#597=DIRECTION('',(0.0,0.0,1.0));
#598=VECTOR('',#597,0.05);
#599=LINE('',#596,#598);
#600=EDGE_CURVE('',#589,#580,#599,.T.);
#601=ORIENTED_EDGE('',*,*,#600,.T.);
#602=EDGE_LOOP('',(#586,#587,#595,#601));
#603=FACE_OUTER_BOUND('',#602,.T.);
#604=ADVANCED_FACE('',(#603),#578,.T.);
#605=CARTESIAN_POINT('',(-0.45,0.599999999999999,0.0));
#606=CARTESIAN_POINT('',(-0.45,0.599999999999999,0.05));
#607=CARTESIAN_POINT('',(-1.15,0.599999999999999,0.0));
#608=CARTESIAN_POINT('',(-1.15,0.6,0.05));
#609=B_SPLINE_SURFACE_WITH_KNOTS('',1,1,((#605,#607),(#606,#608)),.UNSPECIFIED.,.F.,.F.,.U.,(2,2),(2,2),(0.0,0.05),(0.0,0.7),.UNSPECIFIED.);
#610=CARTESIAN_POINT('',(-1.15,0.599999999999999,0.05));
#611=DIRECTION('',(1.0,0.0,0.0));
#612=VECTOR('',#611,0.7);
#613=LINE('',#610,#612);
#614=EDGE_CURVE('',#580,#478,#613,.T.);
#615=ORIENTED_EDGE('',*,*,#614,.F.);
#616=ORIENTED_EDGE('',*,*,#600,.F.);
#617=CARTESIAN_POINT('',(-1.15,0.599999999999999,0.0));
#618=DIRECTION('',(1.0,0.0,0.0));
#619=VECTOR('',#618,0.7);
#620=LINE('',#617,#619);
#621=EDGE_CURVE('',#589,#488,#620,.T.);
#622=ORIENTED_EDGE('',*,*,#621,.T.);
#623=ORIENTED_EDGE('',*,*,#493,.T.);
#624=EDGE_LOOP('',(#615,#616,#622,#623));
#625=FACE_OUTER_BOUND('',#624,.T.);
#626=ADVANCED_FACE('',(#625),#609,.T.);
#627=CARTESIAN_POINT('',(-0.45,0.599999999999999,0.05));
#628=CARTESIAN_POINT('',(-0.45,1.5,0.05));
#629=CARTESIAN_POINT('',(-1.15,0.599999999999999,0.05));
#630=CARTESIAN_POINT('',(-1.15,1.5,0.05));
#631=B_SPLINE_SURFACE_WITH_KNOTS('',1,1,((#627,#629),(#628,#630)),.UNSPECIFIED.,.F.,.F.,.U.,(2,2),(2,2),(0.0,0.9),(0.0,0.7),.UNSPECIFIED.);
#632=ORIENTED_EDGE('',*,*,#485,.T.);
#633=ORIENTED_EDGE('',*,*,#523,.T.);
#634=ORIENTED_EDGE('',*,*,#554,.T.);
#635=ORIENTED_EDGE('',*,*,#585,.T.);
#636=ORIENTED_EDGE('',*,*,#614,.T.);
#637=EDGE_LOOP('',(#632,#633,#634,#635,#636));
#638=FACE_OUTER_BOUND('',#637,.T.);
#639=ADVANCED_FACE('',(#638),#631,.T.);
#640=CARTESIAN_POINT('',(-0.45,0.599999999999999,0.0));
#641=CARTESIAN_POINT('',(-0.45,1.5,0.0));
#642=CARTESIAN_POINT('',(-1.15,0.599999999999999,0.0));
#643=CARTESIAN_POINT('',(-1.15,1.5,0.0));
#644=B_SPLINE_SURFACE_WITH_KNOTS('',1,1,((#640,#642),(#641,#643)),.UNSPECIFIED.,.F.,.F.,.U.,(2,2),(2,2),(0.0,0.9),(0.0,0.7),.UNSPECIFIED.);
#645=ORIENTED_EDGE('',*,*,#621,.F.);
#646=ORIENTED_EDGE('',*,*,#594,.F.);
#647=ORIENTED_EDGE('',*,*,#563,.F.);
#648=ORIENTED_EDGE('',*,*,#532,.F.);
#649=ORIENTED_EDGE('',*,*,#501,.F.);
#650=EDGE_LOOP('',(#645,#646,#647,#648,#649));
#651=FACE_OUTER_BOUND('',#650,.T.);
#652=ADVANCED_FACE('',(#651),#644,.F.);
#653=CLOSED_SHELL('',(#511,#542,#573,#604,#626,#639,#652));
#654=MANIFOLD_SOLID_BREP('11A4',#653);
#655=STYLED_ITEM('NONE',(#319),#654);
#656=CARTESIAN_POINT('',(1.15,-0.599999999999999,0.0));
#657=DIRECTION('',(1.0,0.0,0.0));
#658=DIRECTION('',(0.0,0.0,1.0));
#659=AXIS2_PLACEMENT_3D('',#656,#657,#658);
#660=PLANE('',#659);
#661=CARTESIAN_POINT('',(1.15,-0.599999999999999,0.05));
#662=VERTEX_POINT('',#661);
#663=CARTESIAN_POINT('',(1.15,-1.499999999999999,0.05));
#664=VERTEX_POINT('',#663);
#665=CARTESIAN_POINT('',(1.15,-0.599999999999999,0.05));
#666=DIRECTION('',(0.0,-1.0,0.0));
#667=VECTOR('',#666,0.9);
#668=LINE('',#665,#667);
#669=EDGE_CURVE('',#662,#664,#668,.T.);
#670=ORIENTED_EDGE('',*,*,#669,.T.);
#671=CARTESIAN_POINT('',(1.15,-1.499999999999999,0.0));
#672=VERTEX_POINT('',#671);
#673=CARTESIAN_POINT('',(1.15,-1.499999999999999,0.0));
#674=DIRECTION('',(0.0,0.0,1.0));
#675=VECTOR('',#674,0.05);
#676=LINE('',#673,#675);
#677=EDGE_CURVE('',#672,#664,#676,.T.);
#678=ORIENTED_EDGE('',*,*,#677,.F.);
#679=CARTESIAN_POINT('',(1.15,-0.599999999999999,0.0));
#680=VERTEX_POINT('',#679);
#681=CARTESIAN_POINT('',(1.15,-0.599999999999999,0.0));
#682=DIRECTION('',(0.0,-1.0,0.0));
#683=VECTOR('',#682,0.9);
#684=LINE('',#681,#683);
#685=EDGE_CURVE('',#680,#672,#684,.T.);
#686=ORIENTED_EDGE('',*,*,#685,.F.);
#687=CARTESIAN_POINT('',(1.15,-0.599999999999999,0.0));
#688=DIRECTION('',(0.0,0.0,1.0));
#689=VECTOR('',#688,0.05);
#690=LINE('',#687,#689);
#691=EDGE_CURVE('',#680,#662,#690,.T.);
#692=ORIENTED_EDGE('',*,*,#691,.T.);
#693=EDGE_LOOP('',(#670,#678,#686,#692));
#694=FACE_OUTER_BOUND('',#693,.T.);
#695=ADVANCED_FACE('',(#694),#660,.T.);
#696=CARTESIAN_POINT('',(1.15,-1.499999999999999,0.0));
#697=DIRECTION('',(0.0,-1.0,0.0));
#698=DIRECTION('',(0.0,0.0,-1.0));
#699=AXIS2_PLACEMENT_3D('',#696,#697,#698);
#700=PLANE('',#699);
#701=CARTESIAN_POINT('',(0.45,-1.499999999999999,0.05));
#702=VERTEX_POINT('',#701);
#703=CARTESIAN_POINT('',(1.15,-1.499999999999999,0.05));
#704=DIRECTION('',(-1.0,0.0,0.0));
#705=VECTOR('',#704,0.7);
#706=LINE('',#703,#705);
#707=EDGE_CURVE('',#664,#702,#706,.T.);
#708=ORIENTED_EDGE('',*,*,#707,.T.);
#709=CARTESIAN_POINT('',(0.45,-1.499999999999999,0.0));
#710=VERTEX_POINT('',#709);
#711=CARTESIAN_POINT('',(0.45,-1.499999999999999,0.0));
#712=DIRECTION('',(0.0,0.0,1.0));
#713=VECTOR('',#712,0.05);
#714=LINE('',#711,#713);
#715=EDGE_CURVE('',#710,#702,#714,.T.);
#716=ORIENTED_EDGE('',*,*,#715,.F.);
#717=CARTESIAN_POINT('',(1.15,-1.499999999999999,0.0));
#718=DIRECTION('',(-1.0,0.0,0.0));
#719=VECTOR('',#718,0.7);
#720=LINE('',#717,#719);
#721=EDGE_CURVE('',#672,#710,#720,.T.);
#722=ORIENTED_EDGE('',*,*,#721,.F.);
#723=ORIENTED_EDGE('',*,*,#677,.T.);
#724=EDGE_LOOP('',(#708,#716,#722,#723));
#725=FACE_OUTER_BOUND('',#724,.T.);
#726=ADVANCED_FACE('',(#725),#700,.T.);
#727=CARTESIAN_POINT('',(0.45,-1.499999999999999,0.0));
#728=DIRECTION('',(-1.0,0.0,0.0));
#729=DIRECTION('',(0.0,0.0,-1.0));
#730=AXIS2_PLACEMENT_3D('',#727,#728,#729);
#731=PLANE('',#730);
#732=CARTESIAN_POINT('',(0.45,-0.599999999999999,0.05));
#733=VERTEX_POINT('',#732);
#734=CARTESIAN_POINT('',(0.45,-1.499999999999999,0.05));
#735=DIRECTION('',(0.0,1.0,0.0));
#736=VECTOR('',#735,0.9);
#737=LINE('',#734,#736);
#738=EDGE_CURVE('',#702,#733,#737,.T.);
#739=ORIENTED_EDGE('',*,*,#738,.T.);
#740=CARTESIAN_POINT('',(0.45,-0.599999999999999,0.0));
#741=VERTEX_POINT('',#740);
#742=CARTESIAN_POINT('',(0.45,-0.599999999999999,0.0));
#743=DIRECTION('',(0.0,0.0,1.0));
#744=VECTOR('',#743,0.05);
#745=LINE('',#742,#744);
#746=EDGE_CURVE('',#741,#733,#745,.T.);
#747=ORIENTED_EDGE('',*,*,#746,.F.);
#748=CARTESIAN_POINT('',(0.45,-1.499999999999999,0.0));
#749=DIRECTION('',(0.0,1.0,0.0));
#750=VECTOR('',#749,0.9);
#751=LINE('',#748,#750);
#752=EDGE_CURVE('',#710,#741,#751,.T.);
#753=ORIENTED_EDGE('',*,*,#752,.F.);
#754=ORIENTED_EDGE('',*,*,#715,.T.);
#755=EDGE_LOOP('',(#739,#747,#753,#754));
#756=FACE_OUTER_BOUND('',#755,.T.);
#757=ADVANCED_FACE('',(#756),#731,.T.);
#758=CARTESIAN_POINT('',(0.45,-0.599999999999999,0.0));
#759=DIRECTION('',(0.0,1.0,0.0));
#760=DIRECTION('',(0.0,0.0,1.0));
#761=AXIS2_PLACEMENT_3D('',#758,#759,#760);
#762=PLANE('',#761);
#763=CARTESIAN_POINT('',(0.45,-0.599999999999999,0.05));
#764=DIRECTION('',(1.0,0.0,0.0));
#765=VECTOR('',#764,0.7);
#766=LINE('',#763,#765);
#767=EDGE_CURVE('',#733,#662,#766,.T.);
#768=ORIENTED_EDGE('',*,*,#767,.T.);
#769=ORIENTED_EDGE('',*,*,#691,.F.);
#770=CARTESIAN_POINT('',(0.45,-0.599999999999999,0.0));
#771=DIRECTION('',(1.0,0.0,0.0));
#772=VECTOR('',#771,0.7);
#773=LINE('',#770,#772);
#774=EDGE_CURVE('',#741,#680,#773,.T.);
#775=ORIENTED_EDGE('',*,*,#774,.F.);
#776=ORIENTED_EDGE('',*,*,#746,.T.);
#777=EDGE_LOOP('',(#768,#769,#775,#776));
#778=FACE_OUTER_BOUND('',#777,.T.);
#779=ADVANCED_FACE('',(#778),#762,.T.);
#780=CARTESIAN_POINT('',(0.8,-1.05,0.05));
#781=DIRECTION('',(0.0,0.0,1.0));
#782=DIRECTION('',(0.0,-1.0,0.0));
#783=AXIS2_PLACEMENT_3D('',#780,#781,#782);
#784=PLANE('',#783);
#785=ORIENTED_EDGE('',*,*,#669,.F.);
#786=ORIENTED_EDGE('',*,*,#767,.F.);
#787=ORIENTED_EDGE('',*,*,#738,.F.);
#788=ORIENTED_EDGE('',*,*,#707,.F.);
#789=EDGE_LOOP('',(#785,#786,#787,#788));
#790=FACE_OUTER_BOUND('',#789,.T.);
#791=ADVANCED_FACE('',(#790),#784,.T.);
#792=CARTESIAN_POINT('',(0.8,-1.05,0.0));
#793=DIRECTION('',(0.0,0.0,1.0));
#794=DIRECTION('',(0.0,-1.0,0.0));
#795=AXIS2_PLACEMENT_3D('',#792,#793,#794);
#796=PLANE('',#795);
#797=ORIENTED_EDGE('',*,*,#774,.T.);
#798=ORIENTED_EDGE('',*,*,#685,.T.);
#799=ORIENTED_EDGE('',*,*,#721,.T.);
#800=ORIENTED_EDGE('',*,*,#752,.T.);
#801=EDGE_LOOP('',(#797,#798,#799,#800));
#802=FACE_OUTER_BOUND('',#801,.T.);
#803=ADVANCED_FACE('',(#802),#796,.F.);
#804=CLOSED_SHELL('',(#695,#726,#757,#779,#791,#803));
#805=MANIFOLD_SOLID_BREP('11A0',#804);
#806=STYLED_ITEM('NONE',(#319),#805);
#807=CARTESIAN_POINT('',(1.15,-0.249999999999999,0.0));
#808=DIRECTION('',(0.0,-1.0,0.0));
#809=DIRECTION('',(0.0,0.0,-1.0));
#810=AXIS2_PLACEMENT_3D('',#807,#808,#809);
#811=PLANE('',#810);
#812=CARTESIAN_POINT('',(1.15,-0.249999999999999,0.05));
#813=VERTEX_POINT('',#812);
#814=CARTESIAN_POINT('',(0.45,-0.249999999999999,0.05));
#815=VERTEX_POINT('',#814);
#816=CARTESIAN_POINT('',(1.15,-0.249999999999999,0.05));
#817=DIRECTION('',(-1.0,0.0,0.0));
#818=VECTOR('',#817,0.7);
#819=LINE('',#816,#818);
#820=EDGE_CURVE('',#813,#815,#819,.T.);
#821=ORIENTED_EDGE('',*,*,#820,.T.);
#822=CARTESIAN_POINT('',(0.45,-0.249999999999999,0.0));
#823=VERTEX_POINT('',#822);
#824=CARTESIAN_POINT('',(0.45,-0.249999999999999,0.0));
#825=DIRECTION('',(0.0,0.0,1.0));
#826=VECTOR('',#825,0.05);
#827=LINE('',#824,#826);
#828=EDGE_CURVE('',#823,#815,#827,.T.);
#829=ORIENTED_EDGE('',*,*,#828,.F.);
#830=CARTESIAN_POINT('',(1.15,-0.249999999999999,0.0));
#831=VERTEX_POINT('',#830);
#832=CARTESIAN_POINT('',(1.15,-0.249999999999999,0.0));
#833=DIRECTION('',(-1.0,0.0,0.0));
#834=VECTOR('',#833,0.7);
#835=LINE('',#832,#834);
#836=EDGE_CURVE('',#831,#823,#835,.T.);
#837=ORIENTED_EDGE('',*,*,#836,.F.);
#838=CARTESIAN_POINT('',(1.15,-0.249999999999999,0.0));
#839=DIRECTION('',(0.0,0.0,1.0));
#840=VECTOR('',#839,0.05);
#841=LINE('',#838,#840);
#842=EDGE_CURVE('',#831,#813,#841,.T.);
#843=ORIENTED_EDGE('',*,*,#842,.T.);
#844=EDGE_LOOP('',(#821,#829,#837,#843));
#845=FACE_OUTER_BOUND('',#844,.T.);
#846=ADVANCED_FACE('',(#845),#811,.T.);
#847=CARTESIAN_POINT('',(0.45,-0.249999999999999,0.0));
#848=DIRECTION('',(-1.0,0.0,0.0));
#849=DIRECTION('',(0.0,0.0,-1.0));
#850=AXIS2_PLACEMENT_3D('',#847,#848,#849);
#851=PLANE('',#850);
#852=CARTESIAN_POINT('',(0.45,0.250000000000001,0.05));
#853=VERTEX_POINT('',#852);
#854=CARTESIAN_POINT('',(0.45,-0.249999999999999,0.05));
#855=DIRECTION('',(0.0,1.0,0.0));
#856=VECTOR('',#855,0.5);
#857=LINE('',#854,#856);
#858=EDGE_CURVE('',#815,#853,#857,.T.);
#859=ORIENTED_EDGE('',*,*,#858,.T.);
#860=CARTESIAN_POINT('',(0.45,0.250000000000001,0.0));
#861=VERTEX_POINT('',#860);
#862=CARTESIAN_POINT('',(0.45,0.250000000000001,0.0));
#863=DIRECTION('',(0.0,0.0,1.0));
#864=VECTOR('',#863,0.05);
#865=LINE('',#862,#864);
#866=EDGE_CURVE('',#861,#853,#865,.T.);
#867=ORIENTED_EDGE('',*,*,#866,.F.);
#868=CARTESIAN_POINT('',(0.45,-0.249999999999999,0.0));
#869=DIRECTION('',(0.0,1.0,0.0));
#870=VECTOR('',#869,0.5);
#871=LINE('',#868,#870);
#872=EDGE_CURVE('',#823,#861,#871,.T.);
#873=ORIENTED_EDGE('',*,*,#872,.F.);
#874=ORIENTED_EDGE('',*,*,#828,.T.);
#875=EDGE_LOOP('',(#859,#867,#873,#874));
#876=FACE_OUTER_BOUND('',#875,.T.);
#877=ADVANCED_FACE('',(#876),#851,.T.);
#878=CARTESIAN_POINT('',(0.45,0.250000000000001,0.0));
#879=DIRECTION('',(0.0,1.0,0.0));
#880=DIRECTION('',(0.0,0.0,1.0));
#881=AXIS2_PLACEMENT_3D('',#878,#879,#880);
#882=PLANE('',#881);
#883=CARTESIAN_POINT('',(1.15,0.250000000000001,0.05));
#884=VERTEX_POINT('',#883);
#885=CARTESIAN_POINT('',(0.45,0.250000000000001,0.05));
#886=DIRECTION('',(1.0,0.0,0.0));
#887=VECTOR('',#886,0.7);
#888=LINE('',#885,#887);
#889=EDGE_CURVE('',#853,#884,#888,.T.);
#890=ORIENTED_EDGE('',*,*,#889,.T.);
#891=CARTESIAN_POINT('',(1.15,0.250000000000001,0.0));
#892=VERTEX_POINT('',#891);
#893=CARTESIAN_POINT('',(1.15,0.250000000000001,0.0));
#894=DIRECTION('',(0.0,0.0,1.0));
#895=VECTOR('',#894,0.05);
#896=LINE('',#893,#895);
#897=EDGE_CURVE('',#892,#884,#896,.T.);
#898=ORIENTED_EDGE('',*,*,#897,.F.);
#899=CARTESIAN_POINT('',(0.45,0.250000000000001,0.0));
#900=DIRECTION('',(1.0,0.0,0.0));
#901=VECTOR('',#900,0.7);
#902=LINE('',#899,#901);
#903=EDGE_CURVE('',#861,#892,#902,.T.);
#904=ORIENTED_EDGE('',*,*,#903,.F.);
#905=ORIENTED_EDGE('',*,*,#866,.T.);
#906=EDGE_LOOP('',(#890,#898,#904,#905));
#907=FACE_OUTER_BOUND('',#906,.T.);
#908=ADVANCED_FACE('',(#907),#882,.T.);
#909=CARTESIAN_POINT('',(1.15,0.250000000000001,0.0));
#910=DIRECTION('',(1.0,0.0,0.0));
#911=DIRECTION('',(0.0,0.0,1.0));
#912=AXIS2_PLACEMENT_3D('',#909,#910,#911);
#913=PLANE('',#912);
#914=CARTESIAN_POINT('',(1.15,0.250000000000001,0.05));
#915=DIRECTION('',(0.0,-1.0,0.0));
#916=VECTOR('',#915,0.5);
#917=LINE('',#914,#916);
#918=EDGE_CURVE('',#884,#813,#917,.T.);
#919=ORIENTED_EDGE('',*,*,#918,.T.);
#920=ORIENTED_EDGE('',*,*,#842,.F.);
#921=CARTESIAN_POINT('',(1.15,0.250000000000001,0.0));
#922=DIRECTION('',(0.0,-1.0,0.0));
#923=VECTOR('',#922,0.5);
#924=LINE('',#921,#923);
#925=EDGE_CURVE('',#892,#831,#924,.T.);
#926=ORIENTED_EDGE('',*,*,#925,.F.);
#927=ORIENTED_EDGE('',*,*,#897,.T.);
#928=EDGE_LOOP('',(#919,#920,#926,#927));
#929=FACE_OUTER_BOUND('',#928,.T.);
#930=ADVANCED_FACE('',(#929),#913,.T.);
#931=CARTESIAN_POINT('',(0.8,7.550986E-016,0.05));
#932=DIRECTION('',(0.0,0.0,1.0));
#933=DIRECTION('',(0.0,-1.0,0.0));
#934=AXIS2_PLACEMENT_3D('',#931,#932,#933);
#935=PLANE('',#934);
#936=ORIENTED_EDGE('',*,*,#820,.F.);
#937=ORIENTED_EDGE('',*,*,#918,.F.);
#938=ORIENTED_EDGE('',*,*,#889,.F.);
#939=ORIENTED_EDGE('',*,*,#858,.F.);
#940=EDGE_LOOP('',(#936,#937,#938,#939));
#941=FACE_OUTER_BOUND('',#940,.T.);
#942=ADVANCED_FACE('',(#941),#935,.T.);
#943=CARTESIAN_POINT('',(0.8,7.550986E-016,0.0));
#944=DIRECTION('',(0.0,0.0,1.0));
#945=DIRECTION('',(0.0,-1.0,0.0));
#946=AXIS2_PLACEMENT_3D('',#943,#944,#945);
#947=PLANE('',#946);
#948=ORIENTED_EDGE('',*,*,#925,.T.);
#949=ORIENTED_EDGE('',*,*,#836,.T.);
#950=ORIENTED_EDGE('',*,*,#872,.T.);
#951=ORIENTED_EDGE('',*,*,#903,.T.);
#952=EDGE_LOOP('',(#948,#949,#950,#951));
#953=FACE_OUTER_BOUND('',#952,.T.);
#954=ADVANCED_FACE('',(#953),#947,.F.);
#955=CLOSED_SHELL('',(#846,#877,#908,#930,#942,#954));
#956=MANIFOLD_SOLID_BREP('119C',#955);
#957=STYLED_ITEM('NONE',(#319),#956);
#958=CARTESIAN_POINT('',(1.15,1.5,0.0));
#959=DIRECTION('',(1.0,0.0,0.0));
#960=DIRECTION('',(0.0,0.0,1.0));
#961=AXIS2_PLACEMENT_3D('',#958,#959,#960);
#962=PLANE('',#961);
#963=CARTESIAN_POINT('',(1.15,1.5,0.05));
#964=VERTEX_POINT('',#963);
#965=CARTESIAN_POINT('',(1.15,0.6,0.05));
#966=VERTEX_POINT('',#965);
#967=CARTESIAN_POINT('',(1.15,1.5,0.05));
#968=DIRECTION('',(0.0,-1.0,0.0));
#969=VECTOR('',#968,0.899999999999999);
#970=LINE('',#967,#969);
#971=EDGE_CURVE('',#964,#966,#970,.T.);
#972=ORIENTED_EDGE('',*,*,#971,.T.);
#973=CARTESIAN_POINT('',(1.15,0.6,0.0));
#974=VERTEX_POINT('',#973);
#975=CARTESIAN_POINT('',(1.15,0.6,0.0));
#976=DIRECTION('',(0.0,0.0,1.0));
#977=VECTOR('',#976,0.05);
#978=LINE('',#975,#977);
#979=EDGE_CURVE('',#974,#966,#978,.T.);
#980=ORIENTED_EDGE('',*,*,#979,.F.);
#981=CARTESIAN_POINT('',(1.15,1.5,0.0));
#982=VERTEX_POINT('',#981);
#983=CARTESIAN_POINT('',(1.15,1.5,0.0));
#984=DIRECTION('',(0.0,-1.0,0.0));
#985=VECTOR('',#984,0.899999999999999);
#986=LINE('',#983,#985);
#987=EDGE_CURVE('',#982,#974,#986,.T.);
#988=ORIENTED_EDGE('',*,*,#987,.F.);
#989=CARTESIAN_POINT('',(1.15,1.5,0.0));
#990=DIRECTION('',(0.0,0.0,1.0));
#991=VECTOR('',#990,0.05);
#992=LINE('',#989,#991);
#993=EDGE_CURVE('',#982,#964,#992,.T.);
#994=ORIENTED_EDGE('',*,*,#993,.T.);
#995=EDGE_LOOP('',(#972,#980,#988,#994));
#996=FACE_OUTER_BOUND('',#995,.T.);
#997=ADVANCED_FACE('',(#996),#962,.T.);
#998=CARTESIAN_POINT('',(1.15,0.6,0.0));
#999=DIRECTION('',(0.0,-1.0,0.0));
#1000=DIRECTION('',(0.0,0.0,-1.0));
#1001=AXIS2_PLACEMENT_3D('',#998,#999,#1000);
#1002=PLANE('',#1001);
#1003=CARTESIAN_POINT('',(0.45,0.6,0.05));
#1004=VERTEX_POINT('',#1003);
#1005=CARTESIAN_POINT('',(1.15,0.6,0.05));
#1006=DIRECTION('',(-1.0,0.0,0.0));
#1007=VECTOR('',#1006,0.7);
#1008=LINE('',#1005,#1007);
#1009=EDGE_CURVE('',#966,#1004,#1008,.T.);
#1010=ORIENTED_EDGE('',*,*,#1009,.T.);
#1011=CARTESIAN_POINT('',(0.45,0.6,0.0));
#1012=VERTEX_POINT('',#1011);
#1013=CARTESIAN_POINT('',(0.45,0.6,0.0));
#1014=DIRECTION('',(0.0,0.0,1.0));
#1015=VECTOR('',#1014,0.05);
#1016=LINE('',#1013,#1015);
#1017=EDGE_CURVE('',#1012,#1004,#1016,.T.);
#1018=ORIENTED_EDGE('',*,*,#1017,.F.);
#1019=CARTESIAN_POINT('',(1.15,0.6,0.0));
#1020=DIRECTION('',(-1.0,0.0,0.0));
#1021=VECTOR('',#1020,0.7);
#1022=LINE('',#1019,#1021);
#1023=EDGE_CURVE('',#974,#1012,#1022,.T.);
#1024=ORIENTED_EDGE('',*,*,#1023,.F.);
#1025=ORIENTED_EDGE('',*,*,#979,.T.);
#1026=EDGE_LOOP('',(#1010,#1018,#1024,#1025));
#1027=FACE_OUTER_BOUND('',#1026,.T.);
#1028=ADVANCED_FACE('',(#1027),#1002,.T.);
#1029=CARTESIAN_POINT('',(0.45,0.6,0.0));
#1030=DIRECTION('',(-1.0,0.0,0.0));
#1031=DIRECTION('',(0.0,0.0,-1.0));
#1032=AXIS2_PLACEMENT_3D('',#1029,#1030,#1031);
#1033=PLANE('',#1032);
#1034=CARTESIAN_POINT('',(0.45,1.5,0.05));
#1035=VERTEX_POINT('',#1034);
#1036=CARTESIAN_POINT('',(0.45,0.6,0.05));
#1037=DIRECTION('',(0.0,1.0,0.0));
#1038=VECTOR('',#1037,0.9);
#1039=LINE('',#1036,#1038);
#1040=EDGE_CURVE('',#1004,#1035,#1039,.T.);
#1041=ORIENTED_EDGE('',*,*,#1040,.T.);
#1042=CARTESIAN_POINT('',(0.45,1.5,0.0));
#1043=VERTEX_POINT('',#1042);
#1044=CARTESIAN_POINT('',(0.45,1.5,0.0));
#1045=DIRECTION('',(0.0,0.0,1.0));
#1046=VECTOR('',#1045,0.05);
#1047=LINE('',#1044,#1046);
#1048=EDGE_CURVE('',#1043,#1035,#1047,.T.);
#1049=ORIENTED_EDGE('',*,*,#1048,.F.);
#1050=CARTESIAN_POINT('',(0.45,0.6,0.0));
#1051=DIRECTION('',(0.0,1.0,0.0));
#1052=VECTOR('',#1051,0.9);
#1053=LINE('',#1050,#1052);
#1054=EDGE_CURVE('',#1012,#1043,#1053,.T.);
#1055=ORIENTED_EDGE('',*,*,#1054,.F.);
#1056=ORIENTED_EDGE('',*,*,#1017,.T.);
#1057=EDGE_LOOP('',(#1041,#1049,#1055,#1056));
#1058=FACE_OUTER_BOUND('',#1057,.T.);
#1059=ADVANCED_FACE('',(#1058),#1033,.T.);
#1060=CARTESIAN_POINT('',(0.45,1.5,0.0));
#1061=DIRECTION('',(0.0,1.0,0.0));
#1062=DIRECTION('',(0.0,0.0,1.0));
#1063=AXIS2_PLACEMENT_3D('',#1060,#1061,#1062);
#1064=PLANE('',#1063);
#1065=CARTESIAN_POINT('',(0.45,1.5,0.05));
#1066=DIRECTION('',(1.0,0.0,0.0));
#1067=VECTOR('',#1066,0.7);
#1068=LINE('',#1065,#1067);
#1069=EDGE_CURVE('',#1035,#964,#1068,.T.);
#1070=ORIENTED_EDGE('',*,*,#1069,.T.);
#1071=ORIENTED_EDGE('',*,*,#993,.F.);
#1072=CARTESIAN_POINT('',(0.45,1.5,0.0));
#1073=DIRECTION('',(1.0,0.0,0.0));
#1074=VECTOR('',#1073,0.7);
#1075=LINE('',#1072,#1074);
#1076=EDGE_CURVE('',#1043,#982,#1075,.T.);
#1077=ORIENTED_EDGE('',*,*,#1076,.F.);
#1078=ORIENTED_EDGE('',*,*,#1048,.T.);
#1079=EDGE_LOOP('',(#1070,#1071,#1077,#1078));
#1080=FACE_OUTER_BOUND('',#1079,.T.);
#1081=ADVANCED_FACE('',(#1080),#1064,.T.);
#1082=CARTESIAN_POINT('',(0.8,1.050000000000001,0.05));
#1083=DIRECTION('',(0.0,0.0,1.0));
#1084=DIRECTION('',(0.0,-1.0,0.0));
#1085=AXIS2_PLACEMENT_3D('',#1082,#1083,#1084);
#1086=PLANE('',#1085);
#1087=ORIENTED_EDGE('',*,*,#971,.F.);
#1088=ORIENTED_EDGE('',*,*,#1069,.F.);
#1089=ORIENTED_EDGE('',*,*,#1040,.F.);
#1090=ORIENTED_EDGE('',*,*,#1009,.F.);
#1091=EDGE_LOOP('',(#1087,#1088,#1089,#1090));
#1092=FACE_OUTER_BOUND('',#1091,.T.);
#1093=ADVANCED_FACE('',(#1092),#1086,.T.);
#1094=CARTESIAN_POINT('',(0.8,1.05,0.0));
#1095=DIRECTION('',(0.0,0.0,1.0));
#1096=DIRECTION('',(0.0,-1.0,0.0));
#1097=AXIS2_PLACEMENT_3D('',#1094,#1095,#1096);
#1098=PLANE('',#1097);
#1099=ORIENTED_EDGE('',*,*,#1076,.T.);
#1100=ORIENTED_EDGE('',*,*,#987,.T.);
#1101=ORIENTED_EDGE('',*,*,#1023,.T.);
#1102=ORIENTED_EDGE('',*,*,#1054,.T.);
#1103=EDGE_LOOP('',(#1099,#1100,#1101,#1102));
#1104=FACE_OUTER_BOUND('',#1103,.T.);
#1105=ADVANCED_FACE('',(#1104),#1098,.F.);
#1106=CLOSED_SHELL('',(#997,#1028,#1059,#1081,#1093,#1105));
#1107=MANIFOLD_SOLID_BREP('1198',#1106);
#1108=STYLED_ITEM('NONE',(#319),#1107);
#1109=CARTESIAN_POINT('',(-0.75,1.1,1.0));
#1110=DIRECTION('',(0.0,0.0,-1.0));
#1111=DIRECTION('',(0.0,-1.0,0.0));
#1112=AXIS2_PLACEMENT_3D('',#1109,#1110,#1111);
#1113=CYLINDRICAL_SURFACE('',#1112,0.25);
#1114=CARTESIAN_POINT('',(-0.75,0.85,1.0));
#1115=VERTEX_POINT('',#1114);
#1116=CARTESIAN_POINT('',(-0.75,0.85,0.9));
#1117=VERTEX_POINT('',#1116);
#1118=CARTESIAN_POINT('',(-0.75,0.85,1.0));
#1119=DIRECTION('',(0.0,0.0,-1.0));
#1120=VECTOR('',#1119,0.1);
#1121=LINE('',#1118,#1120);
#1122=EDGE_CURVE('',#1115,#1117,#1121,.T.);
#1123=ORIENTED_EDGE('',*,*,#1122,.F.);
#1124=CARTESIAN_POINT('',(-0.75,1.35,1.0));
#1125=VERTEX_POINT('',#1124);
#1126=CARTESIAN_POINT('',(-0.75,1.1,1.0));
#1127=DIRECTION('',(0.0,0.0,-1.0));
#1128=DIRECTION('',(0.0,-1.0,0.0));
#1129=AXIS2_PLACEMENT_3D('',#1126,#1127,#1128);
#1130=CIRCLE('',#1129,0.25);
#1131=EDGE_CURVE('',#1125,#1115,#1130,.T.);
#1132=ORIENTED_EDGE('',*,*,#1131,.F.);
#1133=CARTESIAN_POINT('',(-0.75,1.35,0.9));
#1134=VERTEX_POINT('',#1133);
#1135=CARTESIAN_POINT('',(-0.75,1.35,1.0));
#1136=DIRECTION('',(0.0,0.0,-1.0));
#1137=VECTOR('',#1136,0.1);
#1138=LINE('',#1135,#1137);
#1139=EDGE_CURVE('',#1125,#1134,#1138,.T.);
#1140=ORIENTED_EDGE('',*,*,#1139,.T.);
#1141=CARTESIAN_POINT('',(-0.75,1.1,0.9));
#1142=DIRECTION('',(0.0,0.0,1.0));
#1143=DIRECTION('',(0.0,-1.0,0.0));
#1144=AXIS2_PLACEMENT_3D('',#1141,#1142,#1143);
#1145=CIRCLE('',#1144,0.25);
#1146=EDGE_CURVE('',#1117,#1134,#1145,.T.);
#1147=ORIENTED_EDGE('',*,*,#1146,.F.);
#1148=EDGE_LOOP('',(#1123,#1132,#1140,#1147));
#1149=FACE_OUTER_BOUND('',#1148,.T.);
#1150=ADVANCED_FACE('',(#1149),#1113,.F.);
#1151=CARTESIAN_POINT('',(-0.75,1.1,1.0));
#1152=DIRECTION('',(0.0,0.0,-1.0));
#1153=DIRECTION('',(0.0,-1.0,0.0));
#1154=AXIS2_PLACEMENT_3D('',#1151,#1152,#1153);
#1155=CYLINDRICAL_SURFACE('',#1154,0.25);
#1156=ORIENTED_EDGE('',*,*,#1122,.T.);
#1157=CARTESIAN_POINT('',(-0.75,1.1,0.9));
#1158=DIRECTION('',(0.0,0.0,1.0));
#1159=DIRECTION('',(0.0,-1.0,0.0));
#1160=AXIS2_PLACEMENT_3D('',#1157,#1158,#1159);
#1161=CIRCLE('',#1160,0.25);
#1162=EDGE_CURVE('',#1134,#1117,#1161,.T.);
#1163=ORIENTED_EDGE('',*,*,#1162,.F.);
#1164=ORIENTED_EDGE('',*,*,#1139,.F.);
#1165=CARTESIAN_POINT('',(-0.75,1.1,1.0));
#1166=DIRECTION('',(0.0,0.0,-1.0));
#1167=DIRECTION('',(0.0,-1.0,0.0));
#1168=AXIS2_PLACEMENT_3D('',#1165,#1166,#1167);
#1169=CIRCLE('',#1168,0.25);
#1170=EDGE_CURVE('',#1115,#1125,#1169,.T.);
#1171=ORIENTED_EDGE('',*,*,#1170,.F.);
#1172=EDGE_LOOP('',(#1156,#1163,#1164,#1171));
#1173=FACE_OUTER_BOUND('',#1172,.T.);
#1174=ADVANCED_FACE('',(#1173),#1155,.F.);
#1175=CARTESIAN_POINT('',(-0.75,1.1,0.9));
#1176=DIRECTION('',(0.0,0.0,1.0));
#1177=DIRECTION('',(0.0,-1.0,0.0));
#1178=AXIS2_PLACEMENT_3D('',#1175,#1176,#1177);
#1179=PLANE('',#1178);
#1180=ORIENTED_EDGE('',*,*,#1146,.T.);
#1181=ORIENTED_EDGE('',*,*,#1162,.T.);
#1182=EDGE_LOOP('',(#1180,#1181));
#1183=FACE_OUTER_BOUND('',#1182,.T.);
#1184=ADVANCED_FACE('',(#1183),#1179,.T.);
#1185=CARTESIAN_POINT('',(-1.25,1.600000000000001,1.0));
#1186=CARTESIAN_POINT('',(-1.250000000000001,-1.6,1.0));
#1187=CARTESIAN_POINT('',(1.250000000000001,1.6,1.0));
#1188=CARTESIAN_POINT('',(1.25,-1.600000000000001,1.0));
#1189=B_SPLINE_SURFACE_WITH_KNOTS('',1,1,((#1185,#1187),(#1186,#1188)),.UNSPECIFIED.,.F.,.F.,.U.,(2,2),(2,2),(0.0,3.200000000000001),(0.0,2.500000000000001),.UNSPECIFIED.);
#1190=CARTESIAN_POINT('',(1.25,-1.6,1.0));
#1191=VERTEX_POINT('',#1190);
#1192=CARTESIAN_POINT('',(-1.25,-1.6,1.0));
#1193=VERTEX_POINT('',#1192);
#1194=CARTESIAN_POINT('',(1.25,-1.6,1.0));
#1195=DIRECTION('',(-1.0,0.0,0.0));
#1196=VECTOR('',#1195,2.5);
#1197=LINE('',#1194,#1196);
#1198=EDGE_CURVE('',#1191,#1193,#1197,.T.);
#1199=ORIENTED_EDGE('',*,*,#1198,.F.);
#1200=CARTESIAN_POINT('',(1.25,1.6,1.0));
#1201=VERTEX_POINT('',#1200);
#1202=CARTESIAN_POINT('',(1.25,1.6,1.0));
#1203=DIRECTION('',(0.0,-1.0,0.0));
#1204=VECTOR('',#1203,3.2);
#1205=LINE('',#1202,#1204);
#1206=EDGE_CURVE('',#1201,#1191,#1205,.T.);
#1207=ORIENTED_EDGE('',*,*,#1206,.F.);
#1208=CARTESIAN_POINT('',(-1.25,1.6,1.0));
#1209=VERTEX_POINT('',#1208);
#1210=CARTESIAN_POINT('',(-1.25,1.6,1.0));
#1211=DIRECTION('',(1.0,0.0,0.0));
#1212=VECTOR('',#1211,2.5);
#1213=LINE('',#1210,#1212);
#1214=EDGE_CURVE('',#1209,#1201,#1213,.T.);
#1215=ORIENTED_EDGE('',*,*,#1214,.F.);
#1216=CARTESIAN_POINT('',(-1.25,-1.6,1.0));
#1217=DIRECTION('',(0.0,1.0,0.0));
#1218=VECTOR('',#1217,3.2);
#1219=LINE('',#1216,#1218);
#1220=EDGE_CURVE('',#1193,#1209,#1219,.T.);
#1221=ORIENTED_EDGE('',*,*,#1220,.F.);
#1222=EDGE_LOOP('',(#1199,#1207,#1215,#1221));
#1223=FACE_OUTER_BOUND('',#1222,.T.);
#1224=ORIENTED_EDGE('',*,*,#1170,.T.);
#1225=ORIENTED_EDGE('',*,*,#1131,.T.);
#1226=EDGE_LOOP('',(#1224,#1225));
#1227=FACE_BOUND('',#1226,.T.);
#1228=ADVANCED_FACE('',(#1223,#1227),#1189,.T.);
#1229=CARTESIAN_POINT('',(-1.25,1.600000000000001,0.05));
#1230=CARTESIAN_POINT('',(-1.250000000000001,-1.6,0.05));
#1231=CARTESIAN_POINT('',(1.250000000000001,1.6,0.05));
#1232=CARTESIAN_POINT('',(1.25,-1.600000000000001,0.05));
#1233=B_SPLINE_SURFACE_WITH_KNOTS('',1,1,((#1229,#1231),(#1230,#1232)),.UNSPECIFIED.,.F.,.F.,.U.,(2,2),(2,2),(0.0,3.200000000000001),(0.0,2.500000000000001),.UNSPECIFIED.);
#1234=CARTESIAN_POINT('',(-1.25,-1.6,0.05));
#1235=VERTEX_POINT('',#1234);
#1236=CARTESIAN_POINT('',(1.25,-1.6,0.05));
#1237=VERTEX_POINT('',#1236);
#1238=CARTESIAN_POINT('',(-1.25,-1.6,0.05));
#1239=DIRECTION('',(1.0,0.0,0.0));
#1240=VECTOR('',#1239,2.5);
#1241=LINE('',#1238,#1240);
#1242=EDGE_CURVE('',#1235,#1237,#1241,.T.);
#1243=ORIENTED_EDGE('',*,*,#1242,.F.);
#1244=CARTESIAN_POINT('',(-1.25,1.6,0.05));
#1245=VERTEX_POINT('',#1244);
#1246=CARTESIAN_POINT('',(-1.25,1.6,0.05));
#1247=DIRECTION('',(0.0,-1.0,0.0));
#1248=VECTOR('',#1247,3.2);
#1249=LINE('',#1246,#1248);
#1250=EDGE_CURVE('',#1245,#1235,#1249,.T.);
#1251=ORIENTED_EDGE('',*,*,#1250,.F.);
#1252=CARTESIAN_POINT('',(1.25,1.6,0.05));
#1253=VERTEX_POINT('',#1252);
#1254=CARTESIAN_POINT('',(1.25,1.6,0.05));
#1255=DIRECTION('',(-1.0,0.0,0.0));
#1256=VECTOR('',#1255,2.5);
#1257=LINE('',#1254,#1256);
#1258=EDGE_CURVE('',#1253,#1245,#1257,.T.);
#1259=ORIENTED_EDGE('',*,*,#1258,.F.);
#1260=CARTESIAN_POINT('',(1.25,-1.6,0.05));
#1261=DIRECTION('',(0.0,1.0,0.0));
#1262=VECTOR('',#1261,3.2);
#1263=LINE('',#1260,#1262);
#1264=EDGE_CURVE('',#1237,#1253,#1263,.T.);
#1265=ORIENTED_EDGE('',*,*,#1264,.F.);
#1266=EDGE_LOOP('',(#1243,#1251,#1259,#1265));
#1267=FACE_OUTER_BOUND('',#1266,.T.);
#1268=ADVANCED_FACE('',(#1267),#1233,.F.);
#1269=CARTESIAN_POINT('',(1.25,-1.6,0.05));
#1270=CARTESIAN_POINT('',(1.25,-1.6,1.0));
#1271=CARTESIAN_POINT('',(1.25,1.6,0.05));
#1272=CARTESIAN_POINT('',(1.25,1.6,1.0));
#1273=B_SPLINE_SURFACE_WITH_KNOTS('',1,1,((#1269,#1271),(#1270,#1272)),.UNSPECIFIED.,.F.,.F.,.U.,(2,2),(2,2),(0.0,0.95),(0.0,3.2),.UNSPECIFIED.);
#1274=CARTESIAN_POINT('',(1.25,1.6,1.0));
#1275=DIRECTION('',(0.0,0.0,-1.0));
#1276=VECTOR('',#1275,0.95);
#1277=LINE('',#1274,#1276);
#1278=EDGE_CURVE('',#1201,#1253,#1277,.T.);
#1279=ORIENTED_EDGE('',*,*,#1278,.F.);
#1280=ORIENTED_EDGE('',*,*,#1206,.T.);
#1281=CARTESIAN_POINT('',(1.25,-1.6,1.0));
#1282=DIRECTION('',(0.0,0.0,-1.0));
#1283=VECTOR('',#1282,0.95);
#1284=LINE('',#1281,#1283);
#1285=EDGE_CURVE('',#1191,#1237,#1284,.T.);
#1286=ORIENTED_EDGE('',*,*,#1285,.T.);
#1287=ORIENTED_EDGE('',*,*,#1264,.T.);
#1288=EDGE_LOOP('',(#1279,#1280,#1286,#1287));
#1289=FACE_OUTER_BOUND('',#1288,.T.);
#1290=ADVANCED_FACE('',(#1289),#1273,.F.);
#1291=CARTESIAN_POINT('',(-1.25,1.6,1.0));
#1292=CARTESIAN_POINT('',(-1.25,1.6,0.05));
#1293=CARTESIAN_POINT('',(1.25,1.6,1.0));
#1294=CARTESIAN_POINT('',(1.25,1.6,0.05));
#1295=B_SPLINE_SURFACE_WITH_KNOTS('',1,1,((#1291,#1293),(#1292,#1294)),.UNSPECIFIED.,.F.,.F.,.U.,(2,2),(2,2),(0.0,0.95),(0.0,2.5),.UNSPECIFIED.);
#1296=CARTESIAN_POINT('',(-1.25,1.6,1.0));
#1297=DIRECTION('',(0.0,0.0,-1.0));
#1298=VECTOR('',#1297,0.95);
#1299=LINE('',#1296,#1298);
#1300=EDGE_CURVE('',#1209,#1245,#1299,.T.);
#1301=ORIENTED_EDGE('',*,*,#1300,.F.);
#1302=ORIENTED_EDGE('',*,*,#1214,.T.);
#1303=ORIENTED_EDGE('',*,*,#1278,.T.);
#1304=ORIENTED_EDGE('',*,*,#1258,.T.);
#1305=EDGE_LOOP('',(#1301,#1302,#1303,#1304));
#1306=FACE_OUTER_BOUND('',#1305,.T.);
#1307=ADVANCED_FACE('',(#1306),#1295,.F.);
#1308=CARTESIAN_POINT('',(-1.25,-1.6,1.0));
#1309=CARTESIAN_POINT('',(-1.25,-1.6,0.05));
#1310=CARTESIAN_POINT('',(-1.25,1.6,1.0));
#1311=CARTESIAN_POINT('',(-1.25,1.6,0.05));
#1312=B_SPLINE_SURFACE_WITH_KNOTS('',1,1,((#1308,#1310),(#1309,#1311)),.UNSPECIFIED.,.F.,.F.,.U.,(2,2),(2,2),(0.0,0.95),(0.0,3.2),.UNSPECIFIED.);
#1313=CARTESIAN_POINT('',(-1.25,-1.6,1.0));
#1314=DIRECTION('',(0.0,0.0,-1.0));
#1315=VECTOR('',#1314,0.95);
#1316=LINE('',#1313,#1315);
#1317=EDGE_CURVE('',#1193,#1235,#1316,.T.);
#1318=ORIENTED_EDGE('',*,*,#1317,.F.);
#1319=ORIENTED_EDGE('',*,*,#1220,.T.);
#1320=ORIENTED_EDGE('',*,*,#1300,.T.);
#1321=ORIENTED_EDGE('',*,*,#1250,.T.);
#1322=EDGE_LOOP('',(#1318,#1319,#1320,#1321));
#1323=FACE_OUTER_BOUND('',#1322,.T.);
#1324=ADVANCED_FACE('',(#1323),#1312,.F.);
#1325=CARTESIAN_POINT('',(-1.25,-1.6,0.05));
#1326=CARTESIAN_POINT('',(-1.25,-1.6,1.0));
#1327=CARTESIAN_POINT('',(1.25,-1.6,0.05));
#1328=CARTESIAN_POINT('',(1.25,-1.6,1.0));
#1329=B_SPLINE_SURFACE_WITH_KNOTS('',1,1,((#1325,#1327),(#1326,#1328)),.UNSPECIFIED.,.F.,.F.,.U.,(2,2),(2,2),(0.0,0.95),(0.0,2.5),.UNSPECIFIED.);
#1330=ORIENTED_EDGE('',*,*,#1285,.F.);
#1331=ORIENTED_EDGE('',*,*,#1198,.T.);
#1332=ORIENTED_EDGE('',*,*,#1317,.T.);
#1333=ORIENTED_EDGE('',*,*,#1242,.T.);
#1334=EDGE_LOOP('',(#1330,#1331,#1332,#1333));
#1335=FACE_OUTER_BOUND('',#1334,.T.);
#1336=ADVANCED_FACE('',(#1335),#1329,.F.);
#1337=CLOSED_SHELL('',(#1150,#1174,#1184,#1228,#1268,#1290,#1307,#1324,#1336));
#1338=MANIFOLD_SOLID_BREP('117F',#1337);
#1339=COLOUR_RGB('250',0.33,0.33,0.33);
#1340=SURFACE_STYLE_USAGE(.BOTH.,#1341);
#1341=SURFACE_SIDE_STYLE('NONE',(#1342));
#1342=SURFACE_STYLE_FILL_AREA(#1343);
#1343=FILL_AREA_STYLE('NONE',(#1344));
#1344=FILL_AREA_STYLE_COLOUR('NONE',#1339);
#1345=PRESENTATION_STYLE_ASSIGNMENT((#1340));
#1346=STYLED_ITEM('NONE',(#1345),#1338);
#1347=ADVANCED_BREP_SHAPE_REPRESENTATION('ABSR1',(#152,#312,#470,#654,#805,#956,#1107,#1338),#28);
#1348=SHAPE_REPRESENTATION_RELATIONSHIP('SRRPL1','',#1347,#62);
ENDSEC;
END-ISO-10303-21;
