ISO-10303-21;
HEADER;
/****************************************************************
 * Generated by software with PDE/Lib inside                    *
 * PDE/Lib Version 3.2.2, created Thu Mar 23, 2000 at 18:38:49  *
 * International Technegroup Inc. (www.iti-oh.com)              *
 ****************************************************************/
FILE_DESCRIPTION((''),'2;1');
FILE_NAME('PB_MENTOR_1840.6131.stp','2009-08-31T09:34:06',(''),(''),'Mechanical Desktop 2006','Mechanical Desktop 2006',', , ');
FILE_SCHEMA(('AUTOMOTIVE_DESIGN { 1 2 10303 214 0 1 1 1 }'));
ENDSEC;
DATA;
#8=(NAMED_UNIT(*)PLANE_ANGLE_UNIT()SI_UNIT($,.RADIAN.));
#9=DIMENSIONAL_EXPONENTS(0.0,0.0,0.0,0.0,0.0,0.0,0.0);
#10=PLANE_ANGLE_MEASURE_WITH_UNIT(PLANE_ANGLE_MEASURE(0.017453292500000),#8);
#14=(CONVERSION_BASED_UNIT('DEGREE',#10)NAMED_UNIT(#9)PLANE_ANGLE_UNIT());
#18=(NAMED_UNIT(*)SI_UNIT($,.STERADIAN.)SOLID_ANGLE_UNIT());
#22=(LENGTH_UNIT()NAMED_UNIT(*)SI_UNIT(.MILLI.,.METRE.));
#23=UNCERTAINTY_MEASURE_WITH_UNIT(LENGTH_MEASURE(0.000001000000000),#22,'DISTANCE_ACCURACY_VALUE','');
#28=(GEOMETRIC_REPRESENTATION_CONTEXT(3)GLOBAL_UNCERTAINTY_ASSIGNED_CONTEXT((#23))GLOBAL_UNIT_ASSIGNED_CONTEXT((#14,#18,#22))REPRESENTATION_CONTEXT('None','None'));
#29=APPLICATION_CONTEXT('automotive design');
#30=APPLICATION_PROTOCOL_DEFINITION('DRAFT_INTERNATIONAL_STANDARD','automotive_design',1998,#29);
#31=PRODUCT_CONTEXT('3D Mechanical Parts',#29,'mechanical');
#32=PRODUCT('Product','Product','',(#31));
#33=PRODUCT_RELATED_PRODUCT_CATEGORY('part',$,(#32));
#34=PRODUCT_CATEGORY('part',$);
#35=PERSON('1','Design','Joe',$,$,$);
#36=ORGANIZATION($,'None','None');
#37=PERSON_AND_ORGANIZATION(#35,#36);
#38=PERSON_AND_ORGANIZATION_ROLE('design_owner');
#39=APPLIED_PERSON_AND_ORGANIZATION_ASSIGNMENT(#37,#38,(#32));
#40=PRODUCT_DEFINITION_FORMATION_WITH_SPECIFIED_SOURCE('None','',#32,.BOUGHT.);
#41=PERSON('2','Creator','Joe',$,$,$);
#42=ORGANIZATION($,'None','None');
#43=PERSON_AND_ORGANIZATION(#41,#42);
#44=PERSON_AND_ORGANIZATION_ROLE('creator');
#45=APPLIED_PERSON_AND_ORGANIZATION_ASSIGNMENT(#43,#44,(#40));
#46=PERSON('3','Supplier','Joe',$,$,$);
#47=ORGANIZATION($,'None','None');
#48=PERSON_AND_ORGANIZATION(#46,#47);
#49=PERSON_AND_ORGANIZATION_ROLE('design_supplier');
#50=APPLIED_PERSON_AND_ORGANIZATION_ASSIGNMENT(#48,#49,(#40));
#51=PRODUCT_DEFINITION_CONTEXT('part definition',#29,'design');
#52=PRODUCT_DEFINITION('None','',#40,#51);
#53=PERSON('4','Creator','Joe',$,$,$);
#54=ORGANIZATION($,'None','None');
#55=PERSON_AND_ORGANIZATION(#53,#54);
#56=PERSON_AND_ORGANIZATION_ROLE('creator');
#57=APPLIED_PERSON_AND_ORGANIZATION_ASSIGNMENT(#55,#56,(#52));
#58=CARTESIAN_POINT('NONE',(0.0,0.0,0.0));
#59=DIRECTION('NONE',(0.0,0.0,1.0));
#60=DIRECTION('NONE',(1.0,0.0,0.0));
#61=AXIS2_PLACEMENT_3D('NONE',#58,#59,#60);
#62=SHAPE_REPRESENTATION('SR1',(#61),#28);
#63=PRODUCT_DEFINITION_SHAPE('PDS1','Test Part',#52);
#64=SHAPE_DEFINITION_REPRESENTATION(#63,#62);
#65=CARTESIAN_POINT('',(-14.800000000000002,3.296715E-015,5.050000000000002));
#66=DIRECTION('',(1.0,-4.440892E-016,0.0));
#67=DIRECTION('',(0.0,1.0,0.0));
#68=AXIS2_PLACEMENT_3D('',#65,#66,#67);
#69=CONICAL_SURFACE('',#68,0.900000000000000,45.000000000000078);
#70=CARTESIAN_POINT('',(-14.900000000000002,0.800000000000003,5.050000000000002));
#71=VERTEX_POINT('',#70);
#72=CARTESIAN_POINT('',(-14.700000000000003,1.000000000000003,5.050000000000002));
#73=VERTEX_POINT('',#72);
#74=CARTESIAN_POINT('',(-14.900000000000002,0.800000000000003,5.050000000000002));
#75=DIRECTION('',(0.707106781186547,0.707106781186548,0.0));
#76=VECTOR('',#75,0.282842712474618);
#77=LINE('',#74,#76);
#78=EDGE_CURVE('',#71,#73,#77,.T.);
#79=ORIENTED_EDGE('',*,*,#78,.F.);
#80=CARTESIAN_POINT('',(-14.900000000000002,-0.799999999999997,5.050000000000002));
#81=VERTEX_POINT('',#80);
#82=CARTESIAN_POINT('',(-14.900000000000002,3.341124E-015,5.050000000000002));
#83=DIRECTION('',(1.0,0.0,0.0));
#84=DIRECTION('',(0.0,1.0,0.0));
#85=AXIS2_PLACEMENT_3D('',#82,#83,#84);
#86=CIRCLE('',#85,0.800000000000000);
#87=EDGE_CURVE('',#71,#81,#86,.T.);
#88=ORIENTED_EDGE('',*,*,#87,.T.);
#89=CARTESIAN_POINT('',(-14.700000000000003,-0.999999999999997,5.050000000000002));
#90=VERTEX_POINT('',#89);
#91=CARTESIAN_POINT('',(-14.700000000000003,-0.999999999999997,5.050000000000002));
#92=DIRECTION('',(-0.707106781186546,0.707106781186549,0.0));
#93=VECTOR('',#92,0.282842712474618);
#94=LINE('',#91,#93);
#95=EDGE_CURVE('',#90,#81,#94,.T.);
#96=ORIENTED_EDGE('',*,*,#95,.F.);
#97=CARTESIAN_POINT('',(-14.700000000000003,3.252306E-015,5.050000000000002));
#98=DIRECTION('',(-1.0,0.0,0.0));
#99=DIRECTION('',(0.0,1.0,0.0));
#100=AXIS2_PLACEMENT_3D('',#97,#98,#99);
#101=CIRCLE('',#100,1.0);
#102=EDGE_CURVE('',#90,#73,#101,.T.);
#103=ORIENTED_EDGE('',*,*,#102,.T.);
#104=EDGE_LOOP('',(#79,#88,#96,#103));
#105=FACE_OUTER_BOUND('',#104,.T.);
#106=ADVANCED_FACE('',(#105),#69,.T.);
#107=CARTESIAN_POINT('',(-9.100000000000001,7.868453E-016,5.050000000000001));
#108=DIRECTION('',(-1.0,4.402609E-016,1.531342E-016));
#109=DIRECTION('',(0.0,-1.0,0.0));
#110=AXIS2_PLACEMENT_3D('',#107,#108,#109);
#111=CYLINDRICAL_SURFACE('',#110,1.0);
#112=CARTESIAN_POINT('',(-8.600000000000001,-0.999999999999999,5.050000000000001));
#113=VERTEX_POINT('',#112);
#114=CARTESIAN_POINT('',(-8.600000000000001,-0.999999999999999,5.050000000000001));
#115=DIRECTION('',(-1.0,0.0,0.0));
#116=VECTOR('',#115,6.100000000000001);
#117=LINE('',#114,#116);
#118=EDGE_CURVE('',#113,#90,#117,.T.);
#119=ORIENTED_EDGE('',*,*,#118,.F.);
#120=CARTESIAN_POINT('',(-8.600000000000001,1.000000000000001,5.050000000000000));
#121=VERTEX_POINT('',#120);
#122=CARTESIAN_POINT('',(-8.600000000000001,7.868453E-016,5.050000000000001));
#123=DIRECTION('',(-1.0,0.0,0.0));
#124=DIRECTION('',(0.0,-1.0,0.0));
#125=AXIS2_PLACEMENT_3D('',#122,#123,#124);
#126=CIRCLE('',#125,1.0);
#127=EDGE_CURVE('',#113,#121,#126,.T.);
#128=ORIENTED_EDGE('',*,*,#127,.T.);
#129=CARTESIAN_POINT('',(-14.700000000000003,1.000000000000003,5.050000000000002));
#130=DIRECTION('',(1.0,0.0,0.0));
#131=VECTOR('',#130,6.100000000000001);
#132=LINE('',#129,#131);
#133=EDGE_CURVE('',#73,#121,#132,.T.);
#134=ORIENTED_EDGE('',*,*,#133,.F.);
#135=ORIENTED_EDGE('',*,*,#102,.F.);
#136=EDGE_LOOP('',(#119,#128,#134,#135));
#137=FACE_OUTER_BOUND('',#136,.T.);
#138=ADVANCED_FACE('',(#137),#111,.T.);
#139=CARTESIAN_POINT('',(-9.100000000000001,7.868453E-016,5.050000000000001));
#140=DIRECTION('',(-1.0,4.402609E-016,1.531342E-016));
#141=DIRECTION('',(0.0,-1.0,0.0));
#142=AXIS2_PLACEMENT_3D('',#139,#140,#141);
#143=CYLINDRICAL_SURFACE('',#142,1.0);
#144=ORIENTED_EDGE('',*,*,#118,.T.);
#145=CARTESIAN_POINT('',(-14.700000000000003,3.252306E-015,5.050000000000002));
#146=DIRECTION('',(-1.0,0.0,0.0));
#147=DIRECTION('',(0.0,1.0,0.0));
#148=AXIS2_PLACEMENT_3D('',#145,#146,#147);
#149=CIRCLE('',#148,1.0);
#150=EDGE_CURVE('',#73,#90,#149,.T.);
#151=ORIENTED_EDGE('',*,*,#150,.F.);
#152=ORIENTED_EDGE('',*,*,#133,.T.);
#153=CARTESIAN_POINT('',(-8.600000000000001,7.868453E-016,5.050000000000001));
#154=DIRECTION('',(-1.0,0.0,0.0));
#155=DIRECTION('',(0.0,-1.0,0.0));
#156=AXIS2_PLACEMENT_3D('',#153,#154,#155);
#157=CIRCLE('',#156,1.0);
#158=EDGE_CURVE('',#121,#113,#157,.T.);
#159=ORIENTED_EDGE('',*,*,#158,.T.);
#160=EDGE_LOOP('',(#144,#151,#152,#159));
#161=FACE_OUTER_BOUND('',#160,.T.);
#162=ADVANCED_FACE('',(#161),#143,.T.);
#163=CARTESIAN_POINT('',(-8.600000000000001,7.868453E-016,5.050000000000001));
#164=DIRECTION('',(-1.0,0.0,0.0));
#165=DIRECTION('',(0.0,0.0,1.0));
#166=AXIS2_PLACEMENT_3D('',#163,#164,#165);
#167=PLANE('',#166);
#168=ORIENTED_EDGE('',*,*,#127,.F.);
#169=ORIENTED_EDGE('',*,*,#158,.F.);
#170=EDGE_LOOP('',(#168,#169));
#171=FACE_OUTER_BOUND('',#170,.T.);
#172=ADVANCED_FACE('',(#171),#167,.F.);
#173=CARTESIAN_POINT('',(-14.800000000000002,3.296715E-015,5.050000000000002));
#174=DIRECTION('',(1.0,-4.440892E-016,0.0));
#175=DIRECTION('',(0.0,1.0,0.0));
#176=AXIS2_PLACEMENT_3D('',#173,#174,#175);
#177=CONICAL_SURFACE('',#176,0.900000000000000,45.000000000000078);
#178=ORIENTED_EDGE('',*,*,#78,.T.);
#179=ORIENTED_EDGE('',*,*,#150,.T.);
#180=ORIENTED_EDGE('',*,*,#95,.T.);
#181=CARTESIAN_POINT('',(-14.900000000000002,3.341124E-015,5.050000000000002));
#182=DIRECTION('',(1.0,0.0,0.0));
#183=DIRECTION('',(0.0,1.0,0.0));
#184=AXIS2_PLACEMENT_3D('',#181,#182,#183);
#185=CIRCLE('',#184,0.800000000000000);
#186=EDGE_CURVE('',#81,#71,#185,.T.);
#187=ORIENTED_EDGE('',*,*,#186,.T.);
#188=EDGE_LOOP('',(#178,#179,#180,#187));
#189=FACE_OUTER_BOUND('',#188,.T.);
#190=ADVANCED_FACE('',(#189),#177,.T.);
#191=CARTESIAN_POINT('',(-14.900000000000002,3.451381E-015,5.050000000000002));
#192=DIRECTION('',(-1.0,0.0,0.0));
#193=DIRECTION('',(0.0,0.0,1.0));
#194=AXIS2_PLACEMENT_3D('',#191,#192,#193);
#195=PLANE('',#194);
#196=ORIENTED_EDGE('',*,*,#186,.F.);
#197=ORIENTED_EDGE('',*,*,#87,.F.);
#198=EDGE_LOOP('',(#196,#197));
#199=FACE_OUTER_BOUND('',#198,.T.);
#200=ADVANCED_FACE('',(#199),#195,.T.);
#201=CLOSED_SHELL('',(#106,#138,#162,#172,#190,#200));
#202=MANIFOLD_SOLID_BREP('859',#201);
#203=COLOUR_RGB('250',0.330000000000000,0.330000000000000,0.330000000000000);
#204=SURFACE_STYLE_USAGE(.BOTH.,#205);
#205=SURFACE_SIDE_STYLE('NONE',(#206));
#206=SURFACE_STYLE_FILL_AREA(#207);
#207=FILL_AREA_STYLE('NONE',(#208));
#208=FILL_AREA_STYLE_COLOUR('NONE',#203);
#209=PRESENTATION_STYLE_ASSIGNMENT((#204));
#210=STYLED_ITEM('NONE',(#209),#202);
#211=MECHANICAL_DESIGN_GEOMETRIC_PRESENTATION_REPRESENTATION('NONE',(#210,#351,#766,#924,#1075,#1226,#1377,#1528,#1617),#28);
#212=PRESENTATION_LAYER_ASSIGNMENT('3D','None',(#202,#350,#765,#916,#1074,#1225,#1376,#1527,#1616));
#213=CARTESIAN_POINT('',(-6.840000000000001,-7.105427E-017,5.050000000000001));
#214=DIRECTION('',(-1.0,5.046468E-016,0.0));
#215=DIRECTION('',(0.0,-1.0,0.0));
#216=AXIS2_PLACEMENT_3D('',#213,#214,#215);
#217=CYLINDRICAL_SURFACE('',#216,1.900000000000000);
#218=CARTESIAN_POINT('',(-6.840000000000002,-1.900000000000000,5.050000000000001));
#219=VERTEX_POINT('',#218);
#220=CARTESIAN_POINT('',(-8.100000000000001,-1.899999999999999,5.050000000000001));
#221=VERTEX_POINT('',#220);
#222=CARTESIAN_POINT('',(-6.840000000000002,-1.900000000000000,5.050000000000001));
#223=DIRECTION('',(-1.0,0.0,0.0));
#224=VECTOR('',#223,1.260000000000000);
#225=LINE('',#222,#224);
#226=EDGE_CURVE('',#219,#221,#225,.T.);
#227=ORIENTED_EDGE('',*,*,#226,.F.);
#228=CARTESIAN_POINT('',(-6.840000000000001,1.900000000000000,5.050000000000001));
#229=VERTEX_POINT('',#228);
#230=CARTESIAN_POINT('',(-6.840000000000001,-7.105427E-017,5.050000000000001));
#231=DIRECTION('',(-1.0,0.0,0.0));
#232=DIRECTION('',(0.0,-1.0,0.0));
#233=AXIS2_PLACEMENT_3D('',#230,#231,#232);
#234=CIRCLE('',#233,1.900000000000000);
#235=EDGE_CURVE('',#219,#229,#234,.T.);
#236=ORIENTED_EDGE('',*,*,#235,.T.);
#237=CARTESIAN_POINT('',(-8.100000000000000,1.900000000000001,5.050000000000001));
#238=VERTEX_POINT('',#237);
#239=CARTESIAN_POINT('',(-8.100000000000000,1.900000000000001,5.050000000000001));
#240=DIRECTION('',(1.0,0.0,0.0));
#241=VECTOR('',#240,1.259999999999999);
#242=LINE('',#239,#241);
#243=EDGE_CURVE('',#238,#229,#242,.T.);
#244=ORIENTED_EDGE('',*,*,#243,.F.);
#245=CARTESIAN_POINT('',(-8.100000000000000,5.648007E-016,5.050000000000001));
#246=DIRECTION('',(-1.0,0.0,0.0));
#247=DIRECTION('',(0.0,1.0,0.0));
#248=AXIS2_PLACEMENT_3D('',#245,#246,#247);
#249=CIRCLE('',#248,1.900000000000000);
#250=EDGE_CURVE('',#221,#238,#249,.T.);
#251=ORIENTED_EDGE('',*,*,#250,.F.);
#252=EDGE_LOOP('',(#227,#236,#244,#251));
#253=FACE_OUTER_BOUND('',#252,.T.);
#254=ADVANCED_FACE('',(#253),#217,.T.);
#255=CARTESIAN_POINT('',(-8.350000000000001,6.758230E-016,5.050000000000001));
#256=DIRECTION('',(1.0,-4.440892E-016,0.0));
#257=DIRECTION('',(0.0,1.0,0.0));
#258=AXIS2_PLACEMENT_3D('',#255,#256,#257);
#259=CONICAL_SURFACE('',#258,1.650000000000000,44.999999999999901);
#260=CARTESIAN_POINT('',(-8.600000000000001,1.400000000000001,5.050000000000001));
#261=VERTEX_POINT('',#260);
#262=CARTESIAN_POINT('',(-8.600000000000001,1.400000000000001,5.050000000000001));
#263=DIRECTION('',(0.707106781186549,0.707106781186546,0.0));
#264=VECTOR('',#263,0.707106781186549);
#265=LINE('',#262,#264);
#266=EDGE_CURVE('',#261,#238,#265,.T.);
#267=ORIENTED_EDGE('',*,*,#266,.F.);
#268=CARTESIAN_POINT('',(-8.600000000000001,-1.399999999999999,5.050000000000001));
#269=VERTEX_POINT('',#268);
#270=CARTESIAN_POINT('',(-8.600000000000001,7.868453E-016,5.050000000000001));
#271=DIRECTION('',(1.0,0.0,0.0));
#272=DIRECTION('',(0.0,1.0,0.0));
#273=AXIS2_PLACEMENT_3D('',#270,#271,#272);
#274=CIRCLE('',#273,1.400000000000000);
#275=EDGE_CURVE('',#261,#269,#274,.T.);
#276=ORIENTED_EDGE('',*,*,#275,.T.);
#277=CARTESIAN_POINT('',(-8.100000000000001,-1.899999999999999,5.050000000000001));
#278=DIRECTION('',(-0.707106781186547,0.707106781186548,0.0));
#279=VECTOR('',#278,0.707106781186548);
#280=LINE('',#277,#279);
#281=EDGE_CURVE('',#221,#269,#280,.T.);
#282=ORIENTED_EDGE('',*,*,#281,.F.);
#283=ORIENTED_EDGE('',*,*,#250,.T.);
#284=EDGE_LOOP('',(#267,#276,#282,#283));
#285=FACE_OUTER_BOUND('',#284,.T.);
#286=ADVANCED_FACE('',(#285),#259,.T.);
#287=CARTESIAN_POINT('',(-8.350000000000001,6.758230E-016,5.050000000000001));
#288=DIRECTION('',(1.0,-4.440892E-016,0.0));
#289=DIRECTION('',(0.0,1.0,0.0));
#290=AXIS2_PLACEMENT_3D('',#287,#288,#289);
#291=CONICAL_SURFACE('',#290,1.650000000000000,44.999999999999901);
#292=ORIENTED_EDGE('',*,*,#266,.T.);
#293=CARTESIAN_POINT('',(-8.100000000000000,5.648007E-016,5.050000000000001));
#294=DIRECTION('',(-1.0,0.0,0.0));
#295=DIRECTION('',(0.0,1.0,0.0));
#296=AXIS2_PLACEMENT_3D('',#293,#294,#295);
#297=CIRCLE('',#296,1.900000000000000);
#298=EDGE_CURVE('',#238,#221,#297,.T.);
#299=ORIENTED_EDGE('',*,*,#298,.T.);
#300=ORIENTED_EDGE('',*,*,#281,.T.);
#301=CARTESIAN_POINT('',(-8.600000000000001,7.868453E-016,5.050000000000001));
#302=DIRECTION('',(1.0,0.0,0.0));
#303=DIRECTION('',(0.0,1.0,0.0));
#304=AXIS2_PLACEMENT_3D('',#301,#302,#303);
#305=CIRCLE('',#304,1.400000000000000);
#306=EDGE_CURVE('',#269,#261,#305,.T.);
#307=ORIENTED_EDGE('',*,*,#306,.T.);
#308=EDGE_LOOP('',(#292,#299,#300,#307));
#309=FACE_OUTER_BOUND('',#308,.T.);
#310=ADVANCED_FACE('',(#309),#291,.T.);
#311=CARTESIAN_POINT('',(-6.840000000000001,-7.105427E-017,5.050000000000001));
#312=DIRECTION('',(-1.0,5.046468E-016,0.0));
#313=DIRECTION('',(0.0,-1.0,0.0));
#314=AXIS2_PLACEMENT_3D('',#311,#312,#313);
#315=CYLINDRICAL_SURFACE('',#314,1.900000000000000);
#316=ORIENTED_EDGE('',*,*,#226,.T.);
#317=ORIENTED_EDGE('',*,*,#298,.F.);
#318=ORIENTED_EDGE('',*,*,#243,.T.);
#319=CARTESIAN_POINT('',(-6.840000000000001,-7.105427E-017,5.050000000000001));
#320=DIRECTION('',(-1.0,0.0,0.0));
#321=DIRECTION('',(0.0,-1.0,0.0));
#322=AXIS2_PLACEMENT_3D('',#319,#320,#321);
#323=CIRCLE('',#322,1.900000000000000);
#324=EDGE_CURVE('',#229,#219,#323,.T.);
#325=ORIENTED_EDGE('',*,*,#324,.T.);
#326=EDGE_LOOP('',(#316,#317,#318,#325));
#327=FACE_OUTER_BOUND('',#326,.T.);
#328=ADVANCED_FACE('',(#327),#315,.T.);
#329=CARTESIAN_POINT('',(-8.600000000000001,8.171241E-016,5.050000000000001));
#330=DIRECTION('',(-1.0,0.0,0.0));
#331=DIRECTION('',(0.0,0.0,1.0));
#332=AXIS2_PLACEMENT_3D('',#329,#330,#331);
#333=PLANE('',#332);
#334=ORIENTED_EDGE('',*,*,#306,.F.);
#335=ORIENTED_EDGE('',*,*,#275,.F.);
#336=EDGE_LOOP('',(#334,#335));
#337=FACE_OUTER_BOUND('',#336,.T.);
#338=ADVANCED_FACE('',(#337),#333,.T.);
#339=CARTESIAN_POINT('',(-6.840000000000001,-7.105427E-017,5.050000000000001));
#340=DIRECTION('',(-1.0,0.0,0.0));
#341=DIRECTION('',(0.0,0.0,1.0));
#342=AXIS2_PLACEMENT_3D('',#339,#340,#341);
#343=PLANE('',#342);
#344=ORIENTED_EDGE('',*,*,#235,.F.);
#345=ORIENTED_EDGE('',*,*,#324,.F.);
#346=EDGE_LOOP('',(#344,#345));
#347=FACE_OUTER_BOUND('',#346,.T.);
#348=ADVANCED_FACE('',(#347),#343,.F.);
#349=CLOSED_SHELL('',(#254,#286,#310,#328,#338,#348));
#350=MANIFOLD_SOLID_BREP('856',#349);
#351=STYLED_ITEM('NONE',(#209),#350);
#352=CARTESIAN_POINT('',(-6.840000000000000,-2.500000000000000,0.300000000000000));
#353=DIRECTION('',(-1.0,0.0,0.0));
#354=DIRECTION('',(0.0,0.0,1.0));
#355=AXIS2_PLACEMENT_3D('',#352,#353,#354);
#356=PLANE('',#355);
#357=CARTESIAN_POINT('',(-6.840000000000000,-2.500000000000000,10.100000000000001));
#358=VERTEX_POINT('',#357);
#359=CARTESIAN_POINT('',(-6.840000000000000,2.500000000000000,10.100000000000001));
#360=VERTEX_POINT('',#359);
#361=CARTESIAN_POINT('',(-6.840000000000000,-2.500000000000000,10.100000000000001));
#362=DIRECTION('',(0.0,1.0,0.0));
#363=VECTOR('',#362,5.0);
#364=LINE('',#361,#363);
#365=EDGE_CURVE('',#358,#360,#364,.T.);
#366=ORIENTED_EDGE('',*,*,#365,.T.);
#367=CARTESIAN_POINT('',(-6.840000000000000,2.500000000000000,0.300000000000000));
#368=VERTEX_POINT('',#367);
#369=CARTESIAN_POINT('',(-6.840000000000000,2.500000000000000,0.300000000000000));
#370=DIRECTION('',(0.0,0.0,1.0));
#371=VECTOR('',#370,9.800000000000001);
#372=LINE('',#369,#371);
#373=EDGE_CURVE('',#368,#360,#372,.T.);
#374=ORIENTED_EDGE('',*,*,#373,.F.);
#375=CARTESIAN_POINT('',(-6.840000000000000,-2.500000000000000,0.300000000000000));
#376=VERTEX_POINT('',#375);
#377=CARTESIAN_POINT('',(-6.840000000000000,2.500000000000000,0.300000000000000));
#378=DIRECTION('',(0.0,-1.0,0.0));
#379=VECTOR('',#378,5.0);
#380=LINE('',#377,#379);
#381=EDGE_CURVE('',#368,#376,#380,.T.);
#382=ORIENTED_EDGE('',*,*,#381,.T.);
#383=CARTESIAN_POINT('',(-6.840000000000000,-2.500000000000000,0.300000000000000));
#384=DIRECTION('',(0.0,0.0,1.0));
#385=VECTOR('',#384,9.800000000000001);
#386=LINE('',#383,#385);
#387=EDGE_CURVE('',#376,#358,#386,.T.);
#388=ORIENTED_EDGE('',*,*,#387,.T.);
#389=EDGE_LOOP('',(#366,#374,#382,#388));
#390=FACE_OUTER_BOUND('',#389,.T.);
#391=ADVANCED_FACE('',(#390),#356,.T.);
#392=CARTESIAN_POINT('',(-6.840000000000000,2.500000000000000,0.300000000000000));
#393=DIRECTION('',(0.0,1.0,0.0));
#394=DIRECTION('',(0.0,0.0,1.0));
#395=AXIS2_PLACEMENT_3D('',#392,#393,#394);
#396=PLANE('',#395);
#397=CARTESIAN_POINT('',(-0.500000000000000,2.500000000000001,10.100000000000001));
#398=VERTEX_POINT('',#397);
#399=CARTESIAN_POINT('',(-6.840000000000000,2.500000000000000,10.100000000000001));
#400=DIRECTION('',(1.0,0.0,0.0));
#401=VECTOR('',#400,6.340000000000000);
#402=LINE('',#399,#401);
#403=EDGE_CURVE('',#360,#398,#402,.T.);
#404=ORIENTED_EDGE('',*,*,#403,.T.);
#405=CARTESIAN_POINT('',(-0.500000000000000,2.500000000000001,0.300000000000000));
#406=VERTEX_POINT('',#405);
#407=CARTESIAN_POINT('',(-0.500000000000000,2.500000000000001,0.300000000000000));
#408=DIRECTION('',(0.0,0.0,1.0));
#409=VECTOR('',#408,9.800000000000001);
#410=LINE('',#407,#409);
#411=EDGE_CURVE('',#406,#398,#410,.T.);
#412=ORIENTED_EDGE('',*,*,#411,.F.);
#413=CARTESIAN_POINT('',(-0.500000000000000,2.500000000000001,0.300000000000000));
#414=DIRECTION('',(-1.0,0.0,0.0));
#415=VECTOR('',#414,6.340000000000000);
#416=LINE('',#413,#415);
#417=EDGE_CURVE('',#406,#368,#416,.T.);
#418=ORIENTED_EDGE('',*,*,#417,.T.);
#419=ORIENTED_EDGE('',*,*,#373,.T.);
#420=EDGE_LOOP('',(#404,#412,#418,#419));
#421=FACE_OUTER_BOUND('',#420,.T.);
#422=ADVANCED_FACE('',(#421),#396,.T.);
#423=CARTESIAN_POINT('',(-0.500000000000000,2.500000000000001,0.300000000000000));
#424=DIRECTION('',(-1.0,0.0,0.0));
#425=DIRECTION('',(0.0,0.0,1.0));
#426=AXIS2_PLACEMENT_3D('',#423,#424,#425);
#427=PLANE('',#426);
#428=CARTESIAN_POINT('',(-0.500000000000000,3.000000000000001,10.100000000000001));
#429=VERTEX_POINT('',#428);
#430=CARTESIAN_POINT('',(-0.500000000000000,2.500000000000001,10.100000000000001));
#431=DIRECTION('',(0.0,1.0,0.0));
#432=VECTOR('',#431,0.500000000000000);
#433=LINE('',#430,#432);
#434=EDGE_CURVE('',#398,#429,#433,.T.);
#435=ORIENTED_EDGE('',*,*,#434,.T.);
#436=CARTESIAN_POINT('',(-0.500000000000000,3.000000000000001,0.300000000000000));
#437=VERTEX_POINT('',#436);
#438=CARTESIAN_POINT('',(-0.500000000000000,3.000000000000001,0.300000000000000));
#439=DIRECTION('',(0.0,0.0,1.0));
#440=VECTOR('',#439,9.800000000000001);
#441=LINE('',#438,#440);
#442=EDGE_CURVE('',#437,#429,#441,.T.);
#443=ORIENTED_EDGE('',*,*,#442,.F.);
#444=CARTESIAN_POINT('',(-0.500000000000000,3.000000000000001,0.300000000000000));
#445=DIRECTION('',(0.0,-1.0,0.0));
#446=VECTOR('',#445,0.500000000000000);
#447=LINE('',#444,#446);
#448=EDGE_CURVE('',#437,#406,#447,.T.);
#449=ORIENTED_EDGE('',*,*,#448,.T.);
#450=ORIENTED_EDGE('',*,*,#411,.T.);
#451=EDGE_LOOP('',(#435,#443,#449,#450));
#452=FACE_OUTER_BOUND('',#451,.T.);
#453=ADVANCED_FACE('',(#452),#427,.T.);
#454=CARTESIAN_POINT('',(-0.500000000000000,3.000000000000001,0.300000000000000));
#455=DIRECTION('',(0.0,1.0,0.0));
#456=DIRECTION('',(0.0,0.0,1.0));
#457=AXIS2_PLACEMENT_3D('',#454,#455,#456);
#458=PLANE('',#457);
#459=CARTESIAN_POINT('',(0.500000000000000,3.000000000000000,10.100000000000001));
#460=VERTEX_POINT('',#459);
#461=CARTESIAN_POINT('',(-0.500000000000000,3.000000000000001,10.100000000000001));
#462=DIRECTION('',(1.0,0.0,0.0));
#463=VECTOR('',#462,1.0);
#464=LINE('',#461,#463);
#465=EDGE_CURVE('',#429,#460,#464,.T.);
#466=ORIENTED_EDGE('',*,*,#465,.T.);
#467=CARTESIAN_POINT('',(0.500000000000000,3.000000000000000,0.300000000000000));
#468=VERTEX_POINT('',#467);
#469=CARTESIAN_POINT('',(0.500000000000000,3.000000000000000,0.300000000000000));
#470=DIRECTION('',(0.0,0.0,1.0));
#471=VECTOR('',#470,9.800000000000001);
#472=LINE('',#469,#471);
#473=EDGE_CURVE('',#468,#460,#472,.T.);
#474=ORIENTED_EDGE('',*,*,#473,.F.);
#475=CARTESIAN_POINT('',(0.500000000000000,3.000000000000000,0.300000000000000));
#476=DIRECTION('',(-1.0,0.0,0.0));
#477=VECTOR('',#476,1.0);
#478=LINE('',#475,#477);
#479=EDGE_CURVE('',#468,#437,#478,.T.);
#480=ORIENTED_EDGE('',*,*,#479,.T.);
#481=ORIENTED_EDGE('',*,*,#442,.T.);
#482=EDGE_LOOP('',(#466,#474,#480,#481));
#483=FACE_OUTER_BOUND('',#482,.T.);
#484=ADVANCED_FACE('',(#483),#458,.T.);
#485=CARTESIAN_POINT('',(0.500000000000000,3.000000000000000,0.300000000000000));
#486=DIRECTION('',(1.0,0.0,0.0));
#487=DIRECTION('',(0.0,0.0,-1.0));
#488=AXIS2_PLACEMENT_3D('',#485,#486,#487);
#489=PLANE('',#488);
#490=CARTESIAN_POINT('',(0.500000000000000,2.500000000000001,10.100000000000001));
#491=VERTEX_POINT('',#490);
#492=CARTESIAN_POINT('',(0.500000000000000,3.000000000000000,10.100000000000001));
#493=DIRECTION('',(0.0,-1.0,0.0));
#494=VECTOR('',#493,0.500000000000000);
#495=LINE('',#492,#494);
#496=EDGE_CURVE('',#460,#491,#495,.T.);
#497=ORIENTED_EDGE('',*,*,#496,.T.);
#498=CARTESIAN_POINT('',(0.500000000000000,2.500000000000001,0.300000000000000));
#499=VERTEX_POINT('',#498);
#500=CARTESIAN_POINT('',(0.500000000000000,2.500000000000001,0.300000000000000));
#501=DIRECTION('',(0.0,0.0,1.0));
#502=VECTOR('',#501,9.800000000000001);
#503=LINE('',#500,#502);
#504=EDGE_CURVE('',#499,#491,#503,.T.);
#505=ORIENTED_EDGE('',*,*,#504,.F.);
#506=CARTESIAN_POINT('',(0.500000000000000,2.500000000000001,0.300000000000000));
#507=DIRECTION('',(0.0,1.0,0.0));
#508=VECTOR('',#507,0.500000000000000);
#509=LINE('',#506,#508);
#510=EDGE_CURVE('',#499,#468,#509,.T.);
#511=ORIENTED_EDGE('',*,*,#510,.T.);
#512=ORIENTED_EDGE('',*,*,#473,.T.);
#513=EDGE_LOOP('',(#497,#505,#511,#512));
#514=FACE_OUTER_BOUND('',#513,.T.);
#515=ADVANCED_FACE('',(#514),#489,.T.);
#516=CARTESIAN_POINT('',(0.500000000000000,2.500000000000001,0.300000000000000));
#517=DIRECTION('',(0.0,1.0,0.0));
#518=DIRECTION('',(0.0,0.0,1.0));
#519=AXIS2_PLACEMENT_3D('',#516,#517,#518);
#520=PLANE('',#519);
#521=CARTESIAN_POINT('',(9.159999999999997,2.500000000000002,10.100000000000001));
#522=VERTEX_POINT('',#521);
#523=CARTESIAN_POINT('',(0.500000000000000,2.500000000000001,10.100000000000001));
#524=DIRECTION('',(1.0,0.0,0.0));
#525=VECTOR('',#524,8.659999999999997);
#526=LINE('',#523,#525);
#527=EDGE_CURVE('',#491,#522,#526,.T.);
#528=ORIENTED_EDGE('',*,*,#527,.T.);
#529=CARTESIAN_POINT('',(9.159999999999997,2.500000000000002,0.300000000000000));
#530=VERTEX_POINT('',#529);
#531=CARTESIAN_POINT('',(9.159999999999997,2.500000000000002,0.300000000000000));
#532=DIRECTION('',(0.0,0.0,1.0));
#533=VECTOR('',#532,9.800000000000001);
#534=LINE('',#531,#533);
#535=EDGE_CURVE('',#530,#522,#534,.T.);
#536=ORIENTED_EDGE('',*,*,#535,.F.);
#537=CARTESIAN_POINT('',(9.159999999999997,2.500000000000002,0.300000000000000));
#538=DIRECTION('',(-1.0,0.0,0.0));
#539=VECTOR('',#538,8.659999999999997);
#540=LINE('',#537,#539);
#541=EDGE_CURVE('',#530,#499,#540,.T.);
#542=ORIENTED_EDGE('',*,*,#541,.T.);
#543=ORIENTED_EDGE('',*,*,#504,.T.);
#544=EDGE_LOOP('',(#528,#536,#542,#543));
#545=FACE_OUTER_BOUND('',#544,.T.);
#546=ADVANCED_FACE('',(#545),#520,.T.);
#547=CARTESIAN_POINT('',(9.159999999999997,2.500000000000002,0.300000000000000));
#548=DIRECTION('',(1.0,0.0,0.0));
#549=DIRECTION('',(0.0,0.0,-1.0));
#550=AXIS2_PLACEMENT_3D('',#547,#548,#549);
#551=PLANE('',#550);
#552=CARTESIAN_POINT('',(9.159999999999997,-2.500000000000000,10.100000000000001));
#553=VERTEX_POINT('',#552);
#554=CARTESIAN_POINT('',(9.159999999999997,2.500000000000002,10.100000000000001));
#555=DIRECTION('',(0.0,-1.0,0.0));
#556=VECTOR('',#555,5.000000000000002);
#557=LINE('',#554,#556);
#558=EDGE_CURVE('',#522,#553,#557,.T.);
#559=ORIENTED_EDGE('',*,*,#558,.T.);
#560=CARTESIAN_POINT('',(9.159999999999997,-2.500000000000000,0.300000000000000));
#561=VERTEX_POINT('',#560);
#562=CARTESIAN_POINT('',(9.159999999999997,-2.500000000000000,0.300000000000000));
#563=DIRECTION('',(0.0,0.0,1.0));
#564=VECTOR('',#563,9.800000000000001);
#565=LINE('',#562,#564);
#566=EDGE_CURVE('',#561,#553,#565,.T.);
#567=ORIENTED_EDGE('',*,*,#566,.F.);
#568=CARTESIAN_POINT('',(9.159999999999997,-2.500000000000000,0.300000000000000));
#569=DIRECTION('',(0.0,1.0,0.0));
#570=VECTOR('',#569,5.000000000000002);
#571=LINE('',#568,#570);
#572=EDGE_CURVE('',#561,#530,#571,.T.);
#573=ORIENTED_EDGE('',*,*,#572,.T.);
#574=ORIENTED_EDGE('',*,*,#535,.T.);
#575=EDGE_LOOP('',(#559,#567,#573,#574));
#576=FACE_OUTER_BOUND('',#575,.T.);
#577=ADVANCED_FACE('',(#576),#551,.T.);
#578=CARTESIAN_POINT('',(9.159999999999997,-2.500000000000000,0.300000000000000));
#579=DIRECTION('',(0.0,-1.0,0.0));
#580=DIRECTION('',(0.0,0.0,-1.0));
#581=AXIS2_PLACEMENT_3D('',#578,#579,#580);
#582=PLANE('',#581);
#583=CARTESIAN_POINT('',(0.525000000000000,-2.500000000000000,10.100000000000001));
#584=VERTEX_POINT('',#583);
#585=CARTESIAN_POINT('',(9.159999999999997,-2.500000000000000,10.100000000000001));
#586=DIRECTION('',(-1.0,0.0,0.0));
#587=VECTOR('',#586,8.634999999999996);
#588=LINE('',#585,#587);
#589=EDGE_CURVE('',#553,#584,#588,.T.);
#590=ORIENTED_EDGE('',*,*,#589,.T.);
#591=CARTESIAN_POINT('',(0.525000000000000,-2.500000000000000,0.300000000000000));
#592=VERTEX_POINT('',#591);
#593=CARTESIAN_POINT('',(0.525000000000000,-2.500000000000000,0.300000000000000));
#594=DIRECTION('',(0.0,0.0,1.0));
#595=VECTOR('',#594,9.800000000000001);
#596=LINE('',#593,#595);
#597=EDGE_CURVE('',#592,#584,#596,.T.);
#598=ORIENTED_EDGE('',*,*,#597,.F.);
#599=CARTESIAN_POINT('',(0.525000000000000,-2.500000000000000,0.300000000000000));
#600=DIRECTION('',(1.0,0.0,0.0));
#601=VECTOR('',#600,8.634999999999996);
#602=LINE('',#599,#601);
#603=EDGE_CURVE('',#592,#561,#602,.T.);
#604=ORIENTED_EDGE('',*,*,#603,.T.);
#605=ORIENTED_EDGE('',*,*,#566,.T.);
#606=EDGE_LOOP('',(#590,#598,#604,#605));
#607=FACE_OUTER_BOUND('',#606,.T.);
#608=ADVANCED_FACE('',(#607),#582,.T.);
#609=CARTESIAN_POINT('',(0.525000000000000,-2.500000000000000,0.300000000000000));
#610=DIRECTION('',(-1.0,0.0,0.0));
#611=DIRECTION('',(0.0,0.0,1.0));
#612=AXIS2_PLACEMENT_3D('',#609,#610,#611);
#613=PLANE('',#612);
#614=CARTESIAN_POINT('',(0.525000000000000,-1.950000000000000,10.100000000000001));
#615=VERTEX_POINT('',#614);
#616=CARTESIAN_POINT('',(0.525000000000000,-2.500000000000000,10.100000000000001));
#617=DIRECTION('',(0.0,1.0,0.0));
#618=VECTOR('',#617,0.550000000000000);
#619=LINE('',#616,#618);
#620=EDGE_CURVE('',#584,#615,#619,.T.);
#621=ORIENTED_EDGE('',*,*,#620,.T.);
#622=CARTESIAN_POINT('',(0.525000000000000,-1.950000000000000,0.300000000000000));
#623=VERTEX_POINT('',#622);
#624=CARTESIAN_POINT('',(0.525000000000000,-1.950000000000000,0.300000000000000));
#625=DIRECTION('',(0.0,0.0,1.0));
#626=VECTOR('',#625,9.800000000000001);
#627=LINE('',#624,#626);
#628=EDGE_CURVE('',#623,#615,#627,.T.);
#629=ORIENTED_EDGE('',*,*,#628,.F.);
#630=CARTESIAN_POINT('',(0.525000000000000,-1.950000000000000,0.300000000000000));
#631=DIRECTION('',(0.0,-1.0,0.0));
#632=VECTOR('',#631,0.550000000000000);
#633=LINE('',#630,#632);
#634=EDGE_CURVE('',#623,#592,#633,.T.);
#635=ORIENTED_EDGE('',*,*,#634,.T.);
#636=ORIENTED_EDGE('',*,*,#597,.T.);
#637=EDGE_LOOP('',(#621,#629,#635,#636));
#638=FACE_OUTER_BOUND('',#637,.T.);
#639=ADVANCED_FACE('',(#638),#613,.T.);
#640=CARTESIAN_POINT('',(0.525000000000000,-1.950000000000000,0.300000000000000));
#641=DIRECTION('',(0.0,-1.0,0.0));
#642=DIRECTION('',(0.0,0.0,-1.0));
#643=AXIS2_PLACEMENT_3D('',#640,#641,#642);
#644=PLANE('',#643);
#645=CARTESIAN_POINT('',(-0.525000000000000,-1.950000000000000,10.100000000000001));
#646=VERTEX_POINT('',#645);
#647=CARTESIAN_POINT('',(0.525000000000000,-1.950000000000000,10.100000000000001));
#648=DIRECTION('',(-1.0,0.0,0.0));
#649=VECTOR('',#648,1.050000000000000);
#650=LINE('',#647,#649);
#651=EDGE_CURVE('',#615,#646,#650,.T.);
#652=ORIENTED_EDGE('',*,*,#651,.T.);
#653=CARTESIAN_POINT('',(-0.525000000000000,-1.950000000000000,0.300000000000000));
#654=VERTEX_POINT('',#653);
#655=CARTESIAN_POINT('',(-0.525000000000000,-1.950000000000000,0.300000000000000));
#656=DIRECTION('',(0.0,0.0,1.0));
#657=VECTOR('',#656,9.800000000000001);
#658=LINE('',#655,#657);
#659=EDGE_CURVE('',#654,#646,#658,.T.);
#660=ORIENTED_EDGE('',*,*,#659,.F.);
#661=CARTESIAN_POINT('',(-0.525000000000000,-1.950000000000000,0.300000000000000));
#662=DIRECTION('',(1.0,0.0,0.0));
#663=VECTOR('',#662,1.050000000000000);
#664=LINE('',#661,#663);
#665=EDGE_CURVE('',#654,#623,#664,.T.);
#666=ORIENTED_EDGE('',*,*,#665,.T.);
#667=ORIENTED_EDGE('',*,*,#628,.T.);
#668=EDGE_LOOP('',(#652,#660,#666,#667));
#669=FACE_OUTER_BOUND('',#668,.T.);
#670=ADVANCED_FACE('',(#669),#644,.T.);
#671=CARTESIAN_POINT('',(-0.525000000000000,-1.950000000000000,0.300000000000000));
#672=DIRECTION('',(1.0,0.0,0.0));
#673=DIRECTION('',(0.0,0.0,-1.0));
#674=AXIS2_PLACEMENT_3D('',#671,#672,#673);
#675=PLANE('',#674);
#676=CARTESIAN_POINT('',(-0.525000000000000,-2.500000000000000,10.100000000000001));
#677=VERTEX_POINT('',#676);
#678=CARTESIAN_POINT('',(-0.525000000000000,-1.950000000000000,10.100000000000001));
#679=DIRECTION('',(0.0,-1.0,0.0));
#680=VECTOR('',#679,0.550000000000000);
#681=LINE('',#678,#680);
#682=EDGE_CURVE('',#646,#677,#681,.T.);
#683=ORIENTED_EDGE('',*,*,#682,.T.);
#684=CARTESIAN_POINT('',(-0.525000000000000,-2.500000000000000,0.300000000000000));
#685=VERTEX_POINT('',#684);
#686=CARTESIAN_POINT('',(-0.525000000000000,-2.500000000000000,0.300000000000000));
#687=DIRECTION('',(0.0,0.0,1.0));
#688=VECTOR('',#687,9.800000000000001);
#689=LINE('',#686,#688);
#690=EDGE_CURVE('',#685,#677,#689,.T.);
#691=ORIENTED_EDGE('',*,*,#690,.F.);
#692=CARTESIAN_POINT('',(-0.525000000000000,-2.500000000000000,0.300000000000000));
#693=DIRECTION('',(0.0,1.0,0.0));
#694=VECTOR('',#693,0.550000000000000);
#695=LINE('',#692,#694);
#696=EDGE_CURVE('',#685,#654,#695,.T.);
#697=ORIENTED_EDGE('',*,*,#696,.T.);
#698=ORIENTED_EDGE('',*,*,#659,.T.);
#699=EDGE_LOOP('',(#683,#691,#697,#698));
#700=FACE_OUTER_BOUND('',#699,.T.);
#701=ADVANCED_FACE('',(#700),#675,.T.);
#702=CARTESIAN_POINT('',(-0.525000000000000,-2.500000000000000,0.300000000000000));
#703=DIRECTION('',(0.0,-1.0,0.0));
#704=DIRECTION('',(0.0,0.0,-1.0));
#705=AXIS2_PLACEMENT_3D('',#702,#703,#704);
#706=PLANE('',#705);
#707=CARTESIAN_POINT('',(-0.525000000000000,-2.500000000000000,10.100000000000001));
#708=DIRECTION('',(-1.0,0.0,0.0));
#709=VECTOR('',#708,6.315000000000000);
#710=LINE('',#707,#709);
#711=EDGE_CURVE('',#677,#358,#710,.T.);
#712=ORIENTED_EDGE('',*,*,#711,.T.);
#713=ORIENTED_EDGE('',*,*,#387,.F.);
#714=CARTESIAN_POINT('',(-6.840000000000000,-2.500000000000000,0.300000000000000));
#715=DIRECTION('',(1.0,0.0,0.0));
#716=VECTOR('',#715,6.315000000000000);
#717=LINE('',#714,#716);
#718=EDGE_CURVE('',#376,#685,#717,.T.);
#719=ORIENTED_EDGE('',*,*,#718,.T.);
#720=ORIENTED_EDGE('',*,*,#690,.T.);
#721=EDGE_LOOP('',(#712,#713,#719,#720));
#722=FACE_OUTER_BOUND('',#721,.T.);
#723=ADVANCED_FACE('',(#722),#706,.T.);
#724=CARTESIAN_POINT('',(1.104761904761903,0.031292517006803,10.100000000000001));
#725=DIRECTION('',(0.0,0.0,1.0));
#726=DIRECTION('',(1.0,0.0,0.0));
#727=AXIS2_PLACEMENT_3D('',#724,#725,#726);
#728=PLANE('',#727);
#729=ORIENTED_EDGE('',*,*,#365,.F.);
#730=ORIENTED_EDGE('',*,*,#711,.F.);
#731=ORIENTED_EDGE('',*,*,#682,.F.);
#732=ORIENTED_EDGE('',*,*,#651,.F.);
#733=ORIENTED_EDGE('',*,*,#620,.F.);
#734=ORIENTED_EDGE('',*,*,#589,.F.);
#735=ORIENTED_EDGE('',*,*,#558,.F.);
#736=ORIENTED_EDGE('',*,*,#527,.F.);
#737=ORIENTED_EDGE('',*,*,#496,.F.);
#738=ORIENTED_EDGE('',*,*,#465,.F.);
#739=ORIENTED_EDGE('',*,*,#434,.F.);
#740=ORIENTED_EDGE('',*,*,#403,.F.);
#741=EDGE_LOOP('',(#729,#730,#731,#732,#733,#734,#735,#736,#737,#738,#739,#740));
#742=FACE_OUTER_BOUND('',#741,.T.);
#743=ADVANCED_FACE('',(#742),#728,.T.);
#744=CARTESIAN_POINT('',(1.104761904761903,0.031292517006803,0.300000000000000));
#745=DIRECTION('',(0.0,0.0,1.0));
#746=DIRECTION('',(1.0,0.0,0.0));
#747=AXIS2_PLACEMENT_3D('',#744,#745,#746);
#748=PLANE('',#747);
#749=ORIENTED_EDGE('',*,*,#718,.F.);
#750=ORIENTED_EDGE('',*,*,#381,.F.);
#751=ORIENTED_EDGE('',*,*,#417,.F.);
#752=ORIENTED_EDGE('',*,*,#448,.F.);
#753=ORIENTED_EDGE('',*,*,#479,.F.);
#754=ORIENTED_EDGE('',*,*,#510,.F.);
#755=ORIENTED_EDGE('',*,*,#541,.F.);
#756=ORIENTED_EDGE('',*,*,#572,.F.);
#757=ORIENTED_EDGE('',*,*,#603,.F.);
#758=ORIENTED_EDGE('',*,*,#634,.F.);
#759=ORIENTED_EDGE('',*,*,#665,.F.);
#760=ORIENTED_EDGE('',*,*,#696,.F.);
#761=EDGE_LOOP('',(#749,#750,#751,#752,#753,#754,#755,#756,#757,#758,#759,#760));
#762=FACE_OUTER_BOUND('',#761,.T.);
#763=ADVANCED_FACE('',(#762),#748,.F.);
#764=CLOSED_SHELL('',(#391,#422,#453,#484,#515,#546,#577,#608,#639,#670,#701,#723,#743,#763));
#765=MANIFOLD_SOLID_BREP('852',#764);
#766=STYLED_ITEM('NONE',(#209),#765);
#767=CARTESIAN_POINT('',(6.050000000000004,-1.470000000000001,0.0));
#768=DIRECTION('',(0.0,-1.0,0.0));
#769=DIRECTION('',(0.0,0.0,-1.0));
#770=AXIS2_PLACEMENT_3D('',#767,#768,#769);
#771=PLANE('',#770);
#772=CARTESIAN_POINT('',(6.050000000000004,-1.470000000000001,-4.0));
#773=VERTEX_POINT('',#772);
#774=CARTESIAN_POINT('',(6.650000000000002,-1.470000000000001,-4.0));
#775=VERTEX_POINT('',#774);
#776=CARTESIAN_POINT('',(6.050000000000004,-1.470000000000001,-4.0));
#777=DIRECTION('',(1.0,0.0,0.0));
#778=VECTOR('',#777,0.599999999999998);
#779=LINE('',#776,#778);
#780=EDGE_CURVE('',#773,#775,#779,.T.);
#781=ORIENTED_EDGE('',*,*,#780,.T.);
#782=CARTESIAN_POINT('',(6.650000000000002,-1.470000000000001,0.0));
#783=VERTEX_POINT('',#782);
#784=CARTESIAN_POINT('',(6.650000000000002,-1.470000000000001,0.0));
#785=DIRECTION('',(0.0,0.0,-1.0));
#786=VECTOR('',#785,4.0);
#787=LINE('',#784,#786);
#788=EDGE_CURVE('',#783,#775,#787,.T.);
#789=ORIENTED_EDGE('',*,*,#788,.F.);
#790=CARTESIAN_POINT('',(6.050000000000004,-1.470000000000001,0.0));
#791=VERTEX_POINT('',#790);
#792=CARTESIAN_POINT('',(6.050000000000004,-1.470000000000001,0.0));
#793=DIRECTION('',(1.0,0.0,0.0));
#794=VECTOR('',#793,0.599999999999998);
#795=LINE('',#792,#794);
#796=EDGE_CURVE('',#791,#783,#795,.T.);
#797=ORIENTED_EDGE('',*,*,#796,.F.);
#798=CARTESIAN_POINT('',(6.050000000000004,-1.470000000000001,0.0));
#799=DIRECTION('',(0.0,0.0,-1.0));
#800=VECTOR('',#799,4.0);
#801=LINE('',#798,#800);
#802=EDGE_CURVE('',#791,#773,#801,.T.);
#803=ORIENTED_EDGE('',*,*,#802,.T.);
#804=EDGE_LOOP('',(#781,#789,#797,#803));
#805=FACE_OUTER_BOUND('',#804,.T.);
#806=ADVANCED_FACE('',(#805),#771,.T.);
#807=CARTESIAN_POINT('',(6.650000000000002,-1.470000000000001,0.0));
#808=DIRECTION('',(1.0,0.0,0.0));
#809=DIRECTION('',(0.0,0.0,-1.0));
#810=AXIS2_PLACEMENT_3D('',#807,#808,#809);
#811=PLANE('',#810);
#812=CARTESIAN_POINT('',(6.650000000000002,-1.069999999999999,-4.0));
#813=VERTEX_POINT('',#812);
#814=CARTESIAN_POINT('',(6.650000000000002,-1.470000000000001,-4.0));
#815=DIRECTION('',(0.0,1.0,0.0));
#816=VECTOR('',#815,0.400000000000002);
#817=LINE('',#814,#816);
#818=EDGE_CURVE('',#775,#813,#817,.T.);
#819=ORIENTED_EDGE('',*,*,#818,.T.);
#820=CARTESIAN_POINT('',(6.650000000000002,-1.069999999999999,0.0));
#821=VERTEX_POINT('',#820);
#822=CARTESIAN_POINT('',(6.650000000000002,-1.069999999999999,0.0));
#823=DIRECTION('',(0.0,0.0,-1.0));
#824=VECTOR('',#823,4.0);
#825=LINE('',#822,#824);
#826=EDGE_CURVE('',#821,#813,#825,.T.);
#827=ORIENTED_EDGE('',*,*,#826,.F.);
#828=CARTESIAN_POINT('',(6.650000000000002,-1.470000000000001,0.0));
#829=DIRECTION('',(0.0,1.0,0.0));
#830=VECTOR('',#829,0.400000000000002);
#831=LINE('',#828,#830);
#832=EDGE_CURVE('',#783,#821,#831,.T.);
#833=ORIENTED_EDGE('',*,*,#832,.F.);
#834=ORIENTED_EDGE('',*,*,#788,.T.);
#835=EDGE_LOOP('',(#819,#827,#833,#834));
#836=FACE_OUTER_BOUND('',#835,.T.);
#837=ADVANCED_FACE('',(#836),#811,.T.);
#838=CARTESIAN_POINT('',(6.650000000000002,-1.069999999999999,0.0));
#839=DIRECTION('',(0.0,1.0,0.0));
#840=DIRECTION('',(0.0,0.0,1.0));
#841=AXIS2_PLACEMENT_3D('',#838,#839,#840);
#842=PLANE('',#841);
#843=CARTESIAN_POINT('',(6.050000000000004,-1.069999999999999,-4.0));
#844=VERTEX_POINT('',#843);
#845=CARTESIAN_POINT('',(6.650000000000002,-1.069999999999999,-4.0));
#846=DIRECTION('',(-1.0,0.0,0.0));
#847=VECTOR('',#846,0.599999999999998);
#848=LINE('',#845,#847);
#849=EDGE_CURVE('',#813,#844,#848,.T.);
#850=ORIENTED_EDGE('',*,*,#849,.T.);
#851=CARTESIAN_POINT('',(6.050000000000004,-1.069999999999999,0.0));
#852=VERTEX_POINT('',#851);
#853=CARTESIAN_POINT('',(6.050000000000004,-1.069999999999999,0.0));
#854=DIRECTION('',(0.0,0.0,-1.0));
#855=VECTOR('',#854,4.0);
#856=LINE('',#853,#855);
#857=EDGE_CURVE('',#852,#844,#856,.T.);
#858=ORIENTED_EDGE('',*,*,#857,.F.);
#859=CARTESIAN_POINT('',(6.650000000000002,-1.069999999999999,0.0));
#860=DIRECTION('',(-1.0,0.0,0.0));
#861=VECTOR('',#860,0.599999999999998);
#862=LINE('',#859,#861);
#863=EDGE_CURVE('',#821,#852,#862,.T.);
#864=ORIENTED_EDGE('',*,*,#863,.F.);
#865=ORIENTED_EDGE('',*,*,#826,.T.);
#866=EDGE_LOOP('',(#850,#858,#864,#865));
#867=FACE_OUTER_BOUND('',#866,.T.);
#868=ADVANCED_FACE('',(#867),#842,.T.);
#869=CARTESIAN_POINT('',(6.050000000000004,-1.069999999999999,0.0));
#870=DIRECTION('',(-1.0,0.0,0.0));
#871=DIRECTION('',(0.0,0.0,1.0));
#872=AXIS2_PLACEMENT_3D('',#869,#870,#871);
#873=PLANE('',#872);
#874=CARTESIAN_POINT('',(6.050000000000004,-1.069999999999999,-4.0));
#875=DIRECTION('',(0.0,-1.0,0.0));
#876=VECTOR('',#875,0.400000000000002);
#877=LINE('',#874,#876);
#878=EDGE_CURVE('',#844,#773,#877,.T.);
#879=ORIENTED_EDGE('',*,*,#878,.T.);
#880=ORIENTED_EDGE('',*,*,#802,.F.);
#881=CARTESIAN_POINT('',(6.050000000000004,-1.069999999999999,0.0));
#882=DIRECTION('',(0.0,-1.0,0.0));
#883=VECTOR('',#882,0.400000000000002);
#884=LINE('',#881,#883);
#885=EDGE_CURVE('',#852,#791,#884,.T.);
#886=ORIENTED_EDGE('',*,*,#885,.F.);
#887=ORIENTED_EDGE('',*,*,#857,.T.);
#888=EDGE_LOOP('',(#879,#880,#886,#887));
#889=FACE_OUTER_BOUND('',#888,.T.);
#890=ADVANCED_FACE('',(#889),#873,.T.);
#891=CARTESIAN_POINT('',(6.350000000000001,-1.270000000000000,-4.0));
#892=DIRECTION('',(0.0,0.0,1.0));
#893=DIRECTION('',(1.0,0.0,0.0));
#894=AXIS2_PLACEMENT_3D('',#891,#892,#893);
#895=PLANE('',#894);
#896=ORIENTED_EDGE('',*,*,#780,.F.);
#897=ORIENTED_EDGE('',*,*,#878,.F.);
#898=ORIENTED_EDGE('',*,*,#849,.F.);
#899=ORIENTED_EDGE('',*,*,#818,.F.);
#900=EDGE_LOOP('',(#896,#897,#898,#899));
#901=FACE_OUTER_BOUND('',#900,.T.);
#902=ADVANCED_FACE('',(#901),#895,.F.);
#903=CARTESIAN_POINT('',(6.350000000000001,-1.270000000000000,0.0));
#904=DIRECTION('',(0.0,0.0,1.0));
#905=DIRECTION('',(1.0,0.0,0.0));
#906=AXIS2_PLACEMENT_3D('',#903,#904,#905);
#907=PLANE('',#906);
#908=ORIENTED_EDGE('',*,*,#885,.T.);
#909=ORIENTED_EDGE('',*,*,#796,.T.);
#910=ORIENTED_EDGE('',*,*,#832,.T.);
#911=ORIENTED_EDGE('',*,*,#863,.T.);
#912=EDGE_LOOP('',(#908,#909,#910,#911));
#913=FACE_OUTER_BOUND('',#912,.T.);
#914=ADVANCED_FACE('',(#913),#907,.T.);
#915=CLOSED_SHELL('',(#806,#837,#868,#890,#902,#914));
#916=MANIFOLD_SOLID_BREP('84E',#915);
#917=COLOUR_RGB('254',0.866000000000000,0.866000000000000,0.866000000000000);
#918=SURFACE_STYLE_USAGE(.BOTH.,#919);
#919=SURFACE_SIDE_STYLE('NONE',(#920));
#920=SURFACE_STYLE_FILL_AREA(#921);
#921=FILL_AREA_STYLE('NONE',(#922));
#922=FILL_AREA_STYLE_COLOUR('NONE',#917);
#923=PRESENTATION_STYLE_ASSIGNMENT((#918));
#924=STYLED_ITEM('NONE',(#923),#916);
#925=CARTESIAN_POINT('',(3.510000000000002,-1.470000000000001,0.0));
#926=DIRECTION('',(0.0,-1.0,0.0));
#927=DIRECTION('',(0.0,0.0,-1.0));
#928=AXIS2_PLACEMENT_3D('',#925,#926,#927);
#929=PLANE('',#928);
#930=CARTESIAN_POINT('',(3.510000000000002,-1.470000000000001,-4.0));
#931=VERTEX_POINT('',#930);
#932=CARTESIAN_POINT('',(4.109999999999999,-1.470000000000001,-4.0));
#933=VERTEX_POINT('',#932);
#934=CARTESIAN_POINT('',(3.510000000000002,-1.470000000000001,-4.0));
#935=DIRECTION('',(1.0,0.0,0.0));
#936=VECTOR('',#935,0.599999999999998);
#937=LINE('',#934,#936);
#938=EDGE_CURVE('',#931,#933,#937,.T.);
#939=ORIENTED_EDGE('',*,*,#938,.T.);
#940=CARTESIAN_POINT('',(4.109999999999999,-1.470000000000001,0.0));
#941=VERTEX_POINT('',#940);
#942=CARTESIAN_POINT('',(4.109999999999999,-1.470000000000001,0.0));
#943=DIRECTION('',(0.0,0.0,-1.0));
#944=VECTOR('',#943,4.0);
#945=LINE('',#942,#944);
#946=EDGE_CURVE('',#941,#933,#945,.T.);
#947=ORIENTED_EDGE('',*,*,#946,.F.);
#948=CARTESIAN_POINT('',(3.510000000000002,-1.470000000000001,0.0));
#949=VERTEX_POINT('',#948);
#950=CARTESIAN_POINT('',(3.510000000000002,-1.470000000000001,0.0));
#951=DIRECTION('',(1.0,0.0,0.0));
#952=VECTOR('',#951,0.599999999999998);
#953=LINE('',#950,#952);
#954=EDGE_CURVE('',#949,#941,#953,.T.);
#955=ORIENTED_EDGE('',*,*,#954,.F.);
#956=CARTESIAN_POINT('',(3.510000000000002,-1.470000000000001,0.0));
#957=DIRECTION('',(0.0,0.0,-1.0));
#958=VECTOR('',#957,4.0);
#959=LINE('',#956,#958);
#960=EDGE_CURVE('',#949,#931,#959,.T.);
#961=ORIENTED_EDGE('',*,*,#960,.T.);
#962=EDGE_LOOP('',(#939,#947,#955,#961));
#963=FACE_OUTER_BOUND('',#962,.T.);
#964=ADVANCED_FACE('',(#963),#929,.T.);
#965=CARTESIAN_POINT('',(4.109999999999999,-1.470000000000001,0.0));
#966=DIRECTION('',(1.0,0.0,0.0));
#967=DIRECTION('',(0.0,0.0,-1.0));
#968=AXIS2_PLACEMENT_3D('',#965,#966,#967);
#969=PLANE('',#968);
#970=CARTESIAN_POINT('',(4.109999999999999,-1.069999999999999,-4.0));
#971=VERTEX_POINT('',#970);
#972=CARTESIAN_POINT('',(4.109999999999999,-1.470000000000001,-4.0));
#973=DIRECTION('',(0.0,1.0,0.0));
#974=VECTOR('',#973,0.400000000000002);
#975=LINE('',#972,#974);
#976=EDGE_CURVE('',#933,#971,#975,.T.);
#977=ORIENTED_EDGE('',*,*,#976,.T.);
#978=CARTESIAN_POINT('',(4.109999999999999,-1.069999999999999,0.0));
#979=VERTEX_POINT('',#978);
#980=CARTESIAN_POINT('',(4.109999999999999,-1.069999999999999,0.0));
#981=DIRECTION('',(0.0,0.0,-1.0));
#982=VECTOR('',#981,4.0);
#983=LINE('',#980,#982);
#984=EDGE_CURVE('',#979,#971,#983,.T.);
#985=ORIENTED_EDGE('',*,*,#984,.F.);
#986=CARTESIAN_POINT('',(4.109999999999999,-1.470000000000001,0.0));
#987=DIRECTION('',(0.0,1.0,0.0));
#988=VECTOR('',#987,0.400000000000002);
#989=LINE('',#986,#988);
#990=EDGE_CURVE('',#941,#979,#989,.T.);
#991=ORIENTED_EDGE('',*,*,#990,.F.);
#992=ORIENTED_EDGE('',*,*,#946,.T.);
#993=EDGE_LOOP('',(#977,#985,#991,#992));
#994=FACE_OUTER_BOUND('',#993,.T.);
#995=ADVANCED_FACE('',(#994),#969,.T.);
#996=CARTESIAN_POINT('',(4.109999999999999,-1.069999999999999,0.0));
#997=DIRECTION('',(0.0,1.0,0.0));
#998=DIRECTION('',(0.0,0.0,1.0));
#999=AXIS2_PLACEMENT_3D('',#996,#997,#998);
#1000=PLANE('',#999);
#1001=CARTESIAN_POINT('',(3.510000000000002,-1.069999999999999,-4.0));
#1002=VERTEX_POINT('',#1001);
#1003=CARTESIAN_POINT('',(4.109999999999999,-1.069999999999999,-4.0));
#1004=DIRECTION('',(-1.0,0.0,0.0));
#1005=VECTOR('',#1004,0.599999999999998);
#1006=LINE('',#1003,#1005);
#1007=EDGE_CURVE('',#971,#1002,#1006,.T.);
#1008=ORIENTED_EDGE('',*,*,#1007,.T.);
#1009=CARTESIAN_POINT('',(3.510000000000002,-1.069999999999999,0.0));
#1010=VERTEX_POINT('',#1009);
#1011=CARTESIAN_POINT('',(3.510000000000002,-1.069999999999999,0.0));
#1012=DIRECTION('',(0.0,0.0,-1.0));
#1013=VECTOR('',#1012,4.0);
#1014=LINE('',#1011,#1013);
#1015=EDGE_CURVE('',#1010,#1002,#1014,.T.);
#1016=ORIENTED_EDGE('',*,*,#1015,.F.);
#1017=CARTESIAN_POINT('',(4.109999999999999,-1.069999999999999,0.0));
#1018=DIRECTION('',(-1.0,0.0,0.0));
#1019=VECTOR('',#1018,0.599999999999998);
#1020=LINE('',#1017,#1019);
#1021=EDGE_CURVE('',#979,#1010,#1020,.T.);
#1022=ORIENTED_EDGE('',*,*,#1021,.F.);
#1023=ORIENTED_EDGE('',*,*,#984,.T.);
#1024=EDGE_LOOP('',(#1008,#1016,#1022,#1023));
#1025=FACE_OUTER_BOUND('',#1024,.T.);
#1026=ADVANCED_FACE('',(#1025),#1000,.T.);
#1027=CARTESIAN_POINT('',(3.510000000000002,-1.069999999999999,0.0));
#1028=DIRECTION('',(-1.0,0.0,0.0));
#1029=DIRECTION('',(0.0,0.0,1.0));
#1030=AXIS2_PLACEMENT_3D('',#1027,#1028,#1029);
#1031=PLANE('',#1030);
#1032=CARTESIAN_POINT('',(3.510000000000002,-1.069999999999999,-4.0));
#1033=DIRECTION('',(0.0,-1.0,0.0));
#1034=VECTOR('',#1033,0.400000000000002);
#1035=LINE('',#1032,#1034);
#1036=EDGE_CURVE('',#1002,#931,#1035,.T.);
#1037=ORIENTED_EDGE('',*,*,#1036,.T.);
#1038=ORIENTED_EDGE('',*,*,#960,.F.);
#1039=CARTESIAN_POINT('',(3.510000000000002,-1.069999999999999,0.0));
#1040=DIRECTION('',(0.0,-1.0,0.0));
#1041=VECTOR('',#1040,0.400000000000002);
#1042=LINE('',#1039,#1041);
#1043=EDGE_CURVE('',#1010,#949,#1042,.T.);
#1044=ORIENTED_EDGE('',*,*,#1043,.F.);
#1045=ORIENTED_EDGE('',*,*,#1015,.T.);
#1046=EDGE_LOOP('',(#1037,#1038,#1044,#1045));
#1047=FACE_OUTER_BOUND('',#1046,.T.);
#1048=ADVANCED_FACE('',(#1047),#1031,.T.);
#1049=CARTESIAN_POINT('',(3.809999999999999,-1.270000000000000,-4.0));
#1050=DIRECTION('',(0.0,0.0,1.0));
#1051=DIRECTION('',(1.0,0.0,0.0));
#1052=AXIS2_PLACEMENT_3D('',#1049,#1050,#1051);
#1053=PLANE('',#1052);
#1054=ORIENTED_EDGE('',*,*,#938,.F.);
#1055=ORIENTED_EDGE('',*,*,#1036,.F.);
#1056=ORIENTED_EDGE('',*,*,#1007,.F.);
#1057=ORIENTED_EDGE('',*,*,#976,.F.);
#1058=EDGE_LOOP('',(#1054,#1055,#1056,#1057));
#1059=FACE_OUTER_BOUND('',#1058,.T.);
#1060=ADVANCED_FACE('',(#1059),#1053,.F.);
#1061=CARTESIAN_POINT('',(3.809999999999999,-1.270000000000000,0.0));
#1062=DIRECTION('',(0.0,0.0,1.0));
#1063=DIRECTION('',(1.0,0.0,0.0));
#1064=AXIS2_PLACEMENT_3D('',#1061,#1062,#1063);
#1065=PLANE('',#1064);
#1066=ORIENTED_EDGE('',*,*,#1043,.T.);
#1067=ORIENTED_EDGE('',*,*,#954,.T.);
#1068=ORIENTED_EDGE('',*,*,#990,.T.);
#1069=ORIENTED_EDGE('',*,*,#1021,.T.);
#1070=EDGE_LOOP('',(#1066,#1067,#1068,#1069));
#1071=FACE_OUTER_BOUND('',#1070,.T.);
#1072=ADVANCED_FACE('',(#1071),#1065,.T.);
#1073=CLOSED_SHELL('',(#964,#995,#1026,#1048,#1060,#1072));
#1074=MANIFOLD_SOLID_BREP('84D',#1073);
#1075=STYLED_ITEM('NONE',(#923),#1074);
#1076=CARTESIAN_POINT('',(0.970000000000002,-1.470000000000001,0.0));
#1077=DIRECTION('',(0.0,-1.0,0.0));
#1078=DIRECTION('',(0.0,0.0,-1.0));
#1079=AXIS2_PLACEMENT_3D('',#1076,#1077,#1078);
#1080=PLANE('',#1079);
#1081=CARTESIAN_POINT('',(0.970000000000002,-1.470000000000001,-4.0));
#1082=VERTEX_POINT('',#1081);
#1083=CARTESIAN_POINT('',(1.570000000000000,-1.470000000000001,-4.0));
#1084=VERTEX_POINT('',#1083);
#1085=CARTESIAN_POINT('',(0.970000000000002,-1.470000000000001,-4.0));
#1086=DIRECTION('',(1.0,0.0,0.0));
#1087=VECTOR('',#1086,0.599999999999998);
#1088=LINE('',#1085,#1087);
#1089=EDGE_CURVE('',#1082,#1084,#1088,.T.);
#1090=ORIENTED_EDGE('',*,*,#1089,.T.);
#1091=CARTESIAN_POINT('',(1.570000000000000,-1.470000000000001,0.0));
#1092=VERTEX_POINT('',#1091);
#1093=CARTESIAN_POINT('',(1.570000000000000,-1.470000000000001,0.0));
#1094=DIRECTION('',(0.0,0.0,-1.0));
#1095=VECTOR('',#1094,4.0);
#1096=LINE('',#1093,#1095);
#1097=EDGE_CURVE('',#1092,#1084,#1096,.T.);
#1098=ORIENTED_EDGE('',*,*,#1097,.F.);
#1099=CARTESIAN_POINT('',(0.970000000000002,-1.470000000000001,0.0));
#1100=VERTEX_POINT('',#1099);
#1101=CARTESIAN_POINT('',(0.970000000000002,-1.470000000000001,0.0));
#1102=DIRECTION('',(1.0,0.0,0.0));
#1103=VECTOR('',#1102,0.599999999999998);
#1104=LINE('',#1101,#1103);
#1105=EDGE_CURVE('',#1100,#1092,#1104,.T.);
#1106=ORIENTED_EDGE('',*,*,#1105,.F.);
#1107=CARTESIAN_POINT('',(0.970000000000002,-1.470000000000001,0.0));
#1108=DIRECTION('',(0.0,0.0,-1.0));
#1109=VECTOR('',#1108,4.0);
#1110=LINE('',#1107,#1109);
#1111=EDGE_CURVE('',#1100,#1082,#1110,.T.);
#1112=ORIENTED_EDGE('',*,*,#1111,.T.);
#1113=EDGE_LOOP('',(#1090,#1098,#1106,#1112));
#1114=FACE_OUTER_BOUND('',#1113,.T.);
#1115=ADVANCED_FACE('',(#1114),#1080,.T.);
#1116=CARTESIAN_POINT('',(1.570000000000000,-1.470000000000001,0.0));
#1117=DIRECTION('',(1.0,0.0,0.0));
#1118=DIRECTION('',(0.0,0.0,-1.0));
#1119=AXIS2_PLACEMENT_3D('',#1116,#1117,#1118);
#1120=PLANE('',#1119);
#1121=CARTESIAN_POINT('',(1.570000000000000,-1.069999999999999,-4.0));
#1122=VERTEX_POINT('',#1121);
#1123=CARTESIAN_POINT('',(1.570000000000000,-1.470000000000001,-4.0));
#1124=DIRECTION('',(0.0,1.0,0.0));
#1125=VECTOR('',#1124,0.400000000000002);
#1126=LINE('',#1123,#1125);
#1127=EDGE_CURVE('',#1084,#1122,#1126,.T.);
#1128=ORIENTED_EDGE('',*,*,#1127,.T.);
#1129=CARTESIAN_POINT('',(1.570000000000000,-1.069999999999999,0.0));
#1130=VERTEX_POINT('',#1129);
#1131=CARTESIAN_POINT('',(1.570000000000000,-1.069999999999999,0.0));
#1132=DIRECTION('',(0.0,0.0,-1.0));
#1133=VECTOR('',#1132,4.0);
#1134=LINE('',#1131,#1133);
#1135=EDGE_CURVE('',#1130,#1122,#1134,.T.);
#1136=ORIENTED_EDGE('',*,*,#1135,.F.);
#1137=CARTESIAN_POINT('',(1.570000000000000,-1.470000000000001,0.0));
#1138=DIRECTION('',(0.0,1.0,0.0));
#1139=VECTOR('',#1138,0.400000000000002);
#1140=LINE('',#1137,#1139);
#1141=EDGE_CURVE('',#1092,#1130,#1140,.T.);
#1142=ORIENTED_EDGE('',*,*,#1141,.F.);
#1143=ORIENTED_EDGE('',*,*,#1097,.T.);
#1144=EDGE_LOOP('',(#1128,#1136,#1142,#1143));
#1145=FACE_OUTER_BOUND('',#1144,.T.);
#1146=ADVANCED_FACE('',(#1145),#1120,.T.);
#1147=CARTESIAN_POINT('',(1.570000000000000,-1.069999999999999,0.0));
#1148=DIRECTION('',(0.0,1.0,0.0));
#1149=DIRECTION('',(0.0,0.0,1.0));
#1150=AXIS2_PLACEMENT_3D('',#1147,#1148,#1149);
#1151=PLANE('',#1150);
#1152=CARTESIAN_POINT('',(0.970000000000002,-1.069999999999999,-4.0));
#1153=VERTEX_POINT('',#1152);
#1154=CARTESIAN_POINT('',(1.570000000000000,-1.069999999999999,-4.0));
#1155=DIRECTION('',(-1.0,0.0,0.0));
#1156=VECTOR('',#1155,0.599999999999998);
#1157=LINE('',#1154,#1156);
#1158=EDGE_CURVE('',#1122,#1153,#1157,.T.);
#1159=ORIENTED_EDGE('',*,*,#1158,.T.);
#1160=CARTESIAN_POINT('',(0.970000000000002,-1.069999999999999,0.0));
#1161=VERTEX_POINT('',#1160);
#1162=CARTESIAN_POINT('',(0.970000000000002,-1.069999999999999,0.0));
#1163=DIRECTION('',(0.0,0.0,-1.0));
#1164=VECTOR('',#1163,4.0);
#1165=LINE('',#1162,#1164);
#1166=EDGE_CURVE('',#1161,#1153,#1165,.T.);
#1167=ORIENTED_EDGE('',*,*,#1166,.F.);
#1168=CARTESIAN_POINT('',(1.570000000000000,-1.069999999999999,0.0));
#1169=DIRECTION('',(-1.0,0.0,0.0));
#1170=VECTOR('',#1169,0.599999999999998);
#1171=LINE('',#1168,#1170);
#1172=EDGE_CURVE('',#1130,#1161,#1171,.T.);
#1173=ORIENTED_EDGE('',*,*,#1172,.F.);
#1174=ORIENTED_EDGE('',*,*,#1135,.T.);
#1175=EDGE_LOOP('',(#1159,#1167,#1173,#1174));
#1176=FACE_OUTER_BOUND('',#1175,.T.);
#1177=ADVANCED_FACE('',(#1176),#1151,.T.);
#1178=CARTESIAN_POINT('',(0.970000000000002,-1.069999999999999,0.0));
#1179=DIRECTION('',(-1.0,0.0,0.0));
#1180=DIRECTION('',(0.0,0.0,1.0));
#1181=AXIS2_PLACEMENT_3D('',#1178,#1179,#1180);
#1182=PLANE('',#1181);
#1183=CARTESIAN_POINT('',(0.970000000000002,-1.069999999999999,-4.0));
#1184=DIRECTION('',(0.0,-1.0,0.0));
#1185=VECTOR('',#1184,0.400000000000002);
#1186=LINE('',#1183,#1185);
#1187=EDGE_CURVE('',#1153,#1082,#1186,.T.);
#1188=ORIENTED_EDGE('',*,*,#1187,.T.);
#1189=ORIENTED_EDGE('',*,*,#1111,.F.);
#1190=CARTESIAN_POINT('',(0.970000000000002,-1.069999999999999,0.0));
#1191=DIRECTION('',(0.0,-1.0,0.0));
#1192=VECTOR('',#1191,0.400000000000002);
#1193=LINE('',#1190,#1192);
#1194=EDGE_CURVE('',#1161,#1100,#1193,.T.);
#1195=ORIENTED_EDGE('',*,*,#1194,.F.);
#1196=ORIENTED_EDGE('',*,*,#1166,.T.);
#1197=EDGE_LOOP('',(#1188,#1189,#1195,#1196));
#1198=FACE_OUTER_BOUND('',#1197,.T.);
#1199=ADVANCED_FACE('',(#1198),#1182,.T.);
#1200=CARTESIAN_POINT('',(1.270000000000000,-1.270000000000000,-4.0));
#1201=DIRECTION('',(0.0,0.0,1.0));
#1202=DIRECTION('',(1.0,0.0,0.0));
#1203=AXIS2_PLACEMENT_3D('',#1200,#1201,#1202);
#1204=PLANE('',#1203);
#1205=ORIENTED_EDGE('',*,*,#1089,.F.);
#1206=ORIENTED_EDGE('',*,*,#1187,.F.);
#1207=ORIENTED_EDGE('',*,*,#1158,.F.);
#1208=ORIENTED_EDGE('',*,*,#1127,.F.);
#1209=EDGE_LOOP('',(#1205,#1206,#1207,#1208));
#1210=FACE_OUTER_BOUND('',#1209,.T.);
#1211=ADVANCED_FACE('',(#1210),#1204,.F.);
#1212=CARTESIAN_POINT('',(1.270000000000000,-1.270000000000000,0.0));
#1213=DIRECTION('',(0.0,0.0,1.0));
#1214=DIRECTION('',(1.0,0.0,0.0));
#1215=AXIS2_PLACEMENT_3D('',#1212,#1213,#1214);
#1216=PLANE('',#1215);
#1217=ORIENTED_EDGE('',*,*,#1194,.T.);
#1218=ORIENTED_EDGE('',*,*,#1105,.T.);
#1219=ORIENTED_EDGE('',*,*,#1141,.T.);
#1220=ORIENTED_EDGE('',*,*,#1172,.T.);
#1221=EDGE_LOOP('',(#1217,#1218,#1219,#1220));
#1222=FACE_OUTER_BOUND('',#1221,.T.);
#1223=ADVANCED_FACE('',(#1222),#1216,.T.);
#1224=CLOSED_SHELL('',(#1115,#1146,#1177,#1199,#1211,#1223));
#1225=MANIFOLD_SOLID_BREP('84C',#1224);
#1226=STYLED_ITEM('NONE',(#923),#1225);
#1227=CARTESIAN_POINT('',(-6.840000000000000,-2.500000000000000,0.300000000000000));
#1228=DIRECTION('',(0.0,-1.0,0.0));
#1229=DIRECTION('',(0.0,0.0,-1.0));
#1230=AXIS2_PLACEMENT_3D('',#1227,#1228,#1229);
#1231=PLANE('',#1230);
#1232=CARTESIAN_POINT('',(-6.840000000000000,-2.500000000000000,-1.665335E-016));
#1233=VERTEX_POINT('',#1232);
#1234=CARTESIAN_POINT('',(-2.840000000000000,-2.500000000000000,-1.665335E-016));
#1235=VERTEX_POINT('',#1234);
#1236=CARTESIAN_POINT('',(-6.840000000000000,-2.500000000000000,-1.665335E-016));
#1237=DIRECTION('',(1.0,0.0,0.0));
#1238=VECTOR('',#1237,4.0);
#1239=LINE('',#1236,#1238);
#1240=EDGE_CURVE('',#1233,#1235,#1239,.T.);
#1241=ORIENTED_EDGE('',*,*,#1240,.T.);
#1242=CARTESIAN_POINT('',(-2.840000000000000,-2.500000000000000,0.300000000000000));
#1243=VERTEX_POINT('',#1242);
#1244=CARTESIAN_POINT('',(-2.840000000000000,-2.500000000000000,0.300000000000000));
#1245=DIRECTION('',(0.0,0.0,-1.0));
#1246=VECTOR('',#1245,0.300000000000000);
#1247=LINE('',#1244,#1246);
#1248=EDGE_CURVE('',#1243,#1235,#1247,.T.);
#1249=ORIENTED_EDGE('',*,*,#1248,.F.);
#1250=CARTESIAN_POINT('',(-6.840000000000000,-2.500000000000000,0.300000000000000));
#1251=VERTEX_POINT('',#1250);
#1252=CARTESIAN_POINT('',(-2.840000000000000,-2.500000000000000,0.300000000000000));
#1253=DIRECTION('',(-1.0,0.0,0.0));
#1254=VECTOR('',#1253,4.0);
#1255=LINE('',#1252,#1254);
#1256=EDGE_CURVE('',#1243,#1251,#1255,.T.);
#1257=ORIENTED_EDGE('',*,*,#1256,.T.);
#1258=CARTESIAN_POINT('',(-6.840000000000000,-2.500000000000000,0.300000000000000));
#1259=DIRECTION('',(0.0,0.0,-1.0));
#1260=VECTOR('',#1259,0.300000000000000);
#1261=LINE('',#1258,#1260);
#1262=EDGE_CURVE('',#1251,#1233,#1261,.T.);
#1263=ORIENTED_EDGE('',*,*,#1262,.T.);
#1264=EDGE_LOOP('',(#1241,#1249,#1257,#1263));
#1265=FACE_OUTER_BOUND('',#1264,.T.);
#1266=ADVANCED_FACE('',(#1265),#1231,.T.);
#1267=CARTESIAN_POINT('',(-2.840000000000000,-2.500000000000000,0.300000000000000));
#1268=DIRECTION('',(1.0,0.0,0.0));
#1269=DIRECTION('',(0.0,0.0,-1.0));
#1270=AXIS2_PLACEMENT_3D('',#1267,#1268,#1269);
#1271=PLANE('',#1270);
#1272=CARTESIAN_POINT('',(-2.840000000000000,2.500000000000000,-1.665335E-016));
#1273=VERTEX_POINT('',#1272);
#1274=CARTESIAN_POINT('',(-2.840000000000000,-2.500000000000000,-1.665335E-016));
#1275=DIRECTION('',(0.0,1.0,0.0));
#1276=VECTOR('',#1275,5.0);
#1277=LINE('',#1274,#1276);
#1278=EDGE_CURVE('',#1235,#1273,#1277,.T.);
#1279=ORIENTED_EDGE('',*,*,#1278,.T.);
#1280=CARTESIAN_POINT('',(-2.840000000000000,2.500000000000000,0.300000000000000));
#1281=VERTEX_POINT('',#1280);
#1282=CARTESIAN_POINT('',(-2.840000000000000,2.500000000000000,0.300000000000000));
#1283=DIRECTION('',(0.0,0.0,-1.0));
#1284=VECTOR('',#1283,0.300000000000000);
#1285=LINE('',#1282,#1284);
#1286=EDGE_CURVE('',#1281,#1273,#1285,.T.);
#1287=ORIENTED_EDGE('',*,*,#1286,.F.);
#1288=CARTESIAN_POINT('',(-2.840000000000000,2.500000000000000,0.300000000000000));
#1289=DIRECTION('',(0.0,-1.0,0.0));
#1290=VECTOR('',#1289,5.0);
#1291=LINE('',#1288,#1290);
#1292=EDGE_CURVE('',#1281,#1243,#1291,.T.);
#1293=ORIENTED_EDGE('',*,*,#1292,.T.);
#1294=ORIENTED_EDGE('',*,*,#1248,.T.);
#1295=EDGE_LOOP('',(#1279,#1287,#1293,#1294));
#1296=FACE_OUTER_BOUND('',#1295,.T.);
#1297=ADVANCED_FACE('',(#1296),#1271,.T.);
#1298=CARTESIAN_POINT('',(-2.840000000000000,2.500000000000000,0.300000000000000));
#1299=DIRECTION('',(0.0,1.0,0.0));
#1300=DIRECTION('',(0.0,0.0,1.0));
#1301=AXIS2_PLACEMENT_3D('',#1298,#1299,#1300);
#1302=PLANE('',#1301);
#1303=CARTESIAN_POINT('',(-6.840000000000000,2.500000000000000,-1.665335E-016));
#1304=VERTEX_POINT('',#1303);
#1305=CARTESIAN_POINT('',(-2.840000000000000,2.500000000000000,-1.665335E-016));
#1306=DIRECTION('',(-1.0,0.0,0.0));
#1307=VECTOR('',#1306,4.0);
#1308=LINE('',#1305,#1307);
#1309=EDGE_CURVE('',#1273,#1304,#1308,.T.);
#1310=ORIENTED_EDGE('',*,*,#1309,.T.);
#1311=CARTESIAN_POINT('',(-6.840000000000000,2.500000000000000,0.300000000000000));
#1312=VERTEX_POINT('',#1311);
#1313=CARTESIAN_POINT('',(-6.840000000000000,2.500000000000000,0.300000000000000));
#1314=DIRECTION('',(0.0,0.0,-1.0));
#1315=VECTOR('',#1314,0.300000000000000);
#1316=LINE('',#1313,#1315);
#1317=EDGE_CURVE('',#1312,#1304,#1316,.T.);
#1318=ORIENTED_EDGE('',*,*,#1317,.F.);
#1319=CARTESIAN_POINT('',(-6.840000000000000,2.500000000000000,0.300000000000000));
#1320=DIRECTION('',(1.0,0.0,0.0));
#1321=VECTOR('',#1320,4.0);
#1322=LINE('',#1319,#1321);
#1323=EDGE_CURVE('',#1312,#1281,#1322,.T.);
#1324=ORIENTED_EDGE('',*,*,#1323,.T.);
#1325=ORIENTED_EDGE('',*,*,#1286,.T.);
#1326=EDGE_LOOP('',(#1310,#1318,#1324,#1325));
#1327=FACE_OUTER_BOUND('',#1326,.T.);
#1328=ADVANCED_FACE('',(#1327),#1302,.T.);
#1329=CARTESIAN_POINT('',(-6.840000000000000,2.500000000000000,0.300000000000000));
#1330=DIRECTION('',(-1.0,0.0,0.0));
#1331=DIRECTION('',(0.0,0.0,1.0));
#1332=AXIS2_PLACEMENT_3D('',#1329,#1330,#1331);
#1333=PLANE('',#1332);
#1334=CARTESIAN_POINT('',(-6.840000000000000,2.500000000000000,-1.665335E-016));
#1335=DIRECTION('',(0.0,-1.0,0.0));
#1336=VECTOR('',#1335,5.0);
#1337=LINE('',#1334,#1336);
#1338=EDGE_CURVE('',#1304,#1233,#1337,.T.);
#1339=ORIENTED_EDGE('',*,*,#1338,.T.);
#1340=ORIENTED_EDGE('',*,*,#1262,.F.);
#1341=CARTESIAN_POINT('',(-6.840000000000000,-2.500000000000000,0.300000000000000));
#1342=DIRECTION('',(0.0,1.0,0.0));
#1343=VECTOR('',#1342,5.0);
#1344=LINE('',#1341,#1343);
#1345=EDGE_CURVE('',#1251,#1312,#1344,.T.);
#1346=ORIENTED_EDGE('',*,*,#1345,.T.);
#1347=ORIENTED_EDGE('',*,*,#1317,.T.);
#1348=EDGE_LOOP('',(#1339,#1340,#1346,#1347));
#1349=FACE_OUTER_BOUND('',#1348,.T.);
#1350=ADVANCED_FACE('',(#1349),#1333,.T.);
#1351=CARTESIAN_POINT('',(-4.840000000000000,0.0,-1.665335E-016));
#1352=DIRECTION('',(0.0,0.0,1.0));
#1353=DIRECTION('',(1.0,0.0,0.0));
#1354=AXIS2_PLACEMENT_3D('',#1351,#1352,#1353);
#1355=PLANE('',#1354);
#1356=ORIENTED_EDGE('',*,*,#1240,.F.);
#1357=ORIENTED_EDGE('',*,*,#1338,.F.);
#1358=ORIENTED_EDGE('',*,*,#1309,.F.);
#1359=ORIENTED_EDGE('',*,*,#1278,.F.);
#1360=EDGE_LOOP('',(#1356,#1357,#1358,#1359));
#1361=FACE_OUTER_BOUND('',#1360,.T.);
#1362=ADVANCED_FACE('',(#1361),#1355,.F.);
#1363=CARTESIAN_POINT('',(-4.840000000000000,0.0,0.300000000000000));
#1364=DIRECTION('',(0.0,0.0,1.0));
#1365=DIRECTION('',(1.0,0.0,0.0));
#1366=AXIS2_PLACEMENT_3D('',#1363,#1364,#1365);
#1367=PLANE('',#1366);
#1368=ORIENTED_EDGE('',*,*,#1345,.F.);
#1369=ORIENTED_EDGE('',*,*,#1256,.F.);
#1370=ORIENTED_EDGE('',*,*,#1292,.F.);
#1371=ORIENTED_EDGE('',*,*,#1323,.F.);
#1372=EDGE_LOOP('',(#1368,#1369,#1370,#1371));
#1373=FACE_OUTER_BOUND('',#1372,.T.);
#1374=ADVANCED_FACE('',(#1373),#1367,.T.);
#1375=CLOSED_SHELL('',(#1266,#1297,#1328,#1350,#1362,#1374));
#1376=MANIFOLD_SOLID_BREP('841',#1375);
#1377=STYLED_ITEM('NONE',(#209),#1376);
#1378=CARTESIAN_POINT('',(8.159999999999997,-2.500000000000000,0.300000000000000));
#1379=DIRECTION('',(0.0,-1.0,0.0));
#1380=DIRECTION('',(0.0,0.0,-1.0));
#1381=AXIS2_PLACEMENT_3D('',#1378,#1379,#1380);
#1382=PLANE('',#1381);
#1383=CARTESIAN_POINT('',(8.159999999999997,-2.500000000000000,-1.665335E-016));
#1384=VERTEX_POINT('',#1383);
#1385=CARTESIAN_POINT('',(9.159999999999997,-2.500000000000000,-1.665335E-016));
#1386=VERTEX_POINT('',#1385);
#1387=CARTESIAN_POINT('',(8.159999999999997,-2.500000000000000,-1.665335E-016));
#1388=DIRECTION('',(1.0,0.0,0.0));
#1389=VECTOR('',#1388,1.0);
#1390=LINE('',#1387,#1389);
#1391=EDGE_CURVE('',#1384,#1386,#1390,.T.);
#1392=ORIENTED_EDGE('',*,*,#1391,.T.);
#1393=CARTESIAN_POINT('',(9.159999999999997,-2.500000000000000,0.300000000000000));
#1394=VERTEX_POINT('',#1393);
#1395=CARTESIAN_POINT('',(9.159999999999997,-2.500000000000000,0.300000000000000));
#1396=DIRECTION('',(0.0,0.0,-1.0));
#1397=VECTOR('',#1396,0.300000000000000);
#1398=LINE('',#1395,#1397);
#1399=EDGE_CURVE('',#1394,#1386,#1398,.T.);
#1400=ORIENTED_EDGE('',*,*,#1399,.F.);
#1401=CARTESIAN_POINT('',(8.159999999999997,-2.500000000000000,0.300000000000000));
#1402=VERTEX_POINT('',#1401);
#1403=CARTESIAN_POINT('',(9.159999999999997,-2.500000000000000,0.300000000000000));
#1404=DIRECTION('',(-1.0,0.0,0.0));
#1405=VECTOR('',#1404,1.0);
#1406=LINE('',#1403,#1405);
#1407=EDGE_CURVE('',#1394,#1402,#1406,.T.);
#1408=ORIENTED_EDGE('',*,*,#1407,.T.);
#1409=CARTESIAN_POINT('',(8.159999999999997,-2.500000000000000,0.300000000000000));
#1410=DIRECTION('',(0.0,0.0,-1.0));
#1411=VECTOR('',#1410,0.300000000000000);
#1412=LINE('',#1409,#1411);
#1413=EDGE_CURVE('',#1402,#1384,#1412,.T.);
#1414=ORIENTED_EDGE('',*,*,#1413,.T.);
#1415=EDGE_LOOP('',(#1392,#1400,#1408,#1414));
#1416=FACE_OUTER_BOUND('',#1415,.T.);
#1417=ADVANCED_FACE('',(#1416),#1382,.T.);
#1418=CARTESIAN_POINT('',(9.159999999999997,-2.500000000000000,0.300000000000000));
#1419=DIRECTION('',(1.0,0.0,0.0));
#1420=DIRECTION('',(0.0,0.0,-1.0));
#1421=AXIS2_PLACEMENT_3D('',#1418,#1419,#1420);
#1422=PLANE('',#1421);
#1423=CARTESIAN_POINT('',(9.159999999999997,2.500000000000002,-1.665335E-016));
#1424=VERTEX_POINT('',#1423);
#1425=CARTESIAN_POINT('',(9.159999999999997,-2.500000000000000,-1.665335E-016));
#1426=DIRECTION('',(0.0,1.0,0.0));
#1427=VECTOR('',#1426,5.000000000000002);
#1428=LINE('',#1425,#1427);
#1429=EDGE_CURVE('',#1386,#1424,#1428,.T.);
#1430=ORIENTED_EDGE('',*,*,#1429,.T.);
#1431=CARTESIAN_POINT('',(9.159999999999997,2.500000000000002,0.300000000000000));
#1432=VERTEX_POINT('',#1431);
#1433=CARTESIAN_POINT('',(9.159999999999997,2.500000000000002,0.300000000000000));
#1434=DIRECTION('',(0.0,0.0,-1.0));
#1435=VECTOR('',#1434,0.300000000000000);
#1436=LINE('',#1433,#1435);
#1437=EDGE_CURVE('',#1432,#1424,#1436,.T.);
#1438=ORIENTED_EDGE('',*,*,#1437,.F.);
#1439=CARTESIAN_POINT('',(9.159999999999997,2.500000000000002,0.300000000000000));
#1440=DIRECTION('',(0.0,-1.0,0.0));
#1441=VECTOR('',#1440,5.000000000000002);
#1442=LINE('',#1439,#1441);
#1443=EDGE_CURVE('',#1432,#1394,#1442,.T.);
#1444=ORIENTED_EDGE('',*,*,#1443,.T.);
#1445=ORIENTED_EDGE('',*,*,#1399,.T.);
#1446=EDGE_LOOP('',(#1430,#1438,#1444,#1445));
#1447=FACE_OUTER_BOUND('',#1446,.T.);
#1448=ADVANCED_FACE('',(#1447),#1422,.T.);
#1449=CARTESIAN_POINT('',(9.159999999999997,2.500000000000002,0.300000000000000));
#1450=DIRECTION('',(0.0,1.0,0.0));
#1451=DIRECTION('',(0.0,0.0,1.0));
#1452=AXIS2_PLACEMENT_3D('',#1449,#1450,#1451);
#1453=PLANE('',#1452);
#1454=CARTESIAN_POINT('',(8.159999999999997,2.500000000000002,-1.665335E-016));
#1455=VERTEX_POINT('',#1454);
#1456=CARTESIAN_POINT('',(9.159999999999997,2.500000000000002,-1.665335E-016));
#1457=DIRECTION('',(-1.0,0.0,0.0));
#1458=VECTOR('',#1457,1.0);
#1459=LINE('',#1456,#1458);
#1460=EDGE_CURVE('',#1424,#1455,#1459,.T.);
#1461=ORIENTED_EDGE('',*,*,#1460,.T.);
#1462=CARTESIAN_POINT('',(8.159999999999997,2.500000000000002,0.300000000000000));
#1463=VERTEX_POINT('',#1462);
#1464=CARTESIAN_POINT('',(8.159999999999997,2.500000000000002,0.300000000000000));
#1465=DIRECTION('',(0.0,0.0,-1.0));
#1466=VECTOR('',#1465,0.300000000000000);
#1467=LINE('',#1464,#1466);
#1468=EDGE_CURVE('',#1463,#1455,#1467,.T.);
#1469=ORIENTED_EDGE('',*,*,#1468,.F.);
#1470=CARTESIAN_POINT('',(8.159999999999997,2.500000000000002,0.300000000000000));
#1471=DIRECTION('',(1.0,0.0,0.0));
#1472=VECTOR('',#1471,1.0);
#1473=LINE('',#1470,#1472);
#1474=EDGE_CURVE('',#1463,#1432,#1473,.T.);
#1475=ORIENTED_EDGE('',*,*,#1474,.T.);
#1476=ORIENTED_EDGE('',*,*,#1437,.T.);
#1477=EDGE_LOOP('',(#1461,#1469,#1475,#1476));
#1478=FACE_OUTER_BOUND('',#1477,.T.);
#1479=ADVANCED_FACE('',(#1478),#1453,.T.);
#1480=CARTESIAN_POINT('',(8.159999999999997,2.500000000000002,0.300000000000000));
#1481=DIRECTION('',(-1.0,0.0,0.0));
#1482=DIRECTION('',(0.0,0.0,1.0));
#1483=AXIS2_PLACEMENT_3D('',#1480,#1481,#1482);
#1484=PLANE('',#1483);
#1485=CARTESIAN_POINT('',(8.159999999999997,2.500000000000002,-1.665335E-016));
#1486=DIRECTION('',(0.0,-1.0,0.0));
#1487=VECTOR('',#1486,5.000000000000002);
#1488=LINE('',#1485,#1487);
#1489=EDGE_CURVE('',#1455,#1384,#1488,.T.);
#1490=ORIENTED_EDGE('',*,*,#1489,.T.);
#1491=ORIENTED_EDGE('',*,*,#1413,.F.);
#1492=CARTESIAN_POINT('',(8.159999999999997,-2.500000000000000,0.300000000000000));
#1493=DIRECTION('',(0.0,1.0,0.0));
#1494=VECTOR('',#1493,5.000000000000002);
#1495=LINE('',#1492,#1494);
#1496=EDGE_CURVE('',#1402,#1463,#1495,.T.);
#1497=ORIENTED_EDGE('',*,*,#1496,.T.);
#1498=ORIENTED_EDGE('',*,*,#1468,.T.);
#1499=EDGE_LOOP('',(#1490,#1491,#1497,#1498));
#1500=FACE_OUTER_BOUND('',#1499,.T.);
#1501=ADVANCED_FACE('',(#1500),#1484,.T.);
#1502=CARTESIAN_POINT('',(8.659999999999997,8.604228E-016,-1.665335E-016));
#1503=DIRECTION('',(0.0,0.0,1.0));
#1504=DIRECTION('',(1.0,0.0,0.0));
#1505=AXIS2_PLACEMENT_3D('',#1502,#1503,#1504);
#1506=PLANE('',#1505);
#1507=ORIENTED_EDGE('',*,*,#1391,.F.);
#1508=ORIENTED_EDGE('',*,*,#1489,.F.);
#1509=ORIENTED_EDGE('',*,*,#1460,.F.);
#1510=ORIENTED_EDGE('',*,*,#1429,.F.);
#1511=EDGE_LOOP('',(#1507,#1508,#1509,#1510));
#1512=FACE_OUTER_BOUND('',#1511,.T.);
#1513=ADVANCED_FACE('',(#1512),#1506,.F.);
#1514=CARTESIAN_POINT('',(8.659999999999997,8.604228E-016,0.300000000000000));
#1515=DIRECTION('',(0.0,0.0,1.0));
#1516=DIRECTION('',(1.0,0.0,0.0));
#1517=AXIS2_PLACEMENT_3D('',#1514,#1515,#1516);
#1518=PLANE('',#1517);
#1519=ORIENTED_EDGE('',*,*,#1496,.F.);
#1520=ORIENTED_EDGE('',*,*,#1407,.F.);
#1521=ORIENTED_EDGE('',*,*,#1443,.F.);
#1522=ORIENTED_EDGE('',*,*,#1474,.F.);
#1523=EDGE_LOOP('',(#1519,#1520,#1521,#1522));
#1524=FACE_OUTER_BOUND('',#1523,.T.);
#1525=ADVANCED_FACE('',(#1524),#1518,.T.);
#1526=CLOSED_SHELL('',(#1417,#1448,#1479,#1501,#1513,#1525));
#1527=MANIFOLD_SOLID_BREP('83B',#1526);
#1528=STYLED_ITEM('NONE',(#209),#1527);
#1529=CARTESIAN_POINT('',(0.0,0.0,0.0));
#1530=DIRECTION('',(0.0,0.0,-1.0));
#1531=DIRECTION('',(1.0,0.0,0.0));
#1532=AXIS2_PLACEMENT_3D('',#1529,#1530,#1531);
#1533=CYLINDRICAL_SURFACE('',#1532,0.500000000000000);
#1534=CARTESIAN_POINT('',(0.500000000000000,0.0,0.0));
#1535=VERTEX_POINT('',#1534);
#1536=CARTESIAN_POINT('',(0.500000000000000,0.0,-1.500000000000000));
#1537=VERTEX_POINT('',#1536);
#1538=CARTESIAN_POINT('',(0.500000000000000,0.0,0.0));
#1539=DIRECTION('',(0.0,0.0,-1.0));
#1540=VECTOR('',#1539,1.500000000000000);
#1541=LINE('',#1538,#1540);
#1542=EDGE_CURVE('',#1535,#1537,#1541,.T.);
#1543=ORIENTED_EDGE('',*,*,#1542,.F.);
#1544=CARTESIAN_POINT('',(-0.500000000000000,-6.123032E-017,0.0));
#1545=VERTEX_POINT('',#1544);
#1546=CARTESIAN_POINT('',(0.0,0.0,0.0));
#1547=DIRECTION('',(0.0,0.0,1.0));
#1548=DIRECTION('',(1.0,0.0,0.0));
#1549=AXIS2_PLACEMENT_3D('',#1546,#1547,#1548);
#1550=CIRCLE('',#1549,0.500000000000000);
#1551=EDGE_CURVE('',#1545,#1535,#1550,.T.);
#1552=ORIENTED_EDGE('',*,*,#1551,.F.);
#1553=CARTESIAN_POINT('',(-0.500000000000000,-6.123032E-017,-1.500000000000000));
#1554=VERTEX_POINT('',#1553);
#1555=CARTESIAN_POINT('',(-0.500000000000000,-6.123032E-017,-1.500000000000000));
#1556=DIRECTION('',(0.0,0.0,1.0));
#1557=VECTOR('',#1556,1.500000000000000);
#1558=LINE('',#1555,#1557);
#1559=EDGE_CURVE('',#1554,#1545,#1558,.T.);
#1560=ORIENTED_EDGE('',*,*,#1559,.F.);
#1561=CARTESIAN_POINT('',(0.0,0.0,-1.500000000000000));
#1562=DIRECTION('',(0.0,0.0,1.0));
#1563=DIRECTION('',(1.0,0.0,0.0));
#1564=AXIS2_PLACEMENT_3D('',#1561,#1562,#1563);
#1565=CIRCLE('',#1564,0.500000000000000);
#1566=EDGE_CURVE('',#1554,#1537,#1565,.T.);
#1567=ORIENTED_EDGE('',*,*,#1566,.T.);
#1568=EDGE_LOOP('',(#1543,#1552,#1560,#1567));
#1569=FACE_OUTER_BOUND('',#1568,.T.);
#1570=ADVANCED_FACE('',(#1569),#1533,.T.);
#1571=CARTESIAN_POINT('',(0.0,0.0,0.0));
#1572=DIRECTION('',(0.0,0.0,-1.0));
#1573=DIRECTION('',(1.0,0.0,0.0));
#1574=AXIS2_PLACEMENT_3D('',#1571,#1572,#1573);
#1575=CYLINDRICAL_SURFACE('',#1574,0.500000000000000);
#1576=ORIENTED_EDGE('',*,*,#1542,.T.);
#1577=CARTESIAN_POINT('',(0.0,0.0,-1.500000000000000));
#1578=DIRECTION('',(0.0,0.0,1.0));
#1579=DIRECTION('',(1.0,0.0,0.0));
#1580=AXIS2_PLACEMENT_3D('',#1577,#1578,#1579);
#1581=CIRCLE('',#1580,0.500000000000000);
#1582=EDGE_CURVE('',#1537,#1554,#1581,.T.);
#1583=ORIENTED_EDGE('',*,*,#1582,.T.);
#1584=ORIENTED_EDGE('',*,*,#1559,.T.);
#1585=CARTESIAN_POINT('',(0.0,0.0,0.0));
#1586=DIRECTION('',(0.0,0.0,1.0));
#1587=DIRECTION('',(1.0,0.0,0.0));
#1588=AXIS2_PLACEMENT_3D('',#1585,#1586,#1587);
#1589=CIRCLE('',#1588,0.500000000000000);
#1590=EDGE_CURVE('',#1535,#1545,#1589,.T.);
#1591=ORIENTED_EDGE('',*,*,#1590,.F.);
#1592=EDGE_LOOP('',(#1576,#1583,#1584,#1591));
#1593=FACE_OUTER_BOUND('',#1592,.T.);
#1594=ADVANCED_FACE('',(#1593),#1575,.T.);
#1595=CARTESIAN_POINT('',(0.0,0.0,-1.500000000000000));
#1596=DIRECTION('',(0.0,0.0,1.0));
#1597=DIRECTION('',(1.0,0.0,0.0));
#1598=AXIS2_PLACEMENT_3D('',#1595,#1596,#1597);
#1599=PLANE('',#1598);
#1600=ORIENTED_EDGE('',*,*,#1582,.F.);
#1601=ORIENTED_EDGE('',*,*,#1566,.F.);
#1602=EDGE_LOOP('',(#1600,#1601));
#1603=FACE_OUTER_BOUND('',#1602,.T.);
#1604=ADVANCED_FACE('',(#1603),#1599,.F.);
#1605=CARTESIAN_POINT('',(0.0,0.0,0.0));
#1606=DIRECTION('',(0.0,0.0,1.0));
#1607=DIRECTION('',(1.0,0.0,0.0));
#1608=AXIS2_PLACEMENT_3D('',#1605,#1606,#1607);
#1609=PLANE('',#1608);
#1610=ORIENTED_EDGE('',*,*,#1590,.T.);
#1611=ORIENTED_EDGE('',*,*,#1551,.T.);
#1612=EDGE_LOOP('',(#1610,#1611));
#1613=FACE_OUTER_BOUND('',#1612,.T.);
#1614=ADVANCED_FACE('',(#1613),#1609,.T.);
#1615=CLOSED_SHELL('',(#1570,#1594,#1604,#1614));
#1616=MANIFOLD_SOLID_BREP('7CC',#1615);
#1617=STYLED_ITEM('NONE',(#209),#1616);
#1618=ADVANCED_BREP_SHAPE_REPRESENTATION('ABSR1',(#202,#350,#765,#916,#1074,#1225,#1376,#1527,#1616),#28);
#1619=SHAPE_REPRESENTATION_RELATIONSHIP('SRRPL1','',#1618,#62);
ENDSEC;
END-ISO-10303-21;
