ISO-10303-21;
HEADER;
/****************************************************************
 * Generated by software with PDE/Lib inside                    *
 * PDElib Version v51a, created Mon 11/03/2008                  *
 * International Technegroup Inc. (www.iti-oh.com)              *
 ****************************************************************/
FILE_DESCRIPTION((''),'2;1');
FILE_NAME('REL_OMRON_G6E-134P.stp','2010-11-01T10:33:51',(''),(''),'Mechanical Desktop 2010','Mechanical Desktop 2010',', , ');
FILE_SCHEMA(('AUTOMOTIVE_DESIGN { 1 2 10303 214 1 1 1 1 }'));
ENDSEC;
DATA;
#8=(NAMED_UNIT(*)PLANE_ANGLE_UNIT()SI_UNIT($,.RADIAN.));
#9=DIMENSIONAL_EXPONENTS(0.0,0.0,0.0,0.0,0.0,0.0,0.0);
#10=PLANE_ANGLE_MEASURE_WITH_UNIT(PLANE_ANGLE_MEASURE(0.017453292500000),#8);
#14=(CONVERSION_BASED_UNIT('DEGREE',#10)NAMED_UNIT(#9)PLANE_ANGLE_UNIT());
#18=(NAMED_UNIT(*)SI_UNIT($,.STERADIAN.)SOLID_ANGLE_UNIT());
#22=(LENGTH_UNIT()NAMED_UNIT(*)SI_UNIT(.MILLI.,.METRE.));
#23=UNCERTAINTY_MEASURE_WITH_UNIT(LENGTH_MEASURE(0.000001000000000),#22,'DISTANCE_ACCURACY_VALUE','');
#28=(GEOMETRIC_REPRESENTATION_CONTEXT(3)GLOBAL_UNCERTAINTY_ASSIGNED_CONTEXT((#23))GLOBAL_UNIT_ASSIGNED_CONTEXT((#14,#18,#22))REPRESENTATION_CONTEXT('None','None'));
#29=APPLICATION_CONTEXT('automotive design');
#30=APPLICATION_PROTOCOL_DEFINITION('INTERNATIONAL_STANDARD','automotive_design',1998,#29);
#31=PRODUCT_CONTEXT('3D Mechanical Parts',#29,'mechanical');
#32=PRODUCT('Product','Product','',(#31));
#33=PRODUCT_RELATED_PRODUCT_CATEGORY('part',$,(#32));
#34=PRODUCT_CATEGORY('part',$);
#35=PERSON('1','Design','Joe',$,$,$);
#36=ORGANIZATION($,'None','None');
#37=PERSON_AND_ORGANIZATION(#35,#36);
#38=PERSON_AND_ORGANIZATION_ROLE('design_owner');
#39=APPLIED_PERSON_AND_ORGANIZATION_ASSIGNMENT(#37,#38,(#32));
#40=PRODUCT_DEFINITION_FORMATION_WITH_SPECIFIED_SOURCE('None','',#32,.BOUGHT.);
#41=PERSON('2','Creator','Joe',$,$,$);
#42=ORGANIZATION($,'None','None');
#43=PERSON_AND_ORGANIZATION(#41,#42);
#44=PERSON_AND_ORGANIZATION_ROLE('creator');
#45=APPLIED_PERSON_AND_ORGANIZATION_ASSIGNMENT(#43,#44,(#40));
#46=PERSON('3','Supplier','Joe',$,$,$);
#47=ORGANIZATION($,'None','None');
#48=PERSON_AND_ORGANIZATION(#46,#47);
#49=PERSON_AND_ORGANIZATION_ROLE('design_supplier');
#50=APPLIED_PERSON_AND_ORGANIZATION_ASSIGNMENT(#48,#49,(#40));
#51=PRODUCT_DEFINITION_CONTEXT('part definition',#29,'design');
#52=PRODUCT_DEFINITION('None','',#40,#51);
#53=PERSON('4','Creator','Joe',$,$,$);
#54=ORGANIZATION($,'None','None');
#55=PERSON_AND_ORGANIZATION(#53,#54);
#56=PERSON_AND_ORGANIZATION_ROLE('creator');
#57=APPLIED_PERSON_AND_ORGANIZATION_ASSIGNMENT(#55,#56,(#52));
#58=CARTESIAN_POINT('NONE',(0.0,0.0,0.0));
#59=DIRECTION('NONE',(0.0,0.0,1.0));
#60=DIRECTION('NONE',(1.0,0.0,0.0));
#61=AXIS2_PLACEMENT_3D('NONE',#58,#59,#60);
#62=SHAPE_REPRESENTATION('SR1',(#61),#28);
#63=PRODUCT_DEFINITION_SHAPE('PDS1','Test Part',#52);
#64=SHAPE_DEFINITION_REPRESENTATION(#63,#62);
#65=CARTESIAN_POINT('',(-5.350000000000000,5.0,0.150000000000000));
#66=DIRECTION('',(0.0,-1.0,0.0));
#67=DIRECTION('',(0.0,0.0,1.0));
#68=AXIS2_PLACEMENT_3D('',#65,#66,#67);
#69=PLANE('',#68);
#70=CARTESIAN_POINT('',(-4.850000000000000,5.0,0.300000000000000));
#71=VERTEX_POINT('',#70);
#72=CARTESIAN_POINT('',(-4.850000000000000,5.0,0.0));
#73=VERTEX_POINT('',#72);
#74=CARTESIAN_POINT('',(-4.850000000000000,5.0,0.300000000000000));
#75=DIRECTION('',(0.0,0.0,-1.0));
#76=VECTOR('',#75,0.300000000000000);
#77=LINE('',#74,#76);
#78=EDGE_CURVE('',#71,#73,#77,.T.);
#79=ORIENTED_EDGE('',*,*,#78,.T.);
#80=CARTESIAN_POINT('',(-5.850000000000000,5.0,0.0));
#81=VERTEX_POINT('',#80);
#82=CARTESIAN_POINT('',(-5.850000000000000,5.0,0.0));
#83=DIRECTION('',(1.0,0.0,0.0));
#84=VECTOR('',#83,1.0);
#85=LINE('',#82,#84);
#86=EDGE_CURVE('',#81,#73,#85,.T.);
#87=ORIENTED_EDGE('',*,*,#86,.F.);
#88=CARTESIAN_POINT('',(-5.850000000000000,5.0,0.300000000000000));
#89=VERTEX_POINT('',#88);
#90=CARTESIAN_POINT('',(-5.850000000000000,5.0,0.300000000000000));
#91=DIRECTION('',(0.0,0.0,-1.0));
#92=VECTOR('',#91,0.300000000000000);
#93=LINE('',#90,#92);
#94=EDGE_CURVE('',#89,#81,#93,.T.);
#95=ORIENTED_EDGE('',*,*,#94,.F.);
#96=CARTESIAN_POINT('',(-4.850000000000000,5.0,0.300000000000000));
#97=DIRECTION('',(-1.0,0.0,0.0));
#98=VECTOR('',#97,1.0);
#99=LINE('',#96,#98);
#100=EDGE_CURVE('',#71,#89,#99,.T.);
#101=ORIENTED_EDGE('',*,*,#100,.F.);
#102=EDGE_LOOP('',(#79,#87,#95,#101));
#103=FACE_OUTER_BOUND('',#102,.T.);
#104=ADVANCED_FACE('',(#103),#69,.F.);
#105=CARTESIAN_POINT('',(-5.849999999999999,-1.110223E-016,0.150000000000000));
#106=DIRECTION('',(1.0,0.0,0.0));
#107=DIRECTION('',(0.0,0.0,-1.0));
#108=AXIS2_PLACEMENT_3D('',#105,#106,#107);
#109=PLANE('',#108);
#110=CARTESIAN_POINT('',(-5.850000000000001,4.000000000000000,0.0));
#111=VERTEX_POINT('',#110);
#112=CARTESIAN_POINT('',(-5.850000000000001,4.000000000000000,0.300000000000000));
#113=VERTEX_POINT('',#112);
#114=CARTESIAN_POINT('',(-5.850000000000000,4.000000000000000,0.0));
#115=DIRECTION('',(0.0,0.0,1.0));
#116=VECTOR('',#115,0.300000000000000);
#117=LINE('',#114,#116);
#118=EDGE_CURVE('',#111,#113,#117,.T.);
#119=ORIENTED_EDGE('',*,*,#118,.T.);
#120=CARTESIAN_POINT('',(-5.850000000000000,5.0,0.300000000000000));
#121=DIRECTION('',(0.0,-1.0,0.0));
#122=VECTOR('',#121,1.000000000000000);
#123=LINE('',#120,#122);
#124=EDGE_CURVE('',#89,#113,#123,.T.);
#125=ORIENTED_EDGE('',*,*,#124,.F.);
#126=ORIENTED_EDGE('',*,*,#94,.T.);
#127=CARTESIAN_POINT('',(-5.850000000000000,4.000000000000000,0.0));
#128=DIRECTION('',(0.0,1.0,0.0));
#129=VECTOR('',#128,1.000000000000000);
#130=LINE('',#127,#129);
#131=EDGE_CURVE('',#111,#81,#130,.T.);
#132=ORIENTED_EDGE('',*,*,#131,.F.);
#133=EDGE_LOOP('',(#119,#125,#126,#132));
#134=FACE_OUTER_BOUND('',#133,.T.);
#135=ADVANCED_FACE('',(#134),#109,.F.);
#136=CARTESIAN_POINT('',(-5.349999999999999,0.0,0.0));
#137=DIRECTION('',(0.0,0.0,1.0));
#138=DIRECTION('',(0.0,1.0,0.0));
#139=AXIS2_PLACEMENT_3D('',#136,#137,#138);
#140=PLANE('',#139);
#141=CARTESIAN_POINT('',(-4.849999999999999,4.000000000000000,0.0));
#142=VERTEX_POINT('',#141);
#143=CARTESIAN_POINT('',(-4.849999999999999,4.000000000000000,0.0));
#144=DIRECTION('',(-1.0,0.0,0.0));
#145=VECTOR('',#144,1.000000000000002);
#146=LINE('',#143,#145);
#147=EDGE_CURVE('',#142,#111,#146,.T.);
#148=ORIENTED_EDGE('',*,*,#147,.T.);
#149=ORIENTED_EDGE('',*,*,#131,.T.);
#150=ORIENTED_EDGE('',*,*,#86,.T.);
#151=CARTESIAN_POINT('',(-4.850000000000000,5.0,0.0));
#152=DIRECTION('',(0.0,-1.0,0.0));
#153=VECTOR('',#152,1.000000000000000);
#154=LINE('',#151,#153);
#155=EDGE_CURVE('',#73,#142,#154,.T.);
#156=ORIENTED_EDGE('',*,*,#155,.T.);
#157=EDGE_LOOP('',(#148,#149,#150,#156));
#158=FACE_OUTER_BOUND('',#157,.T.);
#159=ADVANCED_FACE('',(#158),#140,.F.);
#160=CARTESIAN_POINT('',(-4.849999999999999,1.110223E-016,0.150000000000000));
#161=DIRECTION('',(-1.0,0.0,0.0));
#162=DIRECTION('',(0.0,0.0,1.0));
#163=AXIS2_PLACEMENT_3D('',#160,#161,#162);
#164=PLANE('',#163);
#165=CARTESIAN_POINT('',(-4.849999999999999,4.000000000000000,0.300000000000000));
#166=VERTEX_POINT('',#165);
#167=CARTESIAN_POINT('',(-4.850000000000000,4.000000000000000,0.300000000000000));
#168=DIRECTION('',(0.0,0.0,-1.0));
#169=VECTOR('',#168,0.300000000000000);
#170=LINE('',#167,#169);
#171=EDGE_CURVE('',#166,#142,#170,.T.);
#172=ORIENTED_EDGE('',*,*,#171,.T.);
#173=ORIENTED_EDGE('',*,*,#155,.F.);
#174=ORIENTED_EDGE('',*,*,#78,.F.);
#175=CARTESIAN_POINT('',(-4.850000000000000,4.000000000000000,0.300000000000000));
#176=DIRECTION('',(0.0,1.0,0.0));
#177=VECTOR('',#176,1.000000000000000);
#178=LINE('',#175,#177);
#179=EDGE_CURVE('',#166,#71,#178,.T.);
#180=ORIENTED_EDGE('',*,*,#179,.F.);
#181=EDGE_LOOP('',(#172,#173,#174,#180));
#182=FACE_OUTER_BOUND('',#181,.T.);
#183=ADVANCED_FACE('',(#182),#164,.F.);
#184=CARTESIAN_POINT('',(-5.349999999999999,0.0,0.300000000000000));
#185=DIRECTION('',(0.0,0.0,1.0));
#186=DIRECTION('',(0.0,1.0,0.0));
#187=AXIS2_PLACEMENT_3D('',#184,#185,#186);
#188=PLANE('',#187);
#189=CARTESIAN_POINT('',(-5.850000000000001,4.000000000000000,0.300000000000000));
#190=DIRECTION('',(1.0,0.0,0.0));
#191=VECTOR('',#190,1.000000000000002);
#192=LINE('',#189,#191);
#193=EDGE_CURVE('',#113,#166,#192,.T.);
#194=ORIENTED_EDGE('',*,*,#193,.T.);
#195=ORIENTED_EDGE('',*,*,#179,.T.);
#196=ORIENTED_EDGE('',*,*,#100,.T.);
#197=ORIENTED_EDGE('',*,*,#124,.T.);
#198=EDGE_LOOP('',(#194,#195,#196,#197));
#199=FACE_OUTER_BOUND('',#198,.T.);
#200=ADVANCED_FACE('',(#199),#188,.T.);
#201=CARTESIAN_POINT('',(-5.350000000000000,4.000000000000000,0.150000000000000));
#202=DIRECTION('',(0.0,-1.0,0.0));
#203=DIRECTION('',(0.0,0.0,1.0));
#204=AXIS2_PLACEMENT_3D('',#201,#202,#203);
#205=PLANE('',#204);
#206=ORIENTED_EDGE('',*,*,#171,.F.);
#207=ORIENTED_EDGE('',*,*,#193,.F.);
#208=ORIENTED_EDGE('',*,*,#118,.F.);
#209=ORIENTED_EDGE('',*,*,#147,.F.);
#210=EDGE_LOOP('',(#206,#207,#208,#209));
#211=FACE_OUTER_BOUND('',#210,.T.);
#212=ADVANCED_FACE('',(#211),#205,.T.);
#213=CLOSED_SHELL('',(#104,#135,#159,#183,#200,#212));
#214=MANIFOLD_SOLID_BREP('8B8',#213);
#215=COLOUR_RGB('250',0.330000000000000,0.330000000000000,0.330000000000000);
#216=SURFACE_STYLE_USAGE(.BOTH.,#217);
#217=SURFACE_SIDE_STYLE('NONE',(#218));
#218=SURFACE_STYLE_FILL_AREA(#219);
#219=FILL_AREA_STYLE('NONE',(#220));
#220=FILL_AREA_STYLE_COLOUR('NONE',#215);
#221=PRESENTATION_STYLE_ASSIGNMENT((#216));
#222=STYLED_ITEM('NONE',(#221),#214);
#223=MECHANICAL_DESIGN_GEOMETRIC_PRESENTATION_REPRESENTATION('NONE',(#222,#375,#526,#677,#835,#1128,#1286,#1437,#1588,#1739,#1890),#28);
#224=PRESENTATION_LAYER_ASSIGNMENT('3D','None',(#214,#374,#525,#676,#827,#1127,#1278,#1436,#1587,#1738,#1889));
#225=CARTESIAN_POINT('',(-5.349999999999998,-4.0,0.150000000000000));
#226=DIRECTION('',(0.0,1.0,0.0));
#227=DIRECTION('',(0.0,0.0,-1.0));
#228=AXIS2_PLACEMENT_3D('',#225,#226,#227);
#229=PLANE('',#228);
#230=CARTESIAN_POINT('',(-5.849999999999999,-4.0,0.300000000000000));
#231=VERTEX_POINT('',#230);
#232=CARTESIAN_POINT('',(-5.849999999999999,-4.0,0.0));
#233=VERTEX_POINT('',#232);
#234=CARTESIAN_POINT('',(-5.849999999999998,-4.0,0.300000000000000));
#235=DIRECTION('',(0.0,0.0,-1.0));
#236=VECTOR('',#235,0.300000000000000);
#237=LINE('',#234,#236);
#238=EDGE_CURVE('',#231,#233,#237,.T.);
#239=ORIENTED_EDGE('',*,*,#238,.F.);
#240=CARTESIAN_POINT('',(-4.849999999999997,-4.0,0.300000000000000));
#241=VERTEX_POINT('',#240);
#242=CARTESIAN_POINT('',(-4.849999999999997,-4.0,0.300000000000000));
#243=DIRECTION('',(-1.0,0.0,0.0));
#244=VECTOR('',#243,1.000000000000002);
#245=LINE('',#242,#244);
#246=EDGE_CURVE('',#241,#231,#245,.T.);
#247=ORIENTED_EDGE('',*,*,#246,.F.);
#248=CARTESIAN_POINT('',(-4.849999999999997,-4.0,0.0));
#249=VERTEX_POINT('',#248);
#250=CARTESIAN_POINT('',(-4.849999999999998,-4.0,0.0));
#251=DIRECTION('',(0.0,0.0,1.0));
#252=VECTOR('',#251,0.300000000000000);
#253=LINE('',#250,#252);
#254=EDGE_CURVE('',#249,#241,#253,.T.);
#255=ORIENTED_EDGE('',*,*,#254,.F.);
#256=CARTESIAN_POINT('',(-5.849999999999999,-4.0,0.0));
#257=DIRECTION('',(1.0,0.0,0.0));
#258=VECTOR('',#257,1.000000000000002);
#259=LINE('',#256,#258);
#260=EDGE_CURVE('',#233,#249,#259,.T.);
#261=ORIENTED_EDGE('',*,*,#260,.F.);
#262=EDGE_LOOP('',(#239,#247,#255,#261));
#263=FACE_OUTER_BOUND('',#262,.T.);
#264=ADVANCED_FACE('',(#263),#229,.T.);
#265=CARTESIAN_POINT('',(-5.349999999999999,0.0,0.300000000000000));
#266=DIRECTION('',(0.0,0.0,1.0));
#267=DIRECTION('',(0.0,1.0,0.0));
#268=AXIS2_PLACEMENT_3D('',#265,#266,#267);
#269=PLANE('',#268);
#270=ORIENTED_EDGE('',*,*,#246,.T.);
#271=CARTESIAN_POINT('',(-5.849999999999998,-5.0,0.300000000000000));
#272=VERTEX_POINT('',#271);
#273=CARTESIAN_POINT('',(-5.849999999999998,-4.0,0.300000000000000));
#274=DIRECTION('',(0.0,-1.0,0.0));
#275=VECTOR('',#274,1.0);
#276=LINE('',#273,#275);
#277=EDGE_CURVE('',#231,#272,#276,.T.);
#278=ORIENTED_EDGE('',*,*,#277,.T.);
#279=CARTESIAN_POINT('',(-4.849999999999998,-5.0,0.300000000000000));
#280=VERTEX_POINT('',#279);
#281=CARTESIAN_POINT('',(-5.849999999999998,-5.0,0.300000000000000));
#282=DIRECTION('',(1.0,0.0,0.0));
#283=VECTOR('',#282,1.0);
#284=LINE('',#281,#283);
#285=EDGE_CURVE('',#272,#280,#284,.T.);
#286=ORIENTED_EDGE('',*,*,#285,.T.);
#287=CARTESIAN_POINT('',(-4.849999999999998,-5.0,0.300000000000000));
#288=DIRECTION('',(0.0,1.0,0.0));
#289=VECTOR('',#288,1.0);
#290=LINE('',#287,#289);
#291=EDGE_CURVE('',#280,#241,#290,.T.);
#292=ORIENTED_EDGE('',*,*,#291,.T.);
#293=EDGE_LOOP('',(#270,#278,#286,#292));
#294=FACE_OUTER_BOUND('',#293,.T.);
#295=ADVANCED_FACE('',(#294),#269,.T.);
#296=CARTESIAN_POINT('',(-5.849999999999999,-1.110223E-016,0.150000000000000));
#297=DIRECTION('',(1.0,0.0,0.0));
#298=DIRECTION('',(0.0,0.0,-1.0));
#299=AXIS2_PLACEMENT_3D('',#296,#297,#298);
#300=PLANE('',#299);
#301=ORIENTED_EDGE('',*,*,#238,.T.);
#302=CARTESIAN_POINT('',(-5.849999999999998,-5.0,0.0));
#303=VERTEX_POINT('',#302);
#304=CARTESIAN_POINT('',(-5.849999999999998,-5.0,0.0));
#305=DIRECTION('',(0.0,1.0,0.0));
#306=VECTOR('',#305,1.0);
#307=LINE('',#304,#306);
#308=EDGE_CURVE('',#303,#233,#307,.T.);
#309=ORIENTED_EDGE('',*,*,#308,.F.);
#310=CARTESIAN_POINT('',(-5.849999999999998,-5.0,0.300000000000000));
#311=DIRECTION('',(0.0,0.0,-1.0));
#312=VECTOR('',#311,0.300000000000000);
#313=LINE('',#310,#312);
#314=EDGE_CURVE('',#272,#303,#313,.T.);
#315=ORIENTED_EDGE('',*,*,#314,.F.);
#316=ORIENTED_EDGE('',*,*,#277,.F.);
#317=EDGE_LOOP('',(#301,#309,#315,#316));
#318=FACE_OUTER_BOUND('',#317,.T.);
#319=ADVANCED_FACE('',(#318),#300,.F.);
#320=CARTESIAN_POINT('',(-5.349999999999999,0.0,0.0));
#321=DIRECTION('',(0.0,0.0,1.0));
#322=DIRECTION('',(0.0,1.0,0.0));
#323=AXIS2_PLACEMENT_3D('',#320,#321,#322);
#324=PLANE('',#323);
#325=ORIENTED_EDGE('',*,*,#260,.T.);
#326=CARTESIAN_POINT('',(-4.849999999999998,-5.0,0.0));
#327=VERTEX_POINT('',#326);
#328=CARTESIAN_POINT('',(-4.849999999999998,-4.0,0.0));
#329=DIRECTION('',(0.0,-1.0,0.0));
#330=VECTOR('',#329,1.0);
#331=LINE('',#328,#330);
#332=EDGE_CURVE('',#249,#327,#331,.T.);
#333=ORIENTED_EDGE('',*,*,#332,.T.);
#334=CARTESIAN_POINT('',(-4.849999999999998,-5.0,0.0));
#335=DIRECTION('',(-1.0,0.0,0.0));
#336=VECTOR('',#335,1.0);
#337=LINE('',#334,#336);
#338=EDGE_CURVE('',#327,#303,#337,.T.);
#339=ORIENTED_EDGE('',*,*,#338,.T.);
#340=ORIENTED_EDGE('',*,*,#308,.T.);
#341=EDGE_LOOP('',(#325,#333,#339,#340));
#342=FACE_OUTER_BOUND('',#341,.T.);
#343=ADVANCED_FACE('',(#342),#324,.F.);
#344=CARTESIAN_POINT('',(-4.849999999999999,1.110223E-016,0.150000000000000));
#345=DIRECTION('',(-1.0,0.0,0.0));
#346=DIRECTION('',(0.0,0.0,1.0));
#347=AXIS2_PLACEMENT_3D('',#344,#345,#346);
#348=PLANE('',#347);
#349=ORIENTED_EDGE('',*,*,#254,.T.);
#350=ORIENTED_EDGE('',*,*,#291,.F.);
#351=CARTESIAN_POINT('',(-4.849999999999998,-5.0,0.300000000000000));
#352=DIRECTION('',(0.0,0.0,-1.0));
#353=VECTOR('',#352,0.300000000000000);
#354=LINE('',#351,#353);
#355=EDGE_CURVE('',#280,#327,#354,.T.);
#356=ORIENTED_EDGE('',*,*,#355,.T.);
#357=ORIENTED_EDGE('',*,*,#332,.F.);
#358=EDGE_LOOP('',(#349,#350,#356,#357));
#359=FACE_OUTER_BOUND('',#358,.T.);
#360=ADVANCED_FACE('',(#359),#348,.F.);
#361=CARTESIAN_POINT('',(-5.349999999999998,-5.0,0.150000000000000));
#362=DIRECTION('',(0.0,1.0,0.0));
#363=DIRECTION('',(0.0,0.0,-1.0));
#364=AXIS2_PLACEMENT_3D('',#361,#362,#363);
#365=PLANE('',#364);
#366=ORIENTED_EDGE('',*,*,#314,.T.);
#367=ORIENTED_EDGE('',*,*,#338,.F.);
#368=ORIENTED_EDGE('',*,*,#355,.F.);
#369=ORIENTED_EDGE('',*,*,#285,.F.);
#370=EDGE_LOOP('',(#366,#367,#368,#369));
#371=FACE_OUTER_BOUND('',#370,.T.);
#372=ADVANCED_FACE('',(#371),#365,.F.);
#373=CLOSED_SHELL('',(#264,#295,#319,#343,#360,#372));
#374=MANIFOLD_SOLID_BREP('8B8',#373);
#375=STYLED_ITEM('NONE',(#221),#374);
#376=CARTESIAN_POINT('',(5.850000000000000,5.0,0.0));
#377=CARTESIAN_POINT('',(5.850000000000000,5.0,0.300000000000000));
#378=CARTESIAN_POINT('',(4.850000000000000,5.0,0.0));
#379=CARTESIAN_POINT('',(4.850000000000000,5.0,0.300000000000000));
#380=B_SPLINE_SURFACE_WITH_KNOTS('',1,1,((#376,#378),(#377,#379)),.UNSPECIFIED.,.F.,.F.,.U.,(2,2),(2,2),(0.0,0.300000000000000),(0.0,1.0),.UNSPECIFIED.);
#381=CARTESIAN_POINT('',(4.850000000000000,5.0,0.300000000000000));
#382=VERTEX_POINT('',#381);
#383=CARTESIAN_POINT('',(4.850000000000000,5.0,0.0));
#384=VERTEX_POINT('',#383);
#385=CARTESIAN_POINT('',(4.850000000000000,5.0,0.300000000000000));
#386=DIRECTION('',(0.0,0.0,-1.0));
#387=VECTOR('',#386,0.300000000000000);
#388=LINE('',#385,#387);
#389=EDGE_CURVE('',#382,#384,#388,.T.);
#390=ORIENTED_EDGE('',*,*,#389,.F.);
#391=CARTESIAN_POINT('',(5.850000000000000,5.0,0.300000000000000));
#392=VERTEX_POINT('',#391);
#393=CARTESIAN_POINT('',(4.850000000000000,5.0,0.300000000000000));
#394=DIRECTION('',(1.0,0.0,0.0));
#395=VECTOR('',#394,1.0);
#396=LINE('',#393,#395);
#397=EDGE_CURVE('',#382,#392,#396,.T.);
#398=ORIENTED_EDGE('',*,*,#397,.T.);
#399=CARTESIAN_POINT('',(5.850000000000000,5.0,0.0));
#400=VERTEX_POINT('',#399);
#401=CARTESIAN_POINT('',(5.850000000000000,5.0,0.300000000000000));
#402=DIRECTION('',(0.0,0.0,-1.0));
#403=VECTOR('',#402,0.300000000000000);
#404=LINE('',#401,#403);
#405=EDGE_CURVE('',#392,#400,#404,.T.);
#406=ORIENTED_EDGE('',*,*,#405,.T.);
#407=CARTESIAN_POINT('',(5.850000000000000,5.0,0.0));
#408=DIRECTION('',(-1.0,0.0,0.0));
#409=VECTOR('',#408,1.0);
#410=LINE('',#407,#409);
#411=EDGE_CURVE('',#400,#384,#410,.T.);
#412=ORIENTED_EDGE('',*,*,#411,.T.);
#413=EDGE_LOOP('',(#390,#398,#406,#412));
#414=FACE_OUTER_BOUND('',#413,.T.);
#415=ADVANCED_FACE('',(#414),#380,.F.);
#416=CARTESIAN_POINT('',(4.850000000000000,5.0,0.0));
#417=CARTESIAN_POINT('',(4.850000000000000,5.0,0.300000000000000));
#418=CARTESIAN_POINT('',(4.850000000000000,4.000000000000000,0.0));
#419=CARTESIAN_POINT('',(4.850000000000000,4.0,0.300000000000000));
#420=B_SPLINE_SURFACE_WITH_KNOTS('',1,1,((#416,#418),(#417,#419)),.UNSPECIFIED.,.F.,.F.,.U.,(2,2),(2,2),(0.0,0.300000000000000),(0.0,1.000000000000000),.UNSPECIFIED.);
#421=CARTESIAN_POINT('',(4.849999999999999,4.000000000000000,0.0));
#422=VERTEX_POINT('',#421);
#423=CARTESIAN_POINT('',(4.849999999999999,4.000000000000000,0.300000000000000));
#424=VERTEX_POINT('',#423);
#425=CARTESIAN_POINT('',(4.850000000000000,4.000000000000000,0.0));
#426=DIRECTION('',(0.0,0.0,1.0));
#427=VECTOR('',#426,0.300000000000000);
#428=LINE('',#425,#427);
#429=EDGE_CURVE('',#422,#424,#428,.T.);
#430=ORIENTED_EDGE('',*,*,#429,.T.);
#431=CARTESIAN_POINT('',(4.850000000000000,4.000000000000000,0.300000000000000));
#432=DIRECTION('',(0.0,1.0,0.0));
#433=VECTOR('',#432,1.000000000000000);
#434=LINE('',#431,#433);
#435=EDGE_CURVE('',#424,#382,#434,.T.);
#436=ORIENTED_EDGE('',*,*,#435,.T.);
#437=ORIENTED_EDGE('',*,*,#389,.T.);
#438=CARTESIAN_POINT('',(4.850000000000000,5.0,0.0));
#439=DIRECTION('',(0.0,-1.0,0.0));
#440=VECTOR('',#439,1.000000000000000);
#441=LINE('',#438,#440);
#442=EDGE_CURVE('',#384,#422,#441,.T.);
#443=ORIENTED_EDGE('',*,*,#442,.T.);
#444=EDGE_LOOP('',(#430,#436,#437,#443));
#445=FACE_OUTER_BOUND('',#444,.T.);
#446=ADVANCED_FACE('',(#445),#420,.F.);
#447=CARTESIAN_POINT('',(5.850000000000001,4.000000000000000,0.0));
#448=CARTESIAN_POINT('',(5.850000000000001,5.0,0.0));
#449=CARTESIAN_POINT('',(4.849999999999999,4.0,0.0));
#450=CARTESIAN_POINT('',(4.849999999999999,5.0,0.0));
#451=B_SPLINE_SURFACE_WITH_KNOTS('',1,1,((#447,#449),(#448,#450)),.UNSPECIFIED.,.F.,.F.,.U.,(2,2),(2,2),(0.0,1.000000000000000),(0.0,1.000000000000002),.UNSPECIFIED.);
#452=CARTESIAN_POINT('',(5.850000000000001,4.000000000000000,0.0));
#453=VERTEX_POINT('',#452);
#454=CARTESIAN_POINT('',(5.850000000000001,4.000000000000000,0.0));
#455=DIRECTION('',(-1.0,0.0,0.0));
#456=VECTOR('',#455,1.000000000000002);
#457=LINE('',#454,#456);
#458=EDGE_CURVE('',#453,#422,#457,.T.);
#459=ORIENTED_EDGE('',*,*,#458,.T.);
#460=ORIENTED_EDGE('',*,*,#442,.F.);
#461=ORIENTED_EDGE('',*,*,#411,.F.);
#462=CARTESIAN_POINT('',(5.850000000000000,4.000000000000000,0.0));
#463=DIRECTION('',(0.0,1.0,0.0));
#464=VECTOR('',#463,1.000000000000000);
#465=LINE('',#462,#464);
#466=EDGE_CURVE('',#453,#400,#465,.T.);
#467=ORIENTED_EDGE('',*,*,#466,.F.);
#468=EDGE_LOOP('',(#459,#460,#461,#467));
#469=FACE_OUTER_BOUND('',#468,.T.);
#470=ADVANCED_FACE('',(#469),#451,.F.);
#471=CARTESIAN_POINT('',(5.850000000000000,5.0,0.300000000000000));
#472=CARTESIAN_POINT('',(5.850000000000000,5.0,0.0));
#473=CARTESIAN_POINT('',(5.850000000000000,4.000000000000000,0.300000000000000));
#474=CARTESIAN_POINT('',(5.850000000000000,4.0,0.0));
#475=B_SPLINE_SURFACE_WITH_KNOTS('',1,1,((#471,#473),(#472,#474)),.UNSPECIFIED.,.F.,.F.,.U.,(2,2),(2,2),(0.0,0.300000000000000),(0.0,1.000000000000000),.UNSPECIFIED.);
#476=CARTESIAN_POINT('',(5.850000000000001,4.000000000000000,0.300000000000000));
#477=VERTEX_POINT('',#476);
#478=CARTESIAN_POINT('',(5.850000000000000,4.000000000000000,0.300000000000000));
#479=DIRECTION('',(0.0,0.0,-1.0));
#480=VECTOR('',#479,0.300000000000000);
#481=LINE('',#478,#480);
#482=EDGE_CURVE('',#477,#453,#481,.T.);
#483=ORIENTED_EDGE('',*,*,#482,.T.);
#484=ORIENTED_EDGE('',*,*,#466,.T.);
#485=ORIENTED_EDGE('',*,*,#405,.F.);
#486=CARTESIAN_POINT('',(5.850000000000000,5.0,0.300000000000000));
#487=DIRECTION('',(0.0,-1.0,0.0));
#488=VECTOR('',#487,1.000000000000000);
#489=LINE('',#486,#488);
#490=EDGE_CURVE('',#392,#477,#489,.T.);
#491=ORIENTED_EDGE('',*,*,#490,.T.);
#492=EDGE_LOOP('',(#483,#484,#485,#491));
#493=FACE_OUTER_BOUND('',#492,.T.);
#494=ADVANCED_FACE('',(#493),#475,.F.);
#495=CARTESIAN_POINT('',(5.850000000000001,4.000000000000000,0.300000000000000));
#496=CARTESIAN_POINT('',(5.850000000000001,5.0,0.300000000000000));
#497=CARTESIAN_POINT('',(4.849999999999999,4.0,0.300000000000000));
#498=CARTESIAN_POINT('',(4.849999999999999,5.0,0.300000000000000));
#499=B_SPLINE_SURFACE_WITH_KNOTS('',1,1,((#495,#497),(#496,#498)),.UNSPECIFIED.,.F.,.F.,.U.,(2,2),(2,2),(0.0,1.000000000000000),(0.0,1.000000000000002),.UNSPECIFIED.);
#500=CARTESIAN_POINT('',(4.849999999999999,4.000000000000000,0.300000000000000));
#501=DIRECTION('',(1.0,0.0,0.0));
#502=VECTOR('',#501,1.000000000000002);
#503=LINE('',#500,#502);
#504=EDGE_CURVE('',#424,#477,#503,.T.);
#505=ORIENTED_EDGE('',*,*,#504,.T.);
#506=ORIENTED_EDGE('',*,*,#490,.F.);
#507=ORIENTED_EDGE('',*,*,#397,.F.);
#508=ORIENTED_EDGE('',*,*,#435,.F.);
#509=EDGE_LOOP('',(#505,#506,#507,#508));
#510=FACE_OUTER_BOUND('',#509,.T.);
#511=ADVANCED_FACE('',(#510),#499,.T.);
#512=CARTESIAN_POINT('',(5.850000000000001,4.000000000000000,0.0));
#513=CARTESIAN_POINT('',(5.850000000000001,4.000000000000000,0.300000000000000));
#514=CARTESIAN_POINT('',(4.849999999999999,4.0,0.0));
#515=CARTESIAN_POINT('',(4.849999999999999,4.0,0.300000000000000));
#516=B_SPLINE_SURFACE_WITH_KNOTS('',1,1,((#512,#514),(#513,#515)),.UNSPECIFIED.,.F.,.F.,.U.,(2,2),(2,2),(0.0,0.300000000000000),(0.0,1.000000000000002),.UNSPECIFIED.);
#517=ORIENTED_EDGE('',*,*,#429,.F.);
#518=ORIENTED_EDGE('',*,*,#458,.F.);
#519=ORIENTED_EDGE('',*,*,#482,.F.);
#520=ORIENTED_EDGE('',*,*,#504,.F.);
#521=EDGE_LOOP('',(#517,#518,#519,#520));
#522=FACE_OUTER_BOUND('',#521,.T.);
#523=ADVANCED_FACE('',(#522),#516,.T.);
#524=CLOSED_SHELL('',(#415,#446,#470,#494,#511,#523));
#525=MANIFOLD_SOLID_BREP('8B2',#524);
#526=STYLED_ITEM('NONE',(#221),#525);
#527=CARTESIAN_POINT('',(5.849999999999999,-4.0,0.300000000000000));
#528=CARTESIAN_POINT('',(5.849999999999999,-4.0,0.0));
#529=CARTESIAN_POINT('',(4.849999999999997,-4.000000000000000,0.300000000000000));
#530=CARTESIAN_POINT('',(4.849999999999997,-4.0,0.0));
#531=B_SPLINE_SURFACE_WITH_KNOTS('',1,1,((#527,#529),(#528,#530)),.UNSPECIFIED.,.F.,.F.,.U.,(2,2),(2,2),(0.0,0.300000000000000),(0.0,1.000000000000002),.UNSPECIFIED.);
#532=CARTESIAN_POINT('',(5.849999999999999,-4.0,0.0));
#533=VERTEX_POINT('',#532);
#534=CARTESIAN_POINT('',(5.849999999999999,-4.0,0.300000000000000));
#535=VERTEX_POINT('',#534);
#536=CARTESIAN_POINT('',(5.849999999999998,-4.0,0.0));
#537=DIRECTION('',(0.0,0.0,1.0));
#538=VECTOR('',#537,0.300000000000000);
#539=LINE('',#536,#538);
#540=EDGE_CURVE('',#533,#535,#539,.T.);
#541=ORIENTED_EDGE('',*,*,#540,.F.);
#542=CARTESIAN_POINT('',(4.849999999999997,-4.0,0.0));
#543=VERTEX_POINT('',#542);
#544=CARTESIAN_POINT('',(4.849999999999997,-4.0,0.0));
#545=DIRECTION('',(1.0,0.0,0.0));
#546=VECTOR('',#545,1.000000000000002);
#547=LINE('',#544,#546);
#548=EDGE_CURVE('',#543,#533,#547,.T.);
#549=ORIENTED_EDGE('',*,*,#548,.F.);
#550=CARTESIAN_POINT('',(4.849999999999997,-4.0,0.300000000000000));
#551=VERTEX_POINT('',#550);
#552=CARTESIAN_POINT('',(4.849999999999998,-4.0,0.300000000000000));
#553=DIRECTION('',(0.0,0.0,-1.0));
#554=VECTOR('',#553,0.300000000000000);
#555=LINE('',#552,#554);
#556=EDGE_CURVE('',#551,#543,#555,.T.);
#557=ORIENTED_EDGE('',*,*,#556,.F.);
#558=CARTESIAN_POINT('',(5.849999999999999,-4.0,0.300000000000000));
#559=DIRECTION('',(-1.0,0.0,0.0));
#560=VECTOR('',#559,1.000000000000002);
#561=LINE('',#558,#560);
#562=EDGE_CURVE('',#535,#551,#561,.T.);
#563=ORIENTED_EDGE('',*,*,#562,.F.);
#564=EDGE_LOOP('',(#541,#549,#557,#563));
#565=FACE_OUTER_BOUND('',#564,.T.);
#566=ADVANCED_FACE('',(#565),#531,.T.);
#567=CARTESIAN_POINT('',(5.849999999999999,-5.0,0.300000000000000));
#568=CARTESIAN_POINT('',(5.849999999999999,-4.0,0.300000000000000));
#569=CARTESIAN_POINT('',(4.849999999999997,-5.0,0.300000000000000));
#570=CARTESIAN_POINT('',(4.849999999999997,-4.0,0.300000000000000));
#571=B_SPLINE_SURFACE_WITH_KNOTS('',1,1,((#567,#569),(#568,#570)),.UNSPECIFIED.,.F.,.F.,.U.,(2,2),(2,2),(0.0,1.0),(0.0,1.000000000000002),.UNSPECIFIED.);
#572=ORIENTED_EDGE('',*,*,#562,.T.);
#573=CARTESIAN_POINT('',(4.849999999999998,-5.0,0.300000000000000));
#574=VERTEX_POINT('',#573);
#575=CARTESIAN_POINT('',(4.849999999999998,-5.0,0.300000000000000));
#576=DIRECTION('',(0.0,1.0,0.0));
#577=VECTOR('',#576,1.0);
#578=LINE('',#575,#577);
#579=EDGE_CURVE('',#574,#551,#578,.T.);
#580=ORIENTED_EDGE('',*,*,#579,.F.);
#581=CARTESIAN_POINT('',(5.849999999999998,-5.0,0.300000000000000));
#582=VERTEX_POINT('',#581);
#583=CARTESIAN_POINT('',(5.849999999999998,-5.0,0.300000000000000));
#584=DIRECTION('',(-1.0,0.0,0.0));
#585=VECTOR('',#584,1.0);
#586=LINE('',#583,#585);
#587=EDGE_CURVE('',#582,#574,#586,.T.);
#588=ORIENTED_EDGE('',*,*,#587,.F.);
#589=CARTESIAN_POINT('',(5.849999999999998,-4.0,0.300000000000000));
#590=DIRECTION('',(0.0,-1.0,0.0));
#591=VECTOR('',#590,1.0);
#592=LINE('',#589,#591);
#593=EDGE_CURVE('',#535,#582,#592,.T.);
#594=ORIENTED_EDGE('',*,*,#593,.F.);
#595=EDGE_LOOP('',(#572,#580,#588,#594));
#596=FACE_OUTER_BOUND('',#595,.T.);
#597=ADVANCED_FACE('',(#596),#571,.T.);
#598=CARTESIAN_POINT('',(4.849999999999998,-4.0,0.0));
#599=CARTESIAN_POINT('',(4.849999999999998,-4.0,0.300000000000000));
#600=CARTESIAN_POINT('',(4.849999999999998,-5.0,0.0));
#601=CARTESIAN_POINT('',(4.849999999999998,-5.0,0.300000000000000));
#602=B_SPLINE_SURFACE_WITH_KNOTS('',1,1,((#598,#600),(#599,#601)),.UNSPECIFIED.,.F.,.F.,.U.,(2,2),(2,2),(0.0,0.300000000000000),(0.0,1.0),.UNSPECIFIED.);
#603=ORIENTED_EDGE('',*,*,#556,.T.);
#604=CARTESIAN_POINT('',(4.849999999999998,-5.0,0.0));
#605=VERTEX_POINT('',#604);
#606=CARTESIAN_POINT('',(4.849999999999998,-4.0,0.0));
#607=DIRECTION('',(0.0,-1.0,0.0));
#608=VECTOR('',#607,1.0);
#609=LINE('',#606,#608);
#610=EDGE_CURVE('',#543,#605,#609,.T.);
#611=ORIENTED_EDGE('',*,*,#610,.T.);
#612=CARTESIAN_POINT('',(4.849999999999998,-5.0,0.300000000000000));
#613=DIRECTION('',(0.0,0.0,-1.0));
#614=VECTOR('',#613,0.300000000000000);
#615=LINE('',#612,#614);
#616=EDGE_CURVE('',#574,#605,#615,.T.);
#617=ORIENTED_EDGE('',*,*,#616,.F.);
#618=ORIENTED_EDGE('',*,*,#579,.T.);
#619=EDGE_LOOP('',(#603,#611,#617,#618));
#620=FACE_OUTER_BOUND('',#619,.T.);
#621=ADVANCED_FACE('',(#620),#602,.F.);
#622=CARTESIAN_POINT('',(5.849999999999999,-5.0,0.0));
#623=CARTESIAN_POINT('',(5.849999999999999,-4.0,0.0));
#624=CARTESIAN_POINT('',(4.849999999999997,-5.0,0.0));
#625=CARTESIAN_POINT('',(4.849999999999997,-4.0,0.0));
#626=B_SPLINE_SURFACE_WITH_KNOTS('',1,1,((#622,#624),(#623,#625)),.UNSPECIFIED.,.F.,.F.,.U.,(2,2),(2,2),(0.0,1.0),(0.0,1.000000000000002),.UNSPECIFIED.);
#627=ORIENTED_EDGE('',*,*,#548,.T.);
#628=CARTESIAN_POINT('',(5.849999999999998,-5.0,0.0));
#629=VERTEX_POINT('',#628);
#630=CARTESIAN_POINT('',(5.849999999999998,-5.0,0.0));
#631=DIRECTION('',(0.0,1.0,0.0));
#632=VECTOR('',#631,1.0);
#633=LINE('',#630,#632);
#634=EDGE_CURVE('',#629,#533,#633,.T.);
#635=ORIENTED_EDGE('',*,*,#634,.F.);
#636=CARTESIAN_POINT('',(4.849999999999998,-5.0,0.0));
#637=DIRECTION('',(1.0,0.0,0.0));
#638=VECTOR('',#637,1.0);
#639=LINE('',#636,#638);
#640=EDGE_CURVE('',#605,#629,#639,.T.);
#641=ORIENTED_EDGE('',*,*,#640,.F.);
#642=ORIENTED_EDGE('',*,*,#610,.F.);
#643=EDGE_LOOP('',(#627,#635,#641,#642));
#644=FACE_OUTER_BOUND('',#643,.T.);
#645=ADVANCED_FACE('',(#644),#626,.F.);
#646=CARTESIAN_POINT('',(5.849999999999998,-5.0,0.300000000000000));
#647=CARTESIAN_POINT('',(5.849999999999998,-5.0,0.0));
#648=CARTESIAN_POINT('',(4.849999999999998,-5.0,0.300000000000000));
#649=CARTESIAN_POINT('',(4.849999999999998,-5.0,0.0));
#650=B_SPLINE_SURFACE_WITH_KNOTS('',1,1,((#646,#648),(#647,#649)),.UNSPECIFIED.,.F.,.F.,.U.,(2,2),(2,2),(0.0,0.300000000000000),(0.0,1.0),.UNSPECIFIED.);
#651=CARTESIAN_POINT('',(5.849999999999998,-5.0,0.300000000000000));
#652=DIRECTION('',(0.0,0.0,-1.0));
#653=VECTOR('',#652,0.300000000000000);
#654=LINE('',#651,#653);
#655=EDGE_CURVE('',#582,#629,#654,.T.);
#656=ORIENTED_EDGE('',*,*,#655,.F.);
#657=ORIENTED_EDGE('',*,*,#587,.T.);
#658=ORIENTED_EDGE('',*,*,#616,.T.);
#659=ORIENTED_EDGE('',*,*,#640,.T.);
#660=EDGE_LOOP('',(#656,#657,#658,#659));
#661=FACE_OUTER_BOUND('',#660,.T.);
#662=ADVANCED_FACE('',(#661),#650,.F.);
#663=CARTESIAN_POINT('',(5.849999999999998,-4.0,0.300000000000000));
#664=CARTESIAN_POINT('',(5.849999999999998,-4.0,0.0));
#665=CARTESIAN_POINT('',(5.849999999999998,-5.0,0.300000000000000));
#666=CARTESIAN_POINT('',(5.849999999999998,-5.0,0.0));
#667=B_SPLINE_SURFACE_WITH_KNOTS('',1,1,((#663,#665),(#664,#666)),.UNSPECIFIED.,.F.,.F.,.U.,(2,2),(2,2),(0.0,0.300000000000000),(0.0,1.0),.UNSPECIFIED.);
#668=ORIENTED_EDGE('',*,*,#540,.T.);
#669=ORIENTED_EDGE('',*,*,#593,.T.);
#670=ORIENTED_EDGE('',*,*,#655,.T.);
#671=ORIENTED_EDGE('',*,*,#634,.T.);
#672=EDGE_LOOP('',(#668,#669,#670,#671));
#673=FACE_OUTER_BOUND('',#672,.T.);
#674=ADVANCED_FACE('',(#673),#667,.F.);
#675=CLOSED_SHELL('',(#566,#597,#621,#645,#662,#674));
#676=MANIFOLD_SOLID_BREP('8B2',#675);
#677=STYLED_ITEM('NONE',(#221),#676);
#678=CARTESIAN_POINT('',(-7.400000000000000,-1.0,8.0));
#679=DIRECTION('',(0.0,-1.0,0.0));
#680=DIRECTION('',(0.0,0.0,-1.0));
#681=AXIS2_PLACEMENT_3D('',#678,#679,#680);
#682=PLANE('',#681);
#683=CARTESIAN_POINT('',(-7.400000000000000,-1.0,7.900000000000000));
#684=VERTEX_POINT('',#683);
#685=CARTESIAN_POINT('',(-6.600000000000001,-1.0,7.900000000000000));
#686=VERTEX_POINT('',#685);
#687=CARTESIAN_POINT('',(-7.400000000000000,-1.0,7.900000000000000));
#688=DIRECTION('',(1.0,0.0,0.0));
#689=VECTOR('',#688,0.799999999999999);
#690=LINE('',#687,#689);
#691=EDGE_CURVE('',#684,#686,#690,.T.);
#692=ORIENTED_EDGE('',*,*,#691,.T.);
#693=CARTESIAN_POINT('',(-6.600000000000001,-1.0,8.0));
#694=VERTEX_POINT('',#693);
#695=CARTESIAN_POINT('',(-6.600000000000001,-1.0,8.0));
#696=DIRECTION('',(0.0,0.0,-1.0));
#697=VECTOR('',#696,0.100000000000001);
#698=LINE('',#695,#697);
#699=EDGE_CURVE('',#694,#686,#698,.T.);
#700=ORIENTED_EDGE('',*,*,#699,.F.);
#701=CARTESIAN_POINT('',(-7.400000000000000,-1.0,8.0));
#702=VERTEX_POINT('',#701);
#703=CARTESIAN_POINT('',(-7.400000000000000,-1.0,8.0));
#704=DIRECTION('',(1.0,0.0,0.0));
#705=VECTOR('',#704,0.799999999999999);
#706=LINE('',#703,#705);
#707=EDGE_CURVE('',#702,#694,#706,.T.);
#708=ORIENTED_EDGE('',*,*,#707,.F.);
#709=CARTESIAN_POINT('',(-7.400000000000000,-1.0,8.0));
#710=DIRECTION('',(0.0,0.0,-1.0));
#711=VECTOR('',#710,0.100000000000001);
#712=LINE('',#709,#711);
#713=EDGE_CURVE('',#702,#684,#712,.T.);
#714=ORIENTED_EDGE('',*,*,#713,.T.);
#715=EDGE_LOOP('',(#692,#700,#708,#714));
#716=FACE_OUTER_BOUND('',#715,.T.);
#717=ADVANCED_FACE('',(#716),#682,.T.);
#718=CARTESIAN_POINT('',(-6.600000000000001,-1.0,8.0));
#719=DIRECTION('',(1.0,0.0,0.0));
#720=DIRECTION('',(0.0,0.0,-1.0));
#721=AXIS2_PLACEMENT_3D('',#718,#719,#720);
#722=PLANE('',#721);
#723=CARTESIAN_POINT('',(-6.600000000000001,1.0,7.900000000000000));
#724=VERTEX_POINT('',#723);
#725=CARTESIAN_POINT('',(-6.600000000000001,-1.0,7.900000000000000));
#726=DIRECTION('',(0.0,1.0,0.0));
#727=VECTOR('',#726,2.0);
#728=LINE('',#725,#727);
#729=EDGE_CURVE('',#686,#724,#728,.T.);
#730=ORIENTED_EDGE('',*,*,#729,.T.);
#731=CARTESIAN_POINT('',(-6.600000000000001,1.0,8.0));
#732=VERTEX_POINT('',#731);
#733=CARTESIAN_POINT('',(-6.600000000000001,1.0,8.0));
#734=DIRECTION('',(0.0,0.0,-1.0));
#735=VECTOR('',#734,0.100000000000001);
#736=LINE('',#733,#735);
#737=EDGE_CURVE('',#732,#724,#736,.T.);
#738=ORIENTED_EDGE('',*,*,#737,.F.);
#739=CARTESIAN_POINT('',(-6.600000000000001,-1.0,8.0));
#740=DIRECTION('',(0.0,1.0,0.0));
#741=VECTOR('',#740,2.0);
#742=LINE('',#739,#741);
#743=EDGE_CURVE('',#694,#732,#742,.T.);
#744=ORIENTED_EDGE('',*,*,#743,.F.);
#745=ORIENTED_EDGE('',*,*,#699,.T.);
#746=EDGE_LOOP('',(#730,#738,#744,#745));
#747=FACE_OUTER_BOUND('',#746,.T.);
#748=ADVANCED_FACE('',(#747),#722,.T.);
#749=CARTESIAN_POINT('',(-6.600000000000001,1.0,8.0));
#750=DIRECTION('',(0.0,1.0,0.0));
#751=DIRECTION('',(0.0,0.0,1.0));
#752=AXIS2_PLACEMENT_3D('',#749,#750,#751);
#753=PLANE('',#752);
#754=CARTESIAN_POINT('',(-7.400000000000000,1.0,7.900000000000000));
#755=VERTEX_POINT('',#754);
#756=CARTESIAN_POINT('',(-6.600000000000001,1.0,7.900000000000000));
#757=DIRECTION('',(-1.0,0.0,0.0));
#758=VECTOR('',#757,0.800000000000000);
#759=LINE('',#756,#758);
#760=EDGE_CURVE('',#724,#755,#759,.T.);
#761=ORIENTED_EDGE('',*,*,#760,.T.);
#762=CARTESIAN_POINT('',(-7.400000000000000,1.0,8.0));
#763=VERTEX_POINT('',#762);
#764=CARTESIAN_POINT('',(-7.400000000000000,1.0,8.0));
#765=DIRECTION('',(0.0,0.0,-1.0));
#766=VECTOR('',#765,0.100000000000001);
#767=LINE('',#764,#766);
#768=EDGE_CURVE('',#763,#755,#767,.T.);
#769=ORIENTED_EDGE('',*,*,#768,.F.);
#770=CARTESIAN_POINT('',(-6.600000000000001,1.0,8.0));
#771=DIRECTION('',(-1.0,0.0,0.0));
#772=VECTOR('',#771,0.800000000000000);
#773=LINE('',#770,#772);
#774=EDGE_CURVE('',#732,#763,#773,.T.);
#775=ORIENTED_EDGE('',*,*,#774,.F.);
#776=ORIENTED_EDGE('',*,*,#737,.T.);
#777=EDGE_LOOP('',(#761,#769,#775,#776));
#778=FACE_OUTER_BOUND('',#777,.T.);
#779=ADVANCED_FACE('',(#778),#753,.T.);
#780=CARTESIAN_POINT('',(-7.400000000000000,1.0,8.0));
#781=DIRECTION('',(-1.0,0.0,0.0));
#782=DIRECTION('',(0.0,0.0,1.0));
#783=AXIS2_PLACEMENT_3D('',#780,#781,#782);
#784=PLANE('',#783);
#785=CARTESIAN_POINT('',(-7.400000000000000,1.0,7.900000000000000));
#786=DIRECTION('',(0.0,-1.0,0.0));
#787=VECTOR('',#786,2.0);
#788=LINE('',#785,#787);
#789=EDGE_CURVE('',#755,#684,#788,.T.);
#790=ORIENTED_EDGE('',*,*,#789,.T.);
#791=ORIENTED_EDGE('',*,*,#713,.F.);
#792=CARTESIAN_POINT('',(-7.400000000000000,1.0,8.0));
#793=DIRECTION('',(0.0,-1.0,0.0));
#794=VECTOR('',#793,2.0);
#795=LINE('',#792,#794);
#796=EDGE_CURVE('',#763,#702,#795,.T.);
#797=ORIENTED_EDGE('',*,*,#796,.F.);
#798=ORIENTED_EDGE('',*,*,#768,.T.);
#799=EDGE_LOOP('',(#790,#791,#797,#798));
#800=FACE_OUTER_BOUND('',#799,.T.);
#801=ADVANCED_FACE('',(#800),#784,.T.);
#802=CARTESIAN_POINT('',(-7.0,1.387779E-016,7.900000000000000));
#803=DIRECTION('',(0.0,0.0,1.0));
#804=DIRECTION('',(1.0,0.0,0.0));
#805=AXIS2_PLACEMENT_3D('',#802,#803,#804);
#806=PLANE('',#805);
#807=ORIENTED_EDGE('',*,*,#691,.F.);
#808=ORIENTED_EDGE('',*,*,#789,.F.);
#809=ORIENTED_EDGE('',*,*,#760,.F.);
#810=ORIENTED_EDGE('',*,*,#729,.F.);
#811=EDGE_LOOP('',(#807,#808,#809,#810));
#812=FACE_OUTER_BOUND('',#811,.T.);
#813=ADVANCED_FACE('',(#812),#806,.F.);
#814=CARTESIAN_POINT('',(-7.0,1.387779E-016,8.0));
#815=DIRECTION('',(0.0,0.0,1.0));
#816=DIRECTION('',(1.0,0.0,0.0));
#817=AXIS2_PLACEMENT_3D('',#814,#815,#816);
#818=PLANE('',#817);
#819=ORIENTED_EDGE('',*,*,#796,.T.);
#820=ORIENTED_EDGE('',*,*,#707,.T.);
#821=ORIENTED_EDGE('',*,*,#743,.T.);
#822=ORIENTED_EDGE('',*,*,#774,.T.);
#823=EDGE_LOOP('',(#819,#820,#821,#822));
#824=FACE_OUTER_BOUND('',#823,.T.);
#825=ADVANCED_FACE('',(#824),#818,.T.);
#826=CLOSED_SHELL('',(#717,#748,#779,#801,#813,#825));
#827=MANIFOLD_SOLID_BREP('895',#826);
#828=COLOUR_RGB('255',1.0,1.0,1.0);
#829=SURFACE_STYLE_USAGE(.BOTH.,#830);
#830=SURFACE_SIDE_STYLE('NONE',(#831));
#831=SURFACE_STYLE_FILL_AREA(#832);
#832=FILL_AREA_STYLE('NONE',(#833));
#833=FILL_AREA_STYLE_COLOUR('NONE',#828);
#834=PRESENTATION_STYLE_ASSIGNMENT((#829));
#835=STYLED_ITEM('NONE',(#834),#827);
#836=CARTESIAN_POINT('',(8.0,5.0,0.300000000000000));
#837=CARTESIAN_POINT('',(8.0,5.0,8.0));
#838=CARTESIAN_POINT('',(-8.0,5.0,0.300000000000000));
#839=CARTESIAN_POINT('',(-8.0,5.0,8.0));
#840=B_SPLINE_SURFACE_WITH_KNOTS('',1,1,((#836,#838),(#837,#839)),.UNSPECIFIED.,.F.,.F.,.U.,(2,2),(2,2),(0.0,7.700000000000000),(0.0,16.0),.UNSPECIFIED.);
#841=CARTESIAN_POINT('',(-8.0,5.0,8.0));
#842=VERTEX_POINT('',#841);
#843=CARTESIAN_POINT('',(-8.0,5.0,0.300000000000000));
#844=VERTEX_POINT('',#843);
#845=CARTESIAN_POINT('',(-8.0,5.0,8.0));
#846=DIRECTION('',(0.0,0.0,-1.0));
#847=VECTOR('',#846,7.700000000000000);
#848=LINE('',#845,#847);
#849=EDGE_CURVE('',#842,#844,#848,.T.);
#850=ORIENTED_EDGE('',*,*,#849,.F.);
#851=CARTESIAN_POINT('',(8.0,5.0,8.0));
#852=VERTEX_POINT('',#851);
#853=CARTESIAN_POINT('',(-8.0,5.0,8.0));
#854=DIRECTION('',(1.0,0.0,0.0));
#855=VECTOR('',#854,16.0);
#856=LINE('',#853,#855);
#857=EDGE_CURVE('',#842,#852,#856,.T.);
#858=ORIENTED_EDGE('',*,*,#857,.T.);
#859=CARTESIAN_POINT('',(8.0,5.0,0.300000000000000));
#860=VERTEX_POINT('',#859);
#861=CARTESIAN_POINT('',(8.0,5.0,8.0));
#862=DIRECTION('',(0.0,0.0,-1.0));
#863=VECTOR('',#862,7.700000000000000);
#864=LINE('',#861,#863);
#865=EDGE_CURVE('',#852,#860,#864,.T.);
#866=ORIENTED_EDGE('',*,*,#865,.T.);
#867=CARTESIAN_POINT('',(8.0,5.0,0.300000000000000));
#868=DIRECTION('',(-1.0,0.0,0.0));
#869=VECTOR('',#868,16.0);
#870=LINE('',#867,#869);
#871=EDGE_CURVE('',#860,#844,#870,.T.);
#872=ORIENTED_EDGE('',*,*,#871,.T.);
#873=EDGE_LOOP('',(#850,#858,#866,#872));
#874=FACE_OUTER_BOUND('',#873,.T.);
#875=ADVANCED_FACE('',(#874),#840,.F.);
#876=CARTESIAN_POINT('',(-8.0,-5.0,8.0));
#877=CARTESIAN_POINT('',(-8.0,-5.0,0.300000000000000));
#878=CARTESIAN_POINT('',(-8.0,5.0,8.0));
#879=CARTESIAN_POINT('',(-8.0,5.0,0.300000000000001));
#880=B_SPLINE_SURFACE_WITH_KNOTS('',1,1,((#876,#878),(#877,#879)),.UNSPECIFIED.,.F.,.F.,.U.,(2,2),(2,2),(0.0,7.700000000000000),(0.0,10.0),.UNSPECIFIED.);
#881=CARTESIAN_POINT('',(-8.0,-5.0,8.0));
#882=VERTEX_POINT('',#881);
#883=CARTESIAN_POINT('',(-8.0,-5.0,0.300000000000000));
#884=VERTEX_POINT('',#883);
#885=CARTESIAN_POINT('',(-8.0,-5.0,8.0));
#886=DIRECTION('',(0.0,0.0,-1.0));
#887=VECTOR('',#886,7.700000000000000);
#888=LINE('',#885,#887);
#889=EDGE_CURVE('',#882,#884,#888,.T.);
#890=ORIENTED_EDGE('',*,*,#889,.F.);
#891=CARTESIAN_POINT('',(-8.0,-5.0,8.0));
#892=DIRECTION('',(0.0,1.0,0.0));
#893=VECTOR('',#892,10.0);
#894=LINE('',#891,#893);
#895=EDGE_CURVE('',#882,#842,#894,.T.);
#896=ORIENTED_EDGE('',*,*,#895,.T.);
#897=ORIENTED_EDGE('',*,*,#849,.T.);
#898=CARTESIAN_POINT('',(-8.0,5.0,0.300000000000000));
#899=DIRECTION('',(0.0,-1.0,0.0));
#900=VECTOR('',#899,10.0);
#901=LINE('',#898,#900);
#902=EDGE_CURVE('',#844,#884,#901,.T.);
#903=ORIENTED_EDGE('',*,*,#902,.T.);
#904=EDGE_LOOP('',(#890,#896,#897,#903));
#905=FACE_OUTER_BOUND('',#904,.T.);
#906=ADVANCED_FACE('',(#905),#880,.F.);
#907=CARTESIAN_POINT('',(8.0,-5.0,8.0));
#908=CARTESIAN_POINT('',(8.0,-5.0,0.300000000000000));
#909=CARTESIAN_POINT('',(-8.0,-5.0,8.0));
#910=CARTESIAN_POINT('',(-8.0,-5.0,0.300000000000001));
#911=B_SPLINE_SURFACE_WITH_KNOTS('',1,1,((#907,#909),(#908,#910)),.UNSPECIFIED.,.F.,.F.,.U.,(2,2),(2,2),(0.0,7.700000000000000),(0.0,16.0),.UNSPECIFIED.);
#912=CARTESIAN_POINT('',(8.0,-5.0,8.0));
#913=VERTEX_POINT('',#912);
#914=CARTESIAN_POINT('',(8.0,-5.0,0.300000000000000));
#915=VERTEX_POINT('',#914);
#916=CARTESIAN_POINT('',(8.0,-5.0,8.0));
#917=DIRECTION('',(0.0,0.0,-1.0));
#918=VECTOR('',#917,7.700000000000000);
#919=LINE('',#916,#918);
#920=EDGE_CURVE('',#913,#915,#919,.T.);
#921=ORIENTED_EDGE('',*,*,#920,.F.);
#922=CARTESIAN_POINT('',(8.0,-5.0,8.0));
#923=DIRECTION('',(-1.0,0.0,0.0));
#924=VECTOR('',#923,16.0);
#925=LINE('',#922,#924);
#926=EDGE_CURVE('',#913,#882,#925,.T.);
#927=ORIENTED_EDGE('',*,*,#926,.T.);
#928=ORIENTED_EDGE('',*,*,#889,.T.);
#929=CARTESIAN_POINT('',(-8.0,-5.0,0.300000000000000));
#930=DIRECTION('',(1.0,0.0,0.0));
#931=VECTOR('',#930,16.0);
#932=LINE('',#929,#931);
#933=EDGE_CURVE('',#884,#915,#932,.T.);
#934=ORIENTED_EDGE('',*,*,#933,.T.);
#935=EDGE_LOOP('',(#921,#927,#928,#934));
#936=FACE_OUTER_BOUND('',#935,.T.);
#937=ADVANCED_FACE('',(#936),#911,.F.);
#938=CARTESIAN_POINT('',(-8.0,-5.0,0.300000000000000));
#939=CARTESIAN_POINT('',(8.0,-5.0,0.300000000000000));
#940=CARTESIAN_POINT('',(-8.0,5.0,0.300000000000000));
#941=CARTESIAN_POINT('',(8.0,5.0,0.300000000000000));
#942=B_SPLINE_SURFACE_WITH_KNOTS('',1,1,((#938,#940),(#939,#941)),.UNSPECIFIED.,.F.,.F.,.U.,(2,2),(2,2),(0.0,16.0),(0.0,10.0),.UNSPECIFIED.);
#943=CARTESIAN_POINT('',(8.0,-5.0,0.300000000000000));
#944=DIRECTION('',(0.0,1.0,0.0));
#945=VECTOR('',#944,10.0);
#946=LINE('',#943,#945);
#947=EDGE_CURVE('',#915,#860,#946,.T.);
#948=ORIENTED_EDGE('',*,*,#947,.F.);
#949=ORIENTED_EDGE('',*,*,#933,.F.);
#950=ORIENTED_EDGE('',*,*,#902,.F.);
#951=ORIENTED_EDGE('',*,*,#871,.F.);
#952=EDGE_LOOP('',(#948,#949,#950,#951));
#953=FACE_OUTER_BOUND('',#952,.T.);
#954=ADVANCED_FACE('',(#953),#942,.F.);
#955=CARTESIAN_POINT('',(8.0,-5.0,0.300000000000000));
#956=CARTESIAN_POINT('',(8.0,-5.0,8.0));
#957=CARTESIAN_POINT('',(8.0,5.0,0.300000000000000));
#958=CARTESIAN_POINT('',(8.0,5.0,8.0));
#959=B_SPLINE_SURFACE_WITH_KNOTS('',1,1,((#955,#957),(#956,#958)),.UNSPECIFIED.,.F.,.F.,.U.,(2,2),(2,2),(0.0,7.700000000000000),(0.0,10.0),.UNSPECIFIED.);
#960=ORIENTED_EDGE('',*,*,#865,.F.);
#961=CARTESIAN_POINT('',(8.0,5.0,8.0));
#962=DIRECTION('',(0.0,-1.0,0.0));
#963=VECTOR('',#962,10.0);
#964=LINE('',#961,#963);
#965=EDGE_CURVE('',#852,#913,#964,.T.);
#966=ORIENTED_EDGE('',*,*,#965,.T.);
#967=ORIENTED_EDGE('',*,*,#920,.T.);
#968=ORIENTED_EDGE('',*,*,#947,.T.);
#969=EDGE_LOOP('',(#960,#966,#967,#968));
#970=FACE_OUTER_BOUND('',#969,.T.);
#971=ADVANCED_FACE('',(#970),#959,.F.);
#972=CARTESIAN_POINT('',(-7.400000000000000,-1.0,8.0));
#973=DIRECTION('',(0.0,-1.0,0.0));
#974=DIRECTION('',(0.0,0.0,-1.0));
#975=AXIS2_PLACEMENT_3D('',#972,#973,#974);
#976=PLANE('',#975);
#977=CARTESIAN_POINT('',(-7.400000000000000,-1.0,7.900000000000000));
#978=VERTEX_POINT('',#977);
#979=CARTESIAN_POINT('',(-6.600000000000001,-1.0,7.900000000000000));
#980=VERTEX_POINT('',#979);
#981=CARTESIAN_POINT('',(-7.400000000000000,-1.0,7.900000000000000));
#982=DIRECTION('',(1.0,0.0,0.0));
#983=VECTOR('',#982,0.799999999999999);
#984=LINE('',#981,#983);
#985=EDGE_CURVE('',#978,#980,#984,.T.);
#986=ORIENTED_EDGE('',*,*,#985,.F.);
#987=CARTESIAN_POINT('',(-7.400000000000000,-1.0,8.0));
#988=VERTEX_POINT('',#987);
#989=CARTESIAN_POINT('',(-7.400000000000000,-1.0,8.0));
#990=DIRECTION('',(0.0,0.0,-1.0));
#991=VECTOR('',#990,0.100000000000001);
#992=LINE('',#989,#991);
#993=EDGE_CURVE('',#988,#978,#992,.T.);
#994=ORIENTED_EDGE('',*,*,#993,.F.);
#995=CARTESIAN_POINT('',(-6.600000000000001,-1.0,8.0));
#996=VERTEX_POINT('',#995);
#997=CARTESIAN_POINT('',(-6.600000000000001,-1.0,8.0));
#998=DIRECTION('',(-1.0,0.0,0.0));
#999=VECTOR('',#998,0.799999999999999);
#1000=LINE('',#997,#999);
#1001=EDGE_CURVE('',#996,#988,#1000,.T.);
#1002=ORIENTED_EDGE('',*,*,#1001,.F.);
#1003=CARTESIAN_POINT('',(-6.600000000000001,-1.0,8.0));
#1004=DIRECTION('',(0.0,0.0,-1.0));
#1005=VECTOR('',#1004,0.100000000000001);
#1006=LINE('',#1003,#1005);
#1007=EDGE_CURVE('',#996,#980,#1006,.T.);
#1008=ORIENTED_EDGE('',*,*,#1007,.T.);
#1009=EDGE_LOOP('',(#986,#994,#1002,#1008));
#1010=FACE_OUTER_BOUND('',#1009,.T.);
#1011=ADVANCED_FACE('',(#1010),#976,.F.);
#1012=CARTESIAN_POINT('',(-6.600000000000001,-1.0,8.0));
#1013=DIRECTION('',(1.0,0.0,0.0));
#1014=DIRECTION('',(0.0,0.0,-1.0));
#1015=AXIS2_PLACEMENT_3D('',#1012,#1013,#1014);
#1016=PLANE('',#1015);
#1017=CARTESIAN_POINT('',(-6.600000000000001,1.0,7.900000000000000));
#1018=VERTEX_POINT('',#1017);
#1019=CARTESIAN_POINT('',(-6.600000000000001,-1.0,7.900000000000000));
#1020=DIRECTION('',(0.0,1.0,0.0));
#1021=VECTOR('',#1020,2.0);
#1022=LINE('',#1019,#1021);
#1023=EDGE_CURVE('',#980,#1018,#1022,.T.);
#1024=ORIENTED_EDGE('',*,*,#1023,.F.);
#1025=ORIENTED_EDGE('',*,*,#1007,.F.);
#1026=CARTESIAN_POINT('',(-6.600000000000001,1.0,8.0));
#1027=VERTEX_POINT('',#1026);
#1028=CARTESIAN_POINT('',(-6.600000000000001,1.0,8.0));
#1029=DIRECTION('',(0.0,-1.0,0.0));
#1030=VECTOR('',#1029,2.0);
#1031=LINE('',#1028,#1030);
#1032=EDGE_CURVE('',#1027,#996,#1031,.T.);
#1033=ORIENTED_EDGE('',*,*,#1032,.F.);
#1034=CARTESIAN_POINT('',(-6.600000000000001,1.0,8.0));
#1035=DIRECTION('',(0.0,0.0,-1.0));
#1036=VECTOR('',#1035,0.100000000000001);
#1037=LINE('',#1034,#1036);
#1038=EDGE_CURVE('',#1027,#1018,#1037,.T.);
#1039=ORIENTED_EDGE('',*,*,#1038,.T.);
#1040=EDGE_LOOP('',(#1024,#1025,#1033,#1039));
#1041=FACE_OUTER_BOUND('',#1040,.T.);
#1042=ADVANCED_FACE('',(#1041),#1016,.F.);
#1043=CARTESIAN_POINT('',(-6.600000000000001,1.0,8.0));
#1044=DIRECTION('',(0.0,1.0,0.0));
#1045=DIRECTION('',(0.0,0.0,1.0));
#1046=AXIS2_PLACEMENT_3D('',#1043,#1044,#1045);
#1047=PLANE('',#1046);
#1048=CARTESIAN_POINT('',(-7.400000000000000,1.0,7.900000000000000));
#1049=VERTEX_POINT('',#1048);
#1050=CARTESIAN_POINT('',(-6.600000000000001,1.0,7.900000000000000));
#1051=DIRECTION('',(-1.0,0.0,0.0));
#1052=VECTOR('',#1051,0.800000000000000);
#1053=LINE('',#1050,#1052);
#1054=EDGE_CURVE('',#1018,#1049,#1053,.T.);
#1055=ORIENTED_EDGE('',*,*,#1054,.F.);
#1056=ORIENTED_EDGE('',*,*,#1038,.F.);
#1057=CARTESIAN_POINT('',(-7.400000000000000,1.0,8.0));
#1058=VERTEX_POINT('',#1057);
#1059=CARTESIAN_POINT('',(-7.400000000000000,1.0,8.0));
#1060=DIRECTION('',(1.0,0.0,0.0));
#1061=VECTOR('',#1060,0.800000000000000);
#1062=LINE('',#1059,#1061);
#1063=EDGE_CURVE('',#1058,#1027,#1062,.T.);
#1064=ORIENTED_EDGE('',*,*,#1063,.F.);
#1065=CARTESIAN_POINT('',(-7.400000000000000,1.0,8.0));
#1066=DIRECTION('',(0.0,0.0,-1.0));
#1067=VECTOR('',#1066,0.100000000000001);
#1068=LINE('',#1065,#1067);
#1069=EDGE_CURVE('',#1058,#1049,#1068,.T.);
#1070=ORIENTED_EDGE('',*,*,#1069,.T.);
#1071=EDGE_LOOP('',(#1055,#1056,#1064,#1070));
#1072=FACE_OUTER_BOUND('',#1071,.T.);
#1073=ADVANCED_FACE('',(#1072),#1047,.F.);
#1074=CARTESIAN_POINT('',(-7.400000000000000,1.0,8.0));
#1075=DIRECTION('',(-1.0,0.0,0.0));
#1076=DIRECTION('',(0.0,0.0,1.0));
#1077=AXIS2_PLACEMENT_3D('',#1074,#1075,#1076);
#1078=PLANE('',#1077);
#1079=CARTESIAN_POINT('',(-7.400000000000000,1.0,7.900000000000000));
#1080=DIRECTION('',(0.0,-1.0,0.0));
#1081=VECTOR('',#1080,2.0);
#1082=LINE('',#1079,#1081);
#1083=EDGE_CURVE('',#1049,#978,#1082,.T.);
#1084=ORIENTED_EDGE('',*,*,#1083,.F.);
#1085=ORIENTED_EDGE('',*,*,#1069,.F.);
#1086=CARTESIAN_POINT('',(-7.400000000000000,-1.000000000000000,8.0));
#1087=DIRECTION('',(0.0,1.0,0.0));
#1088=VECTOR('',#1087,2.0);
#1089=LINE('',#1086,#1088);
#1090=EDGE_CURVE('',#988,#1058,#1089,.T.);
#1091=ORIENTED_EDGE('',*,*,#1090,.F.);
#1092=ORIENTED_EDGE('',*,*,#993,.T.);
#1093=EDGE_LOOP('',(#1084,#1085,#1091,#1092));
#1094=FACE_OUTER_BOUND('',#1093,.T.);
#1095=ADVANCED_FACE('',(#1094),#1078,.F.);
#1096=CARTESIAN_POINT('',(-7.0,1.387779E-016,7.900000000000000));
#1097=DIRECTION('',(0.0,0.0,1.0));
#1098=DIRECTION('',(1.0,0.0,0.0));
#1099=AXIS2_PLACEMENT_3D('',#1096,#1097,#1098);
#1100=PLANE('',#1099);
#1101=ORIENTED_EDGE('',*,*,#985,.T.);
#1102=ORIENTED_EDGE('',*,*,#1023,.T.);
#1103=ORIENTED_EDGE('',*,*,#1054,.T.);
#1104=ORIENTED_EDGE('',*,*,#1083,.T.);
#1105=EDGE_LOOP('',(#1101,#1102,#1103,#1104));
#1106=FACE_OUTER_BOUND('',#1105,.T.);
#1107=ADVANCED_FACE('',(#1106),#1100,.T.);
#1108=CARTESIAN_POINT('',(-8.0,-5.0,8.0));
#1109=CARTESIAN_POINT('',(8.0,-5.0,8.0));
#1110=CARTESIAN_POINT('',(-8.0,5.0,8.0));
#1111=CARTESIAN_POINT('',(8.0,5.0,8.0));
#1112=B_SPLINE_SURFACE_WITH_KNOTS('',1,1,((#1108,#1110),(#1109,#1111)),.UNSPECIFIED.,.F.,.F.,.U.,(2,2),(2,2),(0.0,16.0),(0.0,10.0),.UNSPECIFIED.);
#1113=ORIENTED_EDGE('',*,*,#965,.F.);
#1114=ORIENTED_EDGE('',*,*,#857,.F.);
#1115=ORIENTED_EDGE('',*,*,#895,.F.);
#1116=ORIENTED_EDGE('',*,*,#926,.F.);
#1117=EDGE_LOOP('',(#1113,#1114,#1115,#1116));
#1118=FACE_OUTER_BOUND('',#1117,.T.);
#1119=ORIENTED_EDGE('',*,*,#1001,.T.);
#1120=ORIENTED_EDGE('',*,*,#1090,.T.);
#1121=ORIENTED_EDGE('',*,*,#1063,.T.);
#1122=ORIENTED_EDGE('',*,*,#1032,.T.);
#1123=EDGE_LOOP('',(#1119,#1120,#1121,#1122));
#1124=FACE_BOUND('',#1123,.T.);
#1125=ADVANCED_FACE('',(#1118,#1124),#1112,.T.);
#1126=CLOSED_SHELL('',(#875,#906,#937,#954,#971,#1011,#1042,#1073,#1095,#1107,#1125));
#1127=MANIFOLD_SOLID_BREP('881',#1126);
#1128=STYLED_ITEM('NONE',(#221),#1127);
#1129=CARTESIAN_POINT('',(6.350000000000001,-3.810000000000001,-3.500000000000000));
#1130=DIRECTION('',(0.0,0.0,1.0));
#1131=DIRECTION('',(1.0,0.0,0.0));
#1132=AXIS2_PLACEMENT_3D('',#1129,#1130,#1131);
#1133=PLANE('',#1132);
#1134=CARTESIAN_POINT('',(6.650000000000002,-3.935000000000001,-3.500000000000000));
#1135=VERTEX_POINT('',#1134);
#1136=CARTESIAN_POINT('',(6.650000000000002,-3.685000000000001,-3.500000000000000));
#1137=VERTEX_POINT('',#1136);
#1138=CARTESIAN_POINT('',(6.650000000000002,-3.935000000000001,-3.500000000000000));
#1139=DIRECTION('',(0.0,1.0,0.0));
#1140=VECTOR('',#1139,0.250000000000000);
#1141=LINE('',#1138,#1140);
#1142=EDGE_CURVE('',#1135,#1137,#1141,.T.);
#1143=ORIENTED_EDGE('',*,*,#1142,.F.);
#1144=CARTESIAN_POINT('',(6.050000000000002,-3.935000000000001,-3.500000000000000));
#1145=VERTEX_POINT('',#1144);
#1146=CARTESIAN_POINT('',(6.650000000000002,-3.935000000000001,-3.500000000000000));
#1147=DIRECTION('',(-1.0,0.0,0.0));
#1148=VECTOR('',#1147,0.600000000000001);
#1149=LINE('',#1146,#1148);
#1150=EDGE_CURVE('',#1145,#1135,#1149,.F.);
#1151=ORIENTED_EDGE('',*,*,#1150,.F.);
#1152=CARTESIAN_POINT('',(6.050000000000003,-3.685000000000001,-3.500000000000000));
#1153=VERTEX_POINT('',#1152);
#1154=CARTESIAN_POINT('',(6.050000000000003,-3.685000000000001,-3.500000000000000));
#1155=DIRECTION('',(0.0,-1.0,0.0));
#1156=VECTOR('',#1155,0.250000000000000);
#1157=LINE('',#1154,#1156);
#1158=EDGE_CURVE('',#1153,#1145,#1157,.T.);
#1159=ORIENTED_EDGE('',*,*,#1158,.F.);
#1160=CARTESIAN_POINT('',(6.650000000000002,-3.685000000000001,-3.500000000000000));
#1161=DIRECTION('',(-1.0,0.0,0.0));
#1162=VECTOR('',#1161,0.600000000000000);
#1163=LINE('',#1160,#1162);
#1164=EDGE_CURVE('',#1137,#1153,#1163,.T.);
#1165=ORIENTED_EDGE('',*,*,#1164,.F.);
#1166=EDGE_LOOP('',(#1143,#1151,#1159,#1165));
#1167=FACE_OUTER_BOUND('',#1166,.T.);
#1168=ADVANCED_FACE('',(#1167),#1133,.F.);
#1169=CARTESIAN_POINT('',(6.050000000000003,-3.685000000000001,0.0));
#1170=DIRECTION('',(-1.0,0.0,0.0));
#1171=DIRECTION('',(0.0,0.0,1.0));
#1172=AXIS2_PLACEMENT_3D('',#1169,#1170,#1171);
#1173=PLANE('',#1172);
#1174=ORIENTED_EDGE('',*,*,#1158,.T.);
#1175=CARTESIAN_POINT('',(6.050000000000002,-3.935000000000001,0.300000000000000));
#1176=VERTEX_POINT('',#1175);
#1177=CARTESIAN_POINT('',(6.050000000000002,-3.935000000000001,0.300000000000000));
#1178=DIRECTION('',(0.0,0.0,-1.0));
#1179=VECTOR('',#1178,3.800000000000000);
#1180=LINE('',#1177,#1179);
#1181=EDGE_CURVE('',#1176,#1145,#1180,.T.);
#1182=ORIENTED_EDGE('',*,*,#1181,.F.);
#1183=CARTESIAN_POINT('',(6.050000000000003,-3.685000000000001,0.300000000000000));
#1184=VERTEX_POINT('',#1183);
#1185=CARTESIAN_POINT('',(6.050000000000003,-3.685000000000001,0.300000000000000));
#1186=DIRECTION('',(0.0,-1.0,0.0));
#1187=VECTOR('',#1186,0.250000000000000);
#1188=LINE('',#1185,#1187);
#1189=EDGE_CURVE('',#1184,#1176,#1188,.T.);
#1190=ORIENTED_EDGE('',*,*,#1189,.F.);
#1191=CARTESIAN_POINT('',(6.050000000000003,-3.685000000000001,0.300000000000000));
#1192=DIRECTION('',(0.0,0.0,-1.0));
#1193=VECTOR('',#1192,3.800000000000000);
#1194=LINE('',#1191,#1193);
#1195=EDGE_CURVE('',#1184,#1153,#1194,.T.);
#1196=ORIENTED_EDGE('',*,*,#1195,.T.);
#1197=EDGE_LOOP('',(#1174,#1182,#1190,#1196));
#1198=FACE_OUTER_BOUND('',#1197,.T.);
#1199=ADVANCED_FACE('',(#1198),#1173,.T.);
#1200=CARTESIAN_POINT('',(6.650000000000002,-3.685000000000001,0.0));
#1201=DIRECTION('',(0.0,1.0,0.0));
#1202=DIRECTION('',(0.0,0.0,1.0));
#1203=AXIS2_PLACEMENT_3D('',#1200,#1201,#1202);
#1204=PLANE('',#1203);
#1205=ORIENTED_EDGE('',*,*,#1164,.T.);
#1206=ORIENTED_EDGE('',*,*,#1195,.F.);
#1207=CARTESIAN_POINT('',(6.650000000000002,-3.685000000000001,0.300000000000000));
#1208=VERTEX_POINT('',#1207);
#1209=CARTESIAN_POINT('',(6.650000000000002,-3.685000000000001,0.300000000000000));
#1210=DIRECTION('',(-1.0,0.0,0.0));
#1211=VECTOR('',#1210,0.600000000000000);
#1212=LINE('',#1209,#1211);
#1213=EDGE_CURVE('',#1208,#1184,#1212,.T.);
#1214=ORIENTED_EDGE('',*,*,#1213,.F.);
#1215=CARTESIAN_POINT('',(6.650000000000002,-3.685000000000001,0.300000000000000));
#1216=DIRECTION('',(0.0,0.0,-1.0));
#1217=VECTOR('',#1216,3.800000000000000);
#1218=LINE('',#1215,#1217);
#1219=EDGE_CURVE('',#1208,#1137,#1218,.T.);
#1220=ORIENTED_EDGE('',*,*,#1219,.T.);
#1221=EDGE_LOOP('',(#1205,#1206,#1214,#1220));
#1222=FACE_OUTER_BOUND('',#1221,.T.);
#1223=ADVANCED_FACE('',(#1222),#1204,.T.);
#1224=CARTESIAN_POINT('',(6.650000000000002,-3.935000000000001,0.0));
#1225=DIRECTION('',(1.0,0.0,0.0));
#1226=DIRECTION('',(0.0,0.0,-1.0));
#1227=AXIS2_PLACEMENT_3D('',#1224,#1225,#1226);
#1228=PLANE('',#1227);
#1229=ORIENTED_EDGE('',*,*,#1142,.T.);
#1230=ORIENTED_EDGE('',*,*,#1219,.F.);
#1231=CARTESIAN_POINT('',(6.650000000000002,-3.935000000000001,0.300000000000000));
#1232=VERTEX_POINT('',#1231);
#1233=CARTESIAN_POINT('',(6.650000000000002,-3.935000000000001,0.300000000000000));
#1234=DIRECTION('',(0.0,1.0,0.0));
#1235=VECTOR('',#1234,0.250000000000000);
#1236=LINE('',#1233,#1235);
#1237=EDGE_CURVE('',#1232,#1208,#1236,.T.);
#1238=ORIENTED_EDGE('',*,*,#1237,.F.);
#1239=CARTESIAN_POINT('',(6.650000000000002,-3.935000000000001,0.300000000000000));
#1240=DIRECTION('',(0.0,0.0,-1.0));
#1241=VECTOR('',#1240,3.800000000000000);
#1242=LINE('',#1239,#1241);
#1243=EDGE_CURVE('',#1232,#1135,#1242,.T.);
#1244=ORIENTED_EDGE('',*,*,#1243,.T.);
#1245=EDGE_LOOP('',(#1229,#1230,#1238,#1244));
#1246=FACE_OUTER_BOUND('',#1245,.T.);
#1247=ADVANCED_FACE('',(#1246),#1228,.T.);
#1248=CARTESIAN_POINT('',(6.050000000000002,-3.935000000000001,0.300000000000000));
#1249=DIRECTION('',(0.0,-1.0,0.0));
#1250=DIRECTION('',(0.0,0.0,-1.0));
#1251=AXIS2_PLACEMENT_3D('',#1248,#1249,#1250);
#1252=PLANE('',#1251);
#1253=ORIENTED_EDGE('',*,*,#1150,.T.);
#1254=ORIENTED_EDGE('',*,*,#1243,.F.);
#1255=CARTESIAN_POINT('',(6.050000000000002,-3.935000000000001,0.300000000000000));
#1256=DIRECTION('',(1.0,0.0,0.0));
#1257=VECTOR('',#1256,0.600000000000001);
#1258=LINE('',#1255,#1257);
#1259=EDGE_CURVE('',#1176,#1232,#1258,.T.);
#1260=ORIENTED_EDGE('',*,*,#1259,.F.);
#1261=ORIENTED_EDGE('',*,*,#1181,.T.);
#1262=EDGE_LOOP('',(#1253,#1254,#1260,#1261));
#1263=FACE_OUTER_BOUND('',#1262,.T.);
#1264=ADVANCED_FACE('',(#1263),#1252,.T.);
#1265=CARTESIAN_POINT('',(6.350000000000001,-3.810000000000001,0.300000000000000));
#1266=DIRECTION('',(0.0,0.0,1.0));
#1267=DIRECTION('',(1.0,0.0,0.0));
#1268=AXIS2_PLACEMENT_3D('',#1265,#1266,#1267);
#1269=PLANE('',#1268);
#1270=ORIENTED_EDGE('',*,*,#1259,.T.);
#1271=ORIENTED_EDGE('',*,*,#1237,.T.);
#1272=ORIENTED_EDGE('',*,*,#1213,.T.);
#1273=ORIENTED_EDGE('',*,*,#1189,.T.);
#1274=EDGE_LOOP('',(#1270,#1271,#1272,#1273));
#1275=FACE_OUTER_BOUND('',#1274,.T.);
#1276=ADVANCED_FACE('',(#1275),#1269,.T.);
#1277=CLOSED_SHELL('',(#1168,#1199,#1223,#1247,#1264,#1276));
#1278=MANIFOLD_SOLID_BREP('87D',#1277);
#1279=COLOUR_RGB('254',0.866000000000000,0.866000000000000,0.866000000000000);
#1280=SURFACE_STYLE_USAGE(.BOTH.,#1281);
#1281=SURFACE_SIDE_STYLE('NONE',(#1282));
#1282=SURFACE_STYLE_FILL_AREA(#1283);
#1283=FILL_AREA_STYLE('NONE',(#1284));
#1284=FILL_AREA_STYLE_COLOUR('NONE',#1279);
#1285=PRESENTATION_STYLE_ASSIGNMENT((#1280));
#1286=STYLED_ITEM('NONE',(#1285),#1278);
#1287=CARTESIAN_POINT('',(-6.350000000000001,-3.810000000000001,-3.500000000000000));
#1288=DIRECTION('',(0.0,0.0,1.0));
#1289=DIRECTION('',(1.0,0.0,0.0));
#1290=AXIS2_PLACEMENT_3D('',#1287,#1288,#1289);
#1291=PLANE('',#1290);
#1292=CARTESIAN_POINT('',(-6.050000000000001,-3.935000000000001,-3.500000000000000));
#1293=VERTEX_POINT('',#1292);
#1294=CARTESIAN_POINT('',(-6.050000000000001,-3.685000000000001,-3.500000000000000));
#1295=VERTEX_POINT('',#1294);
#1296=CARTESIAN_POINT('',(-6.050000000000001,-3.935000000000001,-3.500000000000000));
#1297=DIRECTION('',(0.0,1.0,0.0));
#1298=VECTOR('',#1297,0.250000000000000);
#1299=LINE('',#1296,#1298);
#1300=EDGE_CURVE('',#1293,#1295,#1299,.T.);
#1301=ORIENTED_EDGE('',*,*,#1300,.F.);
#1302=CARTESIAN_POINT('',(-6.650000000000001,-3.935000000000001,-3.500000000000000));
#1303=VERTEX_POINT('',#1302);
#1304=CARTESIAN_POINT('',(-6.050000000000001,-3.935000000000001,-3.500000000000000));
#1305=DIRECTION('',(-1.0,0.0,0.0));
#1306=VECTOR('',#1305,0.600000000000001);
#1307=LINE('',#1304,#1306);
#1308=EDGE_CURVE('',#1303,#1293,#1307,.F.);
#1309=ORIENTED_EDGE('',*,*,#1308,.F.);
#1310=CARTESIAN_POINT('',(-6.650000000000000,-3.685000000000001,-3.500000000000000));
#1311=VERTEX_POINT('',#1310);
#1312=CARTESIAN_POINT('',(-6.650000000000000,-3.685000000000001,-3.500000000000000));
#1313=DIRECTION('',(0.0,-1.0,0.0));
#1314=VECTOR('',#1313,0.250000000000000);
#1315=LINE('',#1312,#1314);
#1316=EDGE_CURVE('',#1311,#1303,#1315,.T.);
#1317=ORIENTED_EDGE('',*,*,#1316,.F.);
#1318=CARTESIAN_POINT('',(-6.050000000000001,-3.685000000000001,-3.500000000000000));
#1319=DIRECTION('',(-1.0,0.0,0.0));
#1320=VECTOR('',#1319,0.600000000000000);
#1321=LINE('',#1318,#1320);
#1322=EDGE_CURVE('',#1295,#1311,#1321,.T.);
#1323=ORIENTED_EDGE('',*,*,#1322,.F.);
#1324=EDGE_LOOP('',(#1301,#1309,#1317,#1323));
#1325=FACE_OUTER_BOUND('',#1324,.T.);
#1326=ADVANCED_FACE('',(#1325),#1291,.F.);
#1327=CARTESIAN_POINT('',(-6.650000000000000,-3.685000000000001,0.0));
#1328=DIRECTION('',(-1.0,0.0,0.0));
#1329=DIRECTION('',(0.0,0.0,1.0));
#1330=AXIS2_PLACEMENT_3D('',#1327,#1328,#1329);
#1331=PLANE('',#1330);
#1332=ORIENTED_EDGE('',*,*,#1316,.T.);
#1333=CARTESIAN_POINT('',(-6.650000000000001,-3.935000000000001,0.300000000000000));
#1334=VERTEX_POINT('',#1333);
#1335=CARTESIAN_POINT('',(-6.650000000000001,-3.935000000000001,0.300000000000000));
#1336=DIRECTION('',(0.0,0.0,-1.0));
#1337=VECTOR('',#1336,3.800000000000000);
#1338=LINE('',#1335,#1337);
#1339=EDGE_CURVE('',#1334,#1303,#1338,.T.);
#1340=ORIENTED_EDGE('',*,*,#1339,.F.);
#1341=CARTESIAN_POINT('',(-6.650000000000000,-3.685000000000001,0.300000000000000));
#1342=VERTEX_POINT('',#1341);
#1343=CARTESIAN_POINT('',(-6.650000000000000,-3.685000000000001,0.300000000000000));
#1344=DIRECTION('',(0.0,-1.0,0.0));
#1345=VECTOR('',#1344,0.250000000000000);
#1346=LINE('',#1343,#1345);
#1347=EDGE_CURVE('',#1342,#1334,#1346,.T.);
#1348=ORIENTED_EDGE('',*,*,#1347,.F.);
#1349=CARTESIAN_POINT('',(-6.650000000000000,-3.685000000000001,0.300000000000000));
#1350=DIRECTION('',(0.0,0.0,-1.0));
#1351=VECTOR('',#1350,3.800000000000000);
#1352=LINE('',#1349,#1351);
#1353=EDGE_CURVE('',#1342,#1311,#1352,.T.);
#1354=ORIENTED_EDGE('',*,*,#1353,.T.);
#1355=EDGE_LOOP('',(#1332,#1340,#1348,#1354));
#1356=FACE_OUTER_BOUND('',#1355,.T.);
#1357=ADVANCED_FACE('',(#1356),#1331,.T.);
#1358=CARTESIAN_POINT('',(-6.050000000000001,-3.685000000000001,0.0));
#1359=DIRECTION('',(0.0,1.0,0.0));
#1360=DIRECTION('',(0.0,0.0,1.0));
#1361=AXIS2_PLACEMENT_3D('',#1358,#1359,#1360);
#1362=PLANE('',#1361);
#1363=ORIENTED_EDGE('',*,*,#1322,.T.);
#1364=ORIENTED_EDGE('',*,*,#1353,.F.);
#1365=CARTESIAN_POINT('',(-6.050000000000001,-3.685000000000001,0.300000000000000));
#1366=VERTEX_POINT('',#1365);
#1367=CARTESIAN_POINT('',(-6.050000000000001,-3.685000000000001,0.300000000000000));
#1368=DIRECTION('',(-1.0,0.0,0.0));
#1369=VECTOR('',#1368,0.600000000000000);
#1370=LINE('',#1367,#1369);
#1371=EDGE_CURVE('',#1366,#1342,#1370,.T.);
#1372=ORIENTED_EDGE('',*,*,#1371,.F.);
#1373=CARTESIAN_POINT('',(-6.050000000000001,-3.685000000000001,0.300000000000000));
#1374=DIRECTION('',(0.0,0.0,-1.0));
#1375=VECTOR('',#1374,3.800000000000000);
#1376=LINE('',#1373,#1375);
#1377=EDGE_CURVE('',#1366,#1295,#1376,.T.);
#1378=ORIENTED_EDGE('',*,*,#1377,.T.);
#1379=EDGE_LOOP('',(#1363,#1364,#1372,#1378));
#1380=FACE_OUTER_BOUND('',#1379,.T.);
#1381=ADVANCED_FACE('',(#1380),#1362,.T.);
#1382=CARTESIAN_POINT('',(-6.050000000000001,-3.935000000000001,0.0));
#1383=DIRECTION('',(1.0,0.0,0.0));
#1384=DIRECTION('',(0.0,0.0,-1.0));
#1385=AXIS2_PLACEMENT_3D('',#1382,#1383,#1384);
#1386=PLANE('',#1385);
#1387=ORIENTED_EDGE('',*,*,#1300,.T.);
#1388=ORIENTED_EDGE('',*,*,#1377,.F.);
#1389=CARTESIAN_POINT('',(-6.050000000000001,-3.935000000000001,0.300000000000000));
#1390=VERTEX_POINT('',#1389);
#1391=CARTESIAN_POINT('',(-6.050000000000001,-3.935000000000001,0.300000000000000));
#1392=DIRECTION('',(0.0,1.0,0.0));
#1393=VECTOR('',#1392,0.250000000000000);
#1394=LINE('',#1391,#1393);
#1395=EDGE_CURVE('',#1390,#1366,#1394,.T.);
#1396=ORIENTED_EDGE('',*,*,#1395,.F.);
#1397=CARTESIAN_POINT('',(-6.050000000000001,-3.935000000000001,0.300000000000000));
#1398=DIRECTION('',(0.0,0.0,-1.0));
#1399=VECTOR('',#1398,3.800000000000000);
#1400=LINE('',#1397,#1399);
#1401=EDGE_CURVE('',#1390,#1293,#1400,.T.);
#1402=ORIENTED_EDGE('',*,*,#1401,.T.);
#1403=EDGE_LOOP('',(#1387,#1388,#1396,#1402));
#1404=FACE_OUTER_BOUND('',#1403,.T.);
#1405=ADVANCED_FACE('',(#1404),#1386,.T.);
#1406=CARTESIAN_POINT('',(-6.650000000000001,-3.935000000000001,0.300000000000000));
#1407=DIRECTION('',(0.0,-1.0,0.0));
#1408=DIRECTION('',(0.0,0.0,-1.0));
#1409=AXIS2_PLACEMENT_3D('',#1406,#1407,#1408);
#1410=PLANE('',#1409);
#1411=ORIENTED_EDGE('',*,*,#1308,.T.);
#1412=ORIENTED_EDGE('',*,*,#1401,.F.);
#1413=CARTESIAN_POINT('',(-6.650000000000001,-3.935000000000001,0.300000000000000));
#1414=DIRECTION('',(1.0,0.0,0.0));
#1415=VECTOR('',#1414,0.600000000000001);
#1416=LINE('',#1413,#1415);
#1417=EDGE_CURVE('',#1334,#1390,#1416,.T.);
#1418=ORIENTED_EDGE('',*,*,#1417,.F.);
#1419=ORIENTED_EDGE('',*,*,#1339,.T.);
#1420=EDGE_LOOP('',(#1411,#1412,#1418,#1419));
#1421=FACE_OUTER_BOUND('',#1420,.T.);
#1422=ADVANCED_FACE('',(#1421),#1410,.T.);
#1423=CARTESIAN_POINT('',(-6.350000000000001,-3.810000000000001,0.300000000000000));
#1424=DIRECTION('',(0.0,0.0,1.0));
#1425=DIRECTION('',(1.0,0.0,0.0));
#1426=AXIS2_PLACEMENT_3D('',#1423,#1424,#1425);
#1427=PLANE('',#1426);
#1428=ORIENTED_EDGE('',*,*,#1417,.T.);
#1429=ORIENTED_EDGE('',*,*,#1395,.T.);
#1430=ORIENTED_EDGE('',*,*,#1371,.T.);
#1431=ORIENTED_EDGE('',*,*,#1347,.T.);
#1432=EDGE_LOOP('',(#1428,#1429,#1430,#1431));
#1433=FACE_OUTER_BOUND('',#1432,.T.);
#1434=ADVANCED_FACE('',(#1433),#1427,.T.);
#1435=CLOSED_SHELL('',(#1326,#1357,#1381,#1405,#1422,#1434));
#1436=MANIFOLD_SOLID_BREP('879',#1435);
#1437=STYLED_ITEM('NONE',(#1285),#1436);
#1438=CARTESIAN_POINT('',(6.350000000000001,3.810000000000001,-3.500000000000000));
#1439=DIRECTION('',(0.0,0.0,1.0));
#1440=DIRECTION('',(1.0,0.0,0.0));
#1441=AXIS2_PLACEMENT_3D('',#1438,#1439,#1440);
#1442=PLANE('',#1441);
#1443=CARTESIAN_POINT('',(6.650000000000002,3.685000000000001,-3.500000000000000));
#1444=VERTEX_POINT('',#1443);
#1445=CARTESIAN_POINT('',(6.650000000000002,3.935000000000001,-3.500000000000000));
#1446=VERTEX_POINT('',#1445);
#1447=CARTESIAN_POINT('',(6.650000000000002,3.685000000000001,-3.500000000000000));
#1448=DIRECTION('',(0.0,1.0,0.0));
#1449=VECTOR('',#1448,0.250000000000000);
#1450=LINE('',#1447,#1449);
#1451=EDGE_CURVE('',#1444,#1446,#1450,.T.);
#1452=ORIENTED_EDGE('',*,*,#1451,.F.);
#1453=CARTESIAN_POINT('',(6.050000000000002,3.685000000000001,-3.500000000000000));
#1454=VERTEX_POINT('',#1453);
#1455=CARTESIAN_POINT('',(6.650000000000002,3.685000000000001,-3.500000000000000));
#1456=DIRECTION('',(-1.0,0.0,0.0));
#1457=VECTOR('',#1456,0.600000000000001);
#1458=LINE('',#1455,#1457);
#1459=EDGE_CURVE('',#1454,#1444,#1458,.F.);
#1460=ORIENTED_EDGE('',*,*,#1459,.F.);
#1461=CARTESIAN_POINT('',(6.050000000000003,3.935000000000001,-3.500000000000000));
#1462=VERTEX_POINT('',#1461);
#1463=CARTESIAN_POINT('',(6.050000000000003,3.935000000000001,-3.500000000000000));
#1464=DIRECTION('',(0.0,-1.0,0.0));
#1465=VECTOR('',#1464,0.250000000000000);
#1466=LINE('',#1463,#1465);
#1467=EDGE_CURVE('',#1462,#1454,#1466,.T.);
#1468=ORIENTED_EDGE('',*,*,#1467,.F.);
#1469=CARTESIAN_POINT('',(6.650000000000002,3.935000000000001,-3.500000000000000));
#1470=DIRECTION('',(-1.0,0.0,0.0));
#1471=VECTOR('',#1470,0.600000000000000);
#1472=LINE('',#1469,#1471);
#1473=EDGE_CURVE('',#1446,#1462,#1472,.T.);
#1474=ORIENTED_EDGE('',*,*,#1473,.F.);
#1475=EDGE_LOOP('',(#1452,#1460,#1468,#1474));
#1476=FACE_OUTER_BOUND('',#1475,.T.);
#1477=ADVANCED_FACE('',(#1476),#1442,.F.);
#1478=CARTESIAN_POINT('',(6.050000000000003,3.935000000000001,0.0));
#1479=DIRECTION('',(-1.0,0.0,0.0));
#1480=DIRECTION('',(0.0,0.0,1.0));
#1481=AXIS2_PLACEMENT_3D('',#1478,#1479,#1480);
#1482=PLANE('',#1481);
#1483=ORIENTED_EDGE('',*,*,#1467,.T.);
#1484=CARTESIAN_POINT('',(6.050000000000002,3.685000000000001,0.300000000000000));
#1485=VERTEX_POINT('',#1484);
#1486=CARTESIAN_POINT('',(6.050000000000002,3.685000000000001,0.300000000000000));
#1487=DIRECTION('',(0.0,0.0,-1.0));
#1488=VECTOR('',#1487,3.800000000000000);
#1489=LINE('',#1486,#1488);
#1490=EDGE_CURVE('',#1485,#1454,#1489,.T.);
#1491=ORIENTED_EDGE('',*,*,#1490,.F.);
#1492=CARTESIAN_POINT('',(6.050000000000003,3.935000000000001,0.300000000000000));
#1493=VERTEX_POINT('',#1492);
#1494=CARTESIAN_POINT('',(6.050000000000003,3.935000000000001,0.300000000000000));
#1495=DIRECTION('',(0.0,-1.0,0.0));
#1496=VECTOR('',#1495,0.250000000000000);
#1497=LINE('',#1494,#1496);
#1498=EDGE_CURVE('',#1493,#1485,#1497,.T.);
#1499=ORIENTED_EDGE('',*,*,#1498,.F.);
#1500=CARTESIAN_POINT('',(6.050000000000003,3.935000000000001,0.300000000000000));
#1501=DIRECTION('',(0.0,0.0,-1.0));
#1502=VECTOR('',#1501,3.800000000000000);
#1503=LINE('',#1500,#1502);
#1504=EDGE_CURVE('',#1493,#1462,#1503,.T.);
#1505=ORIENTED_EDGE('',*,*,#1504,.T.);
#1506=EDGE_LOOP('',(#1483,#1491,#1499,#1505));
#1507=FACE_OUTER_BOUND('',#1506,.T.);
#1508=ADVANCED_FACE('',(#1507),#1482,.T.);
#1509=CARTESIAN_POINT('',(6.650000000000002,3.935000000000001,0.0));
#1510=DIRECTION('',(0.0,1.0,0.0));
#1511=DIRECTION('',(0.0,0.0,1.0));
#1512=AXIS2_PLACEMENT_3D('',#1509,#1510,#1511);
#1513=PLANE('',#1512);
#1514=ORIENTED_EDGE('',*,*,#1473,.T.);
#1515=ORIENTED_EDGE('',*,*,#1504,.F.);
#1516=CARTESIAN_POINT('',(6.650000000000002,3.935000000000001,0.300000000000000));
#1517=VERTEX_POINT('',#1516);
#1518=CARTESIAN_POINT('',(6.650000000000002,3.935000000000001,0.300000000000000));
#1519=DIRECTION('',(-1.0,0.0,0.0));
#1520=VECTOR('',#1519,0.600000000000000);
#1521=LINE('',#1518,#1520);
#1522=EDGE_CURVE('',#1517,#1493,#1521,.T.);
#1523=ORIENTED_EDGE('',*,*,#1522,.F.);
#1524=CARTESIAN_POINT('',(6.650000000000002,3.935000000000001,0.300000000000000));
#1525=DIRECTION('',(0.0,0.0,-1.0));
#1526=VECTOR('',#1525,3.800000000000000);
#1527=LINE('',#1524,#1526);
#1528=EDGE_CURVE('',#1517,#1446,#1527,.T.);
#1529=ORIENTED_EDGE('',*,*,#1528,.T.);
#1530=EDGE_LOOP('',(#1514,#1515,#1523,#1529));
#1531=FACE_OUTER_BOUND('',#1530,.T.);
#1532=ADVANCED_FACE('',(#1531),#1513,.T.);
#1533=CARTESIAN_POINT('',(6.650000000000002,3.685000000000001,0.0));
#1534=DIRECTION('',(1.0,0.0,0.0));
#1535=DIRECTION('',(0.0,0.0,-1.0));
#1536=AXIS2_PLACEMENT_3D('',#1533,#1534,#1535);
#1537=PLANE('',#1536);
#1538=ORIENTED_EDGE('',*,*,#1451,.T.);
#1539=ORIENTED_EDGE('',*,*,#1528,.F.);
#1540=CARTESIAN_POINT('',(6.650000000000002,3.685000000000001,0.300000000000000));
#1541=VERTEX_POINT('',#1540);
#1542=CARTESIAN_POINT('',(6.650000000000002,3.685000000000001,0.300000000000000));
#1543=DIRECTION('',(0.0,1.0,0.0));
#1544=VECTOR('',#1543,0.250000000000000);
#1545=LINE('',#1542,#1544);
#1546=EDGE_CURVE('',#1541,#1517,#1545,.T.);
#1547=ORIENTED_EDGE('',*,*,#1546,.F.);
#1548=CARTESIAN_POINT('',(6.650000000000002,3.685000000000001,0.300000000000000));
#1549=DIRECTION('',(0.0,0.0,-1.0));
#1550=VECTOR('',#1549,3.800000000000000);
#1551=LINE('',#1548,#1550);
#1552=EDGE_CURVE('',#1541,#1444,#1551,.T.);
#1553=ORIENTED_EDGE('',*,*,#1552,.T.);
#1554=EDGE_LOOP('',(#1538,#1539,#1547,#1553));
#1555=FACE_OUTER_BOUND('',#1554,.T.);
#1556=ADVANCED_FACE('',(#1555),#1537,.T.);
#1557=CARTESIAN_POINT('',(6.050000000000002,3.685000000000001,0.300000000000000));
#1558=DIRECTION('',(0.0,-1.0,0.0));
#1559=DIRECTION('',(0.0,0.0,-1.0));
#1560=AXIS2_PLACEMENT_3D('',#1557,#1558,#1559);
#1561=PLANE('',#1560);
#1562=ORIENTED_EDGE('',*,*,#1459,.T.);
#1563=ORIENTED_EDGE('',*,*,#1552,.F.);
#1564=CARTESIAN_POINT('',(6.050000000000002,3.685000000000001,0.300000000000000));
#1565=DIRECTION('',(1.0,0.0,0.0));
#1566=VECTOR('',#1565,0.600000000000001);
#1567=LINE('',#1564,#1566);
#1568=EDGE_CURVE('',#1485,#1541,#1567,.T.);
#1569=ORIENTED_EDGE('',*,*,#1568,.F.);
#1570=ORIENTED_EDGE('',*,*,#1490,.T.);
#1571=EDGE_LOOP('',(#1562,#1563,#1569,#1570));
#1572=FACE_OUTER_BOUND('',#1571,.T.);
#1573=ADVANCED_FACE('',(#1572),#1561,.T.);
#1574=CARTESIAN_POINT('',(6.350000000000001,3.810000000000001,0.300000000000000));
#1575=DIRECTION('',(0.0,0.0,1.0));
#1576=DIRECTION('',(1.0,0.0,0.0));
#1577=AXIS2_PLACEMENT_3D('',#1574,#1575,#1576);
#1578=PLANE('',#1577);
#1579=ORIENTED_EDGE('',*,*,#1568,.T.);
#1580=ORIENTED_EDGE('',*,*,#1546,.T.);
#1581=ORIENTED_EDGE('',*,*,#1522,.T.);
#1582=ORIENTED_EDGE('',*,*,#1498,.T.);
#1583=EDGE_LOOP('',(#1579,#1580,#1581,#1582));
#1584=FACE_OUTER_BOUND('',#1583,.T.);
#1585=ADVANCED_FACE('',(#1584),#1578,.T.);
#1586=CLOSED_SHELL('',(#1477,#1508,#1532,#1556,#1573,#1585));
#1587=MANIFOLD_SOLID_BREP('875',#1586);
#1588=STYLED_ITEM('NONE',(#1285),#1587);
#1589=CARTESIAN_POINT('',(-1.270000000000000,3.810000000000001,-3.500000000000000));
#1590=DIRECTION('',(0.0,0.0,1.0));
#1591=DIRECTION('',(1.0,0.0,0.0));
#1592=AXIS2_PLACEMENT_3D('',#1589,#1590,#1591);
#1593=PLANE('',#1592);
#1594=CARTESIAN_POINT('',(-0.969999999999999,3.685000000000001,-3.500000000000000));
#1595=VERTEX_POINT('',#1594);
#1596=CARTESIAN_POINT('',(-0.969999999999999,3.935000000000001,-3.500000000000000));
#1597=VERTEX_POINT('',#1596);
#1598=CARTESIAN_POINT('',(-0.969999999999999,3.685000000000001,-3.500000000000000));
#1599=DIRECTION('',(0.0,1.0,0.0));
#1600=VECTOR('',#1599,0.250000000000000);
#1601=LINE('',#1598,#1600);
#1602=EDGE_CURVE('',#1595,#1597,#1601,.T.);
#1603=ORIENTED_EDGE('',*,*,#1602,.F.);
#1604=CARTESIAN_POINT('',(-1.569999999999999,3.685000000000001,-3.500000000000000));
#1605=VERTEX_POINT('',#1604);
#1606=CARTESIAN_POINT('',(-0.969999999999999,3.685000000000001,-3.500000000000000));
#1607=DIRECTION('',(-1.0,0.0,0.0));
#1608=VECTOR('',#1607,0.600000000000001);
#1609=LINE('',#1606,#1608);
#1610=EDGE_CURVE('',#1605,#1595,#1609,.F.);
#1611=ORIENTED_EDGE('',*,*,#1610,.F.);
#1612=CARTESIAN_POINT('',(-1.569999999999999,3.935000000000001,-3.500000000000000));
#1613=VERTEX_POINT('',#1612);
#1614=CARTESIAN_POINT('',(-1.569999999999999,3.935000000000001,-3.500000000000000));
#1615=DIRECTION('',(0.0,-1.0,0.0));
#1616=VECTOR('',#1615,0.250000000000000);
#1617=LINE('',#1614,#1616);
#1618=EDGE_CURVE('',#1613,#1605,#1617,.T.);
#1619=ORIENTED_EDGE('',*,*,#1618,.F.);
#1620=CARTESIAN_POINT('',(-0.969999999999999,3.935000000000001,-3.500000000000000));
#1621=DIRECTION('',(-1.0,0.0,0.0));
#1622=VECTOR('',#1621,0.600000000000000);
#1623=LINE('',#1620,#1622);
#1624=EDGE_CURVE('',#1597,#1613,#1623,.T.);
#1625=ORIENTED_EDGE('',*,*,#1624,.F.);
#1626=EDGE_LOOP('',(#1603,#1611,#1619,#1625));
#1627=FACE_OUTER_BOUND('',#1626,.T.);
#1628=ADVANCED_FACE('',(#1627),#1593,.F.);
#1629=CARTESIAN_POINT('',(-1.569999999999999,3.935000000000001,0.0));
#1630=DIRECTION('',(-1.0,0.0,0.0));
#1631=DIRECTION('',(0.0,0.0,1.0));
#1632=AXIS2_PLACEMENT_3D('',#1629,#1630,#1631);
#1633=PLANE('',#1632);
#1634=ORIENTED_EDGE('',*,*,#1618,.T.);
#1635=CARTESIAN_POINT('',(-1.569999999999999,3.685000000000001,0.300000000000000));
#1636=VERTEX_POINT('',#1635);
#1637=CARTESIAN_POINT('',(-1.569999999999999,3.685000000000001,0.300000000000000));
#1638=DIRECTION('',(0.0,0.0,-1.0));
#1639=VECTOR('',#1638,3.800000000000000);
#1640=LINE('',#1637,#1639);
#1641=EDGE_CURVE('',#1636,#1605,#1640,.T.);
#1642=ORIENTED_EDGE('',*,*,#1641,.F.);
#1643=CARTESIAN_POINT('',(-1.569999999999999,3.935000000000001,0.300000000000000));
#1644=VERTEX_POINT('',#1643);
#1645=CARTESIAN_POINT('',(-1.569999999999999,3.935000000000001,0.300000000000000));
#1646=DIRECTION('',(0.0,-1.0,0.0));
#1647=VECTOR('',#1646,0.250000000000000);
#1648=LINE('',#1645,#1647);
#1649=EDGE_CURVE('',#1644,#1636,#1648,.T.);
#1650=ORIENTED_EDGE('',*,*,#1649,.F.);
#1651=CARTESIAN_POINT('',(-1.569999999999999,3.935000000000001,0.300000000000000));
#1652=DIRECTION('',(0.0,0.0,-1.0));
#1653=VECTOR('',#1652,3.800000000000000);
#1654=LINE('',#1651,#1653);
#1655=EDGE_CURVE('',#1644,#1613,#1654,.T.);
#1656=ORIENTED_EDGE('',*,*,#1655,.T.);
#1657=EDGE_LOOP('',(#1634,#1642,#1650,#1656));
#1658=FACE_OUTER_BOUND('',#1657,.T.);
#1659=ADVANCED_FACE('',(#1658),#1633,.T.);
#1660=CARTESIAN_POINT('',(-0.969999999999999,3.935000000000001,0.0));
#1661=DIRECTION('',(0.0,1.0,0.0));
#1662=DIRECTION('',(0.0,0.0,1.0));
#1663=AXIS2_PLACEMENT_3D('',#1660,#1661,#1662);
#1664=PLANE('',#1663);
#1665=ORIENTED_EDGE('',*,*,#1624,.T.);
#1666=ORIENTED_EDGE('',*,*,#1655,.F.);
#1667=CARTESIAN_POINT('',(-0.969999999999999,3.935000000000001,0.300000000000000));
#1668=VERTEX_POINT('',#1667);
#1669=CARTESIAN_POINT('',(-0.969999999999999,3.935000000000001,0.300000000000000));
#1670=DIRECTION('',(-1.0,0.0,0.0));
#1671=VECTOR('',#1670,0.600000000000000);
#1672=LINE('',#1669,#1671);
#1673=EDGE_CURVE('',#1668,#1644,#1672,.T.);
#1674=ORIENTED_EDGE('',*,*,#1673,.F.);
#1675=CARTESIAN_POINT('',(-0.969999999999999,3.935000000000001,0.300000000000000));
#1676=DIRECTION('',(0.0,0.0,-1.0));
#1677=VECTOR('',#1676,3.800000000000000);
#1678=LINE('',#1675,#1677);
#1679=EDGE_CURVE('',#1668,#1597,#1678,.T.);
#1680=ORIENTED_EDGE('',*,*,#1679,.T.);
#1681=EDGE_LOOP('',(#1665,#1666,#1674,#1680));
#1682=FACE_OUTER_BOUND('',#1681,.T.);
#1683=ADVANCED_FACE('',(#1682),#1664,.T.);
#1684=CARTESIAN_POINT('',(-0.969999999999999,3.685000000000001,0.0));
#1685=DIRECTION('',(1.0,0.0,0.0));
#1686=DIRECTION('',(0.0,0.0,-1.0));
#1687=AXIS2_PLACEMENT_3D('',#1684,#1685,#1686);
#1688=PLANE('',#1687);
#1689=ORIENTED_EDGE('',*,*,#1602,.T.);
#1690=ORIENTED_EDGE('',*,*,#1679,.F.);
#1691=CARTESIAN_POINT('',(-0.969999999999999,3.685000000000001,0.300000000000000));
#1692=VERTEX_POINT('',#1691);
#1693=CARTESIAN_POINT('',(-0.969999999999999,3.685000000000001,0.300000000000000));
#1694=DIRECTION('',(0.0,1.0,0.0));
#1695=VECTOR('',#1694,0.250000000000000);
#1696=LINE('',#1693,#1695);
#1697=EDGE_CURVE('',#1692,#1668,#1696,.T.);
#1698=ORIENTED_EDGE('',*,*,#1697,.F.);
#1699=CARTESIAN_POINT('',(-0.969999999999999,3.685000000000001,0.300000000000000));
#1700=DIRECTION('',(0.0,0.0,-1.0));
#1701=VECTOR('',#1700,3.800000000000000);
#1702=LINE('',#1699,#1701);
#1703=EDGE_CURVE('',#1692,#1595,#1702,.T.);
#1704=ORIENTED_EDGE('',*,*,#1703,.T.);
#1705=EDGE_LOOP('',(#1689,#1690,#1698,#1704));
#1706=FACE_OUTER_BOUND('',#1705,.T.);
#1707=ADVANCED_FACE('',(#1706),#1688,.T.);
#1708=CARTESIAN_POINT('',(-1.569999999999999,3.685000000000001,0.300000000000000));
#1709=DIRECTION('',(0.0,-1.0,0.0));
#1710=DIRECTION('',(0.0,0.0,-1.0));
#1711=AXIS2_PLACEMENT_3D('',#1708,#1709,#1710);
#1712=PLANE('',#1711);
#1713=ORIENTED_EDGE('',*,*,#1610,.T.);
#1714=ORIENTED_EDGE('',*,*,#1703,.F.);
#1715=CARTESIAN_POINT('',(-1.569999999999999,3.685000000000001,0.300000000000000));
#1716=DIRECTION('',(1.0,0.0,0.0));
#1717=VECTOR('',#1716,0.600000000000001);
#1718=LINE('',#1715,#1717);
#1719=EDGE_CURVE('',#1636,#1692,#1718,.T.);
#1720=ORIENTED_EDGE('',*,*,#1719,.F.);
#1721=ORIENTED_EDGE('',*,*,#1641,.T.);
#1722=EDGE_LOOP('',(#1713,#1714,#1720,#1721));
#1723=FACE_OUTER_BOUND('',#1722,.T.);
#1724=ADVANCED_FACE('',(#1723),#1712,.T.);
#1725=CARTESIAN_POINT('',(-1.270000000000000,3.810000000000001,0.300000000000000));
#1726=DIRECTION('',(0.0,0.0,1.0));
#1727=DIRECTION('',(1.0,0.0,0.0));
#1728=AXIS2_PLACEMENT_3D('',#1725,#1726,#1727);
#1729=PLANE('',#1728);
#1730=ORIENTED_EDGE('',*,*,#1719,.T.);
#1731=ORIENTED_EDGE('',*,*,#1697,.T.);
#1732=ORIENTED_EDGE('',*,*,#1673,.T.);
#1733=ORIENTED_EDGE('',*,*,#1649,.T.);
#1734=EDGE_LOOP('',(#1730,#1731,#1732,#1733));
#1735=FACE_OUTER_BOUND('',#1734,.T.);
#1736=ADVANCED_FACE('',(#1735),#1729,.T.);
#1737=CLOSED_SHELL('',(#1628,#1659,#1683,#1707,#1724,#1736));
#1738=MANIFOLD_SOLID_BREP('871',#1737);
#1739=STYLED_ITEM('NONE',(#1285),#1738);
#1740=CARTESIAN_POINT('',(-6.350000000000001,3.810000000000001,-3.500000000000000));
#1741=DIRECTION('',(0.0,0.0,1.0));
#1742=DIRECTION('',(1.0,0.0,0.0));
#1743=AXIS2_PLACEMENT_3D('',#1740,#1741,#1742);
#1744=PLANE('',#1743);
#1745=CARTESIAN_POINT('',(-6.050000000000001,3.685000000000001,-3.500000000000000));
#1746=VERTEX_POINT('',#1745);
#1747=CARTESIAN_POINT('',(-6.050000000000001,3.935000000000001,-3.500000000000000));
#1748=VERTEX_POINT('',#1747);
#1749=CARTESIAN_POINT('',(-6.050000000000001,3.685000000000001,-3.500000000000000));
#1750=DIRECTION('',(0.0,1.0,0.0));
#1751=VECTOR('',#1750,0.250000000000000);
#1752=LINE('',#1749,#1751);
#1753=EDGE_CURVE('',#1746,#1748,#1752,.T.);
#1754=ORIENTED_EDGE('',*,*,#1753,.F.);
#1755=CARTESIAN_POINT('',(-6.650000000000001,3.685000000000001,-3.500000000000000));
#1756=VERTEX_POINT('',#1755);
#1757=CARTESIAN_POINT('',(-6.650000000000001,3.685000000000001,-3.500000000000000));
#1758=DIRECTION('',(1.0,0.0,0.0));
#1759=VECTOR('',#1758,0.600000000000001);
#1760=LINE('',#1757,#1759);
#1761=EDGE_CURVE('',#1756,#1746,#1760,.T.);
#1762=ORIENTED_EDGE('',*,*,#1761,.F.);
#1763=CARTESIAN_POINT('',(-6.650000000000000,3.935000000000001,-3.500000000000000));
#1764=VERTEX_POINT('',#1763);
#1765=CARTESIAN_POINT('',(-6.650000000000001,3.685000000000001,-3.500000000000000));
#1766=DIRECTION('',(0.0,1.0,0.0));
#1767=VECTOR('',#1766,0.250000000000000);
#1768=LINE('',#1765,#1767);
#1769=EDGE_CURVE('',#1764,#1756,#1768,.F.);
#1770=ORIENTED_EDGE('',*,*,#1769,.F.);
#1771=CARTESIAN_POINT('',(-6.050000000000001,3.935000000000001,-3.500000000000000));
#1772=DIRECTION('',(-1.0,0.0,0.0));
#1773=VECTOR('',#1772,0.600000000000000);
#1774=LINE('',#1771,#1773);
#1775=EDGE_CURVE('',#1748,#1764,#1774,.T.);
#1776=ORIENTED_EDGE('',*,*,#1775,.F.);
#1777=EDGE_LOOP('',(#1754,#1762,#1770,#1776));
#1778=FACE_OUTER_BOUND('',#1777,.T.);
#1779=ADVANCED_FACE('',(#1778),#1744,.F.);
#1780=CARTESIAN_POINT('',(-6.050000000000001,3.935000000000001,0.0));
#1781=DIRECTION('',(0.0,1.0,0.0));
#1782=DIRECTION('',(0.0,0.0,1.0));
#1783=AXIS2_PLACEMENT_3D('',#1780,#1781,#1782);
#1784=PLANE('',#1783);
#1785=ORIENTED_EDGE('',*,*,#1775,.T.);
#1786=CARTESIAN_POINT('',(-6.650000000000000,3.935000000000001,0.300000000000000));
#1787=VERTEX_POINT('',#1786);
#1788=CARTESIAN_POINT('',(-6.650000000000000,3.935000000000001,0.300000000000000));
#1789=DIRECTION('',(0.0,0.0,-1.0));
#1790=VECTOR('',#1789,3.800000000000000);
#1791=LINE('',#1788,#1790);
#1792=EDGE_CURVE('',#1787,#1764,#1791,.T.);
#1793=ORIENTED_EDGE('',*,*,#1792,.F.);
#1794=CARTESIAN_POINT('',(-6.050000000000001,3.935000000000001,0.300000000000000));
#1795=VERTEX_POINT('',#1794);
#1796=CARTESIAN_POINT('',(-6.050000000000001,3.935000000000001,0.300000000000000));
#1797=DIRECTION('',(-1.0,0.0,0.0));
#1798=VECTOR('',#1797,0.600000000000000);
#1799=LINE('',#1796,#1798);
#1800=EDGE_CURVE('',#1795,#1787,#1799,.T.);
#1801=ORIENTED_EDGE('',*,*,#1800,.F.);
#1802=CARTESIAN_POINT('',(-6.050000000000001,3.935000000000001,0.300000000000000));
#1803=DIRECTION('',(0.0,0.0,-1.0));
#1804=VECTOR('',#1803,3.800000000000000);
#1805=LINE('',#1802,#1804);
#1806=EDGE_CURVE('',#1795,#1748,#1805,.T.);
#1807=ORIENTED_EDGE('',*,*,#1806,.T.);
#1808=EDGE_LOOP('',(#1785,#1793,#1801,#1807));
#1809=FACE_OUTER_BOUND('',#1808,.T.);
#1810=ADVANCED_FACE('',(#1809),#1784,.T.);
#1811=CARTESIAN_POINT('',(-6.050000000000001,3.685000000000001,0.0));
#1812=DIRECTION('',(1.0,0.0,0.0));
#1813=DIRECTION('',(0.0,0.0,-1.0));
#1814=AXIS2_PLACEMENT_3D('',#1811,#1812,#1813);
#1815=PLANE('',#1814);
#1816=ORIENTED_EDGE('',*,*,#1753,.T.);
#1817=ORIENTED_EDGE('',*,*,#1806,.F.);
#1818=CARTESIAN_POINT('',(-6.050000000000001,3.685000000000001,0.300000000000000));
#1819=VERTEX_POINT('',#1818);
#1820=CARTESIAN_POINT('',(-6.050000000000001,3.685000000000001,0.300000000000000));
#1821=DIRECTION('',(0.0,1.0,0.0));
#1822=VECTOR('',#1821,0.250000000000000);
#1823=LINE('',#1820,#1822);
#1824=EDGE_CURVE('',#1819,#1795,#1823,.T.);
#1825=ORIENTED_EDGE('',*,*,#1824,.F.);
#1826=CARTESIAN_POINT('',(-6.050000000000001,3.685000000000001,0.300000000000000));
#1827=DIRECTION('',(0.0,0.0,-1.0));
#1828=VECTOR('',#1827,3.800000000000000);
#1829=LINE('',#1826,#1828);
#1830=EDGE_CURVE('',#1819,#1746,#1829,.T.);
#1831=ORIENTED_EDGE('',*,*,#1830,.T.);
#1832=EDGE_LOOP('',(#1816,#1817,#1825,#1831));
#1833=FACE_OUTER_BOUND('',#1832,.T.);
#1834=ADVANCED_FACE('',(#1833),#1815,.T.);
#1835=CARTESIAN_POINT('',(-6.650000000000001,3.685000000000001,0.0));
#1836=DIRECTION('',(0.0,-1.0,0.0));
#1837=DIRECTION('',(0.0,0.0,-1.0));
#1838=AXIS2_PLACEMENT_3D('',#1835,#1836,#1837);
#1839=PLANE('',#1838);
#1840=ORIENTED_EDGE('',*,*,#1761,.T.);
#1841=ORIENTED_EDGE('',*,*,#1830,.F.);
#1842=CARTESIAN_POINT('',(-6.650000000000001,3.685000000000001,0.300000000000000));
#1843=VERTEX_POINT('',#1842);
#1844=CARTESIAN_POINT('',(-6.650000000000001,3.685000000000001,0.300000000000000));
#1845=DIRECTION('',(1.0,0.0,0.0));
#1846=VECTOR('',#1845,0.600000000000001);
#1847=LINE('',#1844,#1846);
#1848=EDGE_CURVE('',#1843,#1819,#1847,.T.);
#1849=ORIENTED_EDGE('',*,*,#1848,.F.);
#1850=CARTESIAN_POINT('',(-6.650000000000001,3.685000000000001,0.300000000000000));
#1851=DIRECTION('',(0.0,0.0,-1.0));
#1852=VECTOR('',#1851,3.800000000000000);
#1853=LINE('',#1850,#1852);
#1854=EDGE_CURVE('',#1843,#1756,#1853,.T.);
#1855=ORIENTED_EDGE('',*,*,#1854,.T.);
#1856=EDGE_LOOP('',(#1840,#1841,#1849,#1855));
#1857=FACE_OUTER_BOUND('',#1856,.T.);
#1858=ADVANCED_FACE('',(#1857),#1839,.T.);
#1859=CARTESIAN_POINT('',(-6.650000000000000,3.935000000000001,0.300000000000000));
#1860=DIRECTION('',(-1.0,0.0,0.0));
#1861=DIRECTION('',(0.0,0.0,1.0));
#1862=AXIS2_PLACEMENT_3D('',#1859,#1860,#1861);
#1863=PLANE('',#1862);
#1864=ORIENTED_EDGE('',*,*,#1769,.T.);
#1865=ORIENTED_EDGE('',*,*,#1854,.F.);
#1866=CARTESIAN_POINT('',(-6.650000000000000,3.935000000000001,0.300000000000000));
#1867=DIRECTION('',(0.0,-1.0,0.0));
#1868=VECTOR('',#1867,0.250000000000000);
#1869=LINE('',#1866,#1868);
#1870=EDGE_CURVE('',#1787,#1843,#1869,.T.);
#1871=ORIENTED_EDGE('',*,*,#1870,.F.);
#1872=ORIENTED_EDGE('',*,*,#1792,.T.);
#1873=EDGE_LOOP('',(#1864,#1865,#1871,#1872));
#1874=FACE_OUTER_BOUND('',#1873,.T.);
#1875=ADVANCED_FACE('',(#1874),#1863,.T.);
#1876=CARTESIAN_POINT('',(-6.350000000000001,3.810000000000001,0.300000000000000));
#1877=DIRECTION('',(0.0,0.0,1.0));
#1878=DIRECTION('',(1.0,0.0,0.0));
#1879=AXIS2_PLACEMENT_3D('',#1876,#1877,#1878);
#1880=PLANE('',#1879);
#1881=ORIENTED_EDGE('',*,*,#1848,.T.);
#1882=ORIENTED_EDGE('',*,*,#1824,.T.);
#1883=ORIENTED_EDGE('',*,*,#1800,.T.);
#1884=ORIENTED_EDGE('',*,*,#1870,.T.);
#1885=EDGE_LOOP('',(#1881,#1882,#1883,#1884));
#1886=FACE_OUTER_BOUND('',#1885,.T.);
#1887=ADVANCED_FACE('',(#1886),#1880,.T.);
#1888=CLOSED_SHELL('',(#1779,#1810,#1834,#1858,#1875,#1887));
#1889=MANIFOLD_SOLID_BREP('86D',#1888);
#1890=STYLED_ITEM('NONE',(#1285),#1889);
#1891=ADVANCED_BREP_SHAPE_REPRESENTATION('ABSR1',(#214,#374,#525,#676,#827,#1127,#1278,#1436,#1587,#1738,#1889),#28);
#1892=SHAPE_REPRESENTATION_RELATIONSHIP('SRRPL1','',#1891,#62);
ENDSEC;
END-ISO-10303-21;
