ISO-10303-21;
HEADER;
/* Generated by software containing ST-Developer
 * from STEP Tools, Inc. (www.steptools.com) 
 */

FILE_DESCRIPTION(
/* description */ (''),
/* implementation_level */ '2;1');

FILE_NAME(
/* name */ 
'G:\\Applications\\Altium\\CernLib\\StepLib\\REL_TYCO-SCHRACK_MSR_FORM
-C.stp',
/* time_stamp */ '2016-10-21T16:58:19+02:00',
/* author */ ('riccim'),
/* organization */ ('Tyco Electronics Corporation'),
/* preprocessor_version */ 'ST-DEVELOPER v15.5',
/* originating_system */ 'AutoCAD Mechanical',
/* authorisation */ '');

FILE_SCHEMA (('AUTOMOTIVE_DESIGN { 1 0 10303 214 3 1 1 }'));
ENDSEC;

DATA;
#10=MECHANICAL_DESIGN_GEOMETRIC_PRESENTATION_REPRESENTATION('',(#30,#31,
#32,#33,#34,#35),#1426);
#11=DIMENSIONAL_EXPONENTS(0.,0.,0.,0.,0.,0.,0.);
#12=(
CONVERSION_BASED_UNIT('degree',#13)
NAMED_UNIT(#11)
PLANE_ANGLE_UNIT()
);
#13=PLANE_ANGLE_MEASURE_WITH_UNIT(PLANE_ANGLE_MEASURE(0.01745329252),#1429);
#14=PRESENTATION_LAYER_ASSIGNMENT('3D','',(#887,#888,#889,#890,#891,#892));
#15=CYLINDRICAL_SURFACE($,#919,0.675);
#16=CYLINDRICAL_SURFACE($,#942,0.3);
#17=CYLINDRICAL_SURFACE($,#949,0.3);
#18=FACE_BOUND($,#112,.T.);
#19=FACE_BOUND($,#114,.T.);
#20=FACE_BOUND($,#137,.T.);
#21=FACE_BOUND($,#142,.T.);
#22=CIRCLE($,#918,0.675);
#23=CIRCLE($,#920,0.675);
#24=CIRCLE($,#943,0.3);
#25=CIRCLE($,#944,0.3);
#26=CIRCLE($,#948,0.3);
#27=CIRCLE($,#950,0.3);
#28=SHAPE_REPRESENTATION_RELATIONSHIP('SRR','None',#1432,#29);
#29=ADVANCED_BREP_SHAPE_REPRESENTATION($,(#887,#888,#889,#890,#891,#892),
#1425);
#30=STYLED_ITEM($,(#1442),#887);
#31=STYLED_ITEM($,(#1443),#888);
#32=STYLED_ITEM($,(#1442),#889);
#33=STYLED_ITEM($,(#1442),#890);
#34=STYLED_ITEM($,(#1442),#891);
#35=STYLED_ITEM($,(#1442),#892);
#36=FACE_OUTER_BOUND($,#88,.T.);
#37=FACE_OUTER_BOUND($,#89,.T.);
#38=FACE_OUTER_BOUND($,#90,.T.);
#39=FACE_OUTER_BOUND($,#91,.T.);
#40=FACE_OUTER_BOUND($,#92,.T.);
#41=FACE_OUTER_BOUND($,#93,.T.);
#42=FACE_OUTER_BOUND($,#94,.T.);
#43=FACE_OUTER_BOUND($,#95,.T.);
#44=FACE_OUTER_BOUND($,#96,.T.);
#45=FACE_OUTER_BOUND($,#97,.T.);
#46=FACE_OUTER_BOUND($,#98,.T.);
#47=FACE_OUTER_BOUND($,#99,.T.);
#48=FACE_OUTER_BOUND($,#100,.T.);
#49=FACE_OUTER_BOUND($,#101,.T.);
#50=FACE_OUTER_BOUND($,#102,.T.);
#51=FACE_OUTER_BOUND($,#103,.T.);
#52=FACE_OUTER_BOUND($,#104,.T.);
#53=FACE_OUTER_BOUND($,#105,.T.);
#54=FACE_OUTER_BOUND($,#106,.T.);
#55=FACE_OUTER_BOUND($,#107,.T.);
#56=FACE_OUTER_BOUND($,#108,.T.);
#57=FACE_OUTER_BOUND($,#109,.T.);
#58=FACE_OUTER_BOUND($,#110,.T.);
#59=FACE_OUTER_BOUND($,#111,.T.);
#60=FACE_OUTER_BOUND($,#113,.T.);
#61=FACE_OUTER_BOUND($,#115,.T.);
#62=FACE_OUTER_BOUND($,#116,.T.);
#63=FACE_OUTER_BOUND($,#117,.T.);
#64=FACE_OUTER_BOUND($,#118,.T.);
#65=FACE_OUTER_BOUND($,#119,.T.);
#66=FACE_OUTER_BOUND($,#120,.T.);
#67=FACE_OUTER_BOUND($,#121,.T.);
#68=FACE_OUTER_BOUND($,#122,.T.);
#69=FACE_OUTER_BOUND($,#123,.T.);
#70=FACE_OUTER_BOUND($,#124,.T.);
#71=FACE_OUTER_BOUND($,#125,.T.);
#72=FACE_OUTER_BOUND($,#126,.T.);
#73=FACE_OUTER_BOUND($,#127,.T.);
#74=FACE_OUTER_BOUND($,#128,.T.);
#75=FACE_OUTER_BOUND($,#129,.T.);
#76=FACE_OUTER_BOUND($,#130,.T.);
#77=FACE_OUTER_BOUND($,#131,.T.);
#78=FACE_OUTER_BOUND($,#132,.T.);
#79=FACE_OUTER_BOUND($,#133,.T.);
#80=FACE_OUTER_BOUND($,#134,.T.);
#81=FACE_OUTER_BOUND($,#135,.T.);
#82=FACE_OUTER_BOUND($,#136,.T.);
#83=FACE_OUTER_BOUND($,#138,.T.);
#84=FACE_OUTER_BOUND($,#139,.T.);
#85=FACE_OUTER_BOUND($,#140,.T.);
#86=FACE_OUTER_BOUND($,#141,.T.);
#87=FACE_OUTER_BOUND($,#143,.T.);
#88=EDGE_LOOP($,(#552,#553,#554,#555));
#89=EDGE_LOOP($,(#556,#557,#558,#559));
#90=EDGE_LOOP($,(#560,#561,#562,#563));
#91=EDGE_LOOP($,(#564,#565,#566,#567));
#92=EDGE_LOOP($,(#568,#569,#570,#571));
#93=EDGE_LOOP($,(#572,#573,#574,#575));
#94=EDGE_LOOP($,(#576,#577,#578,#579,#580,#581,#582,#583,#584,#585,#586,
#587,#588,#589,#590,#591,#592,#593,#594,#595));
#95=EDGE_LOOP($,(#596,#597,#598,#599));
#96=EDGE_LOOP($,(#600,#601,#602,#603,#604,#605,#606,#607,#608,#609,#610,
#611));
#97=EDGE_LOOP($,(#612,#613,#614,#615));
#98=EDGE_LOOP($,(#616,#617,#618,#619));
#99=EDGE_LOOP($,(#620,#621,#622,#623));
#100=EDGE_LOOP($,(#624,#625,#626,#627));
#101=EDGE_LOOP($,(#628,#629,#630,#631));
#102=EDGE_LOOP($,(#632,#633,#634,#635));
#103=EDGE_LOOP($,(#636,#637,#638,#639));
#104=EDGE_LOOP($,(#640,#641,#642,#643));
#105=EDGE_LOOP($,(#644,#645,#646,#647));
#106=EDGE_LOOP($,(#648,#649,#650,#651,#652,#653,#654,#655,#656,#657,#658,
#659,#660,#661));
#107=EDGE_LOOP($,(#662,#663,#664,#665));
#108=EDGE_LOOP($,(#666,#667,#668,#669));
#109=EDGE_LOOP($,(#670,#671,#672,#673));
#110=EDGE_LOOP($,(#674,#675,#676,#677,#678,#679));
#111=EDGE_LOOP($,(#680,#681,#682,#683,#684));
#112=EDGE_LOOP($,(#685));
#113=EDGE_LOOP($,(#686));
#114=EDGE_LOOP($,(#687));
#115=EDGE_LOOP($,(#688));
#116=EDGE_LOOP($,(#689,#690,#691,#692));
#117=EDGE_LOOP($,(#693,#694,#695,#696,#697,#698,#699));
#118=EDGE_LOOP($,(#700,#701,#702,#703));
#119=EDGE_LOOP($,(#704,#705,#706,#707));
#120=EDGE_LOOP($,(#708,#709,#710,#711));
#121=EDGE_LOOP($,(#712,#713,#714,#715));
#122=EDGE_LOOP($,(#716,#717,#718,#719));
#123=EDGE_LOOP($,(#720,#721,#722,#723));
#124=EDGE_LOOP($,(#724,#725,#726,#727));
#125=EDGE_LOOP($,(#728,#729,#730,#731));
#126=EDGE_LOOP($,(#732,#733,#734,#735));
#127=EDGE_LOOP($,(#736,#737,#738,#739));
#128=EDGE_LOOP($,(#740,#741,#742,#743));
#129=EDGE_LOOP($,(#744,#745,#746,#747));
#130=EDGE_LOOP($,(#748,#749,#750,#751));
#131=EDGE_LOOP($,(#752,#753,#754,#755));
#132=EDGE_LOOP($,(#756,#757,#758,#759));
#133=EDGE_LOOP($,(#760,#761,#762,#763));
#134=EDGE_LOOP($,(#764,#765,#766,#767));
#135=EDGE_LOOP($,(#768,#769,#770,#771));
#136=EDGE_LOOP($,(#772));
#137=EDGE_LOOP($,(#773));
#138=EDGE_LOOP($,(#774));
#139=EDGE_LOOP($,(#775));
#140=EDGE_LOOP($,(#776));
#141=EDGE_LOOP($,(#777));
#142=EDGE_LOOP($,(#778));
#143=EDGE_LOOP($,(#779));
#144=LINE($,#1182,#252);
#145=LINE($,#1184,#253);
#146=LINE($,#1186,#254);
#147=LINE($,#1187,#255);
#148=LINE($,#1190,#256);
#149=LINE($,#1192,#257);
#150=LINE($,#1193,#258);
#151=LINE($,#1196,#259);
#152=LINE($,#1198,#260);
#153=LINE($,#1199,#261);
#154=LINE($,#1201,#262);
#155=LINE($,#1203,#263);
#156=LINE($,#1208,#264);
#157=LINE($,#1210,#265);
#158=LINE($,#1212,#266);
#159=LINE($,#1214,#267);
#160=LINE($,#1216,#268);
#161=LINE($,#1218,#269);
#162=LINE($,#1220,#270);
#163=LINE($,#1222,#271);
#164=LINE($,#1224,#272);
#165=LINE($,#1226,#273);
#166=LINE($,#1228,#274);
#167=LINE($,#1230,#275);
#168=LINE($,#1232,#276);
#169=LINE($,#1234,#277);
#170=LINE($,#1236,#278);
#171=LINE($,#1238,#279);
#172=LINE($,#1240,#280);
#173=LINE($,#1242,#281);
#174=LINE($,#1244,#282);
#175=LINE($,#1245,#283);
#176=LINE($,#1248,#284);
#177=LINE($,#1250,#285);
#178=LINE($,#1251,#286);
#179=LINE($,#1254,#287);
#180=LINE($,#1256,#288);
#181=LINE($,#1257,#289);
#182=LINE($,#1259,#290);
#183=LINE($,#1260,#291);
#184=LINE($,#1262,#292);
#185=LINE($,#1264,#293);
#186=LINE($,#1265,#294);
#187=LINE($,#1268,#295);
#188=LINE($,#1269,#296);
#189=LINE($,#1272,#297);
#190=LINE($,#1273,#298);
#191=LINE($,#1275,#299);
#192=LINE($,#1278,#300);
#193=LINE($,#1279,#301);
#194=LINE($,#1283,#302);
#195=LINE($,#1285,#303);
#196=LINE($,#1287,#304);
#197=LINE($,#1288,#305);
#198=LINE($,#1293,#306);
#199=LINE($,#1295,#307);
#200=LINE($,#1297,#308);
#201=LINE($,#1298,#309);
#202=LINE($,#1300,#310);
#203=LINE($,#1303,#311);
#204=LINE($,#1304,#312);
#205=LINE($,#1306,#313);
#206=LINE($,#1308,#314);
#207=LINE($,#1310,#315);
#208=LINE($,#1312,#316);
#209=LINE($,#1313,#317);
#210=LINE($,#1314,#318);
#211=LINE($,#1315,#319);
#212=LINE($,#1317,#320);
#213=LINE($,#1319,#321);
#214=LINE($,#1323,#322);
#215=LINE($,#1325,#323);
#216=LINE($,#1326,#324);
#217=LINE($,#1329,#325);
#218=LINE($,#1331,#326);
#219=LINE($,#1332,#327);
#220=LINE($,#1341,#328);
#221=LINE($,#1342,#329);
#222=LINE($,#1345,#330);
#223=LINE($,#1346,#331);
#224=LINE($,#1347,#332);
#225=LINE($,#1349,#333);
#226=LINE($,#1353,#334);
#227=LINE($,#1355,#335);
#228=LINE($,#1360,#336);
#229=LINE($,#1362,#337);
#230=LINE($,#1364,#338);
#231=LINE($,#1365,#339);
#232=LINE($,#1369,#340);
#233=LINE($,#1370,#341);
#234=LINE($,#1371,#342);
#235=LINE($,#1374,#343);
#236=LINE($,#1375,#344);
#237=LINE($,#1378,#345);
#238=LINE($,#1379,#346);
#239=LINE($,#1381,#347);
#240=LINE($,#1386,#348);
#241=LINE($,#1388,#349);
#242=LINE($,#1390,#350);
#243=LINE($,#1391,#351);
#244=LINE($,#1395,#352);
#245=LINE($,#1397,#353);
#246=LINE($,#1399,#354);
#247=LINE($,#1400,#355);
#248=LINE($,#1402,#356);
#249=LINE($,#1403,#357);
#250=LINE($,#1405,#358);
#251=LINE($,#1407,#359);
#252=VECTOR($,#956,0.98);
#253=VECTOR($,#957,0.55);
#254=VECTOR($,#958,0.98);
#255=VECTOR($,#959,0.55);
#256=VECTOR($,#962,4.4);
#257=VECTOR($,#963,0.55);
#258=VECTOR($,#964,4.4);
#259=VECTOR($,#967,4.4);
#260=VECTOR($,#968,0.55);
#261=VECTOR($,#969,4.4);
#262=VECTOR($,#972,0.980000000000001);
#263=VECTOR($,#975,0.980000000000001);
#264=VECTOR($,#980,9.82);
#265=VECTOR($,#981,3.75);
#266=VECTOR($,#982,0.25);
#267=VECTOR($,#983,1.75);
#268=VECTOR($,#984,0.25);
#269=VECTOR($,#985,18.8);
#270=VECTOR($,#986,0.25);
#271=VECTOR($,#987,1.75);
#272=VECTOR($,#988,0.25);
#273=VECTOR($,#989,3.75);
#274=VECTOR($,#990,9.82);
#275=VECTOR($,#991,0.650000000000002);
#276=VECTOR($,#992,0.25);
#277=VECTOR($,#993,1.75);
#278=VECTOR($,#994,0.25);
#279=VECTOR($,#995,21.9);
#280=VECTOR($,#996,0.25);
#281=VECTOR($,#997,1.75);
#282=VECTOR($,#998,0.25);
#283=VECTOR($,#999,3.75);
#284=VECTOR($,#1002,0.6);
#285=VECTOR($,#1003,0.25);
#286=VECTOR($,#1004,0.6);
#287=VECTOR($,#1007,14.3);
#288=VECTOR($,#1008,29.8);
#289=VECTOR($,#1009,14.3);
#290=VECTOR($,#1010,1.75);
#291=VECTOR($,#1011,0.6);
#292=VECTOR($,#1012,0.6);
#293=VECTOR($,#1013,1.75);
#294=VECTOR($,#1014,0.6);
#295=VECTOR($,#1017,0.25);
#296=VECTOR($,#1018,0.6);
#297=VECTOR($,#1021,1.75);
#298=VECTOR($,#1022,0.6);
#299=VECTOR($,#1025,0.25);
#300=VECTOR($,#1028,1.75);
#301=VECTOR($,#1029,0.25);
#302=VECTOR($,#1032,1.75);
#303=VECTOR($,#1033,0.25);
#304=VECTOR($,#1034,1.75);
#305=VECTOR($,#1035,0.25);
#306=VECTOR($,#1040,0.25);
#307=VECTOR($,#1041,1.75);
#308=VECTOR($,#1042,0.25);
#309=VECTOR($,#1043,1.75);
#310=VECTOR($,#1046,0.6);
#311=VECTOR($,#1051,0.6);
#312=VECTOR($,#1052,0.6);
#313=VECTOR($,#1053,14.3);
#314=VECTOR($,#1054,27.8);
#315=VECTOR($,#1055,1.6);
#316=VECTOR($,#1056,2.);
#317=VECTOR($,#1057,12.7);
#318=VECTOR($,#1058,0.6);
#319=VECTOR($,#1059,0.6);
#320=VECTOR($,#1062,0.6);
#321=VECTOR($,#1065,0.6);
#322=VECTOR($,#1070,2.);
#323=VECTOR($,#1071,1.6);
#324=VECTOR($,#1072,7.82);
#325=VECTOR($,#1075,0.800000000000001);
#326=VECTOR($,#1076,0.8);
#327=VECTOR($,#1077,1.69705627484772);
#328=VECTOR($,#1088,0.800000000000001);
#329=VECTOR($,#1089,1.6);
#330=VECTOR($,#1092,0.8);
#331=VECTOR($,#1093,9.82);
#332=VECTOR($,#1094,1.69705627484772);
#333=VECTOR($,#1097,1.6);
#334=VECTOR($,#1104,0.6);
#335=VECTOR($,#1107,0.6);
#336=VECTOR($,#1112,0.55);
#337=VECTOR($,#1113,0.979999999999999);
#338=VECTOR($,#1114,0.55);
#339=VECTOR($,#1115,0.979999999999999);
#340=VECTOR($,#1118,0.55);
#341=VECTOR($,#1119,4.4);
#342=VECTOR($,#1120,4.4);
#343=VECTOR($,#1123,0.98);
#344=VECTOR($,#1124,4.4);
#345=VECTOR($,#1127,0.55);
#346=VECTOR($,#1128,4.4);
#347=VECTOR($,#1131,0.98);
#348=VECTOR($,#1136,0.55);
#349=VECTOR($,#1137,0.98);
#350=VECTOR($,#1138,0.55);
#351=VECTOR($,#1139,0.98);
#352=VECTOR($,#1142,0.55);
#353=VECTOR($,#1143,0.980000000000001);
#354=VECTOR($,#1144,0.55);
#355=VECTOR($,#1145,0.980000000000001);
#356=VECTOR($,#1148,4.4);
#357=VECTOR($,#1149,4.4);
#358=VECTOR($,#1152,4.4);
#359=VECTOR($,#1155,4.4);
#360=VERTEX_POINT($,#1180);
#361=VERTEX_POINT($,#1181);
#362=VERTEX_POINT($,#1183);
#363=VERTEX_POINT($,#1185);
#364=VERTEX_POINT($,#1189);
#365=VERTEX_POINT($,#1191);
#366=VERTEX_POINT($,#1195);
#367=VERTEX_POINT($,#1197);
#368=VERTEX_POINT($,#1206);
#369=VERTEX_POINT($,#1207);
#370=VERTEX_POINT($,#1209);
#371=VERTEX_POINT($,#1211);
#372=VERTEX_POINT($,#1213);
#373=VERTEX_POINT($,#1215);
#374=VERTEX_POINT($,#1217);
#375=VERTEX_POINT($,#1219);
#376=VERTEX_POINT($,#1221);
#377=VERTEX_POINT($,#1223);
#378=VERTEX_POINT($,#1225);
#379=VERTEX_POINT($,#1227);
#380=VERTEX_POINT($,#1229);
#381=VERTEX_POINT($,#1231);
#382=VERTEX_POINT($,#1233);
#383=VERTEX_POINT($,#1235);
#384=VERTEX_POINT($,#1237);
#385=VERTEX_POINT($,#1239);
#386=VERTEX_POINT($,#1241);
#387=VERTEX_POINT($,#1243);
#388=VERTEX_POINT($,#1247);
#389=VERTEX_POINT($,#1249);
#390=VERTEX_POINT($,#1253);
#391=VERTEX_POINT($,#1255);
#392=VERTEX_POINT($,#1258);
#393=VERTEX_POINT($,#1261);
#394=VERTEX_POINT($,#1263);
#395=VERTEX_POINT($,#1267);
#396=VERTEX_POINT($,#1271);
#397=VERTEX_POINT($,#1277);
#398=VERTEX_POINT($,#1281);
#399=VERTEX_POINT($,#1282);
#400=VERTEX_POINT($,#1284);
#401=VERTEX_POINT($,#1286);
#402=VERTEX_POINT($,#1291);
#403=VERTEX_POINT($,#1292);
#404=VERTEX_POINT($,#1294);
#405=VERTEX_POINT($,#1296);
#406=VERTEX_POINT($,#1305);
#407=VERTEX_POINT($,#1307);
#408=VERTEX_POINT($,#1309);
#409=VERTEX_POINT($,#1311);
#410=VERTEX_POINT($,#1322);
#411=VERTEX_POINT($,#1324);
#412=VERTEX_POINT($,#1328);
#413=VERTEX_POINT($,#1330);
#414=VERTEX_POINT($,#1333);
#415=VERTEX_POINT($,#1336);
#416=VERTEX_POINT($,#1340);
#417=VERTEX_POINT($,#1344);
#418=VERTEX_POINT($,#1358);
#419=VERTEX_POINT($,#1359);
#420=VERTEX_POINT($,#1361);
#421=VERTEX_POINT($,#1363);
#422=VERTEX_POINT($,#1367);
#423=VERTEX_POINT($,#1368);
#424=VERTEX_POINT($,#1373);
#425=VERTEX_POINT($,#1377);
#426=VERTEX_POINT($,#1384);
#427=VERTEX_POINT($,#1385);
#428=VERTEX_POINT($,#1387);
#429=VERTEX_POINT($,#1389);
#430=VERTEX_POINT($,#1393);
#431=VERTEX_POINT($,#1394);
#432=VERTEX_POINT($,#1396);
#433=VERTEX_POINT($,#1398);
#434=VERTEX_POINT($,#1410);
#435=VERTEX_POINT($,#1412);
#436=VERTEX_POINT($,#1417);
#437=VERTEX_POINT($,#1420);
#438=EDGE_CURVE($,#360,#361,#144,.T.);
#439=EDGE_CURVE($,#360,#362,#145,.T.);
#440=EDGE_CURVE($,#363,#362,#146,.T.);
#441=EDGE_CURVE($,#361,#363,#147,.T.);
#442=EDGE_CURVE($,#364,#360,#148,.T.);
#443=EDGE_CURVE($,#365,#364,#149,.T.);
#444=EDGE_CURVE($,#362,#365,#150,.T.);
#445=EDGE_CURVE($,#363,#366,#151,.T.);
#446=EDGE_CURVE($,#367,#366,#152,.T.);
#447=EDGE_CURVE($,#361,#367,#153,.T.);
#448=EDGE_CURVE($,#366,#365,#154,.T.);
#449=EDGE_CURVE($,#364,#367,#155,.T.);
#450=EDGE_CURVE($,#368,#369,#156,.T.);
#451=EDGE_CURVE($,#369,#370,#157,.T.);
#452=EDGE_CURVE($,#370,#371,#158,.T.);
#453=EDGE_CURVE($,#372,#371,#159,.T.);
#454=EDGE_CURVE($,#373,#372,#160,.T.);
#455=EDGE_CURVE($,#373,#374,#161,.T.);
#456=EDGE_CURVE($,#374,#375,#162,.T.);
#457=EDGE_CURVE($,#376,#375,#163,.T.);
#458=EDGE_CURVE($,#377,#376,#164,.T.);
#459=EDGE_CURVE($,#377,#378,#165,.T.);
#460=EDGE_CURVE($,#378,#379,#166,.T.);
#461=EDGE_CURVE($,#379,#380,#167,.T.);
#462=EDGE_CURVE($,#380,#381,#168,.T.);
#463=EDGE_CURVE($,#382,#381,#169,.T.);
#464=EDGE_CURVE($,#383,#382,#170,.T.);
#465=EDGE_CURVE($,#383,#384,#171,.T.);
#466=EDGE_CURVE($,#384,#385,#172,.T.);
#467=EDGE_CURVE($,#386,#385,#173,.T.);
#468=EDGE_CURVE($,#387,#386,#174,.T.);
#469=EDGE_CURVE($,#387,#368,#175,.T.);
#470=EDGE_CURVE($,#386,#388,#176,.T.);
#471=EDGE_CURVE($,#389,#388,#177,.T.);
#472=EDGE_CURVE($,#387,#389,#178,.T.);
#473=EDGE_CURVE($,#379,#390,#179,.T.);
#474=EDGE_CURVE($,#390,#391,#180,.T.);
#475=EDGE_CURVE($,#368,#391,#181,.T.);
#476=EDGE_CURVE($,#392,#389,#182,.T.);
#477=EDGE_CURVE($,#384,#392,#183,.T.);
#478=EDGE_CURVE($,#383,#393,#184,.T.);
#479=EDGE_CURVE($,#394,#393,#185,.T.);
#480=EDGE_CURVE($,#380,#394,#186,.T.);
#481=EDGE_CURVE($,#395,#394,#187,.T.);
#482=EDGE_CURVE($,#381,#395,#188,.T.);
#483=EDGE_CURVE($,#396,#395,#189,.T.);
#484=EDGE_CURVE($,#382,#396,#190,.T.);
#485=EDGE_CURVE($,#393,#396,#191,.T.);
#486=EDGE_CURVE($,#388,#397,#192,.T.);
#487=EDGE_CURVE($,#397,#392,#193,.T.);
#488=EDGE_CURVE($,#398,#399,#194,.T.);
#489=EDGE_CURVE($,#399,#400,#195,.T.);
#490=EDGE_CURVE($,#400,#401,#196,.T.);
#491=EDGE_CURVE($,#401,#398,#197,.T.);
#492=EDGE_CURVE($,#402,#403,#198,.T.);
#493=EDGE_CURVE($,#403,#404,#199,.T.);
#494=EDGE_CURVE($,#404,#405,#200,.T.);
#495=EDGE_CURVE($,#405,#402,#201,.T.);
#496=EDGE_CURVE($,#385,#397,#202,.T.);
#497=EDGE_CURVE($,#373,#399,#203,.T.);
#498=EDGE_CURVE($,#370,#398,#204,.T.);
#499=EDGE_CURVE($,#369,#406,#205,.T.);
#500=EDGE_CURVE($,#406,#407,#206,.T.);
#501=EDGE_CURVE($,#407,#408,#207,.T.);
#502=EDGE_CURVE($,#409,#408,#208,.T.);
#503=EDGE_CURVE($,#378,#409,#209,.T.);
#504=EDGE_CURVE($,#377,#402,#210,.T.);
#505=EDGE_CURVE($,#374,#405,#211,.T.);
#506=EDGE_CURVE($,#375,#404,#212,.T.);
#507=EDGE_CURVE($,#376,#403,#213,.T.);
#508=EDGE_CURVE($,#409,#410,#214,.T.);
#509=EDGE_CURVE($,#411,#410,#215,.T.);
#510=EDGE_CURVE($,#411,#390,#216,.T.);
#511=EDGE_CURVE($,#412,#410,#217,.T.);
#512=EDGE_CURVE($,#408,#413,#218,.T.);
#513=EDGE_CURVE($,#413,#412,#219,.T.);
#514=EDGE_CURVE($,#414,#414,#22,.T.);
#515=EDGE_CURVE($,#415,#415,#23,.T.);
#516=EDGE_CURVE($,#411,#416,#220,.T.);
#517=EDGE_CURVE($,#416,#412,#221,.T.);
#518=EDGE_CURVE($,#407,#417,#222,.T.);
#519=EDGE_CURVE($,#391,#406,#223,.T.);
#520=EDGE_CURVE($,#417,#416,#224,.T.);
#521=EDGE_CURVE($,#417,#413,#225,.T.);
#522=EDGE_CURVE($,#371,#401,#226,.T.);
#523=EDGE_CURVE($,#372,#400,#227,.T.);
#524=EDGE_CURVE($,#418,#419,#228,.T.);
#525=EDGE_CURVE($,#419,#420,#229,.T.);
#526=EDGE_CURVE($,#420,#421,#230,.T.);
#527=EDGE_CURVE($,#421,#418,#231,.T.);
#528=EDGE_CURVE($,#422,#423,#232,.T.);
#529=EDGE_CURVE($,#423,#419,#233,.T.);
#530=EDGE_CURVE($,#422,#418,#234,.T.);
#531=EDGE_CURVE($,#424,#422,#235,.T.);
#532=EDGE_CURVE($,#424,#421,#236,.T.);
#533=EDGE_CURVE($,#425,#424,#237,.T.);
#534=EDGE_CURVE($,#425,#420,#238,.T.);
#535=EDGE_CURVE($,#423,#425,#239,.T.);
#536=EDGE_CURVE($,#426,#427,#240,.T.);
#537=EDGE_CURVE($,#428,#426,#241,.T.);
#538=EDGE_CURVE($,#429,#428,#242,.T.);
#539=EDGE_CURVE($,#427,#429,#243,.T.);
#540=EDGE_CURVE($,#430,#431,#244,.T.);
#541=EDGE_CURVE($,#431,#432,#245,.T.);
#542=EDGE_CURVE($,#432,#433,#246,.T.);
#543=EDGE_CURVE($,#433,#430,#247,.T.);
#544=EDGE_CURVE($,#429,#432,#248,.T.);
#545=EDGE_CURVE($,#427,#431,#249,.T.);
#546=EDGE_CURVE($,#428,#433,#250,.T.);
#547=EDGE_CURVE($,#426,#430,#251,.T.);
#548=EDGE_CURVE($,#434,#434,#24,.T.);
#549=EDGE_CURVE($,#435,#435,#25,.T.);
#550=EDGE_CURVE($,#436,#436,#26,.T.);
#551=EDGE_CURVE($,#437,#437,#27,.T.);
#552=ORIENTED_EDGE($,*,*,#438,.F.);
#553=ORIENTED_EDGE($,*,*,#439,.T.);
#554=ORIENTED_EDGE($,*,*,#440,.F.);
#555=ORIENTED_EDGE($,*,*,#441,.F.);
#556=ORIENTED_EDGE($,*,*,#442,.F.);
#557=ORIENTED_EDGE($,*,*,#443,.F.);
#558=ORIENTED_EDGE($,*,*,#444,.F.);
#559=ORIENTED_EDGE($,*,*,#439,.F.);
#560=ORIENTED_EDGE($,*,*,#441,.T.);
#561=ORIENTED_EDGE($,*,*,#445,.T.);
#562=ORIENTED_EDGE($,*,*,#446,.F.);
#563=ORIENTED_EDGE($,*,*,#447,.F.);
#564=ORIENTED_EDGE($,*,*,#440,.T.);
#565=ORIENTED_EDGE($,*,*,#444,.T.);
#566=ORIENTED_EDGE($,*,*,#448,.F.);
#567=ORIENTED_EDGE($,*,*,#445,.F.);
#568=ORIENTED_EDGE($,*,*,#438,.T.);
#569=ORIENTED_EDGE($,*,*,#447,.T.);
#570=ORIENTED_EDGE($,*,*,#449,.F.);
#571=ORIENTED_EDGE($,*,*,#442,.T.);
#572=ORIENTED_EDGE($,*,*,#449,.T.);
#573=ORIENTED_EDGE($,*,*,#446,.T.);
#574=ORIENTED_EDGE($,*,*,#448,.T.);
#575=ORIENTED_EDGE($,*,*,#443,.T.);
#576=ORIENTED_EDGE($,*,*,#450,.T.);
#577=ORIENTED_EDGE($,*,*,#451,.T.);
#578=ORIENTED_EDGE($,*,*,#452,.T.);
#579=ORIENTED_EDGE($,*,*,#453,.F.);
#580=ORIENTED_EDGE($,*,*,#454,.F.);
#581=ORIENTED_EDGE($,*,*,#455,.T.);
#582=ORIENTED_EDGE($,*,*,#456,.T.);
#583=ORIENTED_EDGE($,*,*,#457,.F.);
#584=ORIENTED_EDGE($,*,*,#458,.F.);
#585=ORIENTED_EDGE($,*,*,#459,.T.);
#586=ORIENTED_EDGE($,*,*,#460,.T.);
#587=ORIENTED_EDGE($,*,*,#461,.T.);
#588=ORIENTED_EDGE($,*,*,#462,.T.);
#589=ORIENTED_EDGE($,*,*,#463,.F.);
#590=ORIENTED_EDGE($,*,*,#464,.F.);
#591=ORIENTED_EDGE($,*,*,#465,.T.);
#592=ORIENTED_EDGE($,*,*,#466,.T.);
#593=ORIENTED_EDGE($,*,*,#467,.F.);
#594=ORIENTED_EDGE($,*,*,#468,.F.);
#595=ORIENTED_EDGE($,*,*,#469,.T.);
#596=ORIENTED_EDGE($,*,*,#468,.T.);
#597=ORIENTED_EDGE($,*,*,#470,.T.);
#598=ORIENTED_EDGE($,*,*,#471,.F.);
#599=ORIENTED_EDGE($,*,*,#472,.F.);
#600=ORIENTED_EDGE($,*,*,#461,.F.);
#601=ORIENTED_EDGE($,*,*,#473,.T.);
#602=ORIENTED_EDGE($,*,*,#474,.T.);
#603=ORIENTED_EDGE($,*,*,#475,.F.);
#604=ORIENTED_EDGE($,*,*,#469,.F.);
#605=ORIENTED_EDGE($,*,*,#472,.T.);
#606=ORIENTED_EDGE($,*,*,#476,.F.);
#607=ORIENTED_EDGE($,*,*,#477,.F.);
#608=ORIENTED_EDGE($,*,*,#465,.F.);
#609=ORIENTED_EDGE($,*,*,#478,.T.);
#610=ORIENTED_EDGE($,*,*,#479,.F.);
#611=ORIENTED_EDGE($,*,*,#480,.F.);
#612=ORIENTED_EDGE($,*,*,#462,.F.);
#613=ORIENTED_EDGE($,*,*,#480,.T.);
#614=ORIENTED_EDGE($,*,*,#481,.F.);
#615=ORIENTED_EDGE($,*,*,#482,.F.);
#616=ORIENTED_EDGE($,*,*,#463,.T.);
#617=ORIENTED_EDGE($,*,*,#482,.T.);
#618=ORIENTED_EDGE($,*,*,#483,.F.);
#619=ORIENTED_EDGE($,*,*,#484,.F.);
#620=ORIENTED_EDGE($,*,*,#464,.T.);
#621=ORIENTED_EDGE($,*,*,#484,.T.);
#622=ORIENTED_EDGE($,*,*,#485,.F.);
#623=ORIENTED_EDGE($,*,*,#478,.F.);
#624=ORIENTED_EDGE($,*,*,#471,.T.);
#625=ORIENTED_EDGE($,*,*,#486,.T.);
#626=ORIENTED_EDGE($,*,*,#487,.T.);
#627=ORIENTED_EDGE($,*,*,#476,.T.);
#628=ORIENTED_EDGE($,*,*,#488,.T.);
#629=ORIENTED_EDGE($,*,*,#489,.T.);
#630=ORIENTED_EDGE($,*,*,#490,.T.);
#631=ORIENTED_EDGE($,*,*,#491,.T.);
#632=ORIENTED_EDGE($,*,*,#479,.T.);
#633=ORIENTED_EDGE($,*,*,#485,.T.);
#634=ORIENTED_EDGE($,*,*,#483,.T.);
#635=ORIENTED_EDGE($,*,*,#481,.T.);
#636=ORIENTED_EDGE($,*,*,#492,.T.);
#637=ORIENTED_EDGE($,*,*,#493,.T.);
#638=ORIENTED_EDGE($,*,*,#494,.T.);
#639=ORIENTED_EDGE($,*,*,#495,.T.);
#640=ORIENTED_EDGE($,*,*,#466,.F.);
#641=ORIENTED_EDGE($,*,*,#477,.T.);
#642=ORIENTED_EDGE($,*,*,#487,.F.);
#643=ORIENTED_EDGE($,*,*,#496,.F.);
#644=ORIENTED_EDGE($,*,*,#467,.T.);
#645=ORIENTED_EDGE($,*,*,#496,.T.);
#646=ORIENTED_EDGE($,*,*,#486,.F.);
#647=ORIENTED_EDGE($,*,*,#470,.F.);
#648=ORIENTED_EDGE($,*,*,#455,.F.);
#649=ORIENTED_EDGE($,*,*,#497,.T.);
#650=ORIENTED_EDGE($,*,*,#488,.F.);
#651=ORIENTED_EDGE($,*,*,#498,.F.);
#652=ORIENTED_EDGE($,*,*,#451,.F.);
#653=ORIENTED_EDGE($,*,*,#499,.T.);
#654=ORIENTED_EDGE($,*,*,#500,.T.);
#655=ORIENTED_EDGE($,*,*,#501,.T.);
#656=ORIENTED_EDGE($,*,*,#502,.F.);
#657=ORIENTED_EDGE($,*,*,#503,.F.);
#658=ORIENTED_EDGE($,*,*,#459,.F.);
#659=ORIENTED_EDGE($,*,*,#504,.T.);
#660=ORIENTED_EDGE($,*,*,#495,.F.);
#661=ORIENTED_EDGE($,*,*,#505,.F.);
#662=ORIENTED_EDGE($,*,*,#456,.F.);
#663=ORIENTED_EDGE($,*,*,#505,.T.);
#664=ORIENTED_EDGE($,*,*,#494,.F.);
#665=ORIENTED_EDGE($,*,*,#506,.F.);
#666=ORIENTED_EDGE($,*,*,#457,.T.);
#667=ORIENTED_EDGE($,*,*,#506,.T.);
#668=ORIENTED_EDGE($,*,*,#493,.F.);
#669=ORIENTED_EDGE($,*,*,#507,.F.);
#670=ORIENTED_EDGE($,*,*,#458,.T.);
#671=ORIENTED_EDGE($,*,*,#507,.T.);
#672=ORIENTED_EDGE($,*,*,#492,.F.);
#673=ORIENTED_EDGE($,*,*,#504,.F.);
#674=ORIENTED_EDGE($,*,*,#508,.T.);
#675=ORIENTED_EDGE($,*,*,#509,.F.);
#676=ORIENTED_EDGE($,*,*,#510,.T.);
#677=ORIENTED_EDGE($,*,*,#473,.F.);
#678=ORIENTED_EDGE($,*,*,#460,.F.);
#679=ORIENTED_EDGE($,*,*,#503,.T.);
#680=ORIENTED_EDGE($,*,*,#511,.T.);
#681=ORIENTED_EDGE($,*,*,#508,.F.);
#682=ORIENTED_EDGE($,*,*,#502,.T.);
#683=ORIENTED_EDGE($,*,*,#512,.T.);
#684=ORIENTED_EDGE($,*,*,#513,.T.);
#685=ORIENTED_EDGE($,*,*,#514,.T.);
#686=ORIENTED_EDGE($,*,*,#515,.F.);
#687=ORIENTED_EDGE($,*,*,#514,.F.);
#688=ORIENTED_EDGE($,*,*,#515,.T.);
#689=ORIENTED_EDGE($,*,*,#516,.F.);
#690=ORIENTED_EDGE($,*,*,#509,.T.);
#691=ORIENTED_EDGE($,*,*,#511,.F.);
#692=ORIENTED_EDGE($,*,*,#517,.F.);
#693=ORIENTED_EDGE($,*,*,#518,.F.);
#694=ORIENTED_EDGE($,*,*,#500,.F.);
#695=ORIENTED_EDGE($,*,*,#519,.F.);
#696=ORIENTED_EDGE($,*,*,#474,.F.);
#697=ORIENTED_EDGE($,*,*,#510,.F.);
#698=ORIENTED_EDGE($,*,*,#516,.T.);
#699=ORIENTED_EDGE($,*,*,#520,.F.);
#700=ORIENTED_EDGE($,*,*,#518,.T.);
#701=ORIENTED_EDGE($,*,*,#521,.T.);
#702=ORIENTED_EDGE($,*,*,#512,.F.);
#703=ORIENTED_EDGE($,*,*,#501,.F.);
#704=ORIENTED_EDGE($,*,*,#520,.T.);
#705=ORIENTED_EDGE($,*,*,#517,.T.);
#706=ORIENTED_EDGE($,*,*,#513,.F.);
#707=ORIENTED_EDGE($,*,*,#521,.F.);
#708=ORIENTED_EDGE($,*,*,#450,.F.);
#709=ORIENTED_EDGE($,*,*,#475,.T.);
#710=ORIENTED_EDGE($,*,*,#519,.T.);
#711=ORIENTED_EDGE($,*,*,#499,.F.);
#712=ORIENTED_EDGE($,*,*,#452,.F.);
#713=ORIENTED_EDGE($,*,*,#498,.T.);
#714=ORIENTED_EDGE($,*,*,#491,.F.);
#715=ORIENTED_EDGE($,*,*,#522,.F.);
#716=ORIENTED_EDGE($,*,*,#453,.T.);
#717=ORIENTED_EDGE($,*,*,#522,.T.);
#718=ORIENTED_EDGE($,*,*,#490,.F.);
#719=ORIENTED_EDGE($,*,*,#523,.F.);
#720=ORIENTED_EDGE($,*,*,#454,.T.);
#721=ORIENTED_EDGE($,*,*,#523,.T.);
#722=ORIENTED_EDGE($,*,*,#489,.F.);
#723=ORIENTED_EDGE($,*,*,#497,.F.);
#724=ORIENTED_EDGE($,*,*,#524,.T.);
#725=ORIENTED_EDGE($,*,*,#525,.T.);
#726=ORIENTED_EDGE($,*,*,#526,.T.);
#727=ORIENTED_EDGE($,*,*,#527,.T.);
#728=ORIENTED_EDGE($,*,*,#528,.T.);
#729=ORIENTED_EDGE($,*,*,#529,.T.);
#730=ORIENTED_EDGE($,*,*,#524,.F.);
#731=ORIENTED_EDGE($,*,*,#530,.F.);
#732=ORIENTED_EDGE($,*,*,#531,.T.);
#733=ORIENTED_EDGE($,*,*,#530,.T.);
#734=ORIENTED_EDGE($,*,*,#527,.F.);
#735=ORIENTED_EDGE($,*,*,#532,.F.);
#736=ORIENTED_EDGE($,*,*,#533,.T.);
#737=ORIENTED_EDGE($,*,*,#532,.T.);
#738=ORIENTED_EDGE($,*,*,#526,.F.);
#739=ORIENTED_EDGE($,*,*,#534,.F.);
#740=ORIENTED_EDGE($,*,*,#535,.T.);
#741=ORIENTED_EDGE($,*,*,#534,.T.);
#742=ORIENTED_EDGE($,*,*,#525,.F.);
#743=ORIENTED_EDGE($,*,*,#529,.F.);
#744=ORIENTED_EDGE($,*,*,#528,.F.);
#745=ORIENTED_EDGE($,*,*,#531,.F.);
#746=ORIENTED_EDGE($,*,*,#533,.F.);
#747=ORIENTED_EDGE($,*,*,#535,.F.);
#748=ORIENTED_EDGE($,*,*,#536,.F.);
#749=ORIENTED_EDGE($,*,*,#537,.F.);
#750=ORIENTED_EDGE($,*,*,#538,.F.);
#751=ORIENTED_EDGE($,*,*,#539,.F.);
#752=ORIENTED_EDGE($,*,*,#540,.T.);
#753=ORIENTED_EDGE($,*,*,#541,.T.);
#754=ORIENTED_EDGE($,*,*,#542,.T.);
#755=ORIENTED_EDGE($,*,*,#543,.T.);
#756=ORIENTED_EDGE($,*,*,#539,.T.);
#757=ORIENTED_EDGE($,*,*,#544,.T.);
#758=ORIENTED_EDGE($,*,*,#541,.F.);
#759=ORIENTED_EDGE($,*,*,#545,.F.);
#760=ORIENTED_EDGE($,*,*,#538,.T.);
#761=ORIENTED_EDGE($,*,*,#546,.T.);
#762=ORIENTED_EDGE($,*,*,#542,.F.);
#763=ORIENTED_EDGE($,*,*,#544,.F.);
#764=ORIENTED_EDGE($,*,*,#537,.T.);
#765=ORIENTED_EDGE($,*,*,#547,.T.);
#766=ORIENTED_EDGE($,*,*,#543,.F.);
#767=ORIENTED_EDGE($,*,*,#546,.F.);
#768=ORIENTED_EDGE($,*,*,#536,.T.);
#769=ORIENTED_EDGE($,*,*,#545,.T.);
#770=ORIENTED_EDGE($,*,*,#540,.F.);
#771=ORIENTED_EDGE($,*,*,#547,.F.);
#772=ORIENTED_EDGE($,*,*,#548,.T.);
#773=ORIENTED_EDGE($,*,*,#549,.F.);
#774=ORIENTED_EDGE($,*,*,#549,.T.);
#775=ORIENTED_EDGE($,*,*,#548,.F.);
#776=ORIENTED_EDGE($,*,*,#550,.T.);
#777=ORIENTED_EDGE($,*,*,#551,.T.);
#778=ORIENTED_EDGE($,*,*,#550,.F.);
#779=ORIENTED_EDGE($,*,*,#551,.F.);
#780=PLANE($,#894);
#781=PLANE($,#895);
#782=PLANE($,#896);
#783=PLANE($,#897);
#784=PLANE($,#898);
#785=PLANE($,#899);
#786=PLANE($,#900);
#787=PLANE($,#901);
#788=PLANE($,#902);
#789=PLANE($,#903);
#790=PLANE($,#904);
#791=PLANE($,#905);
#792=PLANE($,#906);
#793=PLANE($,#907);
#794=PLANE($,#908);
#795=PLANE($,#909);
#796=PLANE($,#910);
#797=PLANE($,#911);
#798=PLANE($,#912);
#799=PLANE($,#913);
#800=PLANE($,#914);
#801=PLANE($,#915);
#802=PLANE($,#916);
#803=PLANE($,#917);
#804=PLANE($,#921);
#805=PLANE($,#922);
#806=PLANE($,#923);
#807=PLANE($,#924);
#808=PLANE($,#925);
#809=PLANE($,#926);
#810=PLANE($,#927);
#811=PLANE($,#928);
#812=PLANE($,#929);
#813=PLANE($,#930);
#814=PLANE($,#931);
#815=PLANE($,#932);
#816=PLANE($,#933);
#817=PLANE($,#934);
#818=PLANE($,#935);
#819=PLANE($,#936);
#820=PLANE($,#937);
#821=PLANE($,#938);
#822=PLANE($,#939);
#823=PLANE($,#940);
#824=PLANE($,#941);
#825=PLANE($,#945);
#826=PLANE($,#946);
#827=PLANE($,#947);
#828=PLANE($,#951);
#829=ADVANCED_FACE($,(#36),#780,.T.);
#830=ADVANCED_FACE($,(#37),#781,.T.);
#831=ADVANCED_FACE($,(#38),#782,.T.);
#832=ADVANCED_FACE($,(#39),#783,.T.);
#833=ADVANCED_FACE($,(#40),#784,.T.);
#834=ADVANCED_FACE($,(#41),#785,.T.);
#835=ADVANCED_FACE($,(#42),#786,.T.);
#836=ADVANCED_FACE($,(#43),#787,.T.);
#837=ADVANCED_FACE($,(#44),#788,.T.);
#838=ADVANCED_FACE($,(#45),#789,.T.);
#839=ADVANCED_FACE($,(#46),#790,.T.);
#840=ADVANCED_FACE($,(#47),#791,.T.);
#841=ADVANCED_FACE($,(#48),#792,.T.);
#842=ADVANCED_FACE($,(#49),#793,.T.);
#843=ADVANCED_FACE($,(#50),#794,.T.);
#844=ADVANCED_FACE($,(#51),#795,.T.);
#845=ADVANCED_FACE($,(#52),#796,.T.);
#846=ADVANCED_FACE($,(#53),#797,.T.);
#847=ADVANCED_FACE($,(#54),#798,.T.);
#848=ADVANCED_FACE($,(#55),#799,.T.);
#849=ADVANCED_FACE($,(#56),#800,.T.);
#850=ADVANCED_FACE($,(#57),#801,.T.);
#851=ADVANCED_FACE($,(#58),#802,.T.);
#852=ADVANCED_FACE($,(#59,#18),#803,.T.);
#853=ADVANCED_FACE($,(#60,#19),#15,.T.);
#854=ADVANCED_FACE($,(#61),#804,.T.);
#855=ADVANCED_FACE($,(#62),#805,.F.);
#856=ADVANCED_FACE($,(#63),#806,.F.);
#857=ADVANCED_FACE($,(#64),#807,.F.);
#858=ADVANCED_FACE($,(#65),#808,.F.);
#859=ADVANCED_FACE($,(#66),#809,.T.);
#860=ADVANCED_FACE($,(#67),#810,.T.);
#861=ADVANCED_FACE($,(#68),#811,.T.);
#862=ADVANCED_FACE($,(#69),#812,.T.);
#863=ADVANCED_FACE($,(#70),#813,.T.);
#864=ADVANCED_FACE($,(#71),#814,.T.);
#865=ADVANCED_FACE($,(#72),#815,.T.);
#866=ADVANCED_FACE($,(#73),#816,.T.);
#867=ADVANCED_FACE($,(#74),#817,.T.);
#868=ADVANCED_FACE($,(#75),#818,.T.);
#869=ADVANCED_FACE($,(#76),#819,.T.);
#870=ADVANCED_FACE($,(#77),#820,.T.);
#871=ADVANCED_FACE($,(#78),#821,.T.);
#872=ADVANCED_FACE($,(#79),#822,.T.);
#873=ADVANCED_FACE($,(#80),#823,.T.);
#874=ADVANCED_FACE($,(#81),#824,.T.);
#875=ADVANCED_FACE($,(#82,#20),#16,.T.);
#876=ADVANCED_FACE($,(#83),#825,.T.);
#877=ADVANCED_FACE($,(#84),#826,.T.);
#878=ADVANCED_FACE($,(#85),#827,.T.);
#879=ADVANCED_FACE($,(#86,#21),#17,.T.);
#880=ADVANCED_FACE($,(#87),#828,.T.);
#881=CLOSED_SHELL($,(#829,#830,#831,#832,#833,#834));
#882=CLOSED_SHELL($,(#835,#836,#837,#838,#839,#840,#841,#842,#843,#844,
#845,#846,#847,#848,#849,#850,#851,#852,#853,#854,#855,#856,#857,#858,#859,
#860,#861,#862));
#883=CLOSED_SHELL($,(#863,#864,#865,#866,#867,#868));
#884=CLOSED_SHELL($,(#869,#870,#871,#872,#873,#874));
#885=CLOSED_SHELL($,(#875,#876,#877));
#886=CLOSED_SHELL($,(#878,#879,#880));
#887=MANIFOLD_SOLID_BREP('2373',#881);
#888=MANIFOLD_SOLID_BREP('2376',#882);
#889=MANIFOLD_SOLID_BREP('23A3',#883);
#890=MANIFOLD_SOLID_BREP('23C5',#884);
#891=MANIFOLD_SOLID_BREP('23D1',#885);
#892=MANIFOLD_SOLID_BREP('23E8',#886);
#893=AXIS2_PLACEMENT_3D('placement',#1178,#952,#953);
#894=AXIS2_PLACEMENT_3D($,#1179,#954,#955);
#895=AXIS2_PLACEMENT_3D($,#1188,#960,#961);
#896=AXIS2_PLACEMENT_3D($,#1194,#965,#966);
#897=AXIS2_PLACEMENT_3D($,#1200,#970,#971);
#898=AXIS2_PLACEMENT_3D($,#1202,#973,#974);
#899=AXIS2_PLACEMENT_3D($,#1204,#976,#977);
#900=AXIS2_PLACEMENT_3D($,#1205,#978,#979);
#901=AXIS2_PLACEMENT_3D($,#1246,#1000,#1001);
#902=AXIS2_PLACEMENT_3D($,#1252,#1005,#1006);
#903=AXIS2_PLACEMENT_3D($,#1266,#1015,#1016);
#904=AXIS2_PLACEMENT_3D($,#1270,#1019,#1020);
#905=AXIS2_PLACEMENT_3D($,#1274,#1023,#1024);
#906=AXIS2_PLACEMENT_3D($,#1276,#1026,#1027);
#907=AXIS2_PLACEMENT_3D($,#1280,#1030,#1031);
#908=AXIS2_PLACEMENT_3D($,#1289,#1036,#1037);
#909=AXIS2_PLACEMENT_3D($,#1290,#1038,#1039);
#910=AXIS2_PLACEMENT_3D($,#1299,#1044,#1045);
#911=AXIS2_PLACEMENT_3D($,#1301,#1047,#1048);
#912=AXIS2_PLACEMENT_3D($,#1302,#1049,#1050);
#913=AXIS2_PLACEMENT_3D($,#1316,#1060,#1061);
#914=AXIS2_PLACEMENT_3D($,#1318,#1063,#1064);
#915=AXIS2_PLACEMENT_3D($,#1320,#1066,#1067);
#916=AXIS2_PLACEMENT_3D($,#1321,#1068,#1069);
#917=AXIS2_PLACEMENT_3D($,#1327,#1073,#1074);
#918=AXIS2_PLACEMENT_3D($,#1334,#1078,#1079);
#919=AXIS2_PLACEMENT_3D($,#1335,#1080,#1081);
#920=AXIS2_PLACEMENT_3D($,#1337,#1082,#1083);
#921=AXIS2_PLACEMENT_3D($,#1338,#1084,#1085);
#922=AXIS2_PLACEMENT_3D($,#1339,#1086,#1087);
#923=AXIS2_PLACEMENT_3D($,#1343,#1090,#1091);
#924=AXIS2_PLACEMENT_3D($,#1348,#1095,#1096);
#925=AXIS2_PLACEMENT_3D($,#1350,#1098,#1099);
#926=AXIS2_PLACEMENT_3D($,#1351,#1100,#1101);
#927=AXIS2_PLACEMENT_3D($,#1352,#1102,#1103);
#928=AXIS2_PLACEMENT_3D($,#1354,#1105,#1106);
#929=AXIS2_PLACEMENT_3D($,#1356,#1108,#1109);
#930=AXIS2_PLACEMENT_3D($,#1357,#1110,#1111);
#931=AXIS2_PLACEMENT_3D($,#1366,#1116,#1117);
#932=AXIS2_PLACEMENT_3D($,#1372,#1121,#1122);
#933=AXIS2_PLACEMENT_3D($,#1376,#1125,#1126);
#934=AXIS2_PLACEMENT_3D($,#1380,#1129,#1130);
#935=AXIS2_PLACEMENT_3D($,#1382,#1132,#1133);
#936=AXIS2_PLACEMENT_3D($,#1383,#1134,#1135);
#937=AXIS2_PLACEMENT_3D($,#1392,#1140,#1141);
#938=AXIS2_PLACEMENT_3D($,#1401,#1146,#1147);
#939=AXIS2_PLACEMENT_3D($,#1404,#1150,#1151);
#940=AXIS2_PLACEMENT_3D($,#1406,#1153,#1154);
#941=AXIS2_PLACEMENT_3D($,#1408,#1156,#1157);
#942=AXIS2_PLACEMENT_3D($,#1409,#1158,#1159);
#943=AXIS2_PLACEMENT_3D($,#1411,#1160,#1161);
#944=AXIS2_PLACEMENT_3D($,#1413,#1162,#1163);
#945=AXIS2_PLACEMENT_3D($,#1414,#1164,#1165);
#946=AXIS2_PLACEMENT_3D($,#1415,#1166,#1167);
#947=AXIS2_PLACEMENT_3D($,#1416,#1168,#1169);
#948=AXIS2_PLACEMENT_3D($,#1418,#1170,#1171);
#949=AXIS2_PLACEMENT_3D($,#1419,#1172,#1173);
#950=AXIS2_PLACEMENT_3D($,#1421,#1174,#1175);
#951=AXIS2_PLACEMENT_3D($,#1422,#1176,#1177);
#952=DIRECTION('axis',(0.,0.,1.));
#953=DIRECTION('refdir',(1.,0.,0.));
#954=DIRECTION('center_axis',(0.,0.,1.));
#955=DIRECTION('ref_axis',(1.,0.,0.));
#956=DIRECTION($,(-1.,-1.22464679914735E-16,0.));
#957=DIRECTION($,(0.,1.,0.));
#958=DIRECTION($,(1.,1.22464679914735E-16,0.));
#959=DIRECTION($,(-1.22464679914735E-16,1.,0.));
#960=DIRECTION('center_axis',(1.,0.,0.));
#961=DIRECTION('ref_axis',(0.,-1.,0.));
#962=DIRECTION($,(0.,1.22464679914735E-16,1.));
#963=DIRECTION($,(0.,-1.,1.22464679914735E-16));
#964=DIRECTION($,(0.,-1.22464679914735E-16,-1.));
#965=DIRECTION('center_axis',(-1.,-1.22464679914735E-16,1.49975978266186E-32));
#966=DIRECTION('ref_axis',(0.,1.,-1.11022302462516E-16));
#967=DIRECTION($,(0.,-1.22464679914735E-16,-1.));
#968=DIRECTION($,(-1.22464679914735E-16,1.,-1.22464679914735E-16));
#969=DIRECTION($,(0.,-1.22464679914735E-16,-1.));
#970=DIRECTION('center_axis',(-1.22464679914735E-16,1.,-1.22464679914735E-16));
#971=DIRECTION('ref_axis',(1.,0.,0.));
#972=DIRECTION($,(1.,1.22464679914735E-16,-1.49975978266186E-32));
#973=DIRECTION('center_axis',(1.22464679914735E-16,-1.,1.22464679914735E-16));
#974=DIRECTION('ref_axis',(-1.,0.,0.));
#975=DIRECTION($,(-1.,-1.22464679914735E-16,1.49975978266186E-32));
#976=DIRECTION('center_axis',(0.,-1.22464679914735E-16,-1.));
#977=DIRECTION('ref_axis',(1.,1.11022302462516E-16,0.));
#978=DIRECTION('center_axis',(0.,-1.22464679914735E-16,-1.));
#979=DIRECTION('ref_axis',(1.,1.22464685258517E-16,0.));
#980=DIRECTION($,(-1.22464679914735E-16,1.,-1.22464679914735E-16));
#981=DIRECTION($,(1.,1.22464679914735E-16,-1.49975978266186E-32));
#982=DIRECTION($,(1.22464679914735E-16,-1.,1.22464679914735E-16));
#983=DIRECTION($,(-1.,-1.22464679914735E-16,1.49975978266186E-32));
#984=DIRECTION($,(1.22464679914735E-16,-1.,1.22464679914735E-16));
#985=DIRECTION($,(1.,1.22464679914735E-16,-1.49975978266186E-32));
#986=DIRECTION($,(1.22464679914735E-16,-1.,1.22464679914735E-16));
#987=DIRECTION($,(-1.,-1.22464679914735E-16,1.49975978266186E-32));
#988=DIRECTION($,(1.22464679914735E-16,-1.,1.22464679914735E-16));
#989=DIRECTION($,(1.,1.22464679914735E-16,-1.49975978266186E-32));
#990=DIRECTION($,(1.22464679914735E-16,-1.,1.22464679914735E-16));
#991=DIRECTION($,(-1.,-1.22464679914735E-16,1.49975978266186E-32));
#992=DIRECTION($,(-1.22464679914735E-16,1.,-1.22464679914735E-16));
#993=DIRECTION($,(1.,1.22464679914735E-16,-1.49975978266186E-32));
#994=DIRECTION($,(-1.22464679914735E-16,1.,-1.22464679914735E-16));
#995=DIRECTION($,(-1.,-1.22464679914735E-16,1.49975978266186E-32));
#996=DIRECTION($,(-1.22464679914735E-16,1.,-1.22464679914735E-16));
#997=DIRECTION($,(1.,1.22464679914735E-16,-1.49975978266186E-32));
#998=DIRECTION($,(-1.22464679914735E-16,1.,-1.22464679914735E-16));
#999=DIRECTION($,(-1.,-1.22464679914735E-16,1.49975978266186E-32));
#1000=DIRECTION('center_axis',(-1.,-1.22464679914735E-16,1.49975978266186E-32));
#1001=DIRECTION('ref_axis',(0.,1.,-1.11022302462516E-16));
#1002=DIRECTION($,(0.,-1.22464679914735E-16,-1.));
#1003=DIRECTION($,(-1.22464679914735E-16,1.,-1.22464679914735E-16));
#1004=DIRECTION($,(0.,-1.22464679914735E-16,-1.));
#1005=DIRECTION('center_axis',(1.22464679914735E-16,-1.,1.22464679914735E-16));
#1006=DIRECTION('ref_axis',(-1.,0.,0.));
#1007=DIRECTION($,(0.,1.22464679914735E-16,1.));
#1008=DIRECTION($,(-1.,-1.22464679914735E-16,1.49975978266186E-32));
#1009=DIRECTION($,(0.,1.22464679914735E-16,1.));
#1010=DIRECTION($,(-1.,-1.22464679914735E-16,1.49975978266186E-32));
#1011=DIRECTION($,(0.,-1.22464679914735E-16,-1.));
#1012=DIRECTION($,(0.,-1.22464679914735E-16,-1.));
#1013=DIRECTION($,(-1.,-1.22464679914735E-16,1.49975978266186E-32));
#1014=DIRECTION($,(0.,-1.22464679914735E-16,-1.));
#1015=DIRECTION('center_axis',(1.,1.22464679914735E-16,-1.49975978266186E-32));
#1016=DIRECTION('ref_axis',(0.,-1.,1.11022302462516E-16));
#1017=DIRECTION($,(1.22464679914735E-16,-1.,1.22464679914735E-16));
#1018=DIRECTION($,(0.,-1.22464679914735E-16,-1.));
#1019=DIRECTION('center_axis',(-1.22464679914735E-16,1.,-1.22464679914735E-16));
#1020=DIRECTION('ref_axis',(1.,0.,0.));
#1021=DIRECTION($,(1.,1.22464679914735E-16,-1.49975978266186E-32));
#1022=DIRECTION($,(0.,-1.22464679914735E-16,-1.));
#1023=DIRECTION('center_axis',(-1.,-1.22464679914735E-16,1.49975978266186E-32));
#1024=DIRECTION('ref_axis',(0.,1.,-1.11022302462516E-16));
#1025=DIRECTION($,(-1.22464679914735E-16,1.,-1.22464679914735E-16));
#1026=DIRECTION('center_axis',(0.,-1.22464679914735E-16,-1.));
#1027=DIRECTION('ref_axis',(1.,1.22464685258517E-16,-2.46519032881566E-32));
#1028=DIRECTION($,(1.,1.22464679914735E-16,-1.49975978266186E-32));
#1029=DIRECTION($,(1.22464679914735E-16,-1.,1.22464679914735E-16));
#1030=DIRECTION('center_axis',(0.,-1.22464679914735E-16,-1.));
#1031=DIRECTION('ref_axis',(1.,1.22464685258517E-16,-2.46519032881566E-32));
#1032=DIRECTION($,(1.,1.22464679914735E-16,-1.49975978266186E-32));
#1033=DIRECTION($,(1.22464679914735E-16,-1.,1.22464679914735E-16));
#1034=DIRECTION($,(-1.,-1.22464679914735E-16,1.49975978266186E-32));
#1035=DIRECTION($,(-1.22464679914735E-16,1.,-1.22464679914735E-16));
#1036=DIRECTION('center_axis',(0.,-1.22464679914735E-16,-1.));
#1037=DIRECTION('ref_axis',(1.,1.22464685258517E-16,-2.46519032881566E-32));
#1038=DIRECTION('center_axis',(0.,-1.22464679914735E-16,-1.));
#1039=DIRECTION('ref_axis',(1.,1.22464685258517E-16,-2.46519032881566E-32));
#1040=DIRECTION($,(1.22464679914735E-16,-1.,1.22464679914735E-16));
#1041=DIRECTION($,(-1.,-1.22464679914735E-16,1.49975978266186E-32));
#1042=DIRECTION($,(-1.22464679914735E-16,1.,-1.22464679914735E-16));
#1043=DIRECTION($,(1.,1.22464679914735E-16,-1.49975978266186E-32));
#1044=DIRECTION('center_axis',(1.,1.22464679914735E-16,-1.49975978266186E-32));
#1045=DIRECTION('ref_axis',(0.,-1.,1.11022302462516E-16));
#1046=DIRECTION($,(0.,-1.22464679914735E-16,-1.));
#1047=DIRECTION('center_axis',(-1.22464679914735E-16,1.,-1.22464679914735E-16));
#1048=DIRECTION('ref_axis',(1.,0.,0.));
#1049=DIRECTION('center_axis',(-1.22464679914735E-16,1.,-1.22464679914735E-16));
#1050=DIRECTION('ref_axis',(1.,0.,0.));
#1051=DIRECTION($,(0.,-1.22464679914735E-16,-1.));
#1052=DIRECTION($,(0.,-1.22464679914735E-16,-1.));
#1053=DIRECTION($,(0.,1.22464679914735E-16,1.));
#1054=DIRECTION($,(1.,1.22464679914735E-16,-1.49975978266186E-32));
#1055=DIRECTION($,(0.,-1.22464679914735E-16,-1.));
#1056=DIRECTION($,(-1.,-1.22464679914735E-16,1.49975978266186E-32));
#1057=DIRECTION($,(0.,1.22464679914735E-16,1.));
#1058=DIRECTION($,(0.,-1.22464679914735E-16,-1.));
#1059=DIRECTION($,(0.,-1.22464679914735E-16,-1.));
#1060=DIRECTION('center_axis',(-1.,-1.22464679914735E-16,1.49975978266186E-32));
#1061=DIRECTION('ref_axis',(0.,1.,-1.11022302462516E-16));
#1062=DIRECTION($,(0.,-1.22464679914735E-16,-1.));
#1063=DIRECTION('center_axis',(1.22464679914735E-16,-1.,1.22464679914735E-16));
#1064=DIRECTION('ref_axis',(-1.,0.,0.));
#1065=DIRECTION($,(0.,-1.22464679914735E-16,-1.));
#1066=DIRECTION('center_axis',(1.,1.22464679914735E-16,-1.49975978266186E-32));
#1067=DIRECTION('ref_axis',(0.,-1.,1.11022302462516E-16));
#1068=DIRECTION('center_axis',(1.,1.22464679914735E-16,-1.49975978266186E-32));
#1069=DIRECTION('ref_axis',(0.,-1.,1.11022302462516E-16));
#1070=DIRECTION($,(1.22464679914735E-16,-1.,1.22464679914735E-16));
#1071=DIRECTION($,(0.,-1.22464679914735E-16,-1.));
#1072=DIRECTION($,(1.22464679914735E-16,-1.,1.22464679914735E-16));
#1073=DIRECTION('center_axis',(0.,1.22464679914735E-16,1.));
#1074=DIRECTION('ref_axis',(-1.,-1.22464685258517E-16,0.));
#1075=DIRECTION($,(1.,1.22464679914735E-16,-1.49975978266186E-32));
#1076=DIRECTION($,(1.22464679914735E-16,-1.,1.22464679914735E-16));
#1077=DIRECTION($,(0.707106781186548,-0.707106781186547,8.65956056235493E-17));
#1078=DIRECTION('center_axis',(0.,-1.22464679914735E-16,-1.));
#1079=DIRECTION('ref_axis',(-1.,-1.22464679914735E-16,1.49975978266186E-32));
#1080=DIRECTION('center_axis',(0.,1.22464679914735E-16,1.));
#1081=DIRECTION('ref_axis',(-1.,-1.22464679914735E-16,1.49975978266186E-32));
#1082=DIRECTION('center_axis',(0.,1.22464679914735E-16,1.));
#1083=DIRECTION('ref_axis',(1.,1.22464679914735E-16,-1.49975978266186E-32));
#1084=DIRECTION('center_axis',(0.,1.22464679914735E-16,1.));
#1085=DIRECTION('ref_axis',(-1.22464658788737E-16,1.,0.));
#1086=DIRECTION('center_axis',(1.22464679914735E-16,-1.,1.22464679914735E-16));
#1087=DIRECTION('ref_axis',(1.,0.,0.));
#1088=DIRECTION($,(-1.,-1.22464679914735E-16,1.49975978266186E-32));
#1089=DIRECTION($,(0.,-1.22464679914735E-16,-1.));
#1090=DIRECTION('center_axis',(0.,-1.22464679914735E-16,-1.));
#1091=DIRECTION('ref_axis',(1.,1.22464685258517E-16,0.));
#1092=DIRECTION($,(1.22464679914735E-16,-1.,1.22464679914735E-16));
#1093=DIRECTION($,(-1.22464679914735E-16,1.,-1.22464679914735E-16));
#1094=DIRECTION($,(0.707106781186548,-0.707106781186547,8.65956056235493E-17));
#1095=DIRECTION('center_axis',(-1.,-1.22464679914735E-16,1.49975978266186E-32));
#1096=DIRECTION('ref_axis',(0.,-1.,0.));
#1097=DIRECTION($,(0.,-1.22464679914735E-16,-1.));
#1098=DIRECTION('center_axis',(-0.707106781186547,-0.707106781186548,8.65956056235493E-17));
#1099=DIRECTION('ref_axis',(0.707106781186548,-0.707106781186547,0.));
#1100=DIRECTION('center_axis',(-1.,-1.22464679914735E-16,1.49975978266186E-32));
#1101=DIRECTION('ref_axis',(0.,1.,-1.11022302462516E-16));
#1102=DIRECTION('center_axis',(-1.,-1.22464679914735E-16,1.49975978266186E-32));
#1103=DIRECTION('ref_axis',(0.,1.,-1.11022302462516E-16));
#1104=DIRECTION($,(0.,-1.22464679914735E-16,-1.));
#1105=DIRECTION('center_axis',(1.22464679914735E-16,-1.,1.22464679914735E-16));
#1106=DIRECTION('ref_axis',(-1.,0.,0.));
#1107=DIRECTION($,(0.,-1.22464679914735E-16,-1.));
#1108=DIRECTION('center_axis',(1.,1.22464679914735E-16,-1.49975978266186E-32));
#1109=DIRECTION('ref_axis',(0.,-1.,1.11022302462516E-16));
#1110=DIRECTION('center_axis',(0.,-1.22464679914735E-16,-1.));
#1111=DIRECTION('ref_axis',(1.,1.11022302462516E-16,0.));
#1112=DIRECTION($,(-1.22464679914735E-16,1.,-1.22464679914735E-16));
#1113=DIRECTION($,(1.,1.22464679914735E-16,-1.49975978266186E-32));
#1114=DIRECTION($,(1.22464679914735E-16,-1.,1.22464679914735E-16));
#1115=DIRECTION($,(-1.,-1.22464679914735E-16,1.49975978266186E-32));
#1116=DIRECTION('center_axis',(-1.,-1.22464679914735E-16,1.49975978266186E-32));
#1117=DIRECTION('ref_axis',(0.,1.,-1.11022302462516E-16));
#1118=DIRECTION($,(-1.22464679914735E-16,1.,0.));
#1119=DIRECTION($,(0.,-1.22464679914735E-16,-1.));
#1120=DIRECTION($,(0.,-1.22464679914735E-16,-1.));
#1121=DIRECTION('center_axis',(1.22464679914735E-16,-1.,1.22464679914735E-16));
#1122=DIRECTION('ref_axis',(-1.,0.,0.));
#1123=DIRECTION($,(-1.,-1.22464679914735E-16,0.));
#1124=DIRECTION($,(0.,-1.22464679914735E-16,-1.));
#1125=DIRECTION('center_axis',(1.,1.22464679914735E-16,-1.49975978266186E-32));
#1126=DIRECTION('ref_axis',(0.,-1.,1.11022302462516E-16));
#1127=DIRECTION($,(1.22464679914735E-16,-1.,0.));
#1128=DIRECTION($,(0.,-1.22464679914735E-16,-1.));
#1129=DIRECTION('center_axis',(-1.22464679914735E-16,1.,-1.22464679914735E-16));
#1130=DIRECTION('ref_axis',(1.,0.,0.));
#1131=DIRECTION($,(1.,1.22464679914735E-16,0.));
#1132=DIRECTION('center_axis',(0.,0.,1.));
#1133=DIRECTION('ref_axis',(1.,0.,0.));
#1134=DIRECTION('center_axis',(0.,0.,1.));
#1135=DIRECTION('ref_axis',(1.,0.,0.));
#1136=DIRECTION($,(-1.22464679914735E-16,1.,0.));
#1137=DIRECTION($,(-1.,-1.22464679914735E-16,0.));
#1138=DIRECTION($,(1.22464679914735E-16,-1.,0.));
#1139=DIRECTION($,(1.,1.22464679914735E-16,0.));
#1140=DIRECTION('center_axis',(0.,-1.22464679914735E-16,-1.));
#1141=DIRECTION('ref_axis',(1.,1.11022302462516E-16,0.));
#1142=DIRECTION($,(-1.22464679914735E-16,1.,-1.22464679914735E-16));
#1143=DIRECTION($,(1.,1.22464679914735E-16,-1.49975978266186E-32));
#1144=DIRECTION($,(1.22464679914735E-16,-1.,1.22464679914735E-16));
#1145=DIRECTION($,(-1.,-1.22464679914735E-16,1.49975978266186E-32));
#1146=DIRECTION('center_axis',(-1.22464679914735E-16,1.,-1.22464679914735E-16));
#1147=DIRECTION('ref_axis',(1.,0.,0.));
#1148=DIRECTION($,(0.,-1.22464679914735E-16,-1.));
#1149=DIRECTION($,(0.,-1.22464679914735E-16,-1.));
#1150=DIRECTION('center_axis',(1.,1.22464679914735E-16,-1.49975978266186E-32));
#1151=DIRECTION('ref_axis',(0.,-1.,1.11022302462516E-16));
#1152=DIRECTION($,(0.,-1.22464679914735E-16,-1.));
#1153=DIRECTION('center_axis',(1.22464679914735E-16,-1.,1.22464679914735E-16));
#1154=DIRECTION('ref_axis',(-1.,0.,0.));
#1155=DIRECTION($,(0.,-1.22464679914735E-16,-1.));
#1156=DIRECTION('center_axis',(-1.,-1.22464679914735E-16,1.49975978266186E-32));
#1157=DIRECTION('ref_axis',(0.,1.,-1.11022302462516E-16));
#1158=DIRECTION('center_axis',(0.,-1.22464679914735E-16,-1.));
#1159=DIRECTION('ref_axis',(1.,1.22464679914735E-16,-1.49975978266186E-32));
#1160=DIRECTION('center_axis',(0.,0.,-1.));
#1161=DIRECTION('ref_axis',(1.,1.22464679914735E-16,-1.49975978266186E-32));
#1162=DIRECTION('center_axis',(0.,-1.22464679914735E-16,-1.));
#1163=DIRECTION('ref_axis',(1.,1.22464679914735E-16,-1.49975978266186E-32));
#1164=DIRECTION('center_axis',(0.,-1.22464679914735E-16,-1.));
#1165=DIRECTION('ref_axis',(1.,1.11022302462516E-16,0.));
#1166=DIRECTION('center_axis',(0.,0.,1.));
#1167=DIRECTION('ref_axis',(1.,0.,0.));
#1168=DIRECTION('center_axis',(0.,-1.22464679914735E-16,-1.));
#1169=DIRECTION('ref_axis',(1.,1.11022302462516E-16,0.));
#1170=DIRECTION('center_axis',(0.,-1.22464679914735E-16,-1.));
#1171=DIRECTION('ref_axis',(1.,1.22464679914735E-16,-1.49975978266186E-32));
#1172=DIRECTION('center_axis',(0.,-1.22464679914735E-16,-1.));
#1173=DIRECTION('ref_axis',(1.,1.22464679914735E-16,-1.49975978266186E-32));
#1174=DIRECTION('center_axis',(0.,0.,-1.));
#1175=DIRECTION('ref_axis',(1.,1.22464679914735E-16,-1.49975978266186E-32));
#1176=DIRECTION('center_axis',(0.,0.,1.));
#1177=DIRECTION('ref_axis',(1.,0.,0.));
#1178=CARTESIAN_POINT('',(0.,0.,0.));
#1179=CARTESIAN_POINT('Origin',(6.94499966251891,2.10713490723979,0.6));
#1180=CARTESIAN_POINT('',(13.8899996625189,3.51463490723979,0.6));
#1181=CARTESIAN_POINT('',(12.9099996625189,3.51463490723979,0.6));
#1182=CARTESIAN_POINT($,(10.4174996625189,3.51463490723979,0.6));
#1183=CARTESIAN_POINT('',(13.8899996625189,4.06463490723979,0.6));
#1184=CARTESIAN_POINT($,(13.8899996625189,0.149634907239789,0.6));
#1185=CARTESIAN_POINT('',(12.9099996625189,4.06463490723979,0.6));
#1186=CARTESIAN_POINT($,(9.92749966251892,4.06463490723979,0.6));
#1187=CARTESIAN_POINT($,(12.9099996625189,2.81088490723979,0.6));
#1188=CARTESIAN_POINT('Origin',(13.8899996625189,4.06463490723979,0.6));
#1189=CARTESIAN_POINT('',(13.8899996625189,3.51463490723979,-3.8));
#1190=CARTESIAN_POINT($,(13.8899996625189,3.51463490723979,0.6));
#1191=CARTESIAN_POINT('',(13.8899996625189,4.06463490723979,-3.8));
#1192=CARTESIAN_POINT($,(13.8899996625189,2.10713490723979,-3.8));
#1193=CARTESIAN_POINT($,(13.8899996625189,4.06463490723979,0.6));
#1194=CARTESIAN_POINT('Origin',(12.9099996625189,3.51463490723979,0.6));
#1195=CARTESIAN_POINT('',(12.9099996625189,4.06463490723979,-3.8));
#1196=CARTESIAN_POINT($,(12.9099996625189,4.06463490723979,0.6));
#1197=CARTESIAN_POINT('',(12.9099996625189,3.51463490723979,-3.8));
#1198=CARTESIAN_POINT($,(12.9099996625189,3.51463490723979,-3.8));
#1199=CARTESIAN_POINT($,(12.9099996625189,3.51463490723979,0.6));
#1200=CARTESIAN_POINT('Origin',(12.9099996625189,4.06463490723979,0.6));
#1201=CARTESIAN_POINT($,(12.9099996625189,4.06463490723979,-3.8));
#1202=CARTESIAN_POINT('Origin',(13.8899996625189,3.51463490723979,0.6));
#1203=CARTESIAN_POINT($,(13.8899996625189,3.51463490723979,-3.8));
#1204=CARTESIAN_POINT('Origin',(-3.3748109018461E-7,0.149634907239789,-3.8));
#1205=CARTESIAN_POINT('Origin',(-3.7326848456587E-7,-9.82998582532702E-8,
0.6));
#1206=CARTESIAN_POINT('',(-14.9000003732685,-4.91000009829986,0.6));
#1207=CARTESIAN_POINT('',(-14.9000003732685,4.90999990170014,0.599999999999999));
#1208=CARTESIAN_POINT($,(-14.9000003732685,-4.91000009829986,0.6));
#1209=CARTESIAN_POINT('',(-11.1500003732685,4.90999990170014,0.599999999999999));
#1210=CARTESIAN_POINT($,(-14.9000003732685,4.90999990170014,0.599999999999999));
#1211=CARTESIAN_POINT('',(-11.1500003732685,4.65999990170014,0.599999999999999));
#1212=CARTESIAN_POINT($,(-11.1500003732685,4.90999990170014,0.599999999999999));
#1213=CARTESIAN_POINT('',(-9.40000037326848,4.65999990170014,0.599999999999999));
#1214=CARTESIAN_POINT($,(-9.40000037326848,4.65999990170014,0.599999999999999));
#1215=CARTESIAN_POINT('',(-9.40000037326848,4.90999990170014,0.599999999999999));
#1216=CARTESIAN_POINT($,(-9.40000037326848,4.90999990170014,0.599999999999999));
#1217=CARTESIAN_POINT('',(9.39999962673152,4.90999990170014,0.599999999999999));
#1218=CARTESIAN_POINT($,(-9.40000037326848,4.90999990170014,0.599999999999999));
#1219=CARTESIAN_POINT('',(9.39999962673152,4.65999990170014,0.599999999999999));
#1220=CARTESIAN_POINT($,(9.39999962673152,4.90999990170014,0.599999999999999));
#1221=CARTESIAN_POINT('',(11.1499996267315,4.65999990170014,0.599999999999999));
#1222=CARTESIAN_POINT($,(11.1499996267315,4.65999990170014,0.599999999999999));
#1223=CARTESIAN_POINT('',(11.1499996267315,4.90999990170014,0.599999999999999));
#1224=CARTESIAN_POINT($,(11.1499996267315,4.90999990170014,0.599999999999999));
#1225=CARTESIAN_POINT('',(14.8999996267315,4.90999990170014,0.599999999999999));
#1226=CARTESIAN_POINT($,(11.1499996267315,4.90999990170014,0.599999999999999));
#1227=CARTESIAN_POINT('',(14.8999996267315,-4.91000009829986,0.6));
#1228=CARTESIAN_POINT($,(14.8999996267315,4.90999990170014,0.599999999999999));
#1229=CARTESIAN_POINT('',(14.2499996267315,-4.91000009829986,0.6));
#1230=CARTESIAN_POINT($,(14.8999996267315,-4.91000009829986,0.6));
#1231=CARTESIAN_POINT('',(14.2499996267315,-4.66000009829986,0.6));
#1232=CARTESIAN_POINT($,(14.2499996267315,-4.91000009829986,0.6));
#1233=CARTESIAN_POINT('',(12.4999996267315,-4.66000009829986,0.6));
#1234=CARTESIAN_POINT($,(12.4999996267315,-4.66000009829986,0.6));
#1235=CARTESIAN_POINT('',(12.4999996267315,-4.91000009829986,0.6));
#1236=CARTESIAN_POINT($,(12.4999996267315,-4.91000009829986,0.6));
#1237=CARTESIAN_POINT('',(-9.40000037326848,-4.91000009829986,0.6));
#1238=CARTESIAN_POINT($,(12.4999996267315,-4.91000009829986,0.6));
#1239=CARTESIAN_POINT('',(-9.40000037326848,-4.66000009829986,0.6));
#1240=CARTESIAN_POINT($,(-9.40000037326848,-4.91000009829986,0.6));
#1241=CARTESIAN_POINT('',(-11.1500003732685,-4.66000009829986,0.6));
#1242=CARTESIAN_POINT($,(-11.1500003732685,-4.66000009829986,0.6));
#1243=CARTESIAN_POINT('',(-11.1500003732685,-4.91000009829986,0.6));
#1244=CARTESIAN_POINT($,(-11.1500003732685,-4.91000009829986,0.6));
#1245=CARTESIAN_POINT($,(-11.1500003732685,-4.91000009829986,0.6));
#1246=CARTESIAN_POINT('Origin',(-11.1500003732685,-4.91000009829986,0.6));
#1247=CARTESIAN_POINT('',(-11.1500003732685,-4.66000009829986,4.44089209850063E-16));
#1248=CARTESIAN_POINT($,(-11.1500003732685,-4.66000009829986,0.6));
#1249=CARTESIAN_POINT('',(-11.1500003732685,-4.91000009829986,4.44089209850063E-16));
#1250=CARTESIAN_POINT($,(-11.1500003732685,-4.91000009829986,4.44089209850063E-16));
#1251=CARTESIAN_POINT($,(-11.1500003732685,-4.91000009829986,0.6));
#1252=CARTESIAN_POINT('Origin',(14.8999996267315,-4.91000009829986,0.6));
#1253=CARTESIAN_POINT('',(14.8999996267315,-4.91000009829985,14.9));
#1254=CARTESIAN_POINT($,(14.8999996267315,-4.91000009829986,0.6));
#1255=CARTESIAN_POINT('',(-14.9000003732685,-4.91000009829986,14.9));
#1256=CARTESIAN_POINT($,(14.8999996267315,-4.91000009829985,14.9));
#1257=CARTESIAN_POINT($,(-14.9000003732685,-4.91000009829986,0.6));
#1258=CARTESIAN_POINT('',(-9.40000037326848,-4.91000009829986,4.44089209850063E-16));
#1259=CARTESIAN_POINT($,(-9.40000037326848,-4.91000009829986,4.44089209850063E-16));
#1260=CARTESIAN_POINT($,(-9.40000037326848,-4.91000009829986,0.6));
#1261=CARTESIAN_POINT('',(12.4999996267315,-4.91000009829986,4.44089209850063E-16));
#1262=CARTESIAN_POINT($,(12.4999996267315,-4.91000009829986,0.6));
#1263=CARTESIAN_POINT('',(14.2499996267315,-4.91000009829986,4.44089209850063E-16));
#1264=CARTESIAN_POINT($,(14.2499996267315,-4.91000009829986,4.44089209850063E-16));
#1265=CARTESIAN_POINT($,(14.2499996267315,-4.91000009829986,0.6));
#1266=CARTESIAN_POINT('Origin',(14.2499996267315,-4.66000009829986,0.6));
#1267=CARTESIAN_POINT('',(14.2499996267315,-4.66000009829986,4.44089209850063E-16));
#1268=CARTESIAN_POINT($,(14.2499996267315,-4.66000009829986,4.44089209850063E-16));
#1269=CARTESIAN_POINT($,(14.2499996267315,-4.66000009829986,0.6));
#1270=CARTESIAN_POINT('Origin',(12.4999996267315,-4.66000009829986,0.6));
#1271=CARTESIAN_POINT('',(12.4999996267315,-4.66000009829986,4.44089209850063E-16));
#1272=CARTESIAN_POINT($,(12.4999996267315,-4.66000009829986,4.44089209850063E-16));
#1273=CARTESIAN_POINT($,(12.4999996267315,-4.66000009829986,0.6));
#1274=CARTESIAN_POINT('Origin',(12.4999996267315,-4.91000009829986,0.6));
#1275=CARTESIAN_POINT($,(12.4999996267315,-4.91000009829986,4.44089209850063E-16));
#1276=CARTESIAN_POINT('Origin',(-3.7326848456587E-7,-9.8299858326749E-8,
-1.11022302462516E-16));
#1277=CARTESIAN_POINT('',(-9.40000037326848,-4.66000009829986,4.44089209850063E-16));
#1278=CARTESIAN_POINT($,(-11.1500003732685,-4.66000009829986,4.44089209850063E-16));
#1279=CARTESIAN_POINT($,(-9.40000037326848,-4.66000009829986,4.44089209850063E-16));
#1280=CARTESIAN_POINT('Origin',(-3.7326848456587E-7,-9.8299858326749E-8,
-1.11022302462516E-16));
#1281=CARTESIAN_POINT('',(-11.1500003732685,4.90999990170014,-6.66133814775094E-16));
#1282=CARTESIAN_POINT('',(-9.40000037326848,4.90999990170014,-6.66133814775094E-16));
#1283=CARTESIAN_POINT($,(-11.1500003732685,4.90999990170014,-6.66133814775094E-16));
#1284=CARTESIAN_POINT('',(-9.40000037326848,4.65999990170014,-6.66133814775094E-16));
#1285=CARTESIAN_POINT($,(-9.40000037326848,4.90999990170014,-6.66133814775094E-16));
#1286=CARTESIAN_POINT('',(-11.1500003732685,4.65999990170014,-6.66133814775094E-16));
#1287=CARTESIAN_POINT($,(-9.40000037326848,4.65999990170014,-6.66133814775094E-16));
#1288=CARTESIAN_POINT($,(-11.1500003732685,4.65999990170014,-6.66133814775094E-16));
#1289=CARTESIAN_POINT('Origin',(-3.7326848456587E-7,-9.8299858326749E-8,
-1.11022302462516E-16));
#1290=CARTESIAN_POINT('Origin',(-3.7326848456587E-7,-9.8299858326749E-8,
-1.11022302462516E-16));
#1291=CARTESIAN_POINT('',(11.1499996267315,4.90999990170014,-6.66133814775094E-16));
#1292=CARTESIAN_POINT('',(11.1499996267315,4.65999990170014,-6.66133814775094E-16));
#1293=CARTESIAN_POINT($,(11.1499996267315,4.90999990170014,-6.66133814775094E-16));
#1294=CARTESIAN_POINT('',(9.39999962673152,4.65999990170014,-6.66133814775094E-16));
#1295=CARTESIAN_POINT($,(11.1499996267315,4.65999990170014,-6.66133814775094E-16));
#1296=CARTESIAN_POINT('',(9.39999962673152,4.90999990170014,-6.66133814775094E-16));
#1297=CARTESIAN_POINT($,(9.39999962673152,4.65999990170014,-6.66133814775094E-16));
#1298=CARTESIAN_POINT($,(9.39999962673152,4.90999990170014,-6.66133814775094E-16));
#1299=CARTESIAN_POINT('Origin',(-9.40000037326848,-4.66000009829986,0.6));
#1300=CARTESIAN_POINT($,(-9.40000037326848,-4.66000009829986,0.6));
#1301=CARTESIAN_POINT('Origin',(-11.1500003732685,-4.66000009829986,0.6));
#1302=CARTESIAN_POINT('Origin',(-14.9000003732685,4.90999990170014,0.599999999999999));
#1303=CARTESIAN_POINT($,(-9.40000037326848,4.90999990170014,0.599999999999999));
#1304=CARTESIAN_POINT($,(-11.1500003732685,4.90999990170014,0.599999999999999));
#1305=CARTESIAN_POINT('',(-14.9000003732685,4.90999990170014,14.9));
#1306=CARTESIAN_POINT($,(-14.9000003732685,4.90999990170014,0.599999999999999));
#1307=CARTESIAN_POINT('',(12.8999996267315,4.90999990170015,14.9));
#1308=CARTESIAN_POINT($,(-14.9000003732685,4.90999990170014,14.9));
#1309=CARTESIAN_POINT('',(12.8999996267315,4.90999990170015,13.3));
#1310=CARTESIAN_POINT($,(12.8999996267315,4.90999990170015,14.9));
#1311=CARTESIAN_POINT('',(14.8999996267315,4.90999990170015,13.3));
#1312=CARTESIAN_POINT($,(14.8999996267315,4.90999990170015,13.3));
#1313=CARTESIAN_POINT($,(14.8999996267315,4.90999990170014,0.599999999999999));
#1314=CARTESIAN_POINT($,(11.1499996267315,4.90999990170014,0.599999999999999));
#1315=CARTESIAN_POINT($,(9.39999962673152,4.90999990170014,0.599999999999999));
#1316=CARTESIAN_POINT('Origin',(9.39999962673152,4.65999990170014,0.599999999999999));
#1317=CARTESIAN_POINT($,(9.39999962673152,4.65999990170014,0.599999999999999));
#1318=CARTESIAN_POINT('Origin',(11.1499996267315,4.65999990170014,0.599999999999999));
#1319=CARTESIAN_POINT($,(11.1499996267315,4.65999990170014,0.599999999999999));
#1320=CARTESIAN_POINT('Origin',(11.1499996267315,4.90999990170014,0.599999999999999));
#1321=CARTESIAN_POINT('Origin',(14.8999996267315,4.90999990170014,0.599999999999999));
#1322=CARTESIAN_POINT('',(14.8999996267315,2.90999990170015,13.3));
#1323=CARTESIAN_POINT($,(14.8999996267315,4.90999990170015,13.3));
#1324=CARTESIAN_POINT('',(14.8999996267315,2.90999990170015,14.9));
#1325=CARTESIAN_POINT($,(14.8999996267315,2.90999990170015,14.9));
#1326=CARTESIAN_POINT($,(14.8999996267315,2.90999990170015,14.9));
#1327=CARTESIAN_POINT('Origin',(-3.7326848456587E-7,-9.82998566979687E-8,
13.3));
#1328=CARTESIAN_POINT('',(14.0999996267315,2.90999990170015,13.3));
#1329=CARTESIAN_POINT($,(14.0999996267315,2.90999990170015,13.3));
#1330=CARTESIAN_POINT('',(12.8999996267315,4.10999990170015,13.3));
#1331=CARTESIAN_POINT($,(12.8999996267315,4.90999990170015,13.3));
#1332=CARTESIAN_POINT($,(12.8999996267315,4.10999990170015,13.3));
#1333=CARTESIAN_POINT('',(13.3999996267315,4.08499990170015,13.3));
#1334=CARTESIAN_POINT('Origin',(14.0749996267315,4.08499990170015,13.3));
#1335=CARTESIAN_POINT('Origin',(14.0749996267315,4.08499990170015,14.9));
#1336=CARTESIAN_POINT('',(13.3999996267315,4.08499990170015,14.6));
#1337=CARTESIAN_POINT('Origin',(14.0749996267315,4.08499990170015,14.6));
#1338=CARTESIAN_POINT('Origin',(-3.7326848456587E-7,-9.82998565387646E-8,
14.6));
#1339=CARTESIAN_POINT('Origin',(14.0999996267315,2.90999990170015,14.9));
#1340=CARTESIAN_POINT('',(14.0999996267315,2.90999990170015,14.9));
#1341=CARTESIAN_POINT($,(14.8999996267315,2.90999990170015,14.9));
#1342=CARTESIAN_POINT($,(14.0999996267315,2.90999990170015,14.9));
#1343=CARTESIAN_POINT('Origin',(-3.7326848456587E-7,-9.82998565020252E-8,
14.9));
#1344=CARTESIAN_POINT('',(12.8999996267315,4.10999990170015,14.9));
#1345=CARTESIAN_POINT($,(12.8999996267315,4.90999990170015,14.9));
#1346=CARTESIAN_POINT($,(-14.9000003732685,-4.91000009829986,14.9));
#1347=CARTESIAN_POINT($,(12.8999996267315,4.10999990170015,14.9));
#1348=CARTESIAN_POINT('Origin',(12.8999996267315,4.90999990170015,14.9));
#1349=CARTESIAN_POINT($,(12.8999996267315,4.10999990170015,14.9));
#1350=CARTESIAN_POINT('Origin',(12.8999996267315,4.10999990170015,14.9));
#1351=CARTESIAN_POINT('Origin',(-14.9000003732685,-4.91000009829986,0.6));
#1352=CARTESIAN_POINT('Origin',(-11.1500003732685,4.65999990170014,0.599999999999999));
#1353=CARTESIAN_POINT($,(-11.1500003732685,4.65999990170014,0.599999999999999));
#1354=CARTESIAN_POINT('Origin',(-9.40000037326848,4.65999990170014,0.599999999999999));
#1355=CARTESIAN_POINT($,(-9.40000037326848,4.65999990170014,0.599999999999999));
#1356=CARTESIAN_POINT('Origin',(-9.40000037326848,4.90999990170014,0.599999999999999));
#1357=CARTESIAN_POINT('Origin',(-3.34356016651327E-7,-0.169999968713597,
-3.8));
#1358=CARTESIAN_POINT('',(9.70999966564399,-4.0849999687136,-3.8));
#1359=CARTESIAN_POINT('',(9.70999966564399,-3.5349999687136,-3.8));
#1360=CARTESIAN_POINT($,(9.70999966564399,-4.0849999687136,-3.8));
#1361=CARTESIAN_POINT('',(10.689999665644,-3.5349999687136,-3.8));
#1362=CARTESIAN_POINT($,(9.70999966564399,-3.5349999687136,-3.8));
#1363=CARTESIAN_POINT('',(10.689999665644,-4.0849999687136,-3.8));
#1364=CARTESIAN_POINT($,(10.689999665644,-3.5349999687136,-3.8));
#1365=CARTESIAN_POINT($,(10.689999665644,-4.0849999687136,-3.8));
#1366=CARTESIAN_POINT('Origin',(9.70999966564399,-4.0849999687136,0.6));
#1367=CARTESIAN_POINT('',(9.70999966564399,-4.0849999687136,0.6));
#1368=CARTESIAN_POINT('',(9.70999966564399,-3.5349999687136,0.6));
#1369=CARTESIAN_POINT($,(9.70999966564399,-1.1487499687136,0.6));
#1370=CARTESIAN_POINT($,(9.70999966564399,-3.5349999687136,0.6));
#1371=CARTESIAN_POINT($,(9.70999966564399,-4.0849999687136,0.6));
#1372=CARTESIAN_POINT('Origin',(10.689999665644,-4.0849999687136,0.6));
#1373=CARTESIAN_POINT('',(10.689999665644,-4.0849999687136,0.6));
#1374=CARTESIAN_POINT($,(8.81749966564399,-4.0849999687136,0.6));
#1375=CARTESIAN_POINT($,(10.689999665644,-4.0849999687136,0.6));
#1376=CARTESIAN_POINT('Origin',(10.689999665644,-3.5349999687136,0.6));
#1377=CARTESIAN_POINT('',(10.689999665644,-3.5349999687136,0.6));
#1378=CARTESIAN_POINT($,(10.689999665644,-0.873749968713595,0.6));
#1379=CARTESIAN_POINT($,(10.689999665644,-3.5349999687136,0.6));
#1380=CARTESIAN_POINT('Origin',(9.70999966564399,-3.5349999687136,0.6));
#1381=CARTESIAN_POINT($,(8.32749966564399,-3.5349999687136,0.6));
#1382=CARTESIAN_POINT('Origin',(6.94499966564399,1.78750003128641,0.6));
#1383=CARTESIAN_POINT('Origin',(6.94499966251891,2.1071349072398,0.6));
#1384=CARTESIAN_POINT('',(6.50999966251891,3.5146349072398,0.6));
#1385=CARTESIAN_POINT('',(6.50999966251891,4.06463490723979,0.6));
#1386=CARTESIAN_POINT($,(6.50999966251892,2.8108849072398,0.6));
#1387=CARTESIAN_POINT('',(7.48999966251892,3.5146349072398,0.6));
#1388=CARTESIAN_POINT($,(7.21749966251891,3.5146349072398,0.6));
#1389=CARTESIAN_POINT('',(7.48999966251891,4.06463490723979,0.6));
#1390=CARTESIAN_POINT($,(7.48999966251891,3.08588490723979,0.6));
#1391=CARTESIAN_POINT($,(6.72749966251891,4.06463490723979,0.6));
#1392=CARTESIAN_POINT('Origin',(-3.3748109018461E-7,0.149634907239793,-3.8));
#1393=CARTESIAN_POINT('',(6.50999966251891,3.5146349072398,-3.8));
#1394=CARTESIAN_POINT('',(6.50999966251891,4.06463490723979,-3.8));
#1395=CARTESIAN_POINT($,(6.50999966251891,3.5146349072398,-3.8));
#1396=CARTESIAN_POINT('',(7.48999966251891,4.06463490723979,-3.8));
#1397=CARTESIAN_POINT($,(6.50999966251891,4.06463490723979,-3.8));
#1398=CARTESIAN_POINT('',(7.48999966251892,3.5146349072398,-3.8));
#1399=CARTESIAN_POINT($,(7.48999966251891,4.06463490723979,-3.8));
#1400=CARTESIAN_POINT($,(7.48999966251892,3.5146349072398,-3.8));
#1401=CARTESIAN_POINT('Origin',(6.50999966251891,4.06463490723979,0.6));
#1402=CARTESIAN_POINT($,(7.48999966251891,4.06463490723979,0.6));
#1403=CARTESIAN_POINT($,(6.50999966251891,4.06463490723979,0.6));
#1404=CARTESIAN_POINT('Origin',(7.48999966251891,4.06463490723979,0.6));
#1405=CARTESIAN_POINT($,(7.48999966251892,3.5146349072398,0.6));
#1406=CARTESIAN_POINT('Origin',(7.48999966251892,3.5146349072398,0.6));
#1407=CARTESIAN_POINT($,(6.50999966251891,3.5146349072398,0.6));
#1408=CARTESIAN_POINT('Origin',(6.50999966251891,3.5146349072398,0.6));
#1409=CARTESIAN_POINT('Origin',(-12.0000003732685,-3.81,0.600000000000001));
#1410=CARTESIAN_POINT('',(-11.7000003732685,-3.81,0.600000000000001));
#1411=CARTESIAN_POINT('Origin',(-12.0000003732685,-3.81,0.6));
#1412=CARTESIAN_POINT('',(-11.7000003732685,-3.81,-3.8));
#1413=CARTESIAN_POINT('Origin',(-12.0000003732685,-3.81,-3.8));
#1414=CARTESIAN_POINT('Origin',(-3.7326848456587E-7,-0.169999999999996,
-3.8));
#1415=CARTESIAN_POINT('Origin',(6.94499962673152,1.78750000000001,0.6));
#1416=CARTESIAN_POINT('Origin',(-3.7326848456587E-7,0.170000000000001,-3.8));
#1417=CARTESIAN_POINT('',(-11.7000003732685,3.81,-3.8));
#1418=CARTESIAN_POINT('Origin',(-12.0000003732685,3.81,-3.8));
#1419=CARTESIAN_POINT('Origin',(-12.0000003732685,3.81,0.599999999999999));
#1420=CARTESIAN_POINT('',(-11.7000003732685,3.81,0.599999999999999));
#1421=CARTESIAN_POINT('Origin',(-12.0000003732685,3.81,0.599999999999999));
#1422=CARTESIAN_POINT('Origin',(6.94499962673152,2.1275,0.6));
#1423=UNCERTAINTY_MEASURE_WITH_UNIT(LENGTH_MEASURE(0.01),#1427,
'DISTANCE_ACCURACY_VALUE',
'Maximum model space distance between geometric entities at asserted c
onnectivities');
#1424=UNCERTAINTY_MEASURE_WITH_UNIT(LENGTH_MEASURE(1.E-6),#1427,
'DISTANCE_ACCURACY_VALUE',
'Maximum model space distance between geometric entities at asserted c
onnectivities');
#1425=(
GEOMETRIC_REPRESENTATION_CONTEXT(3)
GLOBAL_UNCERTAINTY_ASSIGNED_CONTEXT((#1423))
GLOBAL_UNIT_ASSIGNED_CONTEXT((#1427,#1429,#1428))
REPRESENTATION_CONTEXT('','3D')
);
#1426=(
GEOMETRIC_REPRESENTATION_CONTEXT(3)
GLOBAL_UNCERTAINTY_ASSIGNED_CONTEXT((#1424))
GLOBAL_UNIT_ASSIGNED_CONTEXT((#1427,#12,#1428))
REPRESENTATION_CONTEXT('','3D')
);
#1427=(
LENGTH_UNIT()
NAMED_UNIT(*)
SI_UNIT(.MILLI.,.METRE.)
);
#1428=(
NAMED_UNIT(*)
SI_UNIT($,.STERADIAN.)
SOLID_ANGLE_UNIT()
);
#1429=(
NAMED_UNIT(*)
PLANE_ANGLE_UNIT()
SI_UNIT($,.RADIAN.)
);
#1430=SHAPE_DEFINITION_REPRESENTATION(#1431,#1432);
#1431=PRODUCT_DEFINITION_SHAPE('',$,#1434);
#1432=SHAPE_REPRESENTATION('',(#893),#1425);
#1433=PRODUCT_DEFINITION_CONTEXT('part definition',#1438,'design');
#1434=PRODUCT_DEFINITION('Product','Product',#1435,#1433);
#1435=PRODUCT_DEFINITION_FORMATION('',$,#1440);
#1436=PRODUCT_RELATED_PRODUCT_CATEGORY('Product','Product',(#1440));
#1437=APPLICATION_PROTOCOL_DEFINITION('international standard',
'automotive_design',2009,#1438);
#1438=APPLICATION_CONTEXT(
'Core Data for Automotive Mechanical Design Process');
#1439=PRODUCT_CONTEXT('part definition',#1438,'mechanical');
#1440=PRODUCT('Product','Product',$,(#1439));
#1441=PRESENTATION_STYLE_ASSIGNMENT((#1444));
#1442=PRESENTATION_STYLE_ASSIGNMENT((#1445));
#1443=PRESENTATION_STYLE_ASSIGNMENT((#1446));
#1444=SURFACE_STYLE_USAGE(.BOTH.,#1447);
#1445=SURFACE_STYLE_USAGE(.BOTH.,#1448);
#1446=SURFACE_STYLE_USAGE(.BOTH.,#1449);
#1447=SURFACE_SIDE_STYLE($,(#1450));
#1448=SURFACE_SIDE_STYLE($,(#1451));
#1449=SURFACE_SIDE_STYLE($,(#1452));
#1450=SURFACE_STYLE_FILL_AREA(#1453);
#1451=SURFACE_STYLE_FILL_AREA(#1454);
#1452=SURFACE_STYLE_FILL_AREA(#1455);
#1453=FILL_AREA_STYLE($,(#1456));
#1454=FILL_AREA_STYLE($,(#1457));
#1455=FILL_AREA_STYLE($,(#1458));
#1456=FILL_AREA_STYLE_COLOUR($,#1459);
#1457=FILL_AREA_STYLE_COLOUR($,#1460);
#1458=FILL_AREA_STYLE_COLOUR($,#1461);
#1459=COLOUR_RGB('',1.,1.,1.);
#1460=COLOUR_RGB('',0.749019607843137,0.749019607843137,0.749019607843137);
#1461=COLOUR_RGB('',1.,1.,1.);
ENDSEC;
END-ISO-10303-21;
