ISO-10303-21;
HEADER;
/****************************************************************
 * Generated by software with PDE/Lib inside                    *
 * PDElib Version v51a, created Mon 11/23/2009                  *
 * ITI Transcendata (http://www.transcendata.com/)              *
 ****************************************************************/
FILE_DESCRIPTION((''),'2;1');
FILE_NAME('REL_IMO_SRM-1C.stp','2011-02-15T11:41:18',(''),(''),'Mechanical Desktop 2011','Mechanical Desktop 2011',', , ');
FILE_SCHEMA(('AUTOMOTIVE_DESIGN { 1 2 10303 214 1 1 1 1 }'));
ENDSEC;
DATA;
#10=(NAMED_UNIT(*)PLANE_ANGLE_UNIT()SI_UNIT($,.RADIAN.));
#11=DIMENSIONAL_EXPONENTS(0.0,0.0,0.0,0.0,0.0,0.0,0.0);
#12=PLANE_ANGLE_MEASURE_WITH_UNIT(PLANE_ANGLE_MEASURE(0.017453292500000),#10);
#16=(CONVERSION_BASED_UNIT('DEGREE',#12)NAMED_UNIT(#11)PLANE_ANGLE_UNIT());
#20=(NAMED_UNIT(*)SI_UNIT($,.STERADIAN.)SOLID_ANGLE_UNIT());
#24=(LENGTH_UNIT()NAMED_UNIT(*)SI_UNIT(.MILLI.,.METRE.));
#26=UNCERTAINTY_MEASURE_WITH_UNIT(LENGTH_MEASURE(0.000001000000000),#24,'DISTANCE_ACCURACY_VALUE','');
#28=(GEOMETRIC_REPRESENTATION_CONTEXT(3)GLOBAL_UNCERTAINTY_ASSIGNED_CONTEXT((#26))GLOBAL_UNIT_ASSIGNED_CONTEXT((#16,#20,#24))REPRESENTATION_CONTEXT('','3D'));
#29=APPLICATION_CONTEXT('automotive design');
#30=APPLICATION_PROTOCOL_DEFINITION('INTERNATIONAL_STANDARD','automotive_design',1998,#29);
#31=PRODUCT_CONTEXT('3D Mechanical Parts',#29,'mechanical');
#32=PRODUCT('Product','Product','',(#31));
#33=PRODUCT_RELATED_PRODUCT_CATEGORY('part',$,(#32));
#34=PRODUCT_CATEGORY('part',$);
#35=PERSON('1','Design','Joe',$,$,$);
#36=ORGANIZATION($,'None','None');
#37=PERSON_AND_ORGANIZATION(#35,#36);
#38=PERSON_AND_ORGANIZATION_ROLE('design_owner');
#39=APPLIED_PERSON_AND_ORGANIZATION_ASSIGNMENT(#37,#38,(#32));
#40=PRODUCT_DEFINITION_FORMATION_WITH_SPECIFIED_SOURCE('None','',#32,.BOUGHT.);
#41=PERSON('2','Creator','Joe',$,$,$);
#42=ORGANIZATION($,'None','None');
#43=PERSON_AND_ORGANIZATION(#41,#42);
#44=PERSON_AND_ORGANIZATION_ROLE('creator');
#45=APPLIED_PERSON_AND_ORGANIZATION_ASSIGNMENT(#43,#44,(#40));
#46=PERSON('3','Supplier','Joe',$,$,$);
#47=ORGANIZATION($,'None','None');
#48=PERSON_AND_ORGANIZATION(#46,#47);
#49=PERSON_AND_ORGANIZATION_ROLE('design_supplier');
#50=APPLIED_PERSON_AND_ORGANIZATION_ASSIGNMENT(#48,#49,(#40));
#51=PRODUCT_DEFINITION_CONTEXT('part definition',#29,'design');
#52=PRODUCT_DEFINITION('None','',#40,#51);
#53=PERSON('4','Creator','Joe',$,$,$);
#54=ORGANIZATION($,'None','None');
#55=PERSON_AND_ORGANIZATION(#53,#54);
#56=PERSON_AND_ORGANIZATION_ROLE('creator');
#57=APPLIED_PERSON_AND_ORGANIZATION_ASSIGNMENT(#55,#56,(#52));
#58=CARTESIAN_POINT('NONE',(0.0,0.0,0.0));
#59=DIRECTION('NONE',(0.0,0.0,1.0));
#60=DIRECTION('NONE',(1.0,0.0,0.0));
#61=AXIS2_PLACEMENT_3D('NONE',#58,#59,#60);
#62=SHAPE_REPRESENTATION('SR1',(#61),#28);
#63=PRODUCT_DEFINITION_SHAPE('PDS1','Test Part',#52);
#64=SHAPE_DEFINITION_REPRESENTATION(#63,#62);
#65=CARTESIAN_POINT('',(9.250000000000002,5.0,0.500000000000000));
#66=DIRECTION('',(0.0,0.0,1.0));
#67=DIRECTION('',(0.0,1.0,0.0));
#68=AXIS2_PLACEMENT_3D('',#65,#66,#67);
#69=PLANE('',#68);
#70=CARTESIAN_POINT('',(9.500000000000002,6.0,0.500000000000000));
#71=VERTEX_POINT('',#70);
#72=CARTESIAN_POINT('',(9.000000000000002,6.0,0.500000000000000));
#73=VERTEX_POINT('',#72);
#74=CARTESIAN_POINT('',(9.500000000000002,6.0,0.500000000000000));
#75=DIRECTION('',(-1.0,0.0,0.0));
#76=VECTOR('',#75,0.500000000000000);
#77=LINE('',#74,#76);
#78=EDGE_CURVE('',#71,#73,#77,.T.);
#79=ORIENTED_EDGE('',*,*,#78,.T.);
#80=CARTESIAN_POINT('',(9.000000000000002,4.0,0.500000000000000));
#81=VERTEX_POINT('',#80);
#82=CARTESIAN_POINT('',(9.000000000000002,6.0,0.500000000000000));
#83=DIRECTION('',(0.0,-1.0,0.0));
#84=VECTOR('',#83,2.0);
#85=LINE('',#82,#84);
#86=EDGE_CURVE('',#73,#81,#85,.T.);
#87=ORIENTED_EDGE('',*,*,#86,.T.);
#88=CARTESIAN_POINT('',(9.500000000000002,4.0,0.500000000000000));
#89=VERTEX_POINT('',#88);
#90=CARTESIAN_POINT('',(9.000000000000002,4.0,0.500000000000000));
#91=DIRECTION('',(1.0,0.0,0.0));
#92=VECTOR('',#91,0.500000000000000);
#93=LINE('',#90,#92);
#94=EDGE_CURVE('',#81,#89,#93,.T.);
#95=ORIENTED_EDGE('',*,*,#94,.T.);
#96=CARTESIAN_POINT('',(9.500000000000002,4.0,0.500000000000000));
#97=DIRECTION('',(0.0,1.0,0.0));
#98=VECTOR('',#97,2.0);
#99=LINE('',#96,#98);
#100=EDGE_CURVE('',#89,#71,#99,.T.);
#101=ORIENTED_EDGE('',*,*,#100,.T.);
#102=EDGE_LOOP('',(#79,#87,#95,#101));
#103=FACE_OUTER_BOUND('',#102,.T.);
#104=ADVANCED_FACE('',(#103),#69,.T.);
#105=CARTESIAN_POINT('',(9.250000000000002,5.0,0.0));
#106=DIRECTION('',(0.0,0.0,1.0));
#107=DIRECTION('',(0.0,1.0,0.0));
#108=AXIS2_PLACEMENT_3D('',#105,#106,#107);
#109=PLANE('',#108);
#110=CARTESIAN_POINT('',(9.000000000000002,6.0,0.0));
#111=VERTEX_POINT('',#110);
#112=CARTESIAN_POINT('',(9.500000000000002,6.0,0.0));
#113=VERTEX_POINT('',#112);
#114=CARTESIAN_POINT('',(9.000000000000002,6.0,0.0));
#115=DIRECTION('',(1.0,0.0,0.0));
#116=VECTOR('',#115,0.500000000000000);
#117=LINE('',#114,#116);
#118=EDGE_CURVE('',#111,#113,#117,.T.);
#119=ORIENTED_EDGE('',*,*,#118,.T.);
#120=CARTESIAN_POINT('',(9.500000000000002,4.0,0.0));
#121=VERTEX_POINT('',#120);
#122=CARTESIAN_POINT('',(9.500000000000002,6.0,0.0));
#123=DIRECTION('',(0.0,-1.0,0.0));
#124=VECTOR('',#123,2.0);
#125=LINE('',#122,#124);
#126=EDGE_CURVE('',#113,#121,#125,.T.);
#127=ORIENTED_EDGE('',*,*,#126,.T.);
#128=CARTESIAN_POINT('',(9.000000000000002,4.0,0.0));
#129=VERTEX_POINT('',#128);
#130=CARTESIAN_POINT('',(9.500000000000002,4.0,0.0));
#131=DIRECTION('',(-1.0,0.0,0.0));
#132=VECTOR('',#131,0.500000000000000);
#133=LINE('',#130,#132);
#134=EDGE_CURVE('',#121,#129,#133,.T.);
#135=ORIENTED_EDGE('',*,*,#134,.T.);
#136=CARTESIAN_POINT('',(9.000000000000002,4.0,0.0));
#137=DIRECTION('',(0.0,1.0,0.0));
#138=VECTOR('',#137,2.0);
#139=LINE('',#136,#138);
#140=EDGE_CURVE('',#129,#111,#139,.T.);
#141=ORIENTED_EDGE('',*,*,#140,.T.);
#142=EDGE_LOOP('',(#119,#127,#135,#141));
#143=FACE_OUTER_BOUND('',#142,.T.);
#144=ADVANCED_FACE('',(#143),#109,.F.);
#145=CARTESIAN_POINT('',(9.500000000000002,5.0,0.250000000000000));
#146=DIRECTION('',(-1.0,0.0,0.0));
#147=DIRECTION('',(0.0,0.0,1.0));
#148=AXIS2_PLACEMENT_3D('',#145,#146,#147);
#149=PLANE('',#148);
#150=CARTESIAN_POINT('',(9.500000000000002,4.0,0.500000000000000));
#151=DIRECTION('',(0.0,0.0,-1.0));
#152=VECTOR('',#151,0.500000000000000);
#153=LINE('',#150,#152);
#154=EDGE_CURVE('',#89,#121,#153,.T.);
#155=ORIENTED_EDGE('',*,*,#154,.T.);
#156=ORIENTED_EDGE('',*,*,#126,.F.);
#157=CARTESIAN_POINT('',(9.500000000000002,6.0,0.500000000000000));
#158=DIRECTION('',(0.0,0.0,-1.0));
#159=VECTOR('',#158,0.500000000000000);
#160=LINE('',#157,#159);
#161=EDGE_CURVE('',#71,#113,#160,.T.);
#162=ORIENTED_EDGE('',*,*,#161,.F.);
#163=ORIENTED_EDGE('',*,*,#100,.F.);
#164=EDGE_LOOP('',(#155,#156,#162,#163));
#165=FACE_OUTER_BOUND('',#164,.T.);
#166=ADVANCED_FACE('',(#165),#149,.F.);
#167=CARTESIAN_POINT('',(9.250000000000002,4.0,0.250000000000000));
#168=DIRECTION('',(0.0,1.0,0.0));
#169=DIRECTION('',(0.0,0.0,-1.0));
#170=AXIS2_PLACEMENT_3D('',#167,#168,#169);
#171=PLANE('',#170);
#172=CARTESIAN_POINT('',(9.000000000000002,4.0,0.500000000000000));
#173=DIRECTION('',(0.0,0.0,-1.0));
#174=VECTOR('',#173,0.500000000000000);
#175=LINE('',#172,#174);
#176=EDGE_CURVE('',#81,#129,#175,.T.);
#177=ORIENTED_EDGE('',*,*,#176,.T.);
#178=ORIENTED_EDGE('',*,*,#134,.F.);
#179=ORIENTED_EDGE('',*,*,#154,.F.);
#180=ORIENTED_EDGE('',*,*,#94,.F.);
#181=EDGE_LOOP('',(#177,#178,#179,#180));
#182=FACE_OUTER_BOUND('',#181,.T.);
#183=ADVANCED_FACE('',(#182),#171,.F.);
#184=CARTESIAN_POINT('',(9.000000000000002,5.0,0.250000000000000));
#185=DIRECTION('',(1.0,0.0,0.0));
#186=DIRECTION('',(0.0,0.0,-1.0));
#187=AXIS2_PLACEMENT_3D('',#184,#185,#186);
#188=PLANE('',#187);
#189=CARTESIAN_POINT('',(9.000000000000002,6.0,0.500000000000000));
#190=DIRECTION('',(0.0,0.0,-1.0));
#191=VECTOR('',#190,0.500000000000000);
#192=LINE('',#189,#191);
#193=EDGE_CURVE('',#73,#111,#192,.T.);
#194=ORIENTED_EDGE('',*,*,#193,.T.);
#195=ORIENTED_EDGE('',*,*,#140,.F.);
#196=ORIENTED_EDGE('',*,*,#176,.F.);
#197=ORIENTED_EDGE('',*,*,#86,.F.);
#198=EDGE_LOOP('',(#194,#195,#196,#197));
#199=FACE_OUTER_BOUND('',#198,.T.);
#200=ADVANCED_FACE('',(#199),#188,.F.);
#201=CARTESIAN_POINT('',(9.250000000000002,6.0,0.250000000000000));
#202=DIRECTION('',(0.0,-1.0,0.0));
#203=DIRECTION('',(0.0,0.0,1.0));
#204=AXIS2_PLACEMENT_3D('',#201,#202,#203);
#205=PLANE('',#204);
#206=ORIENTED_EDGE('',*,*,#161,.T.);
#207=ORIENTED_EDGE('',*,*,#118,.F.);
#208=ORIENTED_EDGE('',*,*,#193,.F.);
#209=ORIENTED_EDGE('',*,*,#78,.F.);
#210=EDGE_LOOP('',(#206,#207,#208,#209));
#211=FACE_OUTER_BOUND('',#210,.T.);
#212=ADVANCED_FACE('',(#211),#205,.F.);
#213=CLOSED_SHELL('',(#104,#144,#166,#183,#200,#212));
#214=MANIFOLD_SOLID_BREP('919',#213);
#215=COLOUR_RGB('250',0.330000000000000,0.330000000000000,0.330000000000000);
#216=SURFACE_STYLE_USAGE(.BOTH.,#217);
#217=SURFACE_SIDE_STYLE('NONE',(#218));
#218=SURFACE_STYLE_FILL_AREA(#219);
#219=FILL_AREA_STYLE('NONE',(#220));
#220=FILL_AREA_STYLE_COLOUR('NONE',#215);
#221=PRESENTATION_STYLE_ASSIGNMENT((#216));
#222=STYLED_ITEM('NONE',(#221),#214);
#223=MECHANICAL_DESIGN_GEOMETRIC_PRESENTATION_REPRESENTATION('NONE',(#222,#375,#526,#677,#1281,#1439,#1590,#1741,#1892,#2043),#28);
#224=PRESENTATION_LAYER_ASSIGNMENT('3D','None',(#214,#374,#525,#676,#1280,#1431,#1589,#1740,#1891,#2042));
#225=CARTESIAN_POINT('',(9.250000000000002,-5.0,0.500000000000000));
#226=DIRECTION('',(0.0,0.0,1.0));
#227=DIRECTION('',(0.0,1.0,0.0));
#228=AXIS2_PLACEMENT_3D('',#225,#226,#227);
#229=PLANE('',#228);
#230=CARTESIAN_POINT('',(9.500000000000002,-4.0,0.500000000000000));
#231=VERTEX_POINT('',#230);
#232=CARTESIAN_POINT('',(9.000000000000002,-4.0,0.500000000000000));
#233=VERTEX_POINT('',#232);
#234=CARTESIAN_POINT('',(9.500000000000002,-4.0,0.500000000000000));
#235=DIRECTION('',(-1.0,0.0,0.0));
#236=VECTOR('',#235,0.500000000000000);
#237=LINE('',#234,#236);
#238=EDGE_CURVE('',#231,#233,#237,.T.);
#239=ORIENTED_EDGE('',*,*,#238,.T.);
#240=CARTESIAN_POINT('',(9.000000000000002,-6.0,0.500000000000000));
#241=VERTEX_POINT('',#240);
#242=CARTESIAN_POINT('',(9.000000000000002,-4.0,0.500000000000000));
#243=DIRECTION('',(0.0,-1.0,0.0));
#244=VECTOR('',#243,2.0);
#245=LINE('',#242,#244);
#246=EDGE_CURVE('',#233,#241,#245,.T.);
#247=ORIENTED_EDGE('',*,*,#246,.T.);
#248=CARTESIAN_POINT('',(9.500000000000002,-6.0,0.500000000000000));
#249=VERTEX_POINT('',#248);
#250=CARTESIAN_POINT('',(9.000000000000002,-6.0,0.500000000000000));
#251=DIRECTION('',(1.0,0.0,0.0));
#252=VECTOR('',#251,0.500000000000000);
#253=LINE('',#250,#252);
#254=EDGE_CURVE('',#241,#249,#253,.T.);
#255=ORIENTED_EDGE('',*,*,#254,.T.);
#256=CARTESIAN_POINT('',(9.500000000000002,-6.0,0.500000000000000));
#257=DIRECTION('',(0.0,1.0,0.0));
#258=VECTOR('',#257,2.0);
#259=LINE('',#256,#258);
#260=EDGE_CURVE('',#249,#231,#259,.T.);
#261=ORIENTED_EDGE('',*,*,#260,.T.);
#262=EDGE_LOOP('',(#239,#247,#255,#261));
#263=FACE_OUTER_BOUND('',#262,.T.);
#264=ADVANCED_FACE('',(#263),#229,.T.);
#265=CARTESIAN_POINT('',(9.250000000000002,-5.0,0.0));
#266=DIRECTION('',(0.0,0.0,1.0));
#267=DIRECTION('',(0.0,1.0,0.0));
#268=AXIS2_PLACEMENT_3D('',#265,#266,#267);
#269=PLANE('',#268);
#270=CARTESIAN_POINT('',(9.000000000000002,-4.0,0.0));
#271=VERTEX_POINT('',#270);
#272=CARTESIAN_POINT('',(9.500000000000002,-4.0,0.0));
#273=VERTEX_POINT('',#272);
#274=CARTESIAN_POINT('',(9.000000000000002,-4.0,0.0));
#275=DIRECTION('',(1.0,0.0,0.0));
#276=VECTOR('',#275,0.500000000000000);
#277=LINE('',#274,#276);
#278=EDGE_CURVE('',#271,#273,#277,.T.);
#279=ORIENTED_EDGE('',*,*,#278,.T.);
#280=CARTESIAN_POINT('',(9.500000000000002,-6.0,0.0));
#281=VERTEX_POINT('',#280);
#282=CARTESIAN_POINT('',(9.500000000000002,-4.0,0.0));
#283=DIRECTION('',(0.0,-1.0,0.0));
#284=VECTOR('',#283,2.0);
#285=LINE('',#282,#284);
#286=EDGE_CURVE('',#273,#281,#285,.T.);
#287=ORIENTED_EDGE('',*,*,#286,.T.);
#288=CARTESIAN_POINT('',(9.000000000000002,-6.0,0.0));
#289=VERTEX_POINT('',#288);
#290=CARTESIAN_POINT('',(9.500000000000002,-6.0,0.0));
#291=DIRECTION('',(-1.0,0.0,0.0));
#292=VECTOR('',#291,0.500000000000000);
#293=LINE('',#290,#292);
#294=EDGE_CURVE('',#281,#289,#293,.T.);
#295=ORIENTED_EDGE('',*,*,#294,.T.);
#296=CARTESIAN_POINT('',(9.000000000000002,-6.0,0.0));
#297=DIRECTION('',(0.0,1.0,0.0));
#298=VECTOR('',#297,2.0);
#299=LINE('',#296,#298);
#300=EDGE_CURVE('',#289,#271,#299,.T.);
#301=ORIENTED_EDGE('',*,*,#300,.T.);
#302=EDGE_LOOP('',(#279,#287,#295,#301));
#303=FACE_OUTER_BOUND('',#302,.T.);
#304=ADVANCED_FACE('',(#303),#269,.F.);
#305=CARTESIAN_POINT('',(9.500000000000002,-5.0,0.250000000000000));
#306=DIRECTION('',(-1.0,0.0,0.0));
#307=DIRECTION('',(0.0,0.0,1.0));
#308=AXIS2_PLACEMENT_3D('',#305,#306,#307);
#309=PLANE('',#308);
#310=CARTESIAN_POINT('',(9.500000000000002,-6.0,0.500000000000000));
#311=DIRECTION('',(0.0,0.0,-1.0));
#312=VECTOR('',#311,0.500000000000000);
#313=LINE('',#310,#312);
#314=EDGE_CURVE('',#249,#281,#313,.T.);
#315=ORIENTED_EDGE('',*,*,#314,.T.);
#316=ORIENTED_EDGE('',*,*,#286,.F.);
#317=CARTESIAN_POINT('',(9.500000000000002,-4.0,0.500000000000000));
#318=DIRECTION('',(0.0,0.0,-1.0));
#319=VECTOR('',#318,0.500000000000000);
#320=LINE('',#317,#319);
#321=EDGE_CURVE('',#231,#273,#320,.T.);
#322=ORIENTED_EDGE('',*,*,#321,.F.);
#323=ORIENTED_EDGE('',*,*,#260,.F.);
#324=EDGE_LOOP('',(#315,#316,#322,#323));
#325=FACE_OUTER_BOUND('',#324,.T.);
#326=ADVANCED_FACE('',(#325),#309,.F.);
#327=CARTESIAN_POINT('',(9.250000000000002,-6.0,0.250000000000000));
#328=DIRECTION('',(0.0,1.0,0.0));
#329=DIRECTION('',(0.0,0.0,-1.0));
#330=AXIS2_PLACEMENT_3D('',#327,#328,#329);
#331=PLANE('',#330);
#332=CARTESIAN_POINT('',(9.000000000000002,-6.0,0.500000000000000));
#333=DIRECTION('',(0.0,0.0,-1.0));
#334=VECTOR('',#333,0.500000000000000);
#335=LINE('',#332,#334);
#336=EDGE_CURVE('',#241,#289,#335,.T.);
#337=ORIENTED_EDGE('',*,*,#336,.T.);
#338=ORIENTED_EDGE('',*,*,#294,.F.);
#339=ORIENTED_EDGE('',*,*,#314,.F.);
#340=ORIENTED_EDGE('',*,*,#254,.F.);
#341=EDGE_LOOP('',(#337,#338,#339,#340));
#342=FACE_OUTER_BOUND('',#341,.T.);
#343=ADVANCED_FACE('',(#342),#331,.F.);
#344=CARTESIAN_POINT('',(9.000000000000002,-5.0,0.250000000000000));
#345=DIRECTION('',(1.0,0.0,0.0));
#346=DIRECTION('',(0.0,0.0,-1.0));
#347=AXIS2_PLACEMENT_3D('',#344,#345,#346);
#348=PLANE('',#347);
#349=CARTESIAN_POINT('',(9.000000000000002,-4.0,0.500000000000000));
#350=DIRECTION('',(0.0,0.0,-1.0));
#351=VECTOR('',#350,0.500000000000000);
#352=LINE('',#349,#351);
#353=EDGE_CURVE('',#233,#271,#352,.T.);
#354=ORIENTED_EDGE('',*,*,#353,.T.);
#355=ORIENTED_EDGE('',*,*,#300,.F.);
#356=ORIENTED_EDGE('',*,*,#336,.F.);
#357=ORIENTED_EDGE('',*,*,#246,.F.);
#358=EDGE_LOOP('',(#354,#355,#356,#357));
#359=FACE_OUTER_BOUND('',#358,.T.);
#360=ADVANCED_FACE('',(#359),#348,.F.);
#361=CARTESIAN_POINT('',(9.250000000000002,-4.0,0.250000000000000));
#362=DIRECTION('',(0.0,-1.0,0.0));
#363=DIRECTION('',(0.0,0.0,1.0));
#364=AXIS2_PLACEMENT_3D('',#361,#362,#363);
#365=PLANE('',#364);
#366=ORIENTED_EDGE('',*,*,#321,.T.);
#367=ORIENTED_EDGE('',*,*,#278,.F.);
#368=ORIENTED_EDGE('',*,*,#353,.F.);
#369=ORIENTED_EDGE('',*,*,#238,.F.);
#370=EDGE_LOOP('',(#366,#367,#368,#369));
#371=FACE_OUTER_BOUND('',#370,.T.);
#372=ADVANCED_FACE('',(#371),#365,.F.);
#373=CLOSED_SHELL('',(#264,#304,#326,#343,#360,#372));
#374=MANIFOLD_SOLID_BREP('915',#373);
#375=STYLED_ITEM('NONE',(#221),#374);
#376=CARTESIAN_POINT('',(-9.000000000000002,4.000000000000000,0.500000000000000));
#377=CARTESIAN_POINT('',(-9.000000000000002,6.0,0.500000000000000));
#378=CARTESIAN_POINT('',(-9.500000000000002,4.000000000000000,0.500000000000000));
#379=CARTESIAN_POINT('',(-9.500000000000002,6.0,0.500000000000000));
#380=B_SPLINE_SURFACE_WITH_KNOTS('',1,1,((#376,#378),(#377,#379)),.UNSPECIFIED.,.F.,.F.,.U.,(2,2),(2,2),(0.0,2.000000000000000),(0.0,0.500000000000000),.UNSPECIFIED.);
#381=CARTESIAN_POINT('',(-9.500000000000002,6.0,0.500000000000000));
#382=VERTEX_POINT('',#381);
#383=CARTESIAN_POINT('',(-9.000000000000002,6.0,0.500000000000000));
#384=VERTEX_POINT('',#383);
#385=CARTESIAN_POINT('',(-9.500000000000002,6.0,0.500000000000000));
#386=DIRECTION('',(1.0,0.0,0.0));
#387=VECTOR('',#386,0.500000000000000);
#388=LINE('',#385,#387);
#389=EDGE_CURVE('',#382,#384,#388,.T.);
#390=ORIENTED_EDGE('',*,*,#389,.F.);
#391=CARTESIAN_POINT('',(-9.500000000000002,4.0,0.500000000000000));
#392=VERTEX_POINT('',#391);
#393=CARTESIAN_POINT('',(-9.500000000000002,4.0,0.500000000000000));
#394=DIRECTION('',(0.0,1.0,0.0));
#395=VECTOR('',#394,2.0);
#396=LINE('',#393,#395);
#397=EDGE_CURVE('',#392,#382,#396,.T.);
#398=ORIENTED_EDGE('',*,*,#397,.F.);
#399=CARTESIAN_POINT('',(-9.000000000000002,4.0,0.500000000000000));
#400=VERTEX_POINT('',#399);
#401=CARTESIAN_POINT('',(-9.000000000000002,4.0,0.500000000000000));
#402=DIRECTION('',(-1.0,0.0,0.0));
#403=VECTOR('',#402,0.500000000000000);
#404=LINE('',#401,#403);
#405=EDGE_CURVE('',#400,#392,#404,.T.);
#406=ORIENTED_EDGE('',*,*,#405,.F.);
#407=CARTESIAN_POINT('',(-9.000000000000002,6.0,0.500000000000000));
#408=DIRECTION('',(0.0,-1.0,0.0));
#409=VECTOR('',#408,2.0);
#410=LINE('',#407,#409);
#411=EDGE_CURVE('',#384,#400,#410,.T.);
#412=ORIENTED_EDGE('',*,*,#411,.F.);
#413=EDGE_LOOP('',(#390,#398,#406,#412));
#414=FACE_OUTER_BOUND('',#413,.T.);
#415=ADVANCED_FACE('',(#414),#380,.T.);
#416=CARTESIAN_POINT('',(-9.000000000000002,4.000000000000000,0.0));
#417=CARTESIAN_POINT('',(-9.000000000000002,6.0,0.0));
#418=CARTESIAN_POINT('',(-9.500000000000002,4.000000000000000,0.0));
#419=CARTESIAN_POINT('',(-9.500000000000002,6.0,0.0));
#420=B_SPLINE_SURFACE_WITH_KNOTS('',1,1,((#416,#418),(#417,#419)),.UNSPECIFIED.,.F.,.F.,.U.,(2,2),(2,2),(0.0,2.000000000000000),(0.0,0.500000000000000),.UNSPECIFIED.);
#421=CARTESIAN_POINT('',(-9.000000000000002,6.0,0.0));
#422=VERTEX_POINT('',#421);
#423=CARTESIAN_POINT('',(-9.500000000000002,6.0,0.0));
#424=VERTEX_POINT('',#423);
#425=CARTESIAN_POINT('',(-9.000000000000002,6.0,0.0));
#426=DIRECTION('',(-1.0,0.0,0.0));
#427=VECTOR('',#426,0.500000000000000);
#428=LINE('',#425,#427);
#429=EDGE_CURVE('',#422,#424,#428,.T.);
#430=ORIENTED_EDGE('',*,*,#429,.F.);
#431=CARTESIAN_POINT('',(-9.000000000000002,4.0,0.0));
#432=VERTEX_POINT('',#431);
#433=CARTESIAN_POINT('',(-9.000000000000002,4.0,0.0));
#434=DIRECTION('',(0.0,1.0,0.0));
#435=VECTOR('',#434,2.0);
#436=LINE('',#433,#435);
#437=EDGE_CURVE('',#432,#422,#436,.T.);
#438=ORIENTED_EDGE('',*,*,#437,.F.);
#439=CARTESIAN_POINT('',(-9.500000000000002,4.0,0.0));
#440=VERTEX_POINT('',#439);
#441=CARTESIAN_POINT('',(-9.500000000000002,4.0,0.0));
#442=DIRECTION('',(1.0,0.0,0.0));
#443=VECTOR('',#442,0.500000000000000);
#444=LINE('',#441,#443);
#445=EDGE_CURVE('',#440,#432,#444,.T.);
#446=ORIENTED_EDGE('',*,*,#445,.F.);
#447=CARTESIAN_POINT('',(-9.500000000000002,6.0,0.0));
#448=DIRECTION('',(0.0,-1.0,0.0));
#449=VECTOR('',#448,2.0);
#450=LINE('',#447,#449);
#451=EDGE_CURVE('',#424,#440,#450,.T.);
#452=ORIENTED_EDGE('',*,*,#451,.F.);
#453=EDGE_LOOP('',(#430,#438,#446,#452));
#454=FACE_OUTER_BOUND('',#453,.T.);
#455=ADVANCED_FACE('',(#454),#420,.F.);
#456=CARTESIAN_POINT('',(-9.500000000000002,6.0,0.0));
#457=CARTESIAN_POINT('',(-9.500000000000002,6.0,0.500000000000000));
#458=CARTESIAN_POINT('',(-9.500000000000002,4.000000000000000,0.0));
#459=CARTESIAN_POINT('',(-9.500000000000002,4.0,0.500000000000000));
#460=B_SPLINE_SURFACE_WITH_KNOTS('',1,1,((#456,#458),(#457,#459)),.UNSPECIFIED.,.F.,.F.,.U.,(2,2),(2,2),(0.0,0.500000000000000),(0.0,2.000000000000000),.UNSPECIFIED.);
#461=CARTESIAN_POINT('',(-9.500000000000002,4.0,0.500000000000000));
#462=DIRECTION('',(0.0,0.0,-1.0));
#463=VECTOR('',#462,0.500000000000000);
#464=LINE('',#461,#463);
#465=EDGE_CURVE('',#392,#440,#464,.T.);
#466=ORIENTED_EDGE('',*,*,#465,.F.);
#467=ORIENTED_EDGE('',*,*,#397,.T.);
#468=CARTESIAN_POINT('',(-9.500000000000002,6.0,0.500000000000000));
#469=DIRECTION('',(0.0,0.0,-1.0));
#470=VECTOR('',#469,0.500000000000000);
#471=LINE('',#468,#470);
#472=EDGE_CURVE('',#382,#424,#471,.T.);
#473=ORIENTED_EDGE('',*,*,#472,.T.);
#474=ORIENTED_EDGE('',*,*,#451,.T.);
#475=EDGE_LOOP('',(#466,#467,#473,#474));
#476=FACE_OUTER_BOUND('',#475,.T.);
#477=ADVANCED_FACE('',(#476),#460,.F.);
#478=CARTESIAN_POINT('',(-9.000000000000002,4.0,0.500000000000000));
#479=CARTESIAN_POINT('',(-9.000000000000002,4.0,0.0));
#480=CARTESIAN_POINT('',(-9.500000000000002,4.0,0.500000000000000));
#481=CARTESIAN_POINT('',(-9.500000000000002,4.0,0.0));
#482=B_SPLINE_SURFACE_WITH_KNOTS('',1,1,((#478,#480),(#479,#481)),.UNSPECIFIED.,.F.,.F.,.U.,(2,2),(2,2),(0.0,0.500000000000000),(0.0,0.500000000000000),.UNSPECIFIED.);
#483=CARTESIAN_POINT('',(-9.000000000000002,4.0,0.500000000000000));
#484=DIRECTION('',(0.0,0.0,-1.0));
#485=VECTOR('',#484,0.500000000000000);
#486=LINE('',#483,#485);
#487=EDGE_CURVE('',#400,#432,#486,.T.);
#488=ORIENTED_EDGE('',*,*,#487,.F.);
#489=ORIENTED_EDGE('',*,*,#405,.T.);
#490=ORIENTED_EDGE('',*,*,#465,.T.);
#491=ORIENTED_EDGE('',*,*,#445,.T.);
#492=EDGE_LOOP('',(#488,#489,#490,#491));
#493=FACE_OUTER_BOUND('',#492,.T.);
#494=ADVANCED_FACE('',(#493),#482,.F.);
#495=CARTESIAN_POINT('',(-9.000000000000002,6.0,0.500000000000000));
#496=CARTESIAN_POINT('',(-9.000000000000002,6.0,0.0));
#497=CARTESIAN_POINT('',(-9.000000000000002,4.000000000000000,0.500000000000000));
#498=CARTESIAN_POINT('',(-9.000000000000002,4.0,0.0));
#499=B_SPLINE_SURFACE_WITH_KNOTS('',1,1,((#495,#497),(#496,#498)),.UNSPECIFIED.,.F.,.F.,.U.,(2,2),(2,2),(0.0,0.500000000000000),(0.0,2.000000000000000),.UNSPECIFIED.);
#500=CARTESIAN_POINT('',(-9.000000000000002,6.0,0.500000000000000));
#501=DIRECTION('',(0.0,0.0,-1.0));
#502=VECTOR('',#501,0.500000000000000);
#503=LINE('',#500,#502);
#504=EDGE_CURVE('',#384,#422,#503,.T.);
#505=ORIENTED_EDGE('',*,*,#504,.F.);
#506=ORIENTED_EDGE('',*,*,#411,.T.);
#507=ORIENTED_EDGE('',*,*,#487,.T.);
#508=ORIENTED_EDGE('',*,*,#437,.T.);
#509=EDGE_LOOP('',(#505,#506,#507,#508));
#510=FACE_OUTER_BOUND('',#509,.T.);
#511=ADVANCED_FACE('',(#510),#499,.F.);
#512=CARTESIAN_POINT('',(-9.000000000000002,6.0,0.0));
#513=CARTESIAN_POINT('',(-9.000000000000002,6.0,0.500000000000000));
#514=CARTESIAN_POINT('',(-9.500000000000002,6.0,0.0));
#515=CARTESIAN_POINT('',(-9.500000000000002,6.0,0.500000000000000));
#516=B_SPLINE_SURFACE_WITH_KNOTS('',1,1,((#512,#514),(#513,#515)),.UNSPECIFIED.,.F.,.F.,.U.,(2,2),(2,2),(0.0,0.500000000000000),(0.0,0.500000000000000),.UNSPECIFIED.);
#517=ORIENTED_EDGE('',*,*,#472,.F.);
#518=ORIENTED_EDGE('',*,*,#389,.T.);
#519=ORIENTED_EDGE('',*,*,#504,.T.);
#520=ORIENTED_EDGE('',*,*,#429,.T.);
#521=EDGE_LOOP('',(#517,#518,#519,#520));
#522=FACE_OUTER_BOUND('',#521,.T.);
#523=ADVANCED_FACE('',(#522),#516,.F.);
#524=CLOSED_SHELL('',(#415,#455,#477,#494,#511,#523));
#525=MANIFOLD_SOLID_BREP('911',#524);
#526=STYLED_ITEM('NONE',(#221),#525);
#527=CARTESIAN_POINT('',(-9.000000000000002,-6.0,0.500000000000000));
#528=CARTESIAN_POINT('',(-9.000000000000002,-4.0,0.500000000000000));
#529=CARTESIAN_POINT('',(-9.500000000000002,-6.0,0.500000000000000));
#530=CARTESIAN_POINT('',(-9.500000000000002,-4.0,0.500000000000000));
#531=B_SPLINE_SURFACE_WITH_KNOTS('',1,1,((#527,#529),(#528,#530)),.UNSPECIFIED.,.F.,.F.,.U.,(2,2),(2,2),(0.0,2.0),(0.0,0.500000000000000),.UNSPECIFIED.);
#532=CARTESIAN_POINT('',(-9.500000000000002,-4.0,0.500000000000000));
#533=VERTEX_POINT('',#532);
#534=CARTESIAN_POINT('',(-9.000000000000002,-4.0,0.500000000000000));
#535=VERTEX_POINT('',#534);
#536=CARTESIAN_POINT('',(-9.500000000000002,-4.0,0.500000000000000));
#537=DIRECTION('',(1.0,0.0,0.0));
#538=VECTOR('',#537,0.500000000000000);
#539=LINE('',#536,#538);
#540=EDGE_CURVE('',#533,#535,#539,.T.);
#541=ORIENTED_EDGE('',*,*,#540,.F.);
#542=CARTESIAN_POINT('',(-9.500000000000002,-6.0,0.500000000000000));
#543=VERTEX_POINT('',#542);
#544=CARTESIAN_POINT('',(-9.500000000000002,-6.0,0.500000000000000));
#545=DIRECTION('',(0.0,1.0,0.0));
#546=VECTOR('',#545,2.0);
#547=LINE('',#544,#546);
#548=EDGE_CURVE('',#543,#533,#547,.T.);
#549=ORIENTED_EDGE('',*,*,#548,.F.);
#550=CARTESIAN_POINT('',(-9.000000000000002,-6.0,0.500000000000000));
#551=VERTEX_POINT('',#550);
#552=CARTESIAN_POINT('',(-9.000000000000002,-6.0,0.500000000000000));
#553=DIRECTION('',(-1.0,0.0,0.0));
#554=VECTOR('',#553,0.500000000000000);
#555=LINE('',#552,#554);
#556=EDGE_CURVE('',#551,#543,#555,.T.);
#557=ORIENTED_EDGE('',*,*,#556,.F.);
#558=CARTESIAN_POINT('',(-9.000000000000002,-4.0,0.500000000000000));
#559=DIRECTION('',(0.0,-1.0,0.0));
#560=VECTOR('',#559,2.0);
#561=LINE('',#558,#560);
#562=EDGE_CURVE('',#535,#551,#561,.T.);
#563=ORIENTED_EDGE('',*,*,#562,.F.);
#564=EDGE_LOOP('',(#541,#549,#557,#563));
#565=FACE_OUTER_BOUND('',#564,.T.);
#566=ADVANCED_FACE('',(#565),#531,.T.);
#567=CARTESIAN_POINT('',(-9.000000000000002,-6.0,0.0));
#568=CARTESIAN_POINT('',(-9.000000000000002,-4.0,0.0));
#569=CARTESIAN_POINT('',(-9.500000000000002,-6.0,0.0));
#570=CARTESIAN_POINT('',(-9.500000000000002,-4.0,0.0));
#571=B_SPLINE_SURFACE_WITH_KNOTS('',1,1,((#567,#569),(#568,#570)),.UNSPECIFIED.,.F.,.F.,.U.,(2,2),(2,2),(0.0,2.0),(0.0,0.500000000000000),.UNSPECIFIED.);
#572=CARTESIAN_POINT('',(-9.000000000000002,-4.0,0.0));
#573=VERTEX_POINT('',#572);
#574=CARTESIAN_POINT('',(-9.500000000000002,-4.0,0.0));
#575=VERTEX_POINT('',#574);
#576=CARTESIAN_POINT('',(-9.000000000000002,-4.0,0.0));
#577=DIRECTION('',(-1.0,0.0,0.0));
#578=VECTOR('',#577,0.500000000000000);
#579=LINE('',#576,#578);
#580=EDGE_CURVE('',#573,#575,#579,.T.);
#581=ORIENTED_EDGE('',*,*,#580,.F.);
#582=CARTESIAN_POINT('',(-9.000000000000002,-6.0,0.0));
#583=VERTEX_POINT('',#582);
#584=CARTESIAN_POINT('',(-9.000000000000002,-6.0,0.0));
#585=DIRECTION('',(0.0,1.0,0.0));
#586=VECTOR('',#585,2.0);
#587=LINE('',#584,#586);
#588=EDGE_CURVE('',#583,#573,#587,.T.);
#589=ORIENTED_EDGE('',*,*,#588,.F.);
#590=CARTESIAN_POINT('',(-9.500000000000002,-6.0,0.0));
#591=VERTEX_POINT('',#590);
#592=CARTESIAN_POINT('',(-9.500000000000002,-6.0,0.0));
#593=DIRECTION('',(1.0,0.0,0.0));
#594=VECTOR('',#593,0.500000000000000);
#595=LINE('',#592,#594);
#596=EDGE_CURVE('',#591,#583,#595,.T.);
#597=ORIENTED_EDGE('',*,*,#596,.F.);
#598=CARTESIAN_POINT('',(-9.500000000000002,-4.0,0.0));
#599=DIRECTION('',(0.0,-1.0,0.0));
#600=VECTOR('',#599,2.0);
#601=LINE('',#598,#600);
#602=EDGE_CURVE('',#575,#591,#601,.T.);
#603=ORIENTED_EDGE('',*,*,#602,.F.);
#604=EDGE_LOOP('',(#581,#589,#597,#603));
#605=FACE_OUTER_BOUND('',#604,.T.);
#606=ADVANCED_FACE('',(#605),#571,.F.);
#607=CARTESIAN_POINT('',(-9.500000000000002,-4.0,0.0));
#608=CARTESIAN_POINT('',(-9.500000000000002,-4.0,0.500000000000000));
#609=CARTESIAN_POINT('',(-9.500000000000002,-6.0,0.0));
#610=CARTESIAN_POINT('',(-9.500000000000002,-6.0,0.500000000000000));
#611=B_SPLINE_SURFACE_WITH_KNOTS('',1,1,((#607,#609),(#608,#610)),.UNSPECIFIED.,.F.,.F.,.U.,(2,2),(2,2),(0.0,0.500000000000000),(0.0,2.0),.UNSPECIFIED.);
#612=CARTESIAN_POINT('',(-9.500000000000002,-6.0,0.500000000000000));
#613=DIRECTION('',(0.0,0.0,-1.0));
#614=VECTOR('',#613,0.500000000000000);
#615=LINE('',#612,#614);
#616=EDGE_CURVE('',#543,#591,#615,.T.);
#617=ORIENTED_EDGE('',*,*,#616,.F.);
#618=ORIENTED_EDGE('',*,*,#548,.T.);
#619=CARTESIAN_POINT('',(-9.500000000000002,-4.0,0.500000000000000));
#620=DIRECTION('',(0.0,0.0,-1.0));
#621=VECTOR('',#620,0.500000000000000);
#622=LINE('',#619,#621);
#623=EDGE_CURVE('',#533,#575,#622,.T.);
#624=ORIENTED_EDGE('',*,*,#623,.T.);
#625=ORIENTED_EDGE('',*,*,#602,.T.);
#626=EDGE_LOOP('',(#617,#618,#624,#625));
#627=FACE_OUTER_BOUND('',#626,.T.);
#628=ADVANCED_FACE('',(#627),#611,.F.);
#629=CARTESIAN_POINT('',(-9.000000000000002,-6.0,0.500000000000000));
#630=CARTESIAN_POINT('',(-9.000000000000002,-6.0,0.0));
#631=CARTESIAN_POINT('',(-9.500000000000002,-6.0,0.500000000000000));
#632=CARTESIAN_POINT('',(-9.500000000000002,-6.0,0.0));
#633=B_SPLINE_SURFACE_WITH_KNOTS('',1,1,((#629,#631),(#630,#632)),.UNSPECIFIED.,.F.,.F.,.U.,(2,2),(2,2),(0.0,0.500000000000000),(0.0,0.500000000000000),.UNSPECIFIED.);
#634=CARTESIAN_POINT('',(-9.000000000000002,-6.0,0.500000000000000));
#635=DIRECTION('',(0.0,0.0,-1.0));
#636=VECTOR('',#635,0.500000000000000);
#637=LINE('',#634,#636);
#638=EDGE_CURVE('',#551,#583,#637,.T.);
#639=ORIENTED_EDGE('',*,*,#638,.F.);
#640=ORIENTED_EDGE('',*,*,#556,.T.);
#641=ORIENTED_EDGE('',*,*,#616,.T.);
#642=ORIENTED_EDGE('',*,*,#596,.T.);
#643=EDGE_LOOP('',(#639,#640,#641,#642));
#644=FACE_OUTER_BOUND('',#643,.T.);
#645=ADVANCED_FACE('',(#644),#633,.F.);
#646=CARTESIAN_POINT('',(-9.000000000000002,-4.0,0.500000000000000));
#647=CARTESIAN_POINT('',(-9.000000000000002,-4.0,0.0));
#648=CARTESIAN_POINT('',(-9.000000000000002,-6.0,0.500000000000000));
#649=CARTESIAN_POINT('',(-9.000000000000002,-6.0,0.0));
#650=B_SPLINE_SURFACE_WITH_KNOTS('',1,1,((#646,#648),(#647,#649)),.UNSPECIFIED.,.F.,.F.,.U.,(2,2),(2,2),(0.0,0.500000000000000),(0.0,2.0),.UNSPECIFIED.);
#651=CARTESIAN_POINT('',(-9.000000000000002,-4.0,0.500000000000000));
#652=DIRECTION('',(0.0,0.0,-1.0));
#653=VECTOR('',#652,0.500000000000000);
#654=LINE('',#651,#653);
#655=EDGE_CURVE('',#535,#573,#654,.T.);
#656=ORIENTED_EDGE('',*,*,#655,.F.);
#657=ORIENTED_EDGE('',*,*,#562,.T.);
#658=ORIENTED_EDGE('',*,*,#638,.T.);
#659=ORIENTED_EDGE('',*,*,#588,.T.);
#660=EDGE_LOOP('',(#656,#657,#658,#659));
#661=FACE_OUTER_BOUND('',#660,.T.);
#662=ADVANCED_FACE('',(#661),#650,.F.);
#663=CARTESIAN_POINT('',(-9.000000000000002,-4.0,0.0));
#664=CARTESIAN_POINT('',(-9.000000000000002,-4.0,0.500000000000000));
#665=CARTESIAN_POINT('',(-9.500000000000002,-4.0,0.0));
#666=CARTESIAN_POINT('',(-9.500000000000002,-4.0,0.500000000000000));
#667=B_SPLINE_SURFACE_WITH_KNOTS('',1,1,((#663,#665),(#664,#666)),.UNSPECIFIED.,.F.,.F.,.U.,(2,2),(2,2),(0.0,0.500000000000000),(0.0,0.500000000000000),.UNSPECIFIED.);
#668=ORIENTED_EDGE('',*,*,#623,.F.);
#669=ORIENTED_EDGE('',*,*,#540,.T.);
#670=ORIENTED_EDGE('',*,*,#655,.T.);
#671=ORIENTED_EDGE('',*,*,#580,.T.);
#672=EDGE_LOOP('',(#668,#669,#670,#671));
#673=FACE_OUTER_BOUND('',#672,.T.);
#674=ADVANCED_FACE('',(#673),#667,.F.);
#675=CLOSED_SHELL('',(#566,#606,#628,#645,#662,#674));
#676=MANIFOLD_SOLID_BREP('90D',#675);
#677=STYLED_ITEM('NONE',(#221),#676);
#678=CARTESIAN_POINT('',(-8.500000000000004,-1.0,15.250000000000000));
#679=DIRECTION('',(0.0,1.0,0.0));
#680=DIRECTION('',(0.0,0.0,1.0));
#681=AXIS2_PLACEMENT_3D('',#678,#679,#680);
#682=PLANE('',#681);
#683=CARTESIAN_POINT('',(-9.000000000000002,-1.0,15.500000000000000));
#684=VERTEX_POINT('',#683);
#685=CARTESIAN_POINT('',(-9.500000000000004,-1.000000000000000,15.0));
#686=VERTEX_POINT('',#685);
#687=CARTESIAN_POINT('',(-9.000000000000002,-1.0,15.0));
#688=DIRECTION('',(0.0,-1.000000000000000,0.0));
#689=DIRECTION('',(-0.707106781186548,0.0,0.707106781186548));
#690=AXIS2_PLACEMENT_3D('',#687,#688,#689);
#691=CIRCLE('',#690,0.500000000000000);
#692=EDGE_CURVE('',#684,#686,#691,.T.);
#693=ORIENTED_EDGE('',*,*,#692,.F.);
#694=CARTESIAN_POINT('',(-7.500000000000004,-1.000000000000000,15.500000000000000));
#695=VERTEX_POINT('',#694);
#696=CARTESIAN_POINT('',(-7.500000000000004,-1.000000000000000,15.500000000000000));
#697=DIRECTION('',(-1.0,0.0,0.0));
#698=VECTOR('',#697,1.499999999999998);
#699=LINE('',#696,#698);
#700=EDGE_CURVE('',#695,#684,#699,.T.);
#701=ORIENTED_EDGE('',*,*,#700,.F.);
#702=CARTESIAN_POINT('',(-7.500000000000004,-1.000000000000000,15.0));
#703=VERTEX_POINT('',#702);
#704=CARTESIAN_POINT('',(-7.500000000000004,-1.000000000000000,15.500000000000000));
#705=DIRECTION('',(0.0,0.0,-1.0));
#706=VECTOR('',#705,0.500000000000000);
#707=LINE('',#704,#706);
#708=EDGE_CURVE('',#695,#703,#707,.T.);
#709=ORIENTED_EDGE('',*,*,#708,.T.);
#710=CARTESIAN_POINT('',(-7.500000000000004,-1.000000000000000,15.0));
#711=DIRECTION('',(-1.0,0.0,0.0));
#712=VECTOR('',#711,2.0);
#713=LINE('',#710,#712);
#714=EDGE_CURVE('',#703,#686,#713,.T.);
#715=ORIENTED_EDGE('',*,*,#714,.T.);
#716=EDGE_LOOP('',(#693,#701,#709,#715));
#717=FACE_OUTER_BOUND('',#716,.T.);
#718=ADVANCED_FACE('',(#717),#682,.T.);
#719=CARTESIAN_POINT('',(-8.500000000000004,0.0,15.0));
#720=DIRECTION('',(0.0,0.0,1.0));
#721=DIRECTION('',(0.0,-1.0,0.0));
#722=AXIS2_PLACEMENT_3D('',#719,#720,#721);
#723=PLANE('',#722);
#724=ORIENTED_EDGE('',*,*,#714,.F.);
#725=CARTESIAN_POINT('',(-7.500000000000004,1.000000000000000,15.0));
#726=VERTEX_POINT('',#725);
#727=CARTESIAN_POINT('',(-7.500000000000004,1.000000000000000,15.0));
#728=DIRECTION('',(0.0,-1.0,0.0));
#729=VECTOR('',#728,2.0);
#730=LINE('',#727,#729);
#731=EDGE_CURVE('',#726,#703,#730,.T.);
#732=ORIENTED_EDGE('',*,*,#731,.F.);
#733=CARTESIAN_POINT('',(-9.500000000000004,1.000000000000000,15.0));
#734=VERTEX_POINT('',#733);
#735=CARTESIAN_POINT('',(-9.500000000000004,1.000000000000000,15.0));
#736=DIRECTION('',(1.0,0.0,0.0));
#737=VECTOR('',#736,2.0);
#738=LINE('',#735,#737);
#739=EDGE_CURVE('',#734,#726,#738,.T.);
#740=ORIENTED_EDGE('',*,*,#739,.F.);
#741=CARTESIAN_POINT('',(-9.500000000000002,1.000000000000000,15.0));
#742=DIRECTION('',(0.0,-1.0,0.0));
#743=VECTOR('',#742,2.0);
#744=LINE('',#741,#743);
#745=EDGE_CURVE('',#734,#686,#744,.T.);
#746=ORIENTED_EDGE('',*,*,#745,.T.);
#747=EDGE_LOOP('',(#724,#732,#740,#746));
#748=FACE_OUTER_BOUND('',#747,.T.);
#749=ADVANCED_FACE('',(#748),#723,.T.);
#750=CARTESIAN_POINT('',(-8.500000000000004,1.0,15.250000000000000));
#751=DIRECTION('',(0.0,-1.0,0.0));
#752=DIRECTION('',(0.0,0.0,-1.0));
#753=AXIS2_PLACEMENT_3D('',#750,#751,#752);
#754=PLANE('',#753);
#755=CARTESIAN_POINT('',(-9.000000000000002,1.0,15.500000000000000));
#756=VERTEX_POINT('',#755);
#757=CARTESIAN_POINT('',(-9.000000000000002,1.000000000000000,15.0));
#758=DIRECTION('',(0.0,1.000000000000000,0.0));
#759=DIRECTION('',(-0.707106781186548,0.0,0.707106781186548));
#760=AXIS2_PLACEMENT_3D('',#757,#758,#759);
#761=CIRCLE('',#760,0.500000000000000);
#762=EDGE_CURVE('',#734,#756,#761,.T.);
#763=ORIENTED_EDGE('',*,*,#762,.F.);
#764=ORIENTED_EDGE('',*,*,#739,.T.);
#765=CARTESIAN_POINT('',(-7.500000000000004,1.000000000000000,15.500000000000000));
#766=VERTEX_POINT('',#765);
#767=CARTESIAN_POINT('',(-7.500000000000004,1.000000000000000,15.500000000000000));
#768=DIRECTION('',(0.0,0.0,-1.0));
#769=VECTOR('',#768,0.500000000000000);
#770=LINE('',#767,#769);
#771=EDGE_CURVE('',#766,#726,#770,.T.);
#772=ORIENTED_EDGE('',*,*,#771,.F.);
#773=CARTESIAN_POINT('',(-9.000000000000002,1.000000000000000,15.500000000000000));
#774=DIRECTION('',(1.0,0.0,0.0));
#775=VECTOR('',#774,1.499999999999998);
#776=LINE('',#773,#775);
#777=EDGE_CURVE('',#756,#766,#776,.T.);
#778=ORIENTED_EDGE('',*,*,#777,.F.);
#779=EDGE_LOOP('',(#763,#764,#772,#778));
#780=FACE_OUTER_BOUND('',#779,.T.);
#781=ADVANCED_FACE('',(#780),#754,.T.);
#782=CARTESIAN_POINT('',(-7.500000000000004,-2.220446E-016,15.250000000000000));
#783=DIRECTION('',(-1.0,0.0,0.0));
#784=DIRECTION('',(0.0,0.0,-1.0));
#785=AXIS2_PLACEMENT_3D('',#782,#783,#784);
#786=PLANE('',#785);
#787=ORIENTED_EDGE('',*,*,#708,.F.);
#788=CARTESIAN_POINT('',(-7.500000000000004,1.000000000000000,15.500000000000000));
#789=DIRECTION('',(0.0,-1.0,0.0));
#790=VECTOR('',#789,2.0);
#791=LINE('',#788,#790);
#792=EDGE_CURVE('',#766,#695,#791,.T.);
#793=ORIENTED_EDGE('',*,*,#792,.F.);
#794=ORIENTED_EDGE('',*,*,#771,.T.);
#795=ORIENTED_EDGE('',*,*,#731,.T.);
#796=EDGE_LOOP('',(#787,#793,#794,#795));
#797=FACE_OUTER_BOUND('',#796,.T.);
#798=ADVANCED_FACE('',(#797),#786,.T.);
#799=CARTESIAN_POINT('',(-1.778697E-016,0.0,15.500000000000000));
#800=DIRECTION('',(0.0,0.0,1.0));
#801=DIRECTION('',(1.0,0.0,0.0));
#802=AXIS2_PLACEMENT_3D('',#799,#800,#801);
#803=PLANE('',#802);
#804=ORIENTED_EDGE('',*,*,#777,.T.);
#805=ORIENTED_EDGE('',*,*,#792,.T.);
#806=ORIENTED_EDGE('',*,*,#700,.T.);
#807=CARTESIAN_POINT('',(-9.000000000000002,-7.249999999999999,15.500000000000000));
#808=VERTEX_POINT('',#807);
#809=CARTESIAN_POINT('',(-9.000000000000002,-7.249999999999999,15.500000000000000));
#810=DIRECTION('',(0.0,1.0,0.0));
#811=VECTOR('',#810,6.249999999999999);
#812=LINE('',#809,#811);
#813=EDGE_CURVE('',#808,#684,#812,.T.);
#814=ORIENTED_EDGE('',*,*,#813,.F.);
#815=CARTESIAN_POINT('',(9.000000000000002,-7.249999999999999,15.500000000000000));
#816=VERTEX_POINT('',#815);
#817=CARTESIAN_POINT('',(9.000000000000002,-7.249999999999999,15.500000000000000));
#818=DIRECTION('',(-1.0,0.0,0.0));
#819=VECTOR('',#818,18.000000000000007);
#820=LINE('',#817,#819);
#821=EDGE_CURVE('',#816,#808,#820,.T.);
#822=ORIENTED_EDGE('',*,*,#821,.F.);
#823=CARTESIAN_POINT('',(9.000000000000004,7.249999999999999,15.500000000000000));
#824=VERTEX_POINT('',#823);
#825=CARTESIAN_POINT('',(9.000000000000002,7.249999999999999,15.500000000000000));
#826=DIRECTION('',(0.0,-1.0,0.0));
#827=VECTOR('',#826,14.499999999999996);
#828=LINE('',#825,#827);
#829=EDGE_CURVE('',#824,#816,#828,.T.);
#830=ORIENTED_EDGE('',*,*,#829,.F.);
#831=CARTESIAN_POINT('',(-9.000000000000002,7.249999999999998,15.500000000000000));
#832=VERTEX_POINT('',#831);
#833=CARTESIAN_POINT('',(-9.000000000000002,7.249999999999999,15.500000000000000));
#834=DIRECTION('',(1.0,0.0,0.0));
#835=VECTOR('',#834,18.000000000000007);
#836=LINE('',#833,#835);
#837=EDGE_CURVE('',#832,#824,#836,.T.);
#838=ORIENTED_EDGE('',*,*,#837,.F.);
#839=CARTESIAN_POINT('',(-9.000000000000002,1.000000000000000,15.500000000000000));
#840=DIRECTION('',(0.0,1.0,0.0));
#841=VECTOR('',#840,6.249999999999998);
#842=LINE('',#839,#841);
#843=EDGE_CURVE('',#756,#832,#842,.T.);
#844=ORIENTED_EDGE('',*,*,#843,.F.);
#845=EDGE_LOOP('',(#804,#805,#806,#814,#822,#830,#838,#844));
#846=FACE_OUTER_BOUND('',#845,.T.);
#847=ADVANCED_FACE('',(#846),#803,.T.);
#848=CARTESIAN_POINT('',(-9.000000000000002,-3.875000000000000,15.0));
#849=DIRECTION('',(0.0,1.0,0.0));
#850=DIRECTION('',(-0.707106781186548,0.0,0.707106781186548));
#851=AXIS2_PLACEMENT_3D('',#848,#849,#850);
#852=CYLINDRICAL_SURFACE('',#851,0.500000000000000);
#853=ORIENTED_EDGE('',*,*,#692,.T.);
#854=CARTESIAN_POINT('',(-9.500000000000002,-7.249999999999999,15.0));
#855=VERTEX_POINT('',#854);
#856=CARTESIAN_POINT('',(-9.500000000000002,-1.000000000000000,15.0));
#857=DIRECTION('',(0.0,-1.0,0.0));
#858=VECTOR('',#857,6.250000000000000);
#859=LINE('',#856,#858);
#860=EDGE_CURVE('',#686,#855,#859,.T.);
#861=ORIENTED_EDGE('',*,*,#860,.T.);
#862=CARTESIAN_POINT('',(-9.000000000000002,-7.249999999999999,15.0));
#863=DIRECTION('',(0.0,-1.0,0.0));
#864=DIRECTION('',(-1.0,0.0,0.0));
#865=AXIS2_PLACEMENT_3D('',#862,#863,#864);
#866=CIRCLE('',#865,0.500000000000000);
#867=EDGE_CURVE('',#855,#808,#866,.F.);
#868=ORIENTED_EDGE('',*,*,#867,.T.);
#869=ORIENTED_EDGE('',*,*,#813,.T.);
#870=EDGE_LOOP('',(#853,#861,#868,#869));
#871=FACE_OUTER_BOUND('',#870,.T.);
#872=ADVANCED_FACE('',(#871),#852,.T.);
#873=CARTESIAN_POINT('',(9.000000000000002,-7.249999999999999,15.0));
#874=DIRECTION('',(0.0,0.0,1.0));
#875=DIRECTION('',(1.0,0.0,0.0));
#876=AXIS2_PLACEMENT_3D('',#873,#874,#875);
#877=SPHERICAL_SURFACE('',#876,0.500000000000000);
#878=CARTESIAN_POINT('',(9.000000000000002,-7.749999999999999,15.0));
#879=VERTEX_POINT('',#878);
#880=CARTESIAN_POINT('',(9.500000000000002,-7.249999999999998,15.0));
#881=VERTEX_POINT('',#880);
#882=CARTESIAN_POINT('',(9.000000000000002,-7.249999999999999,15.0));
#883=DIRECTION('',(0.0,0.0,1.000000000000000));
#884=DIRECTION('',(0.707106781186548,-0.707106781186548,0.0));
#885=AXIS2_PLACEMENT_3D('',#882,#883,#884);
#886=CIRCLE('',#885,0.500000000000000);
#887=EDGE_CURVE('',#879,#881,#886,.T.);
#888=ORIENTED_EDGE('',*,*,#887,.T.);
#889=CARTESIAN_POINT('',(9.000000000000002,-7.249999999999998,15.0));
#890=DIRECTION('',(0.0,-1.0,0.0));
#891=DIRECTION('',(0.0,0.0,1.0));
#892=AXIS2_PLACEMENT_3D('',#889,#890,#891);
#893=CIRCLE('',#892,0.500000000000000);
#894=EDGE_CURVE('',#816,#881,#893,.F.);
#895=ORIENTED_EDGE('',*,*,#894,.F.);
#896=CARTESIAN_POINT('',(9.000000000000002,-7.249999999999999,15.0));
#897=DIRECTION('',(1.0,0.0,0.0));
#898=DIRECTION('',(0.0,-1.0,0.0));
#899=AXIS2_PLACEMENT_3D('',#896,#897,#898);
#900=CIRCLE('',#899,0.500000000000000);
#901=EDGE_CURVE('',#879,#816,#900,.F.);
#902=ORIENTED_EDGE('',*,*,#901,.F.);
#903=EDGE_LOOP('',(#888,#895,#902));
#904=FACE_OUTER_BOUND('',#903,.T.);
#905=ADVANCED_FACE('',(#904),#877,.T.);
#906=CARTESIAN_POINT('',(9.000000000000002,7.249999999999999,15.0));
#907=DIRECTION('',(0.0,0.0,1.0));
#908=DIRECTION('',(1.0,0.0,0.0));
#909=AXIS2_PLACEMENT_3D('',#906,#907,#908);
#910=SPHERICAL_SURFACE('',#909,0.500000000000000);
#911=CARTESIAN_POINT('',(9.500000000000002,7.249999999999999,15.0));
#912=VERTEX_POINT('',#911);
#913=CARTESIAN_POINT('',(9.000000000000004,7.749999999999999,15.0));
#914=VERTEX_POINT('',#913);
#915=CARTESIAN_POINT('',(9.000000000000002,7.249999999999999,15.0));
#916=DIRECTION('',(0.0,0.0,1.000000000000000));
#917=DIRECTION('',(0.707106781186548,0.707106781186548,0.0));
#918=AXIS2_PLACEMENT_3D('',#915,#916,#917);
#919=CIRCLE('',#918,0.500000000000000);
#920=EDGE_CURVE('',#912,#914,#919,.T.);
#921=ORIENTED_EDGE('',*,*,#920,.T.);
#922=CARTESIAN_POINT('',(9.000000000000004,7.249999999999999,15.0));
#923=DIRECTION('',(1.0,0.0,0.0));
#924=DIRECTION('',(0.0,0.0,1.0));
#925=AXIS2_PLACEMENT_3D('',#922,#923,#924);
#926=CIRCLE('',#925,0.500000000000000);
#927=EDGE_CURVE('',#824,#914,#926,.F.);
#928=ORIENTED_EDGE('',*,*,#927,.F.);
#929=CARTESIAN_POINT('',(9.000000000000002,7.249999999999999,15.0));
#930=DIRECTION('',(0.0,1.0,0.0));
#931=DIRECTION('',(0.707106781186550,0.0,0.707106781186545));
#932=AXIS2_PLACEMENT_3D('',#929,#930,#931);
#933=CIRCLE('',#932,0.500000000000000);
#934=EDGE_CURVE('',#824,#912,#933,.T.);
#935=ORIENTED_EDGE('',*,*,#934,.T.);
#936=EDGE_LOOP('',(#921,#928,#935));
#937=FACE_OUTER_BOUND('',#936,.T.);
#938=ADVANCED_FACE('',(#937),#910,.T.);
#939=CARTESIAN_POINT('',(-9.000000000000002,-7.249999999999999,15.0));
#940=DIRECTION('',(0.0,0.0,1.0));
#941=DIRECTION('',(1.0,0.0,0.0));
#942=AXIS2_PLACEMENT_3D('',#939,#940,#941);
#943=SPHERICAL_SURFACE('',#942,0.500000000000000);
#944=CARTESIAN_POINT('',(-9.000000000000002,-7.749999999999999,15.0));
#945=VERTEX_POINT('',#944);
#946=CARTESIAN_POINT('',(-9.000000000000004,-7.249999999999999,15.0));
#947=DIRECTION('',(-1.000000000000000,0.0,0.0));
#948=DIRECTION('',(0.0,-0.707106781186548,0.707106781186548));
#949=AXIS2_PLACEMENT_3D('',#946,#947,#948);
#950=CIRCLE('',#949,0.500000000000000);
#951=EDGE_CURVE('',#945,#808,#950,.T.);
#952=ORIENTED_EDGE('',*,*,#951,.T.);
#953=ORIENTED_EDGE('',*,*,#867,.F.);
#954=CARTESIAN_POINT('',(-9.000000000000002,-7.249999999999999,15.0));
#955=DIRECTION('',(0.0,0.0,1.000000000000000));
#956=DIRECTION('',(-0.707106781186548,-0.707106781186548,0.0));
#957=AXIS2_PLACEMENT_3D('',#954,#955,#956);
#958=CIRCLE('',#957,0.500000000000000);
#959=EDGE_CURVE('',#855,#945,#958,.T.);
#960=ORIENTED_EDGE('',*,*,#959,.T.);
#961=EDGE_LOOP('',(#952,#953,#960));
#962=FACE_OUTER_BOUND('',#961,.T.);
#963=ADVANCED_FACE('',(#962),#943,.T.);
#964=CARTESIAN_POINT('',(-9.000000000000002,7.249999999999999,15.0));
#965=DIRECTION('',(0.0,0.0,1.0));
#966=DIRECTION('',(1.0,0.0,0.0));
#967=AXIS2_PLACEMENT_3D('',#964,#965,#966);
#968=SPHERICAL_SURFACE('',#967,0.500000000000000);
#969=CARTESIAN_POINT('',(-9.000000000000002,7.749999999999999,15.0));
#970=VERTEX_POINT('',#969);
#971=CARTESIAN_POINT('',(-9.000000000000002,7.249999999999999,15.0));
#972=DIRECTION('',(-1.0,0.0,0.0));
#973=DIRECTION('',(0.0,0.707106781186546,0.707106781186549));
#974=AXIS2_PLACEMENT_3D('',#971,#972,#973);
#975=CIRCLE('',#974,0.500000000000000);
#976=EDGE_CURVE('',#832,#970,#975,.T.);
#977=ORIENTED_EDGE('',*,*,#976,.T.);
#978=CARTESIAN_POINT('',(-9.500000000000002,7.249999999999999,15.0));
#979=VERTEX_POINT('',#978);
#980=CARTESIAN_POINT('',(-9.000000000000002,7.249999999999999,15.0));
#981=DIRECTION('',(0.0,0.0,1.0));
#982=DIRECTION('',(-1.0,0.0,0.0));
#983=AXIS2_PLACEMENT_3D('',#980,#981,#982);
#984=CIRCLE('',#983,0.500000000000000);
#985=EDGE_CURVE('',#979,#970,#984,.F.);
#986=ORIENTED_EDGE('',*,*,#985,.F.);
#987=CARTESIAN_POINT('',(-9.000000000000002,7.249999999999998,15.0));
#988=DIRECTION('',(0.0,1.000000000000000,0.0));
#989=DIRECTION('',(-0.707106781186548,0.0,0.707106781186548));
#990=AXIS2_PLACEMENT_3D('',#987,#988,#989);
#991=CIRCLE('',#990,0.500000000000000);
#992=EDGE_CURVE('',#979,#832,#991,.T.);
#993=ORIENTED_EDGE('',*,*,#992,.T.);
#994=EDGE_LOOP('',(#977,#986,#993));
#995=FACE_OUTER_BOUND('',#994,.T.);
#996=ADVANCED_FACE('',(#995),#968,.T.);
#997=CARTESIAN_POINT('',(-9.000000000000002,7.249999999999999,0.500000000000000));
#998=DIRECTION('',(0.0,0.0,1.0));
#999=DIRECTION('',(-0.707106781186548,0.707106781186548,0.0));
#1000=AXIS2_PLACEMENT_3D('',#997,#998,#999);
#1001=CYLINDRICAL_SURFACE('',#1000,0.500000000000000);
#1002=CARTESIAN_POINT('',(-9.000000000000002,7.749999999999999,0.500000000000000));
#1003=VERTEX_POINT('',#1002);
#1004=CARTESIAN_POINT('',(-9.500000000000002,7.249999999999999,0.500000000000000));
#1005=VERTEX_POINT('',#1004);
#1006=CARTESIAN_POINT('',(-9.000000000000002,7.249999999999999,0.500000000000000));
#1007=DIRECTION('',(0.0,0.0,1.000000000000000));
#1008=DIRECTION('',(-0.707106781186548,0.707106781186548,0.0));
#1009=AXIS2_PLACEMENT_3D('',#1006,#1007,#1008);
#1010=CIRCLE('',#1009,0.500000000000000);
#1011=EDGE_CURVE('',#1003,#1005,#1010,.T.);
#1012=ORIENTED_EDGE('',*,*,#1011,.T.);
#1013=CARTESIAN_POINT('',(-9.500000000000002,7.249999999999999,0.500000000000000));
#1014=DIRECTION('',(0.0,0.0,1.0));
#1015=VECTOR('',#1014,14.500000000000000);
#1016=LINE('',#1013,#1015);
#1017=EDGE_CURVE('',#1005,#979,#1016,.T.);
#1018=ORIENTED_EDGE('',*,*,#1017,.T.);
#1019=ORIENTED_EDGE('',*,*,#985,.T.);
#1020=CARTESIAN_POINT('',(-9.000000000000002,7.749999999999999,15.0));
#1021=DIRECTION('',(0.0,0.0,-1.0));
#1022=VECTOR('',#1021,14.500000000000000);
#1023=LINE('',#1020,#1022);
#1024=EDGE_CURVE('',#970,#1003,#1023,.T.);
#1025=ORIENTED_EDGE('',*,*,#1024,.T.);
#1026=EDGE_LOOP('',(#1012,#1018,#1019,#1025));
#1027=FACE_OUTER_BOUND('',#1026,.T.);
#1028=ADVANCED_FACE('',(#1027),#1001,.T.);
#1029=CARTESIAN_POINT('',(-9.000000000000002,-3.875000000000000,15.0));
#1030=DIRECTION('',(0.0,1.0,0.0));
#1031=DIRECTION('',(-0.707106781186548,0.0,0.707106781186548));
#1032=AXIS2_PLACEMENT_3D('',#1029,#1030,#1031);
#1033=CYLINDRICAL_SURFACE('',#1032,0.500000000000000);
#1034=ORIENTED_EDGE('',*,*,#762,.T.);
#1035=ORIENTED_EDGE('',*,*,#843,.T.);
#1036=ORIENTED_EDGE('',*,*,#992,.F.);
#1037=CARTESIAN_POINT('',(-9.500000000000002,7.249999999999998,15.0));
#1038=DIRECTION('',(0.0,-1.0,0.0));
#1039=VECTOR('',#1038,6.249999999999998);
#1040=LINE('',#1037,#1039);
#1041=EDGE_CURVE('',#979,#734,#1040,.T.);
#1042=ORIENTED_EDGE('',*,*,#1041,.T.);
#1043=EDGE_LOOP('',(#1034,#1035,#1036,#1042));
#1044=FACE_OUTER_BOUND('',#1043,.T.);
#1045=ADVANCED_FACE('',(#1044),#1033,.T.);
#1046=CARTESIAN_POINT('',(-4.750000000000001,7.249999999999999,15.0));
#1047=DIRECTION('',(1.0,0.0,0.0));
#1048=DIRECTION('',(0.0,0.707106781186548,0.707106781186548));
#1049=AXIS2_PLACEMENT_3D('',#1046,#1047,#1048);
#1050=CYLINDRICAL_SURFACE('',#1049,0.500000000000000);
#1051=ORIENTED_EDGE('',*,*,#927,.T.);
#1052=CARTESIAN_POINT('',(9.000000000000004,7.749999999999999,15.0));
#1053=DIRECTION('',(-1.0,0.0,0.0));
#1054=VECTOR('',#1053,18.000000000000007);
#1055=LINE('',#1052,#1054);
#1056=EDGE_CURVE('',#914,#970,#1055,.T.);
#1057=ORIENTED_EDGE('',*,*,#1056,.T.);
#1058=ORIENTED_EDGE('',*,*,#976,.F.);
#1059=ORIENTED_EDGE('',*,*,#837,.T.);
#1060=EDGE_LOOP('',(#1051,#1057,#1058,#1059));
#1061=FACE_OUTER_BOUND('',#1060,.T.);
#1062=ADVANCED_FACE('',(#1061),#1050,.T.);
#1063=CARTESIAN_POINT('',(-9.000000000000002,-7.249999999999999,0.500000000000000));
#1064=DIRECTION('',(0.0,0.0,1.0));
#1065=DIRECTION('',(-0.707106781186548,-0.707106781186548,0.0));
#1066=AXIS2_PLACEMENT_3D('',#1063,#1064,#1065);
#1067=CYLINDRICAL_SURFACE('',#1066,0.500000000000000);
#1068=CARTESIAN_POINT('',(-9.500000000000002,-7.249999999999999,0.500000000000000));
#1069=VERTEX_POINT('',#1068);
#1070=CARTESIAN_POINT('',(-9.000000000000002,-7.749999999999999,0.500000000000000));
#1071=VERTEX_POINT('',#1070);
#1072=CARTESIAN_POINT('',(-9.000000000000002,-7.249999999999999,0.500000000000000));
#1073=DIRECTION('',(0.0,0.0,1.000000000000000));
#1074=DIRECTION('',(-0.707106781186548,-0.707106781186548,0.0));
#1075=AXIS2_PLACEMENT_3D('',#1072,#1073,#1074);
#1076=CIRCLE('',#1075,0.500000000000000);
#1077=EDGE_CURVE('',#1069,#1071,#1076,.T.);
#1078=ORIENTED_EDGE('',*,*,#1077,.T.);
#1079=CARTESIAN_POINT('',(-9.000000000000002,-7.749999999999999,0.500000000000000));
#1080=DIRECTION('',(0.0,0.0,1.0));
#1081=VECTOR('',#1080,14.500000000000000);
#1082=LINE('',#1079,#1081);
#1083=EDGE_CURVE('',#1071,#945,#1082,.T.);
#1084=ORIENTED_EDGE('',*,*,#1083,.T.);
#1085=ORIENTED_EDGE('',*,*,#959,.F.);
#1086=CARTESIAN_POINT('',(-9.500000000000002,-7.249999999999999,15.0));
#1087=DIRECTION('',(0.0,0.0,-1.0));
#1088=VECTOR('',#1087,14.500000000000000);
#1089=LINE('',#1086,#1088);
#1090=EDGE_CURVE('',#855,#1069,#1089,.T.);
#1091=ORIENTED_EDGE('',*,*,#1090,.T.);
#1092=EDGE_LOOP('',(#1078,#1084,#1085,#1091));
#1093=FACE_OUTER_BOUND('',#1092,.T.);
#1094=ADVANCED_FACE('',(#1093),#1067,.T.);
#1095=CARTESIAN_POINT('',(4.750000000000001,-7.249999999999999,15.0));
#1096=DIRECTION('',(-1.0,0.0,0.0));
#1097=DIRECTION('',(0.0,-0.707106781186548,0.707106781186548));
#1098=AXIS2_PLACEMENT_3D('',#1095,#1096,#1097);
#1099=CYLINDRICAL_SURFACE('',#1098,0.500000000000000);
#1100=ORIENTED_EDGE('',*,*,#951,.F.);
#1101=CARTESIAN_POINT('',(-9.000000000000004,-7.749999999999999,15.0));
#1102=DIRECTION('',(1.0,0.0,0.0));
#1103=VECTOR('',#1102,18.000000000000007);
#1104=LINE('',#1101,#1103);
#1105=EDGE_CURVE('',#945,#879,#1104,.T.);
#1106=ORIENTED_EDGE('',*,*,#1105,.T.);
#1107=ORIENTED_EDGE('',*,*,#901,.T.);
#1108=ORIENTED_EDGE('',*,*,#821,.T.);
#1109=EDGE_LOOP('',(#1100,#1106,#1107,#1108));
#1110=FACE_OUTER_BOUND('',#1109,.T.);
#1111=ADVANCED_FACE('',(#1110),#1099,.T.);
#1112=CARTESIAN_POINT('',(9.000000000000002,7.249999999999999,0.500000000000000));
#1113=DIRECTION('',(0.0,0.0,1.0));
#1114=DIRECTION('',(0.707106781186548,0.707106781186548,0.0));
#1115=AXIS2_PLACEMENT_3D('',#1112,#1113,#1114);
#1116=CYLINDRICAL_SURFACE('',#1115,0.500000000000000);
#1117=CARTESIAN_POINT('',(9.500000000000002,7.249999999999999,0.500000000000000));
#1118=VERTEX_POINT('',#1117);
#1119=CARTESIAN_POINT('',(9.000000000000002,7.749999999999999,0.500000000000000));
#1120=VERTEX_POINT('',#1119);
#1121=CARTESIAN_POINT('',(9.000000000000002,7.249999999999999,0.500000000000000));
#1122=DIRECTION('',(0.0,0.0,1.000000000000000));
#1123=DIRECTION('',(0.707106781186548,0.707106781186548,0.0));
#1124=AXIS2_PLACEMENT_3D('',#1121,#1122,#1123);
#1125=CIRCLE('',#1124,0.500000000000000);
#1126=EDGE_CURVE('',#1118,#1120,#1125,.T.);
#1127=ORIENTED_EDGE('',*,*,#1126,.T.);
#1128=CARTESIAN_POINT('',(9.000000000000002,7.749999999999999,0.500000000000000));
#1129=DIRECTION('',(0.0,0.0,1.0));
#1130=VECTOR('',#1129,14.500000000000000);
#1131=LINE('',#1128,#1130);
#1132=EDGE_CURVE('',#1120,#914,#1131,.T.);
#1133=ORIENTED_EDGE('',*,*,#1132,.T.);
#1134=ORIENTED_EDGE('',*,*,#920,.F.);
#1135=CARTESIAN_POINT('',(9.500000000000002,7.249999999999999,15.0));
#1136=DIRECTION('',(0.0,0.0,-1.0));
#1137=VECTOR('',#1136,14.500000000000000);
#1138=LINE('',#1135,#1137);
#1139=EDGE_CURVE('',#912,#1118,#1138,.T.);
#1140=ORIENTED_EDGE('',*,*,#1139,.T.);
#1141=EDGE_LOOP('',(#1127,#1133,#1134,#1140));
#1142=FACE_OUTER_BOUND('',#1141,.T.);
#1143=ADVANCED_FACE('',(#1142),#1116,.T.);
#1144=CARTESIAN_POINT('',(9.000000000000002,3.875000000000000,15.0));
#1145=DIRECTION('',(0.0,-1.0,0.0));
#1146=DIRECTION('',(0.707106781186548,0.0,0.707106781186548));
#1147=AXIS2_PLACEMENT_3D('',#1144,#1145,#1146);
#1148=CYLINDRICAL_SURFACE('',#1147,0.500000000000000);
#1149=ORIENTED_EDGE('',*,*,#894,.T.);
#1150=CARTESIAN_POINT('',(9.500000000000002,-7.249999999999998,15.0));
#1151=DIRECTION('',(0.0,1.0,0.0));
#1152=VECTOR('',#1151,14.499999999999996);
#1153=LINE('',#1150,#1152);
#1154=EDGE_CURVE('',#881,#912,#1153,.T.);
#1155=ORIENTED_EDGE('',*,*,#1154,.T.);
#1156=ORIENTED_EDGE('',*,*,#934,.F.);
#1157=ORIENTED_EDGE('',*,*,#829,.T.);
#1158=EDGE_LOOP('',(#1149,#1155,#1156,#1157));
#1159=FACE_OUTER_BOUND('',#1158,.T.);
#1160=ADVANCED_FACE('',(#1159),#1148,.T.);
#1161=CARTESIAN_POINT('',(9.000000000000002,-7.249999999999999,0.500000000000000));
#1162=DIRECTION('',(0.0,0.0,1.0));
#1163=DIRECTION('',(0.707106781186548,-0.707106781186548,0.0));
#1164=AXIS2_PLACEMENT_3D('',#1161,#1162,#1163);
#1165=CYLINDRICAL_SURFACE('',#1164,0.500000000000000);
#1166=CARTESIAN_POINT('',(9.000000000000002,-7.749999999999999,0.500000000000000));
#1167=VERTEX_POINT('',#1166);
#1168=CARTESIAN_POINT('',(9.500000000000002,-7.249999999999999,0.500000000000000));
#1169=VERTEX_POINT('',#1168);
#1170=CARTESIAN_POINT('',(9.000000000000002,-7.249999999999999,0.500000000000000));
#1171=DIRECTION('',(0.0,0.0,1.000000000000000));
#1172=DIRECTION('',(0.707106781186548,-0.707106781186548,0.0));
#1173=AXIS2_PLACEMENT_3D('',#1170,#1171,#1172);
#1174=CIRCLE('',#1173,0.500000000000000);
#1175=EDGE_CURVE('',#1167,#1169,#1174,.T.);
#1176=ORIENTED_EDGE('',*,*,#1175,.T.);
#1177=CARTESIAN_POINT('',(9.500000000000002,-7.249999999999999,0.500000000000000));
#1178=DIRECTION('',(0.0,0.0,1.0));
#1179=VECTOR('',#1178,14.500000000000000);
#1180=LINE('',#1177,#1179);
#1181=EDGE_CURVE('',#1169,#881,#1180,.T.);
#1182=ORIENTED_EDGE('',*,*,#1181,.T.);
#1183=ORIENTED_EDGE('',*,*,#887,.F.);
#1184=CARTESIAN_POINT('',(9.000000000000002,-7.749999999999999,15.0));
#1185=DIRECTION('',(0.0,0.0,-1.0));
#1186=VECTOR('',#1185,14.500000000000000);
#1187=LINE('',#1184,#1186);
#1188=EDGE_CURVE('',#879,#1167,#1187,.T.);
#1189=ORIENTED_EDGE('',*,*,#1188,.T.);
#1190=EDGE_LOOP('',(#1176,#1182,#1183,#1189));
#1191=FACE_OUTER_BOUND('',#1190,.T.);
#1192=ADVANCED_FACE('',(#1191),#1165,.T.);
#1193=CARTESIAN_POINT('',(-9.500000000000002,-7.749999999999999,0.500000000000000));
#1194=DIRECTION('',(-1.0,0.0,0.0));
#1195=DIRECTION('',(0.0,0.0,1.0));
#1196=AXIS2_PLACEMENT_3D('',#1193,#1194,#1195);
#1197=PLANE('',#1196);
#1198=ORIENTED_EDGE('',*,*,#1090,.F.);
#1199=ORIENTED_EDGE('',*,*,#860,.F.);
#1200=ORIENTED_EDGE('',*,*,#745,.F.);
#1201=ORIENTED_EDGE('',*,*,#1041,.F.);
#1202=ORIENTED_EDGE('',*,*,#1017,.F.);
#1203=CARTESIAN_POINT('',(-9.500000000000002,-7.249999999999999,0.500000000000000));
#1204=DIRECTION('',(0.0,1.0,0.0));
#1205=VECTOR('',#1204,14.499999999999998);
#1206=LINE('',#1203,#1205);
#1207=EDGE_CURVE('',#1069,#1005,#1206,.T.);
#1208=ORIENTED_EDGE('',*,*,#1207,.F.);
#1209=EDGE_LOOP('',(#1198,#1199,#1200,#1201,#1202,#1208));
#1210=FACE_OUTER_BOUND('',#1209,.T.);
#1211=ADVANCED_FACE('',(#1210),#1197,.T.);
#1212=CARTESIAN_POINT('',(-9.500000000000002,7.749999999999999,0.500000000000000));
#1213=DIRECTION('',(0.0,1.0,0.0));
#1214=DIRECTION('',(0.0,0.0,1.0));
#1215=AXIS2_PLACEMENT_3D('',#1212,#1213,#1214);
#1216=PLANE('',#1215);
#1217=ORIENTED_EDGE('',*,*,#1024,.F.);
#1218=ORIENTED_EDGE('',*,*,#1056,.F.);
#1219=ORIENTED_EDGE('',*,*,#1132,.F.);
#1220=CARTESIAN_POINT('',(-9.000000000000002,7.749999999999999,0.500000000000000));
#1221=DIRECTION('',(1.0,0.0,0.0));
#1222=VECTOR('',#1221,18.000000000000004);
#1223=LINE('',#1220,#1222);
#1224=EDGE_CURVE('',#1003,#1120,#1223,.T.);
#1225=ORIENTED_EDGE('',*,*,#1224,.F.);
#1226=EDGE_LOOP('',(#1217,#1218,#1219,#1225));
#1227=FACE_OUTER_BOUND('',#1226,.T.);
#1228=ADVANCED_FACE('',(#1227),#1216,.T.);
#1229=CARTESIAN_POINT('',(9.500000000000002,7.749999999999999,0.500000000000000));
#1230=DIRECTION('',(1.0,0.0,0.0));
#1231=DIRECTION('',(0.0,0.0,-1.0));
#1232=AXIS2_PLACEMENT_3D('',#1229,#1230,#1231);
#1233=PLANE('',#1232);
#1234=ORIENTED_EDGE('',*,*,#1181,.F.);
#1235=CARTESIAN_POINT('',(9.500000000000002,7.249999999999999,0.500000000000000));
#1236=DIRECTION('',(0.0,-1.0,0.0));
#1237=VECTOR('',#1236,14.499999999999998);
#1238=LINE('',#1235,#1237);
#1239=EDGE_CURVE('',#1118,#1169,#1238,.T.);
#1240=ORIENTED_EDGE('',*,*,#1239,.F.);
#1241=ORIENTED_EDGE('',*,*,#1139,.F.);
#1242=ORIENTED_EDGE('',*,*,#1154,.F.);
#1243=EDGE_LOOP('',(#1234,#1240,#1241,#1242));
#1244=FACE_OUTER_BOUND('',#1243,.T.);
#1245=ADVANCED_FACE('',(#1244),#1233,.T.);
#1246=CARTESIAN_POINT('',(9.500000000000002,-7.749999999999999,0.500000000000000));
#1247=DIRECTION('',(0.0,-1.0,0.0));
#1248=DIRECTION('',(0.0,0.0,-1.0));
#1249=AXIS2_PLACEMENT_3D('',#1246,#1247,#1248);
#1250=PLANE('',#1249);
#1251=ORIENTED_EDGE('',*,*,#1083,.F.);
#1252=CARTESIAN_POINT('',(9.000000000000002,-7.749999999999999,0.500000000000000));
#1253=DIRECTION('',(-1.0,0.0,0.0));
#1254=VECTOR('',#1253,18.000000000000004);
#1255=LINE('',#1252,#1254);
#1256=EDGE_CURVE('',#1167,#1071,#1255,.T.);
#1257=ORIENTED_EDGE('',*,*,#1256,.F.);
#1258=ORIENTED_EDGE('',*,*,#1188,.F.);
#1259=ORIENTED_EDGE('',*,*,#1105,.F.);
#1260=EDGE_LOOP('',(#1251,#1257,#1258,#1259));
#1261=FACE_OUTER_BOUND('',#1260,.T.);
#1262=ADVANCED_FACE('',(#1261),#1250,.T.);
#1263=CARTESIAN_POINT('',(1.778697E-016,0.0,0.500000000000000));
#1264=DIRECTION('',(0.0,0.0,1.0));
#1265=DIRECTION('',(1.0,0.0,0.0));
#1266=AXIS2_PLACEMENT_3D('',#1263,#1264,#1265);
#1267=PLANE('',#1266);
#1268=ORIENTED_EDGE('',*,*,#1077,.F.);
#1269=ORIENTED_EDGE('',*,*,#1207,.T.);
#1270=ORIENTED_EDGE('',*,*,#1011,.F.);
#1271=ORIENTED_EDGE('',*,*,#1224,.T.);
#1272=ORIENTED_EDGE('',*,*,#1126,.F.);
#1273=ORIENTED_EDGE('',*,*,#1239,.T.);
#1274=ORIENTED_EDGE('',*,*,#1175,.F.);
#1275=ORIENTED_EDGE('',*,*,#1256,.T.);
#1276=EDGE_LOOP('',(#1268,#1269,#1270,#1271,#1272,#1273,#1274,#1275));
#1277=FACE_OUTER_BOUND('',#1276,.T.);
#1278=ADVANCED_FACE('',(#1277),#1267,.F.);
#1279=CLOSED_SHELL('',(#718,#749,#781,#798,#847,#872,#905,#938,#963,#996,#1028,#1045,#1062,#1094,#1111,#1143,#1160,#1192,#1211,#1228,#1245,#1262,#1278));
#1280=MANIFOLD_SOLID_BREP('8D8',#1279);
#1281=STYLED_ITEM('NONE',(#221),#1280);
#1282=CARTESIAN_POINT('',(-5.599999999999994,6.250000000000000,0.500000000000000));
#1283=DIRECTION('',(0.0,1.0,0.0));
#1284=DIRECTION('',(0.0,0.0,1.0));
#1285=AXIS2_PLACEMENT_3D('',#1282,#1283,#1284);
#1286=PLANE('',#1285);
#1287=CARTESIAN_POINT('',(-5.599999999999994,6.250000000000000,-3.600000000000000));
#1288=VERTEX_POINT('',#1287);
#1289=CARTESIAN_POINT('',(-6.599999999999994,6.250000000000000,-3.600000000000000));
#1290=VERTEX_POINT('',#1289);
#1291=CARTESIAN_POINT('',(-5.599999999999994,6.250000000000000,-3.600000000000000));
#1292=DIRECTION('',(-1.0,0.0,0.0));
#1293=VECTOR('',#1292,1.0);
#1294=LINE('',#1291,#1293);
#1295=EDGE_CURVE('',#1288,#1290,#1294,.T.);
#1296=ORIENTED_EDGE('',*,*,#1295,.T.);
#1297=CARTESIAN_POINT('',(-6.599999999999994,6.250000000000000,0.500000000000000));
#1298=VERTEX_POINT('',#1297);
#1299=CARTESIAN_POINT('',(-6.599999999999994,6.250000000000000,0.500000000000000));
#1300=DIRECTION('',(0.0,0.0,-1.0));
#1301=VECTOR('',#1300,4.100000000000000);
#1302=LINE('',#1299,#1301);
#1303=EDGE_CURVE('',#1298,#1290,#1302,.T.);
#1304=ORIENTED_EDGE('',*,*,#1303,.F.);
#1305=CARTESIAN_POINT('',(-5.599999999999994,6.250000000000000,0.500000000000000));
#1306=VERTEX_POINT('',#1305);
#1307=CARTESIAN_POINT('',(-5.599999999999994,6.250000000000000,0.500000000000000));
#1308=DIRECTION('',(-1.0,0.0,0.0));
#1309=VECTOR('',#1308,1.0);
#1310=LINE('',#1307,#1309);
#1311=EDGE_CURVE('',#1306,#1298,#1310,.T.);
#1312=ORIENTED_EDGE('',*,*,#1311,.F.);
#1313=CARTESIAN_POINT('',(-5.599999999999994,6.250000000000000,0.500000000000000));
#1314=DIRECTION('',(0.0,0.0,-1.0));
#1315=VECTOR('',#1314,4.100000000000000);
#1316=LINE('',#1313,#1315);
#1317=EDGE_CURVE('',#1306,#1288,#1316,.T.);
#1318=ORIENTED_EDGE('',*,*,#1317,.T.);
#1319=EDGE_LOOP('',(#1296,#1304,#1312,#1318));
#1320=FACE_OUTER_BOUND('',#1319,.T.);
#1321=ADVANCED_FACE('',(#1320),#1286,.T.);
#1322=CARTESIAN_POINT('',(-6.599999999999994,6.250000000000000,0.500000000000000));
#1323=DIRECTION('',(-1.0,0.0,0.0));
#1324=DIRECTION('',(0.0,0.0,1.0));
#1325=AXIS2_PLACEMENT_3D('',#1322,#1323,#1324);
#1326=PLANE('',#1325);
#1327=CARTESIAN_POINT('',(-6.599999999999994,5.750000000000000,-3.600000000000000));
#1328=VERTEX_POINT('',#1327);
#1329=CARTESIAN_POINT('',(-6.599999999999994,6.250000000000000,-3.600000000000000));
#1330=DIRECTION('',(0.0,-1.0,0.0));
#1331=VECTOR('',#1330,0.500000000000000);
#1332=LINE('',#1329,#1331);
#1333=EDGE_CURVE('',#1290,#1328,#1332,.T.);
#1334=ORIENTED_EDGE('',*,*,#1333,.T.);
#1335=CARTESIAN_POINT('',(-6.599999999999994,5.750000000000000,0.500000000000000));
#1336=VERTEX_POINT('',#1335);
#1337=CARTESIAN_POINT('',(-6.599999999999994,5.750000000000000,0.500000000000000));
#1338=DIRECTION('',(0.0,0.0,-1.0));
#1339=VECTOR('',#1338,4.100000000000000);
#1340=LINE('',#1337,#1339);
#1341=EDGE_CURVE('',#1336,#1328,#1340,.T.);
#1342=ORIENTED_EDGE('',*,*,#1341,.F.);
#1343=CARTESIAN_POINT('',(-6.599999999999994,6.250000000000000,0.500000000000000));
#1344=DIRECTION('',(0.0,-1.0,0.0));
#1345=VECTOR('',#1344,0.500000000000000);
#1346=LINE('',#1343,#1345);
#1347=EDGE_CURVE('',#1298,#1336,#1346,.T.);
#1348=ORIENTED_EDGE('',*,*,#1347,.F.);
#1349=ORIENTED_EDGE('',*,*,#1303,.T.);
#1350=EDGE_LOOP('',(#1334,#1342,#1348,#1349));
#1351=FACE_OUTER_BOUND('',#1350,.T.);
#1352=ADVANCED_FACE('',(#1351),#1326,.T.);
#1353=CARTESIAN_POINT('',(-6.599999999999994,5.750000000000000,0.500000000000000));
#1354=DIRECTION('',(0.0,-1.0,0.0));
#1355=DIRECTION('',(0.0,0.0,-1.0));
#1356=AXIS2_PLACEMENT_3D('',#1353,#1354,#1355);
#1357=PLANE('',#1356);
#1358=CARTESIAN_POINT('',(-5.599999999999994,5.750000000000000,-3.600000000000000));
#1359=VERTEX_POINT('',#1358);
#1360=CARTESIAN_POINT('',(-6.599999999999994,5.750000000000000,-3.600000000000000));
#1361=DIRECTION('',(1.0,0.0,0.0));
#1362=VECTOR('',#1361,1.0);
#1363=LINE('',#1360,#1362);
#1364=EDGE_CURVE('',#1328,#1359,#1363,.T.);
#1365=ORIENTED_EDGE('',*,*,#1364,.T.);
#1366=CARTESIAN_POINT('',(-5.599999999999994,5.750000000000000,0.500000000000000));
#1367=VERTEX_POINT('',#1366);
#1368=CARTESIAN_POINT('',(-5.599999999999994,5.750000000000000,0.500000000000000));
#1369=DIRECTION('',(0.0,0.0,-1.0));
#1370=VECTOR('',#1369,4.100000000000000);
#1371=LINE('',#1368,#1370);
#1372=EDGE_CURVE('',#1367,#1359,#1371,.T.);
#1373=ORIENTED_EDGE('',*,*,#1372,.F.);
#1374=CARTESIAN_POINT('',(-6.599999999999994,5.750000000000000,0.500000000000000));
#1375=DIRECTION('',(1.0,0.0,0.0));
#1376=VECTOR('',#1375,1.0);
#1377=LINE('',#1374,#1376);
#1378=EDGE_CURVE('',#1336,#1367,#1377,.T.);
#1379=ORIENTED_EDGE('',*,*,#1378,.F.);
#1380=ORIENTED_EDGE('',*,*,#1341,.T.);
#1381=EDGE_LOOP('',(#1365,#1373,#1379,#1380));
#1382=FACE_OUTER_BOUND('',#1381,.T.);
#1383=ADVANCED_FACE('',(#1382),#1357,.T.);
#1384=CARTESIAN_POINT('',(-5.599999999999994,5.750000000000000,0.500000000000000));
#1385=DIRECTION('',(1.0,0.0,0.0));
#1386=DIRECTION('',(0.0,0.0,-1.0));
#1387=AXIS2_PLACEMENT_3D('',#1384,#1385,#1386);
#1388=PLANE('',#1387);
#1389=CARTESIAN_POINT('',(-5.599999999999994,5.750000000000000,-3.600000000000000));
#1390=DIRECTION('',(0.0,1.0,0.0));
#1391=VECTOR('',#1390,0.500000000000000);
#1392=LINE('',#1389,#1391);
#1393=EDGE_CURVE('',#1359,#1288,#1392,.T.);
#1394=ORIENTED_EDGE('',*,*,#1393,.T.);
#1395=ORIENTED_EDGE('',*,*,#1317,.F.);
#1396=CARTESIAN_POINT('',(-5.599999999999994,5.750000000000000,0.500000000000000));
#1397=DIRECTION('',(0.0,1.0,0.0));
#1398=VECTOR('',#1397,0.500000000000000);
#1399=LINE('',#1396,#1398);
#1400=EDGE_CURVE('',#1367,#1306,#1399,.T.);
#1401=ORIENTED_EDGE('',*,*,#1400,.F.);
#1402=ORIENTED_EDGE('',*,*,#1372,.T.);
#1403=EDGE_LOOP('',(#1394,#1395,#1401,#1402));
#1404=FACE_OUTER_BOUND('',#1403,.T.);
#1405=ADVANCED_FACE('',(#1404),#1388,.T.);
#1406=CARTESIAN_POINT('',(-6.099999999999994,6.0,-3.600000000000000));
#1407=DIRECTION('',(0.0,0.0,1.0));
#1408=DIRECTION('',(1.0,0.0,0.0));
#1409=AXIS2_PLACEMENT_3D('',#1406,#1407,#1408);
#1410=PLANE('',#1409);
#1411=ORIENTED_EDGE('',*,*,#1295,.F.);
#1412=ORIENTED_EDGE('',*,*,#1393,.F.);
#1413=ORIENTED_EDGE('',*,*,#1364,.F.);
#1414=ORIENTED_EDGE('',*,*,#1333,.F.);
#1415=EDGE_LOOP('',(#1411,#1412,#1413,#1414));
#1416=FACE_OUTER_BOUND('',#1415,.T.);
#1417=ADVANCED_FACE('',(#1416),#1410,.F.);
#1418=CARTESIAN_POINT('',(-6.099999999999994,6.0,0.500000000000000));
#1419=DIRECTION('',(0.0,0.0,1.0));
#1420=DIRECTION('',(1.0,0.0,0.0));
#1421=AXIS2_PLACEMENT_3D('',#1418,#1419,#1420);
#1422=PLANE('',#1421);
#1423=ORIENTED_EDGE('',*,*,#1400,.T.);
#1424=ORIENTED_EDGE('',*,*,#1311,.T.);
#1425=ORIENTED_EDGE('',*,*,#1347,.T.);
#1426=ORIENTED_EDGE('',*,*,#1378,.T.);
#1427=EDGE_LOOP('',(#1423,#1424,#1425,#1426));
#1428=FACE_OUTER_BOUND('',#1427,.T.);
#1429=ADVANCED_FACE('',(#1428),#1422,.T.);
#1430=CLOSED_SHELL('',(#1321,#1352,#1383,#1405,#1417,#1429));
#1431=MANIFOLD_SOLID_BREP('8D4',#1430);
#1432=COLOUR_RGB('254',0.866000000000000,0.866000000000000,0.866000000000000);
#1433=SURFACE_STYLE_USAGE(.BOTH.,#1434);
#1434=SURFACE_SIDE_STYLE('NONE',(#1435));
#1435=SURFACE_STYLE_FILL_AREA(#1436);
#1436=FILL_AREA_STYLE('NONE',(#1437));
#1437=FILL_AREA_STYLE_COLOUR('NONE',#1432);
#1438=PRESENTATION_STYLE_ASSIGNMENT((#1433));
#1439=STYLED_ITEM('NONE',(#1438),#1431);
#1440=CARTESIAN_POINT('',(6.600000000000001,6.250000000000000,0.500000000000000));
#1441=DIRECTION('',(0.0,1.0,0.0));
#1442=DIRECTION('',(0.0,0.0,1.0));
#1443=AXIS2_PLACEMENT_3D('',#1440,#1441,#1442);
#1444=PLANE('',#1443);
#1445=CARTESIAN_POINT('',(6.600000000000001,6.250000000000000,-3.600000000000000));
#1446=VERTEX_POINT('',#1445);
#1447=CARTESIAN_POINT('',(5.600000000000001,6.250000000000000,-3.600000000000000));
#1448=VERTEX_POINT('',#1447);
#1449=CARTESIAN_POINT('',(6.600000000000001,6.250000000000000,-3.600000000000000));
#1450=DIRECTION('',(-1.0,0.0,0.0));
#1451=VECTOR('',#1450,1.0);
#1452=LINE('',#1449,#1451);
#1453=EDGE_CURVE('',#1446,#1448,#1452,.T.);
#1454=ORIENTED_EDGE('',*,*,#1453,.T.);
#1455=CARTESIAN_POINT('',(5.600000000000001,6.250000000000000,0.500000000000000));
#1456=VERTEX_POINT('',#1455);
#1457=CARTESIAN_POINT('',(5.600000000000001,6.250000000000000,0.500000000000000));
#1458=DIRECTION('',(0.0,0.0,-1.0));
#1459=VECTOR('',#1458,4.100000000000000);
#1460=LINE('',#1457,#1459);
#1461=EDGE_CURVE('',#1456,#1448,#1460,.T.);
#1462=ORIENTED_EDGE('',*,*,#1461,.F.);
#1463=CARTESIAN_POINT('',(6.600000000000001,6.250000000000000,0.500000000000000));
#1464=VERTEX_POINT('',#1463);
#1465=CARTESIAN_POINT('',(6.600000000000001,6.250000000000000,0.500000000000000));
#1466=DIRECTION('',(-1.0,0.0,0.0));
#1467=VECTOR('',#1466,1.0);
#1468=LINE('',#1465,#1467);
#1469=EDGE_CURVE('',#1464,#1456,#1468,.T.);
#1470=ORIENTED_EDGE('',*,*,#1469,.F.);
#1471=CARTESIAN_POINT('',(6.600000000000001,6.250000000000000,0.500000000000000));
#1472=DIRECTION('',(0.0,0.0,-1.0));
#1473=VECTOR('',#1472,4.100000000000000);
#1474=LINE('',#1471,#1473);
#1475=EDGE_CURVE('',#1464,#1446,#1474,.T.);
#1476=ORIENTED_EDGE('',*,*,#1475,.T.);
#1477=EDGE_LOOP('',(#1454,#1462,#1470,#1476));
#1478=FACE_OUTER_BOUND('',#1477,.T.);
#1479=ADVANCED_FACE('',(#1478),#1444,.T.);
#1480=CARTESIAN_POINT('',(5.600000000000001,6.250000000000000,0.500000000000000));
#1481=DIRECTION('',(-1.0,0.0,0.0));
#1482=DIRECTION('',(0.0,0.0,1.0));
#1483=AXIS2_PLACEMENT_3D('',#1480,#1481,#1482);
#1484=PLANE('',#1483);
#1485=CARTESIAN_POINT('',(5.600000000000001,5.750000000000000,-3.600000000000000));
#1486=VERTEX_POINT('',#1485);
#1487=CARTESIAN_POINT('',(5.600000000000001,6.250000000000000,-3.600000000000000));
#1488=DIRECTION('',(0.0,-1.0,0.0));
#1489=VECTOR('',#1488,0.500000000000000);
#1490=LINE('',#1487,#1489);
#1491=EDGE_CURVE('',#1448,#1486,#1490,.T.);
#1492=ORIENTED_EDGE('',*,*,#1491,.T.);
#1493=CARTESIAN_POINT('',(5.600000000000001,5.750000000000000,0.500000000000000));
#1494=VERTEX_POINT('',#1493);
#1495=CARTESIAN_POINT('',(5.600000000000001,5.750000000000000,0.500000000000000));
#1496=DIRECTION('',(0.0,0.0,-1.0));
#1497=VECTOR('',#1496,4.100000000000000);
#1498=LINE('',#1495,#1497);
#1499=EDGE_CURVE('',#1494,#1486,#1498,.T.);
#1500=ORIENTED_EDGE('',*,*,#1499,.F.);
#1501=CARTESIAN_POINT('',(5.600000000000001,6.250000000000000,0.500000000000000));
#1502=DIRECTION('',(0.0,-1.0,0.0));
#1503=VECTOR('',#1502,0.500000000000000);
#1504=LINE('',#1501,#1503);
#1505=EDGE_CURVE('',#1456,#1494,#1504,.T.);
#1506=ORIENTED_EDGE('',*,*,#1505,.F.);
#1507=ORIENTED_EDGE('',*,*,#1461,.T.);
#1508=EDGE_LOOP('',(#1492,#1500,#1506,#1507));
#1509=FACE_OUTER_BOUND('',#1508,.T.);
#1510=ADVANCED_FACE('',(#1509),#1484,.T.);
#1511=CARTESIAN_POINT('',(5.600000000000001,5.750000000000000,0.500000000000000));
#1512=DIRECTION('',(0.0,-1.0,0.0));
#1513=DIRECTION('',(0.0,0.0,-1.0));
#1514=AXIS2_PLACEMENT_3D('',#1511,#1512,#1513);
#1515=PLANE('',#1514);
#1516=CARTESIAN_POINT('',(6.600000000000001,5.750000000000000,-3.600000000000000));
#1517=VERTEX_POINT('',#1516);
#1518=CARTESIAN_POINT('',(5.600000000000001,5.750000000000000,-3.600000000000000));
#1519=DIRECTION('',(1.0,0.0,0.0));
#1520=VECTOR('',#1519,1.0);
#1521=LINE('',#1518,#1520);
#1522=EDGE_CURVE('',#1486,#1517,#1521,.T.);
#1523=ORIENTED_EDGE('',*,*,#1522,.T.);
#1524=CARTESIAN_POINT('',(6.600000000000001,5.750000000000000,0.500000000000000));
#1525=VERTEX_POINT('',#1524);
#1526=CARTESIAN_POINT('',(6.600000000000001,5.750000000000000,0.500000000000000));
#1527=DIRECTION('',(0.0,0.0,-1.0));
#1528=VECTOR('',#1527,4.100000000000000);
#1529=LINE('',#1526,#1528);
#1530=EDGE_CURVE('',#1525,#1517,#1529,.T.);
#1531=ORIENTED_EDGE('',*,*,#1530,.F.);
#1532=CARTESIAN_POINT('',(5.600000000000001,5.750000000000000,0.500000000000000));
#1533=DIRECTION('',(1.0,0.0,0.0));
#1534=VECTOR('',#1533,1.0);
#1535=LINE('',#1532,#1534);
#1536=EDGE_CURVE('',#1494,#1525,#1535,.T.);
#1537=ORIENTED_EDGE('',*,*,#1536,.F.);
#1538=ORIENTED_EDGE('',*,*,#1499,.T.);
#1539=EDGE_LOOP('',(#1523,#1531,#1537,#1538));
#1540=FACE_OUTER_BOUND('',#1539,.T.);
#1541=ADVANCED_FACE('',(#1540),#1515,.T.);
#1542=CARTESIAN_POINT('',(6.600000000000001,5.750000000000000,0.500000000000000));
#1543=DIRECTION('',(1.0,0.0,0.0));
#1544=DIRECTION('',(0.0,0.0,-1.0));
#1545=AXIS2_PLACEMENT_3D('',#1542,#1543,#1544);
#1546=PLANE('',#1545);
#1547=CARTESIAN_POINT('',(6.600000000000001,5.750000000000000,-3.600000000000000));
#1548=DIRECTION('',(0.0,1.0,0.0));
#1549=VECTOR('',#1548,0.500000000000000);
#1550=LINE('',#1547,#1549);
#1551=EDGE_CURVE('',#1517,#1446,#1550,.T.);
#1552=ORIENTED_EDGE('',*,*,#1551,.T.);
#1553=ORIENTED_EDGE('',*,*,#1475,.F.);
#1554=CARTESIAN_POINT('',(6.600000000000001,5.750000000000000,0.500000000000000));
#1555=DIRECTION('',(0.0,1.0,0.0));
#1556=VECTOR('',#1555,0.500000000000000);
#1557=LINE('',#1554,#1556);
#1558=EDGE_CURVE('',#1525,#1464,#1557,.T.);
#1559=ORIENTED_EDGE('',*,*,#1558,.F.);
#1560=ORIENTED_EDGE('',*,*,#1530,.T.);
#1561=EDGE_LOOP('',(#1552,#1553,#1559,#1560));
#1562=FACE_OUTER_BOUND('',#1561,.T.);
#1563=ADVANCED_FACE('',(#1562),#1546,.T.);
#1564=CARTESIAN_POINT('',(6.100000000000001,6.0,-3.600000000000000));
#1565=DIRECTION('',(0.0,0.0,1.0));
#1566=DIRECTION('',(1.0,0.0,0.0));
#1567=AXIS2_PLACEMENT_3D('',#1564,#1565,#1566);
#1568=PLANE('',#1567);
#1569=ORIENTED_EDGE('',*,*,#1453,.F.);
#1570=ORIENTED_EDGE('',*,*,#1551,.F.);
#1571=ORIENTED_EDGE('',*,*,#1522,.F.);
#1572=ORIENTED_EDGE('',*,*,#1491,.F.);
#1573=EDGE_LOOP('',(#1569,#1570,#1571,#1572));
#1574=FACE_OUTER_BOUND('',#1573,.T.);
#1575=ADVANCED_FACE('',(#1574),#1568,.F.);
#1576=CARTESIAN_POINT('',(6.100000000000001,6.0,0.500000000000000));
#1577=DIRECTION('',(0.0,0.0,1.0));
#1578=DIRECTION('',(1.0,0.0,0.0));
#1579=AXIS2_PLACEMENT_3D('',#1576,#1577,#1578);
#1580=PLANE('',#1579);
#1581=ORIENTED_EDGE('',*,*,#1558,.T.);
#1582=ORIENTED_EDGE('',*,*,#1469,.T.);
#1583=ORIENTED_EDGE('',*,*,#1505,.T.);
#1584=ORIENTED_EDGE('',*,*,#1536,.T.);
#1585=EDGE_LOOP('',(#1581,#1582,#1583,#1584));
#1586=FACE_OUTER_BOUND('',#1585,.T.);
#1587=ADVANCED_FACE('',(#1586),#1580,.T.);
#1588=CLOSED_SHELL('',(#1479,#1510,#1541,#1563,#1575,#1587));
#1589=MANIFOLD_SOLID_BREP('8D0',#1588);
#1590=STYLED_ITEM('NONE',(#1438),#1589);
#1591=CARTESIAN_POINT('',(6.600000000000001,-5.750000000000000,0.500000000000000));
#1592=DIRECTION('',(0.0,1.0,0.0));
#1593=DIRECTION('',(0.0,0.0,1.0));
#1594=AXIS2_PLACEMENT_3D('',#1591,#1592,#1593);
#1595=PLANE('',#1594);
#1596=CARTESIAN_POINT('',(6.600000000000001,-5.750000000000000,-3.600000000000000));
#1597=VERTEX_POINT('',#1596);
#1598=CARTESIAN_POINT('',(5.600000000000001,-5.750000000000000,-3.600000000000000));
#1599=VERTEX_POINT('',#1598);
#1600=CARTESIAN_POINT('',(6.600000000000001,-5.750000000000000,-3.600000000000000));
#1601=DIRECTION('',(-1.0,0.0,0.0));
#1602=VECTOR('',#1601,1.0);
#1603=LINE('',#1600,#1602);
#1604=EDGE_CURVE('',#1597,#1599,#1603,.T.);
#1605=ORIENTED_EDGE('',*,*,#1604,.T.);
#1606=CARTESIAN_POINT('',(5.600000000000001,-5.750000000000000,0.500000000000000));
#1607=VERTEX_POINT('',#1606);
#1608=CARTESIAN_POINT('',(5.600000000000001,-5.750000000000000,0.500000000000000));
#1609=DIRECTION('',(0.0,0.0,-1.0));
#1610=VECTOR('',#1609,4.100000000000000);
#1611=LINE('',#1608,#1610);
#1612=EDGE_CURVE('',#1607,#1599,#1611,.T.);
#1613=ORIENTED_EDGE('',*,*,#1612,.F.);
#1614=CARTESIAN_POINT('',(6.600000000000001,-5.750000000000000,0.500000000000000));
#1615=VERTEX_POINT('',#1614);
#1616=CARTESIAN_POINT('',(6.600000000000001,-5.750000000000000,0.500000000000000));
#1617=DIRECTION('',(-1.0,0.0,0.0));
#1618=VECTOR('',#1617,1.0);
#1619=LINE('',#1616,#1618);
#1620=EDGE_CURVE('',#1615,#1607,#1619,.T.);
#1621=ORIENTED_EDGE('',*,*,#1620,.F.);
#1622=CARTESIAN_POINT('',(6.600000000000001,-5.750000000000000,0.500000000000000));
#1623=DIRECTION('',(0.0,0.0,-1.0));
#1624=VECTOR('',#1623,4.100000000000000);
#1625=LINE('',#1622,#1624);
#1626=EDGE_CURVE('',#1615,#1597,#1625,.T.);
#1627=ORIENTED_EDGE('',*,*,#1626,.T.);
#1628=EDGE_LOOP('',(#1605,#1613,#1621,#1627));
#1629=FACE_OUTER_BOUND('',#1628,.T.);
#1630=ADVANCED_FACE('',(#1629),#1595,.T.);
#1631=CARTESIAN_POINT('',(5.600000000000001,-5.750000000000000,0.500000000000000));
#1632=DIRECTION('',(-1.0,0.0,0.0));
#1633=DIRECTION('',(0.0,0.0,1.0));
#1634=AXIS2_PLACEMENT_3D('',#1631,#1632,#1633);
#1635=PLANE('',#1634);
#1636=CARTESIAN_POINT('',(5.600000000000001,-6.250000000000000,-3.600000000000000));
#1637=VERTEX_POINT('',#1636);
#1638=CARTESIAN_POINT('',(5.600000000000001,-5.750000000000000,-3.600000000000000));
#1639=DIRECTION('',(0.0,-1.0,0.0));
#1640=VECTOR('',#1639,0.500000000000000);
#1641=LINE('',#1638,#1640);
#1642=EDGE_CURVE('',#1599,#1637,#1641,.T.);
#1643=ORIENTED_EDGE('',*,*,#1642,.T.);
#1644=CARTESIAN_POINT('',(5.600000000000001,-6.250000000000000,0.500000000000000));
#1645=VERTEX_POINT('',#1644);
#1646=CARTESIAN_POINT('',(5.600000000000001,-6.250000000000000,0.500000000000000));
#1647=DIRECTION('',(0.0,0.0,-1.0));
#1648=VECTOR('',#1647,4.100000000000000);
#1649=LINE('',#1646,#1648);
#1650=EDGE_CURVE('',#1645,#1637,#1649,.T.);
#1651=ORIENTED_EDGE('',*,*,#1650,.F.);
#1652=CARTESIAN_POINT('',(5.600000000000001,-5.750000000000000,0.500000000000000));
#1653=DIRECTION('',(0.0,-1.0,0.0));
#1654=VECTOR('',#1653,0.500000000000000);
#1655=LINE('',#1652,#1654);
#1656=EDGE_CURVE('',#1607,#1645,#1655,.T.);
#1657=ORIENTED_EDGE('',*,*,#1656,.F.);
#1658=ORIENTED_EDGE('',*,*,#1612,.T.);
#1659=EDGE_LOOP('',(#1643,#1651,#1657,#1658));
#1660=FACE_OUTER_BOUND('',#1659,.T.);
#1661=ADVANCED_FACE('',(#1660),#1635,.T.);
#1662=CARTESIAN_POINT('',(5.600000000000001,-6.250000000000000,0.500000000000000));
#1663=DIRECTION('',(0.0,-1.0,0.0));
#1664=DIRECTION('',(0.0,0.0,-1.0));
#1665=AXIS2_PLACEMENT_3D('',#1662,#1663,#1664);
#1666=PLANE('',#1665);
#1667=CARTESIAN_POINT('',(6.600000000000001,-6.250000000000000,-3.600000000000000));
#1668=VERTEX_POINT('',#1667);
#1669=CARTESIAN_POINT('',(5.600000000000001,-6.250000000000000,-3.600000000000000));
#1670=DIRECTION('',(1.0,0.0,0.0));
#1671=VECTOR('',#1670,1.0);
#1672=LINE('',#1669,#1671);
#1673=EDGE_CURVE('',#1637,#1668,#1672,.T.);
#1674=ORIENTED_EDGE('',*,*,#1673,.T.);
#1675=CARTESIAN_POINT('',(6.600000000000001,-6.250000000000000,0.500000000000000));
#1676=VERTEX_POINT('',#1675);
#1677=CARTESIAN_POINT('',(6.600000000000001,-6.250000000000000,0.500000000000000));
#1678=DIRECTION('',(0.0,0.0,-1.0));
#1679=VECTOR('',#1678,4.100000000000000);
#1680=LINE('',#1677,#1679);
#1681=EDGE_CURVE('',#1676,#1668,#1680,.T.);
#1682=ORIENTED_EDGE('',*,*,#1681,.F.);
#1683=CARTESIAN_POINT('',(5.600000000000001,-6.250000000000000,0.500000000000000));
#1684=DIRECTION('',(1.0,0.0,0.0));
#1685=VECTOR('',#1684,1.0);
#1686=LINE('',#1683,#1685);
#1687=EDGE_CURVE('',#1645,#1676,#1686,.T.);
#1688=ORIENTED_EDGE('',*,*,#1687,.F.);
#1689=ORIENTED_EDGE('',*,*,#1650,.T.);
#1690=EDGE_LOOP('',(#1674,#1682,#1688,#1689));
#1691=FACE_OUTER_BOUND('',#1690,.T.);
#1692=ADVANCED_FACE('',(#1691),#1666,.T.);
#1693=CARTESIAN_POINT('',(6.600000000000001,-6.250000000000000,0.500000000000000));
#1694=DIRECTION('',(1.0,0.0,0.0));
#1695=DIRECTION('',(0.0,0.0,-1.0));
#1696=AXIS2_PLACEMENT_3D('',#1693,#1694,#1695);
#1697=PLANE('',#1696);
#1698=CARTESIAN_POINT('',(6.600000000000001,-6.250000000000000,-3.600000000000000));
#1699=DIRECTION('',(0.0,1.0,0.0));
#1700=VECTOR('',#1699,0.500000000000000);
#1701=LINE('',#1698,#1700);
#1702=EDGE_CURVE('',#1668,#1597,#1701,.T.);
#1703=ORIENTED_EDGE('',*,*,#1702,.T.);
#1704=ORIENTED_EDGE('',*,*,#1626,.F.);
#1705=CARTESIAN_POINT('',(6.600000000000001,-6.250000000000000,0.500000000000000));
#1706=DIRECTION('',(0.0,1.0,0.0));
#1707=VECTOR('',#1706,0.500000000000000);
#1708=LINE('',#1705,#1707);
#1709=EDGE_CURVE('',#1676,#1615,#1708,.T.);
#1710=ORIENTED_EDGE('',*,*,#1709,.F.);
#1711=ORIENTED_EDGE('',*,*,#1681,.T.);
#1712=EDGE_LOOP('',(#1703,#1704,#1710,#1711));
#1713=FACE_OUTER_BOUND('',#1712,.T.);
#1714=ADVANCED_FACE('',(#1713),#1697,.T.);
#1715=CARTESIAN_POINT('',(6.100000000000001,-6.0,-3.600000000000000));
#1716=DIRECTION('',(0.0,0.0,1.0));
#1717=DIRECTION('',(1.0,0.0,0.0));
#1718=AXIS2_PLACEMENT_3D('',#1715,#1716,#1717);
#1719=PLANE('',#1718);
#1720=ORIENTED_EDGE('',*,*,#1604,.F.);
#1721=ORIENTED_EDGE('',*,*,#1702,.F.);
#1722=ORIENTED_EDGE('',*,*,#1673,.F.);
#1723=ORIENTED_EDGE('',*,*,#1642,.F.);
#1724=EDGE_LOOP('',(#1720,#1721,#1722,#1723));
#1725=FACE_OUTER_BOUND('',#1724,.T.);
#1726=ADVANCED_FACE('',(#1725),#1719,.F.);
#1727=CARTESIAN_POINT('',(6.100000000000001,-6.0,0.500000000000000));
#1728=DIRECTION('',(0.0,0.0,1.0));
#1729=DIRECTION('',(1.0,0.0,0.0));
#1730=AXIS2_PLACEMENT_3D('',#1727,#1728,#1729);
#1731=PLANE('',#1730);
#1732=ORIENTED_EDGE('',*,*,#1709,.T.);
#1733=ORIENTED_EDGE('',*,*,#1620,.T.);
#1734=ORIENTED_EDGE('',*,*,#1656,.T.);
#1735=ORIENTED_EDGE('',*,*,#1687,.T.);
#1736=EDGE_LOOP('',(#1732,#1733,#1734,#1735));
#1737=FACE_OUTER_BOUND('',#1736,.T.);
#1738=ADVANCED_FACE('',(#1737),#1731,.T.);
#1739=CLOSED_SHELL('',(#1630,#1661,#1692,#1714,#1726,#1738));
#1740=MANIFOLD_SOLID_BREP('8CC',#1739);
#1741=STYLED_ITEM('NONE',(#1438),#1740);
#1742=CARTESIAN_POINT('',(-5.599999999999994,-5.750000000000000,0.500000000000000));
#1743=DIRECTION('',(0.0,1.0,0.0));
#1744=DIRECTION('',(0.0,0.0,1.0));
#1745=AXIS2_PLACEMENT_3D('',#1742,#1743,#1744);
#1746=PLANE('',#1745);
#1747=CARTESIAN_POINT('',(-5.599999999999994,-5.750000000000000,-3.600000000000000));
#1748=VERTEX_POINT('',#1747);
#1749=CARTESIAN_POINT('',(-6.599999999999994,-5.750000000000000,-3.600000000000000));
#1750=VERTEX_POINT('',#1749);
#1751=CARTESIAN_POINT('',(-5.599999999999994,-5.750000000000000,-3.600000000000000));
#1752=DIRECTION('',(-1.0,0.0,0.0));
#1753=VECTOR('',#1752,1.0);
#1754=LINE('',#1751,#1753);
#1755=EDGE_CURVE('',#1748,#1750,#1754,.T.);
#1756=ORIENTED_EDGE('',*,*,#1755,.T.);
#1757=CARTESIAN_POINT('',(-6.599999999999994,-5.750000000000000,0.500000000000000));
#1758=VERTEX_POINT('',#1757);
#1759=CARTESIAN_POINT('',(-6.599999999999994,-5.750000000000000,0.500000000000000));
#1760=DIRECTION('',(0.0,0.0,-1.0));
#1761=VECTOR('',#1760,4.100000000000000);
#1762=LINE('',#1759,#1761);
#1763=EDGE_CURVE('',#1758,#1750,#1762,.T.);
#1764=ORIENTED_EDGE('',*,*,#1763,.F.);
#1765=CARTESIAN_POINT('',(-5.599999999999994,-5.750000000000000,0.500000000000000));
#1766=VERTEX_POINT('',#1765);
#1767=CARTESIAN_POINT('',(-5.599999999999994,-5.750000000000000,0.500000000000000));
#1768=DIRECTION('',(-1.0,0.0,0.0));
#1769=VECTOR('',#1768,1.0);
#1770=LINE('',#1767,#1769);
#1771=EDGE_CURVE('',#1766,#1758,#1770,.T.);
#1772=ORIENTED_EDGE('',*,*,#1771,.F.);
#1773=CARTESIAN_POINT('',(-5.599999999999994,-5.750000000000000,0.500000000000000));
#1774=DIRECTION('',(0.0,0.0,-1.0));
#1775=VECTOR('',#1774,4.100000000000000);
#1776=LINE('',#1773,#1775);
#1777=EDGE_CURVE('',#1766,#1748,#1776,.T.);
#1778=ORIENTED_EDGE('',*,*,#1777,.T.);
#1779=EDGE_LOOP('',(#1756,#1764,#1772,#1778));
#1780=FACE_OUTER_BOUND('',#1779,.T.);
#1781=ADVANCED_FACE('',(#1780),#1746,.T.);
#1782=CARTESIAN_POINT('',(-6.599999999999994,-5.750000000000000,0.500000000000000));
#1783=DIRECTION('',(-1.0,0.0,0.0));
#1784=DIRECTION('',(0.0,0.0,1.0));
#1785=AXIS2_PLACEMENT_3D('',#1782,#1783,#1784);
#1786=PLANE('',#1785);
#1787=CARTESIAN_POINT('',(-6.599999999999994,-6.250000000000000,-3.600000000000000));
#1788=VERTEX_POINT('',#1787);
#1789=CARTESIAN_POINT('',(-6.599999999999994,-5.750000000000000,-3.600000000000000));
#1790=DIRECTION('',(0.0,-1.0,0.0));
#1791=VECTOR('',#1790,0.500000000000000);
#1792=LINE('',#1789,#1791);
#1793=EDGE_CURVE('',#1750,#1788,#1792,.T.);
#1794=ORIENTED_EDGE('',*,*,#1793,.T.);
#1795=CARTESIAN_POINT('',(-6.599999999999994,-6.250000000000000,0.500000000000000));
#1796=VERTEX_POINT('',#1795);
#1797=CARTESIAN_POINT('',(-6.599999999999994,-6.250000000000000,0.500000000000000));
#1798=DIRECTION('',(0.0,0.0,-1.0));
#1799=VECTOR('',#1798,4.100000000000000);
#1800=LINE('',#1797,#1799);
#1801=EDGE_CURVE('',#1796,#1788,#1800,.T.);
#1802=ORIENTED_EDGE('',*,*,#1801,.F.);
#1803=CARTESIAN_POINT('',(-6.599999999999994,-5.750000000000000,0.500000000000000));
#1804=DIRECTION('',(0.0,-1.0,0.0));
#1805=VECTOR('',#1804,0.500000000000000);
#1806=LINE('',#1803,#1805);
#1807=EDGE_CURVE('',#1758,#1796,#1806,.T.);
#1808=ORIENTED_EDGE('',*,*,#1807,.F.);
#1809=ORIENTED_EDGE('',*,*,#1763,.T.);
#1810=EDGE_LOOP('',(#1794,#1802,#1808,#1809));
#1811=FACE_OUTER_BOUND('',#1810,.T.);
#1812=ADVANCED_FACE('',(#1811),#1786,.T.);
#1813=CARTESIAN_POINT('',(-6.599999999999994,-6.250000000000000,0.500000000000000));
#1814=DIRECTION('',(0.0,-1.0,0.0));
#1815=DIRECTION('',(0.0,0.0,-1.0));
#1816=AXIS2_PLACEMENT_3D('',#1813,#1814,#1815);
#1817=PLANE('',#1816);
#1818=CARTESIAN_POINT('',(-5.599999999999994,-6.250000000000000,-3.600000000000000));
#1819=VERTEX_POINT('',#1818);
#1820=CARTESIAN_POINT('',(-6.599999999999994,-6.250000000000000,-3.600000000000000));
#1821=DIRECTION('',(1.0,0.0,0.0));
#1822=VECTOR('',#1821,1.0);
#1823=LINE('',#1820,#1822);
#1824=EDGE_CURVE('',#1788,#1819,#1823,.T.);
#1825=ORIENTED_EDGE('',*,*,#1824,.T.);
#1826=CARTESIAN_POINT('',(-5.599999999999994,-6.250000000000000,0.500000000000000));
#1827=VERTEX_POINT('',#1826);
#1828=CARTESIAN_POINT('',(-5.599999999999994,-6.250000000000000,0.500000000000000));
#1829=DIRECTION('',(0.0,0.0,-1.0));
#1830=VECTOR('',#1829,4.100000000000000);
#1831=LINE('',#1828,#1830);
#1832=EDGE_CURVE('',#1827,#1819,#1831,.T.);
#1833=ORIENTED_EDGE('',*,*,#1832,.F.);
#1834=CARTESIAN_POINT('',(-6.599999999999994,-6.250000000000000,0.500000000000000));
#1835=DIRECTION('',(1.0,0.0,0.0));
#1836=VECTOR('',#1835,1.0);
#1837=LINE('',#1834,#1836);
#1838=EDGE_CURVE('',#1796,#1827,#1837,.T.);
#1839=ORIENTED_EDGE('',*,*,#1838,.F.);
#1840=ORIENTED_EDGE('',*,*,#1801,.T.);
#1841=EDGE_LOOP('',(#1825,#1833,#1839,#1840));
#1842=FACE_OUTER_BOUND('',#1841,.T.);
#1843=ADVANCED_FACE('',(#1842),#1817,.T.);
#1844=CARTESIAN_POINT('',(-5.599999999999994,-6.250000000000000,0.500000000000000));
#1845=DIRECTION('',(1.0,0.0,0.0));
#1846=DIRECTION('',(0.0,0.0,-1.0));
#1847=AXIS2_PLACEMENT_3D('',#1844,#1845,#1846);
#1848=PLANE('',#1847);
#1849=CARTESIAN_POINT('',(-5.599999999999994,-6.250000000000000,-3.600000000000000));
#1850=DIRECTION('',(0.0,1.0,0.0));
#1851=VECTOR('',#1850,0.500000000000000);
#1852=LINE('',#1849,#1851);
#1853=EDGE_CURVE('',#1819,#1748,#1852,.T.);
#1854=ORIENTED_EDGE('',*,*,#1853,.T.);
#1855=ORIENTED_EDGE('',*,*,#1777,.F.);
#1856=CARTESIAN_POINT('',(-5.599999999999994,-6.250000000000000,0.500000000000000));
#1857=DIRECTION('',(0.0,1.0,0.0));
#1858=VECTOR('',#1857,0.500000000000000);
#1859=LINE('',#1856,#1858);
#1860=EDGE_CURVE('',#1827,#1766,#1859,.T.);
#1861=ORIENTED_EDGE('',*,*,#1860,.F.);
#1862=ORIENTED_EDGE('',*,*,#1832,.T.);
#1863=EDGE_LOOP('',(#1854,#1855,#1861,#1862));
#1864=FACE_OUTER_BOUND('',#1863,.T.);
#1865=ADVANCED_FACE('',(#1864),#1848,.T.);
#1866=CARTESIAN_POINT('',(-6.099999999999994,-6.0,-3.600000000000000));
#1867=DIRECTION('',(0.0,0.0,1.0));
#1868=DIRECTION('',(1.0,0.0,0.0));
#1869=AXIS2_PLACEMENT_3D('',#1866,#1867,#1868);
#1870=PLANE('',#1869);
#1871=ORIENTED_EDGE('',*,*,#1755,.F.);
#1872=ORIENTED_EDGE('',*,*,#1853,.F.);
#1873=ORIENTED_EDGE('',*,*,#1824,.F.);
#1874=ORIENTED_EDGE('',*,*,#1793,.F.);
#1875=EDGE_LOOP('',(#1871,#1872,#1873,#1874));
#1876=FACE_OUTER_BOUND('',#1875,.T.);
#1877=ADVANCED_FACE('',(#1876),#1870,.F.);
#1878=CARTESIAN_POINT('',(-6.099999999999994,-6.0,0.500000000000000));
#1879=DIRECTION('',(0.0,0.0,1.0));
#1880=DIRECTION('',(1.0,0.0,0.0));
#1881=AXIS2_PLACEMENT_3D('',#1878,#1879,#1880);
#1882=PLANE('',#1881);
#1883=ORIENTED_EDGE('',*,*,#1860,.T.);
#1884=ORIENTED_EDGE('',*,*,#1771,.T.);
#1885=ORIENTED_EDGE('',*,*,#1807,.T.);
#1886=ORIENTED_EDGE('',*,*,#1838,.T.);
#1887=EDGE_LOOP('',(#1883,#1884,#1885,#1886));
#1888=FACE_OUTER_BOUND('',#1887,.T.);
#1889=ADVANCED_FACE('',(#1888),#1882,.T.);
#1890=CLOSED_SHELL('',(#1781,#1812,#1843,#1865,#1877,#1889));
#1891=MANIFOLD_SOLID_BREP('8C8',#1890);
#1892=STYLED_ITEM('NONE',(#1438),#1891);
#1893=CARTESIAN_POINT('',(-8.249999999999993,-0.500000000000000,0.500000000000000));
#1894=DIRECTION('',(0.0,-1.0,0.0));
#1895=DIRECTION('',(0.0,0.0,-1.0));
#1896=AXIS2_PLACEMENT_3D('',#1893,#1894,#1895);
#1897=PLANE('',#1896);
#1898=CARTESIAN_POINT('',(-8.249999999999993,-0.500000000000000,-3.600000000000000));
#1899=VERTEX_POINT('',#1898);
#1900=CARTESIAN_POINT('',(-7.949999999999992,-0.500000000000000,-3.600000000000000));
#1901=VERTEX_POINT('',#1900);
#1902=CARTESIAN_POINT('',(-8.249999999999993,-0.500000000000000,-3.600000000000000));
#1903=DIRECTION('',(1.0,0.0,0.0));
#1904=VECTOR('',#1903,0.300000000000001);
#1905=LINE('',#1902,#1904);
#1906=EDGE_CURVE('',#1899,#1901,#1905,.T.);
#1907=ORIENTED_EDGE('',*,*,#1906,.T.);
#1908=CARTESIAN_POINT('',(-7.949999999999992,-0.500000000000000,0.500000000000000));
#1909=VERTEX_POINT('',#1908);
#1910=CARTESIAN_POINT('',(-7.949999999999992,-0.500000000000000,0.500000000000000));
#1911=DIRECTION('',(0.0,0.0,-1.0));
#1912=VECTOR('',#1911,4.100000000000000);
#1913=LINE('',#1910,#1912);
#1914=EDGE_CURVE('',#1909,#1901,#1913,.T.);
#1915=ORIENTED_EDGE('',*,*,#1914,.F.);
#1916=CARTESIAN_POINT('',(-8.249999999999993,-0.500000000000000,0.500000000000000));
#1917=VERTEX_POINT('',#1916);
#1918=CARTESIAN_POINT('',(-8.249999999999993,-0.500000000000000,0.500000000000000));
#1919=DIRECTION('',(1.0,0.0,0.0));
#1920=VECTOR('',#1919,0.300000000000001);
#1921=LINE('',#1918,#1920);
#1922=EDGE_CURVE('',#1917,#1909,#1921,.T.);
#1923=ORIENTED_EDGE('',*,*,#1922,.F.);
#1924=CARTESIAN_POINT('',(-8.249999999999993,-0.500000000000000,0.500000000000000));
#1925=DIRECTION('',(0.0,0.0,-1.0));
#1926=VECTOR('',#1925,4.100000000000000);
#1927=LINE('',#1924,#1926);
#1928=EDGE_CURVE('',#1917,#1899,#1927,.T.);
#1929=ORIENTED_EDGE('',*,*,#1928,.T.);
#1930=EDGE_LOOP('',(#1907,#1915,#1923,#1929));
#1931=FACE_OUTER_BOUND('',#1930,.T.);
#1932=ADVANCED_FACE('',(#1931),#1897,.T.);
#1933=CARTESIAN_POINT('',(-7.949999999999992,-0.500000000000000,0.500000000000000));
#1934=DIRECTION('',(1.0,0.0,0.0));
#1935=DIRECTION('',(0.0,0.0,-1.0));
#1936=AXIS2_PLACEMENT_3D('',#1933,#1934,#1935);
#1937=PLANE('',#1936);
#1938=CARTESIAN_POINT('',(-7.949999999999992,0.500000000000000,-3.600000000000000));
#1939=VERTEX_POINT('',#1938);
#1940=CARTESIAN_POINT('',(-7.949999999999992,-0.500000000000000,-3.600000000000000));
#1941=DIRECTION('',(0.0,1.0,0.0));
#1942=VECTOR('',#1941,1.0);
#1943=LINE('',#1940,#1942);
#1944=EDGE_CURVE('',#1901,#1939,#1943,.T.);
#1945=ORIENTED_EDGE('',*,*,#1944,.T.);
#1946=CARTESIAN_POINT('',(-7.949999999999992,0.500000000000000,0.500000000000000));
#1947=VERTEX_POINT('',#1946);
#1948=CARTESIAN_POINT('',(-7.949999999999992,0.500000000000000,0.500000000000000));
#1949=DIRECTION('',(0.0,0.0,-1.0));
#1950=VECTOR('',#1949,4.100000000000000);
#1951=LINE('',#1948,#1950);
#1952=EDGE_CURVE('',#1947,#1939,#1951,.T.);
#1953=ORIENTED_EDGE('',*,*,#1952,.F.);
#1954=CARTESIAN_POINT('',(-7.949999999999992,-0.500000000000000,0.500000000000000));
#1955=DIRECTION('',(0.0,1.0,0.0));
#1956=VECTOR('',#1955,1.0);
#1957=LINE('',#1954,#1956);
#1958=EDGE_CURVE('',#1909,#1947,#1957,.T.);
#1959=ORIENTED_EDGE('',*,*,#1958,.F.);
#1960=ORIENTED_EDGE('',*,*,#1914,.T.);
#1961=EDGE_LOOP('',(#1945,#1953,#1959,#1960));
#1962=FACE_OUTER_BOUND('',#1961,.T.);
#1963=ADVANCED_FACE('',(#1962),#1937,.T.);
#1964=CARTESIAN_POINT('',(-7.949999999999992,0.500000000000000,0.500000000000000));
#1965=DIRECTION('',(0.0,1.0,0.0));
#1966=DIRECTION('',(0.0,0.0,1.0));
#1967=AXIS2_PLACEMENT_3D('',#1964,#1965,#1966);
#1968=PLANE('',#1967);
#1969=CARTESIAN_POINT('',(-8.249999999999993,0.500000000000000,-3.600000000000000));
#1970=VERTEX_POINT('',#1969);
#1971=CARTESIAN_POINT('',(-7.949999999999992,0.500000000000000,-3.600000000000000));
#1972=DIRECTION('',(-1.0,0.0,0.0));
#1973=VECTOR('',#1972,0.300000000000001);
#1974=LINE('',#1971,#1973);
#1975=EDGE_CURVE('',#1939,#1970,#1974,.T.);
#1976=ORIENTED_EDGE('',*,*,#1975,.T.);
#1977=CARTESIAN_POINT('',(-8.249999999999993,0.500000000000000,0.500000000000000));
#1978=VERTEX_POINT('',#1977);
#1979=CARTESIAN_POINT('',(-8.249999999999993,0.500000000000000,0.500000000000000));
#1980=DIRECTION('',(0.0,0.0,-1.0));
#1981=VECTOR('',#1980,4.100000000000000);
#1982=LINE('',#1979,#1981);
#1983=EDGE_CURVE('',#1978,#1970,#1982,.T.);
#1984=ORIENTED_EDGE('',*,*,#1983,.F.);
#1985=CARTESIAN_POINT('',(-7.949999999999992,0.500000000000000,0.500000000000000));
#1986=DIRECTION('',(-1.0,0.0,0.0));
#1987=VECTOR('',#1986,0.300000000000001);
#1988=LINE('',#1985,#1987);
#1989=EDGE_CURVE('',#1947,#1978,#1988,.T.);
#1990=ORIENTED_EDGE('',*,*,#1989,.F.);
#1991=ORIENTED_EDGE('',*,*,#1952,.T.);
#1992=EDGE_LOOP('',(#1976,#1984,#1990,#1991));
#1993=FACE_OUTER_BOUND('',#1992,.T.);
#1994=ADVANCED_FACE('',(#1993),#1968,.T.);
#1995=CARTESIAN_POINT('',(-8.249999999999993,0.500000000000000,0.500000000000000));
#1996=DIRECTION('',(-1.0,0.0,0.0));
#1997=DIRECTION('',(0.0,0.0,1.0));
#1998=AXIS2_PLACEMENT_3D('',#1995,#1996,#1997);
#1999=PLANE('',#1998);
#2000=CARTESIAN_POINT('',(-8.249999999999993,0.500000000000000,-3.600000000000000));
#2001=DIRECTION('',(0.0,-1.0,0.0));
#2002=VECTOR('',#2001,1.0);
#2003=LINE('',#2000,#2002);
#2004=EDGE_CURVE('',#1970,#1899,#2003,.T.);
#2005=ORIENTED_EDGE('',*,*,#2004,.T.);
#2006=ORIENTED_EDGE('',*,*,#1928,.F.);
#2007=CARTESIAN_POINT('',(-8.249999999999993,0.500000000000000,0.500000000000000));
#2008=DIRECTION('',(0.0,-1.0,0.0));
#2009=VECTOR('',#2008,1.0);
#2010=LINE('',#2007,#2009);
#2011=EDGE_CURVE('',#1978,#1917,#2010,.T.);
#2012=ORIENTED_EDGE('',*,*,#2011,.F.);
#2013=ORIENTED_EDGE('',*,*,#1983,.T.);
#2014=EDGE_LOOP('',(#2005,#2006,#2012,#2013));
#2015=FACE_OUTER_BOUND('',#2014,.T.);
#2016=ADVANCED_FACE('',(#2015),#1999,.T.);
#2017=CARTESIAN_POINT('',(-8.099999999999993,0.0,-3.600000000000000));
#2018=DIRECTION('',(0.0,0.0,1.0));
#2019=DIRECTION('',(1.0,0.0,0.0));
#2020=AXIS2_PLACEMENT_3D('',#2017,#2018,#2019);
#2021=PLANE('',#2020);
#2022=ORIENTED_EDGE('',*,*,#1906,.F.);
#2023=ORIENTED_EDGE('',*,*,#2004,.F.);
#2024=ORIENTED_EDGE('',*,*,#1975,.F.);
#2025=ORIENTED_EDGE('',*,*,#1944,.F.);
#2026=EDGE_LOOP('',(#2022,#2023,#2024,#2025));
#2027=FACE_OUTER_BOUND('',#2026,.T.);
#2028=ADVANCED_FACE('',(#2027),#2021,.F.);
#2029=CARTESIAN_POINT('',(-8.099999999999993,0.0,0.500000000000000));
#2030=DIRECTION('',(0.0,0.0,1.0));
#2031=DIRECTION('',(1.0,0.0,0.0));
#2032=AXIS2_PLACEMENT_3D('',#2029,#2030,#2031);
#2033=PLANE('',#2032);
#2034=ORIENTED_EDGE('',*,*,#2011,.T.);
#2035=ORIENTED_EDGE('',*,*,#1922,.T.);
#2036=ORIENTED_EDGE('',*,*,#1958,.T.);
#2037=ORIENTED_EDGE('',*,*,#1989,.T.);
#2038=EDGE_LOOP('',(#2034,#2035,#2036,#2037));
#2039=FACE_OUTER_BOUND('',#2038,.T.);
#2040=ADVANCED_FACE('',(#2039),#2033,.T.);
#2041=CLOSED_SHELL('',(#1932,#1963,#1994,#2016,#2028,#2040));
#2042=MANIFOLD_SOLID_BREP('8C4',#2041);
#2043=STYLED_ITEM('NONE',(#1438),#2042);
#2044=ADVANCED_BREP_SHAPE_REPRESENTATION('ABSR1',(#214,#374,#525,#676,#1280,#1431,#1589,#1740,#1891,#2042),#28);
#2045=SHAPE_REPRESENTATION_RELATIONSHIP('SRRPL1','',#2044,#62);
ENDSEC;
END-ISO-10303-21;
