ISO-10303-21;
HEADER;
/****************************************************************
 * Generated by software with PDE/Lib inside                    *
 * PDElib Version v51a, created Mon 11/03/2008                  *
 * International Technegroup Inc. (www.iti-oh.com)              *
 ****************************************************************/
FILE_DESCRIPTION((''),'2;1');
FILE_NAME('REL_MEDER_CRR3-1AS.stp','2010-07-12T11:39:24',(''),(''),'Mechanical Desktop 2010','Mechanical Desktop 2010',', , ');
FILE_SCHEMA(('AUTOMOTIVE_DESIGN { 1 2 10303 214 1 1 1 1 }'));
ENDSEC;
DATA;
#8=(NAMED_UNIT(*)PLANE_ANGLE_UNIT()SI_UNIT($,.RADIAN.));
#9=DIMENSIONAL_EXPONENTS(0.0,0.0,0.0,0.0,0.0,0.0,0.0);
#10=PLANE_ANGLE_MEASURE_WITH_UNIT(PLANE_ANGLE_MEASURE(0.017453292500000),#8);
#14=(CONVERSION_BASED_UNIT('DEGREE',#10)NAMED_UNIT(#9)PLANE_ANGLE_UNIT());
#18=(NAMED_UNIT(*)SI_UNIT($,.STERADIAN.)SOLID_ANGLE_UNIT());
#22=(LENGTH_UNIT()NAMED_UNIT(*)SI_UNIT(.MILLI.,.METRE.));
#23=UNCERTAINTY_MEASURE_WITH_UNIT(LENGTH_MEASURE(0.000001000000000),#22,'DISTANCE_ACCURACY_VALUE','');
#28=(GEOMETRIC_REPRESENTATION_CONTEXT(3)GLOBAL_UNCERTAINTY_ASSIGNED_CONTEXT((#23))GLOBAL_UNIT_ASSIGNED_CONTEXT((#14,#18,#22))REPRESENTATION_CONTEXT('None','None'));
#29=APPLICATION_CONTEXT('automotive design');
#30=APPLICATION_PROTOCOL_DEFINITION('INTERNATIONAL_STANDARD','automotive_design',1998,#29);
#31=PRODUCT_CONTEXT('3D Mechanical Parts',#29,'mechanical');
#32=PRODUCT('Product','Product','',(#31));
#33=PRODUCT_RELATED_PRODUCT_CATEGORY('part',$,(#32));
#34=PRODUCT_CATEGORY('part',$);
#35=PERSON('1','Design','Joe',$,$,$);
#36=ORGANIZATION($,'None','None');
#37=PERSON_AND_ORGANIZATION(#35,#36);
#38=PERSON_AND_ORGANIZATION_ROLE('design_owner');
#39=APPLIED_PERSON_AND_ORGANIZATION_ASSIGNMENT(#37,#38,(#32));
#40=PRODUCT_DEFINITION_FORMATION_WITH_SPECIFIED_SOURCE('None','',#32,.BOUGHT.);
#41=PERSON('2','Creator','Joe',$,$,$);
#42=ORGANIZATION($,'None','None');
#43=PERSON_AND_ORGANIZATION(#41,#42);
#44=PERSON_AND_ORGANIZATION_ROLE('creator');
#45=APPLIED_PERSON_AND_ORGANIZATION_ASSIGNMENT(#43,#44,(#40));
#46=PERSON('3','Supplier','Joe',$,$,$);
#47=ORGANIZATION($,'None','None');
#48=PERSON_AND_ORGANIZATION(#46,#47);
#49=PERSON_AND_ORGANIZATION_ROLE('design_supplier');
#50=APPLIED_PERSON_AND_ORGANIZATION_ASSIGNMENT(#48,#49,(#40));
#51=PRODUCT_DEFINITION_CONTEXT('part definition',#29,'design');
#52=PRODUCT_DEFINITION('None','',#40,#51);
#53=PERSON('4','Creator','Joe',$,$,$);
#54=ORGANIZATION($,'None','None');
#55=PERSON_AND_ORGANIZATION(#53,#54);
#56=PERSON_AND_ORGANIZATION_ROLE('creator');
#57=APPLIED_PERSON_AND_ORGANIZATION_ASSIGNMENT(#55,#56,(#52));
#58=CARTESIAN_POINT('NONE',(0.0,0.0,0.0));
#59=DIRECTION('NONE',(0.0,0.0,1.0));
#60=DIRECTION('NONE',(1.0,0.0,0.0));
#61=AXIS2_PLACEMENT_3D('NONE',#58,#59,#60);
#62=SHAPE_REPRESENTATION('SR1',(#61),#28);
#63=PRODUCT_DEFINITION_SHAPE('PDS1','Test Part',#52);
#64=SHAPE_DEFINITION_REPRESENTATION(#63,#62);
#65=CARTESIAN_POINT('',(4.299999999999999,-2.200000000000000,0.500000000000000));
#66=DIRECTION('',(0.0,-1.0,0.0));
#67=DIRECTION('',(0.0,0.0,-1.0));
#68=AXIS2_PLACEMENT_3D('',#65,#66,#67);
#69=PLANE('',#68);
#70=CARTESIAN_POINT('',(4.299999999999999,-2.200000000000000,2.050000000000000));
#71=VERTEX_POINT('',#70);
#72=CARTESIAN_POINT('',(-4.299999999999999,-2.200000000000000,2.050000000000000));
#73=VERTEX_POINT('',#72);
#74=CARTESIAN_POINT('',(4.299999999999999,-2.200000000000000,2.050000000000000));
#75=DIRECTION('',(-1.0,0.0,0.0));
#76=VECTOR('',#75,8.599999999999998);
#77=LINE('',#74,#76);
#78=EDGE_CURVE('',#71,#73,#77,.T.);
#79=ORIENTED_EDGE('',*,*,#78,.T.);
#80=CARTESIAN_POINT('',(-4.299999999999999,-2.200000000000000,0.500000000000000));
#81=VERTEX_POINT('',#80);
#82=CARTESIAN_POINT('',(-4.299999999999999,-2.200000000000000,0.500000000000000));
#83=DIRECTION('',(0.0,0.0,1.0));
#84=VECTOR('',#83,1.550000000000000);
#85=LINE('',#82,#84);
#86=EDGE_CURVE('',#81,#73,#85,.T.);
#87=ORIENTED_EDGE('',*,*,#86,.F.);
#88=CARTESIAN_POINT('',(4.299999999999999,-2.200000000000000,0.500000000000000));
#89=VERTEX_POINT('',#88);
#90=CARTESIAN_POINT('',(4.299999999999999,-2.200000000000000,0.500000000000000));
#91=DIRECTION('',(-1.0,0.0,0.0));
#92=VECTOR('',#91,8.599999999999998);
#93=LINE('',#90,#92);
#94=EDGE_CURVE('',#89,#81,#93,.T.);
#95=ORIENTED_EDGE('',*,*,#94,.F.);
#96=CARTESIAN_POINT('',(4.299999999999999,-2.200000000000000,0.500000000000000));
#97=DIRECTION('',(0.0,0.0,1.0));
#98=VECTOR('',#97,1.550000000000000);
#99=LINE('',#96,#98);
#100=EDGE_CURVE('',#89,#71,#99,.T.);
#101=ORIENTED_EDGE('',*,*,#100,.T.);
#102=EDGE_LOOP('',(#79,#87,#95,#101));
#103=FACE_OUTER_BOUND('',#102,.T.);
#104=ADVANCED_FACE('',(#103),#69,.T.);
#105=CARTESIAN_POINT('',(-4.299999999999999,-2.200000000000000,0.500000000000000));
#106=DIRECTION('',(-1.0,0.0,0.0));
#107=DIRECTION('',(0.0,0.0,1.0));
#108=AXIS2_PLACEMENT_3D('',#105,#106,#107);
#109=PLANE('',#108);
#110=CARTESIAN_POINT('',(-4.300000000000001,2.200000000000000,2.050000000000000));
#111=VERTEX_POINT('',#110);
#112=CARTESIAN_POINT('',(-4.299999999999999,-2.200000000000000,2.050000000000000));
#113=DIRECTION('',(0.0,1.0,0.0));
#114=VECTOR('',#113,4.400000000000000);
#115=LINE('',#112,#114);
#116=EDGE_CURVE('',#73,#111,#115,.T.);
#117=ORIENTED_EDGE('',*,*,#116,.T.);
#118=CARTESIAN_POINT('',(-4.300000000000001,2.200000000000000,0.500000000000000));
#119=VERTEX_POINT('',#118);
#120=CARTESIAN_POINT('',(-4.300000000000001,2.200000000000000,0.500000000000000));
#121=DIRECTION('',(0.0,0.0,1.0));
#122=VECTOR('',#121,1.550000000000000);
#123=LINE('',#120,#122);
#124=EDGE_CURVE('',#119,#111,#123,.T.);
#125=ORIENTED_EDGE('',*,*,#124,.F.);
#126=CARTESIAN_POINT('',(-4.299999999999999,-2.200000000000000,0.500000000000000));
#127=DIRECTION('',(0.0,1.0,0.0));
#128=VECTOR('',#127,4.400000000000000);
#129=LINE('',#126,#128);
#130=EDGE_CURVE('',#81,#119,#129,.T.);
#131=ORIENTED_EDGE('',*,*,#130,.F.);
#132=ORIENTED_EDGE('',*,*,#86,.T.);
#133=EDGE_LOOP('',(#117,#125,#131,#132));
#134=FACE_OUTER_BOUND('',#133,.T.);
#135=ADVANCED_FACE('',(#134),#109,.T.);
#136=CARTESIAN_POINT('',(-4.300000000000001,2.200000000000000,0.500000000000000));
#137=DIRECTION('',(0.0,1.0,0.0));
#138=DIRECTION('',(0.0,0.0,1.0));
#139=AXIS2_PLACEMENT_3D('',#136,#137,#138);
#140=PLANE('',#139);
#141=CARTESIAN_POINT('',(4.299999999999999,2.200000000000000,2.050000000000000));
#142=VERTEX_POINT('',#141);
#143=CARTESIAN_POINT('',(-4.300000000000001,2.200000000000000,2.050000000000000));
#144=DIRECTION('',(1.0,0.0,0.0));
#145=VECTOR('',#144,8.600000000000000);
#146=LINE('',#143,#145);
#147=EDGE_CURVE('',#111,#142,#146,.T.);
#148=ORIENTED_EDGE('',*,*,#147,.T.);
#149=CARTESIAN_POINT('',(4.299999999999999,2.200000000000000,0.500000000000000));
#150=VERTEX_POINT('',#149);
#151=CARTESIAN_POINT('',(4.299999999999999,2.200000000000000,0.500000000000000));
#152=DIRECTION('',(0.0,0.0,1.0));
#153=VECTOR('',#152,1.550000000000000);
#154=LINE('',#151,#153);
#155=EDGE_CURVE('',#150,#142,#154,.T.);
#156=ORIENTED_EDGE('',*,*,#155,.F.);
#157=CARTESIAN_POINT('',(-4.300000000000001,2.200000000000000,0.500000000000000));
#158=DIRECTION('',(1.0,0.0,0.0));
#159=VECTOR('',#158,8.600000000000000);
#160=LINE('',#157,#159);
#161=EDGE_CURVE('',#119,#150,#160,.T.);
#162=ORIENTED_EDGE('',*,*,#161,.F.);
#163=ORIENTED_EDGE('',*,*,#124,.T.);
#164=EDGE_LOOP('',(#148,#156,#162,#163));
#165=FACE_OUTER_BOUND('',#164,.T.);
#166=ADVANCED_FACE('',(#165),#140,.T.);
#167=CARTESIAN_POINT('',(4.299999999999999,2.200000000000000,0.500000000000000));
#168=DIRECTION('',(1.0,0.0,0.0));
#169=DIRECTION('',(0.0,0.0,-1.0));
#170=AXIS2_PLACEMENT_3D('',#167,#168,#169);
#171=PLANE('',#170);
#172=CARTESIAN_POINT('',(4.299999999999999,2.200000000000000,2.050000000000000));
#173=DIRECTION('',(0.0,-1.0,0.0));
#174=VECTOR('',#173,4.400000000000000);
#175=LINE('',#172,#174);
#176=EDGE_CURVE('',#142,#71,#175,.T.);
#177=ORIENTED_EDGE('',*,*,#176,.T.);
#178=ORIENTED_EDGE('',*,*,#100,.F.);
#179=CARTESIAN_POINT('',(4.299999999999999,2.200000000000000,0.500000000000000));
#180=DIRECTION('',(0.0,-1.0,0.0));
#181=VECTOR('',#180,4.400000000000000);
#182=LINE('',#179,#181);
#183=EDGE_CURVE('',#150,#89,#182,.T.);
#184=ORIENTED_EDGE('',*,*,#183,.F.);
#185=ORIENTED_EDGE('',*,*,#155,.T.);
#186=EDGE_LOOP('',(#177,#178,#184,#185));
#187=FACE_OUTER_BOUND('',#186,.T.);
#188=ADVANCED_FACE('',(#187),#171,.T.);
#189=CARTESIAN_POINT('',(-6.661338E-016,1.110223E-016,2.050000000000000));
#190=DIRECTION('',(0.0,0.0,1.0));
#191=DIRECTION('',(1.0,0.0,0.0));
#192=AXIS2_PLACEMENT_3D('',#189,#190,#191);
#193=PLANE('',#192);
#194=ORIENTED_EDGE('',*,*,#78,.F.);
#195=ORIENTED_EDGE('',*,*,#176,.F.);
#196=ORIENTED_EDGE('',*,*,#147,.F.);
#197=ORIENTED_EDGE('',*,*,#116,.F.);
#198=EDGE_LOOP('',(#194,#195,#196,#197));
#199=FACE_OUTER_BOUND('',#198,.T.);
#200=ADVANCED_FACE('',(#199),#193,.T.);
#201=CARTESIAN_POINT('',(-6.268490E-016,2.220446E-016,0.500000000000000));
#202=DIRECTION('',(0.0,0.0,1.0));
#203=DIRECTION('',(1.0,0.0,0.0));
#204=AXIS2_PLACEMENT_3D('',#201,#202,#203);
#205=PLANE('',#204);
#206=ORIENTED_EDGE('',*,*,#183,.T.);
#207=ORIENTED_EDGE('',*,*,#94,.T.);
#208=ORIENTED_EDGE('',*,*,#130,.T.);
#209=ORIENTED_EDGE('',*,*,#161,.T.);
#210=EDGE_LOOP('',(#206,#207,#208,#209));
#211=FACE_OUTER_BOUND('',#210,.T.);
#212=ADVANCED_FACE('',(#211),#205,.F.);
#213=CLOSED_SHELL('',(#104,#135,#166,#188,#200,#212));
#214=MANIFOLD_SOLID_BREP('7F0',#213);
#215=COLOUR_RGB('255',1.0,1.0,1.0);
#216=SURFACE_STYLE_USAGE(.BOTH.,#217);
#217=SURFACE_SIDE_STYLE('NONE',(#218));
#218=SURFACE_STYLE_FILL_AREA(#219);
#219=FILL_AREA_STYLE('NONE',(#220));
#220=FILL_AREA_STYLE_COLOUR('NONE',#215);
#221=PRESENTATION_STYLE_ASSIGNMENT((#216));
#222=STYLED_ITEM('NONE',(#221),#214);
#223=MECHANICAL_DESIGN_GEOMETRIC_PRESENTATION_REPRESENTATION('NONE',(#222,#382,#428,#467,#506,#545,#584,#623,#662,#701,#740,#779),#28);
#224=PRESENTATION_LAYER_ASSIGNMENT('3D','None',(#214,#374,#420,#466,#505,#544,#583,#622,#661,#700,#739,#778));
#225=CARTESIAN_POINT('',(-2.150000000000001,2.100000000000000,2.825000000000000));
#226=DIRECTION('',(-1.100108E-032,0.991777866634025,0.127971337630197));
#227=DIRECTION('',(0.0,-0.127971337630197,0.991777866634025));
#228=AXIS2_PLACEMENT_3D('',#225,#226,#227);
#229=PLANE('',#228);
#230=CARTESIAN_POINT('',(-4.100000000000001,2.0,3.600000000000001));
#231=VERTEX_POINT('',#230);
#232=CARTESIAN_POINT('',(4.099999999999999,2.0,3.600000000000001));
#233=VERTEX_POINT('',#232);
#234=CARTESIAN_POINT('',(-4.100000000000001,2.0,3.600000000000001));
#235=DIRECTION('',(1.0,0.0,0.0));
#236=VECTOR('',#235,8.199999999999999);
#237=LINE('',#234,#236);
#238=EDGE_CURVE('',#231,#233,#237,.T.);
#239=ORIENTED_EDGE('',*,*,#238,.T.);
#240=CARTESIAN_POINT('',(4.299999999999999,2.200000000000000,2.050000000000000));
#241=VERTEX_POINT('',#240);
#242=CARTESIAN_POINT('',(4.099999999999999,2.0,3.600000000000001));
#243=DIRECTION('',(0.126936163195075,0.126936163195075,-0.983755264761834));
#244=VECTOR('',#243,1.575595125658874);
#245=LINE('',#242,#244);
#246=EDGE_CURVE('',#233,#241,#245,.T.);
#247=ORIENTED_EDGE('',*,*,#246,.T.);
#248=CARTESIAN_POINT('',(-4.300000000000001,2.200000000000000,2.050000000000000));
#249=VERTEX_POINT('',#248);
#250=CARTESIAN_POINT('',(-4.300000000000001,2.200000000000000,2.050000000000000));
#251=DIRECTION('',(1.0,0.0,0.0));
#252=VECTOR('',#251,8.600000000000000);
#253=LINE('',#250,#252);
#254=EDGE_CURVE('',#249,#241,#253,.T.);
#255=ORIENTED_EDGE('',*,*,#254,.F.);
#256=CARTESIAN_POINT('',(-4.100000000000001,2.0,3.600000000000001));
#257=DIRECTION('',(-0.126936163195075,0.126936163195075,-0.983755264761834));
#258=VECTOR('',#257,1.575595125658874);
#259=LINE('',#256,#258);
#260=EDGE_CURVE('',#231,#249,#259,.T.);
#261=ORIENTED_EDGE('',*,*,#260,.F.);
#262=EDGE_LOOP('',(#239,#247,#255,#261));
#263=FACE_OUTER_BOUND('',#262,.T.);
#264=ADVANCED_FACE('',(#263),#229,.T.);
#265=CARTESIAN_POINT('',(4.199999999999999,1.100000000000000,2.825000000000000));
#266=DIRECTION('',(0.991777866634025,-7.782748E-034,0.127971337630197));
#267=DIRECTION('',(0.127971337630197,0.0,-0.991777866634025));
#268=AXIS2_PLACEMENT_3D('',#265,#266,#267);
#269=PLANE('',#268);
#270=CARTESIAN_POINT('',(4.099999999999999,-2.0,3.600000000000001));
#271=VERTEX_POINT('',#270);
#272=CARTESIAN_POINT('',(4.099999999999999,2.0,3.600000000000001));
#273=DIRECTION('',(0.0,-1.0,0.0));
#274=VECTOR('',#273,4.0);
#275=LINE('',#272,#274);
#276=EDGE_CURVE('',#233,#271,#275,.T.);
#277=ORIENTED_EDGE('',*,*,#276,.T.);
#278=CARTESIAN_POINT('',(4.299999999999999,-2.200000000000000,2.050000000000000));
#279=VERTEX_POINT('',#278);
#280=CARTESIAN_POINT('',(4.099999999999999,-2.0,3.600000000000001));
#281=DIRECTION('',(0.126936163195075,-0.126936163195075,-0.983755264761834));
#282=VECTOR('',#281,1.575595125658874);
#283=LINE('',#280,#282);
#284=EDGE_CURVE('',#271,#279,#283,.T.);
#285=ORIENTED_EDGE('',*,*,#284,.T.);
#286=CARTESIAN_POINT('',(4.299999999999999,2.200000000000000,2.050000000000000));
#287=DIRECTION('',(0.0,-1.0,0.0));
#288=VECTOR('',#287,4.400000000000000);
#289=LINE('',#286,#288);
#290=EDGE_CURVE('',#241,#279,#289,.T.);
#291=ORIENTED_EDGE('',*,*,#290,.F.);
#292=ORIENTED_EDGE('',*,*,#246,.F.);
#293=EDGE_LOOP('',(#277,#285,#291,#292));
#294=FACE_OUTER_BOUND('',#293,.T.);
#295=ADVANCED_FACE('',(#294),#269,.T.);
#296=CARTESIAN_POINT('',(2.149999999999999,-2.100000000000000,2.825000000000000));
#297=DIRECTION('',(-1.100108E-032,-0.991777866634025,0.127971337630197));
#298=DIRECTION('',(0.0,-0.127971337630197,-0.991777866634025));
#299=AXIS2_PLACEMENT_3D('',#296,#297,#298);
#300=PLANE('',#299);
#301=CARTESIAN_POINT('',(-4.100000000000000,-2.0,3.600000000000001));
#302=VERTEX_POINT('',#301);
#303=CARTESIAN_POINT('',(4.099999999999999,-2.0,3.600000000000001));
#304=DIRECTION('',(-1.0,0.0,0.0));
#305=VECTOR('',#304,8.199999999999999);
#306=LINE('',#303,#305);
#307=EDGE_CURVE('',#271,#302,#306,.T.);
#308=ORIENTED_EDGE('',*,*,#307,.T.);
#309=CARTESIAN_POINT('',(-4.299999999999999,-2.200000000000000,2.050000000000000));
#310=VERTEX_POINT('',#309);
#311=CARTESIAN_POINT('',(-4.100000000000000,-2.0,3.600000000000001));
#312=DIRECTION('',(-0.126936163195075,-0.126936163195075,-0.983755264761834));
#313=VECTOR('',#312,1.575595125658874);
#314=LINE('',#311,#313);
#315=EDGE_CURVE('',#302,#310,#314,.T.);
#316=ORIENTED_EDGE('',*,*,#315,.T.);
#317=CARTESIAN_POINT('',(4.299999999999999,-2.200000000000000,2.050000000000000));
#318=DIRECTION('',(-1.0,0.0,0.0));
#319=VECTOR('',#318,8.599999999999998);
#320=LINE('',#317,#319);
#321=EDGE_CURVE('',#279,#310,#320,.T.);
#322=ORIENTED_EDGE('',*,*,#321,.F.);
#323=ORIENTED_EDGE('',*,*,#284,.F.);
#324=EDGE_LOOP('',(#308,#316,#322,#323));
#325=FACE_OUTER_BOUND('',#324,.T.);
#326=ADVANCED_FACE('',(#325),#300,.T.);
#327=CARTESIAN_POINT('',(-4.199999999999999,-1.100000000000001,2.825000000000000));
#328=DIRECTION('',(-0.991777866634025,-4.003980E-016,0.127971337630196));
#329=DIRECTION('',(0.127971337630196,0.0,0.991777866634025));
#330=AXIS2_PLACEMENT_3D('',#327,#328,#329);
#331=PLANE('',#330);
#332=CARTESIAN_POINT('',(-4.100000000000000,-2.0,3.600000000000001));
#333=DIRECTION('',(0.0,1.0,0.0));
#334=VECTOR('',#333,4.0);
#335=LINE('',#332,#334);
#336=EDGE_CURVE('',#302,#231,#335,.T.);
#337=ORIENTED_EDGE('',*,*,#336,.T.);
#338=ORIENTED_EDGE('',*,*,#260,.T.);
#339=CARTESIAN_POINT('',(-4.299999999999999,-2.200000000000000,2.050000000000000));
#340=DIRECTION('',(0.0,1.0,0.0));
#341=VECTOR('',#340,4.400000000000000);
#342=LINE('',#339,#341);
#343=EDGE_CURVE('',#310,#249,#342,.T.);
#344=ORIENTED_EDGE('',*,*,#343,.F.);
#345=ORIENTED_EDGE('',*,*,#315,.F.);
#346=EDGE_LOOP('',(#337,#338,#344,#345));
#347=FACE_OUTER_BOUND('',#346,.T.);
#348=ADVANCED_FACE('',(#347),#331,.T.);
#349=CARTESIAN_POINT('',(-6.661338E-016,1.110223E-016,3.600000000000001));
#350=DIRECTION('',(0.0,0.0,1.0));
#351=DIRECTION('',(1.0,0.0,0.0));
#352=AXIS2_PLACEMENT_3D('',#349,#350,#351);
#353=PLANE('',#352);
#354=ORIENTED_EDGE('',*,*,#238,.F.);
#355=ORIENTED_EDGE('',*,*,#336,.F.);
#356=ORIENTED_EDGE('',*,*,#307,.F.);
#357=ORIENTED_EDGE('',*,*,#276,.F.);
#358=EDGE_LOOP('',(#354,#355,#356,#357));
#359=FACE_OUTER_BOUND('',#358,.T.);
#360=ADVANCED_FACE('',(#359),#353,.T.);
#361=CARTESIAN_POINT('',(-6.268490E-016,2.220446E-016,2.050000000000000));
#362=DIRECTION('',(0.0,0.0,1.0));
#363=DIRECTION('',(1.0,0.0,0.0));
#364=AXIS2_PLACEMENT_3D('',#361,#362,#363);
#365=PLANE('',#364);
#366=ORIENTED_EDGE('',*,*,#290,.T.);
#367=ORIENTED_EDGE('',*,*,#321,.T.);
#368=ORIENTED_EDGE('',*,*,#343,.T.);
#369=ORIENTED_EDGE('',*,*,#254,.T.);
#370=EDGE_LOOP('',(#366,#367,#368,#369));
#371=FACE_OUTER_BOUND('',#370,.T.);
#372=ADVANCED_FACE('',(#371),#365,.F.);
#373=CLOSED_SHELL('',(#264,#295,#326,#348,#360,#372));
#374=MANIFOLD_SOLID_BREP('7EC',#373);
#375=COLOUR_RGB('250',0.330000000000000,0.330000000000000,0.330000000000000);
#376=SURFACE_STYLE_USAGE(.BOTH.,#377);
#377=SURFACE_SIDE_STYLE('NONE',(#378));
#378=SURFACE_STYLE_FILL_AREA(#379);
#379=FILL_AREA_STYLE('NONE',(#380));
#380=FILL_AREA_STYLE_COLOUR('NONE',#375);
#381=PRESENTATION_STYLE_ASSIGNMENT((#376));
#382=STYLED_ITEM('NONE',(#381),#374);
#383=CARTESIAN_POINT('',(3.600000000000000,0.0,0.250000000000000));
#384=DIRECTION('',(0.0,0.0,1.0));
#385=DIRECTION('',(1.0,0.0,0.0));
#386=AXIS2_PLACEMENT_3D('',#383,#384,#385);
#387=SPHERICAL_SURFACE('',#386,0.250000000000000);
#388=CARTESIAN_POINT('',(3.600000000000000,-1.874576E-033,0.500000000000000));
#389=VERTEX_POINT('',#388);
#390=CARTESIAN_POINT('',(3.600000000000000,-1.874576E-033,-5.551115E-017));
#391=VERTEX_POINT('',#390);
#392=CARTESIAN_POINT('',(3.600000000000000,0.0,0.250000000000000));
#393=DIRECTION('',(0.0,1.0,0.0));
#394=DIRECTION('',(1.0,0.0,0.0));
#395=AXIS2_PLACEMENT_3D('',#392,#393,#394);
#396=CIRCLE('',#395,0.250000000000000);
#397=EDGE_CURVE('',#389,#391,#396,.T.);
#398=ORIENTED_EDGE('',*,*,#397,.F.);
#399=CARTESIAN_POINT('',(3.600000000000000,0.0,0.250000000000000));
#400=DIRECTION('',(0.0,-1.0,0.0));
#401=DIRECTION('',(-1.0,0.0,0.0));
#402=AXIS2_PLACEMENT_3D('',#399,#400,#401);
#403=CIRCLE('',#402,0.250000000000000);
#404=EDGE_CURVE('',#389,#391,#403,.T.);
#405=ORIENTED_EDGE('',*,*,#404,.T.);
#406=EDGE_LOOP('',(#398,#405));
#407=FACE_OUTER_BOUND('',#406,.T.);
#408=ADVANCED_FACE('',(#407),#387,.T.);
#409=CARTESIAN_POINT('',(3.600000000000000,0.0,0.250000000000000));
#410=DIRECTION('',(0.0,0.0,1.0));
#411=DIRECTION('',(1.0,0.0,0.0));
#412=AXIS2_PLACEMENT_3D('',#409,#410,#411);
#413=SPHERICAL_SURFACE('',#412,0.250000000000000);
#414=ORIENTED_EDGE('',*,*,#397,.T.);
#415=ORIENTED_EDGE('',*,*,#404,.F.);
#416=EDGE_LOOP('',(#414,#415));
#417=FACE_OUTER_BOUND('',#416,.T.);
#418=ADVANCED_FACE('',(#417),#413,.T.);
#419=CLOSED_SHELL('',(#408,#418));
#420=MANIFOLD_SOLID_BREP('7E5',#419);
#421=COLOUR_RGB('253',0.732000000000000,0.732000000000000,0.732000000000000);
#422=SURFACE_STYLE_USAGE(.BOTH.,#423);
#423=SURFACE_SIDE_STYLE('NONE',(#424));
#424=SURFACE_STYLE_FILL_AREA(#425);
#425=FILL_AREA_STYLE('NONE',(#426));
#426=FILL_AREA_STYLE_COLOUR('NONE',#421);
#427=PRESENTATION_STYLE_ASSIGNMENT((#422));
#428=STYLED_ITEM('NONE',(#427),#420);
#429=CARTESIAN_POINT('',(-3.600000000000000,0.0,0.250000000000000));
#430=DIRECTION('',(0.0,0.0,1.0));
#431=DIRECTION('',(1.0,0.0,0.0));
#432=AXIS2_PLACEMENT_3D('',#429,#430,#431);
#433=SPHERICAL_SURFACE('',#432,0.250000000000000);
#434=CARTESIAN_POINT('',(-3.600000000000000,-1.874576E-033,0.500000000000000));
#435=VERTEX_POINT('',#434);
#436=CARTESIAN_POINT('',(-3.600000000000000,-1.874576E-033,-5.551115E-017));
#437=VERTEX_POINT('',#436);
#438=CARTESIAN_POINT('',(-3.600000000000000,0.0,0.250000000000000));
#439=DIRECTION('',(0.0,1.0,0.0));
#440=DIRECTION('',(1.0,0.0,0.0));
#441=AXIS2_PLACEMENT_3D('',#438,#439,#440);
#442=CIRCLE('',#441,0.250000000000000);
#443=EDGE_CURVE('',#435,#437,#442,.T.);
#444=ORIENTED_EDGE('',*,*,#443,.F.);
#445=CARTESIAN_POINT('',(-3.600000000000000,0.0,0.250000000000000));
#446=DIRECTION('',(0.0,-1.0,0.0));
#447=DIRECTION('',(-1.0,0.0,0.0));
#448=AXIS2_PLACEMENT_3D('',#445,#446,#447);
#449=CIRCLE('',#448,0.250000000000000);
#450=EDGE_CURVE('',#435,#437,#449,.T.);
#451=ORIENTED_EDGE('',*,*,#450,.T.);
#452=EDGE_LOOP('',(#444,#451));
#453=FACE_OUTER_BOUND('',#452,.T.);
#454=ADVANCED_FACE('',(#453),#433,.T.);
#455=CARTESIAN_POINT('',(-3.600000000000000,0.0,0.250000000000000));
#456=DIRECTION('',(0.0,0.0,1.0));
#457=DIRECTION('',(1.0,0.0,0.0));
#458=AXIS2_PLACEMENT_3D('',#455,#456,#457);
#459=SPHERICAL_SURFACE('',#458,0.250000000000000);
#460=ORIENTED_EDGE('',*,*,#443,.T.);
#461=ORIENTED_EDGE('',*,*,#450,.F.);
#462=EDGE_LOOP('',(#460,#461));
#463=FACE_OUTER_BOUND('',#462,.T.);
#464=ADVANCED_FACE('',(#463),#459,.T.);
#465=CLOSED_SHELL('',(#454,#464));
#466=MANIFOLD_SOLID_BREP('7E1',#465);
#467=STYLED_ITEM('NONE',(#427),#466);
#468=CARTESIAN_POINT('',(3.600000000000000,-1.500000000000000,0.250000000000000));
#469=DIRECTION('',(0.0,0.0,1.0));
#470=DIRECTION('',(1.0,0.0,0.0));
#471=AXIS2_PLACEMENT_3D('',#468,#469,#470);
#472=SPHERICAL_SURFACE('',#471,0.250000000000000);
#473=CARTESIAN_POINT('',(3.600000000000000,-1.500000000000000,0.500000000000000));
#474=VERTEX_POINT('',#473);
#475=CARTESIAN_POINT('',(3.600000000000000,-1.500000000000000,-5.551115E-017));
#476=VERTEX_POINT('',#475);
#477=CARTESIAN_POINT('',(3.600000000000000,-1.500000000000000,0.250000000000000));
#478=DIRECTION('',(0.0,1.0,0.0));
#479=DIRECTION('',(1.0,0.0,0.0));
#480=AXIS2_PLACEMENT_3D('',#477,#478,#479);
#481=CIRCLE('',#480,0.250000000000000);
#482=EDGE_CURVE('',#474,#476,#481,.T.);
#483=ORIENTED_EDGE('',*,*,#482,.F.);
#484=CARTESIAN_POINT('',(3.600000000000000,-1.500000000000000,0.250000000000000));
#485=DIRECTION('',(0.0,-1.0,0.0));
#486=DIRECTION('',(-1.0,0.0,0.0));
#487=AXIS2_PLACEMENT_3D('',#484,#485,#486);
#488=CIRCLE('',#487,0.250000000000000);
#489=EDGE_CURVE('',#474,#476,#488,.T.);
#490=ORIENTED_EDGE('',*,*,#489,.T.);
#491=EDGE_LOOP('',(#483,#490));
#492=FACE_OUTER_BOUND('',#491,.T.);
#493=ADVANCED_FACE('',(#492),#472,.T.);
#494=CARTESIAN_POINT('',(3.600000000000000,-1.500000000000000,0.250000000000000));
#495=DIRECTION('',(0.0,0.0,1.0));
#496=DIRECTION('',(1.0,0.0,0.0));
#497=AXIS2_PLACEMENT_3D('',#494,#495,#496);
#498=SPHERICAL_SURFACE('',#497,0.250000000000000);
#499=ORIENTED_EDGE('',*,*,#482,.T.);
#500=ORIENTED_EDGE('',*,*,#489,.F.);
#501=EDGE_LOOP('',(#499,#500));
#502=FACE_OUTER_BOUND('',#501,.T.);
#503=ADVANCED_FACE('',(#502),#498,.T.);
#504=CLOSED_SHELL('',(#493,#503));
#505=MANIFOLD_SOLID_BREP('7D5',#504);
#506=STYLED_ITEM('NONE',(#427),#505);
#507=CARTESIAN_POINT('',(-3.600000000000000,-1.500000000000000,0.250000000000000));
#508=DIRECTION('',(0.0,0.0,1.0));
#509=DIRECTION('',(1.0,0.0,0.0));
#510=AXIS2_PLACEMENT_3D('',#507,#508,#509);
#511=SPHERICAL_SURFACE('',#510,0.250000000000000);
#512=CARTESIAN_POINT('',(-3.600000000000000,-1.500000000000000,0.500000000000000));
#513=VERTEX_POINT('',#512);
#514=CARTESIAN_POINT('',(-3.600000000000000,-1.500000000000000,-5.551115E-017));
#515=VERTEX_POINT('',#514);
#516=CARTESIAN_POINT('',(-3.600000000000000,-1.500000000000000,0.250000000000000));
#517=DIRECTION('',(0.0,1.0,0.0));
#518=DIRECTION('',(1.0,0.0,0.0));
#519=AXIS2_PLACEMENT_3D('',#516,#517,#518);
#520=CIRCLE('',#519,0.250000000000000);
#521=EDGE_CURVE('',#513,#515,#520,.T.);
#522=ORIENTED_EDGE('',*,*,#521,.F.);
#523=CARTESIAN_POINT('',(-3.600000000000000,-1.500000000000000,0.250000000000000));
#524=DIRECTION('',(0.0,-1.0,0.0));
#525=DIRECTION('',(-1.0,0.0,0.0));
#526=AXIS2_PLACEMENT_3D('',#523,#524,#525);
#527=CIRCLE('',#526,0.250000000000000);
#528=EDGE_CURVE('',#513,#515,#527,.T.);
#529=ORIENTED_EDGE('',*,*,#528,.T.);
#530=EDGE_LOOP('',(#522,#529));
#531=FACE_OUTER_BOUND('',#530,.T.);
#532=ADVANCED_FACE('',(#531),#511,.T.);
#533=CARTESIAN_POINT('',(-3.600000000000000,-1.500000000000000,0.250000000000000));
#534=DIRECTION('',(0.0,0.0,1.0));
#535=DIRECTION('',(1.0,0.0,0.0));
#536=AXIS2_PLACEMENT_3D('',#533,#534,#535);
#537=SPHERICAL_SURFACE('',#536,0.250000000000000);
#538=ORIENTED_EDGE('',*,*,#521,.T.);
#539=ORIENTED_EDGE('',*,*,#528,.F.);
#540=EDGE_LOOP('',(#538,#539));
#541=FACE_OUTER_BOUND('',#540,.T.);
#542=ADVANCED_FACE('',(#541),#537,.T.);
#543=CLOSED_SHELL('',(#532,#542));
#544=MANIFOLD_SOLID_BREP('7D1',#543);
#545=STYLED_ITEM('NONE',(#427),#544);
#546=CARTESIAN_POINT('',(-1.200000000000000,-1.500000000000000,0.250000000000000));
#547=DIRECTION('',(0.0,0.0,1.0));
#548=DIRECTION('',(1.0,0.0,0.0));
#549=AXIS2_PLACEMENT_3D('',#546,#547,#548);
#550=SPHERICAL_SURFACE('',#549,0.250000000000000);
#551=CARTESIAN_POINT('',(-1.200000000000000,-1.500000000000000,0.500000000000000));
#552=VERTEX_POINT('',#551);
#553=CARTESIAN_POINT('',(-1.200000000000000,-1.500000000000000,-5.551115E-017));
#554=VERTEX_POINT('',#553);
#555=CARTESIAN_POINT('',(-1.200000000000000,-1.500000000000000,0.250000000000000));
#556=DIRECTION('',(0.0,1.0,0.0));
#557=DIRECTION('',(1.0,0.0,0.0));
#558=AXIS2_PLACEMENT_3D('',#555,#556,#557);
#559=CIRCLE('',#558,0.250000000000000);
#560=EDGE_CURVE('',#552,#554,#559,.T.);
#561=ORIENTED_EDGE('',*,*,#560,.F.);
#562=CARTESIAN_POINT('',(-1.200000000000000,-1.500000000000000,0.250000000000000));
#563=DIRECTION('',(0.0,-1.0,0.0));
#564=DIRECTION('',(-1.0,0.0,0.0));
#565=AXIS2_PLACEMENT_3D('',#562,#563,#564);
#566=CIRCLE('',#565,0.250000000000000);
#567=EDGE_CURVE('',#552,#554,#566,.T.);
#568=ORIENTED_EDGE('',*,*,#567,.T.);
#569=EDGE_LOOP('',(#561,#568));
#570=FACE_OUTER_BOUND('',#569,.T.);
#571=ADVANCED_FACE('',(#570),#550,.T.);
#572=CARTESIAN_POINT('',(-1.200000000000000,-1.500000000000000,0.250000000000000));
#573=DIRECTION('',(0.0,0.0,1.0));
#574=DIRECTION('',(1.0,0.0,0.0));
#575=AXIS2_PLACEMENT_3D('',#572,#573,#574);
#576=SPHERICAL_SURFACE('',#575,0.250000000000000);
#577=ORIENTED_EDGE('',*,*,#560,.T.);
#578=ORIENTED_EDGE('',*,*,#567,.F.);
#579=EDGE_LOOP('',(#577,#578));
#580=FACE_OUTER_BOUND('',#579,.T.);
#581=ADVANCED_FACE('',(#580),#576,.T.);
#582=CLOSED_SHELL('',(#571,#581));
#583=MANIFOLD_SOLID_BREP('7CD',#582);
#584=STYLED_ITEM('NONE',(#427),#583);
#585=CARTESIAN_POINT('',(1.200000000000000,-1.500000000000000,0.250000000000000));
#586=DIRECTION('',(0.0,0.0,1.0));
#587=DIRECTION('',(1.0,0.0,0.0));
#588=AXIS2_PLACEMENT_3D('',#585,#586,#587);
#589=SPHERICAL_SURFACE('',#588,0.250000000000000);
#590=CARTESIAN_POINT('',(1.200000000000000,-1.500000000000000,0.500000000000000));
#591=VERTEX_POINT('',#590);
#592=CARTESIAN_POINT('',(1.200000000000000,-1.500000000000000,-5.551115E-017));
#593=VERTEX_POINT('',#592);
#594=CARTESIAN_POINT('',(1.200000000000000,-1.500000000000000,0.250000000000000));
#595=DIRECTION('',(0.0,1.0,0.0));
#596=DIRECTION('',(1.0,0.0,0.0));
#597=AXIS2_PLACEMENT_3D('',#594,#595,#596);
#598=CIRCLE('',#597,0.250000000000000);
#599=EDGE_CURVE('',#591,#593,#598,.T.);
#600=ORIENTED_EDGE('',*,*,#599,.F.);
#601=CARTESIAN_POINT('',(1.200000000000000,-1.500000000000000,0.250000000000000));
#602=DIRECTION('',(0.0,-1.0,0.0));
#603=DIRECTION('',(-1.0,0.0,0.0));
#604=AXIS2_PLACEMENT_3D('',#601,#602,#603);
#605=CIRCLE('',#604,0.250000000000000);
#606=EDGE_CURVE('',#591,#593,#605,.T.);
#607=ORIENTED_EDGE('',*,*,#606,.T.);
#608=EDGE_LOOP('',(#600,#607));
#609=FACE_OUTER_BOUND('',#608,.T.);
#610=ADVANCED_FACE('',(#609),#589,.T.);
#611=CARTESIAN_POINT('',(1.200000000000000,-1.500000000000000,0.250000000000000));
#612=DIRECTION('',(0.0,0.0,1.0));
#613=DIRECTION('',(1.0,0.0,0.0));
#614=AXIS2_PLACEMENT_3D('',#611,#612,#613);
#615=SPHERICAL_SURFACE('',#614,0.250000000000000);
#616=ORIENTED_EDGE('',*,*,#599,.T.);
#617=ORIENTED_EDGE('',*,*,#606,.F.);
#618=EDGE_LOOP('',(#616,#617));
#619=FACE_OUTER_BOUND('',#618,.T.);
#620=ADVANCED_FACE('',(#619),#615,.T.);
#621=CLOSED_SHELL('',(#610,#620));
#622=MANIFOLD_SOLID_BREP('7C9',#621);
#623=STYLED_ITEM('NONE',(#427),#622);
#624=CARTESIAN_POINT('',(3.600000000000000,1.500000000000000,0.250000000000000));
#625=DIRECTION('',(0.0,0.0,1.0));
#626=DIRECTION('',(1.0,0.0,0.0));
#627=AXIS2_PLACEMENT_3D('',#624,#625,#626);
#628=SPHERICAL_SURFACE('',#627,0.250000000000000);
#629=CARTESIAN_POINT('',(3.600000000000000,1.500000000000000,0.500000000000000));
#630=VERTEX_POINT('',#629);
#631=CARTESIAN_POINT('',(3.600000000000000,1.500000000000000,-5.551115E-017));
#632=VERTEX_POINT('',#631);
#633=CARTESIAN_POINT('',(3.600000000000000,1.500000000000000,0.250000000000000));
#634=DIRECTION('',(0.0,1.0,0.0));
#635=DIRECTION('',(1.0,0.0,0.0));
#636=AXIS2_PLACEMENT_3D('',#633,#634,#635);
#637=CIRCLE('',#636,0.250000000000000);
#638=EDGE_CURVE('',#630,#632,#637,.T.);
#639=ORIENTED_EDGE('',*,*,#638,.F.);
#640=CARTESIAN_POINT('',(3.600000000000000,1.500000000000000,0.250000000000000));
#641=DIRECTION('',(0.0,-1.0,0.0));
#642=DIRECTION('',(-1.0,0.0,0.0));
#643=AXIS2_PLACEMENT_3D('',#640,#641,#642);
#644=CIRCLE('',#643,0.250000000000000);
#645=EDGE_CURVE('',#630,#632,#644,.T.);
#646=ORIENTED_EDGE('',*,*,#645,.T.);
#647=EDGE_LOOP('',(#639,#646));
#648=FACE_OUTER_BOUND('',#647,.T.);
#649=ADVANCED_FACE('',(#648),#628,.T.);
#650=CARTESIAN_POINT('',(3.600000000000000,1.500000000000000,0.250000000000000));
#651=DIRECTION('',(0.0,0.0,1.0));
#652=DIRECTION('',(1.0,0.0,0.0));
#653=AXIS2_PLACEMENT_3D('',#650,#651,#652);
#654=SPHERICAL_SURFACE('',#653,0.250000000000000);
#655=ORIENTED_EDGE('',*,*,#638,.T.);
#656=ORIENTED_EDGE('',*,*,#645,.F.);
#657=EDGE_LOOP('',(#655,#656));
#658=FACE_OUTER_BOUND('',#657,.T.);
#659=ADVANCED_FACE('',(#658),#654,.T.);
#660=CLOSED_SHELL('',(#649,#659));
#661=MANIFOLD_SOLID_BREP('7C5',#660);
#662=STYLED_ITEM('NONE',(#427),#661);
#663=CARTESIAN_POINT('',(-3.600000000000000,1.500000000000000,0.250000000000000));
#664=DIRECTION('',(0.0,0.0,1.0));
#665=DIRECTION('',(1.0,0.0,0.0));
#666=AXIS2_PLACEMENT_3D('',#663,#664,#665);
#667=SPHERICAL_SURFACE('',#666,0.250000000000000);
#668=CARTESIAN_POINT('',(-3.600000000000000,1.500000000000000,0.500000000000000));
#669=VERTEX_POINT('',#668);
#670=CARTESIAN_POINT('',(-3.600000000000000,1.500000000000000,-5.551115E-017));
#671=VERTEX_POINT('',#670);
#672=CARTESIAN_POINT('',(-3.600000000000000,1.500000000000000,0.250000000000000));
#673=DIRECTION('',(0.0,1.0,0.0));
#674=DIRECTION('',(1.0,0.0,0.0));
#675=AXIS2_PLACEMENT_3D('',#672,#673,#674);
#676=CIRCLE('',#675,0.250000000000000);
#677=EDGE_CURVE('',#669,#671,#676,.T.);
#678=ORIENTED_EDGE('',*,*,#677,.F.);
#679=CARTESIAN_POINT('',(-3.600000000000000,1.500000000000000,0.250000000000000));
#680=DIRECTION('',(0.0,-1.0,0.0));
#681=DIRECTION('',(-1.0,0.0,0.0));
#682=AXIS2_PLACEMENT_3D('',#679,#680,#681);
#683=CIRCLE('',#682,0.250000000000000);
#684=EDGE_CURVE('',#669,#671,#683,.T.);
#685=ORIENTED_EDGE('',*,*,#684,.T.);
#686=EDGE_LOOP('',(#678,#685));
#687=FACE_OUTER_BOUND('',#686,.T.);
#688=ADVANCED_FACE('',(#687),#667,.T.);
#689=CARTESIAN_POINT('',(-3.600000000000000,1.500000000000000,0.250000000000000));
#690=DIRECTION('',(0.0,0.0,1.0));
#691=DIRECTION('',(1.0,0.0,0.0));
#692=AXIS2_PLACEMENT_3D('',#689,#690,#691);
#693=SPHERICAL_SURFACE('',#692,0.250000000000000);
#694=ORIENTED_EDGE('',*,*,#677,.T.);
#695=ORIENTED_EDGE('',*,*,#684,.F.);
#696=EDGE_LOOP('',(#694,#695));
#697=FACE_OUTER_BOUND('',#696,.T.);
#698=ADVANCED_FACE('',(#697),#693,.T.);
#699=CLOSED_SHELL('',(#688,#698));
#700=MANIFOLD_SOLID_BREP('7C1',#699);
#701=STYLED_ITEM('NONE',(#427),#700);
#702=CARTESIAN_POINT('',(-1.200000000000000,1.500000000000000,0.250000000000000));
#703=DIRECTION('',(0.0,0.0,1.0));
#704=DIRECTION('',(1.0,0.0,0.0));
#705=AXIS2_PLACEMENT_3D('',#702,#703,#704);
#706=SPHERICAL_SURFACE('',#705,0.250000000000000);
#707=CARTESIAN_POINT('',(-1.200000000000000,1.500000000000000,0.500000000000000));
#708=VERTEX_POINT('',#707);
#709=CARTESIAN_POINT('',(-1.200000000000000,1.500000000000000,-5.551115E-017));
#710=VERTEX_POINT('',#709);
#711=CARTESIAN_POINT('',(-1.200000000000000,1.500000000000000,0.250000000000000));
#712=DIRECTION('',(0.0,1.0,0.0));
#713=DIRECTION('',(1.0,0.0,0.0));
#714=AXIS2_PLACEMENT_3D('',#711,#712,#713);
#715=CIRCLE('',#714,0.250000000000000);
#716=EDGE_CURVE('',#708,#710,#715,.T.);
#717=ORIENTED_EDGE('',*,*,#716,.F.);
#718=CARTESIAN_POINT('',(-1.200000000000000,1.500000000000000,0.250000000000000));
#719=DIRECTION('',(0.0,-1.0,0.0));
#720=DIRECTION('',(-1.0,0.0,0.0));
#721=AXIS2_PLACEMENT_3D('',#718,#719,#720);
#722=CIRCLE('',#721,0.250000000000000);
#723=EDGE_CURVE('',#708,#710,#722,.T.);
#724=ORIENTED_EDGE('',*,*,#723,.T.);
#725=EDGE_LOOP('',(#717,#724));
#726=FACE_OUTER_BOUND('',#725,.T.);
#727=ADVANCED_FACE('',(#726),#706,.T.);
#728=CARTESIAN_POINT('',(-1.200000000000000,1.500000000000000,0.250000000000000));
#729=DIRECTION('',(0.0,0.0,1.0));
#730=DIRECTION('',(1.0,0.0,0.0));
#731=AXIS2_PLACEMENT_3D('',#728,#729,#730);
#732=SPHERICAL_SURFACE('',#731,0.250000000000000);
#733=ORIENTED_EDGE('',*,*,#716,.T.);
#734=ORIENTED_EDGE('',*,*,#723,.F.);
#735=EDGE_LOOP('',(#733,#734));
#736=FACE_OUTER_BOUND('',#735,.T.);
#737=ADVANCED_FACE('',(#736),#732,.T.);
#738=CLOSED_SHELL('',(#727,#737));
#739=MANIFOLD_SOLID_BREP('7BD',#738);
#740=STYLED_ITEM('NONE',(#427),#739);
#741=CARTESIAN_POINT('',(1.200000000000000,1.500000000000000,0.250000000000000));
#742=DIRECTION('',(0.0,0.0,1.0));
#743=DIRECTION('',(1.0,0.0,0.0));
#744=AXIS2_PLACEMENT_3D('',#741,#742,#743);
#745=SPHERICAL_SURFACE('',#744,0.250000000000000);
#746=CARTESIAN_POINT('',(1.200000000000000,1.500000000000000,0.500000000000000));
#747=VERTEX_POINT('',#746);
#748=CARTESIAN_POINT('',(1.200000000000000,1.500000000000000,-5.551115E-017));
#749=VERTEX_POINT('',#748);
#750=CARTESIAN_POINT('',(1.200000000000000,1.500000000000000,0.250000000000000));
#751=DIRECTION('',(0.0,1.0,0.0));
#752=DIRECTION('',(1.0,0.0,0.0));
#753=AXIS2_PLACEMENT_3D('',#750,#751,#752);
#754=CIRCLE('',#753,0.250000000000000);
#755=EDGE_CURVE('',#747,#749,#754,.T.);
#756=ORIENTED_EDGE('',*,*,#755,.F.);
#757=CARTESIAN_POINT('',(1.200000000000000,1.500000000000000,0.250000000000000));
#758=DIRECTION('',(0.0,-1.0,0.0));
#759=DIRECTION('',(-1.0,0.0,0.0));
#760=AXIS2_PLACEMENT_3D('',#757,#758,#759);
#761=CIRCLE('',#760,0.250000000000000);
#762=EDGE_CURVE('',#747,#749,#761,.T.);
#763=ORIENTED_EDGE('',*,*,#762,.T.);
#764=EDGE_LOOP('',(#756,#763));
#765=FACE_OUTER_BOUND('',#764,.T.);
#766=ADVANCED_FACE('',(#765),#745,.T.);
#767=CARTESIAN_POINT('',(1.200000000000000,1.500000000000000,0.250000000000000));
#768=DIRECTION('',(0.0,0.0,1.0));
#769=DIRECTION('',(1.0,0.0,0.0));
#770=AXIS2_PLACEMENT_3D('',#767,#768,#769);
#771=SPHERICAL_SURFACE('',#770,0.250000000000000);
#772=ORIENTED_EDGE('',*,*,#755,.T.);
#773=ORIENTED_EDGE('',*,*,#762,.F.);
#774=EDGE_LOOP('',(#772,#773));
#775=FACE_OUTER_BOUND('',#774,.T.);
#776=ADVANCED_FACE('',(#775),#771,.T.);
#777=CLOSED_SHELL('',(#766,#776));
#778=MANIFOLD_SOLID_BREP('7B9',#777);
#779=STYLED_ITEM('NONE',(#427),#778);
#780=ADVANCED_BREP_SHAPE_REPRESENTATION('ABSR1',(#214,#374,#420,#466,#505,#544,#583,#622,#661,#700,#739,#778),#28);
#781=SHAPE_REPRESENTATION_RELATIONSHIP('SRRPL1','',#780,#62);
ENDSEC;
END-ISO-10303-21;
