ISO-10303-21;
HEADER;
/****************************************************************
 * Generated by software with PDElib inside                    *
 * PDElib Version v51a, created Fri 09/10/2010                  *
 * ITI Transcendata (http://www.transcendata.com/)              *
 ****************************************************************/
FILE_DESCRIPTION((''),'2;1');
FILE_NAME('RES2032-1400X350.stp','2011-11-18T09:23:27',(''),(''),'Mechanical Desktop 2011','Mechanical Desktop 2011',', , ');
FILE_SCHEMA(('AUTOMOTIVE_DESIGN { 1 2 10303 214 1 1 1 1 }'));
ENDSEC;
DATA;
#10=(NAMED_UNIT(*)PLANE_ANGLE_UNIT()SI_UNIT($,.RADIAN.));
#11=DIMENSIONAL_EXPONENTS(0.0,0.0,0.0,0.0,0.0,0.0,0.0);
#12=PLANE_ANGLE_MEASURE_WITH_UNIT(PLANE_ANGLE_MEASURE(0.0174532925),#10);
#16=(CONVERSION_BASED_UNIT('DEGREE',#12)NAMED_UNIT(#11)PLANE_ANGLE_UNIT());
#20=(NAMED_UNIT(*)SI_UNIT($,.STERADIAN.)SOLID_ANGLE_UNIT());
#24=(LENGTH_UNIT()NAMED_UNIT(*)SI_UNIT(.MILLI.,.METRE.));
#26=UNCERTAINTY_MEASURE_WITH_UNIT(LENGTH_MEASURE(0.000001),#24,'DISTANCE_ACCURACY_VALUE','');
#28=(GEOMETRIC_REPRESENTATION_CONTEXT(3)GLOBAL_UNCERTAINTY_ASSIGNED_CONTEXT((#26))GLOBAL_UNIT_ASSIGNED_CONTEXT((#16,#20,#24))REPRESENTATION_CONTEXT('','3D'));
#29=APPLICATION_CONTEXT('automotive design');
#30=APPLICATION_PROTOCOL_DEFINITION('INTERNATIONAL_STANDARD','automotive_design',1998,#29);
#31=PRODUCT_CONTEXT('3D Mechanical Parts',#29,'mechanical');
#32=PRODUCT('Product','Product','',(#31));
#33=PRODUCT_RELATED_PRODUCT_CATEGORY('part',$,(#32));
#34=PRODUCT_CATEGORY('part',$);
#35=PERSON('1','Design','Joe',$,$,$);
#36=ORGANIZATION($,'None','None');
#37=PERSON_AND_ORGANIZATION(#35,#36);
#38=PERSON_AND_ORGANIZATION_ROLE('design_owner');
#39=APPLIED_PERSON_AND_ORGANIZATION_ASSIGNMENT(#37,#38,(#32));
#40=PRODUCT_DEFINITION_FORMATION_WITH_SPECIFIED_SOURCE('None','',#32,.BOUGHT.);
#41=PERSON('2','Creator','Joe',$,$,$);
#42=ORGANIZATION($,'None','None');
#43=PERSON_AND_ORGANIZATION(#41,#42);
#44=PERSON_AND_ORGANIZATION_ROLE('creator');
#45=APPLIED_PERSON_AND_ORGANIZATION_ASSIGNMENT(#43,#44,(#40));
#46=PERSON('3','Supplier','Joe',$,$,$);
#47=ORGANIZATION($,'None','None');
#48=PERSON_AND_ORGANIZATION(#46,#47);
#49=PERSON_AND_ORGANIZATION_ROLE('design_supplier');
#50=APPLIED_PERSON_AND_ORGANIZATION_ASSIGNMENT(#48,#49,(#40));
#51=PRODUCT_DEFINITION_CONTEXT('part definition',#29,'design');
#52=PRODUCT_DEFINITION('None','',#40,#51);
#53=PERSON('4','Creator','Joe',$,$,$);
#54=ORGANIZATION($,'None','None');
#55=PERSON_AND_ORGANIZATION(#53,#54);
#56=PERSON_AND_ORGANIZATION_ROLE('creator');
#57=APPLIED_PERSON_AND_ORGANIZATION_ASSIGNMENT(#55,#56,(#52));
#58=CARTESIAN_POINT('NONE',(0.0,0.0,0.0));
#59=DIRECTION('NONE',(0.0,0.0,1.0));
#60=DIRECTION('NONE',(1.0,0.0,0.0));
#61=AXIS2_PLACEMENT_3D('NONE',#58,#59,#60);
#62=SHAPE_REPRESENTATION('SR1',(#61),#28);
#63=PRODUCT_DEFINITION_SHAPE('PDS1','Test Part',#52);
#64=SHAPE_DEFINITION_REPRESENTATION(#63,#62);
#65=CARTESIAN_POINT('',(-5.0,0.0,1.9));
#66=DIRECTION('',(1.0,0.0,2.220446E-016));
#67=DIRECTION('',(0.0,1.0,0.0));
#68=AXIS2_PLACEMENT_3D('',#65,#66,#67);
#69=CYLINDRICAL_SURFACE('',#68,1.75);
#70=CARTESIAN_POINT('',(5.0,1.75,1.900000000000002));
#71=VERTEX_POINT('',#70);
#72=CARTESIAN_POINT('',(-5.0,1.75,1.9));
#73=VERTEX_POINT('',#72);
#74=CARTESIAN_POINT('',(5.0,1.75,1.900000000000002));
#75=DIRECTION('',(-1.0,0.0,0.0));
#76=VECTOR('',#75,10.0);
#77=LINE('',#74,#76);
#78=EDGE_CURVE('',#71,#73,#77,.T.);
#79=ORIENTED_EDGE('',*,*,#78,.F.);
#80=CARTESIAN_POINT('',(5.0,-1.75,1.900000000000002));
#81=VERTEX_POINT('',#80);
#82=CARTESIAN_POINT('',(5.0,0.0,1.900000000000002));
#83=DIRECTION('',(-1.0,0.0,0.0));
#84=DIRECTION('',(0.0,1.0,0.0));
#85=AXIS2_PLACEMENT_3D('',#82,#83,#84);
#86=CIRCLE('',#85,1.75);
#87=EDGE_CURVE('',#71,#81,#86,.T.);
#88=ORIENTED_EDGE('',*,*,#87,.T.);
#89=CARTESIAN_POINT('',(-5.0,-1.75,1.9));
#90=VERTEX_POINT('',#89);
#91=CARTESIAN_POINT('',(5.0,-1.75,1.900000000000002));
#92=DIRECTION('',(-1.0,0.0,0.0));
#93=VECTOR('',#92,10.0);
#94=LINE('',#91,#93);
#95=EDGE_CURVE('',#81,#90,#94,.T.);
#96=ORIENTED_EDGE('',*,*,#95,.T.);
#97=CARTESIAN_POINT('',(-5.0,0.0,1.9));
#98=DIRECTION('',(1.0,0.0,0.0));
#99=DIRECTION('',(0.0,1.0,0.0));
#100=AXIS2_PLACEMENT_3D('',#97,#98,#99);
#101=CIRCLE('',#100,1.75);
#102=EDGE_CURVE('',#90,#73,#101,.T.);
#103=ORIENTED_EDGE('',*,*,#102,.T.);
#104=EDGE_LOOP('',(#79,#88,#96,#103));
#105=FACE_OUTER_BOUND('',#104,.T.);
#106=ADVANCED_FACE('',(#105),#69,.T.);
#107=CARTESIAN_POINT('',(-5.0,0.0,1.9));
#108=DIRECTION('',(1.0,0.0,2.220446E-016));
#109=DIRECTION('',(0.0,1.0,0.0));
#110=AXIS2_PLACEMENT_3D('',#107,#108,#109);
#111=CYLINDRICAL_SURFACE('',#110,1.75);
#112=ORIENTED_EDGE('',*,*,#78,.T.);
#113=CARTESIAN_POINT('',(-5.0,0.0,1.9));
#114=DIRECTION('',(1.0,0.0,0.0));
#115=DIRECTION('',(0.0,1.0,0.0));
#116=AXIS2_PLACEMENT_3D('',#113,#114,#115);
#117=CIRCLE('',#116,1.75);
#118=EDGE_CURVE('',#73,#90,#117,.T.);
#119=ORIENTED_EDGE('',*,*,#118,.T.);
#120=ORIENTED_EDGE('',*,*,#95,.F.);
#121=CARTESIAN_POINT('',(5.0,0.0,1.900000000000002));
#122=DIRECTION('',(-1.0,0.0,0.0));
#123=DIRECTION('',(0.0,1.0,0.0));
#124=AXIS2_PLACEMENT_3D('',#121,#122,#123);
#125=CIRCLE('',#124,1.75);
#126=EDGE_CURVE('',#81,#71,#125,.T.);
#127=ORIENTED_EDGE('',*,*,#126,.T.);
#128=EDGE_LOOP('',(#112,#119,#120,#127));
#129=FACE_OUTER_BOUND('',#128,.T.);
#130=ADVANCED_FACE('',(#129),#111,.T.);
#131=CARTESIAN_POINT('',(-5.0,0.0,1.9));
#132=DIRECTION('',(1.0,0.0,0.0));
#133=DIRECTION('',(0.0,0.0,-1.0));
#134=AXIS2_PLACEMENT_3D('',#131,#132,#133);
#135=PLANE('',#134);
#136=ORIENTED_EDGE('',*,*,#118,.F.);
#137=ORIENTED_EDGE('',*,*,#102,.F.);
#138=EDGE_LOOP('',(#136,#137));
#139=FACE_OUTER_BOUND('',#138,.T.);
#140=ADVANCED_FACE('',(#139),#135,.F.);
#141=CARTESIAN_POINT('',(5.0,0.0,1.900000000000002));
#142=DIRECTION('',(1.0,0.0,0.0));
#143=DIRECTION('',(0.0,0.0,-1.0));
#144=AXIS2_PLACEMENT_3D('',#141,#142,#143);
#145=PLANE('',#144);
#146=ORIENTED_EDGE('',*,*,#87,.F.);
#147=ORIENTED_EDGE('',*,*,#126,.F.);
#148=EDGE_LOOP('',(#146,#147));
#149=FACE_OUTER_BOUND('',#148,.T.);
#150=ADVANCED_FACE('',(#149),#145,.T.);
#151=CLOSED_SHELL('',(#106,#130,#140,#150));
#152=MANIFOLD_SOLID_BREP('CDF',#151);
#153=COLOUR_RGB('24',0.5,0.125,0.0);
#154=SURFACE_STYLE_USAGE(.BOTH.,#155);
#155=SURFACE_SIDE_STYLE('NONE',(#156));
#156=SURFACE_STYLE_FILL_AREA(#157);
#157=FILL_AREA_STYLE('NONE',(#158));
#158=FILL_AREA_STYLE_COLOUR('NONE',#153);
#159=PRESENTATION_STYLE_ASSIGNMENT((#154));
#160=STYLED_ITEM('NONE',(#159),#152);
#161=MECHANICAL_DESIGN_GEOMETRIC_PRESENTATION_REPRESENTATION('NONE',(#160,#429,#748,#759,#1137,#1328),#28);
#162=PRESENTATION_LAYER_ASSIGNMENT('3D','None',(#152,#428,#747,#754,#1129,#1327));
#163=CARTESIAN_POINT('',(-7.265000000000001,5.694608E-017,1.899999999999998));
#164=DIRECTION('',(1.0,1.224647E-016,2.220446E-016));
#165=DIRECTION('',(0.0,0.0,-1.0));
#166=AXIS2_PLACEMENT_3D('',#163,#164,#165);
#167=CONICAL_SURFACE('',#166,0.95,63.919468177966692);
#168=CARTESIAN_POINT('',(-7.730000000000001,0.0,1.899999999999998));
#169=VERTEX_POINT('',#168);
#170=CARTESIAN_POINT('',(-6.909713762401617,7.120800E-017,0.224146396304379));
#171=VERTEX_POINT('',#170);
#172=CARTESIAN_POINT('',(-7.730000000000001,1.232595E-032,1.899999999999998));
#173=DIRECTION('',(0.439634009239049,5.383964E-017,-0.898177008122786));
#174=VECTOR('',#173,1.865838903178114);
#175=LINE('',#172,#174);
#176=EDGE_CURVE('',#169,#171,#175,.T.);
#177=ORIENTED_EDGE('',*,*,#176,.F.);
#178=CARTESIAN_POINT('',(-6.909713762401617,-8.889143E-017,3.575853603695618));
#179=VERTEX_POINT('',#178);
#180=CARTESIAN_POINT('',(-7.730000000000001,7.395571E-032,1.899999999999998));
#181=DIRECTION('',(0.439634009239049,1.638346E-016,0.898177008122786));
#182=VECTOR('',#181,1.865838903178114);
#183=LINE('',#180,#182);
#184=EDGE_CURVE('',#169,#179,#183,.T.);
#185=ORIENTED_EDGE('',*,*,#184,.T.);
#186=CARTESIAN_POINT('',(-6.909713762401617,8.583205E-017,1.899999999999999));
#187=DIRECTION('',(1.0,0.0,0.0));
#188=DIRECTION('',(0.0,0.0,1.0));
#189=AXIS2_PLACEMENT_3D('',#186,#187,#188);
#190=CIRCLE('',#189,1.67585360369562);
#191=EDGE_CURVE('',#171,#179,#190,.T.);
#192=ORIENTED_EDGE('',*,*,#191,.F.);
#193=EDGE_LOOP('',(#177,#185,#192));
#194=FACE_OUTER_BOUND('',#193,.T.);
#195=ADVANCED_FACE('',(#194),#167,.T.);
#196=CARTESIAN_POINT('',(-6.550442959152503,1.163414E-016,1.899999999999999));
#197=DIRECTION('',(1.0,0.0,2.220446E-016));
#198=DIRECTION('',(0.0,0.0,-1.0));
#199=AXIS2_PLACEMENT_3D('',#196,#197,#198);
#200=TOROIDAL_SURFACE('',#199,1.5,0.4);
#201=CARTESIAN_POINT('',(-6.550442959152503,-3.465750E-016,-1.332268E-015));
#202=VERTEX_POINT('',#201);
#203=CARTESIAN_POINT('',(-6.550442959152503,1.163414E-016,0.399999999999999));
#204=DIRECTION('',(0.0,1.0,0.0));
#205=DIRECTION('',(0.0,0.0,-1.0));
#206=AXIS2_PLACEMENT_3D('',#203,#204,#205);
#207=CIRCLE('',#206,0.4);
#208=EDGE_CURVE('',#202,#171,#207,.T.);
#209=ORIENTED_EDGE('',*,*,#208,.F.);
#210=CARTESIAN_POINT('',(-6.550442959152504,-1.9,1.899999999999998));
#211=VERTEX_POINT('',#210);
#212=CARTESIAN_POINT('',(-6.550442959152503,1.163414E-016,1.899999999999999));
#213=DIRECTION('',(-1.0,0.0,0.0));
#214=DIRECTION('',(0.0,0.0,1.0));
#215=AXIS2_PLACEMENT_3D('',#212,#213,#214);
#216=CIRCLE('',#215,1.9);
#217=EDGE_CURVE('',#202,#211,#216,.T.);
#218=ORIENTED_EDGE('',*,*,#217,.T.);
#219=CARTESIAN_POINT('',(-6.550442959152503,-1.163414E-016,3.799999999999999));
#220=VERTEX_POINT('',#219);
#221=CARTESIAN_POINT('',(-6.550442959152503,1.163414E-016,1.899999999999999));
#222=DIRECTION('',(-1.0,0.0,0.0));
#223=DIRECTION('',(0.0,0.0,1.0));
#224=AXIS2_PLACEMENT_3D('',#221,#222,#223);
#225=CIRCLE('',#224,1.9);
#226=EDGE_CURVE('',#211,#220,#225,.T.);
#227=ORIENTED_EDGE('',*,*,#226,.T.);
#228=CARTESIAN_POINT('',(-6.550442959152503,-6.735557E-017,3.399999999999999));
#229=DIRECTION('',(0.0,-1.0,0.0));
#230=DIRECTION('',(0.0,0.0,1.0));
#231=AXIS2_PLACEMENT_3D('',#228,#229,#230);
#232=CIRCLE('',#231,0.4);
#233=EDGE_CURVE('',#220,#179,#232,.T.);
#234=ORIENTED_EDGE('',*,*,#233,.T.);
#235=CARTESIAN_POINT('',(-6.909713762401617,8.583205E-017,1.899999999999999));
#236=DIRECTION('',(1.0,0.0,0.0));
#237=DIRECTION('',(0.0,0.0,1.0));
#238=AXIS2_PLACEMENT_3D('',#235,#236,#237);
#239=CIRCLE('',#238,1.67585360369562);
#240=EDGE_CURVE('',#179,#171,#239,.T.);
#241=ORIENTED_EDGE('',*,*,#240,.T.);
#242=EDGE_LOOP('',(#209,#218,#227,#234,#241));
#243=FACE_OUTER_BOUND('',#242,.T.);
#244=ADVANCED_FACE('',(#243),#200,.T.);
#245=CARTESIAN_POINT('',(-8.199999999999999,1.163414E-016,1.899999999999998));
#246=DIRECTION('',(1.0,0.0,2.220446E-016));
#247=DIRECTION('',(0.0,1.0,0.0));
#248=AXIS2_PLACEMENT_3D('',#245,#246,#247);
#249=CYLINDRICAL_SURFACE('',#248,1.9);
#250=CARTESIAN_POINT('',(-5.15,1.9,1.900000000000001));
#251=VERTEX_POINT('',#250);
#252=CARTESIAN_POINT('',(-6.550442959152504,1.9,1.899999999999999));
#253=VERTEX_POINT('',#252);
#254=CARTESIAN_POINT('',(-5.15,1.9,1.899999999999999));
#255=DIRECTION('',(-1.0,0.0,0.0));
#256=VECTOR('',#255,1.400442959152503);
#257=LINE('',#254,#256);
#258=EDGE_CURVE('',#251,#253,#257,.T.);
#259=ORIENTED_EDGE('',*,*,#258,.F.);
#260=CARTESIAN_POINT('',(-5.15,-1.163414E-016,-1.110223E-015));
#261=VERTEX_POINT('',#260);
#262=CARTESIAN_POINT('',(-5.15,1.163414E-016,1.899999999999999));
#263=DIRECTION('',(1.0,0.0,0.0));
#264=DIRECTION('',(0.0,-1.0,0.0));
#265=AXIS2_PLACEMENT_3D('',#262,#263,#264);
#266=CIRCLE('',#265,1.9);
#267=EDGE_CURVE('',#261,#251,#266,.T.);
#268=ORIENTED_EDGE('',*,*,#267,.F.);
#269=CARTESIAN_POINT('',(-5.15,-1.9,1.899999999999999));
#270=VERTEX_POINT('',#269);
#271=CARTESIAN_POINT('',(-5.15,1.163414E-016,1.899999999999999));
#272=DIRECTION('',(1.0,0.0,0.0));
#273=DIRECTION('',(0.0,-1.0,0.0));
#274=AXIS2_PLACEMENT_3D('',#271,#272,#273);
#275=CIRCLE('',#274,1.9);
#276=EDGE_CURVE('',#270,#261,#275,.T.);
#277=ORIENTED_EDGE('',*,*,#276,.F.);
#278=CARTESIAN_POINT('',(-5.15,-1.9,1.899999999999999));
#279=DIRECTION('',(-1.0,0.0,0.0));
#280=VECTOR('',#279,1.400442959152503);
#281=LINE('',#278,#280);
#282=EDGE_CURVE('',#270,#211,#281,.T.);
#283=ORIENTED_EDGE('',*,*,#282,.T.);
#284=ORIENTED_EDGE('',*,*,#217,.F.);
#285=CARTESIAN_POINT('',(-6.550442959152503,1.163414E-016,1.899999999999999));
#286=DIRECTION('',(-1.0,0.0,0.0));
#287=DIRECTION('',(0.0,0.0,1.0));
#288=AXIS2_PLACEMENT_3D('',#285,#286,#287);
#289=CIRCLE('',#288,1.9);
#290=EDGE_CURVE('',#253,#202,#289,.T.);
#291=ORIENTED_EDGE('',*,*,#290,.F.);
#292=EDGE_LOOP('',(#259,#268,#277,#283,#284,#291));
#293=FACE_OUTER_BOUND('',#292,.T.);
#294=ADVANCED_FACE('',(#293),#249,.T.);
#295=CARTESIAN_POINT('',(-5.15,1.163414E-016,1.899999999999999));
#296=DIRECTION('',(-1.0,0.0,-2.220446E-016));
#297=DIRECTION('',(0.0,0.0,1.0));
#298=AXIS2_PLACEMENT_3D('',#295,#296,#297);
#299=TOROIDAL_SURFACE('',#298,1.75,0.15);
#300=CARTESIAN_POINT('',(-5.15,1.163414E-016,3.799999999999999));
#301=VERTEX_POINT('',#300);
#302=CARTESIAN_POINT('',(-5.0,1.163414E-016,3.649999999999999));
#303=VERTEX_POINT('',#302);
#304=CARTESIAN_POINT('',(-5.15,1.163414E-016,3.649999999999999));
#305=DIRECTION('',(0.0,1.0,0.0));
#306=DIRECTION('',(0.0,0.0,1.0));
#307=AXIS2_PLACEMENT_3D('',#304,#305,#306);
#308=CIRCLE('',#307,0.15);
#309=EDGE_CURVE('',#301,#303,#308,.T.);
#310=ORIENTED_EDGE('',*,*,#309,.F.);
#311=CARTESIAN_POINT('',(-5.15,1.163414E-016,1.899999999999999));
#312=DIRECTION('',(1.0,0.0,0.0));
#313=DIRECTION('',(0.0,-1.0,0.0));
#314=AXIS2_PLACEMENT_3D('',#311,#312,#313);
#315=CIRCLE('',#314,1.9);
#316=EDGE_CURVE('',#301,#270,#315,.T.);
#317=ORIENTED_EDGE('',*,*,#316,.T.);
#318=ORIENTED_EDGE('',*,*,#276,.T.);
#319=CARTESIAN_POINT('',(-5.0,-9.797174E-017,0.149999999999999));
#320=VERTEX_POINT('',#319);
#321=CARTESIAN_POINT('',(-5.15,-9.797174E-017,0.149999999999999));
#322=DIRECTION('',(0.0,-1.0,0.0));
#323=DIRECTION('',(0.0,0.0,-1.0));
#324=AXIS2_PLACEMENT_3D('',#321,#322,#323);
#325=CIRCLE('',#324,0.15);
#326=EDGE_CURVE('',#261,#320,#325,.T.);
#327=ORIENTED_EDGE('',*,*,#326,.T.);
#328=CARTESIAN_POINT('',(-5.0,1.163414E-016,1.899999999999999));
#329=DIRECTION('',(-1.0,0.0,0.0));
#330=DIRECTION('',(0.0,-1.0,0.0));
#331=AXIS2_PLACEMENT_3D('',#328,#329,#330);
#332=CIRCLE('',#331,1.75);
#333=EDGE_CURVE('',#320,#303,#332,.T.);
#334=ORIENTED_EDGE('',*,*,#333,.T.);
#335=EDGE_LOOP('',(#310,#317,#318,#327,#334));
#336=FACE_OUTER_BOUND('',#335,.T.);
#337=ADVANCED_FACE('',(#336),#299,.T.);
#338=CARTESIAN_POINT('',(-5.15,1.163414E-016,1.899999999999999));
#339=DIRECTION('',(-1.0,0.0,-2.220446E-016));
#340=DIRECTION('',(0.0,0.0,1.0));
#341=AXIS2_PLACEMENT_3D('',#338,#339,#340);
#342=TOROIDAL_SURFACE('',#341,1.75,0.15);
#343=ORIENTED_EDGE('',*,*,#309,.T.);
#344=CARTESIAN_POINT('',(-5.0,1.75,1.9));
#345=VERTEX_POINT('',#344);
#346=CARTESIAN_POINT('',(-5.0,1.163414E-016,1.899999999999999));
#347=DIRECTION('',(-1.0,0.0,0.0));
#348=DIRECTION('',(0.0,-1.0,0.0));
#349=AXIS2_PLACEMENT_3D('',#346,#347,#348);
#350=CIRCLE('',#349,1.75);
#351=EDGE_CURVE('',#303,#345,#350,.T.);
#352=ORIENTED_EDGE('',*,*,#351,.T.);
#353=CARTESIAN_POINT('',(-5.0,1.163414E-016,1.899999999999999));
#354=DIRECTION('',(-1.0,0.0,0.0));
#355=DIRECTION('',(0.0,-1.0,0.0));
#356=AXIS2_PLACEMENT_3D('',#353,#354,#355);
#357=CIRCLE('',#356,1.75);
#358=EDGE_CURVE('',#345,#320,#357,.T.);
#359=ORIENTED_EDGE('',*,*,#358,.T.);
#360=ORIENTED_EDGE('',*,*,#326,.F.);
#361=ORIENTED_EDGE('',*,*,#267,.T.);
#362=CARTESIAN_POINT('',(-5.15,1.163414E-016,1.899999999999999));
#363=DIRECTION('',(1.0,0.0,0.0));
#364=DIRECTION('',(0.0,-1.0,0.0));
#365=AXIS2_PLACEMENT_3D('',#362,#363,#364);
#366=CIRCLE('',#365,1.9);
#367=EDGE_CURVE('',#251,#301,#366,.T.);
#368=ORIENTED_EDGE('',*,*,#367,.T.);
#369=EDGE_LOOP('',(#343,#352,#359,#360,#361,#368));
#370=FACE_OUTER_BOUND('',#369,.T.);
#371=ADVANCED_FACE('',(#370),#342,.T.);
#372=CARTESIAN_POINT('',(-5.0,0.0,1.9));
#373=DIRECTION('',(1.0,0.0,0.0));
#374=DIRECTION('',(0.0,0.0,-1.0));
#375=AXIS2_PLACEMENT_3D('',#372,#373,#374);
#376=PLANE('',#375);
#377=ORIENTED_EDGE('',*,*,#358,.F.);
#378=ORIENTED_EDGE('',*,*,#351,.F.);
#379=ORIENTED_EDGE('',*,*,#333,.F.);
#380=EDGE_LOOP('',(#377,#378,#379));
#381=FACE_OUTER_BOUND('',#380,.T.);
#382=ADVANCED_FACE('',(#381),#376,.T.);
#383=CARTESIAN_POINT('',(-8.199999999999999,1.163414E-016,1.899999999999998));
#384=DIRECTION('',(1.0,0.0,2.220446E-016));
#385=DIRECTION('',(0.0,1.0,0.0));
#386=AXIS2_PLACEMENT_3D('',#383,#384,#385);
#387=CYLINDRICAL_SURFACE('',#386,1.9);
#388=ORIENTED_EDGE('',*,*,#258,.T.);
#389=CARTESIAN_POINT('',(-6.550442959152503,1.163414E-016,1.899999999999999));
#390=DIRECTION('',(-1.0,0.0,0.0));
#391=DIRECTION('',(0.0,0.0,1.0));
#392=AXIS2_PLACEMENT_3D('',#389,#390,#391);
#393=CIRCLE('',#392,1.9);
#394=EDGE_CURVE('',#220,#253,#393,.T.);
#395=ORIENTED_EDGE('',*,*,#394,.F.);
#396=ORIENTED_EDGE('',*,*,#226,.F.);
#397=ORIENTED_EDGE('',*,*,#282,.F.);
#398=ORIENTED_EDGE('',*,*,#316,.F.);
#399=ORIENTED_EDGE('',*,*,#367,.F.);
#400=EDGE_LOOP('',(#388,#395,#396,#397,#398,#399));
#401=FACE_OUTER_BOUND('',#400,.T.);
#402=ADVANCED_FACE('',(#401),#387,.T.);
#403=CARTESIAN_POINT('',(-6.550442959152503,1.163414E-016,1.899999999999999));
#404=DIRECTION('',(1.0,0.0,2.220446E-016));
#405=DIRECTION('',(0.0,0.0,-1.0));
#406=AXIS2_PLACEMENT_3D('',#403,#404,#405);
#407=TOROIDAL_SURFACE('',#406,1.5,0.4);
#408=ORIENTED_EDGE('',*,*,#208,.T.);
#409=ORIENTED_EDGE('',*,*,#191,.T.);
#410=ORIENTED_EDGE('',*,*,#233,.F.);
#411=ORIENTED_EDGE('',*,*,#394,.T.);
#412=ORIENTED_EDGE('',*,*,#290,.T.);
#413=EDGE_LOOP('',(#408,#409,#410,#411,#412));
#414=FACE_OUTER_BOUND('',#413,.T.);
#415=ADVANCED_FACE('',(#414),#407,.T.);
#416=CARTESIAN_POINT('',(-7.265000000000001,5.694608E-017,1.899999999999998));
#417=DIRECTION('',(1.0,1.224647E-016,2.220446E-016));
#418=DIRECTION('',(0.0,0.0,-1.0));
#419=AXIS2_PLACEMENT_3D('',#416,#417,#418);
#420=CONICAL_SURFACE('',#419,0.95,63.919468177966692);
#421=ORIENTED_EDGE('',*,*,#176,.T.);
#422=ORIENTED_EDGE('',*,*,#240,.F.);
#423=ORIENTED_EDGE('',*,*,#184,.F.);
#424=EDGE_LOOP('',(#421,#422,#423));
#425=FACE_OUTER_BOUND('',#424,.T.);
#426=ADVANCED_FACE('',(#425),#420,.T.);
#427=CLOSED_SHELL('',(#195,#244,#294,#337,#371,#382,#402,#415,#426));
#428=MANIFOLD_SOLID_BREP('CC0',#427);
#429=STYLED_ITEM('NONE',(#159),#428);
#430=CARTESIAN_POINT('',(6.488053698940631,1.163414E-016,1.900000000000002));
#431=DIRECTION('',(-1.0,0.0,-2.220446E-016));
#432=DIRECTION('',(0.0,0.0,1.0));
#433=AXIS2_PLACEMENT_3D('',#430,#431,#432);
#434=TOROIDAL_SURFACE('',#433,1.4,0.5);
#435=CARTESIAN_POINT('',(6.488053698940631,1.163414E-016,3.800000000000002));
#436=VERTEX_POINT('',#435);
#437=CARTESIAN_POINT('',(6.937142203002023,2.954674E-016,3.519817004619522));
#438=VERTEX_POINT('',#437);
#439=CARTESIAN_POINT('',(6.488053698940631,1.163414E-016,3.300000000000002));
#440=DIRECTION('',(0.0,1.0,0.0));
#441=DIRECTION('',(0.0,0.0,1.0));
#442=AXIS2_PLACEMENT_3D('',#439,#440,#441);
#443=CIRCLE('',#442,0.5);
#444=EDGE_CURVE('',#436,#438,#443,.T.);
#445=ORIENTED_EDGE('',*,*,#444,.F.);
#446=CARTESIAN_POINT('',(6.488053698940631,-1.9,1.900000000000001));
#447=VERTEX_POINT('',#446);
#448=CARTESIAN_POINT('',(6.488053698940631,1.163414E-016,1.900000000000002));
#449=DIRECTION('',(1.0,0.0,0.0));
#450=DIRECTION('',(0.0,-1.0,0.0));
#451=AXIS2_PLACEMENT_3D('',#448,#449,#450);
#452=CIRCLE('',#451,1.9);
#453=EDGE_CURVE('',#436,#447,#452,.T.);
#454=ORIENTED_EDGE('',*,*,#453,.T.);
#455=CARTESIAN_POINT('',(6.488053698940631,-1.163414E-016,1.554312E-015));
#456=VERTEX_POINT('',#455);
#457=CARTESIAN_POINT('',(6.488053698940631,1.163414E-016,1.900000000000002));
#458=DIRECTION('',(1.0,0.0,0.0));
#459=DIRECTION('',(0.0,-1.0,0.0));
#460=AXIS2_PLACEMENT_3D('',#457,#458,#459);
#461=CIRCLE('',#460,1.9);
#462=EDGE_CURVE('',#447,#456,#461,.T.);
#463=ORIENTED_EDGE('',*,*,#462,.T.);
#464=CARTESIAN_POINT('',(6.937142203002021,9.709708E-017,0.280182995380471));
#465=VERTEX_POINT('',#464);
#466=CARTESIAN_POINT('',(6.488053698940631,-5.510911E-017,0.500000000000002));
#467=DIRECTION('',(0.0,-1.0,0.0));
#468=DIRECTION('',(0.0,0.0,-1.0));
#469=AXIS2_PLACEMENT_3D('',#466,#467,#468);
#470=CIRCLE('',#469,0.5);
#471=EDGE_CURVE('',#456,#465,#470,.T.);
#472=ORIENTED_EDGE('',*,*,#471,.T.);
#473=CARTESIAN_POINT('',(6.937142203002023,1.110223E-016,1.900000000000002));
#474=DIRECTION('',(-1.0,0.0,0.0));
#475=DIRECTION('',(0.0,-1.0,0.0));
#476=AXIS2_PLACEMENT_3D('',#473,#474,#475);
#477=CIRCLE('',#476,1.619817004619524);
#478=EDGE_CURVE('',#465,#438,#477,.T.);
#479=ORIENTED_EDGE('',*,*,#478,.T.);
#480=EDGE_LOOP('',(#445,#454,#463,#472,#479));
#481=FACE_OUTER_BOUND('',#480,.T.);
#482=ADVANCED_FACE('',(#481),#434,.T.);
#483=CARTESIAN_POINT('',(6.93714220300202,2.954674E-016,3.519817004619526));
#484=CARTESIAN_POINT('',(7.730000000000001,2.465190E-032,1.899999999999998));
#485=CARTESIAN_POINT('',(6.93714220300202,1.619817004619528,3.519817004619526));
#486=CARTESIAN_POINT('',(7.730000000000001,2.465190E-032,1.899999999999998));
#487=CARTESIAN_POINT('',(6.93714220300202,1.619817004619528,1.899999999999998));
#488=CARTESIAN_POINT('',(7.730000000000001,0.0,1.899999999999998));
#489=CARTESIAN_POINT('',(6.93714220300202,1.619817004619528,0.28018299538047));
#490=CARTESIAN_POINT('',(7.730000000000001,-2.465190E-032,1.899999999999998));
#491=CARTESIAN_POINT('',(6.93714220300202,-1.012733E-016,0.28018299538047));
#492=CARTESIAN_POINT('',(7.730000000000001,-2.465190E-032,1.899999999999998));
#493=CARTESIAN_POINT('',(6.93714220300202,-1.619817004619528,0.280182995380471));
#494=CARTESIAN_POINT('',(7.730000000000001,-2.465190E-032,1.899999999999998));
#495=CARTESIAN_POINT('',(6.93714220300202,-1.619817004619528,1.899999999999998));
#496=CARTESIAN_POINT('',(7.730000000000001,0.0,1.899999999999998));
#497=CARTESIAN_POINT('',(6.93714220300202,-1.619817004619528,3.519817004619526));
#498=CARTESIAN_POINT('',(7.730000000000001,2.465190E-032,1.899999999999998));
#499=CARTESIAN_POINT('',(6.93714220300202,2.954674E-016,3.519817004619526));
#500=CARTESIAN_POINT('',(7.730000000000001,2.465190E-032,1.899999999999998));
#508=(BOUNDED_SURFACE()B_SPLINE_SURFACE(1,2,((#483,#485,#487,#489,#491,#493,#495,#497,#499),(#484,#486,#488,#490,#492,#494,#496,#498,#500)),.UNSPECIFIED.,.F.,.T.,.U.)B_SPLINE_SURFACE_WITH_KNOTS((2,2),(3,2,2,2,3),(-0.785001758898357,1.113366286329269),(0.0,1.492256510455152,2.984513020910303,4.476769531365455,5.969026041820606),.UNSPECIFIED.)GEOMETRIC_REPRESENTATION_ITEM()RATIONAL_B_SPLINE_SURFACE(((1.0,0.707106781186548,1.0,0.707106781186548,1.0,0.707106781186548,1.0,0.707106781186548,1.0),(1.0,0.707106781186548,1.0,0.707106781186548,1.0,0.707106781186548,1.0,0.707106781186548,1.0)))REPRESENTATION_ITEM('')SURFACE());
#509=CARTESIAN_POINT('',(7.730000000000001,0.0,1.899999999999998));
#510=VERTEX_POINT('',#509);
#511=CARTESIAN_POINT('',(7.730000000000001,1.232595E-032,1.899999999999998));
#512=DIRECTION('',(-0.439634009239049,5.383964E-017,-0.898177008122786));
#513=VECTOR('',#512,1.803449642966242);
#514=LINE('',#511,#513);
#515=EDGE_CURVE('',#510,#465,#514,.T.);
#516=ORIENTED_EDGE('',*,*,#515,.F.);
#517=CARTESIAN_POINT('',(7.730000000000001,7.395571E-032,1.899999999999998));
#518=DIRECTION('',(-0.439634009239049,1.638346E-016,0.898177008122786));
#519=VECTOR('',#518,1.803449642966239);
#520=LINE('',#517,#519);
#521=EDGE_CURVE('',#510,#438,#520,.T.);
#522=ORIENTED_EDGE('',*,*,#521,.T.);
#523=ORIENTED_EDGE('',*,*,#478,.F.);
#524=EDGE_LOOP('',(#516,#522,#523));
#525=FACE_OUTER_BOUND('',#524,.T.);
#526=ADVANCED_FACE('',(#525),#508,.T.);
#527=CARTESIAN_POINT('',(-8.199999999999999,1.163414E-016,1.899999999999998));
#528=DIRECTION('',(1.0,0.0,2.220446E-016));
#529=DIRECTION('',(0.0,1.0,0.0));
#530=AXIS2_PLACEMENT_3D('',#527,#528,#529);
#531=CYLINDRICAL_SURFACE('',#530,1.9);
#532=CARTESIAN_POINT('',(6.488053698940631,1.9,1.900000000000002));
#533=VERTEX_POINT('',#532);
#534=CARTESIAN_POINT('',(5.15,1.9,1.900000000000002));
#535=VERTEX_POINT('',#534);
#536=CARTESIAN_POINT('',(6.488053698940631,1.9,1.900000000000002));
#537=DIRECTION('',(-1.0,0.0,0.0));
#538=VECTOR('',#537,1.33805369894063);
#539=LINE('',#536,#538);
#540=EDGE_CURVE('',#533,#535,#539,.T.);
#541=ORIENTED_EDGE('',*,*,#540,.F.);
#542=CARTESIAN_POINT('',(6.488053698940631,1.163414E-016,1.900000000000002));
#543=DIRECTION('',(1.0,0.0,0.0));
#544=DIRECTION('',(0.0,-1.0,0.0));
#545=AXIS2_PLACEMENT_3D('',#542,#543,#544);
#546=CIRCLE('',#545,1.9);
#547=EDGE_CURVE('',#456,#533,#546,.T.);
#548=ORIENTED_EDGE('',*,*,#547,.F.);
#549=ORIENTED_EDGE('',*,*,#462,.F.);
#550=CARTESIAN_POINT('',(5.15,-1.9,1.900000000000001));
#551=VERTEX_POINT('',#550);
#552=CARTESIAN_POINT('',(6.488053698940631,-1.9,1.900000000000001));
#553=DIRECTION('',(-1.0,0.0,0.0));
#554=VECTOR('',#553,1.33805369894063);
#555=LINE('',#552,#554);
#556=EDGE_CURVE('',#447,#551,#555,.T.);
#557=ORIENTED_EDGE('',*,*,#556,.T.);
#558=CARTESIAN_POINT('',(5.15,1.163414E-016,1.110223E-015));
#559=VERTEX_POINT('',#558);
#560=CARTESIAN_POINT('',(5.15,1.163414E-016,1.900000000000001));
#561=DIRECTION('',(-1.0,0.0,0.0));
#562=DIRECTION('',(0.0,-1.0,0.0));
#563=AXIS2_PLACEMENT_3D('',#560,#561,#562);
#564=CIRCLE('',#563,1.9);
#565=EDGE_CURVE('',#559,#551,#564,.T.);
#566=ORIENTED_EDGE('',*,*,#565,.F.);
#567=CARTESIAN_POINT('',(5.15,1.163414E-016,1.900000000000001));
#568=DIRECTION('',(-1.0,0.0,0.0));
#569=DIRECTION('',(0.0,-1.0,0.0));
#570=AXIS2_PLACEMENT_3D('',#567,#568,#569);
#571=CIRCLE('',#570,1.9);
#572=EDGE_CURVE('',#535,#559,#571,.T.);
#573=ORIENTED_EDGE('',*,*,#572,.F.);
#574=EDGE_LOOP('',(#541,#548,#549,#557,#566,#573));
#575=FACE_OUTER_BOUND('',#574,.T.);
#576=ADVANCED_FACE('',(#575),#531,.T.);
#577=CARTESIAN_POINT('',(5.15,1.163414E-016,1.900000000000001));
#578=DIRECTION('',(1.0,0.0,2.220446E-016));
#579=DIRECTION('',(0.0,0.0,-1.0));
#580=AXIS2_PLACEMENT_3D('',#577,#578,#579);
#581=TOROIDAL_SURFACE('',#580,1.75,0.15);
#582=CARTESIAN_POINT('',(5.0,1.163414E-016,0.150000000000001));
#583=VERTEX_POINT('',#582);
#584=CARTESIAN_POINT('',(5.15,1.163414E-016,0.150000000000001));
#585=DIRECTION('',(0.0,1.0,0.0));
#586=DIRECTION('',(0.0,0.0,-1.0));
#587=AXIS2_PLACEMENT_3D('',#584,#585,#586);
#588=CIRCLE('',#587,0.15);
#589=EDGE_CURVE('',#559,#583,#588,.T.);
#590=ORIENTED_EDGE('',*,*,#589,.F.);
#591=ORIENTED_EDGE('',*,*,#565,.T.);
#592=CARTESIAN_POINT('',(5.15,-1.163414E-016,3.800000000000001));
#593=VERTEX_POINT('',#592);
#594=CARTESIAN_POINT('',(5.15,1.163414E-016,1.900000000000001));
#595=DIRECTION('',(-1.0,0.0,0.0));
#596=DIRECTION('',(0.0,-1.0,0.0));
#597=AXIS2_PLACEMENT_3D('',#594,#595,#596);
#598=CIRCLE('',#597,1.9);
#599=EDGE_CURVE('',#551,#593,#598,.T.);
#600=ORIENTED_EDGE('',*,*,#599,.T.);
#601=CARTESIAN_POINT('',(5.0,-9.797174E-017,3.650000000000001));
#602=VERTEX_POINT('',#601);
#603=CARTESIAN_POINT('',(5.15,-9.797174E-017,3.650000000000001));
#604=DIRECTION('',(0.0,-1.0,0.0));
#605=DIRECTION('',(0.0,0.0,1.0));
#606=AXIS2_PLACEMENT_3D('',#603,#604,#605);
#607=CIRCLE('',#606,0.15);
#608=EDGE_CURVE('',#593,#602,#607,.T.);
#609=ORIENTED_EDGE('',*,*,#608,.T.);
#610=CARTESIAN_POINT('',(5.0,1.163414E-016,1.900000000000001));
#611=DIRECTION('',(1.0,0.0,0.0));
#612=DIRECTION('',(0.0,-1.0,0.0));
#613=AXIS2_PLACEMENT_3D('',#610,#611,#612);
#614=CIRCLE('',#613,1.75);
#615=EDGE_CURVE('',#602,#583,#614,.T.);
#616=ORIENTED_EDGE('',*,*,#615,.T.);
#617=EDGE_LOOP('',(#590,#591,#600,#609,#616));
#618=FACE_OUTER_BOUND('',#617,.T.);
#619=ADVANCED_FACE('',(#618),#581,.T.);
#620=CARTESIAN_POINT('',(5.15,1.163414E-016,1.900000000000001));
#621=DIRECTION('',(1.0,0.0,2.220446E-016));
#622=DIRECTION('',(0.0,0.0,-1.0));
#623=AXIS2_PLACEMENT_3D('',#620,#621,#622);
#624=TOROIDAL_SURFACE('',#623,1.75,0.15);
#625=ORIENTED_EDGE('',*,*,#589,.T.);
#626=CARTESIAN_POINT('',(5.0,1.75,1.900000000000003));
#627=VERTEX_POINT('',#626);
#628=CARTESIAN_POINT('',(5.0,1.163414E-016,1.900000000000001));
#629=DIRECTION('',(1.0,0.0,0.0));
#630=DIRECTION('',(0.0,-1.0,0.0));
#631=AXIS2_PLACEMENT_3D('',#628,#629,#630);
#632=CIRCLE('',#631,1.75);
#633=EDGE_CURVE('',#583,#627,#632,.T.);
#634=ORIENTED_EDGE('',*,*,#633,.T.);
#635=CARTESIAN_POINT('',(5.0,1.163414E-016,1.900000000000001));
#636=DIRECTION('',(1.0,0.0,0.0));
#637=DIRECTION('',(0.0,-1.0,0.0));
#638=AXIS2_PLACEMENT_3D('',#635,#636,#637);
#639=CIRCLE('',#638,1.75);
#640=EDGE_CURVE('',#627,#602,#639,.T.);
#641=ORIENTED_EDGE('',*,*,#640,.T.);
#642=ORIENTED_EDGE('',*,*,#608,.F.);
#643=CARTESIAN_POINT('',(5.15,1.163414E-016,1.900000000000001));
#644=DIRECTION('',(-1.0,0.0,0.0));
#645=DIRECTION('',(0.0,-1.0,0.0));
#646=AXIS2_PLACEMENT_3D('',#643,#644,#645);
#647=CIRCLE('',#646,1.9);
#648=EDGE_CURVE('',#593,#535,#647,.T.);
#649=ORIENTED_EDGE('',*,*,#648,.T.);
#650=ORIENTED_EDGE('',*,*,#572,.T.);
#651=EDGE_LOOP('',(#625,#634,#641,#642,#649,#650));
#652=FACE_OUTER_BOUND('',#651,.T.);
#653=ADVANCED_FACE('',(#652),#624,.T.);
#654=CARTESIAN_POINT('',(-8.199999999999999,1.163414E-016,1.899999999999998));
#655=DIRECTION('',(1.0,0.0,2.220446E-016));
#656=DIRECTION('',(0.0,1.0,0.0));
#657=AXIS2_PLACEMENT_3D('',#654,#655,#656);
#658=CYLINDRICAL_SURFACE('',#657,1.9);
#659=ORIENTED_EDGE('',*,*,#540,.T.);
#660=ORIENTED_EDGE('',*,*,#648,.F.);
#661=ORIENTED_EDGE('',*,*,#599,.F.);
#662=ORIENTED_EDGE('',*,*,#556,.F.);
#663=ORIENTED_EDGE('',*,*,#453,.F.);
#664=CARTESIAN_POINT('',(6.488053698940631,1.163414E-016,1.900000000000002));
#665=DIRECTION('',(1.0,0.0,0.0));
#666=DIRECTION('',(0.0,-1.0,0.0));
#667=AXIS2_PLACEMENT_3D('',#664,#665,#666);
#668=CIRCLE('',#667,1.9);
#669=EDGE_CURVE('',#533,#436,#668,.T.);
#670=ORIENTED_EDGE('',*,*,#669,.F.);
#671=EDGE_LOOP('',(#659,#660,#661,#662,#663,#670));
#672=FACE_OUTER_BOUND('',#671,.T.);
#673=ADVANCED_FACE('',(#672),#658,.T.);
#674=CARTESIAN_POINT('',(5.0,0.0,1.900000000000002));
#675=DIRECTION('',(1.0,0.0,0.0));
#676=DIRECTION('',(0.0,0.0,-1.0));
#677=AXIS2_PLACEMENT_3D('',#674,#675,#676);
#678=PLANE('',#677);
#679=ORIENTED_EDGE('',*,*,#640,.F.);
#680=ORIENTED_EDGE('',*,*,#633,.F.);
#681=ORIENTED_EDGE('',*,*,#615,.F.);
#682=EDGE_LOOP('',(#679,#680,#681));
#683=FACE_OUTER_BOUND('',#682,.T.);
#684=ADVANCED_FACE('',(#683),#678,.F.);
#685=CARTESIAN_POINT('',(6.93714220300202,2.954674E-016,3.519817004619526));
#686=CARTESIAN_POINT('',(7.730000000000001,2.465190E-032,1.899999999999998));
#687=CARTESIAN_POINT('',(6.93714220300202,1.619817004619528,3.519817004619526));
#688=CARTESIAN_POINT('',(7.730000000000001,2.465190E-032,1.899999999999998));
#689=CARTESIAN_POINT('',(6.93714220300202,1.619817004619528,1.899999999999998));
#690=CARTESIAN_POINT('',(7.730000000000001,0.0,1.899999999999998));
#691=CARTESIAN_POINT('',(6.93714220300202,1.619817004619528,0.28018299538047));
#692=CARTESIAN_POINT('',(7.730000000000001,-2.465190E-032,1.899999999999998));
#693=CARTESIAN_POINT('',(6.93714220300202,-1.012733E-016,0.28018299538047));
#694=CARTESIAN_POINT('',(7.730000000000001,-2.465190E-032,1.899999999999998));
#695=CARTESIAN_POINT('',(6.93714220300202,-1.619817004619528,0.280182995380471));
#696=CARTESIAN_POINT('',(7.730000000000001,-2.465190E-032,1.899999999999998));
#697=CARTESIAN_POINT('',(6.93714220300202,-1.619817004619528,1.899999999999998));
#698=CARTESIAN_POINT('',(7.730000000000001,0.0,1.899999999999998));
#699=CARTESIAN_POINT('',(6.93714220300202,-1.619817004619528,3.519817004619526));
#700=CARTESIAN_POINT('',(7.730000000000001,2.465190E-032,1.899999999999998));
#701=CARTESIAN_POINT('',(6.93714220300202,2.954674E-016,3.519817004619526));
#702=CARTESIAN_POINT('',(7.730000000000001,2.465190E-032,1.899999999999998));
#710=(BOUNDED_SURFACE()B_SPLINE_SURFACE(1,2,((#685,#687,#689,#691,#693,#695,#697,#699,#701),(#686,#688,#690,#692,#694,#696,#698,#700,#702)),.UNSPECIFIED.,.F.,.T.,.U.)B_SPLINE_SURFACE_WITH_KNOTS((2,2),(3,2,2,2,3),(-0.785001758898357,1.113366286329269),(0.0,1.492256510455152,2.984513020910303,4.476769531365455,5.969026041820606),.UNSPECIFIED.)GEOMETRIC_REPRESENTATION_ITEM()RATIONAL_B_SPLINE_SURFACE(((1.0,0.707106781186548,1.0,0.707106781186548,1.0,0.707106781186548,1.0,0.707106781186548,1.0),(1.0,0.707106781186548,1.0,0.707106781186548,1.0,0.707106781186548,1.0,0.707106781186548,1.0)))REPRESENTATION_ITEM('')SURFACE());
#711=ORIENTED_EDGE('',*,*,#515,.T.);
#712=CARTESIAN_POINT('',(6.937142203002023,1.619817004619524,1.900000000000002));
#713=VERTEX_POINT('',#712);
#714=CARTESIAN_POINT('',(6.937142203002023,1.110223E-016,1.900000000000002));
#715=DIRECTION('',(-1.0,0.0,0.0));
#716=DIRECTION('',(0.0,-1.0,0.0));
#717=AXIS2_PLACEMENT_3D('',#714,#715,#716);
#718=CIRCLE('',#717,1.619817004619524);
#719=EDGE_CURVE('',#713,#465,#718,.T.);
#720=ORIENTED_EDGE('',*,*,#719,.F.);
#721=CARTESIAN_POINT('',(6.937142203002023,1.110223E-016,1.900000000000002));
#722=DIRECTION('',(-1.0,0.0,0.0));
#723=DIRECTION('',(0.0,-1.0,0.0));
#724=AXIS2_PLACEMENT_3D('',#721,#722,#723);
#725=CIRCLE('',#724,1.619817004619524);
#726=EDGE_CURVE('',#438,#713,#725,.T.);
#727=ORIENTED_EDGE('',*,*,#726,.F.);
#728=ORIENTED_EDGE('',*,*,#521,.F.);
#729=EDGE_LOOP('',(#711,#720,#727,#728));
#730=FACE_OUTER_BOUND('',#729,.T.);
#731=ADVANCED_FACE('',(#730),#710,.T.);
#732=CARTESIAN_POINT('',(6.488053698940631,1.163414E-016,1.900000000000002));
#733=DIRECTION('',(-1.0,0.0,-2.220446E-016));
#734=DIRECTION('',(0.0,0.0,1.0));
#735=AXIS2_PLACEMENT_3D('',#732,#733,#734);
#736=TOROIDAL_SURFACE('',#735,1.4,0.5);
#737=ORIENTED_EDGE('',*,*,#444,.T.);
#738=ORIENTED_EDGE('',*,*,#726,.T.);
#739=ORIENTED_EDGE('',*,*,#719,.T.);
#740=ORIENTED_EDGE('',*,*,#471,.F.);
#741=ORIENTED_EDGE('',*,*,#547,.T.);
#742=ORIENTED_EDGE('',*,*,#669,.T.);
#743=EDGE_LOOP('',(#737,#738,#739,#740,#741,#742));
#744=FACE_OUTER_BOUND('',#743,.T.);
#745=ADVANCED_FACE('',(#744),#736,.T.);
#746=CLOSED_SHELL('',(#482,#526,#576,#619,#653,#673,#684,#731,#745));
#747=MANIFOLD_SOLID_BREP('CC0',#746);
#748=STYLED_ITEM('NONE',(#159),#747);
#749=CARTESIAN_POINT('',(-7.499999999999998,0.0,1.899999999999999));
#750=DIRECTION('',(-1.0,0.0,0.0));
#751=VECTOR('',#750,1.860000000000001);
#752=LINE('',#749,#751);
#753=CARTESIAN_POINT('',(-9.359999999999999,2.449294E-018,1.899999999999998));
#754=TRIMMED_CURVE('CBA',#752,(PARAMETER_VALUE(0.0),#749),(PARAMETER_VALUE(1.0),#753),.T.,.PARAMETER.);
#755=DRAUGHTING_PRE_DEFINED_COLOUR('white');
#756=CURVE_STYLE('NONE',#757,POSITIVE_LENGTH_MEASURE(0.2),#755);
#757=DRAUGHTING_PRE_DEFINED_CURVE_FONT('continuous');
#758=PRESENTATION_STYLE_ASSIGNMENT((#756));
#759=STYLED_ITEM('NONE',(#758),#754);
#760=CARTESIAN_POINT('',(9.359999999999999,-5.510911E-017,0.749999999999997));
#761=CARTESIAN_POINT('',(9.359999999999999,-0.45,0.749999999999997));
#762=CARTESIAN_POINT('',(9.359999999999999,-0.45,0.299999999999997));
#763=CARTESIAN_POINT('',(9.359999999999999,-0.45,-0.150000000000003));
#764=CARTESIAN_POINT('',(9.359999999999999,0.0,-0.150000000000003));
#765=CARTESIAN_POINT('',(9.710000000000001,-5.510911E-017,0.749999999999997));
#766=CARTESIAN_POINT('',(9.710000000000001,-0.45,0.749999999999997));
#767=CARTESIAN_POINT('',(10.16,-0.45,0.299999999999997));
#768=CARTESIAN_POINT('',(10.609999999999999,-0.45,-0.150000000000003));
#769=CARTESIAN_POINT('',(10.609999999999999,0.0,-0.150000000000003));
#770=CARTESIAN_POINT('',(9.710000000000001,-5.510911E-017,1.099999999999997));
#771=CARTESIAN_POINT('',(9.710000000000001,-0.45,1.099999999999997));
#772=CARTESIAN_POINT('',(10.16,-0.45,1.099999999999997));
#773=CARTESIAN_POINT('',(10.609999999999999,-0.45,1.099999999999997));
#774=CARTESIAN_POINT('',(10.609999999999999,0.0,1.099999999999997));
#775=CARTESIAN_POINT('',(9.710000000000001,-5.510911E-017,1.449999999999998));
#776=CARTESIAN_POINT('',(9.710000000000001,-0.45,1.449999999999998));
#777=CARTESIAN_POINT('',(10.16,-0.45,1.899999999999998));
#778=CARTESIAN_POINT('',(10.609999999999999,-0.45,2.349999999999998));
#779=CARTESIAN_POINT('',(10.609999999999999,0.0,2.349999999999998));
#780=CARTESIAN_POINT('',(9.359999999999999,-5.510911E-017,1.449999999999998));
#781=CARTESIAN_POINT('',(9.359999999999999,-0.45,1.449999999999998));
#782=CARTESIAN_POINT('',(9.359999999999999,-0.45,1.899999999999998));
#783=CARTESIAN_POINT('',(9.359999999999999,-0.45,2.349999999999998));
#784=CARTESIAN_POINT('',(9.359999999999999,0.0,2.349999999999998));
#785=CARTESIAN_POINT('',(9.009999999999998,-5.510911E-017,1.449999999999998));
#786=CARTESIAN_POINT('',(9.009999999999998,-0.45,1.449999999999998));
#787=CARTESIAN_POINT('',(8.559999999999999,-0.45,1.899999999999998));
#788=CARTESIAN_POINT('',(8.109999999999999,-0.45,2.349999999999998));
#789=CARTESIAN_POINT('',(8.109999999999999,0.0,2.349999999999998));
#790=CARTESIAN_POINT('',(9.009999999999998,-5.510911E-017,1.099999999999997));
#791=CARTESIAN_POINT('',(9.009999999999998,-0.45,1.099999999999997));
#792=CARTESIAN_POINT('',(8.559999999999999,-0.45,1.099999999999997));
#793=CARTESIAN_POINT('',(8.109999999999999,-0.45,1.099999999999997));
#794=CARTESIAN_POINT('',(8.109999999999999,0.0,1.099999999999997));
#795=CARTESIAN_POINT('',(9.009999999999998,-5.510911E-017,0.749999999999997));
#796=CARTESIAN_POINT('',(9.009999999999998,-0.45,0.749999999999997));
#797=CARTESIAN_POINT('',(8.559999999999999,-0.45,0.299999999999997));
#798=CARTESIAN_POINT('',(8.109999999999999,-0.45,-0.150000000000003));
#799=CARTESIAN_POINT('',(8.109999999999999,0.0,-0.150000000000003));
#800=CARTESIAN_POINT('',(9.359999999999999,-5.510911E-017,0.749999999999997));
#801=CARTESIAN_POINT('',(9.359999999999999,-0.45,0.749999999999997));
#802=CARTESIAN_POINT('',(9.359999999999999,-0.45,0.299999999999997));
#803=CARTESIAN_POINT('',(9.359999999999999,-0.45,-0.150000000000003));
#804=CARTESIAN_POINT('',(9.359999999999999,0.0,-0.150000000000003));
#812=(BOUNDED_SURFACE()B_SPLINE_SURFACE(2,2,((#760,#765,#770,#775,#780,#785,#790,#795,#800),(#761,#766,#771,#776,#781,#786,#791,#796,#801),(#762,#767,#772,#777,#782,#787,#792,#797,#802),(#763,#768,#773,#778,#783,#788,#793,#798,#803),(#764,#769,#774,#779,#784,#789,#794,#799,#804)),.UNSPECIFIED.,.F.,.T.,.U.)B_SPLINE_SURFACE_WITH_KNOTS((3,2,3),(3,2,2,2,3),(-3.141592653589793,-1.570796326794897,0.0),(0.0,1.570796326794897,3.141592653589793,4.71238898038469,6.283185307179586),.UNSPECIFIED.)GEOMETRIC_REPRESENTATION_ITEM()RATIONAL_B_SPLINE_SURFACE(((1.0,0.707106781186548,1.0,0.707106781186548,1.0,0.707106781186548,1.0,0.707106781186548,1.0),(0.707106781186547,0.5,0.707106781186547,0.5,0.707106781186547,0.5,0.707106781186547,0.5,0.707106781186547),(1.0,0.707106781186548,1.0,0.707106781186548,1.0,0.707106781186548,1.0,0.707106781186548,1.0),(0.707106781186547,0.5,0.707106781186547,0.5,0.707106781186547,0.5,0.707106781186547,0.5,0.707106781186547),(1.0,0.707106781186548,1.0,0.707106781186548,1.0,0.707106781186548,1.0,0.707106781186548,1.0)))REPRESENTATION_ITEM('')SURFACE());
#813=CARTESIAN_POINT('',(9.359999999999998,-5.510911E-017,2.349999999999999));
#814=VERTEX_POINT('',#813);
#815=CARTESIAN_POINT('',(10.609999999999999,-5.510911E-017,1.099999999999999));
#816=VERTEX_POINT('',#815);
#817=CARTESIAN_POINT('',(9.359999999999999,0.0,1.099999999999997));
#818=DIRECTION('',(0.0,1.0,0.0));
#819=DIRECTION('',(0.0,0.0,1.0));
#820=AXIS2_PLACEMENT_3D('',#817,#818,#819);
#821=CIRCLE('',#820,1.25);
#822=EDGE_CURVE('',#814,#816,#821,.T.);
#823=ORIENTED_EDGE('',*,*,#822,.F.);
#824=CARTESIAN_POINT('',(9.359999999999999,0.0,1.449999999999999));
#825=VERTEX_POINT('',#824);
#826=CARTESIAN_POINT('',(9.359999999999998,0.0,1.899999999999999));
#827=DIRECTION('',(-1.0,0.0,0.0));
#828=DIRECTION('',(0.0,0.0,-1.0));
#829=AXIS2_PLACEMENT_3D('',#826,#827,#828);
#830=CIRCLE('',#829,0.45);
#831=EDGE_CURVE('',#825,#814,#830,.T.);
#832=ORIENTED_EDGE('',*,*,#831,.F.);
#833=CARTESIAN_POINT('',(9.710000000000001,0.0,1.099999999999998));
#834=VERTEX_POINT('',#833);
#835=CARTESIAN_POINT('',(9.359999999999999,-5.510911E-017,1.099999999999997));
#836=DIRECTION('',(0.0,1.0,0.0));
#837=DIRECTION('',(0.0,0.0,1.0));
#838=AXIS2_PLACEMENT_3D('',#835,#836,#837);
#839=CIRCLE('',#838,0.350000000000001);
#840=EDGE_CURVE('',#825,#834,#839,.T.);
#841=ORIENTED_EDGE('',*,*,#840,.T.);
#842=CARTESIAN_POINT('',(10.16,0.0,1.099999999999999));
#843=DIRECTION('',(0.0,0.0,1.0));
#844=DIRECTION('',(-1.0,0.0,0.0));
#845=AXIS2_PLACEMENT_3D('',#842,#843,#844);
#846=CIRCLE('',#845,0.45);
#847=EDGE_CURVE('',#834,#816,#846,.T.);
#848=ORIENTED_EDGE('',*,*,#847,.T.);
#849=EDGE_LOOP('',(#823,#832,#841,#848));
#850=FACE_OUTER_BOUND('',#849,.T.);
#851=ADVANCED_FACE('',(#850),#812,.T.);
#852=CARTESIAN_POINT('',(10.609999999999999,-5.510911E-017,-3.6));
#853=CARTESIAN_POINT('',(10.609999999999999,-5.510911E-017,1.099999999999999));
#854=CARTESIAN_POINT('',(10.609999999999999,-0.449999999999999,-3.6));
#855=CARTESIAN_POINT('',(10.609999999999999,-0.449999999999999,1.099999999999999));
#856=CARTESIAN_POINT('',(10.16,-0.449999999999999,-3.6));
#857=CARTESIAN_POINT('',(10.16,-0.449999999999999,1.099999999999999));
#858=CARTESIAN_POINT('',(9.710000000000001,-0.449999999999999,-3.6));
#859=CARTESIAN_POINT('',(9.710000000000001,-0.449999999999999,1.099999999999999));
#860=CARTESIAN_POINT('',(9.710000000000001,5.510911E-017,-3.6));
#861=CARTESIAN_POINT('',(9.710000000000001,5.510911E-017,1.099999999999999));
#862=CARTESIAN_POINT('',(9.710000000000001,0.449999999999999,-3.6));
#863=CARTESIAN_POINT('',(9.710000000000001,0.449999999999999,1.099999999999999));
#864=CARTESIAN_POINT('',(10.16,0.449999999999999,-3.6));
#865=CARTESIAN_POINT('',(10.16,0.449999999999999,1.099999999999999));
#866=CARTESIAN_POINT('',(10.609999999999999,0.449999999999999,-3.6));
#867=CARTESIAN_POINT('',(10.609999999999999,0.449999999999999,1.099999999999999));
#868=CARTESIAN_POINT('',(10.609999999999999,-5.510911E-017,-3.6));
#869=CARTESIAN_POINT('',(10.609999999999999,-5.510911E-017,1.099999999999999));
#877=(BOUNDED_SURFACE()B_SPLINE_SURFACE(1,2,((#852,#854,#856,#858,#860,#862,#864,#866,#868),(#853,#855,#857,#859,#861,#863,#865,#867,#869)),.UNSPECIFIED.,.F.,.T.,.U.)B_SPLINE_SURFACE_WITH_KNOTS((2,2),(3,2,2,2,3),(0.0,10.444444444444441),(0.0,0.706858347057703,1.413716694115407,2.12057504117311,2.827433388230814),.UNSPECIFIED.)GEOMETRIC_REPRESENTATION_ITEM()RATIONAL_B_SPLINE_SURFACE(((1.0,0.707106781186548,1.0,0.707106781186548,1.0,0.707106781186548,1.0,0.707106781186548,1.0),(1.0,0.707106781186548,1.0,0.707106781186548,1.0,0.707106781186548,1.0,0.707106781186548,1.0)))REPRESENTATION_ITEM('')SURFACE());
#878=CARTESIAN_POINT('',(9.710000000000001,0.0,-3.6));
#879=VERTEX_POINT('',#878);
#880=CARTESIAN_POINT('',(9.710000000000001,0.0,1.099999999999998));
#881=DIRECTION('',(0.0,0.0,-1.0));
#882=VECTOR('',#881,4.699999999999998);
#883=LINE('',#880,#882);
#884=EDGE_CURVE('',#834,#879,#883,.T.);
#885=ORIENTED_EDGE('',*,*,#884,.F.);
#886=CARTESIAN_POINT('',(10.16,0.0,1.099999999999999));
#887=DIRECTION('',(0.0,0.0,1.0));
#888=DIRECTION('',(-1.0,0.0,0.0));
#889=AXIS2_PLACEMENT_3D('',#886,#887,#888);
#890=CIRCLE('',#889,0.45);
#891=EDGE_CURVE('',#816,#834,#890,.T.);
#892=ORIENTED_EDGE('',*,*,#891,.F.);
#893=CARTESIAN_POINT('',(10.609999999999999,-5.510911E-017,-3.6));
#894=VERTEX_POINT('',#893);
#895=CARTESIAN_POINT('',(10.609999999999999,-5.510911E-017,1.099999999999999));
#896=DIRECTION('',(0.0,0.0,-1.0));
#897=VECTOR('',#896,4.699999999999998);
#898=LINE('',#895,#897);
#899=EDGE_CURVE('',#816,#894,#898,.T.);
#900=ORIENTED_EDGE('',*,*,#899,.T.);
#901=CARTESIAN_POINT('',(10.16,0.0,-3.6));
#902=DIRECTION('',(0.0,0.0,-1.0));
#903=DIRECTION('',(-1.0,0.0,0.0));
#904=AXIS2_PLACEMENT_3D('',#901,#902,#903);
#905=CIRCLE('',#904,0.45);
#906=EDGE_CURVE('',#879,#894,#905,.T.);
#907=ORIENTED_EDGE('',*,*,#906,.F.);
#908=EDGE_LOOP('',(#885,#892,#900,#907));
#909=FACE_OUTER_BOUND('',#908,.T.);
#910=ADVANCED_FACE('',(#909),#877,.T.);
#911=CARTESIAN_POINT('',(9.359999999999999,-5.510911E-017,2.349999999999999));
#912=CARTESIAN_POINT('',(7.499999999999998,-5.510911E-017,2.349999999999999));
#913=CARTESIAN_POINT('',(9.359999999999999,-0.45,2.349999999999999));
#914=CARTESIAN_POINT('',(7.499999999999998,-0.45,2.349999999999999));
#915=CARTESIAN_POINT('',(9.359999999999999,-0.45,1.899999999999999));
#916=CARTESIAN_POINT('',(7.499999999999998,-0.45,1.899999999999999));
#917=CARTESIAN_POINT('',(9.359999999999999,-0.45,1.449999999999998));
#918=CARTESIAN_POINT('',(7.499999999999998,-0.45,1.449999999999998));
#919=CARTESIAN_POINT('',(9.359999999999999,5.510911E-017,1.449999999999998));
#920=CARTESIAN_POINT('',(7.499999999999998,5.510911E-017,1.449999999999998));
#921=CARTESIAN_POINT('',(9.359999999999999,0.45,1.449999999999998));
#922=CARTESIAN_POINT('',(7.499999999999998,0.45,1.449999999999998));
#923=CARTESIAN_POINT('',(9.359999999999999,0.45,1.899999999999999));
#924=CARTESIAN_POINT('',(7.499999999999998,0.45,1.899999999999999));
#925=CARTESIAN_POINT('',(9.359999999999999,0.45,2.349999999999999));
#926=CARTESIAN_POINT('',(7.499999999999998,0.45,2.349999999999999));
#927=CARTESIAN_POINT('',(9.359999999999999,-5.510911E-017,2.349999999999999));
#928=CARTESIAN_POINT('',(7.499999999999998,-5.510911E-017,2.349999999999999));
#936=(BOUNDED_SURFACE()B_SPLINE_SURFACE(1,2,((#911,#913,#915,#917,#919,#921,#923,#925,#927),(#912,#914,#916,#918,#920,#922,#924,#926,#928)),.UNSPECIFIED.,.F.,.T.,.U.)B_SPLINE_SURFACE_WITH_KNOTS((2,2),(3,2,2,2,3),(-3.947460E-015,4.133333333333332),(0.0,0.706858347057703,1.413716694115407,2.12057504117311,2.827433388230814),.UNSPECIFIED.)GEOMETRIC_REPRESENTATION_ITEM()RATIONAL_B_SPLINE_SURFACE(((1.0,0.707106781186548,1.0,0.707106781186548,1.0,0.707106781186548,1.0,0.707106781186548,1.0),(1.0,0.707106781186548,1.0,0.707106781186548,1.0,0.707106781186548,1.0,0.707106781186548,1.0)))REPRESENTATION_ITEM('')SURFACE());
#937=CARTESIAN_POINT('',(7.5,0.0,1.449999999999999));
#938=VERTEX_POINT('',#937);
#939=CARTESIAN_POINT('',(7.5,0.0,1.449999999999999));
#940=DIRECTION('',(1.0,0.0,0.0));
#941=VECTOR('',#940,1.859999999999998);
#942=LINE('',#939,#941);
#943=EDGE_CURVE('',#938,#825,#942,.T.);
#944=ORIENTED_EDGE('',*,*,#943,.F.);
#945=CARTESIAN_POINT('',(7.499999999999998,-5.510911E-017,2.349999999999999));
#946=VERTEX_POINT('',#945);
#947=CARTESIAN_POINT('',(7.499999999999998,0.0,1.899999999999999));
#948=DIRECTION('',(-1.0,0.0,0.0));
#949=DIRECTION('',(0.0,0.0,-1.0));
#950=AXIS2_PLACEMENT_3D('',#947,#948,#949);
#951=CIRCLE('',#950,0.45);
#952=EDGE_CURVE('',#946,#938,#951,.T.);
#953=ORIENTED_EDGE('',*,*,#952,.F.);
#954=CARTESIAN_POINT('',(7.499999999999998,-5.510911E-017,2.349999999999999));
#955=DIRECTION('',(1.0,0.0,0.0));
#956=VECTOR('',#955,1.859999999999999);
#957=LINE('',#954,#956);
#958=EDGE_CURVE('',#946,#814,#957,.T.);
#959=ORIENTED_EDGE('',*,*,#958,.T.);
#960=CARTESIAN_POINT('',(9.359999999999998,0.0,1.899999999999999));
#961=DIRECTION('',(-1.0,0.0,0.0));
#962=DIRECTION('',(0.0,0.0,-1.0));
#963=AXIS2_PLACEMENT_3D('',#960,#961,#962);
#964=CIRCLE('',#963,0.45);
#965=EDGE_CURVE('',#814,#825,#964,.T.);
#966=ORIENTED_EDGE('',*,*,#965,.T.);
#967=EDGE_LOOP('',(#944,#953,#959,#966));
#968=FACE_OUTER_BOUND('',#967,.T.);
#969=ADVANCED_FACE('',(#968),#936,.T.);
#970=CARTESIAN_POINT('',(9.359999999999999,-5.510911E-017,2.349999999999999));
#971=CARTESIAN_POINT('',(7.499999999999998,-5.510911E-017,2.349999999999999));
#972=CARTESIAN_POINT('',(9.359999999999999,-0.45,2.349999999999999));
#973=CARTESIAN_POINT('',(7.499999999999998,-0.45,2.349999999999999));
#974=CARTESIAN_POINT('',(9.359999999999999,-0.45,1.899999999999999));
#975=CARTESIAN_POINT('',(7.499999999999998,-0.45,1.899999999999999));
#976=CARTESIAN_POINT('',(9.359999999999999,-0.45,1.449999999999998));
#977=CARTESIAN_POINT('',(7.499999999999998,-0.45,1.449999999999998));
#978=CARTESIAN_POINT('',(9.359999999999999,5.510911E-017,1.449999999999998));
#979=CARTESIAN_POINT('',(7.499999999999998,5.510911E-017,1.449999999999998));
#980=CARTESIAN_POINT('',(9.359999999999999,0.45,1.449999999999998));
#981=CARTESIAN_POINT('',(7.499999999999998,0.45,1.449999999999998));
#982=CARTESIAN_POINT('',(9.359999999999999,0.45,1.899999999999999));
#983=CARTESIAN_POINT('',(7.499999999999998,0.45,1.899999999999999));
#984=CARTESIAN_POINT('',(9.359999999999999,0.45,2.349999999999999));
#985=CARTESIAN_POINT('',(7.499999999999998,0.45,2.349999999999999));
#986=CARTESIAN_POINT('',(9.359999999999999,-5.510911E-017,2.349999999999999));
#987=CARTESIAN_POINT('',(7.499999999999998,-5.510911E-017,2.349999999999999));
#995=(BOUNDED_SURFACE()B_SPLINE_SURFACE(1,2,((#970,#972,#974,#976,#978,#980,#982,#984,#986),(#971,#973,#975,#977,#979,#981,#983,#985,#987)),.UNSPECIFIED.,.F.,.T.,.U.)B_SPLINE_SURFACE_WITH_KNOTS((2,2),(3,2,2,2,3),(-3.947460E-015,4.133333333333332),(0.0,0.706858347057703,1.413716694115407,2.12057504117311,2.827433388230814),.UNSPECIFIED.)GEOMETRIC_REPRESENTATION_ITEM()RATIONAL_B_SPLINE_SURFACE(((1.0,0.707106781186548,1.0,0.707106781186548,1.0,0.707106781186548,1.0,0.707106781186548,1.0),(1.0,0.707106781186548,1.0,0.707106781186548,1.0,0.707106781186548,1.0,0.707106781186548,1.0)))REPRESENTATION_ITEM('')SURFACE());
#996=ORIENTED_EDGE('',*,*,#943,.T.);
#997=ORIENTED_EDGE('',*,*,#831,.T.);
#998=ORIENTED_EDGE('',*,*,#958,.F.);
#999=CARTESIAN_POINT('',(7.499999999999998,0.0,1.899999999999999));
#1000=DIRECTION('',(-1.0,0.0,0.0));
#1001=DIRECTION('',(0.0,0.0,-1.0));
#1002=AXIS2_PLACEMENT_3D('',#999,#1000,#1001);
#1003=CIRCLE('',#1002,0.45);
#1004=EDGE_CURVE('',#938,#946,#1003,.T.);
#1005=ORIENTED_EDGE('',*,*,#1004,.F.);
#1006=EDGE_LOOP('',(#996,#997,#998,#1005));
#1007=FACE_OUTER_BOUND('',#1006,.T.);
#1008=ADVANCED_FACE('',(#1007),#995,.T.);
#1009=CARTESIAN_POINT('',(9.359999999999999,-5.510911E-017,-0.150000000000003));
#1010=CARTESIAN_POINT('',(9.359999999999999,0.45,-0.150000000000003));
#1011=CARTESIAN_POINT('',(9.359999999999999,0.45,0.299999999999997));
#1012=CARTESIAN_POINT('',(9.359999999999999,0.45,0.749999999999997));
#1013=CARTESIAN_POINT('',(9.359999999999999,5.510911E-017,0.749999999999997));
#1014=CARTESIAN_POINT('',(10.609999999999999,-5.510911E-017,-0.150000000000003));
#1015=CARTESIAN_POINT('',(10.609999999999999,0.45,-0.150000000000003));
#1016=CARTESIAN_POINT('',(10.16,0.45,0.299999999999997));
#1017=CARTESIAN_POINT('',(9.710000000000001,0.45,0.749999999999997));
#1018=CARTESIAN_POINT('',(9.710000000000001,5.510911E-017,0.749999999999997));
#1019=CARTESIAN_POINT('',(10.609999999999999,-5.510911E-017,1.099999999999997));
#1020=CARTESIAN_POINT('',(10.609999999999999,0.45,1.099999999999997));
#1021=CARTESIAN_POINT('',(10.16,0.45,1.099999999999997));
#1022=CARTESIAN_POINT('',(9.710000000000001,0.45,1.099999999999997));
#1023=CARTESIAN_POINT('',(9.710000000000001,5.510911E-017,1.099999999999997));
#1024=CARTESIAN_POINT('',(10.609999999999999,-5.510911E-017,2.349999999999998));
#1025=CARTESIAN_POINT('',(10.609999999999999,0.45,2.349999999999998));
#1026=CARTESIAN_POINT('',(10.16,0.45,1.899999999999998));
#1027=CARTESIAN_POINT('',(9.710000000000001,0.45,1.449999999999998));
#1028=CARTESIAN_POINT('',(9.710000000000001,5.510911E-017,1.449999999999998));
#1029=CARTESIAN_POINT('',(9.359999999999999,-5.510911E-017,2.349999999999998));
#1030=CARTESIAN_POINT('',(9.359999999999999,0.45,2.349999999999998));
#1031=CARTESIAN_POINT('',(9.359999999999999,0.45,1.899999999999998));
#1032=CARTESIAN_POINT('',(9.359999999999999,0.45,1.449999999999998));
#1033=CARTESIAN_POINT('',(9.359999999999999,5.510911E-017,1.449999999999998));
#1034=CARTESIAN_POINT('',(8.109999999999999,-5.510911E-017,2.349999999999998));
#1035=CARTESIAN_POINT('',(8.109999999999999,0.45,2.349999999999998));
#1036=CARTESIAN_POINT('',(8.559999999999999,0.45,1.899999999999998));
#1037=CARTESIAN_POINT('',(9.009999999999998,0.45,1.449999999999998));
#1038=CARTESIAN_POINT('',(9.009999999999998,5.510911E-017,1.449999999999998));
#1039=CARTESIAN_POINT('',(8.109999999999999,-5.510911E-017,1.099999999999997));
#1040=CARTESIAN_POINT('',(8.109999999999999,0.45,1.099999999999997));
#1041=CARTESIAN_POINT('',(8.559999999999999,0.45,1.099999999999997));
#1042=CARTESIAN_POINT('',(9.009999999999998,0.45,1.099999999999997));
#1043=CARTESIAN_POINT('',(9.009999999999998,5.510911E-017,1.099999999999997));
#1044=CARTESIAN_POINT('',(8.109999999999999,-5.510911E-017,-0.150000000000003));
#1045=CARTESIAN_POINT('',(8.109999999999999,0.45,-0.150000000000003));
#1046=CARTESIAN_POINT('',(8.559999999999999,0.45,0.299999999999997));
#1047=CARTESIAN_POINT('',(9.009999999999998,0.45,0.749999999999997));
#1048=CARTESIAN_POINT('',(9.009999999999998,5.510911E-017,0.749999999999997));
#1049=CARTESIAN_POINT('',(9.359999999999999,-5.510911E-017,-0.150000000000003));
#1050=CARTESIAN_POINT('',(9.359999999999999,0.45,-0.150000000000003));
#1051=CARTESIAN_POINT('',(9.359999999999999,0.45,0.299999999999997));
#1052=CARTESIAN_POINT('',(9.359999999999999,0.45,0.749999999999997));
#1053=CARTESIAN_POINT('',(9.359999999999999,5.510911E-017,0.749999999999997));
#1061=(BOUNDED_SURFACE()B_SPLINE_SURFACE(2,2,((#1009,#1014,#1019,#1024,#1029,#1034,#1039,#1044,#1049),(#1010,#1015,#1020,#1025,#1030,#1035,#1040,#1045,#1050),(#1011,#1016,#1021,#1026,#1031,#1036,#1041,#1046,#1051),(#1012,#1017,#1022,#1027,#1032,#1037,#1042,#1047,#1052),(#1013,#1018,#1023,#1028,#1033,#1038,#1043,#1048,#1053)),.UNSPECIFIED.,.F.,.T.,.U.)B_SPLINE_SURFACE_WITH_KNOTS((3,2,3),(3,2,2,2,3),(-1.224647E-016,1.570796326794897,3.141592653589793),(0.0,1.570796326794897,3.141592653589793,4.71238898038469,6.283185307179586),.UNSPECIFIED.)GEOMETRIC_REPRESENTATION_ITEM()RATIONAL_B_SPLINE_SURFACE(((1.0,0.707106781186548,1.0,0.707106781186548,1.0,0.707106781186548,1.0,0.707106781186548,1.0),(0.707106781186548,0.5,0.707106781186548,0.5,0.707106781186548,0.5,0.707106781186548,0.5,0.707106781186548),(1.0,0.707106781186548,1.0,0.707106781186548,1.0,0.707106781186548,1.0,0.707106781186548,1.0),(0.707106781186547,0.5,0.707106781186547,0.5,0.707106781186547,0.5,0.707106781186547,0.5,0.707106781186547),(1.0,0.707106781186548,1.0,0.707106781186548,1.0,0.707106781186548,1.0,0.707106781186548,1.0)))REPRESENTATION_ITEM('')SURFACE());
#1062=ORIENTED_EDGE('',*,*,#822,.T.);
#1063=ORIENTED_EDGE('',*,*,#891,.T.);
#1064=ORIENTED_EDGE('',*,*,#840,.F.);
#1065=ORIENTED_EDGE('',*,*,#965,.F.);
#1066=EDGE_LOOP('',(#1062,#1063,#1064,#1065));
#1067=FACE_OUTER_BOUND('',#1066,.T.);
#1068=ADVANCED_FACE('',(#1067),#1061,.T.);
#1069=CARTESIAN_POINT('',(10.609999999999999,-5.510911E-017,-3.6));
#1070=CARTESIAN_POINT('',(10.609999999999999,-5.510911E-017,1.099999999999999));
#1071=CARTESIAN_POINT('',(10.609999999999999,-0.449999999999999,-3.6));
#1072=CARTESIAN_POINT('',(10.609999999999999,-0.449999999999999,1.099999999999999));
#1073=CARTESIAN_POINT('',(10.16,-0.449999999999999,-3.6));
#1074=CARTESIAN_POINT('',(10.16,-0.449999999999999,1.099999999999999));
#1075=CARTESIAN_POINT('',(9.710000000000001,-0.449999999999999,-3.6));
#1076=CARTESIAN_POINT('',(9.710000000000001,-0.449999999999999,1.099999999999999));
#1077=CARTESIAN_POINT('',(9.710000000000001,5.510911E-017,-3.6));
#1078=CARTESIAN_POINT('',(9.710000000000001,5.510911E-017,1.099999999999999));
#1079=CARTESIAN_POINT('',(9.710000000000001,0.449999999999999,-3.6));
#1080=CARTESIAN_POINT('',(9.710000000000001,0.449999999999999,1.099999999999999));
#1081=CARTESIAN_POINT('',(10.16,0.449999999999999,-3.6));
#1082=CARTESIAN_POINT('',(10.16,0.449999999999999,1.099999999999999));
#1083=CARTESIAN_POINT('',(10.609999999999999,0.449999999999999,-3.6));
#1084=CARTESIAN_POINT('',(10.609999999999999,0.449999999999999,1.099999999999999));
#1085=CARTESIAN_POINT('',(10.609999999999999,-5.510911E-017,-3.6));
#1086=CARTESIAN_POINT('',(10.609999999999999,-5.510911E-017,1.099999999999999));
#1094=(BOUNDED_SURFACE()B_SPLINE_SURFACE(1,2,((#1069,#1071,#1073,#1075,#1077,#1079,#1081,#1083,#1085),(#1070,#1072,#1074,#1076,#1078,#1080,#1082,#1084,#1086)),.UNSPECIFIED.,.F.,.T.,.U.)B_SPLINE_SURFACE_WITH_KNOTS((2,2),(3,2,2,2,3),(0.0,10.444444444444441),(0.0,0.706858347057703,1.413716694115407,2.12057504117311,2.827433388230814),.UNSPECIFIED.)GEOMETRIC_REPRESENTATION_ITEM()RATIONAL_B_SPLINE_SURFACE(((1.0,0.707106781186548,1.0,0.707106781186548,1.0,0.707106781186548,1.0,0.707106781186548,1.0),(1.0,0.707106781186548,1.0,0.707106781186548,1.0,0.707106781186548,1.0,0.707106781186548,1.0)))REPRESENTATION_ITEM('')SURFACE());
#1095=ORIENTED_EDGE('',*,*,#884,.T.);
#1096=CARTESIAN_POINT('',(10.16,0.0,-3.6));
#1097=DIRECTION('',(0.0,0.0,-1.0));
#1098=DIRECTION('',(-1.0,0.0,0.0));
#1099=AXIS2_PLACEMENT_3D('',#1096,#1097,#1098);
#1100=CIRCLE('',#1099,0.45);
#1101=EDGE_CURVE('',#894,#879,#1100,.T.);
#1102=ORIENTED_EDGE('',*,*,#1101,.F.);
#1103=ORIENTED_EDGE('',*,*,#899,.F.);
#1104=ORIENTED_EDGE('',*,*,#847,.F.);
#1105=EDGE_LOOP('',(#1095,#1102,#1103,#1104));
#1106=FACE_OUTER_BOUND('',#1105,.T.);
#1107=ADVANCED_FACE('',(#1106),#1094,.T.);
#1108=CARTESIAN_POINT('',(10.609999999999999,0.45,-3.6));
#1109=CARTESIAN_POINT('',(9.710000000000001,0.45,-3.6));
#1110=CARTESIAN_POINT('',(10.609999999999999,-0.45,-3.6));
#1111=CARTESIAN_POINT('',(9.710000000000001,-0.45,-3.6));
#1112=B_SPLINE_SURFACE_WITH_KNOTS('',1,1,((#1108,#1110),(#1109,#1111)),.UNSPECIFIED.,.F.,.F.,.U.,(2,2),(2,2),(0.0,0.899999999999999),(0.0,0.9),.UNSPECIFIED.);
#1113=ORIENTED_EDGE('',*,*,#906,.T.);
#1114=ORIENTED_EDGE('',*,*,#1101,.T.);
#1115=EDGE_LOOP('',(#1113,#1114));
#1116=FACE_OUTER_BOUND('',#1115,.T.);
#1117=ADVANCED_FACE('',(#1116),#1112,.F.);
#1118=CARTESIAN_POINT('',(7.5,0.45,2.349999999999999));
#1119=CARTESIAN_POINT('',(7.5,0.45,1.449999999999999));
#1120=CARTESIAN_POINT('',(7.5,-0.45,2.349999999999999));
#1121=CARTESIAN_POINT('',(7.5,-0.45,1.449999999999998));
#1122=B_SPLINE_SURFACE_WITH_KNOTS('',1,1,((#1118,#1120),(#1119,#1121)),.UNSPECIFIED.,.F.,.F.,.U.,(2,2),(2,2),(0.0,0.9),(0.0,0.9),.UNSPECIFIED.);
#1123=ORIENTED_EDGE('',*,*,#1004,.T.);
#1124=ORIENTED_EDGE('',*,*,#952,.T.);
#1125=EDGE_LOOP('',(#1123,#1124));
#1126=FACE_OUTER_BOUND('',#1125,.T.);
#1127=ADVANCED_FACE('',(#1126),#1122,.T.);
#1128=CLOSED_SHELL('',(#851,#910,#969,#1008,#1068,#1107,#1117,#1127));
#1129=MANIFOLD_SOLID_BREP('CA8',#1128);
#1130=COLOUR_RGB('253',0.732,0.732,0.732);
#1131=SURFACE_STYLE_USAGE(.BOTH.,#1132);
#1132=SURFACE_SIDE_STYLE('NONE',(#1133));
#1133=SURFACE_STYLE_FILL_AREA(#1134);
#1134=FILL_AREA_STYLE('NONE',(#1135));
#1135=FILL_AREA_STYLE_COLOUR('NONE',#1130);
#1136=PRESENTATION_STYLE_ASSIGNMENT((#1131));
#1137=STYLED_ITEM('NONE',(#1136),#1129);
#1138=CARTESIAN_POINT('',(-9.359999999999999,0.0,1.099999999999997));
#1139=DIRECTION('',(0.0,1.0,0.0));
#1140=DIRECTION('',(0.0,0.0,1.0));
#1141=AXIS2_PLACEMENT_3D('',#1138,#1139,#1140);
#1142=TOROIDAL_SURFACE('',#1141,0.800000000000001,0.45);
#1143=CARTESIAN_POINT('',(-9.359999999999998,-5.510911E-017,2.349999999999999));
#1144=VERTEX_POINT('',#1143);
#1145=CARTESIAN_POINT('',(-10.609999999999999,-5.510911E-017,1.099999999999999));
#1146=VERTEX_POINT('',#1145);
#1147=CARTESIAN_POINT('',(-9.359999999999999,0.0,1.099999999999997));
#1148=DIRECTION('',(0.0,-1.0,0.0));
#1149=DIRECTION('',(0.0,0.0,1.0));
#1150=AXIS2_PLACEMENT_3D('',#1147,#1148,#1149);
#1151=CIRCLE('',#1150,1.25);
#1152=EDGE_CURVE('',#1144,#1146,#1151,.T.);
#1153=ORIENTED_EDGE('',*,*,#1152,.F.);
#1154=CARTESIAN_POINT('',(-9.359999999999999,0.0,1.449999999999999));
#1155=VERTEX_POINT('',#1154);
#1156=CARTESIAN_POINT('',(-9.359999999999998,0.0,1.899999999999999));
#1157=DIRECTION('',(-1.0,0.0,0.0));
#1158=DIRECTION('',(0.0,0.0,-1.0));
#1159=AXIS2_PLACEMENT_3D('',#1156,#1157,#1158);
#1160=CIRCLE('',#1159,0.45);
#1161=EDGE_CURVE('',#1144,#1155,#1160,.T.);
#1162=ORIENTED_EDGE('',*,*,#1161,.T.);
#1163=CARTESIAN_POINT('',(-9.710000000000001,0.0,1.099999999999998));
#1164=VERTEX_POINT('',#1163);
#1165=CARTESIAN_POINT('',(-9.359999999999999,-5.510911E-017,1.099999999999997));
#1166=DIRECTION('',(0.0,-1.0,0.0));
#1167=DIRECTION('',(0.0,0.0,1.0));
#1168=AXIS2_PLACEMENT_3D('',#1165,#1166,#1167);
#1169=CIRCLE('',#1168,0.350000000000001);
#1170=EDGE_CURVE('',#1155,#1164,#1169,.T.);
#1171=ORIENTED_EDGE('',*,*,#1170,.T.);
#1172=CARTESIAN_POINT('',(-10.16,0.0,1.099999999999999));
#1173=DIRECTION('',(0.0,0.0,-1.0));
#1174=DIRECTION('',(1.0,0.0,0.0));
#1175=AXIS2_PLACEMENT_3D('',#1172,#1173,#1174);
#1176=CIRCLE('',#1175,0.45);
#1177=EDGE_CURVE('',#1146,#1164,#1176,.T.);
#1178=ORIENTED_EDGE('',*,*,#1177,.F.);
#1179=EDGE_LOOP('',(#1153,#1162,#1171,#1178));
#1180=FACE_OUTER_BOUND('',#1179,.T.);
#1181=ADVANCED_FACE('',(#1180),#1142,.T.);
#1182=CARTESIAN_POINT('',(-10.16,0.0,-3.6));
#1183=DIRECTION('',(0.0,0.0,1.0));
#1184=DIRECTION('',(1.0,0.0,0.0));
#1185=AXIS2_PLACEMENT_3D('',#1182,#1183,#1184);
#1186=CYLINDRICAL_SURFACE('',#1185,0.45);
#1187=CARTESIAN_POINT('',(-9.710000000000001,0.0,-3.6));
#1188=VERTEX_POINT('',#1187);
#1189=CARTESIAN_POINT('',(-9.710000000000001,0.0,1.099999999999998));
#1190=DIRECTION('',(0.0,0.0,-1.0));
#1191=VECTOR('',#1190,4.699999999999998);
#1192=LINE('',#1189,#1191);
#1193=EDGE_CURVE('',#1164,#1188,#1192,.T.);
#1194=ORIENTED_EDGE('',*,*,#1193,.F.);
#1195=CARTESIAN_POINT('',(-10.16,0.0,1.099999999999999));
#1196=DIRECTION('',(0.0,0.0,-1.0));
#1197=DIRECTION('',(1.0,0.0,0.0));
#1198=AXIS2_PLACEMENT_3D('',#1195,#1196,#1197);
#1199=CIRCLE('',#1198,0.45);
#1200=EDGE_CURVE('',#1164,#1146,#1199,.T.);
#1201=ORIENTED_EDGE('',*,*,#1200,.T.);
#1202=CARTESIAN_POINT('',(-10.609999999999999,-5.510911E-017,-3.6));
#1203=VERTEX_POINT('',#1202);
#1204=CARTESIAN_POINT('',(-10.609999999999999,-5.510911E-017,1.099999999999999));
#1205=DIRECTION('',(0.0,0.0,-1.0));
#1206=VECTOR('',#1205,4.699999999999998);
#1207=LINE('',#1204,#1206);
#1208=EDGE_CURVE('',#1146,#1203,#1207,.T.);
#1209=ORIENTED_EDGE('',*,*,#1208,.T.);
#1210=CARTESIAN_POINT('',(-10.16,0.0,-3.6));
#1211=DIRECTION('',(0.0,0.0,1.0));
#1212=DIRECTION('',(1.0,0.0,0.0));
#1213=AXIS2_PLACEMENT_3D('',#1210,#1211,#1212);
#1214=CIRCLE('',#1213,0.45);
#1215=EDGE_CURVE('',#1203,#1188,#1214,.T.);
#1216=ORIENTED_EDGE('',*,*,#1215,.T.);
#1217=EDGE_LOOP('',(#1194,#1201,#1209,#1216));
#1218=FACE_OUTER_BOUND('',#1217,.T.);
#1219=ADVANCED_FACE('',(#1218),#1186,.T.);
#1220=CARTESIAN_POINT('',(-9.359999999999998,0.0,1.899999999999999));
#1221=DIRECTION('',(1.0,0.0,0.0));
#1222=DIRECTION('',(0.0,0.0,-1.0));
#1223=AXIS2_PLACEMENT_3D('',#1220,#1221,#1222);
#1224=CYLINDRICAL_SURFACE('',#1223,0.45);
#1225=CARTESIAN_POINT('',(-7.5,0.0,1.449999999999999));
#1226=VERTEX_POINT('',#1225);
#1227=CARTESIAN_POINT('',(-7.5,0.0,1.449999999999999));
#1228=DIRECTION('',(-1.0,0.0,0.0));
#1229=VECTOR('',#1228,1.859999999999998);
#1230=LINE('',#1227,#1229);
#1231=EDGE_CURVE('',#1226,#1155,#1230,.T.);
#1232=ORIENTED_EDGE('',*,*,#1231,.F.);
#1233=CARTESIAN_POINT('',(-7.499999999999998,-5.510911E-017,2.349999999999999));
#1234=VERTEX_POINT('',#1233);
#1235=CARTESIAN_POINT('',(-7.499999999999998,0.0,1.899999999999999));
#1236=DIRECTION('',(-1.0,0.0,0.0));
#1237=DIRECTION('',(0.0,0.0,-1.0));
#1238=AXIS2_PLACEMENT_3D('',#1235,#1236,#1237);
#1239=CIRCLE('',#1238,0.45);
#1240=EDGE_CURVE('',#1226,#1234,#1239,.T.);
#1241=ORIENTED_EDGE('',*,*,#1240,.T.);
#1242=CARTESIAN_POINT('',(-7.499999999999998,-5.510911E-017,2.349999999999999));
#1243=DIRECTION('',(-1.0,0.0,0.0));
#1244=VECTOR('',#1243,1.859999999999999);
#1245=LINE('',#1242,#1244);
#1246=EDGE_CURVE('',#1234,#1144,#1245,.T.);
#1247=ORIENTED_EDGE('',*,*,#1246,.T.);
#1248=CARTESIAN_POINT('',(-9.359999999999998,0.0,1.899999999999999));
#1249=DIRECTION('',(-1.0,0.0,0.0));
#1250=DIRECTION('',(0.0,0.0,-1.0));
#1251=AXIS2_PLACEMENT_3D('',#1248,#1249,#1250);
#1252=CIRCLE('',#1251,0.45);
#1253=EDGE_CURVE('',#1155,#1144,#1252,.T.);
#1254=ORIENTED_EDGE('',*,*,#1253,.F.);
#1255=EDGE_LOOP('',(#1232,#1241,#1247,#1254));
#1256=FACE_OUTER_BOUND('',#1255,.T.);
#1257=ADVANCED_FACE('',(#1256),#1224,.T.);
#1258=CARTESIAN_POINT('',(-9.359999999999998,0.0,1.899999999999999));
#1259=DIRECTION('',(1.0,0.0,0.0));
#1260=DIRECTION('',(0.0,0.0,-1.0));
#1261=AXIS2_PLACEMENT_3D('',#1258,#1259,#1260);
#1262=CYLINDRICAL_SURFACE('',#1261,0.45);
#1263=ORIENTED_EDGE('',*,*,#1231,.T.);
#1264=ORIENTED_EDGE('',*,*,#1161,.F.);
#1265=ORIENTED_EDGE('',*,*,#1246,.F.);
#1266=CARTESIAN_POINT('',(-7.499999999999998,0.0,1.899999999999999));
#1267=DIRECTION('',(-1.0,0.0,0.0));
#1268=DIRECTION('',(0.0,0.0,-1.0));
#1269=AXIS2_PLACEMENT_3D('',#1266,#1267,#1268);
#1270=CIRCLE('',#1269,0.45);
#1271=EDGE_CURVE('',#1234,#1226,#1270,.T.);
#1272=ORIENTED_EDGE('',*,*,#1271,.T.);
#1273=EDGE_LOOP('',(#1263,#1264,#1265,#1272));
#1274=FACE_OUTER_BOUND('',#1273,.T.);
#1275=ADVANCED_FACE('',(#1274),#1262,.T.);
#1276=CARTESIAN_POINT('',(-9.359999999999999,0.0,1.099999999999997));
#1277=DIRECTION('',(0.0,1.0,0.0));
#1278=DIRECTION('',(0.0,0.0,1.0));
#1279=AXIS2_PLACEMENT_3D('',#1276,#1277,#1278);
#1280=TOROIDAL_SURFACE('',#1279,0.800000000000001,0.45);
#1281=ORIENTED_EDGE('',*,*,#1152,.T.);
#1282=ORIENTED_EDGE('',*,*,#1200,.F.);
#1283=ORIENTED_EDGE('',*,*,#1170,.F.);
#1284=ORIENTED_EDGE('',*,*,#1253,.T.);
#1285=EDGE_LOOP('',(#1281,#1282,#1283,#1284));
#1286=FACE_OUTER_BOUND('',#1285,.T.);
#1287=ADVANCED_FACE('',(#1286),#1280,.T.);
#1288=CARTESIAN_POINT('',(-10.16,0.0,-3.6));
#1289=DIRECTION('',(0.0,0.0,1.0));
#1290=DIRECTION('',(1.0,0.0,0.0));
#1291=AXIS2_PLACEMENT_3D('',#1288,#1289,#1290);
#1292=CYLINDRICAL_SURFACE('',#1291,0.45);
#1293=ORIENTED_EDGE('',*,*,#1193,.T.);
#1294=CARTESIAN_POINT('',(-10.16,0.0,-3.6));
#1295=DIRECTION('',(0.0,0.0,1.0));
#1296=DIRECTION('',(1.0,0.0,0.0));
#1297=AXIS2_PLACEMENT_3D('',#1294,#1295,#1296);
#1298=CIRCLE('',#1297,0.45);
#1299=EDGE_CURVE('',#1188,#1203,#1298,.T.);
#1300=ORIENTED_EDGE('',*,*,#1299,.T.);
#1301=ORIENTED_EDGE('',*,*,#1208,.F.);
#1302=ORIENTED_EDGE('',*,*,#1177,.T.);
#1303=EDGE_LOOP('',(#1293,#1300,#1301,#1302));
#1304=FACE_OUTER_BOUND('',#1303,.T.);
#1305=ADVANCED_FACE('',(#1304),#1292,.T.);
#1306=CARTESIAN_POINT('',(-10.16,0.0,-3.6));
#1307=DIRECTION('',(0.0,0.0,1.0));
#1308=DIRECTION('',(1.0,0.0,0.0));
#1309=AXIS2_PLACEMENT_3D('',#1306,#1307,#1308);
#1310=PLANE('',#1309);
#1311=ORIENTED_EDGE('',*,*,#1299,.F.);
#1312=ORIENTED_EDGE('',*,*,#1215,.F.);
#1313=EDGE_LOOP('',(#1311,#1312));
#1314=FACE_OUTER_BOUND('',#1313,.T.);
#1315=ADVANCED_FACE('',(#1314),#1310,.F.);
#1316=CARTESIAN_POINT('',(-7.5,0.0,1.899999999999998));
#1317=DIRECTION('',(1.0,0.0,0.0));
#1318=DIRECTION('',(0.0,0.0,-1.0));
#1319=AXIS2_PLACEMENT_3D('',#1316,#1317,#1318);
#1320=PLANE('',#1319);
#1321=ORIENTED_EDGE('',*,*,#1240,.F.);
#1322=ORIENTED_EDGE('',*,*,#1271,.F.);
#1323=EDGE_LOOP('',(#1321,#1322));
#1324=FACE_OUTER_BOUND('',#1323,.T.);
#1325=ADVANCED_FACE('',(#1324),#1320,.T.);
#1326=CLOSED_SHELL('',(#1181,#1219,#1257,#1275,#1287,#1305,#1315,#1325));
#1327=MANIFOLD_SOLID_BREP('CA4',#1326);
#1328=STYLED_ITEM('NONE',(#1136),#1327);
#1329=ADVANCED_BREP_SHAPE_REPRESENTATION('ABSR1',(#152,#428,#747,#1129,#1327),#28);
#1330=SHAPE_REPRESENTATION_RELATIONSHIP('SRRPL1','',#1329,#62);
#1331=GEOMETRIC_CURVE_SET('GCS1',(#754));
#1332=GEOMETRICALLY_BOUNDED_WIREFRAME_SHAPE_REPRESENTATION('GBWSR1',(#1331),#28);
#1333=SHAPE_REPRESENTATION_RELATIONSHIP('SRRPL2','',#1332,#62);
ENDSEC;
END-ISO-10303-21;
