ISO-10303-21;
HEADER;
/* Generated by software containing ST-Developer
 * from STEP Tools, Inc. (www.steptools.com) 
 */

FILE_DESCRIPTION(
/* description */ (''),
/* implementation_level */ '2;1');

FILE_NAME(
/* name */ 'S:\\bcivel\\Altium-Lib\\Compo\\RES_VISHAY_VCS331_v.stp',
/* time_stamp */ '2016-08-23T11:01:04+02:00',
/* author */ ('bcivel'),
/* organization */ (''),
/* preprocessor_version */ 'ST-DEVELOPER v16.1',
/* originating_system */ 'AutoCAD Mechanical',
/* authorisation */ '');

FILE_SCHEMA (('AUTOMOTIVE_DESIGN { 1 0 10303 214 3 1 1 }'));
ENDSEC;

DATA;
#10=MECHANICAL_DESIGN_GEOMETRIC_PRESENTATION_REPRESENTATION('',(#17,#18,
#19,#20,#21,#22),#1058);
#11=DIMENSIONAL_EXPONENTS(0.,0.,0.,0.,0.,0.,0.);
#12=(
CONVERSION_BASED_UNIT('degree',#13)
NAMED_UNIT(#11)
PLANE_ANGLE_UNIT()
);
#13=PLANE_ANGLE_MEASURE_WITH_UNIT(PLANE_ANGLE_MEASURE(0.01745329252),#1061);
#14=PRESENTATION_LAYER_ASSIGNMENT('1','3D',(#23,#24,#25,#26,#27,#28));
#15=SHAPE_REPRESENTATION_RELATIONSHIP('SRR','None',#1064,#16);
#16=ADVANCED_BREP_SHAPE_REPRESENTATION('',(#23,#24,#25,#26,#27,#28),#1057);
#17=STYLED_ITEM('',(#1074),#23);
#18=STYLED_ITEM('',(#1075),#24);
#19=STYLED_ITEM('',(#1075),#25);
#20=STYLED_ITEM('',(#1076),#26);
#21=STYLED_ITEM('',(#1075),#27);
#22=STYLED_ITEM('',(#1075),#28);
#23=MANIFOLD_SOLID_BREP('8B6',#653);
#24=MANIFOLD_SOLID_BREP('8CE',#654);
#25=MANIFOLD_SOLID_BREP('8DA',#655);
#26=MANIFOLD_SOLID_BREP('939',#656);
#27=MANIFOLD_SOLID_BREP('9F1',#657);
#28=MANIFOLD_SOLID_BREP('A09',#658);
#29=LINE('',#892,#101);
#30=LINE('',#894,#102);
#31=LINE('',#896,#103);
#32=LINE('',#897,#104);
#33=LINE('',#900,#105);
#34=LINE('',#902,#106);
#35=LINE('',#903,#107);
#36=LINE('',#906,#108);
#37=LINE('',#908,#109);
#38=LINE('',#909,#110);
#39=LINE('',#911,#111);
#40=LINE('',#912,#112);
#41=LINE('',#932,#113);
#42=LINE('',#934,#114);
#43=LINE('',#936,#115);
#44=LINE('',#937,#116);
#45=LINE('',#940,#117);
#46=LINE('',#942,#118);
#47=LINE('',#943,#119);
#48=LINE('',#946,#120);
#49=LINE('',#948,#121);
#50=LINE('',#949,#122);
#51=LINE('',#951,#123);
#52=LINE('',#952,#124);
#53=LINE('',#958,#125);
#54=LINE('',#960,#126);
#55=LINE('',#962,#127);
#56=LINE('',#963,#128);
#57=LINE('',#967,#129);
#58=LINE('',#969,#130);
#59=LINE('',#971,#131);
#60=LINE('',#972,#132);
#61=LINE('',#975,#133);
#62=LINE('',#977,#134);
#63=LINE('',#978,#135);
#64=LINE('',#981,#136);
#65=LINE('',#983,#137);
#66=LINE('',#984,#138);
#67=LINE('',#986,#139);
#68=LINE('',#987,#140);
#69=LINE('',#991,#141);
#70=LINE('',#992,#142);
#71=LINE('',#993,#143);
#72=LINE('',#996,#144);
#73=LINE('',#997,#145);
#74=LINE('',#1000,#146);
#75=LINE('',#1001,#147);
#76=LINE('',#1003,#148);
#77=LINE('',#1008,#149);
#78=LINE('',#1010,#150);
#79=LINE('',#1012,#151);
#80=LINE('',#1013,#152);
#81=LINE('',#1017,#153);
#82=LINE('',#1019,#154);
#83=LINE('',#1021,#155);
#84=LINE('',#1022,#156);
#85=LINE('',#1025,#157);
#86=LINE('',#1027,#158);
#87=LINE('',#1028,#159);
#88=LINE('',#1031,#160);
#89=LINE('',#1033,#161);
#90=LINE('',#1034,#162);
#91=LINE('',#1036,#163);
#92=LINE('',#1037,#164);
#93=LINE('',#1041,#165);
#94=LINE('',#1042,#166);
#95=LINE('',#1043,#167);
#96=LINE('',#1046,#168);
#97=LINE('',#1047,#169);
#98=LINE('',#1050,#170);
#99=LINE('',#1051,#171);
#100=LINE('',#1053,#172);
#101=VECTOR('',#724,2.2);
#102=VECTOR('',#725,26.);
#103=VECTOR('',#726,2.2);
#104=VECTOR('',#727,26.);
#105=VECTOR('',#730,34.2);
#106=VECTOR('',#731,26.);
#107=VECTOR('',#732,34.2);
#108=VECTOR('',#735,2.2);
#109=VECTOR('',#736,26.);
#110=VECTOR('',#737,2.2);
#111=VECTOR('',#740,34.2);
#112=VECTOR('',#741,34.2);
#113=VECTOR('',#768,31.8);
#114=VECTOR('',#769,3.14275356972194);
#115=VECTOR('',#770,32.2);
#116=VECTOR('',#771,3.14275356972194);
#117=VECTOR('',#774,16.);
#118=VECTOR('',#775,3.14275356972194);
#119=VECTOR('',#776,15.6);
#120=VECTOR('',#779,15.6);
#121=VECTOR('',#780,3.14275356972194);
#122=VECTOR('',#781,16.);
#123=VECTOR('',#784,32.2);
#124=VECTOR('',#785,31.8);
#125=VECTOR('',#792,0.4);
#126=VECTOR('',#793,0.5);
#127=VECTOR('',#794,0.4);
#128=VECTOR('',#795,0.5);
#129=VECTOR('',#798,0.4);
#130=VECTOR('',#799,0.5);
#131=VECTOR('',#800,0.4);
#132=VECTOR('',#801,0.5);
#133=VECTOR('',#804,1.);
#134=VECTOR('',#805,0.4);
#135=VECTOR('',#806,1.);
#136=VECTOR('',#809,1.);
#137=VECTOR('',#810,0.4);
#138=VECTOR('',#811,1.);
#139=VECTOR('',#814,2.);
#140=VECTOR('',#815,2.);
#141=VECTOR('',#818,0.4);
#142=VECTOR('',#819,4.5);
#143=VECTOR('',#820,4.5);
#144=VECTOR('',#823,1.);
#145=VECTOR('',#824,4.5);
#146=VECTOR('',#827,0.4);
#147=VECTOR('',#828,4.5);
#148=VECTOR('',#831,1.);
#149=VECTOR('',#836,0.4);
#150=VECTOR('',#837,0.500000000000001);
#151=VECTOR('',#838,0.4);
#152=VECTOR('',#839,0.500000000000001);
#153=VECTOR('',#842,0.4);
#154=VECTOR('',#843,0.499999999999999);
#155=VECTOR('',#844,0.4);
#156=VECTOR('',#845,0.499999999999999);
#157=VECTOR('',#848,1.);
#158=VECTOR('',#849,0.4);
#159=VECTOR('',#850,1.);
#160=VECTOR('',#853,1.);
#161=VECTOR('',#854,0.4);
#162=VECTOR('',#855,1.);
#163=VECTOR('',#858,2.);
#164=VECTOR('',#859,2.);
#165=VECTOR('',#862,0.4);
#166=VECTOR('',#863,4.5);
#167=VECTOR('',#864,4.5);
#168=VECTOR('',#867,1.);
#169=VECTOR('',#868,4.5);
#170=VECTOR('',#871,0.4);
#171=VECTOR('',#872,4.5);
#172=VECTOR('',#875,1.);
#173=PLANE('',#666);
#174=PLANE('',#667);
#175=PLANE('',#668);
#176=PLANE('',#669);
#177=PLANE('',#670);
#178=PLANE('',#671);
#179=PLANE('',#675);
#180=PLANE('',#676);
#181=PLANE('',#680);
#182=PLANE('',#681);
#183=PLANE('',#682);
#184=PLANE('',#683);
#185=PLANE('',#684);
#186=PLANE('',#685);
#187=PLANE('',#686);
#188=PLANE('',#687);
#189=PLANE('',#688);
#190=PLANE('',#689);
#191=PLANE('',#690);
#192=PLANE('',#691);
#193=PLANE('',#692);
#194=PLANE('',#693);
#195=PLANE('',#694);
#196=PLANE('',#695);
#197=PLANE('',#696);
#198=PLANE('',#697);
#199=PLANE('',#698);
#200=PLANE('',#699);
#201=PLANE('',#700);
#202=PLANE('',#701);
#203=PLANE('',#702);
#204=PLANE('',#703);
#205=PLANE('',#704);
#206=PLANE('',#705);
#207=PLANE('',#706);
#208=PLANE('',#707);
#209=FACE_BOUND('',#258,.T.);
#210=FACE_BOUND('',#260,.T.);
#211=FACE_BOUND('',#263,.T.);
#212=FACE_BOUND('',#264,.T.);
#213=FACE_BOUND('',#267,.T.);
#214=FACE_BOUND('',#268,.T.);
#215=FACE_BOUND('',#272,.T.);
#216=FACE_BOUND('',#276,.T.);
#217=FACE_OUTER_BOUND('',#257,.T.);
#218=FACE_OUTER_BOUND('',#259,.T.);
#219=FACE_OUTER_BOUND('',#261,.T.);
#220=FACE_OUTER_BOUND('',#262,.T.);
#221=FACE_OUTER_BOUND('',#265,.T.);
#222=FACE_OUTER_BOUND('',#266,.T.);
#223=FACE_OUTER_BOUND('',#269,.T.);
#224=FACE_OUTER_BOUND('',#270,.T.);
#225=FACE_OUTER_BOUND('',#271,.T.);
#226=FACE_OUTER_BOUND('',#273,.T.);
#227=FACE_OUTER_BOUND('',#274,.T.);
#228=FACE_OUTER_BOUND('',#275,.T.);
#229=FACE_OUTER_BOUND('',#277,.T.);
#230=FACE_OUTER_BOUND('',#278,.T.);
#231=FACE_OUTER_BOUND('',#279,.T.);
#232=FACE_OUTER_BOUND('',#280,.T.);
#233=FACE_OUTER_BOUND('',#281,.T.);
#234=FACE_OUTER_BOUND('',#282,.T.);
#235=FACE_OUTER_BOUND('',#283,.T.);
#236=FACE_OUTER_BOUND('',#284,.T.);
#237=FACE_OUTER_BOUND('',#285,.T.);
#238=FACE_OUTER_BOUND('',#286,.T.);
#239=FACE_OUTER_BOUND('',#287,.T.);
#240=FACE_OUTER_BOUND('',#288,.T.);
#241=FACE_OUTER_BOUND('',#289,.T.);
#242=FACE_OUTER_BOUND('',#290,.T.);
#243=FACE_OUTER_BOUND('',#291,.T.);
#244=FACE_OUTER_BOUND('',#292,.T.);
#245=FACE_OUTER_BOUND('',#293,.T.);
#246=FACE_OUTER_BOUND('',#294,.T.);
#247=FACE_OUTER_BOUND('',#295,.T.);
#248=FACE_OUTER_BOUND('',#296,.T.);
#249=FACE_OUTER_BOUND('',#297,.T.);
#250=FACE_OUTER_BOUND('',#298,.T.);
#251=FACE_OUTER_BOUND('',#299,.T.);
#252=FACE_OUTER_BOUND('',#300,.T.);
#253=FACE_OUTER_BOUND('',#301,.T.);
#254=FACE_OUTER_BOUND('',#302,.T.);
#255=FACE_OUTER_BOUND('',#303,.T.);
#256=FACE_OUTER_BOUND('',#304,.T.);
#257=EDGE_LOOP('',(#449));
#258=EDGE_LOOP('',(#450));
#259=EDGE_LOOP('',(#451));
#260=EDGE_LOOP('',(#452));
#261=EDGE_LOOP('',(#453,#454,#455,#456));
#262=EDGE_LOOP('',(#457,#458,#459,#460));
#263=EDGE_LOOP('',(#461));
#264=EDGE_LOOP('',(#462));
#265=EDGE_LOOP('',(#463,#464,#465,#466));
#266=EDGE_LOOP('',(#467,#468,#469,#470));
#267=EDGE_LOOP('',(#471));
#268=EDGE_LOOP('',(#472));
#269=EDGE_LOOP('',(#473,#474,#475,#476));
#270=EDGE_LOOP('',(#477,#478,#479,#480));
#271=EDGE_LOOP('',(#481));
#272=EDGE_LOOP('',(#482));
#273=EDGE_LOOP('',(#483));
#274=EDGE_LOOP('',(#484));
#275=EDGE_LOOP('',(#485));
#276=EDGE_LOOP('',(#486));
#277=EDGE_LOOP('',(#487));
#278=EDGE_LOOP('',(#488));
#279=EDGE_LOOP('',(#489,#490,#491,#492));
#280=EDGE_LOOP('',(#493,#494,#495,#496));
#281=EDGE_LOOP('',(#497,#498,#499,#500));
#282=EDGE_LOOP('',(#501,#502,#503,#504));
#283=EDGE_LOOP('',(#505,#506,#507,#508));
#284=EDGE_LOOP('',(#509,#510,#511,#512));
#285=EDGE_LOOP('',(#513,#514,#515,#516));
#286=EDGE_LOOP('',(#517,#518,#519,#520));
#287=EDGE_LOOP('',(#521,#522,#523,#524));
#288=EDGE_LOOP('',(#525,#526,#527,#528));
#289=EDGE_LOOP('',(#529,#530,#531,#532));
#290=EDGE_LOOP('',(#533,#534,#535,#536));
#291=EDGE_LOOP('',(#537,#538,#539,#540,#541,#542,#543,#544));
#292=EDGE_LOOP('',(#545,#546,#547,#548));
#293=EDGE_LOOP('',(#549,#550,#551,#552,#553,#554,#555,#556));
#294=EDGE_LOOP('',(#557,#558,#559,#560));
#295=EDGE_LOOP('',(#561,#562,#563,#564));
#296=EDGE_LOOP('',(#565,#566,#567,#568));
#297=EDGE_LOOP('',(#569,#570,#571,#572));
#298=EDGE_LOOP('',(#573,#574,#575,#576));
#299=EDGE_LOOP('',(#577,#578,#579,#580));
#300=EDGE_LOOP('',(#581,#582,#583,#584));
#301=EDGE_LOOP('',(#585,#586,#587,#588,#589,#590,#591,#592));
#302=EDGE_LOOP('',(#593,#594,#595,#596));
#303=EDGE_LOOP('',(#597,#598,#599,#600,#601,#602,#603,#604));
#304=EDGE_LOOP('',(#605,#606,#607,#608));
#305=CIRCLE('',#661,1.75);
#306=CIRCLE('',#662,1.75);
#307=CIRCLE('',#664,1.75);
#308=CIRCLE('',#665,1.75);
#309=CIRCLE('',#673,0.5);
#310=CIRCLE('',#674,0.5);
#311=CIRCLE('',#678,0.5);
#312=CIRCLE('',#679,0.5);
#313=VERTEX_POINT('',#880);
#314=VERTEX_POINT('',#882);
#315=VERTEX_POINT('',#885);
#316=VERTEX_POINT('',#887);
#317=VERTEX_POINT('',#890);
#318=VERTEX_POINT('',#891);
#319=VERTEX_POINT('',#893);
#320=VERTEX_POINT('',#895);
#321=VERTEX_POINT('',#899);
#322=VERTEX_POINT('',#901);
#323=VERTEX_POINT('',#905);
#324=VERTEX_POINT('',#907);
#325=VERTEX_POINT('',#916);
#326=VERTEX_POINT('',#918);
#327=VERTEX_POINT('',#923);
#328=VERTEX_POINT('',#925);
#329=VERTEX_POINT('',#930);
#330=VERTEX_POINT('',#931);
#331=VERTEX_POINT('',#933);
#332=VERTEX_POINT('',#935);
#333=VERTEX_POINT('',#939);
#334=VERTEX_POINT('',#941);
#335=VERTEX_POINT('',#945);
#336=VERTEX_POINT('',#947);
#337=VERTEX_POINT('',#956);
#338=VERTEX_POINT('',#957);
#339=VERTEX_POINT('',#959);
#340=VERTEX_POINT('',#961);
#341=VERTEX_POINT('',#965);
#342=VERTEX_POINT('',#966);
#343=VERTEX_POINT('',#968);
#344=VERTEX_POINT('',#970);
#345=VERTEX_POINT('',#974);
#346=VERTEX_POINT('',#976);
#347=VERTEX_POINT('',#980);
#348=VERTEX_POINT('',#982);
#349=VERTEX_POINT('',#989);
#350=VERTEX_POINT('',#990);
#351=VERTEX_POINT('',#995);
#352=VERTEX_POINT('',#999);
#353=VERTEX_POINT('',#1006);
#354=VERTEX_POINT('',#1007);
#355=VERTEX_POINT('',#1009);
#356=VERTEX_POINT('',#1011);
#357=VERTEX_POINT('',#1015);
#358=VERTEX_POINT('',#1016);
#359=VERTEX_POINT('',#1018);
#360=VERTEX_POINT('',#1020);
#361=VERTEX_POINT('',#1024);
#362=VERTEX_POINT('',#1026);
#363=VERTEX_POINT('',#1030);
#364=VERTEX_POINT('',#1032);
#365=VERTEX_POINT('',#1039);
#366=VERTEX_POINT('',#1040);
#367=VERTEX_POINT('',#1045);
#368=VERTEX_POINT('',#1049);
#369=EDGE_CURVE('',#313,#313,#305,.T.);
#370=EDGE_CURVE('',#314,#314,#306,.T.);
#371=EDGE_CURVE('',#315,#315,#307,.T.);
#372=EDGE_CURVE('',#316,#316,#308,.T.);
#373=EDGE_CURVE('',#317,#318,#29,.T.);
#374=EDGE_CURVE('',#319,#318,#30,.T.);
#375=EDGE_CURVE('',#320,#319,#31,.T.);
#376=EDGE_CURVE('',#320,#317,#32,.T.);
#377=EDGE_CURVE('',#318,#321,#33,.T.);
#378=EDGE_CURVE('',#322,#321,#34,.T.);
#379=EDGE_CURVE('',#319,#322,#35,.T.);
#380=EDGE_CURVE('',#321,#323,#36,.T.);
#381=EDGE_CURVE('',#324,#323,#37,.T.);
#382=EDGE_CURVE('',#322,#324,#38,.T.);
#383=EDGE_CURVE('',#323,#317,#39,.T.);
#384=EDGE_CURVE('',#324,#320,#40,.T.);
#385=EDGE_CURVE('',#325,#325,#309,.T.);
#386=EDGE_CURVE('',#326,#326,#310,.T.);
#387=EDGE_CURVE('',#327,#327,#311,.T.);
#388=EDGE_CURVE('',#328,#328,#312,.T.);
#389=EDGE_CURVE('',#329,#330,#41,.T.);
#390=EDGE_CURVE('',#330,#331,#42,.T.);
#391=EDGE_CURVE('',#331,#332,#43,.T.);
#392=EDGE_CURVE('',#332,#329,#44,.T.);
#393=EDGE_CURVE('',#332,#333,#45,.T.);
#394=EDGE_CURVE('',#333,#334,#46,.T.);
#395=EDGE_CURVE('',#334,#329,#47,.T.);
#396=EDGE_CURVE('',#330,#335,#48,.T.);
#397=EDGE_CURVE('',#335,#336,#49,.T.);
#398=EDGE_CURVE('',#331,#336,#50,.T.);
#399=EDGE_CURVE('',#336,#333,#51,.T.);
#400=EDGE_CURVE('',#335,#334,#52,.T.);
#401=EDGE_CURVE('',#337,#338,#53,.T.);
#402=EDGE_CURVE('',#338,#339,#54,.T.);
#403=EDGE_CURVE('',#339,#340,#55,.T.);
#404=EDGE_CURVE('',#340,#337,#56,.T.);
#405=EDGE_CURVE('',#341,#342,#57,.T.);
#406=EDGE_CURVE('',#342,#343,#58,.T.);
#407=EDGE_CURVE('',#343,#344,#59,.T.);
#408=EDGE_CURVE('',#344,#341,#60,.T.);
#409=EDGE_CURVE('',#343,#345,#61,.T.);
#410=EDGE_CURVE('',#346,#345,#62,.T.);
#411=EDGE_CURVE('',#344,#346,#63,.T.);
#412=EDGE_CURVE('',#339,#347,#64,.T.);
#413=EDGE_CURVE('',#348,#347,#65,.T.);
#414=EDGE_CURVE('',#340,#348,#66,.T.);
#415=EDGE_CURVE('',#345,#348,#67,.T.);
#416=EDGE_CURVE('',#347,#346,#68,.T.);
#417=EDGE_CURVE('',#349,#350,#69,.T.);
#418=EDGE_CURVE('',#349,#342,#70,.T.);
#419=EDGE_CURVE('',#350,#341,#71,.T.);
#420=EDGE_CURVE('',#350,#351,#72,.T.);
#421=EDGE_CURVE('',#351,#338,#73,.T.);
#422=EDGE_CURVE('',#351,#352,#74,.T.);
#423=EDGE_CURVE('',#352,#337,#75,.T.);
#424=EDGE_CURVE('',#352,#349,#76,.T.);
#425=EDGE_CURVE('',#353,#354,#77,.T.);
#426=EDGE_CURVE('',#354,#355,#78,.T.);
#427=EDGE_CURVE('',#355,#356,#79,.T.);
#428=EDGE_CURVE('',#356,#353,#80,.T.);
#429=EDGE_CURVE('',#357,#358,#81,.T.);
#430=EDGE_CURVE('',#358,#359,#82,.T.);
#431=EDGE_CURVE('',#359,#360,#83,.T.);
#432=EDGE_CURVE('',#360,#357,#84,.T.);
#433=EDGE_CURVE('',#359,#361,#85,.T.);
#434=EDGE_CURVE('',#362,#361,#86,.T.);
#435=EDGE_CURVE('',#360,#362,#87,.T.);
#436=EDGE_CURVE('',#355,#363,#88,.T.);
#437=EDGE_CURVE('',#364,#363,#89,.T.);
#438=EDGE_CURVE('',#356,#364,#90,.T.);
#439=EDGE_CURVE('',#361,#364,#91,.T.);
#440=EDGE_CURVE('',#363,#362,#92,.T.);
#441=EDGE_CURVE('',#365,#366,#93,.T.);
#442=EDGE_CURVE('',#365,#358,#94,.T.);
#443=EDGE_CURVE('',#366,#357,#95,.T.);
#444=EDGE_CURVE('',#366,#367,#96,.T.);
#445=EDGE_CURVE('',#367,#354,#97,.T.);
#446=EDGE_CURVE('',#367,#368,#98,.T.);
#447=EDGE_CURVE('',#368,#353,#99,.T.);
#448=EDGE_CURVE('',#368,#365,#100,.T.);
#449=ORIENTED_EDGE('',*,*,#369,.F.);
#450=ORIENTED_EDGE('',*,*,#370,.F.);
#451=ORIENTED_EDGE('',*,*,#371,.F.);
#452=ORIENTED_EDGE('',*,*,#372,.F.);
#453=ORIENTED_EDGE('',*,*,#373,.T.);
#454=ORIENTED_EDGE('',*,*,#374,.F.);
#455=ORIENTED_EDGE('',*,*,#375,.F.);
#456=ORIENTED_EDGE('',*,*,#376,.T.);
#457=ORIENTED_EDGE('',*,*,#377,.T.);
#458=ORIENTED_EDGE('',*,*,#378,.F.);
#459=ORIENTED_EDGE('',*,*,#379,.F.);
#460=ORIENTED_EDGE('',*,*,#374,.T.);
#461=ORIENTED_EDGE('',*,*,#369,.T.);
#462=ORIENTED_EDGE('',*,*,#371,.T.);
#463=ORIENTED_EDGE('',*,*,#380,.T.);
#464=ORIENTED_EDGE('',*,*,#381,.F.);
#465=ORIENTED_EDGE('',*,*,#382,.F.);
#466=ORIENTED_EDGE('',*,*,#378,.T.);
#467=ORIENTED_EDGE('',*,*,#383,.T.);
#468=ORIENTED_EDGE('',*,*,#376,.F.);
#469=ORIENTED_EDGE('',*,*,#384,.F.);
#470=ORIENTED_EDGE('',*,*,#381,.T.);
#471=ORIENTED_EDGE('',*,*,#370,.T.);
#472=ORIENTED_EDGE('',*,*,#372,.T.);
#473=ORIENTED_EDGE('',*,*,#373,.F.);
#474=ORIENTED_EDGE('',*,*,#383,.F.);
#475=ORIENTED_EDGE('',*,*,#380,.F.);
#476=ORIENTED_EDGE('',*,*,#377,.F.);
#477=ORIENTED_EDGE('',*,*,#384,.T.);
#478=ORIENTED_EDGE('',*,*,#375,.T.);
#479=ORIENTED_EDGE('',*,*,#379,.T.);
#480=ORIENTED_EDGE('',*,*,#382,.T.);
#481=ORIENTED_EDGE('',*,*,#385,.F.);
#482=ORIENTED_EDGE('',*,*,#386,.F.);
#483=ORIENTED_EDGE('',*,*,#386,.T.);
#484=ORIENTED_EDGE('',*,*,#385,.T.);
#485=ORIENTED_EDGE('',*,*,#387,.F.);
#486=ORIENTED_EDGE('',*,*,#388,.F.);
#487=ORIENTED_EDGE('',*,*,#388,.T.);
#488=ORIENTED_EDGE('',*,*,#387,.T.);
#489=ORIENTED_EDGE('',*,*,#389,.T.);
#490=ORIENTED_EDGE('',*,*,#390,.T.);
#491=ORIENTED_EDGE('',*,*,#391,.T.);
#492=ORIENTED_EDGE('',*,*,#392,.T.);
#493=ORIENTED_EDGE('',*,*,#393,.T.);
#494=ORIENTED_EDGE('',*,*,#394,.T.);
#495=ORIENTED_EDGE('',*,*,#395,.T.);
#496=ORIENTED_EDGE('',*,*,#392,.F.);
#497=ORIENTED_EDGE('',*,*,#396,.T.);
#498=ORIENTED_EDGE('',*,*,#397,.T.);
#499=ORIENTED_EDGE('',*,*,#398,.F.);
#500=ORIENTED_EDGE('',*,*,#390,.F.);
#501=ORIENTED_EDGE('',*,*,#399,.F.);
#502=ORIENTED_EDGE('',*,*,#397,.F.);
#503=ORIENTED_EDGE('',*,*,#400,.T.);
#504=ORIENTED_EDGE('',*,*,#394,.F.);
#505=ORIENTED_EDGE('',*,*,#389,.F.);
#506=ORIENTED_EDGE('',*,*,#395,.F.);
#507=ORIENTED_EDGE('',*,*,#400,.F.);
#508=ORIENTED_EDGE('',*,*,#396,.F.);
#509=ORIENTED_EDGE('',*,*,#399,.T.);
#510=ORIENTED_EDGE('',*,*,#393,.F.);
#511=ORIENTED_EDGE('',*,*,#391,.F.);
#512=ORIENTED_EDGE('',*,*,#398,.T.);
#513=ORIENTED_EDGE('',*,*,#401,.T.);
#514=ORIENTED_EDGE('',*,*,#402,.T.);
#515=ORIENTED_EDGE('',*,*,#403,.T.);
#516=ORIENTED_EDGE('',*,*,#404,.T.);
#517=ORIENTED_EDGE('',*,*,#405,.T.);
#518=ORIENTED_EDGE('',*,*,#406,.T.);
#519=ORIENTED_EDGE('',*,*,#407,.T.);
#520=ORIENTED_EDGE('',*,*,#408,.T.);
#521=ORIENTED_EDGE('',*,*,#407,.F.);
#522=ORIENTED_EDGE('',*,*,#409,.T.);
#523=ORIENTED_EDGE('',*,*,#410,.F.);
#524=ORIENTED_EDGE('',*,*,#411,.F.);
#525=ORIENTED_EDGE('',*,*,#403,.F.);
#526=ORIENTED_EDGE('',*,*,#412,.T.);
#527=ORIENTED_EDGE('',*,*,#413,.F.);
#528=ORIENTED_EDGE('',*,*,#414,.F.);
#529=ORIENTED_EDGE('',*,*,#415,.T.);
#530=ORIENTED_EDGE('',*,*,#413,.T.);
#531=ORIENTED_EDGE('',*,*,#416,.T.);
#532=ORIENTED_EDGE('',*,*,#410,.T.);
#533=ORIENTED_EDGE('',*,*,#417,.F.);
#534=ORIENTED_EDGE('',*,*,#418,.T.);
#535=ORIENTED_EDGE('',*,*,#405,.F.);
#536=ORIENTED_EDGE('',*,*,#419,.F.);
#537=ORIENTED_EDGE('',*,*,#420,.F.);
#538=ORIENTED_EDGE('',*,*,#419,.T.);
#539=ORIENTED_EDGE('',*,*,#408,.F.);
#540=ORIENTED_EDGE('',*,*,#411,.T.);
#541=ORIENTED_EDGE('',*,*,#416,.F.);
#542=ORIENTED_EDGE('',*,*,#412,.F.);
#543=ORIENTED_EDGE('',*,*,#402,.F.);
#544=ORIENTED_EDGE('',*,*,#421,.F.);
#545=ORIENTED_EDGE('',*,*,#422,.F.);
#546=ORIENTED_EDGE('',*,*,#421,.T.);
#547=ORIENTED_EDGE('',*,*,#401,.F.);
#548=ORIENTED_EDGE('',*,*,#423,.F.);
#549=ORIENTED_EDGE('',*,*,#424,.F.);
#550=ORIENTED_EDGE('',*,*,#423,.T.);
#551=ORIENTED_EDGE('',*,*,#404,.F.);
#552=ORIENTED_EDGE('',*,*,#414,.T.);
#553=ORIENTED_EDGE('',*,*,#415,.F.);
#554=ORIENTED_EDGE('',*,*,#409,.F.);
#555=ORIENTED_EDGE('',*,*,#406,.F.);
#556=ORIENTED_EDGE('',*,*,#418,.F.);
#557=ORIENTED_EDGE('',*,*,#424,.T.);
#558=ORIENTED_EDGE('',*,*,#417,.T.);
#559=ORIENTED_EDGE('',*,*,#420,.T.);
#560=ORIENTED_EDGE('',*,*,#422,.T.);
#561=ORIENTED_EDGE('',*,*,#425,.T.);
#562=ORIENTED_EDGE('',*,*,#426,.T.);
#563=ORIENTED_EDGE('',*,*,#427,.T.);
#564=ORIENTED_EDGE('',*,*,#428,.T.);
#565=ORIENTED_EDGE('',*,*,#429,.T.);
#566=ORIENTED_EDGE('',*,*,#430,.T.);
#567=ORIENTED_EDGE('',*,*,#431,.T.);
#568=ORIENTED_EDGE('',*,*,#432,.T.);
#569=ORIENTED_EDGE('',*,*,#431,.F.);
#570=ORIENTED_EDGE('',*,*,#433,.T.);
#571=ORIENTED_EDGE('',*,*,#434,.F.);
#572=ORIENTED_EDGE('',*,*,#435,.F.);
#573=ORIENTED_EDGE('',*,*,#427,.F.);
#574=ORIENTED_EDGE('',*,*,#436,.T.);
#575=ORIENTED_EDGE('',*,*,#437,.F.);
#576=ORIENTED_EDGE('',*,*,#438,.F.);
#577=ORIENTED_EDGE('',*,*,#439,.T.);
#578=ORIENTED_EDGE('',*,*,#437,.T.);
#579=ORIENTED_EDGE('',*,*,#440,.T.);
#580=ORIENTED_EDGE('',*,*,#434,.T.);
#581=ORIENTED_EDGE('',*,*,#441,.F.);
#582=ORIENTED_EDGE('',*,*,#442,.T.);
#583=ORIENTED_EDGE('',*,*,#429,.F.);
#584=ORIENTED_EDGE('',*,*,#443,.F.);
#585=ORIENTED_EDGE('',*,*,#444,.F.);
#586=ORIENTED_EDGE('',*,*,#443,.T.);
#587=ORIENTED_EDGE('',*,*,#432,.F.);
#588=ORIENTED_EDGE('',*,*,#435,.T.);
#589=ORIENTED_EDGE('',*,*,#440,.F.);
#590=ORIENTED_EDGE('',*,*,#436,.F.);
#591=ORIENTED_EDGE('',*,*,#426,.F.);
#592=ORIENTED_EDGE('',*,*,#445,.F.);
#593=ORIENTED_EDGE('',*,*,#446,.F.);
#594=ORIENTED_EDGE('',*,*,#445,.T.);
#595=ORIENTED_EDGE('',*,*,#425,.F.);
#596=ORIENTED_EDGE('',*,*,#447,.F.);
#597=ORIENTED_EDGE('',*,*,#448,.F.);
#598=ORIENTED_EDGE('',*,*,#447,.T.);
#599=ORIENTED_EDGE('',*,*,#428,.F.);
#600=ORIENTED_EDGE('',*,*,#438,.T.);
#601=ORIENTED_EDGE('',*,*,#439,.F.);
#602=ORIENTED_EDGE('',*,*,#433,.F.);
#603=ORIENTED_EDGE('',*,*,#430,.F.);
#604=ORIENTED_EDGE('',*,*,#442,.F.);
#605=ORIENTED_EDGE('',*,*,#448,.T.);
#606=ORIENTED_EDGE('',*,*,#441,.T.);
#607=ORIENTED_EDGE('',*,*,#444,.T.);
#608=ORIENTED_EDGE('',*,*,#446,.T.);
#609=CYLINDRICAL_SURFACE('',#660,1.75);
#610=CYLINDRICAL_SURFACE('',#663,1.75);
#611=CYLINDRICAL_SURFACE('',#672,0.5);
#612=CYLINDRICAL_SURFACE('',#677,0.5);
#613=ADVANCED_FACE('',(#217,#209),#609,.F.);
#614=ADVANCED_FACE('',(#218,#210),#610,.F.);
#615=ADVANCED_FACE('',(#219),#173,.T.);
#616=ADVANCED_FACE('',(#220,#211,#212),#174,.T.);
#617=ADVANCED_FACE('',(#221),#175,.T.);
#618=ADVANCED_FACE('',(#222,#213,#214),#176,.T.);
#619=ADVANCED_FACE('',(#223),#177,.T.);
#620=ADVANCED_FACE('',(#224),#178,.F.);
#621=ADVANCED_FACE('',(#225,#215),#611,.T.);
#622=ADVANCED_FACE('',(#226),#179,.T.);
#623=ADVANCED_FACE('',(#227),#180,.F.);
#624=ADVANCED_FACE('',(#228,#216),#612,.T.);
#625=ADVANCED_FACE('',(#229),#181,.T.);
#626=ADVANCED_FACE('',(#230),#182,.F.);
#627=ADVANCED_FACE('',(#231),#183,.T.);
#628=ADVANCED_FACE('',(#232),#184,.T.);
#629=ADVANCED_FACE('',(#233),#185,.T.);
#630=ADVANCED_FACE('',(#234),#186,.T.);
#631=ADVANCED_FACE('',(#235),#187,.T.);
#632=ADVANCED_FACE('',(#236),#188,.T.);
#633=ADVANCED_FACE('',(#237),#189,.F.);
#634=ADVANCED_FACE('',(#238),#190,.F.);
#635=ADVANCED_FACE('',(#239),#191,.T.);
#636=ADVANCED_FACE('',(#240),#192,.T.);
#637=ADVANCED_FACE('',(#241),#193,.T.);
#638=ADVANCED_FACE('',(#242),#194,.T.);
#639=ADVANCED_FACE('',(#243),#195,.T.);
#640=ADVANCED_FACE('',(#244),#196,.T.);
#641=ADVANCED_FACE('',(#245),#197,.T.);
#642=ADVANCED_FACE('',(#246),#198,.F.);
#643=ADVANCED_FACE('',(#247),#199,.F.);
#644=ADVANCED_FACE('',(#248),#200,.F.);
#645=ADVANCED_FACE('',(#249),#201,.T.);
#646=ADVANCED_FACE('',(#250),#202,.T.);
#647=ADVANCED_FACE('',(#251),#203,.T.);
#648=ADVANCED_FACE('',(#252),#204,.T.);
#649=ADVANCED_FACE('',(#253),#205,.T.);
#650=ADVANCED_FACE('',(#254),#206,.T.);
#651=ADVANCED_FACE('',(#255),#207,.T.);
#652=ADVANCED_FACE('',(#256),#208,.F.);
#653=CLOSED_SHELL('',(#613,#614,#615,#616,#617,#618,#619,#620));
#654=CLOSED_SHELL('',(#621,#622,#623));
#655=CLOSED_SHELL('',(#624,#625,#626));
#656=CLOSED_SHELL('',(#627,#628,#629,#630,#631,#632));
#657=CLOSED_SHELL('',(#633,#634,#635,#636,#637,#638,#639,#640,#641,#642));
#658=CLOSED_SHELL('',(#643,#644,#645,#646,#647,#648,#649,#650,#651,#652));
#659=AXIS2_PLACEMENT_3D('placement',#878,#708,#709);
#660=AXIS2_PLACEMENT_3D('',#879,#710,#711);
#661=AXIS2_PLACEMENT_3D('',#881,#712,#713);
#662=AXIS2_PLACEMENT_3D('',#883,#714,#715);
#663=AXIS2_PLACEMENT_3D('',#884,#716,#717);
#664=AXIS2_PLACEMENT_3D('',#886,#718,#719);
#665=AXIS2_PLACEMENT_3D('',#888,#720,#721);
#666=AXIS2_PLACEMENT_3D('',#889,#722,#723);
#667=AXIS2_PLACEMENT_3D('',#898,#728,#729);
#668=AXIS2_PLACEMENT_3D('',#904,#733,#734);
#669=AXIS2_PLACEMENT_3D('',#910,#738,#739);
#670=AXIS2_PLACEMENT_3D('',#913,#742,#743);
#671=AXIS2_PLACEMENT_3D('',#914,#744,#745);
#672=AXIS2_PLACEMENT_3D('',#915,#746,#747);
#673=AXIS2_PLACEMENT_3D('',#917,#748,#749);
#674=AXIS2_PLACEMENT_3D('',#919,#750,#751);
#675=AXIS2_PLACEMENT_3D('',#920,#752,#753);
#676=AXIS2_PLACEMENT_3D('',#921,#754,#755);
#677=AXIS2_PLACEMENT_3D('',#922,#756,#757);
#678=AXIS2_PLACEMENT_3D('',#924,#758,#759);
#679=AXIS2_PLACEMENT_3D('',#926,#760,#761);
#680=AXIS2_PLACEMENT_3D('',#927,#762,#763);
#681=AXIS2_PLACEMENT_3D('',#928,#764,#765);
#682=AXIS2_PLACEMENT_3D('',#929,#766,#767);
#683=AXIS2_PLACEMENT_3D('',#938,#772,#773);
#684=AXIS2_PLACEMENT_3D('',#944,#777,#778);
#685=AXIS2_PLACEMENT_3D('',#950,#782,#783);
#686=AXIS2_PLACEMENT_3D('',#953,#786,#787);
#687=AXIS2_PLACEMENT_3D('',#954,#788,#789);
#688=AXIS2_PLACEMENT_3D('',#955,#790,#791);
#689=AXIS2_PLACEMENT_3D('',#964,#796,#797);
#690=AXIS2_PLACEMENT_3D('',#973,#802,#803);
#691=AXIS2_PLACEMENT_3D('',#979,#807,#808);
#692=AXIS2_PLACEMENT_3D('',#985,#812,#813);
#693=AXIS2_PLACEMENT_3D('',#988,#816,#817);
#694=AXIS2_PLACEMENT_3D('',#994,#821,#822);
#695=AXIS2_PLACEMENT_3D('',#998,#825,#826);
#696=AXIS2_PLACEMENT_3D('',#1002,#829,#830);
#697=AXIS2_PLACEMENT_3D('',#1004,#832,#833);
#698=AXIS2_PLACEMENT_3D('',#1005,#834,#835);
#699=AXIS2_PLACEMENT_3D('',#1014,#840,#841);
#700=AXIS2_PLACEMENT_3D('',#1023,#846,#847);
#701=AXIS2_PLACEMENT_3D('',#1029,#851,#852);
#702=AXIS2_PLACEMENT_3D('',#1035,#856,#857);
#703=AXIS2_PLACEMENT_3D('',#1038,#860,#861);
#704=AXIS2_PLACEMENT_3D('',#1044,#865,#866);
#705=AXIS2_PLACEMENT_3D('',#1048,#869,#870);
#706=AXIS2_PLACEMENT_3D('',#1052,#873,#874);
#707=AXIS2_PLACEMENT_3D('',#1054,#876,#877);
#708=DIRECTION('axis',(0.,0.,1.));
#709=DIRECTION('refdir',(1.,0.,0.));
#710=DIRECTION('center_axis',(0.,1.,0.));
#711=DIRECTION('ref_axis',(1.,0.,0.));
#712=DIRECTION('center_axis',(0.,-1.,0.));
#713=DIRECTION('ref_axis',(1.,0.,0.));
#714=DIRECTION('center_axis',(0.,1.,0.));
#715=DIRECTION('ref_axis',(1.,0.,0.));
#716=DIRECTION('center_axis',(0.,1.,0.));
#717=DIRECTION('ref_axis',(1.,0.,0.));
#718=DIRECTION('center_axis',(0.,-1.,0.));
#719=DIRECTION('ref_axis',(1.,0.,0.));
#720=DIRECTION('center_axis',(0.,1.,0.));
#721=DIRECTION('ref_axis',(1.,0.,0.));
#722=DIRECTION('center_axis',(-1.,0.,0.));
#723=DIRECTION('ref_axis',(0.,0.,1.));
#724=DIRECTION('',(0.,1.,0.));
#725=DIRECTION('',(0.,0.,1.));
#726=DIRECTION('',(0.,1.,0.));
#727=DIRECTION('',(0.,0.,1.));
#728=DIRECTION('center_axis',(0.,1.,0.));
#729=DIRECTION('ref_axis',(0.,0.,1.));
#730=DIRECTION('',(1.,0.,0.));
#731=DIRECTION('',(0.,0.,1.));
#732=DIRECTION('',(1.,0.,0.));
#733=DIRECTION('center_axis',(1.,0.,0.));
#734=DIRECTION('ref_axis',(0.,0.,-1.));
#735=DIRECTION('',(0.,-1.,0.));
#736=DIRECTION('',(0.,0.,1.));
#737=DIRECTION('',(0.,-1.,0.));
#738=DIRECTION('center_axis',(0.,-1.,0.));
#739=DIRECTION('ref_axis',(0.,0.,-1.));
#740=DIRECTION('',(-1.,0.,0.));
#741=DIRECTION('',(-1.,0.,0.));
#742=DIRECTION('center_axis',(0.,0.,1.));
#743=DIRECTION('ref_axis',(1.,0.,0.));
#744=DIRECTION('center_axis',(0.,0.,1.));
#745=DIRECTION('ref_axis',(1.,0.,0.));
#746=DIRECTION('center_axis',(0.,0.,-1.));
#747=DIRECTION('ref_axis',(-1.,0.,0.));
#748=DIRECTION('center_axis',(0.,0.,-1.));
#749=DIRECTION('ref_axis',(-1.,0.,0.));
#750=DIRECTION('center_axis',(0.,0.,1.));
#751=DIRECTION('ref_axis',(-1.,0.,0.));
#752=DIRECTION('center_axis',(0.,0.,1.));
#753=DIRECTION('ref_axis',(1.,0.,0.));
#754=DIRECTION('center_axis',(0.,0.,1.));
#755=DIRECTION('ref_axis',(1.,0.,0.));
#756=DIRECTION('center_axis',(0.,0.,-1.));
#757=DIRECTION('ref_axis',(-1.,0.,0.));
#758=DIRECTION('center_axis',(0.,0.,-1.));
#759=DIRECTION('ref_axis',(-1.,0.,0.));
#760=DIRECTION('center_axis',(0.,0.,1.));
#761=DIRECTION('ref_axis',(-1.,0.,0.));
#762=DIRECTION('center_axis',(0.,0.,1.));
#763=DIRECTION('ref_axis',(1.,0.,0.));
#764=DIRECTION('center_axis',(0.,0.,1.));
#765=DIRECTION('ref_axis',(1.,0.,0.));
#766=DIRECTION('center_axis',(-1.57495267411031E-32,-0.0637677168090711,
-0.997964768061958));
#767=DIRECTION('ref_axis',(-1.,0.,0.));
#768=DIRECTION('',(-1.,7.39557098644699E-32,1.1056041586998E-32));
#769=DIRECTION('',(-0.0636384608474709,0.995941912262924,-0.0636384608474714));
#770=DIRECTION('',(1.,-7.39557098644699E-32,-1.1056041586998E-32));
#771=DIRECTION('',(-0.063638460847472,-0.995941912262924,0.0636384608474714));
#772=DIRECTION('center_axis',(0.997964768061958,-0.0637677168090717,1.5618070234627E-17));
#773=DIRECTION('ref_axis',(0.,0.,-1.));
#774=DIRECTION('',(1.1056041586998E-32,2.44921270764475E-16,1.));
#775=DIRECTION('',(-0.063638460847472,-0.995941912262924,-0.0636384608474709));
#776=DIRECTION('',(-1.1056041586998E-32,-2.44921270764475E-16,-1.));
#777=DIRECTION('center_axis',(-0.997964768061958,-0.0637677168090706,1.56180702346268E-17));
#778=DIRECTION('ref_axis',(0.,0.,1.));
#779=DIRECTION('',(1.1056041586998E-32,2.44921270764475E-16,1.));
#780=DIRECTION('',(-0.0636384608474709,0.995941912262924,0.0636384608474709));
#781=DIRECTION('',(1.1056041586998E-32,2.44921270764475E-16,1.));
#782=DIRECTION('center_axis',(6.31755321500049E-33,-0.0637677168090705,
0.997964768061958));
#783=DIRECTION('ref_axis',(1.,0.,0.));
#784=DIRECTION('',(1.,-7.39557098644699E-32,-1.1056041586998E-32));
#785=DIRECTION('',(1.,-7.39557098644699E-32,-1.1056041586998E-32));
#786=DIRECTION('center_axis',(-7.39557098644699E-32,-1.,2.44921270764475E-16));
#787=DIRECTION('ref_axis',(0.,-2.22044604925031E-16,-1.));
#788=DIRECTION('center_axis',(7.39557098644699E-32,1.,-2.44921270764475E-16));
#789=DIRECTION('ref_axis',(0.,2.22044604925031E-16,1.));
#790=DIRECTION('center_axis',(0.,0.,1.));
#791=DIRECTION('ref_axis',(1.,0.,0.));
#792=DIRECTION('',(0.,1.,0.));
#793=DIRECTION('',(1.,0.,0.));
#794=DIRECTION('',(0.,-1.,0.));
#795=DIRECTION('',(-1.,0.,0.));
#796=DIRECTION('center_axis',(0.,0.,1.));
#797=DIRECTION('ref_axis',(1.,0.,0.));
#798=DIRECTION('',(0.,-1.,0.));
#799=DIRECTION('',(-1.,0.,0.));
#800=DIRECTION('',(0.,1.,0.));
#801=DIRECTION('',(1.,0.,0.));
#802=DIRECTION('center_axis',(-1.,0.,0.));
#803=DIRECTION('ref_axis',(0.,-1.,0.));
#804=DIRECTION('',(0.,0.,1.));
#805=DIRECTION('',(0.,-1.,0.));
#806=DIRECTION('',(0.,0.,1.));
#807=DIRECTION('center_axis',(1.,0.,0.));
#808=DIRECTION('ref_axis',(0.,1.,0.));
#809=DIRECTION('',(0.,0.,1.));
#810=DIRECTION('',(0.,1.,0.));
#811=DIRECTION('',(0.,0.,1.));
#812=DIRECTION('center_axis',(0.,0.,1.));
#813=DIRECTION('ref_axis',(1.,0.,0.));
#814=DIRECTION('',(1.,0.,0.));
#815=DIRECTION('',(-1.,0.,0.));
#816=DIRECTION('center_axis',(-1.,0.,0.));
#817=DIRECTION('ref_axis',(0.,-1.,0.));
#818=DIRECTION('',(0.,1.,0.));
#819=DIRECTION('',(0.,0.,1.));
#820=DIRECTION('',(0.,0.,1.));
#821=DIRECTION('center_axis',(0.,1.,0.));
#822=DIRECTION('ref_axis',(-1.,0.,0.));
#823=DIRECTION('',(1.,0.,0.));
#824=DIRECTION('',(0.,0.,1.));
#825=DIRECTION('center_axis',(1.,0.,0.));
#826=DIRECTION('ref_axis',(0.,1.,0.));
#827=DIRECTION('',(0.,-1.,0.));
#828=DIRECTION('',(0.,0.,1.));
#829=DIRECTION('center_axis',(0.,-1.,0.));
#830=DIRECTION('ref_axis',(1.,0.,0.));
#831=DIRECTION('',(-1.,0.,0.));
#832=DIRECTION('center_axis',(0.,0.,1.));
#833=DIRECTION('ref_axis',(1.,0.,0.));
#834=DIRECTION('center_axis',(0.,0.,1.));
#835=DIRECTION('ref_axis',(1.,0.,0.));
#836=DIRECTION('',(0.,1.,0.));
#837=DIRECTION('',(1.,0.,0.));
#838=DIRECTION('',(0.,-1.,0.));
#839=DIRECTION('',(-1.,0.,0.));
#840=DIRECTION('center_axis',(0.,0.,1.));
#841=DIRECTION('ref_axis',(1.,0.,0.));
#842=DIRECTION('',(0.,-1.,0.));
#843=DIRECTION('',(-1.,0.,0.));
#844=DIRECTION('',(0.,1.,0.));
#845=DIRECTION('',(1.,0.,0.));
#846=DIRECTION('center_axis',(-1.,0.,0.));
#847=DIRECTION('ref_axis',(0.,-1.,0.));
#848=DIRECTION('',(0.,0.,1.));
#849=DIRECTION('',(0.,-1.,0.));
#850=DIRECTION('',(0.,0.,1.));
#851=DIRECTION('center_axis',(1.,0.,0.));
#852=DIRECTION('ref_axis',(0.,1.,0.));
#853=DIRECTION('',(0.,0.,1.));
#854=DIRECTION('',(0.,1.,0.));
#855=DIRECTION('',(0.,0.,1.));
#856=DIRECTION('center_axis',(0.,0.,1.));
#857=DIRECTION('ref_axis',(1.,0.,0.));
#858=DIRECTION('',(1.,0.,0.));
#859=DIRECTION('',(-1.,0.,0.));
#860=DIRECTION('center_axis',(-1.,0.,0.));
#861=DIRECTION('ref_axis',(0.,-1.,0.));
#862=DIRECTION('',(0.,1.,0.));
#863=DIRECTION('',(0.,0.,1.));
#864=DIRECTION('',(0.,0.,1.));
#865=DIRECTION('center_axis',(0.,1.,0.));
#866=DIRECTION('ref_axis',(-1.,0.,0.));
#867=DIRECTION('',(1.,0.,0.));
#868=DIRECTION('',(0.,0.,1.));
#869=DIRECTION('center_axis',(1.,0.,0.));
#870=DIRECTION('ref_axis',(0.,1.,0.));
#871=DIRECTION('',(0.,-1.,0.));
#872=DIRECTION('',(0.,0.,1.));
#873=DIRECTION('center_axis',(0.,-1.,0.));
#874=DIRECTION('ref_axis',(1.,0.,0.));
#875=DIRECTION('',(-1.,0.,0.));
#876=DIRECTION('center_axis',(0.,0.,1.));
#877=DIRECTION('ref_axis',(1.,0.,0.));
#878=CARTESIAN_POINT('',(0.,0.,0.));
#879=CARTESIAN_POINT('Origin',(-8.9,1.565,22.));
#880=CARTESIAN_POINT('',(-7.15,3.765,22.));
#881=CARTESIAN_POINT('Origin',(-8.9,3.765,22.));
#882=CARTESIAN_POINT('',(-7.15,1.565,22.));
#883=CARTESIAN_POINT('Origin',(-8.9,1.565,22.));
#884=CARTESIAN_POINT('Origin',(8.90000000000001,1.565,22.));
#885=CARTESIAN_POINT('',(10.65,3.765,22.));
#886=CARTESIAN_POINT('Origin',(8.90000000000001,3.765,22.));
#887=CARTESIAN_POINT('',(10.65,1.565,22.));
#888=CARTESIAN_POINT('Origin',(8.90000000000001,1.565,22.));
#889=CARTESIAN_POINT('Origin',(-17.1,1.565,1.));
#890=CARTESIAN_POINT('',(-17.1,1.565,27.));
#891=CARTESIAN_POINT('',(-17.1,3.765,27.));
#892=CARTESIAN_POINT('',(-17.1,1.565,27.));
#893=CARTESIAN_POINT('',(-17.1,3.765,1.));
#894=CARTESIAN_POINT('',(-17.1,3.765,1.));
#895=CARTESIAN_POINT('',(-17.1,1.565,1.));
#896=CARTESIAN_POINT('',(-17.1,1.565,1.));
#897=CARTESIAN_POINT('',(-17.1,1.565,1.));
#898=CARTESIAN_POINT('Origin',(-17.1,3.765,1.));
#899=CARTESIAN_POINT('',(17.1,3.765,27.));
#900=CARTESIAN_POINT('',(-17.1,3.765,27.));
#901=CARTESIAN_POINT('',(17.1,3.765,1.));
#902=CARTESIAN_POINT('',(17.1,3.765,1.));
#903=CARTESIAN_POINT('',(-17.1,3.765,1.));
#904=CARTESIAN_POINT('Origin',(17.1,3.765,1.));
#905=CARTESIAN_POINT('',(17.1,1.565,27.));
#906=CARTESIAN_POINT('',(17.1,3.765,27.));
#907=CARTESIAN_POINT('',(17.1,1.565,1.));
#908=CARTESIAN_POINT('',(17.1,1.565,1.));
#909=CARTESIAN_POINT('',(17.1,3.765,1.));
#910=CARTESIAN_POINT('Origin',(17.1,1.565,1.));
#911=CARTESIAN_POINT('',(17.1,1.565,27.));
#912=CARTESIAN_POINT('',(17.1,1.565,1.));
#913=CARTESIAN_POINT('Origin',(0.,2.665,27.));
#914=CARTESIAN_POINT('Origin',(-3.5527136788005E-15,2.665,1.));
#915=CARTESIAN_POINT('Origin',(-13.75,0.,4.1));
#916=CARTESIAN_POINT('',(-13.25,0.,-4.5));
#917=CARTESIAN_POINT('Origin',(-13.75,0.,-4.5));
#918=CARTESIAN_POINT('',(-13.25,0.,1.));
#919=CARTESIAN_POINT('Origin',(-13.75,0.,1.));
#920=CARTESIAN_POINT('Origin',(-13.75,0.,1.));
#921=CARTESIAN_POINT('Origin',(-13.75,0.,-4.5));
#922=CARTESIAN_POINT('Origin',(13.75,0.,4.1));
#923=CARTESIAN_POINT('',(14.25,0.,-4.5));
#924=CARTESIAN_POINT('Origin',(13.75,0.,-4.5));
#925=CARTESIAN_POINT('',(14.25,0.,1.));
#926=CARTESIAN_POINT('Origin',(13.75,0.,1.));
#927=CARTESIAN_POINT('Origin',(13.75,0.,1.));
#928=CARTESIAN_POINT('Origin',(13.75,0.,-4.5));
#929=CARTESIAN_POINT('Origin',(8.05,-3.5527136788005E-15,1.1));
#930=CARTESIAN_POINT('',(15.9,-1.565,1.2));
#931=CARTESIAN_POINT('',(-15.9,-1.565,1.2));
#932=CARTESIAN_POINT('',(8.05,-1.565,1.2));
#933=CARTESIAN_POINT('',(-16.1,1.565,1.));
#934=CARTESIAN_POINT('',(-15.9,-1.565,1.2));
#935=CARTESIAN_POINT('',(16.1,1.565,1.));
#936=CARTESIAN_POINT('',(-16.1,1.565,1.));
#937=CARTESIAN_POINT('',(16.1,1.565,1.));
#938=CARTESIAN_POINT('Origin',(16.,-3.5527136788005E-15,1.));
#939=CARTESIAN_POINT('',(16.1,1.565,17.));
#940=CARTESIAN_POINT('',(16.1,1.565,1.));
#941=CARTESIAN_POINT('',(15.9,-1.565,16.8));
#942=CARTESIAN_POINT('',(16.1,1.565,17.));
#943=CARTESIAN_POINT('',(15.9,-1.565,1.));
#944=CARTESIAN_POINT('Origin',(-16.,-3.5527136788005E-15,1.));
#945=CARTESIAN_POINT('',(-15.9,-1.565,16.8));
#946=CARTESIAN_POINT('',(-15.9,-1.565,1.));
#947=CARTESIAN_POINT('',(-16.1,1.565,17.));
#948=CARTESIAN_POINT('',(-15.9,-1.565,16.8));
#949=CARTESIAN_POINT('',(-16.1,1.565,1.));
#950=CARTESIAN_POINT('Origin',(8.05,3.5527136788005E-15,16.9));
#951=CARTESIAN_POINT('',(-16.1,1.565,17.));
#952=CARTESIAN_POINT('',(8.05,-1.565,16.8));
#953=CARTESIAN_POINT('Origin',(16.1,-1.565,1.));
#954=CARTESIAN_POINT('Origin',(-16.1,1.565,1.));
#955=CARTESIAN_POINT('Origin',(-8.75,1.77635683940025E-15,0.));
#956=CARTESIAN_POINT('',(-8.25,-0.199999999999999,0.));
#957=CARTESIAN_POINT('',(-8.25,0.200000000000001,0.));
#958=CARTESIAN_POINT('',(-8.25,0.200000000000001,0.));
#959=CARTESIAN_POINT('',(-7.75,0.200000000000001,0.));
#960=CARTESIAN_POINT('',(-9.75,0.200000000000001,0.));
#961=CARTESIAN_POINT('',(-7.75,-0.199999999999999,0.));
#962=CARTESIAN_POINT('',(-7.75,0.200000000000001,0.));
#963=CARTESIAN_POINT('',(-7.75,-0.199999999999999,0.));
#964=CARTESIAN_POINT('Origin',(-8.75,1.77635683940025E-15,0.));
#965=CARTESIAN_POINT('',(-9.25,0.200000000000001,0.));
#966=CARTESIAN_POINT('',(-9.25,-0.199999999999999,0.));
#967=CARTESIAN_POINT('',(-9.25,-0.199999999999999,0.));
#968=CARTESIAN_POINT('',(-9.75,-0.199999999999999,0.));
#969=CARTESIAN_POINT('',(-7.75,-0.199999999999999,0.));
#970=CARTESIAN_POINT('',(-9.75,0.200000000000001,0.));
#971=CARTESIAN_POINT('',(-9.75,-0.199999999999999,0.));
#972=CARTESIAN_POINT('',(-9.75,0.200000000000001,0.));
#973=CARTESIAN_POINT('Origin',(-9.75,0.200000000000001,0.));
#974=CARTESIAN_POINT('',(-9.75,-0.199999999999999,1.));
#975=CARTESIAN_POINT('',(-9.75,-0.199999999999999,0.));
#976=CARTESIAN_POINT('',(-9.75,0.200000000000001,1.));
#977=CARTESIAN_POINT('',(-9.75,-0.199999999999999,1.));
#978=CARTESIAN_POINT('',(-9.75,0.200000000000001,0.));
#979=CARTESIAN_POINT('Origin',(-7.75,-0.199999999999999,0.));
#980=CARTESIAN_POINT('',(-7.75,0.200000000000001,1.));
#981=CARTESIAN_POINT('',(-7.75,0.200000000000001,0.));
#982=CARTESIAN_POINT('',(-7.75,-0.199999999999999,1.));
#983=CARTESIAN_POINT('',(-7.75,0.200000000000001,1.));
#984=CARTESIAN_POINT('',(-7.75,-0.199999999999999,0.));
#985=CARTESIAN_POINT('Origin',(-8.75,1.77635683940025E-15,1.));
#986=CARTESIAN_POINT('',(-7.75,-0.199999999999999,1.));
#987=CARTESIAN_POINT('',(-9.75,0.200000000000001,1.));
#988=CARTESIAN_POINT('Origin',(-9.25,0.200000000000001,-4.5));
#989=CARTESIAN_POINT('',(-9.25,-0.199999999999999,-4.5));
#990=CARTESIAN_POINT('',(-9.25,0.200000000000001,-4.5));
#991=CARTESIAN_POINT('',(-9.25,-0.199999999999999,-4.5));
#992=CARTESIAN_POINT('',(-9.25,-0.199999999999999,-4.5));
#993=CARTESIAN_POINT('',(-9.25,0.200000000000001,-4.5));
#994=CARTESIAN_POINT('Origin',(-8.25,0.200000000000001,-4.5));
#995=CARTESIAN_POINT('',(-8.25,0.200000000000001,-4.5));
#996=CARTESIAN_POINT('',(-9.25,0.200000000000001,-4.5));
#997=CARTESIAN_POINT('',(-8.25,0.200000000000001,-4.5));
#998=CARTESIAN_POINT('Origin',(-8.25,-0.199999999999999,-4.5));
#999=CARTESIAN_POINT('',(-8.25,-0.199999999999999,-4.5));
#1000=CARTESIAN_POINT('',(-8.25,0.200000000000001,-4.5));
#1001=CARTESIAN_POINT('',(-8.25,-0.199999999999999,-4.5));
#1002=CARTESIAN_POINT('Origin',(-9.25,-0.199999999999999,-4.5));
#1003=CARTESIAN_POINT('',(-8.25,-0.199999999999999,-4.5));
#1004=CARTESIAN_POINT('Origin',(-8.75,-8.88178419700125E-16,-4.5));
#1005=CARTESIAN_POINT('Origin',(8.75,1.77635683940025E-15,0.));
#1006=CARTESIAN_POINT('',(9.25,-0.199999999999999,0.));
#1007=CARTESIAN_POINT('',(9.25,0.200000000000001,0.));
#1008=CARTESIAN_POINT('',(9.25,0.200000000000001,0.));
#1009=CARTESIAN_POINT('',(9.75,0.200000000000001,0.));
#1010=CARTESIAN_POINT('',(7.75,0.200000000000001,0.));
#1011=CARTESIAN_POINT('',(9.75,-0.199999999999999,0.));
#1012=CARTESIAN_POINT('',(9.75,0.200000000000001,0.));
#1013=CARTESIAN_POINT('',(9.75,-0.199999999999999,0.));
#1014=CARTESIAN_POINT('Origin',(8.75,1.77635683940025E-15,0.));
#1015=CARTESIAN_POINT('',(8.25,0.200000000000001,0.));
#1016=CARTESIAN_POINT('',(8.25,-0.199999999999999,0.));
#1017=CARTESIAN_POINT('',(8.25,-0.199999999999999,0.));
#1018=CARTESIAN_POINT('',(7.75,-0.199999999999999,0.));
#1019=CARTESIAN_POINT('',(9.75,-0.199999999999999,0.));
#1020=CARTESIAN_POINT('',(7.75,0.200000000000001,0.));
#1021=CARTESIAN_POINT('',(7.75,-0.199999999999999,0.));
#1022=CARTESIAN_POINT('',(7.75,0.200000000000001,0.));
#1023=CARTESIAN_POINT('Origin',(7.75,0.200000000000001,0.));
#1024=CARTESIAN_POINT('',(7.75,-0.199999999999999,1.));
#1025=CARTESIAN_POINT('',(7.75,-0.199999999999999,0.));
#1026=CARTESIAN_POINT('',(7.75,0.200000000000001,1.));
#1027=CARTESIAN_POINT('',(7.75,-0.199999999999999,1.));
#1028=CARTESIAN_POINT('',(7.75,0.200000000000001,0.));
#1029=CARTESIAN_POINT('Origin',(9.75,-0.199999999999999,0.));
#1030=CARTESIAN_POINT('',(9.75,0.200000000000001,1.));
#1031=CARTESIAN_POINT('',(9.75,0.200000000000001,0.));
#1032=CARTESIAN_POINT('',(9.75,-0.199999999999999,1.));
#1033=CARTESIAN_POINT('',(9.75,0.200000000000001,1.));
#1034=CARTESIAN_POINT('',(9.75,-0.199999999999999,0.));
#1035=CARTESIAN_POINT('Origin',(8.75,1.77635683940025E-15,1.));
#1036=CARTESIAN_POINT('',(9.75,-0.199999999999999,1.));
#1037=CARTESIAN_POINT('',(7.75,0.200000000000001,1.));
#1038=CARTESIAN_POINT('Origin',(8.25,0.200000000000001,-4.5));
#1039=CARTESIAN_POINT('',(8.25,-0.199999999999999,-4.5));
#1040=CARTESIAN_POINT('',(8.25,0.200000000000001,-4.5));
#1041=CARTESIAN_POINT('',(8.25,-0.199999999999999,-4.5));
#1042=CARTESIAN_POINT('',(8.25,-0.199999999999999,-4.5));
#1043=CARTESIAN_POINT('',(8.25,0.200000000000001,-4.5));
#1044=CARTESIAN_POINT('Origin',(9.25,0.200000000000001,-4.5));
#1045=CARTESIAN_POINT('',(9.25,0.200000000000001,-4.5));
#1046=CARTESIAN_POINT('',(8.25,0.200000000000001,-4.5));
#1047=CARTESIAN_POINT('',(9.25,0.200000000000001,-4.5));
#1048=CARTESIAN_POINT('Origin',(9.25,-0.199999999999999,-4.5));
#1049=CARTESIAN_POINT('',(9.25,-0.199999999999999,-4.5));
#1050=CARTESIAN_POINT('',(9.25,0.200000000000001,-4.5));
#1051=CARTESIAN_POINT('',(9.25,-0.199999999999999,-4.5));
#1052=CARTESIAN_POINT('Origin',(8.25,-0.199999999999999,-4.5));
#1053=CARTESIAN_POINT('',(9.25,-0.199999999999999,-4.5));
#1054=CARTESIAN_POINT('Origin',(8.75,-8.88178419700125E-16,-4.5));
#1055=UNCERTAINTY_MEASURE_WITH_UNIT(LENGTH_MEASURE(0.01),#1059,
'DISTANCE_ACCURACY_VALUE',
'Maximum model space distance between geometric entities at asserted c
onnectivities');
#1056=UNCERTAINTY_MEASURE_WITH_UNIT(LENGTH_MEASURE(1.E-6),#1059,
'DISTANCE_ACCURACY_VALUE',
'Maximum model space distance between geometric entities at asserted c
onnectivities');
#1057=(
GEOMETRIC_REPRESENTATION_CONTEXT(3)
GLOBAL_UNCERTAINTY_ASSIGNED_CONTEXT((#1055))
GLOBAL_UNIT_ASSIGNED_CONTEXT((#1059,#1061,#1060))
REPRESENTATION_CONTEXT('','3D')
);
#1058=(
GEOMETRIC_REPRESENTATION_CONTEXT(3)
GLOBAL_UNCERTAINTY_ASSIGNED_CONTEXT((#1056))
GLOBAL_UNIT_ASSIGNED_CONTEXT((#1059,#12,#1060))
REPRESENTATION_CONTEXT('','3D')
);
#1059=(
LENGTH_UNIT()
NAMED_UNIT(*)
SI_UNIT(.MILLI.,.METRE.)
);
#1060=(
NAMED_UNIT(*)
SI_UNIT($,.STERADIAN.)
SOLID_ANGLE_UNIT()
);
#1061=(
NAMED_UNIT(*)
PLANE_ANGLE_UNIT()
SI_UNIT($,.RADIAN.)
);
#1062=SHAPE_DEFINITION_REPRESENTATION(#1063,#1064);
#1063=PRODUCT_DEFINITION_SHAPE('',$,#1066);
#1064=SHAPE_REPRESENTATION('',(#659),#1057);
#1065=PRODUCT_DEFINITION_CONTEXT('part definition',#1070,'design');
#1066=PRODUCT_DEFINITION('Product','Product',#1067,#1065);
#1067=PRODUCT_DEFINITION_FORMATION('',$,#1072);
#1068=PRODUCT_RELATED_PRODUCT_CATEGORY('Product','Product',(#1072));
#1069=APPLICATION_PROTOCOL_DEFINITION('international standard',
'automotive_design',2009,#1070);
#1070=APPLICATION_CONTEXT(
'Core Data for Automotive Mechanical Design Process');
#1071=PRODUCT_CONTEXT('part definition',#1070,'mechanical');
#1072=PRODUCT('Product','Product',$,(#1071));
#1073=PRESENTATION_STYLE_ASSIGNMENT((#1077));
#1074=PRESENTATION_STYLE_ASSIGNMENT((#1078));
#1075=PRESENTATION_STYLE_ASSIGNMENT((#1079));
#1076=PRESENTATION_STYLE_ASSIGNMENT((#1080));
#1077=SURFACE_STYLE_USAGE(.BOTH.,#1081);
#1078=SURFACE_STYLE_USAGE(.BOTH.,#1082);
#1079=SURFACE_STYLE_USAGE(.BOTH.,#1083);
#1080=SURFACE_STYLE_USAGE(.BOTH.,#1084);
#1081=SURFACE_SIDE_STYLE('',(#1085));
#1082=SURFACE_SIDE_STYLE('',(#1086));
#1083=SURFACE_SIDE_STYLE('',(#1087));
#1084=SURFACE_SIDE_STYLE('',(#1088));
#1085=SURFACE_STYLE_FILL_AREA(#1089);
#1086=SURFACE_STYLE_FILL_AREA(#1090);
#1087=SURFACE_STYLE_FILL_AREA(#1091);
#1088=SURFACE_STYLE_FILL_AREA(#1092);
#1089=FILL_AREA_STYLE('',(#1093));
#1090=FILL_AREA_STYLE('',(#1094));
#1091=FILL_AREA_STYLE('',(#1095));
#1092=FILL_AREA_STYLE('',(#1096));
#1093=FILL_AREA_STYLE_COLOUR('',#1097);
#1094=FILL_AREA_STYLE_COLOUR('',#1098);
#1095=FILL_AREA_STYLE_COLOUR('',#1099);
#1096=FILL_AREA_STYLE_COLOUR('',#1100);
#1097=COLOUR_RGB('',1.,1.,1.);
#1098=COLOUR_RGB('',0.596078431372549,0.596078431372549,0.596078431372549);
#1099=COLOUR_RGB('',0.749019607843137,0.749019607843137,0.749019607843137);
#1100=COLOUR_RGB('',0.329411764705882,0.329411764705882,0.329411764705882);
ENDSEC;
END-ISO-10303-21;
