ISO-10303-21;
HEADER;
/****************************************************************
 * Generated by software with PDE/Lib inside                    *
 * PDElib Version v51a, created Mon 11/23/2009                  *
 * ITI Transcendata (http://www.transcendata.com/)              *
 ****************************************************************/
FILE_DESCRIPTION((''),'2;1');
FILE_NAME('RES_VISHAY_VCS332Z_h.stp','2011-03-10T09:11:50',(''),(''),'Mechanical Desktop 2011','Mechanical Desktop 2011',', , ');
FILE_SCHEMA(('AUTOMOTIVE_DESIGN { 1 2 10303 214 1 1 1 1 }'));
ENDSEC;
DATA;
#10=(NAMED_UNIT(*)PLANE_ANGLE_UNIT()SI_UNIT($,.RADIAN.));
#11=DIMENSIONAL_EXPONENTS(0.0,0.0,0.0,0.0,0.0,0.0,0.0);
#12=PLANE_ANGLE_MEASURE_WITH_UNIT(PLANE_ANGLE_MEASURE(0.017453292500000),#10);
#16=(CONVERSION_BASED_UNIT('DEGREE',#12)NAMED_UNIT(#11)PLANE_ANGLE_UNIT());
#20=(NAMED_UNIT(*)SI_UNIT($,.STERADIAN.)SOLID_ANGLE_UNIT());
#24=(LENGTH_UNIT()NAMED_UNIT(*)SI_UNIT(.MILLI.,.METRE.));
#26=UNCERTAINTY_MEASURE_WITH_UNIT(LENGTH_MEASURE(0.000001000000000),#24,'DISTANCE_ACCURACY_VALUE','');
#28=(GEOMETRIC_REPRESENTATION_CONTEXT(3)GLOBAL_UNCERTAINTY_ASSIGNED_CONTEXT((#26))GLOBAL_UNIT_ASSIGNED_CONTEXT((#16,#20,#24))REPRESENTATION_CONTEXT('','3D'));
#29=APPLICATION_CONTEXT('automotive design');
#30=APPLICATION_PROTOCOL_DEFINITION('INTERNATIONAL_STANDARD','automotive_design',1998,#29);
#31=PRODUCT_CONTEXT('3D Mechanical Parts',#29,'mechanical');
#32=PRODUCT('Product','Product','',(#31));
#33=PRODUCT_RELATED_PRODUCT_CATEGORY('part',$,(#32));
#34=PRODUCT_CATEGORY('part',$);
#35=PERSON('1','Design','Joe',$,$,$);
#36=ORGANIZATION($,'None','None');
#37=PERSON_AND_ORGANIZATION(#35,#36);
#38=PERSON_AND_ORGANIZATION_ROLE('design_owner');
#39=APPLIED_PERSON_AND_ORGANIZATION_ASSIGNMENT(#37,#38,(#32));
#40=PRODUCT_DEFINITION_FORMATION_WITH_SPECIFIED_SOURCE('None','',#32,.BOUGHT.);
#41=PERSON('2','Creator','Joe',$,$,$);
#42=ORGANIZATION($,'None','None');
#43=PERSON_AND_ORGANIZATION(#41,#42);
#44=PERSON_AND_ORGANIZATION_ROLE('creator');
#45=APPLIED_PERSON_AND_ORGANIZATION_ASSIGNMENT(#43,#44,(#40));
#46=PERSON('3','Supplier','Joe',$,$,$);
#47=ORGANIZATION($,'None','None');
#48=PERSON_AND_ORGANIZATION(#46,#47);
#49=PERSON_AND_ORGANIZATION_ROLE('design_supplier');
#50=APPLIED_PERSON_AND_ORGANIZATION_ASSIGNMENT(#48,#49,(#40));
#51=PRODUCT_DEFINITION_CONTEXT('part definition',#29,'design');
#52=PRODUCT_DEFINITION('None','',#40,#51);
#53=PERSON('4','Creator','Joe',$,$,$);
#54=ORGANIZATION($,'None','None');
#55=PERSON_AND_ORGANIZATION(#53,#54);
#56=PERSON_AND_ORGANIZATION_ROLE('creator');
#57=APPLIED_PERSON_AND_ORGANIZATION_ASSIGNMENT(#55,#56,(#52));
#58=CARTESIAN_POINT('NONE',(0.0,0.0,0.0));
#59=DIRECTION('NONE',(0.0,0.0,1.0));
#60=DIRECTION('NONE',(1.0,0.0,0.0));
#61=AXIS2_PLACEMENT_3D('NONE',#58,#59,#60);
#62=SHAPE_REPRESENTATION('SR1',(#61),#28);
#63=PRODUCT_DEFINITION_SHAPE('PDS1','Test Part',#52);
#64=SHAPE_DEFINITION_REPRESENTATION(#63,#62);
#65=CARTESIAN_POINT('',(13.749999999999998,1.000000000000001,2.765000000000001));
#66=DIRECTION('',(1.0,0.0,0.0));
#67=DIRECTION('',(0.0,0.0,-1.0));
#68=AXIS2_PLACEMENT_3D('',#65,#66,#67);
#69=TOROIDAL_SURFACE('',#68,1.0,0.500000000000000);
#70=CARTESIAN_POINT('',(13.749999999999998,-0.499999999999999,2.765000000000000));
#71=VERTEX_POINT('',#70);
#72=CARTESIAN_POINT('',(13.749999999999998,1.0,4.265000000000001));
#73=VERTEX_POINT('',#72);
#74=CARTESIAN_POINT('',(13.749999999999998,1.000000000000001,2.765000000000001));
#75=DIRECTION('',(-1.0,0.0,0.0));
#76=DIRECTION('',(0.0,0.0,-1.0));
#77=AXIS2_PLACEMENT_3D('',#74,#75,#76);
#78=CIRCLE('',#77,1.500000000000000);
#79=EDGE_CURVE('',#71,#73,#78,.T.);
#80=ORIENTED_EDGE('',*,*,#79,.F.);
#81=CARTESIAN_POINT('',(14.249999999999996,6.661338E-016,2.765000000000001));
#82=VERTEX_POINT('',#81);
#83=CARTESIAN_POINT('',(13.749999999999998,8.881784E-016,2.765000000000000));
#84=DIRECTION('',(0.0,0.0,1.0));
#85=DIRECTION('',(1.0,0.0,0.0));
#86=AXIS2_PLACEMENT_3D('',#83,#84,#85);
#87=CIRCLE('',#86,0.500000000000000);
#88=EDGE_CURVE('',#71,#82,#87,.T.);
#89=ORIENTED_EDGE('',*,*,#88,.T.);
#90=CARTESIAN_POINT('',(13.749999999999998,0.500000000000001,2.765000000000000));
#91=VERTEX_POINT('',#90);
#92=CARTESIAN_POINT('',(13.749999999999998,8.881784E-016,2.765000000000000));
#93=DIRECTION('',(0.0,0.0,1.0));
#94=DIRECTION('',(1.0,0.0,0.0));
#95=AXIS2_PLACEMENT_3D('',#92,#93,#94);
#96=CIRCLE('',#95,0.500000000000000);
#97=EDGE_CURVE('',#82,#91,#96,.T.);
#98=ORIENTED_EDGE('',*,*,#97,.T.);
#99=CARTESIAN_POINT('',(13.749999999999998,1.000000000000000,3.265000000000001));
#100=VERTEX_POINT('',#99);
#101=CARTESIAN_POINT('',(13.749999999999998,1.000000000000001,2.765000000000001));
#102=DIRECTION('',(-1.0,0.0,0.0));
#103=DIRECTION('',(0.0,0.0,-1.0));
#104=AXIS2_PLACEMENT_3D('',#101,#102,#103);
#105=CIRCLE('',#104,0.500000000000000);
#106=EDGE_CURVE('',#91,#100,#105,.T.);
#107=ORIENTED_EDGE('',*,*,#106,.T.);
#108=CARTESIAN_POINT('',(14.249999999999998,1.000000000000001,3.765000000000001));
#109=VERTEX_POINT('',#108);
#110=CARTESIAN_POINT('',(13.749999999999998,1.0,3.765000000000001));
#111=DIRECTION('',(0.0,1.0,0.0));
#112=DIRECTION('',(1.0,0.0,0.0));
#113=AXIS2_PLACEMENT_3D('',#110,#111,#112);
#114=CIRCLE('',#113,0.500000000000000);
#115=EDGE_CURVE('',#109,#100,#114,.T.);
#116=ORIENTED_EDGE('',*,*,#115,.F.);
#117=CARTESIAN_POINT('',(13.749999999999998,1.0,3.765000000000001));
#118=DIRECTION('',(0.0,1.0,0.0));
#119=DIRECTION('',(1.0,0.0,0.0));
#120=AXIS2_PLACEMENT_3D('',#117,#118,#119);
#121=CIRCLE('',#120,0.500000000000000);
#122=EDGE_CURVE('',#73,#109,#121,.T.);
#123=ORIENTED_EDGE('',*,*,#122,.F.);
#124=EDGE_LOOP('',(#80,#89,#98,#107,#116,#123));
#125=FACE_OUTER_BOUND('',#124,.T.);
#126=ADVANCED_FACE('',(#125),#69,.T.);
#127=CARTESIAN_POINT('',(13.749999999999998,3.764999999999999,3.765000000000001));
#128=DIRECTION('',(0.0,-1.0,1.606109E-016));
#129=DIRECTION('',(1.0,0.0,0.0));
#130=AXIS2_PLACEMENT_3D('',#127,#128,#129);
#131=CYLINDRICAL_SURFACE('',#130,0.500000000000000);
#132=CARTESIAN_POINT('',(14.249999999999998,3.764999999999999,3.765000000000001));
#133=VERTEX_POINT('',#132);
#134=CARTESIAN_POINT('',(14.249999999999998,1.000000000000001,3.765000000000001));
#135=DIRECTION('',(0.0,1.0,0.0));
#136=VECTOR('',#135,2.764999999999998);
#137=LINE('',#134,#136);
#138=EDGE_CURVE('',#109,#133,#137,.T.);
#139=ORIENTED_EDGE('',*,*,#138,.F.);
#140=ORIENTED_EDGE('',*,*,#115,.T.);
#141=CARTESIAN_POINT('',(13.249999999999998,1.0,3.765000000000001));
#142=VERTEX_POINT('',#141);
#143=CARTESIAN_POINT('',(13.749999999999998,1.0,3.765000000000001));
#144=DIRECTION('',(0.0,1.0,0.0));
#145=DIRECTION('',(1.0,0.0,0.0));
#146=AXIS2_PLACEMENT_3D('',#143,#144,#145);
#147=CIRCLE('',#146,0.500000000000000);
#148=EDGE_CURVE('',#100,#142,#147,.T.);
#149=ORIENTED_EDGE('',*,*,#148,.T.);
#150=CARTESIAN_POINT('',(13.249999999999998,3.764999999999999,3.765000000000001));
#151=VERTEX_POINT('',#150);
#152=CARTESIAN_POINT('',(13.249999999999998,1.0,3.765000000000001));
#153=DIRECTION('',(0.0,1.0,0.0));
#154=VECTOR('',#153,2.764999999999999);
#155=LINE('',#152,#154);
#156=EDGE_CURVE('',#142,#151,#155,.T.);
#157=ORIENTED_EDGE('',*,*,#156,.T.);
#158=CARTESIAN_POINT('',(13.749999999999998,3.764999999999999,3.765000000000001));
#159=DIRECTION('',(0.0,-1.0,0.0));
#160=DIRECTION('',(1.0,0.0,0.0));
#161=AXIS2_PLACEMENT_3D('',#158,#159,#160);
#162=CIRCLE('',#161,0.500000000000000);
#163=EDGE_CURVE('',#151,#133,#162,.T.);
#164=ORIENTED_EDGE('',*,*,#163,.T.);
#165=EDGE_LOOP('',(#139,#140,#149,#157,#164));
#166=FACE_OUTER_BOUND('',#165,.T.);
#167=ADVANCED_FACE('',(#166),#131,.T.);
#168=CARTESIAN_POINT('',(13.749999999999998,8.881784E-016,2.765000000000000));
#169=DIRECTION('',(0.0,-1.220984E-016,-1.0));
#170=DIRECTION('',(1.0,0.0,0.0));
#171=AXIS2_PLACEMENT_3D('',#168,#169,#170);
#172=CYLINDRICAL_SURFACE('',#171,0.500000000000000);
#173=CARTESIAN_POINT('',(14.249999999999996,-1.110223E-016,-3.600000000000000));
#174=VERTEX_POINT('',#173);
#175=CARTESIAN_POINT('',(14.249999999999998,1.110223E-016,-3.600000000000000));
#176=DIRECTION('',(0.0,0.0,1.0));
#177=VECTOR('',#176,6.365000000000000);
#178=LINE('',#175,#177);
#179=EDGE_CURVE('',#174,#82,#178,.T.);
#180=ORIENTED_EDGE('',*,*,#179,.F.);
#181=CARTESIAN_POINT('',(13.249999999999998,1.722526E-016,-3.600000000000001));
#182=VERTEX_POINT('',#181);
#183=CARTESIAN_POINT('',(13.749999999999998,1.110223E-016,-3.600000000000001));
#184=DIRECTION('',(0.0,0.0,1.0));
#185=DIRECTION('',(1.0,0.0,0.0));
#186=AXIS2_PLACEMENT_3D('',#183,#184,#185);
#187=CIRCLE('',#186,0.500000000000000);
#188=EDGE_CURVE('',#174,#182,#187,.T.);
#189=ORIENTED_EDGE('',*,*,#188,.T.);
#190=CARTESIAN_POINT('',(13.249999999999998,9.494087E-016,2.765000000000000));
#191=VERTEX_POINT('',#190);
#192=CARTESIAN_POINT('',(13.249999999999998,1.722526E-016,-3.600000000000001));
#193=DIRECTION('',(0.0,0.0,1.0));
#194=VECTOR('',#193,6.365000000000001);
#195=LINE('',#192,#194);
#196=EDGE_CURVE('',#182,#191,#195,.T.);
#197=ORIENTED_EDGE('',*,*,#196,.T.);
#198=CARTESIAN_POINT('',(13.749999999999998,8.881784E-016,2.765000000000000));
#199=DIRECTION('',(0.0,0.0,1.0));
#200=DIRECTION('',(1.0,0.0,0.0));
#201=AXIS2_PLACEMENT_3D('',#198,#199,#200);
#202=CIRCLE('',#201,0.500000000000000);
#203=EDGE_CURVE('',#91,#191,#202,.T.);
#204=ORIENTED_EDGE('',*,*,#203,.F.);
#205=ORIENTED_EDGE('',*,*,#97,.F.);
#206=EDGE_LOOP('',(#180,#189,#197,#204,#205));
#207=FACE_OUTER_BOUND('',#206,.T.);
#208=ADVANCED_FACE('',(#207),#172,.T.);
#209=CARTESIAN_POINT('',(13.749999999999998,8.881784E-016,2.765000000000000));
#210=DIRECTION('',(0.0,-1.220984E-016,-1.0));
#211=DIRECTION('',(1.0,0.0,0.0));
#212=AXIS2_PLACEMENT_3D('',#209,#210,#211);
#213=CYLINDRICAL_SURFACE('',#212,0.500000000000000);
#214=ORIENTED_EDGE('',*,*,#179,.T.);
#215=ORIENTED_EDGE('',*,*,#88,.F.);
#216=CARTESIAN_POINT('',(13.749999999999998,8.881784E-016,2.765000000000000));
#217=DIRECTION('',(0.0,0.0,1.0));
#218=DIRECTION('',(1.0,0.0,0.0));
#219=AXIS2_PLACEMENT_3D('',#216,#217,#218);
#220=CIRCLE('',#219,0.500000000000000);
#221=EDGE_CURVE('',#191,#71,#220,.T.);
#222=ORIENTED_EDGE('',*,*,#221,.F.);
#223=ORIENTED_EDGE('',*,*,#196,.F.);
#224=CARTESIAN_POINT('',(13.749999999999998,1.110223E-016,-3.600000000000001));
#225=DIRECTION('',(0.0,0.0,1.0));
#226=DIRECTION('',(1.0,0.0,0.0));
#227=AXIS2_PLACEMENT_3D('',#224,#225,#226);
#228=CIRCLE('',#227,0.500000000000000);
#229=EDGE_CURVE('',#182,#174,#228,.T.);
#230=ORIENTED_EDGE('',*,*,#229,.T.);
#231=EDGE_LOOP('',(#214,#215,#222,#223,#230));
#232=FACE_OUTER_BOUND('',#231,.T.);
#233=ADVANCED_FACE('',(#232),#213,.T.);
#234=CARTESIAN_POINT('',(13.749999999999998,1.000000000000001,2.765000000000001));
#235=DIRECTION('',(1.0,0.0,0.0));
#236=DIRECTION('',(0.0,0.0,-1.0));
#237=AXIS2_PLACEMENT_3D('',#234,#235,#236);
#238=TOROIDAL_SURFACE('',#237,1.0,0.500000000000000);
#239=ORIENTED_EDGE('',*,*,#79,.T.);
#240=CARTESIAN_POINT('',(13.749999999999998,1.0,3.765000000000001));
#241=DIRECTION('',(0.0,1.0,0.0));
#242=DIRECTION('',(1.0,0.0,0.0));
#243=AXIS2_PLACEMENT_3D('',#240,#241,#242);
#244=CIRCLE('',#243,0.500000000000000);
#245=EDGE_CURVE('',#142,#73,#244,.T.);
#246=ORIENTED_EDGE('',*,*,#245,.F.);
#247=ORIENTED_EDGE('',*,*,#148,.F.);
#248=ORIENTED_EDGE('',*,*,#106,.F.);
#249=ORIENTED_EDGE('',*,*,#203,.T.);
#250=ORIENTED_EDGE('',*,*,#221,.T.);
#251=EDGE_LOOP('',(#239,#246,#247,#248,#249,#250));
#252=FACE_OUTER_BOUND('',#251,.T.);
#253=ADVANCED_FACE('',(#252),#238,.T.);
#254=CARTESIAN_POINT('',(13.749999999999998,3.764999999999999,3.765000000000001));
#255=DIRECTION('',(0.0,-1.0,1.606109E-016));
#256=DIRECTION('',(1.0,0.0,0.0));
#257=AXIS2_PLACEMENT_3D('',#254,#255,#256);
#258=CYLINDRICAL_SURFACE('',#257,0.500000000000000);
#259=ORIENTED_EDGE('',*,*,#138,.T.);
#260=CARTESIAN_POINT('',(13.749999999999998,3.764999999999999,3.765000000000001));
#261=DIRECTION('',(0.0,-1.0,0.0));
#262=DIRECTION('',(1.0,0.0,0.0));
#263=AXIS2_PLACEMENT_3D('',#260,#261,#262);
#264=CIRCLE('',#263,0.500000000000000);
#265=EDGE_CURVE('',#133,#151,#264,.T.);
#266=ORIENTED_EDGE('',*,*,#265,.T.);
#267=ORIENTED_EDGE('',*,*,#156,.F.);
#268=ORIENTED_EDGE('',*,*,#245,.T.);
#269=ORIENTED_EDGE('',*,*,#122,.T.);
#270=EDGE_LOOP('',(#259,#266,#267,#268,#269));
#271=FACE_OUTER_BOUND('',#270,.T.);
#272=ADVANCED_FACE('',(#271),#258,.T.);
#273=CARTESIAN_POINT('',(13.749999999999998,3.764999999999999,3.765000000000001));
#274=DIRECTION('',(0.0,-1.0,0.0));
#275=DIRECTION('',(0.0,0.0,-1.0));
#276=AXIS2_PLACEMENT_3D('',#273,#274,#275);
#277=PLANE('',#276);
#278=ORIENTED_EDGE('',*,*,#265,.F.);
#279=ORIENTED_EDGE('',*,*,#163,.F.);
#280=EDGE_LOOP('',(#278,#279));
#281=FACE_OUTER_BOUND('',#280,.T.);
#282=ADVANCED_FACE('',(#281),#277,.F.);
#283=CARTESIAN_POINT('',(13.749999999999996,0.0,-3.600000000000000));
#284=DIRECTION('',(0.0,0.0,-1.0));
#285=DIRECTION('',(-1.0,0.0,0.0));
#286=AXIS2_PLACEMENT_3D('',#283,#284,#285);
#287=PLANE('',#286);
#288=ORIENTED_EDGE('',*,*,#188,.F.);
#289=ORIENTED_EDGE('',*,*,#229,.F.);
#290=EDGE_LOOP('',(#288,#289));
#291=FACE_OUTER_BOUND('',#290,.T.);
#292=ADVANCED_FACE('',(#291),#287,.T.);
#293=CLOSED_SHELL('',(#126,#167,#208,#233,#253,#272,#282,#292));
#294=MANIFOLD_SOLID_BREP('93E',#293);
#295=COLOUR_RGB('254',0.866000000000000,0.866000000000000,0.866000000000000);
#296=SURFACE_STYLE_USAGE(.BOTH.,#297);
#297=SURFACE_SIDE_STYLE('NONE',(#298));
#298=SURFACE_STYLE_FILL_AREA(#299);
#299=FILL_AREA_STYLE('NONE',(#300));
#300=FILL_AREA_STYLE_COLOUR('NONE',#295);
#301=PRESENTATION_STYLE_ASSIGNMENT((#296));
#302=STYLED_ITEM('NONE',(#301),#294);
#303=MECHANICAL_DESIGN_GEOMETRIC_PRESENTATION_REPRESENTATION('NONE',(#302,#535,#766,#997,#1155,#1461),#28);
#304=PRESENTATION_LAYER_ASSIGNMENT('3D','None',(#294,#534,#765,#996,#1147,#1453));
#305=CARTESIAN_POINT('',(8.750000000000002,1.000000000000000,2.765000000000001));
#306=DIRECTION('',(1.0,0.0,0.0));
#307=DIRECTION('',(0.0,0.0,-1.0));
#308=AXIS2_PLACEMENT_3D('',#305,#306,#307);
#309=TOROIDAL_SURFACE('',#308,1.0,0.400000000000000);
#310=CARTESIAN_POINT('',(8.750000000000002,-0.400000000000000,2.765000000000002));
#311=VERTEX_POINT('',#310);
#312=CARTESIAN_POINT('',(8.750000000000002,1.000000000000000,4.165000000000001));
#313=VERTEX_POINT('',#312);
#314=CARTESIAN_POINT('',(8.750000000000002,1.000000000000000,2.765000000000001));
#315=DIRECTION('',(-1.0,0.0,0.0));
#316=DIRECTION('',(0.0,0.0,-1.0));
#317=AXIS2_PLACEMENT_3D('',#314,#315,#316);
#318=CIRCLE('',#317,1.400000000000000);
#319=EDGE_CURVE('',#311,#313,#318,.T.);
#320=ORIENTED_EDGE('',*,*,#319,.F.);
#321=CARTESIAN_POINT('',(9.150000000000002,-1.110223E-016,2.765000000000001));
#322=VERTEX_POINT('',#321);
#323=CARTESIAN_POINT('',(8.750000000000002,0.0,2.765000000000002));
#324=DIRECTION('',(0.0,0.0,1.0));
#325=DIRECTION('',(1.0,0.0,0.0));
#326=AXIS2_PLACEMENT_3D('',#323,#324,#325);
#327=CIRCLE('',#326,0.400000000000000);
#328=EDGE_CURVE('',#311,#322,#327,.T.);
#329=ORIENTED_EDGE('',*,*,#328,.T.);
#330=CARTESIAN_POINT('',(8.750000000000002,0.400000000000000,2.765000000000002));
#331=VERTEX_POINT('',#330);
#332=CARTESIAN_POINT('',(8.750000000000002,0.0,2.765000000000002));
#333=DIRECTION('',(0.0,0.0,1.0));
#334=DIRECTION('',(1.0,0.0,0.0));
#335=AXIS2_PLACEMENT_3D('',#332,#333,#334);
#336=CIRCLE('',#335,0.400000000000000);
#337=EDGE_CURVE('',#322,#331,#336,.T.);
#338=ORIENTED_EDGE('',*,*,#337,.T.);
#339=CARTESIAN_POINT('',(8.750000000000002,1.000000000000000,3.365000000000001));
#340=VERTEX_POINT('',#339);
#341=CARTESIAN_POINT('',(8.750000000000002,1.000000000000000,2.765000000000001));
#342=DIRECTION('',(-1.0,0.0,0.0));
#343=DIRECTION('',(0.0,0.0,-1.0));
#344=AXIS2_PLACEMENT_3D('',#341,#342,#343);
#345=CIRCLE('',#344,0.600000000000000);
#346=EDGE_CURVE('',#331,#340,#345,.T.);
#347=ORIENTED_EDGE('',*,*,#346,.T.);
#348=CARTESIAN_POINT('',(9.150000000000002,1.0,3.765000000000001));
#349=VERTEX_POINT('',#348);
#350=CARTESIAN_POINT('',(8.750000000000002,1.000000000000000,3.765000000000001));
#351=DIRECTION('',(0.0,1.0,0.0));
#352=DIRECTION('',(1.0,0.0,0.0));
#353=AXIS2_PLACEMENT_3D('',#350,#351,#352);
#354=CIRCLE('',#353,0.400000000000000);
#355=EDGE_CURVE('',#349,#340,#354,.T.);
#356=ORIENTED_EDGE('',*,*,#355,.F.);
#357=CARTESIAN_POINT('',(8.750000000000002,1.000000000000000,3.765000000000001));
#358=DIRECTION('',(0.0,1.0,0.0));
#359=DIRECTION('',(1.0,0.0,0.0));
#360=AXIS2_PLACEMENT_3D('',#357,#358,#359);
#361=CIRCLE('',#360,0.400000000000000);
#362=EDGE_CURVE('',#313,#349,#361,.T.);
#363=ORIENTED_EDGE('',*,*,#362,.F.);
#364=EDGE_LOOP('',(#320,#329,#338,#347,#356,#363));
#365=FACE_OUTER_BOUND('',#364,.T.);
#366=ADVANCED_FACE('',(#365),#309,.T.);
#367=CARTESIAN_POINT('',(8.750000000000002,3.764999999999999,3.765000000000001));
#368=DIRECTION('',(0.0,-1.0,1.606109E-016));
#369=DIRECTION('',(1.0,0.0,0.0));
#370=AXIS2_PLACEMENT_3D('',#367,#368,#369);
#371=CYLINDRICAL_SURFACE('',#370,0.400000000000000);
#372=CARTESIAN_POINT('',(9.150000000000002,3.764999999999999,3.765000000000001));
#373=VERTEX_POINT('',#372);
#374=CARTESIAN_POINT('',(9.150000000000002,1.000000000000000,3.765000000000001));
#375=DIRECTION('',(0.0,1.0,0.0));
#376=VECTOR('',#375,2.764999999999999);
#377=LINE('',#374,#376);
#378=EDGE_CURVE('',#349,#373,#377,.T.);
#379=ORIENTED_EDGE('',*,*,#378,.F.);
#380=ORIENTED_EDGE('',*,*,#355,.T.);
#381=CARTESIAN_POINT('',(8.350000000000001,1.000000000000000,3.765000000000001));
#382=VERTEX_POINT('',#381);
#383=CARTESIAN_POINT('',(8.750000000000002,1.000000000000000,3.765000000000001));
#384=DIRECTION('',(0.0,1.0,0.0));
#385=DIRECTION('',(1.0,0.0,0.0));
#386=AXIS2_PLACEMENT_3D('',#383,#384,#385);
#387=CIRCLE('',#386,0.400000000000000);
#388=EDGE_CURVE('',#340,#382,#387,.T.);
#389=ORIENTED_EDGE('',*,*,#388,.T.);
#390=CARTESIAN_POINT('',(8.350000000000001,3.764999999999999,3.765000000000001));
#391=VERTEX_POINT('',#390);
#392=CARTESIAN_POINT('',(8.350000000000001,1.000000000000000,3.765000000000001));
#393=DIRECTION('',(0.0,1.0,0.0));
#394=VECTOR('',#393,2.764999999999999);
#395=LINE('',#392,#394);
#396=EDGE_CURVE('',#382,#391,#395,.T.);
#397=ORIENTED_EDGE('',*,*,#396,.T.);
#398=CARTESIAN_POINT('',(8.750000000000002,3.764999999999999,3.765000000000001));
#399=DIRECTION('',(0.0,-1.0,0.0));
#400=DIRECTION('',(1.0,0.0,0.0));
#401=AXIS2_PLACEMENT_3D('',#398,#399,#400);
#402=CIRCLE('',#401,0.400000000000000);
#403=EDGE_CURVE('',#391,#373,#402,.T.);
#404=ORIENTED_EDGE('',*,*,#403,.T.);
#405=EDGE_LOOP('',(#379,#380,#389,#397,#404));
#406=FACE_OUTER_BOUND('',#405,.T.);
#407=ADVANCED_FACE('',(#406),#371,.T.);
#408=CARTESIAN_POINT('',(8.750000000000002,0.0,2.765000000000002));
#409=DIRECTION('',(0.0,-1.220984E-016,-1.0));
#410=DIRECTION('',(1.0,0.0,0.0));
#411=AXIS2_PLACEMENT_3D('',#408,#409,#410);
#412=CYLINDRICAL_SURFACE('',#411,0.400000000000000);
#413=CARTESIAN_POINT('',(9.150000000000002,-8.881784E-016,-3.600000000000000));
#414=VERTEX_POINT('',#413);
#415=CARTESIAN_POINT('',(9.150000000000002,-7.771561E-016,-3.600000000000000));
#416=DIRECTION('',(0.0,0.0,1.0));
#417=VECTOR('',#416,6.365000000000000);
#418=LINE('',#415,#417);
#419=EDGE_CURVE('',#414,#322,#418,.T.);
#420=ORIENTED_EDGE('',*,*,#419,.F.);
#421=CARTESIAN_POINT('',(8.350000000000001,-7.281719E-016,-3.600000000000000));
#422=VERTEX_POINT('',#421);
#423=CARTESIAN_POINT('',(8.750000000000002,-7.771561E-016,-3.600000000000000));
#424=DIRECTION('',(0.0,0.0,1.0));
#425=DIRECTION('',(1.0,0.0,0.0));
#426=AXIS2_PLACEMENT_3D('',#423,#424,#425);
#427=CIRCLE('',#426,0.400000000000000);
#428=EDGE_CURVE('',#414,#422,#427,.T.);
#429=ORIENTED_EDGE('',*,*,#428,.T.);
#430=CARTESIAN_POINT('',(8.350000000000001,4.898425E-017,2.765000000000002));
#431=VERTEX_POINT('',#430);
#432=CARTESIAN_POINT('',(8.350000000000001,-7.281719E-016,-3.600000000000000));
#433=DIRECTION('',(0.0,0.0,1.0));
#434=VECTOR('',#433,6.365000000000001);
#435=LINE('',#432,#434);
#436=EDGE_CURVE('',#422,#431,#435,.T.);
#437=ORIENTED_EDGE('',*,*,#436,.T.);
#438=CARTESIAN_POINT('',(8.750000000000002,0.0,2.765000000000002));
#439=DIRECTION('',(0.0,0.0,1.0));
#440=DIRECTION('',(1.0,0.0,0.0));
#441=AXIS2_PLACEMENT_3D('',#438,#439,#440);
#442=CIRCLE('',#441,0.400000000000000);
#443=EDGE_CURVE('',#331,#431,#442,.T.);
#444=ORIENTED_EDGE('',*,*,#443,.F.);
#445=ORIENTED_EDGE('',*,*,#337,.F.);
#446=EDGE_LOOP('',(#420,#429,#437,#444,#445));
#447=FACE_OUTER_BOUND('',#446,.T.);
#448=ADVANCED_FACE('',(#447),#412,.T.);
#449=CARTESIAN_POINT('',(8.750000000000002,0.0,2.765000000000002));
#450=DIRECTION('',(0.0,-1.220984E-016,-1.0));
#451=DIRECTION('',(1.0,0.0,0.0));
#452=AXIS2_PLACEMENT_3D('',#449,#450,#451);
#453=CYLINDRICAL_SURFACE('',#452,0.400000000000000);
#454=ORIENTED_EDGE('',*,*,#419,.T.);
#455=ORIENTED_EDGE('',*,*,#328,.F.);
#456=CARTESIAN_POINT('',(8.750000000000002,0.0,2.765000000000002));
#457=DIRECTION('',(0.0,0.0,1.0));
#458=DIRECTION('',(1.0,0.0,0.0));
#459=AXIS2_PLACEMENT_3D('',#456,#457,#458);
#460=CIRCLE('',#459,0.400000000000000);
#461=EDGE_CURVE('',#431,#311,#460,.T.);
#462=ORIENTED_EDGE('',*,*,#461,.F.);
#463=ORIENTED_EDGE('',*,*,#436,.F.);
#464=CARTESIAN_POINT('',(8.750000000000002,-7.771561E-016,-3.600000000000000));
#465=DIRECTION('',(0.0,0.0,1.0));
#466=DIRECTION('',(1.0,0.0,0.0));
#467=AXIS2_PLACEMENT_3D('',#464,#465,#466);
#468=CIRCLE('',#467,0.400000000000000);
#469=EDGE_CURVE('',#422,#414,#468,.T.);
#470=ORIENTED_EDGE('',*,*,#469,.T.);
#471=EDGE_LOOP('',(#454,#455,#462,#463,#470));
#472=FACE_OUTER_BOUND('',#471,.T.);
#473=ADVANCED_FACE('',(#472),#453,.T.);
#474=CARTESIAN_POINT('',(8.750000000000002,1.000000000000000,2.765000000000001));
#475=DIRECTION('',(1.0,0.0,0.0));
#476=DIRECTION('',(0.0,0.0,-1.0));
#477=AXIS2_PLACEMENT_3D('',#474,#475,#476);
#478=TOROIDAL_SURFACE('',#477,1.0,0.400000000000000);
#479=ORIENTED_EDGE('',*,*,#319,.T.);
#480=CARTESIAN_POINT('',(8.750000000000002,1.000000000000000,3.765000000000001));
#481=DIRECTION('',(0.0,1.0,0.0));
#482=DIRECTION('',(1.0,0.0,0.0));
#483=AXIS2_PLACEMENT_3D('',#480,#481,#482);
#484=CIRCLE('',#483,0.400000000000000);
#485=EDGE_CURVE('',#382,#313,#484,.T.);
#486=ORIENTED_EDGE('',*,*,#485,.F.);
#487=ORIENTED_EDGE('',*,*,#388,.F.);
#488=ORIENTED_EDGE('',*,*,#346,.F.);
#489=ORIENTED_EDGE('',*,*,#443,.T.);
#490=ORIENTED_EDGE('',*,*,#461,.T.);
#491=EDGE_LOOP('',(#479,#486,#487,#488,#489,#490));
#492=FACE_OUTER_BOUND('',#491,.T.);
#493=ADVANCED_FACE('',(#492),#478,.T.);
#494=CARTESIAN_POINT('',(8.750000000000002,3.764999999999999,3.765000000000001));
#495=DIRECTION('',(0.0,-1.0,1.606109E-016));
#496=DIRECTION('',(1.0,0.0,0.0));
#497=AXIS2_PLACEMENT_3D('',#494,#495,#496);
#498=CYLINDRICAL_SURFACE('',#497,0.400000000000000);
#499=ORIENTED_EDGE('',*,*,#378,.T.);
#500=CARTESIAN_POINT('',(8.750000000000002,3.764999999999999,3.765000000000001));
#501=DIRECTION('',(0.0,-1.0,0.0));
#502=DIRECTION('',(1.0,0.0,0.0));
#503=AXIS2_PLACEMENT_3D('',#500,#501,#502);
#504=CIRCLE('',#503,0.400000000000000);
#505=EDGE_CURVE('',#373,#391,#504,.T.);
#506=ORIENTED_EDGE('',*,*,#505,.T.);
#507=ORIENTED_EDGE('',*,*,#396,.F.);
#508=ORIENTED_EDGE('',*,*,#485,.T.);
#509=ORIENTED_EDGE('',*,*,#362,.T.);
#510=EDGE_LOOP('',(#499,#506,#507,#508,#509));
#511=FACE_OUTER_BOUND('',#510,.T.);
#512=ADVANCED_FACE('',(#511),#498,.T.);
#513=CARTESIAN_POINT('',(8.750000000000002,3.764999999999999,3.765000000000001));
#514=DIRECTION('',(0.0,-1.0,0.0));
#515=DIRECTION('',(0.0,0.0,-1.0));
#516=AXIS2_PLACEMENT_3D('',#513,#514,#515);
#517=PLANE('',#516);
#518=ORIENTED_EDGE('',*,*,#505,.F.);
#519=ORIENTED_EDGE('',*,*,#403,.F.);
#520=EDGE_LOOP('',(#518,#519));
#521=FACE_OUTER_BOUND('',#520,.T.);
#522=ADVANCED_FACE('',(#521),#517,.F.);
#523=CARTESIAN_POINT('',(8.750000000000002,-8.881784E-016,-3.600000000000000));
#524=DIRECTION('',(0.0,0.0,-1.0));
#525=DIRECTION('',(-1.0,0.0,0.0));
#526=AXIS2_PLACEMENT_3D('',#523,#524,#525);
#527=PLANE('',#526);
#528=ORIENTED_EDGE('',*,*,#428,.F.);
#529=ORIENTED_EDGE('',*,*,#469,.F.);
#530=EDGE_LOOP('',(#528,#529));
#531=FACE_OUTER_BOUND('',#530,.T.);
#532=ADVANCED_FACE('',(#531),#527,.T.);
#533=CLOSED_SHELL('',(#366,#407,#448,#473,#493,#512,#522,#532));
#534=MANIFOLD_SOLID_BREP('93A',#533);
#535=STYLED_ITEM('NONE',(#301),#534);
#536=CARTESIAN_POINT('',(-8.749999999999998,1.000000000000000,2.765000000000001));
#537=DIRECTION('',(1.0,0.0,0.0));
#538=DIRECTION('',(0.0,0.0,-1.0));
#539=AXIS2_PLACEMENT_3D('',#536,#537,#538);
#540=TOROIDAL_SURFACE('',#539,1.0,0.400000000000000);
#541=CARTESIAN_POINT('',(-8.749999999999998,-0.400000000000000,2.765000000000002));
#542=VERTEX_POINT('',#541);
#543=CARTESIAN_POINT('',(-8.749999999999998,1.000000000000000,4.165000000000001));
#544=VERTEX_POINT('',#543);
#545=CARTESIAN_POINT('',(-8.749999999999998,1.000000000000000,2.765000000000001));
#546=DIRECTION('',(-1.0,0.0,0.0));
#547=DIRECTION('',(0.0,0.0,-1.0));
#548=AXIS2_PLACEMENT_3D('',#545,#546,#547);
#549=CIRCLE('',#548,1.400000000000000);
#550=EDGE_CURVE('',#542,#544,#549,.T.);
#551=ORIENTED_EDGE('',*,*,#550,.F.);
#552=CARTESIAN_POINT('',(-8.349999999999998,-1.110223E-016,2.765000000000001));
#553=VERTEX_POINT('',#552);
#554=CARTESIAN_POINT('',(-8.749999999999998,0.0,2.765000000000002));
#555=DIRECTION('',(0.0,0.0,1.0));
#556=DIRECTION('',(1.0,0.0,0.0));
#557=AXIS2_PLACEMENT_3D('',#554,#555,#556);
#558=CIRCLE('',#557,0.400000000000000);
#559=EDGE_CURVE('',#542,#553,#558,.T.);
#560=ORIENTED_EDGE('',*,*,#559,.T.);
#561=CARTESIAN_POINT('',(-8.749999999999998,0.400000000000000,2.765000000000002));
#562=VERTEX_POINT('',#561);
#563=CARTESIAN_POINT('',(-8.749999999999998,0.0,2.765000000000002));
#564=DIRECTION('',(0.0,0.0,1.0));
#565=DIRECTION('',(1.0,0.0,0.0));
#566=AXIS2_PLACEMENT_3D('',#563,#564,#565);
#567=CIRCLE('',#566,0.400000000000000);
#568=EDGE_CURVE('',#553,#562,#567,.T.);
#569=ORIENTED_EDGE('',*,*,#568,.T.);
#570=CARTESIAN_POINT('',(-8.749999999999998,1.000000000000000,3.365000000000001));
#571=VERTEX_POINT('',#570);
#572=CARTESIAN_POINT('',(-8.749999999999998,1.000000000000000,2.765000000000001));
#573=DIRECTION('',(-1.0,0.0,0.0));
#574=DIRECTION('',(0.0,0.0,-1.0));
#575=AXIS2_PLACEMENT_3D('',#572,#573,#574);
#576=CIRCLE('',#575,0.600000000000000);
#577=EDGE_CURVE('',#562,#571,#576,.T.);
#578=ORIENTED_EDGE('',*,*,#577,.T.);
#579=CARTESIAN_POINT('',(-8.349999999999998,1.0,3.765000000000001));
#580=VERTEX_POINT('',#579);
#581=CARTESIAN_POINT('',(-8.749999999999998,1.000000000000000,3.765000000000001));
#582=DIRECTION('',(0.0,1.0,0.0));
#583=DIRECTION('',(1.0,0.0,0.0));
#584=AXIS2_PLACEMENT_3D('',#581,#582,#583);
#585=CIRCLE('',#584,0.400000000000000);
#586=EDGE_CURVE('',#580,#571,#585,.T.);
#587=ORIENTED_EDGE('',*,*,#586,.F.);
#588=CARTESIAN_POINT('',(-8.749999999999998,1.000000000000000,3.765000000000001));
#589=DIRECTION('',(0.0,1.0,0.0));
#590=DIRECTION('',(1.0,0.0,0.0));
#591=AXIS2_PLACEMENT_3D('',#588,#589,#590);
#592=CIRCLE('',#591,0.400000000000000);
#593=EDGE_CURVE('',#544,#580,#592,.T.);
#594=ORIENTED_EDGE('',*,*,#593,.F.);
#595=EDGE_LOOP('',(#551,#560,#569,#578,#587,#594));
#596=FACE_OUTER_BOUND('',#595,.T.);
#597=ADVANCED_FACE('',(#596),#540,.T.);
#598=CARTESIAN_POINT('',(-8.749999999999998,3.764999999999999,3.765000000000001));
#599=DIRECTION('',(0.0,-1.0,1.606109E-016));
#600=DIRECTION('',(1.0,0.0,0.0));
#601=AXIS2_PLACEMENT_3D('',#598,#599,#600);
#602=CYLINDRICAL_SURFACE('',#601,0.400000000000000);
#603=CARTESIAN_POINT('',(-8.349999999999998,3.764999999999999,3.765000000000001));
#604=VERTEX_POINT('',#603);
#605=CARTESIAN_POINT('',(-8.349999999999998,1.000000000000000,3.765000000000001));
#606=DIRECTION('',(0.0,1.0,0.0));
#607=VECTOR('',#606,2.764999999999999);
#608=LINE('',#605,#607);
#609=EDGE_CURVE('',#580,#604,#608,.T.);
#610=ORIENTED_EDGE('',*,*,#609,.F.);
#611=ORIENTED_EDGE('',*,*,#586,.T.);
#612=CARTESIAN_POINT('',(-9.149999999999999,1.000000000000000,3.765000000000001));
#613=VERTEX_POINT('',#612);
#614=CARTESIAN_POINT('',(-8.749999999999998,1.000000000000000,3.765000000000001));
#615=DIRECTION('',(0.0,1.0,0.0));
#616=DIRECTION('',(1.0,0.0,0.0));
#617=AXIS2_PLACEMENT_3D('',#614,#615,#616);
#618=CIRCLE('',#617,0.400000000000000);
#619=EDGE_CURVE('',#571,#613,#618,.T.);
#620=ORIENTED_EDGE('',*,*,#619,.T.);
#621=CARTESIAN_POINT('',(-9.149999999999999,3.764999999999999,3.765000000000001));
#622=VERTEX_POINT('',#621);
#623=CARTESIAN_POINT('',(-9.149999999999999,1.000000000000000,3.765000000000001));
#624=DIRECTION('',(0.0,1.0,0.0));
#625=VECTOR('',#624,2.764999999999999);
#626=LINE('',#623,#625);
#627=EDGE_CURVE('',#613,#622,#626,.T.);
#628=ORIENTED_EDGE('',*,*,#627,.T.);
#629=CARTESIAN_POINT('',(-8.749999999999998,3.764999999999999,3.765000000000001));
#630=DIRECTION('',(0.0,-1.0,0.0));
#631=DIRECTION('',(1.0,0.0,0.0));
#632=AXIS2_PLACEMENT_3D('',#629,#630,#631);
#633=CIRCLE('',#632,0.400000000000000);
#634=EDGE_CURVE('',#622,#604,#633,.T.);
#635=ORIENTED_EDGE('',*,*,#634,.T.);
#636=EDGE_LOOP('',(#610,#611,#620,#628,#635));
#637=FACE_OUTER_BOUND('',#636,.T.);
#638=ADVANCED_FACE('',(#637),#602,.T.);
#639=CARTESIAN_POINT('',(-8.749999999999998,0.0,2.765000000000002));
#640=DIRECTION('',(0.0,-1.220984E-016,-1.0));
#641=DIRECTION('',(1.0,0.0,0.0));
#642=AXIS2_PLACEMENT_3D('',#639,#640,#641);
#643=CYLINDRICAL_SURFACE('',#642,0.400000000000000);
#644=CARTESIAN_POINT('',(-8.349999999999998,-8.881784E-016,-3.600000000000000));
#645=VERTEX_POINT('',#644);
#646=CARTESIAN_POINT('',(-8.349999999999998,-7.771561E-016,-3.600000000000000));
#647=DIRECTION('',(0.0,0.0,1.0));
#648=VECTOR('',#647,6.365000000000000);
#649=LINE('',#646,#648);
#650=EDGE_CURVE('',#645,#553,#649,.T.);
#651=ORIENTED_EDGE('',*,*,#650,.F.);
#652=CARTESIAN_POINT('',(-9.149999999999999,-7.281719E-016,-3.600000000000000));
#653=VERTEX_POINT('',#652);
#654=CARTESIAN_POINT('',(-8.749999999999998,-7.771561E-016,-3.600000000000000));
#655=DIRECTION('',(0.0,0.0,1.0));
#656=DIRECTION('',(1.0,0.0,0.0));
#657=AXIS2_PLACEMENT_3D('',#654,#655,#656);
#658=CIRCLE('',#657,0.400000000000000);
#659=EDGE_CURVE('',#645,#653,#658,.T.);
#660=ORIENTED_EDGE('',*,*,#659,.T.);
#661=CARTESIAN_POINT('',(-9.149999999999999,4.898425E-017,2.765000000000002));
#662=VERTEX_POINT('',#661);
#663=CARTESIAN_POINT('',(-9.149999999999999,-7.281719E-016,-3.600000000000000));
#664=DIRECTION('',(0.0,0.0,1.0));
#665=VECTOR('',#664,6.365000000000001);
#666=LINE('',#663,#665);
#667=EDGE_CURVE('',#653,#662,#666,.T.);
#668=ORIENTED_EDGE('',*,*,#667,.T.);
#669=CARTESIAN_POINT('',(-8.749999999999998,0.0,2.765000000000002));
#670=DIRECTION('',(0.0,0.0,1.0));
#671=DIRECTION('',(1.0,0.0,0.0));
#672=AXIS2_PLACEMENT_3D('',#669,#670,#671);
#673=CIRCLE('',#672,0.400000000000000);
#674=EDGE_CURVE('',#562,#662,#673,.T.);
#675=ORIENTED_EDGE('',*,*,#674,.F.);
#676=ORIENTED_EDGE('',*,*,#568,.F.);
#677=EDGE_LOOP('',(#651,#660,#668,#675,#676));
#678=FACE_OUTER_BOUND('',#677,.T.);
#679=ADVANCED_FACE('',(#678),#643,.T.);
#680=CARTESIAN_POINT('',(-8.749999999999998,0.0,2.765000000000002));
#681=DIRECTION('',(0.0,-1.220984E-016,-1.0));
#682=DIRECTION('',(1.0,0.0,0.0));
#683=AXIS2_PLACEMENT_3D('',#680,#681,#682);
#684=CYLINDRICAL_SURFACE('',#683,0.400000000000000);
#685=ORIENTED_EDGE('',*,*,#650,.T.);
#686=ORIENTED_EDGE('',*,*,#559,.F.);
#687=CARTESIAN_POINT('',(-8.749999999999998,0.0,2.765000000000002));
#688=DIRECTION('',(0.0,0.0,1.0));
#689=DIRECTION('',(1.0,0.0,0.0));
#690=AXIS2_PLACEMENT_3D('',#687,#688,#689);
#691=CIRCLE('',#690,0.400000000000000);
#692=EDGE_CURVE('',#662,#542,#691,.T.);
#693=ORIENTED_EDGE('',*,*,#692,.F.);
#694=ORIENTED_EDGE('',*,*,#667,.F.);
#695=CARTESIAN_POINT('',(-8.749999999999998,-7.771561E-016,-3.600000000000000));
#696=DIRECTION('',(0.0,0.0,1.0));
#697=DIRECTION('',(1.0,0.0,0.0));
#698=AXIS2_PLACEMENT_3D('',#695,#696,#697);
#699=CIRCLE('',#698,0.400000000000000);
#700=EDGE_CURVE('',#653,#645,#699,.T.);
#701=ORIENTED_EDGE('',*,*,#700,.T.);
#702=EDGE_LOOP('',(#685,#686,#693,#694,#701));
#703=FACE_OUTER_BOUND('',#702,.T.);
#704=ADVANCED_FACE('',(#703),#684,.T.);
#705=CARTESIAN_POINT('',(-8.749999999999998,1.000000000000000,2.765000000000001));
#706=DIRECTION('',(1.0,0.0,0.0));
#707=DIRECTION('',(0.0,0.0,-1.0));
#708=AXIS2_PLACEMENT_3D('',#705,#706,#707);
#709=TOROIDAL_SURFACE('',#708,1.0,0.400000000000000);
#710=ORIENTED_EDGE('',*,*,#550,.T.);
#711=CARTESIAN_POINT('',(-8.749999999999998,1.000000000000000,3.765000000000001));
#712=DIRECTION('',(0.0,1.0,0.0));
#713=DIRECTION('',(1.0,0.0,0.0));
#714=AXIS2_PLACEMENT_3D('',#711,#712,#713);
#715=CIRCLE('',#714,0.400000000000000);
#716=EDGE_CURVE('',#613,#544,#715,.T.);
#717=ORIENTED_EDGE('',*,*,#716,.F.);
#718=ORIENTED_EDGE('',*,*,#619,.F.);
#719=ORIENTED_EDGE('',*,*,#577,.F.);
#720=ORIENTED_EDGE('',*,*,#674,.T.);
#721=ORIENTED_EDGE('',*,*,#692,.T.);
#722=EDGE_LOOP('',(#710,#717,#718,#719,#720,#721));
#723=FACE_OUTER_BOUND('',#722,.T.);
#724=ADVANCED_FACE('',(#723),#709,.T.);
#725=CARTESIAN_POINT('',(-8.749999999999998,3.764999999999999,3.765000000000001));
#726=DIRECTION('',(0.0,-1.0,1.606109E-016));
#727=DIRECTION('',(1.0,0.0,0.0));
#728=AXIS2_PLACEMENT_3D('',#725,#726,#727);
#729=CYLINDRICAL_SURFACE('',#728,0.400000000000000);
#730=ORIENTED_EDGE('',*,*,#609,.T.);
#731=CARTESIAN_POINT('',(-8.749999999999998,3.764999999999999,3.765000000000001));
#732=DIRECTION('',(0.0,-1.0,0.0));
#733=DIRECTION('',(1.0,0.0,0.0));
#734=AXIS2_PLACEMENT_3D('',#731,#732,#733);
#735=CIRCLE('',#734,0.400000000000000);
#736=EDGE_CURVE('',#604,#622,#735,.T.);
#737=ORIENTED_EDGE('',*,*,#736,.T.);
#738=ORIENTED_EDGE('',*,*,#627,.F.);
#739=ORIENTED_EDGE('',*,*,#716,.T.);
#740=ORIENTED_EDGE('',*,*,#593,.T.);
#741=EDGE_LOOP('',(#730,#737,#738,#739,#740));
#742=FACE_OUTER_BOUND('',#741,.T.);
#743=ADVANCED_FACE('',(#742),#729,.T.);
#744=CARTESIAN_POINT('',(-8.749999999999998,3.764999999999999,3.765000000000001));
#745=DIRECTION('',(0.0,-1.0,0.0));
#746=DIRECTION('',(0.0,0.0,-1.0));
#747=AXIS2_PLACEMENT_3D('',#744,#745,#746);
#748=PLANE('',#747);
#749=ORIENTED_EDGE('',*,*,#736,.F.);
#750=ORIENTED_EDGE('',*,*,#634,.F.);
#751=EDGE_LOOP('',(#749,#750));
#752=FACE_OUTER_BOUND('',#751,.T.);
#753=ADVANCED_FACE('',(#752),#748,.F.);
#754=CARTESIAN_POINT('',(-8.749999999999998,-8.881784E-016,-3.600000000000000));
#755=DIRECTION('',(0.0,0.0,-1.0));
#756=DIRECTION('',(-1.0,0.0,0.0));
#757=AXIS2_PLACEMENT_3D('',#754,#755,#756);
#758=PLANE('',#757);
#759=ORIENTED_EDGE('',*,*,#659,.F.);
#760=ORIENTED_EDGE('',*,*,#700,.F.);
#761=EDGE_LOOP('',(#759,#760));
#762=FACE_OUTER_BOUND('',#761,.T.);
#763=ADVANCED_FACE('',(#762),#758,.T.);
#764=CLOSED_SHELL('',(#597,#638,#679,#704,#724,#743,#753,#763));
#765=MANIFOLD_SOLID_BREP('936',#764);
#766=STYLED_ITEM('NONE',(#301),#765);
#767=CARTESIAN_POINT('',(-13.749999999999995,1.000000000000001,2.765000000000001));
#768=DIRECTION('',(1.0,0.0,0.0));
#769=DIRECTION('',(0.0,0.0,-1.0));
#770=AXIS2_PLACEMENT_3D('',#767,#768,#769);
#771=TOROIDAL_SURFACE('',#770,1.0,0.500000000000000);
#772=CARTESIAN_POINT('',(-13.749999999999995,-0.499999999999999,2.765000000000000));
#773=VERTEX_POINT('',#772);
#774=CARTESIAN_POINT('',(-13.749999999999995,1.0,4.265000000000001));
#775=VERTEX_POINT('',#774);
#776=CARTESIAN_POINT('',(-13.749999999999995,1.000000000000001,2.765000000000001));
#777=DIRECTION('',(-1.0,0.0,0.0));
#778=DIRECTION('',(0.0,0.0,-1.0));
#779=AXIS2_PLACEMENT_3D('',#776,#777,#778);
#780=CIRCLE('',#779,1.500000000000000);
#781=EDGE_CURVE('',#773,#775,#780,.T.);
#782=ORIENTED_EDGE('',*,*,#781,.F.);
#783=CARTESIAN_POINT('',(-13.249999999999996,6.661338E-016,2.765000000000001));
#784=VERTEX_POINT('',#783);
#785=CARTESIAN_POINT('',(-13.749999999999995,8.881784E-016,2.765000000000000));
#786=DIRECTION('',(0.0,0.0,1.0));
#787=DIRECTION('',(1.0,0.0,0.0));
#788=AXIS2_PLACEMENT_3D('',#785,#786,#787);
#789=CIRCLE('',#788,0.500000000000000);
#790=EDGE_CURVE('',#773,#784,#789,.T.);
#791=ORIENTED_EDGE('',*,*,#790,.T.);
#792=CARTESIAN_POINT('',(-13.749999999999995,0.500000000000001,2.765000000000000));
#793=VERTEX_POINT('',#792);
#794=CARTESIAN_POINT('',(-13.749999999999995,8.881784E-016,2.765000000000000));
#795=DIRECTION('',(0.0,0.0,1.0));
#796=DIRECTION('',(1.0,0.0,0.0));
#797=AXIS2_PLACEMENT_3D('',#794,#795,#796);
#798=CIRCLE('',#797,0.500000000000000);
#799=EDGE_CURVE('',#784,#793,#798,.T.);
#800=ORIENTED_EDGE('',*,*,#799,.T.);
#801=CARTESIAN_POINT('',(-13.749999999999995,1.000000000000000,3.265000000000001));
#802=VERTEX_POINT('',#801);
#803=CARTESIAN_POINT('',(-13.749999999999995,1.000000000000001,2.765000000000001));
#804=DIRECTION('',(-1.0,0.0,0.0));
#805=DIRECTION('',(0.0,0.0,-1.0));
#806=AXIS2_PLACEMENT_3D('',#803,#804,#805);
#807=CIRCLE('',#806,0.500000000000000);
#808=EDGE_CURVE('',#793,#802,#807,.T.);
#809=ORIENTED_EDGE('',*,*,#808,.T.);
#810=CARTESIAN_POINT('',(-13.249999999999995,1.000000000000001,3.765000000000001));
#811=VERTEX_POINT('',#810);
#812=CARTESIAN_POINT('',(-13.749999999999995,1.0,3.765000000000001));
#813=DIRECTION('',(0.0,1.0,0.0));
#814=DIRECTION('',(1.0,0.0,0.0));
#815=AXIS2_PLACEMENT_3D('',#812,#813,#814);
#816=CIRCLE('',#815,0.500000000000000);
#817=EDGE_CURVE('',#811,#802,#816,.T.);
#818=ORIENTED_EDGE('',*,*,#817,.F.);
#819=CARTESIAN_POINT('',(-13.749999999999995,1.0,3.765000000000001));
#820=DIRECTION('',(0.0,1.0,0.0));
#821=DIRECTION('',(1.0,0.0,0.0));
#822=AXIS2_PLACEMENT_3D('',#819,#820,#821);
#823=CIRCLE('',#822,0.500000000000000);
#824=EDGE_CURVE('',#775,#811,#823,.T.);
#825=ORIENTED_EDGE('',*,*,#824,.F.);
#826=EDGE_LOOP('',(#782,#791,#800,#809,#818,#825));
#827=FACE_OUTER_BOUND('',#826,.T.);
#828=ADVANCED_FACE('',(#827),#771,.T.);
#829=CARTESIAN_POINT('',(-13.749999999999995,3.764999999999999,3.765000000000001));
#830=DIRECTION('',(0.0,-1.0,1.606109E-016));
#831=DIRECTION('',(1.0,0.0,0.0));
#832=AXIS2_PLACEMENT_3D('',#829,#830,#831);
#833=CYLINDRICAL_SURFACE('',#832,0.500000000000000);
#834=CARTESIAN_POINT('',(-13.249999999999995,3.764999999999999,3.765000000000001));
#835=VERTEX_POINT('',#834);
#836=CARTESIAN_POINT('',(-13.249999999999995,1.000000000000001,3.765000000000001));
#837=DIRECTION('',(0.0,1.0,0.0));
#838=VECTOR('',#837,2.764999999999998);
#839=LINE('',#836,#838);
#840=EDGE_CURVE('',#811,#835,#839,.T.);
#841=ORIENTED_EDGE('',*,*,#840,.F.);
#842=ORIENTED_EDGE('',*,*,#817,.T.);
#843=CARTESIAN_POINT('',(-14.249999999999995,1.0,3.765000000000001));
#844=VERTEX_POINT('',#843);
#845=CARTESIAN_POINT('',(-13.749999999999995,1.0,3.765000000000001));
#846=DIRECTION('',(0.0,1.0,0.0));
#847=DIRECTION('',(1.0,0.0,0.0));
#848=AXIS2_PLACEMENT_3D('',#845,#846,#847);
#849=CIRCLE('',#848,0.500000000000000);
#850=EDGE_CURVE('',#802,#844,#849,.T.);
#851=ORIENTED_EDGE('',*,*,#850,.T.);
#852=CARTESIAN_POINT('',(-14.249999999999995,3.764999999999999,3.765000000000001));
#853=VERTEX_POINT('',#852);
#854=CARTESIAN_POINT('',(-14.249999999999995,1.0,3.765000000000001));
#855=DIRECTION('',(0.0,1.0,0.0));
#856=VECTOR('',#855,2.764999999999999);
#857=LINE('',#854,#856);
#858=EDGE_CURVE('',#844,#853,#857,.T.);
#859=ORIENTED_EDGE('',*,*,#858,.T.);
#860=CARTESIAN_POINT('',(-13.749999999999995,3.764999999999999,3.765000000000001));
#861=DIRECTION('',(0.0,-1.0,0.0));
#862=DIRECTION('',(1.0,0.0,0.0));
#863=AXIS2_PLACEMENT_3D('',#860,#861,#862);
#864=CIRCLE('',#863,0.500000000000000);
#865=EDGE_CURVE('',#853,#835,#864,.T.);
#866=ORIENTED_EDGE('',*,*,#865,.T.);
#867=EDGE_LOOP('',(#841,#842,#851,#859,#866));
#868=FACE_OUTER_BOUND('',#867,.T.);
#869=ADVANCED_FACE('',(#868),#833,.T.);
#870=CARTESIAN_POINT('',(-13.749999999999995,8.881784E-016,2.765000000000000));
#871=DIRECTION('',(0.0,-1.220984E-016,-1.0));
#872=DIRECTION('',(1.0,0.0,0.0));
#873=AXIS2_PLACEMENT_3D('',#870,#871,#872);
#874=CYLINDRICAL_SURFACE('',#873,0.500000000000000);
#875=CARTESIAN_POINT('',(-13.249999999999996,-1.110223E-016,-3.600000000000000));
#876=VERTEX_POINT('',#875);
#877=CARTESIAN_POINT('',(-13.249999999999995,1.110223E-016,-3.600000000000000));
#878=DIRECTION('',(0.0,0.0,1.0));
#879=VECTOR('',#878,6.365000000000000);
#880=LINE('',#877,#879);
#881=EDGE_CURVE('',#876,#784,#880,.T.);
#882=ORIENTED_EDGE('',*,*,#881,.F.);
#883=CARTESIAN_POINT('',(-14.249999999999995,1.722526E-016,-3.600000000000001));
#884=VERTEX_POINT('',#883);
#885=CARTESIAN_POINT('',(-13.749999999999995,1.110223E-016,-3.600000000000001));
#886=DIRECTION('',(0.0,0.0,1.0));
#887=DIRECTION('',(1.0,0.0,0.0));
#888=AXIS2_PLACEMENT_3D('',#885,#886,#887);
#889=CIRCLE('',#888,0.500000000000000);
#890=EDGE_CURVE('',#876,#884,#889,.T.);
#891=ORIENTED_EDGE('',*,*,#890,.T.);
#892=CARTESIAN_POINT('',(-14.249999999999995,9.494087E-016,2.765000000000000));
#893=VERTEX_POINT('',#892);
#894=CARTESIAN_POINT('',(-14.249999999999995,1.722526E-016,-3.600000000000001));
#895=DIRECTION('',(0.0,0.0,1.0));
#896=VECTOR('',#895,6.365000000000001);
#897=LINE('',#894,#896);
#898=EDGE_CURVE('',#884,#893,#897,.T.);
#899=ORIENTED_EDGE('',*,*,#898,.T.);
#900=CARTESIAN_POINT('',(-13.749999999999995,8.881784E-016,2.765000000000000));
#901=DIRECTION('',(0.0,0.0,1.0));
#902=DIRECTION('',(1.0,0.0,0.0));
#903=AXIS2_PLACEMENT_3D('',#900,#901,#902);
#904=CIRCLE('',#903,0.500000000000000);
#905=EDGE_CURVE('',#793,#893,#904,.T.);
#906=ORIENTED_EDGE('',*,*,#905,.F.);
#907=ORIENTED_EDGE('',*,*,#799,.F.);
#908=EDGE_LOOP('',(#882,#891,#899,#906,#907));
#909=FACE_OUTER_BOUND('',#908,.T.);
#910=ADVANCED_FACE('',(#909),#874,.T.);
#911=CARTESIAN_POINT('',(-13.749999999999995,8.881784E-016,2.765000000000000));
#912=DIRECTION('',(0.0,-1.220984E-016,-1.0));
#913=DIRECTION('',(1.0,0.0,0.0));
#914=AXIS2_PLACEMENT_3D('',#911,#912,#913);
#915=CYLINDRICAL_SURFACE('',#914,0.500000000000000);
#916=ORIENTED_EDGE('',*,*,#881,.T.);
#917=ORIENTED_EDGE('',*,*,#790,.F.);
#918=CARTESIAN_POINT('',(-13.749999999999995,8.881784E-016,2.765000000000000));
#919=DIRECTION('',(0.0,0.0,1.0));
#920=DIRECTION('',(1.0,0.0,0.0));
#921=AXIS2_PLACEMENT_3D('',#918,#919,#920);
#922=CIRCLE('',#921,0.500000000000000);
#923=EDGE_CURVE('',#893,#773,#922,.T.);
#924=ORIENTED_EDGE('',*,*,#923,.F.);
#925=ORIENTED_EDGE('',*,*,#898,.F.);
#926=CARTESIAN_POINT('',(-13.749999999999995,1.110223E-016,-3.600000000000001));
#927=DIRECTION('',(0.0,0.0,1.0));
#928=DIRECTION('',(1.0,0.0,0.0));
#929=AXIS2_PLACEMENT_3D('',#926,#927,#928);
#930=CIRCLE('',#929,0.500000000000000);
#931=EDGE_CURVE('',#884,#876,#930,.T.);
#932=ORIENTED_EDGE('',*,*,#931,.T.);
#933=EDGE_LOOP('',(#916,#917,#924,#925,#932));
#934=FACE_OUTER_BOUND('',#933,.T.);
#935=ADVANCED_FACE('',(#934),#915,.T.);
#936=CARTESIAN_POINT('',(-13.749999999999995,1.000000000000001,2.765000000000001));
#937=DIRECTION('',(1.0,0.0,0.0));
#938=DIRECTION('',(0.0,0.0,-1.0));
#939=AXIS2_PLACEMENT_3D('',#936,#937,#938);
#940=TOROIDAL_SURFACE('',#939,1.0,0.500000000000000);
#941=ORIENTED_EDGE('',*,*,#781,.T.);
#942=CARTESIAN_POINT('',(-13.749999999999995,1.0,3.765000000000001));
#943=DIRECTION('',(0.0,1.0,0.0));
#944=DIRECTION('',(1.0,0.0,0.0));
#945=AXIS2_PLACEMENT_3D('',#942,#943,#944);
#946=CIRCLE('',#945,0.500000000000000);
#947=EDGE_CURVE('',#844,#775,#946,.T.);
#948=ORIENTED_EDGE('',*,*,#947,.F.);
#949=ORIENTED_EDGE('',*,*,#850,.F.);
#950=ORIENTED_EDGE('',*,*,#808,.F.);
#951=ORIENTED_EDGE('',*,*,#905,.T.);
#952=ORIENTED_EDGE('',*,*,#923,.T.);
#953=EDGE_LOOP('',(#941,#948,#949,#950,#951,#952));
#954=FACE_OUTER_BOUND('',#953,.T.);
#955=ADVANCED_FACE('',(#954),#940,.T.);
#956=CARTESIAN_POINT('',(-13.749999999999995,3.764999999999999,3.765000000000001));
#957=DIRECTION('',(0.0,-1.0,1.606109E-016));
#958=DIRECTION('',(1.0,0.0,0.0));
#959=AXIS2_PLACEMENT_3D('',#956,#957,#958);
#960=CYLINDRICAL_SURFACE('',#959,0.500000000000000);
#961=ORIENTED_EDGE('',*,*,#840,.T.);
#962=CARTESIAN_POINT('',(-13.749999999999995,3.764999999999999,3.765000000000001));
#963=DIRECTION('',(0.0,-1.0,0.0));
#964=DIRECTION('',(1.0,0.0,0.0));
#965=AXIS2_PLACEMENT_3D('',#962,#963,#964);
#966=CIRCLE('',#965,0.500000000000000);
#967=EDGE_CURVE('',#835,#853,#966,.T.);
#968=ORIENTED_EDGE('',*,*,#967,.T.);
#969=ORIENTED_EDGE('',*,*,#858,.F.);
#970=ORIENTED_EDGE('',*,*,#947,.T.);
#971=ORIENTED_EDGE('',*,*,#824,.T.);
#972=EDGE_LOOP('',(#961,#968,#969,#970,#971));
#973=FACE_OUTER_BOUND('',#972,.T.);
#974=ADVANCED_FACE('',(#973),#960,.T.);
#975=CARTESIAN_POINT('',(-13.749999999999995,3.764999999999999,3.765000000000001));
#976=DIRECTION('',(0.0,-1.0,0.0));
#977=DIRECTION('',(0.0,0.0,-1.0));
#978=AXIS2_PLACEMENT_3D('',#975,#976,#977);
#979=PLANE('',#978);
#980=ORIENTED_EDGE('',*,*,#967,.F.);
#981=ORIENTED_EDGE('',*,*,#865,.F.);
#982=EDGE_LOOP('',(#980,#981));
#983=FACE_OUTER_BOUND('',#982,.T.);
#984=ADVANCED_FACE('',(#983),#979,.F.);
#985=CARTESIAN_POINT('',(-13.749999999999996,0.0,-3.600000000000000));
#986=DIRECTION('',(0.0,0.0,-1.0));
#987=DIRECTION('',(-1.0,0.0,0.0));
#988=AXIS2_PLACEMENT_3D('',#985,#986,#987);
#989=PLANE('',#988);
#990=ORIENTED_EDGE('',*,*,#890,.F.);
#991=ORIENTED_EDGE('',*,*,#931,.F.);
#992=EDGE_LOOP('',(#990,#991));
#993=FACE_OUTER_BOUND('',#992,.T.);
#994=ADVANCED_FACE('',(#993),#989,.T.);
#995=CLOSED_SHELL('',(#828,#869,#910,#935,#955,#974,#984,#994));
#996=MANIFOLD_SOLID_BREP('932',#995);
#997=STYLED_ITEM('NONE',(#301),#996);
#998=CARTESIAN_POINT('',(8.049999999999999,3.864999999999996,3.765000000000007));
#999=DIRECTION('',(-2.357520E-016,-0.997964768061958,0.063767716809071));
#1000=DIRECTION('',(0.0,-0.063767716809071,-0.997964768061958));
#1001=AXIS2_PLACEMENT_3D('',#998,#999,#1000);
#1002=PLANE('',#1001);
#1003=CARTESIAN_POINT('',(15.899999999999999,3.964999999999995,5.330000000000009));
#1004=VERTEX_POINT('',#1003);
#1005=CARTESIAN_POINT('',(-15.900000000000004,3.965000000000002,5.330000000000002));
#1006=VERTEX_POINT('',#1005);
#1007=CARTESIAN_POINT('',(15.899999999999999,3.964999999999995,5.330000000000009));
#1008=DIRECTION('',(-1.0,0.0,0.0));
#1009=VECTOR('',#1008,31.800000000000004);
#1010=LINE('',#1007,#1009);
#1011=EDGE_CURVE('',#1004,#1006,#1010,.T.);
#1012=ORIENTED_EDGE('',*,*,#1011,.T.);
#1013=CARTESIAN_POINT('',(-16.100000000000005,3.765000000000000,2.200000000000001));
#1014=VERTEX_POINT('',#1013);
#1015=CARTESIAN_POINT('',(-15.900000000000004,3.965000000000002,5.330000000000002));
#1016=DIRECTION('',(-0.063638460847472,-0.063638460847472,-0.995941912262924));
#1017=VECTOR('',#1016,3.142753569721942);
#1018=LINE('',#1015,#1017);
#1019=EDGE_CURVE('',#1006,#1014,#1018,.T.);
#1020=ORIENTED_EDGE('',*,*,#1019,.T.);
#1021=CARTESIAN_POINT('',(16.099999999999998,3.764999999999993,2.200000000000008));
#1022=VERTEX_POINT('',#1021);
#1023=CARTESIAN_POINT('',(-16.100000000000005,3.765000000000000,2.200000000000001));
#1024=DIRECTION('',(1.0,0.0,0.0));
#1025=VECTOR('',#1024,32.200000000000003);
#1026=LINE('',#1023,#1025);
#1027=EDGE_CURVE('',#1014,#1022,#1026,.T.);
#1028=ORIENTED_EDGE('',*,*,#1027,.T.);
#1029=CARTESIAN_POINT('',(16.099999999999998,3.764999999999993,2.200000000000008));
#1030=DIRECTION('',(-0.063638460847471,0.063638460847472,0.995941912262924));
#1031=VECTOR('',#1030,3.142753569721941);
#1032=LINE('',#1029,#1031);
#1033=EDGE_CURVE('',#1022,#1004,#1032,.T.);
#1034=ORIENTED_EDGE('',*,*,#1033,.T.);
#1035=EDGE_LOOP('',(#1012,#1020,#1028,#1034));
#1036=FACE_OUTER_BOUND('',#1035,.T.);
#1037=ADVANCED_FACE('',(#1036),#1002,.T.);
#1038=CARTESIAN_POINT('',(15.999999999999998,3.764999999999994,3.765000000000009));
#1039=DIRECTION('',(0.997964768061958,-2.098791E-016,0.063767716809071));
#1040=DIRECTION('',(0.063767716809071,0.0,-0.997964768061958));
#1041=AXIS2_PLACEMENT_3D('',#1038,#1039,#1040);
#1042=PLANE('',#1041);
#1043=CARTESIAN_POINT('',(16.099999999999998,19.764999999999993,2.200000000000005));
#1044=VERTEX_POINT('',#1043);
#1045=CARTESIAN_POINT('',(16.099999999999998,3.764999999999993,2.200000000000008));
#1046=DIRECTION('',(0.0,1.0,0.0));
#1047=VECTOR('',#1046,15.999999999999996);
#1048=LINE('',#1045,#1047);
#1049=EDGE_CURVE('',#1022,#1044,#1048,.T.);
#1050=ORIENTED_EDGE('',*,*,#1049,.T.);
#1051=CARTESIAN_POINT('',(15.900000000000002,19.564999999999998,5.330000000000005));
#1052=VERTEX_POINT('',#1051);
#1053=CARTESIAN_POINT('',(16.099999999999998,19.764999999999993,2.200000000000005));
#1054=DIRECTION('',(-0.063638460847470,-0.063638460847470,0.995941912262924));
#1055=VECTOR('',#1054,3.142753569721941);
#1056=LINE('',#1053,#1055);
#1057=EDGE_CURVE('',#1044,#1052,#1056,.T.);
#1058=ORIENTED_EDGE('',*,*,#1057,.T.);
#1059=CARTESIAN_POINT('',(15.900000000000002,19.564999999999998,5.330000000000006));
#1060=DIRECTION('',(0.0,-1.0,0.0));
#1061=VECTOR('',#1060,15.600000000000003);
#1062=LINE('',#1059,#1061);
#1063=EDGE_CURVE('',#1052,#1004,#1062,.T.);
#1064=ORIENTED_EDGE('',*,*,#1063,.T.);
#1065=ORIENTED_EDGE('',*,*,#1033,.F.);
#1066=EDGE_LOOP('',(#1050,#1058,#1064,#1065));
#1067=FACE_OUTER_BOUND('',#1066,.T.);
#1068=ADVANCED_FACE('',(#1067),#1042,.T.);
#1069=CARTESIAN_POINT('',(-16.000000000000004,3.765000000000001,3.765000000000002));
#1070=DIRECTION('',(-0.997964768061958,2.333062E-016,0.063767716809071));
#1071=DIRECTION('',(0.063767716809071,0.0,0.997964768061958));
#1072=AXIS2_PLACEMENT_3D('',#1069,#1070,#1071);
#1073=PLANE('',#1072);
#1074=CARTESIAN_POINT('',(-15.900000000000000,19.565000000000001,5.329999999999998));
#1075=VERTEX_POINT('',#1074);
#1076=CARTESIAN_POINT('',(-15.900000000000004,3.965000000000002,5.330000000000002));
#1077=DIRECTION('',(0.0,1.0,0.0));
#1078=VECTOR('',#1077,15.600000000000000);
#1079=LINE('',#1076,#1078);
#1080=EDGE_CURVE('',#1006,#1075,#1079,.T.);
#1081=ORIENTED_EDGE('',*,*,#1080,.T.);
#1082=CARTESIAN_POINT('',(-16.100000000000001,19.765000000000001,2.199999999999998));
#1083=VERTEX_POINT('',#1082);
#1084=CARTESIAN_POINT('',(-15.900000000000000,19.565000000000001,5.329999999999998));
#1085=DIRECTION('',(-0.063638460847471,0.063638460847471,-0.995941912262924));
#1086=VECTOR('',#1085,3.142753569721942);
#1087=LINE('',#1084,#1086);
#1088=EDGE_CURVE('',#1075,#1083,#1087,.T.);
#1089=ORIENTED_EDGE('',*,*,#1088,.T.);
#1090=CARTESIAN_POINT('',(-16.100000000000005,3.765000000000000,2.200000000000001));
#1091=DIRECTION('',(0.0,1.0,0.0));
#1092=VECTOR('',#1091,15.999999999999996);
#1093=LINE('',#1090,#1092);
#1094=EDGE_CURVE('',#1014,#1083,#1093,.T.);
#1095=ORIENTED_EDGE('',*,*,#1094,.F.);
#1096=ORIENTED_EDGE('',*,*,#1019,.F.);
#1097=EDGE_LOOP('',(#1081,#1089,#1095,#1096));
#1098=FACE_OUTER_BOUND('',#1097,.T.);
#1099=ADVANCED_FACE('',(#1098),#1073,.T.);
#1100=CARTESIAN_POINT('',(8.050000000000003,19.664999999999992,3.765000000000004));
#1101=DIRECTION('',(2.074334E-016,0.997964768061958,0.063767716809068));
#1102=DIRECTION('',(0.0,-0.063767716809068,0.997964768061958));
#1103=AXIS2_PLACEMENT_3D('',#1100,#1101,#1102);
#1104=PLANE('',#1103);
#1105=CARTESIAN_POINT('',(-16.100000000000001,19.765000000000001,2.199999999999998));
#1106=DIRECTION('',(1.0,0.0,0.0));
#1107=VECTOR('',#1106,32.200000000000003);
#1108=LINE('',#1105,#1107);
#1109=EDGE_CURVE('',#1083,#1044,#1108,.T.);
#1110=ORIENTED_EDGE('',*,*,#1109,.F.);
#1111=ORIENTED_EDGE('',*,*,#1088,.F.);
#1112=CARTESIAN_POINT('',(-15.900000000000000,19.565000000000001,5.329999999999998));
#1113=DIRECTION('',(1.0,0.0,0.0));
#1114=VECTOR('',#1113,31.800000000000004);
#1115=LINE('',#1112,#1114);
#1116=EDGE_CURVE('',#1075,#1052,#1115,.T.);
#1117=ORIENTED_EDGE('',*,*,#1116,.T.);
#1118=ORIENTED_EDGE('',*,*,#1057,.F.);
#1119=EDGE_LOOP('',(#1110,#1111,#1117,#1118));
#1120=FACE_OUTER_BOUND('',#1119,.T.);
#1121=ADVANCED_FACE('',(#1120),#1104,.T.);
#1122=CARTESIAN_POINT('',(16.099999999999998,3.764999999999994,5.330000000000009));
#1123=DIRECTION('',(0.0,0.0,1.0));
#1124=DIRECTION('',(0.0,-1.0,0.0));
#1125=AXIS2_PLACEMENT_3D('',#1122,#1123,#1124);
#1126=PLANE('',#1125);
#1127=ORIENTED_EDGE('',*,*,#1011,.F.);
#1128=ORIENTED_EDGE('',*,*,#1063,.F.);
#1129=ORIENTED_EDGE('',*,*,#1116,.F.);
#1130=ORIENTED_EDGE('',*,*,#1080,.F.);
#1131=EDGE_LOOP('',(#1127,#1128,#1129,#1130));
#1132=FACE_OUTER_BOUND('',#1131,.T.);
#1133=ADVANCED_FACE('',(#1132),#1126,.T.);
#1134=CARTESIAN_POINT('',(-16.100000000000005,3.765000000000000,2.200000000000001));
#1135=DIRECTION('',(0.0,0.0,-1.0));
#1136=DIRECTION('',(0.0,1.0,0.0));
#1137=AXIS2_PLACEMENT_3D('',#1134,#1135,#1136);
#1138=PLANE('',#1137);
#1139=ORIENTED_EDGE('',*,*,#1109,.T.);
#1140=ORIENTED_EDGE('',*,*,#1049,.F.);
#1141=ORIENTED_EDGE('',*,*,#1027,.F.);
#1142=ORIENTED_EDGE('',*,*,#1094,.T.);
#1143=EDGE_LOOP('',(#1139,#1140,#1141,#1142));
#1144=FACE_OUTER_BOUND('',#1143,.T.);
#1145=ADVANCED_FACE('',(#1144),#1138,.T.);
#1146=CLOSED_SHELL('',(#1037,#1068,#1099,#1121,#1133,#1145));
#1147=MANIFOLD_SOLID_BREP('8C8',#1146);
#1148=COLOUR_RGB('250',0.330000000000000,0.330000000000000,0.330000000000000);
#1149=SURFACE_STYLE_USAGE(.BOTH.,#1150);
#1150=SURFACE_SIDE_STYLE('NONE',(#1151));
#1151=SURFACE_STYLE_FILL_AREA(#1152);
#1152=FILL_AREA_STYLE('NONE',(#1153));
#1153=FILL_AREA_STYLE_COLOUR('NONE',#1148);
#1154=PRESENTATION_STYLE_ASSIGNMENT((#1149));
#1155=STYLED_ITEM('NONE',(#1154),#1147);
#1156=CARTESIAN_POINT('',(8.900000000000011,24.764999999999993,2.200000000000004));
#1157=DIRECTION('',(2.220446E-016,-1.836910E-016,-1.0));
#1158=DIRECTION('',(1.0,0.0,0.0));
#1159=AXIS2_PLACEMENT_3D('',#1156,#1157,#1158);
#1160=CYLINDRICAL_SURFACE('',#1159,1.750000000000000);
#1161=CARTESIAN_POINT('',(10.650000000000011,24.764999999999993,2.200000000000004));
#1162=VERTEX_POINT('',#1161);
#1163=CARTESIAN_POINT('',(10.650000000000011,24.764999999999993,2.664535E-015));
#1164=VERTEX_POINT('',#1163);
#1165=CARTESIAN_POINT('',(10.650000000000011,24.764999999999993,2.200000000000002));
#1166=DIRECTION('',(0.0,0.0,-1.0));
#1167=VECTOR('',#1166,2.200000000000000);
#1168=LINE('',#1165,#1167);
#1169=EDGE_CURVE('',#1162,#1164,#1168,.T.);
#1170=ORIENTED_EDGE('',*,*,#1169,.F.);
#1171=CARTESIAN_POINT('',(7.150000000000011,24.764999999999993,2.200000000000002));
#1172=VERTEX_POINT('',#1171);
#1173=CARTESIAN_POINT('',(8.900000000000011,24.764999999999993,2.200000000000002));
#1174=DIRECTION('',(0.0,0.0,-1.0));
#1175=DIRECTION('',(1.0,0.0,0.0));
#1176=AXIS2_PLACEMENT_3D('',#1173,#1174,#1175);
#1177=CIRCLE('',#1176,1.750000000000000);
#1178=EDGE_CURVE('',#1172,#1162,#1177,.T.);
#1179=ORIENTED_EDGE('',*,*,#1178,.F.);
#1180=CARTESIAN_POINT('',(7.150000000000012,24.764999999999993,1.332268E-015));
#1181=VERTEX_POINT('',#1180);
#1182=CARTESIAN_POINT('',(7.150000000000011,24.764999999999993,2.200000000000002));
#1183=DIRECTION('',(0.0,0.0,-1.0));
#1184=VECTOR('',#1183,2.200000000000000);
#1185=LINE('',#1182,#1184);
#1186=EDGE_CURVE('',#1172,#1181,#1185,.T.);
#1187=ORIENTED_EDGE('',*,*,#1186,.T.);
#1188=CARTESIAN_POINT('',(8.900000000000011,24.764999999999993,1.776357E-015));
#1189=DIRECTION('',(0.0,0.0,1.0));
#1190=DIRECTION('',(1.0,0.0,0.0));
#1191=AXIS2_PLACEMENT_3D('',#1188,#1189,#1190);
#1192=CIRCLE('',#1191,1.750000000000000);
#1193=EDGE_CURVE('',#1164,#1181,#1192,.T.);
#1194=ORIENTED_EDGE('',*,*,#1193,.F.);
#1195=EDGE_LOOP('',(#1170,#1179,#1187,#1194));
#1196=FACE_OUTER_BOUND('',#1195,.T.);
#1197=ADVANCED_FACE('',(#1196),#1160,.F.);
#1198=CARTESIAN_POINT('',(-8.899999999999993,24.764999999999997,2.199999999999999));
#1199=DIRECTION('',(2.220446E-016,-1.836910E-016,-1.0));
#1200=DIRECTION('',(1.0,0.0,0.0));
#1201=AXIS2_PLACEMENT_3D('',#1198,#1199,#1200);
#1202=CYLINDRICAL_SURFACE('',#1201,1.750000000000000);
#1203=CARTESIAN_POINT('',(-7.149999999999992,24.764999999999997,2.200000000000000));
#1204=VERTEX_POINT('',#1203);
#1205=CARTESIAN_POINT('',(-7.149999999999992,24.764999999999997,-1.776357E-015));
#1206=VERTEX_POINT('',#1205);
#1207=CARTESIAN_POINT('',(-7.149999999999993,24.764999999999997,2.199999999999998));
#1208=DIRECTION('',(0.0,0.0,-1.0));
#1209=VECTOR('',#1208,2.199999999999999);
#1210=LINE('',#1207,#1209);
#1211=EDGE_CURVE('',#1204,#1206,#1210,.T.);
#1212=ORIENTED_EDGE('',*,*,#1211,.F.);
#1213=CARTESIAN_POINT('',(-10.649999999999993,24.764999999999997,2.199999999999997));
#1214=VERTEX_POINT('',#1213);
#1215=CARTESIAN_POINT('',(-8.899999999999993,24.764999999999997,2.199999999999998));
#1216=DIRECTION('',(0.0,0.0,-1.0));
#1217=DIRECTION('',(1.0,0.0,0.0));
#1218=AXIS2_PLACEMENT_3D('',#1215,#1216,#1217);
#1219=CIRCLE('',#1218,1.750000000000000);
#1220=EDGE_CURVE('',#1214,#1204,#1219,.T.);
#1221=ORIENTED_EDGE('',*,*,#1220,.F.);
#1222=CARTESIAN_POINT('',(-10.649999999999993,24.764999999999997,-2.220446E-015));
#1223=VERTEX_POINT('',#1222);
#1224=CARTESIAN_POINT('',(-10.649999999999993,24.764999999999997,2.199999999999997));
#1225=DIRECTION('',(0.0,0.0,-1.0));
#1226=VECTOR('',#1225,2.199999999999999);
#1227=LINE('',#1224,#1226);
#1228=EDGE_CURVE('',#1214,#1223,#1227,.T.);
#1229=ORIENTED_EDGE('',*,*,#1228,.T.);
#1230=CARTESIAN_POINT('',(-8.899999999999993,24.764999999999997,-1.776357E-015));
#1231=DIRECTION('',(0.0,0.0,1.0));
#1232=DIRECTION('',(1.0,0.0,0.0));
#1233=AXIS2_PLACEMENT_3D('',#1230,#1231,#1232);
#1234=CIRCLE('',#1233,1.750000000000000);
#1235=EDGE_CURVE('',#1206,#1223,#1234,.T.);
#1236=ORIENTED_EDGE('',*,*,#1235,.F.);
#1237=EDGE_LOOP('',(#1212,#1221,#1229,#1236));
#1238=FACE_OUTER_BOUND('',#1237,.T.);
#1239=ADVANCED_FACE('',(#1238),#1202,.F.);
#1240=CARTESIAN_POINT('',(-8.899999999999993,24.764999999999997,2.199999999999999));
#1241=DIRECTION('',(2.220446E-016,-1.836910E-016,-1.0));
#1242=DIRECTION('',(1.0,0.0,0.0));
#1243=AXIS2_PLACEMENT_3D('',#1240,#1241,#1242);
#1244=CYLINDRICAL_SURFACE('',#1243,1.750000000000000);
#1245=ORIENTED_EDGE('',*,*,#1211,.T.);
#1246=CARTESIAN_POINT('',(-8.899999999999993,24.764999999999997,-1.776357E-015));
#1247=DIRECTION('',(0.0,0.0,1.0));
#1248=DIRECTION('',(1.0,0.0,0.0));
#1249=AXIS2_PLACEMENT_3D('',#1246,#1247,#1248);
#1250=CIRCLE('',#1249,1.750000000000000);
#1251=EDGE_CURVE('',#1223,#1206,#1250,.T.);
#1252=ORIENTED_EDGE('',*,*,#1251,.F.);
#1253=ORIENTED_EDGE('',*,*,#1228,.F.);
#1254=CARTESIAN_POINT('',(-8.899999999999993,24.764999999999997,2.199999999999998));
#1255=DIRECTION('',(0.0,0.0,-1.0));
#1256=DIRECTION('',(1.0,0.0,0.0));
#1257=AXIS2_PLACEMENT_3D('',#1254,#1255,#1256);
#1258=CIRCLE('',#1257,1.750000000000000);
#1259=EDGE_CURVE('',#1204,#1214,#1258,.T.);
#1260=ORIENTED_EDGE('',*,*,#1259,.F.);
#1261=EDGE_LOOP('',(#1245,#1252,#1253,#1260));
#1262=FACE_OUTER_BOUND('',#1261,.T.);
#1263=ADVANCED_FACE('',(#1262),#1244,.F.);
#1264=CARTESIAN_POINT('',(8.900000000000011,24.764999999999993,2.200000000000004));
#1265=DIRECTION('',(2.220446E-016,-1.836910E-016,-1.0));
#1266=DIRECTION('',(1.0,0.0,0.0));
#1267=AXIS2_PLACEMENT_3D('',#1264,#1265,#1266);
#1268=CYLINDRICAL_SURFACE('',#1267,1.750000000000000);
#1269=ORIENTED_EDGE('',*,*,#1169,.T.);
#1270=CARTESIAN_POINT('',(8.900000000000011,24.764999999999993,1.776357E-015));
#1271=DIRECTION('',(0.0,0.0,1.0));
#1272=DIRECTION('',(1.0,0.0,0.0));
#1273=AXIS2_PLACEMENT_3D('',#1270,#1271,#1272);
#1274=CIRCLE('',#1273,1.750000000000000);
#1275=EDGE_CURVE('',#1181,#1164,#1274,.T.);
#1276=ORIENTED_EDGE('',*,*,#1275,.F.);
#1277=ORIENTED_EDGE('',*,*,#1186,.F.);
#1278=CARTESIAN_POINT('',(8.900000000000011,24.764999999999993,2.200000000000002));
#1279=DIRECTION('',(0.0,0.0,-1.0));
#1280=DIRECTION('',(1.0,0.0,0.0));
#1281=AXIS2_PLACEMENT_3D('',#1278,#1279,#1280);
#1282=CIRCLE('',#1281,1.750000000000000);
#1283=EDGE_CURVE('',#1162,#1172,#1282,.T.);
#1284=ORIENTED_EDGE('',*,*,#1283,.F.);
#1285=EDGE_LOOP('',(#1269,#1276,#1277,#1284));
#1286=FACE_OUTER_BOUND('',#1285,.T.);
#1287=ADVANCED_FACE('',(#1286),#1268,.F.);
#1288=CARTESIAN_POINT('',(-17.100000000000001,3.765000000000001,2.200000000000000));
#1289=DIRECTION('',(-1.0,0.0,0.0));
#1290=DIRECTION('',(0.0,1.0,0.0));
#1291=AXIS2_PLACEMENT_3D('',#1288,#1289,#1290);
#1292=PLANE('',#1291);
#1293=CARTESIAN_POINT('',(-17.099999999999994,29.765000000000001,2.199999999999995));
#1294=VERTEX_POINT('',#1293);
#1295=CARTESIAN_POINT('',(-17.099999999999994,29.765000000000001,-5.329071E-015));
#1296=VERTEX_POINT('',#1295);
#1297=CARTESIAN_POINT('',(-17.099999999999994,29.765000000000001,2.199999999999995));
#1298=DIRECTION('',(0.0,0.0,-1.0));
#1299=VECTOR('',#1298,2.200000000000000);
#1300=LINE('',#1297,#1299);
#1301=EDGE_CURVE('',#1294,#1296,#1300,.T.);
#1302=ORIENTED_EDGE('',*,*,#1301,.T.);
#1303=CARTESIAN_POINT('',(-17.100000000000001,3.765000000000000,0.0));
#1304=VERTEX_POINT('',#1303);
#1305=CARTESIAN_POINT('',(-17.100000000000001,3.765000000000000,0.0));
#1306=DIRECTION('',(0.0,1.0,0.0));
#1307=VECTOR('',#1306,26.0);
#1308=LINE('',#1305,#1307);
#1309=EDGE_CURVE('',#1304,#1296,#1308,.T.);
#1310=ORIENTED_EDGE('',*,*,#1309,.F.);
#1311=CARTESIAN_POINT('',(-17.100000000000001,3.765000000000001,2.200000000000000));
#1312=VERTEX_POINT('',#1311);
#1313=CARTESIAN_POINT('',(-17.100000000000001,3.765000000000001,2.200000000000000));
#1314=DIRECTION('',(0.0,0.0,-1.0));
#1315=VECTOR('',#1314,2.200000000000000);
#1316=LINE('',#1313,#1315);
#1317=EDGE_CURVE('',#1312,#1304,#1316,.T.);
#1318=ORIENTED_EDGE('',*,*,#1317,.F.);
#1319=CARTESIAN_POINT('',(-17.100000000000001,3.765000000000001,2.200000000000000));
#1320=DIRECTION('',(0.0,1.0,0.0));
#1321=VECTOR('',#1320,26.0);
#1322=LINE('',#1319,#1321);
#1323=EDGE_CURVE('',#1312,#1294,#1322,.T.);
#1324=ORIENTED_EDGE('',*,*,#1323,.T.);
#1325=EDGE_LOOP('',(#1302,#1310,#1318,#1324));
#1326=FACE_OUTER_BOUND('',#1325,.T.);
#1327=ADVANCED_FACE('',(#1326),#1292,.T.);
#1328=CARTESIAN_POINT('',(-17.100000000000001,3.765000000000000,0.0));
#1329=DIRECTION('',(0.0,0.0,-1.0));
#1330=DIRECTION('',(0.0,1.0,0.0));
#1331=AXIS2_PLACEMENT_3D('',#1328,#1329,#1330);
#1332=PLANE('',#1331);
#1333=CARTESIAN_POINT('',(17.100000000000009,29.764999999999993,2.664535E-015));
#1334=VERTEX_POINT('',#1333);
#1335=CARTESIAN_POINT('',(-17.099999999999994,29.765000000000001,-5.329071E-015));
#1336=DIRECTION('',(1.0,0.0,0.0));
#1337=VECTOR('',#1336,34.200000000000003);
#1338=LINE('',#1335,#1337);
#1339=EDGE_CURVE('',#1296,#1334,#1338,.T.);
#1340=ORIENTED_EDGE('',*,*,#1339,.T.);
#1341=CARTESIAN_POINT('',(17.100000000000001,3.764999999999993,7.105427E-015));
#1342=VERTEX_POINT('',#1341);
#1343=CARTESIAN_POINT('',(17.100000000000001,3.764999999999993,7.105427E-015));
#1344=DIRECTION('',(0.0,1.0,0.0));
#1345=VECTOR('',#1344,26.0);
#1346=LINE('',#1343,#1345);
#1347=EDGE_CURVE('',#1342,#1334,#1346,.T.);
#1348=ORIENTED_EDGE('',*,*,#1347,.F.);
#1349=CARTESIAN_POINT('',(-17.100000000000001,3.765000000000000,0.0));
#1350=DIRECTION('',(1.0,0.0,0.0));
#1351=VECTOR('',#1350,34.200000000000003);
#1352=LINE('',#1349,#1351);
#1353=EDGE_CURVE('',#1304,#1342,#1352,.T.);
#1354=ORIENTED_EDGE('',*,*,#1353,.F.);
#1355=ORIENTED_EDGE('',*,*,#1309,.T.);
#1356=EDGE_LOOP('',(#1340,#1348,#1354,#1355));
#1357=FACE_OUTER_BOUND('',#1356,.T.);
#1358=ORIENTED_EDGE('',*,*,#1235,.T.);
#1359=ORIENTED_EDGE('',*,*,#1251,.T.);
#1360=EDGE_LOOP('',(#1358,#1359));
#1361=FACE_BOUND('',#1360,.T.);
#1362=ORIENTED_EDGE('',*,*,#1193,.T.);
#1363=ORIENTED_EDGE('',*,*,#1275,.T.);
#1364=EDGE_LOOP('',(#1362,#1363));
#1365=FACE_BOUND('',#1364,.T.);
#1366=ADVANCED_FACE('',(#1357,#1361,#1365),#1332,.T.);
#1367=CARTESIAN_POINT('',(17.100000000000001,3.764999999999993,7.105427E-015));
#1368=DIRECTION('',(1.0,0.0,0.0));
#1369=DIRECTION('',(0.0,-1.0,0.0));
#1370=AXIS2_PLACEMENT_3D('',#1367,#1368,#1369);
#1371=PLANE('',#1370);
#1372=CARTESIAN_POINT('',(17.100000000000009,29.764999999999993,2.200000000000003));
#1373=VERTEX_POINT('',#1372);
#1374=CARTESIAN_POINT('',(17.100000000000009,29.764999999999993,2.664535E-015));
#1375=DIRECTION('',(0.0,0.0,1.0));
#1376=VECTOR('',#1375,2.200000000000000);
#1377=LINE('',#1374,#1376);
#1378=EDGE_CURVE('',#1334,#1373,#1377,.T.);
#1379=ORIENTED_EDGE('',*,*,#1378,.T.);
#1380=CARTESIAN_POINT('',(17.100000000000001,3.764999999999993,2.200000000000007));
#1381=VERTEX_POINT('',#1380);
#1382=CARTESIAN_POINT('',(17.100000000000001,3.764999999999993,2.200000000000007));
#1383=DIRECTION('',(0.0,1.0,0.0));
#1384=VECTOR('',#1383,26.0);
#1385=LINE('',#1382,#1384);
#1386=EDGE_CURVE('',#1381,#1373,#1385,.T.);
#1387=ORIENTED_EDGE('',*,*,#1386,.F.);
#1388=CARTESIAN_POINT('',(17.100000000000001,3.764999999999993,7.105427E-015));
#1389=DIRECTION('',(0.0,0.0,1.0));
#1390=VECTOR('',#1389,2.200000000000000);
#1391=LINE('',#1388,#1390);
#1392=EDGE_CURVE('',#1342,#1381,#1391,.T.);
#1393=ORIENTED_EDGE('',*,*,#1392,.F.);
#1394=ORIENTED_EDGE('',*,*,#1347,.T.);
#1395=EDGE_LOOP('',(#1379,#1387,#1393,#1394));
#1396=FACE_OUTER_BOUND('',#1395,.T.);
#1397=ADVANCED_FACE('',(#1396),#1371,.T.);
#1398=CARTESIAN_POINT('',(17.100000000000001,3.764999999999993,2.200000000000007));
#1399=DIRECTION('',(0.0,0.0,1.0));
#1400=DIRECTION('',(0.0,-1.0,0.0));
#1401=AXIS2_PLACEMENT_3D('',#1398,#1399,#1400);
#1402=PLANE('',#1401);
#1403=CARTESIAN_POINT('',(17.100000000000009,29.764999999999993,2.200000000000003));
#1404=DIRECTION('',(-1.0,0.0,0.0));
#1405=VECTOR('',#1404,34.200000000000003);
#1406=LINE('',#1403,#1405);
#1407=EDGE_CURVE('',#1373,#1294,#1406,.T.);
#1408=ORIENTED_EDGE('',*,*,#1407,.T.);
#1409=ORIENTED_EDGE('',*,*,#1323,.F.);
#1410=CARTESIAN_POINT('',(17.100000000000001,3.764999999999993,2.200000000000007));
#1411=DIRECTION('',(-1.0,0.0,0.0));
#1412=VECTOR('',#1411,34.200000000000003);
#1413=LINE('',#1410,#1412);
#1414=EDGE_CURVE('',#1381,#1312,#1413,.T.);
#1415=ORIENTED_EDGE('',*,*,#1414,.F.);
#1416=ORIENTED_EDGE('',*,*,#1386,.T.);
#1417=EDGE_LOOP('',(#1408,#1409,#1415,#1416));
#1418=FACE_OUTER_BOUND('',#1417,.T.);
#1419=ORIENTED_EDGE('',*,*,#1259,.T.);
#1420=ORIENTED_EDGE('',*,*,#1220,.T.);
#1421=EDGE_LOOP('',(#1419,#1420));
#1422=FACE_BOUND('',#1421,.T.);
#1423=ORIENTED_EDGE('',*,*,#1283,.T.);
#1424=ORIENTED_EDGE('',*,*,#1178,.T.);
#1425=EDGE_LOOP('',(#1423,#1424));
#1426=FACE_BOUND('',#1425,.T.);
#1427=ADVANCED_FACE('',(#1418,#1422,#1426),#1402,.T.);
#1428=CARTESIAN_POINT('',(7.475132E-015,29.764999999999997,1.099999999999998));
#1429=DIRECTION('',(0.0,1.0,0.0));
#1430=DIRECTION('',(1.0,0.0,0.0));
#1431=AXIS2_PLACEMENT_3D('',#1428,#1429,#1430);
#1432=PLANE('',#1431);
#1433=ORIENTED_EDGE('',*,*,#1301,.F.);
#1434=ORIENTED_EDGE('',*,*,#1407,.F.);
#1435=ORIENTED_EDGE('',*,*,#1378,.F.);
#1436=ORIENTED_EDGE('',*,*,#1339,.F.);
#1437=EDGE_LOOP('',(#1433,#1434,#1435,#1436));
#1438=FACE_OUTER_BOUND('',#1437,.T.);
#1439=ADVANCED_FACE('',(#1438),#1432,.T.);
#1440=CARTESIAN_POINT('',(-1.850742E-015,3.764999999999996,1.100000000000002));
#1441=DIRECTION('',(0.0,1.0,0.0));
#1442=DIRECTION('',(1.0,0.0,0.0));
#1443=AXIS2_PLACEMENT_3D('',#1440,#1441,#1442);
#1444=PLANE('',#1443);
#1445=ORIENTED_EDGE('',*,*,#1414,.T.);
#1446=ORIENTED_EDGE('',*,*,#1317,.T.);
#1447=ORIENTED_EDGE('',*,*,#1353,.T.);
#1448=ORIENTED_EDGE('',*,*,#1392,.T.);
#1449=EDGE_LOOP('',(#1445,#1446,#1447,#1448));
#1450=FACE_OUTER_BOUND('',#1449,.T.);
#1451=ADVANCED_FACE('',(#1450),#1444,.F.);
#1452=CLOSED_SHELL('',(#1197,#1239,#1263,#1287,#1327,#1366,#1397,#1427,#1439,#1451));
#1453=MANIFOLD_SOLID_BREP('8B6',#1452);
#1454=COLOUR_RGB('252',0.598000000000000,0.598000000000000,0.598000000000000);
#1455=SURFACE_STYLE_USAGE(.BOTH.,#1456);
#1456=SURFACE_SIDE_STYLE('NONE',(#1457));
#1457=SURFACE_STYLE_FILL_AREA(#1458);
#1458=FILL_AREA_STYLE('NONE',(#1459));
#1459=FILL_AREA_STYLE_COLOUR('NONE',#1454);
#1460=PRESENTATION_STYLE_ASSIGNMENT((#1455));
#1461=STYLED_ITEM('NONE',(#1460),#1453);
#1462=ADVANCED_BREP_SHAPE_REPRESENTATION('ABSR1',(#294,#534,#765,#996,#1147,#1453),#28);
#1463=SHAPE_REPRESENTATION_RELATIONSHIP('SRRPL1','',#1462,#62);
ENDSEC;
END-ISO-10303-21;
