ISO-10303-21;
HEADER;
/****************************************************************
 * Generated by software with PDE/Lib inside                    *
 * PDElib Version v51a, created Mon 11/23/2009                  *
 * ITI Transcendata (http://www.transcendata.com/)              *
 ****************************************************************/
FILE_DESCRIPTION((''),'2;1');
FILE_NAME('RES_NICROM_300.4.stp','2011-03-10T12:36:44',(''),(''),'Mechanical Desktop 2011','Mechanical Desktop 2011',', , ');
FILE_SCHEMA(('AUTOMOTIVE_DESIGN { 1 2 10303 214 1 1 1 1 }'));
ENDSEC;
DATA;
#10=(NAMED_UNIT(*)PLANE_ANGLE_UNIT()SI_UNIT($,.RADIAN.));
#11=DIMENSIONAL_EXPONENTS(0.0,0.0,0.0,0.0,0.0,0.0,0.0);
#12=PLANE_ANGLE_MEASURE_WITH_UNIT(PLANE_ANGLE_MEASURE(0.017453292500000),#10);
#16=(CONVERSION_BASED_UNIT('DEGREE',#12)NAMED_UNIT(#11)PLANE_ANGLE_UNIT());
#20=(NAMED_UNIT(*)SI_UNIT($,.STERADIAN.)SOLID_ANGLE_UNIT());
#24=(LENGTH_UNIT()NAMED_UNIT(*)SI_UNIT(.MILLI.,.METRE.));
#26=UNCERTAINTY_MEASURE_WITH_UNIT(LENGTH_MEASURE(0.000001000000000),#24,'DISTANCE_ACCURACY_VALUE','');
#28=(GEOMETRIC_REPRESENTATION_CONTEXT(3)GLOBAL_UNCERTAINTY_ASSIGNED_CONTEXT((#26))GLOBAL_UNIT_ASSIGNED_CONTEXT((#16,#20,#24))REPRESENTATION_CONTEXT('','3D'));
#29=APPLICATION_CONTEXT('automotive design');
#30=APPLICATION_PROTOCOL_DEFINITION('INTERNATIONAL_STANDARD','automotive_design',1998,#29);
#31=PRODUCT_CONTEXT('3D Mechanical Parts',#29,'mechanical');
#32=PRODUCT('Product','Product','',(#31));
#33=PRODUCT_RELATED_PRODUCT_CATEGORY('part',$,(#32));
#34=PRODUCT_CATEGORY('part',$);
#35=PERSON('1','Design','Joe',$,$,$);
#36=ORGANIZATION($,'None','None');
#37=PERSON_AND_ORGANIZATION(#35,#36);
#38=PERSON_AND_ORGANIZATION_ROLE('design_owner');
#39=APPLIED_PERSON_AND_ORGANIZATION_ASSIGNMENT(#37,#38,(#32));
#40=PRODUCT_DEFINITION_FORMATION_WITH_SPECIFIED_SOURCE('None','',#32,.BOUGHT.);
#41=PERSON('2','Creator','Joe',$,$,$);
#42=ORGANIZATION($,'None','None');
#43=PERSON_AND_ORGANIZATION(#41,#42);
#44=PERSON_AND_ORGANIZATION_ROLE('creator');
#45=APPLIED_PERSON_AND_ORGANIZATION_ASSIGNMENT(#43,#44,(#40));
#46=PERSON('3','Supplier','Joe',$,$,$);
#47=ORGANIZATION($,'None','None');
#48=PERSON_AND_ORGANIZATION(#46,#47);
#49=PERSON_AND_ORGANIZATION_ROLE('design_supplier');
#50=APPLIED_PERSON_AND_ORGANIZATION_ASSIGNMENT(#48,#49,(#40));
#51=PRODUCT_DEFINITION_CONTEXT('part definition',#29,'design');
#52=PRODUCT_DEFINITION('None','',#40,#51);
#53=PERSON('4','Creator','Joe',$,$,$);
#54=ORGANIZATION($,'None','None');
#55=PERSON_AND_ORGANIZATION(#53,#54);
#56=PERSON_AND_ORGANIZATION_ROLE('creator');
#57=APPLIED_PERSON_AND_ORGANIZATION_ASSIGNMENT(#55,#56,(#52));
#58=CARTESIAN_POINT('NONE',(0.0,0.0,0.0));
#59=DIRECTION('NONE',(0.0,0.0,1.0));
#60=DIRECTION('NONE',(1.0,0.0,0.0));
#61=AXIS2_PLACEMENT_3D('NONE',#58,#59,#60);
#62=SHAPE_REPRESENTATION('SR1',(#61),#28);
#63=PRODUCT_DEFINITION_SHAPE('PDS1','Test Part',#52);
#64=SHAPE_DEFINITION_REPRESENTATION(#63,#62);
#65=CARTESIAN_POINT('',(14.240000000000002,0.500000000000000,7.0));
#66=DIRECTION('',(0.0,0.0,1.0));
#67=DIRECTION('',(-1.0,0.0,0.0));
#68=AXIS2_PLACEMENT_3D('',#65,#66,#67);
#69=PLANE('',#68);
#70=CARTESIAN_POINT('',(12.970000000000002,1.0,7.0));
#71=VERTEX_POINT('',#70);
#72=CARTESIAN_POINT('',(12.970000000000002,0.0,7.0));
#73=VERTEX_POINT('',#72);
#74=CARTESIAN_POINT('',(12.970000000000002,1.0,7.0));
#75=DIRECTION('',(0.0,-1.0,0.0));
#76=VECTOR('',#75,1.0);
#77=LINE('',#74,#76);
#78=EDGE_CURVE('',#71,#73,#77,.T.);
#79=ORIENTED_EDGE('',*,*,#78,.T.);
#80=CARTESIAN_POINT('',(14.970000000000001,0.0,7.0));
#81=VERTEX_POINT('',#80);
#82=CARTESIAN_POINT('',(12.970000000000002,0.0,7.0));
#83=DIRECTION('',(1.0,0.0,0.0));
#84=VECTOR('',#83,2.0);
#85=LINE('',#82,#84);
#86=EDGE_CURVE('',#73,#81,#85,.T.);
#87=ORIENTED_EDGE('',*,*,#86,.T.);
#88=CARTESIAN_POINT('',(14.970000000000001,1.0,7.0));
#89=VERTEX_POINT('',#88);
#90=CARTESIAN_POINT('',(14.970000000000001,0.0,7.0));
#91=DIRECTION('',(0.0,1.0,0.0));
#92=VECTOR('',#91,1.0);
#93=LINE('',#90,#92);
#94=EDGE_CURVE('',#81,#89,#93,.T.);
#95=ORIENTED_EDGE('',*,*,#94,.T.);
#96=CARTESIAN_POINT('',(14.970000000000002,1.0,7.0));
#97=DIRECTION('',(-1.0,0.0,0.0));
#98=VECTOR('',#97,2.0);
#99=LINE('',#96,#98);
#100=EDGE_CURVE('',#89,#71,#99,.T.);
#101=ORIENTED_EDGE('',*,*,#100,.T.);
#102=EDGE_LOOP('',(#79,#87,#95,#101));
#103=FACE_OUTER_BOUND('',#102,.T.);
#104=ADVANCED_FACE('',(#103),#69,.T.);
#105=CARTESIAN_POINT('',(14.240000000000002,1.0,6.0));
#106=DIRECTION('',(0.0,-1.0,0.0));
#107=DIRECTION('',(0.0,0.0,1.0));
#108=AXIS2_PLACEMENT_3D('',#105,#106,#107);
#109=PLANE('',#108);
#110=CARTESIAN_POINT('',(14.970000000000001,1.0,5.0));
#111=VERTEX_POINT('',#110);
#112=CARTESIAN_POINT('',(14.970000000000001,1.0,7.0));
#113=DIRECTION('',(0.0,0.0,-1.0));
#114=VECTOR('',#113,2.0);
#115=LINE('',#112,#114);
#116=EDGE_CURVE('',#89,#111,#115,.T.);
#117=ORIENTED_EDGE('',*,*,#116,.T.);
#118=CARTESIAN_POINT('',(12.970000000000002,1.0,5.0));
#119=VERTEX_POINT('',#118);
#120=CARTESIAN_POINT('',(12.970000000000002,1.0,5.0));
#121=DIRECTION('',(1.0,0.0,0.0));
#122=VECTOR('',#121,2.0);
#123=LINE('',#120,#122);
#124=EDGE_CURVE('',#119,#111,#123,.T.);
#125=ORIENTED_EDGE('',*,*,#124,.F.);
#126=CARTESIAN_POINT('',(12.970000000000002,1.0,7.0));
#127=DIRECTION('',(0.0,0.0,-1.0));
#128=VECTOR('',#127,2.0);
#129=LINE('',#126,#128);
#130=EDGE_CURVE('',#71,#119,#129,.T.);
#131=ORIENTED_EDGE('',*,*,#130,.F.);
#132=ORIENTED_EDGE('',*,*,#100,.F.);
#133=EDGE_LOOP('',(#117,#125,#131,#132));
#134=FACE_OUTER_BOUND('',#133,.T.);
#135=ADVANCED_FACE('',(#134),#109,.F.);
#136=CARTESIAN_POINT('',(14.240000000000002,0.500000000000000,5.0));
#137=DIRECTION('',(0.0,0.0,1.0));
#138=DIRECTION('',(-1.0,0.0,0.0));
#139=AXIS2_PLACEMENT_3D('',#136,#137,#138);
#140=PLANE('',#139);
#141=CARTESIAN_POINT('',(12.970000000000002,0.0,5.0));
#142=VERTEX_POINT('',#141);
#143=CARTESIAN_POINT('',(12.970000000000002,0.0,5.0));
#144=DIRECTION('',(0.0,1.0,0.0));
#145=VECTOR('',#144,1.0);
#146=LINE('',#143,#145);
#147=EDGE_CURVE('',#142,#119,#146,.T.);
#148=ORIENTED_EDGE('',*,*,#147,.T.);
#149=ORIENTED_EDGE('',*,*,#124,.T.);
#150=CARTESIAN_POINT('',(14.970000000000001,0.0,5.0));
#151=VERTEX_POINT('',#150);
#152=CARTESIAN_POINT('',(14.970000000000001,1.0,5.0));
#153=DIRECTION('',(0.0,-1.0,0.0));
#154=VECTOR('',#153,1.0);
#155=LINE('',#152,#154);
#156=EDGE_CURVE('',#111,#151,#155,.T.);
#157=ORIENTED_EDGE('',*,*,#156,.T.);
#158=CARTESIAN_POINT('',(14.970000000000002,0.0,5.0));
#159=DIRECTION('',(-1.0,0.0,0.0));
#160=VECTOR('',#159,2.0);
#161=LINE('',#158,#160);
#162=EDGE_CURVE('',#151,#142,#161,.T.);
#163=ORIENTED_EDGE('',*,*,#162,.T.);
#164=EDGE_LOOP('',(#148,#149,#157,#163));
#165=FACE_OUTER_BOUND('',#164,.T.);
#166=ADVANCED_FACE('',(#165),#140,.F.);
#167=CARTESIAN_POINT('',(14.240000000000002,0.0,6.0));
#168=DIRECTION('',(0.0,1.0,0.0));
#169=DIRECTION('',(0.0,0.0,-1.0));
#170=AXIS2_PLACEMENT_3D('',#167,#168,#169);
#171=PLANE('',#170);
#172=CARTESIAN_POINT('',(12.970000000000002,0.0,7.0));
#173=DIRECTION('',(0.0,0.0,-1.0));
#174=VECTOR('',#173,2.0);
#175=LINE('',#172,#174);
#176=EDGE_CURVE('',#73,#142,#175,.T.);
#177=ORIENTED_EDGE('',*,*,#176,.T.);
#178=ORIENTED_EDGE('',*,*,#162,.F.);
#179=CARTESIAN_POINT('',(14.970000000000001,0.0,7.0));
#180=DIRECTION('',(0.0,0.0,-1.0));
#181=VECTOR('',#180,2.0);
#182=LINE('',#179,#181);
#183=EDGE_CURVE('',#81,#151,#182,.T.);
#184=ORIENTED_EDGE('',*,*,#183,.F.);
#185=ORIENTED_EDGE('',*,*,#86,.F.);
#186=EDGE_LOOP('',(#177,#178,#184,#185));
#187=FACE_OUTER_BOUND('',#186,.T.);
#188=ADVANCED_FACE('',(#187),#171,.F.);
#189=CARTESIAN_POINT('',(12.970000000000002,0.500000000000000,6.0));
#190=DIRECTION('',(1.0,0.0,0.0));
#191=DIRECTION('',(0.0,0.0,1.0));
#192=AXIS2_PLACEMENT_3D('',#189,#190,#191);
#193=PLANE('',#192);
#194=ORIENTED_EDGE('',*,*,#130,.T.);
#195=ORIENTED_EDGE('',*,*,#147,.F.);
#196=ORIENTED_EDGE('',*,*,#176,.F.);
#197=ORIENTED_EDGE('',*,*,#78,.F.);
#198=EDGE_LOOP('',(#194,#195,#196,#197));
#199=FACE_OUTER_BOUND('',#198,.T.);
#200=ADVANCED_FACE('',(#199),#193,.F.);
#201=CARTESIAN_POINT('',(14.970000000000001,0.500000000000000,6.0));
#202=DIRECTION('',(-1.0,0.0,0.0));
#203=DIRECTION('',(0.0,0.0,-1.0));
#204=AXIS2_PLACEMENT_3D('',#201,#202,#203);
#205=PLANE('',#204);
#206=ORIENTED_EDGE('',*,*,#183,.T.);
#207=ORIENTED_EDGE('',*,*,#156,.F.);
#208=ORIENTED_EDGE('',*,*,#116,.F.);
#209=ORIENTED_EDGE('',*,*,#94,.F.);
#210=EDGE_LOOP('',(#206,#207,#208,#209));
#211=FACE_OUTER_BOUND('',#210,.T.);
#212=ADVANCED_FACE('',(#211),#205,.F.);
#213=CLOSED_SHELL('',(#104,#135,#166,#188,#200,#212));
#214=MANIFOLD_SOLID_BREP('8F9',#213);
#215=COLOUR_RGB('254',0.866000000000000,0.866000000000000,0.866000000000000);
#216=SURFACE_STYLE_USAGE(.BOTH.,#217);
#217=SURFACE_SIDE_STYLE('NONE',(#218));
#218=SURFACE_STYLE_FILL_AREA(#219);
#219=FILL_AREA_STYLE('NONE',(#220));
#220=FILL_AREA_STYLE_COLOUR('NONE',#215);
#221=PRESENTATION_STYLE_ASSIGNMENT((#216));
#222=STYLED_ITEM('NONE',(#221),#214);
#223=MECHANICAL_DESIGN_GEOMETRIC_PRESENTATION_REPRESENTATION('NONE',(#222,#311,#442,#519,#670,#801,#840,#998,#1149,#1238),#28);
#224=PRESENTATION_LAYER_ASSIGNMENT('3D','None',(#214,#310,#441,#518,#669,#800,#839,#990,#1148,#1237));
#225=CARTESIAN_POINT('',(14.240000000000002,0.0,6.0));
#226=DIRECTION('',(0.0,1.0,0.0));
#227=DIRECTION('',(0.0,0.0,-1.0));
#228=AXIS2_PLACEMENT_3D('',#225,#226,#227);
#229=PLANE('',#228);
#230=CARTESIAN_POINT('',(13.970000000000001,0.0,7.0));
#231=VERTEX_POINT('',#230);
#232=CARTESIAN_POINT('',(13.970000000000001,0.0,5.0));
#233=VERTEX_POINT('',#232);
#234=CARTESIAN_POINT('',(13.970000000000001,0.0,6.0));
#235=DIRECTION('',(0.0,-1.0,0.0));
#236=DIRECTION('',(0.0,0.0,1.0));
#237=AXIS2_PLACEMENT_3D('',#234,#235,#236);
#238=CIRCLE('',#237,1.0);
#239=EDGE_CURVE('',#231,#233,#238,.T.);
#240=ORIENTED_EDGE('',*,*,#239,.F.);
#241=CARTESIAN_POINT('',(13.970000000000001,0.0,6.0));
#242=DIRECTION('',(0.0,-1.0,0.0));
#243=DIRECTION('',(0.0,0.0,1.0));
#244=AXIS2_PLACEMENT_3D('',#241,#242,#243);
#245=CIRCLE('',#244,1.0);
#246=EDGE_CURVE('',#233,#231,#245,.T.);
#247=ORIENTED_EDGE('',*,*,#246,.F.);
#248=EDGE_LOOP('',(#240,#247));
#249=FACE_OUTER_BOUND('',#248,.T.);
#250=ADVANCED_FACE('',(#249),#229,.T.);
#251=CARTESIAN_POINT('',(13.970000000000001,-7.498551E-033,5.0));
#252=CARTESIAN_POINT('',(14.970000000000001,-1.224606E-016,5.0));
#253=CARTESIAN_POINT('',(14.970000000000001,-1.224606E-016,6.0));
#254=CARTESIAN_POINT('',(14.970000000000001,-1.224606E-016,7.0));
#255=CARTESIAN_POINT('',(13.970000000000001,-7.498551E-033,7.0));
#256=CARTESIAN_POINT('',(13.970000000000001,-7.498551E-033,5.0));
#257=CARTESIAN_POINT('',(14.970000000000001,-1.000000000000000,5.0));
#258=CARTESIAN_POINT('',(14.970000000000002,-1.000000000000000,6.0));
#259=CARTESIAN_POINT('',(14.970000000000001,-1.000000000000000,7.0));
#260=CARTESIAN_POINT('',(13.970000000000001,-7.498551E-033,6.999999999999999));
#261=CARTESIAN_POINT('',(13.970000000000001,0.0,5.0));
#262=CARTESIAN_POINT('',(13.970000000000001,-1.0,5.0));
#263=CARTESIAN_POINT('',(13.970000000000001,-1.0,6.0));
#264=CARTESIAN_POINT('',(13.970000000000001,-1.0,7.0));
#265=CARTESIAN_POINT('',(13.970000000000001,0.0,7.0));
#266=CARTESIAN_POINT('',(13.970000000000001,7.498551E-033,5.0));
#267=CARTESIAN_POINT('',(12.970000000000001,-1.000000000000000,5.0));
#268=CARTESIAN_POINT('',(12.970000000000001,-1.000000000000000,6.0));
#269=CARTESIAN_POINT('',(12.970000000000001,-1.000000000000000,7.0));
#270=CARTESIAN_POINT('',(13.970000000000001,7.498551E-033,6.999999999999999));
#271=CARTESIAN_POINT('',(13.970000000000001,7.498551E-033,5.0));
#272=CARTESIAN_POINT('',(12.970000000000001,1.224606E-016,5.0));
#273=CARTESIAN_POINT('',(12.970000000000001,1.224606E-016,6.0));
#274=CARTESIAN_POINT('',(12.970000000000001,1.224606E-016,7.0));
#275=CARTESIAN_POINT('',(13.970000000000001,7.498551E-033,7.0));
#276=CARTESIAN_POINT('',(13.970000000000001,7.498551E-033,5.0));
#277=CARTESIAN_POINT('',(12.970000000000001,1.000000000000000,5.0));
#278=CARTESIAN_POINT('',(12.970000000000001,1.000000000000000,6.0));
#279=CARTESIAN_POINT('',(12.970000000000001,1.000000000000000,7.0));
#280=CARTESIAN_POINT('',(13.970000000000001,7.498551E-033,6.999999999999999));
#281=CARTESIAN_POINT('',(13.970000000000001,0.0,5.0));
#282=CARTESIAN_POINT('',(13.970000000000001,1.0,5.0));
#283=CARTESIAN_POINT('',(13.970000000000001,1.0,6.0));
#284=CARTESIAN_POINT('',(13.970000000000001,1.0,7.0));
#285=CARTESIAN_POINT('',(13.970000000000001,0.0,7.0));
#286=CARTESIAN_POINT('',(13.970000000000001,-7.498551E-033,5.0));
#287=CARTESIAN_POINT('',(14.970000000000001,1.000000000000000,5.0));
#288=CARTESIAN_POINT('',(14.970000000000002,1.000000000000000,6.0));
#289=CARTESIAN_POINT('',(14.970000000000001,1.000000000000000,7.0));
#290=CARTESIAN_POINT('',(13.970000000000001,-7.498551E-033,6.999999999999999));
#291=CARTESIAN_POINT('',(13.970000000000001,-7.498551E-033,5.0));
#292=CARTESIAN_POINT('',(14.970000000000001,-1.224606E-016,5.0));
#293=CARTESIAN_POINT('',(14.970000000000001,-1.224606E-016,6.0));
#294=CARTESIAN_POINT('',(14.970000000000001,-1.224606E-016,7.0));
#295=CARTESIAN_POINT('',(13.970000000000001,-7.498551E-033,7.0));
#303=(BOUNDED_SURFACE()B_SPLINE_SURFACE(2,2,((#251,#256,#261,#266,#271,#276,#281,#286,#291),(#252,#257,#262,#267,#272,#277,#282,#287,#292),(#253,#258,#263,#268,#273,#278,#283,#288,#293),(#254,#259,#264,#269,#274,#279,#284,#289,#294),(#255,#260,#265,#270,#275,#280,#285,#290,#295)),.UNSPECIFIED.,.F.,.T.,.U.)B_SPLINE_SURFACE_WITH_KNOTS((3,2,3),(3,2,2,2,3),(-1.570796326794897,0.0,1.570796326794897),(0.0,1.570796326794897,3.141592653589793,4.712388980384690,6.283185307179586),.UNSPECIFIED.)GEOMETRIC_REPRESENTATION_ITEM()RATIONAL_B_SPLINE_SURFACE(((1.0,0.707106781186548,1.0,0.707106781186548,1.0,0.707106781186548,1.0,0.707106781186548,1.0),(0.707106781186550,0.500000000000002,0.707106781186550,0.500000000000002,0.707106781186550,0.500000000000002,0.707106781186550,0.500000000000002,0.707106781186550),(1.0,0.707106781186548,1.0,0.707106781186548,1.0,0.707106781186548,1.0,0.707106781186548,1.0),(0.707106781186550,0.500000000000002,0.707106781186550,0.500000000000002,0.707106781186550,0.500000000000002,0.707106781186550,0.500000000000002,0.707106781186550),(1.0,0.707106781186548,1.0,0.707106781186548,1.0,0.707106781186548,1.0,0.707106781186548,1.0)))REPRESENTATION_ITEM('')SURFACE());
#304=ORIENTED_EDGE('',*,*,#239,.T.);
#305=ORIENTED_EDGE('',*,*,#246,.T.);
#306=EDGE_LOOP('',(#304,#305));
#307=FACE_OUTER_BOUND('',#306,.T.);
#308=ADVANCED_FACE('',(#307),#303,.T.);
#309=CLOSED_SHELL('',(#250,#308));
#310=MANIFOLD_SOLID_BREP('8F4',#309);
#311=STYLED_ITEM('NONE',(#221),#310);
#312=CARTESIAN_POINT('',(14.370000000000001,4.898425E-017,6.0));
#313=CARTESIAN_POINT('',(14.370000000000001,4.898425E-017,-3.600000000000000));
#314=CARTESIAN_POINT('',(14.370000000000001,0.400000000000000,6.0));
#315=CARTESIAN_POINT('',(14.370000000000001,0.400000000000000,-3.600000000000000));
#316=CARTESIAN_POINT('',(13.970000000000001,0.400000000000000,6.0));
#317=CARTESIAN_POINT('',(13.970000000000001,0.400000000000000,-3.600000000000000));
#318=CARTESIAN_POINT('',(13.570000000000000,0.400000000000000,6.0));
#319=CARTESIAN_POINT('',(13.570000000000000,0.400000000000000,-3.600000000000000));
#320=CARTESIAN_POINT('',(13.570000000000000,-4.898425E-017,6.0));
#321=CARTESIAN_POINT('',(13.570000000000000,-4.898425E-017,-3.600000000000000));
#322=CARTESIAN_POINT('',(13.570000000000000,-0.400000000000000,6.0));
#323=CARTESIAN_POINT('',(13.570000000000000,-0.400000000000000,-3.600000000000000));
#324=CARTESIAN_POINT('',(13.970000000000001,-0.400000000000000,6.0));
#325=CARTESIAN_POINT('',(13.970000000000001,-0.400000000000000,-3.600000000000000));
#326=CARTESIAN_POINT('',(14.370000000000001,-0.400000000000000,6.0));
#327=CARTESIAN_POINT('',(14.370000000000001,-0.400000000000000,-3.600000000000000));
#328=CARTESIAN_POINT('',(14.370000000000001,4.898425E-017,6.0));
#329=CARTESIAN_POINT('',(14.370000000000001,4.898425E-017,-3.600000000000000));
#337=(BOUNDED_SURFACE()B_SPLINE_SURFACE(1,2,((#312,#314,#316,#318,#320,#322,#324,#326,#328),(#313,#315,#317,#319,#321,#323,#325,#327,#329)),.UNSPECIFIED.,.F.,.T.,.U.)B_SPLINE_SURFACE_WITH_KNOTS((2,2),(3,2,2,2,3),(0.0,23.999999999999996),(0.0,0.628318530717959,1.256637061435917,1.884955592153876,2.513274122871835),.UNSPECIFIED.)GEOMETRIC_REPRESENTATION_ITEM()RATIONAL_B_SPLINE_SURFACE(((1.0,0.707106781186548,1.0,0.707106781186548,1.0,0.707106781186548,1.0,0.707106781186548,1.0),(1.0,0.707106781186548,1.0,0.707106781186548,1.0,0.707106781186548,1.0,0.707106781186548,1.0)))REPRESENTATION_ITEM('')SURFACE());
#338=CARTESIAN_POINT('',(13.570000000000000,0.0,-3.600000000000000));
#339=VERTEX_POINT('',#338);
#340=CARTESIAN_POINT('',(13.570000000000000,0.0,6.0));
#341=VERTEX_POINT('',#340);
#342=CARTESIAN_POINT('',(13.570000000000000,0.0,-3.600000000000000));
#343=DIRECTION('',(0.0,0.0,1.0));
#344=VECTOR('',#343,9.600000000000000);
#345=LINE('',#342,#344);
#346=EDGE_CURVE('',#339,#341,#345,.T.);
#347=ORIENTED_EDGE('',*,*,#346,.F.);
#348=CARTESIAN_POINT('',(14.370000000000001,0.0,-3.600000000000000));
#349=VERTEX_POINT('',#348);
#350=CARTESIAN_POINT('',(13.970000000000001,0.0,-3.600000000000000));
#351=DIRECTION('',(0.0,0.0,1.0));
#352=DIRECTION('',(-1.0,0.0,0.0));
#353=AXIS2_PLACEMENT_3D('',#350,#351,#352);
#354=CIRCLE('',#353,0.400000000000000);
#355=EDGE_CURVE('',#349,#339,#354,.F.);
#356=ORIENTED_EDGE('',*,*,#355,.F.);
#357=CARTESIAN_POINT('',(14.370000000000001,4.898425E-017,6.0));
#358=VERTEX_POINT('',#357);
#359=CARTESIAN_POINT('',(14.370000000000001,4.898425E-017,-3.600000000000000));
#360=DIRECTION('',(0.0,0.0,1.0));
#361=VECTOR('',#360,9.600000000000000);
#362=LINE('',#359,#361);
#363=EDGE_CURVE('',#349,#358,#362,.T.);
#364=ORIENTED_EDGE('',*,*,#363,.T.);
#365=CARTESIAN_POINT('',(13.970000000000001,0.0,6.0));
#366=DIRECTION('',(0.0,0.0,-1.0));
#367=DIRECTION('',(-1.0,0.0,0.0));
#368=AXIS2_PLACEMENT_3D('',#365,#366,#367);
#369=CIRCLE('',#368,0.400000000000000);
#370=EDGE_CURVE('',#358,#341,#369,.T.);
#371=ORIENTED_EDGE('',*,*,#370,.T.);
#372=EDGE_LOOP('',(#347,#356,#364,#371));
#373=FACE_OUTER_BOUND('',#372,.T.);
#374=ADVANCED_FACE('',(#373),#337,.T.);
#375=CARTESIAN_POINT('',(14.370000000000001,0.400000000000000,-3.600000000000000));
#376=CARTESIAN_POINT('',(13.570000000000000,0.400000000000000,-3.600000000000000));
#377=CARTESIAN_POINT('',(14.370000000000001,-0.400000000000000,-3.600000000000000));
#378=CARTESIAN_POINT('',(13.570000000000000,-0.400000000000000,-3.600000000000000));
#379=B_SPLINE_SURFACE_WITH_KNOTS('',1,1,((#375,#377),(#376,#378)),.UNSPECIFIED.,.F.,.F.,.U.,(2,2),(2,2),(0.0,0.800000000000001),(0.0,0.800000000000000),.UNSPECIFIED.);
#380=ORIENTED_EDGE('',*,*,#355,.T.);
#381=CARTESIAN_POINT('',(13.970000000000001,0.0,-3.600000000000000));
#382=DIRECTION('',(0.0,0.0,1.0));
#383=DIRECTION('',(-1.0,0.0,0.0));
#384=AXIS2_PLACEMENT_3D('',#381,#382,#383);
#385=CIRCLE('',#384,0.400000000000000);
#386=EDGE_CURVE('',#339,#349,#385,.F.);
#387=ORIENTED_EDGE('',*,*,#386,.T.);
#388=EDGE_LOOP('',(#380,#387));
#389=FACE_OUTER_BOUND('',#388,.T.);
#390=ADVANCED_FACE('',(#389),#379,.F.);
#391=CARTESIAN_POINT('',(14.370000000000001,4.898425E-017,6.0));
#392=CARTESIAN_POINT('',(14.370000000000001,4.898425E-017,-3.600000000000000));
#393=CARTESIAN_POINT('',(14.370000000000001,0.400000000000000,6.0));
#394=CARTESIAN_POINT('',(14.370000000000001,0.400000000000000,-3.600000000000000));
#395=CARTESIAN_POINT('',(13.970000000000001,0.400000000000000,6.0));
#396=CARTESIAN_POINT('',(13.970000000000001,0.400000000000000,-3.600000000000000));
#397=CARTESIAN_POINT('',(13.570000000000000,0.400000000000000,6.0));
#398=CARTESIAN_POINT('',(13.570000000000000,0.400000000000000,-3.600000000000000));
#399=CARTESIAN_POINT('',(13.570000000000000,-4.898425E-017,6.0));
#400=CARTESIAN_POINT('',(13.570000000000000,-4.898425E-017,-3.600000000000000));
#401=CARTESIAN_POINT('',(13.570000000000000,-0.400000000000000,6.0));
#402=CARTESIAN_POINT('',(13.570000000000000,-0.400000000000000,-3.600000000000000));
#403=CARTESIAN_POINT('',(13.970000000000001,-0.400000000000000,6.0));
#404=CARTESIAN_POINT('',(13.970000000000001,-0.400000000000000,-3.600000000000000));
#405=CARTESIAN_POINT('',(14.370000000000001,-0.400000000000000,6.0));
#406=CARTESIAN_POINT('',(14.370000000000001,-0.400000000000000,-3.600000000000000));
#407=CARTESIAN_POINT('',(14.370000000000001,4.898425E-017,6.0));
#408=CARTESIAN_POINT('',(14.370000000000001,4.898425E-017,-3.600000000000000));
#416=(BOUNDED_SURFACE()B_SPLINE_SURFACE(1,2,((#391,#393,#395,#397,#399,#401,#403,#405,#407),(#392,#394,#396,#398,#400,#402,#404,#406,#408)),.UNSPECIFIED.,.F.,.T.,.U.)B_SPLINE_SURFACE_WITH_KNOTS((2,2),(3,2,2,2,3),(0.0,23.999999999999996),(0.0,0.628318530717959,1.256637061435917,1.884955592153876,2.513274122871835),.UNSPECIFIED.)GEOMETRIC_REPRESENTATION_ITEM()RATIONAL_B_SPLINE_SURFACE(((1.0,0.707106781186548,1.0,0.707106781186548,1.0,0.707106781186548,1.0,0.707106781186548,1.0),(1.0,0.707106781186548,1.0,0.707106781186548,1.0,0.707106781186548,1.0,0.707106781186548,1.0)))REPRESENTATION_ITEM('')SURFACE());
#417=ORIENTED_EDGE('',*,*,#346,.T.);
#418=CARTESIAN_POINT('',(13.970000000000001,0.0,6.0));
#419=DIRECTION('',(0.0,0.0,-1.0));
#420=DIRECTION('',(-1.0,0.0,0.0));
#421=AXIS2_PLACEMENT_3D('',#418,#419,#420);
#422=CIRCLE('',#421,0.400000000000000);
#423=EDGE_CURVE('',#341,#358,#422,.T.);
#424=ORIENTED_EDGE('',*,*,#423,.T.);
#425=ORIENTED_EDGE('',*,*,#363,.F.);
#426=ORIENTED_EDGE('',*,*,#386,.F.);
#427=EDGE_LOOP('',(#417,#424,#425,#426));
#428=FACE_OUTER_BOUND('',#427,.T.);
#429=ADVANCED_FACE('',(#428),#416,.T.);
#430=CARTESIAN_POINT('',(14.370000000000001,0.400000000000000,6.0));
#431=CARTESIAN_POINT('',(13.570000000000000,0.400000000000000,6.0));
#432=CARTESIAN_POINT('',(14.370000000000001,-0.400000000000000,6.0));
#433=CARTESIAN_POINT('',(13.570000000000000,-0.400000000000000,6.0));
#434=B_SPLINE_SURFACE_WITH_KNOTS('',1,1,((#430,#432),(#431,#433)),.UNSPECIFIED.,.F.,.F.,.U.,(2,2),(2,2),(0.0,0.800000000000001),(0.0,0.800000000000000),.UNSPECIFIED.);
#435=ORIENTED_EDGE('',*,*,#423,.F.);
#436=ORIENTED_EDGE('',*,*,#370,.F.);
#437=EDGE_LOOP('',(#435,#436));
#438=FACE_OUTER_BOUND('',#437,.T.);
#439=ADVANCED_FACE('',(#438),#434,.T.);
#440=CLOSED_SHELL('',(#374,#390,#429,#439));
#441=MANIFOLD_SOLID_BREP('8F1',#440);
#442=STYLED_ITEM('NONE',(#221),#441);
#443=CARTESIAN_POINT('',(24.400000000000006,0.0,6.0));
#444=DIRECTION('',(0.0,1.0,0.0));
#445=DIRECTION('',(0.0,0.0,-1.0));
#446=AXIS2_PLACEMENT_3D('',#443,#444,#445);
#447=PLANE('',#446);
#448=CARTESIAN_POINT('',(23.130000000000003,0.0,6.0));
#449=VERTEX_POINT('',#448);
#450=CARTESIAN_POINT('',(24.130000000000003,0.0,6.0));
#451=DIRECTION('',(0.0,-1.0,0.0));
#452=DIRECTION('',(0.0,0.0,1.0));
#453=AXIS2_PLACEMENT_3D('',#450,#451,#452);
#454=CIRCLE('',#453,1.0);
#455=EDGE_CURVE('',#449,#449,#454,.T.);
#456=ORIENTED_EDGE('',*,*,#455,.F.);
#457=EDGE_LOOP('',(#456));
#458=FACE_OUTER_BOUND('',#457,.T.);
#459=ADVANCED_FACE('',(#458),#447,.T.);
#460=CARTESIAN_POINT('',(24.130000000000003,-7.498551E-033,5.0));
#461=CARTESIAN_POINT('',(25.129999999999999,-1.224606E-016,5.0));
#462=CARTESIAN_POINT('',(25.130000000000003,-1.224606E-016,6.0));
#463=CARTESIAN_POINT('',(25.129999999999999,-1.224606E-016,7.0));
#464=CARTESIAN_POINT('',(24.130000000000003,-7.498551E-033,7.0));
#465=CARTESIAN_POINT('',(24.130000000000003,-7.498551E-033,5.0));
#466=CARTESIAN_POINT('',(25.130000000000003,-1.000000000000000,5.0));
#467=CARTESIAN_POINT('',(25.130000000000006,-1.000000000000000,6.0));
#468=CARTESIAN_POINT('',(25.130000000000003,-1.000000000000000,7.0));
#469=CARTESIAN_POINT('',(24.130000000000003,-7.498551E-033,6.999999999999999));
#470=CARTESIAN_POINT('',(24.130000000000003,0.0,5.0));
#471=CARTESIAN_POINT('',(24.130000000000003,-1.0,5.0));
#472=CARTESIAN_POINT('',(24.130000000000003,-1.0,6.0));
#473=CARTESIAN_POINT('',(24.130000000000003,-1.0,7.0));
#474=CARTESIAN_POINT('',(24.130000000000003,0.0,7.0));
#475=CARTESIAN_POINT('',(24.130000000000003,7.498551E-033,5.0));
#476=CARTESIAN_POINT('',(23.130000000000003,-1.000000000000000,5.0));
#477=CARTESIAN_POINT('',(23.130000000000003,-1.000000000000000,6.0));
#478=CARTESIAN_POINT('',(23.130000000000003,-1.000000000000000,7.0));
#479=CARTESIAN_POINT('',(24.130000000000003,7.498551E-033,6.999999999999999));
#480=CARTESIAN_POINT('',(24.130000000000003,7.498551E-033,5.0));
#481=CARTESIAN_POINT('',(23.130000000000003,1.224606E-016,5.0));
#482=CARTESIAN_POINT('',(23.130000000000003,1.224606E-016,6.0));
#483=CARTESIAN_POINT('',(23.130000000000003,1.224606E-016,7.0));
#484=CARTESIAN_POINT('',(24.130000000000003,7.498551E-033,7.0));
#485=CARTESIAN_POINT('',(24.130000000000003,7.498551E-033,5.0));
#486=CARTESIAN_POINT('',(23.130000000000003,1.000000000000000,5.0));
#487=CARTESIAN_POINT('',(23.130000000000003,1.000000000000000,6.0));
#488=CARTESIAN_POINT('',(23.130000000000003,1.000000000000000,7.0));
#489=CARTESIAN_POINT('',(24.130000000000003,7.498551E-033,6.999999999999999));
#490=CARTESIAN_POINT('',(24.130000000000003,0.0,5.0));
#491=CARTESIAN_POINT('',(24.130000000000003,1.0,5.0));
#492=CARTESIAN_POINT('',(24.130000000000003,1.0,6.0));
#493=CARTESIAN_POINT('',(24.130000000000003,1.0,7.0));
#494=CARTESIAN_POINT('',(24.130000000000003,0.0,7.0));
#495=CARTESIAN_POINT('',(24.130000000000003,-7.498551E-033,5.0));
#496=CARTESIAN_POINT('',(25.130000000000003,1.000000000000000,5.0));
#497=CARTESIAN_POINT('',(25.130000000000006,1.000000000000000,6.0));
#498=CARTESIAN_POINT('',(25.130000000000003,1.000000000000000,7.0));
#499=CARTESIAN_POINT('',(24.130000000000003,-7.498551E-033,6.999999999999999));
#500=CARTESIAN_POINT('',(24.130000000000003,-7.498551E-033,5.0));
#501=CARTESIAN_POINT('',(25.129999999999999,-1.224606E-016,5.0));
#502=CARTESIAN_POINT('',(25.130000000000003,-1.224606E-016,6.0));
#503=CARTESIAN_POINT('',(25.129999999999999,-1.224606E-016,7.0));
#504=CARTESIAN_POINT('',(24.130000000000003,-7.498551E-033,7.0));
#512=(BOUNDED_SURFACE()B_SPLINE_SURFACE(2,2,((#460,#465,#470,#475,#480,#485,#490,#495,#500),(#461,#466,#471,#476,#481,#486,#491,#496,#501),(#462,#467,#472,#477,#482,#487,#492,#497,#502),(#463,#468,#473,#478,#483,#488,#493,#498,#503),(#464,#469,#474,#479,#484,#489,#494,#499,#504)),.UNSPECIFIED.,.F.,.T.,.U.)B_SPLINE_SURFACE_WITH_KNOTS((3,2,3),(3,2,2,2,3),(-1.570796326794897,0.0,1.570796326794897),(0.0,1.570796326794897,3.141592653589793,4.712388980384690,6.283185307179586),.UNSPECIFIED.)GEOMETRIC_REPRESENTATION_ITEM()RATIONAL_B_SPLINE_SURFACE(((1.0,0.707106781186548,1.0,0.707106781186548,1.0,0.707106781186548,1.0,0.707106781186548,1.0),(0.707106781186545,0.499999999999998,0.707106781186545,0.499999999999998,0.707106781186545,0.499999999999998,0.707106781186545,0.499999999999998,0.707106781186545),(1.0,0.707106781186548,1.0,0.707106781186548,1.0,0.707106781186548,1.0,0.707106781186548,1.0),(0.707106781186545,0.499999999999998,0.707106781186545,0.499999999999998,0.707106781186545,0.499999999999998,0.707106781186545,0.499999999999998,0.707106781186545),(1.0,0.707106781186548,1.0,0.707106781186548,1.0,0.707106781186548,1.0,0.707106781186548,1.0)))REPRESENTATION_ITEM('')SURFACE());
#513=ORIENTED_EDGE('',*,*,#455,.T.);
#514=EDGE_LOOP('',(#513));
#515=FACE_OUTER_BOUND('',#514,.T.);
#516=ADVANCED_FACE('',(#515),#512,.T.);
#517=CLOSED_SHELL('',(#459,#516));
#518=MANIFOLD_SOLID_BREP('8ED',#517);
#519=STYLED_ITEM('NONE',(#221),#518);
#520=CARTESIAN_POINT('',(24.400000000000006,0.500000000000000,5.0));
#521=DIRECTION('',(0.0,0.0,1.0));
#522=DIRECTION('',(-1.0,0.0,0.0));
#523=AXIS2_PLACEMENT_3D('',#520,#521,#522);
#524=PLANE('',#523);
#525=CARTESIAN_POINT('',(23.130000000000003,0.0,5.0));
#526=VERTEX_POINT('',#525);
#527=CARTESIAN_POINT('',(23.130000000000003,1.0,5.0));
#528=VERTEX_POINT('',#527);
#529=CARTESIAN_POINT('',(23.130000000000003,0.0,5.0));
#530=DIRECTION('',(0.0,1.0,0.0));
#531=VECTOR('',#530,1.0);
#532=LINE('',#529,#531);
#533=EDGE_CURVE('',#526,#528,#532,.T.);
#534=ORIENTED_EDGE('',*,*,#533,.T.);
#535=CARTESIAN_POINT('',(25.400000000000006,1.0,5.0));
#536=VERTEX_POINT('',#535);
#537=CARTESIAN_POINT('',(23.130000000000006,1.0,5.0));
#538=DIRECTION('',(1.0,0.0,0.0));
#539=VECTOR('',#538,2.270000000000000);
#540=LINE('',#537,#539);
#541=EDGE_CURVE('',#528,#536,#540,.T.);
#542=ORIENTED_EDGE('',*,*,#541,.T.);
#543=CARTESIAN_POINT('',(25.400000000000006,0.0,5.0));
#544=VERTEX_POINT('',#543);
#545=CARTESIAN_POINT('',(25.400000000000006,1.0,5.0));
#546=DIRECTION('',(0.0,-1.0,0.0));
#547=VECTOR('',#546,1.0);
#548=LINE('',#545,#547);
#549=EDGE_CURVE('',#536,#544,#548,.T.);
#550=ORIENTED_EDGE('',*,*,#549,.T.);
#551=CARTESIAN_POINT('',(25.400000000000006,0.0,5.0));
#552=DIRECTION('',(-1.0,0.0,0.0));
#553=VECTOR('',#552,2.270000000000000);
#554=LINE('',#551,#553);
#555=EDGE_CURVE('',#544,#526,#554,.T.);
#556=ORIENTED_EDGE('',*,*,#555,.T.);
#557=EDGE_LOOP('',(#534,#542,#550,#556));
#558=FACE_OUTER_BOUND('',#557,.T.);
#559=ADVANCED_FACE('',(#558),#524,.F.);
#560=CARTESIAN_POINT('',(24.400000000000006,0.0,6.0));
#561=DIRECTION('',(0.0,1.0,0.0));
#562=DIRECTION('',(0.0,0.0,-1.0));
#563=AXIS2_PLACEMENT_3D('',#560,#561,#562);
#564=PLANE('',#563);
#565=CARTESIAN_POINT('',(23.130000000000003,0.0,7.0));
#566=VERTEX_POINT('',#565);
#567=CARTESIAN_POINT('',(23.130000000000003,0.0,7.0));
#568=DIRECTION('',(0.0,0.0,-1.0));
#569=VECTOR('',#568,2.0);
#570=LINE('',#567,#569);
#571=EDGE_CURVE('',#566,#526,#570,.T.);
#572=ORIENTED_EDGE('',*,*,#571,.T.);
#573=ORIENTED_EDGE('',*,*,#555,.F.);
#574=CARTESIAN_POINT('',(25.400000000000006,0.0,7.0));
#575=VERTEX_POINT('',#574);
#576=CARTESIAN_POINT('',(25.400000000000006,0.0,7.0));
#577=DIRECTION('',(0.0,0.0,-1.0));
#578=VECTOR('',#577,2.0);
#579=LINE('',#576,#578);
#580=EDGE_CURVE('',#575,#544,#579,.T.);
#581=ORIENTED_EDGE('',*,*,#580,.F.);
#582=CARTESIAN_POINT('',(23.130000000000006,0.0,7.0));
#583=DIRECTION('',(1.0,0.0,0.0));
#584=VECTOR('',#583,2.270000000000000);
#585=LINE('',#582,#584);
#586=EDGE_CURVE('',#566,#575,#585,.T.);
#587=ORIENTED_EDGE('',*,*,#586,.F.);
#588=EDGE_LOOP('',(#572,#573,#581,#587));
#589=FACE_OUTER_BOUND('',#588,.T.);
#590=ADVANCED_FACE('',(#589),#564,.F.);
#591=CARTESIAN_POINT('',(24.400000000000006,0.500000000000000,7.0));
#592=DIRECTION('',(0.0,0.0,1.0));
#593=DIRECTION('',(-1.0,0.0,0.0));
#594=AXIS2_PLACEMENT_3D('',#591,#592,#593);
#595=PLANE('',#594);
#596=CARTESIAN_POINT('',(23.130000000000003,1.0,7.0));
#597=VERTEX_POINT('',#596);
#598=CARTESIAN_POINT('',(23.130000000000003,1.0,7.0));
#599=DIRECTION('',(0.0,-1.0,0.0));
#600=VECTOR('',#599,1.0);
#601=LINE('',#598,#600);
#602=EDGE_CURVE('',#597,#566,#601,.T.);
#603=ORIENTED_EDGE('',*,*,#602,.T.);
#604=ORIENTED_EDGE('',*,*,#586,.T.);
#605=CARTESIAN_POINT('',(25.400000000000006,1.0,7.0));
#606=VERTEX_POINT('',#605);
#607=CARTESIAN_POINT('',(25.400000000000006,0.0,7.0));
#608=DIRECTION('',(0.0,1.0,0.0));
#609=VECTOR('',#608,1.0);
#610=LINE('',#607,#609);
#611=EDGE_CURVE('',#575,#606,#610,.T.);
#612=ORIENTED_EDGE('',*,*,#611,.T.);
#613=CARTESIAN_POINT('',(25.400000000000006,1.0,7.0));
#614=DIRECTION('',(-1.0,0.0,0.0));
#615=VECTOR('',#614,2.270000000000000);
#616=LINE('',#613,#615);
#617=EDGE_CURVE('',#606,#597,#616,.T.);
#618=ORIENTED_EDGE('',*,*,#617,.T.);
#619=EDGE_LOOP('',(#603,#604,#612,#618));
#620=FACE_OUTER_BOUND('',#619,.T.);
#621=ADVANCED_FACE('',(#620),#595,.T.);
#622=CARTESIAN_POINT('',(23.130000000000003,0.500000000000000,6.0));
#623=DIRECTION('',(1.0,0.0,0.0));
#624=DIRECTION('',(0.0,0.0,1.0));
#625=AXIS2_PLACEMENT_3D('',#622,#623,#624);
#626=PLANE('',#625);
#627=CARTESIAN_POINT('',(23.130000000000003,1.0,7.0));
#628=DIRECTION('',(0.0,0.0,-1.0));
#629=VECTOR('',#628,2.0);
#630=LINE('',#627,#629);
#631=EDGE_CURVE('',#597,#528,#630,.T.);
#632=ORIENTED_EDGE('',*,*,#631,.T.);
#633=ORIENTED_EDGE('',*,*,#533,.F.);
#634=ORIENTED_EDGE('',*,*,#571,.F.);
#635=ORIENTED_EDGE('',*,*,#602,.F.);
#636=EDGE_LOOP('',(#632,#633,#634,#635));
#637=FACE_OUTER_BOUND('',#636,.T.);
#638=ADVANCED_FACE('',(#637),#626,.F.);
#639=CARTESIAN_POINT('',(24.400000000000006,1.0,6.0));
#640=DIRECTION('',(0.0,-1.0,0.0));
#641=DIRECTION('',(0.0,0.0,1.0));
#642=AXIS2_PLACEMENT_3D('',#639,#640,#641);
#643=PLANE('',#642);
#644=CARTESIAN_POINT('',(25.400000000000006,1.0,7.0));
#645=DIRECTION('',(0.0,0.0,-1.0));
#646=VECTOR('',#645,2.0);
#647=LINE('',#644,#646);
#648=EDGE_CURVE('',#606,#536,#647,.T.);
#649=ORIENTED_EDGE('',*,*,#648,.T.);
#650=ORIENTED_EDGE('',*,*,#541,.F.);
#651=ORIENTED_EDGE('',*,*,#631,.F.);
#652=ORIENTED_EDGE('',*,*,#617,.F.);
#653=EDGE_LOOP('',(#649,#650,#651,#652));
#654=FACE_OUTER_BOUND('',#653,.T.);
#655=ADVANCED_FACE('',(#654),#643,.F.);
#656=CARTESIAN_POINT('',(25.400000000000006,0.500000000000000,6.0));
#657=DIRECTION('',(-1.0,0.0,0.0));
#658=DIRECTION('',(0.0,0.0,-1.0));
#659=AXIS2_PLACEMENT_3D('',#656,#657,#658);
#660=PLANE('',#659);
#661=ORIENTED_EDGE('',*,*,#580,.T.);
#662=ORIENTED_EDGE('',*,*,#549,.F.);
#663=ORIENTED_EDGE('',*,*,#648,.F.);
#664=ORIENTED_EDGE('',*,*,#611,.F.);
#665=EDGE_LOOP('',(#661,#662,#663,#664));
#666=FACE_OUTER_BOUND('',#665,.T.);
#667=ADVANCED_FACE('',(#666),#660,.F.);
#668=CLOSED_SHELL('',(#559,#590,#621,#638,#655,#667));
#669=MANIFOLD_SOLID_BREP('8EA',#668);
#670=STYLED_ITEM('NONE',(#221),#669);
#671=CARTESIAN_POINT('',(24.530000000000001,4.898425E-017,6.0));
#672=CARTESIAN_POINT('',(24.530000000000001,4.898425E-017,-3.600000000000000));
#673=CARTESIAN_POINT('',(24.530000000000001,0.399999999999999,6.0));
#674=CARTESIAN_POINT('',(24.530000000000001,0.399999999999999,-3.600000000000000));
#675=CARTESIAN_POINT('',(24.130000000000003,0.399999999999999,6.0));
#676=CARTESIAN_POINT('',(24.130000000000003,0.399999999999999,-3.600000000000000));
#677=CARTESIAN_POINT('',(23.730000000000004,0.399999999999998,6.0));
#678=CARTESIAN_POINT('',(23.730000000000004,0.399999999999998,-3.600000000000000));
#679=CARTESIAN_POINT('',(23.730000000000004,-4.898425E-017,6.0));
#680=CARTESIAN_POINT('',(23.730000000000004,-4.898425E-017,-3.600000000000000));
#681=CARTESIAN_POINT('',(23.730000000000004,-0.399999999999999,6.0));
#682=CARTESIAN_POINT('',(23.730000000000004,-0.399999999999999,-3.600000000000000));
#683=CARTESIAN_POINT('',(24.130000000000003,-0.399999999999999,6.0));
#684=CARTESIAN_POINT('',(24.130000000000003,-0.399999999999999,-3.600000000000000));
#685=CARTESIAN_POINT('',(24.530000000000001,-0.399999999999998,6.0));
#686=CARTESIAN_POINT('',(24.530000000000001,-0.399999999999998,-3.600000000000000));
#687=CARTESIAN_POINT('',(24.530000000000001,4.898425E-017,6.0));
#688=CARTESIAN_POINT('',(24.530000000000001,4.898425E-017,-3.600000000000000));
#696=(BOUNDED_SURFACE()B_SPLINE_SURFACE(1,2,((#671,#673,#675,#677,#679,#681,#683,#685,#687),(#672,#674,#676,#678,#680,#682,#684,#686,#688)),.UNSPECIFIED.,.F.,.T.,.U.)B_SPLINE_SURFACE_WITH_KNOTS((2,2),(3,2,2,2,3),(0.0,23.999999999999996),(0.0,0.628318530717959,1.256637061435917,1.884955592153876,2.513274122871835),.UNSPECIFIED.)GEOMETRIC_REPRESENTATION_ITEM()RATIONAL_B_SPLINE_SURFACE(((1.0,0.707106781186548,1.0,0.707106781186548,1.0,0.707106781186548,1.0,0.707106781186548,1.0),(1.0,0.707106781186548,1.0,0.707106781186548,1.0,0.707106781186548,1.0,0.707106781186548,1.0)))REPRESENTATION_ITEM('')SURFACE());
#697=CARTESIAN_POINT('',(23.730000000000004,0.0,-3.600000000000000));
#698=VERTEX_POINT('',#697);
#699=CARTESIAN_POINT('',(23.730000000000004,0.0,6.0));
#700=VERTEX_POINT('',#699);
#701=CARTESIAN_POINT('',(23.730000000000004,0.0,-3.600000000000000));
#702=DIRECTION('',(0.0,0.0,1.0));
#703=VECTOR('',#702,9.600000000000000);
#704=LINE('',#701,#703);
#705=EDGE_CURVE('',#698,#700,#704,.T.);
#706=ORIENTED_EDGE('',*,*,#705,.F.);
#707=CARTESIAN_POINT('',(24.530000000000001,0.0,-3.600000000000000));
#708=VERTEX_POINT('',#707);
#709=CARTESIAN_POINT('',(24.130000000000003,0.0,-3.600000000000000));
#710=DIRECTION('',(0.0,0.0,1.0));
#711=DIRECTION('',(-1.0,0.0,0.0));
#712=AXIS2_PLACEMENT_3D('',#709,#710,#711);
#713=CIRCLE('',#712,0.400000000000000);
#714=EDGE_CURVE('',#708,#698,#713,.F.);
#715=ORIENTED_EDGE('',*,*,#714,.F.);
#716=CARTESIAN_POINT('',(24.530000000000001,4.898425E-017,6.0));
#717=VERTEX_POINT('',#716);
#718=CARTESIAN_POINT('',(24.530000000000001,4.898425E-017,-3.600000000000000));
#719=DIRECTION('',(0.0,0.0,1.0));
#720=VECTOR('',#719,9.600000000000000);
#721=LINE('',#718,#720);
#722=EDGE_CURVE('',#708,#717,#721,.T.);
#723=ORIENTED_EDGE('',*,*,#722,.T.);
#724=CARTESIAN_POINT('',(24.130000000000003,0.0,6.0));
#725=DIRECTION('',(0.0,0.0,-1.0));
#726=DIRECTION('',(-1.0,0.0,0.0));
#727=AXIS2_PLACEMENT_3D('',#724,#725,#726);
#728=CIRCLE('',#727,0.400000000000000);
#729=EDGE_CURVE('',#717,#700,#728,.T.);
#730=ORIENTED_EDGE('',*,*,#729,.T.);
#731=EDGE_LOOP('',(#706,#715,#723,#730));
#732=FACE_OUTER_BOUND('',#731,.T.);
#733=ADVANCED_FACE('',(#732),#696,.T.);
#734=CARTESIAN_POINT('',(24.530000000000001,0.400000000000000,-3.600000000000000));
#735=CARTESIAN_POINT('',(23.730000000000004,0.400000000000000,-3.600000000000000));
#736=CARTESIAN_POINT('',(24.530000000000001,-0.400000000000000,-3.600000000000000));
#737=CARTESIAN_POINT('',(23.730000000000004,-0.400000000000000,-3.600000000000000));
#738=B_SPLINE_SURFACE_WITH_KNOTS('',1,1,((#734,#736),(#735,#737)),.UNSPECIFIED.,.F.,.F.,.U.,(2,2),(2,2),(0.0,0.799999999999997),(0.0,0.800000000000000),.UNSPECIFIED.);
#739=ORIENTED_EDGE('',*,*,#714,.T.);
#740=CARTESIAN_POINT('',(24.130000000000003,0.0,-3.600000000000000));
#741=DIRECTION('',(0.0,0.0,1.0));
#742=DIRECTION('',(-1.0,0.0,0.0));
#743=AXIS2_PLACEMENT_3D('',#740,#741,#742);
#744=CIRCLE('',#743,0.400000000000000);
#745=EDGE_CURVE('',#698,#708,#744,.F.);
#746=ORIENTED_EDGE('',*,*,#745,.T.);
#747=EDGE_LOOP('',(#739,#746));
#748=FACE_OUTER_BOUND('',#747,.T.);
#749=ADVANCED_FACE('',(#748),#738,.F.);
#750=CARTESIAN_POINT('',(24.530000000000001,4.898425E-017,6.0));
#751=CARTESIAN_POINT('',(24.530000000000001,4.898425E-017,-3.600000000000000));
#752=CARTESIAN_POINT('',(24.530000000000001,0.399999999999999,6.0));
#753=CARTESIAN_POINT('',(24.530000000000001,0.399999999999999,-3.600000000000000));
#754=CARTESIAN_POINT('',(24.130000000000003,0.399999999999999,6.0));
#755=CARTESIAN_POINT('',(24.130000000000003,0.399999999999999,-3.600000000000000));
#756=CARTESIAN_POINT('',(23.730000000000004,0.399999999999998,6.0));
#757=CARTESIAN_POINT('',(23.730000000000004,0.399999999999998,-3.600000000000000));
#758=CARTESIAN_POINT('',(23.730000000000004,-4.898425E-017,6.0));
#759=CARTESIAN_POINT('',(23.730000000000004,-4.898425E-017,-3.600000000000000));
#760=CARTESIAN_POINT('',(23.730000000000004,-0.399999999999999,6.0));
#761=CARTESIAN_POINT('',(23.730000000000004,-0.399999999999999,-3.600000000000000));
#762=CARTESIAN_POINT('',(24.130000000000003,-0.399999999999999,6.0));
#763=CARTESIAN_POINT('',(24.130000000000003,-0.399999999999999,-3.600000000000000));
#764=CARTESIAN_POINT('',(24.530000000000001,-0.399999999999998,6.0));
#765=CARTESIAN_POINT('',(24.530000000000001,-0.399999999999998,-3.600000000000000));
#766=CARTESIAN_POINT('',(24.530000000000001,4.898425E-017,6.0));
#767=CARTESIAN_POINT('',(24.530000000000001,4.898425E-017,-3.600000000000000));
#775=(BOUNDED_SURFACE()B_SPLINE_SURFACE(1,2,((#750,#752,#754,#756,#758,#760,#762,#764,#766),(#751,#753,#755,#757,#759,#761,#763,#765,#767)),.UNSPECIFIED.,.F.,.T.,.U.)B_SPLINE_SURFACE_WITH_KNOTS((2,2),(3,2,2,2,3),(0.0,23.999999999999996),(0.0,0.628318530717959,1.256637061435917,1.884955592153876,2.513274122871835),.UNSPECIFIED.)GEOMETRIC_REPRESENTATION_ITEM()RATIONAL_B_SPLINE_SURFACE(((1.0,0.707106781186548,1.0,0.707106781186548,1.0,0.707106781186548,1.0,0.707106781186548,1.0),(1.0,0.707106781186548,1.0,0.707106781186548,1.0,0.707106781186548,1.0,0.707106781186548,1.0)))REPRESENTATION_ITEM('')SURFACE());
#776=ORIENTED_EDGE('',*,*,#705,.T.);
#777=CARTESIAN_POINT('',(24.130000000000003,0.0,6.0));
#778=DIRECTION('',(0.0,0.0,-1.0));
#779=DIRECTION('',(-1.0,0.0,0.0));
#780=AXIS2_PLACEMENT_3D('',#777,#778,#779);
#781=CIRCLE('',#780,0.400000000000000);
#782=EDGE_CURVE('',#700,#717,#781,.T.);
#783=ORIENTED_EDGE('',*,*,#782,.T.);
#784=ORIENTED_EDGE('',*,*,#722,.F.);
#785=ORIENTED_EDGE('',*,*,#745,.F.);
#786=EDGE_LOOP('',(#776,#783,#784,#785));
#787=FACE_OUTER_BOUND('',#786,.T.);
#788=ADVANCED_FACE('',(#787),#775,.T.);
#789=CARTESIAN_POINT('',(24.530000000000001,0.400000000000000,6.0));
#790=CARTESIAN_POINT('',(23.730000000000004,0.400000000000000,6.0));
#791=CARTESIAN_POINT('',(24.530000000000001,-0.400000000000000,6.0));
#792=CARTESIAN_POINT('',(23.730000000000004,-0.400000000000000,6.0));
#793=B_SPLINE_SURFACE_WITH_KNOTS('',1,1,((#789,#791),(#790,#792)),.UNSPECIFIED.,.F.,.F.,.U.,(2,2),(2,2),(0.0,0.799999999999997),(0.0,0.800000000000000),.UNSPECIFIED.);
#794=ORIENTED_EDGE('',*,*,#782,.F.);
#795=ORIENTED_EDGE('',*,*,#729,.F.);
#796=EDGE_LOOP('',(#794,#795));
#797=FACE_OUTER_BOUND('',#796,.T.);
#798=ADVANCED_FACE('',(#797),#793,.T.);
#799=CLOSED_SHELL('',(#733,#749,#788,#798));
#800=MANIFOLD_SOLID_BREP('8E7',#799);
#801=STYLED_ITEM('NONE',(#221),#800);
#802=CARTESIAN_POINT('',(-23.130000000000003,0.0,7.0));
#803=CARTESIAN_POINT('',(-23.130000000000003,0.0,5.0));
#804=CARTESIAN_POINT('',(-25.130000000000003,0.0,7.0));
#805=CARTESIAN_POINT('',(-25.130000000000003,0.0,5.0));
#806=B_SPLINE_SURFACE_WITH_KNOTS('',1,1,((#802,#804),(#803,#805)),.UNSPECIFIED.,.F.,.F.,.U.,(2,2),(2,2),(0.0,2.0),(0.0,2.0),.UNSPECIFIED.);
#807=CARTESIAN_POINT('',(-24.130000000000003,0.0,7.0));
#808=VERTEX_POINT('',#807);
#809=CARTESIAN_POINT('',(-24.130000000000003,0.0,5.0));
#810=VERTEX_POINT('',#809);
#811=CARTESIAN_POINT('',(-24.130000000000003,0.0,6.0));
#812=DIRECTION('',(0.0,-1.0,0.0));
#813=DIRECTION('',(0.0,0.0,1.0));
#814=AXIS2_PLACEMENT_3D('',#811,#812,#813);
#815=CIRCLE('',#814,1.0);
#816=EDGE_CURVE('',#808,#810,#815,.T.);
#817=ORIENTED_EDGE('',*,*,#816,.F.);
#818=CARTESIAN_POINT('',(-24.130000000000003,0.0,6.0));
#819=DIRECTION('',(0.0,-1.0,0.0));
#820=DIRECTION('',(0.0,0.0,1.0));
#821=AXIS2_PLACEMENT_3D('',#818,#819,#820);
#822=CIRCLE('',#821,1.0);
#823=EDGE_CURVE('',#810,#808,#822,.T.);
#824=ORIENTED_EDGE('',*,*,#823,.F.);
#825=EDGE_LOOP('',(#817,#824));
#826=FACE_OUTER_BOUND('',#825,.T.);
#827=ADVANCED_FACE('',(#826),#806,.T.);
#828=CARTESIAN_POINT('',(-24.130000000000003,0.0,6.0));
#829=DIRECTION('',(0.0,0.0,1.0));
#830=DIRECTION('',(1.0,0.0,0.0));
#831=AXIS2_PLACEMENT_3D('',#828,#829,#830);
#832=SPHERICAL_SURFACE('',#831,1.0);
#833=ORIENTED_EDGE('',*,*,#816,.T.);
#834=ORIENTED_EDGE('',*,*,#823,.T.);
#835=EDGE_LOOP('',(#833,#834));
#836=FACE_OUTER_BOUND('',#835,.T.);
#837=ADVANCED_FACE('',(#836),#832,.T.);
#838=CLOSED_SHELL('',(#827,#837));
#839=MANIFOLD_SOLID_BREP('8E2',#838);
#840=STYLED_ITEM('NONE',(#221),#839);
#841=CARTESIAN_POINT('',(25.399999999999999,1.0,20.239999999999998));
#842=CARTESIAN_POINT('',(25.399999999999999,1.0,5.0));
#843=CARTESIAN_POINT('',(-25.399999999999999,1.0,20.239999999999998));
#844=CARTESIAN_POINT('',(-25.399999999999999,1.0,5.0));
#845=B_SPLINE_SURFACE_WITH_KNOTS('',1,1,((#841,#843),(#842,#844)),.UNSPECIFIED.,.F.,.F.,.U.,(2,2),(2,2),(0.0,15.239999999999998),(0.0,50.799999999999997),.UNSPECIFIED.);
#846=CARTESIAN_POINT('',(25.399999999999999,1.0,20.239999999999998));
#847=VERTEX_POINT('',#846);
#848=CARTESIAN_POINT('',(25.399999999999999,1.0,5.0));
#849=VERTEX_POINT('',#848);
#850=CARTESIAN_POINT('',(25.399999999999999,1.0,20.239999999999998));
#851=DIRECTION('',(0.0,0.0,-1.0));
#852=VECTOR('',#851,15.239999999999998);
#853=LINE('',#850,#852);
#854=EDGE_CURVE('',#847,#849,#853,.T.);
#855=ORIENTED_EDGE('',*,*,#854,.F.);
#856=CARTESIAN_POINT('',(-25.399999999999999,1.0,20.239999999999998));
#857=VERTEX_POINT('',#856);
#858=CARTESIAN_POINT('',(25.399999999999999,1.0,20.239999999999998));
#859=DIRECTION('',(-1.0,0.0,0.0));
#860=VECTOR('',#859,50.799999999999997);
#861=LINE('',#858,#860);
#862=EDGE_CURVE('',#847,#857,#861,.T.);
#863=ORIENTED_EDGE('',*,*,#862,.T.);
#864=CARTESIAN_POINT('',(-25.399999999999999,1.0,5.0));
#865=VERTEX_POINT('',#864);
#866=CARTESIAN_POINT('',(-25.399999999999999,1.0,20.239999999999998));
#867=DIRECTION('',(0.0,0.0,-1.0));
#868=VECTOR('',#867,15.239999999999998);
#869=LINE('',#866,#868);
#870=EDGE_CURVE('',#857,#865,#869,.T.);
#871=ORIENTED_EDGE('',*,*,#870,.T.);
#872=CARTESIAN_POINT('',(-25.399999999999999,1.0,5.0));
#873=DIRECTION('',(1.0,0.0,0.0));
#874=VECTOR('',#873,50.799999999999997);
#875=LINE('',#872,#874);
#876=EDGE_CURVE('',#865,#849,#875,.T.);
#877=ORIENTED_EDGE('',*,*,#876,.T.);
#878=EDGE_LOOP('',(#855,#863,#871,#877));
#879=FACE_OUTER_BOUND('',#878,.T.);
#880=ADVANCED_FACE('',(#879),#845,.F.);
#881=CARTESIAN_POINT('',(-25.399999999999999,1.0,5.0));
#882=CARTESIAN_POINT('',(25.399999999999999,1.0,5.0));
#883=CARTESIAN_POINT('',(-25.399999999999999,2.0,5.0));
#884=CARTESIAN_POINT('',(25.399999999999999,2.0,5.0));
#885=B_SPLINE_SURFACE_WITH_KNOTS('',1,1,((#881,#883),(#882,#884)),.UNSPECIFIED.,.F.,.F.,.U.,(2,2),(2,2),(0.0,50.799999999999997),(0.0,1.0),.UNSPECIFIED.);
#886=CARTESIAN_POINT('',(25.399999999999999,2.0,5.0));
#887=VERTEX_POINT('',#886);
#888=CARTESIAN_POINT('',(25.399999999999999,1.0,5.0));
#889=DIRECTION('',(0.0,1.0,0.0));
#890=VECTOR('',#889,1.0);
#891=LINE('',#888,#890);
#892=EDGE_CURVE('',#849,#887,#891,.T.);
#893=ORIENTED_EDGE('',*,*,#892,.F.);
#894=ORIENTED_EDGE('',*,*,#876,.F.);
#895=CARTESIAN_POINT('',(-25.399999999999999,2.0,5.0));
#896=VERTEX_POINT('',#895);
#897=CARTESIAN_POINT('',(-25.399999999999999,2.0,5.0));
#898=DIRECTION('',(0.0,-1.0,0.0));
#899=VECTOR('',#898,1.0);
#900=LINE('',#897,#899);
#901=EDGE_CURVE('',#896,#865,#900,.T.);
#902=ORIENTED_EDGE('',*,*,#901,.F.);
#903=CARTESIAN_POINT('',(25.399999999999999,2.0,5.0));
#904=DIRECTION('',(-1.0,0.0,0.0));
#905=VECTOR('',#904,50.799999999999997);
#906=LINE('',#903,#905);
#907=EDGE_CURVE('',#887,#896,#906,.T.);
#908=ORIENTED_EDGE('',*,*,#907,.F.);
#909=EDGE_LOOP('',(#893,#894,#902,#908));
#910=FACE_OUTER_BOUND('',#909,.T.);
#911=ADVANCED_FACE('',(#910),#885,.F.);
#912=CARTESIAN_POINT('',(25.399999999999999,1.0,5.0));
#913=CARTESIAN_POINT('',(25.399999999999999,1.0,20.239999999999998));
#914=CARTESIAN_POINT('',(25.399999999999999,2.0,5.0));
#915=CARTESIAN_POINT('',(25.399999999999999,2.0,20.239999999999998));
#916=B_SPLINE_SURFACE_WITH_KNOTS('',1,1,((#912,#914),(#913,#915)),.UNSPECIFIED.,.F.,.F.,.U.,(2,2),(2,2),(0.0,15.239999999999998),(0.0,1.0),.UNSPECIFIED.);
#917=CARTESIAN_POINT('',(25.399999999999999,2.0,20.239999999999998));
#918=VERTEX_POINT('',#917);
#919=CARTESIAN_POINT('',(25.399999999999999,2.0,20.239999999999998));
#920=DIRECTION('',(0.0,0.0,-1.0));
#921=VECTOR('',#920,15.239999999999998);
#922=LINE('',#919,#921);
#923=EDGE_CURVE('',#918,#887,#922,.T.);
#924=ORIENTED_EDGE('',*,*,#923,.F.);
#925=CARTESIAN_POINT('',(25.399999999999999,2.0,20.239999999999998));
#926=DIRECTION('',(0.0,-1.0,0.0));
#927=VECTOR('',#926,1.0);
#928=LINE('',#925,#927);
#929=EDGE_CURVE('',#918,#847,#928,.T.);
#930=ORIENTED_EDGE('',*,*,#929,.T.);
#931=ORIENTED_EDGE('',*,*,#854,.T.);
#932=ORIENTED_EDGE('',*,*,#892,.T.);
#933=EDGE_LOOP('',(#924,#930,#931,#932));
#934=FACE_OUTER_BOUND('',#933,.T.);
#935=ADVANCED_FACE('',(#934),#916,.F.);
#936=CARTESIAN_POINT('',(-25.399999999999999,1.0,20.239999999999998));
#937=CARTESIAN_POINT('',(-25.399999999999999,1.0,5.0));
#938=CARTESIAN_POINT('',(-25.399999999999999,2.0,20.239999999999998));
#939=CARTESIAN_POINT('',(-25.399999999999999,2.0,5.0));
#940=B_SPLINE_SURFACE_WITH_KNOTS('',1,1,((#936,#938),(#937,#939)),.UNSPECIFIED.,.F.,.F.,.U.,(2,2),(2,2),(0.0,15.239999999999998),(0.0,1.0),.UNSPECIFIED.);
#941=ORIENTED_EDGE('',*,*,#870,.F.);
#942=CARTESIAN_POINT('',(-25.399999999999999,2.0,20.239999999999998));
#943=VERTEX_POINT('',#942);
#944=CARTESIAN_POINT('',(-25.399999999999999,1.0,20.239999999999998));
#945=DIRECTION('',(0.0,1.0,0.0));
#946=VECTOR('',#945,1.0);
#947=LINE('',#944,#946);
#948=EDGE_CURVE('',#857,#943,#947,.T.);
#949=ORIENTED_EDGE('',*,*,#948,.T.);
#950=CARTESIAN_POINT('',(-25.399999999999999,2.0,20.239999999999998));
#951=DIRECTION('',(0.0,0.0,-1.0));
#952=VECTOR('',#951,15.239999999999998);
#953=LINE('',#950,#952);
#954=EDGE_CURVE('',#943,#896,#953,.T.);
#955=ORIENTED_EDGE('',*,*,#954,.T.);
#956=ORIENTED_EDGE('',*,*,#901,.T.);
#957=EDGE_LOOP('',(#941,#949,#955,#956));
#958=FACE_OUTER_BOUND('',#957,.T.);
#959=ADVANCED_FACE('',(#958),#940,.F.);
#960=CARTESIAN_POINT('',(-25.399999999999999,1.0,20.239999999999998));
#961=CARTESIAN_POINT('',(25.399999999999999,1.0,20.239999999999998));
#962=CARTESIAN_POINT('',(-25.399999999999999,2.0,20.239999999999998));
#963=CARTESIAN_POINT('',(25.399999999999999,2.0,20.239999999999998));
#964=B_SPLINE_SURFACE_WITH_KNOTS('',1,1,((#960,#962),(#961,#963)),.UNSPECIFIED.,.F.,.F.,.U.,(2,2),(2,2),(0.0,50.799999999999997),(0.0,1.0),.UNSPECIFIED.);
#965=ORIENTED_EDGE('',*,*,#929,.F.);
#966=CARTESIAN_POINT('',(-25.399999999999999,2.0,20.239999999999998));
#967=DIRECTION('',(1.0,0.0,0.0));
#968=VECTOR('',#967,50.799999999999997);
#969=LINE('',#966,#968);
#970=EDGE_CURVE('',#943,#918,#969,.T.);
#971=ORIENTED_EDGE('',*,*,#970,.F.);
#972=ORIENTED_EDGE('',*,*,#948,.F.);
#973=ORIENTED_EDGE('',*,*,#862,.F.);
#974=EDGE_LOOP('',(#965,#971,#972,#973));
#975=FACE_OUTER_BOUND('',#974,.T.);
#976=ADVANCED_FACE('',(#975),#964,.T.);
#977=CARTESIAN_POINT('',(25.399999999999999,2.0,5.0));
#978=CARTESIAN_POINT('',(25.399999999999999,2.0,20.239999999999998));
#979=CARTESIAN_POINT('',(-25.399999999999999,2.0,5.0));
#980=CARTESIAN_POINT('',(-25.399999999999999,2.0,20.239999999999998));
#981=B_SPLINE_SURFACE_WITH_KNOTS('',1,1,((#977,#979),(#978,#980)),.UNSPECIFIED.,.F.,.F.,.U.,(2,2),(2,2),(0.0,15.239999999999998),(0.0,50.799999999999997),.UNSPECIFIED.);
#982=ORIENTED_EDGE('',*,*,#954,.F.);
#983=ORIENTED_EDGE('',*,*,#970,.T.);
#984=ORIENTED_EDGE('',*,*,#923,.T.);
#985=ORIENTED_EDGE('',*,*,#907,.T.);
#986=EDGE_LOOP('',(#982,#983,#984,#985));
#987=FACE_OUTER_BOUND('',#986,.T.);
#988=ADVANCED_FACE('',(#987),#981,.F.);
#989=CLOSED_SHELL('',(#880,#911,#935,#959,#976,#988));
#990=MANIFOLD_SOLID_BREP('8C6',#989);
#991=COLOUR_RGB('152',0.0,0.325000000000000,0.650000000000000);
#992=SURFACE_STYLE_USAGE(.BOTH.,#993);
#993=SURFACE_SIDE_STYLE('NONE',(#994));
#994=SURFACE_STYLE_FILL_AREA(#995);
#995=FILL_AREA_STYLE('NONE',(#996));
#996=FILL_AREA_STYLE_COLOUR('NONE',#991);
#997=PRESENTATION_STYLE_ASSIGNMENT((#992));
#998=STYLED_ITEM('NONE',(#997),#990);
#999=CARTESIAN_POINT('',(-25.400000000000006,0.0,5.0));
#1000=CARTESIAN_POINT('',(-23.130000000000003,0.0,5.0));
#1001=CARTESIAN_POINT('',(-25.400000000000006,1.0,5.0));
#1002=CARTESIAN_POINT('',(-23.130000000000003,1.0,5.0));
#1003=B_SPLINE_SURFACE_WITH_KNOTS('',1,1,((#999,#1001),(#1000,#1002)),.UNSPECIFIED.,.F.,.F.,.U.,(2,2),(2,2),(0.0,2.270000000000003),(0.0,1.0),.UNSPECIFIED.);
#1004=CARTESIAN_POINT('',(-23.130000000000003,0.0,5.0));
#1005=VERTEX_POINT('',#1004);
#1006=CARTESIAN_POINT('',(-23.130000000000003,1.0,5.0));
#1007=VERTEX_POINT('',#1006);
#1008=CARTESIAN_POINT('',(-23.130000000000003,0.0,5.0));
#1009=DIRECTION('',(0.0,1.0,0.0));
#1010=VECTOR('',#1009,1.0);
#1011=LINE('',#1008,#1010);
#1012=EDGE_CURVE('',#1005,#1007,#1011,.T.);
#1013=ORIENTED_EDGE('',*,*,#1012,.F.);
#1014=CARTESIAN_POINT('',(-25.400000000000006,0.0,5.0));
#1015=VERTEX_POINT('',#1014);
#1016=CARTESIAN_POINT('',(-25.400000000000006,0.0,5.0));
#1017=DIRECTION('',(1.0,0.0,0.0));
#1018=VECTOR('',#1017,2.270000000000000);
#1019=LINE('',#1016,#1018);
#1020=EDGE_CURVE('',#1015,#1005,#1019,.T.);
#1021=ORIENTED_EDGE('',*,*,#1020,.F.);
#1022=CARTESIAN_POINT('',(-25.400000000000006,1.0,5.0));
#1023=VERTEX_POINT('',#1022);
#1024=CARTESIAN_POINT('',(-25.400000000000006,1.0,5.0));
#1025=DIRECTION('',(0.0,-1.0,0.0));
#1026=VECTOR('',#1025,1.0);
#1027=LINE('',#1024,#1026);
#1028=EDGE_CURVE('',#1023,#1015,#1027,.T.);
#1029=ORIENTED_EDGE('',*,*,#1028,.F.);
#1030=CARTESIAN_POINT('',(-23.130000000000006,1.0,5.0));
#1031=DIRECTION('',(-1.0,0.0,0.0));
#1032=VECTOR('',#1031,2.270000000000000);
#1033=LINE('',#1030,#1032);
#1034=EDGE_CURVE('',#1007,#1023,#1033,.T.);
#1035=ORIENTED_EDGE('',*,*,#1034,.F.);
#1036=EDGE_LOOP('',(#1013,#1021,#1029,#1035));
#1037=FACE_OUTER_BOUND('',#1036,.T.);
#1038=ADVANCED_FACE('',(#1037),#1003,.F.);
#1039=CARTESIAN_POINT('',(-23.130000000000003,0.0,7.0));
#1040=CARTESIAN_POINT('',(-23.130000000000003,0.0,5.0));
#1041=CARTESIAN_POINT('',(-25.400000000000006,0.0,7.0));
#1042=CARTESIAN_POINT('',(-25.400000000000006,0.0,5.0));
#1043=B_SPLINE_SURFACE_WITH_KNOTS('',1,1,((#1039,#1041),(#1040,#1042)),.UNSPECIFIED.,.F.,.F.,.U.,(2,2),(2,2),(0.0,2.0),(0.0,2.270000000000003),.UNSPECIFIED.);
#1044=CARTESIAN_POINT('',(-23.130000000000003,0.0,7.0));
#1045=VERTEX_POINT('',#1044);
#1046=CARTESIAN_POINT('',(-23.130000000000003,0.0,7.0));
#1047=DIRECTION('',(0.0,0.0,-1.0));
#1048=VECTOR('',#1047,2.0);
#1049=LINE('',#1046,#1048);
#1050=EDGE_CURVE('',#1045,#1005,#1049,.T.);
#1051=ORIENTED_EDGE('',*,*,#1050,.F.);
#1052=CARTESIAN_POINT('',(-25.400000000000006,0.0,7.0));
#1053=VERTEX_POINT('',#1052);
#1054=CARTESIAN_POINT('',(-23.130000000000006,0.0,7.0));
#1055=DIRECTION('',(-1.0,0.0,0.0));
#1056=VECTOR('',#1055,2.270000000000000);
#1057=LINE('',#1054,#1056);
#1058=EDGE_CURVE('',#1045,#1053,#1057,.T.);
#1059=ORIENTED_EDGE('',*,*,#1058,.T.);
#1060=CARTESIAN_POINT('',(-25.400000000000006,0.0,7.0));
#1061=DIRECTION('',(0.0,0.0,-1.0));
#1062=VECTOR('',#1061,2.0);
#1063=LINE('',#1060,#1062);
#1064=EDGE_CURVE('',#1053,#1015,#1063,.T.);
#1065=ORIENTED_EDGE('',*,*,#1064,.T.);
#1066=ORIENTED_EDGE('',*,*,#1020,.T.);
#1067=EDGE_LOOP('',(#1051,#1059,#1065,#1066));
#1068=FACE_OUTER_BOUND('',#1067,.T.);
#1069=ADVANCED_FACE('',(#1068),#1043,.F.);
#1070=CARTESIAN_POINT('',(-25.400000000000006,0.0,7.0));
#1071=CARTESIAN_POINT('',(-23.130000000000003,0.0,7.0));
#1072=CARTESIAN_POINT('',(-25.400000000000006,1.0,7.0));
#1073=CARTESIAN_POINT('',(-23.130000000000003,1.0,7.0));
#1074=B_SPLINE_SURFACE_WITH_KNOTS('',1,1,((#1070,#1072),(#1071,#1073)),.UNSPECIFIED.,.F.,.F.,.U.,(2,2),(2,2),(0.0,2.270000000000003),(0.0,1.0),.UNSPECIFIED.);
#1075=CARTESIAN_POINT('',(-23.130000000000003,1.0,7.0));
#1076=VERTEX_POINT('',#1075);
#1077=CARTESIAN_POINT('',(-23.130000000000003,1.0,7.0));
#1078=DIRECTION('',(0.0,-1.0,0.0));
#1079=VECTOR('',#1078,1.0);
#1080=LINE('',#1077,#1079);
#1081=EDGE_CURVE('',#1076,#1045,#1080,.T.);
#1082=ORIENTED_EDGE('',*,*,#1081,.F.);
#1083=CARTESIAN_POINT('',(-25.400000000000006,1.0,7.0));
#1084=VERTEX_POINT('',#1083);
#1085=CARTESIAN_POINT('',(-25.400000000000006,1.0,7.0));
#1086=DIRECTION('',(1.0,0.0,0.0));
#1087=VECTOR('',#1086,2.270000000000000);
#1088=LINE('',#1085,#1087);
#1089=EDGE_CURVE('',#1084,#1076,#1088,.T.);
#1090=ORIENTED_EDGE('',*,*,#1089,.F.);
#1091=CARTESIAN_POINT('',(-25.400000000000006,0.0,7.0));
#1092=DIRECTION('',(0.0,1.0,0.0));
#1093=VECTOR('',#1092,1.0);
#1094=LINE('',#1091,#1093);
#1095=EDGE_CURVE('',#1053,#1084,#1094,.T.);
#1096=ORIENTED_EDGE('',*,*,#1095,.F.);
#1097=ORIENTED_EDGE('',*,*,#1058,.F.);
#1098=EDGE_LOOP('',(#1082,#1090,#1096,#1097));
#1099=FACE_OUTER_BOUND('',#1098,.T.);
#1100=ADVANCED_FACE('',(#1099),#1074,.T.);
#1101=CARTESIAN_POINT('',(-23.130000000000003,0.0,5.0));
#1102=CARTESIAN_POINT('',(-23.130000000000003,0.0,7.0));
#1103=CARTESIAN_POINT('',(-23.130000000000003,1.0,5.0));
#1104=CARTESIAN_POINT('',(-23.130000000000003,1.0,7.0));
#1105=B_SPLINE_SURFACE_WITH_KNOTS('',1,1,((#1101,#1103),(#1102,#1104)),.UNSPECIFIED.,.F.,.F.,.U.,(2,2),(2,2),(0.0,2.0),(0.0,1.0),.UNSPECIFIED.);
#1106=CARTESIAN_POINT('',(-23.130000000000003,1.0,7.0));
#1107=DIRECTION('',(0.0,0.0,-1.0));
#1108=VECTOR('',#1107,2.0);
#1109=LINE('',#1106,#1108);
#1110=EDGE_CURVE('',#1076,#1007,#1109,.T.);
#1111=ORIENTED_EDGE('',*,*,#1110,.F.);
#1112=ORIENTED_EDGE('',*,*,#1081,.T.);
#1113=ORIENTED_EDGE('',*,*,#1050,.T.);
#1114=ORIENTED_EDGE('',*,*,#1012,.T.);
#1115=EDGE_LOOP('',(#1111,#1112,#1113,#1114));
#1116=FACE_OUTER_BOUND('',#1115,.T.);
#1117=ADVANCED_FACE('',(#1116),#1105,.F.);
#1118=CARTESIAN_POINT('',(-23.130000000000003,1.0,5.0));
#1119=CARTESIAN_POINT('',(-23.130000000000003,1.0,7.0));
#1120=CARTESIAN_POINT('',(-25.400000000000006,1.0,5.0));
#1121=CARTESIAN_POINT('',(-25.400000000000006,1.0,7.0));
#1122=B_SPLINE_SURFACE_WITH_KNOTS('',1,1,((#1118,#1120),(#1119,#1121)),.UNSPECIFIED.,.F.,.F.,.U.,(2,2),(2,2),(0.0,2.0),(0.0,2.270000000000003),.UNSPECIFIED.);
#1123=CARTESIAN_POINT('',(-25.400000000000006,1.0,7.0));
#1124=DIRECTION('',(0.0,0.0,-1.0));
#1125=VECTOR('',#1124,2.0);
#1126=LINE('',#1123,#1125);
#1127=EDGE_CURVE('',#1084,#1023,#1126,.T.);
#1128=ORIENTED_EDGE('',*,*,#1127,.F.);
#1129=ORIENTED_EDGE('',*,*,#1089,.T.);
#1130=ORIENTED_EDGE('',*,*,#1110,.T.);
#1131=ORIENTED_EDGE('',*,*,#1034,.T.);
#1132=EDGE_LOOP('',(#1128,#1129,#1130,#1131));
#1133=FACE_OUTER_BOUND('',#1132,.T.);
#1134=ADVANCED_FACE('',(#1133),#1122,.F.);
#1135=CARTESIAN_POINT('',(-25.400000000000006,0.0,7.0));
#1136=CARTESIAN_POINT('',(-25.400000000000006,0.0,5.0));
#1137=CARTESIAN_POINT('',(-25.400000000000006,1.0,7.0));
#1138=CARTESIAN_POINT('',(-25.400000000000006,1.0,5.0));
#1139=B_SPLINE_SURFACE_WITH_KNOTS('',1,1,((#1135,#1137),(#1136,#1138)),.UNSPECIFIED.,.F.,.F.,.U.,(2,2),(2,2),(0.0,2.0),(0.0,1.0),.UNSPECIFIED.);
#1140=ORIENTED_EDGE('',*,*,#1064,.F.);
#1141=ORIENTED_EDGE('',*,*,#1095,.T.);
#1142=ORIENTED_EDGE('',*,*,#1127,.T.);
#1143=ORIENTED_EDGE('',*,*,#1028,.T.);
#1144=EDGE_LOOP('',(#1140,#1141,#1142,#1143));
#1145=FACE_OUTER_BOUND('',#1144,.T.);
#1146=ADVANCED_FACE('',(#1145),#1139,.F.);
#1147=CLOSED_SHELL('',(#1038,#1069,#1100,#1117,#1134,#1146));
#1148=MANIFOLD_SOLID_BREP('8C2',#1147);
#1149=STYLED_ITEM('NONE',(#221),#1148);
#1150=CARTESIAN_POINT('',(-24.130000000000003,0.0,6.0));
#1151=DIRECTION('',(0.0,0.0,-1.0));
#1152=DIRECTION('',(1.0,0.0,0.0));
#1153=AXIS2_PLACEMENT_3D('',#1150,#1151,#1152);
#1154=CYLINDRICAL_SURFACE('',#1153,0.400000000000000);
#1155=CARTESIAN_POINT('',(-23.730000000000004,0.0,-3.600000000000000));
#1156=VERTEX_POINT('',#1155);
#1157=CARTESIAN_POINT('',(-23.730000000000004,0.0,6.0));
#1158=VERTEX_POINT('',#1157);
#1159=CARTESIAN_POINT('',(-23.730000000000004,0.0,-3.600000000000000));
#1160=DIRECTION('',(0.0,0.0,1.0));
#1161=VECTOR('',#1160,9.600000000000000);
#1162=LINE('',#1159,#1161);
#1163=EDGE_CURVE('',#1156,#1158,#1162,.T.);
#1164=ORIENTED_EDGE('',*,*,#1163,.F.);
#1165=CARTESIAN_POINT('',(-24.530000000000001,0.0,-3.600000000000000));
#1166=VERTEX_POINT('',#1165);
#1167=CARTESIAN_POINT('',(-24.130000000000003,0.0,-3.600000000000000));
#1168=DIRECTION('',(0.0,0.0,-1.0));
#1169=DIRECTION('',(1.0,0.0,0.0));
#1170=AXIS2_PLACEMENT_3D('',#1167,#1168,#1169);
#1171=CIRCLE('',#1170,0.400000000000000);
#1172=EDGE_CURVE('',#1156,#1166,#1171,.F.);
#1173=ORIENTED_EDGE('',*,*,#1172,.T.);
#1174=CARTESIAN_POINT('',(-24.530000000000001,4.898425E-017,6.0));
#1175=VERTEX_POINT('',#1174);
#1176=CARTESIAN_POINT('',(-24.530000000000001,4.898425E-017,-3.600000000000000));
#1177=DIRECTION('',(0.0,0.0,1.0));
#1178=VECTOR('',#1177,9.600000000000000);
#1179=LINE('',#1176,#1178);
#1180=EDGE_CURVE('',#1166,#1175,#1179,.T.);
#1181=ORIENTED_EDGE('',*,*,#1180,.T.);
#1182=CARTESIAN_POINT('',(-24.130000000000003,0.0,6.0));
#1183=DIRECTION('',(0.0,0.0,1.0));
#1184=DIRECTION('',(1.0,0.0,0.0));
#1185=AXIS2_PLACEMENT_3D('',#1182,#1183,#1184);
#1186=CIRCLE('',#1185,0.400000000000000);
#1187=EDGE_CURVE('',#1158,#1175,#1186,.T.);
#1188=ORIENTED_EDGE('',*,*,#1187,.F.);
#1189=EDGE_LOOP('',(#1164,#1173,#1181,#1188));
#1190=FACE_OUTER_BOUND('',#1189,.T.);
#1191=ADVANCED_FACE('',(#1190),#1154,.T.);
#1192=CARTESIAN_POINT('',(-24.130000000000003,0.0,-3.600000000000000));
#1193=DIRECTION('',(0.0,0.0,1.0));
#1194=DIRECTION('',(1.0,0.0,0.0));
#1195=AXIS2_PLACEMENT_3D('',#1192,#1193,#1194);
#1196=PLANE('',#1195);
#1197=CARTESIAN_POINT('',(-24.130000000000003,0.0,-3.600000000000000));
#1198=DIRECTION('',(0.0,0.0,-1.0));
#1199=DIRECTION('',(1.0,0.0,0.0));
#1200=AXIS2_PLACEMENT_3D('',#1197,#1198,#1199);
#1201=CIRCLE('',#1200,0.400000000000000);
#1202=EDGE_CURVE('',#1166,#1156,#1201,.F.);
#1203=ORIENTED_EDGE('',*,*,#1202,.F.);
#1204=ORIENTED_EDGE('',*,*,#1172,.F.);
#1205=EDGE_LOOP('',(#1203,#1204));
#1206=FACE_OUTER_BOUND('',#1205,.T.);
#1207=ADVANCED_FACE('',(#1206),#1196,.F.);
#1208=CARTESIAN_POINT('',(-24.130000000000003,0.0,6.0));
#1209=DIRECTION('',(0.0,0.0,-1.0));
#1210=DIRECTION('',(1.0,0.0,0.0));
#1211=AXIS2_PLACEMENT_3D('',#1208,#1209,#1210);
#1212=CYLINDRICAL_SURFACE('',#1211,0.400000000000000);
#1213=ORIENTED_EDGE('',*,*,#1163,.T.);
#1214=CARTESIAN_POINT('',(-24.130000000000003,0.0,6.0));
#1215=DIRECTION('',(0.0,0.0,1.0));
#1216=DIRECTION('',(1.0,0.0,0.0));
#1217=AXIS2_PLACEMENT_3D('',#1214,#1215,#1216);
#1218=CIRCLE('',#1217,0.400000000000000);
#1219=EDGE_CURVE('',#1175,#1158,#1218,.T.);
#1220=ORIENTED_EDGE('',*,*,#1219,.F.);
#1221=ORIENTED_EDGE('',*,*,#1180,.F.);
#1222=ORIENTED_EDGE('',*,*,#1202,.T.);
#1223=EDGE_LOOP('',(#1213,#1220,#1221,#1222));
#1224=FACE_OUTER_BOUND('',#1223,.T.);
#1225=ADVANCED_FACE('',(#1224),#1212,.T.);
#1226=CARTESIAN_POINT('',(-24.130000000000003,0.0,6.0));
#1227=DIRECTION('',(0.0,0.0,1.0));
#1228=DIRECTION('',(1.0,0.0,0.0));
#1229=AXIS2_PLACEMENT_3D('',#1226,#1227,#1228);
#1230=PLANE('',#1229);
#1231=ORIENTED_EDGE('',*,*,#1187,.T.);
#1232=ORIENTED_EDGE('',*,*,#1219,.T.);
#1233=EDGE_LOOP('',(#1231,#1232));
#1234=FACE_OUTER_BOUND('',#1233,.T.);
#1235=ADVANCED_FACE('',(#1234),#1230,.T.);
#1236=CLOSED_SHELL('',(#1191,#1207,#1225,#1235));
#1237=MANIFOLD_SOLID_BREP('8B3',#1236);
#1238=STYLED_ITEM('NONE',(#221),#1237);
#1239=ADVANCED_BREP_SHAPE_REPRESENTATION('ABSR1',(#214,#310,#441,#518,#669,#800,#839,#990,#1148,#1237),#28);
#1240=SHAPE_REPRESENTATION_RELATIONSHIP('SRRPL1','',#1239,#62);
ENDSEC;
END-ISO-10303-21;
