ISO-10303-21;
HEADER;
/****************************************************************
 * Generated by software with PDE/Lib inside                    *
 * PDElib Version v51a, created Mon 11/03/2008                  *
 * International Technegroup Inc. (www.iti-oh.com)              *
 ****************************************************************/
FILE_DESCRIPTION((''),'2;1');
FILE_NAME('RES_VISHAY_VN319356_v.stp','2010-04-14T09:34:40',(''),(''),'Mechanical Desktop 2010','Mechanical Desktop 2010',', , ');
FILE_SCHEMA(('AUTOMOTIVE_DESIGN { 1 2 10303 214 1 1 1 1 }'));
ENDSEC;
DATA;
#8=(NAMED_UNIT(*)PLANE_ANGLE_UNIT()SI_UNIT($,.RADIAN.));
#9=DIMENSIONAL_EXPONENTS(0.0,0.0,0.0,0.0,0.0,0.0,0.0);
#10=PLANE_ANGLE_MEASURE_WITH_UNIT(PLANE_ANGLE_MEASURE(0.017453292500000),#8);
#14=(CONVERSION_BASED_UNIT('DEGREE',#10)NAMED_UNIT(#9)PLANE_ANGLE_UNIT());
#18=(NAMED_UNIT(*)SI_UNIT($,.STERADIAN.)SOLID_ANGLE_UNIT());
#22=(LENGTH_UNIT()NAMED_UNIT(*)SI_UNIT(.MILLI.,.METRE.));
#23=UNCERTAINTY_MEASURE_WITH_UNIT(LENGTH_MEASURE(0.000001000000000),#22,'DISTANCE_ACCURACY_VALUE','');
#28=(GEOMETRIC_REPRESENTATION_CONTEXT(3)GLOBAL_UNCERTAINTY_ASSIGNED_CONTEXT((#23))GLOBAL_UNIT_ASSIGNED_CONTEXT((#14,#18,#22))REPRESENTATION_CONTEXT('None','None'));
#29=APPLICATION_CONTEXT('automotive design');
#30=APPLICATION_PROTOCOL_DEFINITION('INTERNATIONAL_STANDARD','automotive_design',1998,#29);
#31=PRODUCT_CONTEXT('3D Mechanical Parts',#29,'mechanical');
#32=PRODUCT('Product','Product','',(#31));
#33=PRODUCT_RELATED_PRODUCT_CATEGORY('part',$,(#32));
#34=PRODUCT_CATEGORY('part',$);
#35=PERSON('1','Design','Joe',$,$,$);
#36=ORGANIZATION($,'None','None');
#37=PERSON_AND_ORGANIZATION(#35,#36);
#38=PERSON_AND_ORGANIZATION_ROLE('design_owner');
#39=APPLIED_PERSON_AND_ORGANIZATION_ASSIGNMENT(#37,#38,(#32));
#40=PRODUCT_DEFINITION_FORMATION_WITH_SPECIFIED_SOURCE('None','',#32,.BOUGHT.);
#41=PERSON('2','Creator','Joe',$,$,$);
#42=ORGANIZATION($,'None','None');
#43=PERSON_AND_ORGANIZATION(#41,#42);
#44=PERSON_AND_ORGANIZATION_ROLE('creator');
#45=APPLIED_PERSON_AND_ORGANIZATION_ASSIGNMENT(#43,#44,(#40));
#46=PERSON('3','Supplier','Joe',$,$,$);
#47=ORGANIZATION($,'None','None');
#48=PERSON_AND_ORGANIZATION(#46,#47);
#49=PERSON_AND_ORGANIZATION_ROLE('design_supplier');
#50=APPLIED_PERSON_AND_ORGANIZATION_ASSIGNMENT(#48,#49,(#40));
#51=PRODUCT_DEFINITION_CONTEXT('part definition',#29,'design');
#52=PRODUCT_DEFINITION('None','',#40,#51);
#53=PERSON('4','Creator','Joe',$,$,$);
#54=ORGANIZATION($,'None','None');
#55=PERSON_AND_ORGANIZATION(#53,#54);
#56=PERSON_AND_ORGANIZATION_ROLE('creator');
#57=APPLIED_PERSON_AND_ORGANIZATION_ASSIGNMENT(#55,#56,(#52));
#58=CARTESIAN_POINT('NONE',(0.0,0.0,0.0));
#59=DIRECTION('NONE',(0.0,0.0,1.0));
#60=DIRECTION('NONE',(1.0,0.0,0.0));
#61=AXIS2_PLACEMENT_3D('NONE',#58,#59,#60);
#62=SHAPE_REPRESENTATION('SR1',(#61),#28);
#63=PRODUCT_DEFINITION_SHAPE('PDS1','Test Part',#52);
#64=SHAPE_DEFINITION_REPRESENTATION(#63,#62);
#65=CARTESIAN_POINT('',(13.749999999999998,0.0,0.0));
#66=DIRECTION('',(0.0,0.0,-1.0));
#67=DIRECTION('',(1.0,0.0,0.0));
#68=AXIS2_PLACEMENT_3D('',#65,#66,#67);
#69=CYLINDRICAL_SURFACE('',#68,0.500000000000000);
#70=CARTESIAN_POINT('',(14.249999999999998,0.0,-3.800000000000000));
#71=VERTEX_POINT('',#70);
#72=CARTESIAN_POINT('',(14.249999999999998,0.0,0.0));
#73=VERTEX_POINT('',#72);
#74=CARTESIAN_POINT('',(14.249999999999998,0.0,-3.800000000000000));
#75=DIRECTION('',(0.0,0.0,1.0));
#76=VECTOR('',#75,3.800000000000000);
#77=LINE('',#74,#76);
#78=EDGE_CURVE('',#71,#73,#77,.T.);
#79=ORIENTED_EDGE('',*,*,#78,.F.);
#80=CARTESIAN_POINT('',(13.249999999999998,6.123032E-017,-3.800000000000000));
#81=VERTEX_POINT('',#80);
#82=CARTESIAN_POINT('',(13.749999999999998,0.0,-3.800000000000000));
#83=DIRECTION('',(0.0,0.0,1.0));
#84=DIRECTION('',(1.0,0.0,0.0));
#85=AXIS2_PLACEMENT_3D('',#82,#83,#84);
#86=CIRCLE('',#85,0.500000000000000);
#87=EDGE_CURVE('',#71,#81,#86,.T.);
#88=ORIENTED_EDGE('',*,*,#87,.T.);
#89=CARTESIAN_POINT('',(13.249999999999998,6.123032E-017,0.0));
#90=VERTEX_POINT('',#89);
#91=CARTESIAN_POINT('',(13.249999999999998,6.123032E-017,-3.800000000000000));
#92=DIRECTION('',(0.0,0.0,1.0));
#93=VECTOR('',#92,3.800000000000000);
#94=LINE('',#91,#93);
#95=EDGE_CURVE('',#81,#90,#94,.T.);
#96=ORIENTED_EDGE('',*,*,#95,.T.);
#97=CARTESIAN_POINT('',(13.749999999999998,0.0,0.0));
#98=DIRECTION('',(0.0,0.0,1.0));
#99=DIRECTION('',(1.0,0.0,0.0));
#100=AXIS2_PLACEMENT_3D('',#97,#98,#99);
#101=CIRCLE('',#100,0.500000000000000);
#102=EDGE_CURVE('',#73,#90,#101,.T.);
#103=ORIENTED_EDGE('',*,*,#102,.F.);
#104=EDGE_LOOP('',(#79,#88,#96,#103));
#105=FACE_OUTER_BOUND('',#104,.T.);
#106=ADVANCED_FACE('',(#105),#69,.T.);
#107=CARTESIAN_POINT('',(13.749999999999998,0.0,0.0));
#108=DIRECTION('',(0.0,0.0,-1.0));
#109=DIRECTION('',(1.0,0.0,0.0));
#110=AXIS2_PLACEMENT_3D('',#107,#108,#109);
#111=CYLINDRICAL_SURFACE('',#110,0.500000000000000);
#112=ORIENTED_EDGE('',*,*,#78,.T.);
#113=CARTESIAN_POINT('',(13.749999999999998,0.0,0.0));
#114=DIRECTION('',(0.0,0.0,1.0));
#115=DIRECTION('',(1.0,0.0,0.0));
#116=AXIS2_PLACEMENT_3D('',#113,#114,#115);
#117=CIRCLE('',#116,0.500000000000000);
#118=EDGE_CURVE('',#90,#73,#117,.T.);
#119=ORIENTED_EDGE('',*,*,#118,.F.);
#120=ORIENTED_EDGE('',*,*,#95,.F.);
#121=CARTESIAN_POINT('',(13.749999999999998,0.0,-3.800000000000000));
#122=DIRECTION('',(0.0,0.0,1.0));
#123=DIRECTION('',(1.0,0.0,0.0));
#124=AXIS2_PLACEMENT_3D('',#121,#122,#123);
#125=CIRCLE('',#124,0.500000000000000);
#126=EDGE_CURVE('',#81,#71,#125,.T.);
#127=ORIENTED_EDGE('',*,*,#126,.T.);
#128=EDGE_LOOP('',(#112,#119,#120,#127));
#129=FACE_OUTER_BOUND('',#128,.T.);
#130=ADVANCED_FACE('',(#129),#111,.T.);
#131=CARTESIAN_POINT('',(13.749999999999998,0.0,-3.800000000000000));
#132=DIRECTION('',(0.0,0.0,1.0));
#133=DIRECTION('',(1.0,0.0,0.0));
#134=AXIS2_PLACEMENT_3D('',#131,#132,#133);
#135=PLANE('',#134);
#136=ORIENTED_EDGE('',*,*,#87,.F.);
#137=ORIENTED_EDGE('',*,*,#126,.F.);
#138=EDGE_LOOP('',(#136,#137));
#139=FACE_OUTER_BOUND('',#138,.T.);
#140=ADVANCED_FACE('',(#139),#135,.F.);
#141=CARTESIAN_POINT('',(13.749999999999998,0.0,0.0));
#142=DIRECTION('',(0.0,0.0,1.0));
#143=DIRECTION('',(1.0,0.0,0.0));
#144=AXIS2_PLACEMENT_3D('',#141,#142,#143);
#145=PLANE('',#144);
#146=ORIENTED_EDGE('',*,*,#102,.T.);
#147=ORIENTED_EDGE('',*,*,#118,.T.);
#148=EDGE_LOOP('',(#146,#147));
#149=FACE_OUTER_BOUND('',#148,.T.);
#150=ADVANCED_FACE('',(#149),#145,.T.);
#151=CLOSED_SHELL('',(#106,#130,#140,#150));
#152=MANIFOLD_SOLID_BREP('799',#151);
#153=COLOUR_RGB('253',0.732000000000000,0.732000000000000,0.732000000000000);
#154=SURFACE_STYLE_USAGE(.BOTH.,#155);
#155=SURFACE_SIDE_STYLE('NONE',(#156));
#156=SURFACE_STYLE_FILL_AREA(#157);
#157=FILL_AREA_STYLE('NONE',(#158));
#158=FILL_AREA_STYLE_COLOUR('NONE',#153);
#159=PRESENTATION_STYLE_ASSIGNMENT((#154));
#160=STYLED_ITEM('NONE',(#159),#152);
#161=MECHANICAL_DESIGN_GEOMETRIC_PRESENTATION_REPRESENTATION('NONE',(#160,#251,#340,#429,#587,#745),#28);
#162=PRESENTATION_LAYER_ASSIGNMENT('3D','None',(#152,#250,#339,#428,#579,#737));
#163=CARTESIAN_POINT('',(8.750000000000000,0.0,0.0));
#164=DIRECTION('',(0.0,0.0,-1.0));
#165=DIRECTION('',(1.0,0.0,0.0));
#166=AXIS2_PLACEMENT_3D('',#163,#164,#165);
#167=CYLINDRICAL_SURFACE('',#166,0.500000000000000);
#168=CARTESIAN_POINT('',(9.250000000000000,0.0,-3.800000000000000));
#169=VERTEX_POINT('',#168);
#170=CARTESIAN_POINT('',(9.250000000000000,0.0,0.0));
#171=VERTEX_POINT('',#170);
#172=CARTESIAN_POINT('',(9.250000000000000,0.0,-3.800000000000000));
#173=DIRECTION('',(0.0,0.0,1.0));
#174=VECTOR('',#173,3.800000000000000);
#175=LINE('',#172,#174);
#176=EDGE_CURVE('',#169,#171,#175,.T.);
#177=ORIENTED_EDGE('',*,*,#176,.F.);
#178=CARTESIAN_POINT('',(8.250000000000000,6.123032E-017,-3.800000000000000));
#179=VERTEX_POINT('',#178);
#180=CARTESIAN_POINT('',(8.750000000000000,0.0,-3.800000000000000));
#181=DIRECTION('',(0.0,0.0,1.0));
#182=DIRECTION('',(1.0,0.0,0.0));
#183=AXIS2_PLACEMENT_3D('',#180,#181,#182);
#184=CIRCLE('',#183,0.500000000000000);
#185=EDGE_CURVE('',#169,#179,#184,.T.);
#186=ORIENTED_EDGE('',*,*,#185,.T.);
#187=CARTESIAN_POINT('',(8.250000000000000,6.123032E-017,0.0));
#188=VERTEX_POINT('',#187);
#189=CARTESIAN_POINT('',(8.250000000000000,6.123032E-017,-3.800000000000000));
#190=DIRECTION('',(0.0,0.0,1.0));
#191=VECTOR('',#190,3.800000000000000);
#192=LINE('',#189,#191);
#193=EDGE_CURVE('',#179,#188,#192,.T.);
#194=ORIENTED_EDGE('',*,*,#193,.T.);
#195=CARTESIAN_POINT('',(8.750000000000000,0.0,0.0));
#196=DIRECTION('',(0.0,0.0,1.0));
#197=DIRECTION('',(1.0,0.0,0.0));
#198=AXIS2_PLACEMENT_3D('',#195,#196,#197);
#199=CIRCLE('',#198,0.500000000000000);
#200=EDGE_CURVE('',#171,#188,#199,.T.);
#201=ORIENTED_EDGE('',*,*,#200,.F.);
#202=EDGE_LOOP('',(#177,#186,#194,#201));
#203=FACE_OUTER_BOUND('',#202,.T.);
#204=ADVANCED_FACE('',(#203),#167,.T.);
#205=CARTESIAN_POINT('',(8.750000000000000,0.0,0.0));
#206=DIRECTION('',(0.0,0.0,-1.0));
#207=DIRECTION('',(1.0,0.0,0.0));
#208=AXIS2_PLACEMENT_3D('',#205,#206,#207);
#209=CYLINDRICAL_SURFACE('',#208,0.500000000000000);
#210=ORIENTED_EDGE('',*,*,#176,.T.);
#211=CARTESIAN_POINT('',(8.750000000000000,0.0,0.0));
#212=DIRECTION('',(0.0,0.0,1.0));
#213=DIRECTION('',(1.0,0.0,0.0));
#214=AXIS2_PLACEMENT_3D('',#211,#212,#213);
#215=CIRCLE('',#214,0.500000000000000);
#216=EDGE_CURVE('',#188,#171,#215,.T.);
#217=ORIENTED_EDGE('',*,*,#216,.F.);
#218=ORIENTED_EDGE('',*,*,#193,.F.);
#219=CARTESIAN_POINT('',(8.750000000000000,0.0,-3.800000000000000));
#220=DIRECTION('',(0.0,0.0,1.0));
#221=DIRECTION('',(1.0,0.0,0.0));
#222=AXIS2_PLACEMENT_3D('',#219,#220,#221);
#223=CIRCLE('',#222,0.500000000000000);
#224=EDGE_CURVE('',#179,#169,#223,.T.);
#225=ORIENTED_EDGE('',*,*,#224,.T.);
#226=EDGE_LOOP('',(#210,#217,#218,#225));
#227=FACE_OUTER_BOUND('',#226,.T.);
#228=ADVANCED_FACE('',(#227),#209,.T.);
#229=CARTESIAN_POINT('',(8.750000000000000,0.0,-3.800000000000000));
#230=DIRECTION('',(0.0,0.0,1.0));
#231=DIRECTION('',(1.0,0.0,0.0));
#232=AXIS2_PLACEMENT_3D('',#229,#230,#231);
#233=PLANE('',#232);
#234=ORIENTED_EDGE('',*,*,#185,.F.);
#235=ORIENTED_EDGE('',*,*,#224,.F.);
#236=EDGE_LOOP('',(#234,#235));
#237=FACE_OUTER_BOUND('',#236,.T.);
#238=ADVANCED_FACE('',(#237),#233,.F.);
#239=CARTESIAN_POINT('',(8.750000000000000,0.0,0.0));
#240=DIRECTION('',(0.0,0.0,1.0));
#241=DIRECTION('',(1.0,0.0,0.0));
#242=AXIS2_PLACEMENT_3D('',#239,#240,#241);
#243=PLANE('',#242);
#244=ORIENTED_EDGE('',*,*,#200,.T.);
#245=ORIENTED_EDGE('',*,*,#216,.T.);
#246=EDGE_LOOP('',(#244,#245));
#247=FACE_OUTER_BOUND('',#246,.T.);
#248=ADVANCED_FACE('',(#247),#243,.T.);
#249=CLOSED_SHELL('',(#204,#228,#238,#248));
#250=MANIFOLD_SOLID_BREP('795',#249);
#251=STYLED_ITEM('NONE',(#159),#250);
#252=CARTESIAN_POINT('',(-8.750000000000002,0.0,0.0));
#253=DIRECTION('',(0.0,0.0,-1.0));
#254=DIRECTION('',(1.0,0.0,0.0));
#255=AXIS2_PLACEMENT_3D('',#252,#253,#254);
#256=CYLINDRICAL_SURFACE('',#255,0.500000000000000);
#257=CARTESIAN_POINT('',(-8.250000000000002,0.0,-3.800000000000000));
#258=VERTEX_POINT('',#257);
#259=CARTESIAN_POINT('',(-8.250000000000002,0.0,0.0));
#260=VERTEX_POINT('',#259);
#261=CARTESIAN_POINT('',(-8.250000000000002,0.0,-3.800000000000000));
#262=DIRECTION('',(0.0,0.0,1.0));
#263=VECTOR('',#262,3.800000000000000);
#264=LINE('',#261,#263);
#265=EDGE_CURVE('',#258,#260,#264,.T.);
#266=ORIENTED_EDGE('',*,*,#265,.F.);
#267=CARTESIAN_POINT('',(-9.250000000000002,6.123032E-017,-3.800000000000000));
#268=VERTEX_POINT('',#267);
#269=CARTESIAN_POINT('',(-8.750000000000002,0.0,-3.800000000000000));
#270=DIRECTION('',(0.0,0.0,1.0));
#271=DIRECTION('',(1.0,0.0,0.0));
#272=AXIS2_PLACEMENT_3D('',#269,#270,#271);
#273=CIRCLE('',#272,0.500000000000000);
#274=EDGE_CURVE('',#258,#268,#273,.T.);
#275=ORIENTED_EDGE('',*,*,#274,.T.);
#276=CARTESIAN_POINT('',(-9.250000000000002,6.123032E-017,0.0));
#277=VERTEX_POINT('',#276);
#278=CARTESIAN_POINT('',(-9.250000000000002,6.123032E-017,-3.800000000000000));
#279=DIRECTION('',(0.0,0.0,1.0));
#280=VECTOR('',#279,3.800000000000000);
#281=LINE('',#278,#280);
#282=EDGE_CURVE('',#268,#277,#281,.T.);
#283=ORIENTED_EDGE('',*,*,#282,.T.);
#284=CARTESIAN_POINT('',(-8.750000000000002,0.0,0.0));
#285=DIRECTION('',(0.0,0.0,1.0));
#286=DIRECTION('',(1.0,0.0,0.0));
#287=AXIS2_PLACEMENT_3D('',#284,#285,#286);
#288=CIRCLE('',#287,0.500000000000000);
#289=EDGE_CURVE('',#260,#277,#288,.T.);
#290=ORIENTED_EDGE('',*,*,#289,.F.);
#291=EDGE_LOOP('',(#266,#275,#283,#290));
#292=FACE_OUTER_BOUND('',#291,.T.);
#293=ADVANCED_FACE('',(#292),#256,.T.);
#294=CARTESIAN_POINT('',(-8.750000000000002,0.0,0.0));
#295=DIRECTION('',(0.0,0.0,-1.0));
#296=DIRECTION('',(1.0,0.0,0.0));
#297=AXIS2_PLACEMENT_3D('',#294,#295,#296);
#298=CYLINDRICAL_SURFACE('',#297,0.500000000000000);
#299=ORIENTED_EDGE('',*,*,#265,.T.);
#300=CARTESIAN_POINT('',(-8.750000000000002,0.0,0.0));
#301=DIRECTION('',(0.0,0.0,1.0));
#302=DIRECTION('',(1.0,0.0,0.0));
#303=AXIS2_PLACEMENT_3D('',#300,#301,#302);
#304=CIRCLE('',#303,0.500000000000000);
#305=EDGE_CURVE('',#277,#260,#304,.T.);
#306=ORIENTED_EDGE('',*,*,#305,.F.);
#307=ORIENTED_EDGE('',*,*,#282,.F.);
#308=CARTESIAN_POINT('',(-8.750000000000002,0.0,-3.800000000000000));
#309=DIRECTION('',(0.0,0.0,1.0));
#310=DIRECTION('',(1.0,0.0,0.0));
#311=AXIS2_PLACEMENT_3D('',#308,#309,#310);
#312=CIRCLE('',#311,0.500000000000000);
#313=EDGE_CURVE('',#268,#258,#312,.T.);
#314=ORIENTED_EDGE('',*,*,#313,.T.);
#315=EDGE_LOOP('',(#299,#306,#307,#314));
#316=FACE_OUTER_BOUND('',#315,.T.);
#317=ADVANCED_FACE('',(#316),#298,.T.);
#318=CARTESIAN_POINT('',(-8.750000000000002,0.0,-3.800000000000000));
#319=DIRECTION('',(0.0,0.0,1.0));
#320=DIRECTION('',(1.0,0.0,0.0));
#321=AXIS2_PLACEMENT_3D('',#318,#319,#320);
#322=PLANE('',#321);
#323=ORIENTED_EDGE('',*,*,#274,.F.);
#324=ORIENTED_EDGE('',*,*,#313,.F.);
#325=EDGE_LOOP('',(#323,#324));
#326=FACE_OUTER_BOUND('',#325,.T.);
#327=ADVANCED_FACE('',(#326),#322,.F.);
#328=CARTESIAN_POINT('',(-8.750000000000002,0.0,0.0));
#329=DIRECTION('',(0.0,0.0,1.0));
#330=DIRECTION('',(1.0,0.0,0.0));
#331=AXIS2_PLACEMENT_3D('',#328,#329,#330);
#332=PLANE('',#331);
#333=ORIENTED_EDGE('',*,*,#289,.T.);
#334=ORIENTED_EDGE('',*,*,#305,.T.);
#335=EDGE_LOOP('',(#333,#334));
#336=FACE_OUTER_BOUND('',#335,.T.);
#337=ADVANCED_FACE('',(#336),#332,.T.);
#338=CLOSED_SHELL('',(#293,#317,#327,#337));
#339=MANIFOLD_SOLID_BREP('791',#338);
#340=STYLED_ITEM('NONE',(#159),#339);
#341=CARTESIAN_POINT('',(-13.750000000000002,0.0,0.0));
#342=DIRECTION('',(0.0,0.0,-1.0));
#343=DIRECTION('',(1.0,0.0,0.0));
#344=AXIS2_PLACEMENT_3D('',#341,#342,#343);
#345=CYLINDRICAL_SURFACE('',#344,0.500000000000000);
#346=CARTESIAN_POINT('',(-13.250000000000002,0.0,-3.800000000000000));
#347=VERTEX_POINT('',#346);
#348=CARTESIAN_POINT('',(-13.250000000000002,0.0,0.0));
#349=VERTEX_POINT('',#348);
#350=CARTESIAN_POINT('',(-13.250000000000002,0.0,-3.800000000000000));
#351=DIRECTION('',(0.0,0.0,1.0));
#352=VECTOR('',#351,3.800000000000000);
#353=LINE('',#350,#352);
#354=EDGE_CURVE('',#347,#349,#353,.T.);
#355=ORIENTED_EDGE('',*,*,#354,.F.);
#356=CARTESIAN_POINT('',(-14.250000000000002,6.123032E-017,-3.800000000000000));
#357=VERTEX_POINT('',#356);
#358=CARTESIAN_POINT('',(-13.750000000000002,0.0,-3.800000000000000));
#359=DIRECTION('',(0.0,0.0,1.0));
#360=DIRECTION('',(1.0,0.0,0.0));
#361=AXIS2_PLACEMENT_3D('',#358,#359,#360);
#362=CIRCLE('',#361,0.500000000000000);
#363=EDGE_CURVE('',#347,#357,#362,.T.);
#364=ORIENTED_EDGE('',*,*,#363,.T.);
#365=CARTESIAN_POINT('',(-14.250000000000002,6.123032E-017,0.0));
#366=VERTEX_POINT('',#365);
#367=CARTESIAN_POINT('',(-14.250000000000002,6.123032E-017,-3.800000000000000));
#368=DIRECTION('',(0.0,0.0,1.0));
#369=VECTOR('',#368,3.800000000000000);
#370=LINE('',#367,#369);
#371=EDGE_CURVE('',#357,#366,#370,.T.);
#372=ORIENTED_EDGE('',*,*,#371,.T.);
#373=CARTESIAN_POINT('',(-13.750000000000002,0.0,0.0));
#374=DIRECTION('',(0.0,0.0,1.0));
#375=DIRECTION('',(1.0,0.0,0.0));
#376=AXIS2_PLACEMENT_3D('',#373,#374,#375);
#377=CIRCLE('',#376,0.500000000000000);
#378=EDGE_CURVE('',#349,#366,#377,.T.);
#379=ORIENTED_EDGE('',*,*,#378,.F.);
#380=EDGE_LOOP('',(#355,#364,#372,#379));
#381=FACE_OUTER_BOUND('',#380,.T.);
#382=ADVANCED_FACE('',(#381),#345,.T.);
#383=CARTESIAN_POINT('',(-13.750000000000002,0.0,0.0));
#384=DIRECTION('',(0.0,0.0,-1.0));
#385=DIRECTION('',(1.0,0.0,0.0));
#386=AXIS2_PLACEMENT_3D('',#383,#384,#385);
#387=CYLINDRICAL_SURFACE('',#386,0.500000000000000);
#388=ORIENTED_EDGE('',*,*,#354,.T.);
#389=CARTESIAN_POINT('',(-13.750000000000002,0.0,0.0));
#390=DIRECTION('',(0.0,0.0,1.0));
#391=DIRECTION('',(1.0,0.0,0.0));
#392=AXIS2_PLACEMENT_3D('',#389,#390,#391);
#393=CIRCLE('',#392,0.500000000000000);
#394=EDGE_CURVE('',#366,#349,#393,.T.);
#395=ORIENTED_EDGE('',*,*,#394,.F.);
#396=ORIENTED_EDGE('',*,*,#371,.F.);
#397=CARTESIAN_POINT('',(-13.750000000000002,0.0,-3.800000000000000));
#398=DIRECTION('',(0.0,0.0,1.0));
#399=DIRECTION('',(1.0,0.0,0.0));
#400=AXIS2_PLACEMENT_3D('',#397,#398,#399);
#401=CIRCLE('',#400,0.500000000000000);
#402=EDGE_CURVE('',#357,#347,#401,.T.);
#403=ORIENTED_EDGE('',*,*,#402,.T.);
#404=EDGE_LOOP('',(#388,#395,#396,#403));
#405=FACE_OUTER_BOUND('',#404,.T.);
#406=ADVANCED_FACE('',(#405),#387,.T.);
#407=CARTESIAN_POINT('',(-13.750000000000002,0.0,-3.800000000000000));
#408=DIRECTION('',(0.0,0.0,1.0));
#409=DIRECTION('',(1.0,0.0,0.0));
#410=AXIS2_PLACEMENT_3D('',#407,#408,#409);
#411=PLANE('',#410);
#412=ORIENTED_EDGE('',*,*,#363,.F.);
#413=ORIENTED_EDGE('',*,*,#402,.F.);
#414=EDGE_LOOP('',(#412,#413));
#415=FACE_OUTER_BOUND('',#414,.T.);
#416=ADVANCED_FACE('',(#415),#411,.F.);
#417=CARTESIAN_POINT('',(-13.750000000000002,0.0,0.0));
#418=DIRECTION('',(0.0,0.0,1.0));
#419=DIRECTION('',(1.0,0.0,0.0));
#420=AXIS2_PLACEMENT_3D('',#417,#418,#419);
#421=PLANE('',#420);
#422=ORIENTED_EDGE('',*,*,#378,.T.);
#423=ORIENTED_EDGE('',*,*,#394,.T.);
#424=EDGE_LOOP('',(#422,#423));
#425=FACE_OUTER_BOUND('',#424,.T.);
#426=ADVANCED_FACE('',(#425),#421,.T.);
#427=CLOSED_SHELL('',(#382,#406,#416,#426));
#428=MANIFOLD_SOLID_BREP('78D',#427);
#429=STYLED_ITEM('NONE',(#159),#428);
#430=CARTESIAN_POINT('',(16.000000000000004,1.200000000000001,0.0));
#431=DIRECTION('',(1.0,0.0,0.0));
#432=DIRECTION('',(0.0,0.0,-1.0));
#433=AXIS2_PLACEMENT_3D('',#430,#431,#432);
#434=PLANE('',#433);
#435=CARTESIAN_POINT('',(16.000000000000004,1.200000000000001,25.199999999999999));
#436=VERTEX_POINT('',#435);
#437=CARTESIAN_POINT('',(16.000000000000004,-3.899999999999997,25.199999999999999));
#438=VERTEX_POINT('',#437);
#439=CARTESIAN_POINT('',(16.000000000000004,1.200000000000001,25.199999999999999));
#440=DIRECTION('',(0.0,-1.0,0.0));
#441=VECTOR('',#440,5.099999999999998);
#442=LINE('',#439,#441);
#443=EDGE_CURVE('',#436,#438,#442,.T.);
#444=ORIENTED_EDGE('',*,*,#443,.T.);
#445=CARTESIAN_POINT('',(16.000000000000004,-3.899999999999997,0.0));
#446=VERTEX_POINT('',#445);
#447=CARTESIAN_POINT('',(16.000000000000004,-3.899999999999997,0.0));
#448=DIRECTION('',(0.0,0.0,1.0));
#449=VECTOR('',#448,25.199999999999999);
#450=LINE('',#447,#449);
#451=EDGE_CURVE('',#446,#438,#450,.T.);
#452=ORIENTED_EDGE('',*,*,#451,.F.);
#453=CARTESIAN_POINT('',(16.000000000000004,1.200000000000001,0.0));
#454=VERTEX_POINT('',#453);
#455=CARTESIAN_POINT('',(16.000000000000004,1.200000000000001,0.0));
#456=DIRECTION('',(0.0,-1.0,0.0));
#457=VECTOR('',#456,5.099999999999998);
#458=LINE('',#455,#457);
#459=EDGE_CURVE('',#454,#446,#458,.T.);
#460=ORIENTED_EDGE('',*,*,#459,.F.);
#461=CARTESIAN_POINT('',(16.000000000000004,1.200000000000001,0.0));
#462=DIRECTION('',(0.0,0.0,1.0));
#463=VECTOR('',#462,25.199999999999999);
#464=LINE('',#461,#463);
#465=EDGE_CURVE('',#454,#436,#464,.T.);
#466=ORIENTED_EDGE('',*,*,#465,.T.);
#467=EDGE_LOOP('',(#444,#452,#460,#466));
#468=FACE_OUTER_BOUND('',#467,.T.);
#469=ADVANCED_FACE('',(#468),#434,.T.);
#470=CARTESIAN_POINT('',(16.000000000000004,-3.899999999999997,0.0));
#471=DIRECTION('',(0.0,-1.0,0.0));
#472=DIRECTION('',(0.0,0.0,-1.0));
#473=AXIS2_PLACEMENT_3D('',#470,#471,#472);
#474=PLANE('',#473);
#475=CARTESIAN_POINT('',(-15.999999999999996,-3.899999999999997,25.199999999999999));
#476=VERTEX_POINT('',#475);
#477=CARTESIAN_POINT('',(16.000000000000004,-3.899999999999997,25.199999999999999));
#478=DIRECTION('',(-1.0,0.0,0.0));
#479=VECTOR('',#478,32.0);
#480=LINE('',#477,#479);
#481=EDGE_CURVE('',#438,#476,#480,.T.);
#482=ORIENTED_EDGE('',*,*,#481,.T.);
#483=CARTESIAN_POINT('',(-15.999999999999996,-3.899999999999997,0.0));
#484=VERTEX_POINT('',#483);
#485=CARTESIAN_POINT('',(-15.999999999999996,-3.899999999999997,0.0));
#486=DIRECTION('',(0.0,0.0,1.0));
#487=VECTOR('',#486,25.199999999999999);
#488=LINE('',#485,#487);
#489=EDGE_CURVE('',#484,#476,#488,.T.);
#490=ORIENTED_EDGE('',*,*,#489,.F.);
#491=CARTESIAN_POINT('',(16.000000000000004,-3.899999999999997,0.0));
#492=DIRECTION('',(-1.0,0.0,0.0));
#493=VECTOR('',#492,32.0);
#494=LINE('',#491,#493);
#495=EDGE_CURVE('',#446,#484,#494,.T.);
#496=ORIENTED_EDGE('',*,*,#495,.F.);
#497=ORIENTED_EDGE('',*,*,#451,.T.);
#498=EDGE_LOOP('',(#482,#490,#496,#497));
#499=FACE_OUTER_BOUND('',#498,.T.);
#500=ADVANCED_FACE('',(#499),#474,.T.);
#501=CARTESIAN_POINT('',(-15.999999999999996,-3.899999999999997,0.0));
#502=DIRECTION('',(-1.0,0.0,0.0));
#503=DIRECTION('',(0.0,0.0,1.0));
#504=AXIS2_PLACEMENT_3D('',#501,#502,#503);
#505=PLANE('',#504);
#506=CARTESIAN_POINT('',(-15.999999999999993,1.200000000000001,25.199999999999999));
#507=VERTEX_POINT('',#506);
#508=CARTESIAN_POINT('',(-15.999999999999996,-3.899999999999997,25.199999999999999));
#509=DIRECTION('',(0.0,1.0,0.0));
#510=VECTOR('',#509,5.099999999999998);
#511=LINE('',#508,#510);
#512=EDGE_CURVE('',#476,#507,#511,.T.);
#513=ORIENTED_EDGE('',*,*,#512,.T.);
#514=CARTESIAN_POINT('',(-15.999999999999993,1.200000000000001,0.0));
#515=VERTEX_POINT('',#514);
#516=CARTESIAN_POINT('',(-15.999999999999993,1.200000000000001,0.0));
#517=DIRECTION('',(0.0,0.0,1.0));
#518=VECTOR('',#517,25.199999999999999);
#519=LINE('',#516,#518);
#520=EDGE_CURVE('',#515,#507,#519,.T.);
#521=ORIENTED_EDGE('',*,*,#520,.F.);
#522=CARTESIAN_POINT('',(-15.999999999999996,-3.899999999999997,0.0));
#523=DIRECTION('',(0.0,1.0,0.0));
#524=VECTOR('',#523,5.099999999999998);
#525=LINE('',#522,#524);
#526=EDGE_CURVE('',#484,#515,#525,.T.);
#527=ORIENTED_EDGE('',*,*,#526,.F.);
#528=ORIENTED_EDGE('',*,*,#489,.T.);
#529=EDGE_LOOP('',(#513,#521,#527,#528));
#530=FACE_OUTER_BOUND('',#529,.T.);
#531=ADVANCED_FACE('',(#530),#505,.T.);
#532=CARTESIAN_POINT('',(-15.999999999999993,1.200000000000001,0.0));
#533=DIRECTION('',(0.0,1.0,0.0));
#534=DIRECTION('',(0.0,0.0,1.0));
#535=AXIS2_PLACEMENT_3D('',#532,#533,#534);
#536=PLANE('',#535);
#537=CARTESIAN_POINT('',(-15.999999999999993,1.200000000000001,25.199999999999999));
#538=DIRECTION('',(1.0,0.0,0.0));
#539=VECTOR('',#538,31.999999999999996);
#540=LINE('',#537,#539);
#541=EDGE_CURVE('',#507,#436,#540,.T.);
#542=ORIENTED_EDGE('',*,*,#541,.T.);
#543=ORIENTED_EDGE('',*,*,#465,.F.);
#544=CARTESIAN_POINT('',(-15.999999999999993,1.200000000000001,0.0));
#545=DIRECTION('',(1.0,0.0,0.0));
#546=VECTOR('',#545,31.999999999999996);
#547=LINE('',#544,#546);
#548=EDGE_CURVE('',#515,#454,#547,.T.);
#549=ORIENTED_EDGE('',*,*,#548,.F.);
#550=ORIENTED_EDGE('',*,*,#520,.T.);
#551=EDGE_LOOP('',(#542,#543,#549,#550));
#552=FACE_OUTER_BOUND('',#551,.T.);
#553=ADVANCED_FACE('',(#552),#536,.T.);
#554=CARTESIAN_POINT('',(3.774758E-015,-1.349999999999999,25.199999999999999));
#555=DIRECTION('',(0.0,0.0,1.0));
#556=DIRECTION('',(1.0,0.0,0.0));
#557=AXIS2_PLACEMENT_3D('',#554,#555,#556);
#558=PLANE('',#557);
#559=ORIENTED_EDGE('',*,*,#443,.F.);
#560=ORIENTED_EDGE('',*,*,#541,.F.);
#561=ORIENTED_EDGE('',*,*,#512,.F.);
#562=ORIENTED_EDGE('',*,*,#481,.F.);
#563=EDGE_LOOP('',(#559,#560,#561,#562));
#564=FACE_OUTER_BOUND('',#563,.T.);
#565=ADVANCED_FACE('',(#564),#558,.T.);
#566=CARTESIAN_POINT('',(3.774758E-015,-1.349999999999999,0.0));
#567=DIRECTION('',(0.0,0.0,1.0));
#568=DIRECTION('',(1.0,0.0,0.0));
#569=AXIS2_PLACEMENT_3D('',#566,#567,#568);
#570=PLANE('',#569);
#571=ORIENTED_EDGE('',*,*,#548,.T.);
#572=ORIENTED_EDGE('',*,*,#459,.T.);
#573=ORIENTED_EDGE('',*,*,#495,.T.);
#574=ORIENTED_EDGE('',*,*,#526,.T.);
#575=EDGE_LOOP('',(#571,#572,#573,#574));
#576=FACE_OUTER_BOUND('',#575,.T.);
#577=ADVANCED_FACE('',(#576),#570,.F.);
#578=CLOSED_SHELL('',(#469,#500,#531,#553,#565,#577));
#579=MANIFOLD_SOLID_BREP('706',#578);
#580=COLOUR_RGB('250',0.330000000000000,0.330000000000000,0.330000000000000);
#581=SURFACE_STYLE_USAGE(.BOTH.,#582);
#582=SURFACE_SIDE_STYLE('NONE',(#583));
#583=SURFACE_STYLE_FILL_AREA(#584);
#584=FILL_AREA_STYLE('NONE',(#585));
#585=FILL_AREA_STYLE_COLOUR('NONE',#580);
#586=PRESENTATION_STYLE_ASSIGNMENT((#581));
#587=STYLED_ITEM('NONE',(#586),#579);
#588=CARTESIAN_POINT('',(-17.099999999999994,1.200000000000001,0.0));
#589=DIRECTION('',(-1.0,0.0,0.0));
#590=DIRECTION('',(0.0,0.0,1.0));
#591=AXIS2_PLACEMENT_3D('',#588,#589,#590);
#592=PLANE('',#591);
#593=CARTESIAN_POINT('',(-17.099999999999994,1.200000000000001,25.199999999999999));
#594=VERTEX_POINT('',#593);
#595=CARTESIAN_POINT('',(-17.100000000000001,3.400000000000000,25.199999999999999));
#596=VERTEX_POINT('',#595);
#597=CARTESIAN_POINT('',(-17.099999999999994,1.200000000000001,25.199999999999999));
#598=DIRECTION('',(0.0,1.0,0.0));
#599=VECTOR('',#598,2.199999999999999);
#600=LINE('',#597,#599);
#601=EDGE_CURVE('',#594,#596,#600,.T.);
#602=ORIENTED_EDGE('',*,*,#601,.T.);
#603=CARTESIAN_POINT('',(-17.100000000000001,3.400000000000000,0.0));
#604=VERTEX_POINT('',#603);
#605=CARTESIAN_POINT('',(-17.100000000000001,3.400000000000000,0.0));
#606=DIRECTION('',(0.0,0.0,1.0));
#607=VECTOR('',#606,25.199999999999999);
#608=LINE('',#605,#607);
#609=EDGE_CURVE('',#604,#596,#608,.T.);
#610=ORIENTED_EDGE('',*,*,#609,.F.);
#611=CARTESIAN_POINT('',(-17.099999999999994,1.200000000000001,0.0));
#612=VERTEX_POINT('',#611);
#613=CARTESIAN_POINT('',(-17.099999999999994,1.200000000000001,0.0));
#614=DIRECTION('',(0.0,1.0,0.0));
#615=VECTOR('',#614,2.199999999999999);
#616=LINE('',#613,#615);
#617=EDGE_CURVE('',#612,#604,#616,.T.);
#618=ORIENTED_EDGE('',*,*,#617,.F.);
#619=CARTESIAN_POINT('',(-17.099999999999994,1.200000000000001,0.0));
#620=DIRECTION('',(0.0,0.0,1.0));
#621=VECTOR('',#620,25.199999999999999);
#622=LINE('',#619,#621);
#623=EDGE_CURVE('',#612,#594,#622,.T.);
#624=ORIENTED_EDGE('',*,*,#623,.T.);
#625=EDGE_LOOP('',(#602,#610,#618,#624));
#626=FACE_OUTER_BOUND('',#625,.T.);
#627=ADVANCED_FACE('',(#626),#592,.T.);
#628=CARTESIAN_POINT('',(-17.100000000000001,3.400000000000000,0.0));
#629=DIRECTION('',(0.0,1.0,0.0));
#630=DIRECTION('',(0.0,0.0,1.0));
#631=AXIS2_PLACEMENT_3D('',#628,#629,#630);
#632=PLANE('',#631);
#633=CARTESIAN_POINT('',(17.100000000000001,3.400000000000000,25.199999999999999));
#634=VERTEX_POINT('',#633);
#635=CARTESIAN_POINT('',(-17.100000000000001,3.400000000000000,25.199999999999999));
#636=DIRECTION('',(1.0,0.0,0.0));
#637=VECTOR('',#636,34.200000000000003);
#638=LINE('',#635,#637);
#639=EDGE_CURVE('',#596,#634,#638,.T.);
#640=ORIENTED_EDGE('',*,*,#639,.T.);
#641=CARTESIAN_POINT('',(17.100000000000001,3.400000000000000,0.0));
#642=VERTEX_POINT('',#641);
#643=CARTESIAN_POINT('',(17.100000000000001,3.400000000000000,0.0));
#644=DIRECTION('',(0.0,0.0,1.0));
#645=VECTOR('',#644,25.199999999999999);
#646=LINE('',#643,#645);
#647=EDGE_CURVE('',#642,#634,#646,.T.);
#648=ORIENTED_EDGE('',*,*,#647,.F.);
#649=CARTESIAN_POINT('',(-17.100000000000001,3.400000000000000,0.0));
#650=DIRECTION('',(1.0,0.0,0.0));
#651=VECTOR('',#650,34.200000000000003);
#652=LINE('',#649,#651);
#653=EDGE_CURVE('',#604,#642,#652,.T.);
#654=ORIENTED_EDGE('',*,*,#653,.F.);
#655=ORIENTED_EDGE('',*,*,#609,.T.);
#656=EDGE_LOOP('',(#640,#648,#654,#655));
#657=FACE_OUTER_BOUND('',#656,.T.);
#658=ADVANCED_FACE('',(#657),#632,.T.);
#659=CARTESIAN_POINT('',(17.100000000000001,3.400000000000000,0.0));
#660=DIRECTION('',(1.0,0.0,0.0));
#661=DIRECTION('',(0.0,0.0,-1.0));
#662=AXIS2_PLACEMENT_3D('',#659,#660,#661);
#663=PLANE('',#662);
#664=CARTESIAN_POINT('',(17.100000000000001,1.200000000000001,25.199999999999999));
#665=VERTEX_POINT('',#664);
#666=CARTESIAN_POINT('',(17.100000000000001,3.400000000000000,25.199999999999999));
#667=DIRECTION('',(0.0,-1.0,0.0));
#668=VECTOR('',#667,2.199999999999999);
#669=LINE('',#666,#668);
#670=EDGE_CURVE('',#634,#665,#669,.T.);
#671=ORIENTED_EDGE('',*,*,#670,.T.);
#672=CARTESIAN_POINT('',(17.100000000000001,1.200000000000001,0.0));
#673=VERTEX_POINT('',#672);
#674=CARTESIAN_POINT('',(17.100000000000001,1.200000000000001,0.0));
#675=DIRECTION('',(0.0,0.0,1.0));
#676=VECTOR('',#675,25.199999999999999);
#677=LINE('',#674,#676);
#678=EDGE_CURVE('',#673,#665,#677,.T.);
#679=ORIENTED_EDGE('',*,*,#678,.F.);
#680=CARTESIAN_POINT('',(17.100000000000001,3.400000000000000,0.0));
#681=DIRECTION('',(0.0,-1.0,0.0));
#682=VECTOR('',#681,2.199999999999999);
#683=LINE('',#680,#682);
#684=EDGE_CURVE('',#642,#673,#683,.T.);
#685=ORIENTED_EDGE('',*,*,#684,.F.);
#686=ORIENTED_EDGE('',*,*,#647,.T.);
#687=EDGE_LOOP('',(#671,#679,#685,#686));
#688=FACE_OUTER_BOUND('',#687,.T.);
#689=ADVANCED_FACE('',(#688),#663,.T.);
#690=CARTESIAN_POINT('',(17.100000000000001,1.200000000000001,0.0));
#691=DIRECTION('',(0.0,-1.0,0.0));
#692=DIRECTION('',(0.0,0.0,-1.0));
#693=AXIS2_PLACEMENT_3D('',#690,#691,#692);
#694=PLANE('',#693);
#695=CARTESIAN_POINT('',(17.100000000000001,1.200000000000001,25.199999999999999));
#696=DIRECTION('',(-1.0,0.0,0.0));
#697=VECTOR('',#696,34.199999999999996);
#698=LINE('',#695,#697);
#699=EDGE_CURVE('',#665,#594,#698,.T.);
#700=ORIENTED_EDGE('',*,*,#699,.T.);
#701=ORIENTED_EDGE('',*,*,#623,.F.);
#702=CARTESIAN_POINT('',(17.100000000000001,1.200000000000001,0.0));
#703=DIRECTION('',(-1.0,0.0,0.0));
#704=VECTOR('',#703,34.199999999999996);
#705=LINE('',#702,#704);
#706=EDGE_CURVE('',#673,#612,#705,.T.);
#707=ORIENTED_EDGE('',*,*,#706,.F.);
#708=ORIENTED_EDGE('',*,*,#678,.T.);
#709=EDGE_LOOP('',(#700,#701,#707,#708));
#710=FACE_OUTER_BOUND('',#709,.T.);
#711=ADVANCED_FACE('',(#710),#694,.T.);
#712=CARTESIAN_POINT('',(1.776357E-015,2.300000000000000,25.199999999999999));
#713=DIRECTION('',(0.0,0.0,1.0));
#714=DIRECTION('',(1.0,0.0,0.0));
#715=AXIS2_PLACEMENT_3D('',#712,#713,#714);
#716=PLANE('',#715);
#717=ORIENTED_EDGE('',*,*,#601,.F.);
#718=ORIENTED_EDGE('',*,*,#699,.F.);
#719=ORIENTED_EDGE('',*,*,#670,.F.);
#720=ORIENTED_EDGE('',*,*,#639,.F.);
#721=EDGE_LOOP('',(#717,#718,#719,#720));
#722=FACE_OUTER_BOUND('',#721,.T.);
#723=ADVANCED_FACE('',(#722),#716,.T.);
#724=CARTESIAN_POINT('',(1.776357E-015,2.300000000000000,0.0));
#725=DIRECTION('',(0.0,0.0,1.0));
#726=DIRECTION('',(1.0,0.0,0.0));
#727=AXIS2_PLACEMENT_3D('',#724,#725,#726);
#728=PLANE('',#727);
#729=ORIENTED_EDGE('',*,*,#706,.T.);
#730=ORIENTED_EDGE('',*,*,#617,.T.);
#731=ORIENTED_EDGE('',*,*,#653,.T.);
#732=ORIENTED_EDGE('',*,*,#684,.T.);
#733=EDGE_LOOP('',(#729,#730,#731,#732));
#734=FACE_OUTER_BOUND('',#733,.T.);
#735=ADVANCED_FACE('',(#734),#728,.F.);
#736=CLOSED_SHELL('',(#627,#658,#689,#711,#723,#735));
#737=MANIFOLD_SOLID_BREP('702',#736);
#738=COLOUR_RGB('254',0.866000000000000,0.866000000000000,0.866000000000000);
#739=SURFACE_STYLE_USAGE(.BOTH.,#740);
#740=SURFACE_SIDE_STYLE('NONE',(#741));
#741=SURFACE_STYLE_FILL_AREA(#742);
#742=FILL_AREA_STYLE('NONE',(#743));
#743=FILL_AREA_STYLE_COLOUR('NONE',#738);
#744=PRESENTATION_STYLE_ASSIGNMENT((#739));
#745=STYLED_ITEM('NONE',(#744),#737);
#746=ADVANCED_BREP_SHAPE_REPRESENTATION('ABSR1',(#152,#250,#339,#428,#579,#737),#28);
#747=SHAPE_REPRESENTATION_RELATIONSHIP('SRRPL1','',#746,#62);
ENDSEC;
END-ISO-10303-21;
