ISO-10303-21;
HEADER;
/****************************************************************
 * Generated by software with PDElib inside                    *
 * PDElib Version v51a, created Fri 09/10/2010                  *
 * ITI Transcendata (http://www.transcendata.com/)              *
 ****************************************************************/
FILE_DESCRIPTION((''),'2;1');
FILE_NAME('RESC3216X89N.stp','2015-07-06T18:11:20',(''),(''),'Mechanical Desktop 2011','Mechanical Desktop 2011',', , ');
FILE_SCHEMA(('AUTOMOTIVE_DESIGN { 1 2 10303 214 1 1 1 1 }'));
ENDSEC;
DATA;
#10=(NAMED_UNIT(*)PLANE_ANGLE_UNIT()SI_UNIT($,.RADIAN.));
#11=DIMENSIONAL_EXPONENTS(0.0,0.0,0.0,0.0,0.0,0.0,0.0);
#12=PLANE_ANGLE_MEASURE_WITH_UNIT(PLANE_ANGLE_MEASURE(0.0174532925),#10);
#16=(CONVERSION_BASED_UNIT('DEGREE',#12)NAMED_UNIT(#11)PLANE_ANGLE_UNIT());
#20=(NAMED_UNIT(*)SI_UNIT($,.STERADIAN.)SOLID_ANGLE_UNIT());
#24=(LENGTH_UNIT()NAMED_UNIT(*)SI_UNIT(.MILLI.,.METRE.));
#26=UNCERTAINTY_MEASURE_WITH_UNIT(LENGTH_MEASURE(0.000001),#24,'DISTANCE_ACCURACY_VALUE','');
#28=(GEOMETRIC_REPRESENTATION_CONTEXT(3)GLOBAL_UNCERTAINTY_ASSIGNED_CONTEXT((#26))GLOBAL_UNIT_ASSIGNED_CONTEXT((#16,#20,#24))REPRESENTATION_CONTEXT('','3D'));
#29=APPLICATION_CONTEXT('automotive design');
#30=APPLICATION_PROTOCOL_DEFINITION('INTERNATIONAL_STANDARD','automotive_design',1998,#29);
#31=PRODUCT_CONTEXT('3D Mechanical Parts',#29,'mechanical');
#32=PRODUCT('Product','Product','',(#31));
#33=PRODUCT_RELATED_PRODUCT_CATEGORY('part',$,(#32));
#34=PRODUCT_CATEGORY('part',$);
#35=PERSON('1','Design','Joe',$,$,$);
#36=ORGANIZATION($,'None','None');
#37=PERSON_AND_ORGANIZATION(#35,#36);
#38=PERSON_AND_ORGANIZATION_ROLE('design_owner');
#39=APPLIED_PERSON_AND_ORGANIZATION_ASSIGNMENT(#37,#38,(#32));
#40=PRODUCT_DEFINITION_FORMATION_WITH_SPECIFIED_SOURCE('None','',#32,.BOUGHT.);
#41=PERSON('2','Creator','Joe',$,$,$);
#42=ORGANIZATION($,'None','None');
#43=PERSON_AND_ORGANIZATION(#41,#42);
#44=PERSON_AND_ORGANIZATION_ROLE('creator');
#45=APPLIED_PERSON_AND_ORGANIZATION_ASSIGNMENT(#43,#44,(#40));
#46=PERSON('3','Supplier','Joe',$,$,$);
#47=ORGANIZATION($,'None','None');
#48=PERSON_AND_ORGANIZATION(#46,#47);
#49=PERSON_AND_ORGANIZATION_ROLE('design_supplier');
#50=APPLIED_PERSON_AND_ORGANIZATION_ASSIGNMENT(#48,#49,(#40));
#51=PRODUCT_DEFINITION_CONTEXT('part definition',#29,'design');
#52=PRODUCT_DEFINITION('None','',#40,#51);
#53=PERSON('4','Creator','Joe',$,$,$);
#54=ORGANIZATION($,'None','None');
#55=PERSON_AND_ORGANIZATION(#53,#54);
#56=PERSON_AND_ORGANIZATION_ROLE('creator');
#57=APPLIED_PERSON_AND_ORGANIZATION_ASSIGNMENT(#55,#56,(#52));
#58=CARTESIAN_POINT('NONE',(0.0,0.0,0.0));
#59=DIRECTION('NONE',(0.0,0.0,1.0));
#60=DIRECTION('NONE',(1.0,0.0,0.0));
#61=AXIS2_PLACEMENT_3D('NONE',#58,#59,#60);
#62=SHAPE_REPRESENTATION('SR1',(#61),#28);
#63=PRODUCT_DEFINITION_SHAPE('PDS1','Test Part',#52);
#64=SHAPE_DEFINITION_REPRESENTATION(#63,#62);
#65=CARTESIAN_POINT('',(-1.261,4.440892E-016,0.0));
#66=DIRECTION('',(0.0,0.0,1.0));
#67=DIRECTION('',(1.0,0.0,0.0));
#68=AXIS2_PLACEMENT_3D('',#65,#66,#67);
#69=PLANE('',#68);
#70=CARTESIAN_POINT('',(-1.725000000000001,0.925,0.0));
#71=VERTEX_POINT('',#70);
#72=CARTESIAN_POINT('',(-1.725000000000001,-0.925,0.0));
#73=VERTEX_POINT('',#72);
#74=CARTESIAN_POINT('',(-1.725000000000001,0.925,0.0));
#75=DIRECTION('',(0.0,-1.0,0.0));
#76=VECTOR('',#75,1.85);
#77=LINE('',#74,#76);
#78=EDGE_CURVE('',#71,#73,#77,.T.);
#79=ORIENTED_EDGE('',*,*,#78,.F.);
#80=CARTESIAN_POINT('',(-0.836,0.925,0.0));
#81=VERTEX_POINT('',#80);
#82=CARTESIAN_POINT('',(-0.836,0.925,0.0));
#83=DIRECTION('',(-1.0,0.0,0.0));
#84=VECTOR('',#83,0.889000000000001);
#85=LINE('',#82,#84);
#86=EDGE_CURVE('',#81,#71,#85,.T.);
#87=ORIENTED_EDGE('',*,*,#86,.F.);
#88=CARTESIAN_POINT('',(-0.836,-0.925,0.0));
#89=VERTEX_POINT('',#88);
#90=CARTESIAN_POINT('',(-0.836,-0.925,0.0));
#91=DIRECTION('',(0.0,1.0,0.0));
#92=VECTOR('',#91,1.85);
#93=LINE('',#90,#92);
#94=EDGE_CURVE('',#89,#81,#93,.T.);
#95=ORIENTED_EDGE('',*,*,#94,.F.);
#96=CARTESIAN_POINT('',(-1.725000000000001,-0.925,0.0));
#97=DIRECTION('',(1.0,0.0,0.0));
#98=VECTOR('',#97,0.889000000000001);
#99=LINE('',#96,#98);
#100=EDGE_CURVE('',#73,#89,#99,.T.);
#101=ORIENTED_EDGE('',*,*,#100,.F.);
#102=EDGE_LOOP('',(#79,#87,#95,#101));
#103=FACE_OUTER_BOUND('',#102,.T.);
#104=ADVANCED_FACE('',(#103),#69,.F.);
#105=CARTESIAN_POINT('',(-0.836,0.875,0.09));
#106=DIRECTION('',(1.0,0.0,0.0));
#107=DIRECTION('',(0.0,0.0,-1.0));
#108=AXIS2_PLACEMENT_3D('',#105,#106,#107);
#109=PLANE('',#108);
#110=CARTESIAN_POINT('',(-0.836,0.925,0.89));
#111=VERTEX_POINT('',#110);
#112=CARTESIAN_POINT('',(-0.836,0.925,0.0));
#113=DIRECTION('',(0.0,0.0,1.0));
#114=VECTOR('',#113,0.89);
#115=LINE('',#112,#114);
#116=EDGE_CURVE('',#81,#111,#115,.T.);
#117=ORIENTED_EDGE('',*,*,#116,.T.);
#118=CARTESIAN_POINT('',(-0.836,-0.925,0.89));
#119=VERTEX_POINT('',#118);
#120=CARTESIAN_POINT('',(-0.836,0.925,0.89));
#121=DIRECTION('',(0.0,-1.0,0.0));
#122=VECTOR('',#121,1.85);
#123=LINE('',#120,#122);
#124=EDGE_CURVE('',#111,#119,#123,.T.);
#125=ORIENTED_EDGE('',*,*,#124,.T.);
#126=CARTESIAN_POINT('',(-0.836,-0.925,0.0));
#127=DIRECTION('',(0.0,0.0,1.0));
#128=VECTOR('',#127,0.89);
#129=LINE('',#126,#128);
#130=EDGE_CURVE('',#89,#119,#129,.T.);
#131=ORIENTED_EDGE('',*,*,#130,.F.);
#132=ORIENTED_EDGE('',*,*,#94,.T.);
#133=EDGE_LOOP('',(#117,#125,#131,#132));
#134=FACE_OUTER_BOUND('',#133,.T.);
#135=ADVANCED_FACE('',(#134),#109,.T.);
#136=CARTESIAN_POINT('',(-1.675,0.925,0.09));
#137=DIRECTION('',(0.0,1.0,0.0));
#138=DIRECTION('',(0.0,0.0,1.0));
#139=AXIS2_PLACEMENT_3D('',#136,#137,#138);
#140=PLANE('',#139);
#141=CARTESIAN_POINT('',(-1.725000000000001,0.925,0.89));
#142=VERTEX_POINT('',#141);
#143=CARTESIAN_POINT('',(-1.725000000000001,0.925,0.0));
#144=DIRECTION('',(0.0,0.0,1.0));
#145=VECTOR('',#144,0.89);
#146=LINE('',#143,#145);
#147=EDGE_CURVE('',#71,#142,#146,.T.);
#148=ORIENTED_EDGE('',*,*,#147,.T.);
#149=CARTESIAN_POINT('',(-1.725000000000001,0.925,0.89));
#150=DIRECTION('',(1.0,0.0,0.0));
#151=VECTOR('',#150,0.889000000000001);
#152=LINE('',#149,#151);
#153=EDGE_CURVE('',#142,#111,#152,.T.);
#154=ORIENTED_EDGE('',*,*,#153,.T.);
#155=ORIENTED_EDGE('',*,*,#116,.F.);
#156=ORIENTED_EDGE('',*,*,#86,.T.);
#157=EDGE_LOOP('',(#148,#154,#155,#156));
#158=FACE_OUTER_BOUND('',#157,.T.);
#159=ADVANCED_FACE('',(#158),#140,.T.);
#160=CARTESIAN_POINT('',(-0.925,-0.925,0.09));
#161=DIRECTION('',(0.0,-1.0,0.0));
#162=DIRECTION('',(0.0,0.0,-1.0));
#163=AXIS2_PLACEMENT_3D('',#160,#161,#162);
#164=PLANE('',#163);
#165=ORIENTED_EDGE('',*,*,#130,.T.);
#166=CARTESIAN_POINT('',(-1.725000000000001,-0.925,0.89));
#167=VERTEX_POINT('',#166);
#168=CARTESIAN_POINT('',(-0.836,-0.925,0.89));
#169=DIRECTION('',(-1.0,0.0,0.0));
#170=VECTOR('',#169,0.889000000000001);
#171=LINE('',#168,#170);
#172=EDGE_CURVE('',#119,#167,#171,.T.);
#173=ORIENTED_EDGE('',*,*,#172,.T.);
#174=CARTESIAN_POINT('',(-1.725000000000001,-0.925,0.0));
#175=DIRECTION('',(0.0,0.0,1.0));
#176=VECTOR('',#175,0.89);
#177=LINE('',#174,#176);
#178=EDGE_CURVE('',#73,#167,#177,.T.);
#179=ORIENTED_EDGE('',*,*,#178,.F.);
#180=ORIENTED_EDGE('',*,*,#100,.T.);
#181=EDGE_LOOP('',(#165,#173,#179,#180));
#182=FACE_OUTER_BOUND('',#181,.T.);
#183=ADVANCED_FACE('',(#182),#164,.T.);
#184=CARTESIAN_POINT('',(-1.725000000000001,-0.875,0.09));
#185=DIRECTION('',(-1.0,0.0,0.0));
#186=DIRECTION('',(0.0,0.0,1.0));
#187=AXIS2_PLACEMENT_3D('',#184,#185,#186);
#188=PLANE('',#187);
#189=ORIENTED_EDGE('',*,*,#178,.T.);
#190=CARTESIAN_POINT('',(-1.725000000000001,-0.925,0.89));
#191=DIRECTION('',(0.0,1.0,0.0));
#192=VECTOR('',#191,1.85);
#193=LINE('',#190,#192);
#194=EDGE_CURVE('',#167,#142,#193,.T.);
#195=ORIENTED_EDGE('',*,*,#194,.T.);
#196=ORIENTED_EDGE('',*,*,#147,.F.);
#197=ORIENTED_EDGE('',*,*,#78,.T.);
#198=EDGE_LOOP('',(#189,#195,#196,#197));
#199=FACE_OUTER_BOUND('',#198,.T.);
#200=ADVANCED_FACE('',(#199),#188,.T.);
#201=CARTESIAN_POINT('',(-1.3,0.0,0.89));
#202=DIRECTION('',(0.0,0.0,1.0));
#203=DIRECTION('',(1.0,0.0,0.0));
#204=AXIS2_PLACEMENT_3D('',#201,#202,#203);
#205=PLANE('',#204);
#206=ORIENTED_EDGE('',*,*,#153,.F.);
#207=ORIENTED_EDGE('',*,*,#194,.F.);
#208=ORIENTED_EDGE('',*,*,#172,.F.);
#209=ORIENTED_EDGE('',*,*,#124,.F.);
#210=EDGE_LOOP('',(#206,#207,#208,#209));
#211=FACE_OUTER_BOUND('',#210,.T.);
#212=ADVANCED_FACE('',(#211),#205,.T.);
#213=CLOSED_SHELL('',(#104,#135,#159,#183,#200,#212));
#214=MANIFOLD_SOLID_BREP('4D7',#213);
#215=COLOUR_RGB('254',0.866,0.866,0.866);
#216=SURFACE_STYLE_USAGE(.BOTH.,#217);
#217=SURFACE_SIDE_STYLE('NONE',(#218));
#218=SURFACE_STYLE_FILL_AREA(#219);
#219=FILL_AREA_STYLE('NONE',(#220));
#220=FILL_AREA_STYLE_COLOUR('NONE',#215);
#221=PRESENTATION_STYLE_ASSIGNMENT((#216));
#222=STYLED_ITEM('NONE',(#221),#214);
#223=MECHANICAL_DESIGN_GEOMETRIC_PRESENTATION_REPRESENTATION('NONE',(#222,#375,#533),#28);
#224=PRESENTATION_LAYER_ASSIGNMENT('3D','None',(#214,#374,#525));
#225=CARTESIAN_POINT('',(1.260999999999999,0.025000000000001,0.0));
#226=DIRECTION('',(0.0,0.0,1.0));
#227=DIRECTION('',(1.0,0.0,0.0));
#228=AXIS2_PLACEMENT_3D('',#225,#226,#227);
#229=PLANE('',#228);
#230=CARTESIAN_POINT('',(0.836,-0.925,0.0));
#231=VERTEX_POINT('',#230);
#232=CARTESIAN_POINT('',(0.835999999999999,0.925,0.0));
#233=VERTEX_POINT('',#232);
#234=CARTESIAN_POINT('',(0.835999999999999,0.925,0.0));
#235=DIRECTION('',(0.0,-1.0,0.0));
#236=VECTOR('',#235,1.85);
#237=LINE('',#234,#236);
#238=EDGE_CURVE('',#231,#233,#237,.F.);
#239=ORIENTED_EDGE('',*,*,#238,.T.);
#240=CARTESIAN_POINT('',(1.725,0.925,0.0));
#241=VERTEX_POINT('',#240);
#242=CARTESIAN_POINT('',(1.725,0.925,0.0));
#243=DIRECTION('',(-1.0,0.0,0.0));
#244=VECTOR('',#243,0.889);
#245=LINE('',#242,#244);
#246=EDGE_CURVE('',#233,#241,#245,.F.);
#247=ORIENTED_EDGE('',*,*,#246,.T.);
#248=CARTESIAN_POINT('',(1.725,-0.925,0.0));
#249=VERTEX_POINT('',#248);
#250=CARTESIAN_POINT('',(1.725,-0.925,0.0));
#251=DIRECTION('',(0.0,1.0,0.0));
#252=VECTOR('',#251,1.85);
#253=LINE('',#250,#252);
#254=EDGE_CURVE('',#241,#249,#253,.F.);
#255=ORIENTED_EDGE('',*,*,#254,.T.);
#256=CARTESIAN_POINT('',(0.836,-0.925,0.0));
#257=DIRECTION('',(1.0,0.0,0.0));
#258=VECTOR('',#257,0.889);
#259=LINE('',#256,#258);
#260=EDGE_CURVE('',#249,#231,#259,.F.);
#261=ORIENTED_EDGE('',*,*,#260,.T.);
#262=EDGE_LOOP('',(#239,#247,#255,#261));
#263=FACE_OUTER_BOUND('',#262,.T.);
#264=ADVANCED_FACE('',(#263),#229,.F.);
#265=CARTESIAN_POINT('',(1.725,0.9,0.09));
#266=DIRECTION('',(1.0,0.0,0.0));
#267=DIRECTION('',(0.0,0.0,-1.0));
#268=AXIS2_PLACEMENT_3D('',#265,#266,#267);
#269=PLANE('',#268);
#270=CARTESIAN_POINT('',(1.725,0.925,0.89));
#271=VERTEX_POINT('',#270);
#272=CARTESIAN_POINT('',(1.725,0.925,0.0));
#273=DIRECTION('',(0.0,0.0,1.0));
#274=VECTOR('',#273,0.89);
#275=LINE('',#272,#274);
#276=EDGE_CURVE('',#241,#271,#275,.T.);
#277=ORIENTED_EDGE('',*,*,#276,.T.);
#278=CARTESIAN_POINT('',(1.725,-0.925,0.89));
#279=VERTEX_POINT('',#278);
#280=CARTESIAN_POINT('',(1.725,0.925,0.89));
#281=DIRECTION('',(0.0,-1.0,0.0));
#282=VECTOR('',#281,1.85);
#283=LINE('',#280,#282);
#284=EDGE_CURVE('',#271,#279,#283,.T.);
#285=ORIENTED_EDGE('',*,*,#284,.T.);
#286=CARTESIAN_POINT('',(1.725,-0.925,0.89));
#287=DIRECTION('',(0.0,0.0,-1.0));
#288=VECTOR('',#287,0.89);
#289=LINE('',#286,#288);
#290=EDGE_CURVE('',#249,#279,#289,.F.);
#291=ORIENTED_EDGE('',*,*,#290,.F.);
#292=ORIENTED_EDGE('',*,*,#254,.F.);
#293=EDGE_LOOP('',(#277,#285,#291,#292));
#294=FACE_OUTER_BOUND('',#293,.T.);
#295=ADVANCED_FACE('',(#294),#269,.T.);
#296=CARTESIAN_POINT('',(0.925,0.925,0.09));
#297=DIRECTION('',(0.0,1.0,0.0));
#298=DIRECTION('',(0.0,0.0,1.0));
#299=AXIS2_PLACEMENT_3D('',#296,#297,#298);
#300=PLANE('',#299);
#301=CARTESIAN_POINT('',(0.835999999999999,0.925,0.89));
#302=VERTEX_POINT('',#301);
#303=CARTESIAN_POINT('',(0.835999999999999,0.925,0.0));
#304=DIRECTION('',(0.0,0.0,1.0));
#305=VECTOR('',#304,0.89);
#306=LINE('',#303,#305);
#307=EDGE_CURVE('',#233,#302,#306,.T.);
#308=ORIENTED_EDGE('',*,*,#307,.T.);
#309=CARTESIAN_POINT('',(0.835999999999999,0.925,0.89));
#310=DIRECTION('',(1.0,0.0,0.0));
#311=VECTOR('',#310,0.889);
#312=LINE('',#309,#311);
#313=EDGE_CURVE('',#302,#271,#312,.T.);
#314=ORIENTED_EDGE('',*,*,#313,.T.);
#315=ORIENTED_EDGE('',*,*,#276,.F.);
#316=ORIENTED_EDGE('',*,*,#246,.F.);
#317=EDGE_LOOP('',(#308,#314,#315,#316));
#318=FACE_OUTER_BOUND('',#317,.T.);
#319=ADVANCED_FACE('',(#318),#300,.T.);
#320=CARTESIAN_POINT('',(1.675,-0.925,0.09));
#321=DIRECTION('',(0.0,-1.0,0.0));
#322=DIRECTION('',(0.0,0.0,-1.0));
#323=AXIS2_PLACEMENT_3D('',#320,#321,#322);
#324=PLANE('',#323);
#325=ORIENTED_EDGE('',*,*,#290,.T.);
#326=CARTESIAN_POINT('',(0.836,-0.925,0.89));
#327=VERTEX_POINT('',#326);
#328=CARTESIAN_POINT('',(1.725,-0.925,0.89));
#329=DIRECTION('',(-1.0,0.0,0.0));
#330=VECTOR('',#329,0.889);
#331=LINE('',#328,#330);
#332=EDGE_CURVE('',#279,#327,#331,.T.);
#333=ORIENTED_EDGE('',*,*,#332,.T.);
#334=CARTESIAN_POINT('',(0.836,-0.925,0.0));
#335=DIRECTION('',(0.0,0.0,1.0));
#336=VECTOR('',#335,0.89);
#337=LINE('',#334,#336);
#338=EDGE_CURVE('',#231,#327,#337,.T.);
#339=ORIENTED_EDGE('',*,*,#338,.F.);
#340=ORIENTED_EDGE('',*,*,#260,.F.);
#341=EDGE_LOOP('',(#325,#333,#339,#340));
#342=FACE_OUTER_BOUND('',#341,.T.);
#343=ADVANCED_FACE('',(#342),#324,.T.);
#344=CARTESIAN_POINT('',(0.836,-0.875,0.09));
#345=DIRECTION('',(-1.0,0.0,0.0));
#346=DIRECTION('',(0.0,0.0,1.0));
#347=AXIS2_PLACEMENT_3D('',#344,#345,#346);
#348=PLANE('',#347);
#349=ORIENTED_EDGE('',*,*,#338,.T.);
#350=CARTESIAN_POINT('',(0.836,-0.925,0.89));
#351=DIRECTION('',(0.0,1.0,0.0));
#352=VECTOR('',#351,1.850000000000001);
#353=LINE('',#350,#352);
#354=EDGE_CURVE('',#327,#302,#353,.T.);
#355=ORIENTED_EDGE('',*,*,#354,.T.);
#356=ORIENTED_EDGE('',*,*,#307,.F.);
#357=ORIENTED_EDGE('',*,*,#238,.F.);
#358=EDGE_LOOP('',(#349,#355,#356,#357));
#359=FACE_OUTER_BOUND('',#358,.T.);
#360=ADVANCED_FACE('',(#359),#348,.T.);
#361=CARTESIAN_POINT('',(1.3,1.110223E-016,0.89));
#362=DIRECTION('',(0.0,0.0,1.0));
#363=DIRECTION('',(1.0,0.0,0.0));
#364=AXIS2_PLACEMENT_3D('',#361,#362,#363);
#365=PLANE('',#364);
#366=ORIENTED_EDGE('',*,*,#313,.F.);
#367=ORIENTED_EDGE('',*,*,#354,.F.);
#368=ORIENTED_EDGE('',*,*,#332,.F.);
#369=ORIENTED_EDGE('',*,*,#284,.F.);
#370=EDGE_LOOP('',(#366,#367,#368,#369));
#371=FACE_OUTER_BOUND('',#370,.T.);
#372=ADVANCED_FACE('',(#371),#365,.T.);
#373=CLOSED_SHELL('',(#264,#295,#319,#343,#360,#372));
#374=MANIFOLD_SOLID_BREP('4D6',#373);
#375=STYLED_ITEM('NONE',(#221),#374);
#376=CARTESIAN_POINT('',(0.0,5.551115E-016,0.0));
#377=DIRECTION('',(0.0,0.0,1.0));
#378=DIRECTION('',(1.0,0.0,0.0));
#379=AXIS2_PLACEMENT_3D('',#376,#377,#378);
#380=PLANE('',#379);
#381=CARTESIAN_POINT('',(0.836,-0.925,0.0));
#382=VERTEX_POINT('',#381);
#383=CARTESIAN_POINT('',(-0.836,-0.925,0.0));
#384=VERTEX_POINT('',#383);
#385=CARTESIAN_POINT('',(-0.836,-0.925,0.0));
#386=DIRECTION('',(1.0,0.0,0.0));
#387=VECTOR('',#386,1.671999999999999);
#388=LINE('',#385,#387);
#389=EDGE_CURVE('',#382,#384,#388,.F.);
#390=ORIENTED_EDGE('',*,*,#389,.T.);
#391=CARTESIAN_POINT('',(-0.836,0.925,0.0));
#392=VERTEX_POINT('',#391);
#393=CARTESIAN_POINT('',(-0.836,0.925,0.0));
#394=DIRECTION('',(0.0,-1.0,0.0));
#395=VECTOR('',#394,1.85);
#396=LINE('',#393,#395);
#397=EDGE_CURVE('',#384,#392,#396,.F.);
#398=ORIENTED_EDGE('',*,*,#397,.T.);
#399=CARTESIAN_POINT('',(0.835999999999999,0.925,0.0));
#400=VERTEX_POINT('',#399);
#401=CARTESIAN_POINT('',(0.835999999999999,0.925000000000001,0.0));
#402=DIRECTION('',(-1.0,0.0,0.0));
#403=VECTOR('',#402,1.671999999999999);
#404=LINE('',#401,#403);
#405=EDGE_CURVE('',#392,#400,#404,.F.);
#406=ORIENTED_EDGE('',*,*,#405,.T.);
#407=CARTESIAN_POINT('',(0.836,-0.925,0.0));
#408=DIRECTION('',(0.0,1.0,0.0));
#409=VECTOR('',#408,1.85);
#410=LINE('',#407,#409);
#411=EDGE_CURVE('',#400,#382,#410,.F.);
#412=ORIENTED_EDGE('',*,*,#411,.T.);
#413=EDGE_LOOP('',(#390,#398,#406,#412));
#414=FACE_OUTER_BOUND('',#413,.T.);
#415=ADVANCED_FACE('',(#414),#380,.F.);
#416=CARTESIAN_POINT('',(-0.925,0.925,0.09));
#417=DIRECTION('',(0.0,1.0,0.0));
#418=DIRECTION('',(0.0,0.0,1.0));
#419=AXIS2_PLACEMENT_3D('',#416,#417,#418);
#420=PLANE('',#419);
#421=CARTESIAN_POINT('',(-0.836,0.925,0.89));
#422=VERTEX_POINT('',#421);
#423=CARTESIAN_POINT('',(-0.836,0.925,0.0));
#424=DIRECTION('',(0.0,0.0,1.0));
#425=VECTOR('',#424,0.89);
#426=LINE('',#423,#425);
#427=EDGE_CURVE('',#392,#422,#426,.T.);
#428=ORIENTED_EDGE('',*,*,#427,.T.);
#429=CARTESIAN_POINT('',(0.835999999999999,0.925,0.89));
#430=VERTEX_POINT('',#429);
#431=CARTESIAN_POINT('',(-0.836,0.925,0.89));
#432=DIRECTION('',(1.0,0.0,0.0));
#433=VECTOR('',#432,1.671999999999999);
#434=LINE('',#431,#433);
#435=EDGE_CURVE('',#422,#430,#434,.T.);
#436=ORIENTED_EDGE('',*,*,#435,.T.);
#437=CARTESIAN_POINT('',(0.835999999999999,0.925,0.0));
#438=DIRECTION('',(0.0,0.0,1.0));
#439=VECTOR('',#438,0.89);
#440=LINE('',#437,#439);
#441=EDGE_CURVE('',#400,#430,#440,.T.);
#442=ORIENTED_EDGE('',*,*,#441,.F.);
#443=ORIENTED_EDGE('',*,*,#405,.F.);
#444=EDGE_LOOP('',(#428,#436,#442,#443));
#445=FACE_OUTER_BOUND('',#444,.T.);
#446=ADVANCED_FACE('',(#445),#420,.T.);
#447=CARTESIAN_POINT('',(-0.836,-0.875,0.09));
#448=DIRECTION('',(-1.0,0.0,0.0));
#449=DIRECTION('',(0.0,0.0,1.0));
#450=AXIS2_PLACEMENT_3D('',#447,#448,#449);
#451=PLANE('',#450);
#452=CARTESIAN_POINT('',(-0.836,-0.925,0.89));
#453=VERTEX_POINT('',#452);
#454=CARTESIAN_POINT('',(-0.836,-0.925,0.0));
#455=DIRECTION('',(0.0,0.0,1.0));
#456=VECTOR('',#455,0.89);
#457=LINE('',#454,#456);
#458=EDGE_CURVE('',#384,#453,#457,.T.);
#459=ORIENTED_EDGE('',*,*,#458,.T.);
#460=CARTESIAN_POINT('',(-0.836,-0.925,0.89));
#461=DIRECTION('',(0.0,1.0,0.0));
#462=VECTOR('',#461,1.850000000000001);
#463=LINE('',#460,#462);
#464=EDGE_CURVE('',#453,#422,#463,.T.);
#465=ORIENTED_EDGE('',*,*,#464,.T.);
#466=ORIENTED_EDGE('',*,*,#427,.F.);
#467=ORIENTED_EDGE('',*,*,#397,.F.);
#468=EDGE_LOOP('',(#459,#465,#466,#467));
#469=FACE_OUTER_BOUND('',#468,.T.);
#470=ADVANCED_FACE('',(#469),#451,.T.);
#471=CARTESIAN_POINT('',(0.835999999999999,0.875,0.09));
#472=DIRECTION('',(1.0,0.0,0.0));
#473=DIRECTION('',(0.0,0.0,-1.0));
#474=AXIS2_PLACEMENT_3D('',#471,#472,#473);
#475=PLANE('',#474);
#476=ORIENTED_EDGE('',*,*,#441,.T.);
#477=CARTESIAN_POINT('',(0.836,-0.925,0.89));
#478=VERTEX_POINT('',#477);
#479=CARTESIAN_POINT('',(0.835999999999999,0.925,0.89));
#480=DIRECTION('',(0.0,-1.0,0.0));
#481=VECTOR('',#480,1.85);
#482=LINE('',#479,#481);
#483=EDGE_CURVE('',#430,#478,#482,.T.);
#484=ORIENTED_EDGE('',*,*,#483,.T.);
#485=CARTESIAN_POINT('',(0.836,-0.925,0.0));
#486=DIRECTION('',(0.0,0.0,1.0));
#487=VECTOR('',#486,0.89);
#488=LINE('',#485,#487);
#489=EDGE_CURVE('',#382,#478,#488,.T.);
#490=ORIENTED_EDGE('',*,*,#489,.F.);
#491=ORIENTED_EDGE('',*,*,#411,.F.);
#492=EDGE_LOOP('',(#476,#484,#490,#491));
#493=FACE_OUTER_BOUND('',#492,.T.);
#494=ADVANCED_FACE('',(#493),#475,.T.);
#495=CARTESIAN_POINT('',(0.925,-0.925,0.09));
#496=DIRECTION('',(0.0,-1.0,0.0));
#497=DIRECTION('',(0.0,0.0,-1.0));
#498=AXIS2_PLACEMENT_3D('',#495,#496,#497);
#499=PLANE('',#498);
#500=ORIENTED_EDGE('',*,*,#489,.T.);
#501=CARTESIAN_POINT('',(0.836,-0.925,0.89));
#502=DIRECTION('',(-1.0,0.0,0.0));
#503=VECTOR('',#502,1.671999999999999);
#504=LINE('',#501,#503);
#505=EDGE_CURVE('',#478,#453,#504,.T.);
#506=ORIENTED_EDGE('',*,*,#505,.T.);
#507=ORIENTED_EDGE('',*,*,#458,.F.);
#508=ORIENTED_EDGE('',*,*,#389,.F.);
#509=EDGE_LOOP('',(#500,#506,#507,#508));
#510=FACE_OUTER_BOUND('',#509,.T.);
#511=ADVANCED_FACE('',(#510),#499,.T.);
#512=CARTESIAN_POINT('',(0.0,-1.110223E-016,0.89));
#513=DIRECTION('',(0.0,0.0,1.0));
#514=DIRECTION('',(1.0,0.0,0.0));
#515=AXIS2_PLACEMENT_3D('',#512,#513,#514);
#516=PLANE('',#515);
#517=ORIENTED_EDGE('',*,*,#464,.F.);
#518=ORIENTED_EDGE('',*,*,#505,.F.);
#519=ORIENTED_EDGE('',*,*,#483,.F.);
#520=ORIENTED_EDGE('',*,*,#435,.F.);
#521=EDGE_LOOP('',(#517,#518,#519,#520));
#522=FACE_OUTER_BOUND('',#521,.T.);
#523=ADVANCED_FACE('',(#522),#516,.T.);
#524=CLOSED_SHELL('',(#415,#446,#470,#494,#511,#523));
#525=MANIFOLD_SOLID_BREP('4D5',#524);
#526=COLOUR_RGB('250',0.33,0.33,0.33);
#527=SURFACE_STYLE_USAGE(.BOTH.,#528);
#528=SURFACE_SIDE_STYLE('NONE',(#529));
#529=SURFACE_STYLE_FILL_AREA(#530);
#530=FILL_AREA_STYLE('NONE',(#531));
#531=FILL_AREA_STYLE_COLOUR('NONE',#526);
#532=PRESENTATION_STYLE_ASSIGNMENT((#527));
#533=STYLED_ITEM('NONE',(#532),#525);
#534=ADVANCED_BREP_SHAPE_REPRESENTATION('ABSR1',(#214,#374,#525),#28);
#535=SHAPE_REPRESENTATION_RELATIONSHIP('SRRPL1','',#534,#62);
ENDSEC;
END-ISO-10303-21;
