ISO-10303-21;
HEADER;
/****************************************************************
 * Generated by software with PDElib inside                    *
 * PDElib Version v51a, created Wed 11/30/2011                  *
 * ITI Transcendata (http://www.transcendata.com/)              *
 ****************************************************************/
FILE_DESCRIPTION((''),'2;1');
FILE_NAME('RESC6532X80N.stp','2014-11-25T08:43:40',(''),(''),'Mechanical Desktop 2011','Mechanical Desktop 2011',', , ');
FILE_SCHEMA(('AUTOMOTIVE_DESIGN { 1 2 10303 214 1 1 1 1 }'));
ENDSEC;
DATA;
#10=(NAMED_UNIT(*)PLANE_ANGLE_UNIT()SI_UNIT($,.RADIAN.));
#11=DIMENSIONAL_EXPONENTS(0.0,0.0,0.0,0.0,0.0,0.0,0.0);
#12=PLANE_ANGLE_MEASURE_WITH_UNIT(PLANE_ANGLE_MEASURE(0.0174532925),#10);
#16=(CONVERSION_BASED_UNIT('DEGREE',#12)NAMED_UNIT(#11)PLANE_ANGLE_UNIT());
#20=(NAMED_UNIT(*)SI_UNIT($,.STERADIAN.)SOLID_ANGLE_UNIT());
#24=(LENGTH_UNIT()NAMED_UNIT(*)SI_UNIT(.MILLI.,.METRE.));
#26=UNCERTAINTY_MEASURE_WITH_UNIT(LENGTH_MEASURE(0.000001),#24,'DISTANCE_ACCURACY_VALUE','');
#28=(GEOMETRIC_REPRESENTATION_CONTEXT(3)GLOBAL_UNCERTAINTY_ASSIGNED_CONTEXT((#26))GLOBAL_UNIT_ASSIGNED_CONTEXT((#16,#20,#24))REPRESENTATION_CONTEXT('','3D'));
#29=APPLICATION_CONTEXT('automotive design');
#30=APPLICATION_PROTOCOL_DEFINITION('INTERNATIONAL_STANDARD','automotive_design',1998,#29);
#31=PRODUCT_CONTEXT('3D Mechanical Parts',#29,'mechanical');
#32=PRODUCT('Product','Product','',(#31));
#33=PRODUCT_RELATED_PRODUCT_CATEGORY('part',$,(#32));
#34=PRODUCT_CATEGORY('part',$);
#35=PERSON('1','Design','Joe',$,$,$);
#36=ORGANIZATION($,'None','None');
#37=PERSON_AND_ORGANIZATION(#35,#36);
#38=PERSON_AND_ORGANIZATION_ROLE('design_owner');
#39=APPLIED_PERSON_AND_ORGANIZATION_ASSIGNMENT(#37,#38,(#32));
#40=PRODUCT_DEFINITION_FORMATION_WITH_SPECIFIED_SOURCE('None','',#32,.BOUGHT.);
#41=PERSON('2','Creator','Joe',$,$,$);
#42=ORGANIZATION($,'None','None');
#43=PERSON_AND_ORGANIZATION(#41,#42);
#44=PERSON_AND_ORGANIZATION_ROLE('creator');
#45=APPLIED_PERSON_AND_ORGANIZATION_ASSIGNMENT(#43,#44,(#40));
#46=PERSON('3','Supplier','Joe',$,$,$);
#47=ORGANIZATION($,'None','None');
#48=PERSON_AND_ORGANIZATION(#46,#47);
#49=PERSON_AND_ORGANIZATION_ROLE('design_supplier');
#50=APPLIED_PERSON_AND_ORGANIZATION_ASSIGNMENT(#48,#49,(#40));
#51=PRODUCT_DEFINITION_CONTEXT('part definition',#29,'design');
#52=PRODUCT_DEFINITION('None','',#40,#51);
#53=PERSON('4','Creator','Joe',$,$,$);
#54=ORGANIZATION($,'None','None');
#55=PERSON_AND_ORGANIZATION(#53,#54);
#56=PERSON_AND_ORGANIZATION_ROLE('creator');
#57=APPLIED_PERSON_AND_ORGANIZATION_ASSIGNMENT(#55,#56,(#52));
#58=CARTESIAN_POINT('NONE',(0.0,0.0,0.0));
#59=DIRECTION('NONE',(0.0,0.0,1.0));
#60=DIRECTION('NONE',(1.0,0.0,0.0));
#61=AXIS2_PLACEMENT_3D('NONE',#58,#59,#60);
#62=SHAPE_REPRESENTATION('SR1',(#61),#28);
#63=PRODUCT_DEFINITION_SHAPE('PDS1','Test Part',#52);
#64=SHAPE_DEFINITION_REPRESENTATION(#63,#62);
#65=CARTESIAN_POINT('',(-2.769999999999943,-1.625000000000028,0.05));
#66=CARTESIAN_POINT('',(2.769999999999944,-1.625000000000028,0.05));
#67=CARTESIAN_POINT('',(-2.769999999999943,1.624999999999972,0.05));
#68=CARTESIAN_POINT('',(2.769999999999944,1.624999999999972,0.05));
#69=B_SPLINE_SURFACE_WITH_KNOTS('',1,1,((#65,#67),(#66,#68)),.UNSPECIFIED.,.F.,.F.,.U.,(2,2),(2,2),(0.0,5.539999999999887),(0.0,3.249999999999999),.UNSPECIFIED.);
#70=CARTESIAN_POINT('',(2.769999999999944,1.624999999999972,0.05));
#71=VERTEX_POINT('',#70);
#72=CARTESIAN_POINT('',(2.769999999999944,-1.625000000000028,0.05));
#73=VERTEX_POINT('',#72);
#74=CARTESIAN_POINT('',(2.769999999999944,1.624999999999972,0.05));
#75=DIRECTION('',(0.0,-1.0,0.0));
#76=VECTOR('',#75,3.249999999999999);
#77=LINE('',#74,#76);
#78=EDGE_CURVE('',#71,#73,#77,.T.);
#79=ORIENTED_EDGE('',*,*,#78,.F.);
#80=CARTESIAN_POINT('',(-2.769999999999943,1.624999999999972,0.05));
#81=VERTEX_POINT('',#80);
#82=CARTESIAN_POINT('',(-2.769999999999943,1.624999999999972,0.05));
#83=DIRECTION('',(1.0,0.0,0.0));
#84=VECTOR('',#83,5.539999999999887);
#85=LINE('',#82,#84);
#86=EDGE_CURVE('',#81,#71,#85,.T.);
#87=ORIENTED_EDGE('',*,*,#86,.F.);
#88=CARTESIAN_POINT('',(-2.769999999999943,-1.625000000000028,0.05));
#89=VERTEX_POINT('',#88);
#90=CARTESIAN_POINT('',(-2.769999999999943,-1.625000000000028,0.05));
#91=DIRECTION('',(0.0,1.0,0.0));
#92=VECTOR('',#91,3.249999999999999);
#93=LINE('',#90,#92);
#94=EDGE_CURVE('',#89,#81,#93,.T.);
#95=ORIENTED_EDGE('',*,*,#94,.F.);
#96=CARTESIAN_POINT('',(2.769999999999944,-1.625000000000028,0.05));
#97=DIRECTION('',(-1.0,0.0,0.0));
#98=VECTOR('',#97,5.539999999999887);
#99=LINE('',#96,#98);
#100=EDGE_CURVE('',#73,#89,#99,.T.);
#101=ORIENTED_EDGE('',*,*,#100,.F.);
#102=EDGE_LOOP('',(#79,#87,#95,#101));
#103=FACE_OUTER_BOUND('',#102,.T.);
#104=ADVANCED_FACE('',(#103),#69,.T.);
#105=CARTESIAN_POINT('',(-2.769999999999943,-1.625000000000028,0.0));
#106=CARTESIAN_POINT('',(2.769999999999944,-1.625000000000028,0.0));
#107=CARTESIAN_POINT('',(-2.769999999999943,1.624999999999972,0.0));
#108=CARTESIAN_POINT('',(2.769999999999944,1.624999999999972,0.0));
#109=B_SPLINE_SURFACE_WITH_KNOTS('',1,1,((#105,#107),(#106,#108)),.UNSPECIFIED.,.F.,.F.,.U.,(2,2),(2,2),(0.0,5.539999999999887),(0.0,3.249999999999999),.UNSPECIFIED.);
#110=CARTESIAN_POINT('',(2.769999999999944,-1.625000000000028,0.0));
#111=VERTEX_POINT('',#110);
#112=CARTESIAN_POINT('',(2.769999999999944,1.624999999999972,0.0));
#113=VERTEX_POINT('',#112);
#114=CARTESIAN_POINT('',(2.769999999999944,-1.625000000000028,0.0));
#115=DIRECTION('',(0.0,1.0,0.0));
#116=VECTOR('',#115,3.249999999999999);
#117=LINE('',#114,#116);
#118=EDGE_CURVE('',#111,#113,#117,.T.);
#119=ORIENTED_EDGE('',*,*,#118,.F.);
#120=CARTESIAN_POINT('',(-2.769999999999943,-1.625000000000028,0.0));
#121=VERTEX_POINT('',#120);
#122=CARTESIAN_POINT('',(-2.769999999999943,-1.625000000000028,0.0));
#123=DIRECTION('',(1.0,0.0,0.0));
#124=VECTOR('',#123,5.539999999999887);
#125=LINE('',#122,#124);
#126=EDGE_CURVE('',#121,#111,#125,.T.);
#127=ORIENTED_EDGE('',*,*,#126,.F.);
#128=CARTESIAN_POINT('',(-2.769999999999943,1.624999999999972,0.0));
#129=VERTEX_POINT('',#128);
#130=CARTESIAN_POINT('',(-2.769999999999943,1.624999999999972,0.0));
#131=DIRECTION('',(0.0,-1.0,0.0));
#132=VECTOR('',#131,3.249999999999999);
#133=LINE('',#130,#132);
#134=EDGE_CURVE('',#129,#121,#133,.T.);
#135=ORIENTED_EDGE('',*,*,#134,.F.);
#136=CARTESIAN_POINT('',(2.769999999999944,1.624999999999972,0.0));
#137=DIRECTION('',(-1.0,0.0,0.0));
#138=VECTOR('',#137,5.539999999999887);
#139=LINE('',#136,#138);
#140=EDGE_CURVE('',#113,#129,#139,.T.);
#141=ORIENTED_EDGE('',*,*,#140,.F.);
#142=EDGE_LOOP('',(#119,#127,#135,#141));
#143=FACE_OUTER_BOUND('',#142,.T.);
#144=ADVANCED_FACE('',(#143),#109,.F.);
#145=CARTESIAN_POINT('',(2.769999999999944,1.624999999999972,0.0));
#146=CARTESIAN_POINT('',(2.769999999999944,1.624999999999972,0.05));
#147=CARTESIAN_POINT('',(-2.769999999999943,1.624999999999972,0.0));
#148=CARTESIAN_POINT('',(-2.769999999999943,1.624999999999972,0.05));
#149=B_SPLINE_SURFACE_WITH_KNOTS('',1,1,((#145,#147),(#146,#148)),.UNSPECIFIED.,.F.,.F.,.U.,(2,2),(2,2),(0.0,0.05),(0.0,5.539999999999887),.UNSPECIFIED.);
#150=CARTESIAN_POINT('',(-2.769999999999943,1.624999999999972,0.05));
#151=DIRECTION('',(0.0,0.0,-1.0));
#152=VECTOR('',#151,0.05);
#153=LINE('',#150,#152);
#154=EDGE_CURVE('',#81,#129,#153,.T.);
#155=ORIENTED_EDGE('',*,*,#154,.F.);
#156=ORIENTED_EDGE('',*,*,#86,.T.);
#157=CARTESIAN_POINT('',(2.769999999999944,1.624999999999972,0.05));
#158=DIRECTION('',(0.0,0.0,-1.0));
#159=VECTOR('',#158,0.05);
#160=LINE('',#157,#159);
#161=EDGE_CURVE('',#71,#113,#160,.T.);
#162=ORIENTED_EDGE('',*,*,#161,.T.);
#163=ORIENTED_EDGE('',*,*,#140,.T.);
#164=EDGE_LOOP('',(#155,#156,#162,#163));
#165=FACE_OUTER_BOUND('',#164,.T.);
#166=ADVANCED_FACE('',(#165),#149,.F.);
#167=CARTESIAN_POINT('',(-2.769999999999943,-1.625000000000028,0.05));
#168=CARTESIAN_POINT('',(-2.769999999999943,-1.625000000000028,0.0));
#169=CARTESIAN_POINT('',(-2.769999999999943,1.624999999999972,0.05));
#170=CARTESIAN_POINT('',(-2.769999999999943,1.624999999999972,0.0));
#171=B_SPLINE_SURFACE_WITH_KNOTS('',1,1,((#167,#169),(#168,#170)),.UNSPECIFIED.,.F.,.F.,.U.,(2,2),(2,2),(0.0,0.05),(0.0,3.249999999999999),.UNSPECIFIED.);
#172=CARTESIAN_POINT('',(-2.769999999999943,-1.625000000000028,0.05));
#173=DIRECTION('',(0.0,0.0,-1.0));
#174=VECTOR('',#173,0.05);
#175=LINE('',#172,#174);
#176=EDGE_CURVE('',#89,#121,#175,.T.);
#177=ORIENTED_EDGE('',*,*,#176,.F.);
#178=ORIENTED_EDGE('',*,*,#94,.T.);
#179=ORIENTED_EDGE('',*,*,#154,.T.);
#180=ORIENTED_EDGE('',*,*,#134,.T.);
#181=EDGE_LOOP('',(#177,#178,#179,#180));
#182=FACE_OUTER_BOUND('',#181,.T.);
#183=ADVANCED_FACE('',(#182),#171,.F.);
#184=CARTESIAN_POINT('',(2.769999999999944,-1.625000000000028,0.05));
#185=CARTESIAN_POINT('',(2.769999999999944,-1.625000000000028,0.0));
#186=CARTESIAN_POINT('',(-2.769999999999943,-1.625000000000028,0.05));
#187=CARTESIAN_POINT('',(-2.769999999999943,-1.625000000000028,0.0));
#188=B_SPLINE_SURFACE_WITH_KNOTS('',1,1,((#184,#186),(#185,#187)),.UNSPECIFIED.,.F.,.F.,.U.,(2,2),(2,2),(0.0,0.05),(0.0,5.539999999999887),.UNSPECIFIED.);
#189=CARTESIAN_POINT('',(2.769999999999944,-1.625000000000028,0.05));
#190=DIRECTION('',(0.0,0.0,-1.0));
#191=VECTOR('',#190,0.05);
#192=LINE('',#189,#191);
#193=EDGE_CURVE('',#73,#111,#192,.T.);
#194=ORIENTED_EDGE('',*,*,#193,.F.);
#195=ORIENTED_EDGE('',*,*,#100,.T.);
#196=ORIENTED_EDGE('',*,*,#176,.T.);
#197=ORIENTED_EDGE('',*,*,#126,.T.);
#198=EDGE_LOOP('',(#194,#195,#196,#197));
#199=FACE_OUTER_BOUND('',#198,.T.);
#200=ADVANCED_FACE('',(#199),#188,.F.);
#201=CARTESIAN_POINT('',(2.769999999999944,-1.625000000000028,0.0));
#202=CARTESIAN_POINT('',(2.769999999999944,-1.625000000000028,0.05));
#203=CARTESIAN_POINT('',(2.769999999999944,1.624999999999972,0.0));
#204=CARTESIAN_POINT('',(2.769999999999944,1.624999999999972,0.05));
#205=B_SPLINE_SURFACE_WITH_KNOTS('',1,1,((#201,#203),(#202,#204)),.UNSPECIFIED.,.F.,.F.,.U.,(2,2),(2,2),(0.0,0.05),(0.0,3.249999999999999),.UNSPECIFIED.);
#206=ORIENTED_EDGE('',*,*,#161,.F.);
#207=ORIENTED_EDGE('',*,*,#78,.T.);
#208=ORIENTED_EDGE('',*,*,#193,.T.);
#209=ORIENTED_EDGE('',*,*,#118,.T.);
#210=EDGE_LOOP('',(#206,#207,#208,#209));
#211=FACE_OUTER_BOUND('',#210,.T.);
#212=ADVANCED_FACE('',(#211),#205,.F.);
#213=CLOSED_SHELL('',(#104,#144,#166,#183,#200,#212));
#214=MANIFOLD_SOLID_BREP('56B',#213);
#215=COLOUR_RGB('144',0.0,0.375,0.5);
#216=SURFACE_STYLE_USAGE(.BOTH.,#217);
#217=SURFACE_SIDE_STYLE('NONE',(#218));
#218=SURFACE_STYLE_FILL_AREA(#219);
#219=FILL_AREA_STYLE('NONE',(#220));
#220=FILL_AREA_STYLE_COLOUR('NONE',#215);
#221=PRESENTATION_STYLE_ASSIGNMENT((#216));
#222=STYLED_ITEM('NONE',(#221),#214);
#223=MECHANICAL_DESIGN_GEOMETRIC_PRESENTATION_REPRESENTATION('NONE',(#222,#375,#665,#823,#1106),#28);
#224=PRESENTATION_LAYER_ASSIGNMENT('3D','None',(#214,#374,#657,#815,#1105));
#225=CARTESIAN_POINT('',(0.0,-2.797762E-014,0.75));
#226=DIRECTION('',(0.0,0.0,-1.0));
#227=DIRECTION('',(1.0,0.0,0.0));
#228=AXIS2_PLACEMENT_3D('',#225,#226,#227);
#229=PLANE('',#228);
#230=CARTESIAN_POINT('',(2.769999999999943,1.624999999999972,0.75));
#231=VERTEX_POINT('',#230);
#232=CARTESIAN_POINT('',(2.769999999999943,-1.625000000000028,0.75));
#233=VERTEX_POINT('',#232);
#234=CARTESIAN_POINT('',(2.769999999999943,1.624999999999972,0.75));
#235=DIRECTION('',(0.0,-1.0,0.0));
#236=VECTOR('',#235,3.249999999999999);
#237=LINE('',#234,#236);
#238=EDGE_CURVE('',#231,#233,#237,.T.);
#239=ORIENTED_EDGE('',*,*,#238,.T.);
#240=CARTESIAN_POINT('',(-2.769999999999943,-1.625000000000028,0.75));
#241=VERTEX_POINT('',#240);
#242=CARTESIAN_POINT('',(2.769999999999943,-1.625000000000028,0.75));
#243=DIRECTION('',(-1.0,0.0,0.0));
#244=VECTOR('',#243,5.539999999999886);
#245=LINE('',#242,#244);
#246=EDGE_CURVE('',#233,#241,#245,.T.);
#247=ORIENTED_EDGE('',*,*,#246,.T.);
#248=CARTESIAN_POINT('',(-2.769999999999943,1.624999999999972,0.75));
#249=VERTEX_POINT('',#248);
#250=CARTESIAN_POINT('',(-2.769999999999943,-1.625000000000028,0.75));
#251=DIRECTION('',(0.0,1.0,0.0));
#252=VECTOR('',#251,3.249999999999999);
#253=LINE('',#250,#252);
#254=EDGE_CURVE('',#241,#249,#253,.T.);
#255=ORIENTED_EDGE('',*,*,#254,.T.);
#256=CARTESIAN_POINT('',(-2.769999999999943,1.624999999999972,0.75));
#257=DIRECTION('',(1.0,0.0,0.0));
#258=VECTOR('',#257,5.539999999999886);
#259=LINE('',#256,#258);
#260=EDGE_CURVE('',#249,#231,#259,.T.);
#261=ORIENTED_EDGE('',*,*,#260,.T.);
#262=EDGE_LOOP('',(#239,#247,#255,#261));
#263=FACE_OUTER_BOUND('',#262,.T.);
#264=ADVANCED_FACE('',(#263),#229,.T.);
#265=CARTESIAN_POINT('',(0.0,-2.797762E-014,0.8));
#266=DIRECTION('',(0.0,0.0,-1.0));
#267=DIRECTION('',(1.0,0.0,0.0));
#268=AXIS2_PLACEMENT_3D('',#265,#266,#267);
#269=PLANE('',#268);
#270=CARTESIAN_POINT('',(2.769999999999943,-1.625000000000028,0.8));
#271=VERTEX_POINT('',#270);
#272=CARTESIAN_POINT('',(2.769999999999943,1.624999999999972,0.8));
#273=VERTEX_POINT('',#272);
#274=CARTESIAN_POINT('',(2.769999999999943,-1.625000000000028,0.8));
#275=DIRECTION('',(0.0,1.0,0.0));
#276=VECTOR('',#275,3.249999999999999);
#277=LINE('',#274,#276);
#278=EDGE_CURVE('',#271,#273,#277,.T.);
#279=ORIENTED_EDGE('',*,*,#278,.T.);
#280=CARTESIAN_POINT('',(-2.769999999999943,1.624999999999972,0.8));
#281=VERTEX_POINT('',#280);
#282=CARTESIAN_POINT('',(2.769999999999943,1.624999999999972,0.8));
#283=DIRECTION('',(-1.0,0.0,0.0));
#284=VECTOR('',#283,5.539999999999886);
#285=LINE('',#282,#284);
#286=EDGE_CURVE('',#273,#281,#285,.T.);
#287=ORIENTED_EDGE('',*,*,#286,.T.);
#288=CARTESIAN_POINT('',(-2.769999999999943,-1.625000000000028,0.8));
#289=VERTEX_POINT('',#288);
#290=CARTESIAN_POINT('',(-2.769999999999943,1.624999999999972,0.8));
#291=DIRECTION('',(0.0,-1.0,0.0));
#292=VECTOR('',#291,3.249999999999999);
#293=LINE('',#290,#292);
#294=EDGE_CURVE('',#281,#289,#293,.T.);
#295=ORIENTED_EDGE('',*,*,#294,.T.);
#296=CARTESIAN_POINT('',(-2.769999999999943,-1.625000000000028,0.8));
#297=DIRECTION('',(1.0,0.0,0.0));
#298=VECTOR('',#297,5.539999999999886);
#299=LINE('',#296,#298);
#300=EDGE_CURVE('',#289,#271,#299,.T.);
#301=ORIENTED_EDGE('',*,*,#300,.T.);
#302=EDGE_LOOP('',(#279,#287,#295,#301));
#303=FACE_OUTER_BOUND('',#302,.T.);
#304=ADVANCED_FACE('',(#303),#269,.F.);
#305=CARTESIAN_POINT('',(0.0,1.624999999999972,0.775));
#306=DIRECTION('',(0.0,-1.0,0.0));
#307=DIRECTION('',(0.0,0.0,-1.0));
#308=AXIS2_PLACEMENT_3D('',#305,#306,#307);
#309=PLANE('',#308);
#310=CARTESIAN_POINT('',(-2.769999999999943,1.624999999999972,0.75));
#311=DIRECTION('',(0.0,0.0,1.0));
#312=VECTOR('',#311,0.05);
#313=LINE('',#310,#312);
#314=EDGE_CURVE('',#249,#281,#313,.T.);
#315=ORIENTED_EDGE('',*,*,#314,.T.);
#316=ORIENTED_EDGE('',*,*,#286,.F.);
#317=CARTESIAN_POINT('',(2.769999999999943,1.624999999999972,0.75));
#318=DIRECTION('',(0.0,0.0,1.0));
#319=VECTOR('',#318,0.05);
#320=LINE('',#317,#319);
#321=EDGE_CURVE('',#231,#273,#320,.T.);
#322=ORIENTED_EDGE('',*,*,#321,.F.);
#323=ORIENTED_EDGE('',*,*,#260,.F.);
#324=EDGE_LOOP('',(#315,#316,#322,#323));
#325=FACE_OUTER_BOUND('',#324,.T.);
#326=ADVANCED_FACE('',(#325),#309,.F.);
#327=CARTESIAN_POINT('',(-2.769999999999943,-2.797762E-014,0.775));
#328=DIRECTION('',(1.0,0.0,0.0));
#329=DIRECTION('',(0.0,0.0,1.0));
#330=AXIS2_PLACEMENT_3D('',#327,#328,#329);
#331=PLANE('',#330);
#332=CARTESIAN_POINT('',(-2.769999999999943,-1.625000000000028,0.75));
#333=DIRECTION('',(0.0,0.0,1.0));
#334=VECTOR('',#333,0.05);
#335=LINE('',#332,#334);
#336=EDGE_CURVE('',#241,#289,#335,.T.);
#337=ORIENTED_EDGE('',*,*,#336,.T.);
#338=ORIENTED_EDGE('',*,*,#294,.F.);
#339=ORIENTED_EDGE('',*,*,#314,.F.);
#340=ORIENTED_EDGE('',*,*,#254,.F.);
#341=EDGE_LOOP('',(#337,#338,#339,#340));
#342=FACE_OUTER_BOUND('',#341,.T.);
#343=ADVANCED_FACE('',(#342),#331,.F.);
#344=CARTESIAN_POINT('',(0.0,-1.625000000000028,0.775));
#345=DIRECTION('',(0.0,1.0,0.0));
#346=DIRECTION('',(0.0,0.0,1.0));
#347=AXIS2_PLACEMENT_3D('',#344,#345,#346);
#348=PLANE('',#347);
#349=CARTESIAN_POINT('',(2.769999999999943,-1.625000000000028,0.75));
#350=DIRECTION('',(0.0,0.0,1.0));
#351=VECTOR('',#350,0.05);
#352=LINE('',#349,#351);
#353=EDGE_CURVE('',#233,#271,#352,.T.);
#354=ORIENTED_EDGE('',*,*,#353,.T.);
#355=ORIENTED_EDGE('',*,*,#300,.F.);
#356=ORIENTED_EDGE('',*,*,#336,.F.);
#357=ORIENTED_EDGE('',*,*,#246,.F.);
#358=EDGE_LOOP('',(#354,#355,#356,#357));
#359=FACE_OUTER_BOUND('',#358,.T.);
#360=ADVANCED_FACE('',(#359),#348,.F.);
#361=CARTESIAN_POINT('',(2.769999999999943,-2.797762E-014,0.775));
#362=DIRECTION('',(-1.0,0.0,0.0));
#363=DIRECTION('',(0.0,0.0,-1.0));
#364=AXIS2_PLACEMENT_3D('',#361,#362,#363);
#365=PLANE('',#364);
#366=ORIENTED_EDGE('',*,*,#321,.T.);
#367=ORIENTED_EDGE('',*,*,#278,.F.);
#368=ORIENTED_EDGE('',*,*,#353,.F.);
#369=ORIENTED_EDGE('',*,*,#238,.F.);
#370=EDGE_LOOP('',(#366,#367,#368,#369));
#371=FACE_OUTER_BOUND('',#370,.T.);
#372=ADVANCED_FACE('',(#371),#365,.F.);
#373=CLOSED_SHELL('',(#264,#304,#326,#343,#360,#372));
#374=MANIFOLD_SOLID_BREP('567',#373);
#375=STYLED_ITEM('NONE',(#221),#374);
#376=CARTESIAN_POINT('',(2.769999999999943,1.624999999999972,0.8));
#377=CARTESIAN_POINT('',(2.769999999999943,1.624999999999972,0.75));
#378=CARTESIAN_POINT('',(2.769999999999943,-1.625000000000028,0.8));
#379=CARTESIAN_POINT('',(2.769999999999943,-1.625000000000028,0.75));
#380=B_SPLINE_SURFACE_WITH_KNOTS('',1,1,((#376,#378),(#377,#379)),.UNSPECIFIED.,.F.,.F.,.U.,(2,2),(2,2),(0.0,0.05),(0.0,3.25),.UNSPECIFIED.);
#381=CARTESIAN_POINT('',(2.769999999999943,1.624999999999972,0.75));
#382=VERTEX_POINT('',#381);
#383=CARTESIAN_POINT('',(2.769999999999943,1.624999999999972,0.8));
#384=VERTEX_POINT('',#383);
#385=CARTESIAN_POINT('',(2.769999999999943,1.624999999999972,0.75));
#386=DIRECTION('',(0.0,0.0,1.0));
#387=VECTOR('',#386,0.05);
#388=LINE('',#385,#387);
#389=EDGE_CURVE('',#382,#384,#388,.T.);
#390=ORIENTED_EDGE('',*,*,#389,.F.);
#391=CARTESIAN_POINT('',(2.769999999999943,-1.625000000000028,0.75));
#392=VERTEX_POINT('',#391);
#393=CARTESIAN_POINT('',(2.769999999999943,-1.625000000000028,0.75));
#394=DIRECTION('',(0.0,1.0,0.0));
#395=VECTOR('',#394,3.249999999999999);
#396=LINE('',#393,#395);
#397=EDGE_CURVE('',#392,#382,#396,.T.);
#398=ORIENTED_EDGE('',*,*,#397,.F.);
#399=CARTESIAN_POINT('',(2.769999999999943,-1.625000000000028,0.8));
#400=VERTEX_POINT('',#399);
#401=CARTESIAN_POINT('',(2.769999999999943,-1.625000000000028,0.8));
#402=DIRECTION('',(0.0,0.0,-1.0));
#403=VECTOR('',#402,0.05);
#404=LINE('',#401,#403);
#405=EDGE_CURVE('',#400,#392,#404,.T.);
#406=ORIENTED_EDGE('',*,*,#405,.F.);
#407=CARTESIAN_POINT('',(2.769999999999943,-1.625000000000028,0.8));
#408=DIRECTION('',(0.0,1.0,0.0));
#409=VECTOR('',#408,3.249999999999999);
#410=LINE('',#407,#409);
#411=EDGE_CURVE('',#400,#384,#410,.T.);
#412=ORIENTED_EDGE('',*,*,#411,.T.);
#413=EDGE_LOOP('',(#390,#398,#406,#412));
#414=FACE_OUTER_BOUND('',#413,.T.);
#415=ADVANCED_FACE('',(#414),#380,.T.);
#416=CARTESIAN_POINT('',(3.249999999999943,1.624999999999972,0.8));
#417=CARTESIAN_POINT('',(2.769999999999943,1.624999999999972,0.8));
#418=CARTESIAN_POINT('',(3.249999999999943,-1.625000000000028,0.8));
#419=CARTESIAN_POINT('',(2.769999999999943,-1.625000000000028,0.8));
#420=B_SPLINE_SURFACE_WITH_KNOTS('',1,1,((#416,#418),(#417,#419)),.UNSPECIFIED.,.F.,.F.,.U.,(2,2),(2,2),(0.0,0.48),(0.0,3.25),.UNSPECIFIED.);
#421=CARTESIAN_POINT('',(3.249999999999943,1.624999999999972,0.8));
#422=VERTEX_POINT('',#421);
#423=CARTESIAN_POINT('',(2.769999999999943,1.624999999999972,0.8));
#424=DIRECTION('',(1.0,0.0,0.0));
#425=VECTOR('',#424,0.48);
#426=LINE('',#423,#425);
#427=EDGE_CURVE('',#384,#422,#426,.T.);
#428=ORIENTED_EDGE('',*,*,#427,.F.);
#429=ORIENTED_EDGE('',*,*,#411,.F.);
#430=CARTESIAN_POINT('',(3.249999999999943,-1.625000000000028,0.8));
#431=VERTEX_POINT('',#430);
#432=CARTESIAN_POINT('',(3.249999999999943,-1.625000000000028,0.8));
#433=DIRECTION('',(-1.0,0.0,0.0));
#434=VECTOR('',#433,0.48);
#435=LINE('',#432,#434);
#436=EDGE_CURVE('',#431,#400,#435,.T.);
#437=ORIENTED_EDGE('',*,*,#436,.F.);
#438=CARTESIAN_POINT('',(3.249999999999943,-1.625000000000028,0.8));
#439=DIRECTION('',(0.0,1.0,0.0));
#440=VECTOR('',#439,3.249999999999999);
#441=LINE('',#438,#440);
#442=EDGE_CURVE('',#431,#422,#441,.T.);
#443=ORIENTED_EDGE('',*,*,#442,.T.);
#444=EDGE_LOOP('',(#428,#429,#437,#443));
#445=FACE_OUTER_BOUND('',#444,.T.);
#446=ADVANCED_FACE('',(#445),#420,.T.);
#447=CARTESIAN_POINT('',(3.249999999999943,1.624999999999972,0.0));
#448=CARTESIAN_POINT('',(3.249999999999943,1.624999999999972,0.8));
#449=CARTESIAN_POINT('',(3.249999999999943,-1.625000000000028,0.0));
#450=CARTESIAN_POINT('',(3.249999999999943,-1.625000000000028,0.8));
#451=B_SPLINE_SURFACE_WITH_KNOTS('',1,1,((#447,#449),(#448,#450)),.UNSPECIFIED.,.F.,.F.,.U.,(2,2),(2,2),(0.0,0.8),(0.0,3.25),.UNSPECIFIED.);
#452=CARTESIAN_POINT('',(3.249999999999943,1.624999999999972,0.0));
#453=VERTEX_POINT('',#452);
#454=CARTESIAN_POINT('',(3.249999999999943,1.624999999999972,0.8));
#455=DIRECTION('',(0.0,0.0,-1.0));
#456=VECTOR('',#455,0.8);
#457=LINE('',#454,#456);
#458=EDGE_CURVE('',#422,#453,#457,.T.);
#459=ORIENTED_EDGE('',*,*,#458,.F.);
#460=ORIENTED_EDGE('',*,*,#442,.F.);
#461=CARTESIAN_POINT('',(3.249999999999943,-1.625000000000028,0.0));
#462=VERTEX_POINT('',#461);
#463=CARTESIAN_POINT('',(3.249999999999943,-1.625000000000028,0.0));
#464=DIRECTION('',(0.0,0.0,1.0));
#465=VECTOR('',#464,0.8);
#466=LINE('',#463,#465);
#467=EDGE_CURVE('',#462,#431,#466,.T.);
#468=ORIENTED_EDGE('',*,*,#467,.F.);
#469=CARTESIAN_POINT('',(3.249999999999943,-1.625000000000028,0.0));
#470=DIRECTION('',(0.0,1.0,0.0));
#471=VECTOR('',#470,3.249999999999999);
#472=LINE('',#469,#471);
#473=EDGE_CURVE('',#462,#453,#472,.T.);
#474=ORIENTED_EDGE('',*,*,#473,.T.);
#475=EDGE_LOOP('',(#459,#460,#468,#474));
#476=FACE_OUTER_BOUND('',#475,.T.);
#477=ADVANCED_FACE('',(#476),#451,.T.);
#478=CARTESIAN_POINT('',(2.769999999999943,1.624999999999972,0.0));
#479=CARTESIAN_POINT('',(3.249999999999943,1.624999999999972,0.0));
#480=CARTESIAN_POINT('',(2.769999999999943,-1.625000000000028,0.0));
#481=CARTESIAN_POINT('',(3.249999999999943,-1.625000000000028,0.0));
#482=B_SPLINE_SURFACE_WITH_KNOTS('',1,1,((#478,#480),(#479,#481)),.UNSPECIFIED.,.F.,.F.,.U.,(2,2),(2,2),(0.0,0.48),(0.0,3.25),.UNSPECIFIED.);
#483=CARTESIAN_POINT('',(2.769999999999943,1.624999999999972,0.0));
#484=VERTEX_POINT('',#483);
#485=CARTESIAN_POINT('',(3.249999999999943,1.624999999999972,0.0));
#486=DIRECTION('',(-1.0,0.0,0.0));
#487=VECTOR('',#486,0.48);
#488=LINE('',#485,#487);
#489=EDGE_CURVE('',#453,#484,#488,.T.);
#490=ORIENTED_EDGE('',*,*,#489,.F.);
#491=ORIENTED_EDGE('',*,*,#473,.F.);
#492=CARTESIAN_POINT('',(2.769999999999943,-1.625000000000028,0.0));
#493=VERTEX_POINT('',#492);
#494=CARTESIAN_POINT('',(2.769999999999943,-1.625000000000028,0.0));
#495=DIRECTION('',(1.0,0.0,0.0));
#496=VECTOR('',#495,0.48);
#497=LINE('',#494,#496);
#498=EDGE_CURVE('',#493,#462,#497,.T.);
#499=ORIENTED_EDGE('',*,*,#498,.F.);
#500=CARTESIAN_POINT('',(2.769999999999943,-1.625000000000028,0.0));
#501=DIRECTION('',(0.0,1.0,0.0));
#502=VECTOR('',#501,3.249999999999999);
#503=LINE('',#500,#502);
#504=EDGE_CURVE('',#493,#484,#503,.T.);
#505=ORIENTED_EDGE('',*,*,#504,.T.);
#506=EDGE_LOOP('',(#490,#491,#499,#505));
#507=FACE_OUTER_BOUND('',#506,.T.);
#508=ADVANCED_FACE('',(#507),#482,.T.);
#509=CARTESIAN_POINT('',(2.769999999999944,1.624999999999972,0.05));
#510=CARTESIAN_POINT('',(2.769999999999943,1.624999999999972,0.0));
#511=CARTESIAN_POINT('',(2.769999999999944,-1.625000000000028,0.05));
#512=CARTESIAN_POINT('',(2.769999999999944,-1.625000000000028,0.0));
#513=B_SPLINE_SURFACE_WITH_KNOTS('',1,1,((#509,#511),(#510,#512)),.UNSPECIFIED.,.F.,.F.,.U.,(2,2),(2,2),(0.0,0.05),(0.0,3.25),.UNSPECIFIED.);
#514=CARTESIAN_POINT('',(2.769999999999944,1.624999999999972,0.05));
#515=VERTEX_POINT('',#514);
#516=CARTESIAN_POINT('',(2.769999999999943,1.624999999999972,0.0));
#517=DIRECTION('',(0.0,0.0,1.0));
#518=VECTOR('',#517,0.05);
#519=LINE('',#516,#518);
#520=EDGE_CURVE('',#484,#515,#519,.T.);
#521=ORIENTED_EDGE('',*,*,#520,.F.);
#522=ORIENTED_EDGE('',*,*,#504,.F.);
#523=CARTESIAN_POINT('',(2.769999999999944,-1.625000000000028,0.05));
#524=VERTEX_POINT('',#523);
#525=CARTESIAN_POINT('',(2.769999999999944,-1.625000000000028,0.05));
#526=DIRECTION('',(0.0,0.0,-1.0));
#527=VECTOR('',#526,0.05);
#528=LINE('',#525,#527);
#529=EDGE_CURVE('',#524,#493,#528,.T.);
#530=ORIENTED_EDGE('',*,*,#529,.F.);
#531=CARTESIAN_POINT('',(2.769999999999944,-1.625000000000028,0.05));
#532=DIRECTION('',(0.0,1.0,0.0));
#533=VECTOR('',#532,3.249999999999999);
#534=LINE('',#531,#533);
#535=EDGE_CURVE('',#524,#515,#534,.T.);
#536=ORIENTED_EDGE('',*,*,#535,.T.);
#537=EDGE_LOOP('',(#521,#522,#530,#536));
#538=FACE_OUTER_BOUND('',#537,.T.);
#539=ADVANCED_FACE('',(#538),#513,.T.);
#540=CARTESIAN_POINT('',(3.199999999999943,1.624999999999972,0.05));
#541=CARTESIAN_POINT('',(2.769999999999944,1.624999999999972,0.05));
#542=CARTESIAN_POINT('',(3.199999999999943,-1.625000000000028,0.05));
#543=CARTESIAN_POINT('',(2.769999999999944,-1.625000000000028,0.05));
#544=B_SPLINE_SURFACE_WITH_KNOTS('',1,1,((#540,#542),(#541,#543)),.UNSPECIFIED.,.F.,.F.,.U.,(2,2),(2,2),(0.0,0.43),(0.0,3.25),.UNSPECIFIED.);
#545=CARTESIAN_POINT('',(3.199999999999943,1.624999999999972,0.05));
#546=VERTEX_POINT('',#545);
#547=CARTESIAN_POINT('',(2.769999999999944,1.624999999999972,0.05));
#548=DIRECTION('',(1.0,0.0,0.0));
#549=VECTOR('',#548,0.43);
#550=LINE('',#547,#549);
#551=EDGE_CURVE('',#515,#546,#550,.T.);
#552=ORIENTED_EDGE('',*,*,#551,.F.);
#553=ORIENTED_EDGE('',*,*,#535,.F.);
#554=CARTESIAN_POINT('',(3.199999999999943,-1.625000000000028,0.05));
#555=VERTEX_POINT('',#554);
#556=CARTESIAN_POINT('',(3.199999999999943,-1.625000000000028,0.05));
#557=DIRECTION('',(-1.0,0.0,0.0));
#558=VECTOR('',#557,0.43);
#559=LINE('',#556,#558);
#560=EDGE_CURVE('',#555,#524,#559,.T.);
#561=ORIENTED_EDGE('',*,*,#560,.F.);
#562=CARTESIAN_POINT('',(3.199999999999943,-1.625000000000028,0.05));
#563=DIRECTION('',(0.0,1.0,0.0));
#564=VECTOR('',#563,3.249999999999999);
#565=LINE('',#562,#564);
#566=EDGE_CURVE('',#555,#546,#565,.T.);
#567=ORIENTED_EDGE('',*,*,#566,.T.);
#568=EDGE_LOOP('',(#552,#553,#561,#567));
#569=FACE_OUTER_BOUND('',#568,.T.);
#570=ADVANCED_FACE('',(#569),#544,.T.);
#571=CARTESIAN_POINT('',(3.199999999999943,1.624999999999972,0.75));
#572=CARTESIAN_POINT('',(3.199999999999943,1.624999999999972,0.05));
#573=CARTESIAN_POINT('',(3.199999999999943,-1.625000000000028,0.75));
#574=CARTESIAN_POINT('',(3.199999999999943,-1.625000000000028,0.05));
#575=B_SPLINE_SURFACE_WITH_KNOTS('',1,1,((#571,#573),(#572,#574)),.UNSPECIFIED.,.F.,.F.,.U.,(2,2),(2,2),(0.0,0.7),(0.0,3.25),.UNSPECIFIED.);
#576=CARTESIAN_POINT('',(3.199999999999943,1.624999999999972,0.75));
#577=VERTEX_POINT('',#576);
#578=CARTESIAN_POINT('',(3.199999999999943,1.624999999999972,0.05));
#579=DIRECTION('',(0.0,0.0,1.0));
#580=VECTOR('',#579,0.7);
#581=LINE('',#578,#580);
#582=EDGE_CURVE('',#546,#577,#581,.T.);
#583=ORIENTED_EDGE('',*,*,#582,.F.);
#584=ORIENTED_EDGE('',*,*,#566,.F.);
#585=CARTESIAN_POINT('',(3.199999999999943,-1.625000000000028,0.75));
#586=VERTEX_POINT('',#585);
#587=CARTESIAN_POINT('',(3.199999999999943,-1.625000000000028,0.75));
#588=DIRECTION('',(0.0,0.0,-1.0));
#589=VECTOR('',#588,0.7);
#590=LINE('',#587,#589);
#591=EDGE_CURVE('',#586,#555,#590,.T.);
#592=ORIENTED_EDGE('',*,*,#591,.F.);
#593=CARTESIAN_POINT('',(3.199999999999943,-1.625000000000028,0.75));
#594=DIRECTION('',(0.0,1.0,0.0));
#595=VECTOR('',#594,3.249999999999999);
#596=LINE('',#593,#595);
#597=EDGE_CURVE('',#586,#577,#596,.T.);
#598=ORIENTED_EDGE('',*,*,#597,.T.);
#599=EDGE_LOOP('',(#583,#584,#592,#598));
#600=FACE_OUTER_BOUND('',#599,.T.);
#601=ADVANCED_FACE('',(#600),#575,.T.);
#602=CARTESIAN_POINT('',(2.769999999999943,1.624999999999972,0.75));
#603=CARTESIAN_POINT('',(3.199999999999943,1.624999999999972,0.75));
#604=CARTESIAN_POINT('',(2.769999999999943,-1.625000000000028,0.75));
#605=CARTESIAN_POINT('',(3.199999999999944,-1.625000000000028,0.75));
#606=B_SPLINE_SURFACE_WITH_KNOTS('',1,1,((#602,#604),(#603,#605)),.UNSPECIFIED.,.F.,.F.,.U.,(2,2),(2,2),(0.0,0.43),(0.0,3.25),.UNSPECIFIED.);
#607=CARTESIAN_POINT('',(3.199999999999943,1.624999999999972,0.75));
#608=DIRECTION('',(-1.0,0.0,0.0));
#609=VECTOR('',#608,0.43);
#610=LINE('',#607,#609);
#611=EDGE_CURVE('',#577,#382,#610,.T.);
#612=ORIENTED_EDGE('',*,*,#611,.F.);
#613=ORIENTED_EDGE('',*,*,#597,.F.);
#614=CARTESIAN_POINT('',(2.769999999999943,-1.625000000000028,0.75));
#615=DIRECTION('',(1.0,0.0,0.0));
#616=VECTOR('',#615,0.43);
#617=LINE('',#614,#616);
#618=EDGE_CURVE('',#392,#586,#617,.T.);
#619=ORIENTED_EDGE('',*,*,#618,.F.);
#620=ORIENTED_EDGE('',*,*,#397,.T.);
#621=EDGE_LOOP('',(#612,#613,#619,#620));
#622=FACE_OUTER_BOUND('',#621,.T.);
#623=ADVANCED_FACE('',(#622),#606,.T.);
#624=CARTESIAN_POINT('',(2.769999999999943,-1.625000000000028,-3.739797E-062));
#625=CARTESIAN_POINT('',(2.769999999999943,-1.625000000000028,0.8));
#626=CARTESIAN_POINT('',(3.249999999999943,-1.625000000000028,1.839818E-062));
#627=CARTESIAN_POINT('',(3.249999999999943,-1.625000000000028,0.8));
#628=B_SPLINE_SURFACE_WITH_KNOTS('',1,1,((#624,#626),(#625,#627)),.UNSPECIFIED.,.F.,.F.,.U.,(2,2),(2,2),(0.0,0.8),(0.0,0.48),.UNSPECIFIED.);
#629=ORIENTED_EDGE('',*,*,#618,.T.);
#630=ORIENTED_EDGE('',*,*,#591,.T.);
#631=ORIENTED_EDGE('',*,*,#560,.T.);
#632=ORIENTED_EDGE('',*,*,#529,.T.);
#633=ORIENTED_EDGE('',*,*,#498,.T.);
#634=ORIENTED_EDGE('',*,*,#467,.T.);
#635=ORIENTED_EDGE('',*,*,#436,.T.);
#636=ORIENTED_EDGE('',*,*,#405,.T.);
#637=EDGE_LOOP('',(#629,#630,#631,#632,#633,#634,#635,#636));
#638=FACE_OUTER_BOUND('',#637,.T.);
#639=ADVANCED_FACE('',(#638),#628,.F.);
#640=CARTESIAN_POINT('',(2.769999999999943,1.624999999999971,-1.998120E-061));
#641=CARTESIAN_POINT('',(2.769999999999943,1.624999999999971,0.8));
#642=CARTESIAN_POINT('',(3.249999999999943,1.624999999999971,9.829887E-062));
#643=CARTESIAN_POINT('',(3.249999999999943,1.624999999999971,0.8));
#644=B_SPLINE_SURFACE_WITH_KNOTS('',1,1,((#640,#642),(#641,#643)),.UNSPECIFIED.,.F.,.F.,.U.,(2,2),(2,2),(0.0,0.8),(0.0,0.48),.UNSPECIFIED.);
#645=ORIENTED_EDGE('',*,*,#389,.T.);
#646=ORIENTED_EDGE('',*,*,#427,.T.);
#647=ORIENTED_EDGE('',*,*,#458,.T.);
#648=ORIENTED_EDGE('',*,*,#489,.T.);
#649=ORIENTED_EDGE('',*,*,#520,.T.);
#650=ORIENTED_EDGE('',*,*,#551,.T.);
#651=ORIENTED_EDGE('',*,*,#582,.T.);
#652=ORIENTED_EDGE('',*,*,#611,.T.);
#653=EDGE_LOOP('',(#645,#646,#647,#648,#649,#650,#651,#652));
#654=FACE_OUTER_BOUND('',#653,.T.);
#655=ADVANCED_FACE('',(#654),#644,.T.);
#656=CLOSED_SHELL('',(#415,#446,#477,#508,#539,#570,#601,#623,#639,#655));
#657=MANIFOLD_SOLID_BREP('55B',#656);
#658=COLOUR_RGB('252',0.598,0.598,0.598);
#659=SURFACE_STYLE_USAGE(.BOTH.,#660);
#660=SURFACE_SIDE_STYLE('NONE',(#661));
#661=SURFACE_STYLE_FILL_AREA(#662);
#662=FILL_AREA_STYLE('NONE',(#663));
#663=FILL_AREA_STYLE_COLOUR('NONE',#658);
#664=PRESENTATION_STYLE_ASSIGNMENT((#659));
#665=STYLED_ITEM('NONE',(#664),#657);
#666=CARTESIAN_POINT('',(-2.984999999999944,-1.625000000000028,0.4));
#667=DIRECTION('',(0.0,-1.0,0.0));
#668=DIRECTION('',(1.0,0.0,0.0));
#669=AXIS2_PLACEMENT_3D('',#666,#667,#668);
#670=PLANE('',#669);
#671=CARTESIAN_POINT('',(3.199999999999943,-1.625000000000028,0.75));
#672=VERTEX_POINT('',#671);
#673=CARTESIAN_POINT('',(-3.199999999999943,-1.625000000000028,0.75));
#674=VERTEX_POINT('',#673);
#675=CARTESIAN_POINT('',(3.199999999999943,-1.625000000000028,0.75));
#676=DIRECTION('',(-1.0,0.0,0.0));
#677=VECTOR('',#676,6.399999999999887);
#678=LINE('',#675,#677);
#679=EDGE_CURVE('',#672,#674,#678,.T.);
#680=ORIENTED_EDGE('',*,*,#679,.T.);
#681=CARTESIAN_POINT('',(-3.199999999999943,-1.625000000000028,0.05));
#682=VERTEX_POINT('',#681);
#683=CARTESIAN_POINT('',(-3.199999999999943,-1.625000000000028,0.75));
#684=DIRECTION('',(0.0,0.0,-1.0));
#685=VECTOR('',#684,0.7);
#686=LINE('',#683,#685);
#687=EDGE_CURVE('',#674,#682,#686,.T.);
#688=ORIENTED_EDGE('',*,*,#687,.T.);
#689=CARTESIAN_POINT('',(3.199999999999943,-1.625000000000028,0.05));
#690=VERTEX_POINT('',#689);
#691=CARTESIAN_POINT('',(3.199999999999943,-1.625000000000028,0.05));
#692=DIRECTION('',(-1.0,0.0,0.0));
#693=VECTOR('',#692,6.399999999999887);
#694=LINE('',#691,#693);
#695=EDGE_CURVE('',#690,#682,#694,.T.);
#696=ORIENTED_EDGE('',*,*,#695,.F.);
#697=CARTESIAN_POINT('',(3.199999999999943,-1.625000000000028,0.75));
#698=DIRECTION('',(0.0,0.0,-1.0));
#699=VECTOR('',#698,0.7);
#700=LINE('',#697,#699);
#701=EDGE_CURVE('',#672,#690,#700,.T.);
#702=ORIENTED_EDGE('',*,*,#701,.F.);
#703=EDGE_LOOP('',(#680,#688,#696,#702));
#704=FACE_OUTER_BOUND('',#703,.T.);
#705=ADVANCED_FACE('',(#704),#670,.T.);
#706=CARTESIAN_POINT('',(-3.199999999999943,1.624999999999972,0.05));
#707=CARTESIAN_POINT('',(-3.199999999999943,-1.625000000000028,0.05));
#708=CARTESIAN_POINT('',(3.199999999999943,1.624999999999972,0.05));
#709=CARTESIAN_POINT('',(3.199999999999943,-1.625000000000028,0.05));
#710=B_SPLINE_SURFACE_WITH_KNOTS('',1,1,((#706,#708),(#707,#709)),.UNSPECIFIED.,.F.,.F.,.U.,(2,2),(2,2),(0.0,3.249999999999999),(0.0,6.399999999999887),.UNSPECIFIED.);
#711=CARTESIAN_POINT('',(3.199999999999943,1.624999999999972,0.05));
#712=VERTEX_POINT('',#711);
#713=CARTESIAN_POINT('',(3.199999999999943,-1.625000000000028,0.05));
#714=DIRECTION('',(0.0,1.0,0.0));
#715=VECTOR('',#714,3.249999999999999);
#716=LINE('',#713,#715);
#717=EDGE_CURVE('',#690,#712,#716,.T.);
#718=ORIENTED_EDGE('',*,*,#717,.F.);
#719=ORIENTED_EDGE('',*,*,#695,.T.);
#720=CARTESIAN_POINT('',(-3.199999999999943,1.624999999999972,0.05));
#721=VERTEX_POINT('',#720);
#722=CARTESIAN_POINT('',(-3.199999999999943,-1.625000000000028,0.05));
#723=DIRECTION('',(0.0,1.0,0.0));
#724=VECTOR('',#723,3.249999999999999);
#725=LINE('',#722,#724);
#726=EDGE_CURVE('',#682,#721,#725,.T.);
#727=ORIENTED_EDGE('',*,*,#726,.T.);
#728=CARTESIAN_POINT('',(3.199999999999943,1.624999999999972,0.05));
#729=DIRECTION('',(-1.0,0.0,0.0));
#730=VECTOR('',#729,6.399999999999887);
#731=LINE('',#728,#730);
#732=EDGE_CURVE('',#712,#721,#731,.T.);
#733=ORIENTED_EDGE('',*,*,#732,.F.);
#734=EDGE_LOOP('',(#718,#719,#727,#733));
#735=FACE_OUTER_BOUND('',#734,.T.);
#736=ADVANCED_FACE('',(#735),#710,.F.);
#737=CARTESIAN_POINT('',(3.199999999999943,-1.625000000000028,0.75));
#738=CARTESIAN_POINT('',(3.199999999999943,1.624999999999972,0.75));
#739=CARTESIAN_POINT('',(3.199999999999943,-1.625000000000028,0.05));
#740=CARTESIAN_POINT('',(3.199999999999943,1.624999999999972,0.05));
#741=B_SPLINE_SURFACE_WITH_KNOTS('',1,1,((#737,#739),(#738,#740)),.UNSPECIFIED.,.F.,.F.,.U.,(2,2),(2,2),(0.0,3.249999999999999),(0.0,0.7),.UNSPECIFIED.);
#742=CARTESIAN_POINT('',(3.199999999999943,1.624999999999972,0.75));
#743=VERTEX_POINT('',#742);
#744=CARTESIAN_POINT('',(3.199999999999943,-1.625000000000028,0.75));
#745=DIRECTION('',(0.0,1.0,0.0));
#746=VECTOR('',#745,3.249999999999999);
#747=LINE('',#744,#746);
#748=EDGE_CURVE('',#672,#743,#747,.T.);
#749=ORIENTED_EDGE('',*,*,#748,.F.);
#750=ORIENTED_EDGE('',*,*,#701,.T.);
#751=ORIENTED_EDGE('',*,*,#717,.T.);
#752=CARTESIAN_POINT('',(3.199999999999943,1.624999999999972,0.05));
#753=DIRECTION('',(0.0,0.0,1.0));
#754=VECTOR('',#753,0.7);
#755=LINE('',#752,#754);
#756=EDGE_CURVE('',#712,#743,#755,.T.);
#757=ORIENTED_EDGE('',*,*,#756,.T.);
#758=EDGE_LOOP('',(#749,#750,#751,#757));
#759=FACE_OUTER_BOUND('',#758,.T.);
#760=ADVANCED_FACE('',(#759),#741,.F.);
#761=CARTESIAN_POINT('',(-3.199999999999943,-1.625000000000028,0.75));
#762=CARTESIAN_POINT('',(-3.199999999999943,1.624999999999972,0.75));
#763=CARTESIAN_POINT('',(3.199999999999943,-1.625000000000028,0.75));
#764=CARTESIAN_POINT('',(3.199999999999943,1.624999999999972,0.75));
#765=B_SPLINE_SURFACE_WITH_KNOTS('',1,1,((#761,#763),(#762,#764)),.UNSPECIFIED.,.F.,.F.,.U.,(2,2),(2,2),(0.0,3.249999999999999),(0.0,6.399999999999887),.UNSPECIFIED.);
#766=ORIENTED_EDGE('',*,*,#679,.F.);
#767=ORIENTED_EDGE('',*,*,#748,.T.);
#768=CARTESIAN_POINT('',(-3.199999999999943,1.624999999999972,0.75));
#769=VERTEX_POINT('',#768);
#770=CARTESIAN_POINT('',(-3.199999999999943,1.624999999999972,0.75));
#771=DIRECTION('',(1.0,0.0,0.0));
#772=VECTOR('',#771,6.399999999999887);
#773=LINE('',#770,#772);
#774=EDGE_CURVE('',#769,#743,#773,.T.);
#775=ORIENTED_EDGE('',*,*,#774,.F.);
#776=CARTESIAN_POINT('',(-3.199999999999943,-1.625000000000028,0.75));
#777=DIRECTION('',(0.0,1.0,0.0));
#778=VECTOR('',#777,3.249999999999999);
#779=LINE('',#776,#778);
#780=EDGE_CURVE('',#674,#769,#779,.T.);
#781=ORIENTED_EDGE('',*,*,#780,.F.);
#782=EDGE_LOOP('',(#766,#767,#775,#781));
#783=FACE_OUTER_BOUND('',#782,.T.);
#784=ADVANCED_FACE('',(#783),#765,.F.);
#785=CARTESIAN_POINT('',(-2.984999999999944,1.624999999999972,0.4));
#786=DIRECTION('',(0.0,-1.0,0.0));
#787=DIRECTION('',(1.0,0.0,0.0));
#788=AXIS2_PLACEMENT_3D('',#785,#786,#787);
#789=PLANE('',#788);
#790=ORIENTED_EDGE('',*,*,#774,.T.);
#791=ORIENTED_EDGE('',*,*,#756,.F.);
#792=ORIENTED_EDGE('',*,*,#732,.T.);
#793=CARTESIAN_POINT('',(-3.199999999999943,1.624999999999972,0.05));
#794=DIRECTION('',(0.0,0.0,1.0));
#795=VECTOR('',#794,0.7);
#796=LINE('',#793,#795);
#797=EDGE_CURVE('',#721,#769,#796,.T.);
#798=ORIENTED_EDGE('',*,*,#797,.T.);
#799=EDGE_LOOP('',(#790,#791,#792,#798));
#800=FACE_OUTER_BOUND('',#799,.T.);
#801=ADVANCED_FACE('',(#800),#789,.F.);
#802=CARTESIAN_POINT('',(-3.199999999999943,-2.797762E-014,0.4));
#803=DIRECTION('',(1.0,0.0,0.0));
#804=DIRECTION('',(0.0,1.0,0.0));
#805=AXIS2_PLACEMENT_3D('',#802,#803,#804);
#806=PLANE('',#805);
#807=ORIENTED_EDGE('',*,*,#780,.T.);
#808=ORIENTED_EDGE('',*,*,#797,.F.);
#809=ORIENTED_EDGE('',*,*,#726,.F.);
#810=ORIENTED_EDGE('',*,*,#687,.F.);
#811=EDGE_LOOP('',(#807,#808,#809,#810));
#812=FACE_OUTER_BOUND('',#811,.T.);
#813=ADVANCED_FACE('',(#812),#806,.F.);
#814=CLOSED_SHELL('',(#705,#736,#760,#784,#801,#813));
#815=MANIFOLD_SOLID_BREP('557',#814);
#816=COLOUR_RGB('254',0.866,0.866,0.866);
#817=SURFACE_STYLE_USAGE(.BOTH.,#818);
#818=SURFACE_SIDE_STYLE('NONE',(#819));
#819=SURFACE_STYLE_FILL_AREA(#820);
#820=FILL_AREA_STYLE('NONE',(#821));
#821=FILL_AREA_STYLE_COLOUR('NONE',#816);
#822=PRESENTATION_STYLE_ASSIGNMENT((#817));
#823=STYLED_ITEM('NONE',(#822),#815);
#824=CARTESIAN_POINT('',(-2.769999999999943,-1.625000000000028,0.75));
#825=DIRECTION('',(1.0,0.0,0.0));
#826=DIRECTION('',(0.0,0.0,-1.0));
#827=AXIS2_PLACEMENT_3D('',#824,#825,#826);
#828=PLANE('',#827);
#829=CARTESIAN_POINT('',(-2.769999999999943,1.624999999999972,0.75));
#830=VERTEX_POINT('',#829);
#831=CARTESIAN_POINT('',(-2.769999999999943,1.624999999999972,0.8));
#832=VERTEX_POINT('',#831);
#833=CARTESIAN_POINT('',(-2.769999999999943,1.624999999999972,0.75));
#834=DIRECTION('',(0.0,0.0,1.0));
#835=VECTOR('',#834,0.05);
#836=LINE('',#833,#835);
#837=EDGE_CURVE('',#830,#832,#836,.T.);
#838=ORIENTED_EDGE('',*,*,#837,.T.);
#839=CARTESIAN_POINT('',(-2.769999999999943,-1.625000000000028,0.8));
#840=VERTEX_POINT('',#839);
#841=CARTESIAN_POINT('',(-2.769999999999943,-1.625000000000028,0.8));
#842=DIRECTION('',(0.0,1.0,0.0));
#843=VECTOR('',#842,3.249999999999999);
#844=LINE('',#841,#843);
#845=EDGE_CURVE('',#840,#832,#844,.T.);
#846=ORIENTED_EDGE('',*,*,#845,.F.);
#847=CARTESIAN_POINT('',(-2.769999999999943,-1.625000000000028,0.75));
#848=VERTEX_POINT('',#847);
#849=CARTESIAN_POINT('',(-2.769999999999943,-1.625000000000028,0.8));
#850=DIRECTION('',(0.0,0.0,-1.0));
#851=VECTOR('',#850,0.05);
#852=LINE('',#849,#851);
#853=EDGE_CURVE('',#840,#848,#852,.T.);
#854=ORIENTED_EDGE('',*,*,#853,.T.);
#855=CARTESIAN_POINT('',(-2.769999999999943,-1.625000000000028,0.75));
#856=DIRECTION('',(0.0,1.0,0.0));
#857=VECTOR('',#856,3.249999999999999);
#858=LINE('',#855,#857);
#859=EDGE_CURVE('',#848,#830,#858,.T.);
#860=ORIENTED_EDGE('',*,*,#859,.T.);
#861=EDGE_LOOP('',(#838,#846,#854,#860));
#862=FACE_OUTER_BOUND('',#861,.T.);
#863=ADVANCED_FACE('',(#862),#828,.T.);
#864=CARTESIAN_POINT('',(-2.769999999999943,-1.625000000000028,0.8));
#865=DIRECTION('',(0.0,0.0,1.0));
#866=DIRECTION('',(1.0,0.0,0.0));
#867=AXIS2_PLACEMENT_3D('',#864,#865,#866);
#868=PLANE('',#867);
#869=CARTESIAN_POINT('',(-3.249999999999943,1.624999999999972,0.8));
#870=VERTEX_POINT('',#869);
#871=CARTESIAN_POINT('',(-2.769999999999943,1.624999999999972,0.8));
#872=DIRECTION('',(-1.0,0.0,0.0));
#873=VECTOR('',#872,0.48);
#874=LINE('',#871,#873);
#875=EDGE_CURVE('',#832,#870,#874,.T.);
#876=ORIENTED_EDGE('',*,*,#875,.T.);
#877=CARTESIAN_POINT('',(-3.249999999999943,-1.625000000000028,0.8));
#878=VERTEX_POINT('',#877);
#879=CARTESIAN_POINT('',(-3.249999999999943,-1.625000000000028,0.8));
#880=DIRECTION('',(0.0,1.0,0.0));
#881=VECTOR('',#880,3.249999999999999);
#882=LINE('',#879,#881);
#883=EDGE_CURVE('',#878,#870,#882,.T.);
#884=ORIENTED_EDGE('',*,*,#883,.F.);
#885=CARTESIAN_POINT('',(-3.249999999999943,-1.625000000000028,0.8));
#886=DIRECTION('',(1.0,0.0,0.0));
#887=VECTOR('',#886,0.48);
#888=LINE('',#885,#887);
#889=EDGE_CURVE('',#878,#840,#888,.T.);
#890=ORIENTED_EDGE('',*,*,#889,.T.);
#891=ORIENTED_EDGE('',*,*,#845,.T.);
#892=EDGE_LOOP('',(#876,#884,#890,#891));
#893=FACE_OUTER_BOUND('',#892,.T.);
#894=ADVANCED_FACE('',(#893),#868,.T.);
#895=CARTESIAN_POINT('',(-3.249999999999943,-1.625000000000028,0.8));
#896=DIRECTION('',(-1.0,0.0,0.0));
#897=DIRECTION('',(0.0,0.0,1.0));
#898=AXIS2_PLACEMENT_3D('',#895,#896,#897);
#899=PLANE('',#898);
#900=CARTESIAN_POINT('',(-3.249999999999943,1.624999999999972,0.0));
#901=VERTEX_POINT('',#900);
#902=CARTESIAN_POINT('',(-3.249999999999943,1.624999999999972,0.8));
#903=DIRECTION('',(0.0,0.0,-1.0));
#904=VECTOR('',#903,0.8);
#905=LINE('',#902,#904);
#906=EDGE_CURVE('',#870,#901,#905,.T.);
#907=ORIENTED_EDGE('',*,*,#906,.T.);
#908=CARTESIAN_POINT('',(-3.249999999999943,-1.625000000000028,0.0));
#909=VERTEX_POINT('',#908);
#910=CARTESIAN_POINT('',(-3.249999999999943,-1.625000000000028,0.0));
#911=DIRECTION('',(0.0,1.0,0.0));
#912=VECTOR('',#911,3.249999999999999);
#913=LINE('',#910,#912);
#914=EDGE_CURVE('',#909,#901,#913,.T.);
#915=ORIENTED_EDGE('',*,*,#914,.F.);
#916=CARTESIAN_POINT('',(-3.249999999999943,-1.625000000000028,0.0));
#917=DIRECTION('',(0.0,0.0,1.0));
#918=VECTOR('',#917,0.8);
#919=LINE('',#916,#918);
#920=EDGE_CURVE('',#909,#878,#919,.T.);
#921=ORIENTED_EDGE('',*,*,#920,.T.);
#922=ORIENTED_EDGE('',*,*,#883,.T.);
#923=EDGE_LOOP('',(#907,#915,#921,#922));
#924=FACE_OUTER_BOUND('',#923,.T.);
#925=ADVANCED_FACE('',(#924),#899,.T.);
#926=CARTESIAN_POINT('',(-3.249999999999943,-1.625000000000028,0.0));
#927=DIRECTION('',(0.0,0.0,-1.0));
#928=DIRECTION('',(-1.0,0.0,0.0));
#929=AXIS2_PLACEMENT_3D('',#926,#927,#928);
#930=PLANE('',#929);
#931=CARTESIAN_POINT('',(-2.769999999999943,1.624999999999972,0.0));
#932=VERTEX_POINT('',#931);
#933=CARTESIAN_POINT('',(-3.249999999999943,1.624999999999972,0.0));
#934=DIRECTION('',(1.0,0.0,0.0));
#935=VECTOR('',#934,0.48);
#936=LINE('',#933,#935);
#937=EDGE_CURVE('',#901,#932,#936,.T.);
#938=ORIENTED_EDGE('',*,*,#937,.T.);
#939=CARTESIAN_POINT('',(-2.769999999999943,-1.625000000000028,0.0));
#940=VERTEX_POINT('',#939);
#941=CARTESIAN_POINT('',(-2.769999999999943,-1.625000000000028,0.0));
#942=DIRECTION('',(0.0,1.0,0.0));
#943=VECTOR('',#942,3.249999999999999);
#944=LINE('',#941,#943);
#945=EDGE_CURVE('',#940,#932,#944,.T.);
#946=ORIENTED_EDGE('',*,*,#945,.F.);
#947=CARTESIAN_POINT('',(-2.769999999999943,-1.625000000000028,0.0));
#948=DIRECTION('',(-1.0,0.0,0.0));
#949=VECTOR('',#948,0.48);
#950=LINE('',#947,#949);
#951=EDGE_CURVE('',#940,#909,#950,.T.);
#952=ORIENTED_EDGE('',*,*,#951,.T.);
#953=ORIENTED_EDGE('',*,*,#914,.T.);
#954=EDGE_LOOP('',(#938,#946,#952,#953));
#955=FACE_OUTER_BOUND('',#954,.T.);
#956=ADVANCED_FACE('',(#955),#930,.T.);
#957=CARTESIAN_POINT('',(-2.769999999999943,-1.625000000000028,0.0));
#958=DIRECTION('',(1.0,0.0,0.0));
#959=DIRECTION('',(0.0,0.0,-1.0));
#960=AXIS2_PLACEMENT_3D('',#957,#958,#959);
#961=PLANE('',#960);
#962=CARTESIAN_POINT('',(-2.769999999999944,1.624999999999972,0.05));
#963=VERTEX_POINT('',#962);
#964=CARTESIAN_POINT('',(-2.769999999999943,1.624999999999972,0.0));
#965=DIRECTION('',(0.0,0.0,1.0));
#966=VECTOR('',#965,0.05);
#967=LINE('',#964,#966);
#968=EDGE_CURVE('',#932,#963,#967,.T.);
#969=ORIENTED_EDGE('',*,*,#968,.T.);
#970=CARTESIAN_POINT('',(-2.769999999999944,-1.625000000000028,0.05));
#971=VERTEX_POINT('',#970);
#972=CARTESIAN_POINT('',(-2.769999999999944,-1.625000000000028,0.05));
#973=DIRECTION('',(0.0,1.0,0.0));
#974=VECTOR('',#973,3.249999999999999);
#975=LINE('',#972,#974);
#976=EDGE_CURVE('',#971,#963,#975,.T.);
#977=ORIENTED_EDGE('',*,*,#976,.F.);
#978=CARTESIAN_POINT('',(-2.769999999999944,-1.625000000000028,0.05));
#979=DIRECTION('',(0.0,0.0,-1.0));
#980=VECTOR('',#979,0.05);
#981=LINE('',#978,#980);
#982=EDGE_CURVE('',#971,#940,#981,.T.);
#983=ORIENTED_EDGE('',*,*,#982,.T.);
#984=ORIENTED_EDGE('',*,*,#945,.T.);
#985=EDGE_LOOP('',(#969,#977,#983,#984));
#986=FACE_OUTER_BOUND('',#985,.T.);
#987=ADVANCED_FACE('',(#986),#961,.T.);
#988=CARTESIAN_POINT('',(-2.769999999999944,-1.625000000000028,0.05));
#989=DIRECTION('',(0.0,0.0,1.0));
#990=DIRECTION('',(1.0,0.0,0.0));
#991=AXIS2_PLACEMENT_3D('',#988,#989,#990);
#992=PLANE('',#991);
#993=CARTESIAN_POINT('',(-3.199999999999943,1.624999999999972,0.05));
#994=VERTEX_POINT('',#993);
#995=CARTESIAN_POINT('',(-2.769999999999944,1.624999999999972,0.05));
#996=DIRECTION('',(-1.0,0.0,0.0));
#997=VECTOR('',#996,0.43);
#998=LINE('',#995,#997);
#999=EDGE_CURVE('',#963,#994,#998,.T.);
#1000=ORIENTED_EDGE('',*,*,#999,.T.);
#1001=CARTESIAN_POINT('',(-3.199999999999943,-1.625000000000028,0.05));
#1002=VERTEX_POINT('',#1001);
#1003=CARTESIAN_POINT('',(-3.199999999999943,-1.625000000000028,0.05));
#1004=DIRECTION('',(0.0,1.0,0.0));
#1005=VECTOR('',#1004,3.249999999999999);
#1006=LINE('',#1003,#1005);
#1007=EDGE_CURVE('',#1002,#994,#1006,.T.);
#1008=ORIENTED_EDGE('',*,*,#1007,.F.);
#1009=CARTESIAN_POINT('',(-3.199999999999943,-1.625000000000028,0.05));
#1010=DIRECTION('',(1.0,0.0,0.0));
#1011=VECTOR('',#1010,0.43);
#1012=LINE('',#1009,#1011);
#1013=EDGE_CURVE('',#1002,#971,#1012,.T.);
#1014=ORIENTED_EDGE('',*,*,#1013,.T.);
#1015=ORIENTED_EDGE('',*,*,#976,.T.);
#1016=EDGE_LOOP('',(#1000,#1008,#1014,#1015));
#1017=FACE_OUTER_BOUND('',#1016,.T.);
#1018=ADVANCED_FACE('',(#1017),#992,.T.);
#1019=CARTESIAN_POINT('',(-3.199999999999943,-1.625000000000028,0.05));
#1020=DIRECTION('',(1.0,0.0,0.0));
#1021=DIRECTION('',(0.0,0.0,-1.0));
#1022=AXIS2_PLACEMENT_3D('',#1019,#1020,#1021);
#1023=PLANE('',#1022);
#1024=CARTESIAN_POINT('',(-3.199999999999943,1.624999999999972,0.75));
#1025=VERTEX_POINT('',#1024);
#1026=CARTESIAN_POINT('',(-3.199999999999943,1.624999999999972,0.05));
#1027=DIRECTION('',(0.0,0.0,1.0));
#1028=VECTOR('',#1027,0.7);
#1029=LINE('',#1026,#1028);
#1030=EDGE_CURVE('',#994,#1025,#1029,.T.);
#1031=ORIENTED_EDGE('',*,*,#1030,.T.);
#1032=CARTESIAN_POINT('',(-3.199999999999943,-1.625000000000028,0.75));
#1033=VERTEX_POINT('',#1032);
#1034=CARTESIAN_POINT('',(-3.199999999999943,-1.625000000000028,0.75));
#1035=DIRECTION('',(0.0,1.0,0.0));
#1036=VECTOR('',#1035,3.249999999999999);
#1037=LINE('',#1034,#1036);
#1038=EDGE_CURVE('',#1033,#1025,#1037,.T.);
#1039=ORIENTED_EDGE('',*,*,#1038,.F.);
#1040=CARTESIAN_POINT('',(-3.199999999999943,-1.625000000000028,0.75));
#1041=DIRECTION('',(0.0,0.0,-1.0));
#1042=VECTOR('',#1041,0.7);
#1043=LINE('',#1040,#1042);
#1044=EDGE_CURVE('',#1033,#1002,#1043,.T.);
#1045=ORIENTED_EDGE('',*,*,#1044,.T.);
#1046=ORIENTED_EDGE('',*,*,#1007,.T.);
#1047=EDGE_LOOP('',(#1031,#1039,#1045,#1046));
#1048=FACE_OUTER_BOUND('',#1047,.T.);
#1049=ADVANCED_FACE('',(#1048),#1023,.T.);
#1050=CARTESIAN_POINT('',(-3.199999999999943,-1.625000000000028,0.75));
#1051=DIRECTION('',(0.0,0.0,-1.0));
#1052=DIRECTION('',(-1.0,0.0,0.0));
#1053=AXIS2_PLACEMENT_3D('',#1050,#1051,#1052);
#1054=PLANE('',#1053);
#1055=CARTESIAN_POINT('',(-3.199999999999943,1.624999999999972,0.75));
#1056=DIRECTION('',(1.0,0.0,0.0));
#1057=VECTOR('',#1056,0.43);
#1058=LINE('',#1055,#1057);
#1059=EDGE_CURVE('',#1025,#830,#1058,.T.);
#1060=ORIENTED_EDGE('',*,*,#1059,.T.);
#1061=ORIENTED_EDGE('',*,*,#859,.F.);
#1062=CARTESIAN_POINT('',(-2.769999999999943,-1.625000000000028,0.75));
#1063=DIRECTION('',(-1.0,0.0,0.0));
#1064=VECTOR('',#1063,0.43);
#1065=LINE('',#1062,#1064);
#1066=EDGE_CURVE('',#848,#1033,#1065,.T.);
#1067=ORIENTED_EDGE('',*,*,#1066,.T.);
#1068=ORIENTED_EDGE('',*,*,#1038,.T.);
#1069=EDGE_LOOP('',(#1060,#1061,#1067,#1068));
#1070=FACE_OUTER_BOUND('',#1069,.T.);
#1071=ADVANCED_FACE('',(#1070),#1054,.T.);
#1072=CARTESIAN_POINT('',(-3.091725146198774,-1.625000000000028,0.4));
#1073=DIRECTION('',(0.0,1.0,0.0));
#1074=DIRECTION('',(0.0,0.0,1.0));
#1075=AXIS2_PLACEMENT_3D('',#1072,#1073,#1074);
#1076=PLANE('',#1075);
#1077=ORIENTED_EDGE('',*,*,#1066,.F.);
#1078=ORIENTED_EDGE('',*,*,#853,.F.);
#1079=ORIENTED_EDGE('',*,*,#889,.F.);
#1080=ORIENTED_EDGE('',*,*,#920,.F.);
#1081=ORIENTED_EDGE('',*,*,#951,.F.);
#1082=ORIENTED_EDGE('',*,*,#982,.F.);
#1083=ORIENTED_EDGE('',*,*,#1013,.F.);
#1084=ORIENTED_EDGE('',*,*,#1044,.F.);
#1085=EDGE_LOOP('',(#1077,#1078,#1079,#1080,#1081,#1082,#1083,#1084));
#1086=FACE_OUTER_BOUND('',#1085,.T.);
#1087=ADVANCED_FACE('',(#1086),#1076,.F.);
#1088=CARTESIAN_POINT('',(-3.091725146198773,1.624999999999971,0.4));
#1089=DIRECTION('',(0.0,1.0,0.0));
#1090=DIRECTION('',(0.0,0.0,1.0));
#1091=AXIS2_PLACEMENT_3D('',#1088,#1089,#1090);
#1092=PLANE('',#1091);
#1093=ORIENTED_EDGE('',*,*,#837,.F.);
#1094=ORIENTED_EDGE('',*,*,#1059,.F.);
#1095=ORIENTED_EDGE('',*,*,#1030,.F.);
#1096=ORIENTED_EDGE('',*,*,#999,.F.);
#1097=ORIENTED_EDGE('',*,*,#968,.F.);
#1098=ORIENTED_EDGE('',*,*,#937,.F.);
#1099=ORIENTED_EDGE('',*,*,#906,.F.);
#1100=ORIENTED_EDGE('',*,*,#875,.F.);
#1101=EDGE_LOOP('',(#1093,#1094,#1095,#1096,#1097,#1098,#1099,#1100));
#1102=FACE_OUTER_BOUND('',#1101,.T.);
#1103=ADVANCED_FACE('',(#1102),#1092,.T.);
#1104=CLOSED_SHELL('',(#863,#894,#925,#956,#987,#1018,#1049,#1071,#1087,#1103));
#1105=MANIFOLD_SOLID_BREP('553',#1104);
#1106=STYLED_ITEM('NONE',(#664),#1105);
#1107=ADVANCED_BREP_SHAPE_REPRESENTATION('ABSR1',(#214,#374,#657,#815,#1105),#28);
#1108=SHAPE_REPRESENTATION_RELATIONSHIP('SRRPL1','',#1107,#62);
ENDSEC;
END-ISO-10303-21;
