ISO-10303-21;
HEADER;
/* Generated by software containing ST-Developer
 * from STEP Tools, Inc. (www.steptools.com) 
 */

FILE_DESCRIPTION(
/* description */ (''),
/* implementation_level */ '2;1');

FILE_NAME(
/* name */ 'G:\\Applications\\Altium\\CernLib\\StepLib\\RESC2550X75N.s
tp',
/* time_stamp */ '2017-09-15T10:25:12+02:00',
/* author */ ('riccim'),
/* organization */ ('SolidWorks'),
/* preprocessor_version */ 'ST-DEVELOPER v16.5',
/* originating_system */ 'AutoCAD Mechanical',
/* authorisation */ ' ');

FILE_SCHEMA (('AUTOMOTIVE_DESIGN { 1 0 10303 214 3 1 1 }'));
ENDSEC;

DATA;
#10=MECHANICAL_DESIGN_GEOMETRIC_PRESENTATION_REPRESENTATION('',(#17,#18,
#19),#873);
#11=DIMENSIONAL_EXPONENTS(0.,0.,0.,0.,0.,0.,0.);
#12=(
CONVERSION_BASED_UNIT('degree',#13)
NAMED_UNIT(#11)
PLANE_ANGLE_UNIT()
);
#13=PLANE_ANGLE_MEASURE_WITH_UNIT(PLANE_ANGLE_MEASURE(0.01745329252),#876);
#14=PRESENTATION_LAYER_ASSIGNMENT('1','3D',(#20,#21,#22));
#15=SHAPE_REPRESENTATION_RELATIONSHIP('SRR','None',#879,#16);
#16=ADVANCED_BREP_SHAPE_REPRESENTATION('',(#20,#21,#22),#872);
#17=STYLED_ITEM('',(#889),#20);
#18=STYLED_ITEM('',(#890),#21);
#19=STYLED_ITEM('',(#890),#22);
#20=MANIFOLD_SOLID_BREP('1B3F',#551);
#21=MANIFOLD_SOLID_BREP('1B59',#552);
#22=MANIFOLD_SOLID_BREP('1B6D',#553);
#23=FACE_OUTER_BOUND('',#53,.T.);
#24=FACE_OUTER_BOUND('',#54,.T.);
#25=FACE_OUTER_BOUND('',#55,.T.);
#26=FACE_OUTER_BOUND('',#56,.T.);
#27=FACE_OUTER_BOUND('',#57,.T.);
#28=FACE_OUTER_BOUND('',#58,.T.);
#29=FACE_OUTER_BOUND('',#59,.T.);
#30=FACE_OUTER_BOUND('',#60,.T.);
#31=FACE_OUTER_BOUND('',#61,.T.);
#32=FACE_OUTER_BOUND('',#62,.T.);
#33=FACE_OUTER_BOUND('',#63,.T.);
#34=FACE_OUTER_BOUND('',#64,.T.);
#35=FACE_OUTER_BOUND('',#65,.T.);
#36=FACE_OUTER_BOUND('',#66,.T.);
#37=FACE_OUTER_BOUND('',#67,.T.);
#38=FACE_OUTER_BOUND('',#68,.T.);
#39=FACE_OUTER_BOUND('',#69,.T.);
#40=FACE_OUTER_BOUND('',#70,.T.);
#41=FACE_OUTER_BOUND('',#71,.T.);
#42=FACE_OUTER_BOUND('',#72,.T.);
#43=FACE_OUTER_BOUND('',#73,.T.);
#44=FACE_OUTER_BOUND('',#74,.T.);
#45=FACE_OUTER_BOUND('',#75,.T.);
#46=FACE_OUTER_BOUND('',#76,.T.);
#47=FACE_OUTER_BOUND('',#77,.T.);
#48=FACE_OUTER_BOUND('',#78,.T.);
#49=FACE_OUTER_BOUND('',#79,.T.);
#50=FACE_OUTER_BOUND('',#80,.T.);
#51=FACE_OUTER_BOUND('',#81,.T.);
#52=FACE_OUTER_BOUND('',#82,.T.);
#53=EDGE_LOOP('',(#347,#348,#349,#350));
#54=EDGE_LOOP('',(#351,#352,#353,#354));
#55=EDGE_LOOP('',(#355,#356,#357,#358));
#56=EDGE_LOOP('',(#359,#360,#361,#362));
#57=EDGE_LOOP('',(#363,#364,#365,#366,#367,#368,#369,#370));
#58=EDGE_LOOP('',(#371,#372,#373,#374));
#59=EDGE_LOOP('',(#375,#376,#377,#378));
#60=EDGE_LOOP('',(#379,#380,#381,#382,#383,#384,#385,#386));
#61=EDGE_LOOP('',(#387,#388,#389,#390));
#62=EDGE_LOOP('',(#391,#392,#393,#394));
#63=EDGE_LOOP('',(#395,#396,#397,#398));
#64=EDGE_LOOP('',(#399,#400,#401,#402));
#65=EDGE_LOOP('',(#403,#404,#405,#406));
#66=EDGE_LOOP('',(#407,#408,#409,#410));
#67=EDGE_LOOP('',(#411,#412,#413,#414));
#68=EDGE_LOOP('',(#415,#416,#417,#418,#419,#420,#421,#422));
#69=EDGE_LOOP('',(#423,#424,#425,#426));
#70=EDGE_LOOP('',(#427,#428,#429,#430,#431,#432,#433,#434));
#71=EDGE_LOOP('',(#435,#436,#437,#438));
#72=EDGE_LOOP('',(#439,#440,#441,#442));
#73=EDGE_LOOP('',(#443,#444,#445,#446));
#74=EDGE_LOOP('',(#447,#448,#449,#450));
#75=EDGE_LOOP('',(#451,#452,#453,#454));
#76=EDGE_LOOP('',(#455,#456,#457,#458));
#77=EDGE_LOOP('',(#459,#460,#461,#462,#463,#464,#465,#466));
#78=EDGE_LOOP('',(#467,#468,#469,#470));
#79=EDGE_LOOP('',(#471,#472,#473,#474,#475,#476,#477,#478));
#80=EDGE_LOOP('',(#479,#480,#481,#482));
#81=EDGE_LOOP('',(#483,#484,#485,#486));
#82=EDGE_LOOP('',(#487,#488,#489,#490));
#83=LINE('',#723,#155);
#84=LINE('',#725,#156);
#85=LINE('',#727,#157);
#86=LINE('',#728,#158);
#87=LINE('',#731,#159);
#88=LINE('',#733,#160);
#89=LINE('',#734,#161);
#90=LINE('',#738,#162);
#91=LINE('',#740,#163);
#92=LINE('',#742,#164);
#93=LINE('',#743,#165);
#94=LINE('',#746,#166);
#95=LINE('',#748,#167);
#96=LINE('',#749,#168);
#97=LINE('',#751,#169);
#98=LINE('',#753,#170);
#99=LINE('',#755,#171);
#100=LINE('',#756,#172);
#101=LINE('',#759,#173);
#102=LINE('',#760,#174);
#103=LINE('',#762,#175);
#104=LINE('',#765,#176);
#105=LINE('',#766,#177);
#106=LINE('',#768,#178);
#107=LINE('',#773,#179);
#108=LINE('',#775,#180);
#109=LINE('',#777,#181);
#110=LINE('',#778,#182);
#111=LINE('',#782,#183);
#112=LINE('',#783,#184);
#113=LINE('',#784,#185);
#114=LINE('',#788,#186);
#115=LINE('',#789,#187);
#116=LINE('',#790,#188);
#117=LINE('',#793,#189);
#118=LINE('',#795,#190);
#119=LINE('',#796,#191);
#120=LINE('',#799,#192);
#121=LINE('',#801,#193);
#122=LINE('',#802,#194);
#123=LINE('',#806,#195);
#124=LINE('',#807,#196);
#125=LINE('',#808,#197);
#126=LINE('',#811,#198);
#127=LINE('',#812,#199);
#128=LINE('',#815,#200);
#129=LINE('',#816,#201);
#130=LINE('',#818,#202);
#131=LINE('',#823,#203);
#132=LINE('',#825,#204);
#133=LINE('',#827,#205);
#134=LINE('',#828,#206);
#135=LINE('',#832,#207);
#136=LINE('',#833,#208);
#137=LINE('',#834,#209);
#138=LINE('',#837,#210);
#139=LINE('',#839,#211);
#140=LINE('',#840,#212);
#141=LINE('',#843,#213);
#142=LINE('',#845,#214);
#143=LINE('',#846,#215);
#144=LINE('',#849,#216);
#145=LINE('',#851,#217);
#146=LINE('',#853,#218);
#147=LINE('',#854,#219);
#148=LINE('',#857,#220);
#149=LINE('',#859,#221);
#150=LINE('',#860,#222);
#151=LINE('',#862,#223);
#152=LINE('',#864,#224);
#153=LINE('',#865,#225);
#154=LINE('',#867,#226);
#155=VECTOR('',#589,1.);
#156=VECTOR('',#590,1.);
#157=VECTOR('',#591,1.);
#158=VECTOR('',#592,1.);
#159=VECTOR('',#595,1.);
#160=VECTOR('',#596,1.);
#161=VECTOR('',#597,1.);
#162=VECTOR('',#600,1.);
#163=VECTOR('',#601,1.);
#164=VECTOR('',#602,1.);
#165=VECTOR('',#603,1.);
#166=VECTOR('',#606,1.);
#167=VECTOR('',#607,1.);
#168=VECTOR('',#608,1.);
#169=VECTOR('',#611,1.);
#170=VECTOR('',#612,1.);
#171=VECTOR('',#613,1.);
#172=VECTOR('',#614,1.);
#173=VECTOR('',#617,1.);
#174=VECTOR('',#618,1.);
#175=VECTOR('',#621,1.);
#176=VECTOR('',#624,1.);
#177=VECTOR('',#625,1.);
#178=VECTOR('',#628,1.);
#179=VECTOR('',#633,1.);
#180=VECTOR('',#634,1.);
#181=VECTOR('',#635,1.);
#182=VECTOR('',#636,1.);
#183=VECTOR('',#639,1.);
#184=VECTOR('',#640,1.);
#185=VECTOR('',#641,1.);
#186=VECTOR('',#644,1.);
#187=VECTOR('',#645,1.);
#188=VECTOR('',#646,1.);
#189=VECTOR('',#649,1.);
#190=VECTOR('',#650,1.);
#191=VECTOR('',#651,1.);
#192=VECTOR('',#654,1.);
#193=VECTOR('',#655,1.);
#194=VECTOR('',#656,1.);
#195=VECTOR('',#659,1.);
#196=VECTOR('',#660,1.);
#197=VECTOR('',#661,1.);
#198=VECTOR('',#664,1.);
#199=VECTOR('',#665,1.);
#200=VECTOR('',#668,1.);
#201=VECTOR('',#669,1.);
#202=VECTOR('',#672,1.);
#203=VECTOR('',#677,1.);
#204=VECTOR('',#678,1.);
#205=VECTOR('',#679,1.);
#206=VECTOR('',#680,1.);
#207=VECTOR('',#683,1.);
#208=VECTOR('',#684,1.);
#209=VECTOR('',#685,1.);
#210=VECTOR('',#688,1.);
#211=VECTOR('',#689,1.);
#212=VECTOR('',#690,1.);
#213=VECTOR('',#693,1.);
#214=VECTOR('',#694,1.);
#215=VECTOR('',#695,1.);
#216=VECTOR('',#698,1.);
#217=VECTOR('',#699,1.);
#218=VECTOR('',#700,1.);
#219=VECTOR('',#701,1.);
#220=VECTOR('',#704,1.);
#221=VECTOR('',#705,1.);
#222=VECTOR('',#706,1.);
#223=VECTOR('',#709,1.);
#224=VECTOR('',#710,1.);
#225=VECTOR('',#711,1.);
#226=VECTOR('',#714,1.);
#227=VERTEX_POINT('',#721);
#228=VERTEX_POINT('',#722);
#229=VERTEX_POINT('',#724);
#230=VERTEX_POINT('',#726);
#231=VERTEX_POINT('',#730);
#232=VERTEX_POINT('',#732);
#233=VERTEX_POINT('',#736);
#234=VERTEX_POINT('',#737);
#235=VERTEX_POINT('',#739);
#236=VERTEX_POINT('',#741);
#237=VERTEX_POINT('',#745);
#238=VERTEX_POINT('',#747);
#239=VERTEX_POINT('',#752);
#240=VERTEX_POINT('',#754);
#241=VERTEX_POINT('',#758);
#242=VERTEX_POINT('',#764);
#243=VERTEX_POINT('',#771);
#244=VERTEX_POINT('',#772);
#245=VERTEX_POINT('',#774);
#246=VERTEX_POINT('',#776);
#247=VERTEX_POINT('',#780);
#248=VERTEX_POINT('',#781);
#249=VERTEX_POINT('',#786);
#250=VERTEX_POINT('',#787);
#251=VERTEX_POINT('',#792);
#252=VERTEX_POINT('',#794);
#253=VERTEX_POINT('',#798);
#254=VERTEX_POINT('',#800);
#255=VERTEX_POINT('',#804);
#256=VERTEX_POINT('',#805);
#257=VERTEX_POINT('',#810);
#258=VERTEX_POINT('',#814);
#259=VERTEX_POINT('',#821);
#260=VERTEX_POINT('',#822);
#261=VERTEX_POINT('',#824);
#262=VERTEX_POINT('',#826);
#263=VERTEX_POINT('',#830);
#264=VERTEX_POINT('',#831);
#265=VERTEX_POINT('',#836);
#266=VERTEX_POINT('',#838);
#267=VERTEX_POINT('',#842);
#268=VERTEX_POINT('',#844);
#269=VERTEX_POINT('',#848);
#270=VERTEX_POINT('',#850);
#271=VERTEX_POINT('',#852);
#272=VERTEX_POINT('',#856);
#273=VERTEX_POINT('',#858);
#274=VERTEX_POINT('',#863);
#275=EDGE_CURVE('',#227,#228,#83,.T.);
#276=EDGE_CURVE('',#229,#227,#84,.T.);
#277=EDGE_CURVE('',#230,#229,#85,.T.);
#278=EDGE_CURVE('',#228,#230,#86,.T.);
#279=EDGE_CURVE('',#228,#231,#87,.T.);
#280=EDGE_CURVE('',#232,#230,#88,.T.);
#281=EDGE_CURVE('',#231,#232,#89,.T.);
#282=EDGE_CURVE('',#233,#234,#90,.T.);
#283=EDGE_CURVE('',#233,#235,#91,.T.);
#284=EDGE_CURVE('',#236,#235,#92,.T.);
#285=EDGE_CURVE('',#234,#236,#93,.T.);
#286=EDGE_CURVE('',#237,#233,#94,.T.);
#287=EDGE_CURVE('',#238,#237,#95,.T.);
#288=EDGE_CURVE('',#235,#238,#96,.T.);
#289=EDGE_CURVE('',#236,#229,#97,.T.);
#290=EDGE_CURVE('',#239,#238,#98,.T.);
#291=EDGE_CURVE('',#240,#239,#99,.T.);
#292=EDGE_CURVE('',#240,#232,#100,.T.);
#293=EDGE_CURVE('',#241,#237,#101,.T.);
#294=EDGE_CURVE('',#239,#241,#102,.T.);
#295=EDGE_CURVE('',#227,#234,#103,.T.);
#296=EDGE_CURVE('',#242,#231,#104,.T.);
#297=EDGE_CURVE('',#241,#242,#105,.T.);
#298=EDGE_CURVE('',#242,#240,#106,.T.);
#299=EDGE_CURVE('',#243,#244,#107,.T.);
#300=EDGE_CURVE('',#244,#245,#108,.T.);
#301=EDGE_CURVE('',#246,#245,#109,.T.);
#302=EDGE_CURVE('',#243,#246,#110,.T.);
#303=EDGE_CURVE('',#247,#248,#111,.T.);
#304=EDGE_CURVE('',#248,#246,#112,.T.);
#305=EDGE_CURVE('',#245,#247,#113,.T.);
#306=EDGE_CURVE('',#249,#250,#114,.T.);
#307=EDGE_CURVE('',#244,#250,#115,.T.);
#308=EDGE_CURVE('',#249,#243,#116,.T.);
#309=EDGE_CURVE('',#249,#251,#117,.T.);
#310=EDGE_CURVE('',#252,#251,#118,.T.);
#311=EDGE_CURVE('',#250,#252,#119,.T.);
#312=EDGE_CURVE('',#251,#253,#120,.T.);
#313=EDGE_CURVE('',#253,#254,#121,.T.);
#314=EDGE_CURVE('',#254,#252,#122,.T.);
#315=EDGE_CURVE('',#255,#256,#123,.T.);
#316=EDGE_CURVE('',#256,#253,#124,.T.);
#317=EDGE_CURVE('',#255,#248,#125,.T.);
#318=EDGE_CURVE('',#257,#255,#126,.T.);
#319=EDGE_CURVE('',#257,#247,#127,.T.);
#320=EDGE_CURVE('',#258,#257,#128,.T.);
#321=EDGE_CURVE('',#258,#254,#129,.T.);
#322=EDGE_CURVE('',#256,#258,#130,.T.);
#323=EDGE_CURVE('',#259,#260,#131,.T.);
#324=EDGE_CURVE('',#260,#261,#132,.T.);
#325=EDGE_CURVE('',#261,#262,#133,.T.);
#326=EDGE_CURVE('',#262,#259,#134,.T.);
#327=EDGE_CURVE('',#263,#264,#135,.T.);
#328=EDGE_CURVE('',#263,#262,#136,.T.);
#329=EDGE_CURVE('',#264,#261,#137,.T.);
#330=EDGE_CURVE('',#264,#265,#138,.T.);
#331=EDGE_CURVE('',#265,#266,#139,.T.);
#332=EDGE_CURVE('',#266,#263,#140,.T.);
#333=EDGE_CURVE('',#267,#259,#141,.T.);
#334=EDGE_CURVE('',#268,#267,#142,.T.);
#335=EDGE_CURVE('',#268,#260,#143,.T.);
#336=EDGE_CURVE('',#266,#269,#144,.T.);
#337=EDGE_CURVE('',#270,#269,#145,.T.);
#338=EDGE_CURVE('',#271,#270,#146,.T.);
#339=EDGE_CURVE('',#267,#271,#147,.T.);
#340=EDGE_CURVE('',#271,#272,#148,.T.);
#341=EDGE_CURVE('',#273,#270,#149,.T.);
#342=EDGE_CURVE('',#272,#273,#150,.T.);
#343=EDGE_CURVE('',#272,#268,#151,.T.);
#344=EDGE_CURVE('',#274,#273,#152,.T.);
#345=EDGE_CURVE('',#265,#274,#153,.T.);
#346=EDGE_CURVE('',#269,#274,#154,.T.);
#347=ORIENTED_EDGE('',*,*,#275,.F.);
#348=ORIENTED_EDGE('',*,*,#276,.F.);
#349=ORIENTED_EDGE('',*,*,#277,.F.);
#350=ORIENTED_EDGE('',*,*,#278,.F.);
#351=ORIENTED_EDGE('',*,*,#279,.F.);
#352=ORIENTED_EDGE('',*,*,#278,.T.);
#353=ORIENTED_EDGE('',*,*,#280,.F.);
#354=ORIENTED_EDGE('',*,*,#281,.F.);
#355=ORIENTED_EDGE('',*,*,#282,.F.);
#356=ORIENTED_EDGE('',*,*,#283,.T.);
#357=ORIENTED_EDGE('',*,*,#284,.F.);
#358=ORIENTED_EDGE('',*,*,#285,.F.);
#359=ORIENTED_EDGE('',*,*,#286,.F.);
#360=ORIENTED_EDGE('',*,*,#287,.F.);
#361=ORIENTED_EDGE('',*,*,#288,.F.);
#362=ORIENTED_EDGE('',*,*,#283,.F.);
#363=ORIENTED_EDGE('',*,*,#280,.T.);
#364=ORIENTED_EDGE('',*,*,#277,.T.);
#365=ORIENTED_EDGE('',*,*,#289,.F.);
#366=ORIENTED_EDGE('',*,*,#284,.T.);
#367=ORIENTED_EDGE('',*,*,#288,.T.);
#368=ORIENTED_EDGE('',*,*,#290,.F.);
#369=ORIENTED_EDGE('',*,*,#291,.F.);
#370=ORIENTED_EDGE('',*,*,#292,.T.);
#371=ORIENTED_EDGE('',*,*,#287,.T.);
#372=ORIENTED_EDGE('',*,*,#293,.F.);
#373=ORIENTED_EDGE('',*,*,#294,.F.);
#374=ORIENTED_EDGE('',*,*,#290,.T.);
#375=ORIENTED_EDGE('',*,*,#276,.T.);
#376=ORIENTED_EDGE('',*,*,#295,.T.);
#377=ORIENTED_EDGE('',*,*,#285,.T.);
#378=ORIENTED_EDGE('',*,*,#289,.T.);
#379=ORIENTED_EDGE('',*,*,#279,.T.);
#380=ORIENTED_EDGE('',*,*,#296,.F.);
#381=ORIENTED_EDGE('',*,*,#297,.F.);
#382=ORIENTED_EDGE('',*,*,#293,.T.);
#383=ORIENTED_EDGE('',*,*,#286,.T.);
#384=ORIENTED_EDGE('',*,*,#282,.T.);
#385=ORIENTED_EDGE('',*,*,#295,.F.);
#386=ORIENTED_EDGE('',*,*,#275,.T.);
#387=ORIENTED_EDGE('',*,*,#281,.T.);
#388=ORIENTED_EDGE('',*,*,#292,.F.);
#389=ORIENTED_EDGE('',*,*,#298,.F.);
#390=ORIENTED_EDGE('',*,*,#296,.T.);
#391=ORIENTED_EDGE('',*,*,#298,.T.);
#392=ORIENTED_EDGE('',*,*,#291,.T.);
#393=ORIENTED_EDGE('',*,*,#294,.T.);
#394=ORIENTED_EDGE('',*,*,#297,.T.);
#395=ORIENTED_EDGE('',*,*,#299,.T.);
#396=ORIENTED_EDGE('',*,*,#300,.T.);
#397=ORIENTED_EDGE('',*,*,#301,.F.);
#398=ORIENTED_EDGE('',*,*,#302,.F.);
#399=ORIENTED_EDGE('',*,*,#303,.T.);
#400=ORIENTED_EDGE('',*,*,#304,.T.);
#401=ORIENTED_EDGE('',*,*,#301,.T.);
#402=ORIENTED_EDGE('',*,*,#305,.T.);
#403=ORIENTED_EDGE('',*,*,#306,.T.);
#404=ORIENTED_EDGE('',*,*,#307,.F.);
#405=ORIENTED_EDGE('',*,*,#299,.F.);
#406=ORIENTED_EDGE('',*,*,#308,.F.);
#407=ORIENTED_EDGE('',*,*,#309,.T.);
#408=ORIENTED_EDGE('',*,*,#310,.F.);
#409=ORIENTED_EDGE('',*,*,#311,.F.);
#410=ORIENTED_EDGE('',*,*,#306,.F.);
#411=ORIENTED_EDGE('',*,*,#310,.T.);
#412=ORIENTED_EDGE('',*,*,#312,.T.);
#413=ORIENTED_EDGE('',*,*,#313,.T.);
#414=ORIENTED_EDGE('',*,*,#314,.T.);
#415=ORIENTED_EDGE('',*,*,#315,.T.);
#416=ORIENTED_EDGE('',*,*,#316,.T.);
#417=ORIENTED_EDGE('',*,*,#312,.F.);
#418=ORIENTED_EDGE('',*,*,#309,.F.);
#419=ORIENTED_EDGE('',*,*,#308,.T.);
#420=ORIENTED_EDGE('',*,*,#302,.T.);
#421=ORIENTED_EDGE('',*,*,#304,.F.);
#422=ORIENTED_EDGE('',*,*,#317,.F.);
#423=ORIENTED_EDGE('',*,*,#318,.T.);
#424=ORIENTED_EDGE('',*,*,#317,.T.);
#425=ORIENTED_EDGE('',*,*,#303,.F.);
#426=ORIENTED_EDGE('',*,*,#319,.F.);
#427=ORIENTED_EDGE('',*,*,#320,.T.);
#428=ORIENTED_EDGE('',*,*,#319,.T.);
#429=ORIENTED_EDGE('',*,*,#305,.F.);
#430=ORIENTED_EDGE('',*,*,#300,.F.);
#431=ORIENTED_EDGE('',*,*,#307,.T.);
#432=ORIENTED_EDGE('',*,*,#311,.T.);
#433=ORIENTED_EDGE('',*,*,#314,.F.);
#434=ORIENTED_EDGE('',*,*,#321,.F.);
#435=ORIENTED_EDGE('',*,*,#322,.T.);
#436=ORIENTED_EDGE('',*,*,#321,.T.);
#437=ORIENTED_EDGE('',*,*,#313,.F.);
#438=ORIENTED_EDGE('',*,*,#316,.F.);
#439=ORIENTED_EDGE('',*,*,#322,.F.);
#440=ORIENTED_EDGE('',*,*,#315,.F.);
#441=ORIENTED_EDGE('',*,*,#318,.F.);
#442=ORIENTED_EDGE('',*,*,#320,.F.);
#443=ORIENTED_EDGE('',*,*,#323,.T.);
#444=ORIENTED_EDGE('',*,*,#324,.T.);
#445=ORIENTED_EDGE('',*,*,#325,.T.);
#446=ORIENTED_EDGE('',*,*,#326,.T.);
#447=ORIENTED_EDGE('',*,*,#327,.F.);
#448=ORIENTED_EDGE('',*,*,#328,.T.);
#449=ORIENTED_EDGE('',*,*,#325,.F.);
#450=ORIENTED_EDGE('',*,*,#329,.F.);
#451=ORIENTED_EDGE('',*,*,#327,.T.);
#452=ORIENTED_EDGE('',*,*,#330,.T.);
#453=ORIENTED_EDGE('',*,*,#331,.T.);
#454=ORIENTED_EDGE('',*,*,#332,.T.);
#455=ORIENTED_EDGE('',*,*,#333,.F.);
#456=ORIENTED_EDGE('',*,*,#334,.F.);
#457=ORIENTED_EDGE('',*,*,#335,.T.);
#458=ORIENTED_EDGE('',*,*,#323,.F.);
#459=ORIENTED_EDGE('',*,*,#336,.T.);
#460=ORIENTED_EDGE('',*,*,#337,.F.);
#461=ORIENTED_EDGE('',*,*,#338,.F.);
#462=ORIENTED_EDGE('',*,*,#339,.F.);
#463=ORIENTED_EDGE('',*,*,#333,.T.);
#464=ORIENTED_EDGE('',*,*,#326,.F.);
#465=ORIENTED_EDGE('',*,*,#328,.F.);
#466=ORIENTED_EDGE('',*,*,#332,.F.);
#467=ORIENTED_EDGE('',*,*,#340,.F.);
#468=ORIENTED_EDGE('',*,*,#338,.T.);
#469=ORIENTED_EDGE('',*,*,#341,.F.);
#470=ORIENTED_EDGE('',*,*,#342,.F.);
#471=ORIENTED_EDGE('',*,*,#343,.F.);
#472=ORIENTED_EDGE('',*,*,#342,.T.);
#473=ORIENTED_EDGE('',*,*,#344,.F.);
#474=ORIENTED_EDGE('',*,*,#345,.F.);
#475=ORIENTED_EDGE('',*,*,#330,.F.);
#476=ORIENTED_EDGE('',*,*,#329,.T.);
#477=ORIENTED_EDGE('',*,*,#324,.F.);
#478=ORIENTED_EDGE('',*,*,#335,.F.);
#479=ORIENTED_EDGE('',*,*,#345,.T.);
#480=ORIENTED_EDGE('',*,*,#346,.F.);
#481=ORIENTED_EDGE('',*,*,#336,.F.);
#482=ORIENTED_EDGE('',*,*,#331,.F.);
#483=ORIENTED_EDGE('',*,*,#334,.T.);
#484=ORIENTED_EDGE('',*,*,#339,.T.);
#485=ORIENTED_EDGE('',*,*,#340,.T.);
#486=ORIENTED_EDGE('',*,*,#343,.T.);
#487=ORIENTED_EDGE('',*,*,#346,.T.);
#488=ORIENTED_EDGE('',*,*,#344,.T.);
#489=ORIENTED_EDGE('',*,*,#341,.T.);
#490=ORIENTED_EDGE('',*,*,#337,.T.);
#491=PLANE('',#555);
#492=PLANE('',#556);
#493=PLANE('',#557);
#494=PLANE('',#558);
#495=PLANE('',#559);
#496=PLANE('',#560);
#497=PLANE('',#561);
#498=PLANE('',#562);
#499=PLANE('',#563);
#500=PLANE('',#564);
#501=PLANE('',#565);
#502=PLANE('',#566);
#503=PLANE('',#567);
#504=PLANE('',#568);
#505=PLANE('',#569);
#506=PLANE('',#570);
#507=PLANE('',#571);
#508=PLANE('',#572);
#509=PLANE('',#573);
#510=PLANE('',#574);
#511=PLANE('',#575);
#512=PLANE('',#576);
#513=PLANE('',#577);
#514=PLANE('',#578);
#515=PLANE('',#579);
#516=PLANE('',#580);
#517=PLANE('',#581);
#518=PLANE('',#582);
#519=PLANE('',#583);
#520=PLANE('',#584);
#521=ADVANCED_FACE('',(#23),#491,.F.);
#522=ADVANCED_FACE('',(#24),#492,.F.);
#523=ADVANCED_FACE('',(#25),#493,.T.);
#524=ADVANCED_FACE('',(#26),#494,.T.);
#525=ADVANCED_FACE('',(#27),#495,.T.);
#526=ADVANCED_FACE('',(#28),#496,.T.);
#527=ADVANCED_FACE('',(#29),#497,.T.);
#528=ADVANCED_FACE('',(#30),#498,.T.);
#529=ADVANCED_FACE('',(#31),#499,.T.);
#530=ADVANCED_FACE('',(#32),#500,.F.);
#531=ADVANCED_FACE('',(#33),#501,.T.);
#532=ADVANCED_FACE('',(#34),#502,.T.);
#533=ADVANCED_FACE('',(#35),#503,.F.);
#534=ADVANCED_FACE('',(#36),#504,.T.);
#535=ADVANCED_FACE('',(#37),#505,.T.);
#536=ADVANCED_FACE('',(#38),#506,.T.);
#537=ADVANCED_FACE('',(#39),#507,.T.);
#538=ADVANCED_FACE('',(#40),#508,.T.);
#539=ADVANCED_FACE('',(#41),#509,.T.);
#540=ADVANCED_FACE('',(#42),#510,.F.);
#541=ADVANCED_FACE('',(#43),#511,.T.);
#542=ADVANCED_FACE('',(#44),#512,.T.);
#543=ADVANCED_FACE('',(#45),#513,.F.);
#544=ADVANCED_FACE('',(#46),#514,.F.);
#545=ADVANCED_FACE('',(#47),#515,.T.);
#546=ADVANCED_FACE('',(#48),#516,.T.);
#547=ADVANCED_FACE('',(#49),#517,.T.);
#548=ADVANCED_FACE('',(#50),#518,.T.);
#549=ADVANCED_FACE('',(#51),#519,.F.);
#550=ADVANCED_FACE('',(#52),#520,.T.);
#551=CLOSED_SHELL('',(#521,#522,#523,#524,#525,#526,#527,#528,#529,#530));
#552=CLOSED_SHELL('',(#531,#532,#533,#534,#535,#536,#537,#538,#539,#540));
#553=CLOSED_SHELL('',(#541,#542,#543,#544,#545,#546,#547,#548,#549,#550));
#554=AXIS2_PLACEMENT_3D('placement',#719,#585,#586);
#555=AXIS2_PLACEMENT_3D('',#720,#587,#588);
#556=AXIS2_PLACEMENT_3D('',#729,#593,#594);
#557=AXIS2_PLACEMENT_3D('',#735,#598,#599);
#558=AXIS2_PLACEMENT_3D('',#744,#604,#605);
#559=AXIS2_PLACEMENT_3D('',#750,#609,#610);
#560=AXIS2_PLACEMENT_3D('',#757,#615,#616);
#561=AXIS2_PLACEMENT_3D('',#761,#619,#620);
#562=AXIS2_PLACEMENT_3D('',#763,#622,#623);
#563=AXIS2_PLACEMENT_3D('',#767,#626,#627);
#564=AXIS2_PLACEMENT_3D('',#769,#629,#630);
#565=AXIS2_PLACEMENT_3D('',#770,#631,#632);
#566=AXIS2_PLACEMENT_3D('',#779,#637,#638);
#567=AXIS2_PLACEMENT_3D('',#785,#642,#643);
#568=AXIS2_PLACEMENT_3D('',#791,#647,#648);
#569=AXIS2_PLACEMENT_3D('',#797,#652,#653);
#570=AXIS2_PLACEMENT_3D('',#803,#657,#658);
#571=AXIS2_PLACEMENT_3D('',#809,#662,#663);
#572=AXIS2_PLACEMENT_3D('',#813,#666,#667);
#573=AXIS2_PLACEMENT_3D('',#817,#670,#671);
#574=AXIS2_PLACEMENT_3D('',#819,#673,#674);
#575=AXIS2_PLACEMENT_3D('',#820,#675,#676);
#576=AXIS2_PLACEMENT_3D('',#829,#681,#682);
#577=AXIS2_PLACEMENT_3D('',#835,#686,#687);
#578=AXIS2_PLACEMENT_3D('',#841,#691,#692);
#579=AXIS2_PLACEMENT_3D('',#847,#696,#697);
#580=AXIS2_PLACEMENT_3D('',#855,#702,#703);
#581=AXIS2_PLACEMENT_3D('',#861,#707,#708);
#582=AXIS2_PLACEMENT_3D('',#866,#712,#713);
#583=AXIS2_PLACEMENT_3D('',#868,#715,#716);
#584=AXIS2_PLACEMENT_3D('',#869,#717,#718);
#585=DIRECTION('axis',(0.,0.,1.));
#586=DIRECTION('refdir',(1.,0.,0.));
#587=DIRECTION('center_axis',(1.,0.,0.));
#588=DIRECTION('ref_axis',(0.,0.,-1.));
#589=DIRECTION('',(0.,0.,-1.));
#590=DIRECTION('',(0.,-1.,0.));
#591=DIRECTION('',(0.,0.,1.));
#592=DIRECTION('',(0.,1.,0.));
#593=DIRECTION('center_axis',(0.,0.,-1.));
#594=DIRECTION('ref_axis',(-1.,0.,0.));
#595=DIRECTION('',(-1.,0.,0.));
#596=DIRECTION('',(1.,0.,0.));
#597=DIRECTION('',(0.,1.,0.));
#598=DIRECTION('center_axis',(1.,0.,0.));
#599=DIRECTION('ref_axis',(0.,0.,-1.));
#600=DIRECTION('',(0.,0.,1.));
#601=DIRECTION('',(0.,1.,0.));
#602=DIRECTION('',(0.,0.,-1.));
#603=DIRECTION('',(0.,1.,0.));
#604=DIRECTION('center_axis',(0.,0.,1.));
#605=DIRECTION('ref_axis',(1.,0.,0.));
#606=DIRECTION('',(-1.,0.,0.));
#607=DIRECTION('',(0.,-1.,0.));
#608=DIRECTION('',(1.,0.,0.));
#609=DIRECTION('center_axis',(0.,1.,0.));
#610=DIRECTION('ref_axis',(-1.,0.,0.));
#611=DIRECTION('',(-1.,0.,0.));
#612=DIRECTION('',(0.,0.,1.));
#613=DIRECTION('',(1.,0.,0.));
#614=DIRECTION('',(0.,0.,1.));
#615=DIRECTION('center_axis',(1.,0.,0.));
#616=DIRECTION('ref_axis',(0.,1.,0.));
#617=DIRECTION('',(0.,0.,1.));
#618=DIRECTION('',(0.,-1.,0.));
#619=DIRECTION('center_axis',(0.,0.,1.));
#620=DIRECTION('ref_axis',(1.,0.,0.));
#621=DIRECTION('',(1.,0.,0.));
#622=DIRECTION('center_axis',(0.,-1.,0.));
#623=DIRECTION('ref_axis',(1.,0.,0.));
#624=DIRECTION('',(0.,0.,1.));
#625=DIRECTION('',(-1.,0.,0.));
#626=DIRECTION('center_axis',(-1.,0.,0.));
#627=DIRECTION('ref_axis',(0.,-1.,0.));
#628=DIRECTION('',(0.,1.,0.));
#629=DIRECTION('center_axis',(0.,0.,1.));
#630=DIRECTION('ref_axis',(1.,0.,0.));
#631=DIRECTION('center_axis',(1.,0.,0.));
#632=DIRECTION('ref_axis',(0.,1.,0.));
#633=DIRECTION('',(0.,1.,0.));
#634=DIRECTION('',(0.,0.,1.));
#635=DIRECTION('',(0.,1.,0.));
#636=DIRECTION('',(0.,0.,1.));
#637=DIRECTION('center_axis',(0.,0.,1.));
#638=DIRECTION('ref_axis',(1.,0.,0.));
#639=DIRECTION('',(2.66453525910038E-16,-1.,0.));
#640=DIRECTION('',(1.,0.,0.));
#641=DIRECTION('',(-1.,0.,0.));
#642=DIRECTION('center_axis',(0.,0.,1.));
#643=DIRECTION('ref_axis',(1.,0.,0.));
#644=DIRECTION('',(0.,1.,0.));
#645=DIRECTION('',(-1.,0.,0.));
#646=DIRECTION('',(1.,0.,0.));
#647=DIRECTION('center_axis',(1.,0.,0.));
#648=DIRECTION('ref_axis',(0.,0.,-1.));
#649=DIRECTION('',(0.,0.,-1.));
#650=DIRECTION('',(0.,-1.,0.));
#651=DIRECTION('',(0.,0.,-1.));
#652=DIRECTION('center_axis',(0.,0.,1.));
#653=DIRECTION('ref_axis',(1.,0.,0.));
#654=DIRECTION('',(1.,0.,0.));
#655=DIRECTION('',(0.,1.,0.));
#656=DIRECTION('',(-1.,0.,0.));
#657=DIRECTION('center_axis',(0.,-1.,0.));
#658=DIRECTION('ref_axis',(1.,0.,0.));
#659=DIRECTION('',(1.,0.,0.));
#660=DIRECTION('',(0.,0.,1.));
#661=DIRECTION('',(0.,0.,1.));
#662=DIRECTION('center_axis',(-1.,0.,0.));
#663=DIRECTION('ref_axis',(0.,-1.,0.));
#664=DIRECTION('',(0.,-1.,0.));
#665=DIRECTION('',(0.,0.,1.));
#666=DIRECTION('center_axis',(0.,1.,0.));
#667=DIRECTION('ref_axis',(-1.,0.,0.));
#668=DIRECTION('',(-1.,0.,0.));
#669=DIRECTION('',(0.,0.,1.));
#670=DIRECTION('center_axis',(1.,0.,0.));
#671=DIRECTION('ref_axis',(0.,1.,0.));
#672=DIRECTION('',(0.,1.,0.));
#673=DIRECTION('center_axis',(0.,0.,1.));
#674=DIRECTION('ref_axis',(1.,0.,0.));
#675=DIRECTION('center_axis',(0.,0.,1.));
#676=DIRECTION('ref_axis',(1.,0.,0.));
#677=DIRECTION('',(0.,1.,0.));
#678=DIRECTION('',(-1.,0.,0.));
#679=DIRECTION('',(-2.22044604925031E-17,-1.,0.));
#680=DIRECTION('',(1.,-4.93432455388958E-16,0.));
#681=DIRECTION('center_axis',(-1.,2.22044604925031E-17,0.));
#682=DIRECTION('ref_axis',(0.,-1.,0.));
#683=DIRECTION('',(2.22044604925031E-17,1.,0.));
#684=DIRECTION('',(0.,0.,1.));
#685=DIRECTION('',(0.,0.,1.));
#686=DIRECTION('center_axis',(0.,0.,1.));
#687=DIRECTION('ref_axis',(1.,0.,0.));
#688=DIRECTION('',(1.,0.,0.));
#689=DIRECTION('',(4.44089209850063E-17,-1.,0.));
#690=DIRECTION('',(-1.,4.93432455388958E-16,0.));
#691=DIRECTION('center_axis',(1.,0.,0.));
#692=DIRECTION('ref_axis',(0.,0.,-1.));
#693=DIRECTION('',(0.,0.,-1.));
#694=DIRECTION('',(0.,-1.,0.));
#695=DIRECTION('',(0.,0.,-1.));
#696=DIRECTION('center_axis',(0.,-1.,0.));
#697=DIRECTION('ref_axis',(1.,0.,0.));
#698=DIRECTION('',(0.,0.,1.));
#699=DIRECTION('',(1.,0.,0.));
#700=DIRECTION('',(0.,0.,1.));
#701=DIRECTION('',(-1.,0.,0.));
#702=DIRECTION('center_axis',(-1.,0.,0.));
#703=DIRECTION('ref_axis',(0.,-1.,0.));
#704=DIRECTION('',(0.,1.,0.));
#705=DIRECTION('',(0.,-1.,0.));
#706=DIRECTION('',(0.,0.,1.));
#707=DIRECTION('center_axis',(0.,1.,0.));
#708=DIRECTION('ref_axis',(-1.,0.,0.));
#709=DIRECTION('',(1.,0.,0.));
#710=DIRECTION('',(-1.,0.,0.));
#711=DIRECTION('',(0.,0.,1.));
#712=DIRECTION('center_axis',(1.,-2.66453525910038E-16,0.));
#713=DIRECTION('ref_axis',(2.22044604925031E-16,1.,0.));
#714=DIRECTION('',(2.66453525910038E-16,1.,0.));
#715=DIRECTION('center_axis',(0.,0.,1.));
#716=DIRECTION('ref_axis',(1.,0.,0.));
#717=DIRECTION('center_axis',(0.,0.,1.));
#718=DIRECTION('ref_axis',(1.,0.,0.));
#719=CARTESIAN_POINT('',(0.,0.,0.));
#720=CARTESIAN_POINT('Origin',(-1.,-2.5,0.75));
#721=CARTESIAN_POINT('',(-1.,-2.5,0.75));
#722=CARTESIAN_POINT('',(-1.,-2.5,0.65));
#723=CARTESIAN_POINT('',(-1.,-2.5,0.4));
#724=CARTESIAN_POINT('',(-1.,2.5,0.75));
#725=CARTESIAN_POINT('',(-1.,-1.25,0.75));
#726=CARTESIAN_POINT('',(-1.,2.5,0.65));
#727=CARTESIAN_POINT('',(-1.,2.5,0.4));
#728=CARTESIAN_POINT('',(-1.,-2.5,0.65));
#729=CARTESIAN_POINT('Origin',(-1.,-2.5,0.65));
#730=CARTESIAN_POINT('',(-1.2,-2.5,0.65));
#731=CARTESIAN_POINT('',(-1.125,-2.5,0.65));
#732=CARTESIAN_POINT('',(-1.2,2.5,0.65));
#733=CARTESIAN_POINT('',(0.125,2.5,0.65));
#734=CARTESIAN_POINT('',(-1.2,0.,0.65));
#735=CARTESIAN_POINT('Origin',(1.,-2.5,0.75));
#736=CARTESIAN_POINT('',(1.,-2.5,0.65));
#737=CARTESIAN_POINT('',(1.,-2.5,0.75));
#738=CARTESIAN_POINT('',(1.,-2.5,0.4));
#739=CARTESIAN_POINT('',(1.,2.5,0.65));
#740=CARTESIAN_POINT('',(1.,-2.5,0.65));
#741=CARTESIAN_POINT('',(1.,2.5,0.75));
#742=CARTESIAN_POINT('',(1.,2.5,0.4));
#743=CARTESIAN_POINT('',(1.,-1.25,0.75));
#744=CARTESIAN_POINT('Origin',(1.,-2.5,0.65));
#745=CARTESIAN_POINT('',(1.2,-2.5,0.65));
#746=CARTESIAN_POINT('',(-0.124999999999999,-2.5,0.65));
#747=CARTESIAN_POINT('',(1.2,2.5,0.65));
#748=CARTESIAN_POINT('',(1.2,-2.5,0.65));
#749=CARTESIAN_POINT('',(1.125,2.5,0.65));
#750=CARTESIAN_POINT('Origin',(1.25,2.5,0.05));
#751=CARTESIAN_POINT('',(-1.25,2.5,0.75));
#752=CARTESIAN_POINT('',(1.2,2.5,0.05));
#753=CARTESIAN_POINT('',(1.2,2.5,0.05));
#754=CARTESIAN_POINT('',(-1.2,2.5,0.05));
#755=CARTESIAN_POINT('',(-1.25,2.5,0.05));
#756=CARTESIAN_POINT('',(-1.2,2.5,0.05));
#757=CARTESIAN_POINT('Origin',(1.2,-2.5,0.05));
#758=CARTESIAN_POINT('',(1.2,-2.5,0.05));
#759=CARTESIAN_POINT('',(1.2,-2.5,0.05));
#760=CARTESIAN_POINT('',(1.2,2.5,0.05));
#761=CARTESIAN_POINT('Origin',(0.,0.,0.75));
#762=CARTESIAN_POINT('',(1.25,-2.5,0.75));
#763=CARTESIAN_POINT('Origin',(-1.25,-2.5,0.05));
#764=CARTESIAN_POINT('',(-1.2,-2.5,0.05));
#765=CARTESIAN_POINT('',(-1.2,-2.5,0.05));
#766=CARTESIAN_POINT('',(1.25,-2.5,0.05));
#767=CARTESIAN_POINT('Origin',(-1.2,2.5,0.05));
#768=CARTESIAN_POINT('',(-1.2,-2.5,0.05));
#769=CARTESIAN_POINT('Origin',(0.,0.,0.05));
#770=CARTESIAN_POINT('Origin',(-1.,-2.5,0.7));
#771=CARTESIAN_POINT('',(-1.,-2.5,0.65));
#772=CARTESIAN_POINT('',(-1.,2.5,0.65));
#773=CARTESIAN_POINT('',(-1.,-2.5,0.65));
#774=CARTESIAN_POINT('',(-1.,2.5,0.7));
#775=CARTESIAN_POINT('',(-1.,2.5,0.7));
#776=CARTESIAN_POINT('',(-1.,-2.5,0.7));
#777=CARTESIAN_POINT('',(-1.,-2.5,0.7));
#778=CARTESIAN_POINT('',(-1.,-2.5,0.7));
#779=CARTESIAN_POINT('Origin',(-1.125,4.44089209850063E-16,0.7));
#780=CARTESIAN_POINT('',(-1.25,2.5,0.7));
#781=CARTESIAN_POINT('',(-1.25,-2.5,0.7));
#782=CARTESIAN_POINT('',(-1.25,2.5,0.7));
#783=CARTESIAN_POINT('',(-1.25,-2.5,0.7));
#784=CARTESIAN_POINT('',(-1.,2.5,0.7));
#785=CARTESIAN_POINT('Origin',(-1.125,3.1720657846433E-16,0.65));
#786=CARTESIAN_POINT('',(-1.2,-2.5,0.65));
#787=CARTESIAN_POINT('',(-1.2,2.5,0.65));
#788=CARTESIAN_POINT('',(-1.2,-2.5,0.65));
#789=CARTESIAN_POINT('',(-1.,2.5,0.65));
#790=CARTESIAN_POINT('',(-1.25,-2.5,0.65));
#791=CARTESIAN_POINT('Origin',(-1.2,-2.5,0.7));
#792=CARTESIAN_POINT('',(-1.2,-2.5,0.0500000000000001));
#793=CARTESIAN_POINT('',(-1.2,-2.5,0.7));
#794=CARTESIAN_POINT('',(-1.2,2.5,0.0500000000000001));
#795=CARTESIAN_POINT('',(-1.2,-1.25,0.05));
#796=CARTESIAN_POINT('',(-1.2,2.5,0.7));
#797=CARTESIAN_POINT('Origin',(-0.800000000000001,0.,0.05));
#798=CARTESIAN_POINT('',(-0.350000000000001,-2.5,0.05));
#799=CARTESIAN_POINT('',(-1.25,-2.5,0.05));
#800=CARTESIAN_POINT('',(-0.350000000000001,2.5,0.05));
#801=CARTESIAN_POINT('',(-0.350000000000001,-2.5,0.05));
#802=CARTESIAN_POINT('',(-0.350000000000001,2.5,0.05));
#803=CARTESIAN_POINT('Origin',(-1.25,-2.5,0.));
#804=CARTESIAN_POINT('',(-1.25,-2.5,0.));
#805=CARTESIAN_POINT('',(-0.350000000000001,-2.5,0.));
#806=CARTESIAN_POINT('',(-1.25,-2.5,0.));
#807=CARTESIAN_POINT('',(-0.350000000000001,-2.5,0.));
#808=CARTESIAN_POINT('',(-1.25,-2.5,0.));
#809=CARTESIAN_POINT('Origin',(-1.25,2.5,0.));
#810=CARTESIAN_POINT('',(-1.25,2.5,0.));
#811=CARTESIAN_POINT('',(-1.25,2.5,0.));
#812=CARTESIAN_POINT('',(-1.25,2.5,0.));
#813=CARTESIAN_POINT('Origin',(-0.350000000000001,2.5,0.));
#814=CARTESIAN_POINT('',(-0.350000000000001,2.5,0.));
#815=CARTESIAN_POINT('',(-0.350000000000001,2.5,0.));
#816=CARTESIAN_POINT('',(-0.350000000000001,2.5,0.));
#817=CARTESIAN_POINT('Origin',(-0.350000000000001,-2.5,0.));
#818=CARTESIAN_POINT('',(-0.350000000000001,-2.5,0.));
#819=CARTESIAN_POINT('Origin',(-0.800000000000001,0.,0.));
#820=CARTESIAN_POINT('Origin',(0.799999999999999,0.,0.05));
#821=CARTESIAN_POINT('',(1.2,-2.5,0.0500000000000001));
#822=CARTESIAN_POINT('',(1.2,2.5,0.0500000000000001));
#823=CARTESIAN_POINT('',(1.2,-2.5,0.0500000000000001));
#824=CARTESIAN_POINT('',(0.349999999999999,2.5,0.05));
#825=CARTESIAN_POINT('',(0.349999999999999,2.5,0.05));
#826=CARTESIAN_POINT('',(0.349999999999999,-2.5,0.05));
#827=CARTESIAN_POINT('',(0.349999999999999,-2.5,0.05));
#828=CARTESIAN_POINT('',(1.25,-2.5,0.05));
#829=CARTESIAN_POINT('Origin',(0.349999999999999,2.5,0.));
#830=CARTESIAN_POINT('',(0.349999999999999,-2.5,0.));
#831=CARTESIAN_POINT('',(0.349999999999999,2.5,0.));
#832=CARTESIAN_POINT('',(0.349999999999999,-2.5,0.));
#833=CARTESIAN_POINT('',(0.349999999999999,-2.5,0.));
#834=CARTESIAN_POINT('',(0.349999999999999,2.5,0.));
#835=CARTESIAN_POINT('Origin',(0.799999999999999,-2.82260091006396E-17,
0.));
#836=CARTESIAN_POINT('',(1.25,2.5,0.));
#837=CARTESIAN_POINT('',(0.349999999999999,2.5,0.));
#838=CARTESIAN_POINT('',(1.25,-2.5,0.));
#839=CARTESIAN_POINT('',(1.25,2.5,0.));
#840=CARTESIAN_POINT('',(1.25,-2.5,0.));
#841=CARTESIAN_POINT('Origin',(1.2,-2.5,0.7));
#842=CARTESIAN_POINT('',(1.2,-2.5,0.65));
#843=CARTESIAN_POINT('',(1.2,-2.5,0.7));
#844=CARTESIAN_POINT('',(1.2,2.5,0.65));
#845=CARTESIAN_POINT('',(1.2,-1.25,0.65));
#846=CARTESIAN_POINT('',(1.2,2.5,0.7));
#847=CARTESIAN_POINT('Origin',(0.999999999999999,-2.5,0.7));
#848=CARTESIAN_POINT('',(1.25,-2.5,0.7));
#849=CARTESIAN_POINT('',(1.25,-2.5,0.05));
#850=CARTESIAN_POINT('',(0.999999999999999,-2.5,0.7));
#851=CARTESIAN_POINT('',(1.25,-2.5,0.7));
#852=CARTESIAN_POINT('',(0.999999999999999,-2.5,0.65));
#853=CARTESIAN_POINT('',(0.999999999999999,-2.5,0.7));
#854=CARTESIAN_POINT('',(1.25,-2.5,0.65));
#855=CARTESIAN_POINT('Origin',(0.999999999999999,2.5,0.7));
#856=CARTESIAN_POINT('',(0.999999999999999,2.5,0.65));
#857=CARTESIAN_POINT('',(0.999999999999999,-2.5,0.65));
#858=CARTESIAN_POINT('',(0.999999999999999,2.5,0.7));
#859=CARTESIAN_POINT('',(0.999999999999999,-2.5,0.7));
#860=CARTESIAN_POINT('',(0.999999999999999,2.5,0.7));
#861=CARTESIAN_POINT('Origin',(1.25,2.5,0.7));
#862=CARTESIAN_POINT('',(0.999999999999999,2.5,0.65));
#863=CARTESIAN_POINT('',(1.25,2.5,0.7));
#864=CARTESIAN_POINT('',(0.999999999999999,2.5,0.7));
#865=CARTESIAN_POINT('',(1.25,2.5,0.7));
#866=CARTESIAN_POINT('Origin',(1.25,-2.5,0.7));
#867=CARTESIAN_POINT('',(1.25,2.5,0.7));
#868=CARTESIAN_POINT('Origin',(1.125,3.1720657846433E-16,0.65));
#869=CARTESIAN_POINT('Origin',(1.125,4.44089209850063E-16,0.7));
#870=UNCERTAINTY_MEASURE_WITH_UNIT(LENGTH_MEASURE(0.01),#874,
'DISTANCE_ACCURACY_VALUE',
'Maximum model space distance between geometric entities at asserted c
onnectivities');
#871=UNCERTAINTY_MEASURE_WITH_UNIT(LENGTH_MEASURE(1.E-6),#874,
'DISTANCE_ACCURACY_VALUE',
'Maximum model space distance between geometric entities at asserted c
onnectivities');
#872=(
GEOMETRIC_REPRESENTATION_CONTEXT(3)
GLOBAL_UNCERTAINTY_ASSIGNED_CONTEXT((#870))
GLOBAL_UNIT_ASSIGNED_CONTEXT((#874,#876,#875))
REPRESENTATION_CONTEXT('','3D')
);
#873=(
GEOMETRIC_REPRESENTATION_CONTEXT(3)
GLOBAL_UNCERTAINTY_ASSIGNED_CONTEXT((#871))
GLOBAL_UNIT_ASSIGNED_CONTEXT((#874,#12,#875))
REPRESENTATION_CONTEXT('','3D')
);
#874=(
LENGTH_UNIT()
NAMED_UNIT(*)
SI_UNIT(.MILLI.,.METRE.)
);
#875=(
NAMED_UNIT(*)
SI_UNIT($,.STERADIAN.)
SOLID_ANGLE_UNIT()
);
#876=(
NAMED_UNIT(*)
PLANE_ANGLE_UNIT()
SI_UNIT($,.RADIAN.)
);
#877=SHAPE_DEFINITION_REPRESENTATION(#878,#879);
#878=PRODUCT_DEFINITION_SHAPE('',$,#881);
#879=SHAPE_REPRESENTATION('',(#554),#872);
#880=PRODUCT_DEFINITION_CONTEXT('part definition',#885,'design');
#881=PRODUCT_DEFINITION('Product','Product',#882,#880);
#882=PRODUCT_DEFINITION_FORMATION('',$,#887);
#883=PRODUCT_RELATED_PRODUCT_CATEGORY('Product','Product',(#887));
#884=APPLICATION_PROTOCOL_DEFINITION('international standard',
'automotive_design',2009,#885);
#885=APPLICATION_CONTEXT(
'Core Data for Automotive Mechanical Design Process');
#886=PRODUCT_CONTEXT('part definition',#885,'mechanical');
#887=PRODUCT('Product','Product',$,(#886));
#888=PRESENTATION_STYLE_ASSIGNMENT((#891));
#889=PRESENTATION_STYLE_ASSIGNMENT((#892));
#890=PRESENTATION_STYLE_ASSIGNMENT((#893));
#891=SURFACE_STYLE_USAGE(.BOTH.,#894);
#892=SURFACE_STYLE_USAGE(.BOTH.,#895);
#893=SURFACE_STYLE_USAGE(.BOTH.,#896);
#894=SURFACE_SIDE_STYLE('',(#897));
#895=SURFACE_SIDE_STYLE('',(#898));
#896=SURFACE_SIDE_STYLE('',(#899));
#897=SURFACE_STYLE_FILL_AREA(#900);
#898=SURFACE_STYLE_FILL_AREA(#901);
#899=SURFACE_STYLE_FILL_AREA(#902);
#900=FILL_AREA_STYLE('',(#903));
#901=FILL_AREA_STYLE('',(#904));
#902=FILL_AREA_STYLE('',(#905));
#903=FILL_AREA_STYLE_COLOUR('',#906);
#904=FILL_AREA_STYLE_COLOUR('',#907);
#905=FILL_AREA_STYLE_COLOUR('',#908);
#906=COLOUR_RGB('',1.,1.,1.);
#907=COLOUR_RGB('',0.329411764705882,0.329411764705882,0.329411764705882);
#908=COLOUR_RGB('',0.749019607843137,0.749019607843137,0.749019607843137);
ENDSEC;
END-ISO-10303-21;
