ISO-10303-21;
HEADER;
/* Generated by software containing ST-Developer
 * from STEP Tools, Inc. (www.steptools.com) 
 */

FILE_DESCRIPTION(
/* description */ (''),
/* implementation_level */ '2;1');

FILE_NAME(
/* name */ 'G:\\Applications\\Altium\\CernLib\\StepLib\\RESC6531X85N.s
tp',
/* time_stamp */ '2017-03-17T15:00:56+01:00',
/* author */ ('riccim'),
/* organization */ (''),
/* preprocessor_version */ 'ST-DEVELOPER v16.1',
/* originating_system */ 'AutoCAD Mechanical',
/* authorisation */ '');

FILE_SCHEMA (('AP203_CONFIGURATION_CONTROLLED_3D_DESIGN_OF_MECHANICAL_PARTS_AND_ASSEMBLIES_MIM_LF { 1 0 10303 203 3 1 4 }',
'AUTOMOTIVE_DESIGN { 1 0 10303 214 3 1 1 }'));
ENDSEC;

DATA;
#10=MECHANICAL_DESIGN_GEOMETRIC_PRESENTATION_REPRESENTATION('',(#19,#17,
#18),#741);
#11=DIMENSIONAL_EXPONENTS(0.,0.,0.,0.,0.,0.,0.);
#12=(
CONVERSION_BASED_UNIT('degree',#13)
NAMED_UNIT(#11)
PLANE_ANGLE_UNIT()
);
#13=PLANE_ANGLE_MEASURE_WITH_UNIT(PLANE_ANGLE_MEASURE(0.01745329252),#744);
#14=PRESENTATION_LAYER_ASSIGNMENT('1','3D',(#20,#21,#22));
#15=SHAPE_REPRESENTATION_RELATIONSHIP('SRR','None',#747,#16);
#16=ADVANCED_BREP_SHAPE_REPRESENTATION('',(#20,#21,#22),#740);
#17=STYLED_ITEM('',(#757),#20);
#18=STYLED_ITEM('',(#758),#21);
#19=STYLED_ITEM('',(#757),#22);
#20=MANIFOLD_SOLID_BREP('553',#467);
#21=MANIFOLD_SOLID_BREP('557',#468);
#22=MANIFOLD_SOLID_BREP('55B',#469);
#23=FACE_OUTER_BOUND('',#49,.T.);
#24=FACE_OUTER_BOUND('',#50,.T.);
#25=FACE_OUTER_BOUND('',#51,.T.);
#26=FACE_OUTER_BOUND('',#52,.T.);
#27=FACE_OUTER_BOUND('',#53,.T.);
#28=FACE_OUTER_BOUND('',#54,.T.);
#29=FACE_OUTER_BOUND('',#55,.T.);
#30=FACE_OUTER_BOUND('',#56,.T.);
#31=FACE_OUTER_BOUND('',#57,.T.);
#32=FACE_OUTER_BOUND('',#58,.T.);
#33=FACE_OUTER_BOUND('',#59,.T.);
#34=FACE_OUTER_BOUND('',#60,.T.);
#35=FACE_OUTER_BOUND('',#61,.T.);
#36=FACE_OUTER_BOUND('',#62,.T.);
#37=FACE_OUTER_BOUND('',#63,.T.);
#38=FACE_OUTER_BOUND('',#64,.T.);
#39=FACE_OUTER_BOUND('',#65,.T.);
#40=FACE_OUTER_BOUND('',#66,.T.);
#41=FACE_OUTER_BOUND('',#67,.T.);
#42=FACE_OUTER_BOUND('',#68,.T.);
#43=FACE_OUTER_BOUND('',#69,.T.);
#44=FACE_OUTER_BOUND('',#70,.T.);
#45=FACE_OUTER_BOUND('',#71,.T.);
#46=FACE_OUTER_BOUND('',#72,.T.);
#47=FACE_OUTER_BOUND('',#73,.T.);
#48=FACE_OUTER_BOUND('',#74,.T.);
#49=EDGE_LOOP('',(#295,#296,#297,#298));
#50=EDGE_LOOP('',(#299,#300,#301,#302));
#51=EDGE_LOOP('',(#303,#304,#305,#306));
#52=EDGE_LOOP('',(#307,#308,#309,#310));
#53=EDGE_LOOP('',(#311,#312,#313,#314));
#54=EDGE_LOOP('',(#315,#316,#317,#318));
#55=EDGE_LOOP('',(#319,#320,#321,#322));
#56=EDGE_LOOP('',(#323,#324,#325,#326));
#57=EDGE_LOOP('',(#327,#328,#329,#330,#331,#332,#333,#334));
#58=EDGE_LOOP('',(#335,#336,#337,#338,#339,#340,#341,#342));
#59=EDGE_LOOP('',(#343,#344,#345,#346));
#60=EDGE_LOOP('',(#347,#348,#349,#350));
#61=EDGE_LOOP('',(#351,#352,#353,#354));
#62=EDGE_LOOP('',(#355,#356,#357,#358));
#63=EDGE_LOOP('',(#359,#360,#361,#362));
#64=EDGE_LOOP('',(#363,#364,#365,#366));
#65=EDGE_LOOP('',(#367,#368,#369,#370));
#66=EDGE_LOOP('',(#371,#372,#373,#374));
#67=EDGE_LOOP('',(#375,#376,#377,#378));
#68=EDGE_LOOP('',(#379,#380,#381,#382));
#69=EDGE_LOOP('',(#383,#384,#385,#386));
#70=EDGE_LOOP('',(#387,#388,#389,#390));
#71=EDGE_LOOP('',(#391,#392,#393,#394));
#72=EDGE_LOOP('',(#395,#396,#397,#398));
#73=EDGE_LOOP('',(#399,#400,#401,#402,#403,#404,#405,#406));
#74=EDGE_LOOP('',(#407,#408,#409,#410,#411,#412,#413,#414));
#75=LINE('',#615,#135);
#76=LINE('',#617,#136);
#77=LINE('',#619,#137);
#78=LINE('',#620,#138);
#79=LINE('',#623,#139);
#80=LINE('',#625,#140);
#81=LINE('',#626,#141);
#82=LINE('',#629,#142);
#83=LINE('',#631,#143);
#84=LINE('',#632,#144);
#85=LINE('',#635,#145);
#86=LINE('',#637,#146);
#87=LINE('',#638,#147);
#88=LINE('',#641,#148);
#89=LINE('',#643,#149);
#90=LINE('',#644,#150);
#91=LINE('',#647,#151);
#92=LINE('',#649,#152);
#93=LINE('',#650,#153);
#94=LINE('',#653,#154);
#95=LINE('',#655,#155);
#96=LINE('',#656,#156);
#97=LINE('',#658,#157);
#98=LINE('',#659,#158);
#99=LINE('',#665,#159);
#100=LINE('',#667,#160);
#101=LINE('',#669,#161);
#102=LINE('',#670,#162);
#103=LINE('',#673,#163);
#104=LINE('',#675,#164);
#105=LINE('',#676,#165);
#106=LINE('',#679,#166);
#107=LINE('',#680,#167);
#108=LINE('',#683,#168);
#109=LINE('',#684,#169);
#110=LINE('',#686,#170);
#111=LINE('',#691,#171);
#112=LINE('',#693,#172);
#113=LINE('',#695,#173);
#114=LINE('',#696,#174);
#115=LINE('',#699,#175);
#116=LINE('',#701,#176);
#117=LINE('',#702,#177);
#118=LINE('',#705,#178);
#119=LINE('',#707,#179);
#120=LINE('',#708,#180);
#121=LINE('',#711,#181);
#122=LINE('',#713,#182);
#123=LINE('',#714,#183);
#124=LINE('',#717,#184);
#125=LINE('',#719,#185);
#126=LINE('',#720,#186);
#127=LINE('',#723,#187);
#128=LINE('',#725,#188);
#129=LINE('',#726,#189);
#130=LINE('',#729,#190);
#131=LINE('',#731,#191);
#132=LINE('',#732,#192);
#133=LINE('',#734,#193);
#134=LINE('',#735,#194);
#135=VECTOR('',#501,0.05);
#136=VECTOR('',#502,3.15);
#137=VECTOR('',#503,0.05);
#138=VECTOR('',#504,3.15);
#139=VECTOR('',#507,0.508);
#140=VECTOR('',#508,3.15);
#141=VECTOR('',#509,0.508);
#142=VECTOR('',#512,0.85);
#143=VECTOR('',#513,3.15);
#144=VECTOR('',#514,0.85);
#145=VECTOR('',#517,1.27);
#146=VECTOR('',#518,3.15);
#147=VECTOR('',#519,1.27);
#148=VECTOR('',#522,0.05);
#149=VECTOR('',#523,3.15);
#150=VECTOR('',#524,0.05);
#151=VECTOR('',#527,1.22);
#152=VECTOR('',#528,3.15);
#153=VECTOR('',#529,1.22);
#154=VECTOR('',#532,0.75);
#155=VECTOR('',#533,3.15);
#156=VECTOR('',#534,0.75);
#157=VECTOR('',#537,0.458);
#158=VECTOR('',#538,0.458);
#159=VECTOR('',#545,6.39999999999989);
#160=VECTOR('',#546,0.75);
#161=VECTOR('',#547,6.39999999999989);
#162=VECTOR('',#548,0.75);
#163=VECTOR('',#551,3.15);
#164=VECTOR('',#552,3.15);
#165=VECTOR('',#553,6.39999999999989);
#166=VECTOR('',#556,3.15);
#167=VECTOR('',#557,0.75);
#168=VECTOR('',#560,6.39999999999989);
#169=VECTOR('',#561,3.15);
#170=VECTOR('',#564,0.75);
#171=VECTOR('',#569,0.05);
#172=VECTOR('',#570,3.15);
#173=VECTOR('',#571,0.05);
#174=VECTOR('',#572,3.15);
#175=VECTOR('',#575,0.508);
#176=VECTOR('',#576,0.508);
#177=VECTOR('',#577,3.15);
#178=VECTOR('',#580,0.85);
#179=VECTOR('',#581,0.85);
#180=VECTOR('',#582,3.15);
#181=VECTOR('',#585,1.27);
#182=VECTOR('',#586,1.27);
#183=VECTOR('',#587,3.15);
#184=VECTOR('',#590,0.05);
#185=VECTOR('',#591,0.05);
#186=VECTOR('',#592,3.15);
#187=VECTOR('',#595,1.22);
#188=VECTOR('',#596,1.22);
#189=VECTOR('',#597,3.15);
#190=VECTOR('',#600,0.75);
#191=VECTOR('',#601,0.75);
#192=VECTOR('',#602,3.15);
#193=VECTOR('',#605,0.458);
#194=VECTOR('',#606,0.458);
#195=VERTEX_POINT('',#613);
#196=VERTEX_POINT('',#614);
#197=VERTEX_POINT('',#616);
#198=VERTEX_POINT('',#618);
#199=VERTEX_POINT('',#622);
#200=VERTEX_POINT('',#624);
#201=VERTEX_POINT('',#628);
#202=VERTEX_POINT('',#630);
#203=VERTEX_POINT('',#634);
#204=VERTEX_POINT('',#636);
#205=VERTEX_POINT('',#640);
#206=VERTEX_POINT('',#642);
#207=VERTEX_POINT('',#646);
#208=VERTEX_POINT('',#648);
#209=VERTEX_POINT('',#652);
#210=VERTEX_POINT('',#654);
#211=VERTEX_POINT('',#663);
#212=VERTEX_POINT('',#664);
#213=VERTEX_POINT('',#666);
#214=VERTEX_POINT('',#668);
#215=VERTEX_POINT('',#672);
#216=VERTEX_POINT('',#674);
#217=VERTEX_POINT('',#678);
#218=VERTEX_POINT('',#682);
#219=VERTEX_POINT('',#689);
#220=VERTEX_POINT('',#690);
#221=VERTEX_POINT('',#692);
#222=VERTEX_POINT('',#694);
#223=VERTEX_POINT('',#698);
#224=VERTEX_POINT('',#700);
#225=VERTEX_POINT('',#704);
#226=VERTEX_POINT('',#706);
#227=VERTEX_POINT('',#710);
#228=VERTEX_POINT('',#712);
#229=VERTEX_POINT('',#716);
#230=VERTEX_POINT('',#718);
#231=VERTEX_POINT('',#722);
#232=VERTEX_POINT('',#724);
#233=VERTEX_POINT('',#728);
#234=VERTEX_POINT('',#730);
#235=EDGE_CURVE('',#195,#196,#75,.T.);
#236=EDGE_CURVE('',#197,#196,#76,.T.);
#237=EDGE_CURVE('',#197,#198,#77,.T.);
#238=EDGE_CURVE('',#198,#195,#78,.T.);
#239=EDGE_CURVE('',#196,#199,#79,.T.);
#240=EDGE_CURVE('',#200,#199,#80,.T.);
#241=EDGE_CURVE('',#200,#197,#81,.T.);
#242=EDGE_CURVE('',#199,#201,#82,.T.);
#243=EDGE_CURVE('',#202,#201,#83,.T.);
#244=EDGE_CURVE('',#202,#200,#84,.T.);
#245=EDGE_CURVE('',#201,#203,#85,.T.);
#246=EDGE_CURVE('',#204,#203,#86,.T.);
#247=EDGE_CURVE('',#204,#202,#87,.T.);
#248=EDGE_CURVE('',#203,#205,#88,.T.);
#249=EDGE_CURVE('',#206,#205,#89,.T.);
#250=EDGE_CURVE('',#206,#204,#90,.T.);
#251=EDGE_CURVE('',#205,#207,#91,.T.);
#252=EDGE_CURVE('',#208,#207,#92,.T.);
#253=EDGE_CURVE('',#208,#206,#93,.T.);
#254=EDGE_CURVE('',#207,#209,#94,.T.);
#255=EDGE_CURVE('',#210,#209,#95,.T.);
#256=EDGE_CURVE('',#210,#208,#96,.T.);
#257=EDGE_CURVE('',#209,#195,#97,.T.);
#258=EDGE_CURVE('',#198,#210,#98,.T.);
#259=EDGE_CURVE('',#211,#212,#99,.T.);
#260=EDGE_CURVE('',#212,#213,#100,.T.);
#261=EDGE_CURVE('',#214,#213,#101,.T.);
#262=EDGE_CURVE('',#211,#214,#102,.T.);
#263=EDGE_CURVE('',#214,#215,#103,.T.);
#264=EDGE_CURVE('',#213,#216,#104,.T.);
#265=EDGE_CURVE('',#215,#216,#105,.T.);
#266=EDGE_CURVE('',#211,#217,#106,.T.);
#267=EDGE_CURVE('',#215,#217,#107,.T.);
#268=EDGE_CURVE('',#218,#217,#108,.T.);
#269=EDGE_CURVE('',#212,#218,#109,.T.);
#270=EDGE_CURVE('',#216,#218,#110,.T.);
#271=EDGE_CURVE('',#219,#220,#111,.T.);
#272=EDGE_CURVE('',#221,#219,#112,.T.);
#273=EDGE_CURVE('',#222,#221,#113,.T.);
#274=EDGE_CURVE('',#222,#220,#114,.T.);
#275=EDGE_CURVE('',#220,#223,#115,.T.);
#276=EDGE_CURVE('',#224,#222,#116,.T.);
#277=EDGE_CURVE('',#224,#223,#117,.T.);
#278=EDGE_CURVE('',#223,#225,#118,.T.);
#279=EDGE_CURVE('',#226,#224,#119,.T.);
#280=EDGE_CURVE('',#226,#225,#120,.T.);
#281=EDGE_CURVE('',#225,#227,#121,.T.);
#282=EDGE_CURVE('',#228,#226,#122,.T.);
#283=EDGE_CURVE('',#228,#227,#123,.T.);
#284=EDGE_CURVE('',#227,#229,#124,.T.);
#285=EDGE_CURVE('',#230,#228,#125,.T.);
#286=EDGE_CURVE('',#230,#229,#126,.T.);
#287=EDGE_CURVE('',#229,#231,#127,.T.);
#288=EDGE_CURVE('',#232,#230,#128,.T.);
#289=EDGE_CURVE('',#232,#231,#129,.T.);
#290=EDGE_CURVE('',#231,#233,#130,.T.);
#291=EDGE_CURVE('',#234,#232,#131,.T.);
#292=EDGE_CURVE('',#234,#233,#132,.T.);
#293=EDGE_CURVE('',#233,#219,#133,.T.);
#294=EDGE_CURVE('',#221,#234,#134,.T.);
#295=ORIENTED_EDGE('',*,*,#235,.T.);
#296=ORIENTED_EDGE('',*,*,#236,.F.);
#297=ORIENTED_EDGE('',*,*,#237,.T.);
#298=ORIENTED_EDGE('',*,*,#238,.T.);
#299=ORIENTED_EDGE('',*,*,#239,.T.);
#300=ORIENTED_EDGE('',*,*,#240,.F.);
#301=ORIENTED_EDGE('',*,*,#241,.T.);
#302=ORIENTED_EDGE('',*,*,#236,.T.);
#303=ORIENTED_EDGE('',*,*,#242,.T.);
#304=ORIENTED_EDGE('',*,*,#243,.F.);
#305=ORIENTED_EDGE('',*,*,#244,.T.);
#306=ORIENTED_EDGE('',*,*,#240,.T.);
#307=ORIENTED_EDGE('',*,*,#245,.T.);
#308=ORIENTED_EDGE('',*,*,#246,.F.);
#309=ORIENTED_EDGE('',*,*,#247,.T.);
#310=ORIENTED_EDGE('',*,*,#243,.T.);
#311=ORIENTED_EDGE('',*,*,#248,.T.);
#312=ORIENTED_EDGE('',*,*,#249,.F.);
#313=ORIENTED_EDGE('',*,*,#250,.T.);
#314=ORIENTED_EDGE('',*,*,#246,.T.);
#315=ORIENTED_EDGE('',*,*,#251,.T.);
#316=ORIENTED_EDGE('',*,*,#252,.F.);
#317=ORIENTED_EDGE('',*,*,#253,.T.);
#318=ORIENTED_EDGE('',*,*,#249,.T.);
#319=ORIENTED_EDGE('',*,*,#254,.T.);
#320=ORIENTED_EDGE('',*,*,#255,.F.);
#321=ORIENTED_EDGE('',*,*,#256,.T.);
#322=ORIENTED_EDGE('',*,*,#252,.T.);
#323=ORIENTED_EDGE('',*,*,#257,.T.);
#324=ORIENTED_EDGE('',*,*,#238,.F.);
#325=ORIENTED_EDGE('',*,*,#258,.T.);
#326=ORIENTED_EDGE('',*,*,#255,.T.);
#327=ORIENTED_EDGE('',*,*,#258,.F.);
#328=ORIENTED_EDGE('',*,*,#237,.F.);
#329=ORIENTED_EDGE('',*,*,#241,.F.);
#330=ORIENTED_EDGE('',*,*,#244,.F.);
#331=ORIENTED_EDGE('',*,*,#247,.F.);
#332=ORIENTED_EDGE('',*,*,#250,.F.);
#333=ORIENTED_EDGE('',*,*,#253,.F.);
#334=ORIENTED_EDGE('',*,*,#256,.F.);
#335=ORIENTED_EDGE('',*,*,#235,.F.);
#336=ORIENTED_EDGE('',*,*,#257,.F.);
#337=ORIENTED_EDGE('',*,*,#254,.F.);
#338=ORIENTED_EDGE('',*,*,#251,.F.);
#339=ORIENTED_EDGE('',*,*,#248,.F.);
#340=ORIENTED_EDGE('',*,*,#245,.F.);
#341=ORIENTED_EDGE('',*,*,#242,.F.);
#342=ORIENTED_EDGE('',*,*,#239,.F.);
#343=ORIENTED_EDGE('',*,*,#259,.T.);
#344=ORIENTED_EDGE('',*,*,#260,.T.);
#345=ORIENTED_EDGE('',*,*,#261,.F.);
#346=ORIENTED_EDGE('',*,*,#262,.F.);
#347=ORIENTED_EDGE('',*,*,#263,.F.);
#348=ORIENTED_EDGE('',*,*,#261,.T.);
#349=ORIENTED_EDGE('',*,*,#264,.T.);
#350=ORIENTED_EDGE('',*,*,#265,.F.);
#351=ORIENTED_EDGE('',*,*,#266,.F.);
#352=ORIENTED_EDGE('',*,*,#262,.T.);
#353=ORIENTED_EDGE('',*,*,#263,.T.);
#354=ORIENTED_EDGE('',*,*,#267,.T.);
#355=ORIENTED_EDGE('',*,*,#259,.F.);
#356=ORIENTED_EDGE('',*,*,#266,.T.);
#357=ORIENTED_EDGE('',*,*,#268,.F.);
#358=ORIENTED_EDGE('',*,*,#269,.F.);
#359=ORIENTED_EDGE('',*,*,#268,.T.);
#360=ORIENTED_EDGE('',*,*,#267,.F.);
#361=ORIENTED_EDGE('',*,*,#265,.T.);
#362=ORIENTED_EDGE('',*,*,#270,.T.);
#363=ORIENTED_EDGE('',*,*,#269,.T.);
#364=ORIENTED_EDGE('',*,*,#270,.F.);
#365=ORIENTED_EDGE('',*,*,#264,.F.);
#366=ORIENTED_EDGE('',*,*,#260,.F.);
#367=ORIENTED_EDGE('',*,*,#271,.F.);
#368=ORIENTED_EDGE('',*,*,#272,.F.);
#369=ORIENTED_EDGE('',*,*,#273,.F.);
#370=ORIENTED_EDGE('',*,*,#274,.T.);
#371=ORIENTED_EDGE('',*,*,#275,.F.);
#372=ORIENTED_EDGE('',*,*,#274,.F.);
#373=ORIENTED_EDGE('',*,*,#276,.F.);
#374=ORIENTED_EDGE('',*,*,#277,.T.);
#375=ORIENTED_EDGE('',*,*,#278,.F.);
#376=ORIENTED_EDGE('',*,*,#277,.F.);
#377=ORIENTED_EDGE('',*,*,#279,.F.);
#378=ORIENTED_EDGE('',*,*,#280,.T.);
#379=ORIENTED_EDGE('',*,*,#281,.F.);
#380=ORIENTED_EDGE('',*,*,#280,.F.);
#381=ORIENTED_EDGE('',*,*,#282,.F.);
#382=ORIENTED_EDGE('',*,*,#283,.T.);
#383=ORIENTED_EDGE('',*,*,#284,.F.);
#384=ORIENTED_EDGE('',*,*,#283,.F.);
#385=ORIENTED_EDGE('',*,*,#285,.F.);
#386=ORIENTED_EDGE('',*,*,#286,.T.);
#387=ORIENTED_EDGE('',*,*,#287,.F.);
#388=ORIENTED_EDGE('',*,*,#286,.F.);
#389=ORIENTED_EDGE('',*,*,#288,.F.);
#390=ORIENTED_EDGE('',*,*,#289,.T.);
#391=ORIENTED_EDGE('',*,*,#290,.F.);
#392=ORIENTED_EDGE('',*,*,#289,.F.);
#393=ORIENTED_EDGE('',*,*,#291,.F.);
#394=ORIENTED_EDGE('',*,*,#292,.T.);
#395=ORIENTED_EDGE('',*,*,#293,.F.);
#396=ORIENTED_EDGE('',*,*,#292,.F.);
#397=ORIENTED_EDGE('',*,*,#294,.F.);
#398=ORIENTED_EDGE('',*,*,#272,.T.);
#399=ORIENTED_EDGE('',*,*,#294,.T.);
#400=ORIENTED_EDGE('',*,*,#291,.T.);
#401=ORIENTED_EDGE('',*,*,#288,.T.);
#402=ORIENTED_EDGE('',*,*,#285,.T.);
#403=ORIENTED_EDGE('',*,*,#282,.T.);
#404=ORIENTED_EDGE('',*,*,#279,.T.);
#405=ORIENTED_EDGE('',*,*,#276,.T.);
#406=ORIENTED_EDGE('',*,*,#273,.T.);
#407=ORIENTED_EDGE('',*,*,#271,.T.);
#408=ORIENTED_EDGE('',*,*,#275,.T.);
#409=ORIENTED_EDGE('',*,*,#278,.T.);
#410=ORIENTED_EDGE('',*,*,#281,.T.);
#411=ORIENTED_EDGE('',*,*,#284,.T.);
#412=ORIENTED_EDGE('',*,*,#287,.T.);
#413=ORIENTED_EDGE('',*,*,#290,.T.);
#414=ORIENTED_EDGE('',*,*,#293,.T.);
#415=PLANE('',#471);
#416=PLANE('',#472);
#417=PLANE('',#473);
#418=PLANE('',#474);
#419=PLANE('',#475);
#420=PLANE('',#476);
#421=PLANE('',#477);
#422=PLANE('',#478);
#423=PLANE('',#479);
#424=PLANE('',#480);
#425=PLANE('',#481);
#426=PLANE('',#482);
#427=PLANE('',#483);
#428=PLANE('',#484);
#429=PLANE('',#485);
#430=PLANE('',#486);
#431=PLANE('',#487);
#432=PLANE('',#488);
#433=PLANE('',#489);
#434=PLANE('',#490);
#435=PLANE('',#491);
#436=PLANE('',#492);
#437=PLANE('',#493);
#438=PLANE('',#494);
#439=PLANE('',#495);
#440=PLANE('',#496);
#441=ADVANCED_FACE('',(#23),#415,.T.);
#442=ADVANCED_FACE('',(#24),#416,.T.);
#443=ADVANCED_FACE('',(#25),#417,.T.);
#444=ADVANCED_FACE('',(#26),#418,.T.);
#445=ADVANCED_FACE('',(#27),#419,.T.);
#446=ADVANCED_FACE('',(#28),#420,.T.);
#447=ADVANCED_FACE('',(#29),#421,.T.);
#448=ADVANCED_FACE('',(#30),#422,.T.);
#449=ADVANCED_FACE('',(#31),#423,.F.);
#450=ADVANCED_FACE('',(#32),#424,.T.);
#451=ADVANCED_FACE('',(#33),#425,.T.);
#452=ADVANCED_FACE('',(#34),#426,.T.);
#453=ADVANCED_FACE('',(#35),#427,.T.);
#454=ADVANCED_FACE('',(#36),#428,.T.);
#455=ADVANCED_FACE('',(#37),#429,.F.);
#456=ADVANCED_FACE('',(#38),#430,.F.);
#457=ADVANCED_FACE('',(#39),#431,.F.);
#458=ADVANCED_FACE('',(#40),#432,.F.);
#459=ADVANCED_FACE('',(#41),#433,.F.);
#460=ADVANCED_FACE('',(#42),#434,.F.);
#461=ADVANCED_FACE('',(#43),#435,.F.);
#462=ADVANCED_FACE('',(#44),#436,.F.);
#463=ADVANCED_FACE('',(#45),#437,.F.);
#464=ADVANCED_FACE('',(#46),#438,.F.);
#465=ADVANCED_FACE('',(#47),#439,.T.);
#466=ADVANCED_FACE('',(#48),#440,.F.);
#467=CLOSED_SHELL('',(#441,#442,#443,#444,#445,#446,#447,#448,#449,#450));
#468=CLOSED_SHELL('',(#451,#452,#453,#454,#455,#456));
#469=CLOSED_SHELL('',(#457,#458,#459,#460,#461,#462,#463,#464,#465,#466));
#470=AXIS2_PLACEMENT_3D('placement',#611,#497,#498);
#471=AXIS2_PLACEMENT_3D('',#612,#499,#500);
#472=AXIS2_PLACEMENT_3D('',#621,#505,#506);
#473=AXIS2_PLACEMENT_3D('',#627,#510,#511);
#474=AXIS2_PLACEMENT_3D('',#633,#515,#516);
#475=AXIS2_PLACEMENT_3D('',#639,#520,#521);
#476=AXIS2_PLACEMENT_3D('',#645,#525,#526);
#477=AXIS2_PLACEMENT_3D('',#651,#530,#531);
#478=AXIS2_PLACEMENT_3D('',#657,#535,#536);
#479=AXIS2_PLACEMENT_3D('',#660,#539,#540);
#480=AXIS2_PLACEMENT_3D('',#661,#541,#542);
#481=AXIS2_PLACEMENT_3D('',#662,#543,#544);
#482=AXIS2_PLACEMENT_3D('',#671,#549,#550);
#483=AXIS2_PLACEMENT_3D('',#677,#554,#555);
#484=AXIS2_PLACEMENT_3D('',#681,#558,#559);
#485=AXIS2_PLACEMENT_3D('',#685,#562,#563);
#486=AXIS2_PLACEMENT_3D('',#687,#565,#566);
#487=AXIS2_PLACEMENT_3D('',#688,#567,#568);
#488=AXIS2_PLACEMENT_3D('',#697,#573,#574);
#489=AXIS2_PLACEMENT_3D('',#703,#578,#579);
#490=AXIS2_PLACEMENT_3D('',#709,#583,#584);
#491=AXIS2_PLACEMENT_3D('',#715,#588,#589);
#492=AXIS2_PLACEMENT_3D('',#721,#593,#594);
#493=AXIS2_PLACEMENT_3D('',#727,#598,#599);
#494=AXIS2_PLACEMENT_3D('',#733,#603,#604);
#495=AXIS2_PLACEMENT_3D('',#736,#607,#608);
#496=AXIS2_PLACEMENT_3D('',#737,#609,#610);
#497=DIRECTION('axis',(0.,0.,1.));
#498=DIRECTION('refdir',(1.,0.,0.));
#499=DIRECTION('center_axis',(1.,0.,0.));
#500=DIRECTION('ref_axis',(0.,0.,-1.));
#501=DIRECTION('',(0.,0.,1.));
#502=DIRECTION('',(0.,1.,0.));
#503=DIRECTION('',(0.,0.,-1.));
#504=DIRECTION('',(0.,1.,0.));
#505=DIRECTION('center_axis',(0.,0.,1.));
#506=DIRECTION('ref_axis',(1.,0.,0.));
#507=DIRECTION('',(-1.,0.,0.));
#508=DIRECTION('',(0.,1.,0.));
#509=DIRECTION('',(1.,0.,0.));
#510=DIRECTION('center_axis',(-1.,0.,0.));
#511=DIRECTION('ref_axis',(0.,0.,1.));
#512=DIRECTION('',(0.,0.,-1.));
#513=DIRECTION('',(0.,1.,0.));
#514=DIRECTION('',(0.,0.,1.));
#515=DIRECTION('center_axis',(0.,0.,-1.));
#516=DIRECTION('ref_axis',(-1.,0.,0.));
#517=DIRECTION('',(1.,0.,0.));
#518=DIRECTION('',(0.,1.,0.));
#519=DIRECTION('',(-1.,0.,0.));
#520=DIRECTION('center_axis',(1.,0.,8.88178419700125E-15));
#521=DIRECTION('ref_axis',(8.88178419700125E-15,0.,-1.));
#522=DIRECTION('',(-8.88178419700125E-15,0.,1.));
#523=DIRECTION('',(0.,1.,0.));
#524=DIRECTION('',(8.88178419700125E-15,0.,-1.));
#525=DIRECTION('center_axis',(9.68217754033567E-17,0.,1.));
#526=DIRECTION('ref_axis',(1.,0.,-9.71445146547012E-17));
#527=DIRECTION('',(-1.,0.,9.68217754033567E-17));
#528=DIRECTION('',(0.,1.,0.));
#529=DIRECTION('',(1.,0.,-9.68217754033567E-17));
#530=DIRECTION('center_axis',(1.,0.,0.));
#531=DIRECTION('ref_axis',(0.,0.,-1.));
#532=DIRECTION('',(0.,0.,1.));
#533=DIRECTION('',(0.,1.,0.));
#534=DIRECTION('',(0.,0.,-1.));
#535=DIRECTION('center_axis',(0.,0.,-1.));
#536=DIRECTION('ref_axis',(-1.,0.,0.));
#537=DIRECTION('',(1.,0.,0.));
#538=DIRECTION('',(-1.,0.,0.));
#539=DIRECTION('center_axis',(6.35037812654437E-31,1.,1.83047360595185E-31));
#540=DIRECTION('ref_axis',(0.,0.,1.));
#541=DIRECTION('center_axis',(6.35037812654436E-31,1.,9.77995898037134E-31));
#542=DIRECTION('ref_axis',(0.,0.,1.));
#543=DIRECTION('center_axis',(0.,-1.,0.));
#544=DIRECTION('ref_axis',(1.,0.,0.));
#545=DIRECTION('',(-1.,0.,0.));
#546=DIRECTION('',(0.,0.,-1.));
#547=DIRECTION('',(-1.,0.,0.));
#548=DIRECTION('',(0.,0.,-1.));
#549=DIRECTION('center_axis',(0.,0.,-1.));
#550=DIRECTION('ref_axis',(0.,-1.,0.));
#551=DIRECTION('',(0.,1.,0.));
#552=DIRECTION('',(0.,1.,0.));
#553=DIRECTION('',(-1.,0.,0.));
#554=DIRECTION('center_axis',(1.,0.,0.));
#555=DIRECTION('ref_axis',(0.,1.,0.));
#556=DIRECTION('',(0.,1.,0.));
#557=DIRECTION('',(0.,0.,1.));
#558=DIRECTION('center_axis',(0.,0.,1.));
#559=DIRECTION('ref_axis',(0.,1.,0.));
#560=DIRECTION('',(1.,0.,0.));
#561=DIRECTION('',(0.,1.,0.));
#562=DIRECTION('center_axis',(0.,-1.,0.));
#563=DIRECTION('ref_axis',(1.,0.,0.));
#564=DIRECTION('',(0.,0.,1.));
#565=DIRECTION('center_axis',(1.,0.,0.));
#566=DIRECTION('ref_axis',(0.,1.,0.));
#567=DIRECTION('center_axis',(1.,0.,0.));
#568=DIRECTION('ref_axis',(0.,0.,-1.));
#569=DIRECTION('',(0.,0.,1.));
#570=DIRECTION('',(0.,1.,0.));
#571=DIRECTION('',(0.,0.,-1.));
#572=DIRECTION('',(0.,1.,0.));
#573=DIRECTION('center_axis',(0.,0.,-1.));
#574=DIRECTION('ref_axis',(-1.,0.,0.));
#575=DIRECTION('',(1.,0.,0.));
#576=DIRECTION('',(-1.,0.,0.));
#577=DIRECTION('',(0.,1.,0.));
#578=DIRECTION('center_axis',(-1.,0.,0.));
#579=DIRECTION('ref_axis',(0.,0.,1.));
#580=DIRECTION('',(0.,0.,-1.));
#581=DIRECTION('',(0.,0.,1.));
#582=DIRECTION('',(0.,1.,0.));
#583=DIRECTION('center_axis',(0.,0.,1.));
#584=DIRECTION('ref_axis',(1.,0.,0.));
#585=DIRECTION('',(-1.,0.,0.));
#586=DIRECTION('',(1.,0.,0.));
#587=DIRECTION('',(0.,1.,0.));
#588=DIRECTION('center_axis',(1.,0.,-8.88178419700125E-15));
#589=DIRECTION('ref_axis',(-8.88178419700125E-15,0.,-1.));
#590=DIRECTION('',(8.88178419700125E-15,0.,1.));
#591=DIRECTION('',(-8.88178419700125E-15,0.,-1.));
#592=DIRECTION('',(0.,1.,0.));
#593=DIRECTION('center_axis',(9.68217754033567E-17,0.,-1.));
#594=DIRECTION('ref_axis',(-1.,0.,-9.71445146547012E-17));
#595=DIRECTION('',(1.,0.,9.68217754033567E-17));
#596=DIRECTION('',(-1.,0.,-9.68217754033567E-17));
#597=DIRECTION('',(0.,1.,0.));
#598=DIRECTION('center_axis',(1.,0.,0.));
#599=DIRECTION('ref_axis',(0.,0.,-1.));
#600=DIRECTION('',(0.,0.,1.));
#601=DIRECTION('',(0.,0.,-1.));
#602=DIRECTION('',(0.,1.,0.));
#603=DIRECTION('center_axis',(0.,0.,1.));
#604=DIRECTION('ref_axis',(1.,0.,0.));
#605=DIRECTION('',(-1.,0.,0.));
#606=DIRECTION('',(1.,0.,0.));
#607=DIRECTION('center_axis',(6.35037812654437E-31,-1.,-1.83047360595185E-31));
#608=DIRECTION('ref_axis',(0.,0.,1.));
#609=DIRECTION('center_axis',(6.35037812654436E-31,-1.,-9.77995898037134E-31));
#610=DIRECTION('ref_axis',(0.,0.,1.));
#611=CARTESIAN_POINT('',(0.,0.,0.));
#612=CARTESIAN_POINT('Origin',(-2.74199999999994,-1.67500000000003,0.75));
#613=CARTESIAN_POINT('',(-2.74199999999994,1.57499999999997,0.8));
#614=CARTESIAN_POINT('',(-2.74199999999994,1.57499999999997,0.85));
#615=CARTESIAN_POINT('',(-2.74199999999994,1.57499999999997,0.8));
#616=CARTESIAN_POINT('',(-2.74199999999994,-1.57500000000003,0.85));
#617=CARTESIAN_POINT('',(-2.74199999999994,-1.67500000000003,0.85));
#618=CARTESIAN_POINT('',(-2.74199999999994,-1.57500000000003,0.8));
#619=CARTESIAN_POINT('',(-2.74199999999994,-1.57500000000003,0.8));
#620=CARTESIAN_POINT('',(-2.74199999999994,-1.67500000000003,0.8));
#621=CARTESIAN_POINT('Origin',(-2.76999999999994,-1.67500000000003,0.85));
#622=CARTESIAN_POINT('',(-3.24999999999994,1.57499999999997,0.85));
#623=CARTESIAN_POINT('',(-3.24999999999994,1.57499999999997,0.85));
#624=CARTESIAN_POINT('',(-3.24999999999994,-1.57500000000003,0.85));
#625=CARTESIAN_POINT('',(-3.24999999999994,-1.67500000000003,0.85));
#626=CARTESIAN_POINT('',(-3.24999999999994,-1.57500000000003,0.85));
#627=CARTESIAN_POINT('Origin',(-3.24999999999994,-1.67500000000003,0.8));
#628=CARTESIAN_POINT('',(-3.24999999999994,1.57499999999997,0.));
#629=CARTESIAN_POINT('',(-3.24999999999994,1.57499999999997,0.));
#630=CARTESIAN_POINT('',(-3.24999999999994,-1.57500000000003,0.));
#631=CARTESIAN_POINT('',(-3.24999999999994,-1.67500000000003,0.));
#632=CARTESIAN_POINT('',(-3.24999999999994,-1.57500000000003,0.));
#633=CARTESIAN_POINT('Origin',(-3.24999999999994,-1.67500000000003,0.));
#634=CARTESIAN_POINT('',(-1.97999999999994,1.57499999999997,0.));
#635=CARTESIAN_POINT('',(-2.76999999999994,1.57499999999997,0.));
#636=CARTESIAN_POINT('',(-1.97999999999994,-1.57500000000003,0.));
#637=CARTESIAN_POINT('',(-1.97999999999994,-1.67500000000003,0.));
#638=CARTESIAN_POINT('',(-2.76999999999994,-1.57500000000003,0.));
#639=CARTESIAN_POINT('Origin',(-1.97999999999994,-1.67500000000003,0.));
#640=CARTESIAN_POINT('',(-1.97999999999994,1.57499999999997,0.05));
#641=CARTESIAN_POINT('',(-1.97999999999994,1.57499999999997,0.05));
#642=CARTESIAN_POINT('',(-1.97999999999994,-1.57500000000003,0.05));
#643=CARTESIAN_POINT('',(-1.97999999999994,-1.67500000000003,0.05));
#644=CARTESIAN_POINT('',(-1.97999999999994,-1.57500000000003,0.05));
#645=CARTESIAN_POINT('Origin',(-1.97999999999994,-1.67500000000003,0.05));
#646=CARTESIAN_POINT('',(-3.19999999999994,1.57499999999997,0.0500000000000001));
#647=CARTESIAN_POINT('',(-2.40999999999994,1.57499999999997,0.05));
#648=CARTESIAN_POINT('',(-3.19999999999994,-1.57500000000003,0.0500000000000001));
#649=CARTESIAN_POINT('',(-3.19999999999994,-1.67500000000003,0.05));
#650=CARTESIAN_POINT('',(-2.40999999999994,-1.57500000000003,0.05));
#651=CARTESIAN_POINT('Origin',(-3.19999999999994,-1.67500000000003,0.05));
#652=CARTESIAN_POINT('',(-3.19999999999994,1.57499999999997,0.8));
#653=CARTESIAN_POINT('',(-3.19999999999994,1.57499999999997,0.75));
#654=CARTESIAN_POINT('',(-3.19999999999994,-1.57500000000003,0.8));
#655=CARTESIAN_POINT('',(-3.19999999999994,-1.67500000000003,0.8));
#656=CARTESIAN_POINT('',(-3.19999999999994,-1.57500000000003,0.75));
#657=CARTESIAN_POINT('Origin',(-3.19999999999994,-1.67500000000003,0.8));
#658=CARTESIAN_POINT('',(-2.76999999999994,1.57499999999997,0.8));
#659=CARTESIAN_POINT('',(-2.76999999999994,-1.57500000000003,0.8));
#660=CARTESIAN_POINT('Origin',(-3.09172514619877,-1.57500000000003,0.4));
#661=CARTESIAN_POINT('Origin',(-3.09172514619877,1.57499999999997,0.4));
#662=CARTESIAN_POINT('Origin',(-2.98499999999994,-1.57500000000003,0.4));
#663=CARTESIAN_POINT('',(3.19999999999994,-1.57500000000003,0.8));
#664=CARTESIAN_POINT('',(-3.19999999999994,-1.57500000000003,0.8));
#665=CARTESIAN_POINT('',(-2.98499999999994,-1.57500000000003,0.8));
#666=CARTESIAN_POINT('',(-3.19999999999994,-1.57500000000003,0.05));
#667=CARTESIAN_POINT('',(-3.19999999999994,-1.57500000000003,0.4));
#668=CARTESIAN_POINT('',(3.19999999999994,-1.57500000000003,0.05));
#669=CARTESIAN_POINT('',(2.98499999999994,-1.57500000000003,0.05));
#670=CARTESIAN_POINT('',(3.19999999999994,-1.57500000000003,0.4));
#671=CARTESIAN_POINT('Origin',(2.98499999999994,-0.0500000000000278,0.05));
#672=CARTESIAN_POINT('',(3.19999999999994,1.57499999999997,0.05));
#673=CARTESIAN_POINT('',(3.19999999999994,-0.0500000000000278,0.05));
#674=CARTESIAN_POINT('',(-3.19999999999994,1.57499999999997,0.05));
#675=CARTESIAN_POINT('',(-3.19999999999994,-0.0500000000000278,0.05));
#676=CARTESIAN_POINT('',(-1.49249999999997,1.57499999999997,0.05));
#677=CARTESIAN_POINT('Origin',(3.19999999999994,-0.0500000000000278,0.4));
#678=CARTESIAN_POINT('',(3.19999999999994,1.57499999999997,0.8));
#679=CARTESIAN_POINT('',(3.19999999999994,-0.0500000000000278,0.8));
#680=CARTESIAN_POINT('',(3.19999999999994,1.57499999999997,0.4));
#681=CARTESIAN_POINT('Origin',(2.98499999999994,-0.0500000000000278,0.8));
#682=CARTESIAN_POINT('',(-3.19999999999994,1.57499999999997,0.8));
#683=CARTESIAN_POINT('',(-1.49249999999997,1.57499999999997,0.8));
#684=CARTESIAN_POINT('',(-3.19999999999994,-0.0500000000000278,0.8));
#685=CARTESIAN_POINT('Origin',(-2.98499999999994,1.57499999999997,0.4));
#686=CARTESIAN_POINT('',(-3.19999999999994,1.57499999999997,0.4));
#687=CARTESIAN_POINT('Origin',(-3.19999999999994,-0.0500000000000278,0.4));
#688=CARTESIAN_POINT('Origin',(2.74199999999994,-1.67500000000003,0.75));
#689=CARTESIAN_POINT('',(2.74199999999994,1.57499999999997,0.8));
#690=CARTESIAN_POINT('',(2.74199999999994,1.57499999999997,0.85));
#691=CARTESIAN_POINT('',(2.74199999999994,1.57499999999997,0.8));
#692=CARTESIAN_POINT('',(2.74199999999994,-1.57500000000003,0.8));
#693=CARTESIAN_POINT('',(2.74199999999994,-1.67500000000003,0.8));
#694=CARTESIAN_POINT('',(2.74199999999994,-1.57500000000003,0.85));
#695=CARTESIAN_POINT('',(2.74199999999994,-1.57500000000003,0.8));
#696=CARTESIAN_POINT('',(2.74199999999994,-1.67500000000003,0.85));
#697=CARTESIAN_POINT('Origin',(2.76999999999994,-1.67500000000003,0.85));
#698=CARTESIAN_POINT('',(3.24999999999994,1.57499999999997,0.85));
#699=CARTESIAN_POINT('',(3.24999999999994,1.57499999999997,0.85));
#700=CARTESIAN_POINT('',(3.24999999999994,-1.57500000000003,0.85));
#701=CARTESIAN_POINT('',(3.24999999999994,-1.57500000000003,0.85));
#702=CARTESIAN_POINT('',(3.24999999999994,-1.67500000000003,0.85));
#703=CARTESIAN_POINT('Origin',(3.24999999999994,-1.67500000000003,0.8));
#704=CARTESIAN_POINT('',(3.24999999999994,1.57499999999997,0.));
#705=CARTESIAN_POINT('',(3.24999999999994,1.57499999999997,0.));
#706=CARTESIAN_POINT('',(3.24999999999994,-1.57500000000003,0.));
#707=CARTESIAN_POINT('',(3.24999999999994,-1.57500000000003,0.));
#708=CARTESIAN_POINT('',(3.24999999999994,-1.67500000000003,0.));
#709=CARTESIAN_POINT('Origin',(3.24999999999994,-1.67500000000003,0.));
#710=CARTESIAN_POINT('',(1.97999999999994,1.57499999999997,0.));
#711=CARTESIAN_POINT('',(2.76999999999994,1.57499999999997,0.));
#712=CARTESIAN_POINT('',(1.97999999999994,-1.57500000000003,0.));
#713=CARTESIAN_POINT('',(2.76999999999994,-1.57500000000003,0.));
#714=CARTESIAN_POINT('',(1.97999999999994,-1.67500000000003,0.));
#715=CARTESIAN_POINT('Origin',(1.97999999999994,-1.67500000000003,0.));
#716=CARTESIAN_POINT('',(1.97999999999994,1.57499999999997,0.05));
#717=CARTESIAN_POINT('',(1.97999999999994,1.57499999999997,0.05));
#718=CARTESIAN_POINT('',(1.97999999999994,-1.57500000000003,0.05));
#719=CARTESIAN_POINT('',(1.97999999999994,-1.57500000000003,0.05));
#720=CARTESIAN_POINT('',(1.97999999999994,-1.67500000000003,0.05));
#721=CARTESIAN_POINT('Origin',(2.76999999999994,-1.67500000000003,0.05));
#722=CARTESIAN_POINT('',(3.19999999999994,1.57499999999997,0.05));
#723=CARTESIAN_POINT('',(3.19999999999994,1.57499999999997,0.05));
#724=CARTESIAN_POINT('',(3.19999999999994,-1.57500000000003,0.05));
#725=CARTESIAN_POINT('',(3.19999999999994,-1.57500000000003,0.05));
#726=CARTESIAN_POINT('',(3.19999999999994,-1.67500000000003,0.05));
#727=CARTESIAN_POINT('Origin',(3.19999999999994,-1.67500000000003,0.05));
#728=CARTESIAN_POINT('',(3.19999999999994,1.57499999999997,0.8));
#729=CARTESIAN_POINT('',(3.19999999999994,1.57499999999997,0.75));
#730=CARTESIAN_POINT('',(3.19999999999994,-1.57500000000003,0.8));
#731=CARTESIAN_POINT('',(3.19999999999994,-1.57500000000003,0.75));
#732=CARTESIAN_POINT('',(3.19999999999994,-1.67500000000003,0.8));
#733=CARTESIAN_POINT('Origin',(3.19999999999994,-1.67500000000003,0.8));
#734=CARTESIAN_POINT('',(2.76999999999994,1.57499999999997,0.8));
#735=CARTESIAN_POINT('',(2.76999999999994,-1.57500000000003,0.8));
#736=CARTESIAN_POINT('Origin',(3.09172514619877,-1.57500000000003,0.4));
#737=CARTESIAN_POINT('Origin',(3.09172514619877,1.57499999999997,0.4));
#738=UNCERTAINTY_MEASURE_WITH_UNIT(LENGTH_MEASURE(0.01),#742,
'DISTANCE_ACCURACY_VALUE',
'Maximum model space distance between geometric entities at asserted c
onnectivities');
#739=UNCERTAINTY_MEASURE_WITH_UNIT(LENGTH_MEASURE(1.E-6),#742,
'DISTANCE_ACCURACY_VALUE',
'Maximum model space distance between geometric entities at asserted c
onnectivities');
#740=(
GEOMETRIC_REPRESENTATION_CONTEXT(3)
GLOBAL_UNCERTAINTY_ASSIGNED_CONTEXT((#738))
GLOBAL_UNIT_ASSIGNED_CONTEXT((#742,#744,#743))
REPRESENTATION_CONTEXT('','3D')
);
#741=(
GEOMETRIC_REPRESENTATION_CONTEXT(3)
GLOBAL_UNCERTAINTY_ASSIGNED_CONTEXT((#739))
GLOBAL_UNIT_ASSIGNED_CONTEXT((#742,#12,#743))
REPRESENTATION_CONTEXT('','3D')
);
#742=(
LENGTH_UNIT()
NAMED_UNIT(*)
SI_UNIT(.MILLI.,.METRE.)
);
#743=(
NAMED_UNIT(*)
SI_UNIT($,.STERADIAN.)
SOLID_ANGLE_UNIT()
);
#744=(
NAMED_UNIT(*)
PLANE_ANGLE_UNIT()
SI_UNIT($,.RADIAN.)
);
#745=SHAPE_DEFINITION_REPRESENTATION(#746,#747);
#746=PRODUCT_DEFINITION_SHAPE('',$,#749);
#747=SHAPE_REPRESENTATION('',(#470),#740);
#748=PRODUCT_DEFINITION_CONTEXT('part definition',#753,'design');
#749=PRODUCT_DEFINITION('Product','Product',#750,#748);
#750=PRODUCT_DEFINITION_FORMATION('',$,#755);
#751=PRODUCT_RELATED_PRODUCT_CATEGORY('Product','Product',(#755));
#752=APPLICATION_PROTOCOL_DEFINITION('international standard',
'automotive_design',2009,#753);
#753=APPLICATION_CONTEXT(
'Core Data for Automotive Mechanical Design Process');
#754=PRODUCT_CONTEXT('part definition',#753,'mechanical');
#755=PRODUCT('Product','Product',$,(#754));
#756=PRESENTATION_STYLE_ASSIGNMENT((#759));
#757=PRESENTATION_STYLE_ASSIGNMENT((#760));
#758=PRESENTATION_STYLE_ASSIGNMENT((#761));
#759=SURFACE_STYLE_USAGE(.BOTH.,#762);
#760=SURFACE_STYLE_USAGE(.BOTH.,#763);
#761=SURFACE_STYLE_USAGE(.BOTH.,#764);
#762=SURFACE_SIDE_STYLE('',(#765));
#763=SURFACE_SIDE_STYLE('',(#766));
#764=SURFACE_SIDE_STYLE('',(#767));
#765=SURFACE_STYLE_FILL_AREA(#768);
#766=SURFACE_STYLE_FILL_AREA(#769);
#767=SURFACE_STYLE_FILL_AREA(#770);
#768=FILL_AREA_STYLE('',(#771));
#769=FILL_AREA_STYLE('',(#772));
#770=FILL_AREA_STYLE('',(#773));
#771=FILL_AREA_STYLE_COLOUR('',#774);
#772=FILL_AREA_STYLE_COLOUR('',#775);
#773=FILL_AREA_STYLE_COLOUR('',#776);
#774=COLOUR_RGB('',1.,1.,1.);
#775=COLOUR_RGB('',0.749019607843137,0.749019607843137,0.749019607843137);
#776=COLOUR_RGB('',0.329411764705882,0.329411764705882,0.329411764705882);
ENDSEC;
END-ISO-10303-21;
