ISO-10303-21;
HEADER;
/****************************************************************
 * Generated by software with PDE/Lib inside                    *
 * PDElib Version v51a, created Thu 12/14/2006                  *
 * International Technegroup Inc. (www.iti-oh.com)              *
 ****************************************************************/
FILE_DESCRIPTION((''),'2;1');
FILE_NAME('3d.stp','2008-10-23T15:02:37',(''),(''),'Mechanical Desktop 2009','Mechanical Desktop 2009',', , ');
FILE_SCHEMA(('AUTOMOTIVE_DESIGN { 1 2 10303 214 1 1 1 1 }'));
ENDSEC;
DATA;
#8=(NAMED_UNIT(*)PLANE_ANGLE_UNIT()SI_UNIT($,.RADIAN.));
#9=DIMENSIONAL_EXPONENTS(0.0,0.0,0.0,0.0,0.0,0.0,0.0);
#10=PLANE_ANGLE_MEASURE_WITH_UNIT(PLANE_ANGLE_MEASURE(0.017453292500000),#8);
#14=(CONVERSION_BASED_UNIT('DEGREE',#10)NAMED_UNIT(#9)PLANE_ANGLE_UNIT());
#18=(NAMED_UNIT(*)SI_UNIT($,.STERADIAN.)SOLID_ANGLE_UNIT());
#22=(LENGTH_UNIT()NAMED_UNIT(*)SI_UNIT(.MILLI.,.METRE.));
#23=UNCERTAINTY_MEASURE_WITH_UNIT(LENGTH_MEASURE(0.000001000000000),#22,'DISTANCE_ACCURACY_VALUE','');
#28=(GEOMETRIC_REPRESENTATION_CONTEXT(3)GLOBAL_UNCERTAINTY_ASSIGNED_CONTEXT((#23))GLOBAL_UNIT_ASSIGNED_CONTEXT((#14,#18,#22))REPRESENTATION_CONTEXT('None','None'));
#29=APPLICATION_CONTEXT('automotive design');
#30=APPLICATION_PROTOCOL_DEFINITION('INTERNATIONAL_STANDARD','automotive_design',1998,#29);
#31=PRODUCT_CONTEXT('3D Mechanical Parts',#29,'mechanical');
#32=PRODUCT('Product','Product','',(#31));
#33=PRODUCT_RELATED_PRODUCT_CATEGORY('part',$,(#32));
#34=PRODUCT_CATEGORY('part',$);
#35=PERSON('1','Design','Joe',$,$,$);
#36=ORGANIZATION($,'None','None');
#37=PERSON_AND_ORGANIZATION(#35,#36);
#38=PERSON_AND_ORGANIZATION_ROLE('design_owner');
#39=APPLIED_PERSON_AND_ORGANIZATION_ASSIGNMENT(#37,#38,(#32));
#40=PRODUCT_DEFINITION_FORMATION_WITH_SPECIFIED_SOURCE('None','',#32,.BOUGHT.);
#41=PERSON('2','Creator','Joe',$,$,$);
#42=ORGANIZATION($,'None','None');
#43=PERSON_AND_ORGANIZATION(#41,#42);
#44=PERSON_AND_ORGANIZATION_ROLE('creator');
#45=APPLIED_PERSON_AND_ORGANIZATION_ASSIGNMENT(#43,#44,(#40));
#46=PERSON('3','Supplier','Joe',$,$,$);
#47=ORGANIZATION($,'None','None');
#48=PERSON_AND_ORGANIZATION(#46,#47);
#49=PERSON_AND_ORGANIZATION_ROLE('design_supplier');
#50=APPLIED_PERSON_AND_ORGANIZATION_ASSIGNMENT(#48,#49,(#40));
#51=PRODUCT_DEFINITION_CONTEXT('part definition',#29,'design');
#52=PRODUCT_DEFINITION('None','',#40,#51);
#53=PERSON('4','Creator','Joe',$,$,$);
#54=ORGANIZATION($,'None','None');
#55=PERSON_AND_ORGANIZATION(#53,#54);
#56=PERSON_AND_ORGANIZATION_ROLE('creator');
#57=APPLIED_PERSON_AND_ORGANIZATION_ASSIGNMENT(#55,#56,(#52));
#58=CARTESIAN_POINT('NONE',(0.0,0.0,0.0));
#59=DIRECTION('NONE',(0.0,0.0,1.0));
#60=DIRECTION('NONE',(1.0,0.0,0.0));
#61=AXIS2_PLACEMENT_3D('NONE',#58,#59,#60);
#62=SHAPE_REPRESENTATION('SR1',(#61),#28);
#63=PRODUCT_DEFINITION_SHAPE('PDS1','Test Part',#52);
#64=SHAPE_DEFINITION_REPRESENTATION(#63,#62);
#65=CARTESIAN_POINT('',(0.409999999999854,0.869999999999738,1.187157287524697));
#66=DIRECTION('',(1.0,4.057416E-016,-6.563344E-032));
#67=DIRECTION('',(-3.748564E-016,0.923879532511283,0.382683432365100));
#68=AXIS2_PLACEMENT_3D('',#65,#66,#67);
#69=CYLINDRICAL_SURFACE('',#68,0.599999999999992);
#70=CARTESIAN_POINT('',(0.859999999999854,1.294264068711655,1.611421356236624));
#71=VERTEX_POINT('',#70);
#72=CARTESIAN_POINT('',(0.859999999999854,1.469999999999729,1.187157287524704));
#73=VERTEX_POINT('',#72);
#74=CARTESIAN_POINT('',(0.859999999999854,0.869999999999738,1.187157287524697));
#75=DIRECTION('',(-1.0,-3.463221E-016,-1.434513E-016));
#76=DIRECTION('',(-3.748564E-016,0.923879532511283,0.382683432365100));
#77=AXIS2_PLACEMENT_3D('',#74,#75,#76);
#78=CIRCLE('',#77,0.599999999999992);
#79=EDGE_CURVE('',#71,#73,#78,.T.);
#80=ORIENTED_EDGE('',*,*,#79,.T.);
#81=CARTESIAN_POINT('',(0.409999999999854,1.469999999999729,1.187157287524704));
#82=VERTEX_POINT('',#81);
#83=CARTESIAN_POINT('',(0.409999999999854,1.469999999999729,1.187157287524704));
#84=DIRECTION('',(1.0,0.0,0.0));
#85=VECTOR('',#84,0.450000000000000);
#86=LINE('',#83,#85);
#87=EDGE_CURVE('',#82,#73,#86,.T.);
#88=ORIENTED_EDGE('',*,*,#87,.F.);
#89=CARTESIAN_POINT('',(0.409999999999854,1.294264068711655,1.611421356236624));
#90=VERTEX_POINT('',#89);
#91=CARTESIAN_POINT('',(0.409999999999854,0.869999999999738,1.187157287524697));
#92=DIRECTION('',(-1.0,-3.463221E-016,-1.434513E-016));
#93=DIRECTION('',(-3.748564E-016,0.923879532511283,0.382683432365100));
#94=AXIS2_PLACEMENT_3D('',#91,#92,#93);
#95=CIRCLE('',#94,0.599999999999992);
#96=EDGE_CURVE('',#90,#82,#95,.T.);
#97=ORIENTED_EDGE('',*,*,#96,.F.);
#98=CARTESIAN_POINT('',(0.409999999999854,1.294264068711655,1.611421356236624));
#99=DIRECTION('',(1.0,0.0,0.0));
#100=VECTOR('',#99,0.450000000000000);
#101=LINE('',#98,#100);
#102=EDGE_CURVE('',#90,#71,#101,.T.);
#103=ORIENTED_EDGE('',*,*,#102,.T.);
#104=EDGE_LOOP('',(#80,#88,#97,#103));
#105=FACE_OUTER_BOUND('',#104,.T.);
#106=ADVANCED_FACE('',(#105),#69,.T.);
#107=CARTESIAN_POINT('',(0.409999999999854,1.469999999999729,1.187157287524704));
#108=DIRECTION('',(0.0,1.0,0.0));
#109=DIRECTION('',(-1.0,0.0,0.0));
#110=AXIS2_PLACEMENT_3D('',#107,#108,#109);
#111=PLANE('',#110);
#112=CARTESIAN_POINT('',(0.859999999999854,1.469999999999711,-3.351390832922649));
#113=VERTEX_POINT('',#112);
#114=CARTESIAN_POINT('',(0.859999999999854,1.469999999999729,1.187157287524704));
#115=DIRECTION('',(0.0,0.0,-1.0));
#116=VECTOR('',#115,4.538548120447352);
#117=LINE('',#114,#116);
#118=EDGE_CURVE('',#73,#113,#117,.T.);
#119=ORIENTED_EDGE('',*,*,#118,.T.);
#120=CARTESIAN_POINT('',(0.409999999999854,1.469999999999711,-3.351390832922649));
#121=VERTEX_POINT('',#120);
#122=CARTESIAN_POINT('',(0.409999999999854,1.469999999999711,-3.351390832922649));
#123=DIRECTION('',(1.0,0.0,0.0));
#124=VECTOR('',#123,0.450000000000000);
#125=LINE('',#122,#124);
#126=EDGE_CURVE('',#121,#113,#125,.T.);
#127=ORIENTED_EDGE('',*,*,#126,.F.);
#128=CARTESIAN_POINT('',(0.409999999999854,1.469999999999729,1.187157287524704));
#129=DIRECTION('',(0.0,0.0,-1.0));
#130=VECTOR('',#129,4.538548120447352);
#131=LINE('',#128,#130);
#132=EDGE_CURVE('',#82,#121,#131,.T.);
#133=ORIENTED_EDGE('',*,*,#132,.F.);
#134=ORIENTED_EDGE('',*,*,#87,.T.);
#135=EDGE_LOOP('',(#119,#127,#133,#134));
#136=FACE_OUTER_BOUND('',#135,.T.);
#137=ADVANCED_FACE('',(#136),#111,.T.);
#138=CARTESIAN_POINT('',(0.409999999999854,1.469999999999711,-3.351390832922649));
#139=DIRECTION('',(0.0,0.0,-1.0));
#140=DIRECTION('',(-1.0,0.0,0.0));
#141=AXIS2_PLACEMENT_3D('',#138,#139,#140);
#142=PLANE('',#141);
#143=CARTESIAN_POINT('',(0.859999999999854,1.069999999999713,-3.351390832922649));
#144=VERTEX_POINT('',#143);
#145=CARTESIAN_POINT('',(0.859999999999854,1.469999999999711,-3.351390832922649));
#146=DIRECTION('',(0.0,-1.0,0.0));
#147=VECTOR('',#146,0.399999999999999);
#148=LINE('',#145,#147);
#149=EDGE_CURVE('',#113,#144,#148,.T.);
#150=ORIENTED_EDGE('',*,*,#149,.T.);
#151=CARTESIAN_POINT('',(0.409999999999854,1.069999999999713,-3.351390832922649));
#152=VERTEX_POINT('',#151);
#153=CARTESIAN_POINT('',(0.409999999999854,1.069999999999713,-3.351390832922649));
#154=DIRECTION('',(1.0,0.0,0.0));
#155=VECTOR('',#154,0.450000000000000);
#156=LINE('',#153,#155);
#157=EDGE_CURVE('',#152,#144,#156,.T.);
#158=ORIENTED_EDGE('',*,*,#157,.F.);
#159=CARTESIAN_POINT('',(0.409999999999854,1.469999999999711,-3.351390832922649));
#160=DIRECTION('',(0.0,-1.0,0.0));
#161=VECTOR('',#160,0.399999999999999);
#162=LINE('',#159,#161);
#163=EDGE_CURVE('',#121,#152,#162,.T.);
#164=ORIENTED_EDGE('',*,*,#163,.F.);
#165=ORIENTED_EDGE('',*,*,#126,.T.);
#166=EDGE_LOOP('',(#150,#158,#164,#165));
#167=FACE_OUTER_BOUND('',#166,.T.);
#168=ADVANCED_FACE('',(#167),#142,.T.);
#169=CARTESIAN_POINT('',(0.409999999999854,1.069999999999713,-3.351390832922649));
#170=DIRECTION('',(0.0,-1.0,0.0));
#171=DIRECTION('',(1.0,0.0,0.0));
#172=AXIS2_PLACEMENT_3D('',#169,#170,#171);
#173=PLANE('',#172);
#174=CARTESIAN_POINT('',(0.859999999999854,1.069999999999723,1.187157287524704));
#175=VERTEX_POINT('',#174);
#176=CARTESIAN_POINT('',(0.859999999999854,1.069999999999713,-3.351390832922649));
#177=DIRECTION('',(0.0,0.0,1.0));
#178=VECTOR('',#177,4.538548120447352);
#179=LINE('',#176,#178);
#180=EDGE_CURVE('',#144,#175,#179,.T.);
#181=ORIENTED_EDGE('',*,*,#180,.T.);
#182=CARTESIAN_POINT('',(0.409999999999854,1.069999999999723,1.187157287524704));
#183=VERTEX_POINT('',#182);
#184=CARTESIAN_POINT('',(0.409999999999854,1.069999999999723,1.187157287524704));
#185=DIRECTION('',(1.0,0.0,0.0));
#186=VECTOR('',#185,0.450000000000000);
#187=LINE('',#184,#186);
#188=EDGE_CURVE('',#183,#175,#187,.T.);
#189=ORIENTED_EDGE('',*,*,#188,.F.);
#190=CARTESIAN_POINT('',(0.409999999999854,1.069999999999713,-3.351390832922649));
#191=DIRECTION('',(0.0,0.0,1.0));
#192=VECTOR('',#191,4.538548120447352);
#193=LINE('',#190,#192);
#194=EDGE_CURVE('',#152,#183,#193,.T.);
#195=ORIENTED_EDGE('',*,*,#194,.F.);
#196=ORIENTED_EDGE('',*,*,#157,.T.);
#197=EDGE_LOOP('',(#181,#189,#195,#196));
#198=FACE_OUTER_BOUND('',#197,.T.);
#199=ADVANCED_FACE('',(#198),#173,.T.);
#200=CARTESIAN_POINT('',(0.409999999999854,0.869999999999735,1.187157287524705));
#201=DIRECTION('',(1.0,4.057416E-016,-6.563344E-032));
#202=DIRECTION('',(-3.748564E-016,0.923879532511289,0.382683432365084));
#203=AXIS2_PLACEMENT_3D('',#200,#201,#202);
#204=CYLINDRICAL_SURFACE('',#203,0.199999999999989);
#205=CARTESIAN_POINT('',(0.859999999999854,1.011421356237037,1.328578643762006));
#206=VERTEX_POINT('',#205);
#207=CARTESIAN_POINT('',(0.859999999999854,0.869999999999735,1.187157287524705));
#208=DIRECTION('',(1.000000000000000,3.463221E-016,1.434513E-016));
#209=DIRECTION('',(-3.748564E-016,0.923879532511289,0.382683432365084));
#210=AXIS2_PLACEMENT_3D('',#207,#208,#209);
#211=CIRCLE('',#210,0.199999999999989);
#212=EDGE_CURVE('',#175,#206,#211,.T.);
#213=ORIENTED_EDGE('',*,*,#212,.T.);
#214=CARTESIAN_POINT('',(0.409999999999854,1.011421356237037,1.328578643762006));
#215=VERTEX_POINT('',#214);
#216=CARTESIAN_POINT('',(0.409999999999854,1.011421356237037,1.328578643762006));
#217=DIRECTION('',(1.0,0.0,0.0));
#218=VECTOR('',#217,0.450000000000000);
#219=LINE('',#216,#218);
#220=EDGE_CURVE('',#215,#206,#219,.T.);
#221=ORIENTED_EDGE('',*,*,#220,.F.);
#222=CARTESIAN_POINT('',(0.409999999999854,0.869999999999735,1.187157287524705));
#223=DIRECTION('',(1.000000000000000,3.463221E-016,1.434513E-016));
#224=DIRECTION('',(-3.748564E-016,0.923879532511289,0.382683432365084));
#225=AXIS2_PLACEMENT_3D('',#222,#223,#224);
#226=CIRCLE('',#225,0.199999999999989);
#227=EDGE_CURVE('',#183,#215,#226,.T.);
#228=ORIENTED_EDGE('',*,*,#227,.F.);
#229=ORIENTED_EDGE('',*,*,#188,.T.);
#230=EDGE_LOOP('',(#213,#221,#228,#229));
#231=FACE_OUTER_BOUND('',#230,.T.);
#232=ADVANCED_FACE('',(#231),#204,.F.);
#233=CARTESIAN_POINT('',(0.409999999999854,1.011421356237037,1.328578643762006));
#234=DIRECTION('',(2.869027E-016,-0.707106781186550,-0.707106781186545));
#235=DIRECTION('',(1.0,0.0,0.0));
#236=AXIS2_PLACEMENT_3D('',#233,#234,#235);
#237=PLANE('',#236);
#238=CARTESIAN_POINT('',(0.859999999999855,-0.024264068712199,2.364264068711249));
#239=VERTEX_POINT('',#238);
#240=CARTESIAN_POINT('',(0.859999999999854,1.011421356237037,1.328578643762006));
#241=DIRECTION('',(3.031987E-016,-0.707106781186545,0.707106781186550));
#242=VECTOR('',#241,1.464680374315357);
#243=LINE('',#240,#242);
#244=EDGE_CURVE('',#206,#239,#243,.T.);
#245=ORIENTED_EDGE('',*,*,#244,.T.);
#246=CARTESIAN_POINT('',(0.409999999999855,-0.024264068712199,2.364264068711249));
#247=VERTEX_POINT('',#246);
#248=CARTESIAN_POINT('',(0.409999999999855,-0.024264068712199,2.364264068711249));
#249=DIRECTION('',(1.0,0.0,0.0));
#250=VECTOR('',#249,0.450000000000000);
#251=LINE('',#248,#250);
#252=EDGE_CURVE('',#247,#239,#251,.T.);
#253=ORIENTED_EDGE('',*,*,#252,.F.);
#254=CARTESIAN_POINT('',(0.409999999999854,1.011421356237037,1.328578643762006));
#255=DIRECTION('',(2.652989E-016,-0.707106781186545,0.707106781186550));
#256=VECTOR('',#255,1.464680374315357);
#257=LINE('',#254,#256);
#258=EDGE_CURVE('',#215,#247,#257,.T.);
#259=ORIENTED_EDGE('',*,*,#258,.F.);
#260=ORIENTED_EDGE('',*,*,#220,.T.);
#261=EDGE_LOOP('',(#245,#253,#259,#260));
#262=FACE_OUTER_BOUND('',#261,.T.);
#263=ADVANCED_FACE('',(#262),#237,.T.);
#264=CARTESIAN_POINT('',(0.409999999999854,0.399999999999729,2.788528137423180));
#265=DIRECTION('',(1.0,4.057416E-016,-6.563344E-032));
#266=DIRECTION('',(3.748564E-016,-0.923879532511285,-0.382683432365094));
#267=AXIS2_PLACEMENT_3D('',#264,#265,#266);
#268=CYLINDRICAL_SURFACE('',#267,0.600000000000002);
#269=CARTESIAN_POINT('',(0.859999999999855,-0.200000000000273,2.788528137423176));
#270=VERTEX_POINT('',#269);
#271=CARTESIAN_POINT('',(0.859999999999854,0.399999999999729,2.788528137423180));
#272=DIRECTION('',(-1.0,-3.463221E-016,-1.434513E-016));
#273=DIRECTION('',(3.748564E-016,-0.923879532511285,-0.382683432365094));
#274=AXIS2_PLACEMENT_3D('',#271,#272,#273);
#275=CIRCLE('',#274,0.600000000000002);
#276=EDGE_CURVE('',#239,#270,#275,.T.);
#277=ORIENTED_EDGE('',*,*,#276,.T.);
#278=CARTESIAN_POINT('',(0.409999999999855,-0.200000000000273,2.788528137423176));
#279=VERTEX_POINT('',#278);
#280=CARTESIAN_POINT('',(0.409999999999855,-0.200000000000273,2.788528137423176));
#281=DIRECTION('',(1.0,0.0,0.0));
#282=VECTOR('',#281,0.450000000000000);
#283=LINE('',#280,#282);
#284=EDGE_CURVE('',#279,#270,#283,.T.);
#285=ORIENTED_EDGE('',*,*,#284,.F.);
#286=CARTESIAN_POINT('',(0.409999999999854,0.399999999999729,2.788528137423180));
#287=DIRECTION('',(-1.0,-3.463221E-016,-1.434513E-016));
#288=DIRECTION('',(3.748564E-016,-0.923879532511285,-0.382683432365094));
#289=AXIS2_PLACEMENT_3D('',#286,#287,#288);
#290=CIRCLE('',#289,0.600000000000002);
#291=EDGE_CURVE('',#247,#279,#290,.T.);
#292=ORIENTED_EDGE('',*,*,#291,.F.);
#293=ORIENTED_EDGE('',*,*,#252,.T.);
#294=EDGE_LOOP('',(#277,#285,#292,#293));
#295=FACE_OUTER_BOUND('',#294,.T.);
#296=ADVANCED_FACE('',(#295),#268,.T.);
#297=CARTESIAN_POINT('',(0.409999999999855,-0.200000000000273,2.788528137423176));
#298=DIRECTION('',(0.0,-1.0,0.0));
#299=DIRECTION('',(1.0,0.0,0.0));
#300=AXIS2_PLACEMENT_3D('',#297,#298,#299);
#301=PLANE('',#300);
#302=CARTESIAN_POINT('',(0.859999999999855,-0.200000000000273,3.770000000000001));
#303=VERTEX_POINT('',#302);
#304=CARTESIAN_POINT('',(0.859999999999855,-0.200000000000273,2.788528137423176));
#305=DIRECTION('',(0.0,0.0,1.0));
#306=VECTOR('',#305,0.981471862576825);
#307=LINE('',#304,#306);
#308=EDGE_CURVE('',#270,#303,#307,.T.);
#309=ORIENTED_EDGE('',*,*,#308,.T.);
#310=CARTESIAN_POINT('',(0.409999999999855,-0.200000000000273,3.770000000000001));
#311=VERTEX_POINT('',#310);
#312=CARTESIAN_POINT('',(0.409999999999855,-0.200000000000273,3.770000000000001));
#313=DIRECTION('',(1.0,0.0,0.0));
#314=VECTOR('',#313,0.450000000000000);
#315=LINE('',#312,#314);
#316=EDGE_CURVE('',#311,#303,#315,.T.);
#317=ORIENTED_EDGE('',*,*,#316,.F.);
#318=CARTESIAN_POINT('',(0.409999999999855,-0.200000000000273,2.788528137423176));
#319=DIRECTION('',(0.0,0.0,1.0));
#320=VECTOR('',#319,0.981471862576825);
#321=LINE('',#318,#320);
#322=EDGE_CURVE('',#279,#311,#321,.T.);
#323=ORIENTED_EDGE('',*,*,#322,.F.);
#324=ORIENTED_EDGE('',*,*,#284,.T.);
#325=EDGE_LOOP('',(#309,#317,#323,#324));
#326=FACE_OUTER_BOUND('',#325,.T.);
#327=ADVANCED_FACE('',(#326),#301,.T.);
#328=CARTESIAN_POINT('',(0.409999999999855,-0.200000000000273,3.770000000000001));
#329=DIRECTION('',(0.0,0.0,1.0));
#330=DIRECTION('',(1.0,0.0,0.0));
#331=AXIS2_PLACEMENT_3D('',#328,#329,#330);
#332=PLANE('',#331);
#333=CARTESIAN_POINT('',(0.859999999999855,0.199999999999719,3.770000000000001));
#334=VERTEX_POINT('',#333);
#335=CARTESIAN_POINT('',(0.859999999999855,-0.200000000000273,3.770000000000001));
#336=DIRECTION('',(0.0,1.0,0.0));
#337=VECTOR('',#336,0.399999999999991);
#338=LINE('',#335,#337);
#339=EDGE_CURVE('',#303,#334,#338,.T.);
#340=ORIENTED_EDGE('',*,*,#339,.T.);
#341=CARTESIAN_POINT('',(0.409999999999855,0.199999999999719,3.770000000000001));
#342=VERTEX_POINT('',#341);
#343=CARTESIAN_POINT('',(0.409999999999855,0.199999999999719,3.770000000000001));
#344=DIRECTION('',(1.0,0.0,0.0));
#345=VECTOR('',#344,0.450000000000000);
#346=LINE('',#343,#345);
#347=EDGE_CURVE('',#342,#334,#346,.T.);
#348=ORIENTED_EDGE('',*,*,#347,.F.);
#349=CARTESIAN_POINT('',(0.409999999999855,-0.200000000000273,3.770000000000001));
#350=DIRECTION('',(0.0,1.0,0.0));
#351=VECTOR('',#350,0.399999999999991);
#352=LINE('',#349,#351);
#353=EDGE_CURVE('',#311,#342,#352,.T.);
#354=ORIENTED_EDGE('',*,*,#353,.F.);
#355=ORIENTED_EDGE('',*,*,#316,.T.);
#356=EDGE_LOOP('',(#340,#348,#354,#355));
#357=FACE_OUTER_BOUND('',#356,.T.);
#358=ADVANCED_FACE('',(#357),#332,.T.);
#359=CARTESIAN_POINT('',(0.409999999999855,0.199999999999719,3.770000000000001));
#360=DIRECTION('',(0.0,1.0,0.0));
#361=DIRECTION('',(-1.0,0.0,0.0));
#362=AXIS2_PLACEMENT_3D('',#359,#360,#361);
#363=PLANE('',#362);
#364=CARTESIAN_POINT('',(0.859999999999855,0.199999999999726,2.788528137423176));
#365=VERTEX_POINT('',#364);
#366=CARTESIAN_POINT('',(0.859999999999855,0.199999999999719,3.770000000000001));
#367=DIRECTION('',(0.0,0.0,-1.0));
#368=VECTOR('',#367,0.981471862576825);
#369=LINE('',#366,#368);
#370=EDGE_CURVE('',#334,#365,#369,.T.);
#371=ORIENTED_EDGE('',*,*,#370,.T.);
#372=CARTESIAN_POINT('',(0.409999999999855,0.199999999999726,2.788528137423176));
#373=VERTEX_POINT('',#372);
#374=CARTESIAN_POINT('',(0.409999999999855,0.199999999999726,2.788528137423176));
#375=DIRECTION('',(1.0,0.0,0.0));
#376=VECTOR('',#375,0.450000000000000);
#377=LINE('',#374,#376);
#378=EDGE_CURVE('',#373,#365,#377,.T.);
#379=ORIENTED_EDGE('',*,*,#378,.F.);
#380=CARTESIAN_POINT('',(0.409999999999855,0.199999999999719,3.770000000000001));
#381=DIRECTION('',(0.0,0.0,-1.0));
#382=VECTOR('',#381,0.981471862576825);
#383=LINE('',#380,#382);
#384=EDGE_CURVE('',#342,#373,#383,.T.);
#385=ORIENTED_EDGE('',*,*,#384,.F.);
#386=ORIENTED_EDGE('',*,*,#347,.T.);
#387=EDGE_LOOP('',(#371,#379,#385,#386));
#388=FACE_OUTER_BOUND('',#387,.T.);
#389=ADVANCED_FACE('',(#388),#363,.T.);
#390=CARTESIAN_POINT('',(0.409999999999854,0.399999999999729,2.788528137423180));
#391=DIRECTION('',(1.0,4.057416E-016,-6.563344E-032));
#392=DIRECTION('',(3.748564E-016,-0.923879532511279,-0.382683432365107));
#393=AXIS2_PLACEMENT_3D('',#390,#391,#392);
#394=CYLINDRICAL_SURFACE('',#393,0.200000000000002);
#395=CARTESIAN_POINT('',(0.859999999999854,0.258578643762419,2.647106781185867));
#396=VERTEX_POINT('',#395);
#397=CARTESIAN_POINT('',(0.859999999999854,0.399999999999729,2.788528137423180));
#398=DIRECTION('',(1.000000000000000,3.463221E-016,1.434513E-016));
#399=DIRECTION('',(3.748564E-016,-0.923879532511279,-0.382683432365107));
#400=AXIS2_PLACEMENT_3D('',#397,#398,#399);
#401=CIRCLE('',#400,0.200000000000002);
#402=EDGE_CURVE('',#365,#396,#401,.T.);
#403=ORIENTED_EDGE('',*,*,#402,.T.);
#404=CARTESIAN_POINT('',(0.409999999999854,0.258578643762419,2.647106781185867));
#405=VERTEX_POINT('',#404);
#406=CARTESIAN_POINT('',(0.409999999999854,0.258578643762419,2.647106781185867));
#407=DIRECTION('',(1.0,0.0,0.0));
#408=VECTOR('',#407,0.450000000000000);
#409=LINE('',#406,#408);
#410=EDGE_CURVE('',#405,#396,#409,.T.);
#411=ORIENTED_EDGE('',*,*,#410,.F.);
#412=CARTESIAN_POINT('',(0.409999999999854,0.399999999999729,2.788528137423180));
#413=DIRECTION('',(1.000000000000000,3.463221E-016,1.434513E-016));
#414=DIRECTION('',(3.748564E-016,-0.923879532511279,-0.382683432365107));
#415=AXIS2_PLACEMENT_3D('',#412,#413,#414);
#416=CIRCLE('',#415,0.200000000000002);
#417=EDGE_CURVE('',#373,#405,#416,.T.);
#418=ORIENTED_EDGE('',*,*,#417,.F.);
#419=ORIENTED_EDGE('',*,*,#378,.T.);
#420=EDGE_LOOP('',(#403,#411,#418,#419));
#421=FACE_OUTER_BOUND('',#420,.T.);
#422=ADVANCED_FACE('',(#421),#394,.F.);
#423=CARTESIAN_POINT('',(0.409999999999854,0.258578643762419,2.647106781185867));
#424=DIRECTION('',(-2.869027E-016,0.707106781186550,0.707106781186545));
#425=DIRECTION('',(-1.0,0.0,0.0));
#426=AXIS2_PLACEMENT_3D('',#423,#424,#425);
#427=PLANE('',#426);
#428=CARTESIAN_POINT('',(0.859999999999854,0.258578643762419,2.647106781185867));
#429=DIRECTION('',(-2.273990E-016,0.707106781186545,-0.707106781186550));
#430=VECTOR('',#429,1.464680374315357);
#431=LINE('',#428,#430);
#432=EDGE_CURVE('',#396,#71,#431,.T.);
#433=ORIENTED_EDGE('',*,*,#432,.T.);
#434=ORIENTED_EDGE('',*,*,#102,.F.);
#435=CARTESIAN_POINT('',(0.409999999999854,0.258578643762419,2.647106781185867));
#436=DIRECTION('',(-2.652989E-016,0.707106781186545,-0.707106781186550));
#437=VECTOR('',#436,1.464680374315357);
#438=LINE('',#435,#437);
#439=EDGE_CURVE('',#405,#90,#438,.T.);
#440=ORIENTED_EDGE('',*,*,#439,.F.);
#441=ORIENTED_EDGE('',*,*,#410,.T.);
#442=EDGE_LOOP('',(#433,#434,#440,#441));
#443=FACE_OUTER_BOUND('',#442,.T.);
#444=ADVANCED_FACE('',(#443),#427,.T.);
#445=CARTESIAN_POINT('',(0.859999999999854,0.916884200611577,0.318424411349735));
#446=DIRECTION('',(1.0,0.0,0.0));
#447=DIRECTION('',(0.0,1.0,0.0));
#448=AXIS2_PLACEMENT_3D('',#445,#446,#447);
#449=PLANE('',#448);
#450=ORIENTED_EDGE('',*,*,#79,.F.);
#451=ORIENTED_EDGE('',*,*,#432,.F.);
#452=ORIENTED_EDGE('',*,*,#402,.F.);
#453=ORIENTED_EDGE('',*,*,#370,.F.);
#454=ORIENTED_EDGE('',*,*,#339,.F.);
#455=ORIENTED_EDGE('',*,*,#308,.F.);
#456=ORIENTED_EDGE('',*,*,#276,.F.);
#457=ORIENTED_EDGE('',*,*,#244,.F.);
#458=ORIENTED_EDGE('',*,*,#212,.F.);
#459=ORIENTED_EDGE('',*,*,#180,.F.);
#460=ORIENTED_EDGE('',*,*,#149,.F.);
#461=ORIENTED_EDGE('',*,*,#118,.F.);
#462=EDGE_LOOP('',(#450,#451,#452,#453,#454,#455,#456,#457,#458,#459,#460,#461));
#463=FACE_OUTER_BOUND('',#462,.T.);
#464=ADVANCED_FACE('',(#463),#449,.T.);
#465=CARTESIAN_POINT('',(0.409999999999854,0.916884200611580,0.318424411349733));
#466=DIRECTION('',(1.0,0.0,0.0));
#467=DIRECTION('',(0.0,1.0,0.0));
#468=AXIS2_PLACEMENT_3D('',#465,#466,#467);
#469=PLANE('',#468);
#470=ORIENTED_EDGE('',*,*,#439,.T.);
#471=ORIENTED_EDGE('',*,*,#96,.T.);
#472=ORIENTED_EDGE('',*,*,#132,.T.);
#473=ORIENTED_EDGE('',*,*,#163,.T.);
#474=ORIENTED_EDGE('',*,*,#194,.T.);
#475=ORIENTED_EDGE('',*,*,#227,.T.);
#476=ORIENTED_EDGE('',*,*,#258,.T.);
#477=ORIENTED_EDGE('',*,*,#291,.T.);
#478=ORIENTED_EDGE('',*,*,#322,.T.);
#479=ORIENTED_EDGE('',*,*,#353,.T.);
#480=ORIENTED_EDGE('',*,*,#384,.T.);
#481=ORIENTED_EDGE('',*,*,#417,.T.);
#482=EDGE_LOOP('',(#470,#471,#472,#473,#474,#475,#476,#477,#478,#479,#480,#481));
#483=FACE_OUTER_BOUND('',#482,.T.);
#484=ADVANCED_FACE('',(#483),#469,.F.);
#485=CLOSED_SHELL('',(#106,#137,#168,#199,#232,#263,#296,#327,#358,#389,#422,#444,#464,#484));
#486=MANIFOLD_SOLID_BREP('1A6',#485);
#487=COLOUR_RGB('9',0.750000000000000,0.750000000000000,0.750000000000000);
#488=SURFACE_STYLE_USAGE(.BOTH.,#489);
#489=SURFACE_SIDE_STYLE('NONE',(#490));
#490=SURFACE_STYLE_FILL_AREA(#491);
#491=FILL_AREA_STYLE('NONE',(#492));
#492=FILL_AREA_STYLE_COLOUR('NONE',#487);
#493=PRESENTATION_STYLE_ASSIGNMENT((#488));
#494=STYLED_ITEM('NONE',(#493),#486);
#495=MECHANICAL_DESIGN_GEOMETRIC_PRESENTATION_REPRESENTATION('NONE',(#494,#647,#937,#1360,#1511),#28);
#496=PRESENTATION_LAYER_ASSIGNMENT('0','None',(#486,#646,#929,#1359,#1510));
#497=CARTESIAN_POINT('',(1.680000000000064,-0.200000000000060,-3.351390832922656));
#498=DIRECTION('',(0.0,-1.0,0.0));
#499=DIRECTION('',(1.0,0.0,0.0));
#500=AXIS2_PLACEMENT_3D('',#497,#498,#499);
#501=PLANE('',#500);
#502=CARTESIAN_POINT('',(2.130000000000064,-0.200000000000060,-3.351390832922656));
#503=VERTEX_POINT('',#502);
#504=CARTESIAN_POINT('',(2.130000000000064,-0.200000000000045,3.770000000000003));
#505=VERTEX_POINT('',#504);
#506=CARTESIAN_POINT('',(2.130000000000064,-0.200000000000060,-3.351390832922656));
#507=DIRECTION('',(0.0,0.0,1.0));
#508=VECTOR('',#507,7.121390832922659);
#509=LINE('',#506,#508);
#510=EDGE_CURVE('',#503,#505,#509,.T.);
#511=ORIENTED_EDGE('',*,*,#510,.T.);
#512=CARTESIAN_POINT('',(1.680000000000064,-0.200000000000045,3.770000000000003));
#513=VERTEX_POINT('',#512);
#514=CARTESIAN_POINT('',(1.680000000000064,-0.200000000000045,3.770000000000003));
#515=DIRECTION('',(1.0,0.0,0.0));
#516=VECTOR('',#515,0.450000000000000);
#517=LINE('',#514,#516);
#518=EDGE_CURVE('',#513,#505,#517,.T.);
#519=ORIENTED_EDGE('',*,*,#518,.F.);
#520=CARTESIAN_POINT('',(1.680000000000064,-0.200000000000060,-3.351390832922656));
#521=VERTEX_POINT('',#520);
#522=CARTESIAN_POINT('',(1.680000000000064,-0.200000000000060,-3.351390832922656));
#523=DIRECTION('',(0.0,0.0,1.0));
#524=VECTOR('',#523,7.121390832922659);
#525=LINE('',#522,#524);
#526=EDGE_CURVE('',#521,#513,#525,.T.);
#527=ORIENTED_EDGE('',*,*,#526,.F.);
#528=CARTESIAN_POINT('',(1.680000000000064,-0.200000000000060,-3.351390832922656));
#529=DIRECTION('',(1.0,0.0,0.0));
#530=VECTOR('',#529,0.450000000000000);
#531=LINE('',#528,#530);
#532=EDGE_CURVE('',#521,#503,#531,.T.);
#533=ORIENTED_EDGE('',*,*,#532,.T.);
#534=EDGE_LOOP('',(#511,#519,#527,#533));
#535=FACE_OUTER_BOUND('',#534,.T.);
#536=ADVANCED_FACE('',(#535),#501,.T.);
#537=CARTESIAN_POINT('',(1.680000000000064,-0.200000000000045,3.770000000000003));
#538=DIRECTION('',(0.0,0.0,1.0));
#539=DIRECTION('',(1.0,0.0,0.0));
#540=AXIS2_PLACEMENT_3D('',#537,#538,#539);
#541=PLANE('',#540);
#542=CARTESIAN_POINT('',(2.130000000000064,0.199999999999953,3.769999999999994));
#543=VERTEX_POINT('',#542);
#544=CARTESIAN_POINT('',(2.130000000000064,-0.200000000000045,3.770000000000003));
#545=DIRECTION('',(0.0,1.0,0.0));
#546=VECTOR('',#545,0.399999999999999);
#547=LINE('',#544,#546);
#548=EDGE_CURVE('',#505,#543,#547,.T.);
#549=ORIENTED_EDGE('',*,*,#548,.T.);
#550=CARTESIAN_POINT('',(1.680000000000064,0.199999999999953,3.769999999999994));
#551=VERTEX_POINT('',#550);
#552=CARTESIAN_POINT('',(1.680000000000064,0.199999999999953,3.769999999999994));
#553=DIRECTION('',(1.0,0.0,0.0));
#554=VECTOR('',#553,0.450000000000000);
#555=LINE('',#552,#554);
#556=EDGE_CURVE('',#551,#543,#555,.T.);
#557=ORIENTED_EDGE('',*,*,#556,.F.);
#558=CARTESIAN_POINT('',(1.680000000000064,-0.200000000000045,3.770000000000003));
#559=DIRECTION('',(0.0,1.0,0.0));
#560=VECTOR('',#559,0.399999999999999);
#561=LINE('',#558,#560);
#562=EDGE_CURVE('',#513,#551,#561,.T.);
#563=ORIENTED_EDGE('',*,*,#562,.F.);
#564=ORIENTED_EDGE('',*,*,#518,.T.);
#565=EDGE_LOOP('',(#549,#557,#563,#564));
#566=FACE_OUTER_BOUND('',#565,.T.);
#567=ADVANCED_FACE('',(#566),#541,.T.);
#568=CARTESIAN_POINT('',(1.680000000000064,0.199999999999953,3.769999999999994));
#569=DIRECTION('',(0.0,1.0,0.0));
#570=DIRECTION('',(-1.0,0.0,0.0));
#571=AXIS2_PLACEMENT_3D('',#568,#569,#570);
#572=PLANE('',#571);
#573=CARTESIAN_POINT('',(2.130000000000064,0.199999999999939,-3.351390832922656));
#574=VERTEX_POINT('',#573);
#575=CARTESIAN_POINT('',(2.130000000000064,0.199999999999953,3.769999999999994));
#576=DIRECTION('',(0.0,0.0,-1.0));
#577=VECTOR('',#576,7.121390832922650);
#578=LINE('',#575,#577);
#579=EDGE_CURVE('',#543,#574,#578,.T.);
#580=ORIENTED_EDGE('',*,*,#579,.T.);
#581=CARTESIAN_POINT('',(1.680000000000064,0.199999999999939,-3.351390832922656));
#582=VERTEX_POINT('',#581);
#583=CARTESIAN_POINT('',(1.680000000000064,0.199999999999939,-3.351390832922656));
#584=DIRECTION('',(1.0,0.0,0.0));
#585=VECTOR('',#584,0.450000000000000);
#586=LINE('',#583,#585);
#587=EDGE_CURVE('',#582,#574,#586,.T.);
#588=ORIENTED_EDGE('',*,*,#587,.F.);
#589=CARTESIAN_POINT('',(1.680000000000064,0.199999999999953,3.769999999999994));
#590=DIRECTION('',(0.0,0.0,-1.0));
#591=VECTOR('',#590,7.121390832922650);
#592=LINE('',#589,#591);
#593=EDGE_CURVE('',#551,#582,#592,.T.);
#594=ORIENTED_EDGE('',*,*,#593,.F.);
#595=ORIENTED_EDGE('',*,*,#556,.T.);
#596=EDGE_LOOP('',(#580,#588,#594,#595));
#597=FACE_OUTER_BOUND('',#596,.T.);
#598=ADVANCED_FACE('',(#597),#572,.T.);
#599=CARTESIAN_POINT('',(1.680000000000064,0.199999999999939,-3.351390832922656));
#600=DIRECTION('',(0.0,0.0,-1.0));
#601=DIRECTION('',(-1.0,0.0,0.0));
#602=AXIS2_PLACEMENT_3D('',#599,#600,#601);
#603=PLANE('',#602);
#604=CARTESIAN_POINT('',(2.130000000000064,0.199999999999939,-3.351390832922656));
#605=DIRECTION('',(0.0,-1.0,0.0));
#606=VECTOR('',#605,0.399999999999999);
#607=LINE('',#604,#606);
#608=EDGE_CURVE('',#574,#503,#607,.T.);
#609=ORIENTED_EDGE('',*,*,#608,.T.);
#610=ORIENTED_EDGE('',*,*,#532,.F.);
#611=CARTESIAN_POINT('',(1.680000000000064,0.199999999999939,-3.351390832922656));
#612=DIRECTION('',(0.0,-1.0,0.0));
#613=VECTOR('',#612,0.399999999999999);
#614=LINE('',#611,#613);
#615=EDGE_CURVE('',#582,#521,#614,.T.);
#616=ORIENTED_EDGE('',*,*,#615,.F.);
#617=ORIENTED_EDGE('',*,*,#587,.T.);
#618=EDGE_LOOP('',(#609,#610,#616,#617));
#619=FACE_OUTER_BOUND('',#618,.T.);
#620=ADVANCED_FACE('',(#619),#603,.T.);
#621=CARTESIAN_POINT('',(2.130000000000064,-5.329071E-014,0.209304583538671));
#622=DIRECTION('',(1.0,0.0,0.0));
#623=DIRECTION('',(0.0,1.0,0.0));
#624=AXIS2_PLACEMENT_3D('',#621,#622,#623);
#625=PLANE('',#624);
#626=ORIENTED_EDGE('',*,*,#510,.F.);
#627=ORIENTED_EDGE('',*,*,#608,.F.);
#628=ORIENTED_EDGE('',*,*,#579,.F.);
#629=ORIENTED_EDGE('',*,*,#548,.F.);
#630=EDGE_LOOP('',(#626,#627,#628,#629));
#631=FACE_OUTER_BOUND('',#630,.T.);
#632=ADVANCED_FACE('',(#631),#625,.T.);
#633=CARTESIAN_POINT('',(1.680000000000064,-5.329071E-014,0.209304583538671));
#634=DIRECTION('',(1.0,0.0,0.0));
#635=DIRECTION('',(0.0,1.0,0.0));
#636=AXIS2_PLACEMENT_3D('',#633,#634,#635);
#637=PLANE('',#636);
#638=ORIENTED_EDGE('',*,*,#615,.T.);
#639=ORIENTED_EDGE('',*,*,#526,.T.);
#640=ORIENTED_EDGE('',*,*,#562,.T.);
#641=ORIENTED_EDGE('',*,*,#593,.T.);
#642=EDGE_LOOP('',(#638,#639,#640,#641));
#643=FACE_OUTER_BOUND('',#642,.T.);
#644=ADVANCED_FACE('',(#643),#637,.F.);
#645=CLOSED_SHELL('',(#536,#567,#598,#620,#632,#644));
#646=MANIFOLD_SOLID_BREP('1A2',#645);
#647=STYLED_ITEM('NONE',(#493),#646);
#648=CARTESIAN_POINT('',(-2.730359E-013,0.449999999999749,5.969999999999961));
#649=DIRECTION('',(0.0,-1.0,0.0));
#650=DIRECTION('',(1.0,0.0,0.0));
#651=AXIS2_PLACEMENT_3D('',#648,#649,#650);
#652=PLANE('',#651);
#653=CARTESIAN_POINT('',(-1.250000000000273,0.449999999999744,3.770000000000032));
#654=VERTEX_POINT('',#653);
#655=CARTESIAN_POINT('',(-1.250000000000273,0.449999999999745,8.169999999999916));
#656=VERTEX_POINT('',#655);
#657=CARTESIAN_POINT('',(-1.250000000000273,0.449999999999744,3.770000000000032));
#658=DIRECTION('',(0.0,0.0,1.0));
#659=VECTOR('',#658,4.399999999999884);
#660=LINE('',#657,#659);
#661=EDGE_CURVE('',#654,#656,#660,.T.);
#662=ORIENTED_EDGE('',*,*,#661,.F.);
#663=CARTESIAN_POINT('',(-2.700000000000273,0.449999999999747,3.770000000000000));
#664=VERTEX_POINT('',#663);
#665=CARTESIAN_POINT('',(-1.250000000000273,0.449999999999744,3.770000000000032));
#666=DIRECTION('',(-1.0,0.0,0.0));
#667=VECTOR('',#666,1.450000000000000);
#668=LINE('',#665,#667);
#669=EDGE_CURVE('',#654,#664,#668,.T.);
#670=ORIENTED_EDGE('',*,*,#669,.T.);
#671=CARTESIAN_POINT('',(-2.700000000000273,0.449999999999748,8.169999999999920));
#672=VERTEX_POINT('',#671);
#673=CARTESIAN_POINT('',(-2.700000000000273,0.449999999999748,8.169999999999920));
#674=DIRECTION('',(0.0,0.0,-1.0));
#675=VECTOR('',#674,4.399999999999920);
#676=LINE('',#673,#675);
#677=EDGE_CURVE('',#672,#664,#676,.T.);
#678=ORIENTED_EDGE('',*,*,#677,.F.);
#679=CARTESIAN_POINT('',(-1.250000000000273,0.449999999999745,8.169999999999916));
#680=DIRECTION('',(-1.0,0.0,0.0));
#681=VECTOR('',#680,1.450000000000000);
#682=LINE('',#679,#681);
#683=EDGE_CURVE('',#656,#672,#682,.T.);
#684=ORIENTED_EDGE('',*,*,#683,.F.);
#685=EDGE_LOOP('',(#662,#670,#678,#684));
#686=FACE_OUTER_BOUND('',#685,.T.);
#687=ADVANCED_FACE('',(#686),#652,.F.);
#688=CARTESIAN_POINT('',(-2.730359E-013,0.449999999999749,5.969999999999961));
#689=DIRECTION('',(0.0,-1.0,0.0));
#690=DIRECTION('',(1.0,0.0,0.0));
#691=AXIS2_PLACEMENT_3D('',#688,#689,#690);
#692=PLANE('',#691);
#693=CARTESIAN_POINT('',(1.249999999999727,0.449999999999746,8.169999999999916));
#694=VERTEX_POINT('',#693);
#695=CARTESIAN_POINT('',(1.249999999999727,0.449999999999745,3.770000000000032));
#696=VERTEX_POINT('',#695);
#697=CARTESIAN_POINT('',(1.249999999999727,0.449999999999746,8.169999999999916));
#698=DIRECTION('',(0.0,0.0,-1.0));
#699=VECTOR('',#698,4.399999999999884);
#700=LINE('',#697,#699);
#701=EDGE_CURVE('',#694,#696,#700,.T.);
#702=ORIENTED_EDGE('',*,*,#701,.F.);
#703=CARTESIAN_POINT('',(2.699999999999727,0.449999999999751,8.169999999999920));
#704=VERTEX_POINT('',#703);
#705=CARTESIAN_POINT('',(2.699999999999727,0.449999999999751,8.169999999999920));
#706=DIRECTION('',(-1.0,0.0,0.0));
#707=VECTOR('',#706,1.450000000000000);
#708=LINE('',#705,#707);
#709=EDGE_CURVE('',#704,#694,#708,.T.);
#710=ORIENTED_EDGE('',*,*,#709,.F.);
#711=CARTESIAN_POINT('',(2.699999999999727,0.449999999999749,3.770000000000000));
#712=VERTEX_POINT('',#711);
#713=CARTESIAN_POINT('',(2.699999999999727,0.449999999999749,3.770000000000000));
#714=DIRECTION('',(0.0,0.0,1.0));
#715=VECTOR('',#714,4.399999999999920);
#716=LINE('',#713,#715);
#717=EDGE_CURVE('',#712,#704,#716,.T.);
#718=ORIENTED_EDGE('',*,*,#717,.F.);
#719=CARTESIAN_POINT('',(2.699999999999727,0.449999999999749,3.770000000000000));
#720=DIRECTION('',(-1.0,0.0,0.0));
#721=VECTOR('',#720,1.450000000000000);
#722=LINE('',#719,#721);
#723=EDGE_CURVE('',#712,#696,#722,.T.);
#724=ORIENTED_EDGE('',*,*,#723,.T.);
#725=EDGE_LOOP('',(#702,#710,#718,#724));
#726=FACE_OUTER_BOUND('',#725,.T.);
#727=ADVANCED_FACE('',(#726),#692,.F.);
#728=CARTESIAN_POINT('',(2.699999999999728,-0.450000000000250,5.969999999999961));
#729=DIRECTION('',(1.0,0.0,0.0));
#730=DIRECTION('',(0.0,1.0,0.0));
#731=AXIS2_PLACEMENT_3D('',#728,#729,#730);
#732=PLANE('',#731);
#733=ORIENTED_EDGE('',*,*,#717,.T.);
#734=CARTESIAN_POINT('',(2.699999999999728,-1.350000000000250,8.169999999999922));
#735=VERTEX_POINT('',#734);
#736=CARTESIAN_POINT('',(2.699999999999727,0.449999999999751,8.169999999999920));
#737=DIRECTION('',(0.0,-1.0,0.0));
#738=VECTOR('',#737,1.800000000000001);
#739=LINE('',#736,#738);
#740=EDGE_CURVE('',#704,#735,#739,.T.);
#741=ORIENTED_EDGE('',*,*,#740,.T.);
#742=CARTESIAN_POINT('',(2.699999999999728,-1.350000000000251,3.770000000000001));
#743=VERTEX_POINT('',#742);
#744=CARTESIAN_POINT('',(2.699999999999728,-1.350000000000250,8.169999999999922));
#745=DIRECTION('',(0.0,0.0,-1.0));
#746=VECTOR('',#745,4.399999999999920);
#747=LINE('',#744,#746);
#748=EDGE_CURVE('',#735,#743,#747,.T.);
#749=ORIENTED_EDGE('',*,*,#748,.T.);
#750=CARTESIAN_POINT('',(2.699999999999728,-1.350000000000251,3.770000000000001));
#751=DIRECTION('',(0.0,1.0,0.0));
#752=VECTOR('',#751,1.800000000000001);
#753=LINE('',#750,#752);
#754=EDGE_CURVE('',#743,#712,#753,.T.);
#755=ORIENTED_EDGE('',*,*,#754,.T.);
#756=EDGE_LOOP('',(#733,#741,#749,#755));
#757=FACE_OUTER_BOUND('',#756,.T.);
#758=ADVANCED_FACE('',(#757),#732,.T.);
#759=CARTESIAN_POINT('',(-2.700000000000273,-0.450000000000253,5.969999999999961));
#760=DIRECTION('',(1.0,0.0,0.0));
#761=DIRECTION('',(0.0,1.0,0.0));
#762=AXIS2_PLACEMENT_3D('',#759,#760,#761);
#763=PLANE('',#762);
#764=ORIENTED_EDGE('',*,*,#677,.T.);
#765=CARTESIAN_POINT('',(-2.700000000000272,-1.350000000000254,3.770000000000001));
#766=VERTEX_POINT('',#765);
#767=CARTESIAN_POINT('',(-2.700000000000273,0.449999999999747,3.770000000000000));
#768=DIRECTION('',(0.0,-1.0,0.0));
#769=VECTOR('',#768,1.800000000000001);
#770=LINE('',#767,#769);
#771=EDGE_CURVE('',#664,#766,#770,.T.);
#772=ORIENTED_EDGE('',*,*,#771,.T.);
#773=CARTESIAN_POINT('',(-2.700000000000272,-1.350000000000252,8.169999999999922));
#774=VERTEX_POINT('',#773);
#775=CARTESIAN_POINT('',(-2.700000000000272,-1.350000000000254,3.770000000000001));
#776=DIRECTION('',(0.0,0.0,1.0));
#777=VECTOR('',#776,4.399999999999920);
#778=LINE('',#775,#777);
#779=EDGE_CURVE('',#766,#774,#778,.T.);
#780=ORIENTED_EDGE('',*,*,#779,.T.);
#781=CARTESIAN_POINT('',(-2.700000000000272,-1.350000000000252,8.169999999999922));
#782=DIRECTION('',(0.0,1.0,0.0));
#783=VECTOR('',#782,1.800000000000001);
#784=LINE('',#781,#783);
#785=EDGE_CURVE('',#774,#672,#784,.T.);
#786=ORIENTED_EDGE('',*,*,#785,.T.);
#787=EDGE_LOOP('',(#764,#772,#780,#786));
#788=FACE_OUTER_BOUND('',#787,.T.);
#789=ADVANCED_FACE('',(#788),#763,.F.);
#790=CARTESIAN_POINT('',(-2.723056E-013,-1.350000000000252,5.969999999999961));
#791=DIRECTION('',(0.0,1.0,0.0));
#792=DIRECTION('',(-1.0,0.0,0.0));
#793=AXIS2_PLACEMENT_3D('',#790,#791,#792);
#794=PLANE('',#793);
#795=CARTESIAN_POINT('',(2.699999999999728,-1.350000000000250,8.169999999999922));
#796=DIRECTION('',(-1.0,0.0,0.0));
#797=VECTOR('',#796,5.400000000000000);
#798=LINE('',#795,#797);
#799=EDGE_CURVE('',#735,#774,#798,.T.);
#800=ORIENTED_EDGE('',*,*,#799,.T.);
#801=ORIENTED_EDGE('',*,*,#779,.F.);
#802=CARTESIAN_POINT('',(2.699999999999728,-1.350000000000251,3.770000000000001));
#803=DIRECTION('',(-1.0,0.0,0.0));
#804=VECTOR('',#803,5.400000000000000);
#805=LINE('',#802,#804);
#806=EDGE_CURVE('',#743,#766,#805,.T.);
#807=ORIENTED_EDGE('',*,*,#806,.F.);
#808=ORIENTED_EDGE('',*,*,#748,.F.);
#809=EDGE_LOOP('',(#800,#801,#807,#808));
#810=FACE_OUTER_BOUND('',#809,.T.);
#811=ADVANCED_FACE('',(#810),#794,.F.);
#812=CARTESIAN_POINT('',(1.249999999999726,0.899999999999743,5.969999999999975));
#813=DIRECTION('',(1.0,0.0,0.0));
#814=DIRECTION('',(0.0,1.0,0.0));
#815=AXIS2_PLACEMENT_3D('',#812,#813,#814);
#816=PLANE('',#815);
#817=CARTESIAN_POINT('',(1.249999999999726,1.349999999999740,3.770000000000032));
#818=VERTEX_POINT('',#817);
#819=CARTESIAN_POINT('',(1.249999999999726,1.349999999999741,8.169999999999916));
#820=VERTEX_POINT('',#819);
#821=CARTESIAN_POINT('',(1.249999999999726,1.349999999999740,3.770000000000032));
#822=DIRECTION('',(0.0,0.0,1.0));
#823=VECTOR('',#822,4.399999999999884);
#824=LINE('',#821,#823);
#825=EDGE_CURVE('',#818,#820,#824,.T.);
#826=ORIENTED_EDGE('',*,*,#825,.T.);
#827=CARTESIAN_POINT('',(1.249999999999726,1.349999999999741,8.169999999999916));
#828=DIRECTION('',(0.0,-1.0,0.0));
#829=VECTOR('',#828,0.899999999999995);
#830=LINE('',#827,#829);
#831=EDGE_CURVE('',#820,#694,#830,.T.);
#832=ORIENTED_EDGE('',*,*,#831,.T.);
#833=ORIENTED_EDGE('',*,*,#701,.T.);
#834=CARTESIAN_POINT('',(1.249999999999727,0.449999999999745,3.770000000000032));
#835=DIRECTION('',(0.0,1.0,0.0));
#836=VECTOR('',#835,0.899999999999995);
#837=LINE('',#834,#836);
#838=EDGE_CURVE('',#696,#818,#837,.T.);
#839=ORIENTED_EDGE('',*,*,#838,.T.);
#840=EDGE_LOOP('',(#826,#832,#833,#839));
#841=FACE_OUTER_BOUND('',#840,.T.);
#842=ADVANCED_FACE('',(#841),#816,.T.);
#843=CARTESIAN_POINT('',(-1.250000000000274,0.899999999999742,5.969999999999975));
#844=DIRECTION('',(1.0,0.0,0.0));
#845=DIRECTION('',(0.0,1.0,0.0));
#846=AXIS2_PLACEMENT_3D('',#843,#844,#845);
#847=PLANE('',#846);
#848=CARTESIAN_POINT('',(-1.250000000000274,1.349999999999740,8.169999999999916));
#849=VERTEX_POINT('',#848);
#850=CARTESIAN_POINT('',(-1.250000000000274,1.349999999999739,3.770000000000032));
#851=VERTEX_POINT('',#850);
#852=CARTESIAN_POINT('',(-1.250000000000274,1.349999999999740,8.169999999999916));
#853=DIRECTION('',(0.0,0.0,-1.0));
#854=VECTOR('',#853,4.399999999999884);
#855=LINE('',#852,#854);
#856=EDGE_CURVE('',#849,#851,#855,.T.);
#857=ORIENTED_EDGE('',*,*,#856,.T.);
#858=CARTESIAN_POINT('',(-1.250000000000274,1.349999999999739,3.770000000000032));
#859=DIRECTION('',(0.0,-1.0,0.0));
#860=VECTOR('',#859,0.899999999999995);
#861=LINE('',#858,#860);
#862=EDGE_CURVE('',#851,#654,#861,.T.);
#863=ORIENTED_EDGE('',*,*,#862,.T.);
#864=ORIENTED_EDGE('',*,*,#661,.T.);
#865=CARTESIAN_POINT('',(-1.250000000000273,0.449999999999745,8.169999999999916));
#866=DIRECTION('',(0.0,1.0,0.0));
#867=VECTOR('',#866,0.899999999999995);
#868=LINE('',#865,#867);
#869=EDGE_CURVE('',#656,#849,#868,.T.);
#870=ORIENTED_EDGE('',*,*,#869,.T.);
#871=EDGE_LOOP('',(#857,#863,#864,#870));
#872=FACE_OUTER_BOUND('',#871,.T.);
#873=ADVANCED_FACE('',(#872),#847,.F.);
#874=CARTESIAN_POINT('',(-2.735590E-013,0.899999999999742,3.770000000000032));
#875=DIRECTION('',(0.0,0.0,1.0));
#876=DIRECTION('',(1.0,0.0,0.0));
#877=AXIS2_PLACEMENT_3D('',#874,#875,#876);
#878=PLANE('',#877);
#879=ORIENTED_EDGE('',*,*,#862,.F.);
#880=CARTESIAN_POINT('',(1.249999999999726,1.349999999999740,3.770000000000032));
#881=DIRECTION('',(-1.0,0.0,0.0));
#882=VECTOR('',#881,2.500000000000000);
#883=LINE('',#880,#882);
#884=EDGE_CURVE('',#818,#851,#883,.T.);
#885=ORIENTED_EDGE('',*,*,#884,.F.);
#886=ORIENTED_EDGE('',*,*,#838,.F.);
#887=ORIENTED_EDGE('',*,*,#723,.F.);
#888=ORIENTED_EDGE('',*,*,#754,.F.);
#889=ORIENTED_EDGE('',*,*,#806,.T.);
#890=ORIENTED_EDGE('',*,*,#771,.F.);
#891=ORIENTED_EDGE('',*,*,#669,.F.);
#892=EDGE_LOOP('',(#879,#885,#886,#887,#888,#889,#890,#891));
#893=FACE_OUTER_BOUND('',#892,.T.);
#894=ADVANCED_FACE('',(#893),#878,.F.);
#895=CARTESIAN_POINT('',(-2.735590E-013,0.899999999999743,8.169999999999916));
#896=DIRECTION('',(0.0,0.0,-1.0));
#897=DIRECTION('',(-1.0,0.0,0.0));
#898=AXIS2_PLACEMENT_3D('',#895,#896,#897);
#899=PLANE('',#898);
#900=CARTESIAN_POINT('',(1.249999999999726,1.349999999999741,8.169999999999916));
#901=DIRECTION('',(-1.0,0.0,0.0));
#902=VECTOR('',#901,2.500000000000000);
#903=LINE('',#900,#902);
#904=EDGE_CURVE('',#820,#849,#903,.T.);
#905=ORIENTED_EDGE('',*,*,#904,.T.);
#906=ORIENTED_EDGE('',*,*,#869,.F.);
#907=ORIENTED_EDGE('',*,*,#683,.T.);
#908=ORIENTED_EDGE('',*,*,#785,.F.);
#909=ORIENTED_EDGE('',*,*,#799,.F.);
#910=ORIENTED_EDGE('',*,*,#740,.F.);
#911=ORIENTED_EDGE('',*,*,#709,.T.);
#912=ORIENTED_EDGE('',*,*,#831,.F.);
#913=EDGE_LOOP('',(#905,#906,#907,#908,#909,#910,#911,#912));
#914=FACE_OUTER_BOUND('',#913,.T.);
#915=ADVANCED_FACE('',(#914),#899,.F.);
#916=CARTESIAN_POINT('',(-2.737415E-013,1.349999999999740,5.969999999999975));
#917=DIRECTION('',(0.0,-1.0,0.0));
#918=DIRECTION('',(1.0,0.0,0.0));
#919=AXIS2_PLACEMENT_3D('',#916,#917,#918);
#920=PLANE('',#919);
#921=ORIENTED_EDGE('',*,*,#884,.T.);
#922=ORIENTED_EDGE('',*,*,#856,.F.);
#923=ORIENTED_EDGE('',*,*,#904,.F.);
#924=ORIENTED_EDGE('',*,*,#825,.F.);
#925=EDGE_LOOP('',(#921,#922,#923,#924));
#926=FACE_OUTER_BOUND('',#925,.T.);
#927=ADVANCED_FACE('',(#926),#920,.F.);
#928=CLOSED_SHELL('',(#687,#727,#758,#789,#811,#842,#873,#894,#915,#927));
#929=MANIFOLD_SOLID_BREP('19C',#928);
#930=COLOUR_RGB('8',0.300000000000000,0.300000000000000,0.300000000000000);
#931=SURFACE_STYLE_USAGE(.BOTH.,#932);
#932=SURFACE_SIDE_STYLE('NONE',(#933));
#933=SURFACE_STYLE_FILL_AREA(#934);
#934=FILL_AREA_STYLE('NONE',(#935));
#935=FILL_AREA_STYLE_COLOUR('NONE',#930);
#936=PRESENTATION_STYLE_ASSIGNMENT((#931));
#937=STYLED_ITEM('NONE',(#936),#929);
#938=CARTESIAN_POINT('',(-2.130000000000110,0.869999999999852,1.187157287524697));
#939=DIRECTION('',(1.0,4.057416E-016,-6.563344E-032));
#940=DIRECTION('',(-3.748564E-016,0.923879532511283,0.382683432365100));
#941=AXIS2_PLACEMENT_3D('',#938,#939,#940);
#942=CYLINDRICAL_SURFACE('',#941,0.599999999999992);
#943=CARTESIAN_POINT('',(-1.680000000000109,1.294264068711769,1.611421356236624));
#944=VERTEX_POINT('',#943);
#945=CARTESIAN_POINT('',(-1.680000000000110,1.469999999999843,1.187157287524704));
#946=VERTEX_POINT('',#945);
#947=CARTESIAN_POINT('',(-1.680000000000109,0.869999999999852,1.187157287524697));
#948=DIRECTION('',(-1.0,-3.463221E-016,-1.434513E-016));
#949=DIRECTION('',(-3.748564E-016,0.923879532511283,0.382683432365100));
#950=AXIS2_PLACEMENT_3D('',#947,#948,#949);
#951=CIRCLE('',#950,0.599999999999992);
#952=EDGE_CURVE('',#944,#946,#951,.T.);
#953=ORIENTED_EDGE('',*,*,#952,.T.);
#954=CARTESIAN_POINT('',(-2.130000000000110,1.469999999999843,1.187157287524704));
#955=VERTEX_POINT('',#954);
#956=CARTESIAN_POINT('',(-2.130000000000110,1.469999999999843,1.187157287524704));
#957=DIRECTION('',(1.0,0.0,0.0));
#958=VECTOR('',#957,0.450000000000000);
#959=LINE('',#956,#958);
#960=EDGE_CURVE('',#955,#946,#959,.T.);
#961=ORIENTED_EDGE('',*,*,#960,.F.);
#962=CARTESIAN_POINT('',(-2.130000000000110,1.294264068711769,1.611421356236624));
#963=VERTEX_POINT('',#962);
#964=CARTESIAN_POINT('',(-2.130000000000110,0.869999999999852,1.187157287524697));
#965=DIRECTION('',(-1.0,-3.463221E-016,-1.434513E-016));
#966=DIRECTION('',(-3.748564E-016,0.923879532511283,0.382683432365100));
#967=AXIS2_PLACEMENT_3D('',#964,#965,#966);
#968=CIRCLE('',#967,0.599999999999992);
#969=EDGE_CURVE('',#963,#955,#968,.T.);
#970=ORIENTED_EDGE('',*,*,#969,.F.);
#971=CARTESIAN_POINT('',(-2.130000000000110,1.294264068711769,1.611421356236624));
#972=DIRECTION('',(1.0,0.0,0.0));
#973=VECTOR('',#972,0.450000000000000);
#974=LINE('',#971,#973);
#975=EDGE_CURVE('',#963,#944,#974,.T.);
#976=ORIENTED_EDGE('',*,*,#975,.T.);
#977=EDGE_LOOP('',(#953,#961,#970,#976));
#978=FACE_OUTER_BOUND('',#977,.T.);
#979=ADVANCED_FACE('',(#978),#942,.T.);
#980=CARTESIAN_POINT('',(-2.130000000000110,1.469999999999843,1.187157287524704));
#981=DIRECTION('',(0.0,1.0,0.0));
#982=DIRECTION('',(-1.0,0.0,0.0));
#983=AXIS2_PLACEMENT_3D('',#980,#981,#982);
#984=PLANE('',#983);
#985=CARTESIAN_POINT('',(-1.680000000000110,1.469999999999828,-3.351390832922649));
#986=VERTEX_POINT('',#985);
#987=CARTESIAN_POINT('',(-1.680000000000110,1.469999999999843,1.187157287524704));
#988=DIRECTION('',(0.0,0.0,-1.0));
#989=VECTOR('',#988,4.538548120447352);
#990=LINE('',#987,#989);
#991=EDGE_CURVE('',#946,#986,#990,.T.);
#992=ORIENTED_EDGE('',*,*,#991,.T.);
#993=CARTESIAN_POINT('',(-2.130000000000110,1.469999999999828,-3.351390832922649));
#994=VERTEX_POINT('',#993);
#995=CARTESIAN_POINT('',(-2.130000000000110,1.469999999999828,-3.351390832922649));
#996=DIRECTION('',(1.0,0.0,0.0));
#997=VECTOR('',#996,0.450000000000000);
#998=LINE('',#995,#997);
#999=EDGE_CURVE('',#994,#986,#998,.T.);
#1000=ORIENTED_EDGE('',*,*,#999,.F.);
#1001=CARTESIAN_POINT('',(-2.130000000000110,1.469999999999843,1.187157287524704));
#1002=DIRECTION('',(0.0,0.0,-1.0));
#1003=VECTOR('',#1002,4.538548120447352);
#1004=LINE('',#1001,#1003);
#1005=EDGE_CURVE('',#955,#994,#1004,.T.);
#1006=ORIENTED_EDGE('',*,*,#1005,.F.);
#1007=ORIENTED_EDGE('',*,*,#960,.T.);
#1008=EDGE_LOOP('',(#992,#1000,#1006,#1007));
#1009=FACE_OUTER_BOUND('',#1008,.T.);
#1010=ADVANCED_FACE('',(#1009),#984,.T.);
#1011=CARTESIAN_POINT('',(-2.130000000000110,1.469999999999828,-3.351390832922649));
#1012=DIRECTION('',(0.0,0.0,-1.0));
#1013=DIRECTION('',(-1.0,0.0,0.0));
#1014=AXIS2_PLACEMENT_3D('',#1011,#1012,#1013);
#1015=PLANE('',#1014);
#1016=CARTESIAN_POINT('',(-1.680000000000109,1.069999999999830,-3.351390832922649));
#1017=VERTEX_POINT('',#1016);
#1018=CARTESIAN_POINT('',(-1.680000000000110,1.469999999999828,-3.351390832922649));
#1019=DIRECTION('',(0.0,-1.0,0.0));
#1020=VECTOR('',#1019,0.399999999999999);
#1021=LINE('',#1018,#1020);
#1022=EDGE_CURVE('',#986,#1017,#1021,.T.);
#1023=ORIENTED_EDGE('',*,*,#1022,.T.);
#1024=CARTESIAN_POINT('',(-2.130000000000110,1.069999999999830,-3.351390832922649));
#1025=VERTEX_POINT('',#1024);
#1026=CARTESIAN_POINT('',(-2.130000000000110,1.069999999999830,-3.351390832922649));
#1027=DIRECTION('',(1.0,0.0,0.0));
#1028=VECTOR('',#1027,0.450000000000000);
#1029=LINE('',#1026,#1028);
#1030=EDGE_CURVE('',#1025,#1017,#1029,.T.);
#1031=ORIENTED_EDGE('',*,*,#1030,.F.);
#1032=CARTESIAN_POINT('',(-2.130000000000110,1.469999999999828,-3.351390832922649));
#1033=DIRECTION('',(0.0,-1.0,0.0));
#1034=VECTOR('',#1033,0.399999999999999);
#1035=LINE('',#1032,#1034);
#1036=EDGE_CURVE('',#994,#1025,#1035,.T.);
#1037=ORIENTED_EDGE('',*,*,#1036,.F.);
#1038=ORIENTED_EDGE('',*,*,#999,.T.);
#1039=EDGE_LOOP('',(#1023,#1031,#1037,#1038));
#1040=FACE_OUTER_BOUND('',#1039,.T.);
#1041=ADVANCED_FACE('',(#1040),#1015,.T.);
#1042=CARTESIAN_POINT('',(-2.130000000000110,1.069999999999830,-3.351390832922649));
#1043=DIRECTION('',(0.0,-1.0,0.0));
#1044=DIRECTION('',(1.0,0.0,0.0));
#1045=AXIS2_PLACEMENT_3D('',#1042,#1043,#1044);
#1046=PLANE('',#1045);
#1047=CARTESIAN_POINT('',(-1.680000000000109,1.069999999999837,1.187157287524704));
#1048=VERTEX_POINT('',#1047);
#1049=CARTESIAN_POINT('',(-1.680000000000109,1.069999999999830,-3.351390832922649));
#1050=DIRECTION('',(0.0,0.0,1.0));
#1051=VECTOR('',#1050,4.538548120447352);
#1052=LINE('',#1049,#1051);
#1053=EDGE_CURVE('',#1017,#1048,#1052,.T.);
#1054=ORIENTED_EDGE('',*,*,#1053,.T.);
#1055=CARTESIAN_POINT('',(-2.130000000000110,1.069999999999837,1.187157287524704));
#1056=VERTEX_POINT('',#1055);
#1057=CARTESIAN_POINT('',(-2.130000000000110,1.069999999999837,1.187157287524704));
#1058=DIRECTION('',(1.0,0.0,0.0));
#1059=VECTOR('',#1058,0.450000000000000);
#1060=LINE('',#1057,#1059);
#1061=EDGE_CURVE('',#1056,#1048,#1060,.T.);
#1062=ORIENTED_EDGE('',*,*,#1061,.F.);
#1063=CARTESIAN_POINT('',(-2.130000000000110,1.069999999999830,-3.351390832922649));
#1064=DIRECTION('',(0.0,0.0,1.0));
#1065=VECTOR('',#1064,4.538548120447352);
#1066=LINE('',#1063,#1065);
#1067=EDGE_CURVE('',#1025,#1056,#1066,.T.);
#1068=ORIENTED_EDGE('',*,*,#1067,.F.);
#1069=ORIENTED_EDGE('',*,*,#1030,.T.);
#1070=EDGE_LOOP('',(#1054,#1062,#1068,#1069));
#1071=FACE_OUTER_BOUND('',#1070,.T.);
#1072=ADVANCED_FACE('',(#1071),#1046,.T.);
#1073=CARTESIAN_POINT('',(-2.130000000000110,0.869999999999848,1.187157287524705));
#1074=DIRECTION('',(1.0,4.057416E-016,-6.563344E-032));
#1075=DIRECTION('',(-3.748564E-016,0.923879532511289,0.382683432365084));
#1076=AXIS2_PLACEMENT_3D('',#1073,#1074,#1075);
#1077=CYLINDRICAL_SURFACE('',#1076,0.199999999999989);
#1078=CARTESIAN_POINT('',(-1.680000000000109,1.011421356237150,1.328578643762006));
#1079=VERTEX_POINT('',#1078);
#1080=CARTESIAN_POINT('',(-1.680000000000109,0.869999999999848,1.187157287524705));
#1081=DIRECTION('',(1.000000000000000,3.463221E-016,1.434513E-016));
#1082=DIRECTION('',(-3.748564E-016,0.923879532511289,0.382683432365084));
#1083=AXIS2_PLACEMENT_3D('',#1080,#1081,#1082);
#1084=CIRCLE('',#1083,0.199999999999989);
#1085=EDGE_CURVE('',#1048,#1079,#1084,.T.);
#1086=ORIENTED_EDGE('',*,*,#1085,.T.);
#1087=CARTESIAN_POINT('',(-2.130000000000110,1.011421356237150,1.328578643762006));
#1088=VERTEX_POINT('',#1087);
#1089=CARTESIAN_POINT('',(-2.130000000000110,1.011421356237150,1.328578643762006));
#1090=DIRECTION('',(1.0,0.0,0.0));
#1091=VECTOR('',#1090,0.450000000000000);
#1092=LINE('',#1089,#1091);
#1093=EDGE_CURVE('',#1088,#1079,#1092,.T.);
#1094=ORIENTED_EDGE('',*,*,#1093,.F.);
#1095=CARTESIAN_POINT('',(-2.130000000000110,0.869999999999848,1.187157287524705));
#1096=DIRECTION('',(1.000000000000000,3.463221E-016,1.434513E-016));
#1097=DIRECTION('',(-3.748564E-016,0.923879532511289,0.382683432365084));
#1098=AXIS2_PLACEMENT_3D('',#1095,#1096,#1097);
#1099=CIRCLE('',#1098,0.199999999999989);
#1100=EDGE_CURVE('',#1056,#1088,#1099,.T.);
#1101=ORIENTED_EDGE('',*,*,#1100,.F.);
#1102=ORIENTED_EDGE('',*,*,#1061,.T.);
#1103=EDGE_LOOP('',(#1086,#1094,#1101,#1102));
#1104=FACE_OUTER_BOUND('',#1103,.T.);
#1105=ADVANCED_FACE('',(#1104),#1077,.F.);
#1106=CARTESIAN_POINT('',(-2.130000000000110,1.011421356237150,1.328578643762006));
#1107=DIRECTION('',(2.869027E-016,-0.707106781186550,-0.707106781186545));
#1108=DIRECTION('',(1.0,0.0,0.0));
#1109=AXIS2_PLACEMENT_3D('',#1106,#1107,#1108);
#1110=PLANE('',#1109);
#1111=CARTESIAN_POINT('',(-1.680000000000109,-0.024264068712085,2.364264068711249));
#1112=VERTEX_POINT('',#1111);
#1113=CARTESIAN_POINT('',(-1.680000000000109,1.011421356237150,1.328578643762006));
#1114=DIRECTION('',(3.031987E-016,-0.707106781186545,0.707106781186550));
#1115=VECTOR('',#1114,1.464680374315357);
#1116=LINE('',#1113,#1115);
#1117=EDGE_CURVE('',#1079,#1112,#1116,.T.);
#1118=ORIENTED_EDGE('',*,*,#1117,.T.);
#1119=CARTESIAN_POINT('',(-2.130000000000109,-0.024264068712085,2.364264068711249));
#1120=VERTEX_POINT('',#1119);
#1121=CARTESIAN_POINT('',(-2.130000000000109,-0.024264068712085,2.364264068711249));
#1122=DIRECTION('',(1.0,0.0,0.0));
#1123=VECTOR('',#1122,0.450000000000000);
#1124=LINE('',#1121,#1123);
#1125=EDGE_CURVE('',#1120,#1112,#1124,.T.);
#1126=ORIENTED_EDGE('',*,*,#1125,.F.);
#1127=CARTESIAN_POINT('',(-2.130000000000110,1.011421356237150,1.328578643762006));
#1128=DIRECTION('',(3.031987E-016,-0.707106781186545,0.707106781186550));
#1129=VECTOR('',#1128,1.464680374315357);
#1130=LINE('',#1127,#1129);
#1131=EDGE_CURVE('',#1088,#1120,#1130,.T.);
#1132=ORIENTED_EDGE('',*,*,#1131,.F.);
#1133=ORIENTED_EDGE('',*,*,#1093,.T.);
#1134=EDGE_LOOP('',(#1118,#1126,#1132,#1133));
#1135=FACE_OUTER_BOUND('',#1134,.T.);
#1136=ADVANCED_FACE('',(#1135),#1110,.T.);
#1137=CARTESIAN_POINT('',(-2.130000000000109,0.399999999999842,2.788528137423180));
#1138=DIRECTION('',(1.0,4.057416E-016,-6.563344E-032));
#1139=DIRECTION('',(3.748564E-016,-0.923879532511285,-0.382683432365094));
#1140=AXIS2_PLACEMENT_3D('',#1137,#1138,#1139);
#1141=CYLINDRICAL_SURFACE('',#1140,0.600000000000002);
#1142=CARTESIAN_POINT('',(-1.680000000000109,-0.200000000000159,2.788528137423176));
#1143=VERTEX_POINT('',#1142);
#1144=CARTESIAN_POINT('',(-1.680000000000109,0.399999999999842,2.788528137423180));
#1145=DIRECTION('',(-1.0,-3.463221E-016,-1.434513E-016));
#1146=DIRECTION('',(3.748564E-016,-0.923879532511285,-0.382683432365094));
#1147=AXIS2_PLACEMENT_3D('',#1144,#1145,#1146);
#1148=CIRCLE('',#1147,0.600000000000002);
#1149=EDGE_CURVE('',#1112,#1143,#1148,.T.);
#1150=ORIENTED_EDGE('',*,*,#1149,.T.);
#1151=CARTESIAN_POINT('',(-2.130000000000109,-0.200000000000159,2.788528137423176));
#1152=VERTEX_POINT('',#1151);
#1153=CARTESIAN_POINT('',(-2.130000000000109,-0.200000000000159,2.788528137423176));
#1154=DIRECTION('',(1.0,0.0,0.0));
#1155=VECTOR('',#1154,0.450000000000000);
#1156=LINE('',#1153,#1155);
#1157=EDGE_CURVE('',#1152,#1143,#1156,.T.);
#1158=ORIENTED_EDGE('',*,*,#1157,.F.);
#1159=CARTESIAN_POINT('',(-2.130000000000109,0.399999999999842,2.788528137423180));
#1160=DIRECTION('',(-1.0,-3.463221E-016,-1.434513E-016));
#1161=DIRECTION('',(3.748564E-016,-0.923879532511285,-0.382683432365094));
#1162=AXIS2_PLACEMENT_3D('',#1159,#1160,#1161);
#1163=CIRCLE('',#1162,0.600000000000002);
#1164=EDGE_CURVE('',#1120,#1152,#1163,.T.);
#1165=ORIENTED_EDGE('',*,*,#1164,.F.);
#1166=ORIENTED_EDGE('',*,*,#1125,.T.);
#1167=EDGE_LOOP('',(#1150,#1158,#1165,#1166));
#1168=FACE_OUTER_BOUND('',#1167,.T.);
#1169=ADVANCED_FACE('',(#1168),#1141,.T.);
#1170=CARTESIAN_POINT('',(-2.130000000000109,-0.200000000000159,2.788528137423176));
#1171=DIRECTION('',(0.0,-1.0,0.0));
#1172=DIRECTION('',(1.0,0.0,0.0));
#1173=AXIS2_PLACEMENT_3D('',#1170,#1171,#1172);
#1174=PLANE('',#1173);
#1175=CARTESIAN_POINT('',(-1.680000000000109,-0.200000000000159,3.770000000000001));
#1176=VERTEX_POINT('',#1175);
#1177=CARTESIAN_POINT('',(-1.680000000000109,-0.200000000000159,2.788528137423176));
#1178=DIRECTION('',(0.0,0.0,1.0));
#1179=VECTOR('',#1178,0.981471862576825);
#1180=LINE('',#1177,#1179);
#1181=EDGE_CURVE('',#1143,#1176,#1180,.T.);
#1182=ORIENTED_EDGE('',*,*,#1181,.T.);
#1183=CARTESIAN_POINT('',(-2.130000000000109,-0.200000000000159,3.770000000000001));
#1184=VERTEX_POINT('',#1183);
#1185=CARTESIAN_POINT('',(-2.130000000000109,-0.200000000000159,3.770000000000001));
#1186=DIRECTION('',(1.0,0.0,0.0));
#1187=VECTOR('',#1186,0.450000000000000);
#1188=LINE('',#1185,#1187);
#1189=EDGE_CURVE('',#1184,#1176,#1188,.T.);
#1190=ORIENTED_EDGE('',*,*,#1189,.F.);
#1191=CARTESIAN_POINT('',(-2.130000000000109,-0.200000000000159,2.788528137423176));
#1192=DIRECTION('',(0.0,0.0,1.0));
#1193=VECTOR('',#1192,0.981471862576825);
#1194=LINE('',#1191,#1193);
#1195=EDGE_CURVE('',#1152,#1184,#1194,.T.);
#1196=ORIENTED_EDGE('',*,*,#1195,.F.);
#1197=ORIENTED_EDGE('',*,*,#1157,.T.);
#1198=EDGE_LOOP('',(#1182,#1190,#1196,#1197));
#1199=FACE_OUTER_BOUND('',#1198,.T.);
#1200=ADVANCED_FACE('',(#1199),#1174,.T.);
#1201=CARTESIAN_POINT('',(-2.130000000000109,-0.200000000000159,3.770000000000001));
#1202=DIRECTION('',(0.0,0.0,1.0));
#1203=DIRECTION('',(1.0,0.0,0.0));
#1204=AXIS2_PLACEMENT_3D('',#1201,#1202,#1203);
#1205=PLANE('',#1204);
#1206=CARTESIAN_POINT('',(-1.680000000000109,0.199999999999832,3.770000000000001));
#1207=VERTEX_POINT('',#1206);
#1208=CARTESIAN_POINT('',(-1.680000000000109,-0.200000000000159,3.770000000000001));
#1209=DIRECTION('',(0.0,1.0,0.0));
#1210=VECTOR('',#1209,0.399999999999991);
#1211=LINE('',#1208,#1210);
#1212=EDGE_CURVE('',#1176,#1207,#1211,.T.);
#1213=ORIENTED_EDGE('',*,*,#1212,.T.);
#1214=CARTESIAN_POINT('',(-2.130000000000109,0.199999999999832,3.770000000000001));
#1215=VERTEX_POINT('',#1214);
#1216=CARTESIAN_POINT('',(-2.130000000000109,0.199999999999832,3.770000000000001));
#1217=DIRECTION('',(1.0,0.0,0.0));
#1218=VECTOR('',#1217,0.450000000000000);
#1219=LINE('',#1216,#1218);
#1220=EDGE_CURVE('',#1215,#1207,#1219,.T.);
#1221=ORIENTED_EDGE('',*,*,#1220,.F.);
#1222=CARTESIAN_POINT('',(-2.130000000000109,-0.200000000000159,3.770000000000001));
#1223=DIRECTION('',(0.0,1.0,0.0));
#1224=VECTOR('',#1223,0.399999999999991);
#1225=LINE('',#1222,#1224);
#1226=EDGE_CURVE('',#1184,#1215,#1225,.T.);
#1227=ORIENTED_EDGE('',*,*,#1226,.F.);
#1228=ORIENTED_EDGE('',*,*,#1189,.T.);
#1229=EDGE_LOOP('',(#1213,#1221,#1227,#1228));
#1230=FACE_OUTER_BOUND('',#1229,.T.);
#1231=ADVANCED_FACE('',(#1230),#1205,.T.);
#1232=CARTESIAN_POINT('',(-2.130000000000109,0.199999999999832,3.770000000000001));
#1233=DIRECTION('',(0.0,1.0,0.0));
#1234=DIRECTION('',(-1.0,0.0,0.0));
#1235=AXIS2_PLACEMENT_3D('',#1232,#1233,#1234);
#1236=PLANE('',#1235);
#1237=CARTESIAN_POINT('',(-1.680000000000109,0.199999999999839,2.788528137423176));
#1238=VERTEX_POINT('',#1237);
#1239=CARTESIAN_POINT('',(-1.680000000000109,0.199999999999832,3.770000000000001));
#1240=DIRECTION('',(0.0,0.0,-1.0));
#1241=VECTOR('',#1240,0.981471862576825);
#1242=LINE('',#1239,#1241);
#1243=EDGE_CURVE('',#1207,#1238,#1242,.T.);
#1244=ORIENTED_EDGE('',*,*,#1243,.T.);
#1245=CARTESIAN_POINT('',(-2.130000000000109,0.199999999999839,2.788528137423176));
#1246=VERTEX_POINT('',#1245);
#1247=CARTESIAN_POINT('',(-2.130000000000109,0.199999999999839,2.788528137423176));
#1248=DIRECTION('',(1.0,0.0,0.0));
#1249=VECTOR('',#1248,0.450000000000000);
#1250=LINE('',#1247,#1249);
#1251=EDGE_CURVE('',#1246,#1238,#1250,.T.);
#1252=ORIENTED_EDGE('',*,*,#1251,.F.);
#1253=CARTESIAN_POINT('',(-2.130000000000109,0.199999999999832,3.770000000000001));
#1254=DIRECTION('',(0.0,0.0,-1.0));
#1255=VECTOR('',#1254,0.981471862576825);
#1256=LINE('',#1253,#1255);
#1257=EDGE_CURVE('',#1215,#1246,#1256,.T.);
#1258=ORIENTED_EDGE('',*,*,#1257,.F.);
#1259=ORIENTED_EDGE('',*,*,#1220,.T.);
#1260=EDGE_LOOP('',(#1244,#1252,#1258,#1259));
#1261=FACE_OUTER_BOUND('',#1260,.T.);
#1262=ADVANCED_FACE('',(#1261),#1236,.T.);
#1263=CARTESIAN_POINT('',(-2.130000000000109,0.399999999999842,2.788528137423180));
#1264=DIRECTION('',(1.0,4.057416E-016,-6.563344E-032));
#1265=DIRECTION('',(3.748564E-016,-0.923879532511279,-0.382683432365107));
#1266=AXIS2_PLACEMENT_3D('',#1263,#1264,#1265);
#1267=CYLINDRICAL_SURFACE('',#1266,0.200000000000002);
#1268=CARTESIAN_POINT('',(-1.680000000000109,0.258578643762533,2.647106781185867));
#1269=VERTEX_POINT('',#1268);
#1270=CARTESIAN_POINT('',(-1.680000000000109,0.399999999999842,2.788528137423180));
#1271=DIRECTION('',(1.000000000000000,3.463221E-016,1.434513E-016));
#1272=DIRECTION('',(3.748564E-016,-0.923879532511279,-0.382683432365107));
#1273=AXIS2_PLACEMENT_3D('',#1270,#1271,#1272);
#1274=CIRCLE('',#1273,0.200000000000002);
#1275=EDGE_CURVE('',#1238,#1269,#1274,.T.);
#1276=ORIENTED_EDGE('',*,*,#1275,.T.);
#1277=CARTESIAN_POINT('',(-2.130000000000109,0.258578643762533,2.647106781185867));
#1278=VERTEX_POINT('',#1277);
#1279=CARTESIAN_POINT('',(-2.130000000000109,0.258578643762533,2.647106781185867));
#1280=DIRECTION('',(1.0,0.0,0.0));
#1281=VECTOR('',#1280,0.450000000000000);
#1282=LINE('',#1279,#1281);
#1283=EDGE_CURVE('',#1278,#1269,#1282,.T.);
#1284=ORIENTED_EDGE('',*,*,#1283,.F.);
#1285=CARTESIAN_POINT('',(-2.130000000000109,0.399999999999842,2.788528137423180));
#1286=DIRECTION('',(1.000000000000000,3.463221E-016,1.434513E-016));
#1287=DIRECTION('',(3.748564E-016,-0.923879532511279,-0.382683432365107));
#1288=AXIS2_PLACEMENT_3D('',#1285,#1286,#1287);
#1289=CIRCLE('',#1288,0.200000000000002);
#1290=EDGE_CURVE('',#1246,#1278,#1289,.T.);
#1291=ORIENTED_EDGE('',*,*,#1290,.F.);
#1292=ORIENTED_EDGE('',*,*,#1251,.T.);
#1293=EDGE_LOOP('',(#1276,#1284,#1291,#1292));
#1294=FACE_OUTER_BOUND('',#1293,.T.);
#1295=ADVANCED_FACE('',(#1294),#1267,.F.);
#1296=CARTESIAN_POINT('',(-2.130000000000109,0.258578643762533,2.647106781185867));
#1297=DIRECTION('',(-2.869027E-016,0.707106781186550,0.707106781186545));
#1298=DIRECTION('',(-1.0,0.0,0.0));
#1299=AXIS2_PLACEMENT_3D('',#1296,#1297,#1298);
#1300=PLANE('',#1299);
#1301=CARTESIAN_POINT('',(-1.680000000000109,0.258578643762533,2.647106781185867));
#1302=DIRECTION('',(-1.515994E-016,0.707106781186545,-0.707106781186550));
#1303=VECTOR('',#1302,1.464680374315357);
#1304=LINE('',#1301,#1303);
#1305=EDGE_CURVE('',#1269,#944,#1304,.T.);
#1306=ORIENTED_EDGE('',*,*,#1305,.T.);
#1307=ORIENTED_EDGE('',*,*,#975,.F.);
#1308=CARTESIAN_POINT('',(-2.130000000000109,0.258578643762533,2.647106781185867));
#1309=DIRECTION('',(-3.031987E-016,0.707106781186545,-0.707106781186550));
#1310=VECTOR('',#1309,1.464680374315357);
#1311=LINE('',#1308,#1310);
#1312=EDGE_CURVE('',#1278,#963,#1311,.T.);
#1313=ORIENTED_EDGE('',*,*,#1312,.F.);
#1314=ORIENTED_EDGE('',*,*,#1283,.T.);
#1315=EDGE_LOOP('',(#1306,#1307,#1313,#1314));
#1316=FACE_OUTER_BOUND('',#1315,.T.);
#1317=ADVANCED_FACE('',(#1316),#1300,.T.);
#1318=CARTESIAN_POINT('',(-1.680000000000109,0.916884200611690,0.318424411349735));
#1319=DIRECTION('',(1.0,0.0,0.0));
#1320=DIRECTION('',(0.0,1.0,0.0));
#1321=AXIS2_PLACEMENT_3D('',#1318,#1319,#1320);
#1322=PLANE('',#1321);
#1323=ORIENTED_EDGE('',*,*,#952,.F.);
#1324=ORIENTED_EDGE('',*,*,#1305,.F.);
#1325=ORIENTED_EDGE('',*,*,#1275,.F.);
#1326=ORIENTED_EDGE('',*,*,#1243,.F.);
#1327=ORIENTED_EDGE('',*,*,#1212,.F.);
#1328=ORIENTED_EDGE('',*,*,#1181,.F.);
#1329=ORIENTED_EDGE('',*,*,#1149,.F.);
#1330=ORIENTED_EDGE('',*,*,#1117,.F.);
#1331=ORIENTED_EDGE('',*,*,#1085,.F.);
#1332=ORIENTED_EDGE('',*,*,#1053,.F.);
#1333=ORIENTED_EDGE('',*,*,#1022,.F.);
#1334=ORIENTED_EDGE('',*,*,#991,.F.);
#1335=EDGE_LOOP('',(#1323,#1324,#1325,#1326,#1327,#1328,#1329,#1330,#1331,#1332,#1333,#1334));
#1336=FACE_OUTER_BOUND('',#1335,.T.);
#1337=ADVANCED_FACE('',(#1336),#1322,.T.);
#1338=CARTESIAN_POINT('',(-2.130000000000110,0.916884200611694,0.318424411349733));
#1339=DIRECTION('',(1.0,0.0,0.0));
#1340=DIRECTION('',(0.0,1.0,0.0));
#1341=AXIS2_PLACEMENT_3D('',#1338,#1339,#1340);
#1342=PLANE('',#1341);
#1343=ORIENTED_EDGE('',*,*,#1312,.T.);
#1344=ORIENTED_EDGE('',*,*,#969,.T.);
#1345=ORIENTED_EDGE('',*,*,#1005,.T.);
#1346=ORIENTED_EDGE('',*,*,#1036,.T.);
#1347=ORIENTED_EDGE('',*,*,#1067,.T.);
#1348=ORIENTED_EDGE('',*,*,#1100,.T.);
#1349=ORIENTED_EDGE('',*,*,#1131,.T.);
#1350=ORIENTED_EDGE('',*,*,#1164,.T.);
#1351=ORIENTED_EDGE('',*,*,#1195,.T.);
#1352=ORIENTED_EDGE('',*,*,#1226,.T.);
#1353=ORIENTED_EDGE('',*,*,#1257,.T.);
#1354=ORIENTED_EDGE('',*,*,#1290,.T.);
#1355=EDGE_LOOP('',(#1343,#1344,#1345,#1346,#1347,#1348,#1349,#1350,#1351,#1352,#1353,#1354));
#1356=FACE_OUTER_BOUND('',#1355,.T.);
#1357=ADVANCED_FACE('',(#1356),#1342,.F.);
#1358=CLOSED_SHELL('',(#979,#1010,#1041,#1072,#1105,#1136,#1169,#1200,#1231,#1262,#1295,#1317,#1337,#1357));
#1359=MANIFOLD_SOLID_BREP('198',#1358);
#1360=STYLED_ITEM('NONE',(#493),#1359);
#1361=CARTESIAN_POINT('',(-0.859999999999900,-0.199999999999944,-3.351390832922656));
#1362=DIRECTION('',(0.0,-1.0,0.0));
#1363=DIRECTION('',(1.0,0.0,0.0));
#1364=AXIS2_PLACEMENT_3D('',#1361,#1362,#1363);
#1365=PLANE('',#1364);
#1366=CARTESIAN_POINT('',(-0.409999999999900,-0.199999999999944,-3.351390832922656));
#1367=VERTEX_POINT('',#1366);
#1368=CARTESIAN_POINT('',(-0.409999999999900,-0.199999999999930,3.770000000000003));
#1369=VERTEX_POINT('',#1368);
#1370=CARTESIAN_POINT('',(-0.409999999999900,-0.199999999999944,-3.351390832922656));
#1371=DIRECTION('',(0.0,0.0,1.0));
#1372=VECTOR('',#1371,7.121390832922659);
#1373=LINE('',#1370,#1372);
#1374=EDGE_CURVE('',#1367,#1369,#1373,.T.);
#1375=ORIENTED_EDGE('',*,*,#1374,.T.);
#1376=CARTESIAN_POINT('',(-0.859999999999900,-0.199999999999930,3.770000000000003));
#1377=VERTEX_POINT('',#1376);
#1378=CARTESIAN_POINT('',(-0.859999999999900,-0.199999999999930,3.770000000000003));
#1379=DIRECTION('',(1.0,0.0,0.0));
#1380=VECTOR('',#1379,0.450000000000000);
#1381=LINE('',#1378,#1380);
#1382=EDGE_CURVE('',#1377,#1369,#1381,.T.);
#1383=ORIENTED_EDGE('',*,*,#1382,.F.);
#1384=CARTESIAN_POINT('',(-0.859999999999900,-0.199999999999944,-3.351390832922656));
#1385=VERTEX_POINT('',#1384);
#1386=CARTESIAN_POINT('',(-0.859999999999900,-0.199999999999944,-3.351390832922656));
#1387=DIRECTION('',(0.0,0.0,1.0));
#1388=VECTOR('',#1387,7.121390832922659);
#1389=LINE('',#1386,#1388);
#1390=EDGE_CURVE('',#1385,#1377,#1389,.T.);
#1391=ORIENTED_EDGE('',*,*,#1390,.F.);
#1392=CARTESIAN_POINT('',(-0.859999999999900,-0.199999999999944,-3.351390832922656));
#1393=DIRECTION('',(1.0,0.0,0.0));
#1394=VECTOR('',#1393,0.450000000000000);
#1395=LINE('',#1392,#1394);
#1396=EDGE_CURVE('',#1385,#1367,#1395,.T.);
#1397=ORIENTED_EDGE('',*,*,#1396,.T.);
#1398=EDGE_LOOP('',(#1375,#1383,#1391,#1397));
#1399=FACE_OUTER_BOUND('',#1398,.T.);
#1400=ADVANCED_FACE('',(#1399),#1365,.T.);
#1401=CARTESIAN_POINT('',(-0.859999999999900,-0.199999999999930,3.770000000000003));
#1402=DIRECTION('',(0.0,0.0,1.0));
#1403=DIRECTION('',(1.0,0.0,0.0));
#1404=AXIS2_PLACEMENT_3D('',#1401,#1402,#1403);
#1405=PLANE('',#1404);
#1406=CARTESIAN_POINT('',(-0.409999999999900,0.200000000000069,3.769999999999994));
#1407=VERTEX_POINT('',#1406);
#1408=CARTESIAN_POINT('',(-0.409999999999900,-0.199999999999930,3.770000000000003));
#1409=DIRECTION('',(0.0,1.0,0.0));
#1410=VECTOR('',#1409,0.399999999999999);
#1411=LINE('',#1408,#1410);
#1412=EDGE_CURVE('',#1369,#1407,#1411,.T.);
#1413=ORIENTED_EDGE('',*,*,#1412,.T.);
#1414=CARTESIAN_POINT('',(-0.859999999999900,0.200000000000069,3.769999999999994));
#1415=VERTEX_POINT('',#1414);
#1416=CARTESIAN_POINT('',(-0.859999999999900,0.200000000000069,3.769999999999994));
#1417=DIRECTION('',(1.0,0.0,0.0));
#1418=VECTOR('',#1417,0.450000000000000);
#1419=LINE('',#1416,#1418);
#1420=EDGE_CURVE('',#1415,#1407,#1419,.T.);
#1421=ORIENTED_EDGE('',*,*,#1420,.F.);
#1422=CARTESIAN_POINT('',(-0.859999999999900,-0.199999999999930,3.770000000000003));
#1423=DIRECTION('',(0.0,1.0,0.0));
#1424=VECTOR('',#1423,0.399999999999999);
#1425=LINE('',#1422,#1424);
#1426=EDGE_CURVE('',#1377,#1415,#1425,.T.);
#1427=ORIENTED_EDGE('',*,*,#1426,.F.);
#1428=ORIENTED_EDGE('',*,*,#1382,.T.);
#1429=EDGE_LOOP('',(#1413,#1421,#1427,#1428));
#1430=FACE_OUTER_BOUND('',#1429,.T.);
#1431=ADVANCED_FACE('',(#1430),#1405,.T.);
#1432=CARTESIAN_POINT('',(-0.859999999999900,0.200000000000069,3.769999999999994));
#1433=DIRECTION('',(0.0,1.0,0.0));
#1434=DIRECTION('',(-1.0,0.0,0.0));
#1435=AXIS2_PLACEMENT_3D('',#1432,#1433,#1434);
#1436=PLANE('',#1435);
#1437=CARTESIAN_POINT('',(-0.409999999999900,0.200000000000054,-3.351390832922656));
#1438=VERTEX_POINT('',#1437);
#1439=CARTESIAN_POINT('',(-0.409999999999900,0.200000000000069,3.769999999999994));
#1440=DIRECTION('',(0.0,0.0,-1.0));
#1441=VECTOR('',#1440,7.121390832922650);
#1442=LINE('',#1439,#1441);
#1443=EDGE_CURVE('',#1407,#1438,#1442,.T.);
#1444=ORIENTED_EDGE('',*,*,#1443,.T.);
#1445=CARTESIAN_POINT('',(-0.859999999999900,0.200000000000054,-3.351390832922656));
#1446=VERTEX_POINT('',#1445);
#1447=CARTESIAN_POINT('',(-0.859999999999900,0.200000000000054,-3.351390832922656));
#1448=DIRECTION('',(1.0,0.0,0.0));
#1449=VECTOR('',#1448,0.450000000000000);
#1450=LINE('',#1447,#1449);
#1451=EDGE_CURVE('',#1446,#1438,#1450,.T.);
#1452=ORIENTED_EDGE('',*,*,#1451,.F.);
#1453=CARTESIAN_POINT('',(-0.859999999999900,0.200000000000069,3.769999999999994));
#1454=DIRECTION('',(0.0,0.0,-1.0));
#1455=VECTOR('',#1454,7.121390832922650);
#1456=LINE('',#1453,#1455);
#1457=EDGE_CURVE('',#1415,#1446,#1456,.T.);
#1458=ORIENTED_EDGE('',*,*,#1457,.F.);
#1459=ORIENTED_EDGE('',*,*,#1420,.T.);
#1460=EDGE_LOOP('',(#1444,#1452,#1458,#1459));
#1461=FACE_OUTER_BOUND('',#1460,.T.);
#1462=ADVANCED_FACE('',(#1461),#1436,.T.);
#1463=CARTESIAN_POINT('',(-0.859999999999900,0.200000000000054,-3.351390832922656));
#1464=DIRECTION('',(0.0,0.0,-1.0));
#1465=DIRECTION('',(-1.0,0.0,0.0));
#1466=AXIS2_PLACEMENT_3D('',#1463,#1464,#1465);
#1467=PLANE('',#1466);
#1468=CARTESIAN_POINT('',(-0.409999999999900,0.200000000000054,-3.351390832922656));
#1469=DIRECTION('',(0.0,-1.0,0.0));
#1470=VECTOR('',#1469,0.399999999999999);
#1471=LINE('',#1468,#1470);
#1472=EDGE_CURVE('',#1438,#1367,#1471,.T.);
#1473=ORIENTED_EDGE('',*,*,#1472,.T.);
#1474=ORIENTED_EDGE('',*,*,#1396,.F.);
#1475=CARTESIAN_POINT('',(-0.859999999999900,0.200000000000054,-3.351390832922656));
#1476=DIRECTION('',(0.0,-1.0,0.0));
#1477=VECTOR('',#1476,0.399999999999999);
#1478=LINE('',#1475,#1477);
#1479=EDGE_CURVE('',#1446,#1385,#1478,.T.);
#1480=ORIENTED_EDGE('',*,*,#1479,.F.);
#1481=ORIENTED_EDGE('',*,*,#1451,.T.);
#1482=EDGE_LOOP('',(#1473,#1474,#1480,#1481));
#1483=FACE_OUTER_BOUND('',#1482,.T.);
#1484=ADVANCED_FACE('',(#1483),#1467,.T.);
#1485=CARTESIAN_POINT('',(-0.409999999999900,6.394885E-014,0.209304583538671));
#1486=DIRECTION('',(1.0,0.0,0.0));
#1487=DIRECTION('',(0.0,1.0,0.0));
#1488=AXIS2_PLACEMENT_3D('',#1485,#1486,#1487);
#1489=PLANE('',#1488);
#1490=ORIENTED_EDGE('',*,*,#1374,.F.);
#1491=ORIENTED_EDGE('',*,*,#1472,.F.);
#1492=ORIENTED_EDGE('',*,*,#1443,.F.);
#1493=ORIENTED_EDGE('',*,*,#1412,.F.);
#1494=EDGE_LOOP('',(#1490,#1491,#1492,#1493));
#1495=FACE_OUTER_BOUND('',#1494,.T.);
#1496=ADVANCED_FACE('',(#1495),#1489,.T.);
#1497=CARTESIAN_POINT('',(-0.859999999999900,6.394885E-014,0.209304583538671));
#1498=DIRECTION('',(1.0,0.0,0.0));
#1499=DIRECTION('',(0.0,1.0,0.0));
#1500=AXIS2_PLACEMENT_3D('',#1497,#1498,#1499);
#1501=PLANE('',#1500);
#1502=ORIENTED_EDGE('',*,*,#1479,.T.);
#1503=ORIENTED_EDGE('',*,*,#1390,.T.);
#1504=ORIENTED_EDGE('',*,*,#1426,.T.);
#1505=ORIENTED_EDGE('',*,*,#1457,.T.);
#1506=EDGE_LOOP('',(#1502,#1503,#1504,#1505));
#1507=FACE_OUTER_BOUND('',#1506,.T.);
#1508=ADVANCED_FACE('',(#1507),#1501,.F.);
#1509=CLOSED_SHELL('',(#1400,#1431,#1462,#1484,#1496,#1508));
#1510=MANIFOLD_SOLID_BREP('194',#1509);
#1511=STYLED_ITEM('NONE',(#493),#1510);
#1512=ADVANCED_BREP_SHAPE_REPRESENTATION('ABSR1',(#486,#646,#929,#1359,#1510),#28);
#1513=SHAPE_REPRESENTATION_RELATIONSHIP('SRRPL1','',#1512,#62);
ENDSEC;
END-ISO-10303-21;
