ISO-10303-21;
HEADER;
/* Generated by software containing ST-Developer
 * from STEP Tools, Inc. (www.steptools.com) 
 */

FILE_DESCRIPTION(
/* description */ (''),
/* implementation_level */ '2;1');

FILE_NAME(
/* name */ 
'G:\\Applications\\Altium\\CernLib\\StepLib\\SKS-HIRSCHMANN_930 176-10
3_a_Part2.stp',
/* time_stamp */ '2017-01-25T10:14:13+01:00',
/* author */ ('jchouvet'),
/* organization */ (''),
/* preprocessor_version */ 'ST-DEVELOPER v16.1',
/* originating_system */ 'AutoCAD Mechanical',
/* authorisation */ '');

FILE_SCHEMA (('AUTOMOTIVE_DESIGN { 1 0 10303 214 3 1 1 }'));
ENDSEC;

DATA;
#10=MECHANICAL_DESIGN_GEOMETRIC_PRESENTATION_REPRESENTATION('',(#91,#89,
#90),#649);
#11=DIMENSIONAL_EXPONENTS(0.,0.,0.,0.,0.,0.,0.);
#12=(
CONVERSION_BASED_UNIT('degree',#13)
NAMED_UNIT(#11)
PLANE_ANGLE_UNIT()
);
#13=PLANE_ANGLE_MEASURE_WITH_UNIT(PLANE_ANGLE_MEASURE(0.01745329252),#652);
#14=PRESENTATION_LAYER_ASSIGNMENT('1','3D',(#92,#93,#94));
#15=LINE('',#568,#51);
#16=LINE('',#570,#52);
#17=LINE('',#572,#53);
#18=LINE('',#573,#54);
#19=LINE('',#576,#55);
#20=LINE('',#578,#56);
#21=LINE('',#579,#57);
#22=LINE('',#582,#58);
#23=LINE('',#584,#59);
#24=LINE('',#585,#60);
#25=LINE('',#588,#61);
#26=LINE('',#590,#62);
#27=LINE('',#591,#63);
#28=LINE('',#594,#64);
#29=LINE('',#596,#65);
#30=LINE('',#597,#66);
#31=LINE('',#599,#67);
#32=LINE('',#600,#68);
#33=LINE('',#611,#69);
#34=LINE('',#613,#70);
#35=LINE('',#615,#71);
#36=LINE('',#616,#72);
#37=LINE('',#619,#73);
#38=LINE('',#621,#74);
#39=LINE('',#622,#75);
#40=LINE('',#625,#76);
#41=LINE('',#627,#77);
#42=LINE('',#628,#78);
#43=LINE('',#631,#79);
#44=LINE('',#633,#80);
#45=LINE('',#634,#81);
#46=LINE('',#637,#82);
#47=LINE('',#639,#83);
#48=LINE('',#640,#84);
#49=LINE('',#642,#85);
#50=LINE('',#643,#86);
#51=VECTOR('',#469,4.50000000000001);
#52=VECTOR('',#470,2.);
#53=VECTOR('',#471,4.50000000000001);
#54=VECTOR('',#472,2.);
#55=VECTOR('',#475,4.49999999999999);
#56=VECTOR('',#476,2.);
#57=VECTOR('',#477,4.49999999999999);
#58=VECTOR('',#480,4.5);
#59=VECTOR('',#481,2.);
#60=VECTOR('',#482,4.5);
#61=VECTOR('',#485,4.49999999999999);
#62=VECTOR('',#486,2.);
#63=VECTOR('',#487,4.49999999999999);
#64=VECTOR('',#490,4.50000000000001);
#65=VECTOR('',#491,2.);
#66=VECTOR('',#492,4.50000000000001);
#67=VECTOR('',#495,4.5);
#68=VECTOR('',#496,4.5);
#69=VECTOR('',#509,4.50000000000001);
#70=VECTOR('',#510,2.);
#71=VECTOR('',#511,4.50000000000001);
#72=VECTOR('',#512,2.);
#73=VECTOR('',#515,4.49999999999999);
#74=VECTOR('',#516,2.);
#75=VECTOR('',#517,4.49999999999999);
#76=VECTOR('',#520,4.5);
#77=VECTOR('',#521,2.);
#78=VECTOR('',#522,4.5);
#79=VECTOR('',#525,4.49999999999999);
#80=VECTOR('',#526,2.);
#81=VECTOR('',#527,4.49999999999999);
#82=VECTOR('',#530,4.50000000000001);
#83=VECTOR('',#531,2.);
#84=VECTOR('',#532,4.50000000000001);
#85=VECTOR('',#535,4.5);
#86=VECTOR('',#536,4.5);
#87=SHAPE_REPRESENTATION_RELATIONSHIP('SRR','None',#655,#88);
#88=ADVANCED_BREP_SHAPE_REPRESENTATION('',(#92,#93,#94),#648);
#89=STYLED_ITEM('',(#665),#92);
#90=STYLED_ITEM('',(#666),#93);
#91=STYLED_ITEM('',(#666),#94);
#92=MANIFOLD_SOLID_BREP('774',#397);
#93=MANIFOLD_SOLID_BREP('798',#398);
#94=MANIFOLD_SOLID_BREP('79E',#399);
#95=PLANE('',#404);
#96=PLANE('',#411);
#97=PLANE('',#412);
#98=PLANE('',#416);
#99=PLANE('',#417);
#100=PLANE('',#418);
#101=PLANE('',#419);
#102=PLANE('',#420);
#103=PLANE('',#421);
#104=PLANE('',#422);
#105=PLANE('',#423);
#106=PLANE('',#427);
#107=PLANE('',#428);
#108=PLANE('',#429);
#109=PLANE('',#430);
#110=PLANE('',#431);
#111=PLANE('',#432);
#112=PLANE('',#433);
#113=PLANE('',#434);
#114=FACE_BOUND('',#151,.T.);
#115=FACE_BOUND('',#153,.T.);
#116=FACE_BOUND('',#155,.T.);
#117=FACE_BOUND('',#157,.T.);
#118=FACE_BOUND('',#159,.T.);
#119=FACE_BOUND('',#161,.T.);
#120=FACE_BOUND('',#163,.T.);
#121=FACE_BOUND('',#171,.T.);
#122=FACE_BOUND('',#173,.T.);
#123=FACE_BOUND('',#175,.T.);
#124=FACE_BOUND('',#183,.T.);
#125=FACE_BOUND('',#185,.T.);
#126=FACE_OUTER_BOUND('',#150,.T.);
#127=FACE_OUTER_BOUND('',#152,.T.);
#128=FACE_OUTER_BOUND('',#154,.T.);
#129=FACE_OUTER_BOUND('',#156,.T.);
#130=FACE_OUTER_BOUND('',#158,.T.);
#131=FACE_OUTER_BOUND('',#160,.T.);
#132=FACE_OUTER_BOUND('',#162,.T.);
#133=FACE_OUTER_BOUND('',#164,.T.);
#134=FACE_OUTER_BOUND('',#165,.T.);
#135=FACE_OUTER_BOUND('',#166,.T.);
#136=FACE_OUTER_BOUND('',#167,.T.);
#137=FACE_OUTER_BOUND('',#168,.T.);
#138=FACE_OUTER_BOUND('',#169,.T.);
#139=FACE_OUTER_BOUND('',#170,.T.);
#140=FACE_OUTER_BOUND('',#172,.T.);
#141=FACE_OUTER_BOUND('',#174,.T.);
#142=FACE_OUTER_BOUND('',#176,.T.);
#143=FACE_OUTER_BOUND('',#177,.T.);
#144=FACE_OUTER_BOUND('',#178,.T.);
#145=FACE_OUTER_BOUND('',#179,.T.);
#146=FACE_OUTER_BOUND('',#180,.T.);
#147=FACE_OUTER_BOUND('',#181,.T.);
#148=FACE_OUTER_BOUND('',#182,.T.);
#149=FACE_OUTER_BOUND('',#184,.T.);
#150=EDGE_LOOP('',(#276));
#151=EDGE_LOOP('',(#277));
#152=EDGE_LOOP('',(#278));
#153=EDGE_LOOP('',(#279));
#154=EDGE_LOOP('',(#280));
#155=EDGE_LOOP('',(#281));
#156=EDGE_LOOP('',(#282));
#157=EDGE_LOOP('',(#283));
#158=EDGE_LOOP('',(#284));
#159=EDGE_LOOP('',(#285));
#160=EDGE_LOOP('',(#286));
#161=EDGE_LOOP('',(#287));
#162=EDGE_LOOP('',(#288));
#163=EDGE_LOOP('',(#289));
#164=EDGE_LOOP('',(#290,#291,#292,#293));
#165=EDGE_LOOP('',(#294,#295,#296,#297));
#166=EDGE_LOOP('',(#298,#299,#300,#301));
#167=EDGE_LOOP('',(#302,#303,#304,#305));
#168=EDGE_LOOP('',(#306,#307,#308,#309));
#169=EDGE_LOOP('',(#310,#311,#312,#313));
#170=EDGE_LOOP('',(#314,#315,#316,#317,#318,#319));
#171=EDGE_LOOP('',(#320));
#172=EDGE_LOOP('',(#321,#322,#323,#324,#325,#326));
#173=EDGE_LOOP('',(#327));
#174=EDGE_LOOP('',(#328));
#175=EDGE_LOOP('',(#329));
#176=EDGE_LOOP('',(#330,#331,#332,#333));
#177=EDGE_LOOP('',(#334,#335,#336,#337));
#178=EDGE_LOOP('',(#338,#339,#340,#341));
#179=EDGE_LOOP('',(#342,#343,#344,#345));
#180=EDGE_LOOP('',(#346,#347,#348,#349));
#181=EDGE_LOOP('',(#350,#351,#352,#353));
#182=EDGE_LOOP('',(#354,#355,#356,#357,#358,#359));
#183=EDGE_LOOP('',(#360));
#184=EDGE_LOOP('',(#361,#362,#363,#364,#365,#366));
#185=EDGE_LOOP('',(#367));
#186=CIRCLE('',#402,4.);
#187=CIRCLE('',#403,4.);
#188=CIRCLE('',#405,3.);
#189=CIRCLE('',#407,3.);
#190=CIRCLE('',#409,5.);
#191=CIRCLE('',#410,5.);
#192=CIRCLE('',#414,3.);
#193=CIRCLE('',#415,3.);
#194=CIRCLE('',#425,3.);
#195=CIRCLE('',#426,3.);
#196=VERTEX_POINT('',#543);
#197=VERTEX_POINT('',#545);
#198=VERTEX_POINT('',#548);
#199=VERTEX_POINT('',#551);
#200=VERTEX_POINT('',#554);
#201=VERTEX_POINT('',#556);
#202=VERTEX_POINT('',#561);
#203=VERTEX_POINT('',#563);
#204=VERTEX_POINT('',#566);
#205=VERTEX_POINT('',#567);
#206=VERTEX_POINT('',#569);
#207=VERTEX_POINT('',#571);
#208=VERTEX_POINT('',#575);
#209=VERTEX_POINT('',#577);
#210=VERTEX_POINT('',#581);
#211=VERTEX_POINT('',#583);
#212=VERTEX_POINT('',#587);
#213=VERTEX_POINT('',#589);
#214=VERTEX_POINT('',#593);
#215=VERTEX_POINT('',#595);
#216=VERTEX_POINT('',#604);
#217=VERTEX_POINT('',#606);
#218=VERTEX_POINT('',#609);
#219=VERTEX_POINT('',#610);
#220=VERTEX_POINT('',#612);
#221=VERTEX_POINT('',#614);
#222=VERTEX_POINT('',#618);
#223=VERTEX_POINT('',#620);
#224=VERTEX_POINT('',#624);
#225=VERTEX_POINT('',#626);
#226=VERTEX_POINT('',#630);
#227=VERTEX_POINT('',#632);
#228=VERTEX_POINT('',#636);
#229=VERTEX_POINT('',#638);
#230=EDGE_CURVE('',#196,#196,#186,.T.);
#231=EDGE_CURVE('',#197,#197,#187,.T.);
#232=EDGE_CURVE('',#198,#198,#188,.T.);
#233=EDGE_CURVE('',#199,#199,#189,.T.);
#234=EDGE_CURVE('',#200,#200,#190,.T.);
#235=EDGE_CURVE('',#201,#201,#191,.T.);
#236=EDGE_CURVE('',#202,#202,#192,.T.);
#237=EDGE_CURVE('',#203,#203,#193,.T.);
#238=EDGE_CURVE('',#204,#205,#15,.T.);
#239=EDGE_CURVE('',#206,#205,#16,.T.);
#240=EDGE_CURVE('',#206,#207,#17,.T.);
#241=EDGE_CURVE('',#207,#204,#18,.T.);
#242=EDGE_CURVE('',#205,#208,#19,.T.);
#243=EDGE_CURVE('',#209,#208,#20,.T.);
#244=EDGE_CURVE('',#209,#206,#21,.T.);
#245=EDGE_CURVE('',#208,#210,#22,.T.);
#246=EDGE_CURVE('',#211,#210,#23,.T.);
#247=EDGE_CURVE('',#211,#209,#24,.T.);
#248=EDGE_CURVE('',#210,#212,#25,.T.);
#249=EDGE_CURVE('',#213,#212,#26,.T.);
#250=EDGE_CURVE('',#213,#211,#27,.T.);
#251=EDGE_CURVE('',#212,#214,#28,.T.);
#252=EDGE_CURVE('',#215,#214,#29,.T.);
#253=EDGE_CURVE('',#215,#213,#30,.T.);
#254=EDGE_CURVE('',#214,#204,#31,.T.);
#255=EDGE_CURVE('',#207,#215,#32,.T.);
#256=EDGE_CURVE('',#216,#216,#194,.T.);
#257=EDGE_CURVE('',#217,#217,#195,.T.);
#258=EDGE_CURVE('',#218,#219,#33,.T.);
#259=EDGE_CURVE('',#220,#219,#34,.T.);
#260=EDGE_CURVE('',#220,#221,#35,.T.);
#261=EDGE_CURVE('',#221,#218,#36,.T.);
#262=EDGE_CURVE('',#219,#222,#37,.T.);
#263=EDGE_CURVE('',#223,#222,#38,.T.);
#264=EDGE_CURVE('',#223,#220,#39,.T.);
#265=EDGE_CURVE('',#222,#224,#40,.T.);
#266=EDGE_CURVE('',#225,#224,#41,.T.);
#267=EDGE_CURVE('',#225,#223,#42,.T.);
#268=EDGE_CURVE('',#224,#226,#43,.T.);
#269=EDGE_CURVE('',#227,#226,#44,.T.);
#270=EDGE_CURVE('',#227,#225,#45,.T.);
#271=EDGE_CURVE('',#226,#228,#46,.T.);
#272=EDGE_CURVE('',#229,#228,#47,.T.);
#273=EDGE_CURVE('',#229,#227,#48,.T.);
#274=EDGE_CURVE('',#228,#218,#49,.T.);
#275=EDGE_CURVE('',#221,#229,#50,.T.);
#276=ORIENTED_EDGE('',*,*,#230,.T.);
#277=ORIENTED_EDGE('',*,*,#231,.F.);
#278=ORIENTED_EDGE('',*,*,#230,.F.);
#279=ORIENTED_EDGE('',*,*,#232,.F.);
#280=ORIENTED_EDGE('',*,*,#232,.T.);
#281=ORIENTED_EDGE('',*,*,#233,.F.);
#282=ORIENTED_EDGE('',*,*,#234,.T.);
#283=ORIENTED_EDGE('',*,*,#235,.F.);
#284=ORIENTED_EDGE('',*,*,#234,.F.);
#285=ORIENTED_EDGE('',*,*,#233,.T.);
#286=ORIENTED_EDGE('',*,*,#235,.T.);
#287=ORIENTED_EDGE('',*,*,#231,.T.);
#288=ORIENTED_EDGE('',*,*,#236,.F.);
#289=ORIENTED_EDGE('',*,*,#237,.F.);
#290=ORIENTED_EDGE('',*,*,#238,.T.);
#291=ORIENTED_EDGE('',*,*,#239,.F.);
#292=ORIENTED_EDGE('',*,*,#240,.T.);
#293=ORIENTED_EDGE('',*,*,#241,.T.);
#294=ORIENTED_EDGE('',*,*,#242,.T.);
#295=ORIENTED_EDGE('',*,*,#243,.F.);
#296=ORIENTED_EDGE('',*,*,#244,.T.);
#297=ORIENTED_EDGE('',*,*,#239,.T.);
#298=ORIENTED_EDGE('',*,*,#245,.T.);
#299=ORIENTED_EDGE('',*,*,#246,.F.);
#300=ORIENTED_EDGE('',*,*,#247,.T.);
#301=ORIENTED_EDGE('',*,*,#243,.T.);
#302=ORIENTED_EDGE('',*,*,#248,.T.);
#303=ORIENTED_EDGE('',*,*,#249,.F.);
#304=ORIENTED_EDGE('',*,*,#250,.T.);
#305=ORIENTED_EDGE('',*,*,#246,.T.);
#306=ORIENTED_EDGE('',*,*,#251,.T.);
#307=ORIENTED_EDGE('',*,*,#252,.F.);
#308=ORIENTED_EDGE('',*,*,#253,.T.);
#309=ORIENTED_EDGE('',*,*,#249,.T.);
#310=ORIENTED_EDGE('',*,*,#254,.T.);
#311=ORIENTED_EDGE('',*,*,#241,.F.);
#312=ORIENTED_EDGE('',*,*,#255,.T.);
#313=ORIENTED_EDGE('',*,*,#252,.T.);
#314=ORIENTED_EDGE('',*,*,#238,.F.);
#315=ORIENTED_EDGE('',*,*,#254,.F.);
#316=ORIENTED_EDGE('',*,*,#251,.F.);
#317=ORIENTED_EDGE('',*,*,#248,.F.);
#318=ORIENTED_EDGE('',*,*,#245,.F.);
#319=ORIENTED_EDGE('',*,*,#242,.F.);
#320=ORIENTED_EDGE('',*,*,#237,.T.);
#321=ORIENTED_EDGE('',*,*,#255,.F.);
#322=ORIENTED_EDGE('',*,*,#240,.F.);
#323=ORIENTED_EDGE('',*,*,#244,.F.);
#324=ORIENTED_EDGE('',*,*,#247,.F.);
#325=ORIENTED_EDGE('',*,*,#250,.F.);
#326=ORIENTED_EDGE('',*,*,#253,.F.);
#327=ORIENTED_EDGE('',*,*,#236,.T.);
#328=ORIENTED_EDGE('',*,*,#256,.F.);
#329=ORIENTED_EDGE('',*,*,#257,.F.);
#330=ORIENTED_EDGE('',*,*,#258,.T.);
#331=ORIENTED_EDGE('',*,*,#259,.F.);
#332=ORIENTED_EDGE('',*,*,#260,.T.);
#333=ORIENTED_EDGE('',*,*,#261,.T.);
#334=ORIENTED_EDGE('',*,*,#262,.T.);
#335=ORIENTED_EDGE('',*,*,#263,.F.);
#336=ORIENTED_EDGE('',*,*,#264,.T.);
#337=ORIENTED_EDGE('',*,*,#259,.T.);
#338=ORIENTED_EDGE('',*,*,#265,.T.);
#339=ORIENTED_EDGE('',*,*,#266,.F.);
#340=ORIENTED_EDGE('',*,*,#267,.T.);
#341=ORIENTED_EDGE('',*,*,#263,.T.);
#342=ORIENTED_EDGE('',*,*,#268,.T.);
#343=ORIENTED_EDGE('',*,*,#269,.F.);
#344=ORIENTED_EDGE('',*,*,#270,.T.);
#345=ORIENTED_EDGE('',*,*,#266,.T.);
#346=ORIENTED_EDGE('',*,*,#271,.T.);
#347=ORIENTED_EDGE('',*,*,#272,.F.);
#348=ORIENTED_EDGE('',*,*,#273,.T.);
#349=ORIENTED_EDGE('',*,*,#269,.T.);
#350=ORIENTED_EDGE('',*,*,#274,.T.);
#351=ORIENTED_EDGE('',*,*,#261,.F.);
#352=ORIENTED_EDGE('',*,*,#275,.T.);
#353=ORIENTED_EDGE('',*,*,#272,.T.);
#354=ORIENTED_EDGE('',*,*,#258,.F.);
#355=ORIENTED_EDGE('',*,*,#274,.F.);
#356=ORIENTED_EDGE('',*,*,#271,.F.);
#357=ORIENTED_EDGE('',*,*,#268,.F.);
#358=ORIENTED_EDGE('',*,*,#265,.F.);
#359=ORIENTED_EDGE('',*,*,#262,.F.);
#360=ORIENTED_EDGE('',*,*,#257,.T.);
#361=ORIENTED_EDGE('',*,*,#275,.F.);
#362=ORIENTED_EDGE('',*,*,#260,.F.);
#363=ORIENTED_EDGE('',*,*,#264,.F.);
#364=ORIENTED_EDGE('',*,*,#267,.F.);
#365=ORIENTED_EDGE('',*,*,#270,.F.);
#366=ORIENTED_EDGE('',*,*,#273,.F.);
#367=ORIENTED_EDGE('',*,*,#256,.T.);
#368=CYLINDRICAL_SURFACE('',#401,4.);
#369=CYLINDRICAL_SURFACE('',#406,3.);
#370=CYLINDRICAL_SURFACE('',#408,5.);
#371=CYLINDRICAL_SURFACE('',#413,3.);
#372=CYLINDRICAL_SURFACE('',#424,3.);
#373=ADVANCED_FACE('',(#126,#114),#368,.F.);
#374=ADVANCED_FACE('',(#127,#115),#95,.F.);
#375=ADVANCED_FACE('',(#128,#116),#369,.F.);
#376=ADVANCED_FACE('',(#129,#117),#370,.T.);
#377=ADVANCED_FACE('',(#130,#118),#96,.F.);
#378=ADVANCED_FACE('',(#131,#119),#97,.T.);
#379=ADVANCED_FACE('',(#132,#120),#371,.F.);
#380=ADVANCED_FACE('',(#133),#98,.T.);
#381=ADVANCED_FACE('',(#134),#99,.T.);
#382=ADVANCED_FACE('',(#135),#100,.T.);
#383=ADVANCED_FACE('',(#136),#101,.T.);
#384=ADVANCED_FACE('',(#137),#102,.T.);
#385=ADVANCED_FACE('',(#138),#103,.T.);
#386=ADVANCED_FACE('',(#139,#121),#104,.T.);
#387=ADVANCED_FACE('',(#140,#122),#105,.F.);
#388=ADVANCED_FACE('',(#141,#123),#372,.F.);
#389=ADVANCED_FACE('',(#142),#106,.T.);
#390=ADVANCED_FACE('',(#143),#107,.T.);
#391=ADVANCED_FACE('',(#144),#108,.T.);
#392=ADVANCED_FACE('',(#145),#109,.T.);
#393=ADVANCED_FACE('',(#146),#110,.T.);
#394=ADVANCED_FACE('',(#147),#111,.T.);
#395=ADVANCED_FACE('',(#148,#124),#112,.T.);
#396=ADVANCED_FACE('',(#149,#125),#113,.F.);
#397=CLOSED_SHELL('',(#373,#374,#375,#376,#377,#378));
#398=CLOSED_SHELL('',(#379,#380,#381,#382,#383,#384,#385,#386,#387));
#399=CLOSED_SHELL('',(#388,#389,#390,#391,#392,#393,#394,#395,#396));
#400=AXIS2_PLACEMENT_3D('placement',#541,#435,#436);
#401=AXIS2_PLACEMENT_3D('',#542,#437,#438);
#402=AXIS2_PLACEMENT_3D('',#544,#439,#440);
#403=AXIS2_PLACEMENT_3D('',#546,#441,#442);
#404=AXIS2_PLACEMENT_3D('',#547,#443,#444);
#405=AXIS2_PLACEMENT_3D('',#549,#445,#446);
#406=AXIS2_PLACEMENT_3D('',#550,#447,#448);
#407=AXIS2_PLACEMENT_3D('',#552,#449,#450);
#408=AXIS2_PLACEMENT_3D('',#553,#451,#452);
#409=AXIS2_PLACEMENT_3D('',#555,#453,#454);
#410=AXIS2_PLACEMENT_3D('',#557,#455,#456);
#411=AXIS2_PLACEMENT_3D('',#558,#457,#458);
#412=AXIS2_PLACEMENT_3D('',#559,#459,#460);
#413=AXIS2_PLACEMENT_3D('',#560,#461,#462);
#414=AXIS2_PLACEMENT_3D('',#562,#463,#464);
#415=AXIS2_PLACEMENT_3D('',#564,#465,#466);
#416=AXIS2_PLACEMENT_3D('',#565,#467,#468);
#417=AXIS2_PLACEMENT_3D('',#574,#473,#474);
#418=AXIS2_PLACEMENT_3D('',#580,#478,#479);
#419=AXIS2_PLACEMENT_3D('',#586,#483,#484);
#420=AXIS2_PLACEMENT_3D('',#592,#488,#489);
#421=AXIS2_PLACEMENT_3D('',#598,#493,#494);
#422=AXIS2_PLACEMENT_3D('',#601,#497,#498);
#423=AXIS2_PLACEMENT_3D('',#602,#499,#500);
#424=AXIS2_PLACEMENT_3D('',#603,#501,#502);
#425=AXIS2_PLACEMENT_3D('',#605,#503,#504);
#426=AXIS2_PLACEMENT_3D('',#607,#505,#506);
#427=AXIS2_PLACEMENT_3D('',#608,#507,#508);
#428=AXIS2_PLACEMENT_3D('',#617,#513,#514);
#429=AXIS2_PLACEMENT_3D('',#623,#518,#519);
#430=AXIS2_PLACEMENT_3D('',#629,#523,#524);
#431=AXIS2_PLACEMENT_3D('',#635,#528,#529);
#432=AXIS2_PLACEMENT_3D('',#641,#533,#534);
#433=AXIS2_PLACEMENT_3D('',#644,#537,#538);
#434=AXIS2_PLACEMENT_3D('',#645,#539,#540);
#435=DIRECTION('axis',(0.,0.,1.));
#436=DIRECTION('refdir',(1.,0.,0.));
#437=DIRECTION('center_axis',(0.,0.,1.));
#438=DIRECTION('ref_axis',(1.,0.,0.));
#439=DIRECTION('center_axis',(0.,0.,-1.));
#440=DIRECTION('ref_axis',(1.,0.,0.));
#441=DIRECTION('center_axis',(0.,0.,-1.));
#442=DIRECTION('ref_axis',(1.,0.,0.));
#443=DIRECTION('center_axis',(0.,0.,-1.));
#444=DIRECTION('ref_axis',(-1.,0.,0.));
#445=DIRECTION('center_axis',(0.,0.,1.));
#446=DIRECTION('ref_axis',(-1.,0.,0.));
#447=DIRECTION('center_axis',(0.,0.,-1.));
#448=DIRECTION('ref_axis',(-1.,0.,0.));
#449=DIRECTION('center_axis',(0.,0.,1.));
#450=DIRECTION('ref_axis',(-1.,0.,0.));
#451=DIRECTION('center_axis',(0.,0.,-1.));
#452=DIRECTION('ref_axis',(1.,0.,0.));
#453=DIRECTION('center_axis',(0.,0.,1.));
#454=DIRECTION('ref_axis',(1.,0.,0.));
#455=DIRECTION('center_axis',(0.,0.,1.));
#456=DIRECTION('ref_axis',(1.,0.,0.));
#457=DIRECTION('center_axis',(0.,0.,1.));
#458=DIRECTION('ref_axis',(1.,0.,0.));
#459=DIRECTION('center_axis',(0.,0.,1.));
#460=DIRECTION('ref_axis',(1.,0.,0.));
#461=DIRECTION('center_axis',(0.,0.,-1.));
#462=DIRECTION('ref_axis',(1.,0.,0.));
#463=DIRECTION('center_axis',(0.,0.,1.));
#464=DIRECTION('ref_axis',(1.,0.,0.));
#465=DIRECTION('center_axis',(0.,0.,-1.));
#466=DIRECTION('ref_axis',(1.,0.,0.));
#467=DIRECTION('center_axis',(1.,-7.89491928622331E-16,0.));
#468=DIRECTION('ref_axis',(0.,0.,-1.));
#469=DIRECTION('',(-7.89491928622331E-16,-1.,0.));
#470=DIRECTION('',(0.,0.,1.));
#471=DIRECTION('',(7.89491928622331E-16,1.,0.));
#472=DIRECTION('',(0.,0.,1.));
#473=DIRECTION('center_axis',(0.499999999999999,-0.866025403784439,0.));
#474=DIRECTION('ref_axis',(0.,0.,-1.));
#475=DIRECTION('',(-0.866025403784439,-0.499999999999999,0.));
#476=DIRECTION('',(0.,0.,1.));
#477=DIRECTION('',(0.866025403784439,0.499999999999999,0.));
#478=DIRECTION('center_axis',(-0.5,-0.866025403784438,0.));
#479=DIRECTION('ref_axis',(0.,0.,1.));
#480=DIRECTION('',(-0.866025403784438,0.5,0.));
#481=DIRECTION('',(0.,0.,1.));
#482=DIRECTION('',(0.866025403784438,-0.5,0.));
#483=DIRECTION('center_axis',(-1.,-3.94745964311168E-16,0.));
#484=DIRECTION('ref_axis',(0.,0.,1.));
#485=DIRECTION('',(-3.94745964311168E-16,1.,0.));
#486=DIRECTION('',(0.,0.,1.));
#487=DIRECTION('',(3.94745964311168E-16,-1.,0.));
#488=DIRECTION('center_axis',(-0.500000000000001,0.866025403784438,0.));
#489=DIRECTION('ref_axis',(0.,0.,1.));
#490=DIRECTION('',(0.866025403784438,0.500000000000001,0.));
#491=DIRECTION('',(0.,0.,1.));
#492=DIRECTION('',(-0.866025403784438,-0.500000000000001,0.));
#493=DIRECTION('center_axis',(0.5,0.866025403784439,0.));
#494=DIRECTION('ref_axis',(0.,0.,1.));
#495=DIRECTION('',(0.866025403784439,-0.5,0.));
#496=DIRECTION('',(-0.866025403784439,0.5,0.));
#497=DIRECTION('center_axis',(0.,0.,1.));
#498=DIRECTION('ref_axis',(1.,0.,0.));
#499=DIRECTION('center_axis',(0.,0.,1.));
#500=DIRECTION('ref_axis',(1.,0.,0.));
#501=DIRECTION('center_axis',(0.,0.,-1.));
#502=DIRECTION('ref_axis',(0.707106781186548,0.707106781186547,0.));
#503=DIRECTION('center_axis',(0.,0.,1.));
#504=DIRECTION('ref_axis',(0.707106781186548,0.707106781186547,0.));
#505=DIRECTION('center_axis',(0.,0.,-1.));
#506=DIRECTION('ref_axis',(0.707106781186548,0.707106781186547,0.));
#507=DIRECTION('center_axis',(0.707106781186548,0.707106781186547,0.));
#508=DIRECTION('ref_axis',(0.,0.,-1.));
#509=DIRECTION('',(0.707106781186547,-0.707106781186548,0.));
#510=DIRECTION('',(0.,0.,1.));
#511=DIRECTION('',(-0.707106781186547,0.707106781186548,0.));
#512=DIRECTION('',(0.,0.,1.));
#513=DIRECTION('center_axis',(0.965925826289068,-0.258819045102522,0.));
#514=DIRECTION('ref_axis',(0.,0.,-1.));
#515=DIRECTION('',(-0.258819045102522,-0.965925826289068,0.));
#516=DIRECTION('',(0.,0.,1.));
#517=DIRECTION('',(0.258819045102522,0.965925826289068,0.));
#518=DIRECTION('center_axis',(0.25881904510252,-0.965925826289068,0.));
#519=DIRECTION('ref_axis',(0.,0.,1.));
#520=DIRECTION('',(-0.965925826289068,-0.25881904510252,0.));
#521=DIRECTION('',(0.,0.,1.));
#522=DIRECTION('',(0.965925826289068,0.25881904510252,0.));
#523=DIRECTION('center_axis',(-0.707106781186547,-0.707106781186548,0.));
#524=DIRECTION('ref_axis',(0.,0.,1.));
#525=DIRECTION('',(-0.707106781186548,0.707106781186547,0.));
#526=DIRECTION('',(0.,0.,1.));
#527=DIRECTION('',(0.707106781186548,-0.707106781186547,0.));
#528=DIRECTION('center_axis',(-0.965925826289069,0.25881904510252,0.));
#529=DIRECTION('ref_axis',(0.,0.,1.));
#530=DIRECTION('',(0.25881904510252,0.965925826289069,0.));
#531=DIRECTION('',(0.,0.,1.));
#532=DIRECTION('',(-0.25881904510252,-0.965925826289069,0.));
#533=DIRECTION('center_axis',(-0.258819045102521,0.965925826289068,0.));
#534=DIRECTION('ref_axis',(0.,0.,1.));
#535=DIRECTION('',(0.965925826289068,0.258819045102521,0.));
#536=DIRECTION('',(-0.965925826289068,-0.258819045102521,0.));
#537=DIRECTION('center_axis',(0.,0.,1.));
#538=DIRECTION('ref_axis',(0.707106781186548,0.707106781186547,0.));
#539=DIRECTION('center_axis',(0.,0.,1.));
#540=DIRECTION('ref_axis',(0.707106781186548,0.707106781186547,0.));
#541=CARTESIAN_POINT('',(0.,0.,0.));
#542=CARTESIAN_POINT('Origin',(-3.5527136788005E-15,0.,-2.4));
#543=CARTESIAN_POINT('',(4.,0.,-4.9));
#544=CARTESIAN_POINT('Origin',(-3.5527136788005E-15,0.,-4.9));
#545=CARTESIAN_POINT('',(-4.,4.89858719658941E-16,-1.6));
#546=CARTESIAN_POINT('Origin',(-3.5527136788005E-15,0.,-1.6));
#547=CARTESIAN_POINT('Origin',(-3.5527136788005E-15,0.,-4.9));
#548=CARTESIAN_POINT('',(3.,3.67394039744206E-16,-4.9));
#549=CARTESIAN_POINT('Origin',(-3.5527136788005E-15,0.,-4.9));
#550=CARTESIAN_POINT('Origin',(-3.5527136788005E-15,0.,-0.9));
#551=CARTESIAN_POINT('',(3.,0.,-5.9));
#552=CARTESIAN_POINT('Origin',(-3.5527136788005E-15,0.,-5.9));
#553=CARTESIAN_POINT('Origin',(-3.5527136788005E-15,0.,-0.9));
#554=CARTESIAN_POINT('',(5.,0.,-5.9));
#555=CARTESIAN_POINT('Origin',(-3.5527136788005E-15,0.,-5.9));
#556=CARTESIAN_POINT('',(5.,0.,-1.6));
#557=CARTESIAN_POINT('Origin',(-3.5527136788005E-15,0.,-1.6));
#558=CARTESIAN_POINT('Origin',(-3.5527136788005E-15,0.,-5.9));
#559=CARTESIAN_POINT('Origin',(-3.5527136788005E-15,0.,-1.6));
#560=CARTESIAN_POINT('Origin',(0.,-1.77635683940025E-15,-5.9));
#561=CARTESIAN_POINT('',(3.,-1.77635683940025E-15,-7.9));
#562=CARTESIAN_POINT('Origin',(0.,-1.77635683940025E-15,-7.9));
#563=CARTESIAN_POINT('',(3.,-1.77635683940025E-15,-5.9));
#564=CARTESIAN_POINT('Origin',(0.,-1.77635683940025E-15,-5.9));
#565=CARTESIAN_POINT('Origin',(3.89711431702998,2.25000000000001,-7.9));
#566=CARTESIAN_POINT('',(3.89711431702998,2.25000000000001,-5.9));
#567=CARTESIAN_POINT('',(3.89711431702997,-2.25,-5.9));
#568=CARTESIAN_POINT('',(3.89711431702997,-2.25,-5.9));
#569=CARTESIAN_POINT('',(3.89711431702997,-2.25,-7.9));
#570=CARTESIAN_POINT('',(3.89711431702997,-2.25,-7.9));
#571=CARTESIAN_POINT('',(3.89711431702998,2.25000000000001,-7.9));
#572=CARTESIAN_POINT('',(3.89711431702997,-2.25,-7.9));
#573=CARTESIAN_POINT('',(3.89711431702998,2.25000000000001,-7.9));
#574=CARTESIAN_POINT('Origin',(3.89711431702997,-2.25,-7.9));
#575=CARTESIAN_POINT('',(3.5527136788005E-15,-4.49999999999999,-5.9));
#576=CARTESIAN_POINT('',(3.5527136788005E-15,-4.49999999999999,-5.9));
#577=CARTESIAN_POINT('',(3.5527136788005E-15,-4.49999999999999,-7.9));
#578=CARTESIAN_POINT('',(3.5527136788005E-15,-4.49999999999999,-7.9));
#579=CARTESIAN_POINT('',(3.5527136788005E-15,-4.49999999999999,-7.9));
#580=CARTESIAN_POINT('Origin',(3.5527136788005E-15,-4.49999999999999,-7.9));
#581=CARTESIAN_POINT('',(-3.89711431702997,-2.24999999999999,-5.9));
#582=CARTESIAN_POINT('',(-3.89711431702997,-2.24999999999999,-5.9));
#583=CARTESIAN_POINT('',(-3.89711431702997,-2.24999999999999,-7.9));
#584=CARTESIAN_POINT('',(-3.89711431702997,-2.24999999999999,-7.9));
#585=CARTESIAN_POINT('',(-3.89711431702997,-2.24999999999999,-7.9));
#586=CARTESIAN_POINT('Origin',(-3.89711431702997,-2.24999999999999,-7.9));
#587=CARTESIAN_POINT('',(-3.89711431702997,2.25,-5.9));
#588=CARTESIAN_POINT('',(-3.89711431702997,2.25,-5.9));
#589=CARTESIAN_POINT('',(-3.89711431702997,2.25,-7.9));
#590=CARTESIAN_POINT('',(-3.89711431702997,2.25,-7.9));
#591=CARTESIAN_POINT('',(-3.89711431702997,2.25,-7.9));
#592=CARTESIAN_POINT('Origin',(-3.89711431702997,2.25,-7.9));
#593=CARTESIAN_POINT('',(3.5527136788005E-15,4.50000000000001,-5.9));
#594=CARTESIAN_POINT('',(3.5527136788005E-15,4.50000000000001,-5.9));
#595=CARTESIAN_POINT('',(3.5527136788005E-15,4.50000000000001,-7.9));
#596=CARTESIAN_POINT('',(3.5527136788005E-15,4.50000000000001,-7.9));
#597=CARTESIAN_POINT('',(3.5527136788005E-15,4.50000000000001,-7.9));
#598=CARTESIAN_POINT('Origin',(3.5527136788005E-15,4.50000000000001,-7.9));
#599=CARTESIAN_POINT('',(3.89711431702998,2.25000000000001,-5.9));
#600=CARTESIAN_POINT('',(3.89711431702998,2.25000000000001,-7.9));
#601=CARTESIAN_POINT('Origin',(0.,5.32907051820075E-15,-5.9));
#602=CARTESIAN_POINT('Origin',(0.,5.32907051820075E-15,-7.9));
#603=CARTESIAN_POINT('Origin',(3.39357639285468E-31,-1.77635683940025E-15,
-7.9));
#604=CARTESIAN_POINT('',(2.12132034355964,2.12132034355964,-9.9));
#605=CARTESIAN_POINT('Origin',(3.39357639285468E-31,-1.77635683940025E-15,
-9.9));
#606=CARTESIAN_POINT('',(2.12132034355964,2.12132034355964,-7.9));
#607=CARTESIAN_POINT('Origin',(3.39357639285468E-31,-1.77635683940025E-15,
-7.9));
#608=CARTESIAN_POINT('Origin',(1.16468570296134,4.34666621830082,-9.9));
#609=CARTESIAN_POINT('',(1.16468570296134,4.34666621830082,-7.9));
#610=CARTESIAN_POINT('',(4.34666621830081,1.16468570296134,-7.9));
#611=CARTESIAN_POINT('',(4.34666621830081,1.16468570296134,-7.9));
#612=CARTESIAN_POINT('',(4.34666621830081,1.16468570296134,-9.9));
#613=CARTESIAN_POINT('',(4.34666621830081,1.16468570296134,-9.9));
#614=CARTESIAN_POINT('',(1.16468570296134,4.34666621830082,-9.9));
#615=CARTESIAN_POINT('',(4.34666621830081,1.16468570296134,-9.9));
#616=CARTESIAN_POINT('',(1.16468570296134,4.34666621830082,-9.9));
#617=CARTESIAN_POINT('Origin',(4.34666621830081,1.16468570296134,-9.9));
#618=CARTESIAN_POINT('',(3.18198051533946,-3.18198051533946,-7.9));
#619=CARTESIAN_POINT('',(3.18198051533946,-3.18198051533946,-7.9));
#620=CARTESIAN_POINT('',(3.18198051533946,-3.18198051533946,-9.9));
#621=CARTESIAN_POINT('',(3.18198051533946,-3.18198051533946,-9.9));
#622=CARTESIAN_POINT('',(3.18198051533946,-3.18198051533946,-9.9));
#623=CARTESIAN_POINT('Origin',(3.18198051533946,-3.18198051533946,-9.9));
#624=CARTESIAN_POINT('',(-1.16468570296135,-4.3466662183008,-7.9));
#625=CARTESIAN_POINT('',(-1.16468570296135,-4.3466662183008,-7.9));
#626=CARTESIAN_POINT('',(-1.16468570296135,-4.3466662183008,-9.9));
#627=CARTESIAN_POINT('',(-1.16468570296135,-4.3466662183008,-9.9));
#628=CARTESIAN_POINT('',(-1.16468570296135,-4.3466662183008,-9.9));
#629=CARTESIAN_POINT('Origin',(-1.16468570296135,-4.3466662183008,-9.9));
#630=CARTESIAN_POINT('',(-4.34666621830081,-1.16468570296134,-7.9));
#631=CARTESIAN_POINT('',(-4.34666621830081,-1.16468570296134,-7.9));
#632=CARTESIAN_POINT('',(-4.34666621830081,-1.16468570296134,-9.9));
#633=CARTESIAN_POINT('',(-4.34666621830081,-1.16468570296134,-9.9));
#634=CARTESIAN_POINT('',(-4.34666621830081,-1.16468570296134,-9.9));
#635=CARTESIAN_POINT('Origin',(-4.34666621830081,-1.16468570296134,-9.9));
#636=CARTESIAN_POINT('',(-3.18198051533947,3.18198051533947,-7.9));
#637=CARTESIAN_POINT('',(-3.18198051533947,3.18198051533947,-7.9));
#638=CARTESIAN_POINT('',(-3.18198051533947,3.18198051533947,-9.9));
#639=CARTESIAN_POINT('',(-3.18198051533947,3.18198051533947,-9.9));
#640=CARTESIAN_POINT('',(-3.18198051533947,3.18198051533947,-9.9));
#641=CARTESIAN_POINT('Origin',(-3.18198051533947,3.18198051533947,-9.9));
#642=CARTESIAN_POINT('',(1.16468570296134,4.34666621830082,-7.9));
#643=CARTESIAN_POINT('',(1.16468570296134,4.34666621830082,-9.9));
#644=CARTESIAN_POINT('Origin',(-5.02429586778808E-15,3.24793902838783E-15,
-7.9));
#645=CARTESIAN_POINT('Origin',(-5.02429586778808E-15,3.24793902838783E-15,
-9.9));
#646=UNCERTAINTY_MEASURE_WITH_UNIT(LENGTH_MEASURE(0.01),#650,
'DISTANCE_ACCURACY_VALUE',
'Maximum model space distance between geometric entities at asserted c
onnectivities');
#647=UNCERTAINTY_MEASURE_WITH_UNIT(LENGTH_MEASURE(1.E-6),#650,
'DISTANCE_ACCURACY_VALUE',
'Maximum model space distance between geometric entities at asserted c
onnectivities');
#648=(
GEOMETRIC_REPRESENTATION_CONTEXT(3)
GLOBAL_UNCERTAINTY_ASSIGNED_CONTEXT((#646))
GLOBAL_UNIT_ASSIGNED_CONTEXT((#650,#652,#651))
REPRESENTATION_CONTEXT('','3D')
);
#649=(
GEOMETRIC_REPRESENTATION_CONTEXT(3)
GLOBAL_UNCERTAINTY_ASSIGNED_CONTEXT((#647))
GLOBAL_UNIT_ASSIGNED_CONTEXT((#650,#12,#651))
REPRESENTATION_CONTEXT('','3D')
);
#650=(
LENGTH_UNIT()
NAMED_UNIT(*)
SI_UNIT(.MILLI.,.METRE.)
);
#651=(
NAMED_UNIT(*)
SI_UNIT($,.STERADIAN.)
SOLID_ANGLE_UNIT()
);
#652=(
NAMED_UNIT(*)
PLANE_ANGLE_UNIT()
SI_UNIT($,.RADIAN.)
);
#653=SHAPE_DEFINITION_REPRESENTATION(#654,#655);
#654=PRODUCT_DEFINITION_SHAPE('',$,#657);
#655=SHAPE_REPRESENTATION('',(#400),#648);
#656=PRODUCT_DEFINITION_CONTEXT('part definition',#661,'design');
#657=PRODUCT_DEFINITION('Product','Product',#658,#656);
#658=PRODUCT_DEFINITION_FORMATION('',$,#663);
#659=PRODUCT_RELATED_PRODUCT_CATEGORY('Product','Product',(#663));
#660=APPLICATION_PROTOCOL_DEFINITION('international standard',
'automotive_design',2009,#661);
#661=APPLICATION_CONTEXT(
'Core Data for Automotive Mechanical Design Process');
#662=PRODUCT_CONTEXT('part definition',#661,'mechanical');
#663=PRODUCT('Product','Product',$,(#662));
#664=PRESENTATION_STYLE_ASSIGNMENT((#667));
#665=PRESENTATION_STYLE_ASSIGNMENT((#668));
#666=PRESENTATION_STYLE_ASSIGNMENT((#669));
#667=SURFACE_STYLE_USAGE(.BOTH.,#670);
#668=SURFACE_STYLE_USAGE(.BOTH.,#671);
#669=SURFACE_STYLE_USAGE(.BOTH.,#672);
#670=SURFACE_SIDE_STYLE('',(#673));
#671=SURFACE_SIDE_STYLE('',(#674));
#672=SURFACE_SIDE_STYLE('',(#675));
#673=SURFACE_STYLE_FILL_AREA(#676);
#674=SURFACE_STYLE_FILL_AREA(#677);
#675=SURFACE_STYLE_FILL_AREA(#678);
#676=FILL_AREA_STYLE('',(#679));
#677=FILL_AREA_STYLE('',(#680));
#678=FILL_AREA_STYLE('',(#681));
#679=FILL_AREA_STYLE_COLOUR('',#682);
#680=FILL_AREA_STYLE_COLOUR('',#683);
#681=FILL_AREA_STYLE_COLOUR('',#684);
#682=COLOUR_RGB('',1.,1.,1.);
#683=COLOUR_RGB('',1.,1.,0.);
#684=COLOUR_RGB('',0.866666666666667,0.866666666666667,0.866666666666667);
ENDSEC;
END-ISO-10303-21;
