ISO-10303-21;
HEADER;
/* Generated by software containing ST-Developer
 * from STEP Tools, Inc. (www.steptools.com) 
 */

FILE_DESCRIPTION(
/* description */ (''),
/* implementation_level */ '2;1');

FILE_NAME(
/* name */ 
'G:\\Applications\\Altium\\CernLib\\StepLib\\SKS-HIRSCHMANN_930 176-10
0_Part2.stp',
/* time_stamp */ '2017-01-25T09:14:26+01:00',
/* author */ ('jchouvet'),
/* organization */ (''),
/* preprocessor_version */ 'ST-DEVELOPER v16.1',
/* originating_system */ 'AutoCAD Mechanical',
/* authorisation */ '');

FILE_SCHEMA (('AUTOMOTIVE_DESIGN { 1 0 10303 214 3 1 1 }'));
ENDSEC;

DATA;
#10=MECHANICAL_DESIGN_GEOMETRIC_PRESENTATION_REPRESENTATION('',(#18,#17),
#526);
#11=DIMENSIONAL_EXPONENTS(0.,0.,0.,0.,0.,0.,0.);
#12=(
CONVERSION_BASED_UNIT('degree',#13)
NAMED_UNIT(#11)
PLANE_ANGLE_UNIT()
);
#13=PLANE_ANGLE_MEASURE_WITH_UNIT(PLANE_ANGLE_MEASURE(0.01745329252),#529);
#14=PRESENTATION_LAYER_ASSIGNMENT('1','3D',(#19,#20));
#15=SHAPE_REPRESENTATION_RELATIONSHIP('SRR','None',#532,#16);
#16=ADVANCED_BREP_SHAPE_REPRESENTATION('',(#19,#20),#525);
#17=STYLED_ITEM('',(#542),#19);
#18=STYLED_ITEM('',(#542),#20);
#19=MANIFOLD_SOLID_BREP('798',#329);
#20=MANIFOLD_SOLID_BREP('79E',#330);
#21=LINE('',#445,#57);
#22=LINE('',#447,#58);
#23=LINE('',#449,#59);
#24=LINE('',#450,#60);
#25=LINE('',#453,#61);
#26=LINE('',#455,#62);
#27=LINE('',#456,#63);
#28=LINE('',#459,#64);
#29=LINE('',#461,#65);
#30=LINE('',#462,#66);
#31=LINE('',#465,#67);
#32=LINE('',#467,#68);
#33=LINE('',#468,#69);
#34=LINE('',#471,#70);
#35=LINE('',#473,#71);
#36=LINE('',#474,#72);
#37=LINE('',#476,#73);
#38=LINE('',#477,#74);
#39=LINE('',#488,#75);
#40=LINE('',#490,#76);
#41=LINE('',#492,#77);
#42=LINE('',#493,#78);
#43=LINE('',#496,#79);
#44=LINE('',#498,#80);
#45=LINE('',#499,#81);
#46=LINE('',#502,#82);
#47=LINE('',#504,#83);
#48=LINE('',#505,#84);
#49=LINE('',#508,#85);
#50=LINE('',#510,#86);
#51=LINE('',#511,#87);
#52=LINE('',#514,#88);
#53=LINE('',#516,#89);
#54=LINE('',#517,#90);
#55=LINE('',#519,#91);
#56=LINE('',#520,#92);
#57=VECTOR('',#364,4.50000000000001);
#58=VECTOR('',#365,2.);
#59=VECTOR('',#366,4.50000000000001);
#60=VECTOR('',#367,2.);
#61=VECTOR('',#370,4.49999999999999);
#62=VECTOR('',#371,2.);
#63=VECTOR('',#372,4.49999999999999);
#64=VECTOR('',#375,4.5);
#65=VECTOR('',#376,2.);
#66=VECTOR('',#377,4.5);
#67=VECTOR('',#380,4.49999999999999);
#68=VECTOR('',#381,2.);
#69=VECTOR('',#382,4.49999999999999);
#70=VECTOR('',#385,4.50000000000001);
#71=VECTOR('',#386,2.);
#72=VECTOR('',#387,4.50000000000001);
#73=VECTOR('',#390,4.5);
#74=VECTOR('',#391,4.5);
#75=VECTOR('',#404,4.50000000000001);
#76=VECTOR('',#405,2.);
#77=VECTOR('',#406,4.50000000000001);
#78=VECTOR('',#407,2.);
#79=VECTOR('',#410,4.49999999999999);
#80=VECTOR('',#411,2.);
#81=VECTOR('',#412,4.49999999999999);
#82=VECTOR('',#415,4.5);
#83=VECTOR('',#416,2.);
#84=VECTOR('',#417,4.5);
#85=VECTOR('',#420,4.49999999999999);
#86=VECTOR('',#421,2.);
#87=VECTOR('',#422,4.49999999999999);
#88=VECTOR('',#425,4.50000000000001);
#89=VECTOR('',#426,2.);
#90=VECTOR('',#427,4.50000000000001);
#91=VECTOR('',#430,4.5);
#92=VECTOR('',#431,4.5);
#93=PLANE('',#335);
#94=PLANE('',#336);
#95=PLANE('',#337);
#96=PLANE('',#338);
#97=PLANE('',#339);
#98=PLANE('',#340);
#99=PLANE('',#341);
#100=PLANE('',#342);
#101=PLANE('',#346);
#102=PLANE('',#347);
#103=PLANE('',#348);
#104=PLANE('',#349);
#105=PLANE('',#350);
#106=PLANE('',#351);
#107=PLANE('',#352);
#108=PLANE('',#353);
#109=FACE_BOUND('',#134,.T.);
#110=FACE_BOUND('',#142,.T.);
#111=FACE_BOUND('',#144,.T.);
#112=FACE_BOUND('',#146,.T.);
#113=FACE_BOUND('',#154,.T.);
#114=FACE_BOUND('',#156,.T.);
#115=FACE_OUTER_BOUND('',#133,.T.);
#116=FACE_OUTER_BOUND('',#135,.T.);
#117=FACE_OUTER_BOUND('',#136,.T.);
#118=FACE_OUTER_BOUND('',#137,.T.);
#119=FACE_OUTER_BOUND('',#138,.T.);
#120=FACE_OUTER_BOUND('',#139,.T.);
#121=FACE_OUTER_BOUND('',#140,.T.);
#122=FACE_OUTER_BOUND('',#141,.T.);
#123=FACE_OUTER_BOUND('',#143,.T.);
#124=FACE_OUTER_BOUND('',#145,.T.);
#125=FACE_OUTER_BOUND('',#147,.T.);
#126=FACE_OUTER_BOUND('',#148,.T.);
#127=FACE_OUTER_BOUND('',#149,.T.);
#128=FACE_OUTER_BOUND('',#150,.T.);
#129=FACE_OUTER_BOUND('',#151,.T.);
#130=FACE_OUTER_BOUND('',#152,.T.);
#131=FACE_OUTER_BOUND('',#153,.T.);
#132=FACE_OUTER_BOUND('',#155,.T.);
#133=EDGE_LOOP('',(#229));
#134=EDGE_LOOP('',(#230));
#135=EDGE_LOOP('',(#231,#232,#233,#234));
#136=EDGE_LOOP('',(#235,#236,#237,#238));
#137=EDGE_LOOP('',(#239,#240,#241,#242));
#138=EDGE_LOOP('',(#243,#244,#245,#246));
#139=EDGE_LOOP('',(#247,#248,#249,#250));
#140=EDGE_LOOP('',(#251,#252,#253,#254));
#141=EDGE_LOOP('',(#255,#256,#257,#258,#259,#260));
#142=EDGE_LOOP('',(#261));
#143=EDGE_LOOP('',(#262,#263,#264,#265,#266,#267));
#144=EDGE_LOOP('',(#268));
#145=EDGE_LOOP('',(#269));
#146=EDGE_LOOP('',(#270));
#147=EDGE_LOOP('',(#271,#272,#273,#274));
#148=EDGE_LOOP('',(#275,#276,#277,#278));
#149=EDGE_LOOP('',(#279,#280,#281,#282));
#150=EDGE_LOOP('',(#283,#284,#285,#286));
#151=EDGE_LOOP('',(#287,#288,#289,#290));
#152=EDGE_LOOP('',(#291,#292,#293,#294));
#153=EDGE_LOOP('',(#295,#296,#297,#298,#299,#300));
#154=EDGE_LOOP('',(#301));
#155=EDGE_LOOP('',(#302,#303,#304,#305,#306,#307));
#156=EDGE_LOOP('',(#308));
#157=CIRCLE('',#333,3.);
#158=CIRCLE('',#334,3.);
#159=CIRCLE('',#344,3.);
#160=CIRCLE('',#345,3.);
#161=VERTEX_POINT('',#438);
#162=VERTEX_POINT('',#440);
#163=VERTEX_POINT('',#443);
#164=VERTEX_POINT('',#444);
#165=VERTEX_POINT('',#446);
#166=VERTEX_POINT('',#448);
#167=VERTEX_POINT('',#452);
#168=VERTEX_POINT('',#454);
#169=VERTEX_POINT('',#458);
#170=VERTEX_POINT('',#460);
#171=VERTEX_POINT('',#464);
#172=VERTEX_POINT('',#466);
#173=VERTEX_POINT('',#470);
#174=VERTEX_POINT('',#472);
#175=VERTEX_POINT('',#481);
#176=VERTEX_POINT('',#483);
#177=VERTEX_POINT('',#486);
#178=VERTEX_POINT('',#487);
#179=VERTEX_POINT('',#489);
#180=VERTEX_POINT('',#491);
#181=VERTEX_POINT('',#495);
#182=VERTEX_POINT('',#497);
#183=VERTEX_POINT('',#501);
#184=VERTEX_POINT('',#503);
#185=VERTEX_POINT('',#507);
#186=VERTEX_POINT('',#509);
#187=VERTEX_POINT('',#513);
#188=VERTEX_POINT('',#515);
#189=EDGE_CURVE('',#161,#161,#157,.T.);
#190=EDGE_CURVE('',#162,#162,#158,.T.);
#191=EDGE_CURVE('',#163,#164,#21,.T.);
#192=EDGE_CURVE('',#165,#164,#22,.T.);
#193=EDGE_CURVE('',#165,#166,#23,.T.);
#194=EDGE_CURVE('',#166,#163,#24,.T.);
#195=EDGE_CURVE('',#164,#167,#25,.T.);
#196=EDGE_CURVE('',#168,#167,#26,.T.);
#197=EDGE_CURVE('',#168,#165,#27,.T.);
#198=EDGE_CURVE('',#167,#169,#28,.T.);
#199=EDGE_CURVE('',#170,#169,#29,.T.);
#200=EDGE_CURVE('',#170,#168,#30,.T.);
#201=EDGE_CURVE('',#169,#171,#31,.T.);
#202=EDGE_CURVE('',#172,#171,#32,.T.);
#203=EDGE_CURVE('',#172,#170,#33,.T.);
#204=EDGE_CURVE('',#171,#173,#34,.T.);
#205=EDGE_CURVE('',#174,#173,#35,.T.);
#206=EDGE_CURVE('',#174,#172,#36,.T.);
#207=EDGE_CURVE('',#173,#163,#37,.T.);
#208=EDGE_CURVE('',#166,#174,#38,.T.);
#209=EDGE_CURVE('',#175,#175,#159,.T.);
#210=EDGE_CURVE('',#176,#176,#160,.T.);
#211=EDGE_CURVE('',#177,#178,#39,.T.);
#212=EDGE_CURVE('',#179,#178,#40,.T.);
#213=EDGE_CURVE('',#179,#180,#41,.T.);
#214=EDGE_CURVE('',#180,#177,#42,.T.);
#215=EDGE_CURVE('',#178,#181,#43,.T.);
#216=EDGE_CURVE('',#182,#181,#44,.T.);
#217=EDGE_CURVE('',#182,#179,#45,.T.);
#218=EDGE_CURVE('',#181,#183,#46,.T.);
#219=EDGE_CURVE('',#184,#183,#47,.T.);
#220=EDGE_CURVE('',#184,#182,#48,.T.);
#221=EDGE_CURVE('',#183,#185,#49,.T.);
#222=EDGE_CURVE('',#186,#185,#50,.T.);
#223=EDGE_CURVE('',#186,#184,#51,.T.);
#224=EDGE_CURVE('',#185,#187,#52,.T.);
#225=EDGE_CURVE('',#188,#187,#53,.T.);
#226=EDGE_CURVE('',#188,#186,#54,.T.);
#227=EDGE_CURVE('',#187,#177,#55,.T.);
#228=EDGE_CURVE('',#180,#188,#56,.T.);
#229=ORIENTED_EDGE('',*,*,#189,.F.);
#230=ORIENTED_EDGE('',*,*,#190,.F.);
#231=ORIENTED_EDGE('',*,*,#191,.T.);
#232=ORIENTED_EDGE('',*,*,#192,.F.);
#233=ORIENTED_EDGE('',*,*,#193,.T.);
#234=ORIENTED_EDGE('',*,*,#194,.T.);
#235=ORIENTED_EDGE('',*,*,#195,.T.);
#236=ORIENTED_EDGE('',*,*,#196,.F.);
#237=ORIENTED_EDGE('',*,*,#197,.T.);
#238=ORIENTED_EDGE('',*,*,#192,.T.);
#239=ORIENTED_EDGE('',*,*,#198,.T.);
#240=ORIENTED_EDGE('',*,*,#199,.F.);
#241=ORIENTED_EDGE('',*,*,#200,.T.);
#242=ORIENTED_EDGE('',*,*,#196,.T.);
#243=ORIENTED_EDGE('',*,*,#201,.T.);
#244=ORIENTED_EDGE('',*,*,#202,.F.);
#245=ORIENTED_EDGE('',*,*,#203,.T.);
#246=ORIENTED_EDGE('',*,*,#199,.T.);
#247=ORIENTED_EDGE('',*,*,#204,.T.);
#248=ORIENTED_EDGE('',*,*,#205,.F.);
#249=ORIENTED_EDGE('',*,*,#206,.T.);
#250=ORIENTED_EDGE('',*,*,#202,.T.);
#251=ORIENTED_EDGE('',*,*,#207,.T.);
#252=ORIENTED_EDGE('',*,*,#194,.F.);
#253=ORIENTED_EDGE('',*,*,#208,.T.);
#254=ORIENTED_EDGE('',*,*,#205,.T.);
#255=ORIENTED_EDGE('',*,*,#191,.F.);
#256=ORIENTED_EDGE('',*,*,#207,.F.);
#257=ORIENTED_EDGE('',*,*,#204,.F.);
#258=ORIENTED_EDGE('',*,*,#201,.F.);
#259=ORIENTED_EDGE('',*,*,#198,.F.);
#260=ORIENTED_EDGE('',*,*,#195,.F.);
#261=ORIENTED_EDGE('',*,*,#190,.T.);
#262=ORIENTED_EDGE('',*,*,#208,.F.);
#263=ORIENTED_EDGE('',*,*,#193,.F.);
#264=ORIENTED_EDGE('',*,*,#197,.F.);
#265=ORIENTED_EDGE('',*,*,#200,.F.);
#266=ORIENTED_EDGE('',*,*,#203,.F.);
#267=ORIENTED_EDGE('',*,*,#206,.F.);
#268=ORIENTED_EDGE('',*,*,#189,.T.);
#269=ORIENTED_EDGE('',*,*,#209,.F.);
#270=ORIENTED_EDGE('',*,*,#210,.F.);
#271=ORIENTED_EDGE('',*,*,#211,.T.);
#272=ORIENTED_EDGE('',*,*,#212,.F.);
#273=ORIENTED_EDGE('',*,*,#213,.T.);
#274=ORIENTED_EDGE('',*,*,#214,.T.);
#275=ORIENTED_EDGE('',*,*,#215,.T.);
#276=ORIENTED_EDGE('',*,*,#216,.F.);
#277=ORIENTED_EDGE('',*,*,#217,.T.);
#278=ORIENTED_EDGE('',*,*,#212,.T.);
#279=ORIENTED_EDGE('',*,*,#218,.T.);
#280=ORIENTED_EDGE('',*,*,#219,.F.);
#281=ORIENTED_EDGE('',*,*,#220,.T.);
#282=ORIENTED_EDGE('',*,*,#216,.T.);
#283=ORIENTED_EDGE('',*,*,#221,.T.);
#284=ORIENTED_EDGE('',*,*,#222,.F.);
#285=ORIENTED_EDGE('',*,*,#223,.T.);
#286=ORIENTED_EDGE('',*,*,#219,.T.);
#287=ORIENTED_EDGE('',*,*,#224,.T.);
#288=ORIENTED_EDGE('',*,*,#225,.F.);
#289=ORIENTED_EDGE('',*,*,#226,.T.);
#290=ORIENTED_EDGE('',*,*,#222,.T.);
#291=ORIENTED_EDGE('',*,*,#227,.T.);
#292=ORIENTED_EDGE('',*,*,#214,.F.);
#293=ORIENTED_EDGE('',*,*,#228,.T.);
#294=ORIENTED_EDGE('',*,*,#225,.T.);
#295=ORIENTED_EDGE('',*,*,#211,.F.);
#296=ORIENTED_EDGE('',*,*,#227,.F.);
#297=ORIENTED_EDGE('',*,*,#224,.F.);
#298=ORIENTED_EDGE('',*,*,#221,.F.);
#299=ORIENTED_EDGE('',*,*,#218,.F.);
#300=ORIENTED_EDGE('',*,*,#215,.F.);
#301=ORIENTED_EDGE('',*,*,#210,.T.);
#302=ORIENTED_EDGE('',*,*,#228,.F.);
#303=ORIENTED_EDGE('',*,*,#213,.F.);
#304=ORIENTED_EDGE('',*,*,#217,.F.);
#305=ORIENTED_EDGE('',*,*,#220,.F.);
#306=ORIENTED_EDGE('',*,*,#223,.F.);
#307=ORIENTED_EDGE('',*,*,#226,.F.);
#308=ORIENTED_EDGE('',*,*,#209,.T.);
#309=CYLINDRICAL_SURFACE('',#332,3.);
#310=CYLINDRICAL_SURFACE('',#343,3.);
#311=ADVANCED_FACE('',(#115,#109),#309,.F.);
#312=ADVANCED_FACE('',(#116),#93,.T.);
#313=ADVANCED_FACE('',(#117),#94,.T.);
#314=ADVANCED_FACE('',(#118),#95,.T.);
#315=ADVANCED_FACE('',(#119),#96,.T.);
#316=ADVANCED_FACE('',(#120),#97,.T.);
#317=ADVANCED_FACE('',(#121),#98,.T.);
#318=ADVANCED_FACE('',(#122,#110),#99,.T.);
#319=ADVANCED_FACE('',(#123,#111),#100,.F.);
#320=ADVANCED_FACE('',(#124,#112),#310,.F.);
#321=ADVANCED_FACE('',(#125),#101,.T.);
#322=ADVANCED_FACE('',(#126),#102,.T.);
#323=ADVANCED_FACE('',(#127),#103,.T.);
#324=ADVANCED_FACE('',(#128),#104,.T.);
#325=ADVANCED_FACE('',(#129),#105,.T.);
#326=ADVANCED_FACE('',(#130),#106,.T.);
#327=ADVANCED_FACE('',(#131,#113),#107,.T.);
#328=ADVANCED_FACE('',(#132,#114),#108,.F.);
#329=CLOSED_SHELL('',(#311,#312,#313,#314,#315,#316,#317,#318,#319));
#330=CLOSED_SHELL('',(#320,#321,#322,#323,#324,#325,#326,#327,#328));
#331=AXIS2_PLACEMENT_3D('placement',#436,#354,#355);
#332=AXIS2_PLACEMENT_3D('',#437,#356,#357);
#333=AXIS2_PLACEMENT_3D('',#439,#358,#359);
#334=AXIS2_PLACEMENT_3D('',#441,#360,#361);
#335=AXIS2_PLACEMENT_3D('',#442,#362,#363);
#336=AXIS2_PLACEMENT_3D('',#451,#368,#369);
#337=AXIS2_PLACEMENT_3D('',#457,#373,#374);
#338=AXIS2_PLACEMENT_3D('',#463,#378,#379);
#339=AXIS2_PLACEMENT_3D('',#469,#383,#384);
#340=AXIS2_PLACEMENT_3D('',#475,#388,#389);
#341=AXIS2_PLACEMENT_3D('',#478,#392,#393);
#342=AXIS2_PLACEMENT_3D('',#479,#394,#395);
#343=AXIS2_PLACEMENT_3D('',#480,#396,#397);
#344=AXIS2_PLACEMENT_3D('',#482,#398,#399);
#345=AXIS2_PLACEMENT_3D('',#484,#400,#401);
#346=AXIS2_PLACEMENT_3D('',#485,#402,#403);
#347=AXIS2_PLACEMENT_3D('',#494,#408,#409);
#348=AXIS2_PLACEMENT_3D('',#500,#413,#414);
#349=AXIS2_PLACEMENT_3D('',#506,#418,#419);
#350=AXIS2_PLACEMENT_3D('',#512,#423,#424);
#351=AXIS2_PLACEMENT_3D('',#518,#428,#429);
#352=AXIS2_PLACEMENT_3D('',#521,#432,#433);
#353=AXIS2_PLACEMENT_3D('',#522,#434,#435);
#354=DIRECTION('axis',(0.,0.,1.));
#355=DIRECTION('refdir',(1.,0.,0.));
#356=DIRECTION('center_axis',(0.,0.,-1.));
#357=DIRECTION('ref_axis',(1.,0.,0.));
#358=DIRECTION('center_axis',(0.,0.,1.));
#359=DIRECTION('ref_axis',(1.,0.,0.));
#360=DIRECTION('center_axis',(0.,0.,-1.));
#361=DIRECTION('ref_axis',(1.,0.,0.));
#362=DIRECTION('center_axis',(1.,-7.89491928622331E-16,0.));
#363=DIRECTION('ref_axis',(0.,0.,-1.));
#364=DIRECTION('',(-7.89491928622331E-16,-1.,0.));
#365=DIRECTION('',(0.,0.,1.));
#366=DIRECTION('',(7.89491928622331E-16,1.,0.));
#367=DIRECTION('',(0.,0.,1.));
#368=DIRECTION('center_axis',(0.499999999999999,-0.866025403784439,0.));
#369=DIRECTION('ref_axis',(0.,0.,-1.));
#370=DIRECTION('',(-0.866025403784439,-0.499999999999999,0.));
#371=DIRECTION('',(0.,0.,1.));
#372=DIRECTION('',(0.866025403784439,0.499999999999999,0.));
#373=DIRECTION('center_axis',(-0.5,-0.866025403784438,0.));
#374=DIRECTION('ref_axis',(0.,0.,1.));
#375=DIRECTION('',(-0.866025403784438,0.5,0.));
#376=DIRECTION('',(0.,0.,1.));
#377=DIRECTION('',(0.866025403784438,-0.5,0.));
#378=DIRECTION('center_axis',(-1.,-3.94745964311168E-16,0.));
#379=DIRECTION('ref_axis',(0.,0.,1.));
#380=DIRECTION('',(-3.94745964311168E-16,1.,0.));
#381=DIRECTION('',(0.,0.,1.));
#382=DIRECTION('',(3.94745964311168E-16,-1.,0.));
#383=DIRECTION('center_axis',(-0.500000000000001,0.866025403784438,0.));
#384=DIRECTION('ref_axis',(0.,0.,1.));
#385=DIRECTION('',(0.866025403784438,0.500000000000001,0.));
#386=DIRECTION('',(0.,0.,1.));
#387=DIRECTION('',(-0.866025403784438,-0.500000000000001,0.));
#388=DIRECTION('center_axis',(0.5,0.866025403784439,0.));
#389=DIRECTION('ref_axis',(0.,0.,1.));
#390=DIRECTION('',(0.866025403784439,-0.5,0.));
#391=DIRECTION('',(-0.866025403784439,0.5,0.));
#392=DIRECTION('center_axis',(0.,0.,1.));
#393=DIRECTION('ref_axis',(1.,0.,0.));
#394=DIRECTION('center_axis',(0.,0.,1.));
#395=DIRECTION('ref_axis',(1.,0.,0.));
#396=DIRECTION('center_axis',(0.,0.,-1.));
#397=DIRECTION('ref_axis',(0.707106781186548,0.707106781186547,0.));
#398=DIRECTION('center_axis',(0.,0.,1.));
#399=DIRECTION('ref_axis',(0.707106781186548,0.707106781186547,0.));
#400=DIRECTION('center_axis',(0.,0.,-1.));
#401=DIRECTION('ref_axis',(0.707106781186548,0.707106781186547,0.));
#402=DIRECTION('center_axis',(0.707106781186548,0.707106781186547,0.));
#403=DIRECTION('ref_axis',(0.,0.,-1.));
#404=DIRECTION('',(0.707106781186547,-0.707106781186548,0.));
#405=DIRECTION('',(0.,0.,1.));
#406=DIRECTION('',(-0.707106781186547,0.707106781186548,0.));
#407=DIRECTION('',(0.,0.,1.));
#408=DIRECTION('center_axis',(0.965925826289068,-0.258819045102522,0.));
#409=DIRECTION('ref_axis',(0.,0.,-1.));
#410=DIRECTION('',(-0.258819045102522,-0.965925826289068,0.));
#411=DIRECTION('',(0.,0.,1.));
#412=DIRECTION('',(0.258819045102522,0.965925826289068,0.));
#413=DIRECTION('center_axis',(0.25881904510252,-0.965925826289068,0.));
#414=DIRECTION('ref_axis',(0.,0.,1.));
#415=DIRECTION('',(-0.965925826289068,-0.25881904510252,0.));
#416=DIRECTION('',(0.,0.,1.));
#417=DIRECTION('',(0.965925826289068,0.25881904510252,0.));
#418=DIRECTION('center_axis',(-0.707106781186547,-0.707106781186548,0.));
#419=DIRECTION('ref_axis',(0.,0.,1.));
#420=DIRECTION('',(-0.707106781186548,0.707106781186547,0.));
#421=DIRECTION('',(0.,0.,1.));
#422=DIRECTION('',(0.707106781186548,-0.707106781186547,0.));
#423=DIRECTION('center_axis',(-0.965925826289069,0.25881904510252,0.));
#424=DIRECTION('ref_axis',(0.,0.,1.));
#425=DIRECTION('',(0.25881904510252,0.965925826289069,0.));
#426=DIRECTION('',(0.,0.,1.));
#427=DIRECTION('',(-0.25881904510252,-0.965925826289069,0.));
#428=DIRECTION('center_axis',(-0.258819045102521,0.965925826289068,0.));
#429=DIRECTION('ref_axis',(0.,0.,1.));
#430=DIRECTION('',(0.965925826289068,0.258819045102521,0.));
#431=DIRECTION('',(-0.965925826289068,-0.258819045102521,0.));
#432=DIRECTION('center_axis',(0.,0.,1.));
#433=DIRECTION('ref_axis',(0.707106781186548,0.707106781186547,0.));
#434=DIRECTION('center_axis',(0.,0.,1.));
#435=DIRECTION('ref_axis',(0.707106781186548,0.707106781186547,0.));
#436=CARTESIAN_POINT('',(0.,0.,0.));
#437=CARTESIAN_POINT('Origin',(0.,-1.77635683940025E-15,-1.6));
#438=CARTESIAN_POINT('',(3.,-1.77635683940025E-15,-3.6));
#439=CARTESIAN_POINT('Origin',(0.,-1.77635683940025E-15,-3.6));
#440=CARTESIAN_POINT('',(3.,-1.77635683940025E-15,-1.6));
#441=CARTESIAN_POINT('Origin',(0.,-1.77635683940025E-15,-1.6));
#442=CARTESIAN_POINT('Origin',(3.89711431702998,2.25000000000001,-3.6));
#443=CARTESIAN_POINT('',(3.89711431702998,2.25000000000001,-1.6));
#444=CARTESIAN_POINT('',(3.89711431702997,-2.25,-1.6));
#445=CARTESIAN_POINT('',(3.89711431702997,-2.25,-1.6));
#446=CARTESIAN_POINT('',(3.89711431702997,-2.25,-3.6));
#447=CARTESIAN_POINT('',(3.89711431702997,-2.25,-3.6));
#448=CARTESIAN_POINT('',(3.89711431702998,2.25000000000001,-3.6));
#449=CARTESIAN_POINT('',(3.89711431702997,-2.25,-3.6));
#450=CARTESIAN_POINT('',(3.89711431702998,2.25000000000001,-3.6));
#451=CARTESIAN_POINT('Origin',(3.89711431702997,-2.25,-3.6));
#452=CARTESIAN_POINT('',(3.5527136788005E-15,-4.49999999999999,-1.6));
#453=CARTESIAN_POINT('',(3.5527136788005E-15,-4.49999999999999,-1.6));
#454=CARTESIAN_POINT('',(3.5527136788005E-15,-4.49999999999999,-3.6));
#455=CARTESIAN_POINT('',(3.5527136788005E-15,-4.49999999999999,-3.6));
#456=CARTESIAN_POINT('',(3.5527136788005E-15,-4.49999999999999,-3.6));
#457=CARTESIAN_POINT('Origin',(3.5527136788005E-15,-4.49999999999999,-3.6));
#458=CARTESIAN_POINT('',(-3.89711431702997,-2.24999999999999,-1.6));
#459=CARTESIAN_POINT('',(-3.89711431702997,-2.24999999999999,-1.6));
#460=CARTESIAN_POINT('',(-3.89711431702997,-2.24999999999999,-3.6));
#461=CARTESIAN_POINT('',(-3.89711431702997,-2.24999999999999,-3.6));
#462=CARTESIAN_POINT('',(-3.89711431702997,-2.24999999999999,-3.6));
#463=CARTESIAN_POINT('Origin',(-3.89711431702997,-2.24999999999999,-3.6));
#464=CARTESIAN_POINT('',(-3.89711431702997,2.25,-1.6));
#465=CARTESIAN_POINT('',(-3.89711431702997,2.25,-1.6));
#466=CARTESIAN_POINT('',(-3.89711431702997,2.25,-3.6));
#467=CARTESIAN_POINT('',(-3.89711431702997,2.25,-3.6));
#468=CARTESIAN_POINT('',(-3.89711431702997,2.25,-3.6));
#469=CARTESIAN_POINT('Origin',(-3.89711431702997,2.25,-3.6));
#470=CARTESIAN_POINT('',(3.5527136788005E-15,4.50000000000001,-1.6));
#471=CARTESIAN_POINT('',(3.5527136788005E-15,4.50000000000001,-1.6));
#472=CARTESIAN_POINT('',(3.5527136788005E-15,4.50000000000001,-3.6));
#473=CARTESIAN_POINT('',(3.5527136788005E-15,4.50000000000001,-3.6));
#474=CARTESIAN_POINT('',(3.5527136788005E-15,4.50000000000001,-3.6));
#475=CARTESIAN_POINT('Origin',(3.5527136788005E-15,4.50000000000001,-3.6));
#476=CARTESIAN_POINT('',(3.89711431702998,2.25000000000001,-1.6));
#477=CARTESIAN_POINT('',(3.89711431702998,2.25000000000001,-3.6));
#478=CARTESIAN_POINT('Origin',(0.,5.32907051820075E-15,-1.6));
#479=CARTESIAN_POINT('Origin',(0.,5.32907051820075E-15,-3.6));
#480=CARTESIAN_POINT('Origin',(3.39357639285468E-31,-1.77635683940025E-15,
-3.6));
#481=CARTESIAN_POINT('',(2.12132034355964,2.12132034355964,-5.6));
#482=CARTESIAN_POINT('Origin',(3.39357639285468E-31,-1.77635683940025E-15,
-5.6));
#483=CARTESIAN_POINT('',(2.12132034355964,2.12132034355964,-3.6));
#484=CARTESIAN_POINT('Origin',(3.39357639285468E-31,-1.77635683940025E-15,
-3.6));
#485=CARTESIAN_POINT('Origin',(1.16468570296134,4.34666621830082,-5.6));
#486=CARTESIAN_POINT('',(1.16468570296134,4.34666621830082,-3.6));
#487=CARTESIAN_POINT('',(4.34666621830081,1.16468570296134,-3.6));
#488=CARTESIAN_POINT('',(4.34666621830081,1.16468570296134,-3.6));
#489=CARTESIAN_POINT('',(4.34666621830081,1.16468570296134,-5.6));
#490=CARTESIAN_POINT('',(4.34666621830081,1.16468570296134,-5.6));
#491=CARTESIAN_POINT('',(1.16468570296134,4.34666621830082,-5.6));
#492=CARTESIAN_POINT('',(4.34666621830081,1.16468570296134,-5.6));
#493=CARTESIAN_POINT('',(1.16468570296134,4.34666621830082,-5.6));
#494=CARTESIAN_POINT('Origin',(4.34666621830081,1.16468570296134,-5.6));
#495=CARTESIAN_POINT('',(3.18198051533946,-3.18198051533946,-3.6));
#496=CARTESIAN_POINT('',(3.18198051533946,-3.18198051533946,-3.6));
#497=CARTESIAN_POINT('',(3.18198051533946,-3.18198051533946,-5.6));
#498=CARTESIAN_POINT('',(3.18198051533946,-3.18198051533946,-5.6));
#499=CARTESIAN_POINT('',(3.18198051533946,-3.18198051533946,-5.6));
#500=CARTESIAN_POINT('Origin',(3.18198051533946,-3.18198051533946,-5.6));
#501=CARTESIAN_POINT('',(-1.16468570296135,-4.3466662183008,-3.6));
#502=CARTESIAN_POINT('',(-1.16468570296135,-4.3466662183008,-3.6));
#503=CARTESIAN_POINT('',(-1.16468570296135,-4.3466662183008,-5.6));
#504=CARTESIAN_POINT('',(-1.16468570296135,-4.3466662183008,-5.6));
#505=CARTESIAN_POINT('',(-1.16468570296135,-4.3466662183008,-5.6));
#506=CARTESIAN_POINT('Origin',(-1.16468570296135,-4.3466662183008,-5.6));
#507=CARTESIAN_POINT('',(-4.34666621830081,-1.16468570296134,-3.6));
#508=CARTESIAN_POINT('',(-4.34666621830081,-1.16468570296134,-3.6));
#509=CARTESIAN_POINT('',(-4.34666621830081,-1.16468570296134,-5.6));
#510=CARTESIAN_POINT('',(-4.34666621830081,-1.16468570296134,-5.6));
#511=CARTESIAN_POINT('',(-4.34666621830081,-1.16468570296134,-5.6));
#512=CARTESIAN_POINT('Origin',(-4.34666621830081,-1.16468570296134,-5.6));
#513=CARTESIAN_POINT('',(-3.18198051533947,3.18198051533947,-3.6));
#514=CARTESIAN_POINT('',(-3.18198051533947,3.18198051533947,-3.6));
#515=CARTESIAN_POINT('',(-3.18198051533947,3.18198051533947,-5.6));
#516=CARTESIAN_POINT('',(-3.18198051533947,3.18198051533947,-5.6));
#517=CARTESIAN_POINT('',(-3.18198051533947,3.18198051533947,-5.6));
#518=CARTESIAN_POINT('Origin',(-3.18198051533947,3.18198051533947,-5.6));
#519=CARTESIAN_POINT('',(1.16468570296134,4.34666621830082,-3.6));
#520=CARTESIAN_POINT('',(1.16468570296134,4.34666621830082,-5.6));
#521=CARTESIAN_POINT('Origin',(-5.02429586778808E-15,3.24793902838783E-15,
-3.6));
#522=CARTESIAN_POINT('Origin',(-5.02429586778808E-15,3.24793902838783E-15,
-5.6));
#523=UNCERTAINTY_MEASURE_WITH_UNIT(LENGTH_MEASURE(0.01),#527,
'DISTANCE_ACCURACY_VALUE',
'Maximum model space distance between geometric entities at asserted c
onnectivities');
#524=UNCERTAINTY_MEASURE_WITH_UNIT(LENGTH_MEASURE(1.E-6),#527,
'DISTANCE_ACCURACY_VALUE',
'Maximum model space distance between geometric entities at asserted c
onnectivities');
#525=(
GEOMETRIC_REPRESENTATION_CONTEXT(3)
GLOBAL_UNCERTAINTY_ASSIGNED_CONTEXT((#523))
GLOBAL_UNIT_ASSIGNED_CONTEXT((#527,#529,#528))
REPRESENTATION_CONTEXT('','3D')
);
#526=(
GEOMETRIC_REPRESENTATION_CONTEXT(3)
GLOBAL_UNCERTAINTY_ASSIGNED_CONTEXT((#524))
GLOBAL_UNIT_ASSIGNED_CONTEXT((#527,#12,#528))
REPRESENTATION_CONTEXT('','3D')
);
#527=(
LENGTH_UNIT()
NAMED_UNIT(*)
SI_UNIT(.MILLI.,.METRE.)
);
#528=(
NAMED_UNIT(*)
SI_UNIT($,.STERADIAN.)
SOLID_ANGLE_UNIT()
);
#529=(
NAMED_UNIT(*)
PLANE_ANGLE_UNIT()
SI_UNIT($,.RADIAN.)
);
#530=SHAPE_DEFINITION_REPRESENTATION(#531,#532);
#531=PRODUCT_DEFINITION_SHAPE('',$,#534);
#532=SHAPE_REPRESENTATION('',(#331),#525);
#533=PRODUCT_DEFINITION_CONTEXT('part definition',#538,'design');
#534=PRODUCT_DEFINITION('Product','Product',#535,#533);
#535=PRODUCT_DEFINITION_FORMATION('',$,#540);
#536=PRODUCT_RELATED_PRODUCT_CATEGORY('Product','Product',(#540));
#537=APPLICATION_PROTOCOL_DEFINITION('international standard',
'automotive_design',2009,#538);
#538=APPLICATION_CONTEXT(
'Core Data for Automotive Mechanical Design Process');
#539=PRODUCT_CONTEXT('part definition',#538,'mechanical');
#540=PRODUCT('Product','Product',$,(#539));
#541=PRESENTATION_STYLE_ASSIGNMENT((#543));
#542=PRESENTATION_STYLE_ASSIGNMENT((#544));
#543=SURFACE_STYLE_USAGE(.BOTH.,#545);
#544=SURFACE_STYLE_USAGE(.BOTH.,#546);
#545=SURFACE_SIDE_STYLE('',(#547));
#546=SURFACE_SIDE_STYLE('',(#548));
#547=SURFACE_STYLE_FILL_AREA(#549);
#548=SURFACE_STYLE_FILL_AREA(#550);
#549=FILL_AREA_STYLE('',(#551));
#550=FILL_AREA_STYLE('',(#552));
#551=FILL_AREA_STYLE_COLOUR('',#553);
#552=FILL_AREA_STYLE_COLOUR('',#554);
#553=COLOUR_RGB('',1.,1.,1.);
#554=COLOUR_RGB('',0.866666666666667,0.866666666666667,0.866666666666667);
ENDSEC;
END-ISO-10303-21;
