ISO-10303-21;
HEADER;
/****************************************************************
 * Generated by software with PDE/Lib inside                    *
 * PDElib Version v51a, created Mon 11/23/2009                  *
 * ITI Transcendata (http://www.transcendata.com/)              *
 ****************************************************************/
FILE_DESCRIPTION((''),'2;1');
FILE_NAME('SODFL2512X100N.stp','2011-05-12T11:34:17',(''),(''),'Mechanical Desktop 2011','Mechanical Desktop 2011',', , ');
FILE_SCHEMA(('AUTOMOTIVE_DESIGN { 1 2 10303 214 1 1 1 1 }'));
ENDSEC;
DATA;
#10=(NAMED_UNIT(*)PLANE_ANGLE_UNIT()SI_UNIT($,.RADIAN.));
#11=DIMENSIONAL_EXPONENTS(0.0,0.0,0.0,0.0,0.0,0.0,0.0);
#12=PLANE_ANGLE_MEASURE_WITH_UNIT(PLANE_ANGLE_MEASURE(0.017453292500000),#10);
#16=(CONVERSION_BASED_UNIT('DEGREE',#12)NAMED_UNIT(#11)PLANE_ANGLE_UNIT());
#20=(NAMED_UNIT(*)SI_UNIT($,.STERADIAN.)SOLID_ANGLE_UNIT());
#24=(LENGTH_UNIT()NAMED_UNIT(*)SI_UNIT(.MILLI.,.METRE.));
#26=UNCERTAINTY_MEASURE_WITH_UNIT(LENGTH_MEASURE(0.000001000000000),#24,'DISTANCE_ACCURACY_VALUE','');
#28=(GEOMETRIC_REPRESENTATION_CONTEXT(3)GLOBAL_UNCERTAINTY_ASSIGNED_CONTEXT((#26))GLOBAL_UNIT_ASSIGNED_CONTEXT((#16,#20,#24))REPRESENTATION_CONTEXT('','3D'));
#29=APPLICATION_CONTEXT('automotive design');
#30=APPLICATION_PROTOCOL_DEFINITION('INTERNATIONAL_STANDARD','automotive_design',1998,#29);
#31=PRODUCT_CONTEXT('3D Mechanical Parts',#29,'mechanical');
#32=PRODUCT('Product','Product','',(#31));
#33=PRODUCT_RELATED_PRODUCT_CATEGORY('part',$,(#32));
#34=PRODUCT_CATEGORY('part',$);
#35=PERSON('1','Design','Joe',$,$,$);
#36=ORGANIZATION($,'None','None');
#37=PERSON_AND_ORGANIZATION(#35,#36);
#38=PERSON_AND_ORGANIZATION_ROLE('design_owner');
#39=APPLIED_PERSON_AND_ORGANIZATION_ASSIGNMENT(#37,#38,(#32));
#40=PRODUCT_DEFINITION_FORMATION_WITH_SPECIFIED_SOURCE('None','',#32,.BOUGHT.);
#41=PERSON('2','Creator','Joe',$,$,$);
#42=ORGANIZATION($,'None','None');
#43=PERSON_AND_ORGANIZATION(#41,#42);
#44=PERSON_AND_ORGANIZATION_ROLE('creator');
#45=APPLIED_PERSON_AND_ORGANIZATION_ASSIGNMENT(#43,#44,(#40));
#46=PERSON('3','Supplier','Joe',$,$,$);
#47=ORGANIZATION($,'None','None');
#48=PERSON_AND_ORGANIZATION(#46,#47);
#49=PERSON_AND_ORGANIZATION_ROLE('design_supplier');
#50=APPLIED_PERSON_AND_ORGANIZATION_ASSIGNMENT(#48,#49,(#40));
#51=PRODUCT_DEFINITION_CONTEXT('part definition',#29,'design');
#52=PRODUCT_DEFINITION('None','',#40,#51);
#53=PERSON('4','Creator','Joe',$,$,$);
#54=ORGANIZATION($,'None','None');
#55=PERSON_AND_ORGANIZATION(#53,#54);
#56=PERSON_AND_ORGANIZATION_ROLE('creator');
#57=APPLIED_PERSON_AND_ORGANIZATION_ASSIGNMENT(#55,#56,(#52));
#58=CARTESIAN_POINT('NONE',(0.0,0.0,0.0));
#59=DIRECTION('NONE',(0.0,0.0,1.0));
#60=DIRECTION('NONE',(1.0,0.0,0.0));
#61=AXIS2_PLACEMENT_3D('NONE',#58,#59,#60);
#62=SHAPE_REPRESENTATION('SR1',(#61),#28);
#63=PRODUCT_DEFINITION_SHAPE('PDS1','Test Part',#52);
#64=SHAPE_DEFINITION_REPRESENTATION(#63,#62);
#65=CARTESIAN_POINT('',(-0.570000000000000,0.580000000000000,1.000000000000000));
#66=DIRECTION('',(-1.0,0.0,0.0));
#67=DIRECTION('',(0.0,0.0,1.0));
#68=AXIS2_PLACEMENT_3D('',#65,#66,#67);
#69=PLANE('',#68);
#70=CARTESIAN_POINT('',(-0.570000000000000,0.580000000000000,0.980000000000000));
#71=VERTEX_POINT('',#70);
#72=CARTESIAN_POINT('',(-0.570000000000000,-0.580000000000000,0.980000000000000));
#73=VERTEX_POINT('',#72);
#74=CARTESIAN_POINT('',(-0.570000000000000,0.580000000000000,0.980000000000000));
#75=DIRECTION('',(0.0,-1.0,0.0));
#76=VECTOR('',#75,1.160000000000000);
#77=LINE('',#74,#76);
#78=EDGE_CURVE('',#71,#73,#77,.T.);
#79=ORIENTED_EDGE('',*,*,#78,.T.);
#80=CARTESIAN_POINT('',(-0.570000000000000,-0.580000000000000,1.000000000000000));
#81=VERTEX_POINT('',#80);
#82=CARTESIAN_POINT('',(-0.570000000000000,-0.580000000000000,1.000000000000000));
#83=DIRECTION('',(0.0,0.0,-1.0));
#84=VECTOR('',#83,0.020000000000000);
#85=LINE('',#82,#84);
#86=EDGE_CURVE('',#81,#73,#85,.T.);
#87=ORIENTED_EDGE('',*,*,#86,.F.);
#88=CARTESIAN_POINT('',(-0.570000000000000,0.580000000000000,1.000000000000000));
#89=VERTEX_POINT('',#88);
#90=CARTESIAN_POINT('',(-0.570000000000000,0.580000000000000,1.000000000000000));
#91=DIRECTION('',(0.0,-1.0,0.0));
#92=VECTOR('',#91,1.160000000000000);
#93=LINE('',#90,#92);
#94=EDGE_CURVE('',#89,#81,#93,.T.);
#95=ORIENTED_EDGE('',*,*,#94,.F.);
#96=CARTESIAN_POINT('',(-0.570000000000000,0.580000000000000,1.000000000000000));
#97=DIRECTION('',(0.0,0.0,-1.0));
#98=VECTOR('',#97,0.020000000000000);
#99=LINE('',#96,#98);
#100=EDGE_CURVE('',#89,#71,#99,.T.);
#101=ORIENTED_EDGE('',*,*,#100,.T.);
#102=EDGE_LOOP('',(#79,#87,#95,#101));
#103=FACE_OUTER_BOUND('',#102,.T.);
#104=ADVANCED_FACE('',(#103),#69,.T.);
#105=CARTESIAN_POINT('',(-0.470000000000000,-0.065000000000000,1.000000000000000));
#106=DIRECTION('',(0.0,0.0,1.0));
#107=DIRECTION('',(1.0,0.0,0.0));
#108=AXIS2_PLACEMENT_3D('',#105,#106,#107);
#109=PLANE('',#108);
#110=CARTESIAN_POINT('',(-0.370000000000000,-0.580000000000000,1.000000000000000));
#111=VERTEX_POINT('',#110);
#112=CARTESIAN_POINT('',(-0.370000000000000,0.580000000000000,1.000000000000000));
#113=VERTEX_POINT('',#112);
#114=CARTESIAN_POINT('',(-0.370000000000000,-0.580000000000000,1.000000000000000));
#115=DIRECTION('',(0.0,1.0,0.0));
#116=VECTOR('',#115,1.160000000000000);
#117=LINE('',#114,#116);
#118=EDGE_CURVE('',#111,#113,#117,.T.);
#119=ORIENTED_EDGE('',*,*,#118,.T.);
#120=CARTESIAN_POINT('',(-0.370000000000000,0.580000000000000,1.000000000000000));
#121=DIRECTION('',(-1.0,0.0,0.0));
#122=VECTOR('',#121,0.200000000000000);
#123=LINE('',#120,#122);
#124=EDGE_CURVE('',#113,#89,#123,.T.);
#125=ORIENTED_EDGE('',*,*,#124,.T.);
#126=ORIENTED_EDGE('',*,*,#94,.T.);
#127=CARTESIAN_POINT('',(-0.570000000000000,-0.580000000000000,1.000000000000000));
#128=DIRECTION('',(1.0,0.0,0.0));
#129=VECTOR('',#128,0.200000000000000);
#130=LINE('',#127,#129);
#131=EDGE_CURVE('',#81,#111,#130,.T.);
#132=ORIENTED_EDGE('',*,*,#131,.T.);
#133=EDGE_LOOP('',(#119,#125,#126,#132));
#134=FACE_OUTER_BOUND('',#133,.T.);
#135=ADVANCED_FACE('',(#134),#109,.T.);
#136=CARTESIAN_POINT('',(-0.370000000000000,-0.710000000000000,1.000000000000000));
#137=DIRECTION('',(1.0,0.0,0.0));
#138=DIRECTION('',(0.0,0.0,-1.0));
#139=AXIS2_PLACEMENT_3D('',#136,#137,#138);
#140=PLANE('',#139);
#141=CARTESIAN_POINT('',(-0.370000000000000,-0.580000000000000,0.980000000000000));
#142=VERTEX_POINT('',#141);
#143=CARTESIAN_POINT('',(-0.370000000000000,0.580000000000000,0.980000000000000));
#144=VERTEX_POINT('',#143);
#145=CARTESIAN_POINT('',(-0.370000000000000,-0.580000000000000,0.980000000000000));
#146=DIRECTION('',(0.0,1.0,0.0));
#147=VECTOR('',#146,1.160000000000000);
#148=LINE('',#145,#147);
#149=EDGE_CURVE('',#142,#144,#148,.T.);
#150=ORIENTED_EDGE('',*,*,#149,.T.);
#151=CARTESIAN_POINT('',(-0.370000000000000,0.580000000000000,1.000000000000000));
#152=DIRECTION('',(0.0,0.0,-1.0));
#153=VECTOR('',#152,0.020000000000000);
#154=LINE('',#151,#153);
#155=EDGE_CURVE('',#113,#144,#154,.T.);
#156=ORIENTED_EDGE('',*,*,#155,.F.);
#157=ORIENTED_EDGE('',*,*,#118,.F.);
#158=CARTESIAN_POINT('',(-0.370000000000000,-0.580000000000000,1.000000000000000));
#159=DIRECTION('',(0.0,0.0,-1.0));
#160=VECTOR('',#159,0.020000000000000);
#161=LINE('',#158,#160);
#162=EDGE_CURVE('',#111,#142,#161,.T.);
#163=ORIENTED_EDGE('',*,*,#162,.T.);
#164=EDGE_LOOP('',(#150,#156,#157,#163));
#165=FACE_OUTER_BOUND('',#164,.T.);
#166=ADVANCED_FACE('',(#165),#140,.T.);
#167=CARTESIAN_POINT('',(-0.470000000000000,-0.065000000000000,0.980000000000000));
#168=DIRECTION('',(0.0,0.0,1.0));
#169=DIRECTION('',(1.0,0.0,0.0));
#170=AXIS2_PLACEMENT_3D('',#167,#168,#169);
#171=PLANE('',#170);
#172=CARTESIAN_POINT('',(-0.370000000000000,0.580000000000000,0.980000000000000));
#173=DIRECTION('',(-1.0,0.0,0.0));
#174=VECTOR('',#173,0.200000000000000);
#175=LINE('',#172,#174);
#176=EDGE_CURVE('',#144,#71,#175,.T.);
#177=ORIENTED_EDGE('',*,*,#176,.F.);
#178=ORIENTED_EDGE('',*,*,#149,.F.);
#179=CARTESIAN_POINT('',(-0.570000000000000,-0.580000000000000,0.980000000000000));
#180=DIRECTION('',(1.0,0.0,0.0));
#181=VECTOR('',#180,0.200000000000000);
#182=LINE('',#179,#181);
#183=EDGE_CURVE('',#73,#142,#182,.T.);
#184=ORIENTED_EDGE('',*,*,#183,.F.);
#185=ORIENTED_EDGE('',*,*,#78,.F.);
#186=EDGE_LOOP('',(#177,#178,#184,#185));
#187=FACE_OUTER_BOUND('',#186,.T.);
#188=ADVANCED_FACE('',(#187),#171,.F.);
#189=CARTESIAN_POINT('',(-0.370000000000000,0.580000000000000,1.000000000000000));
#190=DIRECTION('',(0.0,1.0,0.0));
#191=DIRECTION('',(0.0,0.0,1.0));
#192=AXIS2_PLACEMENT_3D('',#189,#190,#191);
#193=PLANE('',#192);
#194=ORIENTED_EDGE('',*,*,#176,.T.);
#195=ORIENTED_EDGE('',*,*,#100,.F.);
#196=ORIENTED_EDGE('',*,*,#124,.F.);
#197=ORIENTED_EDGE('',*,*,#155,.T.);
#198=EDGE_LOOP('',(#194,#195,#196,#197));
#199=FACE_OUTER_BOUND('',#198,.T.);
#200=ADVANCED_FACE('',(#199),#193,.T.);
#201=CARTESIAN_POINT('',(-0.570000000000000,-0.580000000000000,1.000000000000000));
#202=DIRECTION('',(0.0,-1.0,0.0));
#203=DIRECTION('',(0.0,0.0,-1.0));
#204=AXIS2_PLACEMENT_3D('',#201,#202,#203);
#205=PLANE('',#204);
#206=ORIENTED_EDGE('',*,*,#183,.T.);
#207=ORIENTED_EDGE('',*,*,#162,.F.);
#208=ORIENTED_EDGE('',*,*,#131,.F.);
#209=ORIENTED_EDGE('',*,*,#86,.T.);
#210=EDGE_LOOP('',(#206,#207,#208,#209));
#211=FACE_OUTER_BOUND('',#210,.T.);
#212=ADVANCED_FACE('',(#211),#205,.T.);
#213=CLOSED_SHELL('',(#104,#135,#166,#188,#200,#212));
#214=MANIFOLD_SOLID_BREP('919',#213);
#215=DRAUGHTING_PRE_DEFINED_COLOUR('white');
#216=SURFACE_STYLE_USAGE(.BOTH.,#217);
#217=SURFACE_SIDE_STYLE('NONE',(#218));
#218=SURFACE_STYLE_FILL_AREA(#219);
#219=FILL_AREA_STYLE('NONE',(#220));
#220=FILL_AREA_STYLE_COLOUR('NONE',#215);
#221=PRESENTATION_STYLE_ASSIGNMENT((#216));
#222=STYLED_ITEM('NONE',(#221),#214);
#223=MECHANICAL_DESIGN_GEOMETRIC_PRESENTATION_REPRESENTATION('NONE',(#222,#382,#695,#853,#1004),#28);
#224=PRESENTATION_LAYER_ASSIGNMENT('3D','None',(#214,#374,#694,#845,#1003));
#225=CARTESIAN_POINT('',(-0.845000000000000,-0.325000000000000,0.100000000000000));
#226=DIRECTION('',(-0.998752338877845,9.567521E-033,-0.049937616943891));
#227=DIRECTION('',(-0.049937616943891,0.0,0.998752338877845));
#228=AXIS2_PLACEMENT_3D('',#225,#226,#227);
#229=PLANE('',#228);
#230=CARTESIAN_POINT('',(-0.850000000000000,-0.650000000000000,0.200000000000000));
#231=VERTEX_POINT('',#230);
#232=CARTESIAN_POINT('',(-0.850000000000000,0.650000000000000,0.200000000000000));
#233=VERTEX_POINT('',#232);
#234=CARTESIAN_POINT('',(-0.850000000000000,-0.650000000000000,0.200000000000000));
#235=DIRECTION('',(0.0,1.0,0.0));
#236=VECTOR('',#235,1.300000000000000);
#237=LINE('',#234,#236);
#238=EDGE_CURVE('',#231,#233,#237,.T.);
#239=ORIENTED_EDGE('',*,*,#238,.T.);
#240=CARTESIAN_POINT('',(-0.840000000000000,0.640000000000000,0.0));
#241=VERTEX_POINT('',#240);
#242=CARTESIAN_POINT('',(-0.850000000000000,0.650000000000000,0.200000000000000));
#243=DIRECTION('',(0.049875466805381,-0.049875466805382,-0.997509336107633));
#244=VECTOR('',#243,0.200499376557634);
#245=LINE('',#242,#244);
#246=EDGE_CURVE('',#233,#241,#245,.T.);
#247=ORIENTED_EDGE('',*,*,#246,.T.);
#248=CARTESIAN_POINT('',(-0.840000000000000,-0.640000000000000,0.0));
#249=VERTEX_POINT('',#248);
#250=CARTESIAN_POINT('',(-0.840000000000000,0.640000000000000,1.848838E-031));
#251=DIRECTION('',(0.0,-1.0,0.0));
#252=VECTOR('',#251,1.280000000000000);
#253=LINE('',#250,#252);
#254=EDGE_CURVE('',#241,#249,#253,.T.);
#255=ORIENTED_EDGE('',*,*,#254,.T.);
#256=CARTESIAN_POINT('',(-0.840000000000000,-0.640000000000000,0.0));
#257=DIRECTION('',(-0.049875466805381,-0.049875466805382,0.997509336107633));
#258=VECTOR('',#257,0.200499376557634);
#259=LINE('',#256,#258);
#260=EDGE_CURVE('',#249,#231,#259,.T.);
#261=ORIENTED_EDGE('',*,*,#260,.T.);
#262=EDGE_LOOP('',(#239,#247,#255,#261));
#263=FACE_OUTER_BOUND('',#262,.T.);
#264=ADVANCED_FACE('',(#263),#229,.T.);
#265=CARTESIAN_POINT('',(0.425000000000000,-0.645000000000000,0.100000000000000));
#266=DIRECTION('',(-4.018118E-032,-0.998752338877845,-0.049937616943892));
#267=DIRECTION('',(0.0,0.049937616943892,-0.998752338877845));
#268=AXIS2_PLACEMENT_3D('',#265,#266,#267);
#269=PLANE('',#268);
#270=CARTESIAN_POINT('',(0.850000000000000,-0.650000000000000,0.200000000000000));
#271=VERTEX_POINT('',#270);
#272=CARTESIAN_POINT('',(0.850000000000000,-0.650000000000000,0.200000000000000));
#273=DIRECTION('',(-1.0,0.0,0.0));
#274=VECTOR('',#273,1.700000000000000);
#275=LINE('',#272,#274);
#276=EDGE_CURVE('',#271,#231,#275,.T.);
#277=ORIENTED_EDGE('',*,*,#276,.T.);
#278=ORIENTED_EDGE('',*,*,#260,.F.);
#279=CARTESIAN_POINT('',(0.840000000000000,-0.640000000000000,0.0));
#280=VERTEX_POINT('',#279);
#281=CARTESIAN_POINT('',(-0.840000000000000,-0.640000000000000,1.017854E-030));
#282=DIRECTION('',(1.0,0.0,0.0));
#283=VECTOR('',#282,1.680000000000001);
#284=LINE('',#281,#283);
#285=EDGE_CURVE('',#249,#280,#284,.T.);
#286=ORIENTED_EDGE('',*,*,#285,.T.);
#287=CARTESIAN_POINT('',(0.850000000000000,-0.650000000000000,0.200000000000000));
#288=DIRECTION('',(-0.049875466805381,0.049875466805382,-0.997509336107633));
#289=VECTOR('',#288,0.200499376557634);
#290=LINE('',#287,#289);
#291=EDGE_CURVE('',#271,#280,#290,.T.);
#292=ORIENTED_EDGE('',*,*,#291,.F.);
#293=EDGE_LOOP('',(#277,#278,#286,#292));
#294=FACE_OUTER_BOUND('',#293,.T.);
#295=ADVANCED_FACE('',(#294),#269,.T.);
#296=CARTESIAN_POINT('',(-0.425000000000000,0.645000000000000,0.100000000000000));
#297=DIRECTION('',(-4.018118E-032,0.998752338877845,-0.049937616943892));
#298=DIRECTION('',(0.0,0.049937616943892,0.998752338877845));
#299=AXIS2_PLACEMENT_3D('',#296,#297,#298);
#300=PLANE('',#299);
#301=CARTESIAN_POINT('',(0.850000000000000,0.650000000000000,0.200000000000000));
#302=VERTEX_POINT('',#301);
#303=CARTESIAN_POINT('',(-0.850000000000000,0.650000000000000,0.200000000000000));
#304=DIRECTION('',(1.0,0.0,0.0));
#305=VECTOR('',#304,1.700000000000000);
#306=LINE('',#303,#305);
#307=EDGE_CURVE('',#233,#302,#306,.T.);
#308=ORIENTED_EDGE('',*,*,#307,.T.);
#309=CARTESIAN_POINT('',(0.840000000000000,0.640000000000000,0.0));
#310=VERTEX_POINT('',#309);
#311=CARTESIAN_POINT('',(0.850000000000000,0.650000000000000,0.200000000000000));
#312=DIRECTION('',(-0.049875466805381,-0.049875466805382,-0.997509336107633));
#313=VECTOR('',#312,0.200499376557634);
#314=LINE('',#311,#313);
#315=EDGE_CURVE('',#302,#310,#314,.T.);
#316=ORIENTED_EDGE('',*,*,#315,.T.);
#317=CARTESIAN_POINT('',(0.840000000000000,0.640000000000000,-1.017854E-030));
#318=DIRECTION('',(-1.0,0.0,0.0));
#319=VECTOR('',#318,1.680000000000001);
#320=LINE('',#317,#319);
#321=EDGE_CURVE('',#310,#241,#320,.T.);
#322=ORIENTED_EDGE('',*,*,#321,.T.);
#323=ORIENTED_EDGE('',*,*,#246,.F.);
#324=EDGE_LOOP('',(#308,#316,#322,#323));
#325=FACE_OUTER_BOUND('',#324,.T.);
#326=ADVANCED_FACE('',(#325),#300,.T.);
#327=CARTESIAN_POINT('',(0.845000000000000,0.325000000000000,0.100000000000000));
#328=DIRECTION('',(0.998752338877845,9.567521E-033,-0.049937616943891));
#329=DIRECTION('',(-0.049937616943891,0.0,-0.998752338877845));
#330=AXIS2_PLACEMENT_3D('',#327,#328,#329);
#331=PLANE('',#330);
#332=CARTESIAN_POINT('',(0.850000000000000,0.650000000000000,0.200000000000000));
#333=DIRECTION('',(0.0,-1.0,0.0));
#334=VECTOR('',#333,1.300000000000000);
#335=LINE('',#332,#334);
#336=EDGE_CURVE('',#302,#271,#335,.T.);
#337=ORIENTED_EDGE('',*,*,#336,.T.);
#338=ORIENTED_EDGE('',*,*,#291,.T.);
#339=CARTESIAN_POINT('',(0.840000000000000,-0.640000000000000,-1.848838E-031));
#340=DIRECTION('',(0.0,1.0,0.0));
#341=VECTOR('',#340,1.280000000000000);
#342=LINE('',#339,#341);
#343=EDGE_CURVE('',#280,#310,#342,.T.);
#344=ORIENTED_EDGE('',*,*,#343,.T.);
#345=ORIENTED_EDGE('',*,*,#315,.F.);
#346=EDGE_LOOP('',(#337,#338,#344,#345));
#347=FACE_OUTER_BOUND('',#346,.T.);
#348=ADVANCED_FACE('',(#347),#331,.T.);
#349=CARTESIAN_POINT('',(4.440892E-016,-1.110223E-016,0.0));
#350=DIRECTION('',(0.0,0.0,1.0));
#351=DIRECTION('',(1.0,0.0,0.0));
#352=AXIS2_PLACEMENT_3D('',#349,#350,#351);
#353=PLANE('',#352);
#354=ORIENTED_EDGE('',*,*,#254,.F.);
#355=ORIENTED_EDGE('',*,*,#321,.F.);
#356=ORIENTED_EDGE('',*,*,#343,.F.);
#357=ORIENTED_EDGE('',*,*,#285,.F.);
#358=EDGE_LOOP('',(#354,#355,#356,#357));
#359=FACE_OUTER_BOUND('',#358,.T.);
#360=ADVANCED_FACE('',(#359),#353,.F.);
#361=CARTESIAN_POINT('',(4.440892E-016,-1.110223E-016,0.200000000000000));
#362=DIRECTION('',(0.0,0.0,1.0));
#363=DIRECTION('',(1.0,0.0,0.0));
#364=AXIS2_PLACEMENT_3D('',#361,#362,#363);
#365=PLANE('',#364);
#366=ORIENTED_EDGE('',*,*,#307,.F.);
#367=ORIENTED_EDGE('',*,*,#238,.F.);
#368=ORIENTED_EDGE('',*,*,#276,.F.);
#369=ORIENTED_EDGE('',*,*,#336,.F.);
#370=EDGE_LOOP('',(#366,#367,#368,#369));
#371=FACE_OUTER_BOUND('',#370,.T.);
#372=ADVANCED_FACE('',(#371),#365,.T.);
#373=CLOSED_SHELL('',(#264,#295,#326,#348,#360,#372));
#374=MANIFOLD_SOLID_BREP('8EC',#373);
#375=COLOUR_RGB('250',0.330000000000000,0.330000000000000,0.330000000000000);
#376=SURFACE_STYLE_USAGE(.BOTH.,#377);
#377=SURFACE_SIDE_STYLE('NONE',(#378));
#378=SURFACE_STYLE_FILL_AREA(#379);
#379=FILL_AREA_STYLE('NONE',(#380));
#380=FILL_AREA_STYLE_COLOUR('NONE',#375);
#381=PRESENTATION_STYLE_ASSIGNMENT((#376));
#382=STYLED_ITEM('NONE',(#381),#374);
#383=CARTESIAN_POINT('',(-0.570000000000000,0.580000000000000,1.000000000000000));
#384=DIRECTION('',(-1.0,0.0,0.0));
#385=DIRECTION('',(0.0,0.0,1.0));
#386=AXIS2_PLACEMENT_3D('',#383,#384,#385);
#387=PLANE('',#386);
#388=CARTESIAN_POINT('',(-0.570000000000000,0.580000000000000,0.980000000000000));
#389=VERTEX_POINT('',#388);
#390=CARTESIAN_POINT('',(-0.570000000000000,-0.580000000000000,0.980000000000000));
#391=VERTEX_POINT('',#390);
#392=CARTESIAN_POINT('',(-0.570000000000000,0.580000000000000,0.980000000000000));
#393=DIRECTION('',(0.0,-1.0,0.0));
#394=VECTOR('',#393,1.160000000000000);
#395=LINE('',#392,#394);
#396=EDGE_CURVE('',#389,#391,#395,.T.);
#397=ORIENTED_EDGE('',*,*,#396,.F.);
#398=CARTESIAN_POINT('',(-0.570000000000000,0.580000000000000,1.000000000000000));
#399=VERTEX_POINT('',#398);
#400=CARTESIAN_POINT('',(-0.570000000000000,0.580000000000000,1.000000000000000));
#401=DIRECTION('',(0.0,0.0,-1.0));
#402=VECTOR('',#401,0.020000000000000);
#403=LINE('',#400,#402);
#404=EDGE_CURVE('',#399,#389,#403,.T.);
#405=ORIENTED_EDGE('',*,*,#404,.F.);
#406=CARTESIAN_POINT('',(-0.570000000000000,-0.580000000000000,1.000000000000000));
#407=VERTEX_POINT('',#406);
#408=CARTESIAN_POINT('',(-0.570000000000000,-0.580000000000000,1.000000000000000));
#409=DIRECTION('',(0.0,1.0,0.0));
#410=VECTOR('',#409,1.160000000000000);
#411=LINE('',#408,#410);
#412=EDGE_CURVE('',#407,#399,#411,.T.);
#413=ORIENTED_EDGE('',*,*,#412,.F.);
#414=CARTESIAN_POINT('',(-0.570000000000000,-0.580000000000000,1.000000000000000));
#415=DIRECTION('',(0.0,0.0,-1.0));
#416=VECTOR('',#415,0.020000000000000);
#417=LINE('',#414,#416);
#418=EDGE_CURVE('',#407,#391,#417,.T.);
#419=ORIENTED_EDGE('',*,*,#418,.T.);
#420=EDGE_LOOP('',(#397,#405,#413,#419));
#421=FACE_OUTER_BOUND('',#420,.T.);
#422=ADVANCED_FACE('',(#421),#387,.F.);
#423=CARTESIAN_POINT('',(-0.370000000000000,-0.710000000000000,1.000000000000000));
#424=DIRECTION('',(1.0,0.0,0.0));
#425=DIRECTION('',(0.0,0.0,-1.0));
#426=AXIS2_PLACEMENT_3D('',#423,#424,#425);
#427=PLANE('',#426);
#428=CARTESIAN_POINT('',(-0.370000000000000,-0.580000000000000,0.980000000000000));
#429=VERTEX_POINT('',#428);
#430=CARTESIAN_POINT('',(-0.370000000000000,0.580000000000000,0.980000000000000));
#431=VERTEX_POINT('',#430);
#432=CARTESIAN_POINT('',(-0.370000000000000,-0.580000000000000,0.980000000000000));
#433=DIRECTION('',(0.0,1.0,0.0));
#434=VECTOR('',#433,1.160000000000000);
#435=LINE('',#432,#434);
#436=EDGE_CURVE('',#429,#431,#435,.T.);
#437=ORIENTED_EDGE('',*,*,#436,.F.);
#438=CARTESIAN_POINT('',(-0.370000000000000,-0.580000000000000,1.000000000000000));
#439=VERTEX_POINT('',#438);
#440=CARTESIAN_POINT('',(-0.370000000000000,-0.580000000000000,1.000000000000000));
#441=DIRECTION('',(0.0,0.0,-1.0));
#442=VECTOR('',#441,0.020000000000000);
#443=LINE('',#440,#442);
#444=EDGE_CURVE('',#439,#429,#443,.T.);
#445=ORIENTED_EDGE('',*,*,#444,.F.);
#446=CARTESIAN_POINT('',(-0.370000000000000,0.580000000000000,1.000000000000000));
#447=VERTEX_POINT('',#446);
#448=CARTESIAN_POINT('',(-0.370000000000000,0.580000000000000,1.000000000000000));
#449=DIRECTION('',(0.0,-1.0,0.0));
#450=VECTOR('',#449,1.160000000000000);
#451=LINE('',#448,#450);
#452=EDGE_CURVE('',#447,#439,#451,.T.);
#453=ORIENTED_EDGE('',*,*,#452,.F.);
#454=CARTESIAN_POINT('',(-0.370000000000000,0.580000000000000,1.000000000000000));
#455=DIRECTION('',(0.0,0.0,-1.0));
#456=VECTOR('',#455,0.020000000000000);
#457=LINE('',#454,#456);
#458=EDGE_CURVE('',#447,#431,#457,.T.);
#459=ORIENTED_EDGE('',*,*,#458,.T.);
#460=EDGE_LOOP('',(#437,#445,#453,#459));
#461=FACE_OUTER_BOUND('',#460,.T.);
#462=ADVANCED_FACE('',(#461),#427,.F.);
#463=CARTESIAN_POINT('',(-0.470000000000000,-0.065000000000000,0.980000000000000));
#464=DIRECTION('',(0.0,0.0,1.0));
#465=DIRECTION('',(1.0,0.0,0.0));
#466=AXIS2_PLACEMENT_3D('',#463,#464,#465);
#467=PLANE('',#466);
#468=CARTESIAN_POINT('',(-0.370000000000000,0.580000000000000,0.980000000000000));
#469=DIRECTION('',(-1.0,0.0,0.0));
#470=VECTOR('',#469,0.200000000000000);
#471=LINE('',#468,#470);
#472=EDGE_CURVE('',#431,#389,#471,.T.);
#473=ORIENTED_EDGE('',*,*,#472,.T.);
#474=ORIENTED_EDGE('',*,*,#396,.T.);
#475=CARTESIAN_POINT('',(-0.570000000000000,-0.580000000000000,0.980000000000000));
#476=DIRECTION('',(1.0,0.0,0.0));
#477=VECTOR('',#476,0.200000000000000);
#478=LINE('',#475,#477);
#479=EDGE_CURVE('',#391,#429,#478,.T.);
#480=ORIENTED_EDGE('',*,*,#479,.T.);
#481=ORIENTED_EDGE('',*,*,#436,.T.);
#482=EDGE_LOOP('',(#473,#474,#480,#481));
#483=FACE_OUTER_BOUND('',#482,.T.);
#484=ADVANCED_FACE('',(#483),#467,.T.);
#485=CARTESIAN_POINT('',(-0.370000000000000,0.580000000000000,1.000000000000000));
#486=DIRECTION('',(0.0,1.0,0.0));
#487=DIRECTION('',(0.0,0.0,1.0));
#488=AXIS2_PLACEMENT_3D('',#485,#486,#487);
#489=PLANE('',#488);
#490=ORIENTED_EDGE('',*,*,#472,.F.);
#491=ORIENTED_EDGE('',*,*,#458,.F.);
#492=CARTESIAN_POINT('',(-0.570000000000000,0.580000000000000,1.000000000000000));
#493=DIRECTION('',(1.0,0.0,0.0));
#494=VECTOR('',#493,0.200000000000000);
#495=LINE('',#492,#494);
#496=EDGE_CURVE('',#399,#447,#495,.T.);
#497=ORIENTED_EDGE('',*,*,#496,.F.);
#498=ORIENTED_EDGE('',*,*,#404,.T.);
#499=EDGE_LOOP('',(#490,#491,#497,#498));
#500=FACE_OUTER_BOUND('',#499,.T.);
#501=ADVANCED_FACE('',(#500),#489,.F.);
#502=CARTESIAN_POINT('',(-0.570000000000000,-0.580000000000000,1.000000000000000));
#503=DIRECTION('',(0.0,-1.0,0.0));
#504=DIRECTION('',(0.0,0.0,-1.0));
#505=AXIS2_PLACEMENT_3D('',#502,#503,#504);
#506=PLANE('',#505);
#507=ORIENTED_EDGE('',*,*,#479,.F.);
#508=ORIENTED_EDGE('',*,*,#418,.F.);
#509=CARTESIAN_POINT('',(-0.370000000000000,-0.580000000000000,1.000000000000000));
#510=DIRECTION('',(-1.0,0.0,0.0));
#511=VECTOR('',#510,0.200000000000000);
#512=LINE('',#509,#511);
#513=EDGE_CURVE('',#439,#407,#512,.T.);
#514=ORIENTED_EDGE('',*,*,#513,.F.);
#515=ORIENTED_EDGE('',*,*,#444,.T.);
#516=EDGE_LOOP('',(#507,#508,#514,#515));
#517=FACE_OUTER_BOUND('',#516,.T.);
#518=ADVANCED_FACE('',(#517),#506,.F.);
#519=CARTESIAN_POINT('',(4.440892E-016,1.110223E-016,1.000000000000000));
#520=DIRECTION('',(0.0,0.0,1.0));
#521=DIRECTION('',(1.0,0.0,0.0));
#522=AXIS2_PLACEMENT_3D('',#519,#520,#521);
#523=PLANE('',#522);
#524=ORIENTED_EDGE('',*,*,#412,.T.);
#525=CARTESIAN_POINT('',(-0.780000000000001,0.580000000000000,1.000000000000000));
#526=VERTEX_POINT('',#525);
#527=CARTESIAN_POINT('',(-0.780000000000001,0.580000000000000,1.000000000000000));
#528=DIRECTION('',(1.0,0.0,0.0));
#529=VECTOR('',#528,0.210000000000001);
#530=LINE('',#527,#529);
#531=EDGE_CURVE('',#526,#399,#530,.T.);
#532=ORIENTED_EDGE('',*,*,#531,.F.);
#533=CARTESIAN_POINT('',(-0.780000000000001,-0.580000000000000,1.000000000000000));
#534=VERTEX_POINT('',#533);
#535=CARTESIAN_POINT('',(-0.780000000000001,-0.580000000000000,1.000000000000000));
#536=DIRECTION('',(0.0,1.0,0.0));
#537=VECTOR('',#536,1.160000000000000);
#538=LINE('',#535,#537);
#539=EDGE_CURVE('',#534,#526,#538,.T.);
#540=ORIENTED_EDGE('',*,*,#539,.F.);
#541=CARTESIAN_POINT('',(-0.570000000000000,-0.580000000000000,1.000000000000000));
#542=DIRECTION('',(-1.0,0.0,0.0));
#543=VECTOR('',#542,0.210000000000001);
#544=LINE('',#541,#543);
#545=EDGE_CURVE('',#407,#534,#544,.T.);
#546=ORIENTED_EDGE('',*,*,#545,.F.);
#547=EDGE_LOOP('',(#524,#532,#540,#546));
#548=FACE_OUTER_BOUND('',#547,.T.);
#549=ADVANCED_FACE('',(#548),#523,.T.);
#550=CARTESIAN_POINT('',(4.440892E-016,1.110223E-016,1.000000000000000));
#551=DIRECTION('',(0.0,0.0,1.0));
#552=DIRECTION('',(1.0,0.0,0.0));
#553=AXIS2_PLACEMENT_3D('',#550,#551,#552);
#554=PLANE('',#553);
#555=ORIENTED_EDGE('',*,*,#452,.T.);
#556=CARTESIAN_POINT('',(0.780000000000000,-0.580000000000000,1.000000000000000));
#557=VERTEX_POINT('',#556);
#558=CARTESIAN_POINT('',(0.780000000000000,-0.580000000000000,1.000000000000000));
#559=DIRECTION('',(-1.0,0.0,0.0));
#560=VECTOR('',#559,1.150000000000000);
#561=LINE('',#558,#560);
#562=EDGE_CURVE('',#557,#439,#561,.T.);
#563=ORIENTED_EDGE('',*,*,#562,.F.);
#564=CARTESIAN_POINT('',(0.780000000000000,0.580000000000000,1.000000000000000));
#565=VERTEX_POINT('',#564);
#566=CARTESIAN_POINT('',(0.780000000000000,0.580000000000000,1.000000000000000));
#567=DIRECTION('',(0.0,-1.0,0.0));
#568=VECTOR('',#567,1.160000000000000);
#569=LINE('',#566,#568);
#570=EDGE_CURVE('',#565,#557,#569,.T.);
#571=ORIENTED_EDGE('',*,*,#570,.F.);
#572=CARTESIAN_POINT('',(-0.370000000000000,0.580000000000000,1.000000000000000));
#573=DIRECTION('',(1.0,0.0,0.0));
#574=VECTOR('',#573,1.150000000000000);
#575=LINE('',#572,#574);
#576=EDGE_CURVE('',#447,#565,#575,.T.);
#577=ORIENTED_EDGE('',*,*,#576,.F.);
#578=EDGE_LOOP('',(#555,#563,#571,#577));
#579=FACE_OUTER_BOUND('',#578,.T.);
#580=ADVANCED_FACE('',(#579),#554,.T.);
#581=CARTESIAN_POINT('',(-0.815000000000000,-0.325000000000000,0.600000000000000));
#582=DIRECTION('',(-0.996193717496113,4.858260E-032,0.087166950280909));
#583=DIRECTION('',(0.087166950280909,0.0,0.996193717496113));
#584=AXIS2_PLACEMENT_3D('',#581,#582,#583);
#585=PLANE('',#584);
#586=ORIENTED_EDGE('',*,*,#539,.T.);
#587=CARTESIAN_POINT('',(-0.850000000000000,0.650000000000000,0.200000000000000));
#588=VERTEX_POINT('',#587);
#589=CARTESIAN_POINT('',(-0.780000000000001,0.580000000000000,1.000000000000000));
#590=DIRECTION('',(-0.086837674882558,0.086837674882559,-0.992430570086382));
#591=VECTOR('',#590,0.806101730552663);
#592=LINE('',#589,#591);
#593=EDGE_CURVE('',#526,#588,#592,.T.);
#594=ORIENTED_EDGE('',*,*,#593,.T.);
#595=CARTESIAN_POINT('',(-0.850000000000000,-0.650000000000000,0.200000000000000));
#596=VERTEX_POINT('',#595);
#597=CARTESIAN_POINT('',(-0.850000000000000,-0.650000000000000,0.200000000000000));
#598=DIRECTION('',(0.0,1.0,0.0));
#599=VECTOR('',#598,1.300000000000000);
#600=LINE('',#597,#599);
#601=EDGE_CURVE('',#596,#588,#600,.T.);
#602=ORIENTED_EDGE('',*,*,#601,.F.);
#603=CARTESIAN_POINT('',(-0.780000000000001,-0.580000000000000,1.000000000000000));
#604=DIRECTION('',(-0.086837674882558,-0.086837674882559,-0.992430570086382));
#605=VECTOR('',#604,0.806101730552663);
#606=LINE('',#603,#605);
#607=EDGE_CURVE('',#534,#596,#606,.T.);
#608=ORIENTED_EDGE('',*,*,#607,.F.);
#609=EDGE_LOOP('',(#586,#594,#602,#608));
#610=FACE_OUTER_BOUND('',#609,.T.);
#611=ADVANCED_FACE('',(#610),#585,.T.);
#612=CARTESIAN_POINT('',(-0.425000000000000,0.615000000000000,0.600000000000000));
#613=DIRECTION('',(-2.805477E-031,0.996193717496113,0.087166950280910));
#614=DIRECTION('',(0.0,-0.087166950280910,0.996193717496113));
#615=AXIS2_PLACEMENT_3D('',#612,#613,#614);
#616=PLANE('',#615);
#617=ORIENTED_EDGE('',*,*,#531,.T.);
#618=ORIENTED_EDGE('',*,*,#496,.T.);
#619=ORIENTED_EDGE('',*,*,#576,.T.);
#620=CARTESIAN_POINT('',(0.850000000000000,0.650000000000000,0.200000000000000));
#621=VERTEX_POINT('',#620);
#622=CARTESIAN_POINT('',(0.780000000000000,0.580000000000000,1.000000000000000));
#623=DIRECTION('',(0.086837674882559,0.086837674882559,-0.992430570086382));
#624=VECTOR('',#623,0.806101730552664);
#625=LINE('',#622,#624);
#626=EDGE_CURVE('',#565,#621,#625,.T.);
#627=ORIENTED_EDGE('',*,*,#626,.T.);
#628=CARTESIAN_POINT('',(-0.850000000000000,0.650000000000000,0.200000000000000));
#629=DIRECTION('',(1.0,0.0,0.0));
#630=VECTOR('',#629,1.700000000000000);
#631=LINE('',#628,#630);
#632=EDGE_CURVE('',#588,#621,#631,.T.);
#633=ORIENTED_EDGE('',*,*,#632,.F.);
#634=ORIENTED_EDGE('',*,*,#593,.F.);
#635=EDGE_LOOP('',(#617,#618,#619,#627,#633,#634));
#636=FACE_OUTER_BOUND('',#635,.T.);
#637=ADVANCED_FACE('',(#636),#616,.T.);
#638=CARTESIAN_POINT('',(0.815000000000000,0.325000000000000,0.600000000000000));
#639=DIRECTION('',(0.996193717496113,4.858260E-032,0.087166950280910));
#640=DIRECTION('',(0.087166950280910,0.0,-0.996193717496113));
#641=AXIS2_PLACEMENT_3D('',#638,#639,#640);
#642=PLANE('',#641);
#643=ORIENTED_EDGE('',*,*,#570,.T.);
#644=CARTESIAN_POINT('',(0.850000000000000,-0.650000000000000,0.200000000000000));
#645=VERTEX_POINT('',#644);
#646=CARTESIAN_POINT('',(0.780000000000000,-0.580000000000000,1.000000000000000));
#647=DIRECTION('',(0.086837674882559,-0.086837674882559,-0.992430570086382));
#648=VECTOR('',#647,0.806101730552664);
#649=LINE('',#646,#648);
#650=EDGE_CURVE('',#557,#645,#649,.T.);
#651=ORIENTED_EDGE('',*,*,#650,.T.);
#652=CARTESIAN_POINT('',(0.850000000000000,0.650000000000000,0.200000000000000));
#653=DIRECTION('',(0.0,-1.0,0.0));
#654=VECTOR('',#653,1.300000000000000);
#655=LINE('',#652,#654);
#656=EDGE_CURVE('',#621,#645,#655,.T.);
#657=ORIENTED_EDGE('',*,*,#656,.F.);
#658=ORIENTED_EDGE('',*,*,#626,.F.);
#659=EDGE_LOOP('',(#643,#651,#657,#658));
#660=FACE_OUTER_BOUND('',#659,.T.);
#661=ADVANCED_FACE('',(#660),#642,.T.);
#662=CARTESIAN_POINT('',(0.425000000000000,-0.615000000000000,0.600000000000000));
#663=DIRECTION('',(-2.805477E-031,-0.996193717496113,0.087166950280910));
#664=DIRECTION('',(0.0,-0.087166950280910,-0.996193717496113));
#665=AXIS2_PLACEMENT_3D('',#662,#663,#664);
#666=PLANE('',#665);
#667=ORIENTED_EDGE('',*,*,#562,.T.);
#668=ORIENTED_EDGE('',*,*,#513,.T.);
#669=ORIENTED_EDGE('',*,*,#545,.T.);
#670=ORIENTED_EDGE('',*,*,#607,.T.);
#671=CARTESIAN_POINT('',(0.850000000000000,-0.650000000000000,0.200000000000000));
#672=DIRECTION('',(-1.0,0.0,0.0));
#673=VECTOR('',#672,1.700000000000000);
#674=LINE('',#671,#673);
#675=EDGE_CURVE('',#645,#596,#674,.T.);
#676=ORIENTED_EDGE('',*,*,#675,.F.);
#677=ORIENTED_EDGE('',*,*,#650,.F.);
#678=EDGE_LOOP('',(#667,#668,#669,#670,#676,#677));
#679=FACE_OUTER_BOUND('',#678,.T.);
#680=ADVANCED_FACE('',(#679),#666,.T.);
#681=CARTESIAN_POINT('',(4.440892E-016,1.110223E-016,0.200000000000000));
#682=DIRECTION('',(0.0,0.0,1.0));
#683=DIRECTION('',(1.0,0.0,0.0));
#684=AXIS2_PLACEMENT_3D('',#681,#682,#683);
#685=PLANE('',#684);
#686=ORIENTED_EDGE('',*,*,#601,.T.);
#687=ORIENTED_EDGE('',*,*,#632,.T.);
#688=ORIENTED_EDGE('',*,*,#656,.T.);
#689=ORIENTED_EDGE('',*,*,#675,.T.);
#690=EDGE_LOOP('',(#686,#687,#688,#689));
#691=FACE_OUTER_BOUND('',#690,.T.);
#692=ADVANCED_FACE('',(#691),#685,.F.);
#693=CLOSED_SHELL('',(#422,#462,#484,#501,#518,#549,#580,#611,#637,#661,#680,#692));
#694=MANIFOLD_SOLID_BREP('8E8',#693);
#695=STYLED_ITEM('NONE',(#381),#694);
#696=CARTESIAN_POINT('',(0.845000000000000,0.325000000000000,0.100000000000000));
#697=DIRECTION('',(0.998752338877845,9.567521E-033,-0.049937616943891));
#698=DIRECTION('',(-0.049937616943891,0.0,-0.998752338877845));
#699=AXIS2_PLACEMENT_3D('',#696,#697,#698);
#700=PLANE('',#699);
#701=CARTESIAN_POINT('',(0.840000000000000,0.200000000000000,8.326673E-017));
#702=VERTEX_POINT('',#701);
#703=CARTESIAN_POINT('',(0.850000000000000,0.200000000000000,0.200000000000000));
#704=VERTEX_POINT('',#703);
#705=CARTESIAN_POINT('',(0.840000000000000,0.200000000000000,8.239937E-017));
#706=DIRECTION('',(0.049937616943891,0.0,0.998752338877845));
#707=VECTOR('',#706,0.200249843945008);
#708=LINE('',#705,#707);
#709=EDGE_CURVE('',#702,#704,#708,.T.);
#710=ORIENTED_EDGE('',*,*,#709,.F.);
#711=CARTESIAN_POINT('',(0.840000000000000,-0.200000000000000,-1.005845E-031));
#712=VERTEX_POINT('',#711);
#713=CARTESIAN_POINT('',(0.840000000000000,-0.200000000000000,8.326673E-017));
#714=DIRECTION('',(0.0,1.0,0.0));
#715=VECTOR('',#714,0.400000000000000);
#716=LINE('',#713,#715);
#717=EDGE_CURVE('',#712,#702,#716,.T.);
#718=ORIENTED_EDGE('',*,*,#717,.F.);
#719=CARTESIAN_POINT('',(0.850000000000000,-0.200000000000000,0.200000000000000));
#720=VERTEX_POINT('',#719);
#721=CARTESIAN_POINT('',(0.850000000000000,-0.200000000000000,0.200000000000000));
#722=DIRECTION('',(-0.049937616943891,0.0,-0.998752338877845));
#723=VECTOR('',#722,0.200249843945008);
#724=LINE('',#721,#723);
#725=EDGE_CURVE('',#720,#712,#724,.T.);
#726=ORIENTED_EDGE('',*,*,#725,.F.);
#727=CARTESIAN_POINT('',(0.850000000000000,0.200000000000000,0.200000000000000));
#728=DIRECTION('',(0.0,-1.0,0.0));
#729=VECTOR('',#728,0.400000000000000);
#730=LINE('',#727,#729);
#731=EDGE_CURVE('',#704,#720,#730,.T.);
#732=ORIENTED_EDGE('',*,*,#731,.F.);
#733=EDGE_LOOP('',(#710,#718,#726,#732));
#734=FACE_OUTER_BOUND('',#733,.T.);
#735=ADVANCED_FACE('',(#734),#700,.F.);
#736=CARTESIAN_POINT('',(1.350000000000000,0.200000000000000,8.326673E-017));
#737=CARTESIAN_POINT('',(1.350000000000000,0.200000000000000,0.200000000000000));
#738=CARTESIAN_POINT('',(0.840000000000000,0.200000000000000,8.326673E-017));
#739=CARTESIAN_POINT('',(0.840000000000000,0.200000000000000,0.200000000000000));
#740=B_SPLINE_SURFACE_WITH_KNOTS('',1,1,((#736,#738),(#737,#739)),.UNSPECIFIED.,.F.,.F.,.U.,(2,2),(2,2),(0.0,0.200000000000000),(0.0,0.510000000000000),.UNSPECIFIED.);
#741=ORIENTED_EDGE('',*,*,#709,.T.);
#742=CARTESIAN_POINT('',(1.350000000000000,0.200000000000000,0.200000000000000));
#743=VERTEX_POINT('',#742);
#744=CARTESIAN_POINT('',(0.850000000000000,0.200000000000000,0.200000000000000));
#745=DIRECTION('',(1.0,0.0,0.0));
#746=VECTOR('',#745,0.500000000000000);
#747=LINE('',#744,#746);
#748=EDGE_CURVE('',#704,#743,#747,.T.);
#749=ORIENTED_EDGE('',*,*,#748,.T.);
#750=CARTESIAN_POINT('',(1.350000000000000,0.200000000000000,8.326673E-017));
#751=VERTEX_POINT('',#750);
#752=CARTESIAN_POINT('',(1.350000000000000,0.200000000000000,0.200000000000000));
#753=DIRECTION('',(0.0,0.0,-1.0));
#754=VECTOR('',#753,0.200000000000000);
#755=LINE('',#752,#754);
#756=EDGE_CURVE('',#743,#751,#755,.T.);
#757=ORIENTED_EDGE('',*,*,#756,.T.);
#758=CARTESIAN_POINT('',(1.350000000000000,0.200000000000000,8.326673E-017));
#759=DIRECTION('',(-1.0,0.0,0.0));
#760=VECTOR('',#759,0.510000000000000);
#761=LINE('',#758,#760);
#762=EDGE_CURVE('',#751,#702,#761,.T.);
#763=ORIENTED_EDGE('',*,*,#762,.T.);
#764=EDGE_LOOP('',(#741,#749,#757,#763));
#765=FACE_OUTER_BOUND('',#764,.T.);
#766=ADVANCED_FACE('',(#765),#740,.F.);
#767=CARTESIAN_POINT('',(0.840000000000000,-0.200000000000000,8.326673E-017));
#768=CARTESIAN_POINT('',(1.350000000000000,-0.200000000000000,8.326673E-017));
#769=CARTESIAN_POINT('',(0.840000000000000,0.200000000000000,8.326673E-017));
#770=CARTESIAN_POINT('',(1.350000000000000,0.200000000000000,8.326673E-017));
#771=B_SPLINE_SURFACE_WITH_KNOTS('',1,1,((#767,#769),(#768,#770)),.UNSPECIFIED.,.F.,.F.,.U.,(2,2),(2,2),(0.0,0.510000000000000),(0.0,0.400000000000000),.UNSPECIFIED.);
#772=ORIENTED_EDGE('',*,*,#717,.T.);
#773=ORIENTED_EDGE('',*,*,#762,.F.);
#774=CARTESIAN_POINT('',(1.350000000000000,-0.200000000000000,8.326673E-017));
#775=VERTEX_POINT('',#774);
#776=CARTESIAN_POINT('',(1.350000000000000,-0.200000000000000,8.326673E-017));
#777=DIRECTION('',(0.0,1.0,0.0));
#778=VECTOR('',#777,0.400000000000000);
#779=LINE('',#776,#778);
#780=EDGE_CURVE('',#775,#751,#779,.T.);
#781=ORIENTED_EDGE('',*,*,#780,.F.);
#782=CARTESIAN_POINT('',(0.840000000000000,-0.200000000000000,8.326673E-017));
#783=DIRECTION('',(1.0,0.0,0.0));
#784=VECTOR('',#783,0.510000000000000);
#785=LINE('',#782,#784);
#786=EDGE_CURVE('',#712,#775,#785,.T.);
#787=ORIENTED_EDGE('',*,*,#786,.F.);
#788=EDGE_LOOP('',(#772,#773,#781,#787));
#789=FACE_OUTER_BOUND('',#788,.T.);
#790=ADVANCED_FACE('',(#789),#771,.F.);
#791=CARTESIAN_POINT('',(0.850000000000000,-0.200000000000000,0.200000000000000));
#792=CARTESIAN_POINT('',(1.350000000000000,-0.200000000000000,0.200000000000000));
#793=CARTESIAN_POINT('',(0.850000000000000,0.200000000000000,0.200000000000000));
#794=CARTESIAN_POINT('',(1.350000000000000,0.200000000000000,0.200000000000000));
#795=B_SPLINE_SURFACE_WITH_KNOTS('',1,1,((#791,#793),(#792,#794)),.UNSPECIFIED.,.F.,.F.,.U.,(2,2),(2,2),(0.0,0.500000000000000),(0.0,0.400000000000000),.UNSPECIFIED.);
#796=ORIENTED_EDGE('',*,*,#731,.T.);
#797=CARTESIAN_POINT('',(1.350000000000000,-0.200000000000000,0.200000000000000));
#798=VERTEX_POINT('',#797);
#799=CARTESIAN_POINT('',(1.350000000000000,-0.200000000000000,0.200000000000000));
#800=DIRECTION('',(-1.0,0.0,0.0));
#801=VECTOR('',#800,0.500000000000000);
#802=LINE('',#799,#801);
#803=EDGE_CURVE('',#798,#720,#802,.T.);
#804=ORIENTED_EDGE('',*,*,#803,.F.);
#805=CARTESIAN_POINT('',(1.350000000000000,0.200000000000000,0.200000000000000));
#806=DIRECTION('',(0.0,-1.0,0.0));
#807=VECTOR('',#806,0.400000000000000);
#808=LINE('',#805,#807);
#809=EDGE_CURVE('',#743,#798,#808,.T.);
#810=ORIENTED_EDGE('',*,*,#809,.F.);
#811=ORIENTED_EDGE('',*,*,#748,.F.);
#812=EDGE_LOOP('',(#796,#804,#810,#811));
#813=FACE_OUTER_BOUND('',#812,.T.);
#814=ADVANCED_FACE('',(#813),#795,.T.);
#815=CARTESIAN_POINT('',(1.350000000000000,-0.200000000000000,0.200000000000000));
#816=CARTESIAN_POINT('',(1.350000000000000,-0.200000000000000,0.0));
#817=CARTESIAN_POINT('',(0.840000000000000,-0.200000000000000,0.200000000000000));
#818=CARTESIAN_POINT('',(0.840000000000000,-0.200000000000000,0.0));
#819=B_SPLINE_SURFACE_WITH_KNOTS('',1,1,((#815,#817),(#816,#818)),.UNSPECIFIED.,.F.,.F.,.U.,(2,2),(2,2),(0.0,0.200000000000000),(0.0,0.510000000000000),.UNSPECIFIED.);
#820=ORIENTED_EDGE('',*,*,#725,.T.);
#821=ORIENTED_EDGE('',*,*,#786,.T.);
#822=CARTESIAN_POINT('',(1.350000000000000,-0.200000000000000,0.200000000000000));
#823=DIRECTION('',(0.0,0.0,-1.0));
#824=VECTOR('',#823,0.200000000000000);
#825=LINE('',#822,#824);
#826=EDGE_CURVE('',#798,#775,#825,.T.);
#827=ORIENTED_EDGE('',*,*,#826,.F.);
#828=ORIENTED_EDGE('',*,*,#803,.T.);
#829=EDGE_LOOP('',(#820,#821,#827,#828));
#830=FACE_OUTER_BOUND('',#829,.T.);
#831=ADVANCED_FACE('',(#830),#819,.F.);
#832=CARTESIAN_POINT('',(1.350000000000000,-0.200000000000000,8.326673E-017));
#833=CARTESIAN_POINT('',(1.350000000000000,-0.200000000000000,0.200000000000000));
#834=CARTESIAN_POINT('',(1.350000000000000,0.200000000000000,8.326673E-017));
#835=CARTESIAN_POINT('',(1.350000000000000,0.200000000000000,0.200000000000000));
#836=B_SPLINE_SURFACE_WITH_KNOTS('',1,1,((#832,#834),(#833,#835)),.UNSPECIFIED.,.F.,.F.,.U.,(2,2),(2,2),(0.0,0.200000000000000),(0.0,0.400000000000000),.UNSPECIFIED.);
#837=ORIENTED_EDGE('',*,*,#756,.F.);
#838=ORIENTED_EDGE('',*,*,#809,.T.);
#839=ORIENTED_EDGE('',*,*,#826,.T.);
#840=ORIENTED_EDGE('',*,*,#780,.T.);
#841=EDGE_LOOP('',(#837,#838,#839,#840));
#842=FACE_OUTER_BOUND('',#841,.T.);
#843=ADVANCED_FACE('',(#842),#836,.F.);
#844=CLOSED_SHELL('',(#735,#766,#790,#814,#831,#843));
#845=MANIFOLD_SOLID_BREP('8CC',#844);
#846=COLOUR_RGB('254',0.866000000000000,0.866000000000000,0.866000000000000);
#847=SURFACE_STYLE_USAGE(.BOTH.,#848);
#848=SURFACE_SIDE_STYLE('NONE',(#849));
#849=SURFACE_STYLE_FILL_AREA(#850);
#850=FILL_AREA_STYLE('NONE',(#851));
#851=FILL_AREA_STYLE_COLOUR('NONE',#846);
#852=PRESENTATION_STYLE_ASSIGNMENT((#847));
#853=STYLED_ITEM('NONE',(#852),#845);
#854=CARTESIAN_POINT('',(-1.350000000000000,-0.200000000000000,0.200000000000000));
#855=CARTESIAN_POINT('',(-0.850000000000000,-0.200000000000000,0.200000000000000));
#856=CARTESIAN_POINT('',(-1.350000000000000,0.200000000000000,0.200000000000000));
#857=CARTESIAN_POINT('',(-0.850000000000000,0.200000000000000,0.200000000000000));
#858=B_SPLINE_SURFACE_WITH_KNOTS('',1,1,((#854,#856),(#855,#857)),.UNSPECIFIED.,.F.,.F.,.U.,(2,2),(2,2),(0.0,0.500000000000000),(0.0,0.400000000000000),.UNSPECIFIED.);
#859=CARTESIAN_POINT('',(-0.850000000000000,-0.200000000000000,0.200000000000000));
#860=VERTEX_POINT('',#859);
#861=CARTESIAN_POINT('',(-0.850000000000000,0.200000000000000,0.200000000000000));
#862=VERTEX_POINT('',#861);
#863=CARTESIAN_POINT('',(-0.850000000000000,-0.200000000000000,0.200000000000000));
#864=DIRECTION('',(0.0,1.0,0.0));
#865=VECTOR('',#864,0.400000000000000);
#866=LINE('',#863,#865);
#867=EDGE_CURVE('',#860,#862,#866,.T.);
#868=ORIENTED_EDGE('',*,*,#867,.T.);
#869=CARTESIAN_POINT('',(-1.350000000000000,0.200000000000000,0.200000000000000));
#870=VERTEX_POINT('',#869);
#871=CARTESIAN_POINT('',(-1.350000000000000,0.200000000000000,0.200000000000000));
#872=DIRECTION('',(1.0,0.0,0.0));
#873=VECTOR('',#872,0.500000000000000);
#874=LINE('',#871,#873);
#875=EDGE_CURVE('',#870,#862,#874,.T.);
#876=ORIENTED_EDGE('',*,*,#875,.F.);
#877=CARTESIAN_POINT('',(-1.350000000000000,-0.200000000000000,0.200000000000000));
#878=VERTEX_POINT('',#877);
#879=CARTESIAN_POINT('',(-1.350000000000000,-0.200000000000000,0.200000000000000));
#880=DIRECTION('',(0.0,1.0,0.0));
#881=VECTOR('',#880,0.400000000000000);
#882=LINE('',#879,#881);
#883=EDGE_CURVE('',#878,#870,#882,.T.);
#884=ORIENTED_EDGE('',*,*,#883,.F.);
#885=CARTESIAN_POINT('',(-0.850000000000000,-0.200000000000000,0.200000000000000));
#886=DIRECTION('',(-1.0,0.0,0.0));
#887=VECTOR('',#886,0.500000000000000);
#888=LINE('',#885,#887);
#889=EDGE_CURVE('',#860,#878,#888,.T.);
#890=ORIENTED_EDGE('',*,*,#889,.F.);
#891=EDGE_LOOP('',(#868,#876,#884,#890));
#892=FACE_OUTER_BOUND('',#891,.T.);
#893=ADVANCED_FACE('',(#892),#858,.T.);
#894=CARTESIAN_POINT('',(-0.840000000000000,0.200000000000000,8.326673E-017));
#895=CARTESIAN_POINT('',(-0.840000000000000,0.200000000000000,0.200000000000000));
#896=CARTESIAN_POINT('',(-1.350000000000000,0.200000000000000,8.326673E-017));
#897=CARTESIAN_POINT('',(-1.350000000000000,0.200000000000000,0.200000000000000));
#898=B_SPLINE_SURFACE_WITH_KNOTS('',1,1,((#894,#896),(#895,#897)),.UNSPECIFIED.,.F.,.F.,.U.,(2,2),(2,2),(0.0,0.200000000000000),(0.0,0.510000000000000),.UNSPECIFIED.);
#899=CARTESIAN_POINT('',(-0.840000000000000,0.200000000000000,8.326673E-017));
#900=VERTEX_POINT('',#899);
#901=CARTESIAN_POINT('',(-0.850000000000000,0.200000000000000,0.200000000000000));
#902=DIRECTION('',(0.049937616943891,0.0,-0.998752338877845));
#903=VECTOR('',#902,0.200249843945008);
#904=LINE('',#901,#903);
#905=EDGE_CURVE('',#862,#900,#904,.T.);
#906=ORIENTED_EDGE('',*,*,#905,.T.);
#907=CARTESIAN_POINT('',(-1.350000000000000,0.200000000000000,8.326673E-017));
#908=VERTEX_POINT('',#907);
#909=CARTESIAN_POINT('',(-0.840000000000000,0.200000000000000,8.326673E-017));
#910=DIRECTION('',(-1.0,0.0,0.0));
#911=VECTOR('',#910,0.510000000000000);
#912=LINE('',#909,#911);
#913=EDGE_CURVE('',#900,#908,#912,.T.);
#914=ORIENTED_EDGE('',*,*,#913,.T.);
#915=CARTESIAN_POINT('',(-1.350000000000000,0.200000000000000,0.200000000000000));
#916=DIRECTION('',(0.0,0.0,-1.0));
#917=VECTOR('',#916,0.200000000000000);
#918=LINE('',#915,#917);
#919=EDGE_CURVE('',#870,#908,#918,.T.);
#920=ORIENTED_EDGE('',*,*,#919,.F.);
#921=ORIENTED_EDGE('',*,*,#875,.T.);
#922=EDGE_LOOP('',(#906,#914,#920,#921));
#923=FACE_OUTER_BOUND('',#922,.T.);
#924=ADVANCED_FACE('',(#923),#898,.F.);
#925=CARTESIAN_POINT('',(-1.350000000000000,-0.200000000000000,0.200000000000000));
#926=CARTESIAN_POINT('',(-1.350000000000000,-0.200000000000000,1.110223E-016));
#927=CARTESIAN_POINT('',(-1.350000000000000,0.200000000000000,0.200000000000000));
#928=CARTESIAN_POINT('',(-1.350000000000000,0.200000000000000,1.110223E-016));
#929=B_SPLINE_SURFACE_WITH_KNOTS('',1,1,((#925,#927),(#926,#928)),.UNSPECIFIED.,.F.,.F.,.U.,(2,2),(2,2),(0.0,0.200000000000000),(0.0,0.400000000000000),.UNSPECIFIED.);
#930=CARTESIAN_POINT('',(-1.350000000000000,-0.200000000000000,8.326673E-017));
#931=VERTEX_POINT('',#930);
#932=CARTESIAN_POINT('',(-1.350000000000000,-0.200000000000000,0.200000000000000));
#933=DIRECTION('',(0.0,0.0,-1.0));
#934=VECTOR('',#933,0.200000000000000);
#935=LINE('',#932,#934);
#936=EDGE_CURVE('',#878,#931,#935,.T.);
#937=ORIENTED_EDGE('',*,*,#936,.F.);
#938=ORIENTED_EDGE('',*,*,#883,.T.);
#939=ORIENTED_EDGE('',*,*,#919,.T.);
#940=CARTESIAN_POINT('',(-1.350000000000000,0.200000000000000,8.326673E-017));
#941=DIRECTION('',(0.0,-1.0,0.0));
#942=VECTOR('',#941,0.400000000000000);
#943=LINE('',#940,#942);
#944=EDGE_CURVE('',#908,#931,#943,.T.);
#945=ORIENTED_EDGE('',*,*,#944,.T.);
#946=EDGE_LOOP('',(#937,#938,#939,#945));
#947=FACE_OUTER_BOUND('',#946,.T.);
#948=ADVANCED_FACE('',(#947),#929,.F.);
#949=CARTESIAN_POINT('',(-0.840000000000000,-0.200000000000000,0.200000000000000));
#950=CARTESIAN_POINT('',(-0.840000000000000,-0.200000000000000,0.0));
#951=CARTESIAN_POINT('',(-1.350000000000000,-0.200000000000000,0.200000000000000));
#952=CARTESIAN_POINT('',(-1.350000000000000,-0.200000000000000,0.0));
#953=B_SPLINE_SURFACE_WITH_KNOTS('',1,1,((#949,#951),(#950,#952)),.UNSPECIFIED.,.F.,.F.,.U.,(2,2),(2,2),(0.0,0.200000000000000),(0.0,0.510000000000000),.UNSPECIFIED.);
#954=CARTESIAN_POINT('',(-0.840000000000000,-0.200000000000000,2.394868E-032));
#955=VERTEX_POINT('',#954);
#956=CARTESIAN_POINT('',(-0.840000000000000,-0.200000000000000,-6.938894E-018));
#957=DIRECTION('',(-0.049937616943891,0.0,0.998752338877845));
#958=VECTOR('',#957,0.200249843945008);
#959=LINE('',#956,#958);
#960=EDGE_CURVE('',#955,#860,#959,.T.);
#961=ORIENTED_EDGE('',*,*,#960,.T.);
#962=ORIENTED_EDGE('',*,*,#889,.T.);
#963=ORIENTED_EDGE('',*,*,#936,.T.);
#964=CARTESIAN_POINT('',(-1.350000000000000,-0.200000000000000,8.326673E-017));
#965=DIRECTION('',(1.0,0.0,0.0));
#966=VECTOR('',#965,0.510000000000000);
#967=LINE('',#964,#966);
#968=EDGE_CURVE('',#931,#955,#967,.T.);
#969=ORIENTED_EDGE('',*,*,#968,.T.);
#970=EDGE_LOOP('',(#961,#962,#963,#969));
#971=FACE_OUTER_BOUND('',#970,.T.);
#972=ADVANCED_FACE('',(#971),#953,.F.);
#973=CARTESIAN_POINT('',(-1.350000000000000,-0.200000000000000,8.326673E-017));
#974=CARTESIAN_POINT('',(-0.840000000000000,-0.200000000000000,8.326673E-017));
#975=CARTESIAN_POINT('',(-1.350000000000000,0.200000000000000,8.326673E-017));
#976=CARTESIAN_POINT('',(-0.840000000000000,0.200000000000000,8.326673E-017));
#977=B_SPLINE_SURFACE_WITH_KNOTS('',1,1,((#973,#975),(#974,#976)),.UNSPECIFIED.,.F.,.F.,.U.,(2,2),(2,2),(0.0,0.510000000000000),(0.0,0.400000000000000),.UNSPECIFIED.);
#978=CARTESIAN_POINT('',(-0.840000000000000,0.200000000000000,8.326673E-017));
#979=DIRECTION('',(0.0,-1.0,0.0));
#980=VECTOR('',#979,0.400000000000000);
#981=LINE('',#978,#980);
#982=EDGE_CURVE('',#900,#955,#981,.T.);
#983=ORIENTED_EDGE('',*,*,#982,.T.);
#984=ORIENTED_EDGE('',*,*,#968,.F.);
#985=ORIENTED_EDGE('',*,*,#944,.F.);
#986=ORIENTED_EDGE('',*,*,#913,.F.);
#987=EDGE_LOOP('',(#983,#984,#985,#986));
#988=FACE_OUTER_BOUND('',#987,.T.);
#989=ADVANCED_FACE('',(#988),#977,.F.);
#990=CARTESIAN_POINT('',(-0.845000000000000,-0.325000000000000,0.100000000000000));
#991=DIRECTION('',(-0.998752338877845,9.567521E-033,-0.049937616943891));
#992=DIRECTION('',(-0.049937616943891,0.0,0.998752338877845));
#993=AXIS2_PLACEMENT_3D('',#990,#991,#992);
#994=PLANE('',#993);
#995=ORIENTED_EDGE('',*,*,#905,.F.);
#996=ORIENTED_EDGE('',*,*,#867,.F.);
#997=ORIENTED_EDGE('',*,*,#960,.F.);
#998=ORIENTED_EDGE('',*,*,#982,.F.);
#999=EDGE_LOOP('',(#995,#996,#997,#998));
#1000=FACE_OUTER_BOUND('',#999,.T.);
#1001=ADVANCED_FACE('',(#1000),#994,.F.);
#1002=CLOSED_SHELL('',(#893,#924,#948,#972,#989,#1001));
#1003=MANIFOLD_SOLID_BREP('8CC',#1002);
#1004=STYLED_ITEM('NONE',(#852),#1003);
#1005=ADVANCED_BREP_SHAPE_REPRESENTATION('ABSR1',(#214,#374,#694,#845,#1003),#28);
#1006=SHAPE_REPRESENTATION_RELATIONSHIP('SRRPL1','',#1005,#62);
ENDSEC;
END-ISO-10303-21;
