ISO-10303-21;
HEADER;
/****************************************************************
 * Generated by software with PDElib inside                    *
 * PDElib Version v51a, created Wed 11/30/2011                  *
 * ITI Transcendata (http://www.transcendata.com/)              *
 ****************************************************************/
FILE_DESCRIPTION((''),'2;1');
FILE_NAME('SOIC127P700X242-4N.stp','2014-11-11T11:26:56',(''),(''),'Mechanical Desktop 2011','Mechanical Desktop 2011',', , ');
FILE_SCHEMA(('AUTOMOTIVE_DESIGN { 1 2 10303 214 1 1 1 1 }'));
ENDSEC;
DATA;
#10=(NAMED_UNIT(*)PLANE_ANGLE_UNIT()SI_UNIT($,.RADIAN.));
#11=DIMENSIONAL_EXPONENTS(0.0,0.0,0.0,0.0,0.0,0.0,0.0);
#12=PLANE_ANGLE_MEASURE_WITH_UNIT(PLANE_ANGLE_MEASURE(0.0174532925),#10);
#16=(CONVERSION_BASED_UNIT('DEGREE',#12)NAMED_UNIT(#11)PLANE_ANGLE_UNIT());
#20=(NAMED_UNIT(*)SI_UNIT($,.STERADIAN.)SOLID_ANGLE_UNIT());
#24=(LENGTH_UNIT()NAMED_UNIT(*)SI_UNIT(.MILLI.,.METRE.));
#26=UNCERTAINTY_MEASURE_WITH_UNIT(LENGTH_MEASURE(0.000001),#24,'DISTANCE_ACCURACY_VALUE','');
#28=(GEOMETRIC_REPRESENTATION_CONTEXT(3)GLOBAL_UNCERTAINTY_ASSIGNED_CONTEXT((#26))GLOBAL_UNIT_ASSIGNED_CONTEXT((#16,#20,#24))REPRESENTATION_CONTEXT('','3D'));
#29=APPLICATION_CONTEXT('automotive design');
#30=APPLICATION_PROTOCOL_DEFINITION('INTERNATIONAL_STANDARD','automotive_design',1998,#29);
#31=PRODUCT_CONTEXT('3D Mechanical Parts',#29,'mechanical');
#32=PRODUCT('Product','Product','',(#31));
#33=PRODUCT_RELATED_PRODUCT_CATEGORY('part',$,(#32));
#34=PRODUCT_CATEGORY('part',$);
#35=PERSON('1','Design','Joe',$,$,$);
#36=ORGANIZATION($,'None','None');
#37=PERSON_AND_ORGANIZATION(#35,#36);
#38=PERSON_AND_ORGANIZATION_ROLE('design_owner');
#39=APPLIED_PERSON_AND_ORGANIZATION_ASSIGNMENT(#37,#38,(#32));
#40=PRODUCT_DEFINITION_FORMATION_WITH_SPECIFIED_SOURCE('None','',#32,.BOUGHT.);
#41=PERSON('2','Creator','Joe',$,$,$);
#42=ORGANIZATION($,'None','None');
#43=PERSON_AND_ORGANIZATION(#41,#42);
#44=PERSON_AND_ORGANIZATION_ROLE('creator');
#45=APPLIED_PERSON_AND_ORGANIZATION_ASSIGNMENT(#43,#44,(#40));
#46=PERSON('3','Supplier','Joe',$,$,$);
#47=ORGANIZATION($,'None','None');
#48=PERSON_AND_ORGANIZATION(#46,#47);
#49=PERSON_AND_ORGANIZATION_ROLE('design_supplier');
#50=APPLIED_PERSON_AND_ORGANIZATION_ASSIGNMENT(#48,#49,(#40));
#51=PRODUCT_DEFINITION_CONTEXT('part definition',#29,'design');
#52=PRODUCT_DEFINITION('None','',#40,#51);
#53=PERSON('4','Creator','Joe',$,$,$);
#54=ORGANIZATION($,'None','None');
#55=PERSON_AND_ORGANIZATION(#53,#54);
#56=PERSON_AND_ORGANIZATION_ROLE('creator');
#57=APPLIED_PERSON_AND_ORGANIZATION_ASSIGNMENT(#55,#56,(#52));
#58=CARTESIAN_POINT('NONE',(0.0,0.0,0.0));
#59=DIRECTION('NONE',(0.0,0.0,1.0));
#60=DIRECTION('NONE',(1.0,0.0,0.0));
#61=AXIS2_PLACEMENT_3D('NONE',#58,#59,#60);
#62=SHAPE_REPRESENTATION('SR1',(#61),#28);
#63=PRODUCT_DEFINITION_SHAPE('PDS1','Test Part',#52);
#64=SHAPE_DEFINITION_REPRESENTATION(#63,#62);
#65=CARTESIAN_POINT('',(-2.61770363560638,0.435,1.019999999999975));
#66=DIRECTION('',(0.0,0.0,-1.0));
#67=DIRECTION('',(-1.0,0.0,0.0));
#68=AXIS2_PLACEMENT_3D('',#65,#66,#67);
#69=PLANE('',#68);
#70=CARTESIAN_POINT('',(-2.61770363560638,0.835,1.019999999999975));
#71=VERTEX_POINT('',#70);
#72=CARTESIAN_POINT('',(-2.199999999999998,0.835,1.019999999999975));
#73=VERTEX_POINT('',#72);
#74=CARTESIAN_POINT('',(-2.61770363560638,0.835,1.019999999999975));
#75=DIRECTION('',(1.0,0.0,0.0));
#76=VECTOR('',#75,0.417703635606382);
#77=LINE('',#74,#76);
#78=EDGE_CURVE('',#71,#73,#77,.T.);
#79=ORIENTED_EDGE('',*,*,#78,.T.);
#80=CARTESIAN_POINT('',(-2.199999999999998,0.435,1.019999999999975));
#81=VERTEX_POINT('',#80);
#82=CARTESIAN_POINT('',(-2.199999999999998,0.435,1.019999999999975));
#83=DIRECTION('',(0.0,1.0,0.0));
#84=VECTOR('',#83,0.4);
#85=LINE('',#82,#84);
#86=EDGE_CURVE('',#81,#73,#85,.T.);
#87=ORIENTED_EDGE('',*,*,#86,.F.);
#88=CARTESIAN_POINT('',(-2.61770363560638,0.435,1.019999999999975));
#89=VERTEX_POINT('',#88);
#90=CARTESIAN_POINT('',(-2.61770363560638,0.435,1.019999999999975));
#91=DIRECTION('',(1.0,0.0,0.0));
#92=VECTOR('',#91,0.417703635606382);
#93=LINE('',#90,#92);
#94=EDGE_CURVE('',#89,#81,#93,.T.);
#95=ORIENTED_EDGE('',*,*,#94,.F.);
#96=CARTESIAN_POINT('',(-2.61770363560638,0.435,1.019999999999975));
#97=DIRECTION('',(0.0,1.0,0.0));
#98=VECTOR('',#97,0.4);
#99=LINE('',#96,#98);
#100=EDGE_CURVE('',#89,#71,#99,.T.);
#101=ORIENTED_EDGE('',*,*,#100,.T.);
#102=EDGE_LOOP('',(#79,#87,#95,#101));
#103=FACE_OUTER_BOUND('',#102,.T.);
#104=ADVANCED_FACE('',(#103),#69,.T.);
#105=CARTESIAN_POINT('',(-2.199999999999998,0.435,1.019999999999975));
#106=DIRECTION('',(1.0,0.0,0.0));
#107=DIRECTION('',(0.0,0.0,-1.0));
#108=AXIS2_PLACEMENT_3D('',#105,#106,#107);
#109=PLANE('',#108);
#110=CARTESIAN_POINT('',(-2.199999999999999,0.835,1.219999999999949));
#111=VERTEX_POINT('',#110);
#112=CARTESIAN_POINT('',(-2.199999999999998,0.835,1.019999999999975));
#113=DIRECTION('',(0.0,0.0,1.0));
#114=VECTOR('',#113,0.199999999999975);
#115=LINE('',#112,#114);
#116=EDGE_CURVE('',#73,#111,#115,.T.);
#117=ORIENTED_EDGE('',*,*,#116,.T.);
#118=CARTESIAN_POINT('',(-2.199999999999999,0.435,1.219999999999949));
#119=VERTEX_POINT('',#118);
#120=CARTESIAN_POINT('',(-2.199999999999999,0.435,1.219999999999949));
#121=DIRECTION('',(0.0,1.0,0.0));
#122=VECTOR('',#121,0.4);
#123=LINE('',#120,#122);
#124=EDGE_CURVE('',#119,#111,#123,.T.);
#125=ORIENTED_EDGE('',*,*,#124,.F.);
#126=CARTESIAN_POINT('',(-2.199999999999998,0.435,1.019999999999975));
#127=DIRECTION('',(0.0,0.0,1.0));
#128=VECTOR('',#127,0.199999999999975);
#129=LINE('',#126,#128);
#130=EDGE_CURVE('',#81,#119,#129,.T.);
#131=ORIENTED_EDGE('',*,*,#130,.F.);
#132=ORIENTED_EDGE('',*,*,#86,.T.);
#133=EDGE_LOOP('',(#117,#125,#131,#132));
#134=FACE_OUTER_BOUND('',#133,.T.);
#135=ADVANCED_FACE('',(#134),#109,.T.);
#136=CARTESIAN_POINT('',(-2.199999999999999,0.435,1.219999999999949));
#137=DIRECTION('',(0.0,0.0,1.0));
#138=DIRECTION('',(1.0,0.0,0.0));
#139=AXIS2_PLACEMENT_3D('',#136,#137,#138);
#140=PLANE('',#139);
#141=CARTESIAN_POINT('',(-2.61770363560638,0.835,1.219999999999975));
#142=VERTEX_POINT('',#141);
#143=CARTESIAN_POINT('',(-2.199999999999999,0.835,1.219999999999949));
#144=DIRECTION('',(-1.0,0.0,0.0));
#145=VECTOR('',#144,0.417703635606381);
#146=LINE('',#143,#145);
#147=EDGE_CURVE('',#111,#142,#146,.T.);
#148=ORIENTED_EDGE('',*,*,#147,.T.);
#149=CARTESIAN_POINT('',(-2.61770363560638,0.435,1.219999999999975));
#150=VERTEX_POINT('',#149);
#151=CARTESIAN_POINT('',(-2.61770363560638,0.435,1.219999999999975));
#152=DIRECTION('',(0.0,1.0,0.0));
#153=VECTOR('',#152,0.4);
#154=LINE('',#151,#153);
#155=EDGE_CURVE('',#150,#142,#154,.T.);
#156=ORIENTED_EDGE('',*,*,#155,.F.);
#157=CARTESIAN_POINT('',(-2.199999999999999,0.435,1.219999999999949));
#158=DIRECTION('',(-1.0,0.0,0.0));
#159=VECTOR('',#158,0.417703635606381);
#160=LINE('',#157,#159);
#161=EDGE_CURVE('',#119,#150,#160,.T.);
#162=ORIENTED_EDGE('',*,*,#161,.F.);
#163=ORIENTED_EDGE('',*,*,#124,.T.);
#164=EDGE_LOOP('',(#148,#156,#162,#163));
#165=FACE_OUTER_BOUND('',#164,.T.);
#166=ADVANCED_FACE('',(#165),#140,.T.);
#167=CARTESIAN_POINT('',(-2.61770363560638,0.435,1.019999999999974));
#168=DIRECTION('',(2.449294E-016,1.0,0.0));
#169=DIRECTION('',(-0.635446905444896,1.556396E-016,0.772144565713251));
#170=AXIS2_PLACEMENT_3D('',#167,#168,#169);
#171=CYLINDRICAL_SURFACE('',#170,0.200000000000001);
#172=CARTESIAN_POINT('',(-2.813966385541812,0.835,1.058482892144177));
#173=VERTEX_POINT('',#172);
#174=CARTESIAN_POINT('',(-2.61770363560638,0.835,1.019999999999974));
#175=DIRECTION('',(-9.240699E-018,-1.0,1.122856E-017));
#176=DIRECTION('',(-0.635446905444896,1.454205E-017,0.772144565713251));
#177=AXIS2_PLACEMENT_3D('',#174,#175,#176);
#178=CIRCLE('',#177,0.200000000000001);
#179=EDGE_CURVE('',#142,#173,#178,.T.);
#180=ORIENTED_EDGE('',*,*,#179,.T.);
#181=CARTESIAN_POINT('',(-2.813966385541812,0.435,1.058482892144177));
#182=VERTEX_POINT('',#181);
#183=CARTESIAN_POINT('',(-2.813966385541812,0.435,1.058482892144177));
#184=DIRECTION('',(0.0,1.0,0.0));
#185=VECTOR('',#184,0.4);
#186=LINE('',#183,#185);
#187=EDGE_CURVE('',#182,#173,#186,.T.);
#188=ORIENTED_EDGE('',*,*,#187,.F.);
#189=CARTESIAN_POINT('',(-2.61770363560638,0.435,1.019999999999974));
#190=DIRECTION('',(-9.240699E-018,-1.0,1.122856E-017));
#191=DIRECTION('',(-0.635446905444896,1.454205E-017,0.772144565713251));
#192=AXIS2_PLACEMENT_3D('',#189,#190,#191);
#193=CIRCLE('',#192,0.200000000000001);
#194=EDGE_CURVE('',#150,#182,#193,.T.);
#195=ORIENTED_EDGE('',*,*,#194,.F.);
#196=ORIENTED_EDGE('',*,*,#155,.T.);
#197=EDGE_LOOP('',(#180,#188,#195,#196));
#198=FACE_OUTER_BOUND('',#197,.T.);
#199=ADVANCED_FACE('',(#198),#171,.T.);
#200=CARTESIAN_POINT('',(-2.813966385541812,0.435,1.058482892144177));
#201=DIRECTION('',(-0.981313749677157,2.403525E-016,0.192414460721013));
#202=DIRECTION('',(0.192414460721013,-4.712795E-017,0.981313749677157));
#203=AXIS2_PLACEMENT_3D('',#200,#201,#202);
#204=PLANE('',#203);
#205=CARTESIAN_POINT('',(-2.974378859106569,0.835,0.240379276963923));
#206=VERTEX_POINT('',#205);
#207=CARTESIAN_POINT('',(-2.813966385541812,0.835,1.058482892144177));
#208=DIRECTION('',(-0.192414460721013,0.0,-0.981313749677157));
#209=VECTOR('',#208,0.833682005830859);
#210=LINE('',#207,#209);
#211=EDGE_CURVE('',#173,#206,#210,.T.);
#212=ORIENTED_EDGE('',*,*,#211,.T.);
#213=CARTESIAN_POINT('',(-2.974378859106569,0.435,0.240379276963923));
#214=VERTEX_POINT('',#213);
#215=CARTESIAN_POINT('',(-2.974378859106569,0.435,0.240379276963923));
#216=DIRECTION('',(0.0,1.0,0.0));
#217=VECTOR('',#216,0.4);
#218=LINE('',#215,#217);
#219=EDGE_CURVE('',#214,#206,#218,.T.);
#220=ORIENTED_EDGE('',*,*,#219,.F.);
#221=CARTESIAN_POINT('',(-2.813966385541812,0.435,1.058482892144177));
#222=DIRECTION('',(-0.192414460721013,0.0,-0.981313749677157));
#223=VECTOR('',#222,0.833682005830859);
#224=LINE('',#221,#223);
#225=EDGE_CURVE('',#182,#214,#224,.T.);
#226=ORIENTED_EDGE('',*,*,#225,.F.);
#227=ORIENTED_EDGE('',*,*,#187,.T.);
#228=EDGE_LOOP('',(#212,#220,#226,#227));
#229=FACE_OUTER_BOUND('',#228,.T.);
#230=ADVANCED_FACE('',(#229),#204,.T.);
#231=CARTESIAN_POINT('',(-3.023444546590424,0.435,0.249999999999971));
#232=DIRECTION('',(2.449294E-016,1.0,0.0));
#233=DIRECTION('',(0.635446905444902,-1.556396E-016,-0.772144565713246));
#234=AXIS2_PLACEMENT_3D('',#231,#232,#233);
#235=CYLINDRICAL_SURFACE('',#234,0.049999999999996);
#236=CARTESIAN_POINT('',(-3.023444546590425,0.835,0.199999999999974));
#237=VERTEX_POINT('',#236);
#238=CARTESIAN_POINT('',(-3.023444546590423,0.835,0.249999999999971));
#239=DIRECTION('',(9.240699E-018,1.0,-1.122856E-017));
#240=DIRECTION('',(0.635446905444902,-1.454205E-017,-0.772144565713246));
#241=AXIS2_PLACEMENT_3D('',#238,#239,#240);
#242=CIRCLE('',#241,0.049999999999996);
#243=EDGE_CURVE('',#206,#237,#242,.T.);
#244=ORIENTED_EDGE('',*,*,#243,.T.);
#245=CARTESIAN_POINT('',(-3.023444546590425,0.435,0.199999999999974));
#246=VERTEX_POINT('',#245);
#247=CARTESIAN_POINT('',(-3.023444546590425,0.435,0.199999999999974));
#248=DIRECTION('',(0.0,1.0,0.0));
#249=VECTOR('',#248,0.4);
#250=LINE('',#247,#249);
#251=EDGE_CURVE('',#246,#237,#250,.T.);
#252=ORIENTED_EDGE('',*,*,#251,.F.);
#253=CARTESIAN_POINT('',(-3.023444546590424,0.435,0.249999999999971));
#254=DIRECTION('',(9.240699E-018,1.0,-1.122856E-017));
#255=DIRECTION('',(0.635446905444902,-1.454205E-017,-0.772144565713246));
#256=AXIS2_PLACEMENT_3D('',#253,#254,#255);
#257=CIRCLE('',#256,0.049999999999996);
#258=EDGE_CURVE('',#214,#246,#257,.T.);
#259=ORIENTED_EDGE('',*,*,#258,.F.);
#260=ORIENTED_EDGE('',*,*,#219,.T.);
#261=EDGE_LOOP('',(#244,#252,#259,#260));
#262=FACE_OUTER_BOUND('',#261,.T.);
#263=ADVANCED_FACE('',(#262),#235,.F.);
#264=CARTESIAN_POINT('',(-3.023444546590425,0.435,0.199999999999974));
#265=DIRECTION('',(0.0,0.0,1.0));
#266=DIRECTION('',(1.0,0.0,0.0));
#267=AXIS2_PLACEMENT_3D('',#264,#265,#266);
#268=PLANE('',#267);
#269=CARTESIAN_POINT('',(-3.499999999999999,0.835,0.199999999999975));
#270=VERTEX_POINT('',#269);
#271=CARTESIAN_POINT('',(-3.023444546590425,0.835,0.199999999999974));
#272=DIRECTION('',(-1.0,0.0,0.0));
#273=VECTOR('',#272,0.476555453409574);
#274=LINE('',#271,#273);
#275=EDGE_CURVE('',#237,#270,#274,.T.);
#276=ORIENTED_EDGE('',*,*,#275,.T.);
#277=CARTESIAN_POINT('',(-3.499999999999999,0.435,0.199999999999975));
#278=VERTEX_POINT('',#277);
#279=CARTESIAN_POINT('',(-3.499999999999999,0.435,0.199999999999975));
#280=DIRECTION('',(0.0,1.0,0.0));
#281=VECTOR('',#280,0.4);
#282=LINE('',#279,#281);
#283=EDGE_CURVE('',#278,#270,#282,.T.);
#284=ORIENTED_EDGE('',*,*,#283,.F.);
#285=CARTESIAN_POINT('',(-3.023444546590425,0.435,0.199999999999974));
#286=DIRECTION('',(-1.0,0.0,0.0));
#287=VECTOR('',#286,0.476555453409574);
#288=LINE('',#285,#287);
#289=EDGE_CURVE('',#246,#278,#288,.T.);
#290=ORIENTED_EDGE('',*,*,#289,.F.);
#291=ORIENTED_EDGE('',*,*,#251,.T.);
#292=EDGE_LOOP('',(#276,#284,#290,#291));
#293=FACE_OUTER_BOUND('',#292,.T.);
#294=ADVANCED_FACE('',(#293),#268,.T.);
#295=CARTESIAN_POINT('',(-3.499999999999999,0.435,0.199999999999975));
#296=DIRECTION('',(-1.0,0.0,0.0));
#297=DIRECTION('',(0.0,0.0,1.0));
#298=AXIS2_PLACEMENT_3D('',#295,#296,#297);
#299=PLANE('',#298);
#300=CARTESIAN_POINT('',(-3.499999999999999,0.835,-2.553513E-014));
#301=VERTEX_POINT('',#300);
#302=CARTESIAN_POINT('',(-3.499999999999999,0.835,0.199999999999975));
#303=DIRECTION('',(0.0,0.0,-1.0));
#304=VECTOR('',#303,0.2);
#305=LINE('',#302,#304);
#306=EDGE_CURVE('',#270,#301,#305,.T.);
#307=ORIENTED_EDGE('',*,*,#306,.T.);
#308=CARTESIAN_POINT('',(-3.499999999999999,0.435,-2.553513E-014));
#309=VERTEX_POINT('',#308);
#310=CARTESIAN_POINT('',(-3.499999999999999,0.435,-2.553513E-014));
#311=DIRECTION('',(0.0,1.0,0.0));
#312=VECTOR('',#311,0.4);
#313=LINE('',#310,#312);
#314=EDGE_CURVE('',#309,#301,#313,.T.);
#315=ORIENTED_EDGE('',*,*,#314,.F.);
#316=CARTESIAN_POINT('',(-3.499999999999999,0.435,0.199999999999975));
#317=DIRECTION('',(0.0,0.0,-1.0));
#318=VECTOR('',#317,0.2);
#319=LINE('',#316,#318);
#320=EDGE_CURVE('',#278,#309,#319,.T.);
#321=ORIENTED_EDGE('',*,*,#320,.F.);
#322=ORIENTED_EDGE('',*,*,#283,.T.);
#323=EDGE_LOOP('',(#307,#315,#321,#322));
#324=FACE_OUTER_BOUND('',#323,.T.);
#325=ADVANCED_FACE('',(#324),#299,.T.);
#326=CARTESIAN_POINT('',(-3.499999999999999,0.435,-2.553513E-014));
#327=DIRECTION('',(0.0,0.0,-1.0));
#328=DIRECTION('',(-1.0,0.0,0.0));
#329=AXIS2_PLACEMENT_3D('',#326,#327,#328);
#330=PLANE('',#329);
#331=CARTESIAN_POINT('',(-3.023444546590425,0.835,-2.553513E-014));
#332=VERTEX_POINT('',#331);
#333=CARTESIAN_POINT('',(-3.499999999999999,0.835,-2.553513E-014));
#334=DIRECTION('',(1.0,0.0,0.0));
#335=VECTOR('',#334,0.476555453409574);
#336=LINE('',#333,#335);
#337=EDGE_CURVE('',#301,#332,#336,.T.);
#338=ORIENTED_EDGE('',*,*,#337,.T.);
#339=CARTESIAN_POINT('',(-3.023444546590425,0.435,-2.553513E-014));
#340=VERTEX_POINT('',#339);
#341=CARTESIAN_POINT('',(-3.023444546590425,0.435,-2.553513E-014));
#342=DIRECTION('',(0.0,1.0,0.0));
#343=VECTOR('',#342,0.4);
#344=LINE('',#341,#343);
#345=EDGE_CURVE('',#340,#332,#344,.T.);
#346=ORIENTED_EDGE('',*,*,#345,.F.);
#347=CARTESIAN_POINT('',(-3.499999999999999,0.435,-2.553513E-014));
#348=DIRECTION('',(1.0,0.0,0.0));
#349=VECTOR('',#348,0.476555453409574);
#350=LINE('',#347,#349);
#351=EDGE_CURVE('',#309,#340,#350,.T.);
#352=ORIENTED_EDGE('',*,*,#351,.F.);
#353=ORIENTED_EDGE('',*,*,#314,.T.);
#354=EDGE_LOOP('',(#338,#346,#352,#353));
#355=FACE_OUTER_BOUND('',#354,.T.);
#356=ADVANCED_FACE('',(#355),#330,.T.);
#357=CARTESIAN_POINT('',(-3.023444546590425,0.435,0.249999999999975));
#358=DIRECTION('',(2.449294E-016,1.0,0.0));
#359=DIRECTION('',(0.635446905444895,-1.556396E-016,-0.772144565713252));
#360=AXIS2_PLACEMENT_3D('',#357,#358,#359);
#361=CYLINDRICAL_SURFACE('',#360,0.25);
#362=CARTESIAN_POINT('',(-2.778116109171136,0.835,0.201896384819721));
#363=VERTEX_POINT('',#362);
#364=CARTESIAN_POINT('',(-3.023444546590425,0.835,0.249999999999975));
#365=DIRECTION('',(-9.240699E-018,-1.0,1.122856E-017));
#366=DIRECTION('',(0.635446905444895,-1.454205E-017,-0.772144565713252));
#367=AXIS2_PLACEMENT_3D('',#364,#365,#366);
#368=CIRCLE('',#367,0.25);
#369=EDGE_CURVE('',#332,#363,#368,.T.);
#370=ORIENTED_EDGE('',*,*,#369,.T.);
#371=CARTESIAN_POINT('',(-2.778116109171136,0.435,0.201896384819721));
#372=VERTEX_POINT('',#371);
#373=CARTESIAN_POINT('',(-2.778116109171136,0.435,0.201896384819721));
#374=DIRECTION('',(0.0,1.0,0.0));
#375=VECTOR('',#374,0.4);
#376=LINE('',#373,#375);
#377=EDGE_CURVE('',#372,#363,#376,.T.);
#378=ORIENTED_EDGE('',*,*,#377,.F.);
#379=CARTESIAN_POINT('',(-3.023444546590425,0.435,0.249999999999975));
#380=DIRECTION('',(-9.240699E-018,-1.0,1.122856E-017));
#381=DIRECTION('',(0.635446905444895,-1.454205E-017,-0.772144565713252));
#382=AXIS2_PLACEMENT_3D('',#379,#380,#381);
#383=CIRCLE('',#382,0.25);
#384=EDGE_CURVE('',#340,#372,#383,.T.);
#385=ORIENTED_EDGE('',*,*,#384,.F.);
#386=ORIENTED_EDGE('',*,*,#345,.T.);
#387=EDGE_LOOP('',(#370,#378,#385,#386));
#388=FACE_OUTER_BOUND('',#387,.T.);
#389=ADVANCED_FACE('',(#388),#361,.T.);
#390=CARTESIAN_POINT('',(-2.778116109171136,0.435,0.201896384819721));
#391=DIRECTION('',(0.981313749677157,-2.403525E-016,-0.192414460721012));
#392=DIRECTION('',(-0.192414460721012,4.712795E-017,-0.981313749677157));
#393=AXIS2_PLACEMENT_3D('',#390,#391,#392);
#394=PLANE('',#393);
#395=CARTESIAN_POINT('',(-2.778116109171136,0.835,0.201896384819721));
#396=DIRECTION('',(0.192414460721011,0.0,0.981313749677157));
#397=VECTOR('',#396,0.833682005830859);
#398=LINE('',#395,#397);
#399=EDGE_CURVE('',#363,#71,#398,.T.);
#400=ORIENTED_EDGE('',*,*,#399,.T.);
#401=ORIENTED_EDGE('',*,*,#100,.F.);
#402=CARTESIAN_POINT('',(-2.778116109171136,0.435,0.201896384819721));
#403=DIRECTION('',(0.192414460721011,0.0,0.981313749677157));
#404=VECTOR('',#403,0.833682005830859);
#405=LINE('',#402,#404);
#406=EDGE_CURVE('',#372,#89,#405,.T.);
#407=ORIENTED_EDGE('',*,*,#406,.F.);
#408=ORIENTED_EDGE('',*,*,#377,.T.);
#409=EDGE_LOOP('',(#400,#401,#407,#408));
#410=FACE_OUTER_BOUND('',#409,.T.);
#411=ADVANCED_FACE('',(#410),#394,.T.);
#412=CARTESIAN_POINT('',(-2.832775827756767,0.835,0.59100871147439));
#413=DIRECTION('',(0.0,1.0,0.0));
#414=DIRECTION('',(0.0,0.0,1.0));
#415=AXIS2_PLACEMENT_3D('',#412,#413,#414);
#416=PLANE('',#415);
#417=ORIENTED_EDGE('',*,*,#78,.F.);
#418=ORIENTED_EDGE('',*,*,#399,.F.);
#419=ORIENTED_EDGE('',*,*,#369,.F.);
#420=ORIENTED_EDGE('',*,*,#337,.F.);
#421=ORIENTED_EDGE('',*,*,#306,.F.);
#422=ORIENTED_EDGE('',*,*,#275,.F.);
#423=ORIENTED_EDGE('',*,*,#243,.F.);
#424=ORIENTED_EDGE('',*,*,#211,.F.);
#425=ORIENTED_EDGE('',*,*,#179,.F.);
#426=ORIENTED_EDGE('',*,*,#147,.F.);
#427=ORIENTED_EDGE('',*,*,#116,.F.);
#428=EDGE_LOOP('',(#417,#418,#419,#420,#421,#422,#423,#424,#425,#426,#427));
#429=FACE_OUTER_BOUND('',#428,.T.);
#430=ADVANCED_FACE('',(#429),#416,.T.);
#431=CARTESIAN_POINT('',(-2.832775827756768,0.434999999999999,0.59100871147439));
#432=DIRECTION('',(0.0,1.0,0.0));
#433=DIRECTION('',(0.0,0.0,1.0));
#434=AXIS2_PLACEMENT_3D('',#431,#432,#433);
#435=PLANE('',#434);
#436=ORIENTED_EDGE('',*,*,#406,.T.);
#437=ORIENTED_EDGE('',*,*,#94,.T.);
#438=ORIENTED_EDGE('',*,*,#130,.T.);
#439=ORIENTED_EDGE('',*,*,#161,.T.);
#440=ORIENTED_EDGE('',*,*,#194,.T.);
#441=ORIENTED_EDGE('',*,*,#225,.T.);
#442=ORIENTED_EDGE('',*,*,#258,.T.);
#443=ORIENTED_EDGE('',*,*,#289,.T.);
#444=ORIENTED_EDGE('',*,*,#320,.T.);
#445=ORIENTED_EDGE('',*,*,#351,.T.);
#446=ORIENTED_EDGE('',*,*,#384,.T.);
#447=EDGE_LOOP('',(#436,#437,#438,#439,#440,#441,#442,#443,#444,#445,#446));
#448=FACE_OUTER_BOUND('',#447,.T.);
#449=ADVANCED_FACE('',(#448),#435,.F.);
#450=CLOSED_SHELL('',(#104,#135,#166,#199,#230,#263,#294,#325,#356,#389,#411,#430,#449));
#451=MANIFOLD_SOLID_BREP('2C12',#450);
#452=COLOUR_RGB('254',0.866,0.866,0.866);
#453=SURFACE_STYLE_USAGE(.BOTH.,#454);
#454=SURFACE_SIDE_STYLE('NONE',(#455));
#455=SURFACE_STYLE_FILL_AREA(#456);
#456=FILL_AREA_STYLE('NONE',(#457));
#457=FILL_AREA_STYLE_COLOUR('NONE',#452);
#458=PRESENTATION_STYLE_ASSIGNMENT((#453));
#459=STYLED_ITEM('NONE',(#458),#451);
#460=MECHANICAL_DESIGN_GEOMETRIC_PRESENTATION_REPRESENTATION('NONE',(#459,#849,#1237,#1625,#2055),#28);
#461=PRESENTATION_LAYER_ASSIGNMENT('3D','None',(#451,#848,#1236,#1624,#2047));
#462=CARTESIAN_POINT('',(-2.617703635606381,-0.835,1.02));
#463=DIRECTION('',(0.0,0.0,-1.0));
#464=DIRECTION('',(-1.0,0.0,0.0));
#465=AXIS2_PLACEMENT_3D('',#462,#463,#464);
#466=PLANE('',#465);
#467=CARTESIAN_POINT('',(-2.617703635606381,-0.435,1.02));
#468=VERTEX_POINT('',#467);
#469=CARTESIAN_POINT('',(-2.199999999999999,-0.435,1.02));
#470=VERTEX_POINT('',#469);
#471=CARTESIAN_POINT('',(-2.617703635606381,-0.435,1.02));
#472=DIRECTION('',(1.0,0.0,0.0));
#473=VECTOR('',#472,0.417703635606382);
#474=LINE('',#471,#473);
#475=EDGE_CURVE('',#468,#470,#474,.T.);
#476=ORIENTED_EDGE('',*,*,#475,.T.);
#477=CARTESIAN_POINT('',(-2.199999999999999,-0.835,1.02));
#478=VERTEX_POINT('',#477);
#479=CARTESIAN_POINT('',(-2.199999999999999,-0.835,1.02));
#480=DIRECTION('',(0.0,1.0,0.0));
#481=VECTOR('',#480,0.4);
#482=LINE('',#479,#481);
#483=EDGE_CURVE('',#478,#470,#482,.T.);
#484=ORIENTED_EDGE('',*,*,#483,.F.);
#485=CARTESIAN_POINT('',(-2.617703635606381,-0.835,1.02));
#486=VERTEX_POINT('',#485);
#487=CARTESIAN_POINT('',(-2.617703635606381,-0.835,1.02));
#488=DIRECTION('',(1.0,0.0,0.0));
#489=VECTOR('',#488,0.417703635606382);
#490=LINE('',#487,#489);
#491=EDGE_CURVE('',#486,#478,#490,.T.);
#492=ORIENTED_EDGE('',*,*,#491,.F.);
#493=CARTESIAN_POINT('',(-2.617703635606381,-0.835,1.02));
#494=DIRECTION('',(0.0,1.0,0.0));
#495=VECTOR('',#494,0.4);
#496=LINE('',#493,#495);
#497=EDGE_CURVE('',#486,#468,#496,.T.);
#498=ORIENTED_EDGE('',*,*,#497,.T.);
#499=EDGE_LOOP('',(#476,#484,#492,#498));
#500=FACE_OUTER_BOUND('',#499,.T.);
#501=ADVANCED_FACE('',(#500),#466,.T.);
#502=CARTESIAN_POINT('',(-2.199999999999999,-0.835,1.02));
#503=DIRECTION('',(1.0,0.0,0.0));
#504=DIRECTION('',(0.0,0.0,-1.0));
#505=AXIS2_PLACEMENT_3D('',#502,#503,#504);
#506=PLANE('',#505);
#507=CARTESIAN_POINT('',(-2.2,-0.435,1.219999999999975));
#508=VERTEX_POINT('',#507);
#509=CARTESIAN_POINT('',(-2.199999999999999,-0.435,1.02));
#510=DIRECTION('',(0.0,0.0,1.0));
#511=VECTOR('',#510,0.199999999999975);
#512=LINE('',#509,#511);
#513=EDGE_CURVE('',#470,#508,#512,.T.);
#514=ORIENTED_EDGE('',*,*,#513,.T.);
#515=CARTESIAN_POINT('',(-2.2,-0.835,1.219999999999975));
#516=VERTEX_POINT('',#515);
#517=CARTESIAN_POINT('',(-2.2,-0.835,1.219999999999975));
#518=DIRECTION('',(0.0,1.0,0.0));
#519=VECTOR('',#518,0.4);
#520=LINE('',#517,#519);
#521=EDGE_CURVE('',#516,#508,#520,.T.);
#522=ORIENTED_EDGE('',*,*,#521,.F.);
#523=CARTESIAN_POINT('',(-2.199999999999999,-0.835,1.02));
#524=DIRECTION('',(0.0,0.0,1.0));
#525=VECTOR('',#524,0.199999999999975);
#526=LINE('',#523,#525);
#527=EDGE_CURVE('',#478,#516,#526,.T.);
#528=ORIENTED_EDGE('',*,*,#527,.F.);
#529=ORIENTED_EDGE('',*,*,#483,.T.);
#530=EDGE_LOOP('',(#514,#522,#528,#529));
#531=FACE_OUTER_BOUND('',#530,.T.);
#532=ADVANCED_FACE('',(#531),#506,.T.);
#533=CARTESIAN_POINT('',(-2.2,-0.835,1.219999999999975));
#534=DIRECTION('',(0.0,0.0,1.0));
#535=DIRECTION('',(1.0,0.0,0.0));
#536=AXIS2_PLACEMENT_3D('',#533,#534,#535);
#537=PLANE('',#536);
#538=CARTESIAN_POINT('',(-2.617703635606381,-0.435,1.22));
#539=VERTEX_POINT('',#538);
#540=CARTESIAN_POINT('',(-2.2,-0.435,1.219999999999975));
#541=DIRECTION('',(-1.0,0.0,0.0));
#542=VECTOR('',#541,0.417703635606381);
#543=LINE('',#540,#542);
#544=EDGE_CURVE('',#508,#539,#543,.T.);
#545=ORIENTED_EDGE('',*,*,#544,.T.);
#546=CARTESIAN_POINT('',(-2.617703635606381,-0.835,1.22));
#547=VERTEX_POINT('',#546);
#548=CARTESIAN_POINT('',(-2.617703635606381,-0.835,1.22));
#549=DIRECTION('',(0.0,1.0,0.0));
#550=VECTOR('',#549,0.4);
#551=LINE('',#548,#550);
#552=EDGE_CURVE('',#547,#539,#551,.T.);
#553=ORIENTED_EDGE('',*,*,#552,.F.);
#554=CARTESIAN_POINT('',(-2.2,-0.835,1.219999999999975));
#555=DIRECTION('',(-1.0,0.0,0.0));
#556=VECTOR('',#555,0.417703635606381);
#557=LINE('',#554,#556);
#558=EDGE_CURVE('',#516,#547,#557,.T.);
#559=ORIENTED_EDGE('',*,*,#558,.F.);
#560=ORIENTED_EDGE('',*,*,#521,.T.);
#561=EDGE_LOOP('',(#545,#553,#559,#560));
#562=FACE_OUTER_BOUND('',#561,.T.);
#563=ADVANCED_FACE('',(#562),#537,.T.);
#564=CARTESIAN_POINT('',(-2.617703635606381,-0.835,1.019999999999999));
#565=DIRECTION('',(2.449294E-016,1.0,0.0));
#566=DIRECTION('',(-0.635446905444896,1.556396E-016,0.772144565713251));
#567=AXIS2_PLACEMENT_3D('',#564,#565,#566);
#568=CYLINDRICAL_SURFACE('',#567,0.200000000000001);
#569=CARTESIAN_POINT('',(-2.813966385541812,-0.435000000000001,1.058482892144202));
#570=VERTEX_POINT('',#569);
#571=CARTESIAN_POINT('',(-2.617703635606381,-0.435,1.019999999999999));
#572=DIRECTION('',(-9.240699E-018,-1.0,1.122856E-017));
#573=DIRECTION('',(-0.635446905444896,1.454205E-017,0.772144565713251));
#574=AXIS2_PLACEMENT_3D('',#571,#572,#573);
#575=CIRCLE('',#574,0.200000000000001);
#576=EDGE_CURVE('',#539,#570,#575,.T.);
#577=ORIENTED_EDGE('',*,*,#576,.T.);
#578=CARTESIAN_POINT('',(-2.813966385541813,-0.835000000000001,1.058482892144202));
#579=VERTEX_POINT('',#578);
#580=CARTESIAN_POINT('',(-2.813966385541813,-0.835000000000001,1.058482892144202));
#581=DIRECTION('',(0.0,1.0,0.0));
#582=VECTOR('',#581,0.4);
#583=LINE('',#580,#582);
#584=EDGE_CURVE('',#579,#570,#583,.T.);
#585=ORIENTED_EDGE('',*,*,#584,.F.);
#586=CARTESIAN_POINT('',(-2.617703635606381,-0.835,1.019999999999999));
#587=DIRECTION('',(-9.240699E-018,-1.0,1.122856E-017));
#588=DIRECTION('',(-0.635446905444896,1.454205E-017,0.772144565713251));
#589=AXIS2_PLACEMENT_3D('',#586,#587,#588);
#590=CIRCLE('',#589,0.200000000000001);
#591=EDGE_CURVE('',#547,#579,#590,.T.);
#592=ORIENTED_EDGE('',*,*,#591,.F.);
#593=ORIENTED_EDGE('',*,*,#552,.T.);
#594=EDGE_LOOP('',(#577,#585,#592,#593));
#595=FACE_OUTER_BOUND('',#594,.T.);
#596=ADVANCED_FACE('',(#595),#568,.T.);
#597=CARTESIAN_POINT('',(-2.813966385541813,-0.835000000000001,1.058482892144202));
#598=DIRECTION('',(-0.981313749677157,2.403525E-016,0.192414460721013));
#599=DIRECTION('',(0.192414460721013,-4.712795E-017,0.981313749677157));
#600=AXIS2_PLACEMENT_3D('',#597,#598,#599);
#601=PLANE('',#600);
#602=CARTESIAN_POINT('',(-2.97437885910657,-0.435000000000001,0.240379276963949));
#603=VERTEX_POINT('',#602);
#604=CARTESIAN_POINT('',(-2.813966385541812,-0.435,1.058482892144202));
#605=DIRECTION('',(-0.192414460721013,0.0,-0.981313749677157));
#606=VECTOR('',#605,0.833682005830859);
#607=LINE('',#604,#606);
#608=EDGE_CURVE('',#570,#603,#607,.T.);
#609=ORIENTED_EDGE('',*,*,#608,.T.);
#610=CARTESIAN_POINT('',(-2.97437885910657,-0.835000000000001,0.240379276963949));
#611=VERTEX_POINT('',#610);
#612=CARTESIAN_POINT('',(-2.97437885910657,-0.835000000000001,0.240379276963949));
#613=DIRECTION('',(0.0,1.0,0.0));
#614=VECTOR('',#613,0.4);
#615=LINE('',#612,#614);
#616=EDGE_CURVE('',#611,#603,#615,.T.);
#617=ORIENTED_EDGE('',*,*,#616,.F.);
#618=CARTESIAN_POINT('',(-2.813966385541813,-0.835000000000001,1.058482892144202));
#619=DIRECTION('',(-0.192414460721013,0.0,-0.981313749677157));
#620=VECTOR('',#619,0.833682005830859);
#621=LINE('',#618,#620);
#622=EDGE_CURVE('',#579,#611,#621,.T.);
#623=ORIENTED_EDGE('',*,*,#622,.F.);
#624=ORIENTED_EDGE('',*,*,#584,.T.);
#625=EDGE_LOOP('',(#609,#617,#623,#624));
#626=FACE_OUTER_BOUND('',#625,.T.);
#627=ADVANCED_FACE('',(#626),#601,.T.);
#628=CARTESIAN_POINT('',(-3.023444546590425,-0.835000000000001,0.249999999999996));
#629=DIRECTION('',(2.449294E-016,1.0,0.0));
#630=DIRECTION('',(0.635446905444902,-1.556396E-016,-0.772144565713246));
#631=AXIS2_PLACEMENT_3D('',#628,#629,#630);
#632=CYLINDRICAL_SURFACE('',#631,0.049999999999996);
#633=CARTESIAN_POINT('',(-3.023444546590426,-0.435000000000001,0.2));
#634=VERTEX_POINT('',#633);
#635=CARTESIAN_POINT('',(-3.023444546590424,-0.435,0.249999999999996));
#636=DIRECTION('',(9.240699E-018,1.0,-1.122856E-017));
#637=DIRECTION('',(0.635446905444902,-1.454205E-017,-0.772144565713246));
#638=AXIS2_PLACEMENT_3D('',#635,#636,#637);
#639=CIRCLE('',#638,0.049999999999996);
#640=EDGE_CURVE('',#603,#634,#639,.T.);
#641=ORIENTED_EDGE('',*,*,#640,.T.);
#642=CARTESIAN_POINT('',(-3.023444546590426,-0.835000000000001,0.2));
#643=VERTEX_POINT('',#642);
#644=CARTESIAN_POINT('',(-3.023444546590426,-0.835000000000001,0.2));
#645=DIRECTION('',(0.0,1.0,0.0));
#646=VECTOR('',#645,0.4);
#647=LINE('',#644,#646);
#648=EDGE_CURVE('',#643,#634,#647,.T.);
#649=ORIENTED_EDGE('',*,*,#648,.F.);
#650=CARTESIAN_POINT('',(-3.023444546590425,-0.835000000000001,0.249999999999996));
#651=DIRECTION('',(9.240699E-018,1.0,-1.122856E-017));
#652=DIRECTION('',(0.635446905444902,-1.454205E-017,-0.772144565713246));
#653=AXIS2_PLACEMENT_3D('',#650,#651,#652);
#654=CIRCLE('',#653,0.049999999999996);
#655=EDGE_CURVE('',#611,#643,#654,.T.);
#656=ORIENTED_EDGE('',*,*,#655,.F.);
#657=ORIENTED_EDGE('',*,*,#616,.T.);
#658=EDGE_LOOP('',(#641,#649,#656,#657));
#659=FACE_OUTER_BOUND('',#658,.T.);
#660=ADVANCED_FACE('',(#659),#632,.F.);
#661=CARTESIAN_POINT('',(-3.023444546590426,-0.835000000000001,0.2));
#662=DIRECTION('',(0.0,0.0,1.0));
#663=DIRECTION('',(1.0,0.0,0.0));
#664=AXIS2_PLACEMENT_3D('',#661,#662,#663);
#665=PLANE('',#664);
#666=CARTESIAN_POINT('',(-3.5,-0.435000000000001,0.2));
#667=VERTEX_POINT('',#666);
#668=CARTESIAN_POINT('',(-3.023444546590426,-0.435,0.2));
#669=DIRECTION('',(-1.0,0.0,0.0));
#670=VECTOR('',#669,0.476555453409574);
#671=LINE('',#668,#670);
#672=EDGE_CURVE('',#634,#667,#671,.T.);
#673=ORIENTED_EDGE('',*,*,#672,.T.);
#674=CARTESIAN_POINT('',(-3.5,-0.835,0.2));
#675=VERTEX_POINT('',#674);
#676=CARTESIAN_POINT('',(-3.5,-0.835,0.2));
#677=DIRECTION('',(0.0,1.0,0.0));
#678=VECTOR('',#677,0.4);
#679=LINE('',#676,#678);
#680=EDGE_CURVE('',#675,#667,#679,.T.);
#681=ORIENTED_EDGE('',*,*,#680,.F.);
#682=CARTESIAN_POINT('',(-3.023444546590426,-0.835000000000001,0.2));
#683=DIRECTION('',(-1.0,0.0,0.0));
#684=VECTOR('',#683,0.476555453409574);
#685=LINE('',#682,#684);
#686=EDGE_CURVE('',#643,#675,#685,.T.);
#687=ORIENTED_EDGE('',*,*,#686,.F.);
#688=ORIENTED_EDGE('',*,*,#648,.T.);
#689=EDGE_LOOP('',(#673,#681,#687,#688));
#690=FACE_OUTER_BOUND('',#689,.T.);
#691=ADVANCED_FACE('',(#690),#665,.T.);
#692=CARTESIAN_POINT('',(-3.5,-0.835,0.2));
#693=DIRECTION('',(-1.0,0.0,0.0));
#694=DIRECTION('',(0.0,0.0,1.0));
#695=AXIS2_PLACEMENT_3D('',#692,#693,#694);
#696=PLANE('',#695);
#697=CARTESIAN_POINT('',(-3.5,-0.435000000000001,4.116868E-032));
#698=VERTEX_POINT('',#697);
#699=CARTESIAN_POINT('',(-3.5,-0.435,0.2));
#700=DIRECTION('',(0.0,0.0,-1.0));
#701=VECTOR('',#700,0.2);
#702=LINE('',#699,#701);
#703=EDGE_CURVE('',#667,#698,#702,.T.);
#704=ORIENTED_EDGE('',*,*,#703,.T.);
#705=CARTESIAN_POINT('',(-3.5,-0.835,4.116868E-032));
#706=VERTEX_POINT('',#705);
#707=CARTESIAN_POINT('',(-3.5,-0.835,4.116868E-032));
#708=DIRECTION('',(0.0,1.0,0.0));
#709=VECTOR('',#708,0.4);
#710=LINE('',#707,#709);
#711=EDGE_CURVE('',#706,#698,#710,.T.);
#712=ORIENTED_EDGE('',*,*,#711,.F.);
#713=CARTESIAN_POINT('',(-3.5,-0.835,0.2));
#714=DIRECTION('',(0.0,0.0,-1.0));
#715=VECTOR('',#714,0.2);
#716=LINE('',#713,#715);
#717=EDGE_CURVE('',#675,#706,#716,.T.);
#718=ORIENTED_EDGE('',*,*,#717,.F.);
#719=ORIENTED_EDGE('',*,*,#680,.T.);
#720=EDGE_LOOP('',(#704,#712,#718,#719));
#721=FACE_OUTER_BOUND('',#720,.T.);
#722=ADVANCED_FACE('',(#721),#696,.T.);
#723=CARTESIAN_POINT('',(-3.5,-0.835,4.116868E-032));
#724=DIRECTION('',(0.0,0.0,-1.0));
#725=DIRECTION('',(-1.0,0.0,0.0));
#726=AXIS2_PLACEMENT_3D('',#723,#724,#725);
#727=PLANE('',#726);
#728=CARTESIAN_POINT('',(-3.023444546590426,-0.435000000000001,4.116868E-032));
#729=VERTEX_POINT('',#728);
#730=CARTESIAN_POINT('',(-3.5,-0.435,4.116868E-032));
#731=DIRECTION('',(1.0,0.0,0.0));
#732=VECTOR('',#731,0.476555453409574);
#733=LINE('',#730,#732);
#734=EDGE_CURVE('',#698,#729,#733,.T.);
#735=ORIENTED_EDGE('',*,*,#734,.T.);
#736=CARTESIAN_POINT('',(-3.023444546590426,-0.835000000000001,4.116868E-032));
#737=VERTEX_POINT('',#736);
#738=CARTESIAN_POINT('',(-3.023444546590426,-0.835000000000001,4.116868E-032));
#739=DIRECTION('',(0.0,1.0,0.0));
#740=VECTOR('',#739,0.4);
#741=LINE('',#738,#740);
#742=EDGE_CURVE('',#737,#729,#741,.T.);
#743=ORIENTED_EDGE('',*,*,#742,.F.);
#744=CARTESIAN_POINT('',(-3.5,-0.835,4.116868E-032));
#745=DIRECTION('',(1.0,0.0,0.0));
#746=VECTOR('',#745,0.476555453409574);
#747=LINE('',#744,#746);
#748=EDGE_CURVE('',#706,#737,#747,.T.);
#749=ORIENTED_EDGE('',*,*,#748,.F.);
#750=ORIENTED_EDGE('',*,*,#711,.T.);
#751=EDGE_LOOP('',(#735,#743,#749,#750));
#752=FACE_OUTER_BOUND('',#751,.T.);
#753=ADVANCED_FACE('',(#752),#727,.T.);
#754=CARTESIAN_POINT('',(-3.023444546590426,-0.835000000000001,0.25));
#755=DIRECTION('',(2.449294E-016,1.0,0.0));
#756=DIRECTION('',(0.635446905444895,-1.556396E-016,-0.772144565713252));
#757=AXIS2_PLACEMENT_3D('',#754,#755,#756);
#758=CYLINDRICAL_SURFACE('',#757,0.25);
#759=CARTESIAN_POINT('',(-2.778116109171137,-0.435000000000001,0.201896384819747));
#760=VERTEX_POINT('',#759);
#761=CARTESIAN_POINT('',(-3.023444546590426,-0.435,0.25));
#762=DIRECTION('',(-9.240699E-018,-1.0,1.122856E-017));
#763=DIRECTION('',(0.635446905444895,-1.454205E-017,-0.772144565713252));
#764=AXIS2_PLACEMENT_3D('',#761,#762,#763);
#765=CIRCLE('',#764,0.25);
#766=EDGE_CURVE('',#729,#760,#765,.T.);
#767=ORIENTED_EDGE('',*,*,#766,.T.);
#768=CARTESIAN_POINT('',(-2.778116109171137,-0.835000000000001,0.201896384819747));
#769=VERTEX_POINT('',#768);
#770=CARTESIAN_POINT('',(-2.778116109171137,-0.835000000000001,0.201896384819747));
#771=DIRECTION('',(0.0,1.0,0.0));
#772=VECTOR('',#771,0.4);
#773=LINE('',#770,#772);
#774=EDGE_CURVE('',#769,#760,#773,.T.);
#775=ORIENTED_EDGE('',*,*,#774,.F.);
#776=CARTESIAN_POINT('',(-3.023444546590426,-0.835000000000001,0.25));
#777=DIRECTION('',(-9.240699E-018,-1.0,1.122856E-017));
#778=DIRECTION('',(0.635446905444895,-1.454205E-017,-0.772144565713252));
#779=AXIS2_PLACEMENT_3D('',#776,#777,#778);
#780=CIRCLE('',#779,0.25);
#781=EDGE_CURVE('',#737,#769,#780,.T.);
#782=ORIENTED_EDGE('',*,*,#781,.F.);
#783=ORIENTED_EDGE('',*,*,#742,.T.);
#784=EDGE_LOOP('',(#767,#775,#782,#783));
#785=FACE_OUTER_BOUND('',#784,.T.);
#786=ADVANCED_FACE('',(#785),#758,.T.);
#787=CARTESIAN_POINT('',(-2.778116109171137,-0.835000000000001,0.201896384819747));
#788=DIRECTION('',(0.981313749677157,-2.403525E-016,-0.192414460721012));
#789=DIRECTION('',(-0.192414460721012,4.712795E-017,-0.981313749677157));
#790=AXIS2_PLACEMENT_3D('',#787,#788,#789);
#791=PLANE('',#790);
#792=CARTESIAN_POINT('',(-2.778116109171137,-0.435,0.201896384819747));
#793=DIRECTION('',(0.192414460721011,0.0,0.981313749677157));
#794=VECTOR('',#793,0.833682005830859);
#795=LINE('',#792,#794);
#796=EDGE_CURVE('',#760,#468,#795,.T.);
#797=ORIENTED_EDGE('',*,*,#796,.T.);
#798=ORIENTED_EDGE('',*,*,#497,.F.);
#799=CARTESIAN_POINT('',(-2.778116109171137,-0.835000000000001,0.201896384819747));
#800=DIRECTION('',(0.192414460721011,0.0,0.981313749677157));
#801=VECTOR('',#800,0.833682005830859);
#802=LINE('',#799,#801);
#803=EDGE_CURVE('',#769,#486,#802,.T.);
#804=ORIENTED_EDGE('',*,*,#803,.F.);
#805=ORIENTED_EDGE('',*,*,#774,.T.);
#806=EDGE_LOOP('',(#797,#798,#804,#805));
#807=FACE_OUTER_BOUND('',#806,.T.);
#808=ADVANCED_FACE('',(#807),#791,.T.);
#809=CARTESIAN_POINT('',(-2.832775827756768,-0.435000000000001,0.591008711474416));
#810=DIRECTION('',(0.0,1.0,0.0));
#811=DIRECTION('',(0.0,0.0,1.0));
#812=AXIS2_PLACEMENT_3D('',#809,#810,#811);
#813=PLANE('',#812);
#814=ORIENTED_EDGE('',*,*,#475,.F.);
#815=ORIENTED_EDGE('',*,*,#796,.F.);
#816=ORIENTED_EDGE('',*,*,#766,.F.);
#817=ORIENTED_EDGE('',*,*,#734,.F.);
#818=ORIENTED_EDGE('',*,*,#703,.F.);
#819=ORIENTED_EDGE('',*,*,#672,.F.);
#820=ORIENTED_EDGE('',*,*,#640,.F.);
#821=ORIENTED_EDGE('',*,*,#608,.F.);
#822=ORIENTED_EDGE('',*,*,#576,.F.);
#823=ORIENTED_EDGE('',*,*,#544,.F.);
#824=ORIENTED_EDGE('',*,*,#513,.F.);
#825=EDGE_LOOP('',(#814,#815,#816,#817,#818,#819,#820,#821,#822,#823,#824));
#826=FACE_OUTER_BOUND('',#825,.T.);
#827=ADVANCED_FACE('',(#826),#813,.T.);
#828=CARTESIAN_POINT('',(-2.832775827756769,-0.835000000000001,0.591008711474416));
#829=DIRECTION('',(0.0,1.0,0.0));
#830=DIRECTION('',(0.0,0.0,1.0));
#831=AXIS2_PLACEMENT_3D('',#828,#829,#830);
#832=PLANE('',#831);
#833=ORIENTED_EDGE('',*,*,#803,.T.);
#834=ORIENTED_EDGE('',*,*,#491,.T.);
#835=ORIENTED_EDGE('',*,*,#527,.T.);
#836=ORIENTED_EDGE('',*,*,#558,.T.);
#837=ORIENTED_EDGE('',*,*,#591,.T.);
#838=ORIENTED_EDGE('',*,*,#622,.T.);
#839=ORIENTED_EDGE('',*,*,#655,.T.);
#840=ORIENTED_EDGE('',*,*,#686,.T.);
#841=ORIENTED_EDGE('',*,*,#717,.T.);
#842=ORIENTED_EDGE('',*,*,#748,.T.);
#843=ORIENTED_EDGE('',*,*,#781,.T.);
#844=EDGE_LOOP('',(#833,#834,#835,#836,#837,#838,#839,#840,#841,#842,#843));
#845=FACE_OUTER_BOUND('',#844,.T.);
#846=ADVANCED_FACE('',(#845),#832,.F.);
#847=CLOSED_SHELL('',(#501,#532,#563,#596,#627,#660,#691,#722,#753,#786,#808,#827,#846));
#848=MANIFOLD_SOLID_BREP('2C0E',#847);
#849=STYLED_ITEM('NONE',(#458),#848);
#850=CARTESIAN_POINT('',(2.617703635606381,-0.435,1.02));
#851=DIRECTION('',(0.0,0.0,-1.0));
#852=DIRECTION('',(1.0,0.0,0.0));
#853=AXIS2_PLACEMENT_3D('',#850,#851,#852);
#854=PLANE('',#853);
#855=CARTESIAN_POINT('',(2.617703635606381,-0.835,1.02));
#856=VERTEX_POINT('',#855);
#857=CARTESIAN_POINT('',(2.2,-0.835,1.02));
#858=VERTEX_POINT('',#857);
#859=CARTESIAN_POINT('',(2.617703635606381,-0.835,1.02));
#860=DIRECTION('',(-1.0,0.0,0.0));
#861=VECTOR('',#860,0.417703635606382);
#862=LINE('',#859,#861);
#863=EDGE_CURVE('',#856,#858,#862,.T.);
#864=ORIENTED_EDGE('',*,*,#863,.T.);
#865=CARTESIAN_POINT('',(2.2,-0.435,1.02));
#866=VERTEX_POINT('',#865);
#867=CARTESIAN_POINT('',(2.2,-0.435,1.02));
#868=DIRECTION('',(0.0,-1.0,0.0));
#869=VECTOR('',#868,0.4);
#870=LINE('',#867,#869);
#871=EDGE_CURVE('',#866,#858,#870,.T.);
#872=ORIENTED_EDGE('',*,*,#871,.F.);
#873=CARTESIAN_POINT('',(2.617703635606381,-0.435,1.02));
#874=VERTEX_POINT('',#873);
#875=CARTESIAN_POINT('',(2.617703635606381,-0.435,1.02));
#876=DIRECTION('',(-1.0,0.0,0.0));
#877=VECTOR('',#876,0.417703635606382);
#878=LINE('',#875,#877);
#879=EDGE_CURVE('',#874,#866,#878,.T.);
#880=ORIENTED_EDGE('',*,*,#879,.F.);
#881=CARTESIAN_POINT('',(2.617703635606381,-0.435,1.02));
#882=DIRECTION('',(0.0,-1.0,0.0));
#883=VECTOR('',#882,0.4);
#884=LINE('',#881,#883);
#885=EDGE_CURVE('',#874,#856,#884,.T.);
#886=ORIENTED_EDGE('',*,*,#885,.T.);
#887=EDGE_LOOP('',(#864,#872,#880,#886));
#888=FACE_OUTER_BOUND('',#887,.T.);
#889=ADVANCED_FACE('',(#888),#854,.T.);
#890=CARTESIAN_POINT('',(2.2,-0.435,1.02));
#891=DIRECTION('',(-1.0,0.0,0.0));
#892=DIRECTION('',(0.0,0.0,-1.0));
#893=AXIS2_PLACEMENT_3D('',#890,#891,#892);
#894=PLANE('',#893);
#895=CARTESIAN_POINT('',(2.2,-0.835,1.219999999999975));
#896=VERTEX_POINT('',#895);
#897=CARTESIAN_POINT('',(2.2,-0.835,1.02));
#898=DIRECTION('',(0.0,0.0,1.0));
#899=VECTOR('',#898,0.199999999999975);
#900=LINE('',#897,#899);
#901=EDGE_CURVE('',#858,#896,#900,.T.);
#902=ORIENTED_EDGE('',*,*,#901,.T.);
#903=CARTESIAN_POINT('',(2.2,-0.435,1.219999999999975));
#904=VERTEX_POINT('',#903);
#905=CARTESIAN_POINT('',(2.2,-0.435,1.219999999999975));
#906=DIRECTION('',(0.0,-1.0,0.0));
#907=VECTOR('',#906,0.4);
#908=LINE('',#905,#907);
#909=EDGE_CURVE('',#904,#896,#908,.T.);
#910=ORIENTED_EDGE('',*,*,#909,.F.);
#911=CARTESIAN_POINT('',(2.2,-0.435,1.02));
#912=DIRECTION('',(0.0,0.0,1.0));
#913=VECTOR('',#912,0.199999999999975);
#914=LINE('',#911,#913);
#915=EDGE_CURVE('',#866,#904,#914,.T.);
#916=ORIENTED_EDGE('',*,*,#915,.F.);
#917=ORIENTED_EDGE('',*,*,#871,.T.);
#918=EDGE_LOOP('',(#902,#910,#916,#917));
#919=FACE_OUTER_BOUND('',#918,.T.);
#920=ADVANCED_FACE('',(#919),#894,.T.);
#921=CARTESIAN_POINT('',(2.2,-0.435,1.219999999999975));
#922=DIRECTION('',(0.0,0.0,1.0));
#923=DIRECTION('',(-1.0,0.0,0.0));
#924=AXIS2_PLACEMENT_3D('',#921,#922,#923);
#925=PLANE('',#924);
#926=CARTESIAN_POINT('',(2.617703635606381,-0.835,1.22));
#927=VERTEX_POINT('',#926);
#928=CARTESIAN_POINT('',(2.2,-0.835,1.219999999999975));
#929=DIRECTION('',(1.0,0.0,0.0));
#930=VECTOR('',#929,0.417703635606381);
#931=LINE('',#928,#930);
#932=EDGE_CURVE('',#896,#927,#931,.T.);
#933=ORIENTED_EDGE('',*,*,#932,.T.);
#934=CARTESIAN_POINT('',(2.617703635606381,-0.435,1.22));
#935=VERTEX_POINT('',#934);
#936=CARTESIAN_POINT('',(2.617703635606381,-0.435,1.22));
#937=DIRECTION('',(0.0,-1.0,0.0));
#938=VECTOR('',#937,0.4);
#939=LINE('',#936,#938);
#940=EDGE_CURVE('',#935,#927,#939,.T.);
#941=ORIENTED_EDGE('',*,*,#940,.F.);
#942=CARTESIAN_POINT('',(2.2,-0.435,1.219999999999975));
#943=DIRECTION('',(1.0,0.0,0.0));
#944=VECTOR('',#943,0.417703635606381);
#945=LINE('',#942,#944);
#946=EDGE_CURVE('',#904,#935,#945,.T.);
#947=ORIENTED_EDGE('',*,*,#946,.F.);
#948=ORIENTED_EDGE('',*,*,#909,.T.);
#949=EDGE_LOOP('',(#933,#941,#947,#948));
#950=FACE_OUTER_BOUND('',#949,.T.);
#951=ADVANCED_FACE('',(#950),#925,.T.);
#952=CARTESIAN_POINT('',(2.617703635606381,-0.435,1.019999999999999));
#953=DIRECTION('',(-1.224647E-016,-1.0,0.0));
#954=DIRECTION('',(0.635446905444896,-7.781980E-017,0.772144565713251));
#955=AXIS2_PLACEMENT_3D('',#952,#953,#954);
#956=CYLINDRICAL_SURFACE('',#955,0.200000000000001);
#957=CARTESIAN_POINT('',(2.813966385541813,-0.835,1.058482892144202));
#958=VERTEX_POINT('',#957);
#959=CARTESIAN_POINT('',(2.617703635606381,-0.835,1.019999999999999));
#960=DIRECTION('',(-4.020965E-017,1.0,-4.885957E-017));
#961=DIRECTION('',(0.635446905444896,6.327776E-017,0.772144565713251));
#962=AXIS2_PLACEMENT_3D('',#959,#960,#961);
#963=CIRCLE('',#962,0.200000000000001);
#964=EDGE_CURVE('',#927,#958,#963,.T.);
#965=ORIENTED_EDGE('',*,*,#964,.T.);
#966=CARTESIAN_POINT('',(2.813966385541813,-0.435,1.058482892144202));
#967=VERTEX_POINT('',#966);
#968=CARTESIAN_POINT('',(2.813966385541813,-0.435,1.058482892144202));
#969=DIRECTION('',(0.0,-1.0,0.0));
#970=VECTOR('',#969,0.4);
#971=LINE('',#968,#970);
#972=EDGE_CURVE('',#967,#958,#971,.T.);
#973=ORIENTED_EDGE('',*,*,#972,.F.);
#974=CARTESIAN_POINT('',(2.617703635606381,-0.435,1.019999999999999));
#975=DIRECTION('',(-4.020965E-017,1.0,-4.885957E-017));
#976=DIRECTION('',(0.635446905444896,6.327776E-017,0.772144565713251));
#977=AXIS2_PLACEMENT_3D('',#974,#975,#976);
#978=CIRCLE('',#977,0.200000000000001);
#979=EDGE_CURVE('',#935,#967,#978,.T.);
#980=ORIENTED_EDGE('',*,*,#979,.F.);
#981=ORIENTED_EDGE('',*,*,#940,.T.);
#982=EDGE_LOOP('',(#965,#973,#980,#981));
#983=FACE_OUTER_BOUND('',#982,.T.);
#984=ADVANCED_FACE('',(#983),#956,.T.);
#985=CARTESIAN_POINT('',(2.813966385541813,-0.435,1.058482892144202));
#986=DIRECTION('',(0.981313749677157,-1.201763E-016,0.192414460721013));
#987=DIRECTION('',(-0.192414460721013,2.356398E-017,0.981313749677157));
#988=AXIS2_PLACEMENT_3D('',#985,#986,#987);
#989=PLANE('',#988);
#990=CARTESIAN_POINT('',(2.97437885910657,-0.835,0.240379276963948));
#991=VERTEX_POINT('',#990);
#992=CARTESIAN_POINT('',(2.813966385541813,-0.835,1.058482892144202));
#993=DIRECTION('',(0.192414460721013,0.0,-0.981313749677157));
#994=VECTOR('',#993,0.833682005830859);
#995=LINE('',#992,#994);
#996=EDGE_CURVE('',#958,#991,#995,.T.);
#997=ORIENTED_EDGE('',*,*,#996,.T.);
#998=CARTESIAN_POINT('',(2.97437885910657,-0.435,0.240379276963948));
#999=VERTEX_POINT('',#998);
#1000=CARTESIAN_POINT('',(2.97437885910657,-0.435,0.240379276963948));
#1001=DIRECTION('',(0.0,-1.0,0.0));
#1002=VECTOR('',#1001,0.4);
#1003=LINE('',#1000,#1002);
#1004=EDGE_CURVE('',#999,#991,#1003,.T.);
#1005=ORIENTED_EDGE('',*,*,#1004,.F.);
#1006=CARTESIAN_POINT('',(2.813966385541813,-0.435,1.058482892144202));
#1007=DIRECTION('',(0.192414460721013,0.0,-0.981313749677157));
#1008=VECTOR('',#1007,0.833682005830859);
#1009=LINE('',#1006,#1008);
#1010=EDGE_CURVE('',#967,#999,#1009,.T.);
#1011=ORIENTED_EDGE('',*,*,#1010,.F.);
#1012=ORIENTED_EDGE('',*,*,#972,.T.);
#1013=EDGE_LOOP('',(#997,#1005,#1011,#1012));
#1014=FACE_OUTER_BOUND('',#1013,.T.);
#1015=ADVANCED_FACE('',(#1014),#989,.T.);
#1016=CARTESIAN_POINT('',(3.023444546590425,-0.435,0.249999999999996));
#1017=DIRECTION('',(-1.224647E-016,-1.0,0.0));
#1018=DIRECTION('',(-0.635446905444902,7.781980E-017,-0.772144565713246));
#1019=AXIS2_PLACEMENT_3D('',#1016,#1017,#1018);
#1020=CYLINDRICAL_SURFACE('',#1019,0.049999999999996);
#1021=CARTESIAN_POINT('',(3.023444546590426,-0.835,0.2));
#1022=VERTEX_POINT('',#1021);
#1023=CARTESIAN_POINT('',(3.023444546590425,-0.835,0.249999999999996));
#1024=DIRECTION('',(4.020965E-017,-1.0,4.885957E-017));
#1025=DIRECTION('',(-0.635446905444902,-6.327776E-017,-0.772144565713246));
#1026=AXIS2_PLACEMENT_3D('',#1023,#1024,#1025);
#1027=CIRCLE('',#1026,0.049999999999996);
#1028=EDGE_CURVE('',#991,#1022,#1027,.T.);
#1029=ORIENTED_EDGE('',*,*,#1028,.T.);
#1030=CARTESIAN_POINT('',(3.023444546590426,-0.435,0.2));
#1031=VERTEX_POINT('',#1030);
#1032=CARTESIAN_POINT('',(3.023444546590426,-0.435,0.2));
#1033=DIRECTION('',(0.0,-1.0,0.0));
#1034=VECTOR('',#1033,0.4);
#1035=LINE('',#1032,#1034);
#1036=EDGE_CURVE('',#1031,#1022,#1035,.T.);
#1037=ORIENTED_EDGE('',*,*,#1036,.F.);
#1038=CARTESIAN_POINT('',(3.023444546590425,-0.435,0.249999999999996));
#1039=DIRECTION('',(4.020965E-017,-1.0,4.885957E-017));
#1040=DIRECTION('',(-0.635446905444902,-6.327776E-017,-0.772144565713246));
#1041=AXIS2_PLACEMENT_3D('',#1038,#1039,#1040);
#1042=CIRCLE('',#1041,0.049999999999996);
#1043=EDGE_CURVE('',#999,#1031,#1042,.T.);
#1044=ORIENTED_EDGE('',*,*,#1043,.F.);
#1045=ORIENTED_EDGE('',*,*,#1004,.T.);
#1046=EDGE_LOOP('',(#1029,#1037,#1044,#1045));
#1047=FACE_OUTER_BOUND('',#1046,.T.);
#1048=ADVANCED_FACE('',(#1047),#1020,.F.);
#1049=CARTESIAN_POINT('',(3.023444546590426,-0.435,0.2));
#1050=DIRECTION('',(0.0,0.0,1.0));
#1051=DIRECTION('',(-1.0,0.0,0.0));
#1052=AXIS2_PLACEMENT_3D('',#1049,#1050,#1051);
#1053=PLANE('',#1052);
#1054=CARTESIAN_POINT('',(3.5,-0.835,0.2));
#1055=VERTEX_POINT('',#1054);
#1056=CARTESIAN_POINT('',(3.023444546590426,-0.835,0.2));
#1057=DIRECTION('',(1.0,0.0,0.0));
#1058=VECTOR('',#1057,0.476555453409574);
#1059=LINE('',#1056,#1058);
#1060=EDGE_CURVE('',#1022,#1055,#1059,.T.);
#1061=ORIENTED_EDGE('',*,*,#1060,.T.);
#1062=CARTESIAN_POINT('',(3.5,-0.435,0.2));
#1063=VERTEX_POINT('',#1062);
#1064=CARTESIAN_POINT('',(3.5,-0.435,0.2));
#1065=DIRECTION('',(0.0,-1.0,0.0));
#1066=VECTOR('',#1065,0.4);
#1067=LINE('',#1064,#1066);
#1068=EDGE_CURVE('',#1063,#1055,#1067,.T.);
#1069=ORIENTED_EDGE('',*,*,#1068,.F.);
#1070=CARTESIAN_POINT('',(3.023444546590426,-0.435,0.2));
#1071=DIRECTION('',(1.0,0.0,0.0));
#1072=VECTOR('',#1071,0.476555453409574);
#1073=LINE('',#1070,#1072);
#1074=EDGE_CURVE('',#1031,#1063,#1073,.T.);
#1075=ORIENTED_EDGE('',*,*,#1074,.F.);
#1076=ORIENTED_EDGE('',*,*,#1036,.T.);
#1077=EDGE_LOOP('',(#1061,#1069,#1075,#1076));
#1078=FACE_OUTER_BOUND('',#1077,.T.);
#1079=ADVANCED_FACE('',(#1078),#1053,.T.);
#1080=CARTESIAN_POINT('',(3.5,-0.435,0.2));
#1081=DIRECTION('',(1.0,0.0,0.0));
#1082=DIRECTION('',(0.0,0.0,1.0));
#1083=AXIS2_PLACEMENT_3D('',#1080,#1081,#1082);
#1084=PLANE('',#1083);
#1085=CARTESIAN_POINT('',(3.5,-0.835,-2.220446E-016));
#1086=VERTEX_POINT('',#1085);
#1087=CARTESIAN_POINT('',(3.5,-0.835,0.2));
#1088=DIRECTION('',(0.0,0.0,-1.0));
#1089=VECTOR('',#1088,0.2);
#1090=LINE('',#1087,#1089);
#1091=EDGE_CURVE('',#1055,#1086,#1090,.T.);
#1092=ORIENTED_EDGE('',*,*,#1091,.T.);
#1093=CARTESIAN_POINT('',(3.5,-0.435,-2.220446E-016));
#1094=VERTEX_POINT('',#1093);
#1095=CARTESIAN_POINT('',(3.5,-0.435,-2.220446E-016));
#1096=DIRECTION('',(0.0,-1.0,0.0));
#1097=VECTOR('',#1096,0.4);
#1098=LINE('',#1095,#1097);
#1099=EDGE_CURVE('',#1094,#1086,#1098,.T.);
#1100=ORIENTED_EDGE('',*,*,#1099,.F.);
#1101=CARTESIAN_POINT('',(3.5,-0.435,0.2));
#1102=DIRECTION('',(0.0,0.0,-1.0));
#1103=VECTOR('',#1102,0.2);
#1104=LINE('',#1101,#1103);
#1105=EDGE_CURVE('',#1063,#1094,#1104,.T.);
#1106=ORIENTED_EDGE('',*,*,#1105,.F.);
#1107=ORIENTED_EDGE('',*,*,#1068,.T.);
#1108=EDGE_LOOP('',(#1092,#1100,#1106,#1107));
#1109=FACE_OUTER_BOUND('',#1108,.T.);
#1110=ADVANCED_FACE('',(#1109),#1084,.T.);
#1111=CARTESIAN_POINT('',(3.5,-0.435,-2.220446E-016));
#1112=DIRECTION('',(0.0,0.0,-1.0));
#1113=DIRECTION('',(1.0,0.0,0.0));
#1114=AXIS2_PLACEMENT_3D('',#1111,#1112,#1113);
#1115=PLANE('',#1114);
#1116=CARTESIAN_POINT('',(3.023444546590426,-0.835,-2.220446E-016));
#1117=VERTEX_POINT('',#1116);
#1118=CARTESIAN_POINT('',(3.5,-0.835,-2.220446E-016));
#1119=DIRECTION('',(-1.0,0.0,0.0));
#1120=VECTOR('',#1119,0.476555453409574);
#1121=LINE('',#1118,#1120);
#1122=EDGE_CURVE('',#1086,#1117,#1121,.T.);
#1123=ORIENTED_EDGE('',*,*,#1122,.T.);
#1124=CARTESIAN_POINT('',(3.023444546590426,-0.435,-2.220446E-016));
#1125=VERTEX_POINT('',#1124);
#1126=CARTESIAN_POINT('',(3.023444546590426,-0.435,-2.220446E-016));
#1127=DIRECTION('',(0.0,-1.0,0.0));
#1128=VECTOR('',#1127,0.4);
#1129=LINE('',#1126,#1128);
#1130=EDGE_CURVE('',#1125,#1117,#1129,.T.);
#1131=ORIENTED_EDGE('',*,*,#1130,.F.);
#1132=CARTESIAN_POINT('',(3.5,-0.435,-2.220446E-016));
#1133=DIRECTION('',(-1.0,0.0,0.0));
#1134=VECTOR('',#1133,0.476555453409574);
#1135=LINE('',#1132,#1134);
#1136=EDGE_CURVE('',#1094,#1125,#1135,.T.);
#1137=ORIENTED_EDGE('',*,*,#1136,.F.);
#1138=ORIENTED_EDGE('',*,*,#1099,.T.);
#1139=EDGE_LOOP('',(#1123,#1131,#1137,#1138));
#1140=FACE_OUTER_BOUND('',#1139,.T.);
#1141=ADVANCED_FACE('',(#1140),#1115,.T.);
#1142=CARTESIAN_POINT('',(3.023444546590427,-0.435,0.25));
#1143=DIRECTION('',(-1.224647E-016,-1.0,0.0));
#1144=DIRECTION('',(-0.635446905444895,7.781980E-017,-0.772144565713252));
#1145=AXIS2_PLACEMENT_3D('',#1142,#1143,#1144);
#1146=CYLINDRICAL_SURFACE('',#1145,0.25);
#1147=CARTESIAN_POINT('',(2.778116109171137,-0.835,0.201896384819746));
#1148=VERTEX_POINT('',#1147);
#1149=CARTESIAN_POINT('',(3.023444546590427,-0.835,0.25));
#1150=DIRECTION('',(-4.020965E-017,1.0,-4.885957E-017));
#1151=DIRECTION('',(-0.635446905444895,-6.327776E-017,-0.772144565713252));
#1152=AXIS2_PLACEMENT_3D('',#1149,#1150,#1151);
#1153=CIRCLE('',#1152,0.25);
#1154=EDGE_CURVE('',#1117,#1148,#1153,.T.);
#1155=ORIENTED_EDGE('',*,*,#1154,.T.);
#1156=CARTESIAN_POINT('',(2.778116109171137,-0.435,0.201896384819746));
#1157=VERTEX_POINT('',#1156);
#1158=CARTESIAN_POINT('',(2.778116109171137,-0.435,0.201896384819746));
#1159=DIRECTION('',(0.0,-1.0,0.0));
#1160=VECTOR('',#1159,0.4);
#1161=LINE('',#1158,#1160);
#1162=EDGE_CURVE('',#1157,#1148,#1161,.T.);
#1163=ORIENTED_EDGE('',*,*,#1162,.F.);
#1164=CARTESIAN_POINT('',(3.023444546590427,-0.435,0.25));
#1165=DIRECTION('',(-4.020965E-017,1.0,-4.885957E-017));
#1166=DIRECTION('',(-0.635446905444895,-6.327776E-017,-0.772144565713252));
#1167=AXIS2_PLACEMENT_3D('',#1164,#1165,#1166);
#1168=CIRCLE('',#1167,0.25);
#1169=EDGE_CURVE('',#1125,#1157,#1168,.T.);
#1170=ORIENTED_EDGE('',*,*,#1169,.F.);
#1171=ORIENTED_EDGE('',*,*,#1130,.T.);
#1172=EDGE_LOOP('',(#1155,#1163,#1170,#1171));
#1173=FACE_OUTER_BOUND('',#1172,.T.);
#1174=ADVANCED_FACE('',(#1173),#1146,.T.);
#1175=CARTESIAN_POINT('',(2.778116109171137,-0.435,0.201896384819746));
#1176=DIRECTION('',(-0.981313749677157,1.201763E-016,-0.192414460721012));
#1177=DIRECTION('',(0.192414460721012,-2.356398E-017,-0.981313749677157));
#1178=AXIS2_PLACEMENT_3D('',#1175,#1176,#1177);
#1179=PLANE('',#1178);
#1180=CARTESIAN_POINT('',(2.778116109171137,-0.835,0.201896384819746));
#1181=DIRECTION('',(-0.192414460721011,0.0,0.981313749677157));
#1182=VECTOR('',#1181,0.833682005830859);
#1183=LINE('',#1180,#1182);
#1184=EDGE_CURVE('',#1148,#856,#1183,.T.);
#1185=ORIENTED_EDGE('',*,*,#1184,.T.);
#1186=ORIENTED_EDGE('',*,*,#885,.F.);
#1187=CARTESIAN_POINT('',(2.778116109171137,-0.435,0.201896384819746));
#1188=DIRECTION('',(-0.192414460721011,0.0,0.981313749677157));
#1189=VECTOR('',#1188,0.833682005830859);
#1190=LINE('',#1187,#1189);
#1191=EDGE_CURVE('',#1157,#874,#1190,.T.);
#1192=ORIENTED_EDGE('',*,*,#1191,.F.);
#1193=ORIENTED_EDGE('',*,*,#1162,.T.);
#1194=EDGE_LOOP('',(#1185,#1186,#1192,#1193));
#1195=FACE_OUTER_BOUND('',#1194,.T.);
#1196=ADVANCED_FACE('',(#1195),#1179,.T.);
#1197=CARTESIAN_POINT('',(2.832775827756769,-0.835,0.591008711474416));
#1198=DIRECTION('',(0.0,-1.0,0.0));
#1199=DIRECTION('',(0.0,0.0,1.0));
#1200=AXIS2_PLACEMENT_3D('',#1197,#1198,#1199);
#1201=PLANE('',#1200);
#1202=ORIENTED_EDGE('',*,*,#863,.F.);
#1203=ORIENTED_EDGE('',*,*,#1184,.F.);
#1204=ORIENTED_EDGE('',*,*,#1154,.F.);
#1205=ORIENTED_EDGE('',*,*,#1122,.F.);
#1206=ORIENTED_EDGE('',*,*,#1091,.F.);
#1207=ORIENTED_EDGE('',*,*,#1060,.F.);
#1208=ORIENTED_EDGE('',*,*,#1028,.F.);
#1209=ORIENTED_EDGE('',*,*,#996,.F.);
#1210=ORIENTED_EDGE('',*,*,#964,.F.);
#1211=ORIENTED_EDGE('',*,*,#932,.F.);
#1212=ORIENTED_EDGE('',*,*,#901,.F.);
#1213=EDGE_LOOP('',(#1202,#1203,#1204,#1205,#1206,#1207,#1208,#1209,#1210,#1211,#1212));
#1214=FACE_OUTER_BOUND('',#1213,.T.);
#1215=ADVANCED_FACE('',(#1214),#1201,.T.);
#1216=CARTESIAN_POINT('',(2.832775827756769,-0.435,0.591008711474416));
#1217=DIRECTION('',(0.0,-1.0,0.0));
#1218=DIRECTION('',(0.0,0.0,1.0));
#1219=AXIS2_PLACEMENT_3D('',#1216,#1217,#1218);
#1220=PLANE('',#1219);
#1221=ORIENTED_EDGE('',*,*,#1191,.T.);
#1222=ORIENTED_EDGE('',*,*,#879,.T.);
#1223=ORIENTED_EDGE('',*,*,#915,.T.);
#1224=ORIENTED_EDGE('',*,*,#946,.T.);
#1225=ORIENTED_EDGE('',*,*,#979,.T.);
#1226=ORIENTED_EDGE('',*,*,#1010,.T.);
#1227=ORIENTED_EDGE('',*,*,#1043,.T.);
#1228=ORIENTED_EDGE('',*,*,#1074,.T.);
#1229=ORIENTED_EDGE('',*,*,#1105,.T.);
#1230=ORIENTED_EDGE('',*,*,#1136,.T.);
#1231=ORIENTED_EDGE('',*,*,#1169,.T.);
#1232=EDGE_LOOP('',(#1221,#1222,#1223,#1224,#1225,#1226,#1227,#1228,#1229,#1230,#1231));
#1233=FACE_OUTER_BOUND('',#1232,.T.);
#1234=ADVANCED_FACE('',(#1233),#1220,.F.);
#1235=CLOSED_SHELL('',(#889,#920,#951,#984,#1015,#1048,#1079,#1110,#1141,#1174,#1196,#1215,#1234));
#1236=MANIFOLD_SOLID_BREP('2C0A',#1235);
#1237=STYLED_ITEM('NONE',(#458),#1236);
#1238=CARTESIAN_POINT('',(2.617703635606381,0.835,1.02));
#1239=DIRECTION('',(0.0,0.0,-1.0));
#1240=DIRECTION('',(1.0,0.0,0.0));
#1241=AXIS2_PLACEMENT_3D('',#1238,#1239,#1240);
#1242=PLANE('',#1241);
#1243=CARTESIAN_POINT('',(2.617703635606381,0.435,1.02));
#1244=VERTEX_POINT('',#1243);
#1245=CARTESIAN_POINT('',(2.199999999999999,0.435,1.02));
#1246=VERTEX_POINT('',#1245);
#1247=CARTESIAN_POINT('',(2.617703635606381,0.435,1.02));
#1248=DIRECTION('',(-1.0,0.0,0.0));
#1249=VECTOR('',#1248,0.417703635606382);
#1250=LINE('',#1247,#1249);
#1251=EDGE_CURVE('',#1244,#1246,#1250,.T.);
#1252=ORIENTED_EDGE('',*,*,#1251,.T.);
#1253=CARTESIAN_POINT('',(2.199999999999999,0.835,1.02));
#1254=VERTEX_POINT('',#1253);
#1255=CARTESIAN_POINT('',(2.199999999999999,0.835,1.02));
#1256=DIRECTION('',(0.0,-1.0,0.0));
#1257=VECTOR('',#1256,0.4);
#1258=LINE('',#1255,#1257);
#1259=EDGE_CURVE('',#1254,#1246,#1258,.T.);
#1260=ORIENTED_EDGE('',*,*,#1259,.F.);
#1261=CARTESIAN_POINT('',(2.617703635606381,0.835,1.02));
#1262=VERTEX_POINT('',#1261);
#1263=CARTESIAN_POINT('',(2.617703635606381,0.835,1.02));
#1264=DIRECTION('',(-1.0,0.0,0.0));
#1265=VECTOR('',#1264,0.417703635606382);
#1266=LINE('',#1263,#1265);
#1267=EDGE_CURVE('',#1262,#1254,#1266,.T.);
#1268=ORIENTED_EDGE('',*,*,#1267,.F.);
#1269=CARTESIAN_POINT('',(2.617703635606381,0.835,1.02));
#1270=DIRECTION('',(0.0,-1.0,0.0));
#1271=VECTOR('',#1270,0.4);
#1272=LINE('',#1269,#1271);
#1273=EDGE_CURVE('',#1262,#1244,#1272,.T.);
#1274=ORIENTED_EDGE('',*,*,#1273,.T.);
#1275=EDGE_LOOP('',(#1252,#1260,#1268,#1274));
#1276=FACE_OUTER_BOUND('',#1275,.T.);
#1277=ADVANCED_FACE('',(#1276),#1242,.T.);
#1278=CARTESIAN_POINT('',(2.199999999999999,0.835,1.02));
#1279=DIRECTION('',(-1.0,0.0,0.0));
#1280=DIRECTION('',(0.0,0.0,-1.0));
#1281=AXIS2_PLACEMENT_3D('',#1278,#1279,#1280);
#1282=PLANE('',#1281);
#1283=CARTESIAN_POINT('',(2.2,0.435,1.219999999999975));
#1284=VERTEX_POINT('',#1283);
#1285=CARTESIAN_POINT('',(2.199999999999999,0.435,1.02));
#1286=DIRECTION('',(0.0,0.0,1.0));
#1287=VECTOR('',#1286,0.199999999999975);
#1288=LINE('',#1285,#1287);
#1289=EDGE_CURVE('',#1246,#1284,#1288,.T.);
#1290=ORIENTED_EDGE('',*,*,#1289,.T.);
#1291=CARTESIAN_POINT('',(2.2,0.835,1.219999999999975));
#1292=VERTEX_POINT('',#1291);
#1293=CARTESIAN_POINT('',(2.2,0.835,1.219999999999975));
#1294=DIRECTION('',(0.0,-1.0,0.0));
#1295=VECTOR('',#1294,0.4);
#1296=LINE('',#1293,#1295);
#1297=EDGE_CURVE('',#1292,#1284,#1296,.T.);
#1298=ORIENTED_EDGE('',*,*,#1297,.F.);
#1299=CARTESIAN_POINT('',(2.199999999999999,0.835,1.02));
#1300=DIRECTION('',(0.0,0.0,1.0));
#1301=VECTOR('',#1300,0.199999999999975);
#1302=LINE('',#1299,#1301);
#1303=EDGE_CURVE('',#1254,#1292,#1302,.T.);
#1304=ORIENTED_EDGE('',*,*,#1303,.F.);
#1305=ORIENTED_EDGE('',*,*,#1259,.T.);
#1306=EDGE_LOOP('',(#1290,#1298,#1304,#1305));
#1307=FACE_OUTER_BOUND('',#1306,.T.);
#1308=ADVANCED_FACE('',(#1307),#1282,.T.);
#1309=CARTESIAN_POINT('',(2.2,0.835,1.219999999999975));
#1310=DIRECTION('',(0.0,0.0,1.0));
#1311=DIRECTION('',(-1.0,0.0,0.0));
#1312=AXIS2_PLACEMENT_3D('',#1309,#1310,#1311);
#1313=PLANE('',#1312);
#1314=CARTESIAN_POINT('',(2.617703635606381,0.435,1.22));
#1315=VERTEX_POINT('',#1314);
#1316=CARTESIAN_POINT('',(2.2,0.435,1.219999999999975));
#1317=DIRECTION('',(1.0,0.0,0.0));
#1318=VECTOR('',#1317,0.417703635606381);
#1319=LINE('',#1316,#1318);
#1320=EDGE_CURVE('',#1284,#1315,#1319,.T.);
#1321=ORIENTED_EDGE('',*,*,#1320,.T.);
#1322=CARTESIAN_POINT('',(2.617703635606381,0.835,1.22));
#1323=VERTEX_POINT('',#1322);
#1324=CARTESIAN_POINT('',(2.617703635606381,0.835,1.22));
#1325=DIRECTION('',(0.0,-1.0,0.0));
#1326=VECTOR('',#1325,0.4);
#1327=LINE('',#1324,#1326);
#1328=EDGE_CURVE('',#1323,#1315,#1327,.T.);
#1329=ORIENTED_EDGE('',*,*,#1328,.F.);
#1330=CARTESIAN_POINT('',(2.2,0.835,1.219999999999975));
#1331=DIRECTION('',(1.0,0.0,0.0));
#1332=VECTOR('',#1331,0.417703635606381);
#1333=LINE('',#1330,#1332);
#1334=EDGE_CURVE('',#1292,#1323,#1333,.T.);
#1335=ORIENTED_EDGE('',*,*,#1334,.F.);
#1336=ORIENTED_EDGE('',*,*,#1297,.T.);
#1337=EDGE_LOOP('',(#1321,#1329,#1335,#1336));
#1338=FACE_OUTER_BOUND('',#1337,.T.);
#1339=ADVANCED_FACE('',(#1338),#1313,.T.);
#1340=CARTESIAN_POINT('',(2.617703635606381,0.835,1.019999999999999));
#1341=DIRECTION('',(-1.224647E-016,-1.0,0.0));
#1342=DIRECTION('',(0.635446905444896,-7.781980E-017,0.772144565713251));
#1343=AXIS2_PLACEMENT_3D('',#1340,#1341,#1342);
#1344=CYLINDRICAL_SURFACE('',#1343,0.200000000000001);
#1345=CARTESIAN_POINT('',(2.813966385541813,0.435,1.058482892144202));
#1346=VERTEX_POINT('',#1345);
#1347=CARTESIAN_POINT('',(2.617703635606381,0.435,1.019999999999999));
#1348=DIRECTION('',(-4.020965E-017,1.0,-4.885957E-017));
#1349=DIRECTION('',(0.635446905444896,6.327776E-017,0.772144565713251));
#1350=AXIS2_PLACEMENT_3D('',#1347,#1348,#1349);
#1351=CIRCLE('',#1350,0.200000000000001);
#1352=EDGE_CURVE('',#1315,#1346,#1351,.T.);
#1353=ORIENTED_EDGE('',*,*,#1352,.T.);
#1354=CARTESIAN_POINT('',(2.813966385541813,0.835,1.058482892144202));
#1355=VERTEX_POINT('',#1354);
#1356=CARTESIAN_POINT('',(2.813966385541813,0.835,1.058482892144202));
#1357=DIRECTION('',(0.0,-1.0,0.0));
#1358=VECTOR('',#1357,0.4);
#1359=LINE('',#1356,#1358);
#1360=EDGE_CURVE('',#1355,#1346,#1359,.T.);
#1361=ORIENTED_EDGE('',*,*,#1360,.F.);
#1362=CARTESIAN_POINT('',(2.617703635606381,0.835,1.019999999999999));
#1363=DIRECTION('',(-4.020965E-017,1.0,-4.885957E-017));
#1364=DIRECTION('',(0.635446905444896,6.327776E-017,0.772144565713251));
#1365=AXIS2_PLACEMENT_3D('',#1362,#1363,#1364);
#1366=CIRCLE('',#1365,0.200000000000001);
#1367=EDGE_CURVE('',#1323,#1355,#1366,.T.);
#1368=ORIENTED_EDGE('',*,*,#1367,.F.);
#1369=ORIENTED_EDGE('',*,*,#1328,.T.);
#1370=EDGE_LOOP('',(#1353,#1361,#1368,#1369));
#1371=FACE_OUTER_BOUND('',#1370,.T.);
#1372=ADVANCED_FACE('',(#1371),#1344,.T.);
#1373=CARTESIAN_POINT('',(2.813966385541813,0.835,1.058482892144202));
#1374=DIRECTION('',(0.981313749677157,-1.201763E-016,0.192414460721013));
#1375=DIRECTION('',(-0.192414460721013,2.356398E-017,0.981313749677157));
#1376=AXIS2_PLACEMENT_3D('',#1373,#1374,#1375);
#1377=PLANE('',#1376);
#1378=CARTESIAN_POINT('',(2.97437885910657,0.435,0.240379276963949));
#1379=VERTEX_POINT('',#1378);
#1380=CARTESIAN_POINT('',(2.813966385541813,0.435,1.058482892144202));
#1381=DIRECTION('',(0.192414460721013,0.0,-0.981313749677157));
#1382=VECTOR('',#1381,0.833682005830859);
#1383=LINE('',#1380,#1382);
#1384=EDGE_CURVE('',#1346,#1379,#1383,.T.);
#1385=ORIENTED_EDGE('',*,*,#1384,.T.);
#1386=CARTESIAN_POINT('',(2.97437885910657,0.835,0.240379276963949));
#1387=VERTEX_POINT('',#1386);
#1388=CARTESIAN_POINT('',(2.97437885910657,0.835,0.240379276963949));
#1389=DIRECTION('',(0.0,-1.0,0.0));
#1390=VECTOR('',#1389,0.4);
#1391=LINE('',#1388,#1390);
#1392=EDGE_CURVE('',#1387,#1379,#1391,.T.);
#1393=ORIENTED_EDGE('',*,*,#1392,.F.);
#1394=CARTESIAN_POINT('',(2.813966385541813,0.835,1.058482892144202));
#1395=DIRECTION('',(0.192414460721013,0.0,-0.981313749677157));
#1396=VECTOR('',#1395,0.833682005830859);
#1397=LINE('',#1394,#1396);
#1398=EDGE_CURVE('',#1355,#1387,#1397,.T.);
#1399=ORIENTED_EDGE('',*,*,#1398,.F.);
#1400=ORIENTED_EDGE('',*,*,#1360,.T.);
#1401=EDGE_LOOP('',(#1385,#1393,#1399,#1400));
#1402=FACE_OUTER_BOUND('',#1401,.T.);
#1403=ADVANCED_FACE('',(#1402),#1377,.T.);
#1404=CARTESIAN_POINT('',(3.023444546590425,0.835,0.249999999999996));
#1405=DIRECTION('',(-1.224647E-016,-1.0,0.0));
#1406=DIRECTION('',(-0.635446905444902,7.781980E-017,-0.772144565713246));
#1407=AXIS2_PLACEMENT_3D('',#1404,#1405,#1406);
#1408=CYLINDRICAL_SURFACE('',#1407,0.049999999999996);
#1409=CARTESIAN_POINT('',(3.023444546590426,0.435,0.2));
#1410=VERTEX_POINT('',#1409);
#1411=CARTESIAN_POINT('',(3.023444546590425,0.435,0.249999999999996));
#1412=DIRECTION('',(4.020965E-017,-1.0,4.885957E-017));
#1413=DIRECTION('',(-0.635446905444902,-6.327776E-017,-0.772144565713246));
#1414=AXIS2_PLACEMENT_3D('',#1411,#1412,#1413);
#1415=CIRCLE('',#1414,0.049999999999996);
#1416=EDGE_CURVE('',#1379,#1410,#1415,.T.);
#1417=ORIENTED_EDGE('',*,*,#1416,.T.);
#1418=CARTESIAN_POINT('',(3.023444546590426,0.835,0.2));
#1419=VERTEX_POINT('',#1418);
#1420=CARTESIAN_POINT('',(3.023444546590426,0.835,0.2));
#1421=DIRECTION('',(0.0,-1.0,0.0));
#1422=VECTOR('',#1421,0.4);
#1423=LINE('',#1420,#1422);
#1424=EDGE_CURVE('',#1419,#1410,#1423,.T.);
#1425=ORIENTED_EDGE('',*,*,#1424,.F.);
#1426=CARTESIAN_POINT('',(3.023444546590425,0.835,0.249999999999996));
#1427=DIRECTION('',(4.020965E-017,-1.0,4.885957E-017));
#1428=DIRECTION('',(-0.635446905444902,-6.327776E-017,-0.772144565713246));
#1429=AXIS2_PLACEMENT_3D('',#1426,#1427,#1428);
#1430=CIRCLE('',#1429,0.049999999999996);
#1431=EDGE_CURVE('',#1387,#1419,#1430,.T.);
#1432=ORIENTED_EDGE('',*,*,#1431,.F.);
#1433=ORIENTED_EDGE('',*,*,#1392,.T.);
#1434=EDGE_LOOP('',(#1417,#1425,#1432,#1433));
#1435=FACE_OUTER_BOUND('',#1434,.T.);
#1436=ADVANCED_FACE('',(#1435),#1408,.F.);
#1437=CARTESIAN_POINT('',(3.023444546590426,0.835,0.2));
#1438=DIRECTION('',(0.0,0.0,1.0));
#1439=DIRECTION('',(-1.0,0.0,0.0));
#1440=AXIS2_PLACEMENT_3D('',#1437,#1438,#1439);
#1441=PLANE('',#1440);
#1442=CARTESIAN_POINT('',(3.5,0.435,0.2));
#1443=VERTEX_POINT('',#1442);
#1444=CARTESIAN_POINT('',(3.023444546590426,0.435,0.2));
#1445=DIRECTION('',(1.0,0.0,0.0));
#1446=VECTOR('',#1445,0.476555453409574);
#1447=LINE('',#1444,#1446);
#1448=EDGE_CURVE('',#1410,#1443,#1447,.T.);
#1449=ORIENTED_EDGE('',*,*,#1448,.T.);
#1450=CARTESIAN_POINT('',(3.5,0.835,0.2));
#1451=VERTEX_POINT('',#1450);
#1452=CARTESIAN_POINT('',(3.5,0.835,0.2));
#1453=DIRECTION('',(0.0,-1.0,0.0));
#1454=VECTOR('',#1453,0.4);
#1455=LINE('',#1452,#1454);
#1456=EDGE_CURVE('',#1451,#1443,#1455,.T.);
#1457=ORIENTED_EDGE('',*,*,#1456,.F.);
#1458=CARTESIAN_POINT('',(3.023444546590426,0.835,0.2));
#1459=DIRECTION('',(1.0,0.0,0.0));
#1460=VECTOR('',#1459,0.476555453409574);
#1461=LINE('',#1458,#1460);
#1462=EDGE_CURVE('',#1419,#1451,#1461,.T.);
#1463=ORIENTED_EDGE('',*,*,#1462,.F.);
#1464=ORIENTED_EDGE('',*,*,#1424,.T.);
#1465=EDGE_LOOP('',(#1449,#1457,#1463,#1464));
#1466=FACE_OUTER_BOUND('',#1465,.T.);
#1467=ADVANCED_FACE('',(#1466),#1441,.T.);
#1468=CARTESIAN_POINT('',(3.5,0.835,0.2));
#1469=DIRECTION('',(1.0,0.0,0.0));
#1470=DIRECTION('',(0.0,0.0,1.0));
#1471=AXIS2_PLACEMENT_3D('',#1468,#1469,#1470);
#1472=PLANE('',#1471);
#1473=CARTESIAN_POINT('',(3.5,0.435,4.116868E-032));
#1474=VERTEX_POINT('',#1473);
#1475=CARTESIAN_POINT('',(3.5,0.435,0.2));
#1476=DIRECTION('',(0.0,0.0,-1.0));
#1477=VECTOR('',#1476,0.2);
#1478=LINE('',#1475,#1477);
#1479=EDGE_CURVE('',#1443,#1474,#1478,.T.);
#1480=ORIENTED_EDGE('',*,*,#1479,.T.);
#1481=CARTESIAN_POINT('',(3.5,0.835,4.116868E-032));
#1482=VERTEX_POINT('',#1481);
#1483=CARTESIAN_POINT('',(3.5,0.835,4.116868E-032));
#1484=DIRECTION('',(0.0,-1.0,0.0));
#1485=VECTOR('',#1484,0.4);
#1486=LINE('',#1483,#1485);
#1487=EDGE_CURVE('',#1482,#1474,#1486,.T.);
#1488=ORIENTED_EDGE('',*,*,#1487,.F.);
#1489=CARTESIAN_POINT('',(3.5,0.835,0.2));
#1490=DIRECTION('',(0.0,0.0,-1.0));
#1491=VECTOR('',#1490,0.2);
#1492=LINE('',#1489,#1491);
#1493=EDGE_CURVE('',#1451,#1482,#1492,.T.);
#1494=ORIENTED_EDGE('',*,*,#1493,.F.);
#1495=ORIENTED_EDGE('',*,*,#1456,.T.);
#1496=EDGE_LOOP('',(#1480,#1488,#1494,#1495));
#1497=FACE_OUTER_BOUND('',#1496,.T.);
#1498=ADVANCED_FACE('',(#1497),#1472,.T.);
#1499=CARTESIAN_POINT('',(3.5,0.835,4.116868E-032));
#1500=DIRECTION('',(0.0,0.0,-1.0));
#1501=DIRECTION('',(1.0,0.0,0.0));
#1502=AXIS2_PLACEMENT_3D('',#1499,#1500,#1501);
#1503=PLANE('',#1502);
#1504=CARTESIAN_POINT('',(3.023444546590426,0.435,4.116868E-032));
#1505=VERTEX_POINT('',#1504);
#1506=CARTESIAN_POINT('',(3.5,0.435,4.116868E-032));
#1507=DIRECTION('',(-1.0,0.0,0.0));
#1508=VECTOR('',#1507,0.476555453409574);
#1509=LINE('',#1506,#1508);
#1510=EDGE_CURVE('',#1474,#1505,#1509,.T.);
#1511=ORIENTED_EDGE('',*,*,#1510,.T.);
#1512=CARTESIAN_POINT('',(3.023444546590426,0.835,4.116868E-032));
#1513=VERTEX_POINT('',#1512);
#1514=CARTESIAN_POINT('',(3.023444546590426,0.835,4.116868E-032));
#1515=DIRECTION('',(0.0,-1.0,0.0));
#1516=VECTOR('',#1515,0.4);
#1517=LINE('',#1514,#1516);
#1518=EDGE_CURVE('',#1513,#1505,#1517,.T.);
#1519=ORIENTED_EDGE('',*,*,#1518,.F.);
#1520=CARTESIAN_POINT('',(3.5,0.835,4.116868E-032));
#1521=DIRECTION('',(-1.0,0.0,0.0));
#1522=VECTOR('',#1521,0.476555453409574);
#1523=LINE('',#1520,#1522);
#1524=EDGE_CURVE('',#1482,#1513,#1523,.T.);
#1525=ORIENTED_EDGE('',*,*,#1524,.F.);
#1526=ORIENTED_EDGE('',*,*,#1487,.T.);
#1527=EDGE_LOOP('',(#1511,#1519,#1525,#1526));
#1528=FACE_OUTER_BOUND('',#1527,.T.);
#1529=ADVANCED_FACE('',(#1528),#1503,.T.);
#1530=CARTESIAN_POINT('',(3.023444546590426,0.835,0.25));
#1531=DIRECTION('',(-1.224647E-016,-1.0,0.0));
#1532=DIRECTION('',(-0.635446905444895,7.781980E-017,-0.772144565713252));
#1533=AXIS2_PLACEMENT_3D('',#1530,#1531,#1532);
#1534=CYLINDRICAL_SURFACE('',#1533,0.25);
#1535=CARTESIAN_POINT('',(2.778116109171137,0.435,0.201896384819747));
#1536=VERTEX_POINT('',#1535);
#1537=CARTESIAN_POINT('',(3.023444546590426,0.435,0.25));
#1538=DIRECTION('',(-4.020965E-017,1.0,-4.885957E-017));
#1539=DIRECTION('',(-0.635446905444895,-6.327776E-017,-0.772144565713252));
#1540=AXIS2_PLACEMENT_3D('',#1537,#1538,#1539);
#1541=CIRCLE('',#1540,0.25);
#1542=EDGE_CURVE('',#1505,#1536,#1541,.T.);
#1543=ORIENTED_EDGE('',*,*,#1542,.T.);
#1544=CARTESIAN_POINT('',(2.778116109171137,0.835,0.201896384819747));
#1545=VERTEX_POINT('',#1544);
#1546=CARTESIAN_POINT('',(2.778116109171137,0.835,0.201896384819747));
#1547=DIRECTION('',(0.0,-1.0,0.0));
#1548=VECTOR('',#1547,0.4);
#1549=LINE('',#1546,#1548);
#1550=EDGE_CURVE('',#1545,#1536,#1549,.T.);
#1551=ORIENTED_EDGE('',*,*,#1550,.F.);
#1552=CARTESIAN_POINT('',(3.023444546590426,0.835,0.25));
#1553=DIRECTION('',(-4.020965E-017,1.0,-4.885957E-017));
#1554=DIRECTION('',(-0.635446905444895,-6.327776E-017,-0.772144565713252));
#1555=AXIS2_PLACEMENT_3D('',#1552,#1553,#1554);
#1556=CIRCLE('',#1555,0.25);
#1557=EDGE_CURVE('',#1513,#1545,#1556,.T.);
#1558=ORIENTED_EDGE('',*,*,#1557,.F.);
#1559=ORIENTED_EDGE('',*,*,#1518,.T.);
#1560=EDGE_LOOP('',(#1543,#1551,#1558,#1559));
#1561=FACE_OUTER_BOUND('',#1560,.T.);
#1562=ADVANCED_FACE('',(#1561),#1534,.T.);
#1563=CARTESIAN_POINT('',(2.778116109171137,0.835,0.201896384819747));
#1564=DIRECTION('',(-0.981313749677157,1.201763E-016,-0.192414460721012));
#1565=DIRECTION('',(0.192414460721012,-2.356398E-017,-0.981313749677157));
#1566=AXIS2_PLACEMENT_3D('',#1563,#1564,#1565);
#1567=PLANE('',#1566);
#1568=CARTESIAN_POINT('',(2.778116109171137,0.435,0.201896384819747));
#1569=DIRECTION('',(-0.192414460721011,0.0,0.981313749677157));
#1570=VECTOR('',#1569,0.833682005830859);
#1571=LINE('',#1568,#1570);
#1572=EDGE_CURVE('',#1536,#1244,#1571,.T.);
#1573=ORIENTED_EDGE('',*,*,#1572,.T.);
#1574=ORIENTED_EDGE('',*,*,#1273,.F.);
#1575=CARTESIAN_POINT('',(2.778116109171137,0.835,0.201896384819747));
#1576=DIRECTION('',(-0.192414460721011,0.0,0.981313749677157));
#1577=VECTOR('',#1576,0.833682005830859);
#1578=LINE('',#1575,#1577);
#1579=EDGE_CURVE('',#1545,#1262,#1578,.T.);
#1580=ORIENTED_EDGE('',*,*,#1579,.F.);
#1581=ORIENTED_EDGE('',*,*,#1550,.T.);
#1582=EDGE_LOOP('',(#1573,#1574,#1580,#1581));
#1583=FACE_OUTER_BOUND('',#1582,.T.);
#1584=ADVANCED_FACE('',(#1583),#1567,.T.);
#1585=CARTESIAN_POINT('',(2.832775827756768,0.435,0.591008711474416));
#1586=DIRECTION('',(0.0,-1.0,0.0));
#1587=DIRECTION('',(0.0,0.0,1.0));
#1588=AXIS2_PLACEMENT_3D('',#1585,#1586,#1587);
#1589=PLANE('',#1588);
#1590=ORIENTED_EDGE('',*,*,#1251,.F.);
#1591=ORIENTED_EDGE('',*,*,#1572,.F.);
#1592=ORIENTED_EDGE('',*,*,#1542,.F.);
#1593=ORIENTED_EDGE('',*,*,#1510,.F.);
#1594=ORIENTED_EDGE('',*,*,#1479,.F.);
#1595=ORIENTED_EDGE('',*,*,#1448,.F.);
#1596=ORIENTED_EDGE('',*,*,#1416,.F.);
#1597=ORIENTED_EDGE('',*,*,#1384,.F.);
#1598=ORIENTED_EDGE('',*,*,#1352,.F.);
#1599=ORIENTED_EDGE('',*,*,#1320,.F.);
#1600=ORIENTED_EDGE('',*,*,#1289,.F.);
#1601=EDGE_LOOP('',(#1590,#1591,#1592,#1593,#1594,#1595,#1596,#1597,#1598,#1599,#1600));
#1602=FACE_OUTER_BOUND('',#1601,.T.);
#1603=ADVANCED_FACE('',(#1602),#1589,.T.);
#1604=CARTESIAN_POINT('',(2.832775827756769,0.835000000000001,0.591008711474416));
#1605=DIRECTION('',(0.0,-1.0,0.0));
#1606=DIRECTION('',(0.0,0.0,1.0));
#1607=AXIS2_PLACEMENT_3D('',#1604,#1605,#1606);
#1608=PLANE('',#1607);
#1609=ORIENTED_EDGE('',*,*,#1579,.T.);
#1610=ORIENTED_EDGE('',*,*,#1267,.T.);
#1611=ORIENTED_EDGE('',*,*,#1303,.T.);
#1612=ORIENTED_EDGE('',*,*,#1334,.T.);
#1613=ORIENTED_EDGE('',*,*,#1367,.T.);
#1614=ORIENTED_EDGE('',*,*,#1398,.T.);
#1615=ORIENTED_EDGE('',*,*,#1431,.T.);
#1616=ORIENTED_EDGE('',*,*,#1462,.T.);
#1617=ORIENTED_EDGE('',*,*,#1493,.T.);
#1618=ORIENTED_EDGE('',*,*,#1524,.T.);
#1619=ORIENTED_EDGE('',*,*,#1557,.T.);
#1620=EDGE_LOOP('',(#1609,#1610,#1611,#1612,#1613,#1614,#1615,#1616,#1617,#1618,#1619));
#1621=FACE_OUTER_BOUND('',#1620,.T.);
#1622=ADVANCED_FACE('',(#1621),#1608,.F.);
#1623=CLOSED_SHELL('',(#1277,#1308,#1339,#1372,#1403,#1436,#1467,#1498,#1529,#1562,#1584,#1603,#1622));
#1624=MANIFOLD_SOLID_BREP('2C05',#1623);
#1625=STYLED_ITEM('NONE',(#458),#1624);
#1626=CARTESIAN_POINT('',(-1.6,0.7,2.32));
#1627=DIRECTION('',(0.0,0.0,1.0));
#1628=DIRECTION('',(-1.0,0.0,0.0));
#1629=AXIS2_PLACEMENT_3D('',#1626,#1627,#1628);
#1630=CYLINDRICAL_SURFACE('',#1629,0.3);
#1631=CARTESIAN_POINT('',(-1.9,0.7,2.22));
#1632=VERTEX_POINT('',#1631);
#1633=CARTESIAN_POINT('',(-1.9,0.7,2.32));
#1634=VERTEX_POINT('',#1633);
#1635=CARTESIAN_POINT('',(-1.9,0.7,2.22));
#1636=DIRECTION('',(0.0,0.0,1.0));
#1637=VECTOR('',#1636,0.100000000000001);
#1638=LINE('',#1635,#1637);
#1639=EDGE_CURVE('',#1632,#1634,#1638,.T.);
#1640=ORIENTED_EDGE('',*,*,#1639,.F.);
#1641=CARTESIAN_POINT('',(-1.3,0.7,2.22));
#1642=VERTEX_POINT('',#1641);
#1643=CARTESIAN_POINT('',(-1.6,0.7,2.22));
#1644=DIRECTION('',(0.0,0.0,-1.0));
#1645=DIRECTION('',(-1.0,0.0,0.0));
#1646=AXIS2_PLACEMENT_3D('',#1643,#1644,#1645);
#1647=CIRCLE('',#1646,0.3);
#1648=EDGE_CURVE('',#1632,#1642,#1647,.T.);
#1649=ORIENTED_EDGE('',*,*,#1648,.T.);
#1650=CARTESIAN_POINT('',(-1.3,0.7,2.32));
#1651=VERTEX_POINT('',#1650);
#1652=CARTESIAN_POINT('',(-1.3,0.7,2.22));
#1653=DIRECTION('',(0.0,0.0,1.0));
#1654=VECTOR('',#1653,0.100000000000001);
#1655=LINE('',#1652,#1654);
#1656=EDGE_CURVE('',#1642,#1651,#1655,.T.);
#1657=ORIENTED_EDGE('',*,*,#1656,.T.);
#1658=CARTESIAN_POINT('',(-1.6,0.7,2.32));
#1659=DIRECTION('',(0.0,0.0,-1.0));
#1660=DIRECTION('',(-1.0,0.0,0.0));
#1661=AXIS2_PLACEMENT_3D('',#1658,#1659,#1660);
#1662=CIRCLE('',#1661,0.3);
#1663=EDGE_CURVE('',#1634,#1651,#1662,.T.);
#1664=ORIENTED_EDGE('',*,*,#1663,.F.);
#1665=EDGE_LOOP('',(#1640,#1649,#1657,#1664));
#1666=FACE_OUTER_BOUND('',#1665,.T.);
#1667=ADVANCED_FACE('',(#1666),#1630,.F.);
#1668=CARTESIAN_POINT('',(-1.6,0.7,2.32));
#1669=DIRECTION('',(0.0,0.0,1.0));
#1670=DIRECTION('',(-1.0,0.0,0.0));
#1671=AXIS2_PLACEMENT_3D('',#1668,#1669,#1670);
#1672=CYLINDRICAL_SURFACE('',#1671,0.3);
#1673=ORIENTED_EDGE('',*,*,#1639,.T.);
#1674=CARTESIAN_POINT('',(-1.6,0.7,2.32));
#1675=DIRECTION('',(0.0,0.0,-1.0));
#1676=DIRECTION('',(-1.0,0.0,0.0));
#1677=AXIS2_PLACEMENT_3D('',#1674,#1675,#1676);
#1678=CIRCLE('',#1677,0.3);
#1679=EDGE_CURVE('',#1651,#1634,#1678,.T.);
#1680=ORIENTED_EDGE('',*,*,#1679,.F.);
#1681=ORIENTED_EDGE('',*,*,#1656,.F.);
#1682=CARTESIAN_POINT('',(-1.6,0.7,2.22));
#1683=DIRECTION('',(0.0,0.0,-1.0));
#1684=DIRECTION('',(-1.0,0.0,0.0));
#1685=AXIS2_PLACEMENT_3D('',#1682,#1683,#1684);
#1686=CIRCLE('',#1685,0.3);
#1687=EDGE_CURVE('',#1642,#1632,#1686,.T.);
#1688=ORIENTED_EDGE('',*,*,#1687,.T.);
#1689=EDGE_LOOP('',(#1673,#1680,#1681,#1688));
#1690=FACE_OUTER_BOUND('',#1689,.T.);
#1691=ADVANCED_FACE('',(#1690),#1672,.F.);
#1692=CARTESIAN_POINT('',(-1.6,0.7,2.22));
#1693=DIRECTION('',(0.0,0.0,-1.0));
#1694=DIRECTION('',(1.0,0.0,0.0));
#1695=AXIS2_PLACEMENT_3D('',#1692,#1693,#1694);
#1696=PLANE('',#1695);
#1697=ORIENTED_EDGE('',*,*,#1648,.F.);
#1698=ORIENTED_EDGE('',*,*,#1687,.F.);
#1699=EDGE_LOOP('',(#1697,#1698));
#1700=FACE_OUTER_BOUND('',#1699,.T.);
#1701=ADVANCED_FACE('',(#1700),#1696,.F.);
#1702=CARTESIAN_POINT('',(-0.756715757419939,0.255934445218498,2.32));
#1703=DIRECTION('',(0.0,0.0,1.0));
#1704=DIRECTION('',(0.0,1.0,0.0));
#1705=AXIS2_PLACEMENT_3D('',#1702,#1703,#1704);
#1706=PLANE('',#1705);
#1707=CARTESIAN_POINT('',(-2.077777777777778,1.177777777777778,2.32));
#1708=VERTEX_POINT('',#1707);
#1709=CARTESIAN_POINT('',(-2.077777777777777,-1.177777777777778,2.32));
#1710=VERTEX_POINT('',#1709);
#1711=CARTESIAN_POINT('',(-2.077777777777778,-1.177777777777779,2.32));
#1712=DIRECTION('',(0.0,1.0,0.0));
#1713=VECTOR('',#1712,2.355555555555558);
#1714=LINE('',#1711,#1713);
#1715=EDGE_CURVE('',#1708,#1710,#1714,.F.);
#1716=ORIENTED_EDGE('',*,*,#1715,.T.);
#1717=CARTESIAN_POINT('',(2.07777777777778,-1.177777777777778,2.32));
#1718=VERTEX_POINT('',#1717);
#1719=CARTESIAN_POINT('',(2.07777777777778,-1.177777777777779,2.32));
#1720=DIRECTION('',(-1.0,0.0,0.0));
#1721=VECTOR('',#1720,4.155555555555559);
#1722=LINE('',#1719,#1721);
#1723=EDGE_CURVE('',#1710,#1718,#1722,.F.);
#1724=ORIENTED_EDGE('',*,*,#1723,.T.);
#1725=CARTESIAN_POINT('',(2.077777777777778,1.177777777777779,2.32));
#1726=VERTEX_POINT('',#1725);
#1727=CARTESIAN_POINT('',(2.077777777777779,1.177777777777779,2.32));
#1728=DIRECTION('',(0.0,-1.0,0.0));
#1729=VECTOR('',#1728,2.355555555555558);
#1730=LINE('',#1727,#1729);
#1731=EDGE_CURVE('',#1718,#1726,#1730,.F.);
#1732=ORIENTED_EDGE('',*,*,#1731,.T.);
#1733=CARTESIAN_POINT('',(-2.077777777777778,1.177777777777779,2.32));
#1734=DIRECTION('',(1.0,0.0,0.0));
#1735=VECTOR('',#1734,4.155555555555557);
#1736=LINE('',#1733,#1735);
#1737=EDGE_CURVE('',#1726,#1708,#1736,.F.);
#1738=ORIENTED_EDGE('',*,*,#1737,.T.);
#1739=EDGE_LOOP('',(#1716,#1724,#1732,#1738));
#1740=FACE_OUTER_BOUND('',#1739,.T.);
#1741=ORIENTED_EDGE('',*,*,#1679,.T.);
#1742=ORIENTED_EDGE('',*,*,#1663,.T.);
#1743=EDGE_LOOP('',(#1741,#1742));
#1744=FACE_BOUND('',#1743,.T.);
#1745=ADVANCED_FACE('',(#1740,#1744),#1706,.T.);
#1746=CARTESIAN_POINT('',(-2.2,-0.81175,1.009999999999982));
#1747=DIRECTION('',(-1.0,0.0,0.0));
#1748=DIRECTION('',(0.0,-1.0,0.0));
#1749=AXIS2_PLACEMENT_3D('',#1746,#1747,#1748);
#1750=PLANE('',#1749);
#1751=CARTESIAN_POINT('',(-2.2,-1.3,1.219999999999975));
#1752=VERTEX_POINT('',#1751);
#1753=CARTESIAN_POINT('',(-2.2,1.3,1.219999999999975));
#1754=VERTEX_POINT('',#1753);
#1755=CARTESIAN_POINT('',(-2.2,-1.3,1.219999999999975));
#1756=DIRECTION('',(0.0,1.0,0.0));
#1757=VECTOR('',#1756,2.6);
#1758=LINE('',#1755,#1757);
#1759=EDGE_CURVE('',#1752,#1754,#1758,.T.);
#1760=ORIENTED_EDGE('',*,*,#1759,.T.);
#1761=CARTESIAN_POINT('',(-2.2,1.3,1.020000000000026));
#1762=VERTEX_POINT('',#1761);
#1763=CARTESIAN_POINT('',(-2.2,1.3,1.020000000000026));
#1764=DIRECTION('',(0.0,0.0,1.0));
#1765=VECTOR('',#1764,0.199999999999949);
#1766=LINE('',#1763,#1765);
#1767=EDGE_CURVE('',#1762,#1754,#1766,.T.);
#1768=ORIENTED_EDGE('',*,*,#1767,.F.);
#1769=CARTESIAN_POINT('',(-2.2,-1.3,1.020000000000026));
#1770=VERTEX_POINT('',#1769);
#1771=CARTESIAN_POINT('',(-2.200000000000001,1.3,1.020000000000026));
#1772=DIRECTION('',(0.0,-1.0,0.0));
#1773=VECTOR('',#1772,2.599999999999999);
#1774=LINE('',#1771,#1773);
#1775=EDGE_CURVE('',#1762,#1770,#1774,.T.);
#1776=ORIENTED_EDGE('',*,*,#1775,.T.);
#1777=CARTESIAN_POINT('',(-2.2,-1.3,1.020000000000026));
#1778=DIRECTION('',(0.0,0.0,1.0));
#1779=VECTOR('',#1778,0.199999999999949);
#1780=LINE('',#1777,#1779);
#1781=EDGE_CURVE('',#1770,#1752,#1780,.T.);
#1782=ORIENTED_EDGE('',*,*,#1781,.T.);
#1783=EDGE_LOOP('',(#1760,#1768,#1776,#1782));
#1784=FACE_OUTER_BOUND('',#1783,.T.);
#1785=ADVANCED_FACE('',(#1784),#1750,.T.);
#1786=CARTESIAN_POINT('',(2.200000000000001,-1.3,0.12));
#1787=DIRECTION('',(1.0,0.0,0.0));
#1788=DIRECTION('',(0.0,1.0,0.0));
#1789=AXIS2_PLACEMENT_3D('',#1786,#1787,#1788);
#1790=PLANE('',#1789);
#1791=CARTESIAN_POINT('',(2.200000000000001,-1.3,1.020000000000026));
#1792=VERTEX_POINT('',#1791);
#1793=CARTESIAN_POINT('',(2.2,1.3,1.020000000000026));
#1794=VERTEX_POINT('',#1793);
#1795=CARTESIAN_POINT('',(2.200000000000001,-1.3,1.020000000000026));
#1796=DIRECTION('',(0.0,1.0,0.0));
#1797=VECTOR('',#1796,2.6);
#1798=LINE('',#1795,#1797);
#1799=EDGE_CURVE('',#1792,#1794,#1798,.T.);
#1800=ORIENTED_EDGE('',*,*,#1799,.T.);
#1801=CARTESIAN_POINT('',(2.2,1.3,1.219999999999975));
#1802=VERTEX_POINT('',#1801);
#1803=CARTESIAN_POINT('',(2.2,1.3,1.020000000000026));
#1804=DIRECTION('',(0.0,0.0,1.0));
#1805=VECTOR('',#1804,0.199999999999949);
#1806=LINE('',#1803,#1805);
#1807=EDGE_CURVE('',#1794,#1802,#1806,.T.);
#1808=ORIENTED_EDGE('',*,*,#1807,.T.);
#1809=CARTESIAN_POINT('',(2.200000000000001,-1.3,1.219999999999975));
#1810=VERTEX_POINT('',#1809);
#1811=CARTESIAN_POINT('',(2.2,1.3,1.219999999999975));
#1812=DIRECTION('',(0.0,-1.0,0.0));
#1813=VECTOR('',#1812,2.6);
#1814=LINE('',#1811,#1813);
#1815=EDGE_CURVE('',#1802,#1810,#1814,.T.);
#1816=ORIENTED_EDGE('',*,*,#1815,.T.);
#1817=CARTESIAN_POINT('',(2.200000000000001,-1.3,1.020000000000026));
#1818=DIRECTION('',(0.0,0.0,1.0));
#1819=VECTOR('',#1818,0.199999999999949);
#1820=LINE('',#1817,#1819);
#1821=EDGE_CURVE('',#1792,#1810,#1820,.T.);
#1822=ORIENTED_EDGE('',*,*,#1821,.F.);
#1823=EDGE_LOOP('',(#1800,#1808,#1816,#1822));
#1824=FACE_OUTER_BOUND('',#1823,.T.);
#1825=ADVANCED_FACE('',(#1824),#1790,.T.);
#1826=CARTESIAN_POINT('',(-2.42,-1.300000000000001,1.010000000000028));
#1827=DIRECTION('',(0.0,-1.0,0.0));
#1828=DIRECTION('',(1.0,0.0,0.0));
#1829=AXIS2_PLACEMENT_3D('',#1826,#1827,#1828);
#1830=PLANE('',#1829);
#1831=ORIENTED_EDGE('',*,*,#1781,.F.);
#1832=CARTESIAN_POINT('',(-2.2,-1.300000000000001,1.020000000000026));
#1833=DIRECTION('',(1.0,0.0,0.0));
#1834=VECTOR('',#1833,4.4);
#1835=LINE('',#1832,#1834);
#1836=EDGE_CURVE('',#1770,#1792,#1835,.T.);
#1837=ORIENTED_EDGE('',*,*,#1836,.T.);
#1838=ORIENTED_EDGE('',*,*,#1821,.T.);
#1839=CARTESIAN_POINT('',(2.200000000000001,-1.3,1.219999999999975));
#1840=DIRECTION('',(-1.0,0.0,0.0));
#1841=VECTOR('',#1840,4.4);
#1842=LINE('',#1839,#1841);
#1843=EDGE_CURVE('',#1810,#1752,#1842,.T.);
#1844=ORIENTED_EDGE('',*,*,#1843,.T.);
#1845=EDGE_LOOP('',(#1831,#1837,#1838,#1844));
#1846=FACE_OUTER_BOUND('',#1845,.T.);
#1847=ADVANCED_FACE('',(#1846),#1830,.T.);
#1848=CARTESIAN_POINT('',(2.420000000000001,1.3,1.010000000000028));
#1849=DIRECTION('',(0.0,1.0,0.0));
#1850=DIRECTION('',(-1.0,0.0,0.0));
#1851=AXIS2_PLACEMENT_3D('',#1848,#1849,#1850);
#1852=PLANE('',#1851);
#1853=ORIENTED_EDGE('',*,*,#1807,.F.);
#1854=CARTESIAN_POINT('',(2.2,1.3,1.020000000000026));
#1855=DIRECTION('',(-1.0,0.0,0.0));
#1856=VECTOR('',#1855,4.4);
#1857=LINE('',#1854,#1856);
#1858=EDGE_CURVE('',#1794,#1762,#1857,.T.);
#1859=ORIENTED_EDGE('',*,*,#1858,.T.);
#1860=ORIENTED_EDGE('',*,*,#1767,.T.);
#1861=CARTESIAN_POINT('',(-2.2,1.3,1.219999999999975));
#1862=DIRECTION('',(1.0,0.0,0.0));
#1863=VECTOR('',#1862,4.4);
#1864=LINE('',#1861,#1863);
#1865=EDGE_CURVE('',#1754,#1802,#1864,.T.);
#1866=ORIENTED_EDGE('',*,*,#1865,.T.);
#1867=EDGE_LOOP('',(#1853,#1859,#1860,#1866));
#1868=FACE_OUTER_BOUND('',#1867,.T.);
#1869=ADVANCED_FACE('',(#1868),#1852,.T.);
#1870=CARTESIAN_POINT('',(2.310000000000001,-1.320000000000001,0.12));
#1871=DIRECTION('',(0.0,0.0,1.0));
#1872=DIRECTION('',(0.0,1.0,0.0));
#1873=AXIS2_PLACEMENT_3D('',#1870,#1871,#1872);
#1874=PLANE('',#1873);
#1875=CARTESIAN_POINT('',(-2.1,-1.2,0.12));
#1876=VERTEX_POINT('',#1875);
#1877=CARTESIAN_POINT('',(-2.100000000000001,1.2,0.12));
#1878=VERTEX_POINT('',#1877);
#1879=CARTESIAN_POINT('',(-2.1,-1.2,0.12));
#1880=DIRECTION('',(0.0,1.0,0.0));
#1881=VECTOR('',#1880,2.4);
#1882=LINE('',#1879,#1881);
#1883=EDGE_CURVE('',#1876,#1878,#1882,.T.);
#1884=ORIENTED_EDGE('',*,*,#1883,.T.);
#1885=CARTESIAN_POINT('',(2.1,1.2,0.12));
#1886=VERTEX_POINT('',#1885);
#1887=CARTESIAN_POINT('',(-2.100000000000001,1.2,0.12));
#1888=DIRECTION('',(1.0,0.0,0.0));
#1889=VECTOR('',#1888,4.200000000000001);
#1890=LINE('',#1887,#1889);
#1891=EDGE_CURVE('',#1878,#1886,#1890,.T.);
#1892=ORIENTED_EDGE('',*,*,#1891,.T.);
#1893=CARTESIAN_POINT('',(2.100000000000001,-1.2,0.12));
#1894=VERTEX_POINT('',#1893);
#1895=CARTESIAN_POINT('',(2.1,1.2,0.12));
#1896=DIRECTION('',(0.0,-1.0,0.0));
#1897=VECTOR('',#1896,2.400000000000001);
#1898=LINE('',#1895,#1897);
#1899=EDGE_CURVE('',#1886,#1894,#1898,.T.);
#1900=ORIENTED_EDGE('',*,*,#1899,.T.);
#1901=CARTESIAN_POINT('',(2.100000000000001,-1.2,0.12));
#1902=DIRECTION('',(-1.0,0.0,0.0));
#1903=VECTOR('',#1902,4.200000000000001);
#1904=LINE('',#1901,#1903);
#1905=EDGE_CURVE('',#1894,#1876,#1904,.T.);
#1906=ORIENTED_EDGE('',*,*,#1905,.T.);
#1907=EDGE_LOOP('',(#1884,#1892,#1900,#1906));
#1908=FACE_OUTER_BOUND('',#1907,.T.);
#1909=ADVANCED_FACE('',(#1908),#1874,.F.);
#1910=CARTESIAN_POINT('',(2.42,1.305,1.174999999999974));
#1911=DIRECTION('',(9.897087E-017,-0.993883734673619,-0.110431526074843));
#1912=DIRECTION('',(1.0,0.0,0.0));
#1913=AXIS2_PLACEMENT_3D('',#1910,#1911,#1912);
#1914=PLANE('',#1913);
#1915=CARTESIAN_POINT('',(2.199999999999999,1.3,1.219999999999975));
#1916=DIRECTION('',(-0.109764259989687,-0.109764259989687,0.987878339907214));
#1917=VECTOR('',#1916,1.113497437450995);
#1918=LINE('',#1915,#1917);
#1919=EDGE_CURVE('',#1802,#1726,#1918,.T.);
#1920=ORIENTED_EDGE('',*,*,#1919,.F.);
#1921=ORIENTED_EDGE('',*,*,#1865,.F.);
#1922=CARTESIAN_POINT('',(-2.077777777777778,1.177777777777778,2.32));
#1923=DIRECTION('',(-0.109764259989687,0.109764259989687,-0.987878339907214));
#1924=VECTOR('',#1923,1.113497437450995);
#1925=LINE('',#1922,#1924);
#1926=EDGE_CURVE('',#1708,#1754,#1925,.T.);
#1927=ORIENTED_EDGE('',*,*,#1926,.F.);
#1928=ORIENTED_EDGE('',*,*,#1737,.F.);
#1929=EDGE_LOOP('',(#1920,#1921,#1927,#1928));
#1930=FACE_OUTER_BOUND('',#1929,.T.);
#1931=ADVANCED_FACE('',(#1930),#1914,.F.);
#1932=CARTESIAN_POINT('',(-2.095,-1.43,2.165000000000001));
#1933=DIRECTION('',(0.993883734673619,-6.004729E-017,-0.110431526074843));
#1934=DIRECTION('',(0.0,1.0,0.0));
#1935=AXIS2_PLACEMENT_3D('',#1932,#1933,#1934);
#1936=PLANE('',#1935);
#1937=ORIENTED_EDGE('',*,*,#1926,.T.);
#1938=ORIENTED_EDGE('',*,*,#1759,.F.);
#1939=CARTESIAN_POINT('',(-2.077777777777777,-1.177777777777778,2.32));
#1940=DIRECTION('',(-0.109764259989687,-0.109764259989687,-0.987878339907214));
#1941=VECTOR('',#1940,1.113497437450995);
#1942=LINE('',#1939,#1941);
#1943=EDGE_CURVE('',#1710,#1752,#1942,.T.);
#1944=ORIENTED_EDGE('',*,*,#1943,.F.);
#1945=ORIENTED_EDGE('',*,*,#1715,.F.);
#1946=EDGE_LOOP('',(#1937,#1938,#1944,#1945));
#1947=FACE_OUTER_BOUND('',#1946,.T.);
#1948=ADVANCED_FACE('',(#1947),#1936,.F.);
#1949=CARTESIAN_POINT('',(2.205000000000001,-1.43,1.174999999999973));
#1950=DIRECTION('',(-0.993883734673619,7.357125E-017,-0.110431526074843));
#1951=DIRECTION('',(0.0,-1.0,0.0));
#1952=AXIS2_PLACEMENT_3D('',#1949,#1950,#1951);
#1953=PLANE('',#1952);
#1954=ORIENTED_EDGE('',*,*,#1919,.T.);
#1955=ORIENTED_EDGE('',*,*,#1731,.F.);
#1956=CARTESIAN_POINT('',(2.200000000000001,-1.3,1.219999999999975));
#1957=DIRECTION('',(-0.109764259989687,0.109764259989687,0.987878339907214));
#1958=VECTOR('',#1957,1.113497437450995);
#1959=LINE('',#1956,#1958);
#1960=EDGE_CURVE('',#1810,#1718,#1959,.T.);
#1961=ORIENTED_EDGE('',*,*,#1960,.F.);
#1962=ORIENTED_EDGE('',*,*,#1815,.F.);
#1963=EDGE_LOOP('',(#1954,#1955,#1961,#1962));
#1964=FACE_OUTER_BOUND('',#1963,.T.);
#1965=ADVANCED_FACE('',(#1964),#1953,.F.);
#1966=CARTESIAN_POINT('',(2.420000000000001,-1.195000000000001,2.165000000000001));
#1967=DIRECTION('',(-4.999037E-017,0.993883734673619,-0.110431526074843));
#1968=DIRECTION('',(-1.0,0.0,0.0));
#1969=AXIS2_PLACEMENT_3D('',#1966,#1967,#1968);
#1970=PLANE('',#1969);
#1971=ORIENTED_EDGE('',*,*,#1943,.T.);
#1972=ORIENTED_EDGE('',*,*,#1843,.F.);
#1973=ORIENTED_EDGE('',*,*,#1960,.T.);
#1974=ORIENTED_EDGE('',*,*,#1723,.F.);
#1975=EDGE_LOOP('',(#1971,#1972,#1973,#1974));
#1976=FACE_OUTER_BOUND('',#1975,.T.);
#1977=ADVANCED_FACE('',(#1976),#1970,.F.);
#1978=CARTESIAN_POINT('',(2.420000000000001,-1.195,0.074999999999999));
#1979=DIRECTION('',(4.999037E-017,-0.993883734673619,-0.110431526074843));
#1980=DIRECTION('',(1.0,0.0,0.0));
#1981=AXIS2_PLACEMENT_3D('',#1978,#1979,#1980);
#1982=PLANE('',#1981);
#1983=CARTESIAN_POINT('',(-2.099999999999999,-1.2,0.12));
#1984=DIRECTION('',(-0.109764259989687,-0.109764259989687,0.987878339907214));
#1985=VECTOR('',#1984,0.911043357914455);
#1986=LINE('',#1983,#1985);
#1987=EDGE_CURVE('',#1876,#1770,#1986,.T.);
#1988=ORIENTED_EDGE('',*,*,#1987,.F.);
#1989=ORIENTED_EDGE('',*,*,#1905,.F.);
#1990=CARTESIAN_POINT('',(2.200000000000001,-1.3,1.020000000000026));
#1991=DIRECTION('',(-0.109764259989687,0.109764259989687,-0.987878339907214));
#1992=VECTOR('',#1991,0.911043357914455);
#1993=LINE('',#1990,#1992);
#1994=EDGE_CURVE('',#1792,#1894,#1993,.T.);
#1995=ORIENTED_EDGE('',*,*,#1994,.F.);
#1996=ORIENTED_EDGE('',*,*,#1836,.F.);
#1997=EDGE_LOOP('',(#1988,#1989,#1995,#1996));
#1998=FACE_OUTER_BOUND('',#1997,.T.);
#1999=ADVANCED_FACE('',(#1998),#1982,.T.);
#2000=CARTESIAN_POINT('',(2.205000000000001,-1.43,1.065000000000027));
#2001=DIRECTION('',(0.993883734673619,-6.004729E-017,-0.110431526074843));
#2002=DIRECTION('',(0.0,1.0,0.0));
#2003=AXIS2_PLACEMENT_3D('',#2000,#2001,#2002);
#2004=PLANE('',#2003);
#2005=ORIENTED_EDGE('',*,*,#1994,.T.);
#2006=ORIENTED_EDGE('',*,*,#1899,.F.);
#2007=CARTESIAN_POINT('',(2.199999999999999,1.3,1.020000000000026));
#2008=DIRECTION('',(-0.109764259989687,-0.109764259989687,-0.987878339907214));
#2009=VECTOR('',#2008,0.911043357914455);
#2010=LINE('',#2007,#2009);
#2011=EDGE_CURVE('',#1794,#1886,#2010,.T.);
#2012=ORIENTED_EDGE('',*,*,#2011,.F.);
#2013=ORIENTED_EDGE('',*,*,#1799,.F.);
#2014=EDGE_LOOP('',(#2005,#2006,#2012,#2013));
#2015=FACE_OUTER_BOUND('',#2014,.T.);
#2016=ADVANCED_FACE('',(#2015),#2004,.T.);
#2017=CARTESIAN_POINT('',(-2.095,-1.43,0.074999999999998));
#2018=DIRECTION('',(-0.993883734673619,7.357125E-017,-0.110431526074843));
#2019=DIRECTION('',(0.0,-1.0,0.0));
#2020=AXIS2_PLACEMENT_3D('',#2017,#2018,#2019);
#2021=PLANE('',#2020);
#2022=ORIENTED_EDGE('',*,*,#1987,.T.);
#2023=ORIENTED_EDGE('',*,*,#1775,.F.);
#2024=CARTESIAN_POINT('',(-2.099999999999999,1.2,0.12));
#2025=DIRECTION('',(-0.109764259989687,0.109764259989687,0.987878339907214));
#2026=VECTOR('',#2025,0.911043357914455);
#2027=LINE('',#2024,#2026);
#2028=EDGE_CURVE('',#1878,#1762,#2027,.T.);
#2029=ORIENTED_EDGE('',*,*,#2028,.F.);
#2030=ORIENTED_EDGE('',*,*,#1883,.F.);
#2031=EDGE_LOOP('',(#2022,#2023,#2029,#2030));
#2032=FACE_OUTER_BOUND('',#2031,.T.);
#2033=ADVANCED_FACE('',(#2032),#2021,.T.);
#2034=CARTESIAN_POINT('',(2.420000000000001,1.305,1.065000000000027));
#2035=DIRECTION('',(-9.897087E-017,0.993883734673619,-0.110431526074843));
#2036=DIRECTION('',(-1.0,0.0,0.0));
#2037=AXIS2_PLACEMENT_3D('',#2034,#2035,#2036);
#2038=PLANE('',#2037);
#2039=ORIENTED_EDGE('',*,*,#2011,.T.);
#2040=ORIENTED_EDGE('',*,*,#1891,.F.);
#2041=ORIENTED_EDGE('',*,*,#2028,.T.);
#2042=ORIENTED_EDGE('',*,*,#1858,.F.);
#2043=EDGE_LOOP('',(#2039,#2040,#2041,#2042));
#2044=FACE_OUTER_BOUND('',#2043,.T.);
#2045=ADVANCED_FACE('',(#2044),#2038,.T.);
#2046=CLOSED_SHELL('',(#1667,#1691,#1701,#1745,#1785,#1825,#1847,#1869,#1909,#1931,#1948,#1965,#1977,#1999,#2016,#2033,#2045));
#2047=MANIFOLD_SOLID_BREP('2BB3',#2046);
#2048=COLOUR_RGB('250',0.33,0.33,0.33);
#2049=SURFACE_STYLE_USAGE(.BOTH.,#2050);
#2050=SURFACE_SIDE_STYLE('NONE',(#2051));
#2051=SURFACE_STYLE_FILL_AREA(#2052);
#2052=FILL_AREA_STYLE('NONE',(#2053));
#2053=FILL_AREA_STYLE_COLOUR('NONE',#2048);
#2054=PRESENTATION_STYLE_ASSIGNMENT((#2049));
#2055=STYLED_ITEM('NONE',(#2054),#2047);
#2056=ADVANCED_BREP_SHAPE_REPRESENTATION('ABSR1',(#451,#848,#1236,#1624,#2047),#28);
#2057=SHAPE_REPRESENTATION_RELATIONSHIP('SRRPL1','',#2056,#62);
ENDSEC;
END-ISO-10303-21;
