ISO-10303-21;
HEADER;
/* Generated by software containing ST-Developer
 * from STEP Tools, Inc. (www.steptools.com) 
 */

FILE_DESCRIPTION(
/* description */ (''),
/* implementation_level */ '2;1');

FILE_NAME(
/* name */ 
'G:\\Applications\\Altium\\CernLib\\StepLib\\SON50P150X150X50-7N-R65X1
15.stp',
/* time_stamp */ '2017-02-07T11:44:01+01:00',
/* author */ ('jchouvet'),
/* organization */ (''),
/* preprocessor_version */ 'ST-DEVELOPER v16.1',
/* originating_system */ 'AutoCAD Mechanical',
/* authorisation */ '');

FILE_SCHEMA (('AUTOMOTIVE_DESIGN { 1 0 10303 214 3 1 1 }'));
ENDSEC;

DATA;
#10=MECHANICAL_DESIGN_GEOMETRIC_PRESENTATION_REPRESENTATION('',(#19,#26,
#20,#21,#22,#23,#24,#25),#2088);
#11=DIMENSIONAL_EXPONENTS(0.,0.,0.,0.,0.,0.,0.);
#12=(
CONVERSION_BASED_UNIT('degree',#13)
NAMED_UNIT(#11)
PLANE_ANGLE_UNIT()
);
#13=PLANE_ANGLE_MEASURE_WITH_UNIT(PLANE_ANGLE_MEASURE(0.01745329252),#2091);
#14=PRESENTATION_LAYER_ASSIGNMENT('1','3D',(#27,#28,#29,#30,#31,#32,#33,
#34));
#15=FACE_BOUND('',#155,.T.);
#16=FACE_BOUND('',#187,.T.);
#17=SHAPE_REPRESENTATION_RELATIONSHIP('SRR','None',#2094,#18);
#18=ADVANCED_BREP_SHAPE_REPRESENTATION('',(#27,#28,#29,#30,#31,#32,#33,
#34),#2087);
#19=STYLED_ITEM('',(#2104),#27);
#20=STYLED_ITEM('',(#2105),#28);
#21=STYLED_ITEM('',(#2104),#29);
#22=STYLED_ITEM('',(#2104),#30);
#23=STYLED_ITEM('',(#2104),#31);
#24=STYLED_ITEM('',(#2104),#32);
#25=STYLED_ITEM('',(#2104),#33);
#26=STYLED_ITEM('',(#2104),#34);
#27=MANIFOLD_SOLID_BREP('2D8D',#1271);
#28=MANIFOLD_SOLID_BREP('2D91',#1272);
#29=MANIFOLD_SOLID_BREP('2D95',#1273);
#30=MANIFOLD_SOLID_BREP('2D99',#1274);
#31=MANIFOLD_SOLID_BREP('2DA1',#1275);
#32=MANIFOLD_SOLID_BREP('2DA5',#1276);
#33=MANIFOLD_SOLID_BREP('2DA9',#1277);
#34=MANIFOLD_SOLID_BREP('2DAF',#1278);
#35=CIRCLE('',#1283,0.1);
#36=CIRCLE('',#1284,0.1);
#37=CIRCLE('',#1289,0.25);
#38=CIRCLE('',#1290,0.25);
#39=CIRCLE('',#1293,0.1);
#40=CIRCLE('',#1294,0.1);
#41=CIRCLE('',#1299,0.1);
#42=CIRCLE('',#1300,0.1);
#43=CIRCLE('',#1305,0.1);
#44=CIRCLE('',#1306,0.1);
#45=CIRCLE('',#1311,0.1);
#46=CIRCLE('',#1312,0.1);
#47=CIRCLE('',#1317,0.1);
#48=CIRCLE('',#1318,0.1);
#49=CIRCLE('',#1323,0.1);
#50=CIRCLE('',#1324,0.1);
#51=CIRCLE('',#1337,0.1);
#52=CIRCLE('',#1338,0.1);
#53=CIRCLE('',#1345,0.1);
#54=CIRCLE('',#1346,0.1);
#55=CIRCLE('',#1353,0.1);
#56=CIRCLE('',#1354,0.1);
#57=CIRCLE('',#1361,0.1);
#58=CIRCLE('',#1362,0.1);
#59=CIRCLE('',#1369,0.1);
#60=CIRCLE('',#1370,0.1);
#61=CYLINDRICAL_SURFACE('',#1282,0.1);
#62=CYLINDRICAL_SURFACE('',#1288,0.25);
#63=CYLINDRICAL_SURFACE('',#1292,0.1);
#64=CYLINDRICAL_SURFACE('',#1298,0.1);
#65=CYLINDRICAL_SURFACE('',#1304,0.1);
#66=CYLINDRICAL_SURFACE('',#1310,0.1);
#67=CYLINDRICAL_SURFACE('',#1316,0.1);
#68=CYLINDRICAL_SURFACE('',#1322,0.1);
#69=CYLINDRICAL_SURFACE('',#1336,0.1);
#70=CYLINDRICAL_SURFACE('',#1344,0.1);
#71=CYLINDRICAL_SURFACE('',#1352,0.1);
#72=CYLINDRICAL_SURFACE('',#1360,0.1);
#73=CYLINDRICAL_SURFACE('',#1368,0.1);
#74=FACE_OUTER_BOUND('',#148,.T.);
#75=FACE_OUTER_BOUND('',#149,.T.);
#76=FACE_OUTER_BOUND('',#150,.T.);
#77=FACE_OUTER_BOUND('',#151,.T.);
#78=FACE_OUTER_BOUND('',#152,.T.);
#79=FACE_OUTER_BOUND('',#153,.T.);
#80=FACE_OUTER_BOUND('',#154,.T.);
#81=FACE_OUTER_BOUND('',#156,.T.);
#82=FACE_OUTER_BOUND('',#157,.T.);
#83=FACE_OUTER_BOUND('',#158,.T.);
#84=FACE_OUTER_BOUND('',#159,.T.);
#85=FACE_OUTER_BOUND('',#160,.T.);
#86=FACE_OUTER_BOUND('',#161,.T.);
#87=FACE_OUTER_BOUND('',#162,.T.);
#88=FACE_OUTER_BOUND('',#163,.T.);
#89=FACE_OUTER_BOUND('',#164,.T.);
#90=FACE_OUTER_BOUND('',#165,.T.);
#91=FACE_OUTER_BOUND('',#166,.T.);
#92=FACE_OUTER_BOUND('',#167,.T.);
#93=FACE_OUTER_BOUND('',#168,.T.);
#94=FACE_OUTER_BOUND('',#169,.T.);
#95=FACE_OUTER_BOUND('',#170,.T.);
#96=FACE_OUTER_BOUND('',#171,.T.);
#97=FACE_OUTER_BOUND('',#172,.T.);
#98=FACE_OUTER_BOUND('',#173,.T.);
#99=FACE_OUTER_BOUND('',#174,.T.);
#100=FACE_OUTER_BOUND('',#175,.T.);
#101=FACE_OUTER_BOUND('',#176,.T.);
#102=FACE_OUTER_BOUND('',#177,.T.);
#103=FACE_OUTER_BOUND('',#178,.T.);
#104=FACE_OUTER_BOUND('',#179,.T.);
#105=FACE_OUTER_BOUND('',#180,.T.);
#106=FACE_OUTER_BOUND('',#181,.T.);
#107=FACE_OUTER_BOUND('',#182,.T.);
#108=FACE_OUTER_BOUND('',#183,.T.);
#109=FACE_OUTER_BOUND('',#184,.T.);
#110=FACE_OUTER_BOUND('',#185,.T.);
#111=FACE_OUTER_BOUND('',#186,.T.);
#112=FACE_OUTER_BOUND('',#188,.T.);
#113=FACE_OUTER_BOUND('',#189,.T.);
#114=FACE_OUTER_BOUND('',#190,.T.);
#115=FACE_OUTER_BOUND('',#191,.T.);
#116=FACE_OUTER_BOUND('',#192,.T.);
#117=FACE_OUTER_BOUND('',#193,.T.);
#118=FACE_OUTER_BOUND('',#194,.T.);
#119=FACE_OUTER_BOUND('',#195,.T.);
#120=FACE_OUTER_BOUND('',#196,.T.);
#121=FACE_OUTER_BOUND('',#197,.T.);
#122=FACE_OUTER_BOUND('',#198,.T.);
#123=FACE_OUTER_BOUND('',#199,.T.);
#124=FACE_OUTER_BOUND('',#200,.T.);
#125=FACE_OUTER_BOUND('',#201,.T.);
#126=FACE_OUTER_BOUND('',#202,.T.);
#127=FACE_OUTER_BOUND('',#203,.T.);
#128=FACE_OUTER_BOUND('',#204,.T.);
#129=FACE_OUTER_BOUND('',#205,.T.);
#130=FACE_OUTER_BOUND('',#206,.T.);
#131=FACE_OUTER_BOUND('',#207,.T.);
#132=FACE_OUTER_BOUND('',#208,.T.);
#133=FACE_OUTER_BOUND('',#209,.T.);
#134=FACE_OUTER_BOUND('',#210,.T.);
#135=FACE_OUTER_BOUND('',#211,.T.);
#136=FACE_OUTER_BOUND('',#212,.T.);
#137=FACE_OUTER_BOUND('',#213,.T.);
#138=FACE_OUTER_BOUND('',#214,.T.);
#139=FACE_OUTER_BOUND('',#215,.T.);
#140=FACE_OUTER_BOUND('',#216,.T.);
#141=FACE_OUTER_BOUND('',#217,.T.);
#142=FACE_OUTER_BOUND('',#218,.T.);
#143=FACE_OUTER_BOUND('',#219,.T.);
#144=FACE_OUTER_BOUND('',#220,.T.);
#145=FACE_OUTER_BOUND('',#221,.T.);
#146=FACE_OUTER_BOUND('',#222,.T.);
#147=FACE_OUTER_BOUND('',#223,.T.);
#148=EDGE_LOOP('',(#796,#797,#798,#799));
#149=EDGE_LOOP('',(#800,#801,#802,#803));
#150=EDGE_LOOP('',(#804,#805,#806,#807));
#151=EDGE_LOOP('',(#808,#809,#810,#811));
#152=EDGE_LOOP('',(#812,#813,#814,#815));
#153=EDGE_LOOP('',(#816,#817,#818,#819));
#154=EDGE_LOOP('',(#820));
#155=EDGE_LOOP('',(#821));
#156=EDGE_LOOP('',(#822));
#157=EDGE_LOOP('',(#823,#824,#825,#826));
#158=EDGE_LOOP('',(#827,#828,#829,#830));
#159=EDGE_LOOP('',(#831,#832,#833,#834));
#160=EDGE_LOOP('',(#835,#836,#837,#838));
#161=EDGE_LOOP('',(#839,#840,#841,#842));
#162=EDGE_LOOP('',(#843,#844,#845,#846));
#163=EDGE_LOOP('',(#847,#848,#849,#850));
#164=EDGE_LOOP('',(#851,#852,#853,#854));
#165=EDGE_LOOP('',(#855,#856,#857,#858));
#166=EDGE_LOOP('',(#859,#860,#861,#862));
#167=EDGE_LOOP('',(#863,#864,#865,#866));
#168=EDGE_LOOP('',(#867,#868,#869,#870));
#169=EDGE_LOOP('',(#871,#872,#873,#874));
#170=EDGE_LOOP('',(#875,#876,#877,#878));
#171=EDGE_LOOP('',(#879,#880,#881,#882));
#172=EDGE_LOOP('',(#883,#884,#885,#886));
#173=EDGE_LOOP('',(#887,#888,#889,#890));
#174=EDGE_LOOP('',(#891,#892,#893,#894));
#175=EDGE_LOOP('',(#895,#896,#897,#898));
#176=EDGE_LOOP('',(#899,#900,#901,#902));
#177=EDGE_LOOP('',(#903,#904,#905,#906));
#178=EDGE_LOOP('',(#907,#908,#909,#910));
#179=EDGE_LOOP('',(#911,#912,#913,#914));
#180=EDGE_LOOP('',(#915,#916,#917,#918));
#181=EDGE_LOOP('',(#919,#920,#921,#922,#923,#924,#925,#926,#927,#928,#929,
#930,#931,#932,#933,#934,#935,#936,#937,#938,#939,#940,#941,#942,#943,#944,
#945,#946));
#182=EDGE_LOOP('',(#947,#948,#949,#950,#951,#952,#953,#954,#955,#956,#957,
#958,#959,#960,#961,#962));
#183=EDGE_LOOP('',(#963,#964,#965,#966));
#184=EDGE_LOOP('',(#967,#968,#969,#970,#971,#972,#973,#974,#975,#976,#977,
#978,#979,#980,#981,#982));
#185=EDGE_LOOP('',(#983,#984,#985,#986));
#186=EDGE_LOOP('',(#987,#988,#989,#990));
#187=EDGE_LOOP('',(#991));
#188=EDGE_LOOP('',(#992,#993,#994,#995));
#189=EDGE_LOOP('',(#996,#997,#998,#999));
#190=EDGE_LOOP('',(#1000,#1001,#1002,#1003));
#191=EDGE_LOOP('',(#1004,#1005,#1006,#1007));
#192=EDGE_LOOP('',(#1008,#1009,#1010,#1011));
#193=EDGE_LOOP('',(#1012,#1013,#1014,#1015));
#194=EDGE_LOOP('',(#1016,#1017,#1018,#1019));
#195=EDGE_LOOP('',(#1020,#1021,#1022,#1023));
#196=EDGE_LOOP('',(#1024,#1025,#1026,#1027));
#197=EDGE_LOOP('',(#1028,#1029,#1030,#1031));
#198=EDGE_LOOP('',(#1032,#1033,#1034,#1035));
#199=EDGE_LOOP('',(#1036,#1037,#1038,#1039));
#200=EDGE_LOOP('',(#1040,#1041,#1042,#1043));
#201=EDGE_LOOP('',(#1044,#1045,#1046,#1047));
#202=EDGE_LOOP('',(#1048,#1049,#1050,#1051));
#203=EDGE_LOOP('',(#1052,#1053,#1054,#1055));
#204=EDGE_LOOP('',(#1056,#1057,#1058,#1059));
#205=EDGE_LOOP('',(#1060,#1061,#1062,#1063));
#206=EDGE_LOOP('',(#1064,#1065,#1066,#1067));
#207=EDGE_LOOP('',(#1068,#1069,#1070,#1071));
#208=EDGE_LOOP('',(#1072,#1073,#1074,#1075));
#209=EDGE_LOOP('',(#1076,#1077,#1078,#1079));
#210=EDGE_LOOP('',(#1080,#1081,#1082,#1083));
#211=EDGE_LOOP('',(#1084,#1085,#1086,#1087));
#212=EDGE_LOOP('',(#1088,#1089,#1090,#1091));
#213=EDGE_LOOP('',(#1092,#1093,#1094,#1095));
#214=EDGE_LOOP('',(#1096,#1097,#1098,#1099));
#215=EDGE_LOOP('',(#1100,#1101,#1102,#1103));
#216=EDGE_LOOP('',(#1104,#1105,#1106,#1107));
#217=EDGE_LOOP('',(#1108,#1109,#1110,#1111));
#218=EDGE_LOOP('',(#1112,#1113,#1114,#1115));
#219=EDGE_LOOP('',(#1116,#1117,#1118,#1119));
#220=EDGE_LOOP('',(#1120,#1121,#1122,#1123));
#221=EDGE_LOOP('',(#1124,#1125,#1126,#1127));
#222=EDGE_LOOP('',(#1128,#1129,#1130,#1131));
#223=EDGE_LOOP('',(#1132,#1133,#1134,#1135));
#224=LINE('',#1730,#368);
#225=LINE('',#1732,#369);
#226=LINE('',#1734,#370);
#227=LINE('',#1735,#371);
#228=LINE('',#1738,#372);
#229=LINE('',#1740,#373);
#230=LINE('',#1741,#374);
#231=LINE('',#1747,#375);
#232=LINE('',#1749,#376);
#233=LINE('',#1750,#377);
#234=LINE('',#1764,#378);
#235=LINE('',#1767,#379);
#236=LINE('',#1770,#380);
#237=LINE('',#1772,#381);
#238=LINE('',#1773,#382);
#239=LINE('',#1776,#383);
#240=LINE('',#1778,#384);
#241=LINE('',#1779,#385);
#242=LINE('',#1781,#386);
#243=LINE('',#1787,#387);
#244=LINE('',#1790,#388);
#245=LINE('',#1793,#389);
#246=LINE('',#1795,#390);
#247=LINE('',#1796,#391);
#248=LINE('',#1799,#392);
#249=LINE('',#1801,#393);
#250=LINE('',#1802,#394);
#251=LINE('',#1804,#395);
#252=LINE('',#1810,#396);
#253=LINE('',#1813,#397);
#254=LINE('',#1816,#398);
#255=LINE('',#1818,#399);
#256=LINE('',#1819,#400);
#257=LINE('',#1822,#401);
#258=LINE('',#1824,#402);
#259=LINE('',#1825,#403);
#260=LINE('',#1827,#404);
#261=LINE('',#1833,#405);
#262=LINE('',#1836,#406);
#263=LINE('',#1839,#407);
#264=LINE('',#1841,#408);
#265=LINE('',#1842,#409);
#266=LINE('',#1845,#410);
#267=LINE('',#1847,#411);
#268=LINE('',#1848,#412);
#269=LINE('',#1850,#413);
#270=LINE('',#1856,#414);
#271=LINE('',#1859,#415);
#272=LINE('',#1862,#416);
#273=LINE('',#1864,#417);
#274=LINE('',#1865,#418);
#275=LINE('',#1868,#419);
#276=LINE('',#1870,#420);
#277=LINE('',#1871,#421);
#278=LINE('',#1873,#422);
#279=LINE('',#1879,#423);
#280=LINE('',#1882,#424);
#281=LINE('',#1885,#425);
#282=LINE('',#1887,#426);
#283=LINE('',#1888,#427);
#284=LINE('',#1891,#428);
#285=LINE('',#1893,#429);
#286=LINE('',#1894,#430);
#287=LINE('',#1896,#431);
#288=LINE('',#1898,#432);
#289=LINE('',#1900,#433);
#290=LINE('',#1902,#434);
#291=LINE('',#1903,#435);
#292=LINE('',#1904,#436);
#293=LINE('',#1905,#437);
#294=LINE('',#1907,#438);
#295=LINE('',#1909,#439);
#296=LINE('',#1910,#440);
#297=LINE('',#1911,#441);
#298=LINE('',#1914,#442);
#299=LINE('',#1916,#443);
#300=LINE('',#1917,#444);
#301=LINE('',#1920,#445);
#302=LINE('',#1921,#446);
#303=LINE('',#1924,#447);
#304=LINE('',#1925,#448);
#305=LINE('',#1927,#449);
#306=LINE('',#1932,#450);
#307=LINE('',#1934,#451);
#308=LINE('',#1936,#452);
#309=LINE('',#1937,#453);
#310=LINE('',#1940,#454);
#311=LINE('',#1942,#455);
#312=LINE('',#1943,#456);
#313=LINE('',#1949,#457);
#314=LINE('',#1951,#458);
#315=LINE('',#1952,#459);
#316=LINE('',#1958,#460);
#317=LINE('',#1960,#461);
#318=LINE('',#1962,#462);
#319=LINE('',#1963,#463);
#320=LINE('',#1966,#464);
#321=LINE('',#1968,#465);
#322=LINE('',#1969,#466);
#323=LINE('',#1975,#467);
#324=LINE('',#1977,#468);
#325=LINE('',#1978,#469);
#326=LINE('',#1984,#470);
#327=LINE('',#1986,#471);
#328=LINE('',#1988,#472);
#329=LINE('',#1989,#473);
#330=LINE('',#1992,#474);
#331=LINE('',#1994,#475);
#332=LINE('',#1995,#476);
#333=LINE('',#2000,#477);
#334=LINE('',#2003,#478);
#335=LINE('',#2004,#479);
#336=LINE('',#2010,#480);
#337=LINE('',#2012,#481);
#338=LINE('',#2014,#482);
#339=LINE('',#2015,#483);
#340=LINE('',#2018,#484);
#341=LINE('',#2020,#485);
#342=LINE('',#2021,#486);
#343=LINE('',#2026,#487);
#344=LINE('',#2029,#488);
#345=LINE('',#2030,#489);
#346=LINE('',#2036,#490);
#347=LINE('',#2038,#491);
#348=LINE('',#2040,#492);
#349=LINE('',#2041,#493);
#350=LINE('',#2044,#494);
#351=LINE('',#2046,#495);
#352=LINE('',#2047,#496);
#353=LINE('',#2052,#497);
#354=LINE('',#2055,#498);
#355=LINE('',#2056,#499);
#356=LINE('',#2062,#500);
#357=LINE('',#2064,#501);
#358=LINE('',#2066,#502);
#359=LINE('',#2067,#503);
#360=LINE('',#2070,#504);
#361=LINE('',#2072,#505);
#362=LINE('',#2073,#506);
#363=LINE('',#2076,#507);
#364=LINE('',#2078,#508);
#365=LINE('',#2079,#509);
#366=LINE('',#2081,#510);
#367=LINE('',#2082,#511);
#368=VECTOR('',#1384,0.2);
#369=VECTOR('',#1385,0.12);
#370=VECTOR('',#1386,0.2);
#371=VECTOR('',#1387,0.12);
#372=VECTOR('',#1390,0.1);
#373=VECTOR('',#1391,0.1);
#374=VECTOR('',#1392,0.12);
#375=VECTOR('',#1399,0.12);
#376=VECTOR('',#1402,0.1);
#377=VECTOR('',#1403,0.1);
#378=VECTOR('',#1420,0.07);
#379=VECTOR('',#1423,0.07);
#380=VECTOR('',#1426,0.1);
#381=VECTOR('',#1427,0.1);
#382=VECTOR('',#1428,0.07);
#383=VECTOR('',#1431,0.1);
#384=VECTOR('',#1432,0.07);
#385=VECTOR('',#1433,0.1);
#386=VECTOR('',#1436,0.2);
#387=VECTOR('',#1441,0.07);
#388=VECTOR('',#1444,0.07);
#389=VECTOR('',#1447,0.1);
#390=VECTOR('',#1448,0.1);
#391=VECTOR('',#1449,0.07);
#392=VECTOR('',#1452,0.1);
#393=VECTOR('',#1453,0.07);
#394=VECTOR('',#1454,0.1);
#395=VECTOR('',#1457,0.2);
#396=VECTOR('',#1462,0.07);
#397=VECTOR('',#1465,0.07);
#398=VECTOR('',#1468,0.1);
#399=VECTOR('',#1469,0.1);
#400=VECTOR('',#1470,0.07);
#401=VECTOR('',#1473,0.1);
#402=VECTOR('',#1474,0.07);
#403=VECTOR('',#1475,0.1);
#404=VECTOR('',#1478,0.2);
#405=VECTOR('',#1483,0.07);
#406=VECTOR('',#1486,0.07);
#407=VECTOR('',#1489,0.1);
#408=VECTOR('',#1490,0.1);
#409=VECTOR('',#1491,0.07);
#410=VECTOR('',#1494,0.1);
#411=VECTOR('',#1495,0.07);
#412=VECTOR('',#1496,0.1);
#413=VECTOR('',#1499,0.2);
#414=VECTOR('',#1504,0.07);
#415=VECTOR('',#1507,0.07);
#416=VECTOR('',#1510,0.1);
#417=VECTOR('',#1511,0.1);
#418=VECTOR('',#1512,0.07);
#419=VECTOR('',#1515,0.1);
#420=VECTOR('',#1516,0.07);
#421=VECTOR('',#1517,0.1);
#422=VECTOR('',#1520,0.2);
#423=VECTOR('',#1525,0.07);
#424=VECTOR('',#1528,0.07);
#425=VECTOR('',#1531,0.1);
#426=VECTOR('',#1532,0.1);
#427=VECTOR('',#1533,0.07);
#428=VECTOR('',#1536,0.1);
#429=VECTOR('',#1537,0.07);
#430=VECTOR('',#1538,0.1);
#431=VECTOR('',#1541,0.2);
#432=VECTOR('',#1544,0.3);
#433=VECTOR('',#1545,0.15);
#434=VECTOR('',#1546,1.5);
#435=VECTOR('',#1547,0.15);
#436=VECTOR('',#1548,0.3);
#437=VECTOR('',#1549,0.3);
#438=VECTOR('',#1550,0.15);
#439=VECTOR('',#1551,1.5);
#440=VECTOR('',#1552,0.15);
#441=VECTOR('',#1553,0.3);
#442=VECTOR('',#1556,0.45);
#443=VECTOR('',#1557,1.5);
#444=VECTOR('',#1558,0.45);
#445=VECTOR('',#1561,1.5);
#446=VECTOR('',#1562,0.45);
#447=VECTOR('',#1565,1.5);
#448=VECTOR('',#1566,0.45);
#449=VECTOR('',#1569,1.5);
#450=VECTOR('',#1574,0.2);
#451=VECTOR('',#1575,0.12);
#452=VECTOR('',#1576,0.2);
#453=VECTOR('',#1577,0.12);
#454=VECTOR('',#1580,0.1);
#455=VECTOR('',#1581,0.1);
#456=VECTOR('',#1582,0.12);
#457=VECTOR('',#1589,0.12);
#458=VECTOR('',#1592,0.1);
#459=VECTOR('',#1593,0.1);
#460=VECTOR('',#1600,0.2);
#461=VECTOR('',#1601,0.12);
#462=VECTOR('',#1602,0.2);
#463=VECTOR('',#1603,0.12);
#464=VECTOR('',#1606,0.1);
#465=VECTOR('',#1607,0.1);
#466=VECTOR('',#1608,0.12);
#467=VECTOR('',#1615,0.12);
#468=VECTOR('',#1618,0.1);
#469=VECTOR('',#1619,0.1);
#470=VECTOR('',#1626,0.2);
#471=VECTOR('',#1627,0.12);
#472=VECTOR('',#1628,0.2);
#473=VECTOR('',#1629,0.12);
#474=VECTOR('',#1632,0.1);
#475=VECTOR('',#1633,0.12);
#476=VECTOR('',#1634,0.1);
#477=VECTOR('',#1639,0.12);
#478=VECTOR('',#1644,0.1);
#479=VECTOR('',#1645,0.1);
#480=VECTOR('',#1652,0.2);
#481=VECTOR('',#1653,0.12);
#482=VECTOR('',#1654,0.2);
#483=VECTOR('',#1655,0.12);
#484=VECTOR('',#1658,0.1);
#485=VECTOR('',#1659,0.12);
#486=VECTOR('',#1660,0.1);
#487=VECTOR('',#1665,0.12);
#488=VECTOR('',#1670,0.1);
#489=VECTOR('',#1671,0.1);
#490=VECTOR('',#1678,0.2);
#491=VECTOR('',#1679,0.12);
#492=VECTOR('',#1680,0.2);
#493=VECTOR('',#1681,0.12);
#494=VECTOR('',#1684,0.1);
#495=VECTOR('',#1685,0.12);
#496=VECTOR('',#1686,0.1);
#497=VECTOR('',#1691,0.12);
#498=VECTOR('',#1696,0.1);
#499=VECTOR('',#1697,0.1);
#500=VECTOR('',#1704,0.65);
#501=VECTOR('',#1705,0.05);
#502=VECTOR('',#1706,0.65);
#503=VECTOR('',#1707,0.05);
#504=VECTOR('',#1710,1.15);
#505=VECTOR('',#1711,1.15);
#506=VECTOR('',#1712,0.05);
#507=VECTOR('',#1715,0.65);
#508=VECTOR('',#1716,0.65);
#509=VECTOR('',#1717,0.05);
#510=VECTOR('',#1720,1.15);
#511=VECTOR('',#1721,1.15);
#512=VERTEX_POINT('',#1728);
#513=VERTEX_POINT('',#1729);
#514=VERTEX_POINT('',#1731);
#515=VERTEX_POINT('',#1733);
#516=VERTEX_POINT('',#1737);
#517=VERTEX_POINT('',#1739);
#518=VERTEX_POINT('',#1743);
#519=VERTEX_POINT('',#1745);
#520=VERTEX_POINT('',#1754);
#521=VERTEX_POINT('',#1756);
#522=VERTEX_POINT('',#1760);
#523=VERTEX_POINT('',#1761);
#524=VERTEX_POINT('',#1763);
#525=VERTEX_POINT('',#1765);
#526=VERTEX_POINT('',#1769);
#527=VERTEX_POINT('',#1771);
#528=VERTEX_POINT('',#1775);
#529=VERTEX_POINT('',#1777);
#530=VERTEX_POINT('',#1783);
#531=VERTEX_POINT('',#1784);
#532=VERTEX_POINT('',#1786);
#533=VERTEX_POINT('',#1788);
#534=VERTEX_POINT('',#1792);
#535=VERTEX_POINT('',#1794);
#536=VERTEX_POINT('',#1798);
#537=VERTEX_POINT('',#1800);
#538=VERTEX_POINT('',#1806);
#539=VERTEX_POINT('',#1807);
#540=VERTEX_POINT('',#1809);
#541=VERTEX_POINT('',#1811);
#542=VERTEX_POINT('',#1815);
#543=VERTEX_POINT('',#1817);
#544=VERTEX_POINT('',#1821);
#545=VERTEX_POINT('',#1823);
#546=VERTEX_POINT('',#1829);
#547=VERTEX_POINT('',#1830);
#548=VERTEX_POINT('',#1832);
#549=VERTEX_POINT('',#1834);
#550=VERTEX_POINT('',#1838);
#551=VERTEX_POINT('',#1840);
#552=VERTEX_POINT('',#1844);
#553=VERTEX_POINT('',#1846);
#554=VERTEX_POINT('',#1852);
#555=VERTEX_POINT('',#1853);
#556=VERTEX_POINT('',#1855);
#557=VERTEX_POINT('',#1857);
#558=VERTEX_POINT('',#1861);
#559=VERTEX_POINT('',#1863);
#560=VERTEX_POINT('',#1867);
#561=VERTEX_POINT('',#1869);
#562=VERTEX_POINT('',#1875);
#563=VERTEX_POINT('',#1876);
#564=VERTEX_POINT('',#1878);
#565=VERTEX_POINT('',#1880);
#566=VERTEX_POINT('',#1884);
#567=VERTEX_POINT('',#1886);
#568=VERTEX_POINT('',#1890);
#569=VERTEX_POINT('',#1892);
#570=VERTEX_POINT('',#1899);
#571=VERTEX_POINT('',#1901);
#572=VERTEX_POINT('',#1906);
#573=VERTEX_POINT('',#1908);
#574=VERTEX_POINT('',#1913);
#575=VERTEX_POINT('',#1915);
#576=VERTEX_POINT('',#1919);
#577=VERTEX_POINT('',#1923);
#578=VERTEX_POINT('',#1930);
#579=VERTEX_POINT('',#1931);
#580=VERTEX_POINT('',#1933);
#581=VERTEX_POINT('',#1935);
#582=VERTEX_POINT('',#1939);
#583=VERTEX_POINT('',#1941);
#584=VERTEX_POINT('',#1945);
#585=VERTEX_POINT('',#1947);
#586=VERTEX_POINT('',#1956);
#587=VERTEX_POINT('',#1957);
#588=VERTEX_POINT('',#1959);
#589=VERTEX_POINT('',#1961);
#590=VERTEX_POINT('',#1965);
#591=VERTEX_POINT('',#1967);
#592=VERTEX_POINT('',#1971);
#593=VERTEX_POINT('',#1973);
#594=VERTEX_POINT('',#1982);
#595=VERTEX_POINT('',#1983);
#596=VERTEX_POINT('',#1985);
#597=VERTEX_POINT('',#1987);
#598=VERTEX_POINT('',#1991);
#599=VERTEX_POINT('',#1993);
#600=VERTEX_POINT('',#1997);
#601=VERTEX_POINT('',#1999);
#602=VERTEX_POINT('',#2008);
#603=VERTEX_POINT('',#2009);
#604=VERTEX_POINT('',#2011);
#605=VERTEX_POINT('',#2013);
#606=VERTEX_POINT('',#2017);
#607=VERTEX_POINT('',#2019);
#608=VERTEX_POINT('',#2023);
#609=VERTEX_POINT('',#2025);
#610=VERTEX_POINT('',#2034);
#611=VERTEX_POINT('',#2035);
#612=VERTEX_POINT('',#2037);
#613=VERTEX_POINT('',#2039);
#614=VERTEX_POINT('',#2043);
#615=VERTEX_POINT('',#2045);
#616=VERTEX_POINT('',#2049);
#617=VERTEX_POINT('',#2051);
#618=VERTEX_POINT('',#2060);
#619=VERTEX_POINT('',#2061);
#620=VERTEX_POINT('',#2063);
#621=VERTEX_POINT('',#2065);
#622=VERTEX_POINT('',#2069);
#623=VERTEX_POINT('',#2071);
#624=VERTEX_POINT('',#2075);
#625=VERTEX_POINT('',#2077);
#626=EDGE_CURVE('',#512,#513,#224,.T.);
#627=EDGE_CURVE('',#512,#514,#225,.T.);
#628=EDGE_CURVE('',#515,#514,#226,.T.);
#629=EDGE_CURVE('',#513,#515,#227,.T.);
#630=EDGE_CURVE('',#513,#516,#228,.T.);
#631=EDGE_CURVE('',#517,#515,#229,.T.);
#632=EDGE_CURVE('',#516,#517,#230,.T.);
#633=EDGE_CURVE('',#516,#518,#35,.T.);
#634=EDGE_CURVE('',#519,#517,#36,.T.);
#635=EDGE_CURVE('',#518,#519,#231,.T.);
#636=EDGE_CURVE('',#518,#512,#232,.T.);
#637=EDGE_CURVE('',#514,#519,#233,.T.);
#638=EDGE_CURVE('',#520,#520,#37,.T.);
#639=EDGE_CURVE('',#521,#521,#38,.T.);
#640=EDGE_CURVE('',#522,#523,#39,.T.);
#641=EDGE_CURVE('',#522,#524,#234,.T.);
#642=EDGE_CURVE('',#525,#524,#40,.T.);
#643=EDGE_CURVE('',#523,#525,#235,.T.);
#644=EDGE_CURVE('',#523,#526,#236,.T.);
#645=EDGE_CURVE('',#527,#525,#237,.T.);
#646=EDGE_CURVE('',#526,#527,#238,.T.);
#647=EDGE_CURVE('',#528,#522,#239,.T.);
#648=EDGE_CURVE('',#529,#528,#240,.T.);
#649=EDGE_CURVE('',#524,#529,#241,.T.);
#650=EDGE_CURVE('',#527,#529,#242,.T.);
#651=EDGE_CURVE('',#530,#531,#41,.T.);
#652=EDGE_CURVE('',#530,#532,#243,.T.);
#653=EDGE_CURVE('',#532,#533,#42,.T.);
#654=EDGE_CURVE('',#531,#533,#244,.T.);
#655=EDGE_CURVE('',#531,#534,#245,.T.);
#656=EDGE_CURVE('',#533,#535,#246,.T.);
#657=EDGE_CURVE('',#534,#535,#247,.T.);
#658=EDGE_CURVE('',#536,#530,#248,.T.);
#659=EDGE_CURVE('',#537,#536,#249,.T.);
#660=EDGE_CURVE('',#537,#532,#250,.T.);
#661=EDGE_CURVE('',#535,#537,#251,.T.);
#662=EDGE_CURVE('',#538,#539,#43,.T.);
#663=EDGE_CURVE('',#538,#540,#252,.T.);
#664=EDGE_CURVE('',#540,#541,#44,.T.);
#665=EDGE_CURVE('',#539,#541,#253,.T.);
#666=EDGE_CURVE('',#539,#542,#254,.T.);
#667=EDGE_CURVE('',#541,#543,#255,.T.);
#668=EDGE_CURVE('',#542,#543,#256,.T.);
#669=EDGE_CURVE('',#544,#538,#257,.T.);
#670=EDGE_CURVE('',#545,#544,#258,.T.);
#671=EDGE_CURVE('',#545,#540,#259,.T.);
#672=EDGE_CURVE('',#543,#545,#260,.T.);
#673=EDGE_CURVE('',#546,#547,#45,.T.);
#674=EDGE_CURVE('',#546,#548,#261,.T.);
#675=EDGE_CURVE('',#548,#549,#46,.T.);
#676=EDGE_CURVE('',#547,#549,#262,.T.);
#677=EDGE_CURVE('',#547,#550,#263,.T.);
#678=EDGE_CURVE('',#549,#551,#264,.T.);
#679=EDGE_CURVE('',#550,#551,#265,.T.);
#680=EDGE_CURVE('',#552,#546,#266,.T.);
#681=EDGE_CURVE('',#553,#552,#267,.T.);
#682=EDGE_CURVE('',#553,#548,#268,.T.);
#683=EDGE_CURVE('',#551,#553,#269,.T.);
#684=EDGE_CURVE('',#554,#555,#47,.T.);
#685=EDGE_CURVE('',#554,#556,#270,.T.);
#686=EDGE_CURVE('',#557,#556,#48,.T.);
#687=EDGE_CURVE('',#555,#557,#271,.T.);
#688=EDGE_CURVE('',#555,#558,#272,.T.);
#689=EDGE_CURVE('',#559,#557,#273,.T.);
#690=EDGE_CURVE('',#558,#559,#274,.T.);
#691=EDGE_CURVE('',#560,#554,#275,.T.);
#692=EDGE_CURVE('',#561,#560,#276,.T.);
#693=EDGE_CURVE('',#556,#561,#277,.T.);
#694=EDGE_CURVE('',#559,#561,#278,.T.);
#695=EDGE_CURVE('',#562,#563,#49,.T.);
#696=EDGE_CURVE('',#562,#564,#279,.T.);
#697=EDGE_CURVE('',#565,#564,#50,.T.);
#698=EDGE_CURVE('',#563,#565,#280,.T.);
#699=EDGE_CURVE('',#563,#566,#281,.T.);
#700=EDGE_CURVE('',#567,#565,#282,.T.);
#701=EDGE_CURVE('',#566,#567,#283,.T.);
#702=EDGE_CURVE('',#568,#562,#284,.T.);
#703=EDGE_CURVE('',#569,#568,#285,.T.);
#704=EDGE_CURVE('',#564,#569,#286,.T.);
#705=EDGE_CURVE('',#567,#569,#287,.T.);
#706=EDGE_CURVE('',#526,#560,#288,.T.);
#707=EDGE_CURVE('',#558,#570,#289,.T.);
#708=EDGE_CURVE('',#570,#571,#290,.T.);
#709=EDGE_CURVE('',#571,#536,#291,.T.);
#710=EDGE_CURVE('',#534,#552,#292,.T.);
#711=EDGE_CURVE('',#550,#544,#293,.T.);
#712=EDGE_CURVE('',#542,#572,#294,.T.);
#713=EDGE_CURVE('',#572,#573,#295,.T.);
#714=EDGE_CURVE('',#573,#568,#296,.T.);
#715=EDGE_CURVE('',#566,#528,#297,.T.);
#716=EDGE_CURVE('',#573,#574,#298,.T.);
#717=EDGE_CURVE('',#575,#574,#299,.T.);
#718=EDGE_CURVE('',#570,#575,#300,.T.);
#719=EDGE_CURVE('',#576,#575,#301,.T.);
#720=EDGE_CURVE('',#571,#576,#302,.T.);
#721=EDGE_CURVE('',#577,#576,#303,.T.);
#722=EDGE_CURVE('',#572,#577,#304,.T.);
#723=EDGE_CURVE('',#574,#577,#305,.T.);
#724=EDGE_CURVE('',#578,#579,#306,.T.);
#725=EDGE_CURVE('',#578,#580,#307,.T.);
#726=EDGE_CURVE('',#581,#580,#308,.T.);
#727=EDGE_CURVE('',#579,#581,#309,.T.);
#728=EDGE_CURVE('',#579,#582,#310,.T.);
#729=EDGE_CURVE('',#583,#581,#311,.T.);
#730=EDGE_CURVE('',#582,#583,#312,.T.);
#731=EDGE_CURVE('',#582,#584,#51,.T.);
#732=EDGE_CURVE('',#585,#583,#52,.T.);
#733=EDGE_CURVE('',#584,#585,#313,.T.);
#734=EDGE_CURVE('',#584,#578,#314,.T.);
#735=EDGE_CURVE('',#580,#585,#315,.T.);
#736=EDGE_CURVE('',#586,#587,#316,.T.);
#737=EDGE_CURVE('',#586,#588,#317,.T.);
#738=EDGE_CURVE('',#589,#588,#318,.T.);
#739=EDGE_CURVE('',#587,#589,#319,.T.);
#740=EDGE_CURVE('',#587,#590,#320,.T.);
#741=EDGE_CURVE('',#591,#589,#321,.T.);
#742=EDGE_CURVE('',#590,#591,#322,.T.);
#743=EDGE_CURVE('',#590,#592,#53,.T.);
#744=EDGE_CURVE('',#593,#591,#54,.T.);
#745=EDGE_CURVE('',#592,#593,#323,.T.);
#746=EDGE_CURVE('',#592,#586,#324,.T.);
#747=EDGE_CURVE('',#588,#593,#325,.T.);
#748=EDGE_CURVE('',#594,#595,#326,.T.);
#749=EDGE_CURVE('',#595,#596,#327,.T.);
#750=EDGE_CURVE('',#596,#597,#328,.T.);
#751=EDGE_CURVE('',#594,#597,#329,.T.);
#752=EDGE_CURVE('',#595,#598,#330,.T.);
#753=EDGE_CURVE('',#598,#599,#331,.T.);
#754=EDGE_CURVE('',#599,#596,#332,.T.);
#755=EDGE_CURVE('',#598,#600,#55,.T.);
#756=EDGE_CURVE('',#600,#601,#333,.T.);
#757=EDGE_CURVE('',#601,#599,#56,.T.);
#758=EDGE_CURVE('',#600,#594,#334,.T.);
#759=EDGE_CURVE('',#597,#601,#335,.T.);
#760=EDGE_CURVE('',#602,#603,#336,.T.);
#761=EDGE_CURVE('',#603,#604,#337,.T.);
#762=EDGE_CURVE('',#604,#605,#338,.T.);
#763=EDGE_CURVE('',#602,#605,#339,.T.);
#764=EDGE_CURVE('',#603,#606,#340,.T.);
#765=EDGE_CURVE('',#606,#607,#341,.T.);
#766=EDGE_CURVE('',#607,#604,#342,.T.);
#767=EDGE_CURVE('',#606,#608,#57,.T.);
#768=EDGE_CURVE('',#608,#609,#343,.T.);
#769=EDGE_CURVE('',#609,#607,#58,.T.);
#770=EDGE_CURVE('',#608,#602,#344,.T.);
#771=EDGE_CURVE('',#605,#609,#345,.T.);
#772=EDGE_CURVE('',#610,#611,#346,.T.);
#773=EDGE_CURVE('',#611,#612,#347,.T.);
#774=EDGE_CURVE('',#612,#613,#348,.T.);
#775=EDGE_CURVE('',#610,#613,#349,.T.);
#776=EDGE_CURVE('',#611,#614,#350,.T.);
#777=EDGE_CURVE('',#614,#615,#351,.T.);
#778=EDGE_CURVE('',#615,#612,#352,.T.);
#779=EDGE_CURVE('',#614,#616,#59,.T.);
#780=EDGE_CURVE('',#616,#617,#353,.T.);
#781=EDGE_CURVE('',#617,#615,#60,.T.);
#782=EDGE_CURVE('',#616,#610,#354,.T.);
#783=EDGE_CURVE('',#613,#617,#355,.T.);
#784=EDGE_CURVE('',#618,#619,#356,.T.);
#785=EDGE_CURVE('',#619,#620,#357,.T.);
#786=EDGE_CURVE('',#621,#620,#358,.T.);
#787=EDGE_CURVE('',#618,#621,#359,.T.);
#788=EDGE_CURVE('',#622,#618,#360,.T.);
#789=EDGE_CURVE('',#623,#621,#361,.T.);
#790=EDGE_CURVE('',#622,#623,#362,.T.);
#791=EDGE_CURVE('',#624,#622,#363,.T.);
#792=EDGE_CURVE('',#625,#623,#364,.T.);
#793=EDGE_CURVE('',#624,#625,#365,.T.);
#794=EDGE_CURVE('',#619,#624,#366,.T.);
#795=EDGE_CURVE('',#620,#625,#367,.T.);
#796=ORIENTED_EDGE('',*,*,#626,.F.);
#797=ORIENTED_EDGE('',*,*,#627,.T.);
#798=ORIENTED_EDGE('',*,*,#628,.F.);
#799=ORIENTED_EDGE('',*,*,#629,.F.);
#800=ORIENTED_EDGE('',*,*,#630,.F.);
#801=ORIENTED_EDGE('',*,*,#629,.T.);
#802=ORIENTED_EDGE('',*,*,#631,.F.);
#803=ORIENTED_EDGE('',*,*,#632,.F.);
#804=ORIENTED_EDGE('',*,*,#633,.F.);
#805=ORIENTED_EDGE('',*,*,#632,.T.);
#806=ORIENTED_EDGE('',*,*,#634,.F.);
#807=ORIENTED_EDGE('',*,*,#635,.F.);
#808=ORIENTED_EDGE('',*,*,#636,.F.);
#809=ORIENTED_EDGE('',*,*,#635,.T.);
#810=ORIENTED_EDGE('',*,*,#637,.F.);
#811=ORIENTED_EDGE('',*,*,#627,.F.);
#812=ORIENTED_EDGE('',*,*,#636,.T.);
#813=ORIENTED_EDGE('',*,*,#626,.T.);
#814=ORIENTED_EDGE('',*,*,#630,.T.);
#815=ORIENTED_EDGE('',*,*,#633,.T.);
#816=ORIENTED_EDGE('',*,*,#637,.T.);
#817=ORIENTED_EDGE('',*,*,#634,.T.);
#818=ORIENTED_EDGE('',*,*,#631,.T.);
#819=ORIENTED_EDGE('',*,*,#628,.T.);
#820=ORIENTED_EDGE('',*,*,#638,.T.);
#821=ORIENTED_EDGE('',*,*,#639,.F.);
#822=ORIENTED_EDGE('',*,*,#638,.F.);
#823=ORIENTED_EDGE('',*,*,#640,.F.);
#824=ORIENTED_EDGE('',*,*,#641,.T.);
#825=ORIENTED_EDGE('',*,*,#642,.F.);
#826=ORIENTED_EDGE('',*,*,#643,.F.);
#827=ORIENTED_EDGE('',*,*,#644,.F.);
#828=ORIENTED_EDGE('',*,*,#643,.T.);
#829=ORIENTED_EDGE('',*,*,#645,.F.);
#830=ORIENTED_EDGE('',*,*,#646,.F.);
#831=ORIENTED_EDGE('',*,*,#647,.F.);
#832=ORIENTED_EDGE('',*,*,#648,.F.);
#833=ORIENTED_EDGE('',*,*,#649,.F.);
#834=ORIENTED_EDGE('',*,*,#641,.F.);
#835=ORIENTED_EDGE('',*,*,#645,.T.);
#836=ORIENTED_EDGE('',*,*,#642,.T.);
#837=ORIENTED_EDGE('',*,*,#649,.T.);
#838=ORIENTED_EDGE('',*,*,#650,.F.);
#839=ORIENTED_EDGE('',*,*,#651,.F.);
#840=ORIENTED_EDGE('',*,*,#652,.T.);
#841=ORIENTED_EDGE('',*,*,#653,.T.);
#842=ORIENTED_EDGE('',*,*,#654,.F.);
#843=ORIENTED_EDGE('',*,*,#655,.F.);
#844=ORIENTED_EDGE('',*,*,#654,.T.);
#845=ORIENTED_EDGE('',*,*,#656,.T.);
#846=ORIENTED_EDGE('',*,*,#657,.F.);
#847=ORIENTED_EDGE('',*,*,#658,.F.);
#848=ORIENTED_EDGE('',*,*,#659,.F.);
#849=ORIENTED_EDGE('',*,*,#660,.T.);
#850=ORIENTED_EDGE('',*,*,#652,.F.);
#851=ORIENTED_EDGE('',*,*,#660,.F.);
#852=ORIENTED_EDGE('',*,*,#661,.F.);
#853=ORIENTED_EDGE('',*,*,#656,.F.);
#854=ORIENTED_EDGE('',*,*,#653,.F.);
#855=ORIENTED_EDGE('',*,*,#662,.F.);
#856=ORIENTED_EDGE('',*,*,#663,.T.);
#857=ORIENTED_EDGE('',*,*,#664,.T.);
#858=ORIENTED_EDGE('',*,*,#665,.F.);
#859=ORIENTED_EDGE('',*,*,#666,.F.);
#860=ORIENTED_EDGE('',*,*,#665,.T.);
#861=ORIENTED_EDGE('',*,*,#667,.T.);
#862=ORIENTED_EDGE('',*,*,#668,.F.);
#863=ORIENTED_EDGE('',*,*,#669,.F.);
#864=ORIENTED_EDGE('',*,*,#670,.F.);
#865=ORIENTED_EDGE('',*,*,#671,.T.);
#866=ORIENTED_EDGE('',*,*,#663,.F.);
#867=ORIENTED_EDGE('',*,*,#671,.F.);
#868=ORIENTED_EDGE('',*,*,#672,.F.);
#869=ORIENTED_EDGE('',*,*,#667,.F.);
#870=ORIENTED_EDGE('',*,*,#664,.F.);
#871=ORIENTED_EDGE('',*,*,#673,.F.);
#872=ORIENTED_EDGE('',*,*,#674,.T.);
#873=ORIENTED_EDGE('',*,*,#675,.T.);
#874=ORIENTED_EDGE('',*,*,#676,.F.);
#875=ORIENTED_EDGE('',*,*,#677,.F.);
#876=ORIENTED_EDGE('',*,*,#676,.T.);
#877=ORIENTED_EDGE('',*,*,#678,.T.);
#878=ORIENTED_EDGE('',*,*,#679,.F.);
#879=ORIENTED_EDGE('',*,*,#680,.F.);
#880=ORIENTED_EDGE('',*,*,#681,.F.);
#881=ORIENTED_EDGE('',*,*,#682,.T.);
#882=ORIENTED_EDGE('',*,*,#674,.F.);
#883=ORIENTED_EDGE('',*,*,#682,.F.);
#884=ORIENTED_EDGE('',*,*,#683,.F.);
#885=ORIENTED_EDGE('',*,*,#678,.F.);
#886=ORIENTED_EDGE('',*,*,#675,.F.);
#887=ORIENTED_EDGE('',*,*,#684,.F.);
#888=ORIENTED_EDGE('',*,*,#685,.T.);
#889=ORIENTED_EDGE('',*,*,#686,.F.);
#890=ORIENTED_EDGE('',*,*,#687,.F.);
#891=ORIENTED_EDGE('',*,*,#688,.F.);
#892=ORIENTED_EDGE('',*,*,#687,.T.);
#893=ORIENTED_EDGE('',*,*,#689,.F.);
#894=ORIENTED_EDGE('',*,*,#690,.F.);
#895=ORIENTED_EDGE('',*,*,#691,.F.);
#896=ORIENTED_EDGE('',*,*,#692,.F.);
#897=ORIENTED_EDGE('',*,*,#693,.F.);
#898=ORIENTED_EDGE('',*,*,#685,.F.);
#899=ORIENTED_EDGE('',*,*,#689,.T.);
#900=ORIENTED_EDGE('',*,*,#686,.T.);
#901=ORIENTED_EDGE('',*,*,#693,.T.);
#902=ORIENTED_EDGE('',*,*,#694,.F.);
#903=ORIENTED_EDGE('',*,*,#695,.F.);
#904=ORIENTED_EDGE('',*,*,#696,.T.);
#905=ORIENTED_EDGE('',*,*,#697,.F.);
#906=ORIENTED_EDGE('',*,*,#698,.F.);
#907=ORIENTED_EDGE('',*,*,#699,.F.);
#908=ORIENTED_EDGE('',*,*,#698,.T.);
#909=ORIENTED_EDGE('',*,*,#700,.F.);
#910=ORIENTED_EDGE('',*,*,#701,.F.);
#911=ORIENTED_EDGE('',*,*,#702,.F.);
#912=ORIENTED_EDGE('',*,*,#703,.F.);
#913=ORIENTED_EDGE('',*,*,#704,.F.);
#914=ORIENTED_EDGE('',*,*,#696,.F.);
#915=ORIENTED_EDGE('',*,*,#700,.T.);
#916=ORIENTED_EDGE('',*,*,#697,.T.);
#917=ORIENTED_EDGE('',*,*,#704,.T.);
#918=ORIENTED_EDGE('',*,*,#705,.F.);
#919=ORIENTED_EDGE('',*,*,#647,.T.);
#920=ORIENTED_EDGE('',*,*,#640,.T.);
#921=ORIENTED_EDGE('',*,*,#644,.T.);
#922=ORIENTED_EDGE('',*,*,#706,.T.);
#923=ORIENTED_EDGE('',*,*,#691,.T.);
#924=ORIENTED_EDGE('',*,*,#684,.T.);
#925=ORIENTED_EDGE('',*,*,#688,.T.);
#926=ORIENTED_EDGE('',*,*,#707,.T.);
#927=ORIENTED_EDGE('',*,*,#708,.T.);
#928=ORIENTED_EDGE('',*,*,#709,.T.);
#929=ORIENTED_EDGE('',*,*,#658,.T.);
#930=ORIENTED_EDGE('',*,*,#651,.T.);
#931=ORIENTED_EDGE('',*,*,#655,.T.);
#932=ORIENTED_EDGE('',*,*,#710,.T.);
#933=ORIENTED_EDGE('',*,*,#680,.T.);
#934=ORIENTED_EDGE('',*,*,#673,.T.);
#935=ORIENTED_EDGE('',*,*,#677,.T.);
#936=ORIENTED_EDGE('',*,*,#711,.T.);
#937=ORIENTED_EDGE('',*,*,#669,.T.);
#938=ORIENTED_EDGE('',*,*,#662,.T.);
#939=ORIENTED_EDGE('',*,*,#666,.T.);
#940=ORIENTED_EDGE('',*,*,#712,.T.);
#941=ORIENTED_EDGE('',*,*,#713,.T.);
#942=ORIENTED_EDGE('',*,*,#714,.T.);
#943=ORIENTED_EDGE('',*,*,#702,.T.);
#944=ORIENTED_EDGE('',*,*,#695,.T.);
#945=ORIENTED_EDGE('',*,*,#699,.T.);
#946=ORIENTED_EDGE('',*,*,#715,.T.);
#947=ORIENTED_EDGE('',*,*,#648,.T.);
#948=ORIENTED_EDGE('',*,*,#715,.F.);
#949=ORIENTED_EDGE('',*,*,#701,.T.);
#950=ORIENTED_EDGE('',*,*,#705,.T.);
#951=ORIENTED_EDGE('',*,*,#703,.T.);
#952=ORIENTED_EDGE('',*,*,#714,.F.);
#953=ORIENTED_EDGE('',*,*,#716,.T.);
#954=ORIENTED_EDGE('',*,*,#717,.F.);
#955=ORIENTED_EDGE('',*,*,#718,.F.);
#956=ORIENTED_EDGE('',*,*,#707,.F.);
#957=ORIENTED_EDGE('',*,*,#690,.T.);
#958=ORIENTED_EDGE('',*,*,#694,.T.);
#959=ORIENTED_EDGE('',*,*,#692,.T.);
#960=ORIENTED_EDGE('',*,*,#706,.F.);
#961=ORIENTED_EDGE('',*,*,#646,.T.);
#962=ORIENTED_EDGE('',*,*,#650,.T.);
#963=ORIENTED_EDGE('',*,*,#708,.F.);
#964=ORIENTED_EDGE('',*,*,#718,.T.);
#965=ORIENTED_EDGE('',*,*,#719,.F.);
#966=ORIENTED_EDGE('',*,*,#720,.F.);
#967=ORIENTED_EDGE('',*,*,#659,.T.);
#968=ORIENTED_EDGE('',*,*,#709,.F.);
#969=ORIENTED_EDGE('',*,*,#720,.T.);
#970=ORIENTED_EDGE('',*,*,#721,.F.);
#971=ORIENTED_EDGE('',*,*,#722,.F.);
#972=ORIENTED_EDGE('',*,*,#712,.F.);
#973=ORIENTED_EDGE('',*,*,#668,.T.);
#974=ORIENTED_EDGE('',*,*,#672,.T.);
#975=ORIENTED_EDGE('',*,*,#670,.T.);
#976=ORIENTED_EDGE('',*,*,#711,.F.);
#977=ORIENTED_EDGE('',*,*,#679,.T.);
#978=ORIENTED_EDGE('',*,*,#683,.T.);
#979=ORIENTED_EDGE('',*,*,#681,.T.);
#980=ORIENTED_EDGE('',*,*,#710,.F.);
#981=ORIENTED_EDGE('',*,*,#657,.T.);
#982=ORIENTED_EDGE('',*,*,#661,.T.);
#983=ORIENTED_EDGE('',*,*,#713,.F.);
#984=ORIENTED_EDGE('',*,*,#722,.T.);
#985=ORIENTED_EDGE('',*,*,#723,.F.);
#986=ORIENTED_EDGE('',*,*,#716,.F.);
#987=ORIENTED_EDGE('',*,*,#723,.T.);
#988=ORIENTED_EDGE('',*,*,#721,.T.);
#989=ORIENTED_EDGE('',*,*,#719,.T.);
#990=ORIENTED_EDGE('',*,*,#717,.T.);
#991=ORIENTED_EDGE('',*,*,#639,.T.);
#992=ORIENTED_EDGE('',*,*,#724,.F.);
#993=ORIENTED_EDGE('',*,*,#725,.T.);
#994=ORIENTED_EDGE('',*,*,#726,.F.);
#995=ORIENTED_EDGE('',*,*,#727,.F.);
#996=ORIENTED_EDGE('',*,*,#728,.F.);
#997=ORIENTED_EDGE('',*,*,#727,.T.);
#998=ORIENTED_EDGE('',*,*,#729,.F.);
#999=ORIENTED_EDGE('',*,*,#730,.F.);
#1000=ORIENTED_EDGE('',*,*,#731,.F.);
#1001=ORIENTED_EDGE('',*,*,#730,.T.);
#1002=ORIENTED_EDGE('',*,*,#732,.F.);
#1003=ORIENTED_EDGE('',*,*,#733,.F.);
#1004=ORIENTED_EDGE('',*,*,#734,.F.);
#1005=ORIENTED_EDGE('',*,*,#733,.T.);
#1006=ORIENTED_EDGE('',*,*,#735,.F.);
#1007=ORIENTED_EDGE('',*,*,#725,.F.);
#1008=ORIENTED_EDGE('',*,*,#734,.T.);
#1009=ORIENTED_EDGE('',*,*,#724,.T.);
#1010=ORIENTED_EDGE('',*,*,#728,.T.);
#1011=ORIENTED_EDGE('',*,*,#731,.T.);
#1012=ORIENTED_EDGE('',*,*,#735,.T.);
#1013=ORIENTED_EDGE('',*,*,#732,.T.);
#1014=ORIENTED_EDGE('',*,*,#729,.T.);
#1015=ORIENTED_EDGE('',*,*,#726,.T.);
#1016=ORIENTED_EDGE('',*,*,#736,.F.);
#1017=ORIENTED_EDGE('',*,*,#737,.T.);
#1018=ORIENTED_EDGE('',*,*,#738,.F.);
#1019=ORIENTED_EDGE('',*,*,#739,.F.);
#1020=ORIENTED_EDGE('',*,*,#740,.F.);
#1021=ORIENTED_EDGE('',*,*,#739,.T.);
#1022=ORIENTED_EDGE('',*,*,#741,.F.);
#1023=ORIENTED_EDGE('',*,*,#742,.F.);
#1024=ORIENTED_EDGE('',*,*,#743,.F.);
#1025=ORIENTED_EDGE('',*,*,#742,.T.);
#1026=ORIENTED_EDGE('',*,*,#744,.F.);
#1027=ORIENTED_EDGE('',*,*,#745,.F.);
#1028=ORIENTED_EDGE('',*,*,#746,.F.);
#1029=ORIENTED_EDGE('',*,*,#745,.T.);
#1030=ORIENTED_EDGE('',*,*,#747,.F.);
#1031=ORIENTED_EDGE('',*,*,#737,.F.);
#1032=ORIENTED_EDGE('',*,*,#746,.T.);
#1033=ORIENTED_EDGE('',*,*,#736,.T.);
#1034=ORIENTED_EDGE('',*,*,#740,.T.);
#1035=ORIENTED_EDGE('',*,*,#743,.T.);
#1036=ORIENTED_EDGE('',*,*,#747,.T.);
#1037=ORIENTED_EDGE('',*,*,#744,.T.);
#1038=ORIENTED_EDGE('',*,*,#741,.T.);
#1039=ORIENTED_EDGE('',*,*,#738,.T.);
#1040=ORIENTED_EDGE('',*,*,#748,.T.);
#1041=ORIENTED_EDGE('',*,*,#749,.T.);
#1042=ORIENTED_EDGE('',*,*,#750,.T.);
#1043=ORIENTED_EDGE('',*,*,#751,.F.);
#1044=ORIENTED_EDGE('',*,*,#752,.T.);
#1045=ORIENTED_EDGE('',*,*,#753,.T.);
#1046=ORIENTED_EDGE('',*,*,#754,.T.);
#1047=ORIENTED_EDGE('',*,*,#749,.F.);
#1048=ORIENTED_EDGE('',*,*,#755,.T.);
#1049=ORIENTED_EDGE('',*,*,#756,.T.);
#1050=ORIENTED_EDGE('',*,*,#757,.T.);
#1051=ORIENTED_EDGE('',*,*,#753,.F.);
#1052=ORIENTED_EDGE('',*,*,#758,.T.);
#1053=ORIENTED_EDGE('',*,*,#751,.T.);
#1054=ORIENTED_EDGE('',*,*,#759,.T.);
#1055=ORIENTED_EDGE('',*,*,#756,.F.);
#1056=ORIENTED_EDGE('',*,*,#758,.F.);
#1057=ORIENTED_EDGE('',*,*,#755,.F.);
#1058=ORIENTED_EDGE('',*,*,#752,.F.);
#1059=ORIENTED_EDGE('',*,*,#748,.F.);
#1060=ORIENTED_EDGE('',*,*,#759,.F.);
#1061=ORIENTED_EDGE('',*,*,#750,.F.);
#1062=ORIENTED_EDGE('',*,*,#754,.F.);
#1063=ORIENTED_EDGE('',*,*,#757,.F.);
#1064=ORIENTED_EDGE('',*,*,#760,.T.);
#1065=ORIENTED_EDGE('',*,*,#761,.T.);
#1066=ORIENTED_EDGE('',*,*,#762,.T.);
#1067=ORIENTED_EDGE('',*,*,#763,.F.);
#1068=ORIENTED_EDGE('',*,*,#764,.T.);
#1069=ORIENTED_EDGE('',*,*,#765,.T.);
#1070=ORIENTED_EDGE('',*,*,#766,.T.);
#1071=ORIENTED_EDGE('',*,*,#761,.F.);
#1072=ORIENTED_EDGE('',*,*,#767,.T.);
#1073=ORIENTED_EDGE('',*,*,#768,.T.);
#1074=ORIENTED_EDGE('',*,*,#769,.T.);
#1075=ORIENTED_EDGE('',*,*,#765,.F.);
#1076=ORIENTED_EDGE('',*,*,#770,.T.);
#1077=ORIENTED_EDGE('',*,*,#763,.T.);
#1078=ORIENTED_EDGE('',*,*,#771,.T.);
#1079=ORIENTED_EDGE('',*,*,#768,.F.);
#1080=ORIENTED_EDGE('',*,*,#770,.F.);
#1081=ORIENTED_EDGE('',*,*,#767,.F.);
#1082=ORIENTED_EDGE('',*,*,#764,.F.);
#1083=ORIENTED_EDGE('',*,*,#760,.F.);
#1084=ORIENTED_EDGE('',*,*,#771,.F.);
#1085=ORIENTED_EDGE('',*,*,#762,.F.);
#1086=ORIENTED_EDGE('',*,*,#766,.F.);
#1087=ORIENTED_EDGE('',*,*,#769,.F.);
#1088=ORIENTED_EDGE('',*,*,#772,.T.);
#1089=ORIENTED_EDGE('',*,*,#773,.T.);
#1090=ORIENTED_EDGE('',*,*,#774,.T.);
#1091=ORIENTED_EDGE('',*,*,#775,.F.);
#1092=ORIENTED_EDGE('',*,*,#776,.T.);
#1093=ORIENTED_EDGE('',*,*,#777,.T.);
#1094=ORIENTED_EDGE('',*,*,#778,.T.);
#1095=ORIENTED_EDGE('',*,*,#773,.F.);
#1096=ORIENTED_EDGE('',*,*,#779,.T.);
#1097=ORIENTED_EDGE('',*,*,#780,.T.);
#1098=ORIENTED_EDGE('',*,*,#781,.T.);
#1099=ORIENTED_EDGE('',*,*,#777,.F.);
#1100=ORIENTED_EDGE('',*,*,#782,.T.);
#1101=ORIENTED_EDGE('',*,*,#775,.T.);
#1102=ORIENTED_EDGE('',*,*,#783,.T.);
#1103=ORIENTED_EDGE('',*,*,#780,.F.);
#1104=ORIENTED_EDGE('',*,*,#782,.F.);
#1105=ORIENTED_EDGE('',*,*,#779,.F.);
#1106=ORIENTED_EDGE('',*,*,#776,.F.);
#1107=ORIENTED_EDGE('',*,*,#772,.F.);
#1108=ORIENTED_EDGE('',*,*,#783,.F.);
#1109=ORIENTED_EDGE('',*,*,#774,.F.);
#1110=ORIENTED_EDGE('',*,*,#778,.F.);
#1111=ORIENTED_EDGE('',*,*,#781,.F.);
#1112=ORIENTED_EDGE('',*,*,#784,.T.);
#1113=ORIENTED_EDGE('',*,*,#785,.T.);
#1114=ORIENTED_EDGE('',*,*,#786,.F.);
#1115=ORIENTED_EDGE('',*,*,#787,.F.);
#1116=ORIENTED_EDGE('',*,*,#788,.T.);
#1117=ORIENTED_EDGE('',*,*,#787,.T.);
#1118=ORIENTED_EDGE('',*,*,#789,.F.);
#1119=ORIENTED_EDGE('',*,*,#790,.F.);
#1120=ORIENTED_EDGE('',*,*,#791,.T.);
#1121=ORIENTED_EDGE('',*,*,#790,.T.);
#1122=ORIENTED_EDGE('',*,*,#792,.F.);
#1123=ORIENTED_EDGE('',*,*,#793,.F.);
#1124=ORIENTED_EDGE('',*,*,#794,.T.);
#1125=ORIENTED_EDGE('',*,*,#793,.T.);
#1126=ORIENTED_EDGE('',*,*,#795,.F.);
#1127=ORIENTED_EDGE('',*,*,#785,.F.);
#1128=ORIENTED_EDGE('',*,*,#795,.T.);
#1129=ORIENTED_EDGE('',*,*,#792,.T.);
#1130=ORIENTED_EDGE('',*,*,#789,.T.);
#1131=ORIENTED_EDGE('',*,*,#786,.T.);
#1132=ORIENTED_EDGE('',*,*,#794,.F.);
#1133=ORIENTED_EDGE('',*,*,#784,.F.);
#1134=ORIENTED_EDGE('',*,*,#788,.F.);
#1135=ORIENTED_EDGE('',*,*,#791,.F.);
#1136=PLANE('',#1280);
#1137=PLANE('',#1281);
#1138=PLANE('',#1285);
#1139=PLANE('',#1286);
#1140=PLANE('',#1287);
#1141=PLANE('',#1291);
#1142=PLANE('',#1295);
#1143=PLANE('',#1296);
#1144=PLANE('',#1297);
#1145=PLANE('',#1301);
#1146=PLANE('',#1302);
#1147=PLANE('',#1303);
#1148=PLANE('',#1307);
#1149=PLANE('',#1308);
#1150=PLANE('',#1309);
#1151=PLANE('',#1313);
#1152=PLANE('',#1314);
#1153=PLANE('',#1315);
#1154=PLANE('',#1319);
#1155=PLANE('',#1320);
#1156=PLANE('',#1321);
#1157=PLANE('',#1325);
#1158=PLANE('',#1326);
#1159=PLANE('',#1327);
#1160=PLANE('',#1328);
#1161=PLANE('',#1329);
#1162=PLANE('',#1330);
#1163=PLANE('',#1331);
#1164=PLANE('',#1332);
#1165=PLANE('',#1333);
#1166=PLANE('',#1334);
#1167=PLANE('',#1335);
#1168=PLANE('',#1339);
#1169=PLANE('',#1340);
#1170=PLANE('',#1341);
#1171=PLANE('',#1342);
#1172=PLANE('',#1343);
#1173=PLANE('',#1347);
#1174=PLANE('',#1348);
#1175=PLANE('',#1349);
#1176=PLANE('',#1350);
#1177=PLANE('',#1351);
#1178=PLANE('',#1355);
#1179=PLANE('',#1356);
#1180=PLANE('',#1357);
#1181=PLANE('',#1358);
#1182=PLANE('',#1359);
#1183=PLANE('',#1363);
#1184=PLANE('',#1364);
#1185=PLANE('',#1365);
#1186=PLANE('',#1366);
#1187=PLANE('',#1367);
#1188=PLANE('',#1371);
#1189=PLANE('',#1372);
#1190=PLANE('',#1373);
#1191=PLANE('',#1374);
#1192=PLANE('',#1375);
#1193=PLANE('',#1376);
#1194=PLANE('',#1377);
#1195=PLANE('',#1378);
#1196=PLANE('',#1379);
#1197=ADVANCED_FACE('',(#74),#1136,.T.);
#1198=ADVANCED_FACE('',(#75),#1137,.T.);
#1199=ADVANCED_FACE('',(#76),#61,.T.);
#1200=ADVANCED_FACE('',(#77),#1138,.T.);
#1201=ADVANCED_FACE('',(#78),#1139,.F.);
#1202=ADVANCED_FACE('',(#79),#1140,.T.);
#1203=ADVANCED_FACE('',(#80,#15),#62,.F.);
#1204=ADVANCED_FACE('',(#81),#1141,.T.);
#1205=ADVANCED_FACE('',(#82),#63,.F.);
#1206=ADVANCED_FACE('',(#83),#1142,.T.);
#1207=ADVANCED_FACE('',(#84),#1143,.T.);
#1208=ADVANCED_FACE('',(#85),#1144,.T.);
#1209=ADVANCED_FACE('',(#86),#64,.F.);
#1210=ADVANCED_FACE('',(#87),#1145,.F.);
#1211=ADVANCED_FACE('',(#88),#1146,.F.);
#1212=ADVANCED_FACE('',(#89),#1147,.F.);
#1213=ADVANCED_FACE('',(#90),#65,.F.);
#1214=ADVANCED_FACE('',(#91),#1148,.F.);
#1215=ADVANCED_FACE('',(#92),#1149,.F.);
#1216=ADVANCED_FACE('',(#93),#1150,.F.);
#1217=ADVANCED_FACE('',(#94),#66,.F.);
#1218=ADVANCED_FACE('',(#95),#1151,.F.);
#1219=ADVANCED_FACE('',(#96),#1152,.F.);
#1220=ADVANCED_FACE('',(#97),#1153,.F.);
#1221=ADVANCED_FACE('',(#98),#67,.F.);
#1222=ADVANCED_FACE('',(#99),#1154,.T.);
#1223=ADVANCED_FACE('',(#100),#1155,.T.);
#1224=ADVANCED_FACE('',(#101),#1156,.T.);
#1225=ADVANCED_FACE('',(#102),#68,.F.);
#1226=ADVANCED_FACE('',(#103),#1157,.T.);
#1227=ADVANCED_FACE('',(#104),#1158,.T.);
#1228=ADVANCED_FACE('',(#105),#1159,.T.);
#1229=ADVANCED_FACE('',(#106),#1160,.F.);
#1230=ADVANCED_FACE('',(#107),#1161,.T.);
#1231=ADVANCED_FACE('',(#108),#1162,.T.);
#1232=ADVANCED_FACE('',(#109),#1163,.T.);
#1233=ADVANCED_FACE('',(#110),#1164,.T.);
#1234=ADVANCED_FACE('',(#111,#16),#1165,.T.);
#1235=ADVANCED_FACE('',(#112),#1166,.T.);
#1236=ADVANCED_FACE('',(#113),#1167,.T.);
#1237=ADVANCED_FACE('',(#114),#69,.T.);
#1238=ADVANCED_FACE('',(#115),#1168,.T.);
#1239=ADVANCED_FACE('',(#116),#1169,.F.);
#1240=ADVANCED_FACE('',(#117),#1170,.T.);
#1241=ADVANCED_FACE('',(#118),#1171,.T.);
#1242=ADVANCED_FACE('',(#119),#1172,.T.);
#1243=ADVANCED_FACE('',(#120),#70,.T.);
#1244=ADVANCED_FACE('',(#121),#1173,.T.);
#1245=ADVANCED_FACE('',(#122),#1174,.F.);
#1246=ADVANCED_FACE('',(#123),#1175,.T.);
#1247=ADVANCED_FACE('',(#124),#1176,.F.);
#1248=ADVANCED_FACE('',(#125),#1177,.F.);
#1249=ADVANCED_FACE('',(#126),#71,.T.);
#1250=ADVANCED_FACE('',(#127),#1178,.F.);
#1251=ADVANCED_FACE('',(#128),#1179,.T.);
#1252=ADVANCED_FACE('',(#129),#1180,.F.);
#1253=ADVANCED_FACE('',(#130),#1181,.F.);
#1254=ADVANCED_FACE('',(#131),#1182,.F.);
#1255=ADVANCED_FACE('',(#132),#72,.T.);
#1256=ADVANCED_FACE('',(#133),#1183,.F.);
#1257=ADVANCED_FACE('',(#134),#1184,.T.);
#1258=ADVANCED_FACE('',(#135),#1185,.F.);
#1259=ADVANCED_FACE('',(#136),#1186,.F.);
#1260=ADVANCED_FACE('',(#137),#1187,.F.);
#1261=ADVANCED_FACE('',(#138),#73,.T.);
#1262=ADVANCED_FACE('',(#139),#1188,.F.);
#1263=ADVANCED_FACE('',(#140),#1189,.T.);
#1264=ADVANCED_FACE('',(#141),#1190,.F.);
#1265=ADVANCED_FACE('',(#142),#1191,.T.);
#1266=ADVANCED_FACE('',(#143),#1192,.T.);
#1267=ADVANCED_FACE('',(#144),#1193,.T.);
#1268=ADVANCED_FACE('',(#145),#1194,.T.);
#1269=ADVANCED_FACE('',(#146),#1195,.T.);
#1270=ADVANCED_FACE('',(#147),#1196,.F.);
#1271=CLOSED_SHELL('',(#1197,#1198,#1199,#1200,#1201,#1202));
#1272=CLOSED_SHELL('',(#1203,#1204,#1205,#1206,#1207,#1208,#1209,#1210,
#1211,#1212,#1213,#1214,#1215,#1216,#1217,#1218,#1219,#1220,#1221,#1222,
#1223,#1224,#1225,#1226,#1227,#1228,#1229,#1230,#1231,#1232,#1233,#1234));
#1273=CLOSED_SHELL('',(#1235,#1236,#1237,#1238,#1239,#1240));
#1274=CLOSED_SHELL('',(#1241,#1242,#1243,#1244,#1245,#1246));
#1275=CLOSED_SHELL('',(#1247,#1248,#1249,#1250,#1251,#1252));
#1276=CLOSED_SHELL('',(#1253,#1254,#1255,#1256,#1257,#1258));
#1277=CLOSED_SHELL('',(#1259,#1260,#1261,#1262,#1263,#1264));
#1278=CLOSED_SHELL('',(#1265,#1266,#1267,#1268,#1269,#1270));
#1279=AXIS2_PLACEMENT_3D('placement',#1726,#1380,#1381);
#1280=AXIS2_PLACEMENT_3D('',#1727,#1382,#1383);
#1281=AXIS2_PLACEMENT_3D('',#1736,#1388,#1389);
#1282=AXIS2_PLACEMENT_3D('',#1742,#1393,#1394);
#1283=AXIS2_PLACEMENT_3D('',#1744,#1395,#1396);
#1284=AXIS2_PLACEMENT_3D('',#1746,#1397,#1398);
#1285=AXIS2_PLACEMENT_3D('',#1748,#1400,#1401);
#1286=AXIS2_PLACEMENT_3D('',#1751,#1404,#1405);
#1287=AXIS2_PLACEMENT_3D('',#1752,#1406,#1407);
#1288=AXIS2_PLACEMENT_3D('',#1753,#1408,#1409);
#1289=AXIS2_PLACEMENT_3D('',#1755,#1410,#1411);
#1290=AXIS2_PLACEMENT_3D('',#1757,#1412,#1413);
#1291=AXIS2_PLACEMENT_3D('',#1758,#1414,#1415);
#1292=AXIS2_PLACEMENT_3D('',#1759,#1416,#1417);
#1293=AXIS2_PLACEMENT_3D('',#1762,#1418,#1419);
#1294=AXIS2_PLACEMENT_3D('',#1766,#1421,#1422);
#1295=AXIS2_PLACEMENT_3D('',#1768,#1424,#1425);
#1296=AXIS2_PLACEMENT_3D('',#1774,#1429,#1430);
#1297=AXIS2_PLACEMENT_3D('',#1780,#1434,#1435);
#1298=AXIS2_PLACEMENT_3D('',#1782,#1437,#1438);
#1299=AXIS2_PLACEMENT_3D('',#1785,#1439,#1440);
#1300=AXIS2_PLACEMENT_3D('',#1789,#1442,#1443);
#1301=AXIS2_PLACEMENT_3D('',#1791,#1445,#1446);
#1302=AXIS2_PLACEMENT_3D('',#1797,#1450,#1451);
#1303=AXIS2_PLACEMENT_3D('',#1803,#1455,#1456);
#1304=AXIS2_PLACEMENT_3D('',#1805,#1458,#1459);
#1305=AXIS2_PLACEMENT_3D('',#1808,#1460,#1461);
#1306=AXIS2_PLACEMENT_3D('',#1812,#1463,#1464);
#1307=AXIS2_PLACEMENT_3D('',#1814,#1466,#1467);
#1308=AXIS2_PLACEMENT_3D('',#1820,#1471,#1472);
#1309=AXIS2_PLACEMENT_3D('',#1826,#1476,#1477);
#1310=AXIS2_PLACEMENT_3D('',#1828,#1479,#1480);
#1311=AXIS2_PLACEMENT_3D('',#1831,#1481,#1482);
#1312=AXIS2_PLACEMENT_3D('',#1835,#1484,#1485);
#1313=AXIS2_PLACEMENT_3D('',#1837,#1487,#1488);
#1314=AXIS2_PLACEMENT_3D('',#1843,#1492,#1493);
#1315=AXIS2_PLACEMENT_3D('',#1849,#1497,#1498);
#1316=AXIS2_PLACEMENT_3D('',#1851,#1500,#1501);
#1317=AXIS2_PLACEMENT_3D('',#1854,#1502,#1503);
#1318=AXIS2_PLACEMENT_3D('',#1858,#1505,#1506);
#1319=AXIS2_PLACEMENT_3D('',#1860,#1508,#1509);
#1320=AXIS2_PLACEMENT_3D('',#1866,#1513,#1514);
#1321=AXIS2_PLACEMENT_3D('',#1872,#1518,#1519);
#1322=AXIS2_PLACEMENT_3D('',#1874,#1521,#1522);
#1323=AXIS2_PLACEMENT_3D('',#1877,#1523,#1524);
#1324=AXIS2_PLACEMENT_3D('',#1881,#1526,#1527);
#1325=AXIS2_PLACEMENT_3D('',#1883,#1529,#1530);
#1326=AXIS2_PLACEMENT_3D('',#1889,#1534,#1535);
#1327=AXIS2_PLACEMENT_3D('',#1895,#1539,#1540);
#1328=AXIS2_PLACEMENT_3D('',#1897,#1542,#1543);
#1329=AXIS2_PLACEMENT_3D('',#1912,#1554,#1555);
#1330=AXIS2_PLACEMENT_3D('',#1918,#1559,#1560);
#1331=AXIS2_PLACEMENT_3D('',#1922,#1563,#1564);
#1332=AXIS2_PLACEMENT_3D('',#1926,#1567,#1568);
#1333=AXIS2_PLACEMENT_3D('',#1928,#1570,#1571);
#1334=AXIS2_PLACEMENT_3D('',#1929,#1572,#1573);
#1335=AXIS2_PLACEMENT_3D('',#1938,#1578,#1579);
#1336=AXIS2_PLACEMENT_3D('',#1944,#1583,#1584);
#1337=AXIS2_PLACEMENT_3D('',#1946,#1585,#1586);
#1338=AXIS2_PLACEMENT_3D('',#1948,#1587,#1588);
#1339=AXIS2_PLACEMENT_3D('',#1950,#1590,#1591);
#1340=AXIS2_PLACEMENT_3D('',#1953,#1594,#1595);
#1341=AXIS2_PLACEMENT_3D('',#1954,#1596,#1597);
#1342=AXIS2_PLACEMENT_3D('',#1955,#1598,#1599);
#1343=AXIS2_PLACEMENT_3D('',#1964,#1604,#1605);
#1344=AXIS2_PLACEMENT_3D('',#1970,#1609,#1610);
#1345=AXIS2_PLACEMENT_3D('',#1972,#1611,#1612);
#1346=AXIS2_PLACEMENT_3D('',#1974,#1613,#1614);
#1347=AXIS2_PLACEMENT_3D('',#1976,#1616,#1617);
#1348=AXIS2_PLACEMENT_3D('',#1979,#1620,#1621);
#1349=AXIS2_PLACEMENT_3D('',#1980,#1622,#1623);
#1350=AXIS2_PLACEMENT_3D('',#1981,#1624,#1625);
#1351=AXIS2_PLACEMENT_3D('',#1990,#1630,#1631);
#1352=AXIS2_PLACEMENT_3D('',#1996,#1635,#1636);
#1353=AXIS2_PLACEMENT_3D('',#1998,#1637,#1638);
#1354=AXIS2_PLACEMENT_3D('',#2001,#1640,#1641);
#1355=AXIS2_PLACEMENT_3D('',#2002,#1642,#1643);
#1356=AXIS2_PLACEMENT_3D('',#2005,#1646,#1647);
#1357=AXIS2_PLACEMENT_3D('',#2006,#1648,#1649);
#1358=AXIS2_PLACEMENT_3D('',#2007,#1650,#1651);
#1359=AXIS2_PLACEMENT_3D('',#2016,#1656,#1657);
#1360=AXIS2_PLACEMENT_3D('',#2022,#1661,#1662);
#1361=AXIS2_PLACEMENT_3D('',#2024,#1663,#1664);
#1362=AXIS2_PLACEMENT_3D('',#2027,#1666,#1667);
#1363=AXIS2_PLACEMENT_3D('',#2028,#1668,#1669);
#1364=AXIS2_PLACEMENT_3D('',#2031,#1672,#1673);
#1365=AXIS2_PLACEMENT_3D('',#2032,#1674,#1675);
#1366=AXIS2_PLACEMENT_3D('',#2033,#1676,#1677);
#1367=AXIS2_PLACEMENT_3D('',#2042,#1682,#1683);
#1368=AXIS2_PLACEMENT_3D('',#2048,#1687,#1688);
#1369=AXIS2_PLACEMENT_3D('',#2050,#1689,#1690);
#1370=AXIS2_PLACEMENT_3D('',#2053,#1692,#1693);
#1371=AXIS2_PLACEMENT_3D('',#2054,#1694,#1695);
#1372=AXIS2_PLACEMENT_3D('',#2057,#1698,#1699);
#1373=AXIS2_PLACEMENT_3D('',#2058,#1700,#1701);
#1374=AXIS2_PLACEMENT_3D('',#2059,#1702,#1703);
#1375=AXIS2_PLACEMENT_3D('',#2068,#1708,#1709);
#1376=AXIS2_PLACEMENT_3D('',#2074,#1713,#1714);
#1377=AXIS2_PLACEMENT_3D('',#2080,#1718,#1719);
#1378=AXIS2_PLACEMENT_3D('',#2083,#1722,#1723);
#1379=AXIS2_PLACEMENT_3D('',#2084,#1724,#1725);
#1380=DIRECTION('axis',(0.,0.,1.));
#1381=DIRECTION('refdir',(1.,0.,0.));
#1382=DIRECTION('center_axis',(-1.,0.,0.));
#1383=DIRECTION('ref_axis',(0.,-1.,0.));
#1384=DIRECTION('',(0.,1.,0.));
#1385=DIRECTION('',(0.,0.,1.));
#1386=DIRECTION('',(0.,-1.,0.));
#1387=DIRECTION('',(0.,0.,1.));
#1388=DIRECTION('center_axis',(0.,1.,0.));
#1389=DIRECTION('ref_axis',(-1.,0.,0.));
#1390=DIRECTION('',(1.,0.,0.));
#1391=DIRECTION('',(-1.,0.,0.));
#1392=DIRECTION('',(0.,0.,1.));
#1393=DIRECTION('center_axis',(0.,0.,1.));
#1394=DIRECTION('ref_axis',(0.,1.,0.));
#1395=DIRECTION('center_axis',(0.,0.,-1.));
#1396=DIRECTION('ref_axis',(0.,1.,0.));
#1397=DIRECTION('center_axis',(0.,0.,1.));
#1398=DIRECTION('ref_axis',(0.,1.,0.));
#1399=DIRECTION('',(0.,0.,1.));
#1400=DIRECTION('center_axis',(0.,-1.,0.));
#1401=DIRECTION('ref_axis',(1.,0.,0.));
#1402=DIRECTION('',(-1.,0.,0.));
#1403=DIRECTION('',(1.,0.,0.));
#1404=DIRECTION('center_axis',(0.,0.,1.));
#1405=DIRECTION('ref_axis',(1.,0.,0.));
#1406=DIRECTION('center_axis',(0.,0.,1.));
#1407=DIRECTION('ref_axis',(1.,0.,0.));
#1408=DIRECTION('center_axis',(0.,0.,-1.));
#1409=DIRECTION('ref_axis',(-1.,0.,0.));
#1410=DIRECTION('center_axis',(0.,0.,-1.));
#1411=DIRECTION('ref_axis',(-1.,0.,0.));
#1412=DIRECTION('center_axis',(0.,0.,-1.));
#1413=DIRECTION('ref_axis',(-1.,0.,0.));
#1414=DIRECTION('center_axis',(0.,0.,1.));
#1415=DIRECTION('ref_axis',(1.,0.,0.));
#1416=DIRECTION('center_axis',(0.,0.,-1.));
#1417=DIRECTION('ref_axis',(0.,1.,0.));
#1418=DIRECTION('center_axis',(0.,0.,1.));
#1419=DIRECTION('ref_axis',(0.,1.,0.));
#1420=DIRECTION('',(0.,0.,1.));
#1421=DIRECTION('center_axis',(0.,0.,-1.));
#1422=DIRECTION('ref_axis',(0.,1.,0.));
#1423=DIRECTION('',(0.,0.,1.));
#1424=DIRECTION('center_axis',(0.,1.,0.));
#1425=DIRECTION('ref_axis',(-1.,0.,0.));
#1426=DIRECTION('',(1.,0.,0.));
#1427=DIRECTION('',(-1.,0.,0.));
#1428=DIRECTION('',(0.,0.,1.));
#1429=DIRECTION('center_axis',(0.,-1.,0.));
#1430=DIRECTION('ref_axis',(1.,0.,0.));
#1431=DIRECTION('',(-1.,0.,0.));
#1432=DIRECTION('',(0.,0.,-1.));
#1433=DIRECTION('',(1.,0.,0.));
#1434=DIRECTION('center_axis',(0.,0.,-1.));
#1435=DIRECTION('ref_axis',(-1.,0.,0.));
#1436=DIRECTION('',(0.,1.,0.));
#1437=DIRECTION('center_axis',(0.,0.,1.));
#1438=DIRECTION('ref_axis',(0.,1.,0.));
#1439=DIRECTION('center_axis',(0.,0.,1.));
#1440=DIRECTION('ref_axis',(0.,1.,0.));
#1441=DIRECTION('',(0.,0.,1.));
#1442=DIRECTION('center_axis',(0.,0.,1.));
#1443=DIRECTION('ref_axis',(0.,1.,0.));
#1444=DIRECTION('',(0.,0.,1.));
#1445=DIRECTION('center_axis',(0.,1.,0.));
#1446=DIRECTION('ref_axis',(-1.,0.,0.));
#1447=DIRECTION('',(-1.,0.,0.));
#1448=DIRECTION('',(-1.,0.,0.));
#1449=DIRECTION('',(0.,0.,1.));
#1450=DIRECTION('center_axis',(0.,-1.,0.));
#1451=DIRECTION('ref_axis',(1.,0.,0.));
#1452=DIRECTION('',(1.,0.,0.));
#1453=DIRECTION('',(0.,0.,-1.));
#1454=DIRECTION('',(1.,0.,0.));
#1455=DIRECTION('center_axis',(0.,0.,1.));
#1456=DIRECTION('ref_axis',(1.,0.,0.));
#1457=DIRECTION('',(1.48029736616688E-16,-1.,0.));
#1458=DIRECTION('center_axis',(0.,0.,1.));
#1459=DIRECTION('ref_axis',(0.,1.,0.));
#1460=DIRECTION('center_axis',(0.,0.,1.));
#1461=DIRECTION('ref_axis',(0.,1.,0.));
#1462=DIRECTION('',(0.,0.,1.));
#1463=DIRECTION('center_axis',(0.,0.,1.));
#1464=DIRECTION('ref_axis',(0.,1.,0.));
#1465=DIRECTION('',(0.,0.,1.));
#1466=DIRECTION('center_axis',(0.,1.,0.));
#1467=DIRECTION('ref_axis',(-1.,0.,0.));
#1468=DIRECTION('',(-1.,0.,0.));
#1469=DIRECTION('',(-1.,0.,0.));
#1470=DIRECTION('',(0.,0.,1.));
#1471=DIRECTION('center_axis',(0.,-1.,0.));
#1472=DIRECTION('ref_axis',(1.,0.,0.));
#1473=DIRECTION('',(1.,0.,0.));
#1474=DIRECTION('',(0.,0.,-1.));
#1475=DIRECTION('',(1.,0.,0.));
#1476=DIRECTION('center_axis',(0.,0.,1.));
#1477=DIRECTION('ref_axis',(1.,0.,0.));
#1478=DIRECTION('',(1.48029736616688E-16,-1.,0.));
#1479=DIRECTION('center_axis',(0.,0.,1.));
#1480=DIRECTION('ref_axis',(0.,1.,0.));
#1481=DIRECTION('center_axis',(0.,0.,1.));
#1482=DIRECTION('ref_axis',(0.,1.,0.));
#1483=DIRECTION('',(0.,0.,1.));
#1484=DIRECTION('center_axis',(0.,0.,1.));
#1485=DIRECTION('ref_axis',(0.,1.,0.));
#1486=DIRECTION('',(0.,0.,1.));
#1487=DIRECTION('center_axis',(0.,1.,0.));
#1488=DIRECTION('ref_axis',(-1.,0.,0.));
#1489=DIRECTION('',(-1.,0.,0.));
#1490=DIRECTION('',(-1.,0.,0.));
#1491=DIRECTION('',(0.,0.,1.));
#1492=DIRECTION('center_axis',(0.,-1.,0.));
#1493=DIRECTION('ref_axis',(1.,0.,0.));
#1494=DIRECTION('',(1.,0.,0.));
#1495=DIRECTION('',(0.,0.,-1.));
#1496=DIRECTION('',(1.,0.,0.));
#1497=DIRECTION('center_axis',(0.,0.,1.));
#1498=DIRECTION('ref_axis',(1.,0.,0.));
#1499=DIRECTION('',(1.48029736616688E-16,-1.,0.));
#1500=DIRECTION('center_axis',(0.,0.,-1.));
#1501=DIRECTION('ref_axis',(0.,1.,0.));
#1502=DIRECTION('center_axis',(0.,0.,1.));
#1503=DIRECTION('ref_axis',(0.,1.,0.));
#1504=DIRECTION('',(0.,0.,1.));
#1505=DIRECTION('center_axis',(0.,0.,-1.));
#1506=DIRECTION('ref_axis',(0.,1.,0.));
#1507=DIRECTION('',(0.,0.,1.));
#1508=DIRECTION('center_axis',(0.,1.,0.));
#1509=DIRECTION('ref_axis',(-1.,0.,0.));
#1510=DIRECTION('',(1.,0.,0.));
#1511=DIRECTION('',(-1.,0.,0.));
#1512=DIRECTION('',(0.,0.,1.));
#1513=DIRECTION('center_axis',(0.,-1.,0.));
#1514=DIRECTION('ref_axis',(1.,0.,0.));
#1515=DIRECTION('',(-1.,0.,0.));
#1516=DIRECTION('',(0.,0.,-1.));
#1517=DIRECTION('',(1.,0.,0.));
#1518=DIRECTION('center_axis',(0.,0.,-1.));
#1519=DIRECTION('ref_axis',(-1.,0.,0.));
#1520=DIRECTION('',(0.,1.,0.));
#1521=DIRECTION('center_axis',(0.,0.,-1.));
#1522=DIRECTION('ref_axis',(0.,1.,0.));
#1523=DIRECTION('center_axis',(0.,0.,1.));
#1524=DIRECTION('ref_axis',(0.,1.,0.));
#1525=DIRECTION('',(0.,0.,1.));
#1526=DIRECTION('center_axis',(0.,0.,-1.));
#1527=DIRECTION('ref_axis',(0.,1.,0.));
#1528=DIRECTION('',(0.,0.,1.));
#1529=DIRECTION('center_axis',(0.,1.,0.));
#1530=DIRECTION('ref_axis',(-1.,0.,0.));
#1531=DIRECTION('',(1.,0.,0.));
#1532=DIRECTION('',(-1.,0.,0.));
#1533=DIRECTION('',(0.,0.,1.));
#1534=DIRECTION('center_axis',(0.,-1.,0.));
#1535=DIRECTION('ref_axis',(1.,0.,0.));
#1536=DIRECTION('',(-1.,0.,0.));
#1537=DIRECTION('',(0.,0.,-1.));
#1538=DIRECTION('',(1.,0.,0.));
#1539=DIRECTION('center_axis',(0.,0.,-1.));
#1540=DIRECTION('ref_axis',(-1.,0.,0.));
#1541=DIRECTION('',(0.,1.,0.));
#1542=DIRECTION('center_axis',(0.,0.,1.));
#1543=DIRECTION('ref_axis',(1.,0.,0.));
#1544=DIRECTION('',(0.,-1.,0.));
#1545=DIRECTION('',(0.,-1.,0.));
#1546=DIRECTION('',(-1.,0.,0.));
#1547=DIRECTION('',(-1.48029736616688E-16,1.,0.));
#1548=DIRECTION('',(-1.48029736616688E-16,1.,0.));
#1549=DIRECTION('',(-1.48029736616688E-16,1.,0.));
#1550=DIRECTION('',(-1.48029736616688E-16,1.,0.));
#1551=DIRECTION('',(1.,0.,0.));
#1552=DIRECTION('',(0.,-1.,0.));
#1553=DIRECTION('',(0.,-1.,0.));
#1554=DIRECTION('center_axis',(1.,0.,0.));
#1555=DIRECTION('ref_axis',(0.,1.,0.));
#1556=DIRECTION('',(0.,0.,1.));
#1557=DIRECTION('',(0.,1.,0.));
#1558=DIRECTION('',(0.,0.,1.));
#1559=DIRECTION('center_axis',(0.,-1.,0.));
#1560=DIRECTION('ref_axis',(1.,0.,0.));
#1561=DIRECTION('',(1.,0.,0.));
#1562=DIRECTION('',(0.,0.,1.));
#1563=DIRECTION('center_axis',(-1.,-1.48029736616688E-16,0.));
#1564=DIRECTION('ref_axis',(1.11022302462516E-16,-1.,0.));
#1565=DIRECTION('',(1.48029736616688E-16,-1.,0.));
#1566=DIRECTION('',(0.,0.,1.));
#1567=DIRECTION('center_axis',(0.,1.,0.));
#1568=DIRECTION('ref_axis',(-1.,0.,0.));
#1569=DIRECTION('',(-1.,0.,0.));
#1570=DIRECTION('center_axis',(0.,0.,1.));
#1571=DIRECTION('ref_axis',(1.,0.,0.));
#1572=DIRECTION('center_axis',(-1.,0.,0.));
#1573=DIRECTION('ref_axis',(0.,-1.,0.));
#1574=DIRECTION('',(0.,1.,0.));
#1575=DIRECTION('',(0.,0.,1.));
#1576=DIRECTION('',(0.,-1.,0.));
#1577=DIRECTION('',(0.,0.,1.));
#1578=DIRECTION('center_axis',(0.,1.,0.));
#1579=DIRECTION('ref_axis',(-1.,0.,0.));
#1580=DIRECTION('',(1.,0.,0.));
#1581=DIRECTION('',(-1.,0.,0.));
#1582=DIRECTION('',(0.,0.,1.));
#1583=DIRECTION('center_axis',(0.,0.,1.));
#1584=DIRECTION('ref_axis',(0.,1.,0.));
#1585=DIRECTION('center_axis',(0.,0.,-1.));
#1586=DIRECTION('ref_axis',(0.,1.,0.));
#1587=DIRECTION('center_axis',(0.,0.,1.));
#1588=DIRECTION('ref_axis',(0.,1.,0.));
#1589=DIRECTION('',(0.,0.,1.));
#1590=DIRECTION('center_axis',(0.,-1.,0.));
#1591=DIRECTION('ref_axis',(1.,0.,0.));
#1592=DIRECTION('',(-1.,0.,0.));
#1593=DIRECTION('',(1.,0.,0.));
#1594=DIRECTION('center_axis',(0.,0.,1.));
#1595=DIRECTION('ref_axis',(1.,0.,0.));
#1596=DIRECTION('center_axis',(0.,0.,1.));
#1597=DIRECTION('ref_axis',(1.,0.,0.));
#1598=DIRECTION('center_axis',(-1.,0.,0.));
#1599=DIRECTION('ref_axis',(0.,-1.,0.));
#1600=DIRECTION('',(0.,1.,0.));
#1601=DIRECTION('',(0.,0.,1.));
#1602=DIRECTION('',(0.,-1.,0.));
#1603=DIRECTION('',(0.,0.,1.));
#1604=DIRECTION('center_axis',(0.,1.,0.));
#1605=DIRECTION('ref_axis',(-1.,0.,0.));
#1606=DIRECTION('',(1.,0.,0.));
#1607=DIRECTION('',(-1.,0.,0.));
#1608=DIRECTION('',(0.,0.,1.));
#1609=DIRECTION('center_axis',(0.,0.,1.));
#1610=DIRECTION('ref_axis',(0.,1.,0.));
#1611=DIRECTION('center_axis',(0.,0.,-1.));
#1612=DIRECTION('ref_axis',(0.,1.,0.));
#1613=DIRECTION('center_axis',(0.,0.,1.));
#1614=DIRECTION('ref_axis',(0.,1.,0.));
#1615=DIRECTION('',(0.,0.,1.));
#1616=DIRECTION('center_axis',(0.,-1.,0.));
#1617=DIRECTION('ref_axis',(1.,0.,0.));
#1618=DIRECTION('',(-1.,0.,0.));
#1619=DIRECTION('',(1.,0.,0.));
#1620=DIRECTION('center_axis',(0.,0.,1.));
#1621=DIRECTION('ref_axis',(1.,0.,0.));
#1622=DIRECTION('center_axis',(0.,0.,1.));
#1623=DIRECTION('ref_axis',(1.,0.,0.));
#1624=DIRECTION('center_axis',(-1.,0.,0.));
#1625=DIRECTION('ref_axis',(0.,-1.,0.));
#1626=DIRECTION('',(0.,1.,0.));
#1627=DIRECTION('',(0.,0.,1.));
#1628=DIRECTION('',(0.,-1.,0.));
#1629=DIRECTION('',(0.,0.,1.));
#1630=DIRECTION('center_axis',(0.,-1.,0.));
#1631=DIRECTION('ref_axis',(1.,0.,0.));
#1632=DIRECTION('',(-1.,0.,0.));
#1633=DIRECTION('',(0.,0.,1.));
#1634=DIRECTION('',(1.,0.,0.));
#1635=DIRECTION('center_axis',(0.,0.,-1.));
#1636=DIRECTION('ref_axis',(0.,1.,0.));
#1637=DIRECTION('center_axis',(0.,0.,1.));
#1638=DIRECTION('ref_axis',(0.,1.,0.));
#1639=DIRECTION('',(0.,0.,1.));
#1640=DIRECTION('center_axis',(0.,0.,-1.));
#1641=DIRECTION('ref_axis',(0.,1.,0.));
#1642=DIRECTION('center_axis',(0.,1.,0.));
#1643=DIRECTION('ref_axis',(-1.,0.,0.));
#1644=DIRECTION('',(1.,0.,0.));
#1645=DIRECTION('',(-1.,0.,0.));
#1646=DIRECTION('center_axis',(0.,0.,-1.));
#1647=DIRECTION('ref_axis',(-1.,0.,0.));
#1648=DIRECTION('center_axis',(0.,0.,-1.));
#1649=DIRECTION('ref_axis',(-1.,0.,0.));
#1650=DIRECTION('center_axis',(-1.,0.,0.));
#1651=DIRECTION('ref_axis',(0.,-1.,0.));
#1652=DIRECTION('',(0.,1.,0.));
#1653=DIRECTION('',(0.,0.,1.));
#1654=DIRECTION('',(0.,-1.,0.));
#1655=DIRECTION('',(0.,0.,1.));
#1656=DIRECTION('center_axis',(0.,-1.,0.));
#1657=DIRECTION('ref_axis',(1.,0.,0.));
#1658=DIRECTION('',(-1.,0.,0.));
#1659=DIRECTION('',(0.,0.,1.));
#1660=DIRECTION('',(1.,0.,0.));
#1661=DIRECTION('center_axis',(0.,0.,-1.));
#1662=DIRECTION('ref_axis',(0.,1.,0.));
#1663=DIRECTION('center_axis',(0.,0.,1.));
#1664=DIRECTION('ref_axis',(0.,1.,0.));
#1665=DIRECTION('',(0.,0.,1.));
#1666=DIRECTION('center_axis',(0.,0.,-1.));
#1667=DIRECTION('ref_axis',(0.,1.,0.));
#1668=DIRECTION('center_axis',(0.,1.,0.));
#1669=DIRECTION('ref_axis',(-1.,0.,0.));
#1670=DIRECTION('',(1.,0.,0.));
#1671=DIRECTION('',(-1.,0.,0.));
#1672=DIRECTION('center_axis',(0.,0.,-1.));
#1673=DIRECTION('ref_axis',(-1.,0.,0.));
#1674=DIRECTION('center_axis',(0.,0.,-1.));
#1675=DIRECTION('ref_axis',(-1.,0.,0.));
#1676=DIRECTION('center_axis',(-1.,0.,0.));
#1677=DIRECTION('ref_axis',(0.,-1.,0.));
#1678=DIRECTION('',(0.,1.,0.));
#1679=DIRECTION('',(0.,0.,1.));
#1680=DIRECTION('',(0.,-1.,0.));
#1681=DIRECTION('',(0.,0.,1.));
#1682=DIRECTION('center_axis',(0.,-1.,0.));
#1683=DIRECTION('ref_axis',(1.,0.,0.));
#1684=DIRECTION('',(-1.,0.,0.));
#1685=DIRECTION('',(0.,0.,1.));
#1686=DIRECTION('',(1.,0.,0.));
#1687=DIRECTION('center_axis',(0.,0.,-1.));
#1688=DIRECTION('ref_axis',(0.,1.,0.));
#1689=DIRECTION('center_axis',(0.,0.,1.));
#1690=DIRECTION('ref_axis',(0.,1.,0.));
#1691=DIRECTION('',(0.,0.,1.));
#1692=DIRECTION('center_axis',(0.,0.,-1.));
#1693=DIRECTION('ref_axis',(0.,1.,0.));
#1694=DIRECTION('center_axis',(0.,1.,0.));
#1695=DIRECTION('ref_axis',(-1.,0.,0.));
#1696=DIRECTION('',(1.,0.,0.));
#1697=DIRECTION('',(-1.,0.,0.));
#1698=DIRECTION('center_axis',(0.,0.,-1.));
#1699=DIRECTION('ref_axis',(-1.,0.,0.));
#1700=DIRECTION('center_axis',(0.,0.,-1.));
#1701=DIRECTION('ref_axis',(-1.,0.,0.));
#1702=DIRECTION('center_axis',(0.,1.,0.));
#1703=DIRECTION('ref_axis',(-1.,0.,0.));
#1704=DIRECTION('',(-1.,0.,0.));
#1705=DIRECTION('',(0.,0.,1.));
#1706=DIRECTION('',(-1.,0.,0.));
#1707=DIRECTION('',(0.,0.,1.));
#1708=DIRECTION('center_axis',(1.,0.,0.));
#1709=DIRECTION('ref_axis',(0.,1.,0.));
#1710=DIRECTION('',(0.,1.,0.));
#1711=DIRECTION('',(0.,1.,0.));
#1712=DIRECTION('',(0.,0.,1.));
#1713=DIRECTION('center_axis',(0.,-1.,0.));
#1714=DIRECTION('ref_axis',(1.,0.,0.));
#1715=DIRECTION('',(1.,0.,0.));
#1716=DIRECTION('',(1.,0.,0.));
#1717=DIRECTION('',(0.,0.,1.));
#1718=DIRECTION('center_axis',(-1.,0.,0.));
#1719=DIRECTION('ref_axis',(0.,-1.,0.));
#1720=DIRECTION('',(0.,-1.,0.));
#1721=DIRECTION('',(0.,-1.,0.));
#1722=DIRECTION('center_axis',(0.,0.,1.));
#1723=DIRECTION('ref_axis',(1.,0.,0.));
#1724=DIRECTION('center_axis',(0.,0.,1.));
#1725=DIRECTION('ref_axis',(1.,0.,0.));
#1726=CARTESIAN_POINT('',(0.,0.,0.));
#1727=CARTESIAN_POINT('Origin',(-0.75,0.0999999999999999,0.));
#1728=CARTESIAN_POINT('',(-0.75,-0.1,0.));
#1729=CARTESIAN_POINT('',(-0.75,0.0999999999999999,0.));
#1730=CARTESIAN_POINT('',(-0.75,-0.1,0.));
#1731=CARTESIAN_POINT('',(-0.75,-0.1,0.12));
#1732=CARTESIAN_POINT('',(-0.75,-0.1,0.));
#1733=CARTESIAN_POINT('',(-0.75,0.0999999999999999,0.12));
#1734=CARTESIAN_POINT('',(-0.75,-0.1,0.12));
#1735=CARTESIAN_POINT('',(-0.75,0.0999999999999999,0.));
#1736=CARTESIAN_POINT('Origin',(-0.65,0.0999999999999999,0.));
#1737=CARTESIAN_POINT('',(-0.65,0.0999999999999999,0.));
#1738=CARTESIAN_POINT('',(-0.75,0.0999999999999999,0.));
#1739=CARTESIAN_POINT('',(-0.65,0.0999999999999999,0.12));
#1740=CARTESIAN_POINT('',(-0.75,0.0999999999999999,0.12));
#1741=CARTESIAN_POINT('',(-0.65,0.0999999999999999,0.));
#1742=CARTESIAN_POINT('Origin',(-0.65,-1.11022302462516E-16,0.));
#1743=CARTESIAN_POINT('',(-0.65,-0.1,0.));
#1744=CARTESIAN_POINT('Origin',(-0.65,-1.11022302462516E-16,0.));
#1745=CARTESIAN_POINT('',(-0.65,-0.1,0.12));
#1746=CARTESIAN_POINT('Origin',(-0.65,-1.11022302462516E-16,0.12));
#1747=CARTESIAN_POINT('',(-0.65,-0.1,0.));
#1748=CARTESIAN_POINT('Origin',(-0.75,-0.1,0.));
#1749=CARTESIAN_POINT('',(-0.65,-0.1,0.));
#1750=CARTESIAN_POINT('',(-0.65,-0.1,0.12));
#1751=CARTESIAN_POINT('Origin',(-0.673598830385517,-1.09663439780725E-16,
0.));
#1752=CARTESIAN_POINT('Origin',(-0.673598830385517,-1.09663439780725E-16,
0.12));
#1753=CARTESIAN_POINT('Origin',(-0.35,0.35,0.5));
#1754=CARTESIAN_POINT('',(-0.1,0.35,0.45));
#1755=CARTESIAN_POINT('Origin',(-0.35,0.35,0.45));
#1756=CARTESIAN_POINT('',(-0.1,0.35,0.5));
#1757=CARTESIAN_POINT('Origin',(-0.35,0.35,0.5));
#1758=CARTESIAN_POINT('Origin',(-0.35,0.35,0.45));
#1759=CARTESIAN_POINT('Origin',(0.65,-1.11022302462516E-16,0.));
#1760=CARTESIAN_POINT('',(0.65,0.0999999999999999,0.05));
#1761=CARTESIAN_POINT('',(0.65,-0.1,0.05));
#1762=CARTESIAN_POINT('Origin',(0.65,-1.11022302462516E-16,0.05));
#1763=CARTESIAN_POINT('',(0.65,0.0999999999999999,0.12));
#1764=CARTESIAN_POINT('',(0.65,0.0999999999999999,0.));
#1765=CARTESIAN_POINT('',(0.65,-0.1,0.12));
#1766=CARTESIAN_POINT('Origin',(0.65,-1.11022302462516E-16,0.12));
#1767=CARTESIAN_POINT('',(0.65,-0.1,0.));
#1768=CARTESIAN_POINT('Origin',(0.75,-0.1,0.));
#1769=CARTESIAN_POINT('',(0.75,-0.1,0.05));
#1770=CARTESIAN_POINT('',(0.375,-0.1,0.05));
#1771=CARTESIAN_POINT('',(0.75,-0.1,0.12));
#1772=CARTESIAN_POINT('',(0.65,-0.1,0.12));
#1773=CARTESIAN_POINT('',(0.75,-0.1,0.025));
#1774=CARTESIAN_POINT('Origin',(0.65,0.0999999999999999,0.));
#1775=CARTESIAN_POINT('',(0.75,0.0999999999999999,0.05));
#1776=CARTESIAN_POINT('',(0.325,0.0999999999999999,0.05));
#1777=CARTESIAN_POINT('',(0.75,0.0999999999999999,0.12));
#1778=CARTESIAN_POINT('',(0.75,0.0999999999999999,0.025));
#1779=CARTESIAN_POINT('',(0.75,0.0999999999999999,0.12));
#1780=CARTESIAN_POINT('Origin',(0.673598830385517,-1.11022302462516E-16,
0.12));
#1781=CARTESIAN_POINT('',(0.75,-0.375,0.12));
#1782=CARTESIAN_POINT('Origin',(-0.65,-0.5,0.));
#1783=CARTESIAN_POINT('',(-0.65,-0.6,0.05));
#1784=CARTESIAN_POINT('',(-0.65,-0.4,0.05));
#1785=CARTESIAN_POINT('Origin',(-0.65,-0.5,0.05));
#1786=CARTESIAN_POINT('',(-0.65,-0.6,0.12));
#1787=CARTESIAN_POINT('',(-0.65,-0.6,0.));
#1788=CARTESIAN_POINT('',(-0.65,-0.4,0.12));
#1789=CARTESIAN_POINT('Origin',(-0.65,-0.5,0.12));
#1790=CARTESIAN_POINT('',(-0.65,-0.4,0.));
#1791=CARTESIAN_POINT('Origin',(-0.65,-0.4,0.));
#1792=CARTESIAN_POINT('',(-0.75,-0.4,0.05));
#1793=CARTESIAN_POINT('',(-0.325,-0.4,0.05));
#1794=CARTESIAN_POINT('',(-0.75,-0.4,0.12));
#1795=CARTESIAN_POINT('',(-0.75,-0.4,0.12));
#1796=CARTESIAN_POINT('',(-0.75,-0.4,0.025));
#1797=CARTESIAN_POINT('Origin',(-0.75,-0.6,0.));
#1798=CARTESIAN_POINT('',(-0.75,-0.6,0.05));
#1799=CARTESIAN_POINT('',(-0.375,-0.6,0.05));
#1800=CARTESIAN_POINT('',(-0.75,-0.6,0.12));
#1801=CARTESIAN_POINT('',(-0.75,-0.6,0.025));
#1802=CARTESIAN_POINT('',(-0.65,-0.6,0.12));
#1803=CARTESIAN_POINT('Origin',(-0.673598830385517,-0.5,0.12));
#1804=CARTESIAN_POINT('',(-0.75,0.125,0.12));
#1805=CARTESIAN_POINT('Origin',(-0.65,0.5,0.));
#1806=CARTESIAN_POINT('',(-0.65,0.4,0.05));
#1807=CARTESIAN_POINT('',(-0.65,0.6,0.05));
#1808=CARTESIAN_POINT('Origin',(-0.65,0.5,0.05));
#1809=CARTESIAN_POINT('',(-0.65,0.4,0.12));
#1810=CARTESIAN_POINT('',(-0.65,0.4,0.));
#1811=CARTESIAN_POINT('',(-0.65,0.6,0.12));
#1812=CARTESIAN_POINT('Origin',(-0.65,0.5,0.12));
#1813=CARTESIAN_POINT('',(-0.65,0.6,0.));
#1814=CARTESIAN_POINT('Origin',(-0.65,0.6,0.));
#1815=CARTESIAN_POINT('',(-0.75,0.6,0.05));
#1816=CARTESIAN_POINT('',(-0.325,0.6,0.05));
#1817=CARTESIAN_POINT('',(-0.75,0.6,0.12));
#1818=CARTESIAN_POINT('',(-0.75,0.6,0.12));
#1819=CARTESIAN_POINT('',(-0.75,0.6,0.025));
#1820=CARTESIAN_POINT('Origin',(-0.75,0.4,0.));
#1821=CARTESIAN_POINT('',(-0.75,0.4,0.05));
#1822=CARTESIAN_POINT('',(-0.375,0.4,0.05));
#1823=CARTESIAN_POINT('',(-0.75,0.4,0.12));
#1824=CARTESIAN_POINT('',(-0.75,0.4,0.025));
#1825=CARTESIAN_POINT('',(-0.65,0.4,0.12));
#1826=CARTESIAN_POINT('Origin',(-0.673598830385517,0.5,0.12));
#1827=CARTESIAN_POINT('',(-0.75,0.625,0.12));
#1828=CARTESIAN_POINT('Origin',(-0.65,-1.11022302462516E-16,0.));
#1829=CARTESIAN_POINT('',(-0.65,-0.1,0.05));
#1830=CARTESIAN_POINT('',(-0.65,0.0999999999999999,0.05));
#1831=CARTESIAN_POINT('Origin',(-0.65,-1.11022302462516E-16,0.05));
#1832=CARTESIAN_POINT('',(-0.65,-0.1,0.12));
#1833=CARTESIAN_POINT('',(-0.65,-0.1,0.));
#1834=CARTESIAN_POINT('',(-0.65,0.0999999999999999,0.12));
#1835=CARTESIAN_POINT('Origin',(-0.65,-1.11022302462516E-16,0.12));
#1836=CARTESIAN_POINT('',(-0.65,0.0999999999999999,0.));
#1837=CARTESIAN_POINT('Origin',(-0.65,0.0999999999999999,0.));
#1838=CARTESIAN_POINT('',(-0.75,0.0999999999999999,0.05));
#1839=CARTESIAN_POINT('',(-0.325,0.0999999999999999,0.05));
#1840=CARTESIAN_POINT('',(-0.75,0.0999999999999999,0.12));
#1841=CARTESIAN_POINT('',(-0.75,0.0999999999999999,0.12));
#1842=CARTESIAN_POINT('',(-0.75,0.0999999999999999,0.025));
#1843=CARTESIAN_POINT('Origin',(-0.75,-0.1,0.));
#1844=CARTESIAN_POINT('',(-0.75,-0.1,0.05));
#1845=CARTESIAN_POINT('',(-0.375,-0.1,0.05));
#1846=CARTESIAN_POINT('',(-0.75,-0.1,0.12));
#1847=CARTESIAN_POINT('',(-0.75,-0.1,0.025));
#1848=CARTESIAN_POINT('',(-0.65,-0.1,0.12));
#1849=CARTESIAN_POINT('Origin',(-0.673598830385517,-1.11022302462516E-16,
0.12));
#1850=CARTESIAN_POINT('',(-0.75,0.375,0.12));
#1851=CARTESIAN_POINT('Origin',(0.65,-0.5,0.));
#1852=CARTESIAN_POINT('',(0.65,-0.4,0.05));
#1853=CARTESIAN_POINT('',(0.65,-0.6,0.05));
#1854=CARTESIAN_POINT('Origin',(0.65,-0.5,0.05));
#1855=CARTESIAN_POINT('',(0.65,-0.4,0.12));
#1856=CARTESIAN_POINT('',(0.65,-0.4,0.));
#1857=CARTESIAN_POINT('',(0.65,-0.6,0.12));
#1858=CARTESIAN_POINT('Origin',(0.65,-0.5,0.12));
#1859=CARTESIAN_POINT('',(0.65,-0.6,0.));
#1860=CARTESIAN_POINT('Origin',(0.75,-0.6,0.));
#1861=CARTESIAN_POINT('',(0.75,-0.6,0.05));
#1862=CARTESIAN_POINT('',(0.375,-0.6,0.05));
#1863=CARTESIAN_POINT('',(0.75,-0.6,0.12));
#1864=CARTESIAN_POINT('',(0.65,-0.6,0.12));
#1865=CARTESIAN_POINT('',(0.75,-0.6,0.025));
#1866=CARTESIAN_POINT('Origin',(0.65,-0.4,0.));
#1867=CARTESIAN_POINT('',(0.75,-0.4,0.05));
#1868=CARTESIAN_POINT('',(0.325,-0.4,0.05));
#1869=CARTESIAN_POINT('',(0.75,-0.4,0.12));
#1870=CARTESIAN_POINT('',(0.75,-0.4,0.025));
#1871=CARTESIAN_POINT('',(0.75,-0.4,0.12));
#1872=CARTESIAN_POINT('Origin',(0.673598830385517,-0.5,0.12));
#1873=CARTESIAN_POINT('',(0.75,-0.625,0.12));
#1874=CARTESIAN_POINT('Origin',(0.65,0.5,0.));
#1875=CARTESIAN_POINT('',(0.65,0.6,0.05));
#1876=CARTESIAN_POINT('',(0.65,0.4,0.05));
#1877=CARTESIAN_POINT('Origin',(0.65,0.5,0.05));
#1878=CARTESIAN_POINT('',(0.65,0.6,0.12));
#1879=CARTESIAN_POINT('',(0.65,0.6,0.));
#1880=CARTESIAN_POINT('',(0.65,0.4,0.12));
#1881=CARTESIAN_POINT('Origin',(0.65,0.5,0.12));
#1882=CARTESIAN_POINT('',(0.65,0.4,0.));
#1883=CARTESIAN_POINT('Origin',(0.75,0.4,0.));
#1884=CARTESIAN_POINT('',(0.75,0.4,0.05));
#1885=CARTESIAN_POINT('',(0.375,0.4,0.05));
#1886=CARTESIAN_POINT('',(0.75,0.4,0.12));
#1887=CARTESIAN_POINT('',(0.65,0.4,0.12));
#1888=CARTESIAN_POINT('',(0.75,0.4,0.025));
#1889=CARTESIAN_POINT('Origin',(0.65,0.6,0.));
#1890=CARTESIAN_POINT('',(0.75,0.6,0.05));
#1891=CARTESIAN_POINT('',(0.325,0.6,0.05));
#1892=CARTESIAN_POINT('',(0.75,0.6,0.12));
#1893=CARTESIAN_POINT('',(0.75,0.6,0.025));
#1894=CARTESIAN_POINT('',(0.75,0.6,0.12));
#1895=CARTESIAN_POINT('Origin',(0.673598830385517,0.5,0.12));
#1896=CARTESIAN_POINT('',(0.75,-0.125,0.12));
#1897=CARTESIAN_POINT('Origin',(5.55111512312578E-17,2.77555756156289E-17,
0.05));
#1898=CARTESIAN_POINT('',(0.75,0.75,0.05));
#1899=CARTESIAN_POINT('',(0.75,-0.75,0.05));
#1900=CARTESIAN_POINT('',(0.75,0.75,0.05));
#1901=CARTESIAN_POINT('',(-0.75,-0.75,0.05));
#1902=CARTESIAN_POINT('',(0.75,-0.75,0.05));
#1903=CARTESIAN_POINT('',(-0.75,-0.75,0.05));
#1904=CARTESIAN_POINT('',(-0.75,-0.75,0.05));
#1905=CARTESIAN_POINT('',(-0.75,-0.75,0.05));
#1906=CARTESIAN_POINT('',(-0.75,0.75,0.05));
#1907=CARTESIAN_POINT('',(-0.75,-0.75,0.05));
#1908=CARTESIAN_POINT('',(0.75,0.75,0.05));
#1909=CARTESIAN_POINT('',(-0.75,0.75,0.05));
#1910=CARTESIAN_POINT('',(0.75,0.75,0.05));
#1911=CARTESIAN_POINT('',(0.75,0.75,0.05));
#1912=CARTESIAN_POINT('Origin',(0.75,-0.75,0.05));
#1913=CARTESIAN_POINT('',(0.75,0.75,0.5));
#1914=CARTESIAN_POINT('',(0.75,0.75,0.05));
#1915=CARTESIAN_POINT('',(0.75,-0.75,0.5));
#1916=CARTESIAN_POINT('',(0.75,0.75,0.5));
#1917=CARTESIAN_POINT('',(0.75,-0.75,0.05));
#1918=CARTESIAN_POINT('Origin',(-0.75,-0.75,0.05));
#1919=CARTESIAN_POINT('',(-0.75,-0.75,0.5));
#1920=CARTESIAN_POINT('',(0.75,-0.75,0.5));
#1921=CARTESIAN_POINT('',(-0.75,-0.75,0.05));
#1922=CARTESIAN_POINT('Origin',(-0.75,0.75,0.05));
#1923=CARTESIAN_POINT('',(-0.75,0.75,0.5));
#1924=CARTESIAN_POINT('',(-0.75,-0.75,0.5));
#1925=CARTESIAN_POINT('',(-0.75,0.75,0.05));
#1926=CARTESIAN_POINT('Origin',(0.75,0.75,0.05));
#1927=CARTESIAN_POINT('',(-0.75,0.75,0.5));
#1928=CARTESIAN_POINT('Origin',(0.,0.,0.5));
#1929=CARTESIAN_POINT('Origin',(-0.75,-0.4,0.));
#1930=CARTESIAN_POINT('',(-0.75,-0.6,0.));
#1931=CARTESIAN_POINT('',(-0.75,-0.4,0.));
#1932=CARTESIAN_POINT('',(-0.75,-0.6,0.));
#1933=CARTESIAN_POINT('',(-0.75,-0.6,0.12));
#1934=CARTESIAN_POINT('',(-0.75,-0.6,0.));
#1935=CARTESIAN_POINT('',(-0.75,-0.4,0.12));
#1936=CARTESIAN_POINT('',(-0.75,-0.6,0.12));
#1937=CARTESIAN_POINT('',(-0.75,-0.4,0.));
#1938=CARTESIAN_POINT('Origin',(-0.65,-0.4,0.));
#1939=CARTESIAN_POINT('',(-0.65,-0.4,0.));
#1940=CARTESIAN_POINT('',(-0.75,-0.4,0.));
#1941=CARTESIAN_POINT('',(-0.65,-0.4,0.12));
#1942=CARTESIAN_POINT('',(-0.75,-0.4,0.12));
#1943=CARTESIAN_POINT('',(-0.65,-0.4,0.));
#1944=CARTESIAN_POINT('Origin',(-0.65,-0.5,0.));
#1945=CARTESIAN_POINT('',(-0.65,-0.6,0.));
#1946=CARTESIAN_POINT('Origin',(-0.65,-0.5,0.));
#1947=CARTESIAN_POINT('',(-0.65,-0.6,0.12));
#1948=CARTESIAN_POINT('Origin',(-0.65,-0.5,0.12));
#1949=CARTESIAN_POINT('',(-0.65,-0.6,0.));
#1950=CARTESIAN_POINT('Origin',(-0.75,-0.6,0.));
#1951=CARTESIAN_POINT('',(-0.65,-0.6,0.));
#1952=CARTESIAN_POINT('',(-0.65,-0.6,0.12));
#1953=CARTESIAN_POINT('Origin',(-0.673598830385517,-0.5,0.));
#1954=CARTESIAN_POINT('Origin',(-0.673598830385517,-0.5,0.12));
#1955=CARTESIAN_POINT('Origin',(-0.75,0.6,0.));
#1956=CARTESIAN_POINT('',(-0.75,0.4,0.));
#1957=CARTESIAN_POINT('',(-0.75,0.6,0.));
#1958=CARTESIAN_POINT('',(-0.75,0.4,0.));
#1959=CARTESIAN_POINT('',(-0.75,0.4,0.12));
#1960=CARTESIAN_POINT('',(-0.75,0.4,0.));
#1961=CARTESIAN_POINT('',(-0.75,0.6,0.12));
#1962=CARTESIAN_POINT('',(-0.75,0.4,0.12));
#1963=CARTESIAN_POINT('',(-0.75,0.6,0.));
#1964=CARTESIAN_POINT('Origin',(-0.65,0.6,0.));
#1965=CARTESIAN_POINT('',(-0.65,0.6,0.));
#1966=CARTESIAN_POINT('',(-0.75,0.6,0.));
#1967=CARTESIAN_POINT('',(-0.65,0.6,0.12));
#1968=CARTESIAN_POINT('',(-0.75,0.6,0.12));
#1969=CARTESIAN_POINT('',(-0.65,0.6,0.));
#1970=CARTESIAN_POINT('Origin',(-0.65,0.5,0.));
#1971=CARTESIAN_POINT('',(-0.65,0.4,0.));
#1972=CARTESIAN_POINT('Origin',(-0.65,0.5,0.));
#1973=CARTESIAN_POINT('',(-0.65,0.4,0.12));
#1974=CARTESIAN_POINT('Origin',(-0.65,0.5,0.12));
#1975=CARTESIAN_POINT('',(-0.65,0.4,0.));
#1976=CARTESIAN_POINT('Origin',(-0.75,0.4,0.));
#1977=CARTESIAN_POINT('',(-0.65,0.4,0.));
#1978=CARTESIAN_POINT('',(-0.65,0.4,0.12));
#1979=CARTESIAN_POINT('Origin',(-0.673598830385517,0.5,0.));
#1980=CARTESIAN_POINT('Origin',(-0.673598830385517,0.5,0.12));
#1981=CARTESIAN_POINT('Origin',(0.75,0.0999999999999999,0.));
#1982=CARTESIAN_POINT('',(0.75,-0.1,0.));
#1983=CARTESIAN_POINT('',(0.75,0.0999999999999999,0.));
#1984=CARTESIAN_POINT('',(0.75,-0.1,0.));
#1985=CARTESIAN_POINT('',(0.75,0.0999999999999999,0.12));
#1986=CARTESIAN_POINT('',(0.75,0.0999999999999999,0.));
#1987=CARTESIAN_POINT('',(0.75,-0.1,0.12));
#1988=CARTESIAN_POINT('',(0.75,-0.1,0.12));
#1989=CARTESIAN_POINT('',(0.75,-0.1,0.));
#1990=CARTESIAN_POINT('Origin',(0.65,0.0999999999999999,0.));
#1991=CARTESIAN_POINT('',(0.65,0.0999999999999999,0.));
#1992=CARTESIAN_POINT('',(0.75,0.0999999999999999,0.));
#1993=CARTESIAN_POINT('',(0.65,0.0999999999999999,0.12));
#1994=CARTESIAN_POINT('',(0.65,0.0999999999999999,0.));
#1995=CARTESIAN_POINT('',(0.75,0.0999999999999999,0.12));
#1996=CARTESIAN_POINT('Origin',(0.65,-1.11022302462516E-16,0.));
#1997=CARTESIAN_POINT('',(0.65,-0.1,0.));
#1998=CARTESIAN_POINT('Origin',(0.65,-1.11022302462516E-16,0.));
#1999=CARTESIAN_POINT('',(0.65,-0.1,0.12));
#2000=CARTESIAN_POINT('',(0.65,-0.1,0.));
#2001=CARTESIAN_POINT('Origin',(0.65,-1.11022302462516E-16,0.12));
#2002=CARTESIAN_POINT('Origin',(0.75,-0.1,0.));
#2003=CARTESIAN_POINT('',(0.65,-0.1,0.));
#2004=CARTESIAN_POINT('',(0.65,-0.1,0.12));
#2005=CARTESIAN_POINT('Origin',(0.673598830385517,-1.09663439780725E-16,
0.));
#2006=CARTESIAN_POINT('Origin',(0.673598830385517,-1.09663439780725E-16,
0.12));
#2007=CARTESIAN_POINT('Origin',(0.75,-0.4,0.));
#2008=CARTESIAN_POINT('',(0.75,-0.6,0.));
#2009=CARTESIAN_POINT('',(0.75,-0.4,0.));
#2010=CARTESIAN_POINT('',(0.75,-0.6,0.));
#2011=CARTESIAN_POINT('',(0.75,-0.4,0.12));
#2012=CARTESIAN_POINT('',(0.75,-0.4,0.));
#2013=CARTESIAN_POINT('',(0.75,-0.6,0.12));
#2014=CARTESIAN_POINT('',(0.75,-0.6,0.12));
#2015=CARTESIAN_POINT('',(0.75,-0.6,0.));
#2016=CARTESIAN_POINT('Origin',(0.65,-0.4,0.));
#2017=CARTESIAN_POINT('',(0.65,-0.4,0.));
#2018=CARTESIAN_POINT('',(0.75,-0.4,0.));
#2019=CARTESIAN_POINT('',(0.65,-0.4,0.12));
#2020=CARTESIAN_POINT('',(0.65,-0.4,0.));
#2021=CARTESIAN_POINT('',(0.75,-0.4,0.12));
#2022=CARTESIAN_POINT('Origin',(0.65,-0.5,0.));
#2023=CARTESIAN_POINT('',(0.65,-0.6,0.));
#2024=CARTESIAN_POINT('Origin',(0.65,-0.5,0.));
#2025=CARTESIAN_POINT('',(0.65,-0.6,0.12));
#2026=CARTESIAN_POINT('',(0.65,-0.6,0.));
#2027=CARTESIAN_POINT('Origin',(0.65,-0.5,0.12));
#2028=CARTESIAN_POINT('Origin',(0.75,-0.6,0.));
#2029=CARTESIAN_POINT('',(0.65,-0.6,0.));
#2030=CARTESIAN_POINT('',(0.65,-0.6,0.12));
#2031=CARTESIAN_POINT('Origin',(0.673598830385517,-0.5,0.));
#2032=CARTESIAN_POINT('Origin',(0.673598830385517,-0.5,0.12));
#2033=CARTESIAN_POINT('Origin',(0.75,0.6,0.));
#2034=CARTESIAN_POINT('',(0.75,0.4,0.));
#2035=CARTESIAN_POINT('',(0.75,0.6,0.));
#2036=CARTESIAN_POINT('',(0.75,0.4,0.));
#2037=CARTESIAN_POINT('',(0.75,0.6,0.12));
#2038=CARTESIAN_POINT('',(0.75,0.6,0.));
#2039=CARTESIAN_POINT('',(0.75,0.4,0.12));
#2040=CARTESIAN_POINT('',(0.75,0.4,0.12));
#2041=CARTESIAN_POINT('',(0.75,0.4,0.));
#2042=CARTESIAN_POINT('Origin',(0.65,0.6,0.));
#2043=CARTESIAN_POINT('',(0.65,0.6,0.));
#2044=CARTESIAN_POINT('',(0.75,0.6,0.));
#2045=CARTESIAN_POINT('',(0.65,0.6,0.12));
#2046=CARTESIAN_POINT('',(0.65,0.6,0.));
#2047=CARTESIAN_POINT('',(0.75,0.6,0.12));
#2048=CARTESIAN_POINT('Origin',(0.65,0.5,0.));
#2049=CARTESIAN_POINT('',(0.65,0.4,0.));
#2050=CARTESIAN_POINT('Origin',(0.65,0.5,0.));
#2051=CARTESIAN_POINT('',(0.65,0.4,0.12));
#2052=CARTESIAN_POINT('',(0.65,0.4,0.));
#2053=CARTESIAN_POINT('Origin',(0.65,0.5,0.12));
#2054=CARTESIAN_POINT('Origin',(0.75,0.4,0.));
#2055=CARTESIAN_POINT('',(0.65,0.4,0.));
#2056=CARTESIAN_POINT('',(0.65,0.4,0.12));
#2057=CARTESIAN_POINT('Origin',(0.673598830385517,0.5,0.));
#2058=CARTESIAN_POINT('Origin',(0.673598830385517,0.5,0.12));
#2059=CARTESIAN_POINT('Origin',(0.325,0.575,0.));
#2060=CARTESIAN_POINT('',(0.325,0.575,0.));
#2061=CARTESIAN_POINT('',(-0.325,0.575,0.));
#2062=CARTESIAN_POINT('',(0.325,0.575,0.));
#2063=CARTESIAN_POINT('',(-0.325,0.575,0.05));
#2064=CARTESIAN_POINT('',(-0.325,0.575,0.));
#2065=CARTESIAN_POINT('',(0.325,0.575,0.05));
#2066=CARTESIAN_POINT('',(0.325,0.575,0.05));
#2067=CARTESIAN_POINT('',(0.325,0.575,0.));
#2068=CARTESIAN_POINT('Origin',(0.325,-0.575,0.));
#2069=CARTESIAN_POINT('',(0.325,-0.575,0.));
#2070=CARTESIAN_POINT('',(0.325,-0.575,0.));
#2071=CARTESIAN_POINT('',(0.325,-0.575,0.05));
#2072=CARTESIAN_POINT('',(0.325,-0.575,0.05));
#2073=CARTESIAN_POINT('',(0.325,-0.575,0.));
#2074=CARTESIAN_POINT('Origin',(-0.325,-0.575,0.));
#2075=CARTESIAN_POINT('',(-0.325,-0.575,0.));
#2076=CARTESIAN_POINT('',(-0.325,-0.575,0.));
#2077=CARTESIAN_POINT('',(-0.325,-0.575,0.05));
#2078=CARTESIAN_POINT('',(-0.325,-0.575,0.05));
#2079=CARTESIAN_POINT('',(-0.325,-0.575,0.));
#2080=CARTESIAN_POINT('Origin',(-0.325,0.575,0.));
#2081=CARTESIAN_POINT('',(-0.325,0.575,0.));
#2082=CARTESIAN_POINT('',(-0.325,0.575,0.05));
#2083=CARTESIAN_POINT('Origin',(1.11022302462516E-16,0.,0.05));
#2084=CARTESIAN_POINT('Origin',(1.12564278885606E-16,0.,0.));
#2085=UNCERTAINTY_MEASURE_WITH_UNIT(LENGTH_MEASURE(0.01),#2089,
'DISTANCE_ACCURACY_VALUE',
'Maximum model space distance between geometric entities at asserted c
onnectivities');
#2086=UNCERTAINTY_MEASURE_WITH_UNIT(LENGTH_MEASURE(1.E-6),#2089,
'DISTANCE_ACCURACY_VALUE',
'Maximum model space distance between geometric entities at asserted c
onnectivities');
#2087=(
GEOMETRIC_REPRESENTATION_CONTEXT(3)
GLOBAL_UNCERTAINTY_ASSIGNED_CONTEXT((#2085))
GLOBAL_UNIT_ASSIGNED_CONTEXT((#2089,#2091,#2090))
REPRESENTATION_CONTEXT('','3D')
);
#2088=(
GEOMETRIC_REPRESENTATION_CONTEXT(3)
GLOBAL_UNCERTAINTY_ASSIGNED_CONTEXT((#2086))
GLOBAL_UNIT_ASSIGNED_CONTEXT((#2089,#12,#2090))
REPRESENTATION_CONTEXT('','3D')
);
#2089=(
LENGTH_UNIT()
NAMED_UNIT(*)
SI_UNIT(.MILLI.,.METRE.)
);
#2090=(
NAMED_UNIT(*)
SI_UNIT($,.STERADIAN.)
SOLID_ANGLE_UNIT()
);
#2091=(
NAMED_UNIT(*)
PLANE_ANGLE_UNIT()
SI_UNIT($,.RADIAN.)
);
#2092=SHAPE_DEFINITION_REPRESENTATION(#2093,#2094);
#2093=PRODUCT_DEFINITION_SHAPE('',$,#2096);
#2094=SHAPE_REPRESENTATION('',(#1279),#2087);
#2095=PRODUCT_DEFINITION_CONTEXT('part definition',#2100,'design');
#2096=PRODUCT_DEFINITION('Product','Product',#2097,#2095);
#2097=PRODUCT_DEFINITION_FORMATION('',$,#2102);
#2098=PRODUCT_RELATED_PRODUCT_CATEGORY('Product','Product',(#2102));
#2099=APPLICATION_PROTOCOL_DEFINITION('international standard',
'automotive_design',2009,#2100);
#2100=APPLICATION_CONTEXT(
'Core Data for Automotive Mechanical Design Process');
#2101=PRODUCT_CONTEXT('part definition',#2100,'mechanical');
#2102=PRODUCT('Product','Product',$,(#2101));
#2103=PRESENTATION_STYLE_ASSIGNMENT((#2106));
#2104=PRESENTATION_STYLE_ASSIGNMENT((#2107));
#2105=PRESENTATION_STYLE_ASSIGNMENT((#2108));
#2106=SURFACE_STYLE_USAGE(.BOTH.,#2109);
#2107=SURFACE_STYLE_USAGE(.BOTH.,#2110);
#2108=SURFACE_STYLE_USAGE(.BOTH.,#2111);
#2109=SURFACE_SIDE_STYLE('',(#2112));
#2110=SURFACE_SIDE_STYLE('',(#2113));
#2111=SURFACE_SIDE_STYLE('',(#2114));
#2112=SURFACE_STYLE_FILL_AREA(#2115);
#2113=SURFACE_STYLE_FILL_AREA(#2116);
#2114=SURFACE_STYLE_FILL_AREA(#2117);
#2115=FILL_AREA_STYLE('',(#2118));
#2116=FILL_AREA_STYLE('',(#2119));
#2117=FILL_AREA_STYLE('',(#2120));
#2118=FILL_AREA_STYLE_COLOUR('',#2121);
#2119=FILL_AREA_STYLE_COLOUR('',#2122);
#2120=FILL_AREA_STYLE_COLOUR('',#2123);
#2121=COLOUR_RGB('',1.,1.,1.);
#2122=COLOUR_RGB('',0.866666666666667,0.866666666666667,0.866666666666667);
#2123=COLOUR_RGB('',0.329411764705882,0.329411764705882,0.329411764705882);
ENDSEC;
END-ISO-10303-21;
