ISO-10303-21;
HEADER;
/****************************************************************
 * Generated by software with PDElib inside                    *
 * PDElib Version v51a, created Fri 09/10/2010                  *
 * ITI Transcendata (http://www.transcendata.com/)              *
 ****************************************************************/
FILE_DESCRIPTION((''),'2;1');
FILE_NAME('SOT65P210X110-3N.stp','2013-12-05T16:26:28',(''),(''),'Mechanical Desktop 2011','Mechanical Desktop 2011',', , ');
FILE_SCHEMA(('AUTOMOTIVE_DESIGN { 1 2 10303 214 1 1 1 1 }'));
ENDSEC;
DATA;
#10=(NAMED_UNIT(*)PLANE_ANGLE_UNIT()SI_UNIT($,.RADIAN.));
#11=DIMENSIONAL_EXPONENTS(0.0,0.0,0.0,0.0,0.0,0.0,0.0);
#12=PLANE_ANGLE_MEASURE_WITH_UNIT(PLANE_ANGLE_MEASURE(0.0174532925),#10);
#16=(CONVERSION_BASED_UNIT('DEGREE',#12)NAMED_UNIT(#11)PLANE_ANGLE_UNIT());
#20=(NAMED_UNIT(*)SI_UNIT($,.STERADIAN.)SOLID_ANGLE_UNIT());
#24=(LENGTH_UNIT()NAMED_UNIT(*)SI_UNIT(.MILLI.,.METRE.));
#26=UNCERTAINTY_MEASURE_WITH_UNIT(LENGTH_MEASURE(0.000001),#24,'DISTANCE_ACCURACY_VALUE','');
#28=(GEOMETRIC_REPRESENTATION_CONTEXT(3)GLOBAL_UNCERTAINTY_ASSIGNED_CONTEXT((#26))GLOBAL_UNIT_ASSIGNED_CONTEXT((#16,#20,#24))REPRESENTATION_CONTEXT('','3D'));
#29=APPLICATION_CONTEXT('automotive design');
#30=APPLICATION_PROTOCOL_DEFINITION('INTERNATIONAL_STANDARD','automotive_design',1998,#29);
#31=PRODUCT_CONTEXT('3D Mechanical Parts',#29,'mechanical');
#32=PRODUCT('Product','Product','',(#31));
#33=PRODUCT_RELATED_PRODUCT_CATEGORY('part',$,(#32));
#34=PRODUCT_CATEGORY('part',$);
#35=PERSON('1','Design','Joe',$,$,$);
#36=ORGANIZATION($,'None','None');
#37=PERSON_AND_ORGANIZATION(#35,#36);
#38=PERSON_AND_ORGANIZATION_ROLE('design_owner');
#39=APPLIED_PERSON_AND_ORGANIZATION_ASSIGNMENT(#37,#38,(#32));
#40=PRODUCT_DEFINITION_FORMATION_WITH_SPECIFIED_SOURCE('None','',#32,.BOUGHT.);
#41=PERSON('2','Creator','Joe',$,$,$);
#42=ORGANIZATION($,'None','None');
#43=PERSON_AND_ORGANIZATION(#41,#42);
#44=PERSON_AND_ORGANIZATION_ROLE('creator');
#45=APPLIED_PERSON_AND_ORGANIZATION_ASSIGNMENT(#43,#44,(#40));
#46=PERSON('3','Supplier','Joe',$,$,$);
#47=ORGANIZATION($,'None','None');
#48=PERSON_AND_ORGANIZATION(#46,#47);
#49=PERSON_AND_ORGANIZATION_ROLE('design_supplier');
#50=APPLIED_PERSON_AND_ORGANIZATION_ASSIGNMENT(#48,#49,(#40));
#51=PRODUCT_DEFINITION_CONTEXT('part definition',#29,'design');
#52=PRODUCT_DEFINITION('None','',#40,#51);
#53=PERSON('4','Creator','Joe',$,$,$);
#54=ORGANIZATION($,'None','None');
#55=PERSON_AND_ORGANIZATION(#53,#54);
#56=PERSON_AND_ORGANIZATION_ROLE('creator');
#57=APPLIED_PERSON_AND_ORGANIZATION_ASSIGNMENT(#55,#56,(#52));
#58=CARTESIAN_POINT('NONE',(0.0,0.0,0.0));
#59=DIRECTION('NONE',(0.0,0.0,1.0));
#60=DIRECTION('NONE',(1.0,0.0,0.0));
#61=AXIS2_PLACEMENT_3D('NONE',#58,#59,#60);
#62=SHAPE_REPRESENTATION('SR1',(#61),#28);
#63=PRODUCT_DEFINITION_SHAPE('PDS1','Test Part',#52);
#64=SHAPE_DEFINITION_REPRESENTATION(#63,#62);
#65=CARTESIAN_POINT('',(0.604289321881345,0.15,0.299289321881345));
#66=CARTESIAN_POINT('',(0.604289321881345,-0.15,0.299289321881345));
#67=CARTESIAN_POINT('',(0.675,0.15,0.22857864376269));
#68=CARTESIAN_POINT('',(0.675,-0.15,0.22857864376269));
#69=CARTESIAN_POINT('',(0.745710678118655,0.15,0.299289321881345));
#70=CARTESIAN_POINT('',(0.745710678118655,-0.15,0.299289321881345));
#71=CARTESIAN_POINT('',(0.816421356237309,0.15,0.37));
#72=CARTESIAN_POINT('',(0.816421356237309,-0.15,0.37));
#73=CARTESIAN_POINT('',(0.745710678118655,0.15,0.440710678118655));
#74=CARTESIAN_POINT('',(0.745710678118655,-0.15,0.440710678118655));
#75=CARTESIAN_POINT('',(0.675,0.15,0.511421356237309));
#76=CARTESIAN_POINT('',(0.675,-0.15,0.511421356237309));
#77=CARTESIAN_POINT('',(0.604289321881345,0.15,0.440710678118655));
#78=CARTESIAN_POINT('',(0.604289321881345,-0.15,0.440710678118655));
#79=CARTESIAN_POINT('',(0.53357864376269,0.15,0.37));
#80=CARTESIAN_POINT('',(0.53357864376269,-0.15,0.37));
#81=CARTESIAN_POINT('',(0.604289321881345,0.15,0.299289321881345));
#82=CARTESIAN_POINT('',(0.604289321881345,-0.15,0.299289321881345));
#90=(BOUNDED_SURFACE()B_SPLINE_SURFACE(1,2,((#65,#67,#69,#71,#73,#75,#77,#79,#81),(#66,#68,#70,#72,#74,#76,#78,#80,#82)),.UNSPECIFIED.,.F.,.T.,.U.)B_SPLINE_SURFACE_WITH_KNOTS((2,2),(3,2,2,2,3),(-2.999999999999996,4.440892E-016),(0.0,0.15707963267949,0.31415926535898,0.471238898038469,0.628318530717959),.UNSPECIFIED.)GEOMETRIC_REPRESENTATION_ITEM()RATIONAL_B_SPLINE_SURFACE(((1.0,0.707106781186548,1.0,0.707106781186548,1.0,0.707106781186548,1.0,0.707106781186548,1.0),(1.0,0.707106781186548,1.0,0.707106781186548,1.0,0.707106781186548,1.0,0.707106781186548,1.0)))REPRESENTATION_ITEM('')SURFACE());
#91=CARTESIAN_POINT('',(0.775,0.15,0.37));
#92=VERTEX_POINT('',#91);
#93=CARTESIAN_POINT('',(0.675,0.15,0.47));
#94=VERTEX_POINT('',#93);
#95=CARTESIAN_POINT('',(0.675,0.15,0.37));
#96=DIRECTION('',(1.110223E-016,-1.0,1.110223E-016));
#97=DIRECTION('',(0.707106781186548,1.570092E-016,0.707106781186547));
#98=AXIS2_PLACEMENT_3D('',#95,#96,#97);
#99=CIRCLE('',#98,0.1);
#100=EDGE_CURVE('',#92,#94,#99,.T.);
#101=ORIENTED_EDGE('',*,*,#100,.F.);
#102=CARTESIAN_POINT('',(0.775,-0.15,0.37));
#103=VERTEX_POINT('',#102);
#104=CARTESIAN_POINT('',(0.775,-0.15,0.37));
#105=DIRECTION('',(0.0,1.0,0.0));
#106=VECTOR('',#105,0.3);
#107=LINE('',#104,#106);
#108=EDGE_CURVE('',#103,#92,#107,.T.);
#109=ORIENTED_EDGE('',*,*,#108,.F.);
#110=CARTESIAN_POINT('',(0.675,-0.15,0.47));
#111=VERTEX_POINT('',#110);
#112=CARTESIAN_POINT('',(0.675,-0.15,0.37));
#113=DIRECTION('',(9.251859E-017,-1.0,9.251859E-017));
#114=DIRECTION('',(0.707106781186548,1.308410E-016,0.707106781186547));
#115=AXIS2_PLACEMENT_3D('',#112,#113,#114);
#116=CIRCLE('',#115,0.1);
#117=EDGE_CURVE('',#103,#111,#116,.T.);
#118=ORIENTED_EDGE('',*,*,#117,.T.);
#119=CARTESIAN_POINT('',(0.675,-0.15,0.47));
#120=DIRECTION('',(0.0,1.0,0.0));
#121=VECTOR('',#120,0.3);
#122=LINE('',#119,#121);
#123=EDGE_CURVE('',#111,#94,#122,.T.);
#124=ORIENTED_EDGE('',*,*,#123,.T.);
#125=EDGE_LOOP('',(#101,#109,#118,#124));
#126=FACE_OUTER_BOUND('',#125,.T.);
#127=ADVANCED_FACE('',(#126),#90,.T.);
#128=CARTESIAN_POINT('',(0.675,0.15,0.63));
#129=CARTESIAN_POINT('',(0.675,0.15,0.47));
#130=CARTESIAN_POINT('',(0.675,-0.15,0.63));
#131=CARTESIAN_POINT('',(0.675,-0.15,0.47));
#132=B_SPLINE_SURFACE_WITH_KNOTS('',1,1,((#128,#130),(#129,#131)),.UNSPECIFIED.,.F.,.F.,.U.,(2,2),(2,2),(0.0,0.16),(0.0,0.3),.UNSPECIFIED.);
#133=CARTESIAN_POINT('',(0.675,0.15,0.63));
#134=VERTEX_POINT('',#133);
#135=CARTESIAN_POINT('',(0.675,0.15,0.47));
#136=DIRECTION('',(0.0,0.0,1.0));
#137=VECTOR('',#136,0.16);
#138=LINE('',#135,#137);
#139=EDGE_CURVE('',#94,#134,#138,.T.);
#140=ORIENTED_EDGE('',*,*,#139,.F.);
#141=ORIENTED_EDGE('',*,*,#123,.F.);
#142=CARTESIAN_POINT('',(0.675,-0.15,0.63));
#143=VERTEX_POINT('',#142);
#144=CARTESIAN_POINT('',(0.675,-0.15,0.47));
#145=DIRECTION('',(0.0,0.0,1.0));
#146=VECTOR('',#145,0.16);
#147=LINE('',#144,#146);
#148=EDGE_CURVE('',#111,#143,#147,.T.);
#149=ORIENTED_EDGE('',*,*,#148,.T.);
#150=CARTESIAN_POINT('',(0.675,-0.15,0.63));
#151=DIRECTION('',(0.0,1.0,0.0));
#152=VECTOR('',#151,0.3);
#153=LINE('',#150,#152);
#154=EDGE_CURVE('',#143,#134,#153,.T.);
#155=ORIENTED_EDGE('',*,*,#154,.T.);
#156=EDGE_LOOP('',(#140,#141,#149,#155));
#157=FACE_OUTER_BOUND('',#156,.T.);
#158=ADVANCED_FACE('',(#157),#132,.T.);
#159=CARTESIAN_POINT('',(0.491152236891498,-0.15,0.186152236891498));
#160=CARTESIAN_POINT('',(0.491152236891498,0.15,0.186152236891498));
#161=CARTESIAN_POINT('',(0.675,-0.15,0.002304473782995));
#162=CARTESIAN_POINT('',(0.675,0.15,0.002304473782995));
#163=CARTESIAN_POINT('',(0.858847763108502,-0.15,0.186152236891498));
#164=CARTESIAN_POINT('',(0.858847763108502,0.15,0.186152236891498));
#165=CARTESIAN_POINT('',(1.042695526217005,-0.15,0.37));
#166=CARTESIAN_POINT('',(1.042695526217005,0.15,0.37));
#167=CARTESIAN_POINT('',(0.858847763108502,-0.15,0.553847763108502));
#168=CARTESIAN_POINT('',(0.858847763108502,0.15,0.553847763108502));
#169=CARTESIAN_POINT('',(0.675,-0.15,0.737695526217005));
#170=CARTESIAN_POINT('',(0.675,0.15,0.737695526217005));
#171=CARTESIAN_POINT('',(0.491152236891497,-0.15,0.553847763108502));
#172=CARTESIAN_POINT('',(0.491152236891497,0.15,0.553847763108502));
#173=CARTESIAN_POINT('',(0.307304473782995,-0.15,0.37));
#174=CARTESIAN_POINT('',(0.307304473782995,0.15,0.37));
#175=CARTESIAN_POINT('',(0.491152236891498,-0.15,0.186152236891498));
#176=CARTESIAN_POINT('',(0.491152236891498,0.15,0.186152236891498));
#184=(BOUNDED_SURFACE()B_SPLINE_SURFACE(1,2,((#159,#161,#163,#165,#167,#169,#171,#173,#175),(#160,#162,#164,#166,#168,#170,#172,#174,#176)),.UNSPECIFIED.,.F.,.T.,.U.)B_SPLINE_SURFACE_WITH_KNOTS((2,2),(3,2,2,2,3),(-1.067522E-016,1.153846153846154),(0.0,0.408407044966673,0.816814089933346,1.225221134900019,1.633628179866693),.UNSPECIFIED.)GEOMETRIC_REPRESENTATION_ITEM()RATIONAL_B_SPLINE_SURFACE(((1.0,0.707106781186548,1.0,0.707106781186548,1.0,0.707106781186548,1.0,0.707106781186548,1.0),(1.0,0.707106781186548,1.0,0.707106781186548,1.0,0.707106781186548,1.0,0.707106781186548,1.0)))REPRESENTATION_ITEM('')SURFACE());
#185=CARTESIAN_POINT('',(0.935,0.15,0.37));
#186=VERTEX_POINT('',#185);
#187=CARTESIAN_POINT('',(0.675,0.15,0.37));
#188=DIRECTION('',(-1.110223E-016,1.0,-1.110223E-016));
#189=DIRECTION('',(0.707106781186547,1.570092E-016,0.707106781186547));
#190=AXIS2_PLACEMENT_3D('',#187,#188,#189);
#191=CIRCLE('',#190,0.26);
#192=EDGE_CURVE('',#134,#186,#191,.T.);
#193=ORIENTED_EDGE('',*,*,#192,.F.);
#194=ORIENTED_EDGE('',*,*,#154,.F.);
#195=CARTESIAN_POINT('',(0.935,-0.15,0.37));
#196=VERTEX_POINT('',#195);
#197=CARTESIAN_POINT('',(0.675,-0.15,0.37));
#198=DIRECTION('',(-9.251859E-017,1.0,-9.251859E-017));
#199=DIRECTION('',(0.707106781186547,1.308410E-016,0.707106781186547));
#200=AXIS2_PLACEMENT_3D('',#197,#198,#199);
#201=CIRCLE('',#200,0.26);
#202=EDGE_CURVE('',#143,#196,#201,.T.);
#203=ORIENTED_EDGE('',*,*,#202,.T.);
#204=CARTESIAN_POINT('',(0.935,-0.15,0.37));
#205=DIRECTION('',(0.0,1.0,0.0));
#206=VECTOR('',#205,0.3);
#207=LINE('',#204,#206);
#208=EDGE_CURVE('',#196,#186,#207,.T.);
#209=ORIENTED_EDGE('',*,*,#208,.T.);
#210=EDGE_LOOP('',(#193,#194,#203,#209));
#211=FACE_OUTER_BOUND('',#210,.T.);
#212=ADVANCED_FACE('',(#211),#184,.T.);
#213=CARTESIAN_POINT('',(0.935,0.15,0.24));
#214=CARTESIAN_POINT('',(0.935,0.15,0.37));
#215=CARTESIAN_POINT('',(0.935,-0.15,0.24));
#216=CARTESIAN_POINT('',(0.935,-0.15,0.37));
#217=B_SPLINE_SURFACE_WITH_KNOTS('',1,1,((#213,#215),(#214,#216)),.UNSPECIFIED.,.F.,.F.,.U.,(2,2),(2,2),(0.0,0.13),(0.0,0.3),.UNSPECIFIED.);
#218=CARTESIAN_POINT('',(0.935,0.15,0.24));
#219=VERTEX_POINT('',#218);
#220=CARTESIAN_POINT('',(0.935,0.15,0.37));
#221=DIRECTION('',(0.0,0.0,-1.0));
#222=VECTOR('',#221,0.13);
#223=LINE('',#220,#222);
#224=EDGE_CURVE('',#186,#219,#223,.T.);
#225=ORIENTED_EDGE('',*,*,#224,.F.);
#226=ORIENTED_EDGE('',*,*,#208,.F.);
#227=CARTESIAN_POINT('',(0.935,-0.15,0.24));
#228=VERTEX_POINT('',#227);
#229=CARTESIAN_POINT('',(0.935,-0.15,0.37));
#230=DIRECTION('',(0.0,0.0,-1.0));
#231=VECTOR('',#230,0.13);
#232=LINE('',#229,#231);
#233=EDGE_CURVE('',#196,#228,#232,.T.);
#234=ORIENTED_EDGE('',*,*,#233,.T.);
#235=CARTESIAN_POINT('',(0.935,-0.15,0.24));
#236=DIRECTION('',(0.0,1.0,0.0));
#237=VECTOR('',#236,0.3);
#238=LINE('',#235,#237);
#239=EDGE_CURVE('',#228,#219,#238,.T.);
#240=ORIENTED_EDGE('',*,*,#239,.T.);
#241=EDGE_LOOP('',(#225,#226,#234,#240));
#242=FACE_OUTER_BOUND('',#241,.T.);
#243=ADVANCED_FACE('',(#242),#217,.T.);
#244=CARTESIAN_POINT('',(1.071568542494924,0.15,0.296568542494924));
#245=CARTESIAN_POINT('',(1.071568542494924,-0.15,0.296568542494924));
#246=CARTESIAN_POINT('',(1.015,0.15,0.353137084989848));
#247=CARTESIAN_POINT('',(1.015,-0.15,0.353137084989848));
#248=CARTESIAN_POINT('',(0.958431457505076,0.15,0.296568542494924));
#249=CARTESIAN_POINT('',(0.958431457505076,-0.15,0.296568542494924));
#250=CARTESIAN_POINT('',(0.901862915010152,0.15,0.24));
#251=CARTESIAN_POINT('',(0.901862915010152,-0.15,0.24));
#252=CARTESIAN_POINT('',(0.958431457505076,0.15,0.183431457505076));
#253=CARTESIAN_POINT('',(0.958431457505076,-0.15,0.183431457505076));
#254=CARTESIAN_POINT('',(1.015,0.15,0.126862915010153));
#255=CARTESIAN_POINT('',(1.015,-0.15,0.126862915010153));
#256=CARTESIAN_POINT('',(1.071568542494924,0.15,0.183431457505076));
#257=CARTESIAN_POINT('',(1.071568542494924,-0.15,0.183431457505076));
#258=CARTESIAN_POINT('',(1.128137084989848,0.15,0.24));
#259=CARTESIAN_POINT('',(1.128137084989848,-0.15,0.24));
#260=CARTESIAN_POINT('',(1.071568542494924,0.15,0.296568542494924));
#261=CARTESIAN_POINT('',(1.071568542494924,-0.15,0.296568542494924));
#269=(BOUNDED_SURFACE()B_SPLINE_SURFACE(1,2,((#244,#246,#248,#250,#252,#254,#256,#258,#260),(#245,#247,#249,#251,#253,#255,#257,#259,#261)),.UNSPECIFIED.,.F.,.T.,.U.)B_SPLINE_SURFACE_WITH_KNOTS((2,2),(3,2,2,2,3),(-3.749999999999998,-8.881784E-016),(0.0,0.125663706143592,0.251327412287184,0.376991118430775,0.502654824574367),.UNSPECIFIED.)GEOMETRIC_REPRESENTATION_ITEM()RATIONAL_B_SPLINE_SURFACE(((1.0,0.707106781186548,1.0,0.707106781186548,1.0,0.707106781186548,1.0,0.707106781186548,1.0),(1.0,0.707106781186548,1.0,0.707106781186548,1.0,0.707106781186548,1.0,0.707106781186548,1.0)))REPRESENTATION_ITEM('')SURFACE());
#270=CARTESIAN_POINT('',(1.015,0.15,0.16));
#271=VERTEX_POINT('',#270);
#272=CARTESIAN_POINT('',(1.015,0.15,0.24));
#273=DIRECTION('',(1.110223E-016,-1.0,1.110223E-016));
#274=DIRECTION('',(-0.707106781186548,-1.570092E-016,-0.707106781186548));
#275=AXIS2_PLACEMENT_3D('',#272,#273,#274);
#276=CIRCLE('',#275,0.08);
#277=EDGE_CURVE('',#219,#271,#276,.T.);
#278=ORIENTED_EDGE('',*,*,#277,.F.);
#279=ORIENTED_EDGE('',*,*,#239,.F.);
#280=CARTESIAN_POINT('',(1.015,-0.15,0.16));
#281=VERTEX_POINT('',#280);
#282=CARTESIAN_POINT('',(1.015,-0.15,0.24));
#283=DIRECTION('',(9.251859E-017,-1.0,9.251859E-017));
#284=DIRECTION('',(-0.707106781186548,-1.308410E-016,-0.707106781186548));
#285=AXIS2_PLACEMENT_3D('',#282,#283,#284);
#286=CIRCLE('',#285,0.08);
#287=EDGE_CURVE('',#228,#281,#286,.T.);
#288=ORIENTED_EDGE('',*,*,#287,.T.);
#289=CARTESIAN_POINT('',(1.015,-0.15,0.16));
#290=DIRECTION('',(0.0,1.0,0.0));
#291=VECTOR('',#290,0.3);
#292=LINE('',#289,#291);
#293=EDGE_CURVE('',#281,#271,#292,.T.);
#294=ORIENTED_EDGE('',*,*,#293,.T.);
#295=EDGE_LOOP('',(#278,#279,#288,#294));
#296=FACE_OUTER_BOUND('',#295,.T.);
#297=ADVANCED_FACE('',(#296),#269,.T.);
#298=CARTESIAN_POINT('',(1.184705627484772,-0.15,0.409705627484772));
#299=CARTESIAN_POINT('',(1.184705627484772,0.15,0.409705627484772));
#300=CARTESIAN_POINT('',(1.015,-0.15,0.579411254969543));
#301=CARTESIAN_POINT('',(1.015,0.15,0.579411254969543));
#302=CARTESIAN_POINT('',(0.845294372515229,-0.15,0.409705627484772));
#303=CARTESIAN_POINT('',(0.845294372515229,0.15,0.409705627484772));
#304=CARTESIAN_POINT('',(0.675588745030457,-0.15,0.24));
#305=CARTESIAN_POINT('',(0.675588745030457,0.15,0.24));
#306=CARTESIAN_POINT('',(0.845294372515229,-0.15,0.070294372515229));
#307=CARTESIAN_POINT('',(0.845294372515229,0.15,0.070294372515229));
#308=CARTESIAN_POINT('',(1.015,-0.15,-0.099411254969543));
#309=CARTESIAN_POINT('',(1.015,0.15,-0.099411254969543));
#310=CARTESIAN_POINT('',(1.184705627484772,-0.15,0.070294372515229));
#311=CARTESIAN_POINT('',(1.184705627484772,0.15,0.070294372515229));
#312=CARTESIAN_POINT('',(1.354411254969543,-0.15,0.24));
#313=CARTESIAN_POINT('',(1.354411254969543,0.15,0.24));
#314=CARTESIAN_POINT('',(1.184705627484772,-0.15,0.409705627484772));
#315=CARTESIAN_POINT('',(1.184705627484772,0.15,0.409705627484772));
#323=(BOUNDED_SURFACE()B_SPLINE_SURFACE(1,2,((#298,#300,#302,#304,#306,#308,#310,#312,#314),(#299,#301,#303,#305,#307,#309,#311,#313,#315)),.UNSPECIFIED.,.F.,.T.,.U.)B_SPLINE_SURFACE_WITH_KNOTS((2,2),(3,2,2,2,3),(2.312965E-016,1.25),(0.0,0.376991118430775,0.753982236861551,1.130973355292326,1.507964473723101),.UNSPECIFIED.)GEOMETRIC_REPRESENTATION_ITEM()RATIONAL_B_SPLINE_SURFACE(((1.0,0.707106781186548,1.0,0.707106781186548,1.0,0.707106781186548,1.0,0.707106781186548,1.0),(1.0,0.707106781186548,1.0,0.707106781186548,1.0,0.707106781186548,1.0,0.707106781186548,1.0)))REPRESENTATION_ITEM('')SURFACE());
#324=CARTESIAN_POINT('',(1.015,0.15,-5.551115E-017));
#325=VERTEX_POINT('',#324);
#326=CARTESIAN_POINT('',(0.775,0.15,0.24));
#327=VERTEX_POINT('',#326);
#328=CARTESIAN_POINT('',(1.015,0.15,0.24));
#329=DIRECTION('',(-1.110223E-016,1.0,-1.110223E-016));
#330=DIRECTION('',(-0.707106781186548,-1.570092E-016,-0.707106781186547));
#331=AXIS2_PLACEMENT_3D('',#328,#329,#330);
#332=CIRCLE('',#331,0.24);
#333=EDGE_CURVE('',#325,#327,#332,.T.);
#334=ORIENTED_EDGE('',*,*,#333,.F.);
#335=CARTESIAN_POINT('',(1.015,-0.15,-9.085024E-033));
#336=VERTEX_POINT('',#335);
#337=CARTESIAN_POINT('',(1.015,-0.15,-1.027163E-032));
#338=DIRECTION('',(0.0,1.0,0.0));
#339=VECTOR('',#338,0.3);
#340=LINE('',#337,#339);
#341=EDGE_CURVE('',#336,#325,#340,.T.);
#342=ORIENTED_EDGE('',*,*,#341,.F.);
#343=CARTESIAN_POINT('',(0.775,-0.15,0.24));
#344=VERTEX_POINT('',#343);
#345=CARTESIAN_POINT('',(1.015,-0.15,0.24));
#346=DIRECTION('',(-9.251859E-017,1.0,-9.251859E-017));
#347=DIRECTION('',(-0.707106781186548,-1.308410E-016,-0.707106781186547));
#348=AXIS2_PLACEMENT_3D('',#345,#346,#347);
#349=CIRCLE('',#348,0.24);
#350=EDGE_CURVE('',#336,#344,#349,.T.);
#351=ORIENTED_EDGE('',*,*,#350,.T.);
#352=CARTESIAN_POINT('',(0.775,-0.15,0.24));
#353=DIRECTION('',(0.0,1.0,0.0));
#354=VECTOR('',#353,0.3);
#355=LINE('',#352,#354);
#356=EDGE_CURVE('',#344,#327,#355,.T.);
#357=ORIENTED_EDGE('',*,*,#356,.T.);
#358=EDGE_LOOP('',(#334,#342,#351,#357));
#359=FACE_OUTER_BOUND('',#358,.T.);
#360=ADVANCED_FACE('',(#359),#323,.T.);
#361=CARTESIAN_POINT('',(0.775,0.15,0.37));
#362=CARTESIAN_POINT('',(0.775,0.15,0.24));
#363=CARTESIAN_POINT('',(0.775,-0.15,0.37));
#364=CARTESIAN_POINT('',(0.775,-0.15,0.24));
#365=B_SPLINE_SURFACE_WITH_KNOTS('',1,1,((#361,#363),(#362,#364)),.UNSPECIFIED.,.F.,.F.,.U.,(2,2),(2,2),(0.0,0.13),(0.0,0.3),.UNSPECIFIED.);
#366=CARTESIAN_POINT('',(0.775,0.15,0.24));
#367=DIRECTION('',(0.0,0.0,1.0));
#368=VECTOR('',#367,0.13);
#369=LINE('',#366,#368);
#370=EDGE_CURVE('',#327,#92,#369,.T.);
#371=ORIENTED_EDGE('',*,*,#370,.F.);
#372=ORIENTED_EDGE('',*,*,#356,.F.);
#373=CARTESIAN_POINT('',(0.775,-0.15,0.24));
#374=DIRECTION('',(0.0,0.0,1.0));
#375=VECTOR('',#374,0.13);
#376=LINE('',#373,#375);
#377=EDGE_CURVE('',#344,#103,#376,.T.);
#378=ORIENTED_EDGE('',*,*,#377,.T.);
#379=ORIENTED_EDGE('',*,*,#108,.T.);
#380=EDGE_LOOP('',(#371,#372,#378,#379));
#381=FACE_OUTER_BOUND('',#380,.T.);
#382=ADVANCED_FACE('',(#381),#365,.T.);
#383=CARTESIAN_POINT('',(1.015,0.15,-5.551115E-017));
#384=CARTESIAN_POINT('',(1.1,0.15,-5.551115E-017));
#385=CARTESIAN_POINT('',(1.015,-0.15,0.0));
#386=CARTESIAN_POINT('',(1.1,-0.15,0.0));
#387=B_SPLINE_SURFACE_WITH_KNOTS('',1,1,((#383,#385),(#384,#386)),.UNSPECIFIED.,.F.,.F.,.U.,(2,2),(2,2),(0.0,0.085),(0.0,0.3),.UNSPECIFIED.);
#388=CARTESIAN_POINT('',(1.1,0.15,-5.551115E-017));
#389=VERTEX_POINT('',#388);
#390=CARTESIAN_POINT('',(1.1,0.15,-5.551115E-017));
#391=DIRECTION('',(-1.0,0.0,0.0));
#392=VECTOR('',#391,0.085);
#393=LINE('',#390,#392);
#394=EDGE_CURVE('',#389,#325,#393,.T.);
#395=ORIENTED_EDGE('',*,*,#394,.F.);
#396=CARTESIAN_POINT('',(1.1,-0.15,0.0));
#397=VERTEX_POINT('',#396);
#398=CARTESIAN_POINT('',(1.1,-0.15,0.0));
#399=DIRECTION('',(0.0,1.0,0.0));
#400=VECTOR('',#399,0.3);
#401=LINE('',#398,#400);
#402=EDGE_CURVE('',#397,#389,#401,.T.);
#403=ORIENTED_EDGE('',*,*,#402,.F.);
#404=CARTESIAN_POINT('',(1.1,-0.15,0.0));
#405=DIRECTION('',(-1.0,0.0,0.0));
#406=VECTOR('',#405,0.085);
#407=LINE('',#404,#406);
#408=EDGE_CURVE('',#397,#336,#407,.T.);
#409=ORIENTED_EDGE('',*,*,#408,.T.);
#410=ORIENTED_EDGE('',*,*,#341,.T.);
#411=EDGE_LOOP('',(#395,#403,#409,#410));
#412=FACE_OUTER_BOUND('',#411,.T.);
#413=ADVANCED_FACE('',(#412),#387,.T.);
#414=CARTESIAN_POINT('',(1.1,0.15,0.16));
#415=CARTESIAN_POINT('',(1.015,0.15,0.16));
#416=CARTESIAN_POINT('',(1.1,-0.15,0.16));
#417=CARTESIAN_POINT('',(1.015,-0.15,0.16));
#418=B_SPLINE_SURFACE_WITH_KNOTS('',1,1,((#414,#416),(#415,#417)),.UNSPECIFIED.,.F.,.F.,.U.,(2,2),(2,2),(0.0,0.085),(0.0,0.3),.UNSPECIFIED.);
#419=CARTESIAN_POINT('',(1.1,0.15,0.16));
#420=VERTEX_POINT('',#419);
#421=CARTESIAN_POINT('',(1.015,0.15,0.16));
#422=DIRECTION('',(1.0,0.0,0.0));
#423=VECTOR('',#422,0.085);
#424=LINE('',#421,#423);
#425=EDGE_CURVE('',#271,#420,#424,.T.);
#426=ORIENTED_EDGE('',*,*,#425,.F.);
#427=ORIENTED_EDGE('',*,*,#293,.F.);
#428=CARTESIAN_POINT('',(1.1,-0.15,0.16));
#429=VERTEX_POINT('',#428);
#430=CARTESIAN_POINT('',(1.015,-0.15,0.16));
#431=DIRECTION('',(1.0,0.0,0.0));
#432=VECTOR('',#431,0.085);
#433=LINE('',#430,#432);
#434=EDGE_CURVE('',#281,#429,#433,.T.);
#435=ORIENTED_EDGE('',*,*,#434,.T.);
#436=CARTESIAN_POINT('',(1.1,-0.15,0.16));
#437=DIRECTION('',(0.0,1.0,0.0));
#438=VECTOR('',#437,0.3);
#439=LINE('',#436,#438);
#440=EDGE_CURVE('',#429,#420,#439,.T.);
#441=ORIENTED_EDGE('',*,*,#440,.T.);
#442=EDGE_LOOP('',(#426,#427,#435,#441));
#443=FACE_OUTER_BOUND('',#442,.T.);
#444=ADVANCED_FACE('',(#443),#418,.T.);
#445=CARTESIAN_POINT('',(0.675,0.15,-5.551115E-017));
#446=CARTESIAN_POINT('',(0.675,0.15,0.63));
#447=CARTESIAN_POINT('',(1.1,0.15,-5.551115E-017));
#448=CARTESIAN_POINT('',(1.1,0.15,0.63));
#449=B_SPLINE_SURFACE_WITH_KNOTS('',1,1,((#445,#447),(#446,#448)),.UNSPECIFIED.,.F.,.F.,.U.,(2,2),(2,2),(0.0,0.63),(0.0,0.425),.UNSPECIFIED.);
#450=ORIENTED_EDGE('',*,*,#100,.T.);
#451=ORIENTED_EDGE('',*,*,#139,.T.);
#452=ORIENTED_EDGE('',*,*,#192,.T.);
#453=ORIENTED_EDGE('',*,*,#224,.T.);
#454=ORIENTED_EDGE('',*,*,#277,.T.);
#455=ORIENTED_EDGE('',*,*,#425,.T.);
#456=CARTESIAN_POINT('',(1.1,0.15,0.16));
#457=DIRECTION('',(0.0,0.0,-1.0));
#458=VECTOR('',#457,0.16);
#459=LINE('',#456,#458);
#460=EDGE_CURVE('',#420,#389,#459,.T.);
#461=ORIENTED_EDGE('',*,*,#460,.T.);
#462=ORIENTED_EDGE('',*,*,#394,.T.);
#463=ORIENTED_EDGE('',*,*,#333,.T.);
#464=ORIENTED_EDGE('',*,*,#370,.T.);
#465=EDGE_LOOP('',(#450,#451,#452,#453,#454,#455,#461,#462,#463,#464));
#466=FACE_OUTER_BOUND('',#465,.T.);
#467=ADVANCED_FACE('',(#466),#449,.T.);
#468=CARTESIAN_POINT('',(0.675,-0.15,1.656498E-048));
#469=CARTESIAN_POINT('',(0.675,-0.15,0.63));
#470=CARTESIAN_POINT('',(1.1,-0.15,-2.996251E-048));
#471=CARTESIAN_POINT('',(1.1,-0.15,0.63));
#472=B_SPLINE_SURFACE_WITH_KNOTS('',1,1,((#468,#470),(#469,#471)),.UNSPECIFIED.,.F.,.F.,.U.,(2,2),(2,2),(0.0,0.63),(0.0,0.425),.UNSPECIFIED.);
#473=ORIENTED_EDGE('',*,*,#377,.F.);
#474=ORIENTED_EDGE('',*,*,#350,.F.);
#475=ORIENTED_EDGE('',*,*,#408,.F.);
#476=CARTESIAN_POINT('',(1.1,-0.15,0.16));
#477=DIRECTION('',(0.0,0.0,-1.0));
#478=VECTOR('',#477,0.16);
#479=LINE('',#476,#478);
#480=EDGE_CURVE('',#429,#397,#479,.T.);
#481=ORIENTED_EDGE('',*,*,#480,.F.);
#482=ORIENTED_EDGE('',*,*,#434,.F.);
#483=ORIENTED_EDGE('',*,*,#287,.F.);
#484=ORIENTED_EDGE('',*,*,#233,.F.);
#485=ORIENTED_EDGE('',*,*,#202,.F.);
#486=ORIENTED_EDGE('',*,*,#148,.F.);
#487=ORIENTED_EDGE('',*,*,#117,.F.);
#488=EDGE_LOOP('',(#473,#474,#475,#481,#482,#483,#484,#485,#486,#487));
#489=FACE_OUTER_BOUND('',#488,.T.);
#490=ADVANCED_FACE('',(#489),#472,.F.);
#491=CARTESIAN_POINT('',(1.1,0.15,-5.551115E-017));
#492=CARTESIAN_POINT('',(1.1,0.15,0.16));
#493=CARTESIAN_POINT('',(1.1,-0.15,-5.551115E-017));
#494=CARTESIAN_POINT('',(1.1,-0.15,0.16));
#495=B_SPLINE_SURFACE_WITH_KNOTS('',1,1,((#491,#493),(#492,#494)),.UNSPECIFIED.,.F.,.F.,.U.,(2,2),(2,2),(0.0,0.16),(0.0,0.3),.UNSPECIFIED.);
#496=ORIENTED_EDGE('',*,*,#460,.F.);
#497=ORIENTED_EDGE('',*,*,#440,.F.);
#498=ORIENTED_EDGE('',*,*,#480,.T.);
#499=ORIENTED_EDGE('',*,*,#402,.T.);
#500=EDGE_LOOP('',(#496,#497,#498,#499));
#501=FACE_OUTER_BOUND('',#500,.T.);
#502=ADVANCED_FACE('',(#501),#495,.T.);
#503=CLOSED_SHELL('',(#127,#158,#212,#243,#297,#360,#382,#413,#444,#467,#490,#502));
#504=MANIFOLD_SOLID_BREP('332',#503);
#505=COLOUR_RGB('9',0.75,0.75,0.75);
#506=SURFACE_STYLE_USAGE(.BOTH.,#507);
#507=SURFACE_SIDE_STYLE('NONE',(#508));
#508=SURFACE_STYLE_FILL_AREA(#509);
#509=FILL_AREA_STYLE('NONE',(#510));
#510=FILL_AREA_STYLE_COLOUR('NONE',#505);
#511=PRESENTATION_STYLE_ASSIGNMENT((#506));
#512=STYLED_ITEM('NONE',(#511),#504);
#513=MECHANICAL_DESIGN_GEOMETRIC_PRESENTATION_REPRESENTATION('NONE',(#512,#871,#1228,#1518),#28);
#514=PRESENTATION_LAYER_ASSIGNMENT('3D','None',(#504,#870,#1227,#1510));
#515=CARTESIAN_POINT('',(-0.901310903853698,-0.5,0.278880593662541));
#516=DIRECTION('',(0.0,1.0,0.0));
#517=DIRECTION('',(0.0,0.0,1.0));
#518=AXIS2_PLACEMENT_3D('',#515,#516,#517);
#519=PLANE('',#518);
#520=CARTESIAN_POINT('',(-0.775,-0.5,0.37));
#521=VERTEX_POINT('',#520);
#522=CARTESIAN_POINT('',(-0.675,-0.5,0.47));
#523=VERTEX_POINT('',#522);
#524=CARTESIAN_POINT('',(-0.675,-0.5,0.37));
#525=DIRECTION('',(1.110223E-016,1.0,-1.110223E-016));
#526=DIRECTION('',(-0.707106781186548,1.570092E-016,0.707106781186547));
#527=AXIS2_PLACEMENT_3D('',#524,#525,#526);
#528=CIRCLE('',#527,0.1);
#529=EDGE_CURVE('',#521,#523,#528,.T.);
#530=ORIENTED_EDGE('',*,*,#529,.F.);
#531=CARTESIAN_POINT('',(-0.775,-0.5,0.24));
#532=VERTEX_POINT('',#531);
#533=CARTESIAN_POINT('',(-0.775,-0.5,0.24));
#534=DIRECTION('',(0.0,0.0,1.0));
#535=VECTOR('',#534,0.13);
#536=LINE('',#533,#535);
#537=EDGE_CURVE('',#532,#521,#536,.T.);
#538=ORIENTED_EDGE('',*,*,#537,.F.);
#539=CARTESIAN_POINT('',(-1.015,-0.5,8.326673E-017));
#540=VERTEX_POINT('',#539);
#541=CARTESIAN_POINT('',(-1.015,-0.5,0.24));
#542=DIRECTION('',(-1.110223E-016,-1.0,1.110223E-016));
#543=DIRECTION('',(0.707106781186548,-1.570092E-016,-0.707106781186547));
#544=AXIS2_PLACEMENT_3D('',#541,#542,#543);
#545=CIRCLE('',#544,0.24);
#546=EDGE_CURVE('',#540,#532,#545,.T.);
#547=ORIENTED_EDGE('',*,*,#546,.F.);
#548=CARTESIAN_POINT('',(-1.1,-0.5,8.881784E-017));
#549=VERTEX_POINT('',#548);
#550=CARTESIAN_POINT('',(-1.1,-0.5,8.881784E-017));
#551=DIRECTION('',(1.0,0.0,0.0));
#552=VECTOR('',#551,0.085);
#553=LINE('',#550,#552);
#554=EDGE_CURVE('',#549,#540,#553,.T.);
#555=ORIENTED_EDGE('',*,*,#554,.F.);
#556=CARTESIAN_POINT('',(-1.1,-0.5,0.16));
#557=VERTEX_POINT('',#556);
#558=CARTESIAN_POINT('',(-1.1,-0.5,0.16));
#559=DIRECTION('',(0.0,0.0,-1.0));
#560=VECTOR('',#559,0.16);
#561=LINE('',#558,#560);
#562=EDGE_CURVE('',#557,#549,#561,.T.);
#563=ORIENTED_EDGE('',*,*,#562,.F.);
#564=CARTESIAN_POINT('',(-1.015,-0.5,0.16));
#565=VERTEX_POINT('',#564);
#566=CARTESIAN_POINT('',(-1.015,-0.5,0.16));
#567=DIRECTION('',(-1.0,0.0,0.0));
#568=VECTOR('',#567,0.085);
#569=LINE('',#566,#568);
#570=EDGE_CURVE('',#565,#557,#569,.T.);
#571=ORIENTED_EDGE('',*,*,#570,.F.);
#572=CARTESIAN_POINT('',(-0.935,-0.5,0.24));
#573=VERTEX_POINT('',#572);
#574=CARTESIAN_POINT('',(-1.015,-0.5,0.24));
#575=DIRECTION('',(1.110223E-016,1.0,-1.110223E-016));
#576=DIRECTION('',(0.707106781186548,-1.570092E-016,-0.707106781186548));
#577=AXIS2_PLACEMENT_3D('',#574,#575,#576);
#578=CIRCLE('',#577,0.08);
#579=EDGE_CURVE('',#573,#565,#578,.T.);
#580=ORIENTED_EDGE('',*,*,#579,.F.);
#581=CARTESIAN_POINT('',(-0.935,-0.5,0.37));
#582=VERTEX_POINT('',#581);
#583=CARTESIAN_POINT('',(-0.935,-0.5,0.37));
#584=DIRECTION('',(0.0,0.0,-1.0));
#585=VECTOR('',#584,0.13);
#586=LINE('',#583,#585);
#587=EDGE_CURVE('',#582,#573,#586,.T.);
#588=ORIENTED_EDGE('',*,*,#587,.F.);
#589=CARTESIAN_POINT('',(-0.675,-0.5,0.63));
#590=VERTEX_POINT('',#589);
#591=CARTESIAN_POINT('',(-0.675,-0.5,0.37));
#592=DIRECTION('',(-1.110223E-016,-1.0,1.110223E-016));
#593=DIRECTION('',(-0.707106781186547,1.570092E-016,0.707106781186547));
#594=AXIS2_PLACEMENT_3D('',#591,#592,#593);
#595=CIRCLE('',#594,0.26);
#596=EDGE_CURVE('',#590,#582,#595,.T.);
#597=ORIENTED_EDGE('',*,*,#596,.F.);
#598=CARTESIAN_POINT('',(-0.675,-0.5,0.47));
#599=DIRECTION('',(0.0,0.0,1.0));
#600=VECTOR('',#599,0.16);
#601=LINE('',#598,#600);
#602=EDGE_CURVE('',#523,#590,#601,.T.);
#603=ORIENTED_EDGE('',*,*,#602,.F.);
#604=EDGE_LOOP('',(#530,#538,#547,#555,#563,#571,#580,#588,#597,#603));
#605=FACE_OUTER_BOUND('',#604,.T.);
#606=ADVANCED_FACE('',(#605),#519,.T.);
#607=CARTESIAN_POINT('',(-1.015,-0.8,0.24));
#608=DIRECTION('',(0.0,1.0,-1.850372E-016));
#609=DIRECTION('',(0.707106781186548,-1.308410E-016,-0.707106781186547));
#610=AXIS2_PLACEMENT_3D('',#607,#608,#609);
#611=CYLINDRICAL_SURFACE('',#610,0.24);
#612=ORIENTED_EDGE('',*,*,#546,.T.);
#613=CARTESIAN_POINT('',(-0.775,-0.8,0.24));
#614=VERTEX_POINT('',#613);
#615=CARTESIAN_POINT('',(-0.775,-0.8,0.24));
#616=DIRECTION('',(0.0,1.0,0.0));
#617=VECTOR('',#616,0.3);
#618=LINE('',#615,#617);
#619=EDGE_CURVE('',#614,#532,#618,.T.);
#620=ORIENTED_EDGE('',*,*,#619,.F.);
#621=CARTESIAN_POINT('',(-1.015,-0.8,1.387779E-016));
#622=VERTEX_POINT('',#621);
#623=CARTESIAN_POINT('',(-1.015,-0.8,0.24));
#624=DIRECTION('',(9.251859E-017,1.0,-9.251859E-017));
#625=DIRECTION('',(0.707106781186548,-1.308410E-016,-0.707106781186547));
#626=AXIS2_PLACEMENT_3D('',#623,#624,#625);
#627=CIRCLE('',#626,0.24);
#628=EDGE_CURVE('',#622,#614,#627,.F.);
#629=ORIENTED_EDGE('',*,*,#628,.F.);
#630=CARTESIAN_POINT('',(-1.015,-0.8,1.387779E-016));
#631=DIRECTION('',(0.0,1.0,0.0));
#632=VECTOR('',#631,0.3);
#633=LINE('',#630,#632);
#634=EDGE_CURVE('',#622,#540,#633,.T.);
#635=ORIENTED_EDGE('',*,*,#634,.T.);
#636=EDGE_LOOP('',(#612,#620,#629,#635));
#637=FACE_OUTER_BOUND('',#636,.T.);
#638=ADVANCED_FACE('',(#637),#611,.T.);
#639=CARTESIAN_POINT('',(-1.075,-0.8,1.443290E-016));
#640=DIRECTION('',(0.0,0.0,-1.0));
#641=DIRECTION('',(-1.0,0.0,0.0));
#642=AXIS2_PLACEMENT_3D('',#639,#640,#641);
#643=PLANE('',#642);
#644=ORIENTED_EDGE('',*,*,#554,.T.);
#645=ORIENTED_EDGE('',*,*,#634,.F.);
#646=CARTESIAN_POINT('',(-1.1,-0.8,1.443290E-016));
#647=VERTEX_POINT('',#646);
#648=CARTESIAN_POINT('',(-1.1,-0.8,1.443290E-016));
#649=DIRECTION('',(1.0,0.0,0.0));
#650=VECTOR('',#649,0.085);
#651=LINE('',#648,#650);
#652=EDGE_CURVE('',#647,#622,#651,.T.);
#653=ORIENTED_EDGE('',*,*,#652,.F.);
#654=CARTESIAN_POINT('',(-1.1,-0.8,1.443290E-016));
#655=DIRECTION('',(0.0,1.0,0.0));
#656=VECTOR('',#655,0.3);
#657=LINE('',#654,#656);
#658=EDGE_CURVE('',#647,#549,#657,.T.);
#659=ORIENTED_EDGE('',*,*,#658,.T.);
#660=EDGE_LOOP('',(#644,#645,#653,#659));
#661=FACE_OUTER_BOUND('',#660,.T.);
#662=ADVANCED_FACE('',(#661),#643,.T.);
#663=CARTESIAN_POINT('',(-1.015,-0.8,0.16));
#664=DIRECTION('',(0.0,0.0,1.0));
#665=DIRECTION('',(1.0,0.0,0.0));
#666=AXIS2_PLACEMENT_3D('',#663,#664,#665);
#667=PLANE('',#666);
#668=ORIENTED_EDGE('',*,*,#570,.T.);
#669=CARTESIAN_POINT('',(-1.1,-0.8,0.16));
#670=VERTEX_POINT('',#669);
#671=CARTESIAN_POINT('',(-1.1,-0.8,0.16));
#672=DIRECTION('',(0.0,1.0,0.0));
#673=VECTOR('',#672,0.3);
#674=LINE('',#671,#673);
#675=EDGE_CURVE('',#670,#557,#674,.T.);
#676=ORIENTED_EDGE('',*,*,#675,.F.);
#677=CARTESIAN_POINT('',(-1.015,-0.8,0.16));
#678=VERTEX_POINT('',#677);
#679=CARTESIAN_POINT('',(-1.015,-0.8,0.16));
#680=DIRECTION('',(-1.0,0.0,0.0));
#681=VECTOR('',#680,0.085);
#682=LINE('',#679,#681);
#683=EDGE_CURVE('',#678,#670,#682,.T.);
#684=ORIENTED_EDGE('',*,*,#683,.F.);
#685=CARTESIAN_POINT('',(-1.015,-0.8,0.16));
#686=DIRECTION('',(0.0,1.0,0.0));
#687=VECTOR('',#686,0.3);
#688=LINE('',#685,#687);
#689=EDGE_CURVE('',#678,#565,#688,.T.);
#690=ORIENTED_EDGE('',*,*,#689,.T.);
#691=EDGE_LOOP('',(#668,#676,#684,#690));
#692=FACE_OUTER_BOUND('',#691,.T.);
#693=ADVANCED_FACE('',(#692),#667,.T.);
#694=CARTESIAN_POINT('',(-1.015,-0.8,0.24));
#695=DIRECTION('',(0.0,1.0,-1.850372E-016));
#696=DIRECTION('',(0.707106781186548,-1.308410E-016,-0.707106781186548));
#697=AXIS2_PLACEMENT_3D('',#694,#695,#696);
#698=CYLINDRICAL_SURFACE('',#697,0.08);
#699=ORIENTED_EDGE('',*,*,#579,.T.);
#700=ORIENTED_EDGE('',*,*,#689,.F.);
#701=CARTESIAN_POINT('',(-0.935,-0.8,0.24));
#702=VERTEX_POINT('',#701);
#703=CARTESIAN_POINT('',(-1.015,-0.8,0.24));
#704=DIRECTION('',(-9.251859E-017,-1.0,9.251859E-017));
#705=DIRECTION('',(0.707106781186548,-1.308410E-016,-0.707106781186548));
#706=AXIS2_PLACEMENT_3D('',#703,#704,#705);
#707=CIRCLE('',#706,0.08);
#708=EDGE_CURVE('',#702,#678,#707,.F.);
#709=ORIENTED_EDGE('',*,*,#708,.F.);
#710=CARTESIAN_POINT('',(-0.935,-0.8,0.24));
#711=DIRECTION('',(0.0,1.0,0.0));
#712=VECTOR('',#711,0.3);
#713=LINE('',#710,#712);
#714=EDGE_CURVE('',#702,#573,#713,.T.);
#715=ORIENTED_EDGE('',*,*,#714,.T.);
#716=EDGE_LOOP('',(#699,#700,#709,#715));
#717=FACE_OUTER_BOUND('',#716,.T.);
#718=ADVANCED_FACE('',(#717),#698,.F.);
#719=CARTESIAN_POINT('',(-0.935,-0.8,0.37));
#720=DIRECTION('',(-1.0,0.0,0.0));
#721=DIRECTION('',(0.0,0.0,1.0));
#722=AXIS2_PLACEMENT_3D('',#719,#720,#721);
#723=PLANE('',#722);
#724=ORIENTED_EDGE('',*,*,#587,.T.);
#725=ORIENTED_EDGE('',*,*,#714,.F.);
#726=CARTESIAN_POINT('',(-0.935,-0.8,0.37));
#727=VERTEX_POINT('',#726);
#728=CARTESIAN_POINT('',(-0.935,-0.8,0.24));
#729=DIRECTION('',(0.0,0.0,1.0));
#730=VECTOR('',#729,0.13);
#731=LINE('',#728,#730);
#732=EDGE_CURVE('',#727,#702,#731,.F.);
#733=ORIENTED_EDGE('',*,*,#732,.F.);
#734=CARTESIAN_POINT('',(-0.935,-0.8,0.37));
#735=DIRECTION('',(0.0,1.0,0.0));
#736=VECTOR('',#735,0.3);
#737=LINE('',#734,#736);
#738=EDGE_CURVE('',#727,#582,#737,.T.);
#739=ORIENTED_EDGE('',*,*,#738,.T.);
#740=EDGE_LOOP('',(#724,#725,#733,#739));
#741=FACE_OUTER_BOUND('',#740,.T.);
#742=ADVANCED_FACE('',(#741),#723,.T.);
#743=CARTESIAN_POINT('',(-0.675,-0.8,0.37));
#744=DIRECTION('',(0.0,1.0,-1.850372E-016));
#745=DIRECTION('',(-0.707106781186547,1.308410E-016,0.707106781186547));
#746=AXIS2_PLACEMENT_3D('',#743,#744,#745);
#747=CYLINDRICAL_SURFACE('',#746,0.26);
#748=ORIENTED_EDGE('',*,*,#596,.T.);
#749=ORIENTED_EDGE('',*,*,#738,.F.);
#750=CARTESIAN_POINT('',(-0.675,-0.8,0.63));
#751=VERTEX_POINT('',#750);
#752=CARTESIAN_POINT('',(-0.675,-0.8,0.37));
#753=DIRECTION('',(9.251859E-017,1.0,-9.251859E-017));
#754=DIRECTION('',(-0.707106781186547,1.308410E-016,0.707106781186547));
#755=AXIS2_PLACEMENT_3D('',#752,#753,#754);
#756=CIRCLE('',#755,0.26);
#757=EDGE_CURVE('',#751,#727,#756,.F.);
#758=ORIENTED_EDGE('',*,*,#757,.F.);
#759=CARTESIAN_POINT('',(-0.675,-0.8,0.63));
#760=DIRECTION('',(0.0,1.0,0.0));
#761=VECTOR('',#760,0.3);
#762=LINE('',#759,#761);
#763=EDGE_CURVE('',#751,#590,#762,.T.);
#764=ORIENTED_EDGE('',*,*,#763,.T.);
#765=EDGE_LOOP('',(#748,#749,#758,#764));
#766=FACE_OUTER_BOUND('',#765,.T.);
#767=ADVANCED_FACE('',(#766),#747,.T.);
#768=CARTESIAN_POINT('',(-0.675,-0.8,0.47));
#769=DIRECTION('',(1.0,0.0,0.0));
#770=DIRECTION('',(0.0,0.0,-1.0));
#771=AXIS2_PLACEMENT_3D('',#768,#769,#770);
#772=PLANE('',#771);
#773=ORIENTED_EDGE('',*,*,#602,.T.);
#774=ORIENTED_EDGE('',*,*,#763,.F.);
#775=CARTESIAN_POINT('',(-0.675,-0.8,0.47));
#776=VERTEX_POINT('',#775);
#777=CARTESIAN_POINT('',(-0.675,-0.8,0.63));
#778=DIRECTION('',(0.0,0.0,-1.0));
#779=VECTOR('',#778,0.16);
#780=LINE('',#777,#779);
#781=EDGE_CURVE('',#776,#751,#780,.F.);
#782=ORIENTED_EDGE('',*,*,#781,.F.);
#783=CARTESIAN_POINT('',(-0.675,-0.8,0.47));
#784=DIRECTION('',(0.0,1.0,0.0));
#785=VECTOR('',#784,0.3);
#786=LINE('',#783,#785);
#787=EDGE_CURVE('',#776,#523,#786,.T.);
#788=ORIENTED_EDGE('',*,*,#787,.T.);
#789=EDGE_LOOP('',(#773,#774,#782,#788));
#790=FACE_OUTER_BOUND('',#789,.T.);
#791=ADVANCED_FACE('',(#790),#772,.T.);
#792=CARTESIAN_POINT('',(-0.675,-0.8,0.37));
#793=DIRECTION('',(0.0,1.0,-1.850372E-016));
#794=DIRECTION('',(-0.707106781186548,1.308410E-016,0.707106781186547));
#795=AXIS2_PLACEMENT_3D('',#792,#793,#794);
#796=CYLINDRICAL_SURFACE('',#795,0.1);
#797=ORIENTED_EDGE('',*,*,#529,.T.);
#798=ORIENTED_EDGE('',*,*,#787,.F.);
#799=CARTESIAN_POINT('',(-0.775,-0.8,0.37));
#800=VERTEX_POINT('',#799);
#801=CARTESIAN_POINT('',(-0.675,-0.8,0.37));
#802=DIRECTION('',(-9.251859E-017,-1.0,9.251859E-017));
#803=DIRECTION('',(-0.707106781186548,1.308410E-016,0.707106781186547));
#804=AXIS2_PLACEMENT_3D('',#801,#802,#803);
#805=CIRCLE('',#804,0.1);
#806=EDGE_CURVE('',#800,#776,#805,.F.);
#807=ORIENTED_EDGE('',*,*,#806,.F.);
#808=CARTESIAN_POINT('',(-0.775,-0.8,0.37));
#809=DIRECTION('',(0.0,1.0,0.0));
#810=VECTOR('',#809,0.3);
#811=LINE('',#808,#810);
#812=EDGE_CURVE('',#800,#521,#811,.T.);
#813=ORIENTED_EDGE('',*,*,#812,.T.);
#814=EDGE_LOOP('',(#797,#798,#807,#813));
#815=FACE_OUTER_BOUND('',#814,.T.);
#816=ADVANCED_FACE('',(#815),#796,.F.);
#817=CARTESIAN_POINT('',(-0.775,-0.8,0.24));
#818=DIRECTION('',(1.0,0.0,0.0));
#819=DIRECTION('',(0.0,0.0,-1.0));
#820=AXIS2_PLACEMENT_3D('',#817,#818,#819);
#821=PLANE('',#820);
#822=ORIENTED_EDGE('',*,*,#537,.T.);
#823=ORIENTED_EDGE('',*,*,#812,.F.);
#824=CARTESIAN_POINT('',(-0.775,-0.8,0.37));
#825=DIRECTION('',(0.0,0.0,-1.0));
#826=VECTOR('',#825,0.13);
#827=LINE('',#824,#826);
#828=EDGE_CURVE('',#614,#800,#827,.F.);
#829=ORIENTED_EDGE('',*,*,#828,.F.);
#830=ORIENTED_EDGE('',*,*,#619,.T.);
#831=EDGE_LOOP('',(#822,#823,#829,#830));
#832=FACE_OUTER_BOUND('',#831,.T.);
#833=ADVANCED_FACE('',(#832),#821,.T.);
#834=CARTESIAN_POINT('',(-1.1,-0.8,0.16));
#835=DIRECTION('',(-1.0,0.0,0.0));
#836=DIRECTION('',(0.0,0.0,1.0));
#837=AXIS2_PLACEMENT_3D('',#834,#835,#836);
#838=PLANE('',#837);
#839=ORIENTED_EDGE('',*,*,#562,.T.);
#840=ORIENTED_EDGE('',*,*,#658,.F.);
#841=CARTESIAN_POINT('',(-1.1,-0.8,0.16));
#842=DIRECTION('',(0.0,0.0,-1.0));
#843=VECTOR('',#842,0.16);
#844=LINE('',#841,#843);
#845=EDGE_CURVE('',#670,#647,#844,.T.);
#846=ORIENTED_EDGE('',*,*,#845,.F.);
#847=ORIENTED_EDGE('',*,*,#675,.T.);
#848=EDGE_LOOP('',(#839,#840,#846,#847));
#849=FACE_OUTER_BOUND('',#848,.T.);
#850=ADVANCED_FACE('',(#849),#838,.T.);
#851=CARTESIAN_POINT('',(-0.926310903853698,-0.8,0.278880593662541));
#852=DIRECTION('',(0.0,1.0,0.0));
#853=DIRECTION('',(0.0,0.0,1.0));
#854=AXIS2_PLACEMENT_3D('',#851,#852,#853);
#855=PLANE('',#854);
#856=ORIENTED_EDGE('',*,*,#828,.T.);
#857=ORIENTED_EDGE('',*,*,#806,.T.);
#858=ORIENTED_EDGE('',*,*,#781,.T.);
#859=ORIENTED_EDGE('',*,*,#757,.T.);
#860=ORIENTED_EDGE('',*,*,#732,.T.);
#861=ORIENTED_EDGE('',*,*,#708,.T.);
#862=ORIENTED_EDGE('',*,*,#683,.T.);
#863=ORIENTED_EDGE('',*,*,#845,.T.);
#864=ORIENTED_EDGE('',*,*,#652,.T.);
#865=ORIENTED_EDGE('',*,*,#628,.T.);
#866=EDGE_LOOP('',(#856,#857,#858,#859,#860,#861,#862,#863,#864,#865));
#867=FACE_OUTER_BOUND('',#866,.T.);
#868=ADVANCED_FACE('',(#867),#855,.F.);
#869=CLOSED_SHELL('',(#606,#638,#662,#693,#718,#742,#767,#791,#816,#833,#850,#868));
#870=MANIFOLD_SOLID_BREP('331',#869);
#871=STYLED_ITEM('NONE',(#511),#870);
#872=CARTESIAN_POINT('',(-0.901310903853698,0.8,0.278880593662541));
#873=DIRECTION('',(0.0,1.0,0.0));
#874=DIRECTION('',(0.0,0.0,1.0));
#875=AXIS2_PLACEMENT_3D('',#872,#873,#874);
#876=PLANE('',#875);
#877=CARTESIAN_POINT('',(-0.775,0.8,0.37));
#878=VERTEX_POINT('',#877);
#879=CARTESIAN_POINT('',(-0.675,0.8,0.47));
#880=VERTEX_POINT('',#879);
#881=CARTESIAN_POINT('',(-0.675,0.8,0.37));
#882=DIRECTION('',(1.110223E-016,1.0,-1.110223E-016));
#883=DIRECTION('',(-0.707106781186548,1.570092E-016,0.707106781186547));
#884=AXIS2_PLACEMENT_3D('',#881,#882,#883);
#885=CIRCLE('',#884,0.1);
#886=EDGE_CURVE('',#878,#880,#885,.T.);
#887=ORIENTED_EDGE('',*,*,#886,.F.);
#888=CARTESIAN_POINT('',(-0.775,0.8,0.24));
#889=VERTEX_POINT('',#888);
#890=CARTESIAN_POINT('',(-0.775,0.8,0.24));
#891=DIRECTION('',(0.0,0.0,1.0));
#892=VECTOR('',#891,0.13);
#893=LINE('',#890,#892);
#894=EDGE_CURVE('',#889,#878,#893,.T.);
#895=ORIENTED_EDGE('',*,*,#894,.F.);
#896=CARTESIAN_POINT('',(-1.015,0.8,-1.942890E-016));
#897=VERTEX_POINT('',#896);
#898=CARTESIAN_POINT('',(-1.015,0.8,0.24));
#899=DIRECTION('',(-1.110223E-016,-1.0,1.110223E-016));
#900=DIRECTION('',(0.707106781186548,-1.570092E-016,-0.707106781186547));
#901=AXIS2_PLACEMENT_3D('',#898,#899,#900);
#902=CIRCLE('',#901,0.24);
#903=EDGE_CURVE('',#897,#889,#902,.T.);
#904=ORIENTED_EDGE('',*,*,#903,.F.);
#905=CARTESIAN_POINT('',(-1.1,0.8,-1.998401E-016));
#906=VERTEX_POINT('',#905);
#907=CARTESIAN_POINT('',(-1.1,0.8,-1.998401E-016));
#908=DIRECTION('',(1.0,0.0,0.0));
#909=VECTOR('',#908,0.085);
#910=LINE('',#907,#909);
#911=EDGE_CURVE('',#906,#897,#910,.T.);
#912=ORIENTED_EDGE('',*,*,#911,.F.);
#913=CARTESIAN_POINT('',(-1.1,0.8,0.16));
#914=VERTEX_POINT('',#913);
#915=CARTESIAN_POINT('',(-1.1,0.8,0.16));
#916=DIRECTION('',(0.0,0.0,-1.0));
#917=VECTOR('',#916,0.16);
#918=LINE('',#915,#917);
#919=EDGE_CURVE('',#914,#906,#918,.T.);
#920=ORIENTED_EDGE('',*,*,#919,.F.);
#921=CARTESIAN_POINT('',(-1.015,0.8,0.16));
#922=VERTEX_POINT('',#921);
#923=CARTESIAN_POINT('',(-1.015,0.8,0.16));
#924=DIRECTION('',(-1.0,0.0,0.0));
#925=VECTOR('',#924,0.085);
#926=LINE('',#923,#925);
#927=EDGE_CURVE('',#922,#914,#926,.T.);
#928=ORIENTED_EDGE('',*,*,#927,.F.);
#929=CARTESIAN_POINT('',(-0.935,0.8,0.24));
#930=VERTEX_POINT('',#929);
#931=CARTESIAN_POINT('',(-1.015,0.8,0.24));
#932=DIRECTION('',(1.110223E-016,1.0,-1.110223E-016));
#933=DIRECTION('',(0.707106781186548,-1.570092E-016,-0.707106781186548));
#934=AXIS2_PLACEMENT_3D('',#931,#932,#933);
#935=CIRCLE('',#934,0.08);
#936=EDGE_CURVE('',#930,#922,#935,.T.);
#937=ORIENTED_EDGE('',*,*,#936,.F.);
#938=CARTESIAN_POINT('',(-0.935,0.8,0.37));
#939=VERTEX_POINT('',#938);
#940=CARTESIAN_POINT('',(-0.935,0.8,0.37));
#941=DIRECTION('',(0.0,0.0,-1.0));
#942=VECTOR('',#941,0.13);
#943=LINE('',#940,#942);
#944=EDGE_CURVE('',#939,#930,#943,.T.);
#945=ORIENTED_EDGE('',*,*,#944,.F.);
#946=CARTESIAN_POINT('',(-0.675,0.8,0.63));
#947=VERTEX_POINT('',#946);
#948=CARTESIAN_POINT('',(-0.675,0.8,0.37));
#949=DIRECTION('',(-1.110223E-016,-1.0,1.110223E-016));
#950=DIRECTION('',(-0.707106781186547,1.570092E-016,0.707106781186547));
#951=AXIS2_PLACEMENT_3D('',#948,#949,#950);
#952=CIRCLE('',#951,0.26);
#953=EDGE_CURVE('',#947,#939,#952,.T.);
#954=ORIENTED_EDGE('',*,*,#953,.F.);
#955=CARTESIAN_POINT('',(-0.675,0.8,0.47));
#956=DIRECTION('',(0.0,0.0,1.0));
#957=VECTOR('',#956,0.16);
#958=LINE('',#955,#957);
#959=EDGE_CURVE('',#880,#947,#958,.T.);
#960=ORIENTED_EDGE('',*,*,#959,.F.);
#961=EDGE_LOOP('',(#887,#895,#904,#912,#920,#928,#937,#945,#954,#960));
#962=FACE_OUTER_BOUND('',#961,.T.);
#963=ADVANCED_FACE('',(#962),#876,.T.);
#964=CARTESIAN_POINT('',(-1.015,0.5,0.24));
#965=DIRECTION('',(0.0,1.0,-1.850372E-016));
#966=DIRECTION('',(0.707106781186548,-1.308410E-016,-0.707106781186547));
#967=AXIS2_PLACEMENT_3D('',#964,#965,#966);
#968=CYLINDRICAL_SURFACE('',#967,0.24);
#969=ORIENTED_EDGE('',*,*,#903,.T.);
#970=CARTESIAN_POINT('',(-0.775,0.5,0.24));
#971=VERTEX_POINT('',#970);
#972=CARTESIAN_POINT('',(-0.775,0.5,0.24));
#973=DIRECTION('',(0.0,1.0,0.0));
#974=VECTOR('',#973,0.3);
#975=LINE('',#972,#974);
#976=EDGE_CURVE('',#971,#889,#975,.T.);
#977=ORIENTED_EDGE('',*,*,#976,.F.);
#978=CARTESIAN_POINT('',(-1.015,0.5,-1.387779E-016));
#979=VERTEX_POINT('',#978);
#980=CARTESIAN_POINT('',(-1.015,0.5,0.24));
#981=DIRECTION('',(9.251859E-017,1.0,-9.251859E-017));
#982=DIRECTION('',(0.707106781186548,-1.308410E-016,-0.707106781186547));
#983=AXIS2_PLACEMENT_3D('',#980,#981,#982);
#984=CIRCLE('',#983,0.24);
#985=EDGE_CURVE('',#979,#971,#984,.F.);
#986=ORIENTED_EDGE('',*,*,#985,.F.);
#987=CARTESIAN_POINT('',(-1.015,0.5,-1.387779E-016));
#988=DIRECTION('',(0.0,1.0,0.0));
#989=VECTOR('',#988,0.3);
#990=LINE('',#987,#989);
#991=EDGE_CURVE('',#979,#897,#990,.T.);
#992=ORIENTED_EDGE('',*,*,#991,.T.);
#993=EDGE_LOOP('',(#969,#977,#986,#992));
#994=FACE_OUTER_BOUND('',#993,.T.);
#995=ADVANCED_FACE('',(#994),#968,.T.);
#996=CARTESIAN_POINT('',(-1.075,0.5,-1.443290E-016));
#997=DIRECTION('',(0.0,0.0,-1.0));
#998=DIRECTION('',(-1.0,0.0,0.0));
#999=AXIS2_PLACEMENT_3D('',#996,#997,#998);
#1000=PLANE('',#999);
#1001=ORIENTED_EDGE('',*,*,#911,.T.);
#1002=ORIENTED_EDGE('',*,*,#991,.F.);
#1003=CARTESIAN_POINT('',(-1.1,0.5,-1.443290E-016));
#1004=VERTEX_POINT('',#1003);
#1005=CARTESIAN_POINT('',(-1.1,0.5,-1.443290E-016));
#1006=DIRECTION('',(1.0,0.0,0.0));
#1007=VECTOR('',#1006,0.085);
#1008=LINE('',#1005,#1007);
#1009=EDGE_CURVE('',#1004,#979,#1008,.T.);
#1010=ORIENTED_EDGE('',*,*,#1009,.F.);
#1011=CARTESIAN_POINT('',(-1.1,0.5,-1.443290E-016));
#1012=DIRECTION('',(0.0,1.0,0.0));
#1013=VECTOR('',#1012,0.3);
#1014=LINE('',#1011,#1013);
#1015=EDGE_CURVE('',#1004,#906,#1014,.T.);
#1016=ORIENTED_EDGE('',*,*,#1015,.T.);
#1017=EDGE_LOOP('',(#1001,#1002,#1010,#1016));
#1018=FACE_OUTER_BOUND('',#1017,.T.);
#1019=ADVANCED_FACE('',(#1018),#1000,.T.);
#1020=CARTESIAN_POINT('',(-1.015,0.5,0.16));
#1021=DIRECTION('',(0.0,0.0,1.0));
#1022=DIRECTION('',(1.0,0.0,0.0));
#1023=AXIS2_PLACEMENT_3D('',#1020,#1021,#1022);
#1024=PLANE('',#1023);
#1025=ORIENTED_EDGE('',*,*,#927,.T.);
#1026=CARTESIAN_POINT('',(-1.1,0.5,0.16));
#1027=VERTEX_POINT('',#1026);
#1028=CARTESIAN_POINT('',(-1.1,0.5,0.16));
#1029=DIRECTION('',(0.0,1.0,0.0));
#1030=VECTOR('',#1029,0.3);
#1031=LINE('',#1028,#1030);
#1032=EDGE_CURVE('',#1027,#914,#1031,.T.);
#1033=ORIENTED_EDGE('',*,*,#1032,.F.);
#1034=CARTESIAN_POINT('',(-1.015,0.5,0.16));
#1035=VERTEX_POINT('',#1034);
#1036=CARTESIAN_POINT('',(-1.015,0.5,0.16));
#1037=DIRECTION('',(-1.0,0.0,0.0));
#1038=VECTOR('',#1037,0.085);
#1039=LINE('',#1036,#1038);
#1040=EDGE_CURVE('',#1035,#1027,#1039,.T.);
#1041=ORIENTED_EDGE('',*,*,#1040,.F.);
#1042=CARTESIAN_POINT('',(-1.015,0.5,0.16));
#1043=DIRECTION('',(0.0,1.0,0.0));
#1044=VECTOR('',#1043,0.3);
#1045=LINE('',#1042,#1044);
#1046=EDGE_CURVE('',#1035,#922,#1045,.T.);
#1047=ORIENTED_EDGE('',*,*,#1046,.T.);
#1048=EDGE_LOOP('',(#1025,#1033,#1041,#1047));
#1049=FACE_OUTER_BOUND('',#1048,.T.);
#1050=ADVANCED_FACE('',(#1049),#1024,.T.);
#1051=CARTESIAN_POINT('',(-1.015,0.5,0.24));
#1052=DIRECTION('',(0.0,1.0,-1.850372E-016));
#1053=DIRECTION('',(0.707106781186548,-1.308410E-016,-0.707106781186548));
#1054=AXIS2_PLACEMENT_3D('',#1051,#1052,#1053);
#1055=CYLINDRICAL_SURFACE('',#1054,0.08);
#1056=ORIENTED_EDGE('',*,*,#936,.T.);
#1057=ORIENTED_EDGE('',*,*,#1046,.F.);
#1058=CARTESIAN_POINT('',(-0.935,0.5,0.24));
#1059=VERTEX_POINT('',#1058);
#1060=CARTESIAN_POINT('',(-1.015,0.5,0.24));
#1061=DIRECTION('',(-9.251859E-017,-1.0,9.251859E-017));
#1062=DIRECTION('',(0.707106781186548,-1.308410E-016,-0.707106781186548));
#1063=AXIS2_PLACEMENT_3D('',#1060,#1061,#1062);
#1064=CIRCLE('',#1063,0.08);
#1065=EDGE_CURVE('',#1059,#1035,#1064,.F.);
#1066=ORIENTED_EDGE('',*,*,#1065,.F.);
#1067=CARTESIAN_POINT('',(-0.935,0.5,0.24));
#1068=DIRECTION('',(0.0,1.0,0.0));
#1069=VECTOR('',#1068,0.3);
#1070=LINE('',#1067,#1069);
#1071=EDGE_CURVE('',#1059,#930,#1070,.T.);
#1072=ORIENTED_EDGE('',*,*,#1071,.T.);
#1073=EDGE_LOOP('',(#1056,#1057,#1066,#1072));
#1074=FACE_OUTER_BOUND('',#1073,.T.);
#1075=ADVANCED_FACE('',(#1074),#1055,.F.);
#1076=CARTESIAN_POINT('',(-0.935,0.5,0.37));
#1077=DIRECTION('',(-1.0,0.0,0.0));
#1078=DIRECTION('',(0.0,0.0,1.0));
#1079=AXIS2_PLACEMENT_3D('',#1076,#1077,#1078);
#1080=PLANE('',#1079);
#1081=ORIENTED_EDGE('',*,*,#944,.T.);
#1082=ORIENTED_EDGE('',*,*,#1071,.F.);
#1083=CARTESIAN_POINT('',(-0.935,0.5,0.37));
#1084=VERTEX_POINT('',#1083);
#1085=CARTESIAN_POINT('',(-0.935,0.5,0.24));
#1086=DIRECTION('',(0.0,0.0,1.0));
#1087=VECTOR('',#1086,0.13);
#1088=LINE('',#1085,#1087);
#1089=EDGE_CURVE('',#1084,#1059,#1088,.F.);
#1090=ORIENTED_EDGE('',*,*,#1089,.F.);
#1091=CARTESIAN_POINT('',(-0.935,0.5,0.37));
#1092=DIRECTION('',(0.0,1.0,0.0));
#1093=VECTOR('',#1092,0.3);
#1094=LINE('',#1091,#1093);
#1095=EDGE_CURVE('',#1084,#939,#1094,.T.);
#1096=ORIENTED_EDGE('',*,*,#1095,.T.);
#1097=EDGE_LOOP('',(#1081,#1082,#1090,#1096));
#1098=FACE_OUTER_BOUND('',#1097,.T.);
#1099=ADVANCED_FACE('',(#1098),#1080,.T.);
#1100=CARTESIAN_POINT('',(-0.675,0.5,0.37));
#1101=DIRECTION('',(0.0,1.0,-1.850372E-016));
#1102=DIRECTION('',(-0.707106781186547,1.308410E-016,0.707106781186547));
#1103=AXIS2_PLACEMENT_3D('',#1100,#1101,#1102);
#1104=CYLINDRICAL_SURFACE('',#1103,0.26);
#1105=ORIENTED_EDGE('',*,*,#953,.T.);
#1106=ORIENTED_EDGE('',*,*,#1095,.F.);
#1107=CARTESIAN_POINT('',(-0.675,0.5,0.63));
#1108=VERTEX_POINT('',#1107);
#1109=CARTESIAN_POINT('',(-0.675,0.5,0.37));
#1110=DIRECTION('',(9.251859E-017,1.0,-9.251859E-017));
#1111=DIRECTION('',(-0.707106781186547,1.308410E-016,0.707106781186547));
#1112=AXIS2_PLACEMENT_3D('',#1109,#1110,#1111);
#1113=CIRCLE('',#1112,0.26);
#1114=EDGE_CURVE('',#1108,#1084,#1113,.F.);
#1115=ORIENTED_EDGE('',*,*,#1114,.F.);
#1116=CARTESIAN_POINT('',(-0.675,0.5,0.63));
#1117=DIRECTION('',(0.0,1.0,0.0));
#1118=VECTOR('',#1117,0.3);
#1119=LINE('',#1116,#1118);
#1120=EDGE_CURVE('',#1108,#947,#1119,.T.);
#1121=ORIENTED_EDGE('',*,*,#1120,.T.);
#1122=EDGE_LOOP('',(#1105,#1106,#1115,#1121));
#1123=FACE_OUTER_BOUND('',#1122,.T.);
#1124=ADVANCED_FACE('',(#1123),#1104,.T.);
#1125=CARTESIAN_POINT('',(-0.675,0.5,0.47));
#1126=DIRECTION('',(1.0,0.0,0.0));
#1127=DIRECTION('',(0.0,0.0,-1.0));
#1128=AXIS2_PLACEMENT_3D('',#1125,#1126,#1127);
#1129=PLANE('',#1128);
#1130=ORIENTED_EDGE('',*,*,#959,.T.);
#1131=ORIENTED_EDGE('',*,*,#1120,.F.);
#1132=CARTESIAN_POINT('',(-0.675,0.5,0.47));
#1133=VERTEX_POINT('',#1132);
#1134=CARTESIAN_POINT('',(-0.675,0.5,0.63));
#1135=DIRECTION('',(0.0,0.0,-1.0));
#1136=VECTOR('',#1135,0.16);
#1137=LINE('',#1134,#1136);
#1138=EDGE_CURVE('',#1133,#1108,#1137,.F.);
#1139=ORIENTED_EDGE('',*,*,#1138,.F.);
#1140=CARTESIAN_POINT('',(-0.675,0.5,0.47));
#1141=DIRECTION('',(0.0,1.0,0.0));
#1142=VECTOR('',#1141,0.3);
#1143=LINE('',#1140,#1142);
#1144=EDGE_CURVE('',#1133,#880,#1143,.T.);
#1145=ORIENTED_EDGE('',*,*,#1144,.T.);
#1146=EDGE_LOOP('',(#1130,#1131,#1139,#1145));
#1147=FACE_OUTER_BOUND('',#1146,.T.);
#1148=ADVANCED_FACE('',(#1147),#1129,.T.);
#1149=CARTESIAN_POINT('',(-0.675,0.5,0.37));
#1150=DIRECTION('',(0.0,1.0,-1.850372E-016));
#1151=DIRECTION('',(-0.707106781186548,1.308410E-016,0.707106781186547));
#1152=AXIS2_PLACEMENT_3D('',#1149,#1150,#1151);
#1153=CYLINDRICAL_SURFACE('',#1152,0.1);
#1154=ORIENTED_EDGE('',*,*,#886,.T.);
#1155=ORIENTED_EDGE('',*,*,#1144,.F.);
#1156=CARTESIAN_POINT('',(-0.775,0.5,0.37));
#1157=VERTEX_POINT('',#1156);
#1158=CARTESIAN_POINT('',(-0.675,0.5,0.37));
#1159=DIRECTION('',(-9.251859E-017,-1.0,9.251859E-017));
#1160=DIRECTION('',(-0.707106781186548,1.308410E-016,0.707106781186547));
#1161=AXIS2_PLACEMENT_3D('',#1158,#1159,#1160);
#1162=CIRCLE('',#1161,0.1);
#1163=EDGE_CURVE('',#1157,#1133,#1162,.F.);
#1164=ORIENTED_EDGE('',*,*,#1163,.F.);
#1165=CARTESIAN_POINT('',(-0.775,0.5,0.37));
#1166=DIRECTION('',(0.0,1.0,0.0));
#1167=VECTOR('',#1166,0.3);
#1168=LINE('',#1165,#1167);
#1169=EDGE_CURVE('',#1157,#878,#1168,.T.);
#1170=ORIENTED_EDGE('',*,*,#1169,.T.);
#1171=EDGE_LOOP('',(#1154,#1155,#1164,#1170));
#1172=FACE_OUTER_BOUND('',#1171,.T.);
#1173=ADVANCED_FACE('',(#1172),#1153,.F.);
#1174=CARTESIAN_POINT('',(-0.775,0.5,0.24));
#1175=DIRECTION('',(1.0,0.0,0.0));
#1176=DIRECTION('',(0.0,0.0,-1.0));
#1177=AXIS2_PLACEMENT_3D('',#1174,#1175,#1176);
#1178=PLANE('',#1177);
#1179=ORIENTED_EDGE('',*,*,#894,.T.);
#1180=ORIENTED_EDGE('',*,*,#1169,.F.);
#1181=CARTESIAN_POINT('',(-0.775,0.5,0.37));
#1182=DIRECTION('',(0.0,0.0,-1.0));
#1183=VECTOR('',#1182,0.13);
#1184=LINE('',#1181,#1183);
#1185=EDGE_CURVE('',#971,#1157,#1184,.F.);
#1186=ORIENTED_EDGE('',*,*,#1185,.F.);
#1187=ORIENTED_EDGE('',*,*,#976,.T.);
#1188=EDGE_LOOP('',(#1179,#1180,#1186,#1187));
#1189=FACE_OUTER_BOUND('',#1188,.T.);
#1190=ADVANCED_FACE('',(#1189),#1178,.T.);
#1191=CARTESIAN_POINT('',(-1.1,0.5,0.16));
#1192=DIRECTION('',(-1.0,0.0,0.0));
#1193=DIRECTION('',(0.0,0.0,1.0));
#1194=AXIS2_PLACEMENT_3D('',#1191,#1192,#1193);
#1195=PLANE('',#1194);
#1196=ORIENTED_EDGE('',*,*,#919,.T.);
#1197=ORIENTED_EDGE('',*,*,#1015,.F.);
#1198=CARTESIAN_POINT('',(-1.1,0.5,0.16));
#1199=DIRECTION('',(0.0,0.0,-1.0));
#1200=VECTOR('',#1199,0.16);
#1201=LINE('',#1198,#1200);
#1202=EDGE_CURVE('',#1027,#1004,#1201,.T.);
#1203=ORIENTED_EDGE('',*,*,#1202,.F.);
#1204=ORIENTED_EDGE('',*,*,#1032,.T.);
#1205=EDGE_LOOP('',(#1196,#1197,#1203,#1204));
#1206=FACE_OUTER_BOUND('',#1205,.T.);
#1207=ADVANCED_FACE('',(#1206),#1195,.T.);
#1208=CARTESIAN_POINT('',(-0.926310903853698,0.5,0.278880593662541));
#1209=DIRECTION('',(0.0,1.0,0.0));
#1210=DIRECTION('',(0.0,0.0,1.0));
#1211=AXIS2_PLACEMENT_3D('',#1208,#1209,#1210);
#1212=PLANE('',#1211);
#1213=ORIENTED_EDGE('',*,*,#1185,.T.);
#1214=ORIENTED_EDGE('',*,*,#1163,.T.);
#1215=ORIENTED_EDGE('',*,*,#1138,.T.);
#1216=ORIENTED_EDGE('',*,*,#1114,.T.);
#1217=ORIENTED_EDGE('',*,*,#1089,.T.);
#1218=ORIENTED_EDGE('',*,*,#1065,.T.);
#1219=ORIENTED_EDGE('',*,*,#1040,.T.);
#1220=ORIENTED_EDGE('',*,*,#1202,.T.);
#1221=ORIENTED_EDGE('',*,*,#1009,.T.);
#1222=ORIENTED_EDGE('',*,*,#985,.T.);
#1223=EDGE_LOOP('',(#1213,#1214,#1215,#1216,#1217,#1218,#1219,#1220,#1221,#1222));
#1224=FACE_OUTER_BOUND('',#1223,.T.);
#1225=ADVANCED_FACE('',(#1224),#1212,.F.);
#1226=CLOSED_SHELL('',(#963,#995,#1019,#1050,#1075,#1099,#1124,#1148,#1173,#1190,#1207,#1225));
#1227=MANIFOLD_SOLID_BREP('330',#1226);
#1228=STYLED_ITEM('NONE',(#511),#1227);
#1229=CARTESIAN_POINT('',(0.642291256375634,-1.1,1.1));
#1230=DIRECTION('',(0.0,0.0,1.0));
#1231=DIRECTION('',(1.0,0.0,0.0));
#1232=AXIS2_PLACEMENT_3D('',#1229,#1230,#1231);
#1233=PLANE('',#1232);
#1234=CARTESIAN_POINT('',(0.617291256375634,1.100000000000001,1.1));
#1235=VERTEX_POINT('',#1234);
#1236=CARTESIAN_POINT('',(-0.617291256375635,1.100000000000001,1.1));
#1237=VERTEX_POINT('',#1236);
#1238=CARTESIAN_POINT('',(0.617291256375634,1.100000000000001,1.1));
#1239=DIRECTION('',(-1.0,0.0,0.0));
#1240=VECTOR('',#1239,1.234582512751269);
#1241=LINE('',#1238,#1240);
#1242=EDGE_CURVE('',#1235,#1237,#1241,.T.);
#1243=ORIENTED_EDGE('',*,*,#1242,.T.);
#1244=CARTESIAN_POINT('',(-0.617291256375635,-1.1,1.1));
#1245=VERTEX_POINT('',#1244);
#1246=CARTESIAN_POINT('',(-0.617291256375635,1.1,1.1));
#1247=DIRECTION('',(0.0,-1.0,0.0));
#1248=VECTOR('',#1247,2.2);
#1249=LINE('',#1246,#1248);
#1250=EDGE_CURVE('',#1245,#1237,#1249,.F.);
#1251=ORIENTED_EDGE('',*,*,#1250,.F.);
#1252=CARTESIAN_POINT('',(0.617291256375634,-1.1,1.1));
#1253=VERTEX_POINT('',#1252);
#1254=CARTESIAN_POINT('',(-0.617291256375635,-1.1,1.1));
#1255=DIRECTION('',(1.0,0.0,0.0));
#1256=VECTOR('',#1255,1.234582512751269);
#1257=LINE('',#1254,#1256);
#1258=EDGE_CURVE('',#1245,#1253,#1257,.T.);
#1259=ORIENTED_EDGE('',*,*,#1258,.T.);
#1260=CARTESIAN_POINT('',(0.617291256375634,-1.1,1.1));
#1261=DIRECTION('',(0.0,1.0,0.0));
#1262=VECTOR('',#1261,2.2);
#1263=LINE('',#1260,#1262);
#1264=EDGE_CURVE('',#1253,#1235,#1263,.T.);
#1265=ORIENTED_EDGE('',*,*,#1264,.T.);
#1266=EDGE_LOOP('',(#1243,#1251,#1259,#1265));
#1267=FACE_OUTER_BOUND('',#1266,.T.);
#1268=ADVANCED_FACE('',(#1267),#1233,.T.);
#1269=CARTESIAN_POINT('',(-0.675,-1.1,0.47));
#1270=DIRECTION('',(-0.992546151641322,-2.460039E-017,-0.121869343405148));
#1271=DIRECTION('',(-0.121869343405148,0.0,0.992546151641322));
#1272=AXIS2_PLACEMENT_3D('',#1269,#1270,#1271);
#1273=PLANE('',#1272);
#1274=CARTESIAN_POINT('',(-0.675,1.1,0.47));
#1275=VERTEX_POINT('',#1274);
#1276=CARTESIAN_POINT('',(-0.617291256375635,1.1,-2.220446E-016));
#1277=VERTEX_POINT('',#1276);
#1278=CARTESIAN_POINT('',(-0.675,1.1,0.47));
#1279=DIRECTION('',(0.121869343405148,0.0,-0.992546151641322));
#1280=VECTOR('',#1279,0.473529617965659);
#1281=LINE('',#1278,#1280);
#1282=EDGE_CURVE('',#1275,#1277,#1281,.T.);
#1283=ORIENTED_EDGE('',*,*,#1282,.T.);
#1284=CARTESIAN_POINT('',(-0.617291256375635,-1.1,2.220446E-016));
#1285=VERTEX_POINT('',#1284);
#1286=CARTESIAN_POINT('',(-0.617291256375635,-1.1,2.220446E-016));
#1287=DIRECTION('',(0.0,1.0,0.0));
#1288=VECTOR('',#1287,2.2);
#1289=LINE('',#1286,#1288);
#1290=EDGE_CURVE('',#1285,#1277,#1289,.T.);
#1291=ORIENTED_EDGE('',*,*,#1290,.F.);
#1292=CARTESIAN_POINT('',(-0.675,-1.1,0.47));
#1293=VERTEX_POINT('',#1292);
#1294=CARTESIAN_POINT('',(-0.617291256375635,-1.1,2.220446E-016));
#1295=DIRECTION('',(-0.121869343405148,0.0,0.992546151641322));
#1296=VECTOR('',#1295,0.473529617965659);
#1297=LINE('',#1294,#1296);
#1298=EDGE_CURVE('',#1285,#1293,#1297,.T.);
#1299=ORIENTED_EDGE('',*,*,#1298,.T.);
#1300=CARTESIAN_POINT('',(-0.675,-1.1,0.47));
#1301=DIRECTION('',(0.0,1.0,0.0));
#1302=VECTOR('',#1301,2.2);
#1303=LINE('',#1300,#1302);
#1304=EDGE_CURVE('',#1293,#1275,#1303,.T.);
#1305=ORIENTED_EDGE('',*,*,#1304,.T.);
#1306=EDGE_LOOP('',(#1283,#1291,#1299,#1305));
#1307=FACE_OUTER_BOUND('',#1306,.T.);
#1308=ADVANCED_FACE('',(#1307),#1273,.T.);
#1309=CARTESIAN_POINT('',(-0.675,-1.1,0.63));
#1310=DIRECTION('',(-1.0,0.0,0.0));
#1311=DIRECTION('',(0.0,0.0,1.0));
#1312=AXIS2_PLACEMENT_3D('',#1309,#1310,#1311);
#1313=PLANE('',#1312);
#1314=CARTESIAN_POINT('',(-0.675,1.1,0.63));
#1315=VERTEX_POINT('',#1314);
#1316=CARTESIAN_POINT('',(-0.675,1.1,0.63));
#1317=DIRECTION('',(0.0,0.0,-1.0));
#1318=VECTOR('',#1317,0.16);
#1319=LINE('',#1316,#1318);
#1320=EDGE_CURVE('',#1315,#1275,#1319,.T.);
#1321=ORIENTED_EDGE('',*,*,#1320,.T.);
#1322=ORIENTED_EDGE('',*,*,#1304,.F.);
#1323=CARTESIAN_POINT('',(-0.675,-1.1,0.63));
#1324=VERTEX_POINT('',#1323);
#1325=CARTESIAN_POINT('',(-0.675,-1.1,0.47));
#1326=DIRECTION('',(0.0,0.0,1.0));
#1327=VECTOR('',#1326,0.16);
#1328=LINE('',#1325,#1327);
#1329=EDGE_CURVE('',#1293,#1324,#1328,.T.);
#1330=ORIENTED_EDGE('',*,*,#1329,.T.);
#1331=CARTESIAN_POINT('',(-0.675,-1.1,0.63));
#1332=DIRECTION('',(0.0,1.0,0.0));
#1333=VECTOR('',#1332,2.2);
#1334=LINE('',#1331,#1333);
#1335=EDGE_CURVE('',#1324,#1315,#1334,.T.);
#1336=ORIENTED_EDGE('',*,*,#1335,.T.);
#1337=EDGE_LOOP('',(#1321,#1322,#1330,#1336));
#1338=FACE_OUTER_BOUND('',#1337,.T.);
#1339=ADVANCED_FACE('',(#1338),#1313,.T.);
#1340=CARTESIAN_POINT('',(-0.617291256375635,-1.1,1.1));
#1341=DIRECTION('',(-0.992546151641322,2.460039E-017,0.121869343405148));
#1342=DIRECTION('',(0.121869343405148,0.0,0.992546151641322));
#1343=AXIS2_PLACEMENT_3D('',#1340,#1341,#1342);
#1344=PLANE('',#1343);
#1345=CARTESIAN_POINT('',(-0.617291256375635,1.1,1.1));
#1346=DIRECTION('',(-0.121869343405148,0.0,-0.992546151641322));
#1347=VECTOR('',#1346,0.473529617965659);
#1348=LINE('',#1345,#1347);
#1349=EDGE_CURVE('',#1237,#1315,#1348,.T.);
#1350=ORIENTED_EDGE('',*,*,#1349,.T.);
#1351=ORIENTED_EDGE('',*,*,#1335,.F.);
#1352=CARTESIAN_POINT('',(-0.675,-1.1,0.63));
#1353=DIRECTION('',(0.121869343405148,0.0,0.992546151641322));
#1354=VECTOR('',#1353,0.473529617965659);
#1355=LINE('',#1352,#1354);
#1356=EDGE_CURVE('',#1324,#1245,#1355,.T.);
#1357=ORIENTED_EDGE('',*,*,#1356,.T.);
#1358=ORIENTED_EDGE('',*,*,#1250,.T.);
#1359=EDGE_LOOP('',(#1350,#1351,#1357,#1358));
#1360=FACE_OUTER_BOUND('',#1359,.T.);
#1361=ADVANCED_FACE('',(#1360),#1344,.T.);
#1362=CARTESIAN_POINT('',(-0.642291256375635,-1.1,2.220446E-016));
#1363=DIRECTION('',(0.0,0.0,-1.0));
#1364=DIRECTION('',(-1.0,0.0,0.0));
#1365=AXIS2_PLACEMENT_3D('',#1362,#1363,#1364);
#1366=PLANE('',#1365);
#1367=CARTESIAN_POINT('',(0.617291256375635,1.1,-2.220446E-016));
#1368=VERTEX_POINT('',#1367);
#1369=CARTESIAN_POINT('',(-0.617291256375635,1.1,-2.220446E-016));
#1370=DIRECTION('',(1.0,0.0,0.0));
#1371=VECTOR('',#1370,1.23458251275127);
#1372=LINE('',#1369,#1371);
#1373=EDGE_CURVE('',#1277,#1368,#1372,.T.);
#1374=ORIENTED_EDGE('',*,*,#1373,.T.);
#1375=CARTESIAN_POINT('',(0.617291256375635,-1.1,2.220446E-016));
#1376=VERTEX_POINT('',#1375);
#1377=CARTESIAN_POINT('',(0.617291256375635,-1.1,2.220446E-016));
#1378=DIRECTION('',(0.0,1.0,0.0));
#1379=VECTOR('',#1378,2.2);
#1380=LINE('',#1377,#1379);
#1381=EDGE_CURVE('',#1376,#1368,#1380,.T.);
#1382=ORIENTED_EDGE('',*,*,#1381,.F.);
#1383=CARTESIAN_POINT('',(0.617291256375635,-1.1,2.220446E-016));
#1384=DIRECTION('',(-1.0,0.0,0.0));
#1385=VECTOR('',#1384,1.23458251275127);
#1386=LINE('',#1383,#1385);
#1387=EDGE_CURVE('',#1376,#1285,#1386,.T.);
#1388=ORIENTED_EDGE('',*,*,#1387,.T.);
#1389=ORIENTED_EDGE('',*,*,#1290,.T.);
#1390=EDGE_LOOP('',(#1374,#1382,#1388,#1389));
#1391=FACE_OUTER_BOUND('',#1390,.T.);
#1392=ADVANCED_FACE('',(#1391),#1366,.T.);
#1393=CARTESIAN_POINT('',(-6.938894E-018,1.1,0.55));
#1394=DIRECTION('',(0.0,1.0,0.0));
#1395=DIRECTION('',(0.0,0.0,1.0));
#1396=AXIS2_PLACEMENT_3D('',#1393,#1394,#1395);
#1397=PLANE('',#1396);
#1398=ORIENTED_EDGE('',*,*,#1320,.F.);
#1399=ORIENTED_EDGE('',*,*,#1349,.F.);
#1400=ORIENTED_EDGE('',*,*,#1242,.F.);
#1401=CARTESIAN_POINT('',(0.675,1.1,0.63));
#1402=VERTEX_POINT('',#1401);
#1403=CARTESIAN_POINT('',(0.675,1.100000000000001,0.63));
#1404=DIRECTION('',(-0.121869343405148,0.0,0.992546151641322));
#1405=VECTOR('',#1404,0.473529617965659);
#1406=LINE('',#1403,#1405);
#1407=EDGE_CURVE('',#1402,#1235,#1406,.T.);
#1408=ORIENTED_EDGE('',*,*,#1407,.F.);
#1409=CARTESIAN_POINT('',(0.675,1.1,0.47));
#1410=VERTEX_POINT('',#1409);
#1411=CARTESIAN_POINT('',(0.675,1.1,0.47));
#1412=DIRECTION('',(0.0,0.0,1.0));
#1413=VECTOR('',#1412,0.16);
#1414=LINE('',#1411,#1413);
#1415=EDGE_CURVE('',#1410,#1402,#1414,.T.);
#1416=ORIENTED_EDGE('',*,*,#1415,.F.);
#1417=CARTESIAN_POINT('',(0.617291256375635,1.1,-1.665335E-016));
#1418=DIRECTION('',(0.121869343405148,0.0,0.992546151641322));
#1419=VECTOR('',#1418,0.473529617965659);
#1420=LINE('',#1417,#1419);
#1421=EDGE_CURVE('',#1368,#1410,#1420,.T.);
#1422=ORIENTED_EDGE('',*,*,#1421,.F.);
#1423=ORIENTED_EDGE('',*,*,#1373,.F.);
#1424=ORIENTED_EDGE('',*,*,#1282,.F.);
#1425=EDGE_LOOP('',(#1398,#1399,#1400,#1408,#1416,#1422,#1423,#1424));
#1426=FACE_OUTER_BOUND('',#1425,.T.);
#1427=ADVANCED_FACE('',(#1426),#1397,.T.);
#1428=CARTESIAN_POINT('',(0.675,-1.1,0.63));
#1429=DIRECTION('',(0.992546151641322,2.460039E-017,0.121869343405148));
#1430=DIRECTION('',(0.121869343405148,0.0,-0.992546151641322));
#1431=AXIS2_PLACEMENT_3D('',#1428,#1429,#1430);
#1432=PLANE('',#1431);
#1433=ORIENTED_EDGE('',*,*,#1407,.T.);
#1434=ORIENTED_EDGE('',*,*,#1264,.F.);
#1435=CARTESIAN_POINT('',(0.675,-1.1,0.63));
#1436=VERTEX_POINT('',#1435);
#1437=CARTESIAN_POINT('',(0.617291256375634,-1.1,1.1));
#1438=DIRECTION('',(0.121869343405148,0.0,-0.992546151641322));
#1439=VECTOR('',#1438,0.473529617965659);
#1440=LINE('',#1437,#1439);
#1441=EDGE_CURVE('',#1253,#1436,#1440,.T.);
#1442=ORIENTED_EDGE('',*,*,#1441,.T.);
#1443=CARTESIAN_POINT('',(0.675,-1.1,0.63));
#1444=DIRECTION('',(0.0,1.0,0.0));
#1445=VECTOR('',#1444,2.2);
#1446=LINE('',#1443,#1445);
#1447=EDGE_CURVE('',#1436,#1402,#1446,.T.);
#1448=ORIENTED_EDGE('',*,*,#1447,.T.);
#1449=EDGE_LOOP('',(#1433,#1434,#1442,#1448));
#1450=FACE_OUTER_BOUND('',#1449,.T.);
#1451=ADVANCED_FACE('',(#1450),#1432,.T.);
#1452=CARTESIAN_POINT('',(0.675,-1.1,0.47));
#1453=DIRECTION('',(1.0,0.0,0.0));
#1454=DIRECTION('',(0.0,0.0,-1.0));
#1455=AXIS2_PLACEMENT_3D('',#1452,#1453,#1454);
#1456=PLANE('',#1455);
#1457=ORIENTED_EDGE('',*,*,#1415,.T.);
#1458=ORIENTED_EDGE('',*,*,#1447,.F.);
#1459=CARTESIAN_POINT('',(0.675,-1.1,0.47));
#1460=VERTEX_POINT('',#1459);
#1461=CARTESIAN_POINT('',(0.675,-1.1,0.63));
#1462=DIRECTION('',(0.0,0.0,-1.0));
#1463=VECTOR('',#1462,0.16);
#1464=LINE('',#1461,#1463);
#1465=EDGE_CURVE('',#1436,#1460,#1464,.T.);
#1466=ORIENTED_EDGE('',*,*,#1465,.T.);
#1467=CARTESIAN_POINT('',(0.675,-1.1,0.47));
#1468=DIRECTION('',(0.0,1.0,0.0));
#1469=VECTOR('',#1468,2.2);
#1470=LINE('',#1467,#1469);
#1471=EDGE_CURVE('',#1460,#1410,#1470,.T.);
#1472=ORIENTED_EDGE('',*,*,#1471,.T.);
#1473=EDGE_LOOP('',(#1457,#1458,#1466,#1472));
#1474=FACE_OUTER_BOUND('',#1473,.T.);
#1475=ADVANCED_FACE('',(#1474),#1456,.T.);
#1476=CARTESIAN_POINT('',(-1.179612E-016,-1.1,0.55));
#1477=DIRECTION('',(0.0,1.0,0.0));
#1478=DIRECTION('',(0.0,0.0,1.0));
#1479=AXIS2_PLACEMENT_3D('',#1476,#1477,#1478);
#1480=PLANE('',#1479);
#1481=ORIENTED_EDGE('',*,*,#1356,.F.);
#1482=ORIENTED_EDGE('',*,*,#1329,.F.);
#1483=ORIENTED_EDGE('',*,*,#1298,.F.);
#1484=ORIENTED_EDGE('',*,*,#1387,.F.);
#1485=CARTESIAN_POINT('',(0.675,-1.1,0.47));
#1486=DIRECTION('',(-0.121869343405148,0.0,-0.992546151641322));
#1487=VECTOR('',#1486,0.473529617965659);
#1488=LINE('',#1485,#1487);
#1489=EDGE_CURVE('',#1460,#1376,#1488,.T.);
#1490=ORIENTED_EDGE('',*,*,#1489,.F.);
#1491=ORIENTED_EDGE('',*,*,#1465,.F.);
#1492=ORIENTED_EDGE('',*,*,#1441,.F.);
#1493=ORIENTED_EDGE('',*,*,#1258,.F.);
#1494=EDGE_LOOP('',(#1481,#1482,#1483,#1484,#1490,#1491,#1492,#1493));
#1495=FACE_OUTER_BOUND('',#1494,.T.);
#1496=ADVANCED_FACE('',(#1495),#1480,.F.);
#1497=CARTESIAN_POINT('',(0.617291256375635,-1.1,2.220446E-016));
#1498=DIRECTION('',(0.992546151641322,-2.460039E-017,-0.121869343405148));
#1499=DIRECTION('',(-0.121869343405148,0.0,-0.992546151641322));
#1500=AXIS2_PLACEMENT_3D('',#1497,#1498,#1499);
#1501=PLANE('',#1500);
#1502=ORIENTED_EDGE('',*,*,#1421,.T.);
#1503=ORIENTED_EDGE('',*,*,#1471,.F.);
#1504=ORIENTED_EDGE('',*,*,#1489,.T.);
#1505=ORIENTED_EDGE('',*,*,#1381,.T.);
#1506=EDGE_LOOP('',(#1502,#1503,#1504,#1505));
#1507=FACE_OUTER_BOUND('',#1506,.T.);
#1508=ADVANCED_FACE('',(#1507),#1501,.T.);
#1509=CLOSED_SHELL('',(#1268,#1308,#1339,#1361,#1392,#1427,#1451,#1475,#1496,#1508));
#1510=MANIFOLD_SOLID_BREP('329',#1509);
#1511=COLOUR_RGB('250',0.33,0.33,0.33);
#1512=SURFACE_STYLE_USAGE(.BOTH.,#1513);
#1513=SURFACE_SIDE_STYLE('NONE',(#1514));
#1514=SURFACE_STYLE_FILL_AREA(#1515);
#1515=FILL_AREA_STYLE('NONE',(#1516));
#1516=FILL_AREA_STYLE_COLOUR('NONE',#1511);
#1517=PRESENTATION_STYLE_ASSIGNMENT((#1512));
#1518=STYLED_ITEM('NONE',(#1517),#1510);
#1519=ADVANCED_BREP_SHAPE_REPRESENTATION('ABSR1',(#504,#870,#1227,#1510),#28);
#1520=SHAPE_REPRESENTATION_RELATIONSHIP('SRRPL1','',#1519,#62);
ENDSEC;
END-ISO-10303-21;
