ISO-10303-21;
HEADER;
/* Generated by software containing ST-Developer
 * from STEP Tools, Inc. (www.steptools.com) 
 */

FILE_DESCRIPTION(
/* description */ (''),
/* implementation_level */ '2;1');

FILE_NAME(
/* name */ 
'G:\\Applications\\Altium\\CernLib\\StepLib\\SOURIAU_UT07104P21E8T_NUT.
stp',
/* time_stamp */ '2016-03-03T11:50:04+01:00',
/* author */ ('riccim'),
/* organization */ (''),
/* preprocessor_version */ 'ST-DEVELOPER v15.5',
/* originating_system */ 'AutoCAD Mechanical',
/* authorisation */ '');

FILE_SCHEMA (('AUTOMOTIVE_DESIGN { 1 0 10303 214 3 1 1 }'));
ENDSEC;

DATA;
#10=MECHANICAL_DESIGN_GEOMETRIC_PRESENTATION_REPRESENTATION('',(#17),#785);
#11=DIMENSIONAL_EXPONENTS(0.,0.,0.,0.,0.,0.,0.);
#12=(
CONVERSION_BASED_UNIT('degree',#13)
NAMED_UNIT(#11)
PLANE_ANGLE_UNIT()
);
#13=PLANE_ANGLE_MEASURE_WITH_UNIT(PLANE_ANGLE_MEASURE(0.01745329252),#788);
#14=PRESENTATION_LAYER_ASSIGNMENT('3D','',(#431));
#15=SHAPE_REPRESENTATION_RELATIONSHIP('SRR','None',#791,#16);
#16=ADVANCED_BREP_SHAPE_REPRESENTATION($,(#431),#784);
#17=STYLED_ITEM($,(#801),#431);
#18=FACE_BOUND($,#112,.T.);
#19=FACE_BOUND($,#114,.T.);
#20=FACE_BOUND($,#116,.T.);
#21=CYLINDRICAL_SURFACE($,#469,11.);
#22=CYLINDRICAL_SURFACE($,#471,11.);
#23=CYLINDRICAL_SURFACE($,#473,11.);
#24=CYLINDRICAL_SURFACE($,#475,11.);
#25=CYLINDRICAL_SURFACE($,#479,11.);
#26=CYLINDRICAL_SURFACE($,#480,11.);
#27=CYLINDRICAL_SURFACE($,#481,8.2);
#28=LINE($,#674,#40);
#29=LINE($,#676,#41);
#30=LINE($,#733,#42);
#31=LINE($,#739,#43);
#32=LINE($,#752,#44);
#33=LINE($,#756,#45);
#34=LINE($,#758,#46);
#35=LINE($,#760,#47);
#36=LINE($,#762,#48);
#37=LINE($,#764,#49);
#38=LINE($,#766,#50);
#39=LINE($,#768,#51);
#40=VECTOR($,#520,2.89410160271132);
#41=VECTOR($,#521,2.89410160271132);
#42=VECTOR($,#554,2.89410160271136);
#43=VECTOR($,#555,2.89410160271104);
#44=VECTOR($,#564,2.89410160271332);
#45=VECTOR($,#565,2.89410160271364);
#46=VECTOR($,#568,2.89410160271132);
#47=VECTOR($,#571,2.89410160271132);
#48=VECTOR($,#574,2.89410160271136);
#49=VECTOR($,#577,2.89410160271104);
#50=VECTOR($,#580,2.89410160271186);
#51=VECTOR($,#583,2.89410160271218);
#52=PLANE($,#448);
#53=PLANE($,#464);
#54=PLANE($,#468);
#55=PLANE($,#470);
#56=PLANE($,#472);
#57=PLANE($,#474);
#58=PLANE($,#484);
#59=PLANE($,#485);
#60=FACE_OUTER_BOUND($,#87,.T.);
#61=FACE_OUTER_BOUND($,#88,.T.);
#62=FACE_OUTER_BOUND($,#89,.T.);
#63=FACE_OUTER_BOUND($,#90,.T.);
#64=FACE_OUTER_BOUND($,#91,.T.);
#65=FACE_OUTER_BOUND($,#92,.T.);
#66=FACE_OUTER_BOUND($,#93,.T.);
#67=FACE_OUTER_BOUND($,#94,.T.);
#68=FACE_OUTER_BOUND($,#95,.T.);
#69=FACE_OUTER_BOUND($,#96,.T.);
#70=FACE_OUTER_BOUND($,#97,.T.);
#71=FACE_OUTER_BOUND($,#98,.T.);
#72=FACE_OUTER_BOUND($,#99,.T.);
#73=FACE_OUTER_BOUND($,#100,.T.);
#74=FACE_OUTER_BOUND($,#101,.T.);
#75=FACE_OUTER_BOUND($,#102,.T.);
#76=FACE_OUTER_BOUND($,#103,.T.);
#77=FACE_OUTER_BOUND($,#104,.T.);
#78=FACE_OUTER_BOUND($,#105,.T.);
#79=FACE_OUTER_BOUND($,#106,.T.);
#80=FACE_OUTER_BOUND($,#107,.T.);
#81=FACE_OUTER_BOUND($,#108,.T.);
#82=FACE_OUTER_BOUND($,#109,.T.);
#83=FACE_OUTER_BOUND($,#110,.T.);
#84=FACE_OUTER_BOUND($,#111,.T.);
#85=FACE_OUTER_BOUND($,#113,.T.);
#86=FACE_OUTER_BOUND($,#115,.T.);
#87=EDGE_LOOP($,(#267,#268,#269,#270));
#88=EDGE_LOOP($,(#271,#272,#273,#274));
#89=EDGE_LOOP($,(#275,#276,#277,#278));
#90=EDGE_LOOP($,(#279,#280,#281,#282));
#91=EDGE_LOOP($,(#283,#284,#285,#286));
#92=EDGE_LOOP($,(#287,#288,#289,#290,#291,#292));
#93=EDGE_LOOP($,(#293,#294,#295,#296));
#94=EDGE_LOOP($,(#297,#298,#299,#300));
#95=EDGE_LOOP($,(#301,#302,#303,#304));
#96=EDGE_LOOP($,(#305,#306,#307,#308));
#97=EDGE_LOOP($,(#309,#310,#311,#312));
#98=EDGE_LOOP($,(#313,#314,#315,#316,#317,#318));
#99=EDGE_LOOP($,(#319,#320,#321,#322));
#100=EDGE_LOOP($,(#323,#324,#325,#326,#327,#328));
#101=EDGE_LOOP($,(#329,#330,#331,#332));
#102=EDGE_LOOP($,(#333,#334,#335,#336,#337,#338));
#103=EDGE_LOOP($,(#339,#340,#341,#342));
#104=EDGE_LOOP($,(#343,#344,#345,#346,#347,#348));
#105=EDGE_LOOP($,(#349,#350,#351,#352));
#106=EDGE_LOOP($,(#353,#354,#355,#356,#357,#358));
#107=EDGE_LOOP($,(#359,#360,#361,#362));
#108=EDGE_LOOP($,(#363,#364,#365,#366));
#109=EDGE_LOOP($,(#367,#368,#369,#370));
#110=EDGE_LOOP($,(#371,#372,#373,#374));
#111=EDGE_LOOP($,(#375));
#112=EDGE_LOOP($,(#376));
#113=EDGE_LOOP($,(#377,#378,#379,#380,#381,#382));
#114=EDGE_LOOP($,(#383));
#115=EDGE_LOOP($,(#384,#385,#386,#387,#388,#389));
#116=EDGE_LOOP($,(#390));
#117=(
BOUNDED_CURVE()
B_SPLINE_CURVE(2,(#612,#613,#614),.UNSPECIFIED.,.F.,.F.)
B_SPLINE_CURVE_WITH_KNOTS((3,3),(-2.49724691247465,-1.68718394609883),
 .UNSPECIFIED.)
CURVE()
GEOMETRIC_REPRESENTATION_ITEM()
RATIONAL_B_SPLINE_CURVE((1.82664926915251,1.82664926912865,1.7396659706491))
REPRESENTATION_ITEM($)
);
#118=(
BOUNDED_CURVE()
B_SPLINE_CURVE(2,(#617,#618,#619),.UNSPECIFIED.,.F.,.F.)
B_SPLINE_CURVE_WITH_KNOTS((3,3),(2.49724686147868,3.30730981781413),
 .UNSPECIFIED.)
CURVE()
GEOMETRIC_REPRESENTATION_ITEM()
RATIONAL_B_SPLINE_CURVE((1.82664924614282,1.82664924615737,1.73966594873503))
REPRESENTATION_ITEM($)
);
#119=(
BOUNDED_CURVE()
B_SPLINE_CURVE(2,(#624,#625,#626),.UNSPECIFIED.,.F.,.F.)
B_SPLINE_CURVE_WITH_KNOTS((3,3),(-2.49724686147868,-1.68718390541413),
 .UNSPECIFIED.)
CURVE()
GEOMETRIC_REPRESENTATION_ITEM()
RATIONAL_B_SPLINE_CURVE((1.82664924614282,1.82664924612828,1.73966594873503))
REPRESENTATION_ITEM($)
);
#120=(
BOUNDED_CURVE()
B_SPLINE_CURVE(2,(#629,#630,#631),.UNSPECIFIED.,.F.,.F.)
B_SPLINE_CURVE_WITH_KNOTS((3,3),(2.49724691291604,3.30730987981988),
 .UNSPECIFIED.)
CURVE()
GEOMETRIC_REPRESENTATION_ITEM()
RATIONAL_B_SPLINE_CURVE((1.82664926934932,1.8266492693726,1.73966597083644))
REPRESENTATION_ITEM($)
);
#121=(
BOUNDED_CURVE()
B_SPLINE_CURVE(2,(#637,#638,#639),.UNSPECIFIED.,.F.,.F.)
B_SPLINE_CURVE_WITH_KNOTS((3,3),(-2.49724691273584,-1.68718394623743),
 .UNSPECIFIED.)
CURVE()
GEOMETRIC_REPRESENTATION_ITEM()
RATIONAL_B_SPLINE_CURVE((1.82664926923117,1.82664926921663,1.73966597072394))
REPRESENTATION_ITEM($)
);
#122=(
BOUNDED_CURVE()
B_SPLINE_CURVE(2,(#642,#643,#644),.UNSPECIFIED.,.F.,.F.)
B_SPLINE_CURVE_WITH_KNOTS((3,3),(2.49724691247684,3.30730987929183),
 .UNSPECIFIED.)
CURVE()
GEOMETRIC_REPRESENTATION_ITEM()
RATIONAL_B_SPLINE_CURVE((1.82664926915226,1.82664926917554,1.7396659706486))
REPRESENTATION_ITEM($)
);
#123=(
BOUNDED_CURVE()
B_SPLINE_CURVE(2,(#649,#650,#651),.UNSPECIFIED.,.F.,.F.)
B_SPLINE_CURVE_WITH_KNOTS((3,3),(-2.49724691291046,-1.68718394644592),
 .UNSPECIFIED.)
CURVE()
GEOMETRIC_REPRESENTATION_ITEM()
RATIONAL_B_SPLINE_CURVE((1.82664926934881,1.82664926932495,1.73966597083605))
REPRESENTATION_ITEM($)
);
#124=(
BOUNDED_CURVE()
B_SPLINE_CURVE(2,(#654,#655,#656),.UNSPECIFIED.,.F.,.F.)
B_SPLINE_CURVE_WITH_KNOTS((3,3),(2.49724691273584,3.30730987950515),
 .UNSPECIFIED.)
CURVE()
GEOMETRIC_REPRESENTATION_ITEM()
RATIONAL_B_SPLINE_CURVE((1.82664926923117,1.82664926924572,1.73966597072394))
REPRESENTATION_ITEM($)
);
#125=(
BOUNDED_CURVE()
B_SPLINE_CURVE(2,(#659,#660,#661),.UNSPECIFIED.,.F.,.F.)
B_SPLINE_CURVE_WITH_KNOTS((3,3),(2.49724691291046,3.30730987981985),
 .UNSPECIFIED.)
CURVE()
GEOMETRIC_REPRESENTATION_ITEM()
RATIONAL_B_SPLINE_CURVE((1.82664926934881,1.82664926937266,1.73966597083594))
REPRESENTATION_ITEM($)
);
#126=(
BOUNDED_CURVE()
B_SPLINE_CURVE(2,(#664,#665,#666),.UNSPECIFIED.,.F.,.F.)
B_SPLINE_CURVE_WITH_KNOTS((3,3),(-2.49724691291604,-1.68718394644525),
 .UNSPECIFIED.)
CURVE()
GEOMETRIC_REPRESENTATION_ITEM()
RATIONAL_B_SPLINE_CURVE((1.82664926934932,1.82664926932604,1.73966597083634))
REPRESENTATION_ITEM($)
);
#127=(
BOUNDED_CURVE()
B_SPLINE_CURVE(2,(#671,#672,#673),.UNSPECIFIED.,.F.,.F.)
B_SPLINE_CURVE_WITH_KNOTS((3,3),(1.68718394644726,2.49724691197702),
 .UNSPECIFIED.)
CURVE()
GEOMETRIC_REPRESENTATION_ITEM()
RATIONAL_B_SPLINE_CURVE((1.73966597083696,1.82664926922553,1.82664926934985))
REPRESENTATION_ITEM($)
);
#128=(
BOUNDED_CURVE()
B_SPLINE_CURVE(2,(#677,#678,#679),.UNSPECIFIED.,.F.,.F.)
B_SPLINE_CURVE_WITH_KNOTS((3,3),(2.49724691197702,3.30730987982224),
 .UNSPECIFIED.)
CURVE()
GEOMETRIC_REPRESENTATION_ITEM()
RATIONAL_B_SPLINE_CURVE((1.82664926934985,1.82664926947416,1.73966597083696))
REPRESENTATION_ITEM($)
);
#129=(
BOUNDED_CURVE()
B_SPLINE_CURVE(2,(#684,#685,#686),.UNSPECIFIED.,.F.,.F.)
B_SPLINE_CURVE_WITH_KNOTS((3,3),(-3.30730981791194,-2.49724687576019),
 .UNSPECIFIED.)
CURVE()
GEOMETRIC_REPRESENTATION_ITEM()
RATIONAL_B_SPLINE_CURVE((1.73966594877003,1.82664924466926,1.82664924617948))
REPRESENTATION_ITEM($)
);
#130=(
BOUNDED_CURVE()
B_SPLINE_CURVE(2,(#693,#694,#695),.UNSPECIFIED.,.F.,.F.)
B_SPLINE_CURVE_WITH_KNOTS((3,3),(-2.49724686191276,-1.68718390547935),
 .UNSPECIFIED.)
CURVE()
GEOMETRIC_REPRESENTATION_ITEM()
RATIONAL_B_SPLINE_CURVE((1.82664924618005,1.82664924620333,1.73966594877047))
REPRESENTATION_ITEM($)
);
#131=(
BOUNDED_CURVE()
B_SPLINE_CURVE(2,(#701,#702,#703),.UNSPECIFIED.,.F.,.F.)
B_SPLINE_CURVE_WITH_KNOTS((3,3),(-3.3073098179135,-2.49724686285442),
 .UNSPECIFIED.)
CURVE()
GEOMETRIC_REPRESENTATION_ITEM()
RATIONAL_B_SPLINE_CURVE((1.73966594877046,1.8266492460557,1.82664924618002))
REPRESENTATION_ITEM($)
);
#132=(
BOUNDED_CURVE()
B_SPLINE_CURVE(2,(#706,#707,#708),.UNSPECIFIED.,.F.,.F.)
B_SPLINE_CURVE_WITH_KNOTS((3,3),(-2.49724687146568,-1.68718390547903),
 .UNSPECIFIED.)
CURVE()
GEOMETRIC_REPRESENTATION_ITEM()
RATIONAL_B_SPLINE_CURVE((1.82664924618097,1.82664924722999,1.73966594877118))
REPRESENTATION_ITEM($)
);
#133=(
BOUNDED_CURVE()
B_SPLINE_CURVE(2,(#714,#715,#716),.UNSPECIFIED.,.F.,.F.)
B_SPLINE_CURVE_WITH_KNOTS((3,3),(-3.30730981791195,-2.49724686191787),
 .UNSPECIFIED.)
CURVE()
GEOMETRIC_REPRESENTATION_ITEM()
RATIONAL_B_SPLINE_CURVE((1.73966594877002,1.82664924615562,1.82664924617948))
REPRESENTATION_ITEM($)
);
#134=(
BOUNDED_CURVE()
B_SPLINE_CURVE(2,(#718,#719,#720),.UNSPECIFIED.,.F.,.F.)
B_SPLINE_CURVE_WITH_KNOTS((3,3),(-2.49724686285442,-1.68718390547989),
 .UNSPECIFIED.)
CURVE()
GEOMETRIC_REPRESENTATION_ITEM()
RATIONAL_B_SPLINE_CURVE((1.82664924618002,1.82664924630433,1.73966594877045))
REPRESENTATION_ITEM($)
);
#135=(
BOUNDED_CURVE()
B_SPLINE_CURVE(2,(#723,#724,#725),.UNSPECIFIED.,.F.,.F.)
B_SPLINE_CURVE_WITH_KNOTS((3,3),(-2.49724686191787,-1.68718390547894),
 .UNSPECIFIED.)
CURVE()
GEOMETRIC_REPRESENTATION_ITEM()
RATIONAL_B_SPLINE_CURVE((1.82664924617948,1.82664924620334,1.73966594876991))
REPRESENTATION_ITEM($)
);
#136=(
BOUNDED_CURVE()
B_SPLINE_CURVE(2,(#728,#729,#730),.UNSPECIFIED.,.F.,.F.)
B_SPLINE_CURVE_WITH_KNOTS((3,3),(-3.30730981791313,-2.49724686191276),
 .UNSPECIFIED.)
CURVE()
GEOMETRIC_REPRESENTATION_ITEM()
RATIONAL_B_SPLINE_CURVE((1.73966594877037,1.82664924615678,1.82664924618005))
REPRESENTATION_ITEM($)
);
#137=(
BOUNDED_CURVE()
B_SPLINE_CURVE(2,(#735,#736,#737),.UNSPECIFIED.,.F.,.F.)
B_SPLINE_CURVE_WITH_KNOTS((3,3),(-2.49724691291901,-1.68718394609833),
 .UNSPECIFIED.)
CURVE()
GEOMETRIC_REPRESENTATION_ITEM()
RATIONAL_B_SPLINE_CURVE((1.82664926915251,1.82664926917636,1.73966597064899))
REPRESENTATION_ITEM($)
);
#138=(
BOUNDED_CURVE()
B_SPLINE_CURVE(2,(#740,#741,#742),.UNSPECIFIED.,.F.,.F.)
B_SPLINE_CURVE_WITH_KNOTS((3,3),(2.49724689906814,3.30730987981986),
 .UNSPECIFIED.)
CURVE()
GEOMETRIC_REPRESENTATION_ITEM()
RATIONAL_B_SPLINE_CURVE((1.82664926934881,1.82664927085903,1.73966597083594))
REPRESENTATION_ITEM($)
);
#139=(
BOUNDED_CURVE()
B_SPLINE_CURVE(2,(#746,#747,#748),.UNSPECIFIED.,.F.,.F.)
B_SPLINE_CURVE_WITH_KNOTS((3,3),(-3.30730981791406,-2.49724687146568),
 .UNSPECIFIED.)
CURVE()
GEOMETRIC_REPRESENTATION_ITEM()
RATIONAL_B_SPLINE_CURVE((1.73966594877108,1.82664924513195,1.82664924618097))
REPRESENTATION_ITEM($)
);
#140=(
BOUNDED_CURVE()
B_SPLINE_CURVE(2,(#753,#754,#755),.UNSPECIFIED.,.F.,.F.)
B_SPLINE_CURVE_WITH_KNOTS((3,3),(2.49724691291037,3.30730987929233),
 .UNSPECIFIED.)
CURVE()
GEOMETRIC_REPRESENTATION_ITEM()
RATIONAL_B_SPLINE_CURVE((1.82664926915226,1.82664926912899,1.7396659706485))
REPRESENTATION_ITEM($)
);
#141=CIRCLE($,#434,10.);
#142=CIRCLE($,#435,11.);
#143=CIRCLE($,#437,10.);
#144=CIRCLE($,#438,11.);
#145=CIRCLE($,#440,10.);
#146=CIRCLE($,#441,11.);
#147=CIRCLE($,#443,10.);
#148=CIRCLE($,#444,11.);
#149=CIRCLE($,#446,10.);
#150=CIRCLE($,#447,11.);
#151=CIRCLE($,#450,11.);
#152=CIRCLE($,#451,10.);
#153=CIRCLE($,#453,11.);
#154=CIRCLE($,#454,10.);
#155=CIRCLE($,#456,11.);
#156=CIRCLE($,#457,10.);
#157=CIRCLE($,#459,11.);
#158=CIRCLE($,#460,10.);
#159=CIRCLE($,#462,11.);
#160=CIRCLE($,#463,10.);
#161=CIRCLE($,#466,11.);
#162=CIRCLE($,#467,10.);
#163=CIRCLE($,#477,10.);
#164=CIRCLE($,#478,11.);
#165=CIRCLE($,#482,8.2);
#166=CIRCLE($,#483,8.2);
#167=VERTEX_POINT($,#608);
#168=VERTEX_POINT($,#609);
#169=VERTEX_POINT($,#611);
#170=VERTEX_POINT($,#615);
#171=VERTEX_POINT($,#621);
#172=VERTEX_POINT($,#623);
#173=VERTEX_POINT($,#627);
#174=VERTEX_POINT($,#633);
#175=VERTEX_POINT($,#634);
#176=VERTEX_POINT($,#636);
#177=VERTEX_POINT($,#640);
#178=VERTEX_POINT($,#646);
#179=VERTEX_POINT($,#648);
#180=VERTEX_POINT($,#652);
#181=VERTEX_POINT($,#658);
#182=VERTEX_POINT($,#663);
#183=VERTEX_POINT($,#669);
#184=VERTEX_POINT($,#670);
#185=VERTEX_POINT($,#675);
#186=VERTEX_POINT($,#681);
#187=VERTEX_POINT($,#683);
#188=VERTEX_POINT($,#689);
#189=VERTEX_POINT($,#691);
#190=VERTEX_POINT($,#697);
#191=VERTEX_POINT($,#698);
#192=VERTEX_POINT($,#700);
#193=VERTEX_POINT($,#704);
#194=VERTEX_POINT($,#710);
#195=VERTEX_POINT($,#711);
#196=VERTEX_POINT($,#713);
#197=VERTEX_POINT($,#722);
#198=VERTEX_POINT($,#726);
#199=VERTEX_POINT($,#734);
#200=VERTEX_POINT($,#738);
#201=VERTEX_POINT($,#744);
#202=VERTEX_POINT($,#751);
#203=VERTEX_POINT($,#776);
#204=VERTEX_POINT($,#778);
#205=EDGE_CURVE($,#167,#168,#141,.T.);
#206=EDGE_CURVE($,#167,#169,#117,.T.);
#207=EDGE_CURVE($,#170,#169,#142,.T.);
#208=EDGE_CURVE($,#168,#170,#118,.T.);
#209=EDGE_CURVE($,#168,#171,#143,.T.);
#210=EDGE_CURVE($,#168,#172,#119,.T.);
#211=EDGE_CURVE($,#173,#172,#144,.T.);
#212=EDGE_CURVE($,#171,#173,#120,.T.);
#213=EDGE_CURVE($,#174,#175,#145,.T.);
#214=EDGE_CURVE($,#174,#176,#121,.T.);
#215=EDGE_CURVE($,#177,#176,#146,.T.);
#216=EDGE_CURVE($,#175,#177,#122,.T.);
#217=EDGE_CURVE($,#178,#174,#147,.T.);
#218=EDGE_CURVE($,#178,#179,#123,.T.);
#219=EDGE_CURVE($,#180,#179,#148,.T.);
#220=EDGE_CURVE($,#174,#180,#124,.T.);
#221=EDGE_CURVE($,#178,#181,#125,.T.);
#222=EDGE_CURVE($,#171,#178,#149,.T.);
#223=EDGE_CURVE($,#171,#182,#126,.T.);
#224=EDGE_CURVE($,#181,#182,#150,.T.);
#225=EDGE_CURVE($,#183,#184,#127,.T.);
#226=EDGE_CURVE($,#172,#183,#28,.T.);
#227=EDGE_CURVE($,#170,#185,#29,.T.);
#228=EDGE_CURVE($,#184,#185,#128,.T.);
#229=EDGE_CURVE($,#185,#186,#151,.T.);
#230=EDGE_CURVE($,#186,#187,#129,.T.);
#231=EDGE_CURVE($,#184,#187,#152,.T.);
#232=EDGE_CURVE($,#188,#183,#153,.T.);
#233=EDGE_CURVE($,#189,#184,#154,.T.);
#234=EDGE_CURVE($,#189,#188,#130,.T.);
#235=EDGE_CURVE($,#190,#191,#155,.T.);
#236=EDGE_CURVE($,#191,#192,#131,.T.);
#237=EDGE_CURVE($,#193,#192,#156,.T.);
#238=EDGE_CURVE($,#193,#190,#132,.T.);
#239=EDGE_CURVE($,#194,#195,#157,.T.);
#240=EDGE_CURVE($,#195,#196,#133,.T.);
#241=EDGE_CURVE($,#192,#196,#158,.T.);
#242=EDGE_CURVE($,#192,#194,#134,.T.);
#243=EDGE_CURVE($,#196,#197,#135,.T.);
#244=EDGE_CURVE($,#198,#197,#159,.T.);
#245=EDGE_CURVE($,#198,#189,#136,.T.);
#246=EDGE_CURVE($,#196,#189,#160,.T.);
#247=EDGE_CURVE($,#169,#186,#30,.T.);
#248=EDGE_CURVE($,#167,#199,#137,.T.);
#249=EDGE_CURVE($,#199,#200,#31,.T.);
#250=EDGE_CURVE($,#187,#200,#138,.T.);
#251=EDGE_CURVE($,#201,#200,#161,.T.);
#252=EDGE_CURVE($,#201,#193,#139,.T.);
#253=EDGE_CURVE($,#187,#193,#162,.T.);
#254=EDGE_CURVE($,#202,#201,#32,.T.);
#255=EDGE_CURVE($,#175,#202,#140,.T.);
#256=EDGE_CURVE($,#177,#190,#33,.T.);
#257=EDGE_CURVE($,#176,#191,#34,.T.);
#258=EDGE_CURVE($,#180,#194,#35,.T.);
#259=EDGE_CURVE($,#179,#195,#36,.T.);
#260=EDGE_CURVE($,#181,#197,#37,.T.);
#261=EDGE_CURVE($,#182,#198,#38,.T.);
#262=EDGE_CURVE($,#173,#188,#39,.T.);
#263=EDGE_CURVE($,#175,#167,#163,.T.);
#264=EDGE_CURVE($,#199,#202,#164,.T.);
#265=EDGE_CURVE($,#203,#203,#165,.T.);
#266=EDGE_CURVE($,#204,#204,#166,.T.);
#267=ORIENTED_EDGE($,*,*,#205,.F.);
#268=ORIENTED_EDGE($,*,*,#206,.T.);
#269=ORIENTED_EDGE($,*,*,#207,.F.);
#270=ORIENTED_EDGE($,*,*,#208,.F.);
#271=ORIENTED_EDGE($,*,*,#209,.F.);
#272=ORIENTED_EDGE($,*,*,#210,.T.);
#273=ORIENTED_EDGE($,*,*,#211,.F.);
#274=ORIENTED_EDGE($,*,*,#212,.F.);
#275=ORIENTED_EDGE($,*,*,#213,.F.);
#276=ORIENTED_EDGE($,*,*,#214,.T.);
#277=ORIENTED_EDGE($,*,*,#215,.F.);
#278=ORIENTED_EDGE($,*,*,#216,.F.);
#279=ORIENTED_EDGE($,*,*,#217,.F.);
#280=ORIENTED_EDGE($,*,*,#218,.T.);
#281=ORIENTED_EDGE($,*,*,#219,.F.);
#282=ORIENTED_EDGE($,*,*,#220,.F.);
#283=ORIENTED_EDGE($,*,*,#221,.F.);
#284=ORIENTED_EDGE($,*,*,#222,.F.);
#285=ORIENTED_EDGE($,*,*,#223,.T.);
#286=ORIENTED_EDGE($,*,*,#224,.F.);
#287=ORIENTED_EDGE($,*,*,#225,.F.);
#288=ORIENTED_EDGE($,*,*,#226,.F.);
#289=ORIENTED_EDGE($,*,*,#210,.F.);
#290=ORIENTED_EDGE($,*,*,#208,.T.);
#291=ORIENTED_EDGE($,*,*,#227,.T.);
#292=ORIENTED_EDGE($,*,*,#228,.F.);
#293=ORIENTED_EDGE($,*,*,#229,.T.);
#294=ORIENTED_EDGE($,*,*,#230,.T.);
#295=ORIENTED_EDGE($,*,*,#231,.F.);
#296=ORIENTED_EDGE($,*,*,#228,.T.);
#297=ORIENTED_EDGE($,*,*,#232,.T.);
#298=ORIENTED_EDGE($,*,*,#225,.T.);
#299=ORIENTED_EDGE($,*,*,#233,.F.);
#300=ORIENTED_EDGE($,*,*,#234,.T.);
#301=ORIENTED_EDGE($,*,*,#235,.T.);
#302=ORIENTED_EDGE($,*,*,#236,.T.);
#303=ORIENTED_EDGE($,*,*,#237,.F.);
#304=ORIENTED_EDGE($,*,*,#238,.T.);
#305=ORIENTED_EDGE($,*,*,#239,.T.);
#306=ORIENTED_EDGE($,*,*,#240,.T.);
#307=ORIENTED_EDGE($,*,*,#241,.F.);
#308=ORIENTED_EDGE($,*,*,#242,.T.);
#309=ORIENTED_EDGE($,*,*,#243,.T.);
#310=ORIENTED_EDGE($,*,*,#244,.F.);
#311=ORIENTED_EDGE($,*,*,#245,.T.);
#312=ORIENTED_EDGE($,*,*,#246,.F.);
#313=ORIENTED_EDGE($,*,*,#230,.F.);
#314=ORIENTED_EDGE($,*,*,#247,.F.);
#315=ORIENTED_EDGE($,*,*,#206,.F.);
#316=ORIENTED_EDGE($,*,*,#248,.T.);
#317=ORIENTED_EDGE($,*,*,#249,.T.);
#318=ORIENTED_EDGE($,*,*,#250,.F.);
#319=ORIENTED_EDGE($,*,*,#250,.T.);
#320=ORIENTED_EDGE($,*,*,#251,.F.);
#321=ORIENTED_EDGE($,*,*,#252,.T.);
#322=ORIENTED_EDGE($,*,*,#253,.F.);
#323=ORIENTED_EDGE($,*,*,#252,.F.);
#324=ORIENTED_EDGE($,*,*,#254,.F.);
#325=ORIENTED_EDGE($,*,*,#255,.F.);
#326=ORIENTED_EDGE($,*,*,#216,.T.);
#327=ORIENTED_EDGE($,*,*,#256,.T.);
#328=ORIENTED_EDGE($,*,*,#238,.F.);
#329=ORIENTED_EDGE($,*,*,#256,.F.);
#330=ORIENTED_EDGE($,*,*,#215,.T.);
#331=ORIENTED_EDGE($,*,*,#257,.T.);
#332=ORIENTED_EDGE($,*,*,#235,.F.);
#333=ORIENTED_EDGE($,*,*,#236,.F.);
#334=ORIENTED_EDGE($,*,*,#257,.F.);
#335=ORIENTED_EDGE($,*,*,#214,.F.);
#336=ORIENTED_EDGE($,*,*,#220,.T.);
#337=ORIENTED_EDGE($,*,*,#258,.T.);
#338=ORIENTED_EDGE($,*,*,#242,.F.);
#339=ORIENTED_EDGE($,*,*,#258,.F.);
#340=ORIENTED_EDGE($,*,*,#219,.T.);
#341=ORIENTED_EDGE($,*,*,#259,.T.);
#342=ORIENTED_EDGE($,*,*,#239,.F.);
#343=ORIENTED_EDGE($,*,*,#240,.F.);
#344=ORIENTED_EDGE($,*,*,#259,.F.);
#345=ORIENTED_EDGE($,*,*,#218,.F.);
#346=ORIENTED_EDGE($,*,*,#221,.T.);
#347=ORIENTED_EDGE($,*,*,#260,.T.);
#348=ORIENTED_EDGE($,*,*,#243,.F.);
#349=ORIENTED_EDGE($,*,*,#260,.F.);
#350=ORIENTED_EDGE($,*,*,#224,.T.);
#351=ORIENTED_EDGE($,*,*,#261,.T.);
#352=ORIENTED_EDGE($,*,*,#244,.T.);
#353=ORIENTED_EDGE($,*,*,#245,.F.);
#354=ORIENTED_EDGE($,*,*,#261,.F.);
#355=ORIENTED_EDGE($,*,*,#223,.F.);
#356=ORIENTED_EDGE($,*,*,#212,.T.);
#357=ORIENTED_EDGE($,*,*,#262,.T.);
#358=ORIENTED_EDGE($,*,*,#234,.F.);
#359=ORIENTED_EDGE($,*,*,#262,.F.);
#360=ORIENTED_EDGE($,*,*,#211,.T.);
#361=ORIENTED_EDGE($,*,*,#226,.T.);
#362=ORIENTED_EDGE($,*,*,#232,.F.);
#363=ORIENTED_EDGE($,*,*,#248,.F.);
#364=ORIENTED_EDGE($,*,*,#263,.F.);
#365=ORIENTED_EDGE($,*,*,#255,.T.);
#366=ORIENTED_EDGE($,*,*,#264,.F.);
#367=ORIENTED_EDGE($,*,*,#249,.F.);
#368=ORIENTED_EDGE($,*,*,#264,.T.);
#369=ORIENTED_EDGE($,*,*,#254,.T.);
#370=ORIENTED_EDGE($,*,*,#251,.T.);
#371=ORIENTED_EDGE($,*,*,#227,.F.);
#372=ORIENTED_EDGE($,*,*,#207,.T.);
#373=ORIENTED_EDGE($,*,*,#247,.T.);
#374=ORIENTED_EDGE($,*,*,#229,.F.);
#375=ORIENTED_EDGE($,*,*,#265,.F.);
#376=ORIENTED_EDGE($,*,*,#266,.F.);
#377=ORIENTED_EDGE($,*,*,#213,.T.);
#378=ORIENTED_EDGE($,*,*,#263,.T.);
#379=ORIENTED_EDGE($,*,*,#205,.T.);
#380=ORIENTED_EDGE($,*,*,#209,.T.);
#381=ORIENTED_EDGE($,*,*,#222,.T.);
#382=ORIENTED_EDGE($,*,*,#217,.T.);
#383=ORIENTED_EDGE($,*,*,#265,.T.);
#384=ORIENTED_EDGE($,*,*,#241,.T.);
#385=ORIENTED_EDGE($,*,*,#246,.T.);
#386=ORIENTED_EDGE($,*,*,#233,.T.);
#387=ORIENTED_EDGE($,*,*,#231,.T.);
#388=ORIENTED_EDGE($,*,*,#253,.T.);
#389=ORIENTED_EDGE($,*,*,#237,.T.);
#390=ORIENTED_EDGE($,*,*,#266,.T.);
#391=CONICAL_SURFACE($,#433,3.732050807569,1.3089969375);
#392=CONICAL_SURFACE($,#436,3.732050807569,1.3089969375);
#393=CONICAL_SURFACE($,#439,3.732050807569,1.3089969375);
#394=CONICAL_SURFACE($,#442,3.732050807569,1.3089969375);
#395=CONICAL_SURFACE($,#445,3.732050807569,1.3089969375);
#396=CONICAL_SURFACE($,#449,3.732050807569,1.3089969375);
#397=CONICAL_SURFACE($,#452,3.732050807569,1.3089969375);
#398=CONICAL_SURFACE($,#455,3.732050807569,1.3089969375);
#399=CONICAL_SURFACE($,#458,3.732050807569,1.3089969375);
#400=CONICAL_SURFACE($,#461,3.732050807569,1.3089969375);
#401=CONICAL_SURFACE($,#465,3.732050807569,1.3089969375);
#402=CONICAL_SURFACE($,#476,3.732050807569,1.3089969375);
#403=ADVANCED_FACE($,(#60),#391,.T.);
#404=ADVANCED_FACE($,(#61),#392,.T.);
#405=ADVANCED_FACE($,(#62),#393,.T.);
#406=ADVANCED_FACE($,(#63),#394,.T.);
#407=ADVANCED_FACE($,(#64),#395,.T.);
#408=ADVANCED_FACE($,(#65),#52,.T.);
#409=ADVANCED_FACE($,(#66),#396,.T.);
#410=ADVANCED_FACE($,(#67),#397,.T.);
#411=ADVANCED_FACE($,(#68),#398,.T.);
#412=ADVANCED_FACE($,(#69),#399,.T.);
#413=ADVANCED_FACE($,(#70),#400,.T.);
#414=ADVANCED_FACE($,(#71),#53,.T.);
#415=ADVANCED_FACE($,(#72),#401,.T.);
#416=ADVANCED_FACE($,(#73),#54,.T.);
#417=ADVANCED_FACE($,(#74),#21,.T.);
#418=ADVANCED_FACE($,(#75),#55,.T.);
#419=ADVANCED_FACE($,(#76),#22,.T.);
#420=ADVANCED_FACE($,(#77),#56,.T.);
#421=ADVANCED_FACE($,(#78),#23,.T.);
#422=ADVANCED_FACE($,(#79),#57,.T.);
#423=ADVANCED_FACE($,(#80),#24,.T.);
#424=ADVANCED_FACE($,(#81),#402,.T.);
#425=ADVANCED_FACE($,(#82),#25,.T.);
#426=ADVANCED_FACE($,(#83),#26,.T.);
#427=ADVANCED_FACE($,(#84,#18),#27,.F.);
#428=ADVANCED_FACE($,(#85,#19),#58,.T.);
#429=ADVANCED_FACE($,(#86,#20),#59,.T.);
#430=CLOSED_SHELL($,(#403,#404,#405,#406,#407,#408,#409,#410,#411,#412,
#413,#414,#415,#416,#417,#418,#419,#420,#421,#422,#423,#424,#425,#426,#427,
#428,#429));
#431=MANIFOLD_SOLID_BREP('6151',#430);
#432=AXIS2_PLACEMENT_3D('placement',#606,#486,#487);
#433=AXIS2_PLACEMENT_3D($,#607,#488,#489);
#434=AXIS2_PLACEMENT_3D($,#610,#490,#491);
#435=AXIS2_PLACEMENT_3D($,#616,#492,#493);
#436=AXIS2_PLACEMENT_3D($,#620,#494,#495);
#437=AXIS2_PLACEMENT_3D($,#622,#496,#497);
#438=AXIS2_PLACEMENT_3D($,#628,#498,#499);
#439=AXIS2_PLACEMENT_3D($,#632,#500,#501);
#440=AXIS2_PLACEMENT_3D($,#635,#502,#503);
#441=AXIS2_PLACEMENT_3D($,#641,#504,#505);
#442=AXIS2_PLACEMENT_3D($,#645,#506,#507);
#443=AXIS2_PLACEMENT_3D($,#647,#508,#509);
#444=AXIS2_PLACEMENT_3D($,#653,#510,#511);
#445=AXIS2_PLACEMENT_3D($,#657,#512,#513);
#446=AXIS2_PLACEMENT_3D($,#662,#514,#515);
#447=AXIS2_PLACEMENT_3D($,#667,#516,#517);
#448=AXIS2_PLACEMENT_3D($,#668,#518,#519);
#449=AXIS2_PLACEMENT_3D($,#680,#522,#523);
#450=AXIS2_PLACEMENT_3D($,#682,#524,#525);
#451=AXIS2_PLACEMENT_3D($,#687,#526,#527);
#452=AXIS2_PLACEMENT_3D($,#688,#528,#529);
#453=AXIS2_PLACEMENT_3D($,#690,#530,#531);
#454=AXIS2_PLACEMENT_3D($,#692,#532,#533);
#455=AXIS2_PLACEMENT_3D($,#696,#534,#535);
#456=AXIS2_PLACEMENT_3D($,#699,#536,#537);
#457=AXIS2_PLACEMENT_3D($,#705,#538,#539);
#458=AXIS2_PLACEMENT_3D($,#709,#540,#541);
#459=AXIS2_PLACEMENT_3D($,#712,#542,#543);
#460=AXIS2_PLACEMENT_3D($,#717,#544,#545);
#461=AXIS2_PLACEMENT_3D($,#721,#546,#547);
#462=AXIS2_PLACEMENT_3D($,#727,#548,#549);
#463=AXIS2_PLACEMENT_3D($,#731,#550,#551);
#464=AXIS2_PLACEMENT_3D($,#732,#552,#553);
#465=AXIS2_PLACEMENT_3D($,#743,#556,#557);
#466=AXIS2_PLACEMENT_3D($,#745,#558,#559);
#467=AXIS2_PLACEMENT_3D($,#749,#560,#561);
#468=AXIS2_PLACEMENT_3D($,#750,#562,#563);
#469=AXIS2_PLACEMENT_3D($,#757,#566,#567);
#470=AXIS2_PLACEMENT_3D($,#759,#569,#570);
#471=AXIS2_PLACEMENT_3D($,#761,#572,#573);
#472=AXIS2_PLACEMENT_3D($,#763,#575,#576);
#473=AXIS2_PLACEMENT_3D($,#765,#578,#579);
#474=AXIS2_PLACEMENT_3D($,#767,#581,#582);
#475=AXIS2_PLACEMENT_3D($,#769,#584,#585);
#476=AXIS2_PLACEMENT_3D($,#770,#586,#587);
#477=AXIS2_PLACEMENT_3D($,#771,#588,#589);
#478=AXIS2_PLACEMENT_3D($,#772,#590,#591);
#479=AXIS2_PLACEMENT_3D($,#773,#592,#593);
#480=AXIS2_PLACEMENT_3D($,#774,#594,#595);
#481=AXIS2_PLACEMENT_3D($,#775,#596,#597);
#482=AXIS2_PLACEMENT_3D($,#777,#598,#599);
#483=AXIS2_PLACEMENT_3D($,#779,#600,#601);
#484=AXIS2_PLACEMENT_3D($,#780,#602,#603);
#485=AXIS2_PLACEMENT_3D($,#781,#604,#605);
#486=DIRECTION('axis',(0.,0.,1.));
#487=DIRECTION('refdir',(1.,0.,0.));
#488=DIRECTION('center_axis',(2.44929359829471E-16,0.,1.));
#489=DIRECTION('ref_axis',(8.15778644068135E-32,1.,0.));
#490=DIRECTION('center_axis',(-2.44929359829471E-16,0.,-1.));
#491=DIRECTION('ref_axis',(1.,-8.15778644068135E-32,-2.44929359829471E-16));
#492=DIRECTION('center_axis',(2.44929359829471E-16,0.,1.));
#493=DIRECTION('ref_axis',(-0.909090909090747,-0.416597790450884,2.22663054390388E-16));
#494=DIRECTION('center_axis',(2.44929359829471E-16,0.,1.));
#495=DIRECTION('ref_axis',(8.15778644068135E-32,1.,0.));
#496=DIRECTION('center_axis',(-2.44929359829471E-16,0.,-1.));
#497=DIRECTION('ref_axis',(1.,-8.15778644068135E-32,-2.44929359829471E-16));
#498=DIRECTION('center_axis',(2.44929359829471E-16,0.,1.));
#499=DIRECTION('ref_axis',(-0.815329724236031,0.578996926397022,1.9969818740707E-16));
#500=DIRECTION('center_axis',(2.44929359829471E-16,0.,1.));
#501=DIRECTION('ref_axis',(8.15778644068135E-32,1.,0.));
#502=DIRECTION('center_axis',(-2.44929359829471E-16,0.,-1.));
#503=DIRECTION('ref_axis',(1.,-8.15778644068135E-32,-2.44929359829471E-16));
#504=DIRECTION('center_axis',(2.44929359829471E-16,0.,1.));
#505=DIRECTION('ref_axis',(0.815329724236031,-0.578996926397022,-1.9969818740707E-16));
#506=DIRECTION('center_axis',(2.44929359829471E-16,0.,1.));
#507=DIRECTION('ref_axis',(8.15778644068135E-32,1.,0.));
#508=DIRECTION('center_axis',(-2.44929359829471E-16,0.,-1.));
#509=DIRECTION('ref_axis',(1.,-8.15778644068135E-32,-2.44929359829471E-16));
#510=DIRECTION('center_axis',(2.44929359829471E-16,0.,1.));
#511=DIRECTION('ref_axis',(0.909090909090747,0.416597790450884,-2.22663054390388E-16));
#512=DIRECTION('center_axis',(2.44929359829471E-16,0.,1.));
#513=DIRECTION('ref_axis',(-9.051483E-11,-1.,2.21697393669734E-26));
#514=DIRECTION('center_axis',(-2.44929359829471E-16,0.,-1.));
#515=DIRECTION('ref_axis',(1.,-8.15778644068135E-32,-2.44929359829471E-16));
#516=DIRECTION('center_axis',(2.44929359829471E-16,0.,1.));
#517=DIRECTION('ref_axis',(0.093761184854875,0.995594716847478,-2.29648669833572E-17));
#518=DIRECTION('center_axis',(-1.,8.15778644068135E-32,2.44929359829471E-16));
#519=DIRECTION('ref_axis',(0.,0.,1.));
#520=DIRECTION($,(2.44929359829471E-16,0.,1.));
#521=DIRECTION($,(2.44929359829471E-16,0.,1.));
#522=DIRECTION('center_axis',(-2.44929359829471E-16,0.,-1.));
#523=DIRECTION('ref_axis',(-8.15778644068135E-32,-1.,0.));
#524=DIRECTION('center_axis',(2.44929359829471E-16,0.,1.));
#525=DIRECTION('ref_axis',(-0.909090909090747,-0.416597790450884,2.22663054390388E-16));
#526=DIRECTION('center_axis',(2.44929359829471E-16,0.,1.));
#527=DIRECTION('ref_axis',(1.,-8.15778644068135E-32,-2.44929359829471E-16));
#528=DIRECTION('center_axis',(-2.44929359829471E-16,0.,-1.));
#529=DIRECTION('ref_axis',(-8.15778644068135E-32,-1.,0.));
#530=DIRECTION('center_axis',(2.44929359829471E-16,0.,1.));
#531=DIRECTION('ref_axis',(-0.815329724236031,0.578996926397022,1.9969818740707E-16));
#532=DIRECTION('center_axis',(2.44929359829471E-16,0.,1.));
#533=DIRECTION('ref_axis',(1.,-8.15778644068135E-32,-2.44929359829471E-16));
#534=DIRECTION('center_axis',(-2.44929359829471E-16,0.,-1.));
#535=DIRECTION('ref_axis',(-8.15778644068135E-32,-1.,0.));
#536=DIRECTION('center_axis',(2.44929359829471E-16,0.,1.));
#537=DIRECTION('ref_axis',(0.815329724236031,-0.578996926397022,-1.9969818740707E-16));
#538=DIRECTION('center_axis',(2.44929359829471E-16,0.,1.));
#539=DIRECTION('ref_axis',(1.,-8.15778644068135E-32,-2.44929359829471E-16));
#540=DIRECTION('center_axis',(-2.44929359829471E-16,0.,-1.));
#541=DIRECTION('ref_axis',(-8.15778644068135E-32,-1.,0.));
#542=DIRECTION('center_axis',(2.44929359829471E-16,0.,1.));
#543=DIRECTION('ref_axis',(0.909090909090747,0.416597790450884,-2.22663054390388E-16));
#544=DIRECTION('center_axis',(2.44929359829471E-16,0.,1.));
#545=DIRECTION('ref_axis',(1.,-8.15778644068135E-32,-2.44929359829471E-16));
#546=DIRECTION('center_axis',(-2.44929359829471E-16,0.,-1.));
#547=DIRECTION('ref_axis',(-8.15778644068135E-32,-1.,0.));
#548=DIRECTION('center_axis',(-2.44929359829471E-16,0.,-1.));
#549=DIRECTION('ref_axis',(-0.093761184854875,0.995594716847478,2.29648669833572E-17));
#550=DIRECTION('center_axis',(2.44929359829471E-16,0.,1.));
#551=DIRECTION('ref_axis',(1.,-8.15778644068135E-32,-2.44929359829471E-16));
#552=DIRECTION('center_axis',(-0.50000000000019,-0.866025403784329,1.22464679914782E-16));
#553=DIRECTION('ref_axis',(0.,0.,1.));
#554=DIRECTION($,(2.44929359829471E-16,0.,1.));
#555=DIRECTION($,(2.44929359829471E-16,0.,1.));
#556=DIRECTION('center_axis',(-2.44929359829471E-16,0.,-1.));
#557=DIRECTION('ref_axis',(6.420465E-9,1.,-1.57256038225752E-24));
#558=DIRECTION('center_axis',(-2.44929359829471E-16,0.,-1.));
#559=DIRECTION('ref_axis',(0.093761184854875,-0.995594716847478,-2.29648669833572E-17));
#560=DIRECTION('center_axis',(2.44929359829471E-16,0.,1.));
#561=DIRECTION('ref_axis',(1.,-8.15778644068135E-32,-2.44929359829471E-16));
#562=DIRECTION('center_axis',(0.50000000000019,-0.866025403784329,-1.22464679914782E-16));
#563=DIRECTION('ref_axis',(-2.22044604925031E-16,0.,-1.));
#564=DIRECTION($,(2.44929359829471E-16,0.,1.));
#565=DIRECTION($,(2.44929359829471E-16,0.,1.));
#566=DIRECTION('center_axis',(2.44929359829471E-16,0.,1.));
#567=DIRECTION('ref_axis',(1.,-8.15778644068135E-32,-2.44929359829471E-16));
#568=DIRECTION($,(2.44929359829471E-16,0.,1.));
#569=DIRECTION('center_axis',(1.,-8.15778644068135E-32,-2.44929359829471E-16));
#570=DIRECTION('ref_axis',(0.,0.,-1.));
#571=DIRECTION($,(2.44929359829471E-16,0.,1.));
#572=DIRECTION('center_axis',(2.44929359829471E-16,0.,1.));
#573=DIRECTION('ref_axis',(1.,-8.15778644068135E-32,-2.44929359829471E-16));
#574=DIRECTION($,(2.44929359829471E-16,0.,1.));
#575=DIRECTION('center_axis',(0.50000000000019,0.866025403784329,-1.22464679914782E-16));
#576=DIRECTION('ref_axis',(0.,0.,-1.));
#577=DIRECTION($,(2.44929359829471E-16,0.,1.));
#578=DIRECTION('center_axis',(2.44929359829471E-16,0.,1.));
#579=DIRECTION('ref_axis',(1.,-8.15778644068135E-32,-2.44929359829471E-16));
#580=DIRECTION($,(2.44929359829471E-16,0.,1.));
#581=DIRECTION('center_axis',(-0.50000000000019,0.866025403784329,1.22464679914782E-16));
#582=DIRECTION('ref_axis',(2.22044604925031E-16,0.,1.));
#583=DIRECTION($,(2.44929359829471E-16,0.,1.));
#584=DIRECTION('center_axis',(2.44929359829471E-16,0.,1.));
#585=DIRECTION('ref_axis',(1.,-8.15778644068135E-32,-2.44929359829471E-16));
#586=DIRECTION('center_axis',(2.44929359829471E-16,0.,1.));
#587=DIRECTION('ref_axis',(8.15778644068135E-32,1.,0.));
#588=DIRECTION('center_axis',(-2.44929359829471E-16,0.,-1.));
#589=DIRECTION('ref_axis',(1.,-8.15778644068135E-32,-2.44929359829471E-16));
#590=DIRECTION('center_axis',(2.44929359829471E-16,0.,1.));
#591=DIRECTION('ref_axis',(-0.093761184854875,-0.995594716847478,2.29648669833572E-17));
#592=DIRECTION('center_axis',(2.44929359829471E-16,0.,1.));
#593=DIRECTION('ref_axis',(1.,-8.15778644068135E-32,-2.44929359829471E-16));
#594=DIRECTION('center_axis',(2.44929359829471E-16,0.,1.));
#595=DIRECTION('ref_axis',(1.,-8.15778644068135E-32,-2.44929359829471E-16));
#596=DIRECTION('center_axis',(2.44929359829471E-16,0.,1.));
#597=DIRECTION('ref_axis',(-1.,8.15778644068135E-32,2.44929359829471E-16));
#598=DIRECTION('center_axis',(2.44929359829471E-16,0.,1.));
#599=DIRECTION('ref_axis',(-1.,8.15778644068135E-32,2.44929359829471E-16));
#600=DIRECTION('center_axis',(-2.44929359829471E-16,0.,-1.));
#601=DIRECTION('ref_axis',(-1.,8.15778644068135E-32,2.44929359829471E-16));
#602=DIRECTION('center_axis',(-2.44929359829471E-16,0.,-1.));
#603=DIRECTION('ref_axis',(-1.,0.,0.));
#604=DIRECTION('center_axis',(2.44929359829471E-16,0.,1.));
#605=DIRECTION('ref_axis',(1.,0.,0.));
#606=CARTESIAN_POINT('',(0.,0.,0.));
#607=CARTESIAN_POINT('Origin',(-3.25400722396891E-14,2.49154801679197E-7,
14.240506895689));
#608=CARTESIAN_POINT('',(-5.00000000091632,-8.66025378816099,15.9199988250244));
#609=CARTESIAN_POINT('',(-10.,2.49831132317307E-7,15.9199988250243));
#610=CARTESIAN_POINT('Origin',(-2.50232883578288E-14,2.49154801679197E-7,
15.91999882));
#611=CARTESIAN_POINT('',(-8.96862696629351,-6.36896594144705,16.1879480186443));
#612=CARTESIAN_POINT('Ctrl Pts',(-5.00000000103896,-8.6602537880906,15.9199988300488));
#613=CARTESIAN_POINT('Ctrl Pts',(-6.88982236529087,-7.56916433736863,15.9199988301188));
#614=CARTESIAN_POINT('Ctrl Pts',(-8.96862696590488,-6.36896594161089,16.1879480239936));
#615=CARTESIAN_POINT('',(-10.0000000000524,-4.58257544542035,16.1879480186443));
#616=CARTESIAN_POINT('Origin',(-3.20630867336599E-14,2.49154801679197E-7,
16.187948012431));
#617=CARTESIAN_POINT('Ctrl Pts',(-10.,2.49884586588676E-7,15.9199988300486));
#618=CARTESIAN_POINT('Ctrl Pts',(-10.,-2.18217865247688,15.9199988300059));
#619=CARTESIAN_POINT('Ctrl Pts',(-10.,-4.58257544500184,16.1879480239936));
#620=CARTESIAN_POINT('Origin',(-3.25400722396891E-14,2.49154801679197E-7,
14.240506895689));
#621=CARTESIAN_POINT('',(-4.99999999910743,8.66025428751272,15.9199988250239));
#622=CARTESIAN_POINT('Origin',(-2.50232883578288E-14,2.49154801679197E-7,
15.91999882));
#623=CARTESIAN_POINT('',(-10.0000000000524,4.58257594372995,16.1879480186443));
#624=CARTESIAN_POINT('Ctrl Pts',(-10.,2.49884586588676E-7,15.9199988300486));
#625=CARTESIAN_POINT('Ctrl Pts',(-10.,2.18217915155102,15.9199988300913));
#626=CARTESIAN_POINT('Ctrl Pts',(-10.,4.58257594331145,16.1879480239936));
#627=CARTESIAN_POINT('',(-8.9686269662934,6.36896643975501,16.1879480186439));
#628=CARTESIAN_POINT('Origin',(-3.20630867336599E-14,2.49154801679197E-7,
16.187948012431));
#629=CARTESIAN_POINT('Ctrl Pts',(-4.99999999898894,8.66025428757932,15.9199988300477));
#630=CARTESIAN_POINT('Ctrl Pts',(-6.88982236421641,7.56916483629411,15.9199988299795));
#631=CARTESIAN_POINT('Ctrl Pts',(-8.96862696590375,6.36896643991669,16.1879480239928));
#632=CARTESIAN_POINT('Origin',(-3.25400722396891E-14,2.49154801679197E-7,
14.240506895689));
#633=CARTESIAN_POINT('',(9.99999999999998,2.49154801679197E-7,15.91999882));
#634=CARTESIAN_POINT('',(4.99999999910565,-8.66025378920011,15.9199988250229));
#635=CARTESIAN_POINT('Origin',(-2.50232883578288E-14,2.49154801679197E-7,
15.91999882));
#636=CARTESIAN_POINT('',(10.0000000000524,-4.58257544542034,16.1879480186443));
#637=CARTESIAN_POINT('Ctrl Pts',(9.99999999999998,2.48425023662984E-7,15.9199988300486));
#638=CARTESIAN_POINT('Ctrl Pts',(9.99999999999998,-2.18217865324141,15.9199988300913));
#639=CARTESIAN_POINT('Ctrl Pts',(9.99999999999998,-4.58257544500183,16.1879480239936));
#640=CARTESIAN_POINT('',(8.96862696629314,-6.36896594144246,16.1879480186432));
#641=CARTESIAN_POINT('Origin',(-3.20630867336599E-14,2.49154801679197E-7,
16.187948012431));
#642=CARTESIAN_POINT('Ctrl Pts',(4.99999999898544,-8.66025378926371,15.9199988300459));
#643=CARTESIAN_POINT('Ctrl Pts',(6.8898223642134,-7.56916433797822,15.9199988299776));
#644=CARTESIAN_POINT('Ctrl Pts',(8.96862696590165,-6.36896594160026,16.1879480239913));
#645=CARTESIAN_POINT('Origin',(-3.25400722396891E-14,2.49154801679197E-7,
14.240506895689));
#646=CARTESIAN_POINT('',(5.00000000091627,8.66025428647059,15.9199988250244));
#647=CARTESIAN_POINT('Origin',(-2.50232883578288E-14,2.49154801679197E-7,
15.91999882));
#648=CARTESIAN_POINT('',(8.96862696629346,6.36896643975666,16.1879480186443));
#649=CARTESIAN_POINT('Ctrl Pts',(5.00000000103891,8.66025428640021,15.9199988300488));
#650=CARTESIAN_POINT('Ctrl Pts',(6.88982236529083,7.56916483567824,15.9199988301188));
#651=CARTESIAN_POINT('Ctrl Pts',(8.96862696590483,6.3689664399205,16.1879480239936));
#652=CARTESIAN_POINT('',(10.0000000000524,4.58257594372995,16.1879480186443));
#653=CARTESIAN_POINT('Origin',(-3.20630867336599E-14,2.49154801679197E-7,
16.187948012431));
#654=CARTESIAN_POINT('Ctrl Pts',(9.99999999999998,2.48425023662984E-7,15.9199988300486));
#655=CARTESIAN_POINT('Ctrl Pts',(9.99999999999998,2.18217915078649,15.9199988300059));
#656=CARTESIAN_POINT('Ctrl Pts',(9.99999999999998,4.58257594331144,16.1879480239936));
#657=CARTESIAN_POINT('Origin',(-3.25400722396891E-14,2.49154801679197E-7,
14.240506895689));
#658=CARTESIAN_POINT('',(1.03137303375995,10.9515421343316,16.1879480186445));
#659=CARTESIAN_POINT('Ctrl Pts',(5.00000000103891,8.66025428640021,15.9199988300488));
#660=CARTESIAN_POINT('Ctrl Pts',(3.11017763579854,9.75134373769287,15.9199988299788));
#661=CARTESIAN_POINT('Ctrl Pts',(1.03137303409699,10.9515421340785,16.1879480239939));
#662=CARTESIAN_POINT('Origin',(-2.50232883578288E-14,2.49154801679197E-7,
15.91999882));
#663=CARTESIAN_POINT('',(-1.03137303375863,10.9515421343307,16.1879480186441));
#664=CARTESIAN_POINT('Ctrl Pts',(-4.99999999898894,8.66025428757932,15.9199988300477));
#665=CARTESIAN_POINT('Ctrl Pts',(-3.11017763472357,9.75134373830906,15.919998830116));
#666=CARTESIAN_POINT('Ctrl Pts',(-1.03137303409431,10.9515421340756,16.1879480239931));
#667=CARTESIAN_POINT('Origin',(-3.20630867336599E-14,2.49154801679197E-7,
16.187948012431));
#668=CARTESIAN_POINT('Origin',(-10.,5.0408335136068,15.748498819976));
#669=CARTESIAN_POINT('',(-10.0000000000524,4.58257594372995,19.0820496213557));
#670=CARTESIAN_POINT('',(-10.,2.55392257618557E-7,19.3499988149757));
#671=CARTESIAN_POINT('Ctrl Pts',(-10.,4.58257594331144,19.0820496160064));
#672=CARTESIAN_POINT('Ctrl Pts',(-10.,2.18217915443599,19.3499988095867));
#673=CARTESIAN_POINT('Ctrl Pts',(-10.,2.55392262341213E-7,19.3499988099514));
#674=CARTESIAN_POINT($,(-10.,4.5825759441108,16.187948012431));
#675=CARTESIAN_POINT('',(-10.0000000000524,-4.58257544542035,19.0820496213557));
#676=CARTESIAN_POINT($,(-10.,-4.5825754458012,16.187948012431));
#677=CARTESIAN_POINT('Ctrl Pts',(-10.,2.55392262341213E-7,19.3499988099514));
#678=CARTESIAN_POINT('Ctrl Pts',(-10.,-2.18217864959191,19.3499988103161));
#679=CARTESIAN_POINT('Ctrl Pts',(-10.,-4.58257544500185,19.0820496160064));
#680=CARTESIAN_POINT('Origin',(-3.08772507717535E-14,2.49154801679197E-7,
21.029490744311));
#681=CARTESIAN_POINT('',(-8.9686269662935,-6.36896594144706,19.0820496213557));
#682=CARTESIAN_POINT('Origin',(-3.13542362777827E-14,2.49154801679197E-7,
19.082049627569));
#683=CARTESIAN_POINT('',(-5.0000000656252,-8.6602537508013,19.3499988149756));
#684=CARTESIAN_POINT('Ctrl Pts',(-8.96862696590486,-6.36896594161091,19.0820496160064));
#685=CARTESIAN_POINT('Ctrl Pts',(-6.88982239912185,-7.56916431783631,19.3499988055206));
#686=CARTESIAN_POINT('Ctrl Pts',(-5.00000006562538,-8.66025375080162,19.3499988099512));
#687=CARTESIAN_POINT('Origin',(-2.41831806536137E-14,2.49154801679197E-7,
19.34999882));
#688=CARTESIAN_POINT('Origin',(-3.08772507717535E-14,2.49154801679197E-7,
21.029490744311));
#689=CARTESIAN_POINT('',(-8.9686269662934,6.36896643975501,19.0820496213561));
#690=CARTESIAN_POINT('Origin',(-3.13542362777827E-14,2.49154801679197E-7,
19.082049627569));
#691=CARTESIAN_POINT('',(-4.99999999910743,8.66025428751272,19.3499988149761));
#692=CARTESIAN_POINT('Origin',(-2.41831806536137E-14,2.49154801679197E-7,
19.34999882));
#693=CARTESIAN_POINT('Ctrl Pts',(-4.99999999898895,8.66025428757931,19.3499988099523));
#694=CARTESIAN_POINT('Ctrl Pts',(-6.88982236421642,7.56916483629411,19.3499988100206));
#695=CARTESIAN_POINT('Ctrl Pts',(-8.96862696590376,6.36896643991668,19.0820496160073));
#696=CARTESIAN_POINT('Origin',(-3.08772507717535E-14,2.49154801679197E-7,
21.029490744311));
#697=CARTESIAN_POINT('',(8.96862696629315,-6.36896594144246,19.0820496213568));
#698=CARTESIAN_POINT('',(10.0000000000524,-4.58257544542034,19.0820496213557));
#699=CARTESIAN_POINT('Origin',(-3.13542362777827E-14,2.49154801679197E-7,
19.082049627569));
#700=CARTESIAN_POINT('',(9.99999999999998,2.49154801679197E-7,19.34999882));
#701=CARTESIAN_POINT('Ctrl Pts',(9.99999999999997,-4.58257544500183,19.0820496160064));
#702=CARTESIAN_POINT('Ctrl Pts',(9.99999999999997,-2.18217865612638,19.3499988095867));
#703=CARTESIAN_POINT('Ctrl Pts',(9.99999999999997,2.42917350718246E-7,19.3499988099514));
#704=CARTESIAN_POINT('',(4.99999995441673,-8.66025381500128,19.3499988149771));
#705=CARTESIAN_POINT('Origin',(-2.41831806536137E-14,2.49154801679197E-7,
19.34999882));
#706=CARTESIAN_POINT('Ctrl Pts',(4.99999995441422,-8.66025381499692,19.3499988099541));
#707=CARTESIAN_POINT('Ctrl Pts',(6.88982234086658,-7.56916435145751,19.3499988130317));
#708=CARTESIAN_POINT('Ctrl Pts',(8.96862696590167,-6.36896594160026,19.0820496160088));
#709=CARTESIAN_POINT('Origin',(-3.08772507717535E-14,2.49154801679197E-7,
21.029490744311));
#710=CARTESIAN_POINT('',(10.0000000000524,4.58257594372994,19.0820496213557));
#711=CARTESIAN_POINT('',(8.96862696629346,6.36896643975666,19.0820496213557));
#712=CARTESIAN_POINT('Origin',(-3.13542362777827E-14,2.49154801679197E-7,
19.082049627569));
#713=CARTESIAN_POINT('',(5.00000000091627,8.66025428647059,19.3499988149756));
#714=CARTESIAN_POINT('Ctrl Pts',(8.96862696590483,6.3689664399205,19.0820496160064));
#715=CARTESIAN_POINT('Ctrl Pts',(6.88982236529083,7.56916483567824,19.3499988098812));
#716=CARTESIAN_POINT('Ctrl Pts',(5.00000000103892,8.6602542864002,19.3499988099512));
#717=CARTESIAN_POINT('Origin',(-2.41831806536137E-14,2.49154801679197E-7,
19.34999882));
#718=CARTESIAN_POINT('Ctrl Pts',(9.99999999999997,2.42917350718246E-7,19.3499988099514));
#719=CARTESIAN_POINT('Ctrl Pts',(9.99999999999997,2.18217914790151,19.3499988103161));
#720=CARTESIAN_POINT('Ctrl Pts',(9.99999999999997,4.58257594331144,19.0820496160064));
#721=CARTESIAN_POINT('Origin',(-3.08772507717535E-14,2.49154801679197E-7,
21.029490744311));
#722=CARTESIAN_POINT('',(1.03137303375995,10.9515421343316,19.0820496213555));
#723=CARTESIAN_POINT('Ctrl Pts',(5.00000000103892,8.6602542864002,19.3499988099512));
#724=CARTESIAN_POINT('Ctrl Pts',(3.11017763579855,9.75134373769286,19.3499988100212));
#725=CARTESIAN_POINT('Ctrl Pts',(1.031373034097,10.9515421340785,19.0820496160061));
#726=CARTESIAN_POINT('',(-1.03137303375862,10.9515421343307,19.0820496213559));
#727=CARTESIAN_POINT('Origin',(-3.13542362777827E-14,2.49154801679197E-7,
19.082049627569));
#728=CARTESIAN_POINT('Ctrl Pts',(-1.03137303409429,10.9515421340756,19.0820496160069));
#729=CARTESIAN_POINT('Ctrl Pts',(-3.11017763472357,9.75134373830906,19.349998809884));
#730=CARTESIAN_POINT('Ctrl Pts',(-4.99999999898895,8.66025428757931,19.3499988099523));
#731=CARTESIAN_POINT('Origin',(-2.41831806536137E-14,2.49154801679197E-7,
19.34999882));
#732=CARTESIAN_POINT('Origin',(-9.36548966325703,-6.1398371564632,15.748498819979));
#733=CARTESIAN_POINT($,(-8.96862696659703,-6.3689659412112,16.187948012431));
#734=CARTESIAN_POINT('',(-1.03137303376,-10.951541636022,16.1879480186445));
#735=CARTESIAN_POINT('Ctrl Pts',(-5.00000000103894,-8.66025378809061,15.9199988300488));
#736=CARTESIAN_POINT('Ctrl Pts',(-3.11017763579858,-9.75134323938326,15.9199988299788));
#737=CARTESIAN_POINT('Ctrl Pts',(-1.03137303409704,-10.9515416357689,16.1879480239939));
#738=CARTESIAN_POINT('',(-1.03137303375999,-10.951541636022,19.0820496213555));
#739=CARTESIAN_POINT($,(-1.03137303340303,-10.9515416361652,16.187948012431));
#740=CARTESIAN_POINT('Ctrl Pts',(-5.00000006562538,-8.66025375080162,19.3499988099512));
#741=CARTESIAN_POINT('Ctrl Pts',(-3.11017766962957,-9.75134321985094,19.3499988143819));
#742=CARTESIAN_POINT('Ctrl Pts',(-1.03137303409703,-10.9515416357689,19.0820496160061));
#743=CARTESIAN_POINT('Origin',(-3.08772507717535E-14,2.49154801679197E-7,
21.029490744311));
#744=CARTESIAN_POINT('',(1.03137303375612,-10.9515416360195,19.0820496213567));
#745=CARTESIAN_POINT('Origin',(-3.13542362777827E-14,2.49154801679197E-7,
19.082049627569));
#746=CARTESIAN_POINT('Ctrl Pts',(1.03137303408935,-10.9515416357608,19.0820496160084));
#747=CARTESIAN_POINT('Ctrl Pts',(3.11017761137273,-9.75134325347304,19.3499988068765));
#748=CARTESIAN_POINT('Ctrl Pts',(4.99999995441422,-8.66025381499692,19.3499988099541));
#749=CARTESIAN_POINT('Origin',(-2.41831806536137E-14,2.49154801679197E-7,
19.34999882));
#750=CARTESIAN_POINT('Origin',(0.634510336742975,-11.1806704209052,15.748498819998));
#751=CARTESIAN_POINT('',(1.03137303375612,-10.9515416360195,16.1879480186433));
#752=CARTESIAN_POINT($,(1.03137303340297,-10.9515416361652,16.187948012431));
#753=CARTESIAN_POINT('Ctrl Pts',(4.99999999898544,-8.66025378926371,15.9199988300459));
#754=CARTESIAN_POINT('Ctrl Pts',(3.11017763471956,-9.75134323999374,15.9199988301142));
#755=CARTESIAN_POINT('Ctrl Pts',(1.03137303408936,-10.9515416357608,16.1879480239916));
#756=CARTESIAN_POINT($,(8.96862696659698,-6.3689659412112,16.187948012431));
#757=CARTESIAN_POINT('Origin',(-3.21287153578288E-14,2.49154801679197E-7,
15.91999882));
#758=CARTESIAN_POINT($,(9.99999999999998,-4.5825754458012,16.187948012431));
#759=CARTESIAN_POINT('Origin',(9.99999999999998,-5.0408330152972,15.748498819976));
#760=CARTESIAN_POINT($,(9.99999999999998,4.5825759441108,16.187948012431));
#761=CARTESIAN_POINT('Origin',(-3.21287153578288E-14,2.49154801679197E-7,
15.91999882));
#762=CARTESIAN_POINT($,(8.96862696659698,6.3689664395208,16.187948012431));
#763=CARTESIAN_POINT('Origin',(9.36548966325698,6.1398376547728,15.748498819998));
#764=CARTESIAN_POINT($,(1.03137303340297,10.9515421344748,16.187948012431));
#765=CARTESIAN_POINT('Origin',(-3.21287153578288E-14,2.49154801679197E-7,
15.91999882));
#766=CARTESIAN_POINT($,(-1.03137303340303,10.9515421344748,16.187948012431));
#767=CARTESIAN_POINT('Origin',(-0.634510336743025,11.1806709192228,15.748498819998));
#768=CARTESIAN_POINT($,(-8.96862696659703,6.3689664395208,16.187948012431));
#769=CARTESIAN_POINT('Origin',(-3.21287153578288E-14,2.49154801679197E-7,
15.91999882));
#770=CARTESIAN_POINT('Origin',(-3.25400722396891E-14,2.49154801679197E-7,
14.240506895689));
#771=CARTESIAN_POINT('Origin',(-2.50232883578288E-14,2.49154801679197E-7,
15.91999882));
#772=CARTESIAN_POINT('Origin',(-3.20630867336599E-14,2.49154801679197E-7,
16.187948012431));
#773=CARTESIAN_POINT('Origin',(-3.21287153578288E-14,2.49154801679197E-7,
15.91999882));
#774=CARTESIAN_POINT('Origin',(-3.21287153578288E-14,2.49154801679197E-7,
15.91999882));
#775=CARTESIAN_POINT('Origin',(-2.88836060774607E-14,2.49154801679197E-7,
0.159055655327666));
#776=CARTESIAN_POINT('',(8.19999999999997,2.49154802683407E-7,15.91999882));
#777=CARTESIAN_POINT('Origin',(-2.50232883578288E-14,2.49154801679197E-7,
15.91999882));
#778=CARTESIAN_POINT('',(8.19999999999997,2.49154800674986E-7,19.34999882));
#779=CARTESIAN_POINT('Origin',(-2.41831806536137E-14,2.49154801679197E-7,
19.34999882));
#780=CARTESIAN_POINT('Origin',(-2.50232883578288E-14,2.49154801679197E-7,
15.91999882));
#781=CARTESIAN_POINT('Origin',(-2.41831806536137E-14,2.49154801679197E-7,
19.34999882));
#782=UNCERTAINTY_MEASURE_WITH_UNIT(LENGTH_MEASURE(0.01),#786,
'DISTANCE_ACCURACY_VALUE',
'Maximum model space distance between geometric entities at asserted c
onnectivities');
#783=UNCERTAINTY_MEASURE_WITH_UNIT(LENGTH_MEASURE(1.E-6),#786,
'DISTANCE_ACCURACY_VALUE',
'Maximum model space distance between geometric entities at asserted c
onnectivities');
#784=(
GEOMETRIC_REPRESENTATION_CONTEXT(3)
GLOBAL_UNCERTAINTY_ASSIGNED_CONTEXT((#782))
GLOBAL_UNIT_ASSIGNED_CONTEXT((#786,#788,#787))
REPRESENTATION_CONTEXT('','3D')
);
#785=(
GEOMETRIC_REPRESENTATION_CONTEXT(3)
GLOBAL_UNCERTAINTY_ASSIGNED_CONTEXT((#783))
GLOBAL_UNIT_ASSIGNED_CONTEXT((#786,#12,#787))
REPRESENTATION_CONTEXT('','3D')
);
#786=(
LENGTH_UNIT()
NAMED_UNIT(*)
SI_UNIT(.MILLI.,.METRE.)
);
#787=(
NAMED_UNIT(*)
SI_UNIT($,.STERADIAN.)
SOLID_ANGLE_UNIT()
);
#788=(
NAMED_UNIT(*)
PLANE_ANGLE_UNIT()
SI_UNIT($,.RADIAN.)
);
#789=SHAPE_DEFINITION_REPRESENTATION(#790,#791);
#790=PRODUCT_DEFINITION_SHAPE('',$,#793);
#791=SHAPE_REPRESENTATION('',(#432),#784);
#792=PRODUCT_DEFINITION_CONTEXT('part definition',#797,'design');
#793=PRODUCT_DEFINITION('Product','Product',#794,#792);
#794=PRODUCT_DEFINITION_FORMATION('',$,#799);
#795=PRODUCT_RELATED_PRODUCT_CATEGORY('Product','Product',(#799));
#796=APPLICATION_PROTOCOL_DEFINITION('international standard',
'automotive_design',2009,#797);
#797=APPLICATION_CONTEXT(
'Core Data for Automotive Mechanical Design Process');
#798=PRODUCT_CONTEXT('part definition',#797,'mechanical');
#799=PRODUCT('Product','Product',$,(#798));
#800=PRESENTATION_STYLE_ASSIGNMENT((#802));
#801=PRESENTATION_STYLE_ASSIGNMENT((#803));
#802=SURFACE_STYLE_USAGE(.BOTH.,#804);
#803=SURFACE_STYLE_USAGE(.BOTH.,#805);
#804=SURFACE_SIDE_STYLE($,(#806));
#805=SURFACE_SIDE_STYLE($,(#807));
#806=SURFACE_STYLE_FILL_AREA(#808);
#807=SURFACE_STYLE_FILL_AREA(#809);
#808=FILL_AREA_STYLE($,(#810));
#809=FILL_AREA_STYLE($,(#811));
#810=FILL_AREA_STYLE_COLOUR($,#812);
#811=FILL_AREA_STYLE_COLOUR($,#813);
#812=COLOUR_RGB('',1.,1.,1.);
#813=COLOUR_RGB('',0.866666666666667,0.866666666666667,0.866666666666667);
ENDSEC;
END-ISO-10303-21;
