ISO-10303-21;
HEADER;
/****************************************************************
 * Generated by software with PDElib inside                    *
 * PDElib Version v51a, created Fri 09/10/2010                  *
 * ITI Transcendata (http://www.transcendata.com/)              *
 ****************************************************************/
FILE_DESCRIPTION((''),'2;1');
FILE_NAME('THERMC2013X95N.stp','2013-10-28T17:04:40',(''),(''),'Mechanical Desktop 2011','Mechanical Desktop 2011',', , ');
FILE_SCHEMA(('AUTOMOTIVE_DESIGN { 1 2 10303 214 1 1 1 1 }'));
ENDSEC;
DATA;
#10=(NAMED_UNIT(*)PLANE_ANGLE_UNIT()SI_UNIT($,.RADIAN.));
#11=DIMENSIONAL_EXPONENTS(0.0,0.0,0.0,0.0,0.0,0.0,0.0);
#12=PLANE_ANGLE_MEASURE_WITH_UNIT(PLANE_ANGLE_MEASURE(0.0174532925),#10);
#16=(CONVERSION_BASED_UNIT('DEGREE',#12)NAMED_UNIT(#11)PLANE_ANGLE_UNIT());
#20=(NAMED_UNIT(*)SI_UNIT($,.STERADIAN.)SOLID_ANGLE_UNIT());
#24=(LENGTH_UNIT()NAMED_UNIT(*)SI_UNIT(.MILLI.,.METRE.));
#26=UNCERTAINTY_MEASURE_WITH_UNIT(LENGTH_MEASURE(0.000001),#24,'DISTANCE_ACCURACY_VALUE','');
#28=(GEOMETRIC_REPRESENTATION_CONTEXT(3)GLOBAL_UNCERTAINTY_ASSIGNED_CONTEXT((#26))GLOBAL_UNIT_ASSIGNED_CONTEXT((#16,#20,#24))REPRESENTATION_CONTEXT('','3D'));
#29=APPLICATION_CONTEXT('automotive design');
#30=APPLICATION_PROTOCOL_DEFINITION('INTERNATIONAL_STANDARD','automotive_design',1998,#29);
#31=PRODUCT_CONTEXT('3D Mechanical Parts',#29,'mechanical');
#32=PRODUCT('Product','Product','',(#31));
#33=PRODUCT_RELATED_PRODUCT_CATEGORY('part',$,(#32));
#34=PRODUCT_CATEGORY('part',$);
#35=PERSON('1','Design','Joe',$,$,$);
#36=ORGANIZATION($,'None','None');
#37=PERSON_AND_ORGANIZATION(#35,#36);
#38=PERSON_AND_ORGANIZATION_ROLE('design_owner');
#39=APPLIED_PERSON_AND_ORGANIZATION_ASSIGNMENT(#37,#38,(#32));
#40=PRODUCT_DEFINITION_FORMATION_WITH_SPECIFIED_SOURCE('None','',#32,.BOUGHT.);
#41=PERSON('2','Creator','Joe',$,$,$);
#42=ORGANIZATION($,'None','None');
#43=PERSON_AND_ORGANIZATION(#41,#42);
#44=PERSON_AND_ORGANIZATION_ROLE('creator');
#45=APPLIED_PERSON_AND_ORGANIZATION_ASSIGNMENT(#43,#44,(#40));
#46=PERSON('3','Supplier','Joe',$,$,$);
#47=ORGANIZATION($,'None','None');
#48=PERSON_AND_ORGANIZATION(#46,#47);
#49=PERSON_AND_ORGANIZATION_ROLE('design_supplier');
#50=APPLIED_PERSON_AND_ORGANIZATION_ASSIGNMENT(#48,#49,(#40));
#51=PRODUCT_DEFINITION_CONTEXT('part definition',#29,'design');
#52=PRODUCT_DEFINITION('None','',#40,#51);
#53=PERSON('4','Creator','Joe',$,$,$);
#54=ORGANIZATION($,'None','None');
#55=PERSON_AND_ORGANIZATION(#53,#54);
#56=PERSON_AND_ORGANIZATION_ROLE('creator');
#57=APPLIED_PERSON_AND_ORGANIZATION_ASSIGNMENT(#55,#56,(#52));
#58=CARTESIAN_POINT('NONE',(0.0,0.0,0.0));
#59=DIRECTION('NONE',(0.0,0.0,1.0));
#60=DIRECTION('NONE',(1.0,0.0,0.0));
#61=AXIS2_PLACEMENT_3D('NONE',#58,#59,#60);
#62=SHAPE_REPRESENTATION('SR1',(#61),#28);
#63=PRODUCT_DEFINITION_SHAPE('PDS1','Test Part',#52);
#64=SHAPE_DEFINITION_REPRESENTATION(#63,#62);
#65=CARTESIAN_POINT('',(0.0,0.0,0.0));
#66=DIRECTION('',(0.0,0.0,-1.0));
#67=DIRECTION('',(1.0,0.0,0.0));
#68=AXIS2_PLACEMENT_3D('',#65,#66,#67);
#69=PLANE('',#68);
#70=CARTESIAN_POINT('',(0.5,0.7,0.0));
#71=VERTEX_POINT('',#70);
#72=CARTESIAN_POINT('',(0.5,-0.7,0.0));
#73=VERTEX_POINT('',#72);
#74=CARTESIAN_POINT('',(0.5,0.7,0.0));
#75=DIRECTION('',(0.0,-1.0,0.0));
#76=VECTOR('',#75,1.4);
#77=LINE('',#74,#76);
#78=EDGE_CURVE('',#71,#73,#77,.T.);
#79=ORIENTED_EDGE('',*,*,#78,.T.);
#80=CARTESIAN_POINT('',(-0.5,-0.7,0.0));
#81=VERTEX_POINT('',#80);
#82=CARTESIAN_POINT('',(0.5,-0.7,0.0));
#83=DIRECTION('',(-1.0,0.0,0.0));
#84=VECTOR('',#83,0.999999999999999);
#85=LINE('',#82,#84);
#86=EDGE_CURVE('',#73,#81,#85,.T.);
#87=ORIENTED_EDGE('',*,*,#86,.T.);
#88=CARTESIAN_POINT('',(-0.5,0.7,0.0));
#89=VERTEX_POINT('',#88);
#90=CARTESIAN_POINT('',(-0.5,-0.7,0.0));
#91=DIRECTION('',(0.0,1.0,0.0));
#92=VECTOR('',#91,1.4);
#93=LINE('',#90,#92);
#94=EDGE_CURVE('',#81,#89,#93,.T.);
#95=ORIENTED_EDGE('',*,*,#94,.T.);
#96=CARTESIAN_POINT('',(-0.5,0.7,0.0));
#97=DIRECTION('',(1.0,0.0,0.0));
#98=VECTOR('',#97,0.999999999999999);
#99=LINE('',#96,#98);
#100=EDGE_CURVE('',#89,#71,#99,.T.);
#101=ORIENTED_EDGE('',*,*,#100,.T.);
#102=EDGE_LOOP('',(#79,#87,#95,#101));
#103=FACE_OUTER_BOUND('',#102,.T.);
#104=ADVANCED_FACE('',(#103),#69,.T.);
#105=CARTESIAN_POINT('',(0.0,0.0,0.95));
#106=DIRECTION('',(0.0,0.0,-1.0));
#107=DIRECTION('',(1.0,0.0,0.0));
#108=AXIS2_PLACEMENT_3D('',#105,#106,#107);
#109=PLANE('',#108);
#110=CARTESIAN_POINT('',(0.5,-0.7,0.95));
#111=VERTEX_POINT('',#110);
#112=CARTESIAN_POINT('',(0.5,0.7,0.95));
#113=VERTEX_POINT('',#112);
#114=CARTESIAN_POINT('',(0.5,-0.7,0.95));
#115=DIRECTION('',(0.0,1.0,0.0));
#116=VECTOR('',#115,1.4);
#117=LINE('',#114,#116);
#118=EDGE_CURVE('',#111,#113,#117,.T.);
#119=ORIENTED_EDGE('',*,*,#118,.T.);
#120=CARTESIAN_POINT('',(-0.5,0.7,0.95));
#121=VERTEX_POINT('',#120);
#122=CARTESIAN_POINT('',(0.5,0.7,0.95));
#123=DIRECTION('',(-1.0,0.0,0.0));
#124=VECTOR('',#123,0.999999999999999);
#125=LINE('',#122,#124);
#126=EDGE_CURVE('',#113,#121,#125,.T.);
#127=ORIENTED_EDGE('',*,*,#126,.T.);
#128=CARTESIAN_POINT('',(-0.5,-0.7,0.95));
#129=VERTEX_POINT('',#128);
#130=CARTESIAN_POINT('',(-0.5,0.7,0.95));
#131=DIRECTION('',(0.0,-1.0,0.0));
#132=VECTOR('',#131,1.4);
#133=LINE('',#130,#132);
#134=EDGE_CURVE('',#121,#129,#133,.T.);
#135=ORIENTED_EDGE('',*,*,#134,.T.);
#136=CARTESIAN_POINT('',(-0.5,-0.7,0.95));
#137=DIRECTION('',(1.0,0.0,0.0));
#138=VECTOR('',#137,0.999999999999999);
#139=LINE('',#136,#138);
#140=EDGE_CURVE('',#129,#111,#139,.T.);
#141=ORIENTED_EDGE('',*,*,#140,.T.);
#142=EDGE_LOOP('',(#119,#127,#135,#141));
#143=FACE_OUTER_BOUND('',#142,.T.);
#144=ADVANCED_FACE('',(#143),#109,.F.);
#145=CARTESIAN_POINT('',(0.0,0.7,0.475));
#146=DIRECTION('',(0.0,-1.0,0.0));
#147=DIRECTION('',(0.0,0.0,-1.0));
#148=AXIS2_PLACEMENT_3D('',#145,#146,#147);
#149=PLANE('',#148);
#150=CARTESIAN_POINT('',(-0.5,0.7,0.0));
#151=DIRECTION('',(0.0,0.0,1.0));
#152=VECTOR('',#151,0.95);
#153=LINE('',#150,#152);
#154=EDGE_CURVE('',#89,#121,#153,.T.);
#155=ORIENTED_EDGE('',*,*,#154,.T.);
#156=ORIENTED_EDGE('',*,*,#126,.F.);
#157=CARTESIAN_POINT('',(0.5,0.7,0.0));
#158=DIRECTION('',(0.0,0.0,1.0));
#159=VECTOR('',#158,0.95);
#160=LINE('',#157,#159);
#161=EDGE_CURVE('',#71,#113,#160,.T.);
#162=ORIENTED_EDGE('',*,*,#161,.F.);
#163=ORIENTED_EDGE('',*,*,#100,.F.);
#164=EDGE_LOOP('',(#155,#156,#162,#163));
#165=FACE_OUTER_BOUND('',#164,.T.);
#166=ADVANCED_FACE('',(#165),#149,.F.);
#167=CARTESIAN_POINT('',(-0.5,0.0,0.475));
#168=DIRECTION('',(1.0,0.0,0.0));
#169=DIRECTION('',(0.0,0.0,1.0));
#170=AXIS2_PLACEMENT_3D('',#167,#168,#169);
#171=PLANE('',#170);
#172=CARTESIAN_POINT('',(-0.5,-0.7,0.0));
#173=DIRECTION('',(0.0,0.0,1.0));
#174=VECTOR('',#173,0.95);
#175=LINE('',#172,#174);
#176=EDGE_CURVE('',#81,#129,#175,.T.);
#177=ORIENTED_EDGE('',*,*,#176,.T.);
#178=ORIENTED_EDGE('',*,*,#134,.F.);
#179=ORIENTED_EDGE('',*,*,#154,.F.);
#180=ORIENTED_EDGE('',*,*,#94,.F.);
#181=EDGE_LOOP('',(#177,#178,#179,#180));
#182=FACE_OUTER_BOUND('',#181,.T.);
#183=ADVANCED_FACE('',(#182),#171,.F.);
#184=CARTESIAN_POINT('',(0.0,-0.7,0.475));
#185=DIRECTION('',(0.0,1.0,0.0));
#186=DIRECTION('',(0.0,0.0,1.0));
#187=AXIS2_PLACEMENT_3D('',#184,#185,#186);
#188=PLANE('',#187);
#189=CARTESIAN_POINT('',(0.5,-0.7,0.0));
#190=DIRECTION('',(0.0,0.0,1.0));
#191=VECTOR('',#190,0.95);
#192=LINE('',#189,#191);
#193=EDGE_CURVE('',#73,#111,#192,.T.);
#194=ORIENTED_EDGE('',*,*,#193,.T.);
#195=ORIENTED_EDGE('',*,*,#140,.F.);
#196=ORIENTED_EDGE('',*,*,#176,.F.);
#197=ORIENTED_EDGE('',*,*,#86,.F.);
#198=EDGE_LOOP('',(#194,#195,#196,#197));
#199=FACE_OUTER_BOUND('',#198,.T.);
#200=ADVANCED_FACE('',(#199),#188,.F.);
#201=CARTESIAN_POINT('',(0.5,0.0,0.475));
#202=DIRECTION('',(-1.0,0.0,0.0));
#203=DIRECTION('',(0.0,0.0,-1.0));
#204=AXIS2_PLACEMENT_3D('',#201,#202,#203);
#205=PLANE('',#204);
#206=ORIENTED_EDGE('',*,*,#161,.T.);
#207=ORIENTED_EDGE('',*,*,#118,.F.);
#208=ORIENTED_EDGE('',*,*,#193,.F.);
#209=ORIENTED_EDGE('',*,*,#78,.F.);
#210=EDGE_LOOP('',(#206,#207,#208,#209));
#211=FACE_OUTER_BOUND('',#210,.T.);
#212=ADVANCED_FACE('',(#211),#205,.F.);
#213=CLOSED_SHELL('',(#104,#144,#166,#183,#200,#212));
#214=MANIFOLD_SOLID_BREP('50F',#213);
#215=COLOUR_RGB('250',0.33,0.33,0.33);
#216=SURFACE_STYLE_USAGE(.BOTH.,#217);
#217=SURFACE_SIDE_STYLE('NONE',(#218));
#218=SURFACE_STYLE_FILL_AREA(#219);
#219=FILL_AREA_STYLE('NONE',(#220));
#220=FILL_AREA_STYLE_COLOUR('NONE',#215);
#221=PRESENTATION_STYLE_ASSIGNMENT((#216));
#222=STYLED_ITEM('NONE',(#221),#214);
#223=MECHANICAL_DESIGN_GEOMETRIC_PRESENTATION_REPRESENTATION('NONE',(#222,#382,#533),#28);
#224=PRESENTATION_LAYER_ASSIGNMENT('3D','None',(#214,#374,#532));
#225=CARTESIAN_POINT('',(0.5,0.7,0.95));
#226=CARTESIAN_POINT('',(0.499999999999999,-0.7,0.95));
#227=CARTESIAN_POINT('',(1.100000000000001,0.7,0.95));
#228=CARTESIAN_POINT('',(1.1,-0.7,0.95));
#229=B_SPLINE_SURFACE_WITH_KNOTS('',1,1,((#225,#227),(#226,#228)),.UNSPECIFIED.,.F.,.F.,.U.,(2,2),(2,2),(0.0,1.4),(0.0,0.600000000000001),.UNSPECIFIED.);
#230=CARTESIAN_POINT('',(1.1,-0.7,0.95));
#231=VERTEX_POINT('',#230);
#232=CARTESIAN_POINT('',(0.5,-0.7,0.95));
#233=VERTEX_POINT('',#232);
#234=CARTESIAN_POINT('',(1.1,-0.7,0.95));
#235=DIRECTION('',(-1.0,0.0,0.0));
#236=VECTOR('',#235,0.6);
#237=LINE('',#234,#236);
#238=EDGE_CURVE('',#231,#233,#237,.T.);
#239=ORIENTED_EDGE('',*,*,#238,.F.);
#240=CARTESIAN_POINT('',(1.1,0.7,0.95));
#241=VERTEX_POINT('',#240);
#242=CARTESIAN_POINT('',(1.1,0.7,0.95));
#243=DIRECTION('',(0.0,-1.0,0.0));
#244=VECTOR('',#243,1.4);
#245=LINE('',#242,#244);
#246=EDGE_CURVE('',#241,#231,#245,.T.);
#247=ORIENTED_EDGE('',*,*,#246,.F.);
#248=CARTESIAN_POINT('',(0.5,0.7,0.95));
#249=VERTEX_POINT('',#248);
#250=CARTESIAN_POINT('',(0.5,0.7,0.95));
#251=DIRECTION('',(1.0,0.0,0.0));
#252=VECTOR('',#251,0.6);
#253=LINE('',#250,#252);
#254=EDGE_CURVE('',#249,#241,#253,.T.);
#255=ORIENTED_EDGE('',*,*,#254,.F.);
#256=CARTESIAN_POINT('',(0.5,-0.7,0.95));
#257=DIRECTION('',(0.0,1.0,0.0));
#258=VECTOR('',#257,1.399999999999999);
#259=LINE('',#256,#258);
#260=EDGE_CURVE('',#233,#249,#259,.T.);
#261=ORIENTED_EDGE('',*,*,#260,.F.);
#262=EDGE_LOOP('',(#239,#247,#255,#261));
#263=FACE_OUTER_BOUND('',#262,.T.);
#264=ADVANCED_FACE('',(#263),#229,.T.);
#265=CARTESIAN_POINT('',(0.5,0.7,0.0));
#266=CARTESIAN_POINT('',(0.499999999999999,-0.7,0.0));
#267=CARTESIAN_POINT('',(1.100000000000001,0.7,0.0));
#268=CARTESIAN_POINT('',(1.1,-0.7,0.0));
#269=B_SPLINE_SURFACE_WITH_KNOTS('',1,1,((#265,#267),(#266,#268)),.UNSPECIFIED.,.F.,.F.,.U.,(2,2),(2,2),(0.0,1.4),(0.0,0.600000000000001),.UNSPECIFIED.);
#270=CARTESIAN_POINT('',(0.5,-0.7,0.0));
#271=VERTEX_POINT('',#270);
#272=CARTESIAN_POINT('',(1.1,-0.7,0.0));
#273=VERTEX_POINT('',#272);
#274=CARTESIAN_POINT('',(0.5,-0.7,0.0));
#275=DIRECTION('',(1.0,0.0,0.0));
#276=VECTOR('',#275,0.6);
#277=LINE('',#274,#276);
#278=EDGE_CURVE('',#271,#273,#277,.T.);
#279=ORIENTED_EDGE('',*,*,#278,.F.);
#280=CARTESIAN_POINT('',(0.5,0.7,0.0));
#281=VERTEX_POINT('',#280);
#282=CARTESIAN_POINT('',(0.5,0.7,0.0));
#283=DIRECTION('',(0.0,-1.0,0.0));
#284=VECTOR('',#283,1.399999999999999);
#285=LINE('',#282,#284);
#286=EDGE_CURVE('',#281,#271,#285,.T.);
#287=ORIENTED_EDGE('',*,*,#286,.F.);
#288=CARTESIAN_POINT('',(1.1,0.7,0.0));
#289=VERTEX_POINT('',#288);
#290=CARTESIAN_POINT('',(1.1,0.7,0.0));
#291=DIRECTION('',(-1.0,0.0,0.0));
#292=VECTOR('',#291,0.6);
#293=LINE('',#290,#292);
#294=EDGE_CURVE('',#289,#281,#293,.T.);
#295=ORIENTED_EDGE('',*,*,#294,.F.);
#296=CARTESIAN_POINT('',(1.099999999999999,-0.7,0.0));
#297=DIRECTION('',(0.0,1.0,0.0));
#298=VECTOR('',#297,1.4);
#299=LINE('',#296,#298);
#300=EDGE_CURVE('',#273,#289,#299,.T.);
#301=ORIENTED_EDGE('',*,*,#300,.F.);
#302=EDGE_LOOP('',(#279,#287,#295,#301));
#303=FACE_OUTER_BOUND('',#302,.T.);
#304=ADVANCED_FACE('',(#303),#269,.F.);
#305=CARTESIAN_POINT('',(1.099999999999999,-0.7,0.0));
#306=CARTESIAN_POINT('',(1.099999999999999,-0.7,0.95));
#307=CARTESIAN_POINT('',(1.1,0.7,0.0));
#308=CARTESIAN_POINT('',(1.1,0.7,0.95));
#309=B_SPLINE_SURFACE_WITH_KNOTS('',1,1,((#305,#307),(#306,#308)),.UNSPECIFIED.,.F.,.F.,.U.,(2,2),(2,2),(0.0,0.95),(0.0,1.4),.UNSPECIFIED.);
#310=CARTESIAN_POINT('',(1.1,0.7,0.95));
#311=DIRECTION('',(0.0,0.0,-1.0));
#312=VECTOR('',#311,0.95);
#313=LINE('',#310,#312);
#314=EDGE_CURVE('',#241,#289,#313,.T.);
#315=ORIENTED_EDGE('',*,*,#314,.F.);
#316=ORIENTED_EDGE('',*,*,#246,.T.);
#317=CARTESIAN_POINT('',(1.1,-0.7,0.95));
#318=DIRECTION('',(0.0,0.0,-1.0));
#319=VECTOR('',#318,0.95);
#320=LINE('',#317,#319);
#321=EDGE_CURVE('',#231,#273,#320,.T.);
#322=ORIENTED_EDGE('',*,*,#321,.T.);
#323=ORIENTED_EDGE('',*,*,#300,.T.);
#324=EDGE_LOOP('',(#315,#316,#322,#323));
#325=FACE_OUTER_BOUND('',#324,.T.);
#326=ADVANCED_FACE('',(#325),#309,.F.);
#327=CARTESIAN_POINT('',(0.5,0.7,0.95));
#328=CARTESIAN_POINT('',(0.5,0.7,0.0));
#329=CARTESIAN_POINT('',(1.1,0.7,0.95));
#330=CARTESIAN_POINT('',(1.1,0.7,0.0));
#331=B_SPLINE_SURFACE_WITH_KNOTS('',1,1,((#327,#329),(#328,#330)),.UNSPECIFIED.,.F.,.F.,.U.,(2,2),(2,2),(0.0,0.95),(0.0,0.6),.UNSPECIFIED.);
#332=CARTESIAN_POINT('',(0.5,0.7,0.95));
#333=DIRECTION('',(0.0,0.0,-1.0));
#334=VECTOR('',#333,0.95);
#335=LINE('',#332,#334);
#336=EDGE_CURVE('',#249,#281,#335,.T.);
#337=ORIENTED_EDGE('',*,*,#336,.F.);
#338=ORIENTED_EDGE('',*,*,#254,.T.);
#339=ORIENTED_EDGE('',*,*,#314,.T.);
#340=ORIENTED_EDGE('',*,*,#294,.T.);
#341=EDGE_LOOP('',(#337,#338,#339,#340));
#342=FACE_OUTER_BOUND('',#341,.T.);
#343=ADVANCED_FACE('',(#342),#331,.F.);
#344=CARTESIAN_POINT('',(0.5,-0.7,0.95));
#345=CARTESIAN_POINT('',(0.5,-0.7,0.0));
#346=CARTESIAN_POINT('',(0.5,0.7,0.95));
#347=CARTESIAN_POINT('',(0.5,0.7,0.0));
#348=B_SPLINE_SURFACE_WITH_KNOTS('',1,1,((#344,#346),(#345,#347)),.UNSPECIFIED.,.F.,.F.,.U.,(2,2),(2,2),(0.0,0.95),(0.0,1.399999999999999),.UNSPECIFIED.);
#349=CARTESIAN_POINT('',(0.5,-0.7,0.95));
#350=DIRECTION('',(0.0,0.0,-1.0));
#351=VECTOR('',#350,0.95);
#352=LINE('',#349,#351);
#353=EDGE_CURVE('',#233,#271,#352,.T.);
#354=ORIENTED_EDGE('',*,*,#353,.F.);
#355=ORIENTED_EDGE('',*,*,#260,.T.);
#356=ORIENTED_EDGE('',*,*,#336,.T.);
#357=ORIENTED_EDGE('',*,*,#286,.T.);
#358=EDGE_LOOP('',(#354,#355,#356,#357));
#359=FACE_OUTER_BOUND('',#358,.T.);
#360=ADVANCED_FACE('',(#359),#348,.F.);
#361=CARTESIAN_POINT('',(0.5,-0.7,0.0));
#362=CARTESIAN_POINT('',(0.5,-0.7,0.95));
#363=CARTESIAN_POINT('',(1.1,-0.7,0.0));
#364=CARTESIAN_POINT('',(1.1,-0.7,0.95));
#365=B_SPLINE_SURFACE_WITH_KNOTS('',1,1,((#361,#363),(#362,#364)),.UNSPECIFIED.,.F.,.F.,.U.,(2,2),(2,2),(0.0,0.95),(0.0,0.6),.UNSPECIFIED.);
#366=ORIENTED_EDGE('',*,*,#321,.F.);
#367=ORIENTED_EDGE('',*,*,#238,.T.);
#368=ORIENTED_EDGE('',*,*,#353,.T.);
#369=ORIENTED_EDGE('',*,*,#278,.T.);
#370=EDGE_LOOP('',(#366,#367,#368,#369));
#371=FACE_OUTER_BOUND('',#370,.T.);
#372=ADVANCED_FACE('',(#371),#365,.F.);
#373=CLOSED_SHELL('',(#264,#304,#326,#343,#360,#372));
#374=MANIFOLD_SOLID_BREP('50B',#373);
#375=COLOUR_RGB('254',0.866,0.866,0.866);
#376=SURFACE_STYLE_USAGE(.BOTH.,#377);
#377=SURFACE_SIDE_STYLE('NONE',(#378));
#378=SURFACE_STYLE_FILL_AREA(#379);
#379=FILL_AREA_STYLE('NONE',(#380));
#380=FILL_AREA_STYLE_COLOUR('NONE',#375);
#381=PRESENTATION_STYLE_ASSIGNMENT((#376));
#382=STYLED_ITEM('NONE',(#381),#374);
#383=CARTESIAN_POINT('',(-1.100000000000001,0.7,0.95));
#384=CARTESIAN_POINT('',(-1.100000000000001,-0.7,0.95));
#385=CARTESIAN_POINT('',(-0.5,0.7,0.95));
#386=CARTESIAN_POINT('',(-0.5,-0.7,0.95));
#387=B_SPLINE_SURFACE_WITH_KNOTS('',1,1,((#383,#385),(#384,#386)),.UNSPECIFIED.,.F.,.F.,.U.,(2,2),(2,2),(0.0,1.4),(0.0,0.600000000000001),.UNSPECIFIED.);
#388=CARTESIAN_POINT('',(-0.5,-0.7,0.95));
#389=VERTEX_POINT('',#388);
#390=CARTESIAN_POINT('',(-1.1,-0.7,0.95));
#391=VERTEX_POINT('',#390);
#392=CARTESIAN_POINT('',(-0.5,-0.7,0.95));
#393=DIRECTION('',(-1.0,0.0,0.0));
#394=VECTOR('',#393,0.6);
#395=LINE('',#392,#394);
#396=EDGE_CURVE('',#389,#391,#395,.T.);
#397=ORIENTED_EDGE('',*,*,#396,.F.);
#398=CARTESIAN_POINT('',(-0.5,0.7,0.95));
#399=VERTEX_POINT('',#398);
#400=CARTESIAN_POINT('',(-0.5,0.7,0.95));
#401=DIRECTION('',(0.0,-1.0,0.0));
#402=VECTOR('',#401,1.4);
#403=LINE('',#400,#402);
#404=EDGE_CURVE('',#399,#389,#403,.T.);
#405=ORIENTED_EDGE('',*,*,#404,.F.);
#406=CARTESIAN_POINT('',(-1.1,0.7,0.95));
#407=VERTEX_POINT('',#406);
#408=CARTESIAN_POINT('',(-1.1,0.7,0.95));
#409=DIRECTION('',(1.0,0.0,0.0));
#410=VECTOR('',#409,0.6);
#411=LINE('',#408,#410);
#412=EDGE_CURVE('',#407,#399,#411,.T.);
#413=ORIENTED_EDGE('',*,*,#412,.F.);
#414=CARTESIAN_POINT('',(-1.1,-0.7,0.95));
#415=DIRECTION('',(0.0,1.0,0.0));
#416=VECTOR('',#415,1.4);
#417=LINE('',#414,#416);
#418=EDGE_CURVE('',#391,#407,#417,.T.);
#419=ORIENTED_EDGE('',*,*,#418,.F.);
#420=EDGE_LOOP('',(#397,#405,#413,#419));
#421=FACE_OUTER_BOUND('',#420,.T.);
#422=ADVANCED_FACE('',(#421),#387,.T.);
#423=CARTESIAN_POINT('',(-1.100000000000001,0.7,0.0));
#424=CARTESIAN_POINT('',(-1.100000000000001,-0.7,0.0));
#425=CARTESIAN_POINT('',(-0.5,0.7,0.0));
#426=CARTESIAN_POINT('',(-0.5,-0.7,0.0));
#427=B_SPLINE_SURFACE_WITH_KNOTS('',1,1,((#423,#425),(#424,#426)),.UNSPECIFIED.,.F.,.F.,.U.,(2,2),(2,2),(0.0,1.4),(0.0,0.600000000000001),.UNSPECIFIED.);
#428=CARTESIAN_POINT('',(-1.1,-0.7,0.0));
#429=VERTEX_POINT('',#428);
#430=CARTESIAN_POINT('',(-0.5,-0.7,0.0));
#431=VERTEX_POINT('',#430);
#432=CARTESIAN_POINT('',(-1.1,-0.7,0.0));
#433=DIRECTION('',(1.0,0.0,0.0));
#434=VECTOR('',#433,0.6);
#435=LINE('',#432,#434);
#436=EDGE_CURVE('',#429,#431,#435,.T.);
#437=ORIENTED_EDGE('',*,*,#436,.F.);
#438=CARTESIAN_POINT('',(-1.1,0.7,0.0));
#439=VERTEX_POINT('',#438);
#440=CARTESIAN_POINT('',(-1.1,0.7,0.0));
#441=DIRECTION('',(0.0,-1.0,0.0));
#442=VECTOR('',#441,1.4);
#443=LINE('',#440,#442);
#444=EDGE_CURVE('',#439,#429,#443,.T.);
#445=ORIENTED_EDGE('',*,*,#444,.F.);
#446=CARTESIAN_POINT('',(-0.5,0.7,0.0));
#447=VERTEX_POINT('',#446);
#448=CARTESIAN_POINT('',(-0.5,0.7,0.0));
#449=DIRECTION('',(-1.0,0.0,0.0));
#450=VECTOR('',#449,0.6);
#451=LINE('',#448,#450);
#452=EDGE_CURVE('',#447,#439,#451,.T.);
#453=ORIENTED_EDGE('',*,*,#452,.F.);
#454=CARTESIAN_POINT('',(-0.5,-0.7,0.0));
#455=DIRECTION('',(0.0,1.0,0.0));
#456=VECTOR('',#455,1.4);
#457=LINE('',#454,#456);
#458=EDGE_CURVE('',#431,#447,#457,.T.);
#459=ORIENTED_EDGE('',*,*,#458,.F.);
#460=EDGE_LOOP('',(#437,#445,#453,#459));
#461=FACE_OUTER_BOUND('',#460,.T.);
#462=ADVANCED_FACE('',(#461),#427,.F.);
#463=CARTESIAN_POINT('',(-0.5,-0.7,0.0));
#464=CARTESIAN_POINT('',(-0.5,-0.7,0.95));
#465=CARTESIAN_POINT('',(-0.5,0.7,0.0));
#466=CARTESIAN_POINT('',(-0.5,0.7,0.95));
#467=B_SPLINE_SURFACE_WITH_KNOTS('',1,1,((#463,#465),(#464,#466)),.UNSPECIFIED.,.F.,.F.,.U.,(2,2),(2,2),(0.0,0.95),(0.0,1.4),.UNSPECIFIED.);
#468=CARTESIAN_POINT('',(-0.5,0.7,0.95));
#469=DIRECTION('',(0.0,0.0,-1.0));
#470=VECTOR('',#469,0.95);
#471=LINE('',#468,#470);
#472=EDGE_CURVE('',#399,#447,#471,.T.);
#473=ORIENTED_EDGE('',*,*,#472,.F.);
#474=ORIENTED_EDGE('',*,*,#404,.T.);
#475=CARTESIAN_POINT('',(-0.5,-0.7,0.95));
#476=DIRECTION('',(0.0,0.0,-1.0));
#477=VECTOR('',#476,0.95);
#478=LINE('',#475,#477);
#479=EDGE_CURVE('',#389,#431,#478,.T.);
#480=ORIENTED_EDGE('',*,*,#479,.T.);
#481=ORIENTED_EDGE('',*,*,#458,.T.);
#482=EDGE_LOOP('',(#473,#474,#480,#481));
#483=FACE_OUTER_BOUND('',#482,.T.);
#484=ADVANCED_FACE('',(#483),#467,.F.);
#485=CARTESIAN_POINT('',(-1.1,0.7,0.95));
#486=CARTESIAN_POINT('',(-1.1,0.7,0.0));
#487=CARTESIAN_POINT('',(-0.5,0.7,0.95));
#488=CARTESIAN_POINT('',(-0.5,0.7,0.0));
#489=B_SPLINE_SURFACE_WITH_KNOTS('',1,1,((#485,#487),(#486,#488)),.UNSPECIFIED.,.F.,.F.,.U.,(2,2),(2,2),(0.0,0.95),(0.0,0.6),.UNSPECIFIED.);
#490=CARTESIAN_POINT('',(-1.1,0.7,0.95));
#491=DIRECTION('',(0.0,0.0,-1.0));
#492=VECTOR('',#491,0.95);
#493=LINE('',#490,#492);
#494=EDGE_CURVE('',#407,#439,#493,.T.);
#495=ORIENTED_EDGE('',*,*,#494,.F.);
#496=ORIENTED_EDGE('',*,*,#412,.T.);
#497=ORIENTED_EDGE('',*,*,#472,.T.);
#498=ORIENTED_EDGE('',*,*,#452,.T.);
#499=EDGE_LOOP('',(#495,#496,#497,#498));
#500=FACE_OUTER_BOUND('',#499,.T.);
#501=ADVANCED_FACE('',(#500),#489,.F.);
#502=CARTESIAN_POINT('',(-1.1,-0.7,0.95));
#503=CARTESIAN_POINT('',(-1.1,-0.7,0.0));
#504=CARTESIAN_POINT('',(-1.1,0.7,0.95));
#505=CARTESIAN_POINT('',(-1.1,0.7,0.0));
#506=B_SPLINE_SURFACE_WITH_KNOTS('',1,1,((#502,#504),(#503,#505)),.UNSPECIFIED.,.F.,.F.,.U.,(2,2),(2,2),(0.0,0.95),(0.0,1.4),.UNSPECIFIED.);
#507=CARTESIAN_POINT('',(-1.1,-0.7,0.95));
#508=DIRECTION('',(0.0,0.0,-1.0));
#509=VECTOR('',#508,0.95);
#510=LINE('',#507,#509);
#511=EDGE_CURVE('',#391,#429,#510,.T.);
#512=ORIENTED_EDGE('',*,*,#511,.F.);
#513=ORIENTED_EDGE('',*,*,#418,.T.);
#514=ORIENTED_EDGE('',*,*,#494,.T.);
#515=ORIENTED_EDGE('',*,*,#444,.T.);
#516=EDGE_LOOP('',(#512,#513,#514,#515));
#517=FACE_OUTER_BOUND('',#516,.T.);
#518=ADVANCED_FACE('',(#517),#506,.F.);
#519=CARTESIAN_POINT('',(-1.1,-0.7,0.0));
#520=CARTESIAN_POINT('',(-1.1,-0.7,0.95));
#521=CARTESIAN_POINT('',(-0.5,-0.7,0.0));
#522=CARTESIAN_POINT('',(-0.5,-0.7,0.95));
#523=B_SPLINE_SURFACE_WITH_KNOTS('',1,1,((#519,#521),(#520,#522)),.UNSPECIFIED.,.F.,.F.,.U.,(2,2),(2,2),(0.0,0.95),(0.0,0.6),.UNSPECIFIED.);
#524=ORIENTED_EDGE('',*,*,#479,.F.);
#525=ORIENTED_EDGE('',*,*,#396,.T.);
#526=ORIENTED_EDGE('',*,*,#511,.T.);
#527=ORIENTED_EDGE('',*,*,#436,.T.);
#528=EDGE_LOOP('',(#524,#525,#526,#527));
#529=FACE_OUTER_BOUND('',#528,.T.);
#530=ADVANCED_FACE('',(#529),#523,.F.);
#531=CLOSED_SHELL('',(#422,#462,#484,#501,#518,#530));
#532=MANIFOLD_SOLID_BREP('506',#531);
#533=STYLED_ITEM('NONE',(#381),#532);
#534=ADVANCED_BREP_SHAPE_REPRESENTATION('ABSR1',(#214,#374,#532),#28);
#535=SHAPE_REPRESENTATION_RELATIONSHIP('SRRPL1','',#534,#62);
ENDSEC;
END-ISO-10303-21;
