ISO-10303-21;
HEADER;
/****************************************************************
 * Generated by software with PDE/Lib inside                    *
 * PDElib Version v51a, created Mon 11/03/2008                  *
 * International Technegroup Inc. (www.iti-oh.com)              *
 ****************************************************************/
FILE_DESCRIPTION((''),'2;1');
FILE_NAME('TO-39.stp','2010-07-21T15:34:42',(''),(''),'Mechanical Desktop 2010','Mechanical Desktop 2010',', , ');
FILE_SCHEMA(('AUTOMOTIVE_DESIGN { 1 2 10303 214 1 1 1 1 }'));
ENDSEC;
DATA;
#8=(NAMED_UNIT(*)PLANE_ANGLE_UNIT()SI_UNIT($,.RADIAN.));
#9=DIMENSIONAL_EXPONENTS(0.0,0.0,0.0,0.0,0.0,0.0,0.0);
#10=PLANE_ANGLE_MEASURE_WITH_UNIT(PLANE_ANGLE_MEASURE(0.017453292500000),#8);
#14=(CONVERSION_BASED_UNIT('DEGREE',#10)NAMED_UNIT(#9)PLANE_ANGLE_UNIT());
#18=(NAMED_UNIT(*)SI_UNIT($,.STERADIAN.)SOLID_ANGLE_UNIT());
#22=(LENGTH_UNIT()NAMED_UNIT(*)SI_UNIT(.MILLI.,.METRE.));
#23=UNCERTAINTY_MEASURE_WITH_UNIT(LENGTH_MEASURE(0.000001000000000),#22,'DISTANCE_ACCURACY_VALUE','');
#28=(GEOMETRIC_REPRESENTATION_CONTEXT(3)GLOBAL_UNCERTAINTY_ASSIGNED_CONTEXT((#23))GLOBAL_UNIT_ASSIGNED_CONTEXT((#14,#18,#22))REPRESENTATION_CONTEXT('None','None'));
#29=APPLICATION_CONTEXT('automotive design');
#30=APPLICATION_PROTOCOL_DEFINITION('INTERNATIONAL_STANDARD','automotive_design',1998,#29);
#31=PRODUCT_CONTEXT('3D Mechanical Parts',#29,'mechanical');
#32=PRODUCT('Product','Product','',(#31));
#33=PRODUCT_RELATED_PRODUCT_CATEGORY('part',$,(#32));
#34=PRODUCT_CATEGORY('part',$);
#35=PERSON('1','Design','Joe',$,$,$);
#36=ORGANIZATION($,'None','None');
#37=PERSON_AND_ORGANIZATION(#35,#36);
#38=PERSON_AND_ORGANIZATION_ROLE('design_owner');
#39=APPLIED_PERSON_AND_ORGANIZATION_ASSIGNMENT(#37,#38,(#32));
#40=PRODUCT_DEFINITION_FORMATION_WITH_SPECIFIED_SOURCE('None','',#32,.BOUGHT.);
#41=PERSON('2','Creator','Joe',$,$,$);
#42=ORGANIZATION($,'None','None');
#43=PERSON_AND_ORGANIZATION(#41,#42);
#44=PERSON_AND_ORGANIZATION_ROLE('creator');
#45=APPLIED_PERSON_AND_ORGANIZATION_ASSIGNMENT(#43,#44,(#40));
#46=PERSON('3','Supplier','Joe',$,$,$);
#47=ORGANIZATION($,'None','None');
#48=PERSON_AND_ORGANIZATION(#46,#47);
#49=PERSON_AND_ORGANIZATION_ROLE('design_supplier');
#50=APPLIED_PERSON_AND_ORGANIZATION_ASSIGNMENT(#48,#49,(#40));
#51=PRODUCT_DEFINITION_CONTEXT('part definition',#29,'design');
#52=PRODUCT_DEFINITION('None','',#40,#51);
#53=PERSON('4','Creator','Joe',$,$,$);
#54=ORGANIZATION($,'None','None');
#55=PERSON_AND_ORGANIZATION(#53,#54);
#56=PERSON_AND_ORGANIZATION_ROLE('creator');
#57=APPLIED_PERSON_AND_ORGANIZATION_ASSIGNMENT(#55,#56,(#52));
#58=CARTESIAN_POINT('NONE',(0.0,0.0,0.0));
#59=DIRECTION('NONE',(0.0,0.0,1.0));
#60=DIRECTION('NONE',(1.0,0.0,0.0));
#61=AXIS2_PLACEMENT_3D('NONE',#58,#59,#60);
#62=SHAPE_REPRESENTATION('SR1',(#61),#28);
#63=PRODUCT_DEFINITION_SHAPE('PDS1','Test Part',#52);
#64=SHAPE_DEFINITION_REPRESENTATION(#63,#62);
#65=CARTESIAN_POINT('',(0.0,0.0,5.550000000000001));
#66=DIRECTION('',(-1.224606E-016,-4.440892E-016,-1.0));
#67=DIRECTION('',(-1.0,0.0,0.0));
#68=AXIS2_PLACEMENT_3D('',#65,#66,#67);
#69=TOROIDAL_SURFACE('',#68,4.449999999999999,0.200000000000000);
#70=CARTESIAN_POINT('',(-4.449999999999999,0.0,5.350000000000001));
#71=VERTEX_POINT('',#70);
#72=CARTESIAN_POINT('',(-4.249999999999999,-1.517744E-031,5.550000000000002));
#73=VERTEX_POINT('',#72);
#74=CARTESIAN_POINT('',(-4.449999999999999,1.210032E-031,5.550000000000002));
#75=DIRECTION('',(0.0,-1.0,0.0));
#76=DIRECTION('',(-1.0,0.0,0.0));
#77=AXIS2_PLACEMENT_3D('',#74,#75,#76);
#78=CIRCLE('',#77,0.200000000000000);
#79=EDGE_CURVE('',#71,#73,#78,.T.);
#80=ORIENTED_EDGE('',*,*,#79,.F.);
#81=CARTESIAN_POINT('',(4.450000000000000,-6.337677E-016,5.350000000000000));
#82=VERTEX_POINT('',#81);
#83=CARTESIAN_POINT('',(0.0,0.0,5.350000000000001));
#84=DIRECTION('',(0.0,0.0,1.0));
#85=DIRECTION('',(-1.0,0.0,0.0));
#86=AXIS2_PLACEMENT_3D('',#83,#84,#85);
#87=CIRCLE('',#86,4.450000000000000);
#88=EDGE_CURVE('',#71,#82,#87,.T.);
#89=ORIENTED_EDGE('',*,*,#88,.T.);
#90=CARTESIAN_POINT('',(4.249999999999999,5.204577E-016,5.550000000000000));
#91=VERTEX_POINT('',#90);
#92=CARTESIAN_POINT('',(4.449999999999999,-5.449498E-016,5.550000000000000));
#93=DIRECTION('',(0.0,1.0,0.0));
#94=DIRECTION('',(1.0,0.0,0.0));
#95=AXIS2_PLACEMENT_3D('',#92,#93,#94);
#96=CIRCLE('',#95,0.200000000000000);
#97=EDGE_CURVE('',#82,#91,#96,.T.);
#98=ORIENTED_EDGE('',*,*,#97,.T.);
#99=CARTESIAN_POINT('',(0.0,0.0,5.550000000000001));
#100=DIRECTION('',(0.0,0.0,1.0));
#101=DIRECTION('',(-1.0,0.0,0.0));
#102=AXIS2_PLACEMENT_3D('',#99,#100,#101);
#103=CIRCLE('',#102,4.249999999999999);
#104=EDGE_CURVE('',#73,#91,#103,.T.);
#105=ORIENTED_EDGE('',*,*,#104,.F.);
#106=EDGE_LOOP('',(#80,#89,#98,#105));
#107=FACE_OUTER_BOUND('',#106,.T.);
#108=ADVANCED_FACE('',(#107),#69,.F.);
#109=CARTESIAN_POINT('',(0.0,0.0,5.550000000000001));
#110=DIRECTION('',(-1.224606E-016,-4.440892E-016,-1.0));
#111=DIRECTION('',(-1.0,0.0,0.0));
#112=AXIS2_PLACEMENT_3D('',#109,#110,#111);
#113=TOROIDAL_SURFACE('',#112,4.449999999999999,0.200000000000000);
#114=ORIENTED_EDGE('',*,*,#79,.T.);
#115=CARTESIAN_POINT('',(0.0,0.0,5.550000000000001));
#116=DIRECTION('',(0.0,0.0,1.0));
#117=DIRECTION('',(-1.0,0.0,0.0));
#118=AXIS2_PLACEMENT_3D('',#115,#116,#117);
#119=CIRCLE('',#118,4.249999999999999);
#120=EDGE_CURVE('',#91,#73,#119,.T.);
#121=ORIENTED_EDGE('',*,*,#120,.F.);
#122=ORIENTED_EDGE('',*,*,#97,.F.);
#123=CARTESIAN_POINT('',(0.0,0.0,5.350000000000001));
#124=DIRECTION('',(0.0,0.0,1.0));
#125=DIRECTION('',(-1.0,0.0,0.0));
#126=AXIS2_PLACEMENT_3D('',#123,#124,#125);
#127=CIRCLE('',#126,4.450000000000000);
#128=EDGE_CURVE('',#82,#71,#127,.T.);
#129=ORIENTED_EDGE('',*,*,#128,.T.);
#130=EDGE_LOOP('',(#114,#121,#122,#129));
#131=FACE_OUTER_BOUND('',#130,.T.);
#132=ADVANCED_FACE('',(#131),#113,.F.);
#133=CARTESIAN_POINT('',(0.0,0.0,5.550000000000001));
#134=DIRECTION('',(0.0,0.0,-1.0));
#135=DIRECTION('',(-1.0,0.0,0.0));
#136=AXIS2_PLACEMENT_3D('',#133,#134,#135);
#137=PLANE('',#136);
#138=ORIENTED_EDGE('',*,*,#120,.T.);
#139=ORIENTED_EDGE('',*,*,#104,.T.);
#140=EDGE_LOOP('',(#138,#139));
#141=FACE_OUTER_BOUND('',#140,.T.);
#142=ADVANCED_FACE('',(#141),#137,.F.);
#143=CARTESIAN_POINT('',(0.0,0.0,5.350000000000001));
#144=DIRECTION('',(0.0,0.0,-1.0));
#145=DIRECTION('',(-1.0,0.0,0.0));
#146=AXIS2_PLACEMENT_3D('',#143,#144,#145);
#147=PLANE('',#146);
#148=ORIENTED_EDGE('',*,*,#88,.F.);
#149=ORIENTED_EDGE('',*,*,#128,.F.);
#150=EDGE_LOOP('',(#148,#149));
#151=FACE_OUTER_BOUND('',#150,.T.);
#152=ADVANCED_FACE('',(#151),#147,.T.);
#153=CLOSED_SHELL('',(#108,#132,#142,#152));
#154=MANIFOLD_SOLID_BREP('8C0',#153);
#155=COLOUR_RGB('254',0.866000000000000,0.866000000000000,0.866000000000000);
#156=SURFACE_STYLE_USAGE(.BOTH.,#157);
#157=SURFACE_SIDE_STYLE('NONE',(#158));
#158=SURFACE_STYLE_FILL_AREA(#159);
#159=FILL_AREA_STYLE('NONE',(#160));
#160=FILL_AREA_STYLE_COLOUR('NONE',#155);
#161=PRESENTATION_STYLE_ASSIGNMENT((#156));
#162=STYLED_ITEM('NONE',(#161),#154);
#163=MECHANICAL_DESIGN_GEOMETRIC_PRESENTATION_REPRESENTATION('NONE',(#162,#355,#508,#649,#738,#827,#916),#28);
#164=PRESENTATION_LAYER_ASSIGNMENT('3D','None',(#154,#354,#507,#648,#737,#826,#915));
#165=CARTESIAN_POINT('',(0.0,0.0,5.175000000000001));
#166=DIRECTION('',(0.0,0.0,1.0));
#167=DIRECTION('',(-1.0,0.0,0.0));
#168=AXIS2_PLACEMENT_3D('',#165,#166,#167);
#169=CONICAL_SURFACE('',#168,4.674999999999995,45.000000000000007);
#170=CARTESIAN_POINT('',(-4.699999999999996,-5.755650E-016,5.200000000000000));
#171=VERTEX_POINT('',#170);
#172=CARTESIAN_POINT('',(-4.649999999999995,0.0,5.150000000000000));
#173=VERTEX_POINT('',#172);
#174=CARTESIAN_POINT('',(-4.699999999999996,0.0,5.200000000000001));
#175=DIRECTION('',(0.707106781186547,0.0,-0.707106781186547));
#176=VECTOR('',#175,0.070710678118656);
#177=LINE('',#174,#176);
#178=EDGE_CURVE('',#171,#173,#177,.T.);
#179=ORIENTED_EDGE('',*,*,#178,.F.);
#180=CARTESIAN_POINT('',(4.699999999999996,-5.755650E-016,5.200000000000000));
#181=VERTEX_POINT('',#180);
#182=CARTESIAN_POINT('',(0.0,0.0,5.200000000000000));
#183=DIRECTION('',(0.0,0.0,-1.0));
#184=DIRECTION('',(-1.0,0.0,0.0));
#185=AXIS2_PLACEMENT_3D('',#182,#183,#184);
#186=CIRCLE('',#185,4.699999999999996);
#187=EDGE_CURVE('',#171,#181,#186,.T.);
#188=ORIENTED_EDGE('',*,*,#187,.T.);
#189=CARTESIAN_POINT('',(4.649999999999996,5.694420E-016,5.150000000000000));
#190=VERTEX_POINT('',#189);
#191=CARTESIAN_POINT('',(4.699999999999996,5.755650E-016,5.200000000000001));
#192=DIRECTION('',(-0.707106781186547,-8.659275E-017,-0.707106781186547));
#193=VECTOR('',#192,0.070710678118656);
#194=LINE('',#191,#193);
#195=EDGE_CURVE('',#181,#190,#194,.T.);
#196=ORIENTED_EDGE('',*,*,#195,.T.);
#197=CARTESIAN_POINT('',(0.0,0.0,5.150000000000000));
#198=DIRECTION('',(0.0,0.0,1.0));
#199=DIRECTION('',(-1.0,0.0,0.0));
#200=AXIS2_PLACEMENT_3D('',#197,#198,#199);
#201=CIRCLE('',#200,4.649999999999996);
#202=EDGE_CURVE('',#190,#173,#201,.T.);
#203=ORIENTED_EDGE('',*,*,#202,.T.);
#204=EDGE_LOOP('',(#179,#188,#196,#203));
#205=FACE_OUTER_BOUND('',#204,.T.);
#206=ADVANCED_FACE('',(#205),#169,.T.);
#207=CARTESIAN_POINT('',(0.0,0.0,5.150000000000000));
#208=DIRECTION('',(0.0,0.0,1.0));
#209=DIRECTION('',(1.0,0.0,0.0));
#210=AXIS2_PLACEMENT_3D('',#207,#208,#209);
#211=CYLINDRICAL_SURFACE('',#210,4.699999999999996);
#212=CARTESIAN_POINT('',(4.699999999999996,1.151130E-015,5.300000000000001));
#213=VERTEX_POINT('',#212);
#214=CARTESIAN_POINT('',(4.699999999999996,0.0,5.300000000000001));
#215=DIRECTION('',(0.0,0.0,-1.0));
#216=VECTOR('',#215,0.100000000000001);
#217=LINE('',#214,#216);
#218=EDGE_CURVE('',#213,#181,#217,.T.);
#219=ORIENTED_EDGE('',*,*,#218,.F.);
#220=CARTESIAN_POINT('',(-4.699999999999996,0.0,5.300000000000001));
#221=VERTEX_POINT('',#220);
#222=CARTESIAN_POINT('',(0.0,0.0,5.300000000000001));
#223=DIRECTION('',(0.0,0.0,1.0));
#224=DIRECTION('',(-1.0,0.0,0.0));
#225=AXIS2_PLACEMENT_3D('',#222,#223,#224);
#226=CIRCLE('',#225,4.699999999999996);
#227=EDGE_CURVE('',#221,#213,#226,.T.);
#228=ORIENTED_EDGE('',*,*,#227,.F.);
#229=CARTESIAN_POINT('',(-4.699999999999996,-5.755650E-016,5.300000000000001));
#230=DIRECTION('',(0.0,0.0,-1.0));
#231=VECTOR('',#230,0.100000000000001);
#232=LINE('',#229,#231);
#233=EDGE_CURVE('',#221,#171,#232,.T.);
#234=ORIENTED_EDGE('',*,*,#233,.T.);
#235=CARTESIAN_POINT('',(0.0,0.0,5.200000000000000));
#236=DIRECTION('',(0.0,0.0,-1.0));
#237=DIRECTION('',(-1.0,0.0,0.0));
#238=AXIS2_PLACEMENT_3D('',#235,#236,#237);
#239=CIRCLE('',#238,4.699999999999996);
#240=EDGE_CURVE('',#181,#171,#239,.T.);
#241=ORIENTED_EDGE('',*,*,#240,.F.);
#242=EDGE_LOOP('',(#219,#228,#234,#241));
#243=FACE_OUTER_BOUND('',#242,.T.);
#244=ADVANCED_FACE('',(#243),#211,.T.);
#245=CARTESIAN_POINT('',(0.0,0.0,5.300000000000001));
#246=DIRECTION('',(0.0,0.0,-1.0));
#247=DIRECTION('',(-1.0,0.0,0.0));
#248=AXIS2_PLACEMENT_3D('',#245,#246,#247);
#249=TOROIDAL_SURFACE('',#248,4.649999999999996,0.050000000000000);
#250=CARTESIAN_POINT('',(-4.649999999999996,0.0,5.350000000000001));
#251=VERTEX_POINT('',#250);
#252=CARTESIAN_POINT('',(-4.649999999999996,0.0,5.300000000000001));
#253=DIRECTION('',(0.0,1.0,0.0));
#254=DIRECTION('',(-1.0,0.0,0.0));
#255=AXIS2_PLACEMENT_3D('',#252,#253,#254);
#256=CIRCLE('',#255,0.050000000000000);
#257=EDGE_CURVE('',#221,#251,#256,.T.);
#258=ORIENTED_EDGE('',*,*,#257,.F.);
#259=ORIENTED_EDGE('',*,*,#227,.T.);
#260=CARTESIAN_POINT('',(4.649999999999996,0.0,5.350000000000001));
#261=VERTEX_POINT('',#260);
#262=CARTESIAN_POINT('',(4.649999999999996,-5.694420E-016,5.300000000000001));
#263=DIRECTION('',(0.0,-1.0,0.0));
#264=DIRECTION('',(1.0,0.0,0.0));
#265=AXIS2_PLACEMENT_3D('',#262,#263,#264);
#266=CIRCLE('',#265,0.050000000000000);
#267=EDGE_CURVE('',#213,#261,#266,.T.);
#268=ORIENTED_EDGE('',*,*,#267,.T.);
#269=CARTESIAN_POINT('',(0.0,0.0,5.350000000000001));
#270=DIRECTION('',(0.0,0.0,-1.0));
#271=DIRECTION('',(-1.0,0.0,0.0));
#272=AXIS2_PLACEMENT_3D('',#269,#270,#271);
#273=CIRCLE('',#272,4.649999999999996);
#274=EDGE_CURVE('',#261,#251,#273,.T.);
#275=ORIENTED_EDGE('',*,*,#274,.T.);
#276=EDGE_LOOP('',(#258,#259,#268,#275));
#277=FACE_OUTER_BOUND('',#276,.T.);
#278=ADVANCED_FACE('',(#277),#249,.T.);
#279=CARTESIAN_POINT('',(0.0,0.0,5.300000000000001));
#280=DIRECTION('',(0.0,0.0,-1.0));
#281=DIRECTION('',(-1.0,0.0,0.0));
#282=AXIS2_PLACEMENT_3D('',#279,#280,#281);
#283=TOROIDAL_SURFACE('',#282,4.649999999999996,0.050000000000000);
#284=ORIENTED_EDGE('',*,*,#257,.T.);
#285=CARTESIAN_POINT('',(0.0,0.0,5.350000000000001));
#286=DIRECTION('',(0.0,0.0,-1.0));
#287=DIRECTION('',(-1.0,0.0,0.0));
#288=AXIS2_PLACEMENT_3D('',#285,#286,#287);
#289=CIRCLE('',#288,4.649999999999996);
#290=EDGE_CURVE('',#251,#261,#289,.T.);
#291=ORIENTED_EDGE('',*,*,#290,.T.);
#292=ORIENTED_EDGE('',*,*,#267,.F.);
#293=CARTESIAN_POINT('',(0.0,0.0,5.300000000000001));
#294=DIRECTION('',(0.0,0.0,1.0));
#295=DIRECTION('',(-1.0,0.0,0.0));
#296=AXIS2_PLACEMENT_3D('',#293,#294,#295);
#297=CIRCLE('',#296,4.699999999999996);
#298=EDGE_CURVE('',#213,#221,#297,.T.);
#299=ORIENTED_EDGE('',*,*,#298,.T.);
#300=EDGE_LOOP('',(#284,#291,#292,#299));
#301=FACE_OUTER_BOUND('',#300,.T.);
#302=ADVANCED_FACE('',(#301),#283,.T.);
#303=CARTESIAN_POINT('',(0.0,0.0,5.150000000000000));
#304=DIRECTION('',(0.0,0.0,1.0));
#305=DIRECTION('',(1.0,0.0,0.0));
#306=AXIS2_PLACEMENT_3D('',#303,#304,#305);
#307=CYLINDRICAL_SURFACE('',#306,4.699999999999996);
#308=ORIENTED_EDGE('',*,*,#218,.T.);
#309=ORIENTED_EDGE('',*,*,#187,.F.);
#310=ORIENTED_EDGE('',*,*,#233,.F.);
#311=ORIENTED_EDGE('',*,*,#298,.F.);
#312=EDGE_LOOP('',(#308,#309,#310,#311));
#313=FACE_OUTER_BOUND('',#312,.T.);
#314=ADVANCED_FACE('',(#313),#307,.T.);
#315=CARTESIAN_POINT('',(0.0,0.0,5.350000000000001));
#316=DIRECTION('',(0.0,0.0,1.0));
#317=DIRECTION('',(1.0,0.0,0.0));
#318=AXIS2_PLACEMENT_3D('',#315,#316,#317);
#319=PLANE('',#318);
#320=ORIENTED_EDGE('',*,*,#274,.F.);
#321=ORIENTED_EDGE('',*,*,#290,.F.);
#322=EDGE_LOOP('',(#320,#321));
#323=FACE_OUTER_BOUND('',#322,.T.);
#324=ADVANCED_FACE('',(#323),#319,.T.);
#325=CARTESIAN_POINT('',(0.0,0.0,5.175000000000001));
#326=DIRECTION('',(0.0,0.0,1.0));
#327=DIRECTION('',(-1.0,0.0,0.0));
#328=AXIS2_PLACEMENT_3D('',#325,#326,#327);
#329=CONICAL_SURFACE('',#328,4.674999999999995,45.000000000000007);
#330=ORIENTED_EDGE('',*,*,#178,.T.);
#331=CARTESIAN_POINT('',(0.0,0.0,5.150000000000000));
#332=DIRECTION('',(0.0,0.0,1.0));
#333=DIRECTION('',(-1.0,0.0,0.0));
#334=AXIS2_PLACEMENT_3D('',#331,#332,#333);
#335=CIRCLE('',#334,4.649999999999996);
#336=EDGE_CURVE('',#173,#190,#335,.T.);
#337=ORIENTED_EDGE('',*,*,#336,.T.);
#338=ORIENTED_EDGE('',*,*,#195,.F.);
#339=ORIENTED_EDGE('',*,*,#240,.T.);
#340=EDGE_LOOP('',(#330,#337,#338,#339));
#341=FACE_OUTER_BOUND('',#340,.T.);
#342=ADVANCED_FACE('',(#341),#329,.T.);
#343=CARTESIAN_POINT('',(0.0,0.0,5.150000000000000));
#344=DIRECTION('',(0.0,0.0,1.0));
#345=DIRECTION('',(1.0,0.0,0.0));
#346=AXIS2_PLACEMENT_3D('',#343,#344,#345);
#347=PLANE('',#346);
#348=ORIENTED_EDGE('',*,*,#202,.F.);
#349=ORIENTED_EDGE('',*,*,#336,.F.);
#350=EDGE_LOOP('',(#348,#349));
#351=FACE_OUTER_BOUND('',#350,.T.);
#352=ADVANCED_FACE('',(#351),#347,.F.);
#353=CLOSED_SHELL('',(#206,#244,#278,#302,#314,#324,#342,#352));
#354=MANIFOLD_SOLID_BREP('888',#353);
#355=STYLED_ITEM('NONE',(#161),#354);
#356=CARTESIAN_POINT('',(2.989935863530557,3.626331966598449,4.650000000000000));
#357=DIRECTION('',(-0.707106781186545,0.707106781186550,0.0));
#358=DIRECTION('',(0.0,0.0,1.0));
#359=AXIS2_PLACEMENT_3D('',#356,#357,#358);
#360=PLANE('',#359);
#361=CARTESIAN_POINT('',(2.989935863530557,3.626331966598449,5.150000000000000));
#362=VERTEX_POINT('',#361);
#363=CARTESIAN_POINT('',(3.641599923110721,4.277996026178609,5.150000000000000));
#364=VERTEX_POINT('',#363);
#365=CARTESIAN_POINT('',(2.989935863530558,3.626331966598449,5.150000000000000));
#366=DIRECTION('',(0.707106781186549,0.707106781186546,0.0));
#367=VECTOR('',#366,0.921592151169373);
#368=LINE('',#365,#367);
#369=EDGE_CURVE('',#362,#364,#368,.T.);
#370=ORIENTED_EDGE('',*,*,#369,.T.);
#371=CARTESIAN_POINT('',(3.641599923110721,4.277996026178609,4.650000000000000));
#372=VERTEX_POINT('',#371);
#373=CARTESIAN_POINT('',(3.641599923110721,4.277996026178609,4.650000000000000));
#374=DIRECTION('',(0.0,0.0,1.0));
#375=VECTOR('',#374,0.499999999999999);
#376=LINE('',#373,#375);
#377=EDGE_CURVE('',#372,#364,#376,.T.);
#378=ORIENTED_EDGE('',*,*,#377,.F.);
#379=CARTESIAN_POINT('',(2.989935863530557,3.626331966598449,4.650000000000000));
#380=VERTEX_POINT('',#379);
#381=CARTESIAN_POINT('',(3.641599923110721,4.277996026178609,4.650000000000000));
#382=DIRECTION('',(-0.707106781186549,-0.707106781186546,0.0));
#383=VECTOR('',#382,0.921592151169373);
#384=LINE('',#381,#383);
#385=EDGE_CURVE('',#372,#380,#384,.T.);
#386=ORIENTED_EDGE('',*,*,#385,.T.);
#387=CARTESIAN_POINT('',(2.989935863530557,3.626331966598449,4.650000000000000));
#388=DIRECTION('',(0.0,0.0,1.0));
#389=VECTOR('',#388,0.499999999999999);
#390=LINE('',#387,#389);
#391=EDGE_CURVE('',#380,#362,#390,.T.);
#392=ORIENTED_EDGE('',*,*,#391,.T.);
#393=EDGE_LOOP('',(#370,#378,#386,#392));
#394=FACE_OUTER_BOUND('',#393,.T.);
#395=ADVANCED_FACE('',(#394),#360,.T.);
#396=CARTESIAN_POINT('',(3.641599923110721,4.277996026178609,4.650000000000000));
#397=DIRECTION('',(0.707106781186545,0.707106781186550,0.0));
#398=DIRECTION('',(0.0,0.0,1.0));
#399=AXIS2_PLACEMENT_3D('',#396,#397,#398);
#400=PLANE('',#399);
#401=CARTESIAN_POINT('',(4.277996026178614,3.641599923110721,5.150000000000000));
#402=VERTEX_POINT('',#401);
#403=CARTESIAN_POINT('',(3.641599923110721,4.277996026178609,5.150000000000000));
#404=DIRECTION('',(0.707106781186550,-0.707106781186545,0.0));
#405=VECTOR('',#404,0.899999999999997);
#406=LINE('',#403,#405);
#407=EDGE_CURVE('',#364,#402,#406,.T.);
#408=ORIENTED_EDGE('',*,*,#407,.T.);
#409=CARTESIAN_POINT('',(4.277996026178614,3.641599923110721,4.650000000000000));
#410=VERTEX_POINT('',#409);
#411=CARTESIAN_POINT('',(4.277996026178614,3.641599923110721,4.650000000000000));
#412=DIRECTION('',(0.0,0.0,1.0));
#413=VECTOR('',#412,0.499999999999999);
#414=LINE('',#411,#413);
#415=EDGE_CURVE('',#410,#402,#414,.T.);
#416=ORIENTED_EDGE('',*,*,#415,.F.);
#417=CARTESIAN_POINT('',(4.277996026178614,3.641599923110721,4.650000000000000));
#418=DIRECTION('',(-0.707106781186550,0.707106781186545,0.0));
#419=VECTOR('',#418,0.899999999999997);
#420=LINE('',#417,#419);
#421=EDGE_CURVE('',#410,#372,#420,.T.);
#422=ORIENTED_EDGE('',*,*,#421,.T.);
#423=ORIENTED_EDGE('',*,*,#377,.T.);
#424=EDGE_LOOP('',(#408,#416,#422,#423));
#425=FACE_OUTER_BOUND('',#424,.T.);
#426=ADVANCED_FACE('',(#425),#400,.T.);
#427=CARTESIAN_POINT('',(4.277996026178614,3.641599923110721,4.650000000000000));
#428=DIRECTION('',(0.707106781186553,-0.707106781186542,0.0));
#429=DIRECTION('',(0.0,0.0,-1.0));
#430=AXIS2_PLACEMENT_3D('',#427,#428,#429);
#431=PLANE('',#430);
#432=CARTESIAN_POINT('',(3.626331966598454,2.989935863530551,5.150000000000000));
#433=VERTEX_POINT('',#432);
#434=CARTESIAN_POINT('',(4.277996026178614,3.641599923110721,5.150000000000000));
#435=DIRECTION('',(-0.707106781186542,-0.707106781186553,0.0));
#436=VECTOR('',#435,0.921592151169378);
#437=LINE('',#434,#436);
#438=EDGE_CURVE('',#402,#433,#437,.T.);
#439=ORIENTED_EDGE('',*,*,#438,.T.);
#440=CARTESIAN_POINT('',(3.626331966598454,2.989935863530551,4.650000000000000));
#441=VERTEX_POINT('',#440);
#442=CARTESIAN_POINT('',(3.626331966598454,2.989935863530551,4.650000000000000));
#443=DIRECTION('',(0.0,0.0,1.0));
#444=VECTOR('',#443,0.499999999999999);
#445=LINE('',#442,#444);
#446=EDGE_CURVE('',#441,#433,#445,.T.);
#447=ORIENTED_EDGE('',*,*,#446,.F.);
#448=CARTESIAN_POINT('',(3.626331966598454,2.989935863530551,4.650000000000000));
#449=DIRECTION('',(0.707106781186542,0.707106781186553,0.0));
#450=VECTOR('',#449,0.921592151169378);
#451=LINE('',#448,#450);
#452=EDGE_CURVE('',#441,#410,#451,.T.);
#453=ORIENTED_EDGE('',*,*,#452,.T.);
#454=ORIENTED_EDGE('',*,*,#415,.T.);
#455=EDGE_LOOP('',(#439,#447,#453,#454));
#456=FACE_OUTER_BOUND('',#455,.T.);
#457=ADVANCED_FACE('',(#456),#431,.T.);
#458=CARTESIAN_POINT('',(-4.440892E-016,3.996803E-015,4.650000000000000));
#459=DIRECTION('',(0.0,0.0,1.0));
#460=DIRECTION('',(-0.707106781186549,-0.707106781186546,0.0));
#461=AXIS2_PLACEMENT_3D('',#458,#459,#460);
#462=CYLINDRICAL_SURFACE('',#461,4.699999999999998);
#463=CARTESIAN_POINT('',(-4.440892E-016,3.996803E-015,5.150000000000000));
#464=DIRECTION('',(0.0,0.0,-1.0));
#465=DIRECTION('',(-0.707106781186549,-0.707106781186546,0.0));
#466=AXIS2_PLACEMENT_3D('',#463,#464,#465);
#467=CIRCLE('',#466,4.699999999999998);
#468=EDGE_CURVE('',#433,#362,#467,.T.);
#469=ORIENTED_EDGE('',*,*,#468,.T.);
#470=ORIENTED_EDGE('',*,*,#391,.F.);
#471=CARTESIAN_POINT('',(-4.440892E-016,3.996803E-015,4.650000000000000));
#472=DIRECTION('',(0.0,0.0,1.0));
#473=DIRECTION('',(-0.707106781186549,-0.707106781186546,0.0));
#474=AXIS2_PLACEMENT_3D('',#471,#472,#473);
#475=CIRCLE('',#474,4.699999999999998);
#476=EDGE_CURVE('',#380,#441,#475,.T.);
#477=ORIENTED_EDGE('',*,*,#476,.T.);
#478=ORIENTED_EDGE('',*,*,#446,.T.);
#479=EDGE_LOOP('',(#469,#470,#477,#478));
#480=FACE_OUTER_BOUND('',#479,.T.);
#481=ADVANCED_FACE('',(#480),#462,.T.);
#482=CARTESIAN_POINT('',(0.517563105338274,0.517563105338277,4.650000000000000));
#483=DIRECTION('',(0.0,0.0,1.0));
#484=DIRECTION('',(0.0,-1.0,0.0));
#485=AXIS2_PLACEMENT_3D('',#482,#483,#484);
#486=PLANE('',#485);
#487=ORIENTED_EDGE('',*,*,#476,.F.);
#488=ORIENTED_EDGE('',*,*,#385,.F.);
#489=ORIENTED_EDGE('',*,*,#421,.F.);
#490=ORIENTED_EDGE('',*,*,#452,.F.);
#491=EDGE_LOOP('',(#487,#488,#489,#490));
#492=FACE_OUTER_BOUND('',#491,.T.);
#493=ADVANCED_FACE('',(#492),#486,.F.);
#494=CARTESIAN_POINT('',(0.517563105338274,0.517563105338278,5.150000000000000));
#495=DIRECTION('',(0.0,0.0,1.0));
#496=DIRECTION('',(0.0,-1.0,0.0));
#497=AXIS2_PLACEMENT_3D('',#494,#495,#496);
#498=PLANE('',#497);
#499=ORIENTED_EDGE('',*,*,#369,.F.);
#500=ORIENTED_EDGE('',*,*,#468,.F.);
#501=ORIENTED_EDGE('',*,*,#438,.F.);
#502=ORIENTED_EDGE('',*,*,#407,.F.);
#503=EDGE_LOOP('',(#499,#500,#501,#502));
#504=FACE_OUTER_BOUND('',#503,.T.);
#505=ADVANCED_FACE('',(#504),#498,.T.);
#506=CLOSED_SHELL('',(#395,#426,#457,#481,#493,#505));
#507=MANIFOLD_SOLID_BREP('884',#506);
#508=STYLED_ITEM('NONE',(#161),#507);
#509=CARTESIAN_POINT('',(0.0,0.0,4.650000000000000));
#510=DIRECTION('',(0.0,0.0,1.0));
#511=DIRECTION('',(1.0,0.0,0.0));
#512=AXIS2_PLACEMENT_3D('',#509,#510,#511);
#513=CYLINDRICAL_SURFACE('',#512,4.250000000000000);
#514=CARTESIAN_POINT('',(4.250000000000000,1.040915E-015,10.750000000000000));
#515=VERTEX_POINT('',#514);
#516=CARTESIAN_POINT('',(4.250000000000000,0.0,4.650000000000000));
#517=VERTEX_POINT('',#516);
#518=CARTESIAN_POINT('',(4.250000000000000,0.0,10.750000000000000));
#519=DIRECTION('',(0.0,0.0,-1.0));
#520=VECTOR('',#519,6.100000000000000);
#521=LINE('',#518,#520);
#522=EDGE_CURVE('',#515,#517,#521,.T.);
#523=ORIENTED_EDGE('',*,*,#522,.F.);
#524=CARTESIAN_POINT('',(-4.250000000000000,0.0,10.750000000000000));
#525=VERTEX_POINT('',#524);
#526=CARTESIAN_POINT('',(0.0,0.0,10.750000000000000));
#527=DIRECTION('',(0.0,0.0,1.0));
#528=DIRECTION('',(-1.0,0.0,0.0));
#529=AXIS2_PLACEMENT_3D('',#526,#527,#528);
#530=CIRCLE('',#529,4.250000000000000);
#531=EDGE_CURVE('',#525,#515,#530,.T.);
#532=ORIENTED_EDGE('',*,*,#531,.F.);
#533=CARTESIAN_POINT('',(-4.250000000000000,-5.204577E-016,4.650000000000000));
#534=VERTEX_POINT('',#533);
#535=CARTESIAN_POINT('',(-4.250000000000000,-5.204577E-016,10.750000000000000));
#536=DIRECTION('',(0.0,0.0,-1.0));
#537=VECTOR('',#536,6.100000000000000);
#538=LINE('',#535,#537);
#539=EDGE_CURVE('',#525,#534,#538,.T.);
#540=ORIENTED_EDGE('',*,*,#539,.T.);
#541=CARTESIAN_POINT('',(0.0,0.0,4.650000000000000));
#542=DIRECTION('',(0.0,0.0,1.0));
#543=DIRECTION('',(1.0,0.0,0.0));
#544=AXIS2_PLACEMENT_3D('',#541,#542,#543);
#545=CIRCLE('',#544,4.250000000000000);
#546=EDGE_CURVE('',#534,#517,#545,.T.);
#547=ORIENTED_EDGE('',*,*,#546,.T.);
#548=EDGE_LOOP('',(#523,#532,#540,#547));
#549=FACE_OUTER_BOUND('',#548,.T.);
#550=ADVANCED_FACE('',(#549),#513,.T.);
#551=CARTESIAN_POINT('',(0.0,0.0,10.750000000000000));
#552=DIRECTION('',(0.0,0.0,-1.0));
#553=DIRECTION('',(-1.0,0.0,0.0));
#554=AXIS2_PLACEMENT_3D('',#551,#552,#553);
#555=TOROIDAL_SURFACE('',#554,3.750000000000000,0.500000000000000);
#556=CARTESIAN_POINT('',(-3.750000000000000,0.0,11.250000000000000));
#557=VERTEX_POINT('',#556);
#558=CARTESIAN_POINT('',(-3.750000000000000,0.0,10.750000000000000));
#559=DIRECTION('',(0.0,1.0,0.0));
#560=DIRECTION('',(-1.0,0.0,0.0));
#561=AXIS2_PLACEMENT_3D('',#558,#559,#560);
#562=CIRCLE('',#561,0.500000000000000);
#563=EDGE_CURVE('',#525,#557,#562,.T.);
#564=ORIENTED_EDGE('',*,*,#563,.F.);
#565=ORIENTED_EDGE('',*,*,#531,.T.);
#566=CARTESIAN_POINT('',(3.750000000000000,0.0,11.250000000000000));
#567=VERTEX_POINT('',#566);
#568=CARTESIAN_POINT('',(3.750000000000000,-4.592274E-016,10.750000000000000));
#569=DIRECTION('',(0.0,-1.0,0.0));
#570=DIRECTION('',(1.0,0.0,0.0));
#571=AXIS2_PLACEMENT_3D('',#568,#569,#570);
#572=CIRCLE('',#571,0.500000000000000);
#573=EDGE_CURVE('',#515,#567,#572,.T.);
#574=ORIENTED_EDGE('',*,*,#573,.T.);
#575=CARTESIAN_POINT('',(0.0,0.0,11.250000000000000));
#576=DIRECTION('',(0.0,0.0,-1.0));
#577=DIRECTION('',(-1.0,0.0,0.0));
#578=AXIS2_PLACEMENT_3D('',#575,#576,#577);
#579=CIRCLE('',#578,3.750000000000000);
#580=EDGE_CURVE('',#567,#557,#579,.T.);
#581=ORIENTED_EDGE('',*,*,#580,.T.);
#582=EDGE_LOOP('',(#564,#565,#574,#581));
#583=FACE_OUTER_BOUND('',#582,.T.);
#584=ADVANCED_FACE('',(#583),#555,.T.);
#585=CARTESIAN_POINT('',(0.0,0.0,10.750000000000000));
#586=DIRECTION('',(0.0,0.0,-1.0));
#587=DIRECTION('',(-1.0,0.0,0.0));
#588=AXIS2_PLACEMENT_3D('',#585,#586,#587);
#589=TOROIDAL_SURFACE('',#588,3.750000000000000,0.500000000000000);
#590=ORIENTED_EDGE('',*,*,#563,.T.);
#591=CARTESIAN_POINT('',(0.0,0.0,11.250000000000000));
#592=DIRECTION('',(0.0,0.0,-1.0));
#593=DIRECTION('',(-1.0,0.0,0.0));
#594=AXIS2_PLACEMENT_3D('',#591,#592,#593);
#595=CIRCLE('',#594,3.750000000000000);
#596=EDGE_CURVE('',#557,#567,#595,.T.);
#597=ORIENTED_EDGE('',*,*,#596,.T.);
#598=ORIENTED_EDGE('',*,*,#573,.F.);
#599=CARTESIAN_POINT('',(0.0,0.0,10.750000000000000));
#600=DIRECTION('',(0.0,0.0,1.0));
#601=DIRECTION('',(-1.0,0.0,0.0));
#602=AXIS2_PLACEMENT_3D('',#599,#600,#601);
#603=CIRCLE('',#602,4.250000000000000);
#604=EDGE_CURVE('',#515,#525,#603,.T.);
#605=ORIENTED_EDGE('',*,*,#604,.T.);
#606=EDGE_LOOP('',(#590,#597,#598,#605));
#607=FACE_OUTER_BOUND('',#606,.T.);
#608=ADVANCED_FACE('',(#607),#589,.T.);
#609=CARTESIAN_POINT('',(0.0,0.0,4.650000000000000));
#610=DIRECTION('',(0.0,0.0,1.0));
#611=DIRECTION('',(1.0,0.0,0.0));
#612=AXIS2_PLACEMENT_3D('',#609,#610,#611);
#613=CYLINDRICAL_SURFACE('',#612,4.250000000000000);
#614=ORIENTED_EDGE('',*,*,#522,.T.);
#615=CARTESIAN_POINT('',(0.0,0.0,4.650000000000000));
#616=DIRECTION('',(0.0,0.0,1.0));
#617=DIRECTION('',(1.0,0.0,0.0));
#618=AXIS2_PLACEMENT_3D('',#615,#616,#617);
#619=CIRCLE('',#618,4.250000000000000);
#620=EDGE_CURVE('',#517,#534,#619,.T.);
#621=ORIENTED_EDGE('',*,*,#620,.T.);
#622=ORIENTED_EDGE('',*,*,#539,.F.);
#623=ORIENTED_EDGE('',*,*,#604,.F.);
#624=EDGE_LOOP('',(#614,#621,#622,#623));
#625=FACE_OUTER_BOUND('',#624,.T.);
#626=ADVANCED_FACE('',(#625),#613,.T.);
#627=CARTESIAN_POINT('',(0.0,0.0,11.250000000000000));
#628=DIRECTION('',(0.0,0.0,1.0));
#629=DIRECTION('',(1.0,0.0,0.0));
#630=AXIS2_PLACEMENT_3D('',#627,#628,#629);
#631=PLANE('',#630);
#632=ORIENTED_EDGE('',*,*,#580,.F.);
#633=ORIENTED_EDGE('',*,*,#596,.F.);
#634=EDGE_LOOP('',(#632,#633));
#635=FACE_OUTER_BOUND('',#634,.T.);
#636=ADVANCED_FACE('',(#635),#631,.T.);
#637=CARTESIAN_POINT('',(0.0,0.0,4.650000000000000));
#638=DIRECTION('',(0.0,0.0,1.0));
#639=DIRECTION('',(1.0,0.0,0.0));
#640=AXIS2_PLACEMENT_3D('',#637,#638,#639);
#641=PLANE('',#640);
#642=ORIENTED_EDGE('',*,*,#620,.F.);
#643=ORIENTED_EDGE('',*,*,#546,.F.);
#644=EDGE_LOOP('',(#642,#643));
#645=FACE_OUTER_BOUND('',#644,.T.);
#646=ADVANCED_FACE('',(#645),#641,.F.);
#647=CLOSED_SHELL('',(#550,#584,#608,#626,#636,#646));
#648=MANIFOLD_SOLID_BREP('86A',#647);
#649=STYLED_ITEM('NONE',(#161),#648);
#650=CARTESIAN_POINT('',(1.555250E-016,-2.540000000000000,4.650000000000000));
#651=DIRECTION('',(0.0,0.0,-1.0));
#652=DIRECTION('',(1.0,0.0,0.0));
#653=AXIS2_PLACEMENT_3D('',#650,#651,#652);
#654=CYLINDRICAL_SURFACE('',#653,0.245000000000000);
#655=CARTESIAN_POINT('',(0.245000000000000,-2.540000000000000,-3.650000000000000));
#656=VERTEX_POINT('',#655);
#657=CARTESIAN_POINT('',(0.245000000000000,-2.540000000000000,4.650000000000000));
#658=VERTEX_POINT('',#657);
#659=CARTESIAN_POINT('',(0.245000000000000,-2.540000000000000,-3.650000000000000));
#660=DIRECTION('',(0.0,0.0,1.0));
#661=VECTOR('',#660,8.300000000000001);
#662=LINE('',#659,#661);
#663=EDGE_CURVE('',#656,#658,#662,.T.);
#664=ORIENTED_EDGE('',*,*,#663,.F.);
#665=CARTESIAN_POINT('',(-0.245000000000000,-2.540000000000000,-3.650000000000000));
#666=VERTEX_POINT('',#665);
#667=CARTESIAN_POINT('',(1.555250E-016,-2.540000000000000,-3.650000000000000));
#668=DIRECTION('',(0.0,0.0,1.0));
#669=DIRECTION('',(1.0,0.0,0.0));
#670=AXIS2_PLACEMENT_3D('',#667,#668,#669);
#671=CIRCLE('',#670,0.245000000000000);
#672=EDGE_CURVE('',#656,#666,#671,.T.);
#673=ORIENTED_EDGE('',*,*,#672,.T.);
#674=CARTESIAN_POINT('',(-0.245000000000000,-2.540000000000000,4.650000000000000));
#675=VERTEX_POINT('',#674);
#676=CARTESIAN_POINT('',(-0.245000000000000,-2.540000000000000,-3.650000000000000));
#677=DIRECTION('',(0.0,0.0,1.0));
#678=VECTOR('',#677,8.300000000000001);
#679=LINE('',#676,#678);
#680=EDGE_CURVE('',#666,#675,#679,.T.);
#681=ORIENTED_EDGE('',*,*,#680,.T.);
#682=CARTESIAN_POINT('',(1.555250E-016,-2.540000000000000,4.650000000000000));
#683=DIRECTION('',(0.0,0.0,1.0));
#684=DIRECTION('',(1.0,0.0,0.0));
#685=AXIS2_PLACEMENT_3D('',#682,#683,#684);
#686=CIRCLE('',#685,0.245000000000000);
#687=EDGE_CURVE('',#658,#675,#686,.T.);
#688=ORIENTED_EDGE('',*,*,#687,.F.);
#689=EDGE_LOOP('',(#664,#673,#681,#688));
#690=FACE_OUTER_BOUND('',#689,.T.);
#691=ADVANCED_FACE('',(#690),#654,.T.);
#692=CARTESIAN_POINT('',(1.555250E-016,-2.540000000000000,4.650000000000000));
#693=DIRECTION('',(0.0,0.0,-1.0));
#694=DIRECTION('',(1.0,0.0,0.0));
#695=AXIS2_PLACEMENT_3D('',#692,#693,#694);
#696=CYLINDRICAL_SURFACE('',#695,0.245000000000000);
#697=ORIENTED_EDGE('',*,*,#663,.T.);
#698=CARTESIAN_POINT('',(1.555250E-016,-2.540000000000000,4.650000000000000));
#699=DIRECTION('',(0.0,0.0,1.0));
#700=DIRECTION('',(1.0,0.0,0.0));
#701=AXIS2_PLACEMENT_3D('',#698,#699,#700);
#702=CIRCLE('',#701,0.245000000000000);
#703=EDGE_CURVE('',#675,#658,#702,.T.);
#704=ORIENTED_EDGE('',*,*,#703,.F.);
#705=ORIENTED_EDGE('',*,*,#680,.F.);
#706=CARTESIAN_POINT('',(1.555250E-016,-2.540000000000000,-3.650000000000000));
#707=DIRECTION('',(0.0,0.0,1.0));
#708=DIRECTION('',(1.0,0.0,0.0));
#709=AXIS2_PLACEMENT_3D('',#706,#707,#708);
#710=CIRCLE('',#709,0.245000000000000);
#711=EDGE_CURVE('',#666,#656,#710,.T.);
#712=ORIENTED_EDGE('',*,*,#711,.T.);
#713=EDGE_LOOP('',(#697,#704,#705,#712));
#714=FACE_OUTER_BOUND('',#713,.T.);
#715=ADVANCED_FACE('',(#714),#696,.T.);
#716=CARTESIAN_POINT('',(1.555250E-016,-2.540000000000000,-3.650000000000000));
#717=DIRECTION('',(0.0,0.0,1.0));
#718=DIRECTION('',(1.0,0.0,0.0));
#719=AXIS2_PLACEMENT_3D('',#716,#717,#718);
#720=PLANE('',#719);
#721=ORIENTED_EDGE('',*,*,#672,.F.);
#722=ORIENTED_EDGE('',*,*,#711,.F.);
#723=EDGE_LOOP('',(#721,#722));
#724=FACE_OUTER_BOUND('',#723,.T.);
#725=ADVANCED_FACE('',(#724),#720,.F.);
#726=CARTESIAN_POINT('',(1.555250E-016,-2.540000000000000,4.650000000000000));
#727=DIRECTION('',(0.0,0.0,1.0));
#728=DIRECTION('',(1.0,0.0,0.0));
#729=AXIS2_PLACEMENT_3D('',#726,#727,#728);
#730=PLANE('',#729);
#731=ORIENTED_EDGE('',*,*,#687,.T.);
#732=ORIENTED_EDGE('',*,*,#703,.T.);
#733=EDGE_LOOP('',(#731,#732));
#734=FACE_OUTER_BOUND('',#733,.T.);
#735=ADVANCED_FACE('',(#734),#730,.T.);
#736=CLOSED_SHELL('',(#691,#715,#725,#735));
#737=MANIFOLD_SOLID_BREP('866',#736);
#738=STYLED_ITEM('NONE',(#161),#737);
#739=CARTESIAN_POINT('',(-2.540000000000000,4.440892E-016,4.650000000000000));
#740=DIRECTION('',(0.0,0.0,-1.0));
#741=DIRECTION('',(-1.0,0.0,0.0));
#742=AXIS2_PLACEMENT_3D('',#739,#740,#741);
#743=CYLINDRICAL_SURFACE('',#742,0.245000000000000);
#744=CARTESIAN_POINT('',(-2.785000000000000,4.440892E-016,-3.650000000000000));
#745=VERTEX_POINT('',#744);
#746=CARTESIAN_POINT('',(-2.785000000000000,4.440892E-016,4.650000000000000));
#747=VERTEX_POINT('',#746);
#748=CARTESIAN_POINT('',(-2.785000000000000,4.740921E-016,-3.650000000000000));
#749=DIRECTION('',(0.0,0.0,1.0));
#750=VECTOR('',#749,8.300000000000001);
#751=LINE('',#748,#750);
#752=EDGE_CURVE('',#745,#747,#751,.T.);
#753=ORIENTED_EDGE('',*,*,#752,.F.);
#754=CARTESIAN_POINT('',(-2.295000000000000,3.840835E-016,-3.650000000000000));
#755=VERTEX_POINT('',#754);
#756=CARTESIAN_POINT('',(-2.540000000000000,4.440892E-016,-3.650000000000000));
#757=DIRECTION('',(0.0,0.0,1.0));
#758=DIRECTION('',(-1.0,0.0,0.0));
#759=AXIS2_PLACEMENT_3D('',#756,#757,#758);
#760=CIRCLE('',#759,0.245000000000000);
#761=EDGE_CURVE('',#745,#755,#760,.T.);
#762=ORIENTED_EDGE('',*,*,#761,.T.);
#763=CARTESIAN_POINT('',(-2.295000000000000,3.840835E-016,4.650000000000000));
#764=VERTEX_POINT('',#763);
#765=CARTESIAN_POINT('',(-2.295000000000000,3.840835E-016,-3.650000000000000));
#766=DIRECTION('',(0.0,0.0,1.0));
#767=VECTOR('',#766,8.300000000000001);
#768=LINE('',#765,#767);
#769=EDGE_CURVE('',#755,#764,#768,.T.);
#770=ORIENTED_EDGE('',*,*,#769,.T.);
#771=CARTESIAN_POINT('',(-2.540000000000000,4.440892E-016,4.650000000000000));
#772=DIRECTION('',(0.0,0.0,1.0));
#773=DIRECTION('',(-1.0,0.0,0.0));
#774=AXIS2_PLACEMENT_3D('',#771,#772,#773);
#775=CIRCLE('',#774,0.245000000000000);
#776=EDGE_CURVE('',#747,#764,#775,.T.);
#777=ORIENTED_EDGE('',*,*,#776,.F.);
#778=EDGE_LOOP('',(#753,#762,#770,#777));
#779=FACE_OUTER_BOUND('',#778,.T.);
#780=ADVANCED_FACE('',(#779),#743,.T.);
#781=CARTESIAN_POINT('',(-2.540000000000000,4.440892E-016,4.650000000000000));
#782=DIRECTION('',(0.0,0.0,-1.0));
#783=DIRECTION('',(-1.0,0.0,0.0));
#784=AXIS2_PLACEMENT_3D('',#781,#782,#783);
#785=CYLINDRICAL_SURFACE('',#784,0.245000000000000);
#786=ORIENTED_EDGE('',*,*,#752,.T.);
#787=CARTESIAN_POINT('',(-2.540000000000000,4.440892E-016,4.650000000000000));
#788=DIRECTION('',(0.0,0.0,1.0));
#789=DIRECTION('',(-1.0,0.0,0.0));
#790=AXIS2_PLACEMENT_3D('',#787,#788,#789);
#791=CIRCLE('',#790,0.245000000000000);
#792=EDGE_CURVE('',#764,#747,#791,.T.);
#793=ORIENTED_EDGE('',*,*,#792,.F.);
#794=ORIENTED_EDGE('',*,*,#769,.F.);
#795=CARTESIAN_POINT('',(-2.540000000000000,4.440892E-016,-3.650000000000000));
#796=DIRECTION('',(0.0,0.0,1.0));
#797=DIRECTION('',(-1.0,0.0,0.0));
#798=AXIS2_PLACEMENT_3D('',#795,#796,#797);
#799=CIRCLE('',#798,0.245000000000000);
#800=EDGE_CURVE('',#755,#745,#799,.T.);
#801=ORIENTED_EDGE('',*,*,#800,.T.);
#802=EDGE_LOOP('',(#786,#793,#794,#801));
#803=FACE_OUTER_BOUND('',#802,.T.);
#804=ADVANCED_FACE('',(#803),#785,.T.);
#805=CARTESIAN_POINT('',(-2.540000000000000,4.440892E-016,-3.650000000000000));
#806=DIRECTION('',(0.0,0.0,1.0));
#807=DIRECTION('',(-1.0,0.0,0.0));
#808=AXIS2_PLACEMENT_3D('',#805,#806,#807);
#809=PLANE('',#808);
#810=ORIENTED_EDGE('',*,*,#761,.F.);
#811=ORIENTED_EDGE('',*,*,#800,.F.);
#812=EDGE_LOOP('',(#810,#811));
#813=FACE_OUTER_BOUND('',#812,.T.);
#814=ADVANCED_FACE('',(#813),#809,.F.);
#815=CARTESIAN_POINT('',(-2.540000000000000,4.440892E-016,4.650000000000000));
#816=DIRECTION('',(0.0,0.0,1.0));
#817=DIRECTION('',(-1.0,0.0,0.0));
#818=AXIS2_PLACEMENT_3D('',#815,#816,#817);
#819=PLANE('',#818);
#820=ORIENTED_EDGE('',*,*,#776,.T.);
#821=ORIENTED_EDGE('',*,*,#792,.T.);
#822=EDGE_LOOP('',(#820,#821));
#823=FACE_OUTER_BOUND('',#822,.T.);
#824=ADVANCED_FACE('',(#823),#819,.T.);
#825=CLOSED_SHELL('',(#780,#804,#814,#824));
#826=MANIFOLD_SOLID_BREP('862',#825);
#827=STYLED_ITEM('NONE',(#161),#826);
#828=CARTESIAN_POINT('',(1.555250E-016,2.540000000000000,4.650000000000000));
#829=DIRECTION('',(0.0,0.0,-1.0));
#830=DIRECTION('',(1.0,0.0,0.0));
#831=AXIS2_PLACEMENT_3D('',#828,#829,#830);
#832=CYLINDRICAL_SURFACE('',#831,0.245000000000000);
#833=CARTESIAN_POINT('',(0.245000000000000,2.540000000000000,-3.650000000000000));
#834=VERTEX_POINT('',#833);
#835=CARTESIAN_POINT('',(0.245000000000000,2.540000000000000,4.650000000000000));
#836=VERTEX_POINT('',#835);
#837=CARTESIAN_POINT('',(0.245000000000000,2.540000000000000,-3.650000000000000));
#838=DIRECTION('',(0.0,0.0,1.0));
#839=VECTOR('',#838,8.300000000000001);
#840=LINE('',#837,#839);
#841=EDGE_CURVE('',#834,#836,#840,.T.);
#842=ORIENTED_EDGE('',*,*,#841,.F.);
#843=CARTESIAN_POINT('',(-0.245000000000000,2.540000000000000,-3.650000000000000));
#844=VERTEX_POINT('',#843);
#845=CARTESIAN_POINT('',(1.555250E-016,2.540000000000000,-3.650000000000000));
#846=DIRECTION('',(0.0,0.0,1.0));
#847=DIRECTION('',(1.0,0.0,0.0));
#848=AXIS2_PLACEMENT_3D('',#845,#846,#847);
#849=CIRCLE('',#848,0.245000000000000);
#850=EDGE_CURVE('',#834,#844,#849,.T.);
#851=ORIENTED_EDGE('',*,*,#850,.T.);
#852=CARTESIAN_POINT('',(-0.245000000000000,2.540000000000000,4.650000000000000));
#853=VERTEX_POINT('',#852);
#854=CARTESIAN_POINT('',(-0.245000000000000,2.540000000000000,-3.650000000000000));
#855=DIRECTION('',(0.0,0.0,1.0));
#856=VECTOR('',#855,8.300000000000001);
#857=LINE('',#854,#856);
#858=EDGE_CURVE('',#844,#853,#857,.T.);
#859=ORIENTED_EDGE('',*,*,#858,.T.);
#860=CARTESIAN_POINT('',(1.555250E-016,2.540000000000000,4.650000000000000));
#861=DIRECTION('',(0.0,0.0,1.0));
#862=DIRECTION('',(1.0,0.0,0.0));
#863=AXIS2_PLACEMENT_3D('',#860,#861,#862);
#864=CIRCLE('',#863,0.245000000000000);
#865=EDGE_CURVE('',#836,#853,#864,.T.);
#866=ORIENTED_EDGE('',*,*,#865,.F.);
#867=EDGE_LOOP('',(#842,#851,#859,#866));
#868=FACE_OUTER_BOUND('',#867,.T.);
#869=ADVANCED_FACE('',(#868),#832,.T.);
#870=CARTESIAN_POINT('',(1.555250E-016,2.540000000000000,4.650000000000000));
#871=DIRECTION('',(0.0,0.0,-1.0));
#872=DIRECTION('',(1.0,0.0,0.0));
#873=AXIS2_PLACEMENT_3D('',#870,#871,#872);
#874=CYLINDRICAL_SURFACE('',#873,0.245000000000000);
#875=ORIENTED_EDGE('',*,*,#841,.T.);
#876=CARTESIAN_POINT('',(1.555250E-016,2.540000000000000,4.650000000000000));
#877=DIRECTION('',(0.0,0.0,1.0));
#878=DIRECTION('',(1.0,0.0,0.0));
#879=AXIS2_PLACEMENT_3D('',#876,#877,#878);
#880=CIRCLE('',#879,0.245000000000000);
#881=EDGE_CURVE('',#853,#836,#880,.T.);
#882=ORIENTED_EDGE('',*,*,#881,.F.);
#883=ORIENTED_EDGE('',*,*,#858,.F.);
#884=CARTESIAN_POINT('',(1.555250E-016,2.540000000000000,-3.650000000000000));
#885=DIRECTION('',(0.0,0.0,1.0));
#886=DIRECTION('',(1.0,0.0,0.0));
#887=AXIS2_PLACEMENT_3D('',#884,#885,#886);
#888=CIRCLE('',#887,0.245000000000000);
#889=EDGE_CURVE('',#844,#834,#888,.T.);
#890=ORIENTED_EDGE('',*,*,#889,.T.);
#891=EDGE_LOOP('',(#875,#882,#883,#890));
#892=FACE_OUTER_BOUND('',#891,.T.);
#893=ADVANCED_FACE('',(#892),#874,.T.);
#894=CARTESIAN_POINT('',(1.555250E-016,2.540000000000000,-3.650000000000000));
#895=DIRECTION('',(0.0,0.0,1.0));
#896=DIRECTION('',(1.0,0.0,0.0));
#897=AXIS2_PLACEMENT_3D('',#894,#895,#896);
#898=PLANE('',#897);
#899=ORIENTED_EDGE('',*,*,#850,.F.);
#900=ORIENTED_EDGE('',*,*,#889,.F.);
#901=EDGE_LOOP('',(#899,#900));
#902=FACE_OUTER_BOUND('',#901,.T.);
#903=ADVANCED_FACE('',(#902),#898,.F.);
#904=CARTESIAN_POINT('',(1.555250E-016,2.540000000000000,4.650000000000000));
#905=DIRECTION('',(0.0,0.0,1.0));
#906=DIRECTION('',(1.0,0.0,0.0));
#907=AXIS2_PLACEMENT_3D('',#904,#905,#906);
#908=PLANE('',#907);
#909=ORIENTED_EDGE('',*,*,#865,.T.);
#910=ORIENTED_EDGE('',*,*,#881,.T.);
#911=EDGE_LOOP('',(#909,#910));
#912=FACE_OUTER_BOUND('',#911,.T.);
#913=ADVANCED_FACE('',(#912),#908,.T.);
#914=CLOSED_SHELL('',(#869,#893,#903,#913));
#915=MANIFOLD_SOLID_BREP('85E',#914);
#916=STYLED_ITEM('NONE',(#161),#915);
#917=ADVANCED_BREP_SHAPE_REPRESENTATION('ABSR1',(#154,#354,#507,#648,#737,#826,#915),#28);
#918=SHAPE_REPRESENTATION_RELATIONSHIP('SRRPL1','',#917,#62);
ENDSEC;
END-ISO-10303-21;
