ISO-10303-21;
HEADER;
/****************************************************************
 * Generated by software with PDE/Lib inside                    *
 * PDElib Version v51a, created Mon 11/03/2008                  *
 * International Technegroup Inc. (www.iti-oh.com)              *
 ****************************************************************/
FILE_DESCRIPTION((''),'2;1');
FILE_NAME('TO254P1420X457-3N-R795X1023.stp','2010-05-19T09:40:32',(''),(''),'Mechanical Desktop 2010','Mechanical Desktop 2010',', , ');
FILE_SCHEMA(('AUTOMOTIVE_DESIGN { 1 2 10303 214 1 1 1 1 }'));
ENDSEC;
DATA;
#8=(NAMED_UNIT(*)PLANE_ANGLE_UNIT()SI_UNIT($,.RADIAN.));
#9=DIMENSIONAL_EXPONENTS(0.0,0.0,0.0,0.0,0.0,0.0,0.0);
#10=PLANE_ANGLE_MEASURE_WITH_UNIT(PLANE_ANGLE_MEASURE(0.017453292500000),#8);
#14=(CONVERSION_BASED_UNIT('DEGREE',#10)NAMED_UNIT(#9)PLANE_ANGLE_UNIT());
#18=(NAMED_UNIT(*)SI_UNIT($,.STERADIAN.)SOLID_ANGLE_UNIT());
#22=(LENGTH_UNIT()NAMED_UNIT(*)SI_UNIT(.MILLI.,.METRE.));
#23=UNCERTAINTY_MEASURE_WITH_UNIT(LENGTH_MEASURE(0.000001000000000),#22,'DISTANCE_ACCURACY_VALUE','');
#28=(GEOMETRIC_REPRESENTATION_CONTEXT(3)GLOBAL_UNCERTAINTY_ASSIGNED_CONTEXT((#23))GLOBAL_UNIT_ASSIGNED_CONTEXT((#14,#18,#22))REPRESENTATION_CONTEXT('None','None'));
#29=APPLICATION_CONTEXT('automotive design');
#30=APPLICATION_PROTOCOL_DEFINITION('INTERNATIONAL_STANDARD','automotive_design',1998,#29);
#31=PRODUCT_CONTEXT('3D Mechanical Parts',#29,'mechanical');
#32=PRODUCT('Product','Product','',(#31));
#33=PRODUCT_RELATED_PRODUCT_CATEGORY('part',$,(#32));
#34=PRODUCT_CATEGORY('part',$);
#35=PERSON('1','Design','Joe',$,$,$);
#36=ORGANIZATION($,'None','None');
#37=PERSON_AND_ORGANIZATION(#35,#36);
#38=PERSON_AND_ORGANIZATION_ROLE('design_owner');
#39=APPLIED_PERSON_AND_ORGANIZATION_ASSIGNMENT(#37,#38,(#32));
#40=PRODUCT_DEFINITION_FORMATION_WITH_SPECIFIED_SOURCE('None','',#32,.BOUGHT.);
#41=PERSON('2','Creator','Joe',$,$,$);
#42=ORGANIZATION($,'None','None');
#43=PERSON_AND_ORGANIZATION(#41,#42);
#44=PERSON_AND_ORGANIZATION_ROLE('creator');
#45=APPLIED_PERSON_AND_ORGANIZATION_ASSIGNMENT(#43,#44,(#40));
#46=PERSON('3','Supplier','Joe',$,$,$);
#47=ORGANIZATION($,'None','None');
#48=PERSON_AND_ORGANIZATION(#46,#47);
#49=PERSON_AND_ORGANIZATION_ROLE('design_supplier');
#50=APPLIED_PERSON_AND_ORGANIZATION_ASSIGNMENT(#48,#49,(#40));
#51=PRODUCT_DEFINITION_CONTEXT('part definition',#29,'design');
#52=PRODUCT_DEFINITION('None','',#40,#51);
#53=PERSON('4','Creator','Joe',$,$,$);
#54=ORGANIZATION($,'None','None');
#55=PERSON_AND_ORGANIZATION(#53,#54);
#56=PERSON_AND_ORGANIZATION_ROLE('creator');
#57=APPLIED_PERSON_AND_ORGANIZATION_ASSIGNMENT(#55,#56,(#52));
#58=CARTESIAN_POINT('NONE',(0.0,0.0,0.0));
#59=DIRECTION('NONE',(0.0,0.0,1.0));
#60=DIRECTION('NONE',(1.0,0.0,0.0));
#61=AXIS2_PLACEMENT_3D('NONE',#58,#59,#60);
#62=SHAPE_REPRESENTATION('SR1',(#61),#28);
#63=PRODUCT_DEFINITION_SHAPE('PDS1','Test Part',#52);
#64=SHAPE_DEFINITION_REPRESENTATION(#63,#62);
#65=CARTESIAN_POINT('',(-2.914841044677908,-5.099999999999998,0.0));
#66=DIRECTION('',(0.992546151641322,-1.823217E-016,0.121869343405148));
#67=DIRECTION('',(-0.121869343405148,2.238630E-017,0.992546151641322));
#68=AXIS2_PLACEMENT_3D('',#65,#66,#67);
#69=PLANE('',#68);
#70=CARTESIAN_POINT('',(-2.914841044677906,5.099999999999998,0.0));
#71=VERTEX_POINT('',#70);
#72=CARTESIAN_POINT('',(-3.209523990844875,5.099999999999999,2.400000000000000));
#73=VERTEX_POINT('',#72);
#74=CARTESIAN_POINT('',(-2.914841044677906,5.099999999999998,0.0));
#75=DIRECTION('',(-0.121869343405148,0.0,0.992546151641322));
#76=VECTOR('',#75,2.418023581101235);
#77=LINE('',#74,#76);
#78=EDGE_CURVE('',#71,#73,#77,.T.);
#79=ORIENTED_EDGE('',*,*,#78,.F.);
#80=CARTESIAN_POINT('',(-2.914841044677908,-5.099999999999998,0.0));
#81=VERTEX_POINT('',#80);
#82=CARTESIAN_POINT('',(-2.914841044677908,-5.099999999999998,0.0));
#83=DIRECTION('',(0.0,1.0,0.0));
#84=VECTOR('',#83,10.199999999999996);
#85=LINE('',#82,#84);
#86=EDGE_CURVE('',#81,#71,#85,.T.);
#87=ORIENTED_EDGE('',*,*,#86,.F.);
#88=CARTESIAN_POINT('',(-3.209523990844879,-5.099999999999998,2.400000000000000));
#89=VERTEX_POINT('',#88);
#90=CARTESIAN_POINT('',(-3.209523990844879,-5.100000000000001,2.400000000000000));
#91=DIRECTION('',(0.121869343405148,0.0,-0.992546151641322));
#92=VECTOR('',#91,2.418023581101236);
#93=LINE('',#90,#92);
#94=EDGE_CURVE('',#89,#81,#93,.T.);
#95=ORIENTED_EDGE('',*,*,#94,.F.);
#96=CARTESIAN_POINT('',(-3.209523990844879,-5.099999999999998,2.400000000000000));
#97=DIRECTION('',(0.0,1.0,0.0));
#98=VECTOR('',#97,10.199999999999996);
#99=LINE('',#96,#98);
#100=EDGE_CURVE('',#89,#73,#99,.T.);
#101=ORIENTED_EDGE('',*,*,#100,.T.);
#102=EDGE_LOOP('',(#79,#87,#95,#101));
#103=FACE_OUTER_BOUND('',#102,.T.);
#104=ADVANCED_FACE('',(#103),#69,.F.);
#105=CARTESIAN_POINT('',(-3.154731495457464,-5.100000000000001,1.149792495387416));
#106=DIRECTION('',(0.0,-1.0,0.0));
#107=DIRECTION('',(0.0,0.0,-1.0));
#108=AXIS2_PLACEMENT_3D('',#105,#106,#107);
#109=PLANE('',#108);
#110=ORIENTED_EDGE('',*,*,#94,.T.);
#111=CARTESIAN_POINT('',(6.090476009155120,-5.099999999999998,0.0));
#112=VERTEX_POINT('',#111);
#113=CARTESIAN_POINT('',(-2.914841044677908,-5.099999999999998,0.0));
#114=DIRECTION('',(1.0,0.0,0.0));
#115=VECTOR('',#114,9.005317053833029);
#116=LINE('',#113,#115);
#117=EDGE_CURVE('',#81,#112,#116,.T.);
#118=ORIENTED_EDGE('',*,*,#117,.T.);
#119=CARTESIAN_POINT('',(6.090476009155122,-5.099999999999998,1.400000000000000));
#120=VERTEX_POINT('',#119);
#121=CARTESIAN_POINT('',(6.090476009155120,-5.099999999999998,0.0));
#122=DIRECTION('',(0.0,0.0,1.0));
#123=VECTOR('',#122,1.400000000000000);
#124=LINE('',#121,#123);
#125=EDGE_CURVE('',#112,#120,#124,.T.);
#126=ORIENTED_EDGE('',*,*,#125,.T.);
#127=CARTESIAN_POINT('',(5.967691448252214,-5.099999999999998,2.400000000000021));
#128=VERTEX_POINT('',#127);
#129=CARTESIAN_POINT('',(6.090476009155123,-5.100000000000003,1.400000000000000));
#130=DIRECTION('',(-0.121869343405149,0.0,0.992546151641322));
#131=VECTOR('',#130,1.007509825458870);
#132=LINE('',#129,#131);
#133=EDGE_CURVE('',#120,#128,#132,.T.);
#134=ORIENTED_EDGE('',*,*,#133,.T.);
#135=CARTESIAN_POINT('',(5.967691448252217,-5.099999999999998,2.400000000000000));
#136=DIRECTION('',(-1.0,0.0,0.0));
#137=VECTOR('',#136,9.177215439097097);
#138=LINE('',#135,#137);
#139=EDGE_CURVE('',#128,#89,#138,.T.);
#140=ORIENTED_EDGE('',*,*,#139,.T.);
#141=EDGE_LOOP('',(#110,#118,#126,#134,#140));
#142=FACE_OUTER_BOUND('',#141,.T.);
#143=ADVANCED_FACE('',(#142),#109,.T.);
#144=CARTESIAN_POINT('',(5.701248951092913,-5.099999999999998,4.570000000000001));
#145=DIRECTION('',(-0.992546151641322,4.416035E-016,-0.121869343405148));
#146=DIRECTION('',(0.121869343405148,-2.238630E-017,-0.992546151641322));
#147=AXIS2_PLACEMENT_3D('',#144,#145,#146);
#148=PLANE('',#147);
#149=CARTESIAN_POINT('',(5.701248951092913,-4.920000000000000,4.570000000000001));
#150=VERTEX_POINT('',#149);
#151=CARTESIAN_POINT('',(5.967691448252213,-5.099999999999998,2.400000000000021));
#152=DIRECTION('',(-0.121458392063577,0.082053391649352,0.989199221550527));
#153=VECTOR('',#152,2.193693598543880);
#154=LINE('',#151,#153);
#155=EDGE_CURVE('',#128,#150,#154,.T.);
#156=ORIENTED_EDGE('',*,*,#155,.F.);
#157=ORIENTED_EDGE('',*,*,#133,.F.);
#158=CARTESIAN_POINT('',(6.090476009155122,-3.100000000000000,1.400000000000000));
#159=VERTEX_POINT('',#158);
#160=CARTESIAN_POINT('',(6.090476009155128,-3.100000000000000,1.399999999999958));
#161=DIRECTION('',(0.0,-1.0,0.0));
#162=VECTOR('',#161,1.999999999999998);
#163=LINE('',#160,#162);
#164=EDGE_CURVE('',#159,#120,#163,.T.);
#165=ORIENTED_EDGE('',*,*,#164,.F.);
#166=CARTESIAN_POINT('',(6.090476009155122,3.100000000000000,1.400000000000000));
#167=VERTEX_POINT('',#166);
#168=CARTESIAN_POINT('',(6.090476009155121,-3.100000000000000,1.400000000000000));
#169=DIRECTION('',(0.0,1.0,0.0));
#170=VECTOR('',#169,6.199999999999999);
#171=LINE('',#168,#170);
#172=EDGE_CURVE('',#159,#167,#171,.T.);
#173=ORIENTED_EDGE('',*,*,#172,.T.);
#174=CARTESIAN_POINT('',(6.090476009155125,5.099999999999997,1.400000000000000));
#175=VERTEX_POINT('',#174);
#176=CARTESIAN_POINT('',(6.090476009155154,5.099999999999996,1.399999999999779));
#177=DIRECTION('',(0.0,-1.0,0.0));
#178=VECTOR('',#177,1.999999999999996);
#179=LINE('',#176,#178);
#180=EDGE_CURVE('',#175,#167,#179,.T.);
#181=ORIENTED_EDGE('',*,*,#180,.F.);
#182=CARTESIAN_POINT('',(5.967691448252221,5.100000000000001,2.399999999999993));
#183=VERTEX_POINT('',#182);
#184=CARTESIAN_POINT('',(5.967691448252223,5.099999999999996,2.399999999999993));
#185=DIRECTION('',(0.121869343405148,0.0,-0.992546151641322));
#186=VECTOR('',#185,1.007509825458842);
#187=LINE('',#184,#186);
#188=EDGE_CURVE('',#183,#175,#187,.T.);
#189=ORIENTED_EDGE('',*,*,#188,.F.);
#190=CARTESIAN_POINT('',(5.701248951092917,4.920000000000002,4.570000000000001));
#191=VERTEX_POINT('',#190);
#192=CARTESIAN_POINT('',(5.701248951092917,4.920000000000001,4.570000000000001));
#193=DIRECTION('',(0.121458392063577,0.082053391649352,-0.989199221550527));
#194=VECTOR('',#193,2.193693598543908);
#195=LINE('',#192,#194);
#196=EDGE_CURVE('',#191,#183,#195,.T.);
#197=ORIENTED_EDGE('',*,*,#196,.F.);
#198=CARTESIAN_POINT('',(5.701248951092913,-4.920000000000000,4.570000000000001));
#199=DIRECTION('',(0.0,1.0,0.0));
#200=VECTOR('',#199,9.840000000000002);
#201=LINE('',#198,#200);
#202=EDGE_CURVE('',#150,#191,#201,.T.);
#203=ORIENTED_EDGE('',*,*,#202,.F.);
#204=EDGE_LOOP('',(#156,#157,#165,#173,#181,#189,#197,#203));
#205=FACE_OUTER_BOUND('',#204,.T.);
#206=ADVANCED_FACE('',(#205),#148,.F.);
#207=CARTESIAN_POINT('',(6.090476009155122,-5.045207504612584,1.149792495387416));
#208=DIRECTION('',(1.0,0.0,0.0));
#209=DIRECTION('',(0.0,0.0,1.0));
#210=AXIS2_PLACEMENT_3D('',#207,#208,#209);
#211=PLANE('',#210);
#212=ORIENTED_EDGE('',*,*,#180,.T.);
#213=CARTESIAN_POINT('',(6.090476009155122,3.100000000000000,0.0));
#214=VERTEX_POINT('',#213);
#215=CARTESIAN_POINT('',(6.090476009155122,3.100000000000000,1.400000000000000));
#216=DIRECTION('',(0.0,0.0,-1.0));
#217=VECTOR('',#216,1.400000000000000);
#218=LINE('',#215,#217);
#219=EDGE_CURVE('',#167,#214,#218,.T.);
#220=ORIENTED_EDGE('',*,*,#219,.T.);
#221=CARTESIAN_POINT('',(6.090476009155122,5.100000000000000,0.0));
#222=VERTEX_POINT('',#221);
#223=CARTESIAN_POINT('',(6.090476009155123,3.100000000000000,0.0));
#224=DIRECTION('',(0.0,1.0,0.0));
#225=VECTOR('',#224,2.0);
#226=LINE('',#223,#225);
#227=EDGE_CURVE('',#214,#222,#226,.T.);
#228=ORIENTED_EDGE('',*,*,#227,.T.);
#229=CARTESIAN_POINT('',(6.090476009155122,5.100000000000000,0.0));
#230=DIRECTION('',(0.0,0.0,1.0));
#231=VECTOR('',#230,1.400000000000000);
#232=LINE('',#229,#231);
#233=EDGE_CURVE('',#222,#175,#232,.T.);
#234=ORIENTED_EDGE('',*,*,#233,.T.);
#235=EDGE_LOOP('',(#212,#220,#228,#234));
#236=FACE_OUTER_BOUND('',#235,.T.);
#237=ADVANCED_FACE('',(#236),#211,.T.);
#238=CARTESIAN_POINT('',(6.090476009155122,-5.045207504612584,1.149792495387416));
#239=DIRECTION('',(1.0,0.0,0.0));
#240=DIRECTION('',(0.0,0.0,1.0));
#241=AXIS2_PLACEMENT_3D('',#238,#239,#240);
#242=PLANE('',#241);
#243=ORIENTED_EDGE('',*,*,#164,.T.);
#244=ORIENTED_EDGE('',*,*,#125,.F.);
#245=CARTESIAN_POINT('',(6.090476009155122,-3.100000000000000,0.0));
#246=VERTEX_POINT('',#245);
#247=CARTESIAN_POINT('',(6.090476009155120,-3.099999999999998,0.0));
#248=DIRECTION('',(0.0,-1.0,0.0));
#249=VECTOR('',#248,2.0);
#250=LINE('',#247,#249);
#251=EDGE_CURVE('',#246,#112,#250,.T.);
#252=ORIENTED_EDGE('',*,*,#251,.F.);
#253=CARTESIAN_POINT('',(6.090476009155121,-3.100000000000000,0.0));
#254=DIRECTION('',(0.0,0.0,1.0));
#255=VECTOR('',#254,1.400000000000000);
#256=LINE('',#253,#255);
#257=EDGE_CURVE('',#246,#159,#256,.T.);
#258=ORIENTED_EDGE('',*,*,#257,.T.);
#259=EDGE_LOOP('',(#243,#244,#252,#258));
#260=FACE_OUTER_BOUND('',#259,.T.);
#261=ADVANCED_FACE('',(#260),#242,.T.);
#262=CARTESIAN_POINT('',(1.440476009155119,-5.009999999999999,3.485000000000001));
#263=DIRECTION('',(-1.830622E-016,-0.996577358335807,0.082665402995597));
#264=DIRECTION('',(-1.518489E-017,-0.082665402995597,-0.996577358335807));
#265=AXIS2_PLACEMENT_3D('',#262,#263,#264);
#266=PLANE('',#265);
#267=ORIENTED_EDGE('',*,*,#155,.T.);
#268=CARTESIAN_POINT('',(-3.029523990844881,-4.919999999999998,4.570000000000001));
#269=VERTEX_POINT('',#268);
#270=CARTESIAN_POINT('',(5.701248951092913,-4.920000000000000,4.570000000000001));
#271=DIRECTION('',(-1.0,0.0,0.0));
#272=VECTOR('',#271,8.730772941937794);
#273=LINE('',#270,#272);
#274=EDGE_CURVE('',#150,#269,#273,.T.);
#275=ORIENTED_EDGE('',*,*,#274,.T.);
#276=CARTESIAN_POINT('',(-3.029523990844881,-4.919999999999998,4.570000000000001));
#277=DIRECTION('',(-0.082384392544885,-0.082384392544884,-0.993189621235553));
#278=VECTOR('',#277,2.184879859397310);
#279=LINE('',#276,#278);
#280=EDGE_CURVE('',#269,#89,#279,.T.);
#281=ORIENTED_EDGE('',*,*,#280,.T.);
#282=ORIENTED_EDGE('',*,*,#139,.F.);
#283=EDGE_LOOP('',(#267,#275,#281,#282));
#284=FACE_OUTER_BOUND('',#283,.T.);
#285=ADVANCED_FACE('',(#284),#266,.T.);
#286=CARTESIAN_POINT('',(1.440476009155121,1.240865E-015,4.570000000000001));
#287=DIRECTION('',(0.0,0.0,1.0));
#288=DIRECTION('',(0.0,-1.0,0.0));
#289=AXIS2_PLACEMENT_3D('',#286,#287,#288);
#290=PLANE('',#289);
#291=ORIENTED_EDGE('',*,*,#202,.T.);
#292=CARTESIAN_POINT('',(-3.029523990844879,4.920000000000002,4.570000000000001));
#293=VERTEX_POINT('',#292);
#294=CARTESIAN_POINT('',(-3.029523990844879,4.920000000000002,4.570000000000001));
#295=DIRECTION('',(1.0,0.0,0.0));
#296=VECTOR('',#295,8.730772941937797);
#297=LINE('',#294,#296);
#298=EDGE_CURVE('',#293,#191,#297,.T.);
#299=ORIENTED_EDGE('',*,*,#298,.F.);
#300=CARTESIAN_POINT('',(-3.029523990844881,-4.919999999999998,4.570000000000001));
#301=DIRECTION('',(0.0,1.0,0.0));
#302=VECTOR('',#301,9.840000000000000);
#303=LINE('',#300,#302);
#304=EDGE_CURVE('',#269,#293,#303,.T.);
#305=ORIENTED_EDGE('',*,*,#304,.F.);
#306=ORIENTED_EDGE('',*,*,#274,.F.);
#307=EDGE_LOOP('',(#291,#299,#305,#306));
#308=FACE_OUTER_BOUND('',#307,.T.);
#309=ADVANCED_FACE('',(#308),#290,.T.);
#310=CARTESIAN_POINT('',(1.440476009155121,5.010000000000001,3.485000000000001));
#311=DIRECTION('',(1.830622E-016,0.996577358335807,0.082665402995597));
#312=DIRECTION('',(-1.518489E-017,-0.082665402995597,0.996577358335807));
#313=AXIS2_PLACEMENT_3D('',#310,#311,#312);
#314=PLANE('',#313);
#315=ORIENTED_EDGE('',*,*,#196,.T.);
#316=CARTESIAN_POINT('',(-3.209523990844878,5.100000000000001,2.400000000000000));
#317=DIRECTION('',(1.0,0.0,0.0));
#318=VECTOR('',#317,9.177215439097100);
#319=LINE('',#316,#318);
#320=EDGE_CURVE('',#73,#183,#319,.T.);
#321=ORIENTED_EDGE('',*,*,#320,.F.);
#322=CARTESIAN_POINT('',(-3.209523990844879,5.100000000000001,2.400000000000000));
#323=DIRECTION('',(0.082384392544885,-0.082384392544884,0.993189621235553));
#324=VECTOR('',#323,2.184879859397310);
#325=LINE('',#322,#324);
#326=EDGE_CURVE('',#73,#293,#325,.T.);
#327=ORIENTED_EDGE('',*,*,#326,.T.);
#328=ORIENTED_EDGE('',*,*,#298,.T.);
#329=EDGE_LOOP('',(#315,#321,#327,#328));
#330=FACE_OUTER_BOUND('',#329,.T.);
#331=ADVANCED_FACE('',(#330),#314,.T.);
#332=CARTESIAN_POINT('',(-3.119523990844880,2.078496E-015,3.485000000000001));
#333=DIRECTION('',(-0.996577358335807,1.830622E-016,0.082665402995597));
#334=DIRECTION('',(-0.082665402995597,1.518489E-017,-0.996577358335807));
#335=AXIS2_PLACEMENT_3D('',#332,#333,#334);
#336=PLANE('',#335);
#337=ORIENTED_EDGE('',*,*,#100,.F.);
#338=ORIENTED_EDGE('',*,*,#280,.F.);
#339=ORIENTED_EDGE('',*,*,#304,.T.);
#340=ORIENTED_EDGE('',*,*,#326,.F.);
#341=EDGE_LOOP('',(#337,#338,#339,#340));
#342=FACE_OUTER_BOUND('',#341,.T.);
#343=ADVANCED_FACE('',(#342),#336,.T.);
#344=CARTESIAN_POINT('',(-0.639523990844879,3.100000000000001,0.0));
#345=DIRECTION('',(0.0,1.0,0.0));
#346=DIRECTION('',(0.0,0.0,1.0));
#347=AXIS2_PLACEMENT_3D('',#344,#345,#346);
#348=PLANE('',#347);
#349=CARTESIAN_POINT('',(-0.639523990844879,3.100000000000001,1.400000000000000));
#350=VERTEX_POINT('',#349);
#351=CARTESIAN_POINT('',(-0.639523990844879,3.100000000000001,1.400000000000000));
#352=DIRECTION('',(1.0,0.0,0.0));
#353=VECTOR('',#352,6.730000000000000);
#354=LINE('',#351,#353);
#355=EDGE_CURVE('',#350,#167,#354,.T.);
#356=ORIENTED_EDGE('',*,*,#355,.F.);
#357=CARTESIAN_POINT('',(-0.639523990844879,3.100000000000001,0.0));
#358=VERTEX_POINT('',#357);
#359=CARTESIAN_POINT('',(-0.639523990844879,3.100000000000001,0.0));
#360=DIRECTION('',(0.0,0.0,1.0));
#361=VECTOR('',#360,1.400000000000000);
#362=LINE('',#359,#361);
#363=EDGE_CURVE('',#358,#350,#362,.T.);
#364=ORIENTED_EDGE('',*,*,#363,.F.);
#365=CARTESIAN_POINT('',(6.090476009155122,3.100000000000001,0.0));
#366=DIRECTION('',(-1.0,0.0,0.0));
#367=VECTOR('',#366,6.730000000000000);
#368=LINE('',#365,#367);
#369=EDGE_CURVE('',#214,#358,#368,.T.);
#370=ORIENTED_EDGE('',*,*,#369,.F.);
#371=ORIENTED_EDGE('',*,*,#219,.F.);
#372=EDGE_LOOP('',(#356,#364,#370,#371));
#373=FACE_OUTER_BOUND('',#372,.T.);
#374=ADVANCED_FACE('',(#373),#348,.F.);
#375=CARTESIAN_POINT('',(6.090476009155122,-3.100000000000000,0.0));
#376=DIRECTION('',(0.0,-1.0,0.0));
#377=DIRECTION('',(0.0,0.0,-1.0));
#378=AXIS2_PLACEMENT_3D('',#375,#376,#377);
#379=PLANE('',#378);
#380=CARTESIAN_POINT('',(-0.639523990844880,-3.099999999999998,1.400000000000000));
#381=VERTEX_POINT('',#380);
#382=CARTESIAN_POINT('',(6.090476009155122,-3.100000000000000,1.400000000000000));
#383=DIRECTION('',(-1.0,0.0,0.0));
#384=VECTOR('',#383,6.730000000000002);
#385=LINE('',#382,#384);
#386=EDGE_CURVE('',#159,#381,#385,.T.);
#387=ORIENTED_EDGE('',*,*,#386,.F.);
#388=ORIENTED_EDGE('',*,*,#257,.F.);
#389=CARTESIAN_POINT('',(-0.639523990844880,-3.099999999999998,0.0));
#390=VERTEX_POINT('',#389);
#391=CARTESIAN_POINT('',(-0.639523990844880,-3.099999999999998,0.0));
#392=DIRECTION('',(1.0,0.0,0.0));
#393=VECTOR('',#392,6.730000000000002);
#394=LINE('',#391,#393);
#395=EDGE_CURVE('',#390,#246,#394,.T.);
#396=ORIENTED_EDGE('',*,*,#395,.F.);
#397=CARTESIAN_POINT('',(-0.639523990844880,-3.099999999999998,0.0));
#398=DIRECTION('',(0.0,0.0,1.0));
#399=VECTOR('',#398,1.400000000000000);
#400=LINE('',#397,#399);
#401=EDGE_CURVE('',#390,#381,#400,.T.);
#402=ORIENTED_EDGE('',*,*,#401,.T.);
#403=EDGE_LOOP('',(#387,#388,#396,#402));
#404=FACE_OUTER_BOUND('',#403,.T.);
#405=ADVANCED_FACE('',(#404),#379,.F.);
#406=CARTESIAN_POINT('',(-0.639523990844880,-3.099999999999998,0.0));
#407=DIRECTION('',(-1.0,0.0,0.0));
#408=DIRECTION('',(0.0,0.0,-1.0));
#409=AXIS2_PLACEMENT_3D('',#406,#407,#408);
#410=PLANE('',#409);
#411=CARTESIAN_POINT('',(-0.639523990844880,-3.099999999999998,1.400000000000000));
#412=DIRECTION('',(0.0,1.0,0.0));
#413=VECTOR('',#412,6.199999999999999);
#414=LINE('',#411,#413);
#415=EDGE_CURVE('',#381,#350,#414,.T.);
#416=ORIENTED_EDGE('',*,*,#415,.F.);
#417=ORIENTED_EDGE('',*,*,#401,.F.);
#418=CARTESIAN_POINT('',(-0.639523990844879,3.100000000000001,0.0));
#419=DIRECTION('',(0.0,-1.0,0.0));
#420=VECTOR('',#419,6.199999999999999);
#421=LINE('',#418,#420);
#422=EDGE_CURVE('',#358,#390,#421,.T.);
#423=ORIENTED_EDGE('',*,*,#422,.F.);
#424=ORIENTED_EDGE('',*,*,#363,.T.);
#425=EDGE_LOOP('',(#416,#417,#423,#424));
#426=FACE_OUTER_BOUND('',#425,.T.);
#427=ADVANCED_FACE('',(#426),#410,.F.);
#428=CARTESIAN_POINT('',(1.440476009155120,-5.354918E-016,1.400000000000000));
#429=DIRECTION('',(0.0,0.0,1.0));
#430=DIRECTION('',(0.0,-1.0,0.0));
#431=AXIS2_PLACEMENT_3D('',#428,#429,#430);
#432=PLANE('',#431);
#433=ORIENTED_EDGE('',*,*,#355,.T.);
#434=ORIENTED_EDGE('',*,*,#172,.F.);
#435=ORIENTED_EDGE('',*,*,#386,.T.);
#436=ORIENTED_EDGE('',*,*,#415,.T.);
#437=EDGE_LOOP('',(#433,#434,#435,#436));
#438=FACE_OUTER_BOUND('',#437,.T.);
#439=ADVANCED_FACE('',(#438),#432,.F.);
#440=CARTESIAN_POINT('',(-3.209523990844880,-5.099999999999998,0.0));
#441=DIRECTION('',(0.0,0.0,-1.0));
#442=DIRECTION('',(0.0,1.0,0.0));
#443=AXIS2_PLACEMENT_3D('',#440,#441,#442);
#444=PLANE('',#443);
#445=ORIENTED_EDGE('',*,*,#86,.T.);
#446=CARTESIAN_POINT('',(6.090476009155122,5.100000000000000,0.0));
#447=DIRECTION('',(-1.0,0.0,0.0));
#448=VECTOR('',#447,9.005317053833029);
#449=LINE('',#446,#448);
#450=EDGE_CURVE('',#222,#71,#449,.T.);
#451=ORIENTED_EDGE('',*,*,#450,.F.);
#452=ORIENTED_EDGE('',*,*,#227,.F.);
#453=ORIENTED_EDGE('',*,*,#369,.T.);
#454=ORIENTED_EDGE('',*,*,#422,.T.);
#455=ORIENTED_EDGE('',*,*,#395,.T.);
#456=ORIENTED_EDGE('',*,*,#251,.T.);
#457=ORIENTED_EDGE('',*,*,#117,.F.);
#458=EDGE_LOOP('',(#445,#451,#452,#453,#454,#455,#456,#457));
#459=FACE_OUTER_BOUND('',#458,.T.);
#460=ADVANCED_FACE('',(#459),#444,.T.);
#461=CARTESIAN_POINT('',(-3.154731495457460,5.099999999999999,1.149792495387416));
#462=DIRECTION('',(0.0,-1.0,0.0));
#463=DIRECTION('',(0.0,0.0,-1.0));
#464=AXIS2_PLACEMENT_3D('',#461,#462,#463);
#465=PLANE('',#464);
#466=ORIENTED_EDGE('',*,*,#78,.T.);
#467=ORIENTED_EDGE('',*,*,#320,.T.);
#468=ORIENTED_EDGE('',*,*,#188,.T.);
#469=ORIENTED_EDGE('',*,*,#233,.F.);
#470=ORIENTED_EDGE('',*,*,#450,.T.);
#471=EDGE_LOOP('',(#466,#467,#468,#469,#470));
#472=FACE_OUTER_BOUND('',#471,.T.);
#473=ADVANCED_FACE('',(#472),#465,.F.);
#474=CLOSED_SHELL('',(#104,#143,#206,#237,#261,#285,#309,#331,#343,#374,#405,#427,#439,#460,#473));
#475=MANIFOLD_SOLID_BREP('7BA',#474);
#476=COLOUR_RGB('250',0.330000000000000,0.330000000000000,0.330000000000000);
#477=SURFACE_STYLE_USAGE(.BOTH.,#478);
#478=SURFACE_SIDE_STYLE('NONE',(#479));
#479=SURFACE_STYLE_FILL_AREA(#480);
#480=FILL_AREA_STYLE('NONE',(#481));
#481=FILL_AREA_STYLE_COLOUR('NONE',#476);
#482=PRESENTATION_STYLE_ASSIGNMENT((#477));
#483=STYLED_ITEM('NONE',(#482),#475);
#484=MECHANICAL_DESIGN_GEOMETRIC_PRESENTATION_REPRESENTATION('NONE',(#483,#915,#1338,#1687),#28);
#485=PRESENTATION_LAYER_ASSIGNMENT('3D','None',(#475,#907,#1337,#1686));
#486=CARTESIAN_POINT('',(-6.339553714681419,-2.089999999999995,0.552939866772642));
#487=DIRECTION('',(0.087155742747630,-1.600972E-017,0.996194698091748));
#488=DIRECTION('',(0.0,-1.0,0.0));
#489=AXIS2_PLACEMENT_3D('',#486,#487,#488);
#490=PLANE('',#489);
#491=CARTESIAN_POINT('',(-7.311668793216445,-2.089999999999995,0.637988915787043));
#492=VERTEX_POINT('',#491);
#493=CARTESIAN_POINT('',(-7.311668793216446,-2.989999999999995,0.637988915787043));
#494=VERTEX_POINT('',#493);
#495=CARTESIAN_POINT('',(-7.311668793216438,-2.089999999999995,0.637988915787043));
#496=DIRECTION('',(0.0,-1.0,0.0));
#497=VECTOR('',#496,0.900000000000000);
#498=LINE('',#495,#497);
#499=EDGE_CURVE('',#492,#494,#498,.T.);
#500=ORIENTED_EDGE('',*,*,#499,.T.);
#501=CARTESIAN_POINT('',(-6.339553714681420,-2.989999999999995,0.552939866772642));
#502=VERTEX_POINT('',#501);
#503=CARTESIAN_POINT('',(-6.339553714681420,-2.989999999999995,0.552939866772642));
#504=DIRECTION('',(-0.996194698091748,0.0,0.087155742747630));
#505=VECTOR('',#504,0.975828400208466);
#506=LINE('',#503,#505);
#507=EDGE_CURVE('',#502,#494,#506,.T.);
#508=ORIENTED_EDGE('',*,*,#507,.F.);
#509=CARTESIAN_POINT('',(-6.339553714681419,-2.089999999999995,0.552939866772642));
#510=VERTEX_POINT('',#509);
#511=CARTESIAN_POINT('',(-6.339553714681420,-2.089999999999995,0.552939866772643));
#512=DIRECTION('',(0.0,-1.0,0.0));
#513=VECTOR('',#512,0.900000000000000);
#514=LINE('',#511,#513);
#515=EDGE_CURVE('',#510,#502,#514,.T.);
#516=ORIENTED_EDGE('',*,*,#515,.F.);
#517=CARTESIAN_POINT('',(-6.339553714681419,-2.089999999999995,0.552939866772642));
#518=DIRECTION('',(-0.996194698091748,0.0,0.087155742747630));
#519=VECTOR('',#518,0.975828400208466);
#520=LINE('',#517,#519);
#521=EDGE_CURVE('',#510,#492,#520,.T.);
#522=ORIENTED_EDGE('',*,*,#521,.T.);
#523=EDGE_LOOP('',(#500,#508,#516,#522));
#524=FACE_OUTER_BOUND('',#523,.T.);
#525=ADVANCED_FACE('',(#524),#490,.T.);
#526=CARTESIAN_POINT('',(-6.388360930620115,-2.989999999999991,-0.004929164158734));
#527=DIRECTION('',(-0.087155742747630,1.600972E-017,-0.996194698091748));
#528=DIRECTION('',(0.0,1.0,0.0));
#529=AXIS2_PLACEMENT_3D('',#526,#527,#528);
#530=PLANE('',#529);
#531=CARTESIAN_POINT('',(-7.360476009155120,-2.989999999999991,0.080119884855664));
#532=VERTEX_POINT('',#531);
#533=CARTESIAN_POINT('',(-7.360476009155118,-2.089999999999995,0.080119884855664));
#534=VERTEX_POINT('',#533);
#535=CARTESIAN_POINT('',(-7.360476009155127,-2.989999999999991,0.080119884855666));
#536=DIRECTION('',(0.0,1.0,0.0));
#537=VECTOR('',#536,0.899999999999997);
#538=LINE('',#535,#537);
#539=EDGE_CURVE('',#532,#534,#538,.T.);
#540=ORIENTED_EDGE('',*,*,#539,.T.);
#541=CARTESIAN_POINT('',(-6.388360930620115,-2.089999999999995,-0.004929164158734));
#542=VERTEX_POINT('',#541);
#543=CARTESIAN_POINT('',(-6.388360930620115,-2.089999999999995,-0.004929164158734));
#544=DIRECTION('',(-0.996194698091748,0.0,0.087155742747630));
#545=VECTOR('',#544,0.975828400208444);
#546=LINE('',#543,#545);
#547=EDGE_CURVE('',#542,#534,#546,.T.);
#548=ORIENTED_EDGE('',*,*,#547,.F.);
#549=CARTESIAN_POINT('',(-6.388360930620115,-2.989999999999991,-0.004929164158734));
#550=VERTEX_POINT('',#549);
#551=CARTESIAN_POINT('',(-6.388360930620111,-2.989999999999991,-0.004929164158733));
#552=DIRECTION('',(0.0,1.0,0.0));
#553=VECTOR('',#552,0.899999999999997);
#554=LINE('',#551,#553);
#555=EDGE_CURVE('',#550,#542,#554,.T.);
#556=ORIENTED_EDGE('',*,*,#555,.F.);
#557=CARTESIAN_POINT('',(-6.388360930620115,-2.989999999999991,-0.004929164158734));
#558=DIRECTION('',(-0.996194698091748,0.0,0.087155742747630));
#559=VECTOR('',#558,0.975828400208444);
#560=LINE('',#557,#559);
#561=EDGE_CURVE('',#550,#532,#560,.T.);
#562=ORIENTED_EDGE('',*,*,#561,.T.);
#563=EDGE_LOOP('',(#540,#548,#556,#562));
#564=FACE_OUTER_BOUND('',#563,.T.);
#565=ADVANCED_FACE('',(#564),#530,.T.);
#566=CARTESIAN_POINT('',(-6.276801579903054,-2.539999999999994,1.270200049398730));
#567=DIRECTION('',(1.836910E-016,1.0,0.0));
#568=DIRECTION('',(0.462149087250550,-8.489261E-017,-0.886802244670977));
#569=AXIS2_PLACEMENT_3D('',#566,#567,#568);
#570=CYLINDRICAL_SURFACE('',#569,1.280000000000035);
#571=ORIENTED_EDGE('',*,*,#555,.T.);
#572=CARTESIAN_POINT('',(-5.167711543631459,-2.089999999999996,0.631201386299065));
#573=VERTEX_POINT('',#572);
#574=CARTESIAN_POINT('',(-6.276801579903054,-2.089999999999995,1.270200049398730));
#575=DIRECTION('',(3.923304E-017,1.000000000000000,-7.528295E-017));
#576=DIRECTION('',(0.462149087250550,-8.489261E-017,-0.886802244670977));
#577=AXIS2_PLACEMENT_3D('',#574,#575,#576);
#578=CIRCLE('',#577,1.280000000000035);
#579=EDGE_CURVE('',#573,#542,#578,.T.);
#580=ORIENTED_EDGE('',*,*,#579,.F.);
#581=CARTESIAN_POINT('',(-5.167711543631459,-2.989999999999993,0.631201386299065));
#582=VERTEX_POINT('',#581);
#583=CARTESIAN_POINT('',(-5.167711543631457,-2.989999999999993,0.631201386299071));
#584=DIRECTION('',(0.0,1.0,0.0));
#585=VECTOR('',#584,0.899999999999997);
#586=LINE('',#583,#585);
#587=EDGE_CURVE('',#582,#573,#586,.T.);
#588=ORIENTED_EDGE('',*,*,#587,.F.);
#589=CARTESIAN_POINT('',(-6.276801579903054,-2.989999999999991,1.270200049398730));
#590=DIRECTION('',(3.923304E-017,1.000000000000000,-7.528295E-017));
#591=DIRECTION('',(0.462149087250550,-8.489261E-017,-0.886802244670977));
#592=AXIS2_PLACEMENT_3D('',#589,#590,#591);
#593=CIRCLE('',#592,1.280000000000035);
#594=EDGE_CURVE('',#582,#550,#593,.T.);
#595=ORIENTED_EDGE('',*,*,#594,.T.);
#596=EDGE_LOOP('',(#571,#580,#588,#595));
#597=FACE_OUTER_BOUND('',#596,.T.);
#598=ADVANCED_FACE('',(#597),#570,.T.);
#599=CARTESIAN_POINT('',(-6.276801579903054,-2.539999999999994,1.270200049398730));
#600=DIRECTION('',(1.836910E-016,1.0,0.0));
#601=DIRECTION('',(0.462149087250550,-8.489261E-017,-0.886802244670977));
#602=AXIS2_PLACEMENT_3D('',#599,#600,#601);
#603=CYLINDRICAL_SURFACE('',#602,0.720000000000035);
#604=ORIENTED_EDGE('',*,*,#515,.T.);
#605=CARTESIAN_POINT('',(-5.652938434500275,-2.989999999999995,0.910763301405151));
#606=VERTEX_POINT('',#605);
#607=CARTESIAN_POINT('',(-6.276801579903054,-2.989999999999995,1.270200049398730));
#608=DIRECTION('',(3.923304E-017,1.0,-7.528295E-017));
#609=DIRECTION('',(0.462149087250550,-8.489261E-017,-0.886802244670977));
#610=AXIS2_PLACEMENT_3D('',#607,#608,#609);
#611=CIRCLE('',#610,0.720000000000035);
#612=EDGE_CURVE('',#606,#502,#611,.T.);
#613=ORIENTED_EDGE('',*,*,#612,.F.);
#614=CARTESIAN_POINT('',(-5.652938434500273,-2.089999999999995,0.910763301405151));
#615=VERTEX_POINT('',#614);
#616=CARTESIAN_POINT('',(-5.652938434500276,-2.089999999999995,0.910763301405145));
#617=DIRECTION('',(0.0,-1.0,0.0));
#618=VECTOR('',#617,0.900000000000000);
#619=LINE('',#616,#618);
#620=EDGE_CURVE('',#615,#606,#619,.T.);
#621=ORIENTED_EDGE('',*,*,#620,.F.);
#622=CARTESIAN_POINT('',(-6.276801579903054,-2.089999999999995,1.270200049398730));
#623=DIRECTION('',(3.923304E-017,1.0,-7.528295E-017));
#624=DIRECTION('',(0.462149087250550,-8.489261E-017,-0.886802244670977));
#625=AXIS2_PLACEMENT_3D('',#622,#623,#624);
#626=CIRCLE('',#625,0.720000000000035);
#627=EDGE_CURVE('',#615,#510,#626,.T.);
#628=ORIENTED_EDGE('',*,*,#627,.T.);
#629=EDGE_LOOP('',(#604,#613,#621,#628));
#630=FACE_OUTER_BOUND('',#629,.T.);
#631=ADVANCED_FACE('',(#630),#603,.F.);
#632=CARTESIAN_POINT('',(-4.330434656343275,-2.989999999999993,2.084436747993523));
#633=DIRECTION('',(0.866476590837183,-1.591639E-016,-0.499217705546561));
#634=DIRECTION('',(0.499217705546561,-9.170178E-017,0.866476590837183));
#635=AXIS2_PLACEMENT_3D('',#632,#633,#634);
#636=PLANE('',#635);
#637=ORIENTED_EDGE('',*,*,#587,.T.);
#638=CARTESIAN_POINT('',(-4.330434656343275,-2.089999999999996,2.084436747993523));
#639=VERTEX_POINT('',#638);
#640=CARTESIAN_POINT('',(-4.330434656343275,-2.089999999999996,2.084436747993523));
#641=DIRECTION('',(-0.499217705546561,0.0,-0.866476590837183));
#642=VECTOR('',#641,1.677177868464229);
#643=LINE('',#640,#642);
#644=EDGE_CURVE('',#639,#573,#643,.T.);
#645=ORIENTED_EDGE('',*,*,#644,.F.);
#646=CARTESIAN_POINT('',(-4.330434656343275,-2.989999999999993,2.084436747993523));
#647=VERTEX_POINT('',#646);
#648=CARTESIAN_POINT('',(-4.330434656343275,-2.989999999999993,2.084436747993524));
#649=DIRECTION('',(0.0,1.0,0.0));
#650=VECTOR('',#649,0.899999999999997);
#651=LINE('',#648,#650);
#652=EDGE_CURVE('',#647,#639,#651,.T.);
#653=ORIENTED_EDGE('',*,*,#652,.F.);
#654=CARTESIAN_POINT('',(-4.330434656343275,-2.989999999999993,2.084436747993523));
#655=DIRECTION('',(-0.499217705546561,0.0,-0.866476590837183));
#656=VECTOR('',#655,1.677177868464229);
#657=LINE('',#654,#656);
#658=EDGE_CURVE('',#647,#582,#657,.T.);
#659=ORIENTED_EDGE('',*,*,#658,.T.);
#660=EDGE_LOOP('',(#637,#645,#653,#659));
#661=FACE_OUTER_BOUND('',#660,.T.);
#662=ADVANCED_FACE('',(#661),#636,.T.);
#663=CARTESIAN_POINT('',(-4.815661547212097,-2.089999999999996,2.363998663099598));
#664=DIRECTION('',(-0.866476590837183,1.591639E-016,0.499217705546561));
#665=DIRECTION('',(-0.499217705546561,9.170178E-017,-0.866476590837183));
#666=AXIS2_PLACEMENT_3D('',#663,#664,#665);
#667=PLANE('',#666);
#668=ORIENTED_EDGE('',*,*,#620,.T.);
#669=CARTESIAN_POINT('',(-4.815661547212098,-2.989999999999997,2.363998663099598));
#670=VERTEX_POINT('',#669);
#671=CARTESIAN_POINT('',(-4.815661547212098,-2.989999999999997,2.363998663099598));
#672=DIRECTION('',(-0.499217705546561,0.0,-0.866476590837183));
#673=VECTOR('',#672,1.677177868464215);
#674=LINE('',#671,#673);
#675=EDGE_CURVE('',#670,#606,#674,.T.);
#676=ORIENTED_EDGE('',*,*,#675,.F.);
#677=CARTESIAN_POINT('',(-4.815661547212097,-2.089999999999996,2.363998663099598));
#678=VERTEX_POINT('',#677);
#679=CARTESIAN_POINT('',(-4.815661547212097,-2.089999999999996,2.363998663099598));
#680=DIRECTION('',(0.0,-1.0,0.0));
#681=VECTOR('',#680,0.900000000000000);
#682=LINE('',#679,#681);
#683=EDGE_CURVE('',#678,#670,#682,.T.);
#684=ORIENTED_EDGE('',*,*,#683,.F.);
#685=CARTESIAN_POINT('',(-4.815661547212097,-2.089999999999996,2.363998663099598));
#686=DIRECTION('',(-0.499217705546561,0.0,-0.866476590837183));
#687=VECTOR('',#686,1.677177868464215);
#688=LINE('',#685,#687);
#689=EDGE_CURVE('',#678,#615,#688,.T.);
#690=ORIENTED_EDGE('',*,*,#689,.T.);
#691=EDGE_LOOP('',(#668,#676,#684,#690));
#692=FACE_OUTER_BOUND('',#691,.T.);
#693=ADVANCED_FACE('',(#692),#667,.T.);
#694=CARTESIAN_POINT('',(-3.706571510940504,-2.539999999999996,1.725000000000001));
#695=DIRECTION('',(-1.836910E-016,-1.0,0.0));
#696=DIRECTION('',(-0.500390994350138,9.191730E-017,0.865799545375995));
#697=AXIS2_PLACEMENT_3D('',#694,#695,#696);
#698=CYLINDRICAL_SURFACE('',#697,1.279999999999999);
#699=ORIENTED_EDGE('',*,*,#683,.T.);
#700=CARTESIAN_POINT('',(-3.706571510940504,-2.989999999999997,3.005000000000000));
#701=VERTEX_POINT('',#700);
#702=CARTESIAN_POINT('',(-3.706571510940504,-2.989999999999997,1.725000000000001));
#703=DIRECTION('',(-4.599459E-017,-1.0,7.958196E-017));
#704=DIRECTION('',(-0.500390994350138,9.191730E-017,0.865799545375995));
#705=AXIS2_PLACEMENT_3D('',#702,#703,#704);
#706=CIRCLE('',#705,1.279999999999999);
#707=EDGE_CURVE('',#701,#670,#706,.T.);
#708=ORIENTED_EDGE('',*,*,#707,.F.);
#709=CARTESIAN_POINT('',(-3.706571510940504,-2.089999999999996,3.005000000000000));
#710=VERTEX_POINT('',#709);
#711=CARTESIAN_POINT('',(-3.706571510940504,-2.089999999999996,3.005000000000000));
#712=DIRECTION('',(0.0,-1.0,0.0));
#713=VECTOR('',#712,0.900000000000000);
#714=LINE('',#711,#713);
#715=EDGE_CURVE('',#710,#701,#714,.T.);
#716=ORIENTED_EDGE('',*,*,#715,.F.);
#717=CARTESIAN_POINT('',(-3.706571510940504,-2.089999999999996,1.725000000000001));
#718=DIRECTION('',(-4.599459E-017,-1.0,7.958196E-017));
#719=DIRECTION('',(-0.500390994350138,9.191730E-017,0.865799545375995));
#720=AXIS2_PLACEMENT_3D('',#717,#718,#719);
#721=CIRCLE('',#720,1.279999999999999);
#722=EDGE_CURVE('',#710,#678,#721,.T.);
#723=ORIENTED_EDGE('',*,*,#722,.T.);
#724=EDGE_LOOP('',(#699,#708,#716,#723));
#725=FACE_OUTER_BOUND('',#724,.T.);
#726=ADVANCED_FACE('',(#725),#698,.T.);
#727=CARTESIAN_POINT('',(-3.706571510940504,-2.539999999999996,1.725000000000001));
#728=DIRECTION('',(-1.836910E-016,-1.0,0.0));
#729=DIRECTION('',(-0.500390994350138,9.191730E-017,0.865799545375995));
#730=AXIS2_PLACEMENT_3D('',#727,#728,#729);
#731=CYLINDRICAL_SURFACE('',#730,0.719999999999999);
#732=ORIENTED_EDGE('',*,*,#652,.T.);
#733=CARTESIAN_POINT('',(-3.706571510940504,-2.089999999999996,2.445000000000000));
#734=VERTEX_POINT('',#733);
#735=CARTESIAN_POINT('',(-3.706571510940504,-2.089999999999996,1.725000000000001));
#736=DIRECTION('',(-4.599459E-017,-1.0,7.958196E-017));
#737=DIRECTION('',(-0.500390994350138,9.191730E-017,0.865799545375995));
#738=AXIS2_PLACEMENT_3D('',#735,#736,#737);
#739=CIRCLE('',#738,0.719999999999999);
#740=EDGE_CURVE('',#734,#639,#739,.T.);
#741=ORIENTED_EDGE('',*,*,#740,.F.);
#742=CARTESIAN_POINT('',(-3.706571510940504,-2.989999999999993,2.445000000000000));
#743=VERTEX_POINT('',#742);
#744=CARTESIAN_POINT('',(-3.706571510940504,-2.989999999999993,2.445000000000000));
#745=DIRECTION('',(0.0,1.0,0.0));
#746=VECTOR('',#745,0.899999999999997);
#747=LINE('',#744,#746);
#748=EDGE_CURVE('',#743,#734,#747,.T.);
#749=ORIENTED_EDGE('',*,*,#748,.F.);
#750=CARTESIAN_POINT('',(-3.706571510940504,-2.989999999999993,1.725000000000001));
#751=DIRECTION('',(-4.599459E-017,-1.0,7.958196E-017));
#752=DIRECTION('',(-0.500390994350138,9.191730E-017,0.865799545375995));
#753=AXIS2_PLACEMENT_3D('',#750,#751,#752);
#754=CIRCLE('',#753,0.719999999999999);
#755=EDGE_CURVE('',#743,#647,#754,.T.);
#756=ORIENTED_EDGE('',*,*,#755,.T.);
#757=EDGE_LOOP('',(#732,#741,#749,#756));
#758=FACE_OUTER_BOUND('',#757,.T.);
#759=ADVANCED_FACE('',(#758),#731,.F.);
#760=CARTESIAN_POINT('',(-3.209523990844880,-2.089999999999996,2.445000000000000));
#761=DIRECTION('',(0.0,1.0,0.0));
#762=DIRECTION('',(0.0,0.0,1.0));
#763=AXIS2_PLACEMENT_3D('',#760,#761,#762);
#764=PLANE('',#763);
#765=CARTESIAN_POINT('',(-3.209523990844880,-2.089999999999996,3.005000000000000));
#766=VERTEX_POINT('',#765);
#767=CARTESIAN_POINT('',(-3.209523990844880,-2.089999999999996,3.005000000000000));
#768=DIRECTION('',(-1.0,0.0,0.0));
#769=VECTOR('',#768,0.497047520095624);
#770=LINE('',#767,#769);
#771=EDGE_CURVE('',#766,#710,#770,.T.);
#772=ORIENTED_EDGE('',*,*,#771,.F.);
#773=CARTESIAN_POINT('',(-3.209523990844880,-2.089999999999996,2.445000000000000));
#774=VERTEX_POINT('',#773);
#775=CARTESIAN_POINT('',(-3.209523990844880,-2.089999999999996,2.445000000000000));
#776=DIRECTION('',(0.0,0.0,1.0));
#777=VECTOR('',#776,0.560000000000000);
#778=LINE('',#775,#777);
#779=EDGE_CURVE('',#774,#766,#778,.T.);
#780=ORIENTED_EDGE('',*,*,#779,.F.);
#781=CARTESIAN_POINT('',(-3.209523990844880,-2.089999999999996,2.445000000000000));
#782=DIRECTION('',(-1.0,0.0,0.0));
#783=VECTOR('',#782,0.497047520095624);
#784=LINE('',#781,#783);
#785=EDGE_CURVE('',#774,#734,#784,.T.);
#786=ORIENTED_EDGE('',*,*,#785,.T.);
#787=ORIENTED_EDGE('',*,*,#740,.T.);
#788=ORIENTED_EDGE('',*,*,#644,.T.);
#789=ORIENTED_EDGE('',*,*,#579,.T.);
#790=ORIENTED_EDGE('',*,*,#547,.T.);
#791=CARTESIAN_POINT('',(-7.360476009155127,-2.089999999999995,0.080119884855665));
#792=DIRECTION('',(0.087155742747658,0.0,0.996194698091745));
#793=VECTOR('',#792,0.560000000000000);
#794=LINE('',#791,#793);
#795=EDGE_CURVE('',#534,#492,#794,.T.);
#796=ORIENTED_EDGE('',*,*,#795,.T.);
#797=ORIENTED_EDGE('',*,*,#521,.F.);
#798=ORIENTED_EDGE('',*,*,#627,.F.);
#799=ORIENTED_EDGE('',*,*,#689,.F.);
#800=ORIENTED_EDGE('',*,*,#722,.F.);
#801=EDGE_LOOP('',(#772,#780,#786,#787,#788,#789,#790,#796,#797,#798,#799,#800));
#802=FACE_OUTER_BOUND('',#801,.T.);
#803=ADVANCED_FACE('',(#802),#764,.T.);
#804=CARTESIAN_POINT('',(-3.209523990844880,-2.089999999999996,3.005000000000000));
#805=DIRECTION('',(0.0,0.0,1.0));
#806=DIRECTION('',(0.0,-1.0,0.0));
#807=AXIS2_PLACEMENT_3D('',#804,#805,#806);
#808=PLANE('',#807);
#809=ORIENTED_EDGE('',*,*,#715,.T.);
#810=CARTESIAN_POINT('',(-3.209523990844880,-2.989999999999997,3.005000000000000));
#811=VERTEX_POINT('',#810);
#812=CARTESIAN_POINT('',(-3.209523990844880,-2.989999999999997,3.005000000000000));
#813=DIRECTION('',(-1.0,0.0,0.0));
#814=VECTOR('',#813,0.497047520095624);
#815=LINE('',#812,#814);
#816=EDGE_CURVE('',#811,#701,#815,.T.);
#817=ORIENTED_EDGE('',*,*,#816,.F.);
#818=CARTESIAN_POINT('',(-3.209523990844880,-2.089999999999996,3.005000000000000));
#819=DIRECTION('',(0.0,-1.0,0.0));
#820=VECTOR('',#819,0.900000000000000);
#821=LINE('',#818,#820);
#822=EDGE_CURVE('',#766,#811,#821,.T.);
#823=ORIENTED_EDGE('',*,*,#822,.F.);
#824=ORIENTED_EDGE('',*,*,#771,.T.);
#825=EDGE_LOOP('',(#809,#817,#823,#824));
#826=FACE_OUTER_BOUND('',#825,.T.);
#827=ADVANCED_FACE('',(#826),#808,.T.);
#828=CARTESIAN_POINT('',(-3.209523990844880,-2.989999999999997,3.005000000000000));
#829=DIRECTION('',(0.0,-1.0,0.0));
#830=DIRECTION('',(0.0,0.0,-1.0));
#831=AXIS2_PLACEMENT_3D('',#828,#829,#830);
#832=PLANE('',#831);
#833=CARTESIAN_POINT('',(-3.209523990844880,-2.989999999999993,2.445000000000000));
#834=VERTEX_POINT('',#833);
#835=CARTESIAN_POINT('',(-3.209523990844880,-2.989999999999993,2.445000000000000));
#836=DIRECTION('',(-1.0,0.0,0.0));
#837=VECTOR('',#836,0.497047520095624);
#838=LINE('',#835,#837);
#839=EDGE_CURVE('',#834,#743,#838,.T.);
#840=ORIENTED_EDGE('',*,*,#839,.F.);
#841=CARTESIAN_POINT('',(-3.209523990844880,-2.989999999999997,3.005000000000000));
#842=DIRECTION('',(0.0,0.0,-1.0));
#843=VECTOR('',#842,0.560000000000000);
#844=LINE('',#841,#843);
#845=EDGE_CURVE('',#811,#834,#844,.T.);
#846=ORIENTED_EDGE('',*,*,#845,.F.);
#847=ORIENTED_EDGE('',*,*,#816,.T.);
#848=ORIENTED_EDGE('',*,*,#707,.T.);
#849=ORIENTED_EDGE('',*,*,#675,.T.);
#850=ORIENTED_EDGE('',*,*,#612,.T.);
#851=ORIENTED_EDGE('',*,*,#507,.T.);
#852=CARTESIAN_POINT('',(-7.311668793216438,-2.989999999999995,0.637988915787042));
#853=DIRECTION('',(-0.087155742747658,6.344132E-015,-0.996194698091745));
#854=VECTOR('',#853,0.560000000000000);
#855=LINE('',#852,#854);
#856=EDGE_CURVE('',#494,#532,#855,.T.);
#857=ORIENTED_EDGE('',*,*,#856,.T.);
#858=ORIENTED_EDGE('',*,*,#561,.F.);
#859=ORIENTED_EDGE('',*,*,#594,.F.);
#860=ORIENTED_EDGE('',*,*,#658,.F.);
#861=ORIENTED_EDGE('',*,*,#755,.F.);
#862=EDGE_LOOP('',(#840,#846,#847,#848,#849,#850,#851,#857,#858,#859,#860,#861));
#863=FACE_OUTER_BOUND('',#862,.T.);
#864=ADVANCED_FACE('',(#863),#832,.T.);
#865=CARTESIAN_POINT('',(-3.209523990844880,-2.989999999999993,2.445000000000000));
#866=DIRECTION('',(0.0,0.0,-1.0));
#867=DIRECTION('',(0.0,1.0,0.0));
#868=AXIS2_PLACEMENT_3D('',#865,#866,#867);
#869=PLANE('',#868);
#870=ORIENTED_EDGE('',*,*,#748,.T.);
#871=ORIENTED_EDGE('',*,*,#785,.F.);
#872=CARTESIAN_POINT('',(-3.209523990844880,-2.989999999999993,2.445000000000000));
#873=DIRECTION('',(0.0,1.0,0.0));
#874=VECTOR('',#873,0.899999999999997);
#875=LINE('',#872,#874);
#876=EDGE_CURVE('',#834,#774,#875,.T.);
#877=ORIENTED_EDGE('',*,*,#876,.F.);
#878=ORIENTED_EDGE('',*,*,#839,.T.);
#879=EDGE_LOOP('',(#870,#871,#877,#878));
#880=FACE_OUTER_BOUND('',#879,.T.);
#881=ADVANCED_FACE('',(#880),#869,.T.);
#882=CARTESIAN_POINT('',(-7.336072401185781,-2.539999999999996,0.359054400321355));
#883=DIRECTION('',(0.996194698091748,-1.829920E-016,-0.087155742747630));
#884=DIRECTION('',(0.087155742747630,-1.600972E-017,0.996194698091748));
#885=AXIS2_PLACEMENT_3D('',#882,#883,#884);
#886=PLANE('',#885);
#887=ORIENTED_EDGE('',*,*,#795,.F.);
#888=ORIENTED_EDGE('',*,*,#539,.F.);
#889=ORIENTED_EDGE('',*,*,#856,.F.);
#890=ORIENTED_EDGE('',*,*,#499,.F.);
#891=EDGE_LOOP('',(#887,#888,#889,#890));
#892=FACE_OUTER_BOUND('',#891,.T.);
#893=ADVANCED_FACE('',(#892),#886,.F.);
#894=CARTESIAN_POINT('',(-3.209523990844881,-2.539999999999996,2.725000000000000));
#895=DIRECTION('',(1.0,0.0,0.0));
#896=DIRECTION('',(0.0,0.0,1.0));
#897=AXIS2_PLACEMENT_3D('',#894,#895,#896);
#898=PLANE('',#897);
#899=ORIENTED_EDGE('',*,*,#876,.T.);
#900=ORIENTED_EDGE('',*,*,#779,.T.);
#901=ORIENTED_EDGE('',*,*,#822,.T.);
#902=ORIENTED_EDGE('',*,*,#845,.T.);
#903=EDGE_LOOP('',(#899,#900,#901,#902));
#904=FACE_OUTER_BOUND('',#903,.T.);
#905=ADVANCED_FACE('',(#904),#898,.T.);
#906=CLOSED_SHELL('',(#525,#565,#598,#631,#662,#693,#726,#759,#803,#827,#864,#881,#893,#905));
#907=MANIFOLD_SOLID_BREP('769',#906);
#908=COLOUR_RGB('253',0.732000000000000,0.732000000000000,0.732000000000000);
#909=SURFACE_STYLE_USAGE(.BOTH.,#910);
#910=SURFACE_SIDE_STYLE('NONE',(#911));
#911=SURFACE_STYLE_FILL_AREA(#912);
#912=FILL_AREA_STYLE('NONE',(#913));
#913=FILL_AREA_STYLE_COLOUR('NONE',#908);
#914=PRESENTATION_STYLE_ASSIGNMENT((#909));
#915=STYLED_ITEM('NONE',(#914),#907);
#916=CARTESIAN_POINT('',(-6.339553714681420,2.990000000000004,0.552939866772643));
#917=DIRECTION('',(0.087155742747630,-1.600972E-017,0.996194698091748));
#918=DIRECTION('',(0.0,-1.0,0.0));
#919=AXIS2_PLACEMENT_3D('',#916,#917,#918);
#920=PLANE('',#919);
#921=CARTESIAN_POINT('',(-7.311668793216446,2.990000000000004,0.637988915787043));
#922=VERTEX_POINT('',#921);
#923=CARTESIAN_POINT('',(-7.311668793216446,2.090000000000003,0.637988915787043));
#924=VERTEX_POINT('',#923);
#925=CARTESIAN_POINT('',(-7.311668793216439,2.990000000000004,0.637988915787044));
#926=DIRECTION('',(0.0,-1.0,0.0));
#927=VECTOR('',#926,0.900000000000000);
#928=LINE('',#925,#927);
#929=EDGE_CURVE('',#922,#924,#928,.T.);
#930=ORIENTED_EDGE('',*,*,#929,.T.);
#931=CARTESIAN_POINT('',(-6.339553714681420,2.090000000000003,0.552939866772643));
#932=VERTEX_POINT('',#931);
#933=CARTESIAN_POINT('',(-6.339553714681420,2.090000000000003,0.552939866772643));
#934=DIRECTION('',(-0.996194698091748,0.0,0.087155742747630));
#935=VECTOR('',#934,0.975828400208466);
#936=LINE('',#933,#935);
#937=EDGE_CURVE('',#932,#924,#936,.T.);
#938=ORIENTED_EDGE('',*,*,#937,.F.);
#939=CARTESIAN_POINT('',(-6.339553714681420,2.990000000000004,0.552939866772643));
#940=VERTEX_POINT('',#939);
#941=CARTESIAN_POINT('',(-6.339553714681424,2.990000000000004,0.552939866772644));
#942=DIRECTION('',(0.0,-1.0,0.0));
#943=VECTOR('',#942,0.900000000000000);
#944=LINE('',#941,#943);
#945=EDGE_CURVE('',#940,#932,#944,.T.);
#946=ORIENTED_EDGE('',*,*,#945,.F.);
#947=CARTESIAN_POINT('',(-6.339553714681420,2.990000000000004,0.552939866772643));
#948=DIRECTION('',(-0.996194698091748,0.0,0.087155742747630));
#949=VECTOR('',#948,0.975828400208466);
#950=LINE('',#947,#949);
#951=EDGE_CURVE('',#940,#922,#950,.T.);
#952=ORIENTED_EDGE('',*,*,#951,.T.);
#953=EDGE_LOOP('',(#930,#938,#946,#952));
#954=FACE_OUTER_BOUND('',#953,.T.);
#955=ADVANCED_FACE('',(#954),#920,.T.);
#956=CARTESIAN_POINT('',(-6.388360930620115,2.090000000000007,-0.004929164158733));
#957=DIRECTION('',(-0.087155742747630,1.600972E-017,-0.996194698091748));
#958=DIRECTION('',(0.0,1.0,0.0));
#959=AXIS2_PLACEMENT_3D('',#956,#957,#958);
#960=PLANE('',#959);
#961=CARTESIAN_POINT('',(-7.360476009155120,2.090000000000007,0.080119884855665));
#962=VERTEX_POINT('',#961);
#963=CARTESIAN_POINT('',(-7.360476009155120,2.990000000000004,0.080119884855665));
#964=VERTEX_POINT('',#963);
#965=CARTESIAN_POINT('',(-7.360476009155130,2.090000000000007,0.080119884855666));
#966=DIRECTION('',(0.0,1.0,0.0));
#967=VECTOR('',#966,0.899999999999997);
#968=LINE('',#965,#967);
#969=EDGE_CURVE('',#962,#964,#968,.T.);
#970=ORIENTED_EDGE('',*,*,#969,.T.);
#971=CARTESIAN_POINT('',(-6.388360930620115,2.990000000000004,-0.004929164158733));
#972=VERTEX_POINT('',#971);
#973=CARTESIAN_POINT('',(-6.388360930620115,2.990000000000004,-0.004929164158733));
#974=DIRECTION('',(-0.996194698091748,0.0,0.087155742747630));
#975=VECTOR('',#974,0.975828400208444);
#976=LINE('',#973,#975);
#977=EDGE_CURVE('',#972,#964,#976,.T.);
#978=ORIENTED_EDGE('',*,*,#977,.F.);
#979=CARTESIAN_POINT('',(-6.388360930620115,2.090000000000007,-0.004929164158733));
#980=VERTEX_POINT('',#979);
#981=CARTESIAN_POINT('',(-6.388360930620113,2.090000000000007,-0.004929164158733));
#982=DIRECTION('',(0.0,1.0,0.0));
#983=VECTOR('',#982,0.899999999999997);
#984=LINE('',#981,#983);
#985=EDGE_CURVE('',#980,#972,#984,.T.);
#986=ORIENTED_EDGE('',*,*,#985,.F.);
#987=CARTESIAN_POINT('',(-6.388360930620115,2.090000000000007,-0.004929164158733));
#988=DIRECTION('',(-0.996194698091748,0.0,0.087155742747630));
#989=VECTOR('',#988,0.975828400208444);
#990=LINE('',#987,#989);
#991=EDGE_CURVE('',#980,#962,#990,.T.);
#992=ORIENTED_EDGE('',*,*,#991,.T.);
#993=EDGE_LOOP('',(#970,#978,#986,#992));
#994=FACE_OUTER_BOUND('',#993,.T.);
#995=ADVANCED_FACE('',(#994),#960,.T.);
#996=CARTESIAN_POINT('',(-6.276801579903054,2.540000000000005,1.270200049398730));
#997=DIRECTION('',(1.836910E-016,1.0,0.0));
#998=DIRECTION('',(0.462149087250550,-8.489261E-017,-0.886802244670977));
#999=AXIS2_PLACEMENT_3D('',#996,#997,#998);
#1000=CYLINDRICAL_SURFACE('',#999,1.280000000000034);
#1001=ORIENTED_EDGE('',*,*,#985,.T.);
#1002=CARTESIAN_POINT('',(-5.167711543631461,2.990000000000002,0.631201386299064));
#1003=VERTEX_POINT('',#1002);
#1004=CARTESIAN_POINT('',(-6.276801579903054,2.990000000000004,1.270200049398730));
#1005=DIRECTION('',(3.923304E-017,1.0,-7.528295E-017));
#1006=DIRECTION('',(0.462149087250550,-8.489261E-017,-0.886802244670977));
#1007=AXIS2_PLACEMENT_3D('',#1004,#1005,#1006);
#1008=CIRCLE('',#1007,1.280000000000034);
#1009=EDGE_CURVE('',#1003,#972,#1008,.T.);
#1010=ORIENTED_EDGE('',*,*,#1009,.F.);
#1011=CARTESIAN_POINT('',(-5.167711543631461,2.090000000000005,0.631201386299064));
#1012=VERTEX_POINT('',#1011);
#1013=CARTESIAN_POINT('',(-5.167711543631457,2.090000000000005,0.631201386299070));
#1014=DIRECTION('',(0.0,1.0,0.0));
#1015=VECTOR('',#1014,0.899999999999997);
#1016=LINE('',#1013,#1015);
#1017=EDGE_CURVE('',#1012,#1003,#1016,.T.);
#1018=ORIENTED_EDGE('',*,*,#1017,.F.);
#1019=CARTESIAN_POINT('',(-6.276801579903056,2.090000000000007,1.270200049398730));
#1020=DIRECTION('',(3.923304E-017,1.0,-7.528295E-017));
#1021=DIRECTION('',(0.462149087250550,-8.489261E-017,-0.886802244670977));
#1022=AXIS2_PLACEMENT_3D('',#1019,#1020,#1021);
#1023=CIRCLE('',#1022,1.280000000000034);
#1024=EDGE_CURVE('',#1012,#980,#1023,.T.);
#1025=ORIENTED_EDGE('',*,*,#1024,.T.);
#1026=EDGE_LOOP('',(#1001,#1010,#1018,#1025));
#1027=FACE_OUTER_BOUND('',#1026,.T.);
#1028=ADVANCED_FACE('',(#1027),#1000,.T.);
#1029=CARTESIAN_POINT('',(-6.276801579903054,2.540000000000005,1.270200049398730));
#1030=DIRECTION('',(1.836910E-016,1.0,0.0));
#1031=DIRECTION('',(0.462149087250550,-8.489261E-017,-0.886802244670977));
#1032=AXIS2_PLACEMENT_3D('',#1029,#1030,#1031);
#1033=CYLINDRICAL_SURFACE('',#1032,0.720000000000034);
#1034=ORIENTED_EDGE('',*,*,#945,.T.);
#1035=CARTESIAN_POINT('',(-5.652938434500276,2.090000000000003,0.910763301405151));
#1036=VERTEX_POINT('',#1035);
#1037=CARTESIAN_POINT('',(-6.276801579903056,2.090000000000003,1.270200049398730));
#1038=DIRECTION('',(3.923304E-017,1.0,-7.528295E-017));
#1039=DIRECTION('',(0.462149087250550,-8.489261E-017,-0.886802244670977));
#1040=AXIS2_PLACEMENT_3D('',#1037,#1038,#1039);
#1041=CIRCLE('',#1040,0.720000000000034);
#1042=EDGE_CURVE('',#1036,#932,#1041,.T.);
#1043=ORIENTED_EDGE('',*,*,#1042,.F.);
#1044=CARTESIAN_POINT('',(-5.652938434500275,2.990000000000004,0.910763301405151));
#1045=VERTEX_POINT('',#1044);
#1046=CARTESIAN_POINT('',(-5.652938434500280,2.990000000000004,0.910763301405145));
#1047=DIRECTION('',(0.0,-1.0,0.0));
#1048=VECTOR('',#1047,0.900000000000000);
#1049=LINE('',#1046,#1048);
#1050=EDGE_CURVE('',#1045,#1036,#1049,.T.);
#1051=ORIENTED_EDGE('',*,*,#1050,.F.);
#1052=CARTESIAN_POINT('',(-6.276801579903054,2.990000000000004,1.270200049398730));
#1053=DIRECTION('',(3.923304E-017,1.0,-7.528295E-017));
#1054=DIRECTION('',(0.462149087250550,-8.489261E-017,-0.886802244670977));
#1055=AXIS2_PLACEMENT_3D('',#1052,#1053,#1054);
#1056=CIRCLE('',#1055,0.720000000000034);
#1057=EDGE_CURVE('',#1045,#940,#1056,.T.);
#1058=ORIENTED_EDGE('',*,*,#1057,.T.);
#1059=EDGE_LOOP('',(#1034,#1043,#1051,#1058));
#1060=FACE_OUTER_BOUND('',#1059,.T.);
#1061=ADVANCED_FACE('',(#1060),#1033,.F.);
#1062=CARTESIAN_POINT('',(-4.330434656343274,2.090000000000005,2.084436747993524));
#1063=DIRECTION('',(0.866476590837183,-1.591639E-016,-0.499217705546562));
#1064=DIRECTION('',(0.499217705546562,-9.170178E-017,0.866476590837183));
#1065=AXIS2_PLACEMENT_3D('',#1062,#1063,#1064);
#1066=PLANE('',#1065);
#1067=ORIENTED_EDGE('',*,*,#1017,.T.);
#1068=CARTESIAN_POINT('',(-4.330434656343274,2.990000000000002,2.084436747993524));
#1069=VERTEX_POINT('',#1068);
#1070=CARTESIAN_POINT('',(-4.330434656343274,2.990000000000002,2.084436747993524));
#1071=DIRECTION('',(-0.499217705546562,0.0,-0.866476590837183));
#1072=VECTOR('',#1071,1.677177868464231);
#1073=LINE('',#1070,#1072);
#1074=EDGE_CURVE('',#1069,#1003,#1073,.T.);
#1075=ORIENTED_EDGE('',*,*,#1074,.F.);
#1076=CARTESIAN_POINT('',(-4.330434656343274,2.090000000000005,2.084436747993524));
#1077=VERTEX_POINT('',#1076);
#1078=CARTESIAN_POINT('',(-4.330434656343275,2.090000000000005,2.084436747993523));
#1079=DIRECTION('',(0.0,1.0,0.0));
#1080=VECTOR('',#1079,0.899999999999997);
#1081=LINE('',#1078,#1080);
#1082=EDGE_CURVE('',#1077,#1069,#1081,.T.);
#1083=ORIENTED_EDGE('',*,*,#1082,.F.);
#1084=CARTESIAN_POINT('',(-4.330434656343274,2.090000000000005,2.084436747993524));
#1085=DIRECTION('',(-0.499217705546562,0.0,-0.866476590837183));
#1086=VECTOR('',#1085,1.677177868464231);
#1087=LINE('',#1084,#1086);
#1088=EDGE_CURVE('',#1077,#1012,#1087,.T.);
#1089=ORIENTED_EDGE('',*,*,#1088,.T.);
#1090=EDGE_LOOP('',(#1067,#1075,#1083,#1089));
#1091=FACE_OUTER_BOUND('',#1090,.T.);
#1092=ADVANCED_FACE('',(#1091),#1066,.T.);
#1093=CARTESIAN_POINT('',(-4.815661547212097,2.990000000000002,2.363998663099598));
#1094=DIRECTION('',(-0.866476590837183,1.591639E-016,0.499217705546562));
#1095=DIRECTION('',(-0.499217705546562,9.170178E-017,-0.866476590837183));
#1096=AXIS2_PLACEMENT_3D('',#1093,#1094,#1095);
#1097=PLANE('',#1096);
#1098=ORIENTED_EDGE('',*,*,#1050,.T.);
#1099=CARTESIAN_POINT('',(-4.815661547212097,2.090000000000002,2.363998663099598));
#1100=VERTEX_POINT('',#1099);
#1101=CARTESIAN_POINT('',(-4.815661547212097,2.090000000000002,2.363998663099598));
#1102=DIRECTION('',(-0.499217705546562,0.0,-0.866476590837183));
#1103=VECTOR('',#1102,1.677177868464217);
#1104=LINE('',#1101,#1103);
#1105=EDGE_CURVE('',#1100,#1036,#1104,.T.);
#1106=ORIENTED_EDGE('',*,*,#1105,.F.);
#1107=CARTESIAN_POINT('',(-4.815661547212097,2.990000000000002,2.363998663099598));
#1108=VERTEX_POINT('',#1107);
#1109=CARTESIAN_POINT('',(-4.815661547212098,2.990000000000002,2.363998663099597));
#1110=DIRECTION('',(0.0,-1.0,0.0));
#1111=VECTOR('',#1110,0.900000000000000);
#1112=LINE('',#1109,#1111);
#1113=EDGE_CURVE('',#1108,#1100,#1112,.T.);
#1114=ORIENTED_EDGE('',*,*,#1113,.F.);
#1115=CARTESIAN_POINT('',(-4.815661547212097,2.990000000000002,2.363998663099598));
#1116=DIRECTION('',(-0.499217705546562,0.0,-0.866476590837183));
#1117=VECTOR('',#1116,1.677177868464217);
#1118=LINE('',#1115,#1117);
#1119=EDGE_CURVE('',#1108,#1045,#1118,.T.);
#1120=ORIENTED_EDGE('',*,*,#1119,.T.);
#1121=EDGE_LOOP('',(#1098,#1106,#1114,#1120));
#1122=FACE_OUTER_BOUND('',#1121,.T.);
#1123=ADVANCED_FACE('',(#1122),#1097,.T.);
#1124=CARTESIAN_POINT('',(-3.706571510940503,2.540000000000003,1.725000000000000));
#1125=DIRECTION('',(-1.836910E-016,-1.0,0.0));
#1126=DIRECTION('',(-0.500390994350137,9.191730E-017,0.865799545375995));
#1127=AXIS2_PLACEMENT_3D('',#1124,#1125,#1126);
#1128=CYLINDRICAL_SURFACE('',#1127,1.280000000000000);
#1129=ORIENTED_EDGE('',*,*,#1113,.T.);
#1130=CARTESIAN_POINT('',(-3.706571510940502,2.090000000000002,3.005000000000000));
#1131=VERTEX_POINT('',#1130);
#1132=CARTESIAN_POINT('',(-3.706571510940503,2.090000000000002,1.725000000000000));
#1133=DIRECTION('',(-4.599459E-017,-1.000000000000000,7.958196E-017));
#1134=DIRECTION('',(-0.500390994350137,9.191730E-017,0.865799545375995));
#1135=AXIS2_PLACEMENT_3D('',#1132,#1133,#1134);
#1136=CIRCLE('',#1135,1.280000000000000);
#1137=EDGE_CURVE('',#1131,#1100,#1136,.T.);
#1138=ORIENTED_EDGE('',*,*,#1137,.F.);
#1139=CARTESIAN_POINT('',(-3.706571510940502,2.990000000000002,3.005000000000000));
#1140=VERTEX_POINT('',#1139);
#1141=CARTESIAN_POINT('',(-3.706571510940503,2.990000000000002,3.005000000000000));
#1142=DIRECTION('',(0.0,-1.0,0.0));
#1143=VECTOR('',#1142,0.900000000000000);
#1144=LINE('',#1141,#1143);
#1145=EDGE_CURVE('',#1140,#1131,#1144,.T.);
#1146=ORIENTED_EDGE('',*,*,#1145,.F.);
#1147=CARTESIAN_POINT('',(-3.706571510940503,2.990000000000002,1.725000000000000));
#1148=DIRECTION('',(-4.599459E-017,-1.000000000000000,7.958196E-017));
#1149=DIRECTION('',(-0.500390994350137,9.191730E-017,0.865799545375995));
#1150=AXIS2_PLACEMENT_3D('',#1147,#1148,#1149);
#1151=CIRCLE('',#1150,1.280000000000000);
#1152=EDGE_CURVE('',#1140,#1108,#1151,.T.);
#1153=ORIENTED_EDGE('',*,*,#1152,.T.);
#1154=EDGE_LOOP('',(#1129,#1138,#1146,#1153));
#1155=FACE_OUTER_BOUND('',#1154,.T.);
#1156=ADVANCED_FACE('',(#1155),#1128,.T.);
#1157=CARTESIAN_POINT('',(-3.706571510940503,2.540000000000003,1.725000000000000));
#1158=DIRECTION('',(-1.836910E-016,-1.0,0.0));
#1159=DIRECTION('',(-0.500390994350138,9.191730E-017,0.865799545375996));
#1160=AXIS2_PLACEMENT_3D('',#1157,#1158,#1159);
#1161=CYLINDRICAL_SURFACE('',#1160,0.720000000000000);
#1162=ORIENTED_EDGE('',*,*,#1082,.T.);
#1163=CARTESIAN_POINT('',(-3.706571510940502,2.990000000000002,2.445000000000000));
#1164=VERTEX_POINT('',#1163);
#1165=CARTESIAN_POINT('',(-3.706571510940503,2.990000000000002,1.725000000000000));
#1166=DIRECTION('',(-4.599459E-017,-1.0,7.958196E-017));
#1167=DIRECTION('',(-0.500390994350138,9.191730E-017,0.865799545375996));
#1168=AXIS2_PLACEMENT_3D('',#1165,#1166,#1167);
#1169=CIRCLE('',#1168,0.720000000000000);
#1170=EDGE_CURVE('',#1164,#1069,#1169,.T.);
#1171=ORIENTED_EDGE('',*,*,#1170,.F.);
#1172=CARTESIAN_POINT('',(-3.706571510940502,2.090000000000005,2.445000000000000));
#1173=VERTEX_POINT('',#1172);
#1174=CARTESIAN_POINT('',(-3.706571510940503,2.090000000000005,2.445000000000000));
#1175=DIRECTION('',(0.0,1.0,0.0));
#1176=VECTOR('',#1175,0.899999999999997);
#1177=LINE('',#1174,#1176);
#1178=EDGE_CURVE('',#1173,#1164,#1177,.T.);
#1179=ORIENTED_EDGE('',*,*,#1178,.F.);
#1180=CARTESIAN_POINT('',(-3.706571510940503,2.090000000000005,1.725000000000000));
#1181=DIRECTION('',(-4.599459E-017,-1.0,7.958196E-017));
#1182=DIRECTION('',(-0.500390994350138,9.191730E-017,0.865799545375996));
#1183=AXIS2_PLACEMENT_3D('',#1180,#1181,#1182);
#1184=CIRCLE('',#1183,0.720000000000000);
#1185=EDGE_CURVE('',#1173,#1077,#1184,.T.);
#1186=ORIENTED_EDGE('',*,*,#1185,.T.);
#1187=EDGE_LOOP('',(#1162,#1171,#1179,#1186));
#1188=FACE_OUTER_BOUND('',#1187,.T.);
#1189=ADVANCED_FACE('',(#1188),#1161,.F.);
#1190=CARTESIAN_POINT('',(-3.209523990844879,2.990000000000002,2.445000000000000));
#1191=DIRECTION('',(0.0,1.0,0.0));
#1192=DIRECTION('',(0.0,0.0,1.0));
#1193=AXIS2_PLACEMENT_3D('',#1190,#1191,#1192);
#1194=PLANE('',#1193);
#1195=CARTESIAN_POINT('',(-3.209523990844879,2.990000000000002,3.005000000000000));
#1196=VERTEX_POINT('',#1195);
#1197=CARTESIAN_POINT('',(-3.209523990844879,2.990000000000002,3.005000000000000));
#1198=DIRECTION('',(-1.0,0.0,0.0));
#1199=VECTOR('',#1198,0.497047520095623);
#1200=LINE('',#1197,#1199);
#1201=EDGE_CURVE('',#1196,#1140,#1200,.T.);
#1202=ORIENTED_EDGE('',*,*,#1201,.F.);
#1203=CARTESIAN_POINT('',(-3.209523990844879,2.990000000000002,2.445000000000000));
#1204=VERTEX_POINT('',#1203);
#1205=CARTESIAN_POINT('',(-3.209523990844879,2.990000000000002,2.445000000000000));
#1206=DIRECTION('',(0.0,0.0,1.0));
#1207=VECTOR('',#1206,0.560000000000000);
#1208=LINE('',#1205,#1207);
#1209=EDGE_CURVE('',#1204,#1196,#1208,.T.);
#1210=ORIENTED_EDGE('',*,*,#1209,.F.);
#1211=CARTESIAN_POINT('',(-3.209523990844879,2.990000000000002,2.445000000000000));
#1212=DIRECTION('',(-1.0,0.0,0.0));
#1213=VECTOR('',#1212,0.497047520095623);
#1214=LINE('',#1211,#1213);
#1215=EDGE_CURVE('',#1204,#1164,#1214,.T.);
#1216=ORIENTED_EDGE('',*,*,#1215,.T.);
#1217=ORIENTED_EDGE('',*,*,#1170,.T.);
#1218=ORIENTED_EDGE('',*,*,#1074,.T.);
#1219=ORIENTED_EDGE('',*,*,#1009,.T.);
#1220=ORIENTED_EDGE('',*,*,#977,.T.);
#1221=CARTESIAN_POINT('',(-7.360476009155129,2.990000000000004,0.080119884855666));
#1222=DIRECTION('',(0.087155742747658,0.0,0.996194698091745));
#1223=VECTOR('',#1222,0.560000000000000);
#1224=LINE('',#1221,#1223);
#1225=EDGE_CURVE('',#964,#922,#1224,.T.);
#1226=ORIENTED_EDGE('',*,*,#1225,.T.);
#1227=ORIENTED_EDGE('',*,*,#951,.F.);
#1228=ORIENTED_EDGE('',*,*,#1057,.F.);
#1229=ORIENTED_EDGE('',*,*,#1119,.F.);
#1230=ORIENTED_EDGE('',*,*,#1152,.F.);
#1231=EDGE_LOOP('',(#1202,#1210,#1216,#1217,#1218,#1219,#1220,#1226,#1227,#1228,#1229,#1230));
#1232=FACE_OUTER_BOUND('',#1231,.T.);
#1233=ADVANCED_FACE('',(#1232),#1194,.T.);
#1234=CARTESIAN_POINT('',(-3.209523990844879,2.990000000000002,3.005000000000000));
#1235=DIRECTION('',(0.0,0.0,1.0));
#1236=DIRECTION('',(0.0,-1.0,0.0));
#1237=AXIS2_PLACEMENT_3D('',#1234,#1235,#1236);
#1238=PLANE('',#1237);
#1239=ORIENTED_EDGE('',*,*,#1145,.T.);
#1240=CARTESIAN_POINT('',(-3.209523990844879,2.090000000000002,3.005000000000000));
#1241=VERTEX_POINT('',#1240);
#1242=CARTESIAN_POINT('',(-3.209523990844879,2.090000000000002,3.005000000000000));
#1243=DIRECTION('',(-1.0,0.0,0.0));
#1244=VECTOR('',#1243,0.497047520095623);
#1245=LINE('',#1242,#1244);
#1246=EDGE_CURVE('',#1241,#1131,#1245,.T.);
#1247=ORIENTED_EDGE('',*,*,#1246,.F.);
#1248=CARTESIAN_POINT('',(-3.209523990844879,2.990000000000002,3.005000000000000));
#1249=DIRECTION('',(0.0,-1.0,0.0));
#1250=VECTOR('',#1249,0.900000000000000);
#1251=LINE('',#1248,#1250);
#1252=EDGE_CURVE('',#1196,#1241,#1251,.T.);
#1253=ORIENTED_EDGE('',*,*,#1252,.F.);
#1254=ORIENTED_EDGE('',*,*,#1201,.T.);
#1255=EDGE_LOOP('',(#1239,#1247,#1253,#1254));
#1256=FACE_OUTER_BOUND('',#1255,.T.);
#1257=ADVANCED_FACE('',(#1256),#1238,.T.);
#1258=CARTESIAN_POINT('',(-3.209523990844879,2.090000000000002,3.005000000000000));
#1259=DIRECTION('',(0.0,-1.0,0.0));
#1260=DIRECTION('',(0.0,0.0,-1.0));
#1261=AXIS2_PLACEMENT_3D('',#1258,#1259,#1260);
#1262=PLANE('',#1261);
#1263=CARTESIAN_POINT('',(-3.209523990844879,2.090000000000005,2.445000000000000));
#1264=VERTEX_POINT('',#1263);
#1265=CARTESIAN_POINT('',(-3.209523990844879,2.090000000000005,2.445000000000000));
#1266=DIRECTION('',(-1.0,0.0,0.0));
#1267=VECTOR('',#1266,0.497047520095623);
#1268=LINE('',#1265,#1267);
#1269=EDGE_CURVE('',#1264,#1173,#1268,.T.);
#1270=ORIENTED_EDGE('',*,*,#1269,.F.);
#1271=CARTESIAN_POINT('',(-3.209523990844879,2.090000000000002,3.005000000000000));
#1272=DIRECTION('',(0.0,0.0,-1.0));
#1273=VECTOR('',#1272,0.560000000000000);
#1274=LINE('',#1271,#1273);
#1275=EDGE_CURVE('',#1241,#1264,#1274,.T.);
#1276=ORIENTED_EDGE('',*,*,#1275,.F.);
#1277=ORIENTED_EDGE('',*,*,#1246,.T.);
#1278=ORIENTED_EDGE('',*,*,#1137,.T.);
#1279=ORIENTED_EDGE('',*,*,#1105,.T.);
#1280=ORIENTED_EDGE('',*,*,#1042,.T.);
#1281=ORIENTED_EDGE('',*,*,#937,.T.);
#1282=CARTESIAN_POINT('',(-7.311668793216441,2.090000000000003,0.637988915787043));
#1283=DIRECTION('',(-0.087155742747658,6.344132E-015,-0.996194698091745));
#1284=VECTOR('',#1283,0.560000000000000);
#1285=LINE('',#1282,#1284);
#1286=EDGE_CURVE('',#924,#962,#1285,.T.);
#1287=ORIENTED_EDGE('',*,*,#1286,.T.);
#1288=ORIENTED_EDGE('',*,*,#991,.F.);
#1289=ORIENTED_EDGE('',*,*,#1024,.F.);
#1290=ORIENTED_EDGE('',*,*,#1088,.F.);
#1291=ORIENTED_EDGE('',*,*,#1185,.F.);
#1292=EDGE_LOOP('',(#1270,#1276,#1277,#1278,#1279,#1280,#1281,#1287,#1288,#1289,#1290,#1291));
#1293=FACE_OUTER_BOUND('',#1292,.T.);
#1294=ADVANCED_FACE('',(#1293),#1262,.T.);
#1295=CARTESIAN_POINT('',(-3.209523990844879,2.090000000000005,2.445000000000000));
#1296=DIRECTION('',(0.0,0.0,-1.0));
#1297=DIRECTION('',(0.0,1.0,0.0));
#1298=AXIS2_PLACEMENT_3D('',#1295,#1296,#1297);
#1299=PLANE('',#1298);
#1300=ORIENTED_EDGE('',*,*,#1178,.T.);
#1301=ORIENTED_EDGE('',*,*,#1215,.F.);
#1302=CARTESIAN_POINT('',(-3.209523990844879,2.090000000000005,2.445000000000000));
#1303=DIRECTION('',(0.0,1.0,0.0));
#1304=VECTOR('',#1303,0.899999999999997);
#1305=LINE('',#1302,#1304);
#1306=EDGE_CURVE('',#1264,#1204,#1305,.T.);
#1307=ORIENTED_EDGE('',*,*,#1306,.F.);
#1308=ORIENTED_EDGE('',*,*,#1269,.T.);
#1309=EDGE_LOOP('',(#1300,#1301,#1307,#1308));
#1310=FACE_OUTER_BOUND('',#1309,.T.);
#1311=ADVANCED_FACE('',(#1310),#1299,.T.);
#1312=CARTESIAN_POINT('',(-7.336072401185783,2.540000000000003,0.359054400321355));
#1313=DIRECTION('',(0.996194698091748,-1.829920E-016,-0.087155742747630));
#1314=DIRECTION('',(0.087155742747630,-1.600972E-017,0.996194698091748));
#1315=AXIS2_PLACEMENT_3D('',#1312,#1313,#1314);
#1316=PLANE('',#1315);
#1317=ORIENTED_EDGE('',*,*,#1225,.F.);
#1318=ORIENTED_EDGE('',*,*,#969,.F.);
#1319=ORIENTED_EDGE('',*,*,#1286,.F.);
#1320=ORIENTED_EDGE('',*,*,#929,.F.);
#1321=EDGE_LOOP('',(#1317,#1318,#1319,#1320));
#1322=FACE_OUTER_BOUND('',#1321,.T.);
#1323=ADVANCED_FACE('',(#1322),#1316,.F.);
#1324=CARTESIAN_POINT('',(-3.209523990844880,2.540000000000003,2.725000000000000));
#1325=DIRECTION('',(1.0,0.0,0.0));
#1326=DIRECTION('',(0.0,0.0,1.0));
#1327=AXIS2_PLACEMENT_3D('',#1324,#1325,#1326);
#1328=PLANE('',#1327);
#1329=ORIENTED_EDGE('',*,*,#1306,.T.);
#1330=ORIENTED_EDGE('',*,*,#1209,.T.);
#1331=ORIENTED_EDGE('',*,*,#1252,.T.);
#1332=ORIENTED_EDGE('',*,*,#1275,.T.);
#1333=EDGE_LOOP('',(#1329,#1330,#1331,#1332));
#1334=FACE_OUTER_BOUND('',#1333,.T.);
#1335=ADVANCED_FACE('',(#1334),#1328,.T.);
#1336=CLOSED_SHELL('',(#955,#995,#1028,#1061,#1092,#1123,#1156,#1189,#1233,#1257,#1294,#1311,#1323,#1335));
#1337=MANIFOLD_SOLID_BREP('765',#1336);
#1338=STYLED_ITEM('NONE',(#914),#1337);
#1339=CARTESIAN_POINT('',(-0.639523990844879,3.100000000000001,0.0));
#1340=DIRECTION('',(0.0,1.0,0.0));
#1341=DIRECTION('',(0.0,0.0,1.0));
#1342=AXIS2_PLACEMENT_3D('',#1339,#1340,#1341);
#1343=PLANE('',#1342);
#1344=CARTESIAN_POINT('',(-0.639523990844879,3.100000000000001,1.400000000000000));
#1345=VERTEX_POINT('',#1344);
#1346=CARTESIAN_POINT('',(6.090476009155122,3.100000000000000,1.400000000000000));
#1347=VERTEX_POINT('',#1346);
#1348=CARTESIAN_POINT('',(-0.639523990844880,3.100000000000001,1.400000000000000));
#1349=DIRECTION('',(1.0,0.0,0.0));
#1350=VECTOR('',#1349,6.730000000000001);
#1351=LINE('',#1348,#1350);
#1352=EDGE_CURVE('',#1345,#1347,#1351,.T.);
#1353=ORIENTED_EDGE('',*,*,#1352,.T.);
#1354=CARTESIAN_POINT('',(6.090476009155122,3.100000000000000,0.0));
#1355=VERTEX_POINT('',#1354);
#1356=CARTESIAN_POINT('',(6.090476009155122,3.100000000000000,0.0));
#1357=DIRECTION('',(0.0,0.0,1.0));
#1358=VECTOR('',#1357,1.400000000000000);
#1359=LINE('',#1356,#1358);
#1360=EDGE_CURVE('',#1355,#1347,#1359,.T.);
#1361=ORIENTED_EDGE('',*,*,#1360,.F.);
#1362=CARTESIAN_POINT('',(-0.639523990844879,3.100000000000001,0.0));
#1363=VERTEX_POINT('',#1362);
#1364=CARTESIAN_POINT('',(6.090476009155122,3.100000000000000,0.0));
#1365=DIRECTION('',(-1.0,0.0,0.0));
#1366=VECTOR('',#1365,6.730000000000001);
#1367=LINE('',#1364,#1366);
#1368=EDGE_CURVE('',#1355,#1363,#1367,.T.);
#1369=ORIENTED_EDGE('',*,*,#1368,.T.);
#1370=CARTESIAN_POINT('',(-0.639523990844879,3.100000000000001,0.0));
#1371=DIRECTION('',(0.0,0.0,1.0));
#1372=VECTOR('',#1371,1.400000000000000);
#1373=LINE('',#1370,#1372);
#1374=EDGE_CURVE('',#1363,#1345,#1373,.T.);
#1375=ORIENTED_EDGE('',*,*,#1374,.T.);
#1376=EDGE_LOOP('',(#1353,#1361,#1369,#1375));
#1377=FACE_OUTER_BOUND('',#1376,.T.);
#1378=ADVANCED_FACE('',(#1377),#1343,.T.);
#1379=CARTESIAN_POINT('',(6.090476009155122,3.100000000000000,0.0));
#1380=DIRECTION('',(-1.0,0.0,0.0));
#1381=DIRECTION('',(0.0,0.0,-1.0));
#1382=AXIS2_PLACEMENT_3D('',#1379,#1380,#1381);
#1383=PLANE('',#1382);
#1384=CARTESIAN_POINT('',(6.090476009155124,5.100000000000000,1.400000000000000));
#1385=VERTEX_POINT('',#1384);
#1386=CARTESIAN_POINT('',(6.090476009155124,3.100000000000001,1.400000000000000));
#1387=DIRECTION('',(0.0,1.0,0.0));
#1388=VECTOR('',#1387,1.999999999999999);
#1389=LINE('',#1386,#1388);
#1390=EDGE_CURVE('',#1347,#1385,#1389,.T.);
#1391=ORIENTED_EDGE('',*,*,#1390,.T.);
#1392=CARTESIAN_POINT('',(6.090476009155124,5.100000000000000,0.0));
#1393=VERTEX_POINT('',#1392);
#1394=CARTESIAN_POINT('',(6.090476009155124,5.100000000000000,0.0));
#1395=DIRECTION('',(0.0,0.0,1.0));
#1396=VECTOR('',#1395,1.400000000000000);
#1397=LINE('',#1394,#1396);
#1398=EDGE_CURVE('',#1393,#1385,#1397,.T.);
#1399=ORIENTED_EDGE('',*,*,#1398,.F.);
#1400=CARTESIAN_POINT('',(6.090476009155124,5.100000000000000,0.0));
#1401=DIRECTION('',(0.0,-1.0,0.0));
#1402=VECTOR('',#1401,1.999999999999999);
#1403=LINE('',#1400,#1402);
#1404=EDGE_CURVE('',#1393,#1355,#1403,.T.);
#1405=ORIENTED_EDGE('',*,*,#1404,.T.);
#1406=ORIENTED_EDGE('',*,*,#1360,.T.);
#1407=EDGE_LOOP('',(#1391,#1399,#1405,#1406));
#1408=FACE_OUTER_BOUND('',#1407,.T.);
#1409=ADVANCED_FACE('',(#1408),#1383,.T.);
#1410=CARTESIAN_POINT('',(6.090476009155124,5.100000000000000,0.0));
#1411=DIRECTION('',(0.0,1.0,0.0));
#1412=DIRECTION('',(0.0,0.0,1.0));
#1413=AXIS2_PLACEMENT_3D('',#1410,#1411,#1412);
#1414=PLANE('',#1413);
#1415=CARTESIAN_POINT('',(6.725476009155123,5.099999999999999,1.400000000000000));
#1416=VERTEX_POINT('',#1415);
#1417=CARTESIAN_POINT('',(6.090476009155124,5.099999999999999,1.400000000000000));
#1418=DIRECTION('',(1.0,0.0,0.0));
#1419=VECTOR('',#1418,0.635000000000000);
#1420=LINE('',#1417,#1419);
#1421=EDGE_CURVE('',#1385,#1416,#1420,.T.);
#1422=ORIENTED_EDGE('',*,*,#1421,.T.);
#1423=CARTESIAN_POINT('',(6.725476009155123,5.099999999999999,0.0));
#1424=VERTEX_POINT('',#1423);
#1425=CARTESIAN_POINT('',(6.725476009155123,5.099999999999999,0.0));
#1426=DIRECTION('',(0.0,0.0,1.0));
#1427=VECTOR('',#1426,1.400000000000000);
#1428=LINE('',#1425,#1427);
#1429=EDGE_CURVE('',#1424,#1416,#1428,.T.);
#1430=ORIENTED_EDGE('',*,*,#1429,.F.);
#1431=CARTESIAN_POINT('',(6.725476009155123,5.099999999999999,0.0));
#1432=DIRECTION('',(-1.0,0.0,0.0));
#1433=VECTOR('',#1432,0.635000000000000);
#1434=LINE('',#1431,#1433);
#1435=EDGE_CURVE('',#1424,#1393,#1434,.T.);
#1436=ORIENTED_EDGE('',*,*,#1435,.T.);
#1437=ORIENTED_EDGE('',*,*,#1398,.T.);
#1438=EDGE_LOOP('',(#1422,#1430,#1436,#1437));
#1439=FACE_OUTER_BOUND('',#1438,.T.);
#1440=ADVANCED_FACE('',(#1439),#1414,.T.);
#1441=CARTESIAN_POINT('',(6.725476009155123,5.099999999999999,0.0));
#1442=DIRECTION('',(0.894427190999916,0.447213595499958,0.0));
#1443=DIRECTION('',(0.0,0.0,1.0));
#1444=AXIS2_PLACEMENT_3D('',#1441,#1442,#1443);
#1445=PLANE('',#1444);
#1446=CARTESIAN_POINT('',(7.360476009155121,3.830000000000000,1.400000000000000));
#1447=VERTEX_POINT('',#1446);
#1448=CARTESIAN_POINT('',(6.725476009155122,5.100000000000000,1.400000000000000));
#1449=DIRECTION('',(0.447213595499957,-0.894427190999916,0.0));
#1450=VECTOR('',#1449,1.419903165712366);
#1451=LINE('',#1448,#1450);
#1452=EDGE_CURVE('',#1416,#1447,#1451,.T.);
#1453=ORIENTED_EDGE('',*,*,#1452,.T.);
#1454=CARTESIAN_POINT('',(7.360476009155121,3.830000000000000,0.0));
#1455=VERTEX_POINT('',#1454);
#1456=CARTESIAN_POINT('',(7.360476009155121,3.830000000000000,0.0));
#1457=DIRECTION('',(0.0,0.0,1.0));
#1458=VECTOR('',#1457,1.400000000000000);
#1459=LINE('',#1456,#1458);
#1460=EDGE_CURVE('',#1455,#1447,#1459,.T.);
#1461=ORIENTED_EDGE('',*,*,#1460,.F.);
#1462=CARTESIAN_POINT('',(7.360476009155121,3.830000000000000,0.0));
#1463=DIRECTION('',(-0.447213595499958,0.894427190999916,0.0));
#1464=VECTOR('',#1463,1.419903165712365);
#1465=LINE('',#1462,#1464);
#1466=EDGE_CURVE('',#1455,#1424,#1465,.T.);
#1467=ORIENTED_EDGE('',*,*,#1466,.T.);
#1468=ORIENTED_EDGE('',*,*,#1429,.T.);
#1469=EDGE_LOOP('',(#1453,#1461,#1467,#1468));
#1470=FACE_OUTER_BOUND('',#1469,.T.);
#1471=ADVANCED_FACE('',(#1470),#1445,.T.);
#1472=CARTESIAN_POINT('',(7.360476009155121,3.830000000000000,0.0));
#1473=DIRECTION('',(1.0,0.0,0.0));
#1474=DIRECTION('',(0.0,0.0,1.0));
#1475=AXIS2_PLACEMENT_3D('',#1472,#1473,#1474);
#1476=PLANE('',#1475);
#1477=CARTESIAN_POINT('',(7.360476009155120,-3.830000000000000,1.400000000000000));
#1478=VERTEX_POINT('',#1477);
#1479=CARTESIAN_POINT('',(7.360476009155121,3.830000000000000,1.400000000000000));
#1480=DIRECTION('',(0.0,-1.0,0.0));
#1481=VECTOR('',#1480,7.660000000000000);
#1482=LINE('',#1479,#1481);
#1483=EDGE_CURVE('',#1447,#1478,#1482,.T.);
#1484=ORIENTED_EDGE('',*,*,#1483,.T.);
#1485=CARTESIAN_POINT('',(7.360476009155120,-3.830000000000000,0.0));
#1486=VERTEX_POINT('',#1485);
#1487=CARTESIAN_POINT('',(7.360476009155120,-3.830000000000000,0.0));
#1488=DIRECTION('',(0.0,0.0,1.0));
#1489=VECTOR('',#1488,1.400000000000000);
#1490=LINE('',#1487,#1489);
#1491=EDGE_CURVE('',#1486,#1478,#1490,.T.);
#1492=ORIENTED_EDGE('',*,*,#1491,.F.);
#1493=CARTESIAN_POINT('',(7.360476009155120,-3.830000000000000,0.0));
#1494=DIRECTION('',(0.0,1.0,0.0));
#1495=VECTOR('',#1494,7.660000000000000);
#1496=LINE('',#1493,#1495);
#1497=EDGE_CURVE('',#1486,#1455,#1496,.T.);
#1498=ORIENTED_EDGE('',*,*,#1497,.T.);
#1499=ORIENTED_EDGE('',*,*,#1460,.T.);
#1500=EDGE_LOOP('',(#1484,#1492,#1498,#1499));
#1501=FACE_OUTER_BOUND('',#1500,.T.);
#1502=ADVANCED_FACE('',(#1501),#1476,.T.);
#1503=CARTESIAN_POINT('',(7.360476009155120,-3.830000000000000,0.0));
#1504=DIRECTION('',(0.894427190999916,-0.447213595499958,0.0));
#1505=DIRECTION('',(0.0,0.0,1.0));
#1506=AXIS2_PLACEMENT_3D('',#1503,#1504,#1505);
#1507=PLANE('',#1506);
#1508=CARTESIAN_POINT('',(6.725476009155122,-5.099999999999998,1.400000000000000));
#1509=VERTEX_POINT('',#1508);
#1510=CARTESIAN_POINT('',(7.360476009155121,-3.829999999999998,1.400000000000000));
#1511=DIRECTION('',(-0.447213595499957,-0.894427190999916,0.0));
#1512=VECTOR('',#1511,1.419903165712366);
#1513=LINE('',#1510,#1512);
#1514=EDGE_CURVE('',#1478,#1509,#1513,.T.);
#1515=ORIENTED_EDGE('',*,*,#1514,.T.);
#1516=CARTESIAN_POINT('',(6.725476009155122,-5.099999999999998,0.0));
#1517=VERTEX_POINT('',#1516);
#1518=CARTESIAN_POINT('',(6.725476009155122,-5.099999999999998,0.0));
#1519=DIRECTION('',(0.0,0.0,1.0));
#1520=VECTOR('',#1519,1.400000000000000);
#1521=LINE('',#1518,#1520);
#1522=EDGE_CURVE('',#1517,#1509,#1521,.T.);
#1523=ORIENTED_EDGE('',*,*,#1522,.F.);
#1524=CARTESIAN_POINT('',(6.725476009155122,-5.099999999999998,0.0));
#1525=DIRECTION('',(0.447213595499957,0.894427190999916,0.0));
#1526=VECTOR('',#1525,1.419903165712366);
#1527=LINE('',#1524,#1526);
#1528=EDGE_CURVE('',#1517,#1486,#1527,.T.);
#1529=ORIENTED_EDGE('',*,*,#1528,.T.);
#1530=ORIENTED_EDGE('',*,*,#1491,.T.);
#1531=EDGE_LOOP('',(#1515,#1523,#1529,#1530));
#1532=FACE_OUTER_BOUND('',#1531,.T.);
#1533=ADVANCED_FACE('',(#1532),#1507,.T.);
#1534=CARTESIAN_POINT('',(6.725476009155122,-5.099999999999998,0.0));
#1535=DIRECTION('',(0.0,-1.0,0.0));
#1536=DIRECTION('',(0.0,0.0,-1.0));
#1537=AXIS2_PLACEMENT_3D('',#1534,#1535,#1536);
#1538=PLANE('',#1537);
#1539=CARTESIAN_POINT('',(6.090476009155122,-5.099999999999998,1.400000000000000));
#1540=VERTEX_POINT('',#1539);
#1541=CARTESIAN_POINT('',(6.725476009155122,-5.099999999999998,1.400000000000000));
#1542=DIRECTION('',(-1.0,0.0,0.0));
#1543=VECTOR('',#1542,0.635000000000000);
#1544=LINE('',#1541,#1543);
#1545=EDGE_CURVE('',#1509,#1540,#1544,.T.);
#1546=ORIENTED_EDGE('',*,*,#1545,.T.);
#1547=CARTESIAN_POINT('',(6.090476009155122,-5.099999999999998,0.0));
#1548=VERTEX_POINT('',#1547);
#1549=CARTESIAN_POINT('',(6.090476009155122,-5.099999999999998,0.0));
#1550=DIRECTION('',(0.0,0.0,1.0));
#1551=VECTOR('',#1550,1.400000000000000);
#1552=LINE('',#1549,#1551);
#1553=EDGE_CURVE('',#1548,#1540,#1552,.T.);
#1554=ORIENTED_EDGE('',*,*,#1553,.F.);
#1555=CARTESIAN_POINT('',(6.090476009155122,-5.099999999999998,0.0));
#1556=DIRECTION('',(1.0,0.0,0.0));
#1557=VECTOR('',#1556,0.635000000000000);
#1558=LINE('',#1555,#1557);
#1559=EDGE_CURVE('',#1548,#1517,#1558,.T.);
#1560=ORIENTED_EDGE('',*,*,#1559,.T.);
#1561=ORIENTED_EDGE('',*,*,#1522,.T.);
#1562=EDGE_LOOP('',(#1546,#1554,#1560,#1561));
#1563=FACE_OUTER_BOUND('',#1562,.T.);
#1564=ADVANCED_FACE('',(#1563),#1538,.T.);
#1565=CARTESIAN_POINT('',(6.090476009155122,-5.099999999999998,0.0));
#1566=DIRECTION('',(-1.0,0.0,0.0));
#1567=DIRECTION('',(0.0,0.0,-1.0));
#1568=AXIS2_PLACEMENT_3D('',#1565,#1566,#1567);
#1569=PLANE('',#1568);
#1570=CARTESIAN_POINT('',(6.090476009155122,-3.100000000000000,1.400000000000000));
#1571=VERTEX_POINT('',#1570);
#1572=CARTESIAN_POINT('',(6.090476009155122,-5.100000000000000,1.400000000000000));
#1573=DIRECTION('',(0.0,1.0,0.0));
#1574=VECTOR('',#1573,2.0);
#1575=LINE('',#1572,#1574);
#1576=EDGE_CURVE('',#1540,#1571,#1575,.T.);
#1577=ORIENTED_EDGE('',*,*,#1576,.T.);
#1578=CARTESIAN_POINT('',(6.090476009155122,-3.100000000000000,0.0));
#1579=VERTEX_POINT('',#1578);
#1580=CARTESIAN_POINT('',(6.090476009155122,-3.100000000000000,0.0));
#1581=DIRECTION('',(0.0,0.0,1.0));
#1582=VECTOR('',#1581,1.400000000000000);
#1583=LINE('',#1580,#1582);
#1584=EDGE_CURVE('',#1579,#1571,#1583,.T.);
#1585=ORIENTED_EDGE('',*,*,#1584,.F.);
#1586=CARTESIAN_POINT('',(6.090476009155122,-3.100000000000000,0.0));
#1587=DIRECTION('',(0.0,-1.0,0.0));
#1588=VECTOR('',#1587,2.0);
#1589=LINE('',#1586,#1588);
#1590=EDGE_CURVE('',#1579,#1548,#1589,.T.);
#1591=ORIENTED_EDGE('',*,*,#1590,.T.);
#1592=ORIENTED_EDGE('',*,*,#1553,.T.);
#1593=EDGE_LOOP('',(#1577,#1585,#1591,#1592));
#1594=FACE_OUTER_BOUND('',#1593,.T.);
#1595=ADVANCED_FACE('',(#1594),#1569,.T.);
#1596=CARTESIAN_POINT('',(6.090476009155122,-3.100000000000000,0.0));
#1597=DIRECTION('',(0.0,-1.0,0.0));
#1598=DIRECTION('',(0.0,0.0,-1.0));
#1599=AXIS2_PLACEMENT_3D('',#1596,#1597,#1598);
#1600=PLANE('',#1599);
#1601=CARTESIAN_POINT('',(-0.639523990844880,-3.099999999999998,1.400000000000000));
#1602=VERTEX_POINT('',#1601);
#1603=CARTESIAN_POINT('',(6.090476009155121,-3.099999999999999,1.400000000000000));
#1604=DIRECTION('',(-1.0,0.0,0.0));
#1605=VECTOR('',#1604,6.730000000000001);
#1606=LINE('',#1603,#1605);
#1607=EDGE_CURVE('',#1571,#1602,#1606,.T.);
#1608=ORIENTED_EDGE('',*,*,#1607,.T.);
#1609=CARTESIAN_POINT('',(-0.639523990844880,-3.099999999999998,0.0));
#1610=VERTEX_POINT('',#1609);
#1611=CARTESIAN_POINT('',(-0.639523990844880,-3.099999999999998,0.0));
#1612=DIRECTION('',(0.0,0.0,1.0));
#1613=VECTOR('',#1612,1.400000000000000);
#1614=LINE('',#1611,#1613);
#1615=EDGE_CURVE('',#1610,#1602,#1614,.T.);
#1616=ORIENTED_EDGE('',*,*,#1615,.F.);
#1617=CARTESIAN_POINT('',(-0.639523990844880,-3.099999999999998,0.0));
#1618=DIRECTION('',(1.0,0.0,0.0));
#1619=VECTOR('',#1618,6.730000000000001);
#1620=LINE('',#1617,#1619);
#1621=EDGE_CURVE('',#1610,#1579,#1620,.T.);
#1622=ORIENTED_EDGE('',*,*,#1621,.T.);
#1623=ORIENTED_EDGE('',*,*,#1584,.T.);
#1624=EDGE_LOOP('',(#1608,#1616,#1622,#1623));
#1625=FACE_OUTER_BOUND('',#1624,.T.);
#1626=ADVANCED_FACE('',(#1625),#1600,.T.);
#1627=CARTESIAN_POINT('',(-0.639523990844880,-3.099999999999998,0.0));
#1628=DIRECTION('',(-1.0,0.0,0.0));
#1629=DIRECTION('',(0.0,0.0,-1.0));
#1630=AXIS2_PLACEMENT_3D('',#1627,#1628,#1629);
#1631=PLANE('',#1630);
#1632=CARTESIAN_POINT('',(-0.639523990844880,-3.099999999999998,1.400000000000000));
#1633=DIRECTION('',(0.0,1.0,0.0));
#1634=VECTOR('',#1633,6.199999999999999);
#1635=LINE('',#1632,#1634);
#1636=EDGE_CURVE('',#1602,#1345,#1635,.T.);
#1637=ORIENTED_EDGE('',*,*,#1636,.T.);
#1638=ORIENTED_EDGE('',*,*,#1374,.F.);
#1639=CARTESIAN_POINT('',(-0.639523990844879,3.100000000000001,0.0));
#1640=DIRECTION('',(0.0,-1.0,0.0));
#1641=VECTOR('',#1640,6.199999999999999);
#1642=LINE('',#1639,#1641);
#1643=EDGE_CURVE('',#1363,#1610,#1642,.T.);
#1644=ORIENTED_EDGE('',*,*,#1643,.T.);
#1645=ORIENTED_EDGE('',*,*,#1615,.T.);
#1646=EDGE_LOOP('',(#1637,#1638,#1644,#1645));
#1647=FACE_OUTER_BOUND('',#1646,.T.);
#1648=ADVANCED_FACE('',(#1647),#1631,.T.);
#1649=CARTESIAN_POINT('',(3.996686424888578,3.552714E-015,0.0));
#1650=DIRECTION('',(0.0,0.0,1.0));
#1651=DIRECTION('',(0.0,-1.0,0.0));
#1652=AXIS2_PLACEMENT_3D('',#1649,#1650,#1651);
#1653=PLANE('',#1652);
#1654=ORIENTED_EDGE('',*,*,#1643,.F.);
#1655=ORIENTED_EDGE('',*,*,#1368,.F.);
#1656=ORIENTED_EDGE('',*,*,#1404,.F.);
#1657=ORIENTED_EDGE('',*,*,#1435,.F.);
#1658=ORIENTED_EDGE('',*,*,#1466,.F.);
#1659=ORIENTED_EDGE('',*,*,#1497,.F.);
#1660=ORIENTED_EDGE('',*,*,#1528,.F.);
#1661=ORIENTED_EDGE('',*,*,#1559,.F.);
#1662=ORIENTED_EDGE('',*,*,#1590,.F.);
#1663=ORIENTED_EDGE('',*,*,#1621,.F.);
#1664=EDGE_LOOP('',(#1654,#1655,#1656,#1657,#1658,#1659,#1660,#1661,#1662,#1663));
#1665=FACE_OUTER_BOUND('',#1664,.T.);
#1666=ADVANCED_FACE('',(#1665),#1653,.F.);
#1667=CARTESIAN_POINT('',(3.996686424888578,1.776357E-015,1.400000000000000));
#1668=DIRECTION('',(0.0,0.0,1.0));
#1669=DIRECTION('',(0.0,-1.0,0.0));
#1670=AXIS2_PLACEMENT_3D('',#1667,#1668,#1669);
#1671=PLANE('',#1670);
#1672=ORIENTED_EDGE('',*,*,#1352,.F.);
#1673=ORIENTED_EDGE('',*,*,#1636,.F.);
#1674=ORIENTED_EDGE('',*,*,#1607,.F.);
#1675=ORIENTED_EDGE('',*,*,#1576,.F.);
#1676=ORIENTED_EDGE('',*,*,#1545,.F.);
#1677=ORIENTED_EDGE('',*,*,#1514,.F.);
#1678=ORIENTED_EDGE('',*,*,#1483,.F.);
#1679=ORIENTED_EDGE('',*,*,#1452,.F.);
#1680=ORIENTED_EDGE('',*,*,#1421,.F.);
#1681=ORIENTED_EDGE('',*,*,#1390,.F.);
#1682=EDGE_LOOP('',(#1672,#1673,#1674,#1675,#1676,#1677,#1678,#1679,#1680,#1681));
#1683=FACE_OUTER_BOUND('',#1682,.T.);
#1684=ADVANCED_FACE('',(#1683),#1671,.T.);
#1685=CLOSED_SHELL('',(#1378,#1409,#1440,#1471,#1502,#1533,#1564,#1595,#1626,#1648,#1666,#1684));
#1686=MANIFOLD_SOLID_BREP('710',#1685);
#1687=STYLED_ITEM('NONE',(#914),#1686);
#1688=ADVANCED_BREP_SHAPE_REPRESENTATION('ABSR1',(#475,#907,#1337,#1686),#28);
#1689=SHAPE_REPRESENTATION_RELATIONSHIP('SRRPL1','',#1688,#62);
ENDSEC;
END-ISO-10303-21;
