ISO-10303-21;
HEADER;
/****************************************************************
 * Generated by software with PDE/Lib inside                    *
 * PDElib Version v51a, created Thu 12/14/2006                  *
 * International Technegroup Inc. (www.iti-oh.com)              *
 ****************************************************************/
FILE_DESCRIPTION((''),'2;1');
FILE_NAME('TRIM_BOURNS_3266W.stp','2009-07-29T15:12:05',(''),(''),'Mechanical Desktop 2009','Mechanical Desktop 2009',', , ');
FILE_SCHEMA(('AUTOMOTIVE_DESIGN { 1 2 10303 214 1 1 1 1 }'));
ENDSEC;
DATA;
#8=(NAMED_UNIT(*)PLANE_ANGLE_UNIT()SI_UNIT($,.RADIAN.));
#9=DIMENSIONAL_EXPONENTS(0.0,0.0,0.0,0.0,0.0,0.0,0.0);
#10=PLANE_ANGLE_MEASURE_WITH_UNIT(PLANE_ANGLE_MEASURE(0.017453292500000),#8);
#14=(CONVERSION_BASED_UNIT('DEGREE',#10)NAMED_UNIT(#9)PLANE_ANGLE_UNIT());
#18=(NAMED_UNIT(*)SI_UNIT($,.STERADIAN.)SOLID_ANGLE_UNIT());
#22=(LENGTH_UNIT()NAMED_UNIT(*)SI_UNIT(.MILLI.,.METRE.));
#23=UNCERTAINTY_MEASURE_WITH_UNIT(LENGTH_MEASURE(0.000001000000000),#22,'DISTANCE_ACCURACY_VALUE','');
#28=(GEOMETRIC_REPRESENTATION_CONTEXT(3)GLOBAL_UNCERTAINTY_ASSIGNED_CONTEXT((#23))GLOBAL_UNIT_ASSIGNED_CONTEXT((#14,#18,#22))REPRESENTATION_CONTEXT('None','None'));
#29=APPLICATION_CONTEXT('automotive design');
#30=APPLICATION_PROTOCOL_DEFINITION('INTERNATIONAL_STANDARD','automotive_design',1998,#29);
#31=PRODUCT_CONTEXT('3D Mechanical Parts',#29,'mechanical');
#32=PRODUCT('Product','Product','',(#31));
#33=PRODUCT_RELATED_PRODUCT_CATEGORY('part',$,(#32));
#34=PRODUCT_CATEGORY('part',$);
#35=PERSON('1','Design','Joe',$,$,$);
#36=ORGANIZATION($,'None','None');
#37=PERSON_AND_ORGANIZATION(#35,#36);
#38=PERSON_AND_ORGANIZATION_ROLE('design_owner');
#39=APPLIED_PERSON_AND_ORGANIZATION_ASSIGNMENT(#37,#38,(#32));
#40=PRODUCT_DEFINITION_FORMATION_WITH_SPECIFIED_SOURCE('None','',#32,.BOUGHT.);
#41=PERSON('2','Creator','Joe',$,$,$);
#42=ORGANIZATION($,'None','None');
#43=PERSON_AND_ORGANIZATION(#41,#42);
#44=PERSON_AND_ORGANIZATION_ROLE('creator');
#45=APPLIED_PERSON_AND_ORGANIZATION_ASSIGNMENT(#43,#44,(#40));
#46=PERSON('3','Supplier','Joe',$,$,$);
#47=ORGANIZATION($,'None','None');
#48=PERSON_AND_ORGANIZATION(#46,#47);
#49=PERSON_AND_ORGANIZATION_ROLE('design_supplier');
#50=APPLIED_PERSON_AND_ORGANIZATION_ASSIGNMENT(#48,#49,(#40));
#51=PRODUCT_DEFINITION_CONTEXT('part definition',#29,'design');
#52=PRODUCT_DEFINITION('None','',#40,#51);
#53=PERSON('4','Creator','Joe',$,$,$);
#54=ORGANIZATION($,'None','None');
#55=PERSON_AND_ORGANIZATION(#53,#54);
#56=PERSON_AND_ORGANIZATION_ROLE('creator');
#57=APPLIED_PERSON_AND_ORGANIZATION_ASSIGNMENT(#55,#56,(#52));
#58=CARTESIAN_POINT('NONE',(0.0,0.0,0.0));
#59=DIRECTION('NONE',(0.0,0.0,1.0));
#60=DIRECTION('NONE',(1.0,0.0,0.0));
#61=AXIS2_PLACEMENT_3D('NONE',#58,#59,#60);
#62=SHAPE_REPRESENTATION('SR1',(#61),#28);
#63=PRODUCT_DEFINITION_SHAPE('PDS1','Test Part',#52);
#64=SHAPE_DEFINITION_REPRESENTATION(#63,#62);
#65=CARTESIAN_POINT('',(2.539999999999964,-1.269999999999982,-1.090000000000000));
#66=DIRECTION('',(0.0,0.0,1.0));
#67=DIRECTION('',(1.0,0.0,0.0));
#68=AXIS2_PLACEMENT_3D('',#65,#66,#67);
#69=CYLINDRICAL_SURFACE('',#68,0.245000000000000);
#70=CARTESIAN_POINT('',(2.784999999999855,-1.269999999999982,0.460000000000000));
#71=VERTEX_POINT('',#70);
#72=CARTESIAN_POINT('',(2.784999999999964,-1.269999999999982,-3.100000000000000));
#73=VERTEX_POINT('',#72);
#74=CARTESIAN_POINT('',(2.784999999999855,-1.269999999999982,0.460000000000000));
#75=DIRECTION('',(0.0,0.0,-1.0));
#76=VECTOR('',#75,3.560000000000000);
#77=LINE('',#74,#76);
#78=EDGE_CURVE('',#71,#73,#77,.T.);
#79=ORIENTED_EDGE('',*,*,#78,.F.);
#80=CARTESIAN_POINT('',(2.294999999999964,-1.269999999999982,0.460000000000000));
#81=VERTEX_POINT('',#80);
#82=CARTESIAN_POINT('',(2.539999999999964,-1.269999999999982,0.460000000000000));
#83=DIRECTION('',(0.0,0.0,1.0));
#84=DIRECTION('',(1.0,0.0,0.0));
#85=AXIS2_PLACEMENT_3D('',#82,#83,#84);
#86=CIRCLE('',#85,0.245000000000000);
#87=EDGE_CURVE('',#81,#71,#86,.T.);
#88=ORIENTED_EDGE('',*,*,#87,.F.);
#89=CARTESIAN_POINT('',(2.295000000000073,-1.269999999999982,-3.100000000000000));
#90=VERTEX_POINT('',#89);
#91=CARTESIAN_POINT('',(2.294999999999964,-1.269999999999982,0.460000000000000));
#92=DIRECTION('',(0.0,0.0,-1.0));
#93=VECTOR('',#92,3.560000000000000);
#94=LINE('',#91,#93);
#95=EDGE_CURVE('',#81,#90,#94,.T.);
#96=ORIENTED_EDGE('',*,*,#95,.T.);
#97=CARTESIAN_POINT('',(2.539999999999964,-1.269999999999982,-3.100000000000000));
#98=DIRECTION('',(0.0,0.0,1.0));
#99=DIRECTION('',(1.0,0.0,0.0));
#100=AXIS2_PLACEMENT_3D('',#97,#98,#99);
#101=CIRCLE('',#100,0.245000000000000);
#102=EDGE_CURVE('',#73,#90,#101,.F.);
#103=ORIENTED_EDGE('',*,*,#102,.F.);
#104=EDGE_LOOP('',(#79,#88,#96,#103));
#105=FACE_OUTER_BOUND('',#104,.T.);
#106=ADVANCED_FACE('',(#105),#69,.T.);
#107=CARTESIAN_POINT('',(2.539999999999964,-1.269999999999982,-3.100000000000000));
#108=DIRECTION('',(0.0,0.0,-1.0));
#109=DIRECTION('',(-1.0,0.0,0.0));
#110=AXIS2_PLACEMENT_3D('',#107,#108,#109);
#111=PLANE('',#110);
#112=CARTESIAN_POINT('',(2.539999999999964,-1.269999999999982,-3.100000000000000));
#113=DIRECTION('',(0.0,0.0,1.0));
#114=DIRECTION('',(1.0,0.0,0.0));
#115=AXIS2_PLACEMENT_3D('',#112,#113,#114);
#116=CIRCLE('',#115,0.245000000000000);
#117=EDGE_CURVE('',#90,#73,#116,.F.);
#118=ORIENTED_EDGE('',*,*,#117,.T.);
#119=ORIENTED_EDGE('',*,*,#102,.T.);
#120=EDGE_LOOP('',(#118,#119));
#121=FACE_OUTER_BOUND('',#120,.T.);
#122=ADVANCED_FACE('',(#121),#111,.T.);
#123=CARTESIAN_POINT('',(2.539999999999964,-1.269999999999982,-1.090000000000000));
#124=DIRECTION('',(0.0,0.0,1.0));
#125=DIRECTION('',(1.0,0.0,0.0));
#126=AXIS2_PLACEMENT_3D('',#123,#124,#125);
#127=CYLINDRICAL_SURFACE('',#126,0.245000000000000);
#128=ORIENTED_EDGE('',*,*,#78,.T.);
#129=ORIENTED_EDGE('',*,*,#117,.F.);
#130=ORIENTED_EDGE('',*,*,#95,.F.);
#131=CARTESIAN_POINT('',(2.539999999999964,-1.269999999999982,0.460000000000000));
#132=DIRECTION('',(0.0,0.0,1.0));
#133=DIRECTION('',(1.0,0.0,0.0));
#134=AXIS2_PLACEMENT_3D('',#131,#132,#133);
#135=CIRCLE('',#134,0.245000000000000);
#136=EDGE_CURVE('',#71,#81,#135,.T.);
#137=ORIENTED_EDGE('',*,*,#136,.F.);
#138=EDGE_LOOP('',(#128,#129,#130,#137));
#139=FACE_OUTER_BOUND('',#138,.T.);
#140=ADVANCED_FACE('',(#139),#127,.T.);
#141=CARTESIAN_POINT('',(2.539999999999964,-1.269999999999982,0.460000000000000));
#142=DIRECTION('',(0.0,0.0,1.0));
#143=DIRECTION('',(1.0,0.0,0.0));
#144=AXIS2_PLACEMENT_3D('',#141,#142,#143);
#145=PLANE('',#144);
#146=ORIENTED_EDGE('',*,*,#136,.T.);
#147=ORIENTED_EDGE('',*,*,#87,.T.);
#148=EDGE_LOOP('',(#146,#147));
#149=FACE_OUTER_BOUND('',#148,.T.);
#150=ADVANCED_FACE('',(#149),#145,.T.);
#151=CLOSED_SHELL('',(#106,#122,#140,#150));
#152=MANIFOLD_SOLID_BREP('232',#151);
#153=COLOUR_RGB('9',0.750000000000000,0.750000000000000,0.750000000000000);
#154=SURFACE_STYLE_USAGE(.BOTH.,#155);
#155=SURFACE_SIDE_STYLE('NONE',(#156));
#156=SURFACE_STYLE_FILL_AREA(#157);
#157=FILL_AREA_STYLE('NONE',(#158));
#158=FILL_AREA_STYLE_COLOUR('NONE',#153);
#159=PRESENTATION_STYLE_ASSIGNMENT((#154));
#160=STYLED_ITEM('NONE',(#159),#152);
#161=MECHANICAL_DESIGN_GEOMETRIC_PRESENTATION_REPRESENTATION('NONE',(#160,#251,#340,#630,#855),#28);
#162=PRESENTATION_LAYER_ASSIGNMENT('0','None',(#152,#250,#339,#622,#854));
#163=CARTESIAN_POINT('',(0.0,1.269999999999982,-1.090000000000000));
#164=DIRECTION('',(0.0,0.0,1.0));
#165=DIRECTION('',(1.0,0.0,0.0));
#166=AXIS2_PLACEMENT_3D('',#163,#164,#165);
#167=CYLINDRICAL_SURFACE('',#166,0.245000000000000);
#168=CARTESIAN_POINT('',(0.244999999999891,1.269999999999982,0.460000000000000));
#169=VERTEX_POINT('',#168);
#170=CARTESIAN_POINT('',(0.245000000000000,1.269999999999982,-3.100000000000000));
#171=VERTEX_POINT('',#170);
#172=CARTESIAN_POINT('',(0.244999999999891,1.269999999999982,0.460000000000000));
#173=DIRECTION('',(0.0,0.0,-1.0));
#174=VECTOR('',#173,3.560000000000000);
#175=LINE('',#172,#174);
#176=EDGE_CURVE('',#169,#171,#175,.T.);
#177=ORIENTED_EDGE('',*,*,#176,.F.);
#178=CARTESIAN_POINT('',(-0.245000000000000,1.269999999999982,0.460000000000000));
#179=VERTEX_POINT('',#178);
#180=CARTESIAN_POINT('',(0.0,1.269999999999982,0.460000000000000));
#181=DIRECTION('',(0.0,0.0,1.0));
#182=DIRECTION('',(1.0,0.0,0.0));
#183=AXIS2_PLACEMENT_3D('',#180,#181,#182);
#184=CIRCLE('',#183,0.245000000000000);
#185=EDGE_CURVE('',#179,#169,#184,.T.);
#186=ORIENTED_EDGE('',*,*,#185,.F.);
#187=CARTESIAN_POINT('',(-0.244999999999891,1.269999999999982,-3.100000000000000));
#188=VERTEX_POINT('',#187);
#189=CARTESIAN_POINT('',(-0.245000000000000,1.269999999999982,0.460000000000000));
#190=DIRECTION('',(0.0,0.0,-1.0));
#191=VECTOR('',#190,3.560000000000000);
#192=LINE('',#189,#191);
#193=EDGE_CURVE('',#179,#188,#192,.T.);
#194=ORIENTED_EDGE('',*,*,#193,.T.);
#195=CARTESIAN_POINT('',(0.0,1.269999999999982,-3.100000000000000));
#196=DIRECTION('',(0.0,0.0,1.0));
#197=DIRECTION('',(1.0,0.0,0.0));
#198=AXIS2_PLACEMENT_3D('',#195,#196,#197);
#199=CIRCLE('',#198,0.245000000000000);
#200=EDGE_CURVE('',#171,#188,#199,.F.);
#201=ORIENTED_EDGE('',*,*,#200,.F.);
#202=EDGE_LOOP('',(#177,#186,#194,#201));
#203=FACE_OUTER_BOUND('',#202,.T.);
#204=ADVANCED_FACE('',(#203),#167,.T.);
#205=CARTESIAN_POINT('',(0.0,1.269999999999982,-3.100000000000000));
#206=DIRECTION('',(0.0,0.0,-1.0));
#207=DIRECTION('',(-1.0,0.0,0.0));
#208=AXIS2_PLACEMENT_3D('',#205,#206,#207);
#209=PLANE('',#208);
#210=CARTESIAN_POINT('',(0.0,1.269999999999982,-3.100000000000000));
#211=DIRECTION('',(0.0,0.0,1.0));
#212=DIRECTION('',(1.0,0.0,0.0));
#213=AXIS2_PLACEMENT_3D('',#210,#211,#212);
#214=CIRCLE('',#213,0.245000000000000);
#215=EDGE_CURVE('',#188,#171,#214,.F.);
#216=ORIENTED_EDGE('',*,*,#215,.T.);
#217=ORIENTED_EDGE('',*,*,#200,.T.);
#218=EDGE_LOOP('',(#216,#217));
#219=FACE_OUTER_BOUND('',#218,.T.);
#220=ADVANCED_FACE('',(#219),#209,.T.);
#221=CARTESIAN_POINT('',(0.0,1.269999999999982,-1.090000000000000));
#222=DIRECTION('',(0.0,0.0,1.0));
#223=DIRECTION('',(1.0,0.0,0.0));
#224=AXIS2_PLACEMENT_3D('',#221,#222,#223);
#225=CYLINDRICAL_SURFACE('',#224,0.245000000000000);
#226=ORIENTED_EDGE('',*,*,#176,.T.);
#227=ORIENTED_EDGE('',*,*,#215,.F.);
#228=ORIENTED_EDGE('',*,*,#193,.F.);
#229=CARTESIAN_POINT('',(0.0,1.269999999999982,0.460000000000000));
#230=DIRECTION('',(0.0,0.0,1.0));
#231=DIRECTION('',(1.0,0.0,0.0));
#232=AXIS2_PLACEMENT_3D('',#229,#230,#231);
#233=CIRCLE('',#232,0.245000000000000);
#234=EDGE_CURVE('',#169,#179,#233,.T.);
#235=ORIENTED_EDGE('',*,*,#234,.F.);
#236=EDGE_LOOP('',(#226,#227,#228,#235));
#237=FACE_OUTER_BOUND('',#236,.T.);
#238=ADVANCED_FACE('',(#237),#225,.T.);
#239=CARTESIAN_POINT('',(0.0,1.269999999999982,0.460000000000000));
#240=DIRECTION('',(0.0,0.0,1.0));
#241=DIRECTION('',(1.0,0.0,0.0));
#242=AXIS2_PLACEMENT_3D('',#239,#240,#241);
#243=PLANE('',#242);
#244=ORIENTED_EDGE('',*,*,#234,.T.);
#245=ORIENTED_EDGE('',*,*,#185,.T.);
#246=EDGE_LOOP('',(#244,#245));
#247=FACE_OUTER_BOUND('',#246,.T.);
#248=ADVANCED_FACE('',(#247),#243,.T.);
#249=CLOSED_SHELL('',(#204,#220,#238,#248));
#250=MANIFOLD_SOLID_BREP('22E',#249);
#251=STYLED_ITEM('NONE',(#159),#250);
#252=CARTESIAN_POINT('',(-2.539999999999964,-1.269999999999982,-1.090000000000000));
#253=DIRECTION('',(0.0,0.0,1.0));
#254=DIRECTION('',(1.0,0.0,0.0));
#255=AXIS2_PLACEMENT_3D('',#252,#253,#254);
#256=CYLINDRICAL_SURFACE('',#255,0.245000000000000);
#257=CARTESIAN_POINT('',(-2.295000000000073,-1.269999999999982,0.460000000000000));
#258=VERTEX_POINT('',#257);
#259=CARTESIAN_POINT('',(-2.294999999999964,-1.269999999999982,-3.100000000000000));
#260=VERTEX_POINT('',#259);
#261=CARTESIAN_POINT('',(-2.295000000000073,-1.269999999999982,0.460000000000000));
#262=DIRECTION('',(0.0,0.0,-1.0));
#263=VECTOR('',#262,3.560000000000000);
#264=LINE('',#261,#263);
#265=EDGE_CURVE('',#258,#260,#264,.T.);
#266=ORIENTED_EDGE('',*,*,#265,.F.);
#267=CARTESIAN_POINT('',(-2.784999999999964,-1.269999999999982,0.460000000000000));
#268=VERTEX_POINT('',#267);
#269=CARTESIAN_POINT('',(-2.539999999999964,-1.269999999999982,0.460000000000000));
#270=DIRECTION('',(0.0,0.0,1.0));
#271=DIRECTION('',(1.0,0.0,0.0));
#272=AXIS2_PLACEMENT_3D('',#269,#270,#271);
#273=CIRCLE('',#272,0.245000000000000);
#274=EDGE_CURVE('',#268,#258,#273,.T.);
#275=ORIENTED_EDGE('',*,*,#274,.F.);
#276=CARTESIAN_POINT('',(-2.784999999999855,-1.269999999999982,-3.100000000000000));
#277=VERTEX_POINT('',#276);
#278=CARTESIAN_POINT('',(-2.784999999999964,-1.269999999999982,0.460000000000000));
#279=DIRECTION('',(0.0,0.0,-1.0));
#280=VECTOR('',#279,3.560000000000000);
#281=LINE('',#278,#280);
#282=EDGE_CURVE('',#268,#277,#281,.T.);
#283=ORIENTED_EDGE('',*,*,#282,.T.);
#284=CARTESIAN_POINT('',(-2.539999999999964,-1.269999999999982,-3.100000000000000));
#285=DIRECTION('',(0.0,0.0,1.0));
#286=DIRECTION('',(1.0,0.0,0.0));
#287=AXIS2_PLACEMENT_3D('',#284,#285,#286);
#288=CIRCLE('',#287,0.245000000000000);
#289=EDGE_CURVE('',#260,#277,#288,.F.);
#290=ORIENTED_EDGE('',*,*,#289,.F.);
#291=EDGE_LOOP('',(#266,#275,#283,#290));
#292=FACE_OUTER_BOUND('',#291,.T.);
#293=ADVANCED_FACE('',(#292),#256,.T.);
#294=CARTESIAN_POINT('',(-2.539999999999964,-1.269999999999982,-3.100000000000000));
#295=DIRECTION('',(0.0,0.0,-1.0));
#296=DIRECTION('',(-1.0,0.0,0.0));
#297=AXIS2_PLACEMENT_3D('',#294,#295,#296);
#298=PLANE('',#297);
#299=CARTESIAN_POINT('',(-2.539999999999964,-1.269999999999982,-3.100000000000000));
#300=DIRECTION('',(0.0,0.0,1.0));
#301=DIRECTION('',(1.0,0.0,0.0));
#302=AXIS2_PLACEMENT_3D('',#299,#300,#301);
#303=CIRCLE('',#302,0.245000000000000);
#304=EDGE_CURVE('',#277,#260,#303,.F.);
#305=ORIENTED_EDGE('',*,*,#304,.T.);
#306=ORIENTED_EDGE('',*,*,#289,.T.);
#307=EDGE_LOOP('',(#305,#306));
#308=FACE_OUTER_BOUND('',#307,.T.);
#309=ADVANCED_FACE('',(#308),#298,.T.);
#310=CARTESIAN_POINT('',(-2.539999999999964,-1.269999999999982,-1.090000000000000));
#311=DIRECTION('',(0.0,0.0,1.0));
#312=DIRECTION('',(1.0,0.0,0.0));
#313=AXIS2_PLACEMENT_3D('',#310,#311,#312);
#314=CYLINDRICAL_SURFACE('',#313,0.245000000000000);
#315=ORIENTED_EDGE('',*,*,#265,.T.);
#316=ORIENTED_EDGE('',*,*,#304,.F.);
#317=ORIENTED_EDGE('',*,*,#282,.F.);
#318=CARTESIAN_POINT('',(-2.539999999999964,-1.269999999999982,0.460000000000000));
#319=DIRECTION('',(0.0,0.0,1.0));
#320=DIRECTION('',(1.0,0.0,0.0));
#321=AXIS2_PLACEMENT_3D('',#318,#319,#320);
#322=CIRCLE('',#321,0.245000000000000);
#323=EDGE_CURVE('',#258,#268,#322,.T.);
#324=ORIENTED_EDGE('',*,*,#323,.F.);
#325=EDGE_LOOP('',(#315,#316,#317,#324));
#326=FACE_OUTER_BOUND('',#325,.T.);
#327=ADVANCED_FACE('',(#326),#314,.T.);
#328=CARTESIAN_POINT('',(-2.539999999999964,-1.269999999999982,0.460000000000000));
#329=DIRECTION('',(0.0,0.0,1.0));
#330=DIRECTION('',(1.0,0.0,0.0));
#331=AXIS2_PLACEMENT_3D('',#328,#329,#330);
#332=PLANE('',#331);
#333=ORIENTED_EDGE('',*,*,#323,.T.);
#334=ORIENTED_EDGE('',*,*,#274,.T.);
#335=EDGE_LOOP('',(#333,#334));
#336=FACE_OUTER_BOUND('',#335,.T.);
#337=ADVANCED_FACE('',(#336),#332,.T.);
#338=CLOSED_SHELL('',(#293,#309,#327,#337));
#339=MANIFOLD_SOLID_BREP('229',#338);
#340=STYLED_ITEM('NONE',(#159),#339);
#341=CARTESIAN_POINT('',(-3.085000000000036,2.440000000000055,0.460000000000000));
#342=CARTESIAN_POINT('',(3.085000000000036,2.440000000000055,0.460000000000000));
#343=CARTESIAN_POINT('',(-3.085000000000036,-2.440000000000055,0.460000000000000));
#344=CARTESIAN_POINT('',(3.085000000000036,-2.440000000000055,0.460000000000000));
#345=B_SPLINE_SURFACE_WITH_KNOTS('',1,1,((#341,#343),(#342,#344)),.UNSPECIFIED.,.F.,.F.,.U.,(2,2),(2,2),(0.0,6.170000000000073),(0.0,4.880000000000109),.UNSPECIFIED.);
#346=CARTESIAN_POINT('',(3.085000000000036,2.440000000000055,0.460000000000000));
#347=VERTEX_POINT('',#346);
#348=CARTESIAN_POINT('',(3.085000000000036,-2.440000000000055,0.460000000000000));
#349=VERTEX_POINT('',#348);
#350=CARTESIAN_POINT('',(3.085000000000036,2.440000000000055,0.460000000000000));
#351=DIRECTION('',(0.0,-1.0,0.0));
#352=VECTOR('',#351,4.880000000000109);
#353=LINE('',#350,#352);
#354=EDGE_CURVE('',#347,#349,#353,.T.);
#355=ORIENTED_EDGE('',*,*,#354,.T.);
#356=CARTESIAN_POINT('',(-3.085000000000036,-2.440000000000055,0.460000000000000));
#357=VERTEX_POINT('',#356);
#358=CARTESIAN_POINT('',(-3.085000000000036,-2.440000000000055,0.460000000000000));
#359=DIRECTION('',(1.0,0.0,0.0));
#360=VECTOR('',#359,6.170000000000073);
#361=LINE('',#358,#360);
#362=EDGE_CURVE('',#357,#349,#361,.T.);
#363=ORIENTED_EDGE('',*,*,#362,.F.);
#364=CARTESIAN_POINT('',(-3.085000000000036,2.440000000000055,0.460000000000000));
#365=VERTEX_POINT('',#364);
#366=CARTESIAN_POINT('',(-3.085000000000036,-2.440000000000055,0.460000000000000));
#367=DIRECTION('',(0.0,1.0,0.0));
#368=VECTOR('',#367,4.880000000000109);
#369=LINE('',#366,#368);
#370=EDGE_CURVE('',#357,#365,#369,.T.);
#371=ORIENTED_EDGE('',*,*,#370,.T.);
#372=CARTESIAN_POINT('',(3.085000000000036,2.440000000000055,0.460000000000000));
#373=DIRECTION('',(-1.0,0.0,0.0));
#374=VECTOR('',#373,6.170000000000073);
#375=LINE('',#372,#374);
#376=EDGE_CURVE('',#347,#365,#375,.T.);
#377=ORIENTED_EDGE('',*,*,#376,.F.);
#378=EDGE_LOOP('',(#355,#363,#371,#377));
#379=FACE_OUTER_BOUND('',#378,.T.);
#380=ADVANCED_FACE('',(#379),#345,.T.);
#381=CARTESIAN_POINT('',(-3.085000000000036,2.440000000000055,0.0));
#382=CARTESIAN_POINT('',(-3.085000000000036,2.440000000000055,0.460000000000000));
#383=CARTESIAN_POINT('',(-3.085000000000036,-2.440000000000055,0.0));
#384=CARTESIAN_POINT('',(-3.085000000000036,-2.440000000000055,0.460000000000000));
#385=B_SPLINE_SURFACE_WITH_KNOTS('',1,1,((#381,#383),(#382,#384)),.UNSPECIFIED.,.F.,.F.,.U.,(2,2),(2,2),(0.0,0.460000000000000),(0.0,4.880000000000109),.UNSPECIFIED.);
#386=CARTESIAN_POINT('',(-3.085000000000036,2.440000000000055,0.0));
#387=VERTEX_POINT('',#386);
#388=CARTESIAN_POINT('',(-3.085000000000036,2.440000000000055,0.460000000000000));
#389=DIRECTION('',(0.0,0.0,-1.0));
#390=VECTOR('',#389,0.460000000000000);
#391=LINE('',#388,#390);
#392=EDGE_CURVE('',#365,#387,#391,.T.);
#393=ORIENTED_EDGE('',*,*,#392,.F.);
#394=ORIENTED_EDGE('',*,*,#370,.F.);
#395=CARTESIAN_POINT('',(-3.085000000000036,-2.440000000000055,0.0));
#396=VERTEX_POINT('',#395);
#397=CARTESIAN_POINT('',(-3.085000000000036,-2.440000000000055,0.0));
#398=DIRECTION('',(0.0,0.0,1.0));
#399=VECTOR('',#398,0.460000000000000);
#400=LINE('',#397,#399);
#401=EDGE_CURVE('',#396,#357,#400,.T.);
#402=ORIENTED_EDGE('',*,*,#401,.F.);
#403=CARTESIAN_POINT('',(-3.085000000000036,2.440000000000055,0.0));
#404=DIRECTION('',(0.0,-1.0,0.0));
#405=VECTOR('',#404,4.880000000000109);
#406=LINE('',#403,#405);
#407=EDGE_CURVE('',#387,#396,#406,.T.);
#408=ORIENTED_EDGE('',*,*,#407,.F.);
#409=EDGE_LOOP('',(#393,#394,#402,#408));
#410=FACE_OUTER_BOUND('',#409,.T.);
#411=ADVANCED_FACE('',(#410),#385,.T.);
#412=CARTESIAN_POINT('',(3.085000000000036,2.440000000000055,0.460000000000000));
#413=CARTESIAN_POINT('',(3.085000000000036,2.440000000000055,0.0));
#414=CARTESIAN_POINT('',(3.085000000000036,-2.440000000000055,0.460000000000000));
#415=CARTESIAN_POINT('',(3.085000000000036,-2.440000000000055,0.0));
#416=B_SPLINE_SURFACE_WITH_KNOTS('',1,1,((#412,#414),(#413,#415)),.UNSPECIFIED.,.F.,.F.,.U.,(2,2),(2,2),(0.0,0.460000000000000),(0.0,4.880000000000109),.UNSPECIFIED.);
#417=CARTESIAN_POINT('',(3.085000000000036,-2.440000000000055,0.0));
#418=VERTEX_POINT('',#417);
#419=CARTESIAN_POINT('',(3.085000000000036,-2.440000000000055,0.460000000000000));
#420=DIRECTION('',(0.0,0.0,-1.0));
#421=VECTOR('',#420,0.460000000000000);
#422=LINE('',#419,#421);
#423=EDGE_CURVE('',#349,#418,#422,.T.);
#424=ORIENTED_EDGE('',*,*,#423,.F.);
#425=ORIENTED_EDGE('',*,*,#354,.F.);
#426=CARTESIAN_POINT('',(3.085000000000036,2.440000000000055,0.0));
#427=VERTEX_POINT('',#426);
#428=CARTESIAN_POINT('',(3.085000000000036,2.440000000000055,0.0));
#429=DIRECTION('',(0.0,0.0,1.0));
#430=VECTOR('',#429,0.460000000000000);
#431=LINE('',#428,#430);
#432=EDGE_CURVE('',#427,#347,#431,.T.);
#433=ORIENTED_EDGE('',*,*,#432,.F.);
#434=CARTESIAN_POINT('',(3.085000000000036,-2.440000000000055,0.0));
#435=DIRECTION('',(0.0,1.0,0.0));
#436=VECTOR('',#435,4.880000000000109);
#437=LINE('',#434,#436);
#438=EDGE_CURVE('',#418,#427,#437,.T.);
#439=ORIENTED_EDGE('',*,*,#438,.F.);
#440=EDGE_LOOP('',(#424,#425,#433,#439));
#441=FACE_OUTER_BOUND('',#440,.T.);
#442=ADVANCED_FACE('',(#441),#416,.T.);
#443=CARTESIAN_POINT('',(0.0,-2.440000000000055,3.875000000000000));
#444=DIRECTION('',(0.0,1.0,0.0));
#445=DIRECTION('',(0.0,0.0,1.0));
#446=AXIS2_PLACEMENT_3D('',#443,#444,#445);
#447=PLANE('',#446);
#448=ORIENTED_EDGE('',*,*,#401,.T.);
#449=ORIENTED_EDGE('',*,*,#362,.T.);
#450=ORIENTED_EDGE('',*,*,#423,.T.);
#451=CARTESIAN_POINT('',(3.545000000000073,-2.440000000000055,0.0));
#452=VERTEX_POINT('',#451);
#453=CARTESIAN_POINT('',(3.545000000000073,-2.440000000000055,0.0));
#454=DIRECTION('',(-1.0,0.0,0.0));
#455=VECTOR('',#454,0.460000000000036);
#456=LINE('',#453,#455);
#457=EDGE_CURVE('',#452,#418,#456,.T.);
#458=ORIENTED_EDGE('',*,*,#457,.F.);
#459=CARTESIAN_POINT('',(3.545000000000073,-2.440000000000055,7.750000000000000));
#460=VERTEX_POINT('',#459);
#461=CARTESIAN_POINT('',(3.545000000000073,-2.440000000000055,7.750000000000000));
#462=DIRECTION('',(0.0,0.0,-1.0));
#463=VECTOR('',#462,7.750000000000000);
#464=LINE('',#461,#463);
#465=EDGE_CURVE('',#460,#452,#464,.T.);
#466=ORIENTED_EDGE('',*,*,#465,.F.);
#467=CARTESIAN_POINT('',(-3.545000000000073,-2.440000000000055,7.750000000000000));
#468=VERTEX_POINT('',#467);
#469=CARTESIAN_POINT('',(-3.545000000000073,-2.440000000000055,7.750000000000000));
#470=DIRECTION('',(1.0,0.0,0.0));
#471=VECTOR('',#470,7.090000000000146);
#472=LINE('',#469,#471);
#473=EDGE_CURVE('',#468,#460,#472,.T.);
#474=ORIENTED_EDGE('',*,*,#473,.F.);
#475=CARTESIAN_POINT('',(-3.545000000000073,-2.440000000000055,0.0));
#476=VERTEX_POINT('',#475);
#477=CARTESIAN_POINT('',(-3.545000000000073,-2.440000000000055,7.750000000000000));
#478=DIRECTION('',(0.0,0.0,-1.0));
#479=VECTOR('',#478,7.750000000000000);
#480=LINE('',#477,#479);
#481=EDGE_CURVE('',#468,#476,#480,.T.);
#482=ORIENTED_EDGE('',*,*,#481,.T.);
#483=CARTESIAN_POINT('',(-3.085000000000036,-2.440000000000055,0.0));
#484=DIRECTION('',(-1.0,0.0,0.0));
#485=VECTOR('',#484,0.460000000000036);
#486=LINE('',#483,#485);
#487=EDGE_CURVE('',#396,#476,#486,.T.);
#488=ORIENTED_EDGE('',*,*,#487,.F.);
#489=EDGE_LOOP('',(#448,#449,#450,#458,#466,#474,#482,#488));
#490=FACE_OUTER_BOUND('',#489,.T.);
#491=ADVANCED_FACE('',(#490),#447,.F.);
#492=CARTESIAN_POINT('',(0.0,0.0,0.0));
#493=DIRECTION('',(0.0,0.0,1.0));
#494=DIRECTION('',(1.0,0.0,0.0));
#495=AXIS2_PLACEMENT_3D('',#492,#493,#494);
#496=PLANE('',#495);
#497=ORIENTED_EDGE('',*,*,#438,.T.);
#498=CARTESIAN_POINT('',(3.545000000000073,2.440000000000055,0.0));
#499=VERTEX_POINT('',#498);
#500=CARTESIAN_POINT('',(3.085000000000036,2.440000000000055,0.0));
#501=DIRECTION('',(1.0,0.0,0.0));
#502=VECTOR('',#501,0.460000000000036);
#503=LINE('',#500,#502);
#504=EDGE_CURVE('',#427,#499,#503,.T.);
#505=ORIENTED_EDGE('',*,*,#504,.T.);
#506=CARTESIAN_POINT('',(3.545000000000073,2.440000000000055,0.0));
#507=DIRECTION('',(0.0,-1.0,0.0));
#508=VECTOR('',#507,4.880000000000109);
#509=LINE('',#506,#508);
#510=EDGE_CURVE('',#499,#452,#509,.T.);
#511=ORIENTED_EDGE('',*,*,#510,.T.);
#512=ORIENTED_EDGE('',*,*,#457,.T.);
#513=EDGE_LOOP('',(#497,#505,#511,#512));
#514=FACE_OUTER_BOUND('',#513,.T.);
#515=ADVANCED_FACE('',(#514),#496,.F.);
#516=CARTESIAN_POINT('',(0.0,0.0,7.750000000000000));
#517=DIRECTION('',(0.0,0.0,1.0));
#518=DIRECTION('',(1.0,0.0,0.0));
#519=AXIS2_PLACEMENT_3D('',#516,#517,#518);
#520=PLANE('',#519);
#521=CARTESIAN_POINT('',(3.545000000000073,2.440000000000055,7.750000000000000));
#522=VERTEX_POINT('',#521);
#523=CARTESIAN_POINT('',(3.545000000000073,-2.440000000000055,7.750000000000000));
#524=DIRECTION('',(0.0,1.0,0.0));
#525=VECTOR('',#524,4.880000000000109);
#526=LINE('',#523,#525);
#527=EDGE_CURVE('',#460,#522,#526,.T.);
#528=ORIENTED_EDGE('',*,*,#527,.T.);
#529=CARTESIAN_POINT('',(-3.545000000000073,2.440000000000055,7.750000000000000));
#530=VERTEX_POINT('',#529);
#531=CARTESIAN_POINT('',(3.545000000000073,2.440000000000055,7.750000000000000));
#532=DIRECTION('',(-1.0,0.0,0.0));
#533=VECTOR('',#532,7.090000000000146);
#534=LINE('',#531,#533);
#535=EDGE_CURVE('',#522,#530,#534,.T.);
#536=ORIENTED_EDGE('',*,*,#535,.T.);
#537=CARTESIAN_POINT('',(-3.545000000000073,2.440000000000055,7.750000000000000));
#538=DIRECTION('',(0.0,-1.0,0.0));
#539=VECTOR('',#538,4.880000000000109);
#540=LINE('',#537,#539);
#541=EDGE_CURVE('',#530,#468,#540,.T.);
#542=ORIENTED_EDGE('',*,*,#541,.T.);
#543=ORIENTED_EDGE('',*,*,#473,.T.);
#544=EDGE_LOOP('',(#528,#536,#542,#543));
#545=FACE_OUTER_BOUND('',#544,.T.);
#546=ADVANCED_FACE('',(#545),#520,.T.);
#547=CARTESIAN_POINT('',(0.0,0.0,0.0));
#548=DIRECTION('',(0.0,0.0,1.0));
#549=DIRECTION('',(1.0,0.0,0.0));
#550=AXIS2_PLACEMENT_3D('',#547,#548,#549);
#551=PLANE('',#550);
#552=ORIENTED_EDGE('',*,*,#407,.T.);
#553=ORIENTED_EDGE('',*,*,#487,.T.);
#554=CARTESIAN_POINT('',(-3.545000000000073,2.440000000000055,0.0));
#555=VERTEX_POINT('',#554);
#556=CARTESIAN_POINT('',(-3.545000000000073,-2.440000000000055,0.0));
#557=DIRECTION('',(0.0,1.0,0.0));
#558=VECTOR('',#557,4.880000000000109);
#559=LINE('',#556,#558);
#560=EDGE_CURVE('',#476,#555,#559,.T.);
#561=ORIENTED_EDGE('',*,*,#560,.T.);
#562=CARTESIAN_POINT('',(-3.545000000000073,2.440000000000055,0.0));
#563=DIRECTION('',(1.0,0.0,0.0));
#564=VECTOR('',#563,0.460000000000036);
#565=LINE('',#562,#564);
#566=EDGE_CURVE('',#555,#387,#565,.T.);
#567=ORIENTED_EDGE('',*,*,#566,.T.);
#568=EDGE_LOOP('',(#552,#553,#561,#567));
#569=FACE_OUTER_BOUND('',#568,.T.);
#570=ADVANCED_FACE('',(#569),#551,.F.);
#571=CARTESIAN_POINT('',(-3.545000000000073,0.0,3.875000000000000));
#572=DIRECTION('',(1.0,0.0,0.0));
#573=DIRECTION('',(0.0,0.0,-1.0));
#574=AXIS2_PLACEMENT_3D('',#571,#572,#573);
#575=PLANE('',#574);
#576=CARTESIAN_POINT('',(-3.545000000000073,2.440000000000055,7.750000000000000));
#577=DIRECTION('',(0.0,0.0,-1.0));
#578=VECTOR('',#577,7.750000000000000);
#579=LINE('',#576,#578);
#580=EDGE_CURVE('',#530,#555,#579,.T.);
#581=ORIENTED_EDGE('',*,*,#580,.T.);
#582=ORIENTED_EDGE('',*,*,#560,.F.);
#583=ORIENTED_EDGE('',*,*,#481,.F.);
#584=ORIENTED_EDGE('',*,*,#541,.F.);
#585=EDGE_LOOP('',(#581,#582,#583,#584));
#586=FACE_OUTER_BOUND('',#585,.T.);
#587=ADVANCED_FACE('',(#586),#575,.F.);
#588=CARTESIAN_POINT('',(0.0,2.440000000000055,3.875000000000000));
#589=DIRECTION('',(0.0,-1.0,0.0));
#590=DIRECTION('',(0.0,0.0,-1.0));
#591=AXIS2_PLACEMENT_3D('',#588,#589,#590);
#592=PLANE('',#591);
#593=ORIENTED_EDGE('',*,*,#392,.T.);
#594=ORIENTED_EDGE('',*,*,#566,.F.);
#595=ORIENTED_EDGE('',*,*,#580,.F.);
#596=ORIENTED_EDGE('',*,*,#535,.F.);
#597=CARTESIAN_POINT('',(3.545000000000073,2.440000000000055,7.750000000000000));
#598=DIRECTION('',(0.0,0.0,-1.0));
#599=VECTOR('',#598,7.750000000000000);
#600=LINE('',#597,#599);
#601=EDGE_CURVE('',#522,#499,#600,.T.);
#602=ORIENTED_EDGE('',*,*,#601,.T.);
#603=ORIENTED_EDGE('',*,*,#504,.F.);
#604=ORIENTED_EDGE('',*,*,#432,.T.);
#605=ORIENTED_EDGE('',*,*,#376,.T.);
#606=EDGE_LOOP('',(#593,#594,#595,#596,#602,#603,#604,#605));
#607=FACE_OUTER_BOUND('',#606,.T.);
#608=ADVANCED_FACE('',(#607),#592,.F.);
#609=CARTESIAN_POINT('',(3.545000000000073,0.0,3.875000000000000));
#610=DIRECTION('',(-1.0,0.0,0.0));
#611=DIRECTION('',(0.0,0.0,1.0));
#612=AXIS2_PLACEMENT_3D('',#609,#610,#611);
#613=PLANE('',#612);
#614=ORIENTED_EDGE('',*,*,#465,.T.);
#615=ORIENTED_EDGE('',*,*,#510,.F.);
#616=ORIENTED_EDGE('',*,*,#601,.F.);
#617=ORIENTED_EDGE('',*,*,#527,.F.);
#618=EDGE_LOOP('',(#614,#615,#616,#617));
#619=FACE_OUTER_BOUND('',#618,.T.);
#620=ADVANCED_FACE('',(#619),#613,.F.);
#621=CLOSED_SHELL('',(#380,#411,#442,#491,#515,#546,#570,#587,#608,#620));
#622=MANIFOLD_SOLID_BREP('20F',#621);
#623=COLOUR_RGB('150',0.0,0.500000000000000,1.0);
#624=SURFACE_STYLE_USAGE(.BOTH.,#625);
#625=SURFACE_SIDE_STYLE('NONE',(#626));
#626=SURFACE_STYLE_FILL_AREA(#627);
#627=FILL_AREA_STYLE('NONE',(#628));
#628=FILL_AREA_STYLE_COLOUR('NONE',#623);
#629=PRESENTATION_STYLE_ASSIGNMENT((#624));
#630=STYLED_ITEM('NONE',(#629),#622);
#631=CARTESIAN_POINT('',(-2.134999999999991,1.009999999999991,8.260000000000000));
#632=DIRECTION('',(0.0,0.0,1.0));
#633=DIRECTION('',(1.0,0.0,0.0));
#634=AXIS2_PLACEMENT_3D('',#631,#632,#633);
#635=CYLINDRICAL_SURFACE('',#634,0.890000000000000);
#636=CARTESIAN_POINT('',(-1.244999999999991,1.009999999999991,8.770000000000000));
#637=VERTEX_POINT('',#636);
#638=CARTESIAN_POINT('',(-1.244999999999891,1.009999999999991,7.750000000000000));
#639=VERTEX_POINT('',#638);
#640=CARTESIAN_POINT('',(-1.244999999999991,1.009999999999991,8.770000000000000));
#641=DIRECTION('',(0.0,0.0,-1.0));
#642=VECTOR('',#641,1.020000000000000);
#643=LINE('',#640,#642);
#644=EDGE_CURVE('',#637,#639,#643,.T.);
#645=ORIENTED_EDGE('',*,*,#644,.F.);
#646=CARTESIAN_POINT('',(-2.557628480983567,0.226747060611046,8.770000000000000));
#647=VERTEX_POINT('',#646);
#648=CARTESIAN_POINT('',(-2.134999999999991,1.009999999999991,8.770000000000000));
#649=DIRECTION('',(0.0,0.0,1.0));
#650=DIRECTION('',(1.0,0.0,0.0));
#651=AXIS2_PLACEMENT_3D('',#648,#649,#650);
#652=CIRCLE('',#651,0.890000000000000);
#653=EDGE_CURVE('',#647,#637,#652,.T.);
#654=ORIENTED_EDGE('',*,*,#653,.F.);
#655=CARTESIAN_POINT('',(-2.557628480983567,0.226747060611046,8.130000000000001));
#656=VERTEX_POINT('',#655);
#657=CARTESIAN_POINT('',(-2.557628480983567,0.226747060611046,8.770000000000000));
#658=DIRECTION('',(0.0,0.0,-1.0));
#659=VECTOR('',#658,0.639999999999999);
#660=LINE('',#657,#659);
#661=EDGE_CURVE('',#647,#656,#660,.T.);
#662=ORIENTED_EDGE('',*,*,#661,.T.);
#663=CARTESIAN_POINT('',(-2.918252939388822,0.587371519016301,8.130000000000001));
#664=VERTEX_POINT('',#663);
#665=CARTESIAN_POINT('',(-2.134999999999991,1.009999999999991,8.130000000000001));
#666=DIRECTION('',(0.0,0.0,-1.0));
#667=DIRECTION('',(1.0,0.0,0.0));
#668=AXIS2_PLACEMENT_3D('',#665,#666,#667);
#669=CIRCLE('',#668,0.890000000000000);
#670=EDGE_CURVE('',#656,#664,#669,.T.);
#671=ORIENTED_EDGE('',*,*,#670,.T.);
#672=CARTESIAN_POINT('',(-2.918252939388822,0.587371519016301,8.770000000000000));
#673=VERTEX_POINT('',#672);
#674=CARTESIAN_POINT('',(-2.918252939388822,0.587371519016301,8.130000000000001));
#675=DIRECTION('',(0.0,0.0,1.0));
#676=VECTOR('',#675,0.639999999999999);
#677=LINE('',#674,#676);
#678=EDGE_CURVE('',#664,#673,#677,.T.);
#679=ORIENTED_EDGE('',*,*,#678,.T.);
#680=CARTESIAN_POINT('',(-3.024999999999991,1.009999999999991,8.770000000000000));
#681=VERTEX_POINT('',#680);
#682=CARTESIAN_POINT('',(-2.134999999999991,1.009999999999991,8.770000000000000));
#683=DIRECTION('',(0.0,0.0,1.0));
#684=DIRECTION('',(1.0,0.0,0.0));
#685=AXIS2_PLACEMENT_3D('',#682,#683,#684);
#686=CIRCLE('',#685,0.890000000000000);
#687=EDGE_CURVE('',#681,#673,#686,.T.);
#688=ORIENTED_EDGE('',*,*,#687,.F.);
#689=CARTESIAN_POINT('',(-3.024999999999991,1.009999999999991,7.750000000000000));
#690=VERTEX_POINT('',#689);
#691=CARTESIAN_POINT('',(-3.024999999999991,1.009999999999991,8.770000000000000));
#692=DIRECTION('',(0.0,0.0,-1.0));
#693=VECTOR('',#692,1.020000000000000);
#694=LINE('',#691,#693);
#695=EDGE_CURVE('',#681,#690,#694,.T.);
#696=ORIENTED_EDGE('',*,*,#695,.T.);
#697=CARTESIAN_POINT('',(-2.134999999999991,1.009999999999991,7.750000000000000));
#698=DIRECTION('',(0.0,0.0,-1.0));
#699=DIRECTION('',(1.0,0.0,0.0));
#700=AXIS2_PLACEMENT_3D('',#697,#698,#699);
#701=CIRCLE('',#700,0.890000000000000);
#702=EDGE_CURVE('',#639,#690,#701,.T.);
#703=ORIENTED_EDGE('',*,*,#702,.F.);
#704=EDGE_LOOP('',(#645,#654,#662,#671,#679,#688,#696,#703));
#705=FACE_OUTER_BOUND('',#704,.T.);
#706=ADVANCED_FACE('',(#705),#635,.T.);
#707=CARTESIAN_POINT('',(-1.954687770797364,0.829687770797477,8.449999999999999));
#708=DIRECTION('',(-0.707106781186547,0.707106781186548,0.0));
#709=DIRECTION('',(0.0,0.0,1.0));
#710=AXIS2_PLACEMENT_3D('',#707,#708,#709);
#711=PLANE('',#710);
#712=CARTESIAN_POINT('',(-1.351747060611160,1.432628480983681,8.130000000000001));
#713=VERTEX_POINT('',#712);
#714=CARTESIAN_POINT('',(-1.351747060611160,1.432628480983681,8.770000000000000));
#715=VERTEX_POINT('',#714);
#716=CARTESIAN_POINT('',(-1.351747060611160,1.432628480983681,8.130000000000001));
#717=DIRECTION('',(0.0,0.0,1.0));
#718=VECTOR('',#717,0.639999999999999);
#719=LINE('',#716,#718);
#720=EDGE_CURVE('',#713,#715,#719,.T.);
#721=ORIENTED_EDGE('',*,*,#720,.F.);
#722=CARTESIAN_POINT('',(-1.351747060611160,1.432628480983681,8.130000000000001));
#723=DIRECTION('',(-0.707106781186481,-0.707106781186614,0.0));
#724=VECTOR('',#723,1.705373859304550);
#725=LINE('',#722,#724);
#726=EDGE_CURVE('',#713,#656,#725,.T.);
#727=ORIENTED_EDGE('',*,*,#726,.T.);
#728=ORIENTED_EDGE('',*,*,#661,.F.);
#729=CARTESIAN_POINT('',(-1.351747060611160,1.432628480983681,8.770000000000000));
#730=DIRECTION('',(-0.707106781186481,-0.707106781186614,0.0));
#731=VECTOR('',#730,1.705373859304550);
#732=LINE('',#729,#731);
#733=EDGE_CURVE('',#715,#647,#732,.T.);
#734=ORIENTED_EDGE('',*,*,#733,.F.);
#735=EDGE_LOOP('',(#721,#727,#728,#734));
#736=FACE_OUTER_BOUND('',#735,.T.);
#737=ADVANCED_FACE('',(#736),#711,.T.);
#738=CARTESIAN_POINT('',(-2.134999999999991,1.009999999999991,8.130000000000001));
#739=DIRECTION('',(0.0,0.0,1.0));
#740=DIRECTION('',(0.707106781186548,0.707106781186547,0.0));
#741=AXIS2_PLACEMENT_3D('',#738,#739,#740);
#742=PLANE('',#741);
#743=CARTESIAN_POINT('',(-1.712371519016415,1.793252939388935,8.130000000000001));
#744=VERTEX_POINT('',#743);
#745=CARTESIAN_POINT('',(-2.134999999999991,1.009999999999991,8.130000000000001));
#746=DIRECTION('',(0.0,0.0,-1.0));
#747=DIRECTION('',(1.0,0.0,0.0));
#748=AXIS2_PLACEMENT_3D('',#745,#746,#747);
#749=CIRCLE('',#748,0.890000000000000);
#750=EDGE_CURVE('',#744,#713,#749,.T.);
#751=ORIENTED_EDGE('',*,*,#750,.F.);
#752=CARTESIAN_POINT('',(-2.918252939388822,0.587371519016301,8.130000000000001));
#753=DIRECTION('',(0.707106781186481,0.707106781186614,0.0));
#754=VECTOR('',#753,1.705373859304550);
#755=LINE('',#752,#754);
#756=EDGE_CURVE('',#664,#744,#755,.T.);
#757=ORIENTED_EDGE('',*,*,#756,.F.);
#758=ORIENTED_EDGE('',*,*,#670,.F.);
#759=ORIENTED_EDGE('',*,*,#726,.F.);
#760=EDGE_LOOP('',(#751,#757,#758,#759));
#761=FACE_OUTER_BOUND('',#760,.T.);
#762=ADVANCED_FACE('',(#761),#742,.T.);
#763=CARTESIAN_POINT('',(-2.315312229202618,1.190312229202505,8.449999999999999));
#764=DIRECTION('',(0.707106781186547,-0.707106781186548,0.0));
#765=DIRECTION('',(0.0,0.0,-1.0));
#766=AXIS2_PLACEMENT_3D('',#763,#764,#765);
#767=PLANE('',#766);
#768=CARTESIAN_POINT('',(-1.712371519016415,1.793252939388935,8.770000000000000));
#769=VERTEX_POINT('',#768);
#770=CARTESIAN_POINT('',(-1.712371519016415,1.793252939388935,8.770000000000000));
#771=DIRECTION('',(0.0,0.0,-1.0));
#772=VECTOR('',#771,0.639999999999999);
#773=LINE('',#770,#772);
#774=EDGE_CURVE('',#769,#744,#773,.T.);
#775=ORIENTED_EDGE('',*,*,#774,.F.);
#776=CARTESIAN_POINT('',(-2.918252939388822,0.587371519016301,8.770000000000000));
#777=DIRECTION('',(0.707106781186481,0.707106781186614,0.0));
#778=VECTOR('',#777,1.705373859304550);
#779=LINE('',#776,#778);
#780=EDGE_CURVE('',#673,#769,#779,.T.);
#781=ORIENTED_EDGE('',*,*,#780,.F.);
#782=ORIENTED_EDGE('',*,*,#678,.F.);
#783=ORIENTED_EDGE('',*,*,#756,.T.);
#784=EDGE_LOOP('',(#775,#781,#782,#783));
#785=FACE_OUTER_BOUND('',#784,.T.);
#786=ADVANCED_FACE('',(#785),#767,.T.);
#787=CARTESIAN_POINT('',(-2.134999999999991,1.009999999999991,8.770000000000000));
#788=DIRECTION('',(0.0,0.0,1.0));
#789=DIRECTION('',(1.0,0.0,0.0));
#790=AXIS2_PLACEMENT_3D('',#787,#788,#789);
#791=PLANE('',#790);
#792=ORIENTED_EDGE('',*,*,#733,.T.);
#793=ORIENTED_EDGE('',*,*,#653,.T.);
#794=CARTESIAN_POINT('',(-2.134999999999991,1.009999999999991,8.770000000000000));
#795=DIRECTION('',(0.0,0.0,1.0));
#796=DIRECTION('',(1.0,0.0,0.0));
#797=AXIS2_PLACEMENT_3D('',#794,#795,#796);
#798=CIRCLE('',#797,0.890000000000000);
#799=EDGE_CURVE('',#637,#715,#798,.T.);
#800=ORIENTED_EDGE('',*,*,#799,.T.);
#801=EDGE_LOOP('',(#792,#793,#800));
#802=FACE_OUTER_BOUND('',#801,.T.);
#803=ADVANCED_FACE('',(#802),#791,.T.);
#804=CARTESIAN_POINT('',(-2.134999999999991,1.009999999999991,8.260000000000000));
#805=DIRECTION('',(0.0,0.0,1.0));
#806=DIRECTION('',(1.0,0.0,0.0));
#807=AXIS2_PLACEMENT_3D('',#804,#805,#806);
#808=CYLINDRICAL_SURFACE('',#807,0.890000000000000);
#809=ORIENTED_EDGE('',*,*,#644,.T.);
#810=CARTESIAN_POINT('',(-2.134999999999991,1.009999999999991,7.750000000000000));
#811=DIRECTION('',(0.0,0.0,-1.0));
#812=DIRECTION('',(1.0,0.0,0.0));
#813=AXIS2_PLACEMENT_3D('',#810,#811,#812);
#814=CIRCLE('',#813,0.890000000000000);
#815=EDGE_CURVE('',#690,#639,#814,.T.);
#816=ORIENTED_EDGE('',*,*,#815,.F.);
#817=ORIENTED_EDGE('',*,*,#695,.F.);
#818=CARTESIAN_POINT('',(-2.134999999999991,1.009999999999991,8.770000000000000));
#819=DIRECTION('',(0.0,0.0,1.0));
#820=DIRECTION('',(1.0,0.0,0.0));
#821=AXIS2_PLACEMENT_3D('',#818,#819,#820);
#822=CIRCLE('',#821,0.890000000000000);
#823=EDGE_CURVE('',#769,#681,#822,.T.);
#824=ORIENTED_EDGE('',*,*,#823,.F.);
#825=ORIENTED_EDGE('',*,*,#774,.T.);
#826=ORIENTED_EDGE('',*,*,#750,.T.);
#827=ORIENTED_EDGE('',*,*,#720,.T.);
#828=ORIENTED_EDGE('',*,*,#799,.F.);
#829=EDGE_LOOP('',(#809,#816,#817,#824,#825,#826,#827,#828));
#830=FACE_OUTER_BOUND('',#829,.T.);
#831=ADVANCED_FACE('',(#830),#808,.T.);
#832=CARTESIAN_POINT('',(-2.134999999999991,1.009999999999991,7.750000000000000));
#833=DIRECTION('',(0.0,0.0,-1.0));
#834=DIRECTION('',(-1.0,0.0,0.0));
#835=AXIS2_PLACEMENT_3D('',#832,#833,#834);
#836=PLANE('',#835);
#837=ORIENTED_EDGE('',*,*,#702,.T.);
#838=ORIENTED_EDGE('',*,*,#815,.T.);
#839=EDGE_LOOP('',(#837,#838));
#840=FACE_OUTER_BOUND('',#839,.T.);
#841=ADVANCED_FACE('',(#840),#836,.T.);
#842=CARTESIAN_POINT('',(-2.134999999999991,1.009999999999991,8.770000000000000));
#843=DIRECTION('',(0.0,0.0,1.0));
#844=DIRECTION('',(1.0,0.0,0.0));
#845=AXIS2_PLACEMENT_3D('',#842,#843,#844);
#846=PLANE('',#845);
#847=ORIENTED_EDGE('',*,*,#780,.T.);
#848=ORIENTED_EDGE('',*,*,#823,.T.);
#849=ORIENTED_EDGE('',*,*,#687,.T.);
#850=EDGE_LOOP('',(#847,#848,#849));
#851=FACE_OUTER_BOUND('',#850,.T.);
#852=ADVANCED_FACE('',(#851),#846,.T.);
#853=CLOSED_SHELL('',(#706,#737,#762,#786,#803,#831,#841,#852));
#854=MANIFOLD_SOLID_BREP('1FD',#853);
#855=STYLED_ITEM('NONE',(#159),#854);
#856=ADVANCED_BREP_SHAPE_REPRESENTATION('ABSR1',(#152,#250,#339,#622,#854),#28);
#857=SHAPE_REPRESENTATION_RELATIONSHIP('SRRPL1','',#856,#62);
ENDSEC;
END-ISO-10303-21;
