ISO-10303-21;
HEADER;
/****************************************************************
 * Generated by software with PDElib inside                    *
 * PDElib Version v51a, created Fri 09/10/2010                  *
 * ITI Transcendata (http://www.transcendata.com/)              *
 ****************************************************************/
FILE_DESCRIPTION((''),'2;1');
FILE_NAME('TYCO_8060-1G13.stp','2013-11-07T13:45:00',(''),(''),'Mechanical Desktop 2011','Mechanical Desktop 2011',', , ');
FILE_SCHEMA(('AUTOMOTIVE_DESIGN { 1 2 10303 214 1 1 1 1 }'));
ENDSEC;
DATA;
#10=(NAMED_UNIT(*)PLANE_ANGLE_UNIT()SI_UNIT($,.RADIAN.));
#11=DIMENSIONAL_EXPONENTS(0.0,0.0,0.0,0.0,0.0,0.0,0.0);
#12=PLANE_ANGLE_MEASURE_WITH_UNIT(PLANE_ANGLE_MEASURE(0.0174532925),#10);
#16=(CONVERSION_BASED_UNIT('DEGREE',#12)NAMED_UNIT(#11)PLANE_ANGLE_UNIT());
#20=(NAMED_UNIT(*)SI_UNIT($,.STERADIAN.)SOLID_ANGLE_UNIT());
#24=(LENGTH_UNIT()NAMED_UNIT(*)SI_UNIT(.MILLI.,.METRE.));
#26=UNCERTAINTY_MEASURE_WITH_UNIT(LENGTH_MEASURE(0.000001),#24,'DISTANCE_ACCURACY_VALUE','');
#28=(GEOMETRIC_REPRESENTATION_CONTEXT(3)GLOBAL_UNCERTAINTY_ASSIGNED_CONTEXT((#26))GLOBAL_UNIT_ASSIGNED_CONTEXT((#16,#20,#24))REPRESENTATION_CONTEXT('','3D'));
#29=APPLICATION_CONTEXT('automotive design');
#30=APPLICATION_PROTOCOL_DEFINITION('INTERNATIONAL_STANDARD','automotive_design',1998,#29);
#31=PRODUCT_CONTEXT('3D Mechanical Parts',#29,'mechanical');
#32=PRODUCT('Product','Product','',(#31));
#33=PRODUCT_RELATED_PRODUCT_CATEGORY('part',$,(#32));
#34=PRODUCT_CATEGORY('part',$);
#35=PERSON('1','Design','Joe',$,$,$);
#36=ORGANIZATION($,'None','None');
#37=PERSON_AND_ORGANIZATION(#35,#36);
#38=PERSON_AND_ORGANIZATION_ROLE('design_owner');
#39=APPLIED_PERSON_AND_ORGANIZATION_ASSIGNMENT(#37,#38,(#32));
#40=PRODUCT_DEFINITION_FORMATION_WITH_SPECIFIED_SOURCE('None','',#32,.BOUGHT.);
#41=PERSON('2','Creator','Joe',$,$,$);
#42=ORGANIZATION($,'None','None');
#43=PERSON_AND_ORGANIZATION(#41,#42);
#44=PERSON_AND_ORGANIZATION_ROLE('creator');
#45=APPLIED_PERSON_AND_ORGANIZATION_ASSIGNMENT(#43,#44,(#40));
#46=PERSON('3','Supplier','Joe',$,$,$);
#47=ORGANIZATION($,'None','None');
#48=PERSON_AND_ORGANIZATION(#46,#47);
#49=PERSON_AND_ORGANIZATION_ROLE('design_supplier');
#50=APPLIED_PERSON_AND_ORGANIZATION_ASSIGNMENT(#48,#49,(#40));
#51=PRODUCT_DEFINITION_CONTEXT('part definition',#29,'design');
#52=PRODUCT_DEFINITION('None','',#40,#51);
#53=PERSON('4','Creator','Joe',$,$,$);
#54=ORGANIZATION($,'None','None');
#55=PERSON_AND_ORGANIZATION(#53,#54);
#56=PERSON_AND_ORGANIZATION_ROLE('creator');
#57=APPLIED_PERSON_AND_ORGANIZATION_ASSIGNMENT(#55,#56,(#52));
#58=CARTESIAN_POINT('NONE',(0.0,0.0,0.0));
#59=DIRECTION('NONE',(0.0,0.0,1.0));
#60=DIRECTION('NONE',(1.0,0.0,0.0));
#61=AXIS2_PLACEMENT_3D('NONE',#58,#59,#60);
#62=SHAPE_REPRESENTATION('SR1',(#61),#28);
#63=PRODUCT_DEFINITION_SHAPE('PDS1','Test Part',#52);
#64=SHAPE_DEFINITION_REPRESENTATION(#63,#62);
#65=CARTESIAN_POINT('',(1.789965310872634,1.789965310872634,4.953));
#66=DIRECTION('',(0.0,0.0,-1.0));
#67=DIRECTION('',(0.0,1.0,0.0));
#68=AXIS2_PLACEMENT_3D('',#65,#66,#67);
#69=CYLINDRICAL_SURFACE('',#68,0.3);
#70=CARTESIAN_POINT('',(1.789965310872635,2.089965310872634,4.903000000000001));
#71=VERTEX_POINT('',#70);
#72=CARTESIAN_POINT('',(1.789965310872635,2.089965310872634,4.953));
#73=VERTEX_POINT('',#72);
#74=CARTESIAN_POINT('',(1.789965310872634,2.089965310872634,4.903000000000001));
#75=DIRECTION('',(0.0,0.0,1.0));
#76=VECTOR('',#75,0.05);
#77=LINE('',#74,#76);
#78=EDGE_CURVE('',#71,#73,#77,.T.);
#79=ORIENTED_EDGE('',*,*,#78,.F.);
#80=CARTESIAN_POINT('',(1.789965310872634,1.489965310872634,4.903000000000001));
#81=VERTEX_POINT('',#80);
#82=CARTESIAN_POINT('',(1.789965310872634,1.789965310872634,4.903000000000001));
#83=DIRECTION('',(0.0,0.0,1.0));
#84=DIRECTION('',(0.0,1.0,0.0));
#85=AXIS2_PLACEMENT_3D('',#82,#83,#84);
#86=CIRCLE('',#85,0.3);
#87=EDGE_CURVE('',#71,#81,#86,.T.);
#88=ORIENTED_EDGE('',*,*,#87,.T.);
#89=CARTESIAN_POINT('',(1.789965310872634,1.489965310872634,4.953));
#90=VERTEX_POINT('',#89);
#91=CARTESIAN_POINT('',(1.789965310872634,1.489965310872634,4.903000000000001));
#92=DIRECTION('',(0.0,0.0,1.0));
#93=VECTOR('',#92,0.05);
#94=LINE('',#91,#93);
#95=EDGE_CURVE('',#81,#90,#94,.T.);
#96=ORIENTED_EDGE('',*,*,#95,.T.);
#97=CARTESIAN_POINT('',(1.789965310872634,1.789965310872634,4.953));
#98=DIRECTION('',(0.0,0.0,1.0));
#99=DIRECTION('',(0.0,1.0,0.0));
#100=AXIS2_PLACEMENT_3D('',#97,#98,#99);
#101=CIRCLE('',#100,0.3);
#102=EDGE_CURVE('',#73,#90,#101,.T.);
#103=ORIENTED_EDGE('',*,*,#102,.F.);
#104=EDGE_LOOP('',(#79,#88,#96,#103));
#105=FACE_OUTER_BOUND('',#104,.T.);
#106=ADVANCED_FACE('',(#105),#69,.T.);
#107=CARTESIAN_POINT('',(1.789965310872634,1.789965310872634,4.953));
#108=DIRECTION('',(0.0,0.0,-1.0));
#109=DIRECTION('',(0.0,1.0,0.0));
#110=AXIS2_PLACEMENT_3D('',#107,#108,#109);
#111=CYLINDRICAL_SURFACE('',#110,0.3);
#112=ORIENTED_EDGE('',*,*,#78,.T.);
#113=CARTESIAN_POINT('',(1.789965310872634,1.789965310872634,4.953));
#114=DIRECTION('',(0.0,0.0,1.0));
#115=DIRECTION('',(0.0,1.0,0.0));
#116=AXIS2_PLACEMENT_3D('',#113,#114,#115);
#117=CIRCLE('',#116,0.3);
#118=EDGE_CURVE('',#90,#73,#117,.T.);
#119=ORIENTED_EDGE('',*,*,#118,.F.);
#120=ORIENTED_EDGE('',*,*,#95,.F.);
#121=CARTESIAN_POINT('',(1.789965310872634,1.789965310872634,4.903000000000001));
#122=DIRECTION('',(0.0,0.0,1.0));
#123=DIRECTION('',(0.0,1.0,0.0));
#124=AXIS2_PLACEMENT_3D('',#121,#122,#123);
#125=CIRCLE('',#124,0.3);
#126=EDGE_CURVE('',#81,#71,#125,.T.);
#127=ORIENTED_EDGE('',*,*,#126,.T.);
#128=EDGE_LOOP('',(#112,#119,#120,#127));
#129=FACE_OUTER_BOUND('',#128,.T.);
#130=ADVANCED_FACE('',(#129),#111,.T.);
#131=CARTESIAN_POINT('',(1.789965310872634,1.789965310872634,4.903000000000001));
#132=DIRECTION('',(0.0,0.0,1.0));
#133=DIRECTION('',(0.0,1.0,0.0));
#134=AXIS2_PLACEMENT_3D('',#131,#132,#133);
#135=PLANE('',#134);
#136=ORIENTED_EDGE('',*,*,#87,.F.);
#137=ORIENTED_EDGE('',*,*,#126,.F.);
#138=EDGE_LOOP('',(#136,#137));
#139=FACE_OUTER_BOUND('',#138,.T.);
#140=ADVANCED_FACE('',(#139),#135,.F.);
#141=CARTESIAN_POINT('',(1.789965310872634,1.789965310872634,4.953));
#142=DIRECTION('',(0.0,0.0,1.0));
#143=DIRECTION('',(0.0,1.0,0.0));
#144=AXIS2_PLACEMENT_3D('',#141,#142,#143);
#145=PLANE('',#144);
#146=ORIENTED_EDGE('',*,*,#102,.T.);
#147=ORIENTED_EDGE('',*,*,#118,.T.);
#148=EDGE_LOOP('',(#146,#147));
#149=FACE_OUTER_BOUND('',#148,.T.);
#150=ADVANCED_FACE('',(#149),#145,.T.);
#151=CLOSED_SHELL('',(#106,#130,#140,#150));
#152=MANIFOLD_SOLID_BREP('2250',#151);
#153=COLOUR_RGB('254',0.866,0.866,0.866);
#154=SURFACE_STYLE_USAGE(.BOTH.,#155);
#155=SURFACE_SIDE_STYLE('NONE',(#156));
#156=SURFACE_STYLE_FILL_AREA(#157);
#157=FILL_AREA_STYLE('NONE',(#158));
#158=FILL_AREA_STYLE_COLOUR('NONE',#153);
#159=PRESENTATION_STYLE_ASSIGNMENT((#154));
#160=STYLED_ITEM('NONE',(#159),#152);
#161=MECHANICAL_DESIGN_GEOMETRIC_PRESENTATION_REPRESENTATION('NONE',(#160,#338,#507,#676,#839,#1002,#1165,#1613),#28);
#162=PRESENTATION_LAYER_ASSIGNMENT('3D','None',(#152,#330,#506,#675,#838,#1001,#1164,#1605));
#163=CARTESIAN_POINT('',(1.187988E-015,1.27,0.05));
#164=DIRECTION('',(0.0,0.0,1.0));
#165=DIRECTION('',(0.0,1.0,0.0));
#166=AXIS2_PLACEMENT_3D('',#163,#164,#165);
#167=CYLINDRICAL_SURFACE('',#166,0.5);
#168=CARTESIAN_POINT('',(1.329627E-015,1.77,0.1));
#169=VERTEX_POINT('',#168);
#170=CARTESIAN_POINT('',(1.329627E-015,1.77,0.0));
#171=VERTEX_POINT('',#170);
#172=CARTESIAN_POINT('',(1.218604E-015,1.77,0.1));
#173=DIRECTION('',(0.0,0.0,-1.0));
#174=VECTOR('',#173,0.1);
#175=LINE('',#172,#174);
#176=EDGE_CURVE('',#169,#171,#175,.T.);
#177=ORIENTED_EDGE('',*,*,#176,.F.);
#178=CARTESIAN_POINT('',(1.218604E-015,0.77,0.1));
#179=VERTEX_POINT('',#178);
#180=CARTESIAN_POINT('',(1.187988E-015,1.27,0.1));
#181=DIRECTION('',(0.0,0.0,1.0));
#182=DIRECTION('',(0.0,1.0,0.0));
#183=AXIS2_PLACEMENT_3D('',#180,#181,#182);
#184=CIRCLE('',#183,0.5);
#185=EDGE_CURVE('',#179,#169,#184,.T.);
#186=ORIENTED_EDGE('',*,*,#185,.F.);
#187=CARTESIAN_POINT('',(1.218604E-015,0.77,0.0));
#188=VERTEX_POINT('',#187);
#189=CARTESIAN_POINT('',(1.218604E-015,0.77,0.1));
#190=DIRECTION('',(0.0,0.0,-1.0));
#191=VECTOR('',#190,0.1);
#192=LINE('',#189,#191);
#193=EDGE_CURVE('',#179,#188,#192,.T.);
#194=ORIENTED_EDGE('',*,*,#193,.T.);
#195=CARTESIAN_POINT('',(1.187988E-015,1.27,0.0));
#196=DIRECTION('',(0.0,0.0,-1.0));
#197=DIRECTION('',(0.0,1.0,0.0));
#198=AXIS2_PLACEMENT_3D('',#195,#196,#197);
#199=CIRCLE('',#198,0.5);
#200=EDGE_CURVE('',#171,#188,#199,.T.);
#201=ORIENTED_EDGE('',*,*,#200,.F.);
#202=EDGE_LOOP('',(#177,#186,#194,#201));
#203=FACE_OUTER_BOUND('',#202,.T.);
#204=ADVANCED_FACE('',(#203),#167,.T.);
#205=CARTESIAN_POINT('',(1.187988E-015,1.27,0.0));
#206=DIRECTION('',(0.0,0.0,-1.0));
#207=DIRECTION('',(0.0,1.0,0.0));
#208=AXIS2_PLACEMENT_3D('',#205,#206,#207);
#209=CYLINDRICAL_SURFACE('',#208,0.255);
#210=CARTESIAN_POINT('',(1.425647E-015,1.525,-2.61));
#211=VERTEX_POINT('',#210);
#212=CARTESIAN_POINT('',(1.425647E-015,1.525,0.0));
#213=VERTEX_POINT('',#212);
#214=CARTESIAN_POINT('',(1.203602E-015,1.525,-2.61));
#215=DIRECTION('',(0.0,0.0,1.0));
#216=VECTOR('',#215,2.61);
#217=LINE('',#214,#216);
#218=EDGE_CURVE('',#211,#213,#217,.T.);
#219=ORIENTED_EDGE('',*,*,#218,.F.);
#220=CARTESIAN_POINT('',(1.141145E-015,1.015,-2.61));
#221=VERTEX_POINT('',#220);
#222=CARTESIAN_POINT('',(1.187988E-015,1.27,-2.61));
#223=DIRECTION('',(0.0,0.0,1.0));
#224=DIRECTION('',(0.0,1.0,0.0));
#225=AXIS2_PLACEMENT_3D('',#222,#223,#224);
#226=CIRCLE('',#225,0.255);
#227=EDGE_CURVE('',#211,#221,#226,.T.);
#228=ORIENTED_EDGE('',*,*,#227,.T.);
#229=CARTESIAN_POINT('',(1.141145E-015,1.015,0.0));
#230=VERTEX_POINT('',#229);
#231=CARTESIAN_POINT('',(1.141145E-015,1.015,-2.61));
#232=DIRECTION('',(0.0,0.0,1.0));
#233=VECTOR('',#232,2.61);
#234=LINE('',#231,#233);
#235=EDGE_CURVE('',#221,#230,#234,.T.);
#236=ORIENTED_EDGE('',*,*,#235,.T.);
#237=CARTESIAN_POINT('',(1.187988E-015,1.27,0.0));
#238=DIRECTION('',(0.0,0.0,1.0));
#239=DIRECTION('',(0.0,1.0,0.0));
#240=AXIS2_PLACEMENT_3D('',#237,#238,#239);
#241=CIRCLE('',#240,0.255);
#242=EDGE_CURVE('',#213,#230,#241,.T.);
#243=ORIENTED_EDGE('',*,*,#242,.F.);
#244=EDGE_LOOP('',(#219,#228,#236,#243));
#245=FACE_OUTER_BOUND('',#244,.T.);
#246=ADVANCED_FACE('',(#245),#209,.T.);
#247=CARTESIAN_POINT('',(1.187988E-015,1.27,0.0));
#248=DIRECTION('',(0.0,0.0,-1.0));
#249=DIRECTION('',(0.0,1.0,0.0));
#250=AXIS2_PLACEMENT_3D('',#247,#248,#249);
#251=CYLINDRICAL_SURFACE('',#250,0.255);
#252=ORIENTED_EDGE('',*,*,#218,.T.);
#253=CARTESIAN_POINT('',(1.187988E-015,1.27,0.0));
#254=DIRECTION('',(0.0,0.0,1.0));
#255=DIRECTION('',(0.0,1.0,0.0));
#256=AXIS2_PLACEMENT_3D('',#253,#254,#255);
#257=CIRCLE('',#256,0.255);
#258=EDGE_CURVE('',#230,#213,#257,.T.);
#259=ORIENTED_EDGE('',*,*,#258,.F.);
#260=ORIENTED_EDGE('',*,*,#235,.F.);
#261=CARTESIAN_POINT('',(1.187988E-015,1.27,-2.61));
#262=DIRECTION('',(0.0,0.0,1.0));
#263=DIRECTION('',(0.0,1.0,0.0));
#264=AXIS2_PLACEMENT_3D('',#261,#262,#263);
#265=CIRCLE('',#264,0.255);
#266=EDGE_CURVE('',#221,#211,#265,.T.);
#267=ORIENTED_EDGE('',*,*,#266,.T.);
#268=EDGE_LOOP('',(#252,#259,#260,#267));
#269=FACE_OUTER_BOUND('',#268,.T.);
#270=ADVANCED_FACE('',(#269),#251,.T.);
#271=CARTESIAN_POINT('',(1.187988E-015,1.27,-2.61));
#272=DIRECTION('',(0.0,0.0,1.0));
#273=DIRECTION('',(0.0,1.0,0.0));
#274=AXIS2_PLACEMENT_3D('',#271,#272,#273);
#275=PLANE('',#274);
#276=ORIENTED_EDGE('',*,*,#227,.F.);
#277=ORIENTED_EDGE('',*,*,#266,.F.);
#278=EDGE_LOOP('',(#276,#277));
#279=FACE_OUTER_BOUND('',#278,.T.);
#280=ADVANCED_FACE('',(#279),#275,.F.);
#281=CARTESIAN_POINT('',(1.187988E-015,1.27,0.05));
#282=DIRECTION('',(0.0,0.0,1.0));
#283=DIRECTION('',(0.0,1.0,0.0));
#284=AXIS2_PLACEMENT_3D('',#281,#282,#283);
#285=CYLINDRICAL_SURFACE('',#284,0.5);
#286=ORIENTED_EDGE('',*,*,#176,.T.);
#287=CARTESIAN_POINT('',(1.187988E-015,1.27,0.0));
#288=DIRECTION('',(0.0,0.0,-1.0));
#289=DIRECTION('',(0.0,1.0,0.0));
#290=AXIS2_PLACEMENT_3D('',#287,#288,#289);
#291=CIRCLE('',#290,0.5);
#292=EDGE_CURVE('',#188,#171,#291,.T.);
#293=ORIENTED_EDGE('',*,*,#292,.F.);
#294=ORIENTED_EDGE('',*,*,#193,.F.);
#295=CARTESIAN_POINT('',(1.187988E-015,1.27,0.1));
#296=DIRECTION('',(0.0,0.0,1.0));
#297=DIRECTION('',(0.0,1.0,0.0));
#298=AXIS2_PLACEMENT_3D('',#295,#296,#297);
#299=CIRCLE('',#298,0.5);
#300=EDGE_CURVE('',#169,#179,#299,.T.);
#301=ORIENTED_EDGE('',*,*,#300,.F.);
#302=EDGE_LOOP('',(#286,#293,#294,#301));
#303=FACE_OUTER_BOUND('',#302,.T.);
#304=ADVANCED_FACE('',(#303),#285,.T.);
#305=CARTESIAN_POINT('',(1.187988E-015,1.27,0.0));
#306=DIRECTION('',(0.0,0.0,-1.0));
#307=DIRECTION('',(0.0,-1.0,0.0));
#308=AXIS2_PLACEMENT_3D('',#305,#306,#307);
#309=PLANE('',#308);
#310=ORIENTED_EDGE('',*,*,#200,.T.);
#311=ORIENTED_EDGE('',*,*,#292,.T.);
#312=EDGE_LOOP('',(#310,#311));
#313=FACE_OUTER_BOUND('',#312,.T.);
#314=ORIENTED_EDGE('',*,*,#242,.T.);
#315=ORIENTED_EDGE('',*,*,#258,.T.);
#316=EDGE_LOOP('',(#314,#315));
#317=FACE_BOUND('',#316,.T.);
#318=ADVANCED_FACE('',(#313,#317),#309,.T.);
#319=CARTESIAN_POINT('',(1.187988E-015,1.27,0.1));
#320=DIRECTION('',(0.0,0.0,1.0));
#321=DIRECTION('',(0.0,1.0,0.0));
#322=AXIS2_PLACEMENT_3D('',#319,#320,#321);
#323=PLANE('',#322);
#324=ORIENTED_EDGE('',*,*,#300,.T.);
#325=ORIENTED_EDGE('',*,*,#185,.T.);
#326=EDGE_LOOP('',(#324,#325));
#327=FACE_OUTER_BOUND('',#326,.T.);
#328=ADVANCED_FACE('',(#327),#323,.T.);
#329=CLOSED_SHELL('',(#204,#246,#270,#280,#304,#318,#328));
#330=MANIFOLD_SOLID_BREP('2226',#329);
#331=COLOUR_RGB('40',1.0,0.75,0.0);
#332=SURFACE_STYLE_USAGE(.BOTH.,#333);
#333=SURFACE_SIDE_STYLE('NONE',(#334));
#334=SURFACE_STYLE_FILL_AREA(#335);
#335=FILL_AREA_STYLE('NONE',(#336));
#336=FILL_AREA_STYLE_COLOUR('NONE',#331);
#337=PRESENTATION_STYLE_ASSIGNMENT((#332));
#338=STYLED_ITEM('NONE',(#337),#330);
#339=CARTESIAN_POINT('',(-1.27,7.776507E-017,0.05));
#340=DIRECTION('',(0.0,0.0,1.0));
#341=DIRECTION('',(0.0,1.0,0.0));
#342=AXIS2_PLACEMENT_3D('',#339,#340,#341);
#343=CYLINDRICAL_SURFACE('',#342,0.5);
#344=CARTESIAN_POINT('',(-1.27,0.5,0.1));
#345=VERTEX_POINT('',#344);
#346=CARTESIAN_POINT('',(-1.27,0.5,0.0));
#347=VERTEX_POINT('',#346);
#348=CARTESIAN_POINT('',(-1.27,0.5,0.1));
#349=DIRECTION('',(0.0,0.0,-1.0));
#350=VECTOR('',#349,0.1);
#351=LINE('',#348,#350);
#352=EDGE_CURVE('',#345,#347,#351,.T.);
#353=ORIENTED_EDGE('',*,*,#352,.F.);
#354=CARTESIAN_POINT('',(-1.27,-0.5,0.1));
#355=VERTEX_POINT('',#354);
#356=CARTESIAN_POINT('',(-1.27,7.776507E-017,0.1));
#357=DIRECTION('',(0.0,0.0,1.0));
#358=DIRECTION('',(0.0,1.0,0.0));
#359=AXIS2_PLACEMENT_3D('',#356,#357,#358);
#360=CIRCLE('',#359,0.5);
#361=EDGE_CURVE('',#355,#345,#360,.T.);
#362=ORIENTED_EDGE('',*,*,#361,.F.);
#363=CARTESIAN_POINT('',(-1.27,-0.5,0.0));
#364=VERTEX_POINT('',#363);
#365=CARTESIAN_POINT('',(-1.27,-0.5,0.1));
#366=DIRECTION('',(0.0,0.0,-1.0));
#367=VECTOR('',#366,0.1);
#368=LINE('',#365,#367);
#369=EDGE_CURVE('',#355,#364,#368,.T.);
#370=ORIENTED_EDGE('',*,*,#369,.T.);
#371=CARTESIAN_POINT('',(-1.27,7.776507E-017,0.0));
#372=DIRECTION('',(0.0,0.0,-1.0));
#373=DIRECTION('',(0.0,1.0,0.0));
#374=AXIS2_PLACEMENT_3D('',#371,#372,#373);
#375=CIRCLE('',#374,0.5);
#376=EDGE_CURVE('',#347,#364,#375,.T.);
#377=ORIENTED_EDGE('',*,*,#376,.F.);
#378=EDGE_LOOP('',(#353,#362,#370,#377));
#379=FACE_OUTER_BOUND('',#378,.T.);
#380=ADVANCED_FACE('',(#379),#343,.T.);
#381=CARTESIAN_POINT('',(-1.27,7.776507E-017,0.0));
#382=DIRECTION('',(0.0,0.0,-1.0));
#383=DIRECTION('',(0.0,1.0,0.0));
#384=AXIS2_PLACEMENT_3D('',#381,#382,#383);
#385=CYLINDRICAL_SURFACE('',#384,0.255);
#386=CARTESIAN_POINT('',(-1.27,0.255,-2.61));
#387=VERTEX_POINT('',#386);
#388=CARTESIAN_POINT('',(-1.27,0.255,0.0));
#389=VERTEX_POINT('',#388);
#390=CARTESIAN_POINT('',(-1.27,0.255,-2.61));
#391=DIRECTION('',(0.0,0.0,1.0));
#392=VECTOR('',#391,2.61);
#393=LINE('',#390,#392);
#394=EDGE_CURVE('',#387,#389,#393,.T.);
#395=ORIENTED_EDGE('',*,*,#394,.F.);
#396=CARTESIAN_POINT('',(-1.27,-0.255,-2.61));
#397=VERTEX_POINT('',#396);
#398=CARTESIAN_POINT('',(-1.27,7.776507E-017,-2.61));
#399=DIRECTION('',(0.0,0.0,1.0));
#400=DIRECTION('',(0.0,1.0,0.0));
#401=AXIS2_PLACEMENT_3D('',#398,#399,#400);
#402=CIRCLE('',#401,0.255);
#403=EDGE_CURVE('',#387,#397,#402,.T.);
#404=ORIENTED_EDGE('',*,*,#403,.T.);
#405=CARTESIAN_POINT('',(-1.27,-0.255,0.0));
#406=VERTEX_POINT('',#405);
#407=CARTESIAN_POINT('',(-1.27,-0.255,-2.61));
#408=DIRECTION('',(0.0,0.0,1.0));
#409=VECTOR('',#408,2.61);
#410=LINE('',#407,#409);
#411=EDGE_CURVE('',#397,#406,#410,.T.);
#412=ORIENTED_EDGE('',*,*,#411,.T.);
#413=CARTESIAN_POINT('',(-1.27,7.776507E-017,0.0));
#414=DIRECTION('',(0.0,0.0,1.0));
#415=DIRECTION('',(0.0,1.0,0.0));
#416=AXIS2_PLACEMENT_3D('',#413,#414,#415);
#417=CIRCLE('',#416,0.255);
#418=EDGE_CURVE('',#389,#406,#417,.T.);
#419=ORIENTED_EDGE('',*,*,#418,.F.);
#420=EDGE_LOOP('',(#395,#404,#412,#419));
#421=FACE_OUTER_BOUND('',#420,.T.);
#422=ADVANCED_FACE('',(#421),#385,.T.);
#423=CARTESIAN_POINT('',(-1.27,7.776507E-017,0.0));
#424=DIRECTION('',(0.0,0.0,-1.0));
#425=DIRECTION('',(0.0,1.0,0.0));
#426=AXIS2_PLACEMENT_3D('',#423,#424,#425);
#427=CYLINDRICAL_SURFACE('',#426,0.255);
#428=ORIENTED_EDGE('',*,*,#394,.T.);
#429=CARTESIAN_POINT('',(-1.27,7.776507E-017,0.0));
#430=DIRECTION('',(0.0,0.0,1.0));
#431=DIRECTION('',(0.0,1.0,0.0));
#432=AXIS2_PLACEMENT_3D('',#429,#430,#431);
#433=CIRCLE('',#432,0.255);
#434=EDGE_CURVE('',#406,#389,#433,.T.);
#435=ORIENTED_EDGE('',*,*,#434,.F.);
#436=ORIENTED_EDGE('',*,*,#411,.F.);
#437=CARTESIAN_POINT('',(-1.27,7.776507E-017,-2.61));
#438=DIRECTION('',(0.0,0.0,1.0));
#439=DIRECTION('',(0.0,1.0,0.0));
#440=AXIS2_PLACEMENT_3D('',#437,#438,#439);
#441=CIRCLE('',#440,0.255);
#442=EDGE_CURVE('',#397,#387,#441,.T.);
#443=ORIENTED_EDGE('',*,*,#442,.T.);
#444=EDGE_LOOP('',(#428,#435,#436,#443));
#445=FACE_OUTER_BOUND('',#444,.T.);
#446=ADVANCED_FACE('',(#445),#427,.T.);
#447=CARTESIAN_POINT('',(-1.27,7.776507E-017,-2.61));
#448=DIRECTION('',(0.0,0.0,1.0));
#449=DIRECTION('',(0.0,1.0,0.0));
#450=AXIS2_PLACEMENT_3D('',#447,#448,#449);
#451=PLANE('',#450);
#452=ORIENTED_EDGE('',*,*,#403,.F.);
#453=ORIENTED_EDGE('',*,*,#442,.F.);
#454=EDGE_LOOP('',(#452,#453));
#455=FACE_OUTER_BOUND('',#454,.T.);
#456=ADVANCED_FACE('',(#455),#451,.F.);
#457=CARTESIAN_POINT('',(-1.27,7.776507E-017,0.05));
#458=DIRECTION('',(0.0,0.0,1.0));
#459=DIRECTION('',(0.0,1.0,0.0));
#460=AXIS2_PLACEMENT_3D('',#457,#458,#459);
#461=CYLINDRICAL_SURFACE('',#460,0.5);
#462=ORIENTED_EDGE('',*,*,#352,.T.);
#463=CARTESIAN_POINT('',(-1.27,7.776507E-017,0.0));
#464=DIRECTION('',(0.0,0.0,-1.0));
#465=DIRECTION('',(0.0,1.0,0.0));
#466=AXIS2_PLACEMENT_3D('',#463,#464,#465);
#467=CIRCLE('',#466,0.5);
#468=EDGE_CURVE('',#364,#347,#467,.T.);
#469=ORIENTED_EDGE('',*,*,#468,.F.);
#470=ORIENTED_EDGE('',*,*,#369,.F.);
#471=CARTESIAN_POINT('',(-1.27,7.776507E-017,0.1));
#472=DIRECTION('',(0.0,0.0,1.0));
#473=DIRECTION('',(0.0,1.0,0.0));
#474=AXIS2_PLACEMENT_3D('',#471,#472,#473);
#475=CIRCLE('',#474,0.5);
#476=EDGE_CURVE('',#345,#355,#475,.T.);
#477=ORIENTED_EDGE('',*,*,#476,.F.);
#478=EDGE_LOOP('',(#462,#469,#470,#477));
#479=FACE_OUTER_BOUND('',#478,.T.);
#480=ADVANCED_FACE('',(#479),#461,.T.);
#481=CARTESIAN_POINT('',(-1.27,7.776507E-017,0.0));
#482=DIRECTION('',(0.0,0.0,-1.0));
#483=DIRECTION('',(0.0,-1.0,0.0));
#484=AXIS2_PLACEMENT_3D('',#481,#482,#483);
#485=PLANE('',#484);
#486=ORIENTED_EDGE('',*,*,#376,.T.);
#487=ORIENTED_EDGE('',*,*,#468,.T.);
#488=EDGE_LOOP('',(#486,#487));
#489=FACE_OUTER_BOUND('',#488,.T.);
#490=ORIENTED_EDGE('',*,*,#418,.T.);
#491=ORIENTED_EDGE('',*,*,#434,.T.);
#492=EDGE_LOOP('',(#490,#491));
#493=FACE_BOUND('',#492,.T.);
#494=ADVANCED_FACE('',(#489,#493),#485,.T.);
#495=CARTESIAN_POINT('',(-1.27,7.776507E-017,0.1));
#496=DIRECTION('',(0.0,0.0,1.0));
#497=DIRECTION('',(0.0,1.0,0.0));
#498=AXIS2_PLACEMENT_3D('',#495,#496,#497);
#499=PLANE('',#498);
#500=ORIENTED_EDGE('',*,*,#476,.T.);
#501=ORIENTED_EDGE('',*,*,#361,.T.);
#502=EDGE_LOOP('',(#500,#501));
#503=FACE_OUTER_BOUND('',#502,.T.);
#504=ADVANCED_FACE('',(#503),#499,.T.);
#505=CLOSED_SHELL('',(#380,#422,#446,#456,#480,#494,#504));
#506=MANIFOLD_SOLID_BREP('2220',#505);
#507=STYLED_ITEM('NONE',(#337),#506);
#508=CARTESIAN_POINT('',(-7.776507E-017,-1.27,0.05));
#509=DIRECTION('',(0.0,0.0,1.0));
#510=DIRECTION('',(0.0,1.0,0.0));
#511=AXIS2_PLACEMENT_3D('',#508,#509,#510);
#512=CYLINDRICAL_SURFACE('',#511,0.5);
#513=CARTESIAN_POINT('',(8.362249E-018,-0.77,0.1));
#514=VERTEX_POINT('',#513);
#515=CARTESIAN_POINT('',(8.362249E-018,-0.77,0.0));
#516=VERTEX_POINT('',#515);
#517=CARTESIAN_POINT('',(-4.714890E-017,-0.77,0.1));
#518=DIRECTION('',(0.0,0.0,-1.0));
#519=VECTOR('',#518,0.1);
#520=LINE('',#517,#519);
#521=EDGE_CURVE('',#514,#516,#520,.T.);
#522=ORIENTED_EDGE('',*,*,#521,.F.);
#523=CARTESIAN_POINT('',(-4.714890E-017,-1.77,0.1));
#524=VERTEX_POINT('',#523);
#525=CARTESIAN_POINT('',(-7.776507E-017,-1.27,0.1));
#526=DIRECTION('',(0.0,0.0,1.0));
#527=DIRECTION('',(0.0,1.0,0.0));
#528=AXIS2_PLACEMENT_3D('',#525,#526,#527);
#529=CIRCLE('',#528,0.5);
#530=EDGE_CURVE('',#524,#514,#529,.T.);
#531=ORIENTED_EDGE('',*,*,#530,.F.);
#532=CARTESIAN_POINT('',(-4.714890E-017,-1.77,0.0));
#533=VERTEX_POINT('',#532);
#534=CARTESIAN_POINT('',(-4.714890E-017,-1.77,0.1));
#535=DIRECTION('',(0.0,0.0,-1.0));
#536=VECTOR('',#535,0.1);
#537=LINE('',#534,#536);
#538=EDGE_CURVE('',#524,#533,#537,.T.);
#539=ORIENTED_EDGE('',*,*,#538,.T.);
#540=CARTESIAN_POINT('',(-7.776507E-017,-1.27,0.0));
#541=DIRECTION('',(0.0,0.0,-1.0));
#542=DIRECTION('',(0.0,1.0,0.0));
#543=AXIS2_PLACEMENT_3D('',#540,#541,#542);
#544=CIRCLE('',#543,0.5);
#545=EDGE_CURVE('',#516,#533,#544,.T.);
#546=ORIENTED_EDGE('',*,*,#545,.F.);
#547=EDGE_LOOP('',(#522,#531,#539,#546));
#548=FACE_OUTER_BOUND('',#547,.T.);
#549=ADVANCED_FACE('',(#548),#512,.T.);
#550=CARTESIAN_POINT('',(-7.776507E-017,-1.27,0.0));
#551=DIRECTION('',(0.0,0.0,-1.0));
#552=DIRECTION('',(0.0,1.0,0.0));
#553=AXIS2_PLACEMENT_3D('',#550,#551,#552);
#554=CYLINDRICAL_SURFACE('',#553,0.255);
#555=CARTESIAN_POINT('',(-6.215083E-017,-1.015,-2.61));
#556=VERTEX_POINT('',#555);
#557=CARTESIAN_POINT('',(-6.215083E-017,-1.015,0.0));
#558=VERTEX_POINT('',#557);
#559=CARTESIAN_POINT('',(-6.215083E-017,-1.015,-2.61));
#560=DIRECTION('',(0.0,0.0,1.0));
#561=VECTOR('',#560,2.61);
#562=LINE('',#559,#561);
#563=EDGE_CURVE('',#556,#558,#562,.T.);
#564=ORIENTED_EDGE('',*,*,#563,.F.);
#565=CARTESIAN_POINT('',(-1.246078E-016,-1.525,-2.61));
#566=VERTEX_POINT('',#565);
#567=CARTESIAN_POINT('',(-7.776507E-017,-1.27,-2.61));
#568=DIRECTION('',(0.0,0.0,1.0));
#569=DIRECTION('',(0.0,1.0,0.0));
#570=AXIS2_PLACEMENT_3D('',#567,#568,#569);
#571=CIRCLE('',#570,0.255);
#572=EDGE_CURVE('',#556,#566,#571,.T.);
#573=ORIENTED_EDGE('',*,*,#572,.T.);
#574=CARTESIAN_POINT('',(-1.246078E-016,-1.525,0.0));
#575=VERTEX_POINT('',#574);
#576=CARTESIAN_POINT('',(-1.246078E-016,-1.525,-2.61));
#577=DIRECTION('',(0.0,0.0,1.0));
#578=VECTOR('',#577,2.61);
#579=LINE('',#576,#578);
#580=EDGE_CURVE('',#566,#575,#579,.T.);
#581=ORIENTED_EDGE('',*,*,#580,.T.);
#582=CARTESIAN_POINT('',(-7.776507E-017,-1.27,0.0));
#583=DIRECTION('',(0.0,0.0,1.0));
#584=DIRECTION('',(0.0,1.0,0.0));
#585=AXIS2_PLACEMENT_3D('',#582,#583,#584);
#586=CIRCLE('',#585,0.255);
#587=EDGE_CURVE('',#558,#575,#586,.T.);
#588=ORIENTED_EDGE('',*,*,#587,.F.);
#589=EDGE_LOOP('',(#564,#573,#581,#588));
#590=FACE_OUTER_BOUND('',#589,.T.);
#591=ADVANCED_FACE('',(#590),#554,.T.);
#592=CARTESIAN_POINT('',(-7.776507E-017,-1.27,0.0));
#593=DIRECTION('',(0.0,0.0,-1.0));
#594=DIRECTION('',(0.0,1.0,0.0));
#595=AXIS2_PLACEMENT_3D('',#592,#593,#594);
#596=CYLINDRICAL_SURFACE('',#595,0.255);
#597=ORIENTED_EDGE('',*,*,#563,.T.);
#598=CARTESIAN_POINT('',(-7.776507E-017,-1.27,0.0));
#599=DIRECTION('',(0.0,0.0,1.0));
#600=DIRECTION('',(0.0,1.0,0.0));
#601=AXIS2_PLACEMENT_3D('',#598,#599,#600);
#602=CIRCLE('',#601,0.255);
#603=EDGE_CURVE('',#575,#558,#602,.T.);
#604=ORIENTED_EDGE('',*,*,#603,.F.);
#605=ORIENTED_EDGE('',*,*,#580,.F.);
#606=CARTESIAN_POINT('',(-7.776507E-017,-1.27,-2.61));
#607=DIRECTION('',(0.0,0.0,1.0));
#608=DIRECTION('',(0.0,1.0,0.0));
#609=AXIS2_PLACEMENT_3D('',#606,#607,#608);
#610=CIRCLE('',#609,0.255);
#611=EDGE_CURVE('',#566,#556,#610,.T.);
#612=ORIENTED_EDGE('',*,*,#611,.T.);
#613=EDGE_LOOP('',(#597,#604,#605,#612));
#614=FACE_OUTER_BOUND('',#613,.T.);
#615=ADVANCED_FACE('',(#614),#596,.T.);
#616=CARTESIAN_POINT('',(-7.776507E-017,-1.27,-2.61));
#617=DIRECTION('',(0.0,0.0,1.0));
#618=DIRECTION('',(0.0,1.0,0.0));
#619=AXIS2_PLACEMENT_3D('',#616,#617,#618);
#620=PLANE('',#619);
#621=ORIENTED_EDGE('',*,*,#572,.F.);
#622=ORIENTED_EDGE('',*,*,#611,.F.);
#623=EDGE_LOOP('',(#621,#622));
#624=FACE_OUTER_BOUND('',#623,.T.);
#625=ADVANCED_FACE('',(#624),#620,.F.);
#626=CARTESIAN_POINT('',(-7.776507E-017,-1.27,0.05));
#627=DIRECTION('',(0.0,0.0,1.0));
#628=DIRECTION('',(0.0,1.0,0.0));
#629=AXIS2_PLACEMENT_3D('',#626,#627,#628);
#630=CYLINDRICAL_SURFACE('',#629,0.5);
#631=ORIENTED_EDGE('',*,*,#521,.T.);
#632=CARTESIAN_POINT('',(-7.776507E-017,-1.27,0.0));
#633=DIRECTION('',(0.0,0.0,-1.0));
#634=DIRECTION('',(0.0,1.0,0.0));
#635=AXIS2_PLACEMENT_3D('',#632,#633,#634);
#636=CIRCLE('',#635,0.5);
#637=EDGE_CURVE('',#533,#516,#636,.T.);
#638=ORIENTED_EDGE('',*,*,#637,.F.);
#639=ORIENTED_EDGE('',*,*,#538,.F.);
#640=CARTESIAN_POINT('',(-7.776507E-017,-1.27,0.1));
#641=DIRECTION('',(0.0,0.0,1.0));
#642=DIRECTION('',(0.0,1.0,0.0));
#643=AXIS2_PLACEMENT_3D('',#640,#641,#642);
#644=CIRCLE('',#643,0.5);
#645=EDGE_CURVE('',#514,#524,#644,.T.);
#646=ORIENTED_EDGE('',*,*,#645,.F.);
#647=EDGE_LOOP('',(#631,#638,#639,#646));
#648=FACE_OUTER_BOUND('',#647,.T.);
#649=ADVANCED_FACE('',(#648),#630,.T.);
#650=CARTESIAN_POINT('',(-7.776507E-017,-1.27,0.0));
#651=DIRECTION('',(0.0,0.0,-1.0));
#652=DIRECTION('',(0.0,-1.0,0.0));
#653=AXIS2_PLACEMENT_3D('',#650,#651,#652);
#654=PLANE('',#653);
#655=ORIENTED_EDGE('',*,*,#545,.T.);
#656=ORIENTED_EDGE('',*,*,#637,.T.);
#657=EDGE_LOOP('',(#655,#656));
#658=FACE_OUTER_BOUND('',#657,.T.);
#659=ORIENTED_EDGE('',*,*,#587,.T.);
#660=ORIENTED_EDGE('',*,*,#603,.T.);
#661=EDGE_LOOP('',(#659,#660));
#662=FACE_BOUND('',#661,.T.);
#663=ADVANCED_FACE('',(#658,#662),#654,.T.);
#664=CARTESIAN_POINT('',(-7.776507E-017,-1.27,0.1));
#665=DIRECTION('',(0.0,0.0,1.0));
#666=DIRECTION('',(0.0,1.0,0.0));
#667=AXIS2_PLACEMENT_3D('',#664,#665,#666);
#668=PLANE('',#667);
#669=ORIENTED_EDGE('',*,*,#645,.T.);
#670=ORIENTED_EDGE('',*,*,#530,.T.);
#671=EDGE_LOOP('',(#669,#670));
#672=FACE_OUTER_BOUND('',#671,.T.);
#673=ADVANCED_FACE('',(#672),#668,.T.);
#674=CLOSED_SHELL('',(#549,#591,#615,#625,#649,#663,#673));
#675=MANIFOLD_SOLID_BREP('221B',#674);
#676=STYLED_ITEM('NONE',(#337),#675);
#677=CARTESIAN_POINT('',(-1.27,7.776507E-017,0.0));
#678=DIRECTION('',(0.0,0.0,1.0));
#679=DIRECTION('',(0.0,1.0,0.0));
#680=AXIS2_PLACEMENT_3D('',#677,#678,#679);
#681=CYLINDRICAL_SURFACE('',#680,0.7235);
#682=CARTESIAN_POINT('',(-1.27,0.7235,4.953));
#683=VERTEX_POINT('',#682);
#684=CARTESIAN_POINT('',(-1.27,0.7235,0.0));
#685=VERTEX_POINT('',#684);
#686=CARTESIAN_POINT('',(-1.27,0.7235,4.953));
#687=DIRECTION('',(0.0,0.0,-1.0));
#688=VECTOR('',#687,4.953);
#689=LINE('',#686,#688);
#690=EDGE_CURVE('',#683,#685,#689,.T.);
#691=ORIENTED_EDGE('',*,*,#690,.F.);
#692=CARTESIAN_POINT('',(-1.27,-0.7235,4.953));
#693=VERTEX_POINT('',#692);
#694=CARTESIAN_POINT('',(-1.27,7.776507E-017,4.953));
#695=DIRECTION('',(0.0,0.0,-1.0));
#696=DIRECTION('',(0.0,1.0,0.0));
#697=AXIS2_PLACEMENT_3D('',#694,#695,#696);
#698=CIRCLE('',#697,0.7235);
#699=EDGE_CURVE('',#683,#693,#698,.T.);
#700=ORIENTED_EDGE('',*,*,#699,.T.);
#701=CARTESIAN_POINT('',(-1.27,-0.7235,0.0));
#702=VERTEX_POINT('',#701);
#703=CARTESIAN_POINT('',(-1.27,-0.7235,4.953));
#704=DIRECTION('',(0.0,0.0,-1.0));
#705=VECTOR('',#704,4.953);
#706=LINE('',#703,#705);
#707=EDGE_CURVE('',#693,#702,#706,.T.);
#708=ORIENTED_EDGE('',*,*,#707,.T.);
#709=CARTESIAN_POINT('',(-1.27,7.776507E-017,0.0));
#710=DIRECTION('',(0.0,0.0,1.0));
#711=DIRECTION('',(0.0,1.0,0.0));
#712=AXIS2_PLACEMENT_3D('',#709,#710,#711);
#713=CIRCLE('',#712,0.7235);
#714=EDGE_CURVE('',#702,#685,#713,.T.);
#715=ORIENTED_EDGE('',*,*,#714,.T.);
#716=EDGE_LOOP('',(#691,#700,#708,#715));
#717=FACE_OUTER_BOUND('',#716,.T.);
#718=ADVANCED_FACE('',(#717),#681,.T.);
#719=CARTESIAN_POINT('',(-1.27,7.776507E-017,0.0));
#720=DIRECTION('',(0.0,0.0,1.0));
#721=DIRECTION('',(0.0,1.0,0.0));
#722=AXIS2_PLACEMENT_3D('',#719,#720,#721);
#723=CYLINDRICAL_SURFACE('',#722,0.5);
#724=CARTESIAN_POINT('',(-1.27,0.5,0.0));
#725=VERTEX_POINT('',#724);
#726=CARTESIAN_POINT('',(-1.27,0.5,4.953));
#727=VERTEX_POINT('',#726);
#728=CARTESIAN_POINT('',(-1.27,0.5,0.0));
#729=DIRECTION('',(0.0,0.0,1.0));
#730=VECTOR('',#729,4.953);
#731=LINE('',#728,#730);
#732=EDGE_CURVE('',#725,#727,#731,.T.);
#733=ORIENTED_EDGE('',*,*,#732,.F.);
#734=CARTESIAN_POINT('',(-1.27,-0.5,0.0));
#735=VERTEX_POINT('',#734);
#736=CARTESIAN_POINT('',(-1.27,7.776507E-017,0.0));
#737=DIRECTION('',(0.0,0.0,1.0));
#738=DIRECTION('',(0.0,1.0,0.0));
#739=AXIS2_PLACEMENT_3D('',#736,#737,#738);
#740=CIRCLE('',#739,0.5);
#741=EDGE_CURVE('',#735,#725,#740,.T.);
#742=ORIENTED_EDGE('',*,*,#741,.F.);
#743=CARTESIAN_POINT('',(-1.27,-0.5,4.953));
#744=VERTEX_POINT('',#743);
#745=CARTESIAN_POINT('',(-1.27,-0.5,0.0));
#746=DIRECTION('',(0.0,0.0,1.0));
#747=VECTOR('',#746,4.953);
#748=LINE('',#745,#747);
#749=EDGE_CURVE('',#735,#744,#748,.T.);
#750=ORIENTED_EDGE('',*,*,#749,.T.);
#751=CARTESIAN_POINT('',(-1.27,7.776507E-017,4.953));
#752=DIRECTION('',(0.0,0.0,-1.0));
#753=DIRECTION('',(0.0,1.0,0.0));
#754=AXIS2_PLACEMENT_3D('',#751,#752,#753);
#755=CIRCLE('',#754,0.5);
#756=EDGE_CURVE('',#727,#744,#755,.T.);
#757=ORIENTED_EDGE('',*,*,#756,.F.);
#758=EDGE_LOOP('',(#733,#742,#750,#757));
#759=FACE_OUTER_BOUND('',#758,.T.);
#760=ADVANCED_FACE('',(#759),#723,.F.);
#761=CARTESIAN_POINT('',(-1.27,7.776507E-017,0.0));
#762=DIRECTION('',(0.0,0.0,1.0));
#763=DIRECTION('',(0.0,1.0,0.0));
#764=AXIS2_PLACEMENT_3D('',#761,#762,#763);
#765=CYLINDRICAL_SURFACE('',#764,0.5);
#766=ORIENTED_EDGE('',*,*,#732,.T.);
#767=CARTESIAN_POINT('',(-1.27,7.776507E-017,4.953));
#768=DIRECTION('',(0.0,0.0,-1.0));
#769=DIRECTION('',(0.0,1.0,0.0));
#770=AXIS2_PLACEMENT_3D('',#767,#768,#769);
#771=CIRCLE('',#770,0.5);
#772=EDGE_CURVE('',#744,#727,#771,.T.);
#773=ORIENTED_EDGE('',*,*,#772,.F.);
#774=ORIENTED_EDGE('',*,*,#749,.F.);
#775=CARTESIAN_POINT('',(-1.27,7.776507E-017,0.0));
#776=DIRECTION('',(0.0,0.0,1.0));
#777=DIRECTION('',(0.0,1.0,0.0));
#778=AXIS2_PLACEMENT_3D('',#775,#776,#777);
#779=CIRCLE('',#778,0.5);
#780=EDGE_CURVE('',#725,#735,#779,.T.);
#781=ORIENTED_EDGE('',*,*,#780,.F.);
#782=EDGE_LOOP('',(#766,#773,#774,#781));
#783=FACE_OUTER_BOUND('',#782,.T.);
#784=ADVANCED_FACE('',(#783),#765,.F.);
#785=CARTESIAN_POINT('',(-1.27,7.776507E-017,0.0));
#786=DIRECTION('',(0.0,0.0,1.0));
#787=DIRECTION('',(0.0,1.0,0.0));
#788=AXIS2_PLACEMENT_3D('',#785,#786,#787);
#789=CYLINDRICAL_SURFACE('',#788,0.7235);
#790=ORIENTED_EDGE('',*,*,#690,.T.);
#791=CARTESIAN_POINT('',(-1.27,7.776507E-017,0.0));
#792=DIRECTION('',(0.0,0.0,1.0));
#793=DIRECTION('',(0.0,1.0,0.0));
#794=AXIS2_PLACEMENT_3D('',#791,#792,#793);
#795=CIRCLE('',#794,0.7235);
#796=EDGE_CURVE('',#685,#702,#795,.T.);
#797=ORIENTED_EDGE('',*,*,#796,.T.);
#798=ORIENTED_EDGE('',*,*,#707,.F.);
#799=CARTESIAN_POINT('',(-1.27,7.776507E-017,4.953));
#800=DIRECTION('',(0.0,0.0,-1.0));
#801=DIRECTION('',(0.0,1.0,0.0));
#802=AXIS2_PLACEMENT_3D('',#799,#800,#801);
#803=CIRCLE('',#802,0.7235);
#804=EDGE_CURVE('',#693,#683,#803,.T.);
#805=ORIENTED_EDGE('',*,*,#804,.T.);
#806=EDGE_LOOP('',(#790,#797,#798,#805));
#807=FACE_OUTER_BOUND('',#806,.T.);
#808=ADVANCED_FACE('',(#807),#789,.T.);
#809=CARTESIAN_POINT('',(-1.27,7.776507E-017,0.0));
#810=DIRECTION('',(0.0,0.0,1.0));
#811=DIRECTION('',(0.0,1.0,0.0));
#812=AXIS2_PLACEMENT_3D('',#809,#810,#811);
#813=PLANE('',#812);
#814=ORIENTED_EDGE('',*,*,#796,.F.);
#815=ORIENTED_EDGE('',*,*,#714,.F.);
#816=EDGE_LOOP('',(#814,#815));
#817=FACE_OUTER_BOUND('',#816,.T.);
#818=ORIENTED_EDGE('',*,*,#780,.T.);
#819=ORIENTED_EDGE('',*,*,#741,.T.);
#820=EDGE_LOOP('',(#818,#819));
#821=FACE_BOUND('',#820,.T.);
#822=ADVANCED_FACE('',(#817,#821),#813,.F.);
#823=CARTESIAN_POINT('',(-1.27,7.776507E-017,4.953));
#824=DIRECTION('',(0.0,0.0,1.0));
#825=DIRECTION('',(0.0,1.0,0.0));
#826=AXIS2_PLACEMENT_3D('',#823,#824,#825);
#827=PLANE('',#826);
#828=ORIENTED_EDGE('',*,*,#699,.F.);
#829=ORIENTED_EDGE('',*,*,#804,.F.);
#830=EDGE_LOOP('',(#828,#829));
#831=FACE_OUTER_BOUND('',#830,.T.);
#832=ORIENTED_EDGE('',*,*,#756,.T.);
#833=ORIENTED_EDGE('',*,*,#772,.T.);
#834=EDGE_LOOP('',(#832,#833));
#835=FACE_BOUND('',#834,.T.);
#836=ADVANCED_FACE('',(#831,#835),#827,.T.);
#837=CLOSED_SHELL('',(#718,#760,#784,#808,#822,#836));
#838=MANIFOLD_SOLID_BREP('2204',#837);
#839=STYLED_ITEM('NONE',(#337),#838);
#840=CARTESIAN_POINT('',(7.776507E-017,1.27,0.0));
#841=DIRECTION('',(0.0,0.0,1.0));
#842=DIRECTION('',(0.0,1.0,0.0));
#843=AXIS2_PLACEMENT_3D('',#840,#841,#842);
#844=CYLINDRICAL_SURFACE('',#843,0.7235);
#845=CARTESIAN_POINT('',(1.220667E-016,1.9935,4.953));
#846=VERTEX_POINT('',#845);
#847=CARTESIAN_POINT('',(1.220667E-016,1.9935,0.0));
#848=VERTEX_POINT('',#847);
#849=CARTESIAN_POINT('',(1.220667E-016,1.9935,4.953));
#850=DIRECTION('',(0.0,0.0,-1.0));
#851=VECTOR('',#850,4.953);
#852=LINE('',#849,#851);
#853=EDGE_CURVE('',#846,#848,#852,.T.);
#854=ORIENTED_EDGE('',*,*,#853,.F.);
#855=CARTESIAN_POINT('',(1.220667E-016,0.5465,4.953));
#856=VERTEX_POINT('',#855);
#857=CARTESIAN_POINT('',(7.776507E-017,1.27,4.953));
#858=DIRECTION('',(0.0,0.0,-1.0));
#859=DIRECTION('',(0.0,1.0,0.0));
#860=AXIS2_PLACEMENT_3D('',#857,#858,#859);
#861=CIRCLE('',#860,0.7235);
#862=EDGE_CURVE('',#846,#856,#861,.T.);
#863=ORIENTED_EDGE('',*,*,#862,.T.);
#864=CARTESIAN_POINT('',(1.220667E-016,0.5465,0.0));
#865=VERTEX_POINT('',#864);
#866=CARTESIAN_POINT('',(1.220667E-016,0.5465,4.953));
#867=DIRECTION('',(0.0,0.0,-1.0));
#868=VECTOR('',#867,4.953);
#869=LINE('',#866,#868);
#870=EDGE_CURVE('',#856,#865,#869,.T.);
#871=ORIENTED_EDGE('',*,*,#870,.T.);
#872=CARTESIAN_POINT('',(7.776507E-017,1.27,0.0));
#873=DIRECTION('',(0.0,0.0,1.0));
#874=DIRECTION('',(0.0,1.0,0.0));
#875=AXIS2_PLACEMENT_3D('',#872,#873,#874);
#876=CIRCLE('',#875,0.7235);
#877=EDGE_CURVE('',#865,#848,#876,.T.);
#878=ORIENTED_EDGE('',*,*,#877,.T.);
#879=EDGE_LOOP('',(#854,#863,#871,#878));
#880=FACE_OUTER_BOUND('',#879,.T.);
#881=ADVANCED_FACE('',(#880),#844,.T.);
#882=CARTESIAN_POINT('',(7.776507E-017,1.27,0.0));
#883=DIRECTION('',(0.0,0.0,1.0));
#884=DIRECTION('',(0.0,1.0,0.0));
#885=AXIS2_PLACEMENT_3D('',#882,#883,#884);
#886=CYLINDRICAL_SURFACE('',#885,0.5);
#887=CARTESIAN_POINT('',(1.083812E-016,1.77,0.0));
#888=VERTEX_POINT('',#887);
#889=CARTESIAN_POINT('',(1.083812E-016,1.77,4.953));
#890=VERTEX_POINT('',#889);
#891=CARTESIAN_POINT('',(1.083812E-016,1.77,0.0));
#892=DIRECTION('',(0.0,0.0,1.0));
#893=VECTOR('',#892,4.953);
#894=LINE('',#891,#893);
#895=EDGE_CURVE('',#888,#890,#894,.T.);
#896=ORIENTED_EDGE('',*,*,#895,.F.);
#897=CARTESIAN_POINT('',(1.083812E-016,0.77,0.0));
#898=VERTEX_POINT('',#897);
#899=CARTESIAN_POINT('',(7.776507E-017,1.27,0.0));
#900=DIRECTION('',(0.0,0.0,1.0));
#901=DIRECTION('',(0.0,1.0,0.0));
#902=AXIS2_PLACEMENT_3D('',#899,#900,#901);
#903=CIRCLE('',#902,0.5);
#904=EDGE_CURVE('',#898,#888,#903,.T.);
#905=ORIENTED_EDGE('',*,*,#904,.F.);
#906=CARTESIAN_POINT('',(1.083812E-016,0.77,4.953));
#907=VERTEX_POINT('',#906);
#908=CARTESIAN_POINT('',(1.083812E-016,0.77,0.0));
#909=DIRECTION('',(0.0,0.0,1.0));
#910=VECTOR('',#909,4.953);
#911=LINE('',#908,#910);
#912=EDGE_CURVE('',#898,#907,#911,.T.);
#913=ORIENTED_EDGE('',*,*,#912,.T.);
#914=CARTESIAN_POINT('',(7.776507E-017,1.27,4.953));
#915=DIRECTION('',(0.0,0.0,-1.0));
#916=DIRECTION('',(0.0,1.0,0.0));
#917=AXIS2_PLACEMENT_3D('',#914,#915,#916);
#918=CIRCLE('',#917,0.5);
#919=EDGE_CURVE('',#890,#907,#918,.T.);
#920=ORIENTED_EDGE('',*,*,#919,.F.);
#921=EDGE_LOOP('',(#896,#905,#913,#920));
#922=FACE_OUTER_BOUND('',#921,.T.);
#923=ADVANCED_FACE('',(#922),#886,.F.);
#924=CARTESIAN_POINT('',(7.776507E-017,1.27,0.0));
#925=DIRECTION('',(0.0,0.0,1.0));
#926=DIRECTION('',(0.0,1.0,0.0));
#927=AXIS2_PLACEMENT_3D('',#924,#925,#926);
#928=CYLINDRICAL_SURFACE('',#927,0.5);
#929=ORIENTED_EDGE('',*,*,#895,.T.);
#930=CARTESIAN_POINT('',(7.776507E-017,1.27,4.953));
#931=DIRECTION('',(0.0,0.0,-1.0));
#932=DIRECTION('',(0.0,1.0,0.0));
#933=AXIS2_PLACEMENT_3D('',#930,#931,#932);
#934=CIRCLE('',#933,0.5);
#935=EDGE_CURVE('',#907,#890,#934,.T.);
#936=ORIENTED_EDGE('',*,*,#935,.F.);
#937=ORIENTED_EDGE('',*,*,#912,.F.);
#938=CARTESIAN_POINT('',(7.776507E-017,1.27,0.0));
#939=DIRECTION('',(0.0,0.0,1.0));
#940=DIRECTION('',(0.0,1.0,0.0));
#941=AXIS2_PLACEMENT_3D('',#938,#939,#940);
#942=CIRCLE('',#941,0.5);
#943=EDGE_CURVE('',#888,#898,#942,.T.);
#944=ORIENTED_EDGE('',*,*,#943,.F.);
#945=EDGE_LOOP('',(#929,#936,#937,#944));
#946=FACE_OUTER_BOUND('',#945,.T.);
#947=ADVANCED_FACE('',(#946),#928,.F.);
#948=CARTESIAN_POINT('',(7.776507E-017,1.27,0.0));
#949=DIRECTION('',(0.0,0.0,1.0));
#950=DIRECTION('',(0.0,1.0,0.0));
#951=AXIS2_PLACEMENT_3D('',#948,#949,#950);
#952=CYLINDRICAL_SURFACE('',#951,0.7235);
#953=ORIENTED_EDGE('',*,*,#853,.T.);
#954=CARTESIAN_POINT('',(7.776507E-017,1.27,0.0));
#955=DIRECTION('',(0.0,0.0,1.0));
#956=DIRECTION('',(0.0,1.0,0.0));
#957=AXIS2_PLACEMENT_3D('',#954,#955,#956);
#958=CIRCLE('',#957,0.7235);
#959=EDGE_CURVE('',#848,#865,#958,.T.);
#960=ORIENTED_EDGE('',*,*,#959,.T.);
#961=ORIENTED_EDGE('',*,*,#870,.F.);
#962=CARTESIAN_POINT('',(7.776507E-017,1.27,4.953));
#963=DIRECTION('',(0.0,0.0,-1.0));
#964=DIRECTION('',(0.0,1.0,0.0));
#965=AXIS2_PLACEMENT_3D('',#962,#963,#964);
#966=CIRCLE('',#965,0.7235);
#967=EDGE_CURVE('',#856,#846,#966,.T.);
#968=ORIENTED_EDGE('',*,*,#967,.T.);
#969=EDGE_LOOP('',(#953,#960,#961,#968));
#970=FACE_OUTER_BOUND('',#969,.T.);
#971=ADVANCED_FACE('',(#970),#952,.T.);
#972=CARTESIAN_POINT('',(7.776507E-017,1.27,0.0));
#973=DIRECTION('',(0.0,0.0,1.0));
#974=DIRECTION('',(0.0,1.0,0.0));
#975=AXIS2_PLACEMENT_3D('',#972,#973,#974);
#976=PLANE('',#975);
#977=ORIENTED_EDGE('',*,*,#959,.F.);
#978=ORIENTED_EDGE('',*,*,#877,.F.);
#979=EDGE_LOOP('',(#977,#978));
#980=FACE_OUTER_BOUND('',#979,.T.);
#981=ORIENTED_EDGE('',*,*,#943,.T.);
#982=ORIENTED_EDGE('',*,*,#904,.T.);
#983=EDGE_LOOP('',(#981,#982));
#984=FACE_BOUND('',#983,.T.);
#985=ADVANCED_FACE('',(#980,#984),#976,.F.);
#986=CARTESIAN_POINT('',(7.776507E-017,1.27,4.953));
#987=DIRECTION('',(0.0,0.0,1.0));
#988=DIRECTION('',(0.0,1.0,0.0));
#989=AXIS2_PLACEMENT_3D('',#986,#987,#988);
#990=PLANE('',#989);
#991=ORIENTED_EDGE('',*,*,#862,.F.);
#992=ORIENTED_EDGE('',*,*,#967,.F.);
#993=EDGE_LOOP('',(#991,#992));
#994=FACE_OUTER_BOUND('',#993,.T.);
#995=ORIENTED_EDGE('',*,*,#919,.T.);
#996=ORIENTED_EDGE('',*,*,#935,.T.);
#997=EDGE_LOOP('',(#995,#996));
#998=FACE_BOUND('',#997,.T.);
#999=ADVANCED_FACE('',(#994,#998),#990,.T.);
#1000=CLOSED_SHELL('',(#881,#923,#947,#971,#985,#999));
#1001=MANIFOLD_SOLID_BREP('21F4',#1000);
#1002=STYLED_ITEM('NONE',(#337),#1001);
#1003=CARTESIAN_POINT('',(-7.776507E-017,-1.27,0.0));
#1004=DIRECTION('',(0.0,0.0,1.0));
#1005=DIRECTION('',(0.0,1.0,0.0));
#1006=AXIS2_PLACEMENT_3D('',#1003,#1004,#1005);
#1007=CYLINDRICAL_SURFACE('',#1006,0.7235);
#1008=CARTESIAN_POINT('',(-3.346347E-017,-0.5465,4.953));
#1009=VERTEX_POINT('',#1008);
#1010=CARTESIAN_POINT('',(-3.346347E-017,-0.5465,0.0));
#1011=VERTEX_POINT('',#1010);
#1012=CARTESIAN_POINT('',(-3.346347E-017,-0.5465,4.953));
#1013=DIRECTION('',(0.0,0.0,-1.0));
#1014=VECTOR('',#1013,4.953);
#1015=LINE('',#1012,#1014);
#1016=EDGE_CURVE('',#1009,#1011,#1015,.T.);
#1017=ORIENTED_EDGE('',*,*,#1016,.F.);
#1018=CARTESIAN_POINT('',(-3.346347E-017,-1.9935,4.953));
#1019=VERTEX_POINT('',#1018);
#1020=CARTESIAN_POINT('',(-7.776507E-017,-1.27,4.953));
#1021=DIRECTION('',(0.0,0.0,-1.0));
#1022=DIRECTION('',(0.0,1.0,0.0));
#1023=AXIS2_PLACEMENT_3D('',#1020,#1021,#1022);
#1024=CIRCLE('',#1023,0.7235);
#1025=EDGE_CURVE('',#1009,#1019,#1024,.T.);
#1026=ORIENTED_EDGE('',*,*,#1025,.T.);
#1027=CARTESIAN_POINT('',(-3.346347E-017,-1.9935,0.0));
#1028=VERTEX_POINT('',#1027);
#1029=CARTESIAN_POINT('',(-3.346347E-017,-1.9935,4.953));
#1030=DIRECTION('',(0.0,0.0,-1.0));
#1031=VECTOR('',#1030,4.953);
#1032=LINE('',#1029,#1031);
#1033=EDGE_CURVE('',#1019,#1028,#1032,.T.);
#1034=ORIENTED_EDGE('',*,*,#1033,.T.);
#1035=CARTESIAN_POINT('',(-7.776507E-017,-1.27,0.0));
#1036=DIRECTION('',(0.0,0.0,1.0));
#1037=DIRECTION('',(0.0,1.0,0.0));
#1038=AXIS2_PLACEMENT_3D('',#1035,#1036,#1037);
#1039=CIRCLE('',#1038,0.7235);
#1040=EDGE_CURVE('',#1028,#1011,#1039,.T.);
#1041=ORIENTED_EDGE('',*,*,#1040,.T.);
#1042=EDGE_LOOP('',(#1017,#1026,#1034,#1041));
#1043=FACE_OUTER_BOUND('',#1042,.T.);
#1044=ADVANCED_FACE('',(#1043),#1007,.T.);
#1045=CARTESIAN_POINT('',(-7.776507E-017,-1.27,0.0));
#1046=DIRECTION('',(0.0,0.0,1.0));
#1047=DIRECTION('',(0.0,1.0,0.0));
#1048=AXIS2_PLACEMENT_3D('',#1045,#1046,#1047);
#1049=CYLINDRICAL_SURFACE('',#1048,0.5);
#1050=CARTESIAN_POINT('',(-4.714890E-017,-0.77,0.0));
#1051=VERTEX_POINT('',#1050);
#1052=CARTESIAN_POINT('',(-4.714890E-017,-0.77,4.953));
#1053=VERTEX_POINT('',#1052);
#1054=CARTESIAN_POINT('',(-4.714890E-017,-0.77,0.0));
#1055=DIRECTION('',(0.0,0.0,1.0));
#1056=VECTOR('',#1055,4.953);
#1057=LINE('',#1054,#1056);
#1058=EDGE_CURVE('',#1051,#1053,#1057,.T.);
#1059=ORIENTED_EDGE('',*,*,#1058,.F.);
#1060=CARTESIAN_POINT('',(-4.714890E-017,-1.77,0.0));
#1061=VERTEX_POINT('',#1060);
#1062=CARTESIAN_POINT('',(-7.776507E-017,-1.27,0.0));
#1063=DIRECTION('',(0.0,0.0,1.0));
#1064=DIRECTION('',(0.0,1.0,0.0));
#1065=AXIS2_PLACEMENT_3D('',#1062,#1063,#1064);
#1066=CIRCLE('',#1065,0.5);
#1067=EDGE_CURVE('',#1061,#1051,#1066,.T.);
#1068=ORIENTED_EDGE('',*,*,#1067,.F.);
#1069=CARTESIAN_POINT('',(-4.714890E-017,-1.77,4.953));
#1070=VERTEX_POINT('',#1069);
#1071=CARTESIAN_POINT('',(-4.714890E-017,-1.77,0.0));
#1072=DIRECTION('',(0.0,0.0,1.0));
#1073=VECTOR('',#1072,4.953);
#1074=LINE('',#1071,#1073);
#1075=EDGE_CURVE('',#1061,#1070,#1074,.T.);
#1076=ORIENTED_EDGE('',*,*,#1075,.T.);
#1077=CARTESIAN_POINT('',(-7.776507E-017,-1.27,4.953));
#1078=DIRECTION('',(0.0,0.0,-1.0));
#1079=DIRECTION('',(0.0,1.0,0.0));
#1080=AXIS2_PLACEMENT_3D('',#1077,#1078,#1079);
#1081=CIRCLE('',#1080,0.5);
#1082=EDGE_CURVE('',#1053,#1070,#1081,.T.);
#1083=ORIENTED_EDGE('',*,*,#1082,.F.);
#1084=EDGE_LOOP('',(#1059,#1068,#1076,#1083));
#1085=FACE_OUTER_BOUND('',#1084,.T.);
#1086=ADVANCED_FACE('',(#1085),#1049,.F.);
#1087=CARTESIAN_POINT('',(-7.776507E-017,-1.27,0.0));
#1088=DIRECTION('',(0.0,0.0,1.0));
#1089=DIRECTION('',(0.0,1.0,0.0));
#1090=AXIS2_PLACEMENT_3D('',#1087,#1088,#1089);
#1091=CYLINDRICAL_SURFACE('',#1090,0.5);
#1092=ORIENTED_EDGE('',*,*,#1058,.T.);
#1093=CARTESIAN_POINT('',(-7.776507E-017,-1.27,4.953));
#1094=DIRECTION('',(0.0,0.0,-1.0));
#1095=DIRECTION('',(0.0,1.0,0.0));
#1096=AXIS2_PLACEMENT_3D('',#1093,#1094,#1095);
#1097=CIRCLE('',#1096,0.5);
#1098=EDGE_CURVE('',#1070,#1053,#1097,.T.);
#1099=ORIENTED_EDGE('',*,*,#1098,.F.);
#1100=ORIENTED_EDGE('',*,*,#1075,.F.);
#1101=CARTESIAN_POINT('',(-7.776507E-017,-1.27,0.0));
#1102=DIRECTION('',(0.0,0.0,1.0));
#1103=DIRECTION('',(0.0,1.0,0.0));
#1104=AXIS2_PLACEMENT_3D('',#1101,#1102,#1103);
#1105=CIRCLE('',#1104,0.5);
#1106=EDGE_CURVE('',#1051,#1061,#1105,.T.);
#1107=ORIENTED_EDGE('',*,*,#1106,.F.);
#1108=EDGE_LOOP('',(#1092,#1099,#1100,#1107));
#1109=FACE_OUTER_BOUND('',#1108,.T.);
#1110=ADVANCED_FACE('',(#1109),#1091,.F.);
#1111=CARTESIAN_POINT('',(-7.776507E-017,-1.27,0.0));
#1112=DIRECTION('',(0.0,0.0,1.0));
#1113=DIRECTION('',(0.0,1.0,0.0));
#1114=AXIS2_PLACEMENT_3D('',#1111,#1112,#1113);
#1115=CYLINDRICAL_SURFACE('',#1114,0.7235);
#1116=ORIENTED_EDGE('',*,*,#1016,.T.);
#1117=CARTESIAN_POINT('',(-7.776507E-017,-1.27,0.0));
#1118=DIRECTION('',(0.0,0.0,1.0));
#1119=DIRECTION('',(0.0,1.0,0.0));
#1120=AXIS2_PLACEMENT_3D('',#1117,#1118,#1119);
#1121=CIRCLE('',#1120,0.7235);
#1122=EDGE_CURVE('',#1011,#1028,#1121,.T.);
#1123=ORIENTED_EDGE('',*,*,#1122,.T.);
#1124=ORIENTED_EDGE('',*,*,#1033,.F.);
#1125=CARTESIAN_POINT('',(-7.776507E-017,-1.27,4.953));
#1126=DIRECTION('',(0.0,0.0,-1.0));
#1127=DIRECTION('',(0.0,1.0,0.0));
#1128=AXIS2_PLACEMENT_3D('',#1125,#1126,#1127);
#1129=CIRCLE('',#1128,0.7235);
#1130=EDGE_CURVE('',#1019,#1009,#1129,.T.);
#1131=ORIENTED_EDGE('',*,*,#1130,.T.);
#1132=EDGE_LOOP('',(#1116,#1123,#1124,#1131));
#1133=FACE_OUTER_BOUND('',#1132,.T.);
#1134=ADVANCED_FACE('',(#1133),#1115,.T.);
#1135=CARTESIAN_POINT('',(-7.776507E-017,-1.27,0.0));
#1136=DIRECTION('',(0.0,0.0,1.0));
#1137=DIRECTION('',(0.0,1.0,0.0));
#1138=AXIS2_PLACEMENT_3D('',#1135,#1136,#1137);
#1139=PLANE('',#1138);
#1140=ORIENTED_EDGE('',*,*,#1122,.F.);
#1141=ORIENTED_EDGE('',*,*,#1040,.F.);
#1142=EDGE_LOOP('',(#1140,#1141));
#1143=FACE_OUTER_BOUND('',#1142,.T.);
#1144=ORIENTED_EDGE('',*,*,#1106,.T.);
#1145=ORIENTED_EDGE('',*,*,#1067,.T.);
#1146=EDGE_LOOP('',(#1144,#1145));
#1147=FACE_BOUND('',#1146,.T.);
#1148=ADVANCED_FACE('',(#1143,#1147),#1139,.F.);
#1149=CARTESIAN_POINT('',(-7.776507E-017,-1.27,4.953));
#1150=DIRECTION('',(0.0,0.0,1.0));
#1151=DIRECTION('',(0.0,1.0,0.0));
#1152=AXIS2_PLACEMENT_3D('',#1149,#1150,#1151);
#1153=PLANE('',#1152);
#1154=ORIENTED_EDGE('',*,*,#1025,.F.);
#1155=ORIENTED_EDGE('',*,*,#1130,.F.);
#1156=EDGE_LOOP('',(#1154,#1155));
#1157=FACE_OUTER_BOUND('',#1156,.T.);
#1158=ORIENTED_EDGE('',*,*,#1082,.T.);
#1159=ORIENTED_EDGE('',*,*,#1098,.T.);
#1160=EDGE_LOOP('',(#1158,#1159));
#1161=FACE_BOUND('',#1160,.T.);
#1162=ADVANCED_FACE('',(#1157,#1161),#1153,.T.);
#1163=CLOSED_SHELL('',(#1044,#1086,#1110,#1134,#1148,#1162));
#1164=MANIFOLD_SOLID_BREP('21E0',#1163);
#1165=STYLED_ITEM('NONE',(#337),#1164);
#1166=CARTESIAN_POINT('',(-1.27,7.776507E-017,0.0));
#1167=DIRECTION('',(0.0,0.0,1.0));
#1168=DIRECTION('',(0.0,1.0,0.0));
#1169=AXIS2_PLACEMENT_3D('',#1166,#1167,#1168);
#1170=CYLINDRICAL_SURFACE('',#1169,0.7235);
#1171=CARTESIAN_POINT('',(-1.27,0.7235,0.0));
#1172=VERTEX_POINT('',#1171);
#1173=CARTESIAN_POINT('',(-1.27,0.7235,4.953));
#1174=VERTEX_POINT('',#1173);
#1175=CARTESIAN_POINT('',(-1.27,0.7235,0.0));
#1176=DIRECTION('',(0.0,0.0,1.0));
#1177=VECTOR('',#1176,4.953);
#1178=LINE('',#1175,#1177);
#1179=EDGE_CURVE('',#1172,#1174,#1178,.T.);
#1180=ORIENTED_EDGE('',*,*,#1179,.F.);
#1181=CARTESIAN_POINT('',(-1.27,-0.7235,0.0));
#1182=VERTEX_POINT('',#1181);
#1183=CARTESIAN_POINT('',(-1.27,7.776507E-017,0.0));
#1184=DIRECTION('',(0.0,0.0,1.0));
#1185=DIRECTION('',(0.0,1.0,0.0));
#1186=AXIS2_PLACEMENT_3D('',#1183,#1184,#1185);
#1187=CIRCLE('',#1186,0.7235);
#1188=EDGE_CURVE('',#1182,#1172,#1187,.T.);
#1189=ORIENTED_EDGE('',*,*,#1188,.F.);
#1190=CARTESIAN_POINT('',(-1.27,-0.7235,4.953));
#1191=VERTEX_POINT('',#1190);
#1192=CARTESIAN_POINT('',(-1.27,-0.7235,0.0));
#1193=DIRECTION('',(0.0,0.0,1.0));
#1194=VECTOR('',#1193,4.953);
#1195=LINE('',#1192,#1194);
#1196=EDGE_CURVE('',#1182,#1191,#1195,.T.);
#1197=ORIENTED_EDGE('',*,*,#1196,.T.);
#1198=CARTESIAN_POINT('',(-1.27,7.776507E-017,4.953));
#1199=DIRECTION('',(0.0,0.0,-1.0));
#1200=DIRECTION('',(0.0,1.0,0.0));
#1201=AXIS2_PLACEMENT_3D('',#1198,#1199,#1200);
#1202=CIRCLE('',#1201,0.7235);
#1203=EDGE_CURVE('',#1174,#1191,#1202,.T.);
#1204=ORIENTED_EDGE('',*,*,#1203,.F.);
#1205=EDGE_LOOP('',(#1180,#1189,#1197,#1204));
#1206=FACE_OUTER_BOUND('',#1205,.T.);
#1207=ADVANCED_FACE('',(#1206),#1170,.F.);
#1208=CARTESIAN_POINT('',(7.776507E-017,1.27,0.0));
#1209=DIRECTION('',(0.0,0.0,1.0));
#1210=DIRECTION('',(0.0,1.0,0.0));
#1211=AXIS2_PLACEMENT_3D('',#1208,#1209,#1210);
#1212=CYLINDRICAL_SURFACE('',#1211,0.7235);
#1213=CARTESIAN_POINT('',(1.220667E-016,1.9935,0.0));
#1214=VERTEX_POINT('',#1213);
#1215=CARTESIAN_POINT('',(1.220667E-016,1.9935,4.953));
#1216=VERTEX_POINT('',#1215);
#1217=CARTESIAN_POINT('',(1.104437E-017,1.9935,0.0));
#1218=DIRECTION('',(0.0,0.0,1.0));
#1219=VECTOR('',#1218,4.953);
#1220=LINE('',#1217,#1219);
#1221=EDGE_CURVE('',#1214,#1216,#1220,.T.);
#1222=ORIENTED_EDGE('',*,*,#1221,.F.);
#1223=CARTESIAN_POINT('',(2.330890E-016,0.5465,0.0));
#1224=VERTEX_POINT('',#1223);
#1225=CARTESIAN_POINT('',(7.776507E-017,1.27,0.0));
#1226=DIRECTION('',(0.0,0.0,1.0));
#1227=DIRECTION('',(0.0,1.0,0.0));
#1228=AXIS2_PLACEMENT_3D('',#1225,#1226,#1227);
#1229=CIRCLE('',#1228,0.7235);
#1230=EDGE_CURVE('',#1224,#1214,#1229,.T.);
#1231=ORIENTED_EDGE('',*,*,#1230,.F.);
#1232=CARTESIAN_POINT('',(2.330890E-016,0.5465,4.953));
#1233=VERTEX_POINT('',#1232);
#1234=CARTESIAN_POINT('',(2.330890E-016,0.5465,0.0));
#1235=DIRECTION('',(0.0,0.0,1.0));
#1236=VECTOR('',#1235,4.953);
#1237=LINE('',#1234,#1236);
#1238=EDGE_CURVE('',#1224,#1233,#1237,.T.);
#1239=ORIENTED_EDGE('',*,*,#1238,.T.);
#1240=CARTESIAN_POINT('',(7.776507E-017,1.27,4.953));
#1241=DIRECTION('',(0.0,0.0,-1.0));
#1242=DIRECTION('',(0.0,1.0,0.0));
#1243=AXIS2_PLACEMENT_3D('',#1240,#1241,#1242);
#1244=CIRCLE('',#1243,0.7235);
#1245=EDGE_CURVE('',#1216,#1233,#1244,.T.);
#1246=ORIENTED_EDGE('',*,*,#1245,.F.);
#1247=EDGE_LOOP('',(#1222,#1231,#1239,#1246));
#1248=FACE_OUTER_BOUND('',#1247,.T.);
#1249=ADVANCED_FACE('',(#1248),#1212,.F.);
#1250=CARTESIAN_POINT('',(-7.776507E-017,-1.27,0.0));
#1251=DIRECTION('',(0.0,0.0,1.0));
#1252=DIRECTION('',(0.0,1.0,0.0));
#1253=AXIS2_PLACEMENT_3D('',#1250,#1251,#1252);
#1254=CYLINDRICAL_SURFACE('',#1253,0.7235);
#1255=CARTESIAN_POINT('',(-3.346347E-017,-0.5465,0.0));
#1256=VERTEX_POINT('',#1255);
#1257=CARTESIAN_POINT('',(-3.346347E-017,-0.5465,4.953));
#1258=VERTEX_POINT('',#1257);
#1259=CARTESIAN_POINT('',(-1.444858E-016,-0.5465,0.0));
#1260=DIRECTION('',(0.0,0.0,1.0));
#1261=VECTOR('',#1260,4.953);
#1262=LINE('',#1259,#1261);
#1263=EDGE_CURVE('',#1256,#1258,#1262,.T.);
#1264=ORIENTED_EDGE('',*,*,#1263,.F.);
#1265=CARTESIAN_POINT('',(7.755883E-017,-1.9935,0.0));
#1266=VERTEX_POINT('',#1265);
#1267=CARTESIAN_POINT('',(-7.776507E-017,-1.27,0.0));
#1268=DIRECTION('',(0.0,0.0,1.0));
#1269=DIRECTION('',(0.0,1.0,0.0));
#1270=AXIS2_PLACEMENT_3D('',#1267,#1268,#1269);
#1271=CIRCLE('',#1270,0.7235);
#1272=EDGE_CURVE('',#1266,#1256,#1271,.T.);
#1273=ORIENTED_EDGE('',*,*,#1272,.F.);
#1274=CARTESIAN_POINT('',(7.755883E-017,-1.9935,4.953));
#1275=VERTEX_POINT('',#1274);
#1276=CARTESIAN_POINT('',(7.755883E-017,-1.9935,0.0));
#1277=DIRECTION('',(0.0,0.0,1.0));
#1278=VECTOR('',#1277,4.953);
#1279=LINE('',#1276,#1278);
#1280=EDGE_CURVE('',#1266,#1275,#1279,.T.);
#1281=ORIENTED_EDGE('',*,*,#1280,.T.);
#1282=CARTESIAN_POINT('',(-7.776507E-017,-1.27,4.953));
#1283=DIRECTION('',(0.0,0.0,-1.0));
#1284=DIRECTION('',(0.0,1.0,0.0));
#1285=AXIS2_PLACEMENT_3D('',#1282,#1283,#1284);
#1286=CIRCLE('',#1285,0.7235);
#1287=EDGE_CURVE('',#1258,#1275,#1286,.T.);
#1288=ORIENTED_EDGE('',*,*,#1287,.F.);
#1289=EDGE_LOOP('',(#1264,#1273,#1281,#1288));
#1290=FACE_OUTER_BOUND('',#1289,.T.);
#1291=ADVANCED_FACE('',(#1290),#1254,.F.);
#1292=CARTESIAN_POINT('',(0.0,0.0,2.4765));
#1293=DIRECTION('',(0.0,0.0,1.0));
#1294=DIRECTION('',(0.0,1.0,0.0));
#1295=AXIS2_PLACEMENT_3D('',#1292,#1293,#1294);
#1296=CYLINDRICAL_SURFACE('',#1295,3.2385);
#1297=CARTESIAN_POINT('',(-4.678329E-016,3.2385,4.853000000000001));
#1298=VERTEX_POINT('',#1297);
#1299=CARTESIAN_POINT('',(4.203455E-016,3.2385,0.0));
#1300=VERTEX_POINT('',#1299);
#1301=CARTESIAN_POINT('',(4.203455E-016,3.2385,4.853000000000001));
#1302=DIRECTION('',(0.0,0.0,-1.0));
#1303=VECTOR('',#1302,4.853000000000001);
#1304=LINE('',#1301,#1303);
#1305=EDGE_CURVE('',#1298,#1300,#1304,.T.);
#1306=ORIENTED_EDGE('',*,*,#1305,.F.);
#1307=CARTESIAN_POINT('',(2.527522E-016,-3.2385,4.853000000000001));
#1308=VERTEX_POINT('',#1307);
#1309=CARTESIAN_POINT('',(0.0,0.0,4.853000000000001));
#1310=DIRECTION('',(0.0,0.0,1.0));
#1311=DIRECTION('',(0.0,-1.0,0.0));
#1312=AXIS2_PLACEMENT_3D('',#1309,#1310,#1311);
#1313=CIRCLE('',#1312,3.2385);
#1314=EDGE_CURVE('',#1308,#1298,#1313,.T.);
#1315=ORIENTED_EDGE('',*,*,#1314,.F.);
#1316=CARTESIAN_POINT('',(-2.374367E-017,-3.2385,0.0));
#1317=VERTEX_POINT('',#1316);
#1318=CARTESIAN_POINT('',(-2.374367E-017,-3.2385,4.853000000000001));
#1319=DIRECTION('',(0.0,0.0,-1.0));
#1320=VECTOR('',#1319,4.853000000000001);
#1321=LINE('',#1318,#1320);
#1322=EDGE_CURVE('',#1308,#1317,#1321,.T.);
#1323=ORIENTED_EDGE('',*,*,#1322,.T.);
#1324=CARTESIAN_POINT('',(0.0,0.0,0.0));
#1325=DIRECTION('',(0.0,0.0,-1.0));
#1326=DIRECTION('',(0.0,1.0,0.0));
#1327=AXIS2_PLACEMENT_3D('',#1324,#1325,#1326);
#1328=CIRCLE('',#1327,3.2385);
#1329=EDGE_CURVE('',#1300,#1317,#1328,.T.);
#1330=ORIENTED_EDGE('',*,*,#1329,.F.);
#1331=EDGE_LOOP('',(#1306,#1315,#1323,#1330));
#1332=FACE_OUTER_BOUND('',#1331,.T.);
#1333=ADVANCED_FACE('',(#1332),#1296,.T.);
#1334=CARTESIAN_POINT('',(0.0,0.0,4.903000000000001));
#1335=DIRECTION('',(0.0,0.0,-1.0));
#1336=DIRECTION('',(0.0,-1.0,0.0));
#1337=AXIS2_PLACEMENT_3D('',#1334,#1335,#1336);
#1338=CONICAL_SURFACE('',#1337,3.1885,45.000000000000135);
#1339=CARTESIAN_POINT('',(2.449476E-016,-3.1385,4.953));
#1340=VERTEX_POINT('',#1339);
#1341=CARTESIAN_POINT('',(2.449476E-016,-3.1385,4.953));
#1342=DIRECTION('',(5.518691E-017,-0.707106781186549,-0.707106781186546));
#1343=VECTOR('',#1342,0.141421356237309);
#1344=LINE('',#1341,#1343);
#1345=EDGE_CURVE('',#1340,#1308,#1344,.T.);
#1346=ORIENTED_EDGE('',*,*,#1345,.F.);
#1347=CARTESIAN_POINT('',(1.080356E-015,3.1385,4.953));
#1348=VERTEX_POINT('',#1347);
#1349=CARTESIAN_POINT('',(0.0,0.0,4.953));
#1350=DIRECTION('',(0.0,0.0,-1.0));
#1351=DIRECTION('',(0.0,-1.0,0.0));
#1352=AXIS2_PLACEMENT_3D('',#1349,#1350,#1351);
#1353=CIRCLE('',#1352,3.1385);
#1354=EDGE_CURVE('',#1340,#1348,#1353,.T.);
#1355=ORIENTED_EDGE('',*,*,#1354,.T.);
#1356=CARTESIAN_POINT('',(-6.293030E-016,3.1385,4.953));
#1357=DIRECTION('',(-1.417825E-016,0.707106781186549,-0.707106781186546));
#1358=VECTOR('',#1357,0.141421356237309);
#1359=LINE('',#1356,#1358);
#1360=EDGE_CURVE('',#1348,#1298,#1359,.T.);
#1361=ORIENTED_EDGE('',*,*,#1360,.T.);
#1362=CARTESIAN_POINT('',(0.0,0.0,4.853000000000001));
#1363=DIRECTION('',(0.0,0.0,1.0));
#1364=DIRECTION('',(0.0,-1.0,0.0));
#1365=AXIS2_PLACEMENT_3D('',#1362,#1363,#1364);
#1366=CIRCLE('',#1365,3.2385);
#1367=EDGE_CURVE('',#1298,#1308,#1366,.T.);
#1368=ORIENTED_EDGE('',*,*,#1367,.T.);
#1369=EDGE_LOOP('',(#1346,#1355,#1361,#1368));
#1370=FACE_OUTER_BOUND('',#1369,.T.);
#1371=ADVANCED_FACE('',(#1370),#1338,.T.);
#1372=CARTESIAN_POINT('',(1.789965310872634,1.789965310872634,4.953));
#1373=DIRECTION('',(0.0,0.0,-1.0));
#1374=DIRECTION('',(0.0,1.0,0.0));
#1375=AXIS2_PLACEMENT_3D('',#1372,#1373,#1374);
#1376=CYLINDRICAL_SURFACE('',#1375,0.3);
#1377=CARTESIAN_POINT('',(1.789965310872635,2.089965310872634,4.953));
#1378=VERTEX_POINT('',#1377);
#1379=CARTESIAN_POINT('',(1.789965310872635,2.089965310872634,4.903000000000001));
#1380=VERTEX_POINT('',#1379);
#1381=CARTESIAN_POINT('',(1.789965310872634,2.089965310872634,4.953));
#1382=DIRECTION('',(0.0,0.0,-1.0));
#1383=VECTOR('',#1382,0.05);
#1384=LINE('',#1381,#1383);
#1385=EDGE_CURVE('',#1378,#1380,#1384,.T.);
#1386=ORIENTED_EDGE('',*,*,#1385,.F.);
#1387=CARTESIAN_POINT('',(1.789965310872634,1.489965310872634,4.953));
#1388=VERTEX_POINT('',#1387);
#1389=CARTESIAN_POINT('',(1.789965310872634,1.789965310872634,4.953));
#1390=DIRECTION('',(0.0,0.0,-1.0));
#1391=DIRECTION('',(0.0,1.0,0.0));
#1392=AXIS2_PLACEMENT_3D('',#1389,#1390,#1391);
#1393=CIRCLE('',#1392,0.3);
#1394=EDGE_CURVE('',#1388,#1378,#1393,.T.);
#1395=ORIENTED_EDGE('',*,*,#1394,.F.);
#1396=CARTESIAN_POINT('',(1.789965310872634,1.489965310872634,4.903000000000001));
#1397=VERTEX_POINT('',#1396);
#1398=CARTESIAN_POINT('',(1.789965310872634,1.489965310872634,4.953));
#1399=DIRECTION('',(0.0,0.0,-1.0));
#1400=VECTOR('',#1399,0.05);
#1401=LINE('',#1398,#1400);
#1402=EDGE_CURVE('',#1388,#1397,#1401,.T.);
#1403=ORIENTED_EDGE('',*,*,#1402,.T.);
#1404=CARTESIAN_POINT('',(1.789965310872634,1.789965310872634,4.903000000000001));
#1405=DIRECTION('',(0.0,0.0,1.0));
#1406=DIRECTION('',(0.0,1.0,0.0));
#1407=AXIS2_PLACEMENT_3D('',#1404,#1405,#1406);
#1408=CIRCLE('',#1407,0.3);
#1409=EDGE_CURVE('',#1380,#1397,#1408,.T.);
#1410=ORIENTED_EDGE('',*,*,#1409,.F.);
#1411=EDGE_LOOP('',(#1386,#1395,#1403,#1410));
#1412=FACE_OUTER_BOUND('',#1411,.T.);
#1413=ADVANCED_FACE('',(#1412),#1376,.F.);
#1414=CARTESIAN_POINT('',(1.789965310872634,1.789965310872634,4.953));
#1415=DIRECTION('',(0.0,0.0,-1.0));
#1416=DIRECTION('',(0.0,1.0,0.0));
#1417=AXIS2_PLACEMENT_3D('',#1414,#1415,#1416);
#1418=CYLINDRICAL_SURFACE('',#1417,0.3);
#1419=ORIENTED_EDGE('',*,*,#1385,.T.);
#1420=CARTESIAN_POINT('',(1.789965310872634,1.789965310872634,4.903000000000001));
#1421=DIRECTION('',(0.0,0.0,1.0));
#1422=DIRECTION('',(0.0,1.0,0.0));
#1423=AXIS2_PLACEMENT_3D('',#1420,#1421,#1422);
#1424=CIRCLE('',#1423,0.3);
#1425=EDGE_CURVE('',#1397,#1380,#1424,.T.);
#1426=ORIENTED_EDGE('',*,*,#1425,.F.);
#1427=ORIENTED_EDGE('',*,*,#1402,.F.);
#1428=CARTESIAN_POINT('',(1.789965310872634,1.789965310872634,4.953));
#1429=DIRECTION('',(0.0,0.0,-1.0));
#1430=DIRECTION('',(0.0,1.0,0.0));
#1431=AXIS2_PLACEMENT_3D('',#1428,#1429,#1430);
#1432=CIRCLE('',#1431,0.3);
#1433=EDGE_CURVE('',#1378,#1388,#1432,.T.);
#1434=ORIENTED_EDGE('',*,*,#1433,.F.);
#1435=EDGE_LOOP('',(#1419,#1426,#1427,#1434));
#1436=FACE_OUTER_BOUND('',#1435,.T.);
#1437=ADVANCED_FACE('',(#1436),#1418,.F.);
#1438=CARTESIAN_POINT('',(1.789965310872634,1.789965310872634,4.903000000000001));
#1439=DIRECTION('',(0.0,0.0,1.0));
#1440=DIRECTION('',(0.0,1.0,0.0));
#1441=AXIS2_PLACEMENT_3D('',#1438,#1439,#1440);
#1442=PLANE('',#1441);
#1443=ORIENTED_EDGE('',*,*,#1409,.T.);
#1444=ORIENTED_EDGE('',*,*,#1425,.T.);
#1445=EDGE_LOOP('',(#1443,#1444));
#1446=FACE_OUTER_BOUND('',#1445,.T.);
#1447=ADVANCED_FACE('',(#1446),#1442,.T.);
#1448=CARTESIAN_POINT('',(0.0,0.0,4.903000000000001));
#1449=DIRECTION('',(0.0,0.0,-1.0));
#1450=DIRECTION('',(0.0,-1.0,0.0));
#1451=AXIS2_PLACEMENT_3D('',#1448,#1449,#1450);
#1452=CONICAL_SURFACE('',#1451,3.1885,45.000000000000135);
#1453=ORIENTED_EDGE('',*,*,#1345,.T.);
#1454=ORIENTED_EDGE('',*,*,#1314,.T.);
#1455=ORIENTED_EDGE('',*,*,#1360,.F.);
#1456=CARTESIAN_POINT('',(0.0,0.0,4.953));
#1457=DIRECTION('',(0.0,0.0,-1.0));
#1458=DIRECTION('',(0.0,-1.0,0.0));
#1459=AXIS2_PLACEMENT_3D('',#1456,#1457,#1458);
#1460=CIRCLE('',#1459,3.1385);
#1461=EDGE_CURVE('',#1348,#1340,#1460,.T.);
#1462=ORIENTED_EDGE('',*,*,#1461,.T.);
#1463=EDGE_LOOP('',(#1453,#1454,#1455,#1462));
#1464=FACE_OUTER_BOUND('',#1463,.T.);
#1465=ADVANCED_FACE('',(#1464),#1452,.T.);
#1466=CARTESIAN_POINT('',(0.0,0.0,2.4765));
#1467=DIRECTION('',(0.0,0.0,1.0));
#1468=DIRECTION('',(0.0,1.0,0.0));
#1469=AXIS2_PLACEMENT_3D('',#1466,#1467,#1468);
#1470=CYLINDRICAL_SURFACE('',#1469,3.2385);
#1471=ORIENTED_EDGE('',*,*,#1305,.T.);
#1472=CARTESIAN_POINT('',(0.0,0.0,0.0));
#1473=DIRECTION('',(0.0,0.0,-1.0));
#1474=DIRECTION('',(0.0,1.0,0.0));
#1475=AXIS2_PLACEMENT_3D('',#1472,#1473,#1474);
#1476=CIRCLE('',#1475,3.2385);
#1477=EDGE_CURVE('',#1317,#1300,#1476,.T.);
#1478=ORIENTED_EDGE('',*,*,#1477,.F.);
#1479=ORIENTED_EDGE('',*,*,#1322,.F.);
#1480=ORIENTED_EDGE('',*,*,#1367,.F.);
#1481=EDGE_LOOP('',(#1471,#1478,#1479,#1480));
#1482=FACE_OUTER_BOUND('',#1481,.T.);
#1483=ADVANCED_FACE('',(#1482),#1470,.T.);
#1484=CARTESIAN_POINT('',(0.0,0.0,4.953));
#1485=DIRECTION('',(0.0,0.0,1.0));
#1486=DIRECTION('',(0.0,1.0,0.0));
#1487=AXIS2_PLACEMENT_3D('',#1484,#1485,#1486);
#1488=PLANE('',#1487);
#1489=ORIENTED_EDGE('',*,*,#1461,.F.);
#1490=ORIENTED_EDGE('',*,*,#1354,.F.);
#1491=EDGE_LOOP('',(#1489,#1490));
#1492=FACE_OUTER_BOUND('',#1491,.T.);
#1493=ORIENTED_EDGE('',*,*,#1433,.T.);
#1494=ORIENTED_EDGE('',*,*,#1394,.T.);
#1495=EDGE_LOOP('',(#1493,#1494));
#1496=FACE_BOUND('',#1495,.T.);
#1497=ORIENTED_EDGE('',*,*,#1203,.T.);
#1498=CARTESIAN_POINT('',(-1.27,7.776507E-017,4.953));
#1499=DIRECTION('',(0.0,0.0,-1.0));
#1500=DIRECTION('',(0.0,1.0,0.0));
#1501=AXIS2_PLACEMENT_3D('',#1498,#1499,#1500);
#1502=CIRCLE('',#1501,0.7235);
#1503=EDGE_CURVE('',#1191,#1174,#1502,.T.);
#1504=ORIENTED_EDGE('',*,*,#1503,.T.);
#1505=EDGE_LOOP('',(#1497,#1504));
#1506=FACE_BOUND('',#1505,.T.);
#1507=ORIENTED_EDGE('',*,*,#1245,.T.);
#1508=CARTESIAN_POINT('',(7.776507E-017,1.27,4.953));
#1509=DIRECTION('',(0.0,0.0,-1.0));
#1510=DIRECTION('',(0.0,1.0,0.0));
#1511=AXIS2_PLACEMENT_3D('',#1508,#1509,#1510);
#1512=CIRCLE('',#1511,0.7235);
#1513=EDGE_CURVE('',#1233,#1216,#1512,.T.);
#1514=ORIENTED_EDGE('',*,*,#1513,.T.);
#1515=EDGE_LOOP('',(#1507,#1514));
#1516=FACE_BOUND('',#1515,.T.);
#1517=ORIENTED_EDGE('',*,*,#1287,.T.);
#1518=CARTESIAN_POINT('',(-7.776507E-017,-1.27,4.953));
#1519=DIRECTION('',(0.0,0.0,-1.0));
#1520=DIRECTION('',(0.0,1.0,0.0));
#1521=AXIS2_PLACEMENT_3D('',#1518,#1519,#1520);
#1522=CIRCLE('',#1521,0.7235);
#1523=EDGE_CURVE('',#1275,#1258,#1522,.T.);
#1524=ORIENTED_EDGE('',*,*,#1523,.T.);
#1525=EDGE_LOOP('',(#1517,#1524));
#1526=FACE_BOUND('',#1525,.T.);
#1527=ADVANCED_FACE('',(#1492,#1496,#1506,#1516,#1526),#1488,.T.);
#1528=CARTESIAN_POINT('',(-7.776507E-017,-1.27,0.0));
#1529=DIRECTION('',(0.0,0.0,1.0));
#1530=DIRECTION('',(0.0,1.0,0.0));
#1531=AXIS2_PLACEMENT_3D('',#1528,#1529,#1530);
#1532=CYLINDRICAL_SURFACE('',#1531,0.7235);
#1533=ORIENTED_EDGE('',*,*,#1263,.T.);
#1534=ORIENTED_EDGE('',*,*,#1523,.F.);
#1535=ORIENTED_EDGE('',*,*,#1280,.F.);
#1536=CARTESIAN_POINT('',(-7.776507E-017,-1.27,0.0));
#1537=DIRECTION('',(0.0,0.0,1.0));
#1538=DIRECTION('',(0.0,1.0,0.0));
#1539=AXIS2_PLACEMENT_3D('',#1536,#1537,#1538);
#1540=CIRCLE('',#1539,0.7235);
#1541=EDGE_CURVE('',#1256,#1266,#1540,.T.);
#1542=ORIENTED_EDGE('',*,*,#1541,.F.);
#1543=EDGE_LOOP('',(#1533,#1534,#1535,#1542));
#1544=FACE_OUTER_BOUND('',#1543,.T.);
#1545=ADVANCED_FACE('',(#1544),#1532,.F.);
#1546=CARTESIAN_POINT('',(7.776507E-017,1.27,0.0));
#1547=DIRECTION('',(0.0,0.0,1.0));
#1548=DIRECTION('',(0.0,1.0,0.0));
#1549=AXIS2_PLACEMENT_3D('',#1546,#1547,#1548);
#1550=CYLINDRICAL_SURFACE('',#1549,0.7235);
#1551=ORIENTED_EDGE('',*,*,#1221,.T.);
#1552=ORIENTED_EDGE('',*,*,#1513,.F.);
#1553=ORIENTED_EDGE('',*,*,#1238,.F.);
#1554=CARTESIAN_POINT('',(7.776507E-017,1.27,0.0));
#1555=DIRECTION('',(0.0,0.0,1.0));
#1556=DIRECTION('',(0.0,1.0,0.0));
#1557=AXIS2_PLACEMENT_3D('',#1554,#1555,#1556);
#1558=CIRCLE('',#1557,0.7235);
#1559=EDGE_CURVE('',#1214,#1224,#1558,.T.);
#1560=ORIENTED_EDGE('',*,*,#1559,.F.);
#1561=EDGE_LOOP('',(#1551,#1552,#1553,#1560));
#1562=FACE_OUTER_BOUND('',#1561,.T.);
#1563=ADVANCED_FACE('',(#1562),#1550,.F.);
#1564=CARTESIAN_POINT('',(-1.27,7.776507E-017,0.0));
#1565=DIRECTION('',(0.0,0.0,1.0));
#1566=DIRECTION('',(0.0,1.0,0.0));
#1567=AXIS2_PLACEMENT_3D('',#1564,#1565,#1566);
#1568=CYLINDRICAL_SURFACE('',#1567,0.7235);
#1569=ORIENTED_EDGE('',*,*,#1179,.T.);
#1570=ORIENTED_EDGE('',*,*,#1503,.F.);
#1571=ORIENTED_EDGE('',*,*,#1196,.F.);
#1572=CARTESIAN_POINT('',(-1.27,7.776507E-017,0.0));
#1573=DIRECTION('',(0.0,0.0,1.0));
#1574=DIRECTION('',(0.0,1.0,0.0));
#1575=AXIS2_PLACEMENT_3D('',#1572,#1573,#1574);
#1576=CIRCLE('',#1575,0.7235);
#1577=EDGE_CURVE('',#1172,#1182,#1576,.T.);
#1578=ORIENTED_EDGE('',*,*,#1577,.F.);
#1579=EDGE_LOOP('',(#1569,#1570,#1571,#1578));
#1580=FACE_OUTER_BOUND('',#1579,.T.);
#1581=ADVANCED_FACE('',(#1580),#1568,.F.);
#1582=CARTESIAN_POINT('',(0.0,0.0,0.0));
#1583=DIRECTION('',(0.0,0.0,-1.0));
#1584=DIRECTION('',(0.0,-1.0,0.0));
#1585=AXIS2_PLACEMENT_3D('',#1582,#1583,#1584);
#1586=PLANE('',#1585);
#1587=ORIENTED_EDGE('',*,*,#1329,.T.);
#1588=ORIENTED_EDGE('',*,*,#1477,.T.);
#1589=EDGE_LOOP('',(#1587,#1588));
#1590=FACE_OUTER_BOUND('',#1589,.T.);
#1591=ORIENTED_EDGE('',*,*,#1541,.T.);
#1592=ORIENTED_EDGE('',*,*,#1272,.T.);
#1593=EDGE_LOOP('',(#1591,#1592));
#1594=FACE_BOUND('',#1593,.T.);
#1595=ORIENTED_EDGE('',*,*,#1559,.T.);
#1596=ORIENTED_EDGE('',*,*,#1230,.T.);
#1597=EDGE_LOOP('',(#1595,#1596));
#1598=FACE_BOUND('',#1597,.T.);
#1599=ORIENTED_EDGE('',*,*,#1577,.T.);
#1600=ORIENTED_EDGE('',*,*,#1188,.T.);
#1601=EDGE_LOOP('',(#1599,#1600));
#1602=FACE_BOUND('',#1601,.T.);
#1603=ADVANCED_FACE('',(#1590,#1594,#1598,#1602),#1586,.T.);
#1604=CLOSED_SHELL('',(#1207,#1249,#1291,#1333,#1371,#1413,#1437,#1447,#1465,#1483,#1527,#1545,#1563,#1581,#1603));
#1605=MANIFOLD_SOLID_BREP('21CA',#1604);
#1606=COLOUR_RGB('38',0.15,0.075,0.0);
#1607=SURFACE_STYLE_USAGE(.BOTH.,#1608);
#1608=SURFACE_SIDE_STYLE('NONE',(#1609));
#1609=SURFACE_STYLE_FILL_AREA(#1610);
#1610=FILL_AREA_STYLE('NONE',(#1611));
#1611=FILL_AREA_STYLE_COLOUR('NONE',#1606);
#1612=PRESENTATION_STYLE_ASSIGNMENT((#1607));
#1613=STYLED_ITEM('NONE',(#1612),#1605);
#1614=ADVANCED_BREP_SHAPE_REPRESENTATION('ABSR1',(#152,#330,#506,#675,#838,#1001,#1164,#1605),#28);
#1615=SHAPE_REPRESENTATION_RELATIONSHIP('SRRPL1','',#1614,#62);
ENDSEC;
END-ISO-10303-21;
