ISO-10303-21;
HEADER;
/****************************************************************
 * Generated by software with PDE/Lib inside                    *
 * PDE/Lib Version 3.2.2, created Thu Mar 23, 2000 at 18:38:49  *
 * International Technegroup Inc. (www.iti-oh.com)              *
 ****************************************************************/
FILE_DESCRIPTION((''),'2;1');
FILE_NAME('TYCO_1-1814655-1_a.stp','2009-02-18T12:48:42',(''),(''),'Mechanical Desktop 2006','Mechanical Desktop 2006',', , ');
FILE_SCHEMA(('AUTOMOTIVE_DESIGN { 1 2 10303 214 0 1 1 1 }'));
ENDSEC;
DATA;
#8=(NAMED_UNIT(*)PLANE_ANGLE_UNIT()SI_UNIT($,.RADIAN.));
#9=DIMENSIONAL_EXPONENTS(0.0,0.0,0.0,0.0,0.0,0.0,0.0);
#10=PLANE_ANGLE_MEASURE_WITH_UNIT(PLANE_ANGLE_MEASURE(0.017453292500000),#8);
#14=(CONVERSION_BASED_UNIT('DEGREE',#10)NAMED_UNIT(#9)PLANE_ANGLE_UNIT());
#18=(NAMED_UNIT(*)SI_UNIT($,.STERADIAN.)SOLID_ANGLE_UNIT());
#22=(LENGTH_UNIT()NAMED_UNIT(*)SI_UNIT(.MILLI.,.METRE.));
#23=UNCERTAINTY_MEASURE_WITH_UNIT(LENGTH_MEASURE(0.000001000000000),#22,'DISTANCE_ACCURACY_VALUE','');
#28=(GEOMETRIC_REPRESENTATION_CONTEXT(3)GLOBAL_UNCERTAINTY_ASSIGNED_CONTEXT((#23))GLOBAL_UNIT_ASSIGNED_CONTEXT((#14,#18,#22))REPRESENTATION_CONTEXT('None','None'));
#29=APPLICATION_CONTEXT('automotive design');
#30=APPLICATION_PROTOCOL_DEFINITION('DRAFT_INTERNATIONAL_STANDARD','automotive_design',1998,#29);
#31=PRODUCT_CONTEXT('3D Mechanical Parts',#29,'mechanical');
#32=PRODUCT('Product','Product','',(#31));
#33=PRODUCT_RELATED_PRODUCT_CATEGORY('part',$,(#32));
#34=PRODUCT_CATEGORY('part',$);
#35=PERSON('1','Design','Joe',$,$,$);
#36=ORGANIZATION($,'None','None');
#37=PERSON_AND_ORGANIZATION(#35,#36);
#38=PERSON_AND_ORGANIZATION_ROLE('design_owner');
#39=APPLIED_PERSON_AND_ORGANIZATION_ASSIGNMENT(#37,#38,(#32));
#40=PRODUCT_DEFINITION_FORMATION_WITH_SPECIFIED_SOURCE('None','',#32,.BOUGHT.);
#41=PERSON('2','Creator','Joe',$,$,$);
#42=ORGANIZATION($,'None','None');
#43=PERSON_AND_ORGANIZATION(#41,#42);
#44=PERSON_AND_ORGANIZATION_ROLE('creator');
#45=APPLIED_PERSON_AND_ORGANIZATION_ASSIGNMENT(#43,#44,(#40));
#46=PERSON('3','Supplier','Joe',$,$,$);
#47=ORGANIZATION($,'None','None');
#48=PERSON_AND_ORGANIZATION(#46,#47);
#49=PERSON_AND_ORGANIZATION_ROLE('design_supplier');
#50=APPLIED_PERSON_AND_ORGANIZATION_ASSIGNMENT(#48,#49,(#40));
#51=PRODUCT_DEFINITION_CONTEXT('part definition',#29,'design');
#52=PRODUCT_DEFINITION('None','',#40,#51);
#53=PERSON('4','Creator','Joe',$,$,$);
#54=ORGANIZATION($,'None','None');
#55=PERSON_AND_ORGANIZATION(#53,#54);
#56=PERSON_AND_ORGANIZATION_ROLE('creator');
#57=APPLIED_PERSON_AND_ORGANIZATION_ASSIGNMENT(#55,#56,(#52));
#58=CARTESIAN_POINT('NONE',(0.0,0.0,0.0));
#59=DIRECTION('NONE',(0.0,0.0,1.0));
#60=DIRECTION('NONE',(1.0,0.0,0.0));
#61=AXIS2_PLACEMENT_3D('NONE',#58,#59,#60);
#62=SHAPE_REPRESENTATION('SR1',(#61),#28);
#63=PRODUCT_DEFINITION_SHAPE('PDS1','Test Part',#52);
#64=SHAPE_DEFINITION_REPRESENTATION(#63,#62);
#65=CARTESIAN_POINT('',(0.0,0.0,0.0));
#66=DIRECTION('',(0.0,0.0,1.0));
#67=DIRECTION('',(1.0,0.0,0.0));
#68=AXIS2_PLACEMENT_3D('',#65,#66,#67);
#69=CYLINDRICAL_SURFACE('',#68,0.650000000000000);
#70=CARTESIAN_POINT('',(0.650000000000000,-7.959941E-017,0.400000000000000));
#71=VERTEX_POINT('',#70);
#72=CARTESIAN_POINT('',(0.650000000000000,0.0,1.600000000000000));
#73=VERTEX_POINT('',#72);
#74=CARTESIAN_POINT('',(0.650000000000000,-7.959941E-017,0.400000000000000));
#75=DIRECTION('',(0.0,0.0,1.0));
#76=VECTOR('',#75,1.200000000000000);
#77=LINE('',#74,#76);
#78=EDGE_CURVE('',#71,#73,#77,.T.);
#79=ORIENTED_EDGE('',*,*,#78,.F.);
#80=CARTESIAN_POINT('',(-0.650000000000000,7.959941E-017,0.400000000000000));
#81=VERTEX_POINT('',#80);
#82=CARTESIAN_POINT('',(0.0,0.0,0.400000000000000));
#83=DIRECTION('',(0.0,0.0,-1.0));
#84=DIRECTION('',(-1.0,0.0,0.0));
#85=AXIS2_PLACEMENT_3D('',#82,#83,#84);
#86=CIRCLE('',#85,0.650000000000000);
#87=EDGE_CURVE('',#81,#71,#86,.T.);
#88=ORIENTED_EDGE('',*,*,#87,.F.);
#89=CARTESIAN_POINT('',(-0.650000000000000,7.959941E-017,1.600000000000000));
#90=VERTEX_POINT('',#89);
#91=CARTESIAN_POINT('',(-0.650000000000000,7.959941E-017,1.600000000000000));
#92=DIRECTION('',(0.0,0.0,-1.0));
#93=VECTOR('',#92,1.200000000000000);
#94=LINE('',#91,#93);
#95=EDGE_CURVE('',#90,#81,#94,.T.);
#96=ORIENTED_EDGE('',*,*,#95,.F.);
#97=CARTESIAN_POINT('',(0.0,0.0,1.600000000000000));
#98=DIRECTION('',(0.0,0.0,-1.0));
#99=DIRECTION('',(1.0,0.0,0.0));
#100=AXIS2_PLACEMENT_3D('',#97,#98,#99);
#101=CIRCLE('',#100,0.650000000000000);
#102=EDGE_CURVE('',#90,#73,#101,.T.);
#103=ORIENTED_EDGE('',*,*,#102,.T.);
#104=EDGE_LOOP('',(#79,#88,#96,#103));
#105=FACE_OUTER_BOUND('',#104,.T.);
#106=ADVANCED_FACE('',(#105),#69,.T.);
#107=CARTESIAN_POINT('',(0.0,0.0,0.200000000000000));
#108=DIRECTION('',(0.0,0.0,1.0));
#109=DIRECTION('',(-1.0,0.0,0.0));
#110=AXIS2_PLACEMENT_3D('',#107,#108,#109);
#111=CONICAL_SURFACE('',#110,0.450000000000000,45.0);
#112=CARTESIAN_POINT('',(-0.250000000000000,3.061516E-017,0.0));
#113=VERTEX_POINT('',#112);
#114=CARTESIAN_POINT('',(-0.250000000000000,3.061516E-017,0.0));
#115=DIRECTION('',(-0.707106781186547,8.659275E-017,0.707106781186547));
#116=VECTOR('',#115,0.565685424949238);
#117=LINE('',#114,#116);
#118=EDGE_CURVE('',#113,#81,#117,.T.);
#119=ORIENTED_EDGE('',*,*,#118,.F.);
#120=CARTESIAN_POINT('',(0.250000000000000,3.061516E-017,0.0));
#121=VERTEX_POINT('',#120);
#122=CARTESIAN_POINT('',(0.0,0.0,0.0));
#123=DIRECTION('',(0.0,0.0,1.0));
#124=DIRECTION('',(-1.0,0.0,0.0));
#125=AXIS2_PLACEMENT_3D('',#122,#123,#124);
#126=CIRCLE('',#125,0.250000000000000);
#127=EDGE_CURVE('',#113,#121,#126,.T.);
#128=ORIENTED_EDGE('',*,*,#127,.T.);
#129=CARTESIAN_POINT('',(0.650000000000000,-7.959941E-017,0.400000000000000));
#130=DIRECTION('',(-0.707106781186547,1.948337E-016,-0.707106781186547));
#131=VECTOR('',#130,0.565685424949238);
#132=LINE('',#129,#131);
#133=EDGE_CURVE('',#71,#121,#132,.T.);
#134=ORIENTED_EDGE('',*,*,#133,.F.);
#135=CARTESIAN_POINT('',(0.0,0.0,0.400000000000000));
#136=DIRECTION('',(0.0,0.0,-1.0));
#137=DIRECTION('',(-1.0,0.0,0.0));
#138=AXIS2_PLACEMENT_3D('',#135,#136,#137);
#139=CIRCLE('',#138,0.650000000000000);
#140=EDGE_CURVE('',#71,#81,#139,.T.);
#141=ORIENTED_EDGE('',*,*,#140,.T.);
#142=EDGE_LOOP('',(#119,#128,#134,#141));
#143=FACE_OUTER_BOUND('',#142,.T.);
#144=ADVANCED_FACE('',(#143),#111,.T.);
#145=CARTESIAN_POINT('',(0.0,0.0,0.200000000000000));
#146=DIRECTION('',(0.0,0.0,1.0));
#147=DIRECTION('',(-1.0,0.0,0.0));
#148=AXIS2_PLACEMENT_3D('',#145,#146,#147);
#149=CONICAL_SURFACE('',#148,0.450000000000000,45.0);
#150=ORIENTED_EDGE('',*,*,#118,.T.);
#151=ORIENTED_EDGE('',*,*,#87,.T.);
#152=ORIENTED_EDGE('',*,*,#133,.T.);
#153=CARTESIAN_POINT('',(0.0,0.0,0.0));
#154=DIRECTION('',(0.0,0.0,1.0));
#155=DIRECTION('',(-1.0,0.0,0.0));
#156=AXIS2_PLACEMENT_3D('',#153,#154,#155);
#157=CIRCLE('',#156,0.250000000000000);
#158=EDGE_CURVE('',#121,#113,#157,.T.);
#159=ORIENTED_EDGE('',*,*,#158,.T.);
#160=EDGE_LOOP('',(#150,#151,#152,#159));
#161=FACE_OUTER_BOUND('',#160,.T.);
#162=ADVANCED_FACE('',(#161),#149,.T.);
#163=CARTESIAN_POINT('',(0.0,0.0,0.0));
#164=DIRECTION('',(0.0,0.0,1.0));
#165=DIRECTION('',(1.0,0.0,0.0));
#166=AXIS2_PLACEMENT_3D('',#163,#164,#165);
#167=CYLINDRICAL_SURFACE('',#166,0.650000000000000);
#168=ORIENTED_EDGE('',*,*,#78,.T.);
#169=CARTESIAN_POINT('',(0.0,0.0,1.600000000000000));
#170=DIRECTION('',(0.0,0.0,-1.0));
#171=DIRECTION('',(1.0,0.0,0.0));
#172=AXIS2_PLACEMENT_3D('',#169,#170,#171);
#173=CIRCLE('',#172,0.650000000000000);
#174=EDGE_CURVE('',#73,#90,#173,.T.);
#175=ORIENTED_EDGE('',*,*,#174,.T.);
#176=ORIENTED_EDGE('',*,*,#95,.T.);
#177=ORIENTED_EDGE('',*,*,#140,.F.);
#178=EDGE_LOOP('',(#168,#175,#176,#177));
#179=FACE_OUTER_BOUND('',#178,.T.);
#180=ADVANCED_FACE('',(#179),#167,.T.);
#181=CARTESIAN_POINT('',(0.0,0.0,0.0));
#182=DIRECTION('',(0.0,0.0,1.0));
#183=DIRECTION('',(1.0,0.0,0.0));
#184=AXIS2_PLACEMENT_3D('',#181,#182,#183);
#185=PLANE('',#184);
#186=ORIENTED_EDGE('',*,*,#158,.F.);
#187=ORIENTED_EDGE('',*,*,#127,.F.);
#188=EDGE_LOOP('',(#186,#187));
#189=FACE_OUTER_BOUND('',#188,.T.);
#190=ADVANCED_FACE('',(#189),#185,.F.);
#191=CARTESIAN_POINT('',(0.0,0.0,1.600000000000000));
#192=DIRECTION('',(0.0,0.0,1.0));
#193=DIRECTION('',(1.0,0.0,0.0));
#194=AXIS2_PLACEMENT_3D('',#191,#192,#193);
#195=PLANE('',#194);
#196=ORIENTED_EDGE('',*,*,#174,.F.);
#197=ORIENTED_EDGE('',*,*,#102,.F.);
#198=EDGE_LOOP('',(#196,#197));
#199=FACE_OUTER_BOUND('',#198,.T.);
#200=ADVANCED_FACE('',(#199),#195,.T.);
#201=CLOSED_SHELL('',(#106,#144,#162,#180,#190,#200));
#202=MANIFOLD_SOLID_BREP('16C',#201);
#203=COLOUR_RGB('254',0.866000000000000,0.866000000000000,0.866000000000000);
#204=SURFACE_STYLE_USAGE(.BOTH.,#205);
#205=SURFACE_SIDE_STYLE('NONE',(#206));
#206=SURFACE_STYLE_FILL_AREA(#207);
#207=FILL_AREA_STYLE('NONE',(#208));
#208=FILL_AREA_STYLE_COLOUR('NONE',#203);
#209=PRESENTATION_STYLE_ASSIGNMENT((#204));
#210=STYLED_ITEM('NONE',(#209),#202);
#211=MECHANICAL_DESIGN_GEOMETRIC_PRESENTATION_REPRESENTATION('NONE',(#210,#317,#761),#28);
#212=PRESENTATION_LAYER_ASSIGNMENT('0','None',(#202,#316,#753));
#213=CARTESIAN_POINT('',(-2.442491E-016,-2.442491E-016,0.0));
#214=DIRECTION('',(0.0,-4.440892E-016,-1.0));
#215=DIRECTION('',(-1.0,0.0,0.0));
#216=AXIS2_PLACEMENT_3D('',#213,#214,#215);
#217=CYLINDRICAL_SURFACE('',#216,0.250000000000000);
#218=CARTESIAN_POINT('',(-0.250000000000000,-2.442491E-016,0.0));
#219=VERTEX_POINT('',#218);
#220=CARTESIAN_POINT('',(-0.250000000000000,-1.390470E-015,-2.650000000000000));
#221=VERTEX_POINT('',#220);
#222=CARTESIAN_POINT('',(-0.250000000000000,-2.442491E-016,0.0));
#223=DIRECTION('',(0.0,0.0,-1.0));
#224=VECTOR('',#223,2.650000000000000);
#225=LINE('',#222,#224);
#226=EDGE_CURVE('',#219,#221,#225,.T.);
#227=ORIENTED_EDGE('',*,*,#226,.F.);
#228=CARTESIAN_POINT('',(0.250000000000000,-2.136339E-016,-1.359586E-032));
#229=VERTEX_POINT('',#228);
#230=CARTESIAN_POINT('',(-2.442491E-016,-2.442491E-016,0.0));
#231=DIRECTION('',(0.0,0.0,-1.0));
#232=DIRECTION('',(-1.0,0.0,0.0));
#233=AXIS2_PLACEMENT_3D('',#230,#231,#232);
#234=CIRCLE('',#233,0.250000000000000);
#235=EDGE_CURVE('',#219,#229,#234,.T.);
#236=ORIENTED_EDGE('',*,*,#235,.T.);
#237=CARTESIAN_POINT('',(0.250000000000000,-1.451701E-015,-2.650000000000000));
#238=VERTEX_POINT('',#237);
#239=CARTESIAN_POINT('',(0.250000000000000,-1.451701E-015,-2.650000000000000));
#240=DIRECTION('',(0.0,0.0,1.0));
#241=VECTOR('',#240,2.650000000000000);
#242=LINE('',#239,#241);
#243=EDGE_CURVE('',#238,#229,#242,.T.);
#244=ORIENTED_EDGE('',*,*,#243,.F.);
#245=CARTESIAN_POINT('',(-2.442491E-016,-1.421085E-015,-2.650000000000000));
#246=DIRECTION('',(0.0,0.0,-1.0));
#247=DIRECTION('',(-1.0,0.0,0.0));
#248=AXIS2_PLACEMENT_3D('',#245,#246,#247);
#249=CIRCLE('',#248,0.250000000000000);
#250=EDGE_CURVE('',#221,#238,#249,.T.);
#251=ORIENTED_EDGE('',*,*,#250,.F.);
#252=EDGE_LOOP('',(#227,#236,#244,#251));
#253=FACE_OUTER_BOUND('',#252,.T.);
#254=ADVANCED_FACE('',(#253),#217,.T.);
#255=CARTESIAN_POINT('',(-2.442491E-016,-1.421085E-015,-2.650000000000000));
#256=DIRECTION('',(0.0,0.0,1.0));
#257=DIRECTION('',(1.0,0.0,0.0));
#258=AXIS2_PLACEMENT_3D('',#255,#256,#257);
#259=SPHERICAL_SURFACE('',#258,0.250000000000000);
#260=CARTESIAN_POINT('',(-2.442491E-016,-1.421085E-015,-2.650000000000000));
#261=DIRECTION('',(0.0,-1.0,0.0));
#262=DIRECTION('',(0.0,0.0,1.0));
#263=AXIS2_PLACEMENT_3D('',#260,#261,#262);
#264=CIRCLE('',#263,0.250000000000000);
#265=EDGE_CURVE('',#221,#238,#264,.T.);
#266=ORIENTED_EDGE('',*,*,#265,.F.);
#267=ORIENTED_EDGE('',*,*,#250,.T.);
#268=EDGE_LOOP('',(#266,#267));
#269=FACE_OUTER_BOUND('',#268,.T.);
#270=ADVANCED_FACE('',(#269),#259,.T.);
#271=CARTESIAN_POINT('',(-2.442491E-016,-1.421085E-015,-2.650000000000000));
#272=DIRECTION('',(0.0,0.0,1.0));
#273=DIRECTION('',(1.0,0.0,0.0));
#274=AXIS2_PLACEMENT_3D('',#271,#272,#273);
#275=SPHERICAL_SURFACE('',#274,0.250000000000000);
#276=ORIENTED_EDGE('',*,*,#265,.T.);
#277=CARTESIAN_POINT('',(-2.442491E-016,-1.421085E-015,-2.650000000000000));
#278=DIRECTION('',(0.0,0.0,-1.0));
#279=DIRECTION('',(-1.0,0.0,0.0));
#280=AXIS2_PLACEMENT_3D('',#277,#278,#279);
#281=CIRCLE('',#280,0.250000000000000);
#282=EDGE_CURVE('',#238,#221,#281,.T.);
#283=ORIENTED_EDGE('',*,*,#282,.T.);
#284=EDGE_LOOP('',(#276,#283));
#285=FACE_OUTER_BOUND('',#284,.T.);
#286=ADVANCED_FACE('',(#285),#275,.T.);
#287=CARTESIAN_POINT('',(-2.442491E-016,-2.442491E-016,0.0));
#288=DIRECTION('',(0.0,-4.440892E-016,-1.0));
#289=DIRECTION('',(-1.0,0.0,0.0));
#290=AXIS2_PLACEMENT_3D('',#287,#288,#289);
#291=CYLINDRICAL_SURFACE('',#290,0.250000000000000);
#292=ORIENTED_EDGE('',*,*,#226,.T.);
#293=ORIENTED_EDGE('',*,*,#282,.F.);
#294=ORIENTED_EDGE('',*,*,#243,.T.);
#295=CARTESIAN_POINT('',(-2.442491E-016,-2.442491E-016,0.0));
#296=DIRECTION('',(0.0,0.0,-1.0));
#297=DIRECTION('',(-1.0,0.0,0.0));
#298=AXIS2_PLACEMENT_3D('',#295,#296,#297);
#299=CIRCLE('',#298,0.250000000000000);
#300=EDGE_CURVE('',#229,#219,#299,.T.);
#301=ORIENTED_EDGE('',*,*,#300,.T.);
#302=EDGE_LOOP('',(#292,#293,#294,#301));
#303=FACE_OUTER_BOUND('',#302,.T.);
#304=ADVANCED_FACE('',(#303),#291,.T.);
#305=CARTESIAN_POINT('',(-2.442491E-016,-2.442491E-016,0.0));
#306=DIRECTION('',(0.0,0.0,-1.0));
#307=DIRECTION('',(-1.0,0.0,0.0));
#308=AXIS2_PLACEMENT_3D('',#305,#306,#307);
#309=PLANE('',#308);
#310=ORIENTED_EDGE('',*,*,#235,.F.);
#311=ORIENTED_EDGE('',*,*,#300,.F.);
#312=EDGE_LOOP('',(#310,#311));
#313=FACE_OUTER_BOUND('',#312,.T.);
#314=ADVANCED_FACE('',(#313),#309,.F.);
#315=CLOSED_SHELL('',(#254,#270,#286,#304,#314));
#316=MANIFOLD_SOLID_BREP('164',#315);
#317=STYLED_ITEM('NONE',(#209),#316);
#318=CARTESIAN_POINT('',(1.262324E-014,9.825878E-015,4.150000000000000));
#319=DIRECTION('',(0.0,0.0,1.0));
#320=DIRECTION('',(-1.0,0.0,0.0));
#321=AXIS2_PLACEMENT_3D('',#318,#319,#320);
#322=CONICAL_SURFACE('',#321,0.750000000000000,45.0);
#323=CARTESIAN_POINT('',(-0.999999999999987,9.948338E-015,4.400000000000000));
#324=VERTEX_POINT('',#323);
#325=CARTESIAN_POINT('',(-0.499999999999987,9.887108E-015,3.900000000000000));
#326=VERTEX_POINT('',#325);
#327=CARTESIAN_POINT('',(-0.999999999999987,9.948338E-015,4.400000000000000));
#328=DIRECTION('',(0.707106781186547,-8.659275E-017,-0.707106781186548));
#329=VECTOR('',#328,0.707106781186547);
#330=LINE('',#327,#329);
#331=EDGE_CURVE('',#324,#326,#330,.T.);
#332=ORIENTED_EDGE('',*,*,#331,.F.);
#333=CARTESIAN_POINT('',(1.000000000000013,9.825878E-015,4.400000000000000));
#334=VERTEX_POINT('',#333);
#335=CARTESIAN_POINT('',(1.262324E-014,9.825878E-015,4.400000000000000));
#336=DIRECTION('',(0.0,0.0,-1.0));
#337=DIRECTION('',(-1.0,0.0,0.0));
#338=AXIS2_PLACEMENT_3D('',#335,#336,#337);
#339=CIRCLE('',#338,1.0);
#340=EDGE_CURVE('',#334,#324,#339,.T.);
#341=ORIENTED_EDGE('',*,*,#340,.F.);
#342=CARTESIAN_POINT('',(0.500000000000013,9.887108E-015,3.900000000000000));
#343=VERTEX_POINT('',#342);
#344=CARTESIAN_POINT('',(0.500000000000013,9.887108E-015,3.900000000000000));
#345=DIRECTION('',(0.707106781186547,-8.659275E-017,0.707106781186548));
#346=VECTOR('',#345,0.707106781186548);
#347=LINE('',#344,#346);
#348=EDGE_CURVE('',#343,#334,#347,.T.);
#349=ORIENTED_EDGE('',*,*,#348,.F.);
#350=CARTESIAN_POINT('',(1.262324E-014,9.825878E-015,3.900000000000000));
#351=DIRECTION('',(0.0,0.0,1.0));
#352=DIRECTION('',(-1.0,0.0,0.0));
#353=AXIS2_PLACEMENT_3D('',#350,#351,#352);
#354=CIRCLE('',#353,0.500000000000000);
#355=EDGE_CURVE('',#326,#343,#354,.T.);
#356=ORIENTED_EDGE('',*,*,#355,.F.);
#357=EDGE_LOOP('',(#332,#341,#349,#356));
#358=FACE_OUTER_BOUND('',#357,.T.);
#359=ADVANCED_FACE('',(#358),#322,.F.);
#360=CARTESIAN_POINT('',(1.200151E-014,9.204153E-015,3.900000000000000));
#361=DIRECTION('',(0.0,0.0,-1.0));
#362=DIRECTION('',(1.0,0.0,0.0));
#363=AXIS2_PLACEMENT_3D('',#360,#361,#362);
#364=CYLINDRICAL_SURFACE('',#363,0.250000000000000);
#365=CARTESIAN_POINT('',(0.250000000000012,9.204153E-015,1.600000000000000));
#366=VERTEX_POINT('',#365);
#367=CARTESIAN_POINT('',(0.250000000000012,9.204153E-015,3.900000000000000));
#368=VERTEX_POINT('',#367);
#369=CARTESIAN_POINT('',(0.250000000000012,9.204153E-015,1.600000000000000));
#370=DIRECTION('',(0.0,0.0,1.0));
#371=VECTOR('',#370,2.300000000000000);
#372=LINE('',#369,#371);
#373=EDGE_CURVE('',#366,#368,#372,.T.);
#374=ORIENTED_EDGE('',*,*,#373,.F.);
#375=CARTESIAN_POINT('',(-0.249999999999988,9.173538E-015,1.600000000000000));
#376=VERTEX_POINT('',#375);
#377=CARTESIAN_POINT('',(1.200151E-014,9.204153E-015,1.600000000000000));
#378=DIRECTION('',(0.0,0.0,1.0));
#379=DIRECTION('',(1.0,0.0,0.0));
#380=AXIS2_PLACEMENT_3D('',#377,#378,#379);
#381=CIRCLE('',#380,0.250000000000000);
#382=EDGE_CURVE('',#376,#366,#381,.T.);
#383=ORIENTED_EDGE('',*,*,#382,.F.);
#384=CARTESIAN_POINT('',(-0.249999999999988,9.173538E-015,3.900000000000000));
#385=VERTEX_POINT('',#384);
#386=CARTESIAN_POINT('',(-0.249999999999988,9.173538E-015,3.900000000000000));
#387=DIRECTION('',(0.0,0.0,-1.0));
#388=VECTOR('',#387,2.300000000000001);
#389=LINE('',#386,#388);
#390=EDGE_CURVE('',#385,#376,#389,.T.);
#391=ORIENTED_EDGE('',*,*,#390,.F.);
#392=CARTESIAN_POINT('',(1.200151E-014,9.204153E-015,3.900000000000000));
#393=DIRECTION('',(0.0,0.0,-1.0));
#394=DIRECTION('',(1.0,0.0,0.0));
#395=AXIS2_PLACEMENT_3D('',#392,#393,#394);
#396=CIRCLE('',#395,0.250000000000000);
#397=EDGE_CURVE('',#368,#385,#396,.T.);
#398=ORIENTED_EDGE('',*,*,#397,.F.);
#399=EDGE_LOOP('',(#374,#383,#391,#398));
#400=FACE_OUTER_BOUND('',#399,.T.);
#401=ADVANCED_FACE('',(#400),#364,.F.);
#402=CARTESIAN_POINT('',(1.200151E-014,9.204153E-015,3.900000000000000));
#403=DIRECTION('',(0.0,0.0,-1.0));
#404=DIRECTION('',(1.0,0.0,0.0));
#405=AXIS2_PLACEMENT_3D('',#402,#403,#404);
#406=CYLINDRICAL_SURFACE('',#405,0.250000000000000);
#407=ORIENTED_EDGE('',*,*,#373,.T.);
#408=CARTESIAN_POINT('',(1.200151E-014,9.204153E-015,3.900000000000000));
#409=DIRECTION('',(0.0,0.0,-1.0));
#410=DIRECTION('',(1.0,0.0,0.0));
#411=AXIS2_PLACEMENT_3D('',#408,#409,#410);
#412=CIRCLE('',#411,0.250000000000000);
#413=EDGE_CURVE('',#385,#368,#412,.T.);
#414=ORIENTED_EDGE('',*,*,#413,.F.);
#415=ORIENTED_EDGE('',*,*,#390,.T.);
#416=CARTESIAN_POINT('',(1.200151E-014,9.204153E-015,1.600000000000000));
#417=DIRECTION('',(0.0,0.0,1.0));
#418=DIRECTION('',(1.0,0.0,0.0));
#419=AXIS2_PLACEMENT_3D('',#416,#417,#418);
#420=CIRCLE('',#419,0.250000000000000);
#421=EDGE_CURVE('',#366,#376,#420,.T.);
#422=ORIENTED_EDGE('',*,*,#421,.F.);
#423=EDGE_LOOP('',(#407,#414,#415,#422));
#424=FACE_OUTER_BOUND('',#423,.T.);
#425=ADVANCED_FACE('',(#424),#406,.F.);
#426=CARTESIAN_POINT('',(1.262324E-014,9.825878E-015,4.150000000000000));
#427=DIRECTION('',(0.0,0.0,1.0));
#428=DIRECTION('',(-1.0,0.0,0.0));
#429=AXIS2_PLACEMENT_3D('',#426,#427,#428);
#430=CONICAL_SURFACE('',#429,0.750000000000000,45.0);
#431=ORIENTED_EDGE('',*,*,#331,.T.);
#432=CARTESIAN_POINT('',(1.262324E-014,9.825878E-015,3.900000000000000));
#433=DIRECTION('',(0.0,0.0,1.0));
#434=DIRECTION('',(-1.0,0.0,0.0));
#435=AXIS2_PLACEMENT_3D('',#432,#433,#434);
#436=CIRCLE('',#435,0.500000000000000);
#437=EDGE_CURVE('',#343,#326,#436,.T.);
#438=ORIENTED_EDGE('',*,*,#437,.F.);
#439=ORIENTED_EDGE('',*,*,#348,.T.);
#440=CARTESIAN_POINT('',(1.262324E-014,9.825878E-015,4.400000000000000));
#441=DIRECTION('',(0.0,0.0,-1.0));
#442=DIRECTION('',(-1.0,0.0,0.0));
#443=AXIS2_PLACEMENT_3D('',#440,#441,#442);
#444=CIRCLE('',#443,1.0);
#445=EDGE_CURVE('',#324,#334,#444,.T.);
#446=ORIENTED_EDGE('',*,*,#445,.F.);
#447=EDGE_LOOP('',(#431,#438,#439,#446));
#448=FACE_OUTER_BOUND('',#447,.T.);
#449=ADVANCED_FACE('',(#448),#430,.F.);
#450=CARTESIAN_POINT('',(1.262324E-014,9.825878E-015,3.900000000000000));
#451=DIRECTION('',(0.0,0.0,1.0));
#452=DIRECTION('',(1.0,0.0,0.0));
#453=AXIS2_PLACEMENT_3D('',#450,#451,#452);
#454=PLANE('',#453);
#455=ORIENTED_EDGE('',*,*,#437,.T.);
#456=ORIENTED_EDGE('',*,*,#355,.T.);
#457=EDGE_LOOP('',(#455,#456));
#458=FACE_OUTER_BOUND('',#457,.T.);
#459=ORIENTED_EDGE('',*,*,#397,.T.);
#460=ORIENTED_EDGE('',*,*,#413,.T.);
#461=EDGE_LOOP('',(#459,#460));
#462=FACE_BOUND('',#461,.T.);
#463=ADVANCED_FACE('',(#458,#462),#454,.T.);
#464=CARTESIAN_POINT('',(-0.769999999999998,1.270000000000022,1.599999999999999));
#465=DIRECTION('',(0.0,1.0,0.0));
#466=DIRECTION('',(0.0,0.0,-1.0));
#467=AXIS2_PLACEMENT_3D('',#464,#465,#466);
#468=PLANE('',#467);
#469=CARTESIAN_POINT('',(-0.769999999999999,1.270000000000024,4.400000000000000));
#470=VERTEX_POINT('',#469);
#471=CARTESIAN_POINT('',(0.769999999999982,1.270000000000006,4.400000000000000));
#472=VERTEX_POINT('',#471);
#473=CARTESIAN_POINT('',(-0.769999999999999,1.270000000000024,4.400000000000000));
#474=DIRECTION('',(1.0,0.0,0.0));
#475=VECTOR('',#474,1.539999999999980);
#476=LINE('',#473,#475);
#477=EDGE_CURVE('',#470,#472,#476,.T.);
#478=ORIENTED_EDGE('',*,*,#477,.T.);
#479=CARTESIAN_POINT('',(0.769999999999982,1.270000000000005,1.599999999999999));
#480=VERTEX_POINT('',#479);
#481=CARTESIAN_POINT('',(0.769999999999982,1.270000000000005,1.599999999999999));
#482=DIRECTION('',(0.0,0.0,1.0));
#483=VECTOR('',#482,2.800000000000001);
#484=LINE('',#481,#483);
#485=EDGE_CURVE('',#480,#472,#484,.T.);
#486=ORIENTED_EDGE('',*,*,#485,.F.);
#487=CARTESIAN_POINT('',(-0.769999999999998,1.270000000000022,1.599999999999999));
#488=VERTEX_POINT('',#487);
#489=CARTESIAN_POINT('',(0.769999999999982,1.270000000000005,1.599999999999999));
#490=DIRECTION('',(-1.0,0.0,0.0));
#491=VECTOR('',#490,1.539999999999980);
#492=LINE('',#489,#491);
#493=EDGE_CURVE('',#480,#488,#492,.T.);
#494=ORIENTED_EDGE('',*,*,#493,.T.);
#495=CARTESIAN_POINT('',(-0.769999999999998,1.270000000000022,1.599999999999999));
#496=DIRECTION('',(0.0,0.0,1.0));
#497=VECTOR('',#496,2.800000000000001);
#498=LINE('',#495,#497);
#499=EDGE_CURVE('',#488,#470,#498,.T.);
#500=ORIENTED_EDGE('',*,*,#499,.T.);
#501=EDGE_LOOP('',(#478,#486,#494,#500));
#502=FACE_OUTER_BOUND('',#501,.T.);
#503=ADVANCED_FACE('',(#502),#468,.T.);
#504=CARTESIAN_POINT('',(0.769999999999982,1.270000000000005,1.599999999999999));
#505=DIRECTION('',(0.707106781186546,0.707106781186549,-3.140185E-016));
#506=DIRECTION('',(0.0,0.0,1.0));
#507=AXIS2_PLACEMENT_3D('',#504,#505,#506);
#508=PLANE('',#507);
#509=CARTESIAN_POINT('',(1.269999999999987,0.770000000000003,4.400000000000000));
#510=VERTEX_POINT('',#509);
#511=CARTESIAN_POINT('',(0.769999999999982,1.270000000000006,4.400000000000000));
#512=DIRECTION('',(0.707106781186549,-0.707106781186546,1.256074E-015));
#513=VECTOR('',#512,0.707106781186553);
#514=LINE('',#511,#513);
#515=EDGE_CURVE('',#472,#510,#514,.T.);
#516=ORIENTED_EDGE('',*,*,#515,.T.);
#517=CARTESIAN_POINT('',(1.269999999999987,0.770000000000002,1.600000000000000));
#518=VERTEX_POINT('',#517);
#519=CARTESIAN_POINT('',(1.269999999999987,0.770000000000002,1.600000000000000));
#520=DIRECTION('',(0.0,0.0,1.0));
#521=VECTOR('',#520,2.800000000000000);
#522=LINE('',#519,#521);
#523=EDGE_CURVE('',#518,#510,#522,.T.);
#524=ORIENTED_EDGE('',*,*,#523,.F.);
#525=CARTESIAN_POINT('',(1.269999999999987,0.770000000000002,1.600000000000000));
#526=DIRECTION('',(-0.707106781186549,0.707106781186546,-1.570092E-015));
#527=VECTOR('',#526,0.707106781186553);
#528=LINE('',#525,#527);
#529=EDGE_CURVE('',#518,#480,#528,.T.);
#530=ORIENTED_EDGE('',*,*,#529,.T.);
#531=ORIENTED_EDGE('',*,*,#485,.T.);
#532=EDGE_LOOP('',(#516,#524,#530,#531));
#533=FACE_OUTER_BOUND('',#532,.T.);
#534=ADVANCED_FACE('',(#533),#508,.T.);
#535=CARTESIAN_POINT('',(1.269999999999987,0.770000000000002,1.600000000000000));
#536=DIRECTION('',(1.0,0.0,0.0));
#537=DIRECTION('',(0.0,0.0,1.0));
#538=AXIS2_PLACEMENT_3D('',#535,#536,#537);
#539=PLANE('',#538);
#540=CARTESIAN_POINT('',(1.269999999999981,-0.769999999999994,4.400000000000000));
#541=VERTEX_POINT('',#540);
#542=CARTESIAN_POINT('',(1.269999999999987,0.770000000000003,4.400000000000000));
#543=DIRECTION('',(0.0,-1.0,0.0));
#544=VECTOR('',#543,1.539999999999998);
#545=LINE('',#542,#544);
#546=EDGE_CURVE('',#510,#541,#545,.T.);
#547=ORIENTED_EDGE('',*,*,#546,.T.);
#548=CARTESIAN_POINT('',(1.269999999999981,-0.769999999999996,1.600000000000001));
#549=VERTEX_POINT('',#548);
#550=CARTESIAN_POINT('',(1.269999999999981,-0.769999999999996,1.600000000000001));
#551=DIRECTION('',(0.0,0.0,1.0));
#552=VECTOR('',#551,2.799999999999999);
#553=LINE('',#550,#552);
#554=EDGE_CURVE('',#549,#541,#553,.T.);
#555=ORIENTED_EDGE('',*,*,#554,.F.);
#556=CARTESIAN_POINT('',(1.269999999999981,-0.769999999999996,1.600000000000001));
#557=DIRECTION('',(0.0,1.0,0.0));
#558=VECTOR('',#557,1.539999999999998);
#559=LINE('',#556,#558);
#560=EDGE_CURVE('',#549,#518,#559,.T.);
#561=ORIENTED_EDGE('',*,*,#560,.T.);
#562=ORIENTED_EDGE('',*,*,#523,.T.);
#563=EDGE_LOOP('',(#547,#555,#561,#562));
#564=FACE_OUTER_BOUND('',#563,.T.);
#565=ADVANCED_FACE('',(#564),#539,.T.);
#566=CARTESIAN_POINT('',(1.269999999999981,-0.769999999999996,1.600000000000001));
#567=DIRECTION('',(0.707106781186567,-0.707106781186528,4.872040E-016));
#568=DIRECTION('',(0.0,0.0,1.0));
#569=AXIS2_PLACEMENT_3D('',#566,#567,#568);
#570=PLANE('',#569);
#571=CARTESIAN_POINT('',(0.770000000000009,-1.269999999999995,4.400000000000000));
#572=VERTEX_POINT('',#571);
#573=CARTESIAN_POINT('',(1.269999999999981,-0.769999999999994,4.400000000000000));
#574=DIRECTION('',(-0.707106781186527,-0.707106781186568,0.0));
#575=VECTOR('',#574,0.707106781186527);
#576=LINE('',#573,#575);
#577=EDGE_CURVE('',#541,#572,#576,.T.);
#578=ORIENTED_EDGE('',*,*,#577,.T.);
#579=CARTESIAN_POINT('',(0.770000000000009,-1.269999999999996,1.600000000000001));
#580=VERTEX_POINT('',#579);
#581=CARTESIAN_POINT('',(0.770000000000009,-1.269999999999996,1.600000000000001));
#582=DIRECTION('',(0.0,0.0,1.0));
#583=VECTOR('',#582,2.799999999999999);
#584=LINE('',#581,#583);
#585=EDGE_CURVE('',#580,#572,#584,.T.);
#586=ORIENTED_EDGE('',*,*,#585,.F.);
#587=CARTESIAN_POINT('',(0.770000000000009,-1.269999999999996,1.600000000000001));
#588=DIRECTION('',(0.707106781186527,0.707106781186567,0.0));
#589=VECTOR('',#588,0.707106781186528);
#590=LINE('',#587,#589);
#591=EDGE_CURVE('',#580,#549,#590,.T.);
#592=ORIENTED_EDGE('',*,*,#591,.T.);
#593=ORIENTED_EDGE('',*,*,#554,.T.);
#594=EDGE_LOOP('',(#578,#586,#592,#593));
#595=FACE_OUTER_BOUND('',#594,.T.);
#596=ADVANCED_FACE('',(#595),#570,.T.);
#597=CARTESIAN_POINT('',(0.770000000000009,-1.269999999999996,1.600000000000001));
#598=DIRECTION('',(0.0,-1.0,0.0));
#599=DIRECTION('',(0.0,0.0,1.0));
#600=AXIS2_PLACEMENT_3D('',#597,#598,#599);
#601=PLANE('',#600);
#602=CARTESIAN_POINT('',(-0.770000000000011,-1.269999999999994,4.400000000000000));
#603=VERTEX_POINT('',#602);
#604=CARTESIAN_POINT('',(0.770000000000009,-1.269999999999995,4.400000000000000));
#605=DIRECTION('',(-1.0,0.0,0.0));
#606=VECTOR('',#605,1.540000000000020);
#607=LINE('',#604,#606);
#608=EDGE_CURVE('',#572,#603,#607,.T.);
#609=ORIENTED_EDGE('',*,*,#608,.T.);
#610=CARTESIAN_POINT('',(-0.770000000000011,-1.269999999999995,1.600000000000001));
#611=VERTEX_POINT('',#610);
#612=CARTESIAN_POINT('',(-0.770000000000011,-1.269999999999995,1.600000000000001));
#613=DIRECTION('',(0.0,0.0,1.0));
#614=VECTOR('',#613,2.799999999999999);
#615=LINE('',#612,#614);
#616=EDGE_CURVE('',#611,#603,#615,.T.);
#617=ORIENTED_EDGE('',*,*,#616,.F.);
#618=CARTESIAN_POINT('',(-0.770000000000011,-1.269999999999995,1.600000000000001));
#619=DIRECTION('',(1.0,0.0,0.0));
#620=VECTOR('',#619,1.540000000000020);
#621=LINE('',#618,#620);
#622=EDGE_CURVE('',#611,#580,#621,.T.);
#623=ORIENTED_EDGE('',*,*,#622,.T.);
#624=ORIENTED_EDGE('',*,*,#585,.T.);
#625=EDGE_LOOP('',(#609,#617,#623,#624));
#626=FACE_OUTER_BOUND('',#625,.T.);
#627=ADVANCED_FACE('',(#626),#601,.T.);
#628=CARTESIAN_POINT('',(-0.770000000000011,-1.269999999999995,1.600000000000001));
#629=DIRECTION('',(-0.707106781186548,-0.707106781186547,3.140185E-016));
#630=DIRECTION('',(0.0,0.0,-1.0));
#631=AXIS2_PLACEMENT_3D('',#628,#629,#630);
#632=PLANE('',#631);
#633=CARTESIAN_POINT('',(-1.270000000000011,-0.769999999999993,4.400000000000000));
#634=VERTEX_POINT('',#633);
#635=CARTESIAN_POINT('',(-0.770000000000011,-1.269999999999994,4.400000000000000));
#636=DIRECTION('',(-0.707106781186547,0.707106781186548,0.0));
#637=VECTOR('',#636,0.707106781186548);
#638=LINE('',#635,#637);
#639=EDGE_CURVE('',#603,#634,#638,.T.);
#640=ORIENTED_EDGE('',*,*,#639,.T.);
#641=CARTESIAN_POINT('',(-1.270000000000011,-0.769999999999995,1.600000000000000));
#642=VERTEX_POINT('',#641);
#643=CARTESIAN_POINT('',(-1.270000000000011,-0.769999999999995,1.600000000000000));
#644=DIRECTION('',(0.0,0.0,1.0));
#645=VECTOR('',#644,2.800000000000000);
#646=LINE('',#643,#645);
#647=EDGE_CURVE('',#642,#634,#646,.T.);
#648=ORIENTED_EDGE('',*,*,#647,.F.);
#649=CARTESIAN_POINT('',(-1.270000000000011,-0.769999999999995,1.600000000000000));
#650=DIRECTION('',(0.707106781186547,-0.707106781186548,1.256074E-015));
#651=VECTOR('',#650,0.707106781186548);
#652=LINE('',#649,#651);
#653=EDGE_CURVE('',#642,#611,#652,.T.);
#654=ORIENTED_EDGE('',*,*,#653,.T.);
#655=ORIENTED_EDGE('',*,*,#616,.T.);
#656=EDGE_LOOP('',(#640,#648,#654,#655));
#657=FACE_OUTER_BOUND('',#656,.T.);
#658=ADVANCED_FACE('',(#657),#632,.T.);
#659=CARTESIAN_POINT('',(-1.270000000000011,-0.769999999999995,1.600000000000000));
#660=DIRECTION('',(-1.0,0.0,0.0));
#661=DIRECTION('',(0.0,0.0,-1.0));
#662=AXIS2_PLACEMENT_3D('',#659,#660,#661);
#663=PLANE('',#662);
#664=CARTESIAN_POINT('',(-1.270000000000010,0.770000000000027,4.400000000000000));
#665=VERTEX_POINT('',#664);
#666=CARTESIAN_POINT('',(-1.270000000000011,-0.769999999999993,4.400000000000000));
#667=DIRECTION('',(0.0,1.0,0.0));
#668=VECTOR('',#667,1.540000000000021);
#669=LINE('',#666,#668);
#670=EDGE_CURVE('',#634,#665,#669,.T.);
#671=ORIENTED_EDGE('',*,*,#670,.T.);
#672=CARTESIAN_POINT('',(-1.270000000000010,0.770000000000025,1.599999999999999));
#673=VERTEX_POINT('',#672);
#674=CARTESIAN_POINT('',(-1.270000000000010,0.770000000000025,1.599999999999999));
#675=DIRECTION('',(0.0,0.0,1.0));
#676=VECTOR('',#675,2.800000000000000);
#677=LINE('',#674,#676);
#678=EDGE_CURVE('',#673,#665,#677,.T.);
#679=ORIENTED_EDGE('',*,*,#678,.F.);
#680=CARTESIAN_POINT('',(-1.270000000000010,0.770000000000025,1.599999999999999));
#681=DIRECTION('',(0.0,-1.0,0.0));
#682=VECTOR('',#681,1.540000000000021);
#683=LINE('',#680,#682);
#684=EDGE_CURVE('',#673,#642,#683,.T.);
#685=ORIENTED_EDGE('',*,*,#684,.T.);
#686=ORIENTED_EDGE('',*,*,#647,.T.);
#687=EDGE_LOOP('',(#671,#679,#685,#686));
#688=FACE_OUTER_BOUND('',#687,.T.);
#689=ADVANCED_FACE('',(#688),#663,.T.);
#690=CARTESIAN_POINT('',(-1.270000000000010,0.770000000000025,1.599999999999999));
#691=DIRECTION('',(-0.707106781186537,0.707106781186558,-4.872040E-016));
#692=DIRECTION('',(0.0,0.0,-1.0));
#693=AXIS2_PLACEMENT_3D('',#690,#691,#692);
#694=PLANE('',#693);
#695=CARTESIAN_POINT('',(-1.270000000000010,0.770000000000027,4.400000000000000));
#696=DIRECTION('',(0.707106781186558,0.707106781186537,0.0));
#697=VECTOR('',#696,0.707106781186554);
#698=LINE('',#695,#697);
#699=EDGE_CURVE('',#665,#470,#698,.T.);
#700=ORIENTED_EDGE('',*,*,#699,.T.);
#701=ORIENTED_EDGE('',*,*,#499,.F.);
#702=CARTESIAN_POINT('',(-0.769999999999998,1.270000000000022,1.599999999999999));
#703=DIRECTION('',(-0.707106781186558,-0.707106781186537,3.140185E-016));
#704=VECTOR('',#703,0.707106781186553);
#705=LINE('',#702,#704);
#706=EDGE_CURVE('',#488,#673,#705,.T.);
#707=ORIENTED_EDGE('',*,*,#706,.T.);
#708=ORIENTED_EDGE('',*,*,#678,.T.);
#709=EDGE_LOOP('',(#700,#701,#707,#708));
#710=FACE_OUTER_BOUND('',#709,.T.);
#711=ADVANCED_FACE('',(#710),#694,.T.);
#712=CARTESIAN_POINT('',(-1.470330E-014,8.405565E-015,4.400000000000000));
#713=DIRECTION('',(0.0,0.0,1.0));
#714=DIRECTION('',(-1.0,0.0,0.0));
#715=AXIS2_PLACEMENT_3D('',#712,#713,#714);
#716=PLANE('',#715);
#717=ORIENTED_EDGE('',*,*,#699,.F.);
#718=ORIENTED_EDGE('',*,*,#670,.F.);
#719=ORIENTED_EDGE('',*,*,#639,.F.);
#720=ORIENTED_EDGE('',*,*,#608,.F.);
#721=ORIENTED_EDGE('',*,*,#577,.F.);
#722=ORIENTED_EDGE('',*,*,#546,.F.);
#723=ORIENTED_EDGE('',*,*,#515,.F.);
#724=ORIENTED_EDGE('',*,*,#477,.F.);
#725=EDGE_LOOP('',(#717,#718,#719,#720,#721,#722,#723,#724));
#726=FACE_OUTER_BOUND('',#725,.T.);
#727=ORIENTED_EDGE('',*,*,#340,.T.);
#728=ORIENTED_EDGE('',*,*,#445,.T.);
#729=EDGE_LOOP('',(#727,#728));
#730=FACE_BOUND('',#729,.T.);
#731=ADVANCED_FACE('',(#726,#730),#716,.T.);
#732=CARTESIAN_POINT('',(-1.433592E-014,6.750324E-015,1.600000000000000));
#733=DIRECTION('',(0.0,0.0,1.0));
#734=DIRECTION('',(-1.0,0.0,0.0));
#735=AXIS2_PLACEMENT_3D('',#732,#733,#734);
#736=PLANE('',#735);
#737=ORIENTED_EDGE('',*,*,#684,.F.);
#738=ORIENTED_EDGE('',*,*,#706,.F.);
#739=ORIENTED_EDGE('',*,*,#493,.F.);
#740=ORIENTED_EDGE('',*,*,#529,.F.);
#741=ORIENTED_EDGE('',*,*,#560,.F.);
#742=ORIENTED_EDGE('',*,*,#591,.F.);
#743=ORIENTED_EDGE('',*,*,#622,.F.);
#744=ORIENTED_EDGE('',*,*,#653,.F.);
#745=EDGE_LOOP('',(#737,#738,#739,#740,#741,#742,#743,#744));
#746=FACE_OUTER_BOUND('',#745,.T.);
#747=ORIENTED_EDGE('',*,*,#421,.T.);
#748=ORIENTED_EDGE('',*,*,#382,.T.);
#749=EDGE_LOOP('',(#747,#748));
#750=FACE_BOUND('',#749,.T.);
#751=ADVANCED_FACE('',(#746,#750),#736,.F.);
#752=CLOSED_SHELL('',(#359,#401,#425,#449,#463,#503,#534,#565,#596,#627,#658,#689,#711,#731,#751));
#753=MANIFOLD_SOLID_BREP('A9',#752);
#754=COLOUR_RGB('250',0.330000000000000,0.330000000000000,0.330000000000000);
#755=SURFACE_STYLE_USAGE(.BOTH.,#756);
#756=SURFACE_SIDE_STYLE('NONE',(#757));
#757=SURFACE_STYLE_FILL_AREA(#758);
#758=FILL_AREA_STYLE('NONE',(#759));
#759=FILL_AREA_STYLE_COLOUR('NONE',#754);
#760=PRESENTATION_STYLE_ASSIGNMENT((#755));
#761=STYLED_ITEM('NONE',(#760),#753);
#762=ADVANCED_BREP_SHAPE_REPRESENTATION('ABSR1',(#202,#316,#753),#28);
#763=SHAPE_REPRESENTATION_RELATIONSHIP('SRRPL1','',#762,#62);
ENDSEC;
END-ISO-10303-21;
