ISO-10303-21;
HEADER;
/****************************************************************
 * Generated by software with PDE/Lib inside                    *
 * PDElib Version v51a, created Mon 11/23/2009                  *
 * ITI Transcendata (http://www.transcendata.com/)              *
 ****************************************************************/
FILE_DESCRIPTION((''),'2;1');
FILE_NAME('XFMR_DAGNALL_D3510.stp','2011-09-20T14:54:16',(''),(''),'Mechanical Desktop 2011','Mechanical Desktop 2011',', , ');
FILE_SCHEMA(('AUTOMOTIVE_DESIGN { 1 2 10303 214 1 1 1 1 }'));
ENDSEC;
DATA;
#10=(NAMED_UNIT(*)PLANE_ANGLE_UNIT()SI_UNIT($,.RADIAN.));
#11=DIMENSIONAL_EXPONENTS(0.0,0.0,0.0,0.0,0.0,0.0,0.0);
#12=PLANE_ANGLE_MEASURE_WITH_UNIT(PLANE_ANGLE_MEASURE(0.017453292500000),#10);
#16=(CONVERSION_BASED_UNIT('DEGREE',#12)NAMED_UNIT(#11)PLANE_ANGLE_UNIT());
#20=(NAMED_UNIT(*)SI_UNIT($,.STERADIAN.)SOLID_ANGLE_UNIT());
#24=(LENGTH_UNIT()NAMED_UNIT(*)SI_UNIT(.MILLI.,.METRE.));
#26=UNCERTAINTY_MEASURE_WITH_UNIT(LENGTH_MEASURE(0.000001000000000),#24,'DISTANCE_ACCURACY_VALUE','');
#28=(GEOMETRIC_REPRESENTATION_CONTEXT(3)GLOBAL_UNCERTAINTY_ASSIGNED_CONTEXT((#26))GLOBAL_UNIT_ASSIGNED_CONTEXT((#16,#20,#24))REPRESENTATION_CONTEXT('','3D'));
#29=APPLICATION_CONTEXT('automotive design');
#30=APPLICATION_PROTOCOL_DEFINITION('INTERNATIONAL_STANDARD','automotive_design',1998,#29);
#31=PRODUCT_CONTEXT('3D Mechanical Parts',#29,'mechanical');
#32=PRODUCT('Product','Product','',(#31));
#33=PRODUCT_RELATED_PRODUCT_CATEGORY('part',$,(#32));
#34=PRODUCT_CATEGORY('part',$);
#35=PERSON('1','Design','Joe',$,$,$);
#36=ORGANIZATION($,'None','None');
#37=PERSON_AND_ORGANIZATION(#35,#36);
#38=PERSON_AND_ORGANIZATION_ROLE('design_owner');
#39=APPLIED_PERSON_AND_ORGANIZATION_ASSIGNMENT(#37,#38,(#32));
#40=PRODUCT_DEFINITION_FORMATION_WITH_SPECIFIED_SOURCE('None','',#32,.BOUGHT.);
#41=PERSON('2','Creator','Joe',$,$,$);
#42=ORGANIZATION($,'None','None');
#43=PERSON_AND_ORGANIZATION(#41,#42);
#44=PERSON_AND_ORGANIZATION_ROLE('creator');
#45=APPLIED_PERSON_AND_ORGANIZATION_ASSIGNMENT(#43,#44,(#40));
#46=PERSON('3','Supplier','Joe',$,$,$);
#47=ORGANIZATION($,'None','None');
#48=PERSON_AND_ORGANIZATION(#46,#47);
#49=PERSON_AND_ORGANIZATION_ROLE('design_supplier');
#50=APPLIED_PERSON_AND_ORGANIZATION_ASSIGNMENT(#48,#49,(#40));
#51=PRODUCT_DEFINITION_CONTEXT('part definition',#29,'design');
#52=PRODUCT_DEFINITION('None','',#40,#51);
#53=PERSON('4','Creator','Joe',$,$,$);
#54=ORGANIZATION($,'None','None');
#55=PERSON_AND_ORGANIZATION(#53,#54);
#56=PERSON_AND_ORGANIZATION_ROLE('creator');
#57=APPLIED_PERSON_AND_ORGANIZATION_ASSIGNMENT(#55,#56,(#52));
#58=CARTESIAN_POINT('NONE',(0.0,0.0,0.0));
#59=DIRECTION('NONE',(0.0,0.0,1.0));
#60=DIRECTION('NONE',(1.0,0.0,0.0));
#61=AXIS2_PLACEMENT_3D('NONE',#58,#59,#60);
#62=SHAPE_REPRESENTATION('SR1',(#61),#28);
#63=PRODUCT_DEFINITION_SHAPE('PDS1','Test Part',#52);
#64=SHAPE_DEFINITION_REPRESENTATION(#63,#62);
#65=CARTESIAN_POINT('',(-9.682499999999999,9.682500000000001,0.0));
#66=CARTESIAN_POINT('',(-9.682499999999999,10.317500000000003,0.0));
#67=CARTESIAN_POINT('',(-10.317500000000001,9.682500000000001,0.0));
#68=CARTESIAN_POINT('',(-10.317500000000001,10.317500000000003,0.0));
#69=B_SPLINE_SURFACE_WITH_KNOTS('',1,1,((#65,#67),(#66,#68)),.UNSPECIFIED.,.F.,.F.,.U.,(2,2),(2,2),(0.0,0.635000000000002),(0.0,0.635000000000002),.UNSPECIFIED.);
#70=CARTESIAN_POINT('',(-10.317500000000001,10.317500000000003,0.0));
#71=VERTEX_POINT('',#70);
#72=CARTESIAN_POINT('',(-9.682499999999999,10.317500000000003,0.0));
#73=VERTEX_POINT('',#72);
#74=CARTESIAN_POINT('',(-10.317500000000001,10.317500000000003,0.0));
#75=DIRECTION('',(1.0,0.0,0.0));
#76=VECTOR('',#75,0.635000000000002);
#77=LINE('',#74,#76);
#78=EDGE_CURVE('',#71,#73,#77,.T.);
#79=ORIENTED_EDGE('',*,*,#78,.F.);
#80=CARTESIAN_POINT('',(-10.317500000000001,9.682500000000001,0.0));
#81=VERTEX_POINT('',#80);
#82=CARTESIAN_POINT('',(-10.317500000000001,9.682500000000001,0.0));
#83=DIRECTION('',(0.0,1.0,0.0));
#84=VECTOR('',#83,0.635000000000002);
#85=LINE('',#82,#84);
#86=EDGE_CURVE('',#81,#71,#85,.T.);
#87=ORIENTED_EDGE('',*,*,#86,.F.);
#88=CARTESIAN_POINT('',(-9.682499999999999,9.682500000000001,0.0));
#89=VERTEX_POINT('',#88);
#90=CARTESIAN_POINT('',(-9.682499999999999,9.682500000000001,0.0));
#91=DIRECTION('',(-1.0,0.0,0.0));
#92=VECTOR('',#91,0.635000000000002);
#93=LINE('',#90,#92);
#94=EDGE_CURVE('',#89,#81,#93,.T.);
#95=ORIENTED_EDGE('',*,*,#94,.F.);
#96=CARTESIAN_POINT('',(-9.682499999999999,10.317500000000003,0.0));
#97=DIRECTION('',(0.0,-1.0,0.0));
#98=VECTOR('',#97,0.635000000000002);
#99=LINE('',#96,#98);
#100=EDGE_CURVE('',#73,#89,#99,.T.);
#101=ORIENTED_EDGE('',*,*,#100,.F.);
#102=EDGE_LOOP('',(#79,#87,#95,#101));
#103=FACE_OUTER_BOUND('',#102,.T.);
#104=ADVANCED_FACE('',(#103),#69,.T.);
#105=CARTESIAN_POINT('',(-9.682499999999999,9.682500000000001,-3.600000000000000));
#106=CARTESIAN_POINT('',(-9.682499999999999,10.317500000000003,-3.600000000000000));
#107=CARTESIAN_POINT('',(-10.317500000000001,9.682500000000001,-3.600000000000000));
#108=CARTESIAN_POINT('',(-10.317500000000001,10.317500000000003,-3.600000000000000));
#109=B_SPLINE_SURFACE_WITH_KNOTS('',1,1,((#105,#107),(#106,#108)),.UNSPECIFIED.,.F.,.F.,.U.,(2,2),(2,2),(0.0,0.635000000000002),(0.0,0.635000000000002),.UNSPECIFIED.);
#110=CARTESIAN_POINT('',(-9.682499999999999,10.317500000000003,-3.600000000000000));
#111=VERTEX_POINT('',#110);
#112=CARTESIAN_POINT('',(-10.317500000000001,10.317500000000003,-3.600000000000000));
#113=VERTEX_POINT('',#112);
#114=CARTESIAN_POINT('',(-9.682499999999999,10.317500000000003,-3.600000000000000));
#115=DIRECTION('',(-1.0,0.0,0.0));
#116=VECTOR('',#115,0.635000000000002);
#117=LINE('',#114,#116);
#118=EDGE_CURVE('',#111,#113,#117,.T.);
#119=ORIENTED_EDGE('',*,*,#118,.F.);
#120=CARTESIAN_POINT('',(-9.682499999999999,9.682500000000001,-3.600000000000000));
#121=VERTEX_POINT('',#120);
#122=CARTESIAN_POINT('',(-9.682499999999999,9.682500000000001,-3.600000000000000));
#123=DIRECTION('',(0.0,1.0,0.0));
#124=VECTOR('',#123,0.635000000000002);
#125=LINE('',#122,#124);
#126=EDGE_CURVE('',#121,#111,#125,.T.);
#127=ORIENTED_EDGE('',*,*,#126,.F.);
#128=CARTESIAN_POINT('',(-10.317500000000001,9.682500000000001,-3.600000000000000));
#129=VERTEX_POINT('',#128);
#130=CARTESIAN_POINT('',(-10.317500000000001,9.682500000000001,-3.600000000000000));
#131=DIRECTION('',(1.0,0.0,0.0));
#132=VECTOR('',#131,0.635000000000002);
#133=LINE('',#130,#132);
#134=EDGE_CURVE('',#129,#121,#133,.T.);
#135=ORIENTED_EDGE('',*,*,#134,.F.);
#136=CARTESIAN_POINT('',(-10.317500000000001,10.317500000000003,-3.600000000000000));
#137=DIRECTION('',(0.0,-1.0,0.0));
#138=VECTOR('',#137,0.635000000000002);
#139=LINE('',#136,#138);
#140=EDGE_CURVE('',#113,#129,#139,.T.);
#141=ORIENTED_EDGE('',*,*,#140,.F.);
#142=EDGE_LOOP('',(#119,#127,#135,#141));
#143=FACE_OUTER_BOUND('',#142,.T.);
#144=ADVANCED_FACE('',(#143),#109,.F.);
#145=CARTESIAN_POINT('',(-10.317500000000001,10.317500000000003,-3.600000000000000));
#146=CARTESIAN_POINT('',(-10.317500000000001,10.317500000000003,0.0));
#147=CARTESIAN_POINT('',(-10.317500000000001,9.682500000000001,-3.600000000000000));
#148=CARTESIAN_POINT('',(-10.317500000000001,9.682500000000001,0.0));
#149=B_SPLINE_SURFACE_WITH_KNOTS('',1,1,((#145,#147),(#146,#148)),.UNSPECIFIED.,.F.,.F.,.U.,(2,2),(2,2),(0.0,3.600000000000000),(0.0,0.635000000000002),.UNSPECIFIED.);
#150=CARTESIAN_POINT('',(-10.317500000000001,9.682500000000001,0.0));
#151=DIRECTION('',(0.0,0.0,-1.0));
#152=VECTOR('',#151,3.600000000000000);
#153=LINE('',#150,#152);
#154=EDGE_CURVE('',#81,#129,#153,.T.);
#155=ORIENTED_EDGE('',*,*,#154,.F.);
#156=ORIENTED_EDGE('',*,*,#86,.T.);
#157=CARTESIAN_POINT('',(-10.317500000000001,10.317500000000003,0.0));
#158=DIRECTION('',(0.0,0.0,-1.0));
#159=VECTOR('',#158,3.600000000000000);
#160=LINE('',#157,#159);
#161=EDGE_CURVE('',#71,#113,#160,.T.);
#162=ORIENTED_EDGE('',*,*,#161,.T.);
#163=ORIENTED_EDGE('',*,*,#140,.T.);
#164=EDGE_LOOP('',(#155,#156,#162,#163));
#165=FACE_OUTER_BOUND('',#164,.T.);
#166=ADVANCED_FACE('',(#165),#149,.F.);
#167=CARTESIAN_POINT('',(-9.682499999999999,9.682500000000001,0.0));
#168=CARTESIAN_POINT('',(-9.682499999999999,9.682500000000001,-3.600000000000000));
#169=CARTESIAN_POINT('',(-10.317500000000001,9.682500000000001,0.0));
#170=CARTESIAN_POINT('',(-10.317500000000001,9.682500000000001,-3.600000000000000));
#171=B_SPLINE_SURFACE_WITH_KNOTS('',1,1,((#167,#169),(#168,#170)),.UNSPECIFIED.,.F.,.F.,.U.,(2,2),(2,2),(0.0,3.600000000000000),(0.0,0.635000000000002),.UNSPECIFIED.);
#172=CARTESIAN_POINT('',(-9.682499999999999,9.682500000000001,0.0));
#173=DIRECTION('',(0.0,0.0,-1.0));
#174=VECTOR('',#173,3.600000000000000);
#175=LINE('',#172,#174);
#176=EDGE_CURVE('',#89,#121,#175,.T.);
#177=ORIENTED_EDGE('',*,*,#176,.F.);
#178=ORIENTED_EDGE('',*,*,#94,.T.);
#179=ORIENTED_EDGE('',*,*,#154,.T.);
#180=ORIENTED_EDGE('',*,*,#134,.T.);
#181=EDGE_LOOP('',(#177,#178,#179,#180));
#182=FACE_OUTER_BOUND('',#181,.T.);
#183=ADVANCED_FACE('',(#182),#171,.F.);
#184=CARTESIAN_POINT('',(-9.682499999999999,10.317500000000003,0.0));
#185=CARTESIAN_POINT('',(-9.682499999999999,10.317500000000003,-3.600000000000000));
#186=CARTESIAN_POINT('',(-9.682499999999999,9.682500000000001,0.0));
#187=CARTESIAN_POINT('',(-9.682499999999999,9.682500000000001,-3.600000000000000));
#188=B_SPLINE_SURFACE_WITH_KNOTS('',1,1,((#184,#186),(#185,#187)),.UNSPECIFIED.,.F.,.F.,.U.,(2,2),(2,2),(0.0,3.600000000000000),(0.0,0.635000000000002),.UNSPECIFIED.);
#189=CARTESIAN_POINT('',(-9.682499999999999,10.317500000000003,0.0));
#190=DIRECTION('',(0.0,0.0,-1.0));
#191=VECTOR('',#190,3.600000000000000);
#192=LINE('',#189,#191);
#193=EDGE_CURVE('',#73,#111,#192,.T.);
#194=ORIENTED_EDGE('',*,*,#193,.F.);
#195=ORIENTED_EDGE('',*,*,#100,.T.);
#196=ORIENTED_EDGE('',*,*,#176,.T.);
#197=ORIENTED_EDGE('',*,*,#126,.T.);
#198=EDGE_LOOP('',(#194,#195,#196,#197));
#199=FACE_OUTER_BOUND('',#198,.T.);
#200=ADVANCED_FACE('',(#199),#188,.F.);
#201=CARTESIAN_POINT('',(-9.682499999999999,10.317500000000003,-3.600000000000000));
#202=CARTESIAN_POINT('',(-9.682499999999999,10.317500000000003,0.0));
#203=CARTESIAN_POINT('',(-10.317500000000001,10.317500000000003,-3.600000000000000));
#204=CARTESIAN_POINT('',(-10.317500000000001,10.317500000000003,0.0));
#205=B_SPLINE_SURFACE_WITH_KNOTS('',1,1,((#201,#203),(#202,#204)),.UNSPECIFIED.,.F.,.F.,.U.,(2,2),(2,2),(0.0,3.600000000000000),(0.0,0.635000000000002),.UNSPECIFIED.);
#206=ORIENTED_EDGE('',*,*,#161,.F.);
#207=ORIENTED_EDGE('',*,*,#78,.T.);
#208=ORIENTED_EDGE('',*,*,#193,.T.);
#209=ORIENTED_EDGE('',*,*,#118,.T.);
#210=EDGE_LOOP('',(#206,#207,#208,#209));
#211=FACE_OUTER_BOUND('',#210,.T.);
#212=ADVANCED_FACE('',(#211),#205,.F.);
#213=CLOSED_SHELL('',(#104,#144,#166,#183,#200,#212));
#214=MANIFOLD_SOLID_BREP('CAB',#213);
#215=COLOUR_RGB('254',0.866000000000000,0.866000000000000,0.866000000000000);
#216=SURFACE_STYLE_USAGE(.BOTH.,#217);
#217=SURFACE_SIDE_STYLE('NONE',(#218));
#218=SURFACE_STYLE_FILL_AREA(#219);
#219=FILL_AREA_STYLE('NONE',(#220));
#220=FILL_AREA_STYLE_COLOUR('NONE',#215);
#221=PRESENTATION_STYLE_ASSIGNMENT((#216));
#222=STYLED_ITEM('NONE',(#221),#214);
#223=MECHANICAL_DESIGN_GEOMETRIC_PRESENTATION_REPRESENTATION('NONE',(#222,#375,#526,#677,#828,#979,#1441),#28);
#224=PRESENTATION_LAYER_ASSIGNMENT('3D','None',(#214,#374,#525,#676,#827,#978,#1433));
#225=CARTESIAN_POINT('',(10.317500000000001,9.682500000000001,0.0));
#226=CARTESIAN_POINT('',(10.317500000000001,10.317500000000003,0.0));
#227=CARTESIAN_POINT('',(9.682499999999999,9.682500000000001,0.0));
#228=CARTESIAN_POINT('',(9.682499999999999,10.317500000000003,0.0));
#229=B_SPLINE_SURFACE_WITH_KNOTS('',1,1,((#225,#227),(#226,#228)),.UNSPECIFIED.,.F.,.F.,.U.,(2,2),(2,2),(0.0,0.635000000000002),(0.0,0.635000000000002),.UNSPECIFIED.);
#230=CARTESIAN_POINT('',(9.682499999999999,10.317500000000003,0.0));
#231=VERTEX_POINT('',#230);
#232=CARTESIAN_POINT('',(10.317500000000001,10.317500000000003,0.0));
#233=VERTEX_POINT('',#232);
#234=CARTESIAN_POINT('',(9.682499999999999,10.317500000000003,0.0));
#235=DIRECTION('',(1.0,0.0,0.0));
#236=VECTOR('',#235,0.635000000000002);
#237=LINE('',#234,#236);
#238=EDGE_CURVE('',#231,#233,#237,.T.);
#239=ORIENTED_EDGE('',*,*,#238,.F.);
#240=CARTESIAN_POINT('',(9.682499999999999,9.682500000000001,0.0));
#241=VERTEX_POINT('',#240);
#242=CARTESIAN_POINT('',(9.682499999999999,9.682500000000001,0.0));
#243=DIRECTION('',(0.0,1.0,0.0));
#244=VECTOR('',#243,0.635000000000002);
#245=LINE('',#242,#244);
#246=EDGE_CURVE('',#241,#231,#245,.T.);
#247=ORIENTED_EDGE('',*,*,#246,.F.);
#248=CARTESIAN_POINT('',(10.317500000000001,9.682500000000001,0.0));
#249=VERTEX_POINT('',#248);
#250=CARTESIAN_POINT('',(10.317500000000001,9.682500000000001,0.0));
#251=DIRECTION('',(-1.0,0.0,0.0));
#252=VECTOR('',#251,0.635000000000002);
#253=LINE('',#250,#252);
#254=EDGE_CURVE('',#249,#241,#253,.T.);
#255=ORIENTED_EDGE('',*,*,#254,.F.);
#256=CARTESIAN_POINT('',(10.317500000000001,10.317500000000003,0.0));
#257=DIRECTION('',(0.0,-1.0,0.0));
#258=VECTOR('',#257,0.635000000000002);
#259=LINE('',#256,#258);
#260=EDGE_CURVE('',#233,#249,#259,.T.);
#261=ORIENTED_EDGE('',*,*,#260,.F.);
#262=EDGE_LOOP('',(#239,#247,#255,#261));
#263=FACE_OUTER_BOUND('',#262,.T.);
#264=ADVANCED_FACE('',(#263),#229,.T.);
#265=CARTESIAN_POINT('',(10.317500000000001,9.682500000000001,-3.600000000000000));
#266=CARTESIAN_POINT('',(10.317500000000001,10.317500000000003,-3.600000000000000));
#267=CARTESIAN_POINT('',(9.682499999999999,9.682500000000001,-3.600000000000000));
#268=CARTESIAN_POINT('',(9.682499999999999,10.317500000000003,-3.600000000000000));
#269=B_SPLINE_SURFACE_WITH_KNOTS('',1,1,((#265,#267),(#266,#268)),.UNSPECIFIED.,.F.,.F.,.U.,(2,2),(2,2),(0.0,0.635000000000002),(0.0,0.635000000000002),.UNSPECIFIED.);
#270=CARTESIAN_POINT('',(10.317500000000001,10.317500000000003,-3.600000000000000));
#271=VERTEX_POINT('',#270);
#272=CARTESIAN_POINT('',(9.682499999999999,10.317500000000003,-3.600000000000000));
#273=VERTEX_POINT('',#272);
#274=CARTESIAN_POINT('',(10.317500000000001,10.317500000000003,-3.600000000000000));
#275=DIRECTION('',(-1.0,0.0,0.0));
#276=VECTOR('',#275,0.635000000000002);
#277=LINE('',#274,#276);
#278=EDGE_CURVE('',#271,#273,#277,.T.);
#279=ORIENTED_EDGE('',*,*,#278,.F.);
#280=CARTESIAN_POINT('',(10.317500000000001,9.682500000000001,-3.600000000000000));
#281=VERTEX_POINT('',#280);
#282=CARTESIAN_POINT('',(10.317500000000001,9.682500000000001,-3.600000000000000));
#283=DIRECTION('',(0.0,1.0,0.0));
#284=VECTOR('',#283,0.635000000000002);
#285=LINE('',#282,#284);
#286=EDGE_CURVE('',#281,#271,#285,.T.);
#287=ORIENTED_EDGE('',*,*,#286,.F.);
#288=CARTESIAN_POINT('',(9.682499999999999,9.682500000000001,-3.600000000000000));
#289=VERTEX_POINT('',#288);
#290=CARTESIAN_POINT('',(9.682499999999999,9.682500000000001,-3.600000000000000));
#291=DIRECTION('',(1.0,0.0,0.0));
#292=VECTOR('',#291,0.635000000000002);
#293=LINE('',#290,#292);
#294=EDGE_CURVE('',#289,#281,#293,.T.);
#295=ORIENTED_EDGE('',*,*,#294,.F.);
#296=CARTESIAN_POINT('',(9.682499999999999,10.317500000000003,-3.600000000000000));
#297=DIRECTION('',(0.0,-1.0,0.0));
#298=VECTOR('',#297,0.635000000000002);
#299=LINE('',#296,#298);
#300=EDGE_CURVE('',#273,#289,#299,.T.);
#301=ORIENTED_EDGE('',*,*,#300,.F.);
#302=EDGE_LOOP('',(#279,#287,#295,#301));
#303=FACE_OUTER_BOUND('',#302,.T.);
#304=ADVANCED_FACE('',(#303),#269,.F.);
#305=CARTESIAN_POINT('',(9.682499999999999,10.317500000000003,-3.600000000000000));
#306=CARTESIAN_POINT('',(9.682499999999999,10.317500000000003,0.0));
#307=CARTESIAN_POINT('',(9.682499999999999,9.682500000000001,-3.600000000000000));
#308=CARTESIAN_POINT('',(9.682499999999999,9.682500000000001,0.0));
#309=B_SPLINE_SURFACE_WITH_KNOTS('',1,1,((#305,#307),(#306,#308)),.UNSPECIFIED.,.F.,.F.,.U.,(2,2),(2,2),(0.0,3.600000000000000),(0.0,0.635000000000002),.UNSPECIFIED.);
#310=CARTESIAN_POINT('',(9.682499999999999,9.682500000000001,0.0));
#311=DIRECTION('',(0.0,0.0,-1.0));
#312=VECTOR('',#311,3.600000000000000);
#313=LINE('',#310,#312);
#314=EDGE_CURVE('',#241,#289,#313,.T.);
#315=ORIENTED_EDGE('',*,*,#314,.F.);
#316=ORIENTED_EDGE('',*,*,#246,.T.);
#317=CARTESIAN_POINT('',(9.682499999999999,10.317500000000003,0.0));
#318=DIRECTION('',(0.0,0.0,-1.0));
#319=VECTOR('',#318,3.600000000000000);
#320=LINE('',#317,#319);
#321=EDGE_CURVE('',#231,#273,#320,.T.);
#322=ORIENTED_EDGE('',*,*,#321,.T.);
#323=ORIENTED_EDGE('',*,*,#300,.T.);
#324=EDGE_LOOP('',(#315,#316,#322,#323));
#325=FACE_OUTER_BOUND('',#324,.T.);
#326=ADVANCED_FACE('',(#325),#309,.F.);
#327=CARTESIAN_POINT('',(10.317500000000001,9.682500000000001,0.0));
#328=CARTESIAN_POINT('',(10.317500000000001,9.682500000000001,-3.600000000000000));
#329=CARTESIAN_POINT('',(9.682499999999999,9.682500000000001,0.0));
#330=CARTESIAN_POINT('',(9.682499999999999,9.682500000000001,-3.600000000000000));
#331=B_SPLINE_SURFACE_WITH_KNOTS('',1,1,((#327,#329),(#328,#330)),.UNSPECIFIED.,.F.,.F.,.U.,(2,2),(2,2),(0.0,3.600000000000000),(0.0,0.635000000000002),.UNSPECIFIED.);
#332=CARTESIAN_POINT('',(10.317500000000001,9.682500000000001,0.0));
#333=DIRECTION('',(0.0,0.0,-1.0));
#334=VECTOR('',#333,3.600000000000000);
#335=LINE('',#332,#334);
#336=EDGE_CURVE('',#249,#281,#335,.T.);
#337=ORIENTED_EDGE('',*,*,#336,.F.);
#338=ORIENTED_EDGE('',*,*,#254,.T.);
#339=ORIENTED_EDGE('',*,*,#314,.T.);
#340=ORIENTED_EDGE('',*,*,#294,.T.);
#341=EDGE_LOOP('',(#337,#338,#339,#340));
#342=FACE_OUTER_BOUND('',#341,.T.);
#343=ADVANCED_FACE('',(#342),#331,.F.);
#344=CARTESIAN_POINT('',(10.317500000000001,10.317500000000003,0.0));
#345=CARTESIAN_POINT('',(10.317500000000001,10.317500000000003,-3.600000000000000));
#346=CARTESIAN_POINT('',(10.317500000000001,9.682500000000001,0.0));
#347=CARTESIAN_POINT('',(10.317500000000001,9.682500000000001,-3.600000000000000));
#348=B_SPLINE_SURFACE_WITH_KNOTS('',1,1,((#344,#346),(#345,#347)),.UNSPECIFIED.,.F.,.F.,.U.,(2,2),(2,2),(0.0,3.600000000000000),(0.0,0.635000000000002),.UNSPECIFIED.);
#349=CARTESIAN_POINT('',(10.317500000000001,10.317500000000003,0.0));
#350=DIRECTION('',(0.0,0.0,-1.0));
#351=VECTOR('',#350,3.600000000000000);
#352=LINE('',#349,#351);
#353=EDGE_CURVE('',#233,#271,#352,.T.);
#354=ORIENTED_EDGE('',*,*,#353,.F.);
#355=ORIENTED_EDGE('',*,*,#260,.T.);
#356=ORIENTED_EDGE('',*,*,#336,.T.);
#357=ORIENTED_EDGE('',*,*,#286,.T.);
#358=EDGE_LOOP('',(#354,#355,#356,#357));
#359=FACE_OUTER_BOUND('',#358,.T.);
#360=ADVANCED_FACE('',(#359),#348,.F.);
#361=CARTESIAN_POINT('',(10.317500000000001,10.317500000000003,-3.600000000000000));
#362=CARTESIAN_POINT('',(10.317500000000001,10.317500000000003,0.0));
#363=CARTESIAN_POINT('',(9.682499999999999,10.317500000000003,-3.600000000000000));
#364=CARTESIAN_POINT('',(9.682499999999999,10.317500000000003,0.0));
#365=B_SPLINE_SURFACE_WITH_KNOTS('',1,1,((#361,#363),(#362,#364)),.UNSPECIFIED.,.F.,.F.,.U.,(2,2),(2,2),(0.0,3.600000000000000),(0.0,0.635000000000002),.UNSPECIFIED.);
#366=ORIENTED_EDGE('',*,*,#321,.F.);
#367=ORIENTED_EDGE('',*,*,#238,.T.);
#368=ORIENTED_EDGE('',*,*,#353,.T.);
#369=ORIENTED_EDGE('',*,*,#278,.T.);
#370=EDGE_LOOP('',(#366,#367,#368,#369));
#371=FACE_OUTER_BOUND('',#370,.T.);
#372=ADVANCED_FACE('',(#371),#365,.F.);
#373=CLOSED_SHELL('',(#264,#304,#326,#343,#360,#372));
#374=MANIFOLD_SOLID_BREP('CA7',#373);
#375=STYLED_ITEM('NONE',(#221),#374);
#376=CARTESIAN_POINT('',(10.317500000000001,4.682499999999997,0.0));
#377=CARTESIAN_POINT('',(10.317500000000001,5.317499999999998,0.0));
#378=CARTESIAN_POINT('',(9.682499999999999,4.682499999999997,0.0));
#379=CARTESIAN_POINT('',(9.682499999999999,5.317499999999998,0.0));
#380=B_SPLINE_SURFACE_WITH_KNOTS('',1,1,((#376,#378),(#377,#379)),.UNSPECIFIED.,.F.,.F.,.U.,(2,2),(2,2),(0.0,0.635000000000002),(0.0,0.635000000000002),.UNSPECIFIED.);
#381=CARTESIAN_POINT('',(9.682499999999999,5.317499999999998,0.0));
#382=VERTEX_POINT('',#381);
#383=CARTESIAN_POINT('',(10.317500000000001,5.317499999999998,0.0));
#384=VERTEX_POINT('',#383);
#385=CARTESIAN_POINT('',(9.682499999999999,5.317499999999998,0.0));
#386=DIRECTION('',(1.0,0.0,0.0));
#387=VECTOR('',#386,0.635000000000002);
#388=LINE('',#385,#387);
#389=EDGE_CURVE('',#382,#384,#388,.T.);
#390=ORIENTED_EDGE('',*,*,#389,.F.);
#391=CARTESIAN_POINT('',(9.682499999999999,4.682499999999997,0.0));
#392=VERTEX_POINT('',#391);
#393=CARTESIAN_POINT('',(9.682499999999999,4.682499999999997,0.0));
#394=DIRECTION('',(0.0,1.0,0.0));
#395=VECTOR('',#394,0.635000000000002);
#396=LINE('',#393,#395);
#397=EDGE_CURVE('',#392,#382,#396,.T.);
#398=ORIENTED_EDGE('',*,*,#397,.F.);
#399=CARTESIAN_POINT('',(10.317500000000001,4.682499999999997,0.0));
#400=VERTEX_POINT('',#399);
#401=CARTESIAN_POINT('',(10.317500000000001,4.682499999999997,0.0));
#402=DIRECTION('',(-1.0,0.0,0.0));
#403=VECTOR('',#402,0.635000000000002);
#404=LINE('',#401,#403);
#405=EDGE_CURVE('',#400,#392,#404,.T.);
#406=ORIENTED_EDGE('',*,*,#405,.F.);
#407=CARTESIAN_POINT('',(10.317500000000001,5.317499999999998,0.0));
#408=DIRECTION('',(0.0,-1.0,0.0));
#409=VECTOR('',#408,0.635000000000002);
#410=LINE('',#407,#409);
#411=EDGE_CURVE('',#384,#400,#410,.T.);
#412=ORIENTED_EDGE('',*,*,#411,.F.);
#413=EDGE_LOOP('',(#390,#398,#406,#412));
#414=FACE_OUTER_BOUND('',#413,.T.);
#415=ADVANCED_FACE('',(#414),#380,.T.);
#416=CARTESIAN_POINT('',(10.317500000000001,4.682499999999997,-3.600000000000000));
#417=CARTESIAN_POINT('',(10.317500000000001,5.317499999999998,-3.600000000000000));
#418=CARTESIAN_POINT('',(9.682499999999999,4.682499999999997,-3.600000000000000));
#419=CARTESIAN_POINT('',(9.682499999999999,5.317499999999998,-3.600000000000000));
#420=B_SPLINE_SURFACE_WITH_KNOTS('',1,1,((#416,#418),(#417,#419)),.UNSPECIFIED.,.F.,.F.,.U.,(2,2),(2,2),(0.0,0.635000000000002),(0.0,0.635000000000002),.UNSPECIFIED.);
#421=CARTESIAN_POINT('',(10.317500000000001,5.317499999999998,-3.600000000000000));
#422=VERTEX_POINT('',#421);
#423=CARTESIAN_POINT('',(9.682499999999999,5.317499999999998,-3.600000000000000));
#424=VERTEX_POINT('',#423);
#425=CARTESIAN_POINT('',(10.317500000000001,5.317499999999998,-3.600000000000000));
#426=DIRECTION('',(-1.0,0.0,0.0));
#427=VECTOR('',#426,0.635000000000002);
#428=LINE('',#425,#427);
#429=EDGE_CURVE('',#422,#424,#428,.T.);
#430=ORIENTED_EDGE('',*,*,#429,.F.);
#431=CARTESIAN_POINT('',(10.317500000000001,4.682499999999997,-3.600000000000000));
#432=VERTEX_POINT('',#431);
#433=CARTESIAN_POINT('',(10.317500000000001,4.682499999999997,-3.600000000000000));
#434=DIRECTION('',(0.0,1.0,0.0));
#435=VECTOR('',#434,0.635000000000002);
#436=LINE('',#433,#435);
#437=EDGE_CURVE('',#432,#422,#436,.T.);
#438=ORIENTED_EDGE('',*,*,#437,.F.);
#439=CARTESIAN_POINT('',(9.682499999999999,4.682499999999997,-3.600000000000000));
#440=VERTEX_POINT('',#439);
#441=CARTESIAN_POINT('',(9.682499999999999,4.682499999999997,-3.600000000000000));
#442=DIRECTION('',(1.0,0.0,0.0));
#443=VECTOR('',#442,0.635000000000002);
#444=LINE('',#441,#443);
#445=EDGE_CURVE('',#440,#432,#444,.T.);
#446=ORIENTED_EDGE('',*,*,#445,.F.);
#447=CARTESIAN_POINT('',(9.682499999999999,5.317499999999998,-3.600000000000000));
#448=DIRECTION('',(0.0,-1.0,0.0));
#449=VECTOR('',#448,0.635000000000002);
#450=LINE('',#447,#449);
#451=EDGE_CURVE('',#424,#440,#450,.T.);
#452=ORIENTED_EDGE('',*,*,#451,.F.);
#453=EDGE_LOOP('',(#430,#438,#446,#452));
#454=FACE_OUTER_BOUND('',#453,.T.);
#455=ADVANCED_FACE('',(#454),#420,.F.);
#456=CARTESIAN_POINT('',(9.682499999999999,5.317499999999998,-3.600000000000000));
#457=CARTESIAN_POINT('',(9.682499999999999,5.317499999999998,0.0));
#458=CARTESIAN_POINT('',(9.682499999999999,4.682499999999997,-3.600000000000000));
#459=CARTESIAN_POINT('',(9.682499999999999,4.682499999999997,0.0));
#460=B_SPLINE_SURFACE_WITH_KNOTS('',1,1,((#456,#458),(#457,#459)),.UNSPECIFIED.,.F.,.F.,.U.,(2,2),(2,2),(0.0,3.600000000000000),(0.0,0.635000000000002),.UNSPECIFIED.);
#461=CARTESIAN_POINT('',(9.682499999999999,4.682499999999997,0.0));
#462=DIRECTION('',(0.0,0.0,-1.0));
#463=VECTOR('',#462,3.600000000000000);
#464=LINE('',#461,#463);
#465=EDGE_CURVE('',#392,#440,#464,.T.);
#466=ORIENTED_EDGE('',*,*,#465,.F.);
#467=ORIENTED_EDGE('',*,*,#397,.T.);
#468=CARTESIAN_POINT('',(9.682499999999999,5.317499999999998,0.0));
#469=DIRECTION('',(0.0,0.0,-1.0));
#470=VECTOR('',#469,3.600000000000000);
#471=LINE('',#468,#470);
#472=EDGE_CURVE('',#382,#424,#471,.T.);
#473=ORIENTED_EDGE('',*,*,#472,.T.);
#474=ORIENTED_EDGE('',*,*,#451,.T.);
#475=EDGE_LOOP('',(#466,#467,#473,#474));
#476=FACE_OUTER_BOUND('',#475,.T.);
#477=ADVANCED_FACE('',(#476),#460,.F.);
#478=CARTESIAN_POINT('',(10.317500000000001,4.682499999999997,0.0));
#479=CARTESIAN_POINT('',(10.317500000000001,4.682499999999997,-3.600000000000000));
#480=CARTESIAN_POINT('',(9.682499999999999,4.682499999999997,0.0));
#481=CARTESIAN_POINT('',(9.682499999999999,4.682499999999997,-3.600000000000000));
#482=B_SPLINE_SURFACE_WITH_KNOTS('',1,1,((#478,#480),(#479,#481)),.UNSPECIFIED.,.F.,.F.,.U.,(2,2),(2,2),(0.0,3.600000000000000),(0.0,0.635000000000002),.UNSPECIFIED.);
#483=CARTESIAN_POINT('',(10.317500000000001,4.682499999999997,0.0));
#484=DIRECTION('',(0.0,0.0,-1.0));
#485=VECTOR('',#484,3.600000000000000);
#486=LINE('',#483,#485);
#487=EDGE_CURVE('',#400,#432,#486,.T.);
#488=ORIENTED_EDGE('',*,*,#487,.F.);
#489=ORIENTED_EDGE('',*,*,#405,.T.);
#490=ORIENTED_EDGE('',*,*,#465,.T.);
#491=ORIENTED_EDGE('',*,*,#445,.T.);
#492=EDGE_LOOP('',(#488,#489,#490,#491));
#493=FACE_OUTER_BOUND('',#492,.T.);
#494=ADVANCED_FACE('',(#493),#482,.F.);
#495=CARTESIAN_POINT('',(10.317500000000001,5.317499999999998,0.0));
#496=CARTESIAN_POINT('',(10.317500000000001,5.317499999999998,-3.600000000000000));
#497=CARTESIAN_POINT('',(10.317500000000001,4.682499999999997,0.0));
#498=CARTESIAN_POINT('',(10.317500000000001,4.682499999999997,-3.600000000000000));
#499=B_SPLINE_SURFACE_WITH_KNOTS('',1,1,((#495,#497),(#496,#498)),.UNSPECIFIED.,.F.,.F.,.U.,(2,2),(2,2),(0.0,3.600000000000000),(0.0,0.635000000000002),.UNSPECIFIED.);
#500=CARTESIAN_POINT('',(10.317500000000001,5.317499999999998,0.0));
#501=DIRECTION('',(0.0,0.0,-1.0));
#502=VECTOR('',#501,3.600000000000000);
#503=LINE('',#500,#502);
#504=EDGE_CURVE('',#384,#422,#503,.T.);
#505=ORIENTED_EDGE('',*,*,#504,.F.);
#506=ORIENTED_EDGE('',*,*,#411,.T.);
#507=ORIENTED_EDGE('',*,*,#487,.T.);
#508=ORIENTED_EDGE('',*,*,#437,.T.);
#509=EDGE_LOOP('',(#505,#506,#507,#508));
#510=FACE_OUTER_BOUND('',#509,.T.);
#511=ADVANCED_FACE('',(#510),#499,.F.);
#512=CARTESIAN_POINT('',(10.317500000000001,5.317499999999998,-3.600000000000000));
#513=CARTESIAN_POINT('',(10.317500000000001,5.317499999999998,0.0));
#514=CARTESIAN_POINT('',(9.682499999999999,5.317499999999998,-3.600000000000000));
#515=CARTESIAN_POINT('',(9.682499999999999,5.317499999999998,0.0));
#516=B_SPLINE_SURFACE_WITH_KNOTS('',1,1,((#512,#514),(#513,#515)),.UNSPECIFIED.,.F.,.F.,.U.,(2,2),(2,2),(0.0,3.600000000000000),(0.0,0.635000000000002),.UNSPECIFIED.);
#517=ORIENTED_EDGE('',*,*,#472,.F.);
#518=ORIENTED_EDGE('',*,*,#389,.T.);
#519=ORIENTED_EDGE('',*,*,#504,.T.);
#520=ORIENTED_EDGE('',*,*,#429,.T.);
#521=EDGE_LOOP('',(#517,#518,#519,#520));
#522=FACE_OUTER_BOUND('',#521,.T.);
#523=ADVANCED_FACE('',(#522),#516,.F.);
#524=CLOSED_SHELL('',(#415,#455,#477,#494,#511,#523));
#525=MANIFOLD_SOLID_BREP('CA3',#524);
#526=STYLED_ITEM('NONE',(#221),#525);
#527=CARTESIAN_POINT('',(10.317500000000001,-5.317500000000003,0.0));
#528=CARTESIAN_POINT('',(10.317500000000001,-4.682500000000002,0.0));
#529=CARTESIAN_POINT('',(9.682499999999999,-5.317500000000003,0.0));
#530=CARTESIAN_POINT('',(9.682499999999999,-4.682500000000002,0.0));
#531=B_SPLINE_SURFACE_WITH_KNOTS('',1,1,((#527,#529),(#528,#530)),.UNSPECIFIED.,.F.,.F.,.U.,(2,2),(2,2),(0.0,0.635000000000002),(0.0,0.635000000000002),.UNSPECIFIED.);
#532=CARTESIAN_POINT('',(9.682499999999999,-4.682500000000002,0.0));
#533=VERTEX_POINT('',#532);
#534=CARTESIAN_POINT('',(10.317500000000001,-4.682500000000002,0.0));
#535=VERTEX_POINT('',#534);
#536=CARTESIAN_POINT('',(9.682499999999999,-4.682500000000002,0.0));
#537=DIRECTION('',(1.0,0.0,0.0));
#538=VECTOR('',#537,0.635000000000002);
#539=LINE('',#536,#538);
#540=EDGE_CURVE('',#533,#535,#539,.T.);
#541=ORIENTED_EDGE('',*,*,#540,.F.);
#542=CARTESIAN_POINT('',(9.682499999999999,-5.317500000000003,0.0));
#543=VERTEX_POINT('',#542);
#544=CARTESIAN_POINT('',(9.682499999999999,-5.317500000000003,0.0));
#545=DIRECTION('',(0.0,1.0,0.0));
#546=VECTOR('',#545,0.635000000000002);
#547=LINE('',#544,#546);
#548=EDGE_CURVE('',#543,#533,#547,.T.);
#549=ORIENTED_EDGE('',*,*,#548,.F.);
#550=CARTESIAN_POINT('',(10.317500000000001,-5.317500000000003,0.0));
#551=VERTEX_POINT('',#550);
#552=CARTESIAN_POINT('',(10.317500000000001,-5.317500000000003,0.0));
#553=DIRECTION('',(-1.0,0.0,0.0));
#554=VECTOR('',#553,0.635000000000002);
#555=LINE('',#552,#554);
#556=EDGE_CURVE('',#551,#543,#555,.T.);
#557=ORIENTED_EDGE('',*,*,#556,.F.);
#558=CARTESIAN_POINT('',(10.317500000000001,-4.682500000000002,0.0));
#559=DIRECTION('',(0.0,-1.0,0.0));
#560=VECTOR('',#559,0.635000000000002);
#561=LINE('',#558,#560);
#562=EDGE_CURVE('',#535,#551,#561,.T.);
#563=ORIENTED_EDGE('',*,*,#562,.F.);
#564=EDGE_LOOP('',(#541,#549,#557,#563));
#565=FACE_OUTER_BOUND('',#564,.T.);
#566=ADVANCED_FACE('',(#565),#531,.T.);
#567=CARTESIAN_POINT('',(10.317500000000001,-5.317500000000003,-3.600000000000000));
#568=CARTESIAN_POINT('',(10.317500000000001,-4.682500000000002,-3.600000000000000));
#569=CARTESIAN_POINT('',(9.682499999999999,-5.317500000000003,-3.600000000000000));
#570=CARTESIAN_POINT('',(9.682499999999999,-4.682500000000002,-3.600000000000000));
#571=B_SPLINE_SURFACE_WITH_KNOTS('',1,1,((#567,#569),(#568,#570)),.UNSPECIFIED.,.F.,.F.,.U.,(2,2),(2,2),(0.0,0.635000000000002),(0.0,0.635000000000002),.UNSPECIFIED.);
#572=CARTESIAN_POINT('',(10.317500000000001,-4.682500000000002,-3.600000000000000));
#573=VERTEX_POINT('',#572);
#574=CARTESIAN_POINT('',(9.682499999999999,-4.682500000000002,-3.600000000000000));
#575=VERTEX_POINT('',#574);
#576=CARTESIAN_POINT('',(10.317500000000001,-4.682500000000002,-3.600000000000000));
#577=DIRECTION('',(-1.0,0.0,0.0));
#578=VECTOR('',#577,0.635000000000002);
#579=LINE('',#576,#578);
#580=EDGE_CURVE('',#573,#575,#579,.T.);
#581=ORIENTED_EDGE('',*,*,#580,.F.);
#582=CARTESIAN_POINT('',(10.317500000000001,-5.317500000000003,-3.600000000000000));
#583=VERTEX_POINT('',#582);
#584=CARTESIAN_POINT('',(10.317500000000001,-5.317500000000003,-3.600000000000000));
#585=DIRECTION('',(0.0,1.0,0.0));
#586=VECTOR('',#585,0.635000000000002);
#587=LINE('',#584,#586);
#588=EDGE_CURVE('',#583,#573,#587,.T.);
#589=ORIENTED_EDGE('',*,*,#588,.F.);
#590=CARTESIAN_POINT('',(9.682499999999999,-5.317500000000003,-3.600000000000000));
#591=VERTEX_POINT('',#590);
#592=CARTESIAN_POINT('',(9.682499999999999,-5.317500000000003,-3.600000000000000));
#593=DIRECTION('',(1.0,0.0,0.0));
#594=VECTOR('',#593,0.635000000000002);
#595=LINE('',#592,#594);
#596=EDGE_CURVE('',#591,#583,#595,.T.);
#597=ORIENTED_EDGE('',*,*,#596,.F.);
#598=CARTESIAN_POINT('',(9.682499999999999,-4.682500000000002,-3.600000000000000));
#599=DIRECTION('',(0.0,-1.0,0.0));
#600=VECTOR('',#599,0.635000000000002);
#601=LINE('',#598,#600);
#602=EDGE_CURVE('',#575,#591,#601,.T.);
#603=ORIENTED_EDGE('',*,*,#602,.F.);
#604=EDGE_LOOP('',(#581,#589,#597,#603));
#605=FACE_OUTER_BOUND('',#604,.T.);
#606=ADVANCED_FACE('',(#605),#571,.F.);
#607=CARTESIAN_POINT('',(9.682499999999999,-4.682500000000002,-3.600000000000000));
#608=CARTESIAN_POINT('',(9.682499999999999,-4.682500000000002,0.0));
#609=CARTESIAN_POINT('',(9.682499999999999,-5.317500000000003,-3.600000000000000));
#610=CARTESIAN_POINT('',(9.682499999999999,-5.317500000000003,0.0));
#611=B_SPLINE_SURFACE_WITH_KNOTS('',1,1,((#607,#609),(#608,#610)),.UNSPECIFIED.,.F.,.F.,.U.,(2,2),(2,2),(0.0,3.600000000000000),(0.0,0.635000000000002),.UNSPECIFIED.);
#612=CARTESIAN_POINT('',(9.682499999999999,-5.317500000000003,0.0));
#613=DIRECTION('',(0.0,0.0,-1.0));
#614=VECTOR('',#613,3.600000000000000);
#615=LINE('',#612,#614);
#616=EDGE_CURVE('',#543,#591,#615,.T.);
#617=ORIENTED_EDGE('',*,*,#616,.F.);
#618=ORIENTED_EDGE('',*,*,#548,.T.);
#619=CARTESIAN_POINT('',(9.682499999999999,-4.682500000000002,0.0));
#620=DIRECTION('',(0.0,0.0,-1.0));
#621=VECTOR('',#620,3.600000000000000);
#622=LINE('',#619,#621);
#623=EDGE_CURVE('',#533,#575,#622,.T.);
#624=ORIENTED_EDGE('',*,*,#623,.T.);
#625=ORIENTED_EDGE('',*,*,#602,.T.);
#626=EDGE_LOOP('',(#617,#618,#624,#625));
#627=FACE_OUTER_BOUND('',#626,.T.);
#628=ADVANCED_FACE('',(#627),#611,.F.);
#629=CARTESIAN_POINT('',(10.317500000000001,-5.317500000000003,0.0));
#630=CARTESIAN_POINT('',(10.317500000000001,-5.317500000000003,-3.600000000000000));
#631=CARTESIAN_POINT('',(9.682499999999999,-5.317500000000003,0.0));
#632=CARTESIAN_POINT('',(9.682499999999999,-5.317500000000003,-3.600000000000000));
#633=B_SPLINE_SURFACE_WITH_KNOTS('',1,1,((#629,#631),(#630,#632)),.UNSPECIFIED.,.F.,.F.,.U.,(2,2),(2,2),(0.0,3.600000000000000),(0.0,0.635000000000002),.UNSPECIFIED.);
#634=CARTESIAN_POINT('',(10.317500000000001,-5.317500000000003,0.0));
#635=DIRECTION('',(0.0,0.0,-1.0));
#636=VECTOR('',#635,3.600000000000000);
#637=LINE('',#634,#636);
#638=EDGE_CURVE('',#551,#583,#637,.T.);
#639=ORIENTED_EDGE('',*,*,#638,.F.);
#640=ORIENTED_EDGE('',*,*,#556,.T.);
#641=ORIENTED_EDGE('',*,*,#616,.T.);
#642=ORIENTED_EDGE('',*,*,#596,.T.);
#643=EDGE_LOOP('',(#639,#640,#641,#642));
#644=FACE_OUTER_BOUND('',#643,.T.);
#645=ADVANCED_FACE('',(#644),#633,.F.);
#646=CARTESIAN_POINT('',(10.317500000000001,-4.682500000000002,0.0));
#647=CARTESIAN_POINT('',(10.317500000000001,-4.682500000000002,-3.600000000000000));
#648=CARTESIAN_POINT('',(10.317500000000001,-5.317500000000003,0.0));
#649=CARTESIAN_POINT('',(10.317500000000001,-5.317500000000003,-3.600000000000000));
#650=B_SPLINE_SURFACE_WITH_KNOTS('',1,1,((#646,#648),(#647,#649)),.UNSPECIFIED.,.F.,.F.,.U.,(2,2),(2,2),(0.0,3.600000000000000),(0.0,0.635000000000002),.UNSPECIFIED.);
#651=CARTESIAN_POINT('',(10.317500000000001,-4.682500000000002,0.0));
#652=DIRECTION('',(0.0,0.0,-1.0));
#653=VECTOR('',#652,3.600000000000000);
#654=LINE('',#651,#653);
#655=EDGE_CURVE('',#535,#573,#654,.T.);
#656=ORIENTED_EDGE('',*,*,#655,.F.);
#657=ORIENTED_EDGE('',*,*,#562,.T.);
#658=ORIENTED_EDGE('',*,*,#638,.T.);
#659=ORIENTED_EDGE('',*,*,#588,.T.);
#660=EDGE_LOOP('',(#656,#657,#658,#659));
#661=FACE_OUTER_BOUND('',#660,.T.);
#662=ADVANCED_FACE('',(#661),#650,.F.);
#663=CARTESIAN_POINT('',(10.317500000000001,-4.682500000000002,-3.600000000000000));
#664=CARTESIAN_POINT('',(10.317500000000001,-4.682500000000002,0.0));
#665=CARTESIAN_POINT('',(9.682499999999999,-4.682500000000002,-3.600000000000000));
#666=CARTESIAN_POINT('',(9.682499999999999,-4.682500000000002,0.0));
#667=B_SPLINE_SURFACE_WITH_KNOTS('',1,1,((#663,#665),(#664,#666)),.UNSPECIFIED.,.F.,.F.,.U.,(2,2),(2,2),(0.0,3.600000000000000),(0.0,0.635000000000002),.UNSPECIFIED.);
#668=ORIENTED_EDGE('',*,*,#623,.F.);
#669=ORIENTED_EDGE('',*,*,#540,.T.);
#670=ORIENTED_EDGE('',*,*,#655,.T.);
#671=ORIENTED_EDGE('',*,*,#580,.T.);
#672=EDGE_LOOP('',(#668,#669,#670,#671));
#673=FACE_OUTER_BOUND('',#672,.T.);
#674=ADVANCED_FACE('',(#673),#667,.F.);
#675=CLOSED_SHELL('',(#566,#606,#628,#645,#662,#674));
#676=MANIFOLD_SOLID_BREP('C9F',#675);
#677=STYLED_ITEM('NONE',(#221),#676);
#678=CARTESIAN_POINT('',(10.317500000000001,-10.317500000000003,0.0));
#679=CARTESIAN_POINT('',(10.317500000000001,-9.682500000000001,0.0));
#680=CARTESIAN_POINT('',(9.682499999999999,-10.317500000000003,0.0));
#681=CARTESIAN_POINT('',(9.682499999999999,-9.682500000000001,0.0));
#682=B_SPLINE_SURFACE_WITH_KNOTS('',1,1,((#678,#680),(#679,#681)),.UNSPECIFIED.,.F.,.F.,.U.,(2,2),(2,2),(0.0,0.635000000000002),(0.0,0.635000000000002),.UNSPECIFIED.);
#683=CARTESIAN_POINT('',(9.682499999999999,-9.682500000000001,0.0));
#684=VERTEX_POINT('',#683);
#685=CARTESIAN_POINT('',(10.317500000000001,-9.682500000000001,0.0));
#686=VERTEX_POINT('',#685);
#687=CARTESIAN_POINT('',(9.682499999999999,-9.682500000000001,0.0));
#688=DIRECTION('',(1.0,0.0,0.0));
#689=VECTOR('',#688,0.635000000000002);
#690=LINE('',#687,#689);
#691=EDGE_CURVE('',#684,#686,#690,.T.);
#692=ORIENTED_EDGE('',*,*,#691,.F.);
#693=CARTESIAN_POINT('',(9.682499999999999,-10.317500000000003,0.0));
#694=VERTEX_POINT('',#693);
#695=CARTESIAN_POINT('',(9.682499999999999,-10.317500000000003,0.0));
#696=DIRECTION('',(0.0,1.0,0.0));
#697=VECTOR('',#696,0.635000000000002);
#698=LINE('',#695,#697);
#699=EDGE_CURVE('',#694,#684,#698,.T.);
#700=ORIENTED_EDGE('',*,*,#699,.F.);
#701=CARTESIAN_POINT('',(10.317500000000001,-10.317500000000003,0.0));
#702=VERTEX_POINT('',#701);
#703=CARTESIAN_POINT('',(10.317500000000001,-10.317500000000003,0.0));
#704=DIRECTION('',(-1.0,0.0,0.0));
#705=VECTOR('',#704,0.635000000000002);
#706=LINE('',#703,#705);
#707=EDGE_CURVE('',#702,#694,#706,.T.);
#708=ORIENTED_EDGE('',*,*,#707,.F.);
#709=CARTESIAN_POINT('',(10.317500000000001,-9.682500000000001,0.0));
#710=DIRECTION('',(0.0,-1.0,0.0));
#711=VECTOR('',#710,0.635000000000002);
#712=LINE('',#709,#711);
#713=EDGE_CURVE('',#686,#702,#712,.T.);
#714=ORIENTED_EDGE('',*,*,#713,.F.);
#715=EDGE_LOOP('',(#692,#700,#708,#714));
#716=FACE_OUTER_BOUND('',#715,.T.);
#717=ADVANCED_FACE('',(#716),#682,.T.);
#718=CARTESIAN_POINT('',(10.317500000000001,-10.317500000000003,-3.600000000000000));
#719=CARTESIAN_POINT('',(10.317500000000001,-9.682500000000001,-3.600000000000000));
#720=CARTESIAN_POINT('',(9.682499999999999,-10.317500000000003,-3.600000000000000));
#721=CARTESIAN_POINT('',(9.682499999999999,-9.682500000000001,-3.600000000000000));
#722=B_SPLINE_SURFACE_WITH_KNOTS('',1,1,((#718,#720),(#719,#721)),.UNSPECIFIED.,.F.,.F.,.U.,(2,2),(2,2),(0.0,0.635000000000002),(0.0,0.635000000000002),.UNSPECIFIED.);
#723=CARTESIAN_POINT('',(10.317500000000001,-9.682500000000001,-3.600000000000000));
#724=VERTEX_POINT('',#723);
#725=CARTESIAN_POINT('',(9.682499999999999,-9.682500000000001,-3.600000000000000));
#726=VERTEX_POINT('',#725);
#727=CARTESIAN_POINT('',(10.317500000000001,-9.682500000000001,-3.600000000000000));
#728=DIRECTION('',(-1.0,0.0,0.0));
#729=VECTOR('',#728,0.635000000000002);
#730=LINE('',#727,#729);
#731=EDGE_CURVE('',#724,#726,#730,.T.);
#732=ORIENTED_EDGE('',*,*,#731,.F.);
#733=CARTESIAN_POINT('',(10.317500000000001,-10.317500000000003,-3.600000000000000));
#734=VERTEX_POINT('',#733);
#735=CARTESIAN_POINT('',(10.317500000000001,-10.317500000000003,-3.600000000000000));
#736=DIRECTION('',(0.0,1.0,0.0));
#737=VECTOR('',#736,0.635000000000002);
#738=LINE('',#735,#737);
#739=EDGE_CURVE('',#734,#724,#738,.T.);
#740=ORIENTED_EDGE('',*,*,#739,.F.);
#741=CARTESIAN_POINT('',(9.682499999999999,-10.317500000000003,-3.600000000000000));
#742=VERTEX_POINT('',#741);
#743=CARTESIAN_POINT('',(9.682499999999999,-10.317500000000003,-3.600000000000000));
#744=DIRECTION('',(1.0,0.0,0.0));
#745=VECTOR('',#744,0.635000000000002);
#746=LINE('',#743,#745);
#747=EDGE_CURVE('',#742,#734,#746,.T.);
#748=ORIENTED_EDGE('',*,*,#747,.F.);
#749=CARTESIAN_POINT('',(9.682499999999999,-9.682500000000001,-3.600000000000000));
#750=DIRECTION('',(0.0,-1.0,0.0));
#751=VECTOR('',#750,0.635000000000002);
#752=LINE('',#749,#751);
#753=EDGE_CURVE('',#726,#742,#752,.T.);
#754=ORIENTED_EDGE('',*,*,#753,.F.);
#755=EDGE_LOOP('',(#732,#740,#748,#754));
#756=FACE_OUTER_BOUND('',#755,.T.);
#757=ADVANCED_FACE('',(#756),#722,.F.);
#758=CARTESIAN_POINT('',(9.682499999999999,-9.682500000000001,-3.600000000000000));
#759=CARTESIAN_POINT('',(9.682499999999999,-9.682500000000001,0.0));
#760=CARTESIAN_POINT('',(9.682499999999999,-10.317500000000003,-3.600000000000000));
#761=CARTESIAN_POINT('',(9.682499999999999,-10.317500000000003,0.0));
#762=B_SPLINE_SURFACE_WITH_KNOTS('',1,1,((#758,#760),(#759,#761)),.UNSPECIFIED.,.F.,.F.,.U.,(2,2),(2,2),(0.0,3.600000000000000),(0.0,0.635000000000002),.UNSPECIFIED.);
#763=CARTESIAN_POINT('',(9.682499999999999,-10.317500000000003,0.0));
#764=DIRECTION('',(0.0,0.0,-1.0));
#765=VECTOR('',#764,3.600000000000000);
#766=LINE('',#763,#765);
#767=EDGE_CURVE('',#694,#742,#766,.T.);
#768=ORIENTED_EDGE('',*,*,#767,.F.);
#769=ORIENTED_EDGE('',*,*,#699,.T.);
#770=CARTESIAN_POINT('',(9.682499999999999,-9.682500000000001,0.0));
#771=DIRECTION('',(0.0,0.0,-1.0));
#772=VECTOR('',#771,3.600000000000000);
#773=LINE('',#770,#772);
#774=EDGE_CURVE('',#684,#726,#773,.T.);
#775=ORIENTED_EDGE('',*,*,#774,.T.);
#776=ORIENTED_EDGE('',*,*,#753,.T.);
#777=EDGE_LOOP('',(#768,#769,#775,#776));
#778=FACE_OUTER_BOUND('',#777,.T.);
#779=ADVANCED_FACE('',(#778),#762,.F.);
#780=CARTESIAN_POINT('',(10.317500000000001,-10.317500000000003,0.0));
#781=CARTESIAN_POINT('',(10.317500000000001,-10.317500000000003,-3.600000000000000));
#782=CARTESIAN_POINT('',(9.682499999999999,-10.317500000000003,0.0));
#783=CARTESIAN_POINT('',(9.682499999999999,-10.317500000000003,-3.600000000000000));
#784=B_SPLINE_SURFACE_WITH_KNOTS('',1,1,((#780,#782),(#781,#783)),.UNSPECIFIED.,.F.,.F.,.U.,(2,2),(2,2),(0.0,3.600000000000000),(0.0,0.635000000000002),.UNSPECIFIED.);
#785=CARTESIAN_POINT('',(10.317500000000001,-10.317500000000003,0.0));
#786=DIRECTION('',(0.0,0.0,-1.0));
#787=VECTOR('',#786,3.600000000000000);
#788=LINE('',#785,#787);
#789=EDGE_CURVE('',#702,#734,#788,.T.);
#790=ORIENTED_EDGE('',*,*,#789,.F.);
#791=ORIENTED_EDGE('',*,*,#707,.T.);
#792=ORIENTED_EDGE('',*,*,#767,.T.);
#793=ORIENTED_EDGE('',*,*,#747,.T.);
#794=EDGE_LOOP('',(#790,#791,#792,#793));
#795=FACE_OUTER_BOUND('',#794,.T.);
#796=ADVANCED_FACE('',(#795),#784,.F.);
#797=CARTESIAN_POINT('',(10.317500000000001,-9.682500000000001,0.0));
#798=CARTESIAN_POINT('',(10.317500000000001,-9.682500000000001,-3.600000000000000));
#799=CARTESIAN_POINT('',(10.317500000000001,-10.317500000000003,0.0));
#800=CARTESIAN_POINT('',(10.317500000000001,-10.317500000000003,-3.600000000000000));
#801=B_SPLINE_SURFACE_WITH_KNOTS('',1,1,((#797,#799),(#798,#800)),.UNSPECIFIED.,.F.,.F.,.U.,(2,2),(2,2),(0.0,3.600000000000000),(0.0,0.635000000000002),.UNSPECIFIED.);
#802=CARTESIAN_POINT('',(10.317500000000001,-9.682500000000001,0.0));
#803=DIRECTION('',(0.0,0.0,-1.0));
#804=VECTOR('',#803,3.600000000000000);
#805=LINE('',#802,#804);
#806=EDGE_CURVE('',#686,#724,#805,.T.);
#807=ORIENTED_EDGE('',*,*,#806,.F.);
#808=ORIENTED_EDGE('',*,*,#713,.T.);
#809=ORIENTED_EDGE('',*,*,#789,.T.);
#810=ORIENTED_EDGE('',*,*,#739,.T.);
#811=EDGE_LOOP('',(#807,#808,#809,#810));
#812=FACE_OUTER_BOUND('',#811,.T.);
#813=ADVANCED_FACE('',(#812),#801,.F.);
#814=CARTESIAN_POINT('',(10.317500000000001,-9.682500000000001,-3.600000000000000));
#815=CARTESIAN_POINT('',(10.317500000000001,-9.682500000000001,0.0));
#816=CARTESIAN_POINT('',(9.682499999999999,-9.682500000000001,-3.600000000000000));
#817=CARTESIAN_POINT('',(9.682499999999999,-9.682500000000001,0.0));
#818=B_SPLINE_SURFACE_WITH_KNOTS('',1,1,((#814,#816),(#815,#817)),.UNSPECIFIED.,.F.,.F.,.U.,(2,2),(2,2),(0.0,3.600000000000000),(0.0,0.635000000000002),.UNSPECIFIED.);
#819=ORIENTED_EDGE('',*,*,#774,.F.);
#820=ORIENTED_EDGE('',*,*,#691,.T.);
#821=ORIENTED_EDGE('',*,*,#806,.T.);
#822=ORIENTED_EDGE('',*,*,#731,.T.);
#823=EDGE_LOOP('',(#819,#820,#821,#822));
#824=FACE_OUTER_BOUND('',#823,.T.);
#825=ADVANCED_FACE('',(#824),#818,.F.);
#826=CLOSED_SHELL('',(#717,#757,#779,#796,#813,#825));
#827=MANIFOLD_SOLID_BREP('C9B',#826);
#828=STYLED_ITEM('NONE',(#221),#827);
#829=CARTESIAN_POINT('',(-9.682499999999997,-10.317500000000004,0.0));
#830=CARTESIAN_POINT('',(-9.682499999999997,-9.682499999999999,0.0));
#831=CARTESIAN_POINT('',(-10.317500000000003,-10.317500000000004,0.0));
#832=CARTESIAN_POINT('',(-10.317500000000003,-9.682499999999999,0.0));
#833=B_SPLINE_SURFACE_WITH_KNOTS('',1,1,((#829,#831),(#830,#832)),.UNSPECIFIED.,.F.,.F.,.U.,(2,2),(2,2),(0.0,0.635000000000005),(0.0,0.635000000000005),.UNSPECIFIED.);
#834=CARTESIAN_POINT('',(-10.317500000000003,-9.682499999999999,0.0));
#835=VERTEX_POINT('',#834);
#836=CARTESIAN_POINT('',(-9.682499999999997,-9.682499999999999,0.0));
#837=VERTEX_POINT('',#836);
#838=CARTESIAN_POINT('',(-10.317500000000003,-9.682499999999999,0.0));
#839=DIRECTION('',(1.0,0.0,0.0));
#840=VECTOR('',#839,0.635000000000005);
#841=LINE('',#838,#840);
#842=EDGE_CURVE('',#835,#837,#841,.T.);
#843=ORIENTED_EDGE('',*,*,#842,.F.);
#844=CARTESIAN_POINT('',(-10.317500000000003,-10.317500000000004,0.0));
#845=VERTEX_POINT('',#844);
#846=CARTESIAN_POINT('',(-10.317500000000003,-10.317500000000004,0.0));
#847=DIRECTION('',(0.0,1.0,0.0));
#848=VECTOR('',#847,0.635000000000005);
#849=LINE('',#846,#848);
#850=EDGE_CURVE('',#845,#835,#849,.T.);
#851=ORIENTED_EDGE('',*,*,#850,.F.);
#852=CARTESIAN_POINT('',(-9.682499999999997,-10.317500000000004,0.0));
#853=VERTEX_POINT('',#852);
#854=CARTESIAN_POINT('',(-9.682499999999997,-10.317500000000004,0.0));
#855=DIRECTION('',(-1.0,0.0,0.0));
#856=VECTOR('',#855,0.635000000000005);
#857=LINE('',#854,#856);
#858=EDGE_CURVE('',#853,#845,#857,.T.);
#859=ORIENTED_EDGE('',*,*,#858,.F.);
#860=CARTESIAN_POINT('',(-9.682499999999997,-9.682499999999999,0.0));
#861=DIRECTION('',(0.0,-1.0,0.0));
#862=VECTOR('',#861,0.635000000000005);
#863=LINE('',#860,#862);
#864=EDGE_CURVE('',#837,#853,#863,.T.);
#865=ORIENTED_EDGE('',*,*,#864,.F.);
#866=EDGE_LOOP('',(#843,#851,#859,#865));
#867=FACE_OUTER_BOUND('',#866,.T.);
#868=ADVANCED_FACE('',(#867),#833,.T.);
#869=CARTESIAN_POINT('',(-9.682499999999997,-10.317500000000004,-3.600000000000000));
#870=CARTESIAN_POINT('',(-9.682499999999997,-9.682499999999999,-3.600000000000000));
#871=CARTESIAN_POINT('',(-10.317500000000003,-10.317500000000004,-3.600000000000000));
#872=CARTESIAN_POINT('',(-10.317500000000003,-9.682499999999999,-3.600000000000000));
#873=B_SPLINE_SURFACE_WITH_KNOTS('',1,1,((#869,#871),(#870,#872)),.UNSPECIFIED.,.F.,.F.,.U.,(2,2),(2,2),(0.0,0.635000000000005),(0.0,0.635000000000005),.UNSPECIFIED.);
#874=CARTESIAN_POINT('',(-9.682499999999997,-9.682499999999999,-3.600000000000000));
#875=VERTEX_POINT('',#874);
#876=CARTESIAN_POINT('',(-10.317500000000003,-9.682499999999999,-3.600000000000000));
#877=VERTEX_POINT('',#876);
#878=CARTESIAN_POINT('',(-9.682499999999997,-9.682499999999999,-3.600000000000000));
#879=DIRECTION('',(-1.0,0.0,0.0));
#880=VECTOR('',#879,0.635000000000005);
#881=LINE('',#878,#880);
#882=EDGE_CURVE('',#875,#877,#881,.T.);
#883=ORIENTED_EDGE('',*,*,#882,.F.);
#884=CARTESIAN_POINT('',(-9.682499999999997,-10.317500000000004,-3.600000000000000));
#885=VERTEX_POINT('',#884);
#886=CARTESIAN_POINT('',(-9.682499999999997,-10.317500000000004,-3.600000000000000));
#887=DIRECTION('',(0.0,1.0,0.0));
#888=VECTOR('',#887,0.635000000000005);
#889=LINE('',#886,#888);
#890=EDGE_CURVE('',#885,#875,#889,.T.);
#891=ORIENTED_EDGE('',*,*,#890,.F.);
#892=CARTESIAN_POINT('',(-10.317500000000003,-10.317500000000004,-3.600000000000000));
#893=VERTEX_POINT('',#892);
#894=CARTESIAN_POINT('',(-10.317500000000003,-10.317500000000004,-3.600000000000000));
#895=DIRECTION('',(1.0,0.0,0.0));
#896=VECTOR('',#895,0.635000000000005);
#897=LINE('',#894,#896);
#898=EDGE_CURVE('',#893,#885,#897,.T.);
#899=ORIENTED_EDGE('',*,*,#898,.F.);
#900=CARTESIAN_POINT('',(-10.317500000000003,-9.682499999999999,-3.600000000000000));
#901=DIRECTION('',(0.0,-1.0,0.0));
#902=VECTOR('',#901,0.635000000000005);
#903=LINE('',#900,#902);
#904=EDGE_CURVE('',#877,#893,#903,.T.);
#905=ORIENTED_EDGE('',*,*,#904,.F.);
#906=EDGE_LOOP('',(#883,#891,#899,#905));
#907=FACE_OUTER_BOUND('',#906,.T.);
#908=ADVANCED_FACE('',(#907),#873,.F.);
#909=CARTESIAN_POINT('',(-10.317500000000003,-9.682499999999999,-3.600000000000000));
#910=CARTESIAN_POINT('',(-10.317500000000003,-9.682499999999999,0.0));
#911=CARTESIAN_POINT('',(-10.317500000000003,-10.317500000000004,-3.600000000000000));
#912=CARTESIAN_POINT('',(-10.317500000000003,-10.317500000000004,0.0));
#913=B_SPLINE_SURFACE_WITH_KNOTS('',1,1,((#909,#911),(#910,#912)),.UNSPECIFIED.,.F.,.F.,.U.,(2,2),(2,2),(0.0,3.600000000000000),(0.0,0.635000000000005),.UNSPECIFIED.);
#914=CARTESIAN_POINT('',(-10.317500000000003,-10.317500000000004,0.0));
#915=DIRECTION('',(0.0,0.0,-1.0));
#916=VECTOR('',#915,3.600000000000000);
#917=LINE('',#914,#916);
#918=EDGE_CURVE('',#845,#893,#917,.T.);
#919=ORIENTED_EDGE('',*,*,#918,.F.);
#920=ORIENTED_EDGE('',*,*,#850,.T.);
#921=CARTESIAN_POINT('',(-10.317500000000003,-9.682499999999999,0.0));
#922=DIRECTION('',(0.0,0.0,-1.0));
#923=VECTOR('',#922,3.600000000000000);
#924=LINE('',#921,#923);
#925=EDGE_CURVE('',#835,#877,#924,.T.);
#926=ORIENTED_EDGE('',*,*,#925,.T.);
#927=ORIENTED_EDGE('',*,*,#904,.T.);
#928=EDGE_LOOP('',(#919,#920,#926,#927));
#929=FACE_OUTER_BOUND('',#928,.T.);
#930=ADVANCED_FACE('',(#929),#913,.F.);
#931=CARTESIAN_POINT('',(-9.682499999999997,-10.317500000000004,0.0));
#932=CARTESIAN_POINT('',(-9.682499999999997,-10.317500000000004,-3.600000000000000));
#933=CARTESIAN_POINT('',(-10.317500000000003,-10.317500000000004,0.0));
#934=CARTESIAN_POINT('',(-10.317500000000003,-10.317500000000004,-3.600000000000000));
#935=B_SPLINE_SURFACE_WITH_KNOTS('',1,1,((#931,#933),(#932,#934)),.UNSPECIFIED.,.F.,.F.,.U.,(2,2),(2,2),(0.0,3.600000000000000),(0.0,0.635000000000005),.UNSPECIFIED.);
#936=CARTESIAN_POINT('',(-9.682499999999997,-10.317500000000004,0.0));
#937=DIRECTION('',(0.0,0.0,-1.0));
#938=VECTOR('',#937,3.600000000000000);
#939=LINE('',#936,#938);
#940=EDGE_CURVE('',#853,#885,#939,.T.);
#941=ORIENTED_EDGE('',*,*,#940,.F.);
#942=ORIENTED_EDGE('',*,*,#858,.T.);
#943=ORIENTED_EDGE('',*,*,#918,.T.);
#944=ORIENTED_EDGE('',*,*,#898,.T.);
#945=EDGE_LOOP('',(#941,#942,#943,#944));
#946=FACE_OUTER_BOUND('',#945,.T.);
#947=ADVANCED_FACE('',(#946),#935,.F.);
#948=CARTESIAN_POINT('',(-9.682499999999997,-9.682499999999999,0.0));
#949=CARTESIAN_POINT('',(-9.682499999999997,-9.682499999999999,-3.600000000000000));
#950=CARTESIAN_POINT('',(-9.682499999999997,-10.317500000000004,0.0));
#951=CARTESIAN_POINT('',(-9.682499999999997,-10.317500000000004,-3.600000000000000));
#952=B_SPLINE_SURFACE_WITH_KNOTS('',1,1,((#948,#950),(#949,#951)),.UNSPECIFIED.,.F.,.F.,.U.,(2,2),(2,2),(0.0,3.600000000000000),(0.0,0.635000000000005),.UNSPECIFIED.);
#953=CARTESIAN_POINT('',(-9.682499999999997,-9.682499999999999,0.0));
#954=DIRECTION('',(0.0,0.0,-1.0));
#955=VECTOR('',#954,3.600000000000000);
#956=LINE('',#953,#955);
#957=EDGE_CURVE('',#837,#875,#956,.T.);
#958=ORIENTED_EDGE('',*,*,#957,.F.);
#959=ORIENTED_EDGE('',*,*,#864,.T.);
#960=ORIENTED_EDGE('',*,*,#940,.T.);
#961=ORIENTED_EDGE('',*,*,#890,.T.);
#962=EDGE_LOOP('',(#958,#959,#960,#961));
#963=FACE_OUTER_BOUND('',#962,.T.);
#964=ADVANCED_FACE('',(#963),#952,.F.);
#965=CARTESIAN_POINT('',(-9.682499999999997,-9.682499999999999,-3.600000000000000));
#966=CARTESIAN_POINT('',(-9.682499999999997,-9.682499999999999,0.0));
#967=CARTESIAN_POINT('',(-10.317500000000003,-9.682499999999999,-3.600000000000000));
#968=CARTESIAN_POINT('',(-10.317500000000003,-9.682499999999999,0.0));
#969=B_SPLINE_SURFACE_WITH_KNOTS('',1,1,((#965,#967),(#966,#968)),.UNSPECIFIED.,.F.,.F.,.U.,(2,2),(2,2),(0.0,3.600000000000000),(0.0,0.635000000000005),.UNSPECIFIED.);
#970=ORIENTED_EDGE('',*,*,#925,.F.);
#971=ORIENTED_EDGE('',*,*,#842,.T.);
#972=ORIENTED_EDGE('',*,*,#957,.T.);
#973=ORIENTED_EDGE('',*,*,#882,.T.);
#974=EDGE_LOOP('',(#970,#971,#972,#973));
#975=FACE_OUTER_BOUND('',#974,.T.);
#976=ADVANCED_FACE('',(#975),#969,.F.);
#977=CLOSED_SHELL('',(#868,#908,#930,#947,#964,#976));
#978=MANIFOLD_SOLID_BREP('C96',#977);
#979=STYLED_ITEM('NONE',(#221),#978);
#980=CARTESIAN_POINT('',(13.250000000000004,15.750000000000000,20.800000000000001));
#981=DIRECTION('',(0.0,0.0,1.0));
#982=DIRECTION('',(0.0,1.0,0.0));
#983=AXIS2_PLACEMENT_3D('',#980,#981,#982);
#984=SPHERICAL_SURFACE('',#983,0.500000000000000);
#985=CARTESIAN_POINT('',(13.750000000000004,15.750000000000000,20.800000000000001));
#986=VERTEX_POINT('',#985);
#987=CARTESIAN_POINT('',(13.250000000000004,16.250000000000000,20.800000000000001));
#988=VERTEX_POINT('',#987);
#989=CARTESIAN_POINT('',(13.250000000000004,15.750000000000000,20.800000000000001));
#990=DIRECTION('',(0.0,0.0,1.000000000000000));
#991=DIRECTION('',(0.707106781186548,0.707106781186548,0.0));
#992=AXIS2_PLACEMENT_3D('',#989,#990,#991);
#993=CIRCLE('',#992,0.500000000000000);
#994=EDGE_CURVE('',#986,#988,#993,.T.);
#995=ORIENTED_EDGE('',*,*,#994,.T.);
#996=CARTESIAN_POINT('',(13.250000000000004,15.750000000000000,21.300000000000001));
#997=VERTEX_POINT('',#996);
#998=CARTESIAN_POINT('',(13.250000000000004,15.750000000000000,20.800000000000001));
#999=DIRECTION('',(1.0,0.0,0.0));
#1000=DIRECTION('',(0.0,0.0,1.0));
#1001=AXIS2_PLACEMENT_3D('',#998,#999,#1000);
#1002=CIRCLE('',#1001,0.500000000000000);
#1003=EDGE_CURVE('',#997,#988,#1002,.F.);
#1004=ORIENTED_EDGE('',*,*,#1003,.F.);
#1005=CARTESIAN_POINT('',(13.250000000000004,15.750000000000000,20.800000000000001));
#1006=DIRECTION('',(0.0,1.0,0.0));
#1007=DIRECTION('',(1.0,0.0,0.0));
#1008=AXIS2_PLACEMENT_3D('',#1005,#1006,#1007);
#1009=CIRCLE('',#1008,0.500000000000000);
#1010=EDGE_CURVE('',#986,#997,#1009,.F.);
#1011=ORIENTED_EDGE('',*,*,#1010,.F.);
#1012=EDGE_LOOP('',(#995,#1004,#1011));
#1013=FACE_OUTER_BOUND('',#1012,.T.);
#1014=ADVANCED_FACE('',(#1013),#984,.T.);
#1015=CARTESIAN_POINT('',(-13.250000000000004,15.750000000000000,20.800000000000001));
#1016=DIRECTION('',(0.0,0.0,1.0));
#1017=DIRECTION('',(0.0,1.0,0.0));
#1018=AXIS2_PLACEMENT_3D('',#1015,#1016,#1017);
#1019=SPHERICAL_SURFACE('',#1018,0.500000000000000);
#1020=CARTESIAN_POINT('',(-13.250000000000004,16.250000000000000,20.800000000000001));
#1021=VERTEX_POINT('',#1020);
#1022=CARTESIAN_POINT('',(-13.750000000000004,15.750000000000000,20.800000000000001));
#1023=VERTEX_POINT('',#1022);
#1024=CARTESIAN_POINT('',(-13.250000000000004,15.750000000000000,20.800000000000001));
#1025=DIRECTION('',(0.0,0.0,1.000000000000000));
#1026=DIRECTION('',(-0.707106781186548,0.707106781186548,0.0));
#1027=AXIS2_PLACEMENT_3D('',#1024,#1025,#1026);
#1028=CIRCLE('',#1027,0.500000000000000);
#1029=EDGE_CURVE('',#1021,#1023,#1028,.T.);
#1030=ORIENTED_EDGE('',*,*,#1029,.T.);
#1031=CARTESIAN_POINT('',(-13.250000000000004,15.750000000000000,21.300000000000001));
#1032=VERTEX_POINT('',#1031);
#1033=CARTESIAN_POINT('',(-13.250000000000004,15.750000000000000,20.800000000000001));
#1034=DIRECTION('',(0.0,1.0,0.0));
#1035=DIRECTION('',(0.0,0.0,1.0));
#1036=AXIS2_PLACEMENT_3D('',#1033,#1034,#1035);
#1037=CIRCLE('',#1036,0.500000000000000);
#1038=EDGE_CURVE('',#1032,#1023,#1037,.F.);
#1039=ORIENTED_EDGE('',*,*,#1038,.F.);
#1040=CARTESIAN_POINT('',(-13.250000000000004,15.750000000000000,20.800000000000001));
#1041=DIRECTION('',(-1.000000000000000,3.061516E-017,3.061516E-017));
#1042=DIRECTION('',(4.329637E-017,0.707106781186548,0.707106781186548));
#1043=AXIS2_PLACEMENT_3D('',#1040,#1041,#1042);
#1044=CIRCLE('',#1043,0.500000000000000);
#1045=EDGE_CURVE('',#1032,#1021,#1044,.T.);
#1046=ORIENTED_EDGE('',*,*,#1045,.T.);
#1047=EDGE_LOOP('',(#1030,#1039,#1046));
#1048=FACE_OUTER_BOUND('',#1047,.T.);
#1049=ADVANCED_FACE('',(#1048),#1019,.T.);
#1050=CARTESIAN_POINT('',(13.250000000000000,-15.750000000000000,20.800000000000001));
#1051=DIRECTION('',(0.0,0.0,1.0));
#1052=DIRECTION('',(0.0,1.0,0.0));
#1053=AXIS2_PLACEMENT_3D('',#1050,#1051,#1052);
#1054=SPHERICAL_SURFACE('',#1053,0.500000000000000);
#1055=CARTESIAN_POINT('',(13.750000000000000,-15.750000000000000,20.800000000000001));
#1056=VERTEX_POINT('',#1055);
#1057=CARTESIAN_POINT('',(13.250000000000000,-15.750000000000000,21.300000000000001));
#1058=VERTEX_POINT('',#1057);
#1059=CARTESIAN_POINT('',(13.250000000000000,-15.750000000000000,20.800000000000001));
#1060=DIRECTION('',(-3.061516E-017,-1.000000000000000,-3.061516E-017));
#1061=DIRECTION('',(0.707106781186548,-4.329637E-017,0.707106781186548));
#1062=AXIS2_PLACEMENT_3D('',#1059,#1060,#1061);
#1063=CIRCLE('',#1062,0.500000000000000);
#1064=EDGE_CURVE('',#1056,#1058,#1063,.T.);
#1065=ORIENTED_EDGE('',*,*,#1064,.T.);
#1066=CARTESIAN_POINT('',(13.250000000000000,-16.250000000000000,20.800000000000001));
#1067=VERTEX_POINT('',#1066);
#1068=CARTESIAN_POINT('',(13.250000000000000,-15.750000000000000,20.800000000000001));
#1069=DIRECTION('',(1.0,0.0,0.0));
#1070=DIRECTION('',(0.0,-1.0,0.0));
#1071=AXIS2_PLACEMENT_3D('',#1068,#1069,#1070);
#1072=CIRCLE('',#1071,0.500000000000000);
#1073=EDGE_CURVE('',#1067,#1058,#1072,.F.);
#1074=ORIENTED_EDGE('',*,*,#1073,.F.);
#1075=CARTESIAN_POINT('',(13.250000000000000,-15.750000000000000,20.800000000000001));
#1076=DIRECTION('',(0.0,0.0,1.000000000000000));
#1077=DIRECTION('',(0.707106781186548,-0.707106781186548,0.0));
#1078=AXIS2_PLACEMENT_3D('',#1075,#1076,#1077);
#1079=CIRCLE('',#1078,0.500000000000000);
#1080=EDGE_CURVE('',#1067,#1056,#1079,.T.);
#1081=ORIENTED_EDGE('',*,*,#1080,.T.);
#1082=EDGE_LOOP('',(#1065,#1074,#1081));
#1083=FACE_OUTER_BOUND('',#1082,.T.);
#1084=ADVANCED_FACE('',(#1083),#1054,.T.);
#1085=CARTESIAN_POINT('',(-13.250000000000007,-15.750000000000000,20.800000000000001));
#1086=DIRECTION('',(0.0,0.0,1.0));
#1087=DIRECTION('',(0.0,1.0,0.0));
#1088=AXIS2_PLACEMENT_3D('',#1085,#1086,#1087);
#1089=SPHERICAL_SURFACE('',#1088,0.500000000000000);
#1090=CARTESIAN_POINT('',(-13.250000000000007,-15.750000000000000,21.300000000000001));
#1091=VERTEX_POINT('',#1090);
#1092=CARTESIAN_POINT('',(-13.750000000000007,-15.750000000000000,20.800000000000001));
#1093=VERTEX_POINT('',#1092);
#1094=CARTESIAN_POINT('',(-13.250000000000007,-15.750000000000000,20.800000000000001));
#1095=DIRECTION('',(-3.061516E-017,-1.000000000000000,3.061516E-017));
#1096=DIRECTION('',(-0.707106781186548,4.329637E-017,0.707106781186548));
#1097=AXIS2_PLACEMENT_3D('',#1094,#1095,#1096);
#1098=CIRCLE('',#1097,0.500000000000000);
#1099=EDGE_CURVE('',#1091,#1093,#1098,.T.);
#1100=ORIENTED_EDGE('',*,*,#1099,.T.);
#1101=CARTESIAN_POINT('',(-13.250000000000007,-16.250000000000000,20.800000000000001));
#1102=VERTEX_POINT('',#1101);
#1103=CARTESIAN_POINT('',(-13.250000000000007,-15.750000000000000,20.800000000000001));
#1104=DIRECTION('',(0.0,0.0,1.0));
#1105=DIRECTION('',(0.0,-1.0,0.0));
#1106=AXIS2_PLACEMENT_3D('',#1103,#1104,#1105);
#1107=CIRCLE('',#1106,0.500000000000000);
#1108=EDGE_CURVE('',#1102,#1093,#1107,.F.);
#1109=ORIENTED_EDGE('',*,*,#1108,.F.);
#1110=CARTESIAN_POINT('',(-13.250000000000007,-15.750000000000000,20.800000000000001));
#1111=DIRECTION('',(-1.000000000000000,3.061516E-017,-3.061516E-017));
#1112=DIRECTION('',(-4.329637E-017,-0.707106781186548,0.707106781186548));
#1113=AXIS2_PLACEMENT_3D('',#1110,#1111,#1112);
#1114=CIRCLE('',#1113,0.500000000000000);
#1115=EDGE_CURVE('',#1102,#1091,#1114,.T.);
#1116=ORIENTED_EDGE('',*,*,#1115,.T.);
#1117=EDGE_LOOP('',(#1100,#1109,#1116));
#1118=FACE_OUTER_BOUND('',#1117,.T.);
#1119=ADVANCED_FACE('',(#1118),#1089,.T.);
#1120=CARTESIAN_POINT('',(-13.250000000000007,-15.750000000000000,10.650000000000000));
#1121=DIRECTION('',(0.0,0.0,-1.0));
#1122=DIRECTION('',(-0.707106781186548,-0.707106781186548,0.0));
#1123=AXIS2_PLACEMENT_3D('',#1120,#1121,#1122);
#1124=CYLINDRICAL_SURFACE('',#1123,0.500000000000000);
#1125=CARTESIAN_POINT('',(-13.750000000000007,-15.750000000000000,0.0));
#1126=VERTEX_POINT('',#1125);
#1127=CARTESIAN_POINT('',(-13.250000000000007,-16.250000000000000,0.0));
#1128=VERTEX_POINT('',#1127);
#1129=CARTESIAN_POINT('',(-13.250000000000007,-15.750000000000000,0.0));
#1130=DIRECTION('',(0.0,0.0,1.000000000000000));
#1131=DIRECTION('',(-0.707106781186548,-0.707106781186548,0.0));
#1132=AXIS2_PLACEMENT_3D('',#1129,#1130,#1131);
#1133=CIRCLE('',#1132,0.500000000000000);
#1134=EDGE_CURVE('',#1126,#1128,#1133,.T.);
#1135=ORIENTED_EDGE('',*,*,#1134,.T.);
#1136=CARTESIAN_POINT('',(-13.250000000000007,-16.250000000000000,0.0));
#1137=DIRECTION('',(0.0,0.0,1.0));
#1138=VECTOR('',#1137,20.800000000000001);
#1139=LINE('',#1136,#1138);
#1140=EDGE_CURVE('',#1128,#1102,#1139,.T.);
#1141=ORIENTED_EDGE('',*,*,#1140,.T.);
#1142=ORIENTED_EDGE('',*,*,#1108,.T.);
#1143=CARTESIAN_POINT('',(-13.750000000000007,-15.750000000000000,20.800000000000001));
#1144=DIRECTION('',(0.0,0.0,-1.0));
#1145=VECTOR('',#1144,20.800000000000001);
#1146=LINE('',#1143,#1145);
#1147=EDGE_CURVE('',#1093,#1126,#1146,.T.);
#1148=ORIENTED_EDGE('',*,*,#1147,.T.);
#1149=EDGE_LOOP('',(#1135,#1141,#1142,#1148));
#1150=FACE_OUTER_BOUND('',#1149,.T.);
#1151=ADVANCED_FACE('',(#1150),#1124,.T.);
#1152=CARTESIAN_POINT('',(-2.740734E-015,-15.750000000000000,20.800000000000001));
#1153=DIRECTION('',(-1.0,6.123032E-017,0.0));
#1154=DIRECTION('',(-4.329637E-017,-0.707106781186548,0.707106781186548));
#1155=AXIS2_PLACEMENT_3D('',#1152,#1153,#1154);
#1156=CYLINDRICAL_SURFACE('',#1155,0.500000000000000);
#1157=ORIENTED_EDGE('',*,*,#1115,.F.);
#1158=CARTESIAN_POINT('',(-13.250000000000007,-16.250000000000000,20.800000000000001));
#1159=DIRECTION('',(1.0,0.0,0.0));
#1160=VECTOR('',#1159,26.500000000000007);
#1161=LINE('',#1158,#1160);
#1162=EDGE_CURVE('',#1102,#1067,#1161,.T.);
#1163=ORIENTED_EDGE('',*,*,#1162,.T.);
#1164=ORIENTED_EDGE('',*,*,#1073,.T.);
#1165=CARTESIAN_POINT('',(13.250000000000000,-15.750000000000000,21.300000000000001));
#1166=DIRECTION('',(-1.0,0.0,0.0));
#1167=VECTOR('',#1166,26.500000000000007);
#1168=LINE('',#1165,#1167);
#1169=EDGE_CURVE('',#1058,#1091,#1168,.T.);
#1170=ORIENTED_EDGE('',*,*,#1169,.T.);
#1171=EDGE_LOOP('',(#1157,#1163,#1164,#1170));
#1172=FACE_OUTER_BOUND('',#1171,.T.);
#1173=ADVANCED_FACE('',(#1172),#1156,.T.);
#1174=CARTESIAN_POINT('',(-13.250000000000005,8.113017E-016,20.800000000000001));
#1175=DIRECTION('',(6.123032E-017,1.0,0.0));
#1176=DIRECTION('',(-0.707106781186548,4.329637E-017,0.707106781186548));
#1177=AXIS2_PLACEMENT_3D('',#1174,#1175,#1176);
#1178=CYLINDRICAL_SURFACE('',#1177,0.500000000000000);
#1179=ORIENTED_EDGE('',*,*,#1038,.T.);
#1180=CARTESIAN_POINT('',(-13.750000000000004,15.750000000000000,20.800000000000001));
#1181=DIRECTION('',(0.0,-1.0,0.0));
#1182=VECTOR('',#1181,31.500000000000000);
#1183=LINE('',#1180,#1182);
#1184=EDGE_CURVE('',#1023,#1093,#1183,.T.);
#1185=ORIENTED_EDGE('',*,*,#1184,.T.);
#1186=ORIENTED_EDGE('',*,*,#1099,.F.);
#1187=CARTESIAN_POINT('',(-13.250000000000007,-15.750000000000000,21.300000000000001));
#1188=DIRECTION('',(0.0,1.0,0.0));
#1189=VECTOR('',#1188,31.500000000000000);
#1190=LINE('',#1187,#1189);
#1191=EDGE_CURVE('',#1091,#1032,#1190,.T.);
#1192=ORIENTED_EDGE('',*,*,#1191,.T.);
#1193=EDGE_LOOP('',(#1179,#1185,#1186,#1192));
#1194=FACE_OUTER_BOUND('',#1193,.T.);
#1195=ADVANCED_FACE('',(#1194),#1178,.T.);
#1196=CARTESIAN_POINT('',(13.250000000000002,-8.113017E-016,20.800000000000001));
#1197=DIRECTION('',(-6.123032E-017,-1.0,0.0));
#1198=DIRECTION('',(0.707106781186548,-4.329637E-017,0.707106781186548));
#1199=AXIS2_PLACEMENT_3D('',#1196,#1197,#1198);
#1200=CYLINDRICAL_SURFACE('',#1199,0.500000000000000);
#1201=ORIENTED_EDGE('',*,*,#1064,.F.);
#1202=CARTESIAN_POINT('',(13.750000000000000,-15.750000000000000,20.800000000000001));
#1203=DIRECTION('',(0.0,1.0,0.0));
#1204=VECTOR('',#1203,31.500000000000000);
#1205=LINE('',#1202,#1204);
#1206=EDGE_CURVE('',#1056,#986,#1205,.T.);
#1207=ORIENTED_EDGE('',*,*,#1206,.T.);
#1208=ORIENTED_EDGE('',*,*,#1010,.T.);
#1209=CARTESIAN_POINT('',(13.250000000000004,15.750000000000000,21.300000000000001));
#1210=DIRECTION('',(0.0,-1.0,0.0));
#1211=VECTOR('',#1210,31.500000000000000);
#1212=LINE('',#1209,#1211);
#1213=EDGE_CURVE('',#997,#1058,#1212,.T.);
#1214=ORIENTED_EDGE('',*,*,#1213,.T.);
#1215=EDGE_LOOP('',(#1201,#1207,#1208,#1214));
#1216=FACE_OUTER_BOUND('',#1215,.T.);
#1217=ADVANCED_FACE('',(#1216),#1200,.T.);
#1218=CARTESIAN_POINT('',(13.250000000000000,-15.750000000000000,10.650000000000000));
#1219=DIRECTION('',(0.0,0.0,-1.0));
#1220=DIRECTION('',(0.707106781186548,-0.707106781186548,0.0));
#1221=AXIS2_PLACEMENT_3D('',#1218,#1219,#1220);
#1222=CYLINDRICAL_SURFACE('',#1221,0.500000000000000);
#1223=CARTESIAN_POINT('',(13.250000000000000,-16.250000000000000,0.0));
#1224=VERTEX_POINT('',#1223);
#1225=CARTESIAN_POINT('',(13.750000000000000,-15.750000000000000,0.0));
#1226=VERTEX_POINT('',#1225);
#1227=CARTESIAN_POINT('',(13.250000000000000,-15.750000000000000,0.0));
#1228=DIRECTION('',(0.0,0.0,1.000000000000000));
#1229=DIRECTION('',(0.707106781186548,-0.707106781186548,0.0));
#1230=AXIS2_PLACEMENT_3D('',#1227,#1228,#1229);
#1231=CIRCLE('',#1230,0.500000000000000);
#1232=EDGE_CURVE('',#1224,#1226,#1231,.T.);
#1233=ORIENTED_EDGE('',*,*,#1232,.T.);
#1234=CARTESIAN_POINT('',(13.750000000000000,-15.750000000000000,0.0));
#1235=DIRECTION('',(0.0,0.0,1.0));
#1236=VECTOR('',#1235,20.800000000000001);
#1237=LINE('',#1234,#1236);
#1238=EDGE_CURVE('',#1226,#1056,#1237,.T.);
#1239=ORIENTED_EDGE('',*,*,#1238,.T.);
#1240=ORIENTED_EDGE('',*,*,#1080,.F.);
#1241=CARTESIAN_POINT('',(13.250000000000000,-16.250000000000000,20.800000000000001));
#1242=DIRECTION('',(0.0,0.0,-1.0));
#1243=VECTOR('',#1242,20.800000000000001);
#1244=LINE('',#1241,#1243);
#1245=EDGE_CURVE('',#1067,#1224,#1244,.T.);
#1246=ORIENTED_EDGE('',*,*,#1245,.T.);
#1247=EDGE_LOOP('',(#1233,#1239,#1240,#1246));
#1248=FACE_OUTER_BOUND('',#1247,.T.);
#1249=ADVANCED_FACE('',(#1248),#1222,.T.);
#1250=CARTESIAN_POINT('',(-8.119793E-016,15.750000000000000,20.800000000000001));
#1251=DIRECTION('',(1.0,-6.123032E-017,0.0));
#1252=DIRECTION('',(4.329637E-017,0.707106781186548,0.707106781186548));
#1253=AXIS2_PLACEMENT_3D('',#1250,#1251,#1252);
#1254=CYLINDRICAL_SURFACE('',#1253,0.500000000000000);
#1255=ORIENTED_EDGE('',*,*,#1003,.T.);
#1256=CARTESIAN_POINT('',(13.250000000000004,16.250000000000000,20.800000000000001));
#1257=DIRECTION('',(-1.0,0.0,0.0));
#1258=VECTOR('',#1257,26.500000000000007);
#1259=LINE('',#1256,#1258);
#1260=EDGE_CURVE('',#988,#1021,#1259,.T.);
#1261=ORIENTED_EDGE('',*,*,#1260,.T.);
#1262=ORIENTED_EDGE('',*,*,#1045,.F.);
#1263=CARTESIAN_POINT('',(-13.250000000000004,15.750000000000000,21.300000000000001));
#1264=DIRECTION('',(1.0,0.0,0.0));
#1265=VECTOR('',#1264,26.500000000000007);
#1266=LINE('',#1263,#1265);
#1267=EDGE_CURVE('',#1032,#997,#1266,.T.);
#1268=ORIENTED_EDGE('',*,*,#1267,.T.);
#1269=EDGE_LOOP('',(#1255,#1261,#1262,#1268));
#1270=FACE_OUTER_BOUND('',#1269,.T.);
#1271=ADVANCED_FACE('',(#1270),#1254,.T.);
#1272=CARTESIAN_POINT('',(-13.250000000000004,15.750000000000000,10.650000000000000));
#1273=DIRECTION('',(0.0,0.0,-1.0));
#1274=DIRECTION('',(-0.707106781186548,0.707106781186548,0.0));
#1275=AXIS2_PLACEMENT_3D('',#1272,#1273,#1274);
#1276=CYLINDRICAL_SURFACE('',#1275,0.500000000000000);
#1277=CARTESIAN_POINT('',(-13.250000000000004,16.250000000000000,0.0));
#1278=VERTEX_POINT('',#1277);
#1279=CARTESIAN_POINT('',(-13.750000000000004,15.750000000000000,0.0));
#1280=VERTEX_POINT('',#1279);
#1281=CARTESIAN_POINT('',(-13.250000000000004,15.750000000000000,0.0));
#1282=DIRECTION('',(0.0,0.0,1.000000000000000));
#1283=DIRECTION('',(-0.707106781186548,0.707106781186548,0.0));
#1284=AXIS2_PLACEMENT_3D('',#1281,#1282,#1283);
#1285=CIRCLE('',#1284,0.500000000000000);
#1286=EDGE_CURVE('',#1278,#1280,#1285,.T.);
#1287=ORIENTED_EDGE('',*,*,#1286,.T.);
#1288=CARTESIAN_POINT('',(-13.750000000000004,15.750000000000000,0.0));
#1289=DIRECTION('',(0.0,0.0,1.0));
#1290=VECTOR('',#1289,20.800000000000001);
#1291=LINE('',#1288,#1290);
#1292=EDGE_CURVE('',#1280,#1023,#1291,.T.);
#1293=ORIENTED_EDGE('',*,*,#1292,.T.);
#1294=ORIENTED_EDGE('',*,*,#1029,.F.);
#1295=CARTESIAN_POINT('',(-13.250000000000004,16.250000000000000,20.800000000000001));
#1296=DIRECTION('',(0.0,0.0,-1.0));
#1297=VECTOR('',#1296,20.800000000000001);
#1298=LINE('',#1295,#1297);
#1299=EDGE_CURVE('',#1021,#1278,#1298,.T.);
#1300=ORIENTED_EDGE('',*,*,#1299,.T.);
#1301=EDGE_LOOP('',(#1287,#1293,#1294,#1300));
#1302=FACE_OUTER_BOUND('',#1301,.T.);
#1303=ADVANCED_FACE('',(#1302),#1276,.T.);
#1304=CARTESIAN_POINT('',(13.250000000000004,15.750000000000000,10.650000000000000));
#1305=DIRECTION('',(0.0,0.0,-1.0));
#1306=DIRECTION('',(0.707106781186548,0.707106781186548,0.0));
#1307=AXIS2_PLACEMENT_3D('',#1304,#1305,#1306);
#1308=CYLINDRICAL_SURFACE('',#1307,0.500000000000000);
#1309=CARTESIAN_POINT('',(13.750000000000004,15.750000000000000,0.0));
#1310=VERTEX_POINT('',#1309);
#1311=CARTESIAN_POINT('',(13.250000000000004,16.250000000000000,0.0));
#1312=VERTEX_POINT('',#1311);
#1313=CARTESIAN_POINT('',(13.250000000000004,15.750000000000000,0.0));
#1314=DIRECTION('',(0.0,0.0,1.000000000000000));
#1315=DIRECTION('',(0.707106781186548,0.707106781186548,0.0));
#1316=AXIS2_PLACEMENT_3D('',#1313,#1314,#1315);
#1317=CIRCLE('',#1316,0.500000000000000);
#1318=EDGE_CURVE('',#1310,#1312,#1317,.T.);
#1319=ORIENTED_EDGE('',*,*,#1318,.T.);
#1320=CARTESIAN_POINT('',(13.250000000000004,16.250000000000000,0.0));
#1321=DIRECTION('',(0.0,0.0,1.0));
#1322=VECTOR('',#1321,20.800000000000001);
#1323=LINE('',#1320,#1322);
#1324=EDGE_CURVE('',#1312,#988,#1323,.T.);
#1325=ORIENTED_EDGE('',*,*,#1324,.T.);
#1326=ORIENTED_EDGE('',*,*,#994,.F.);
#1327=CARTESIAN_POINT('',(13.750000000000004,15.750000000000000,20.800000000000001));
#1328=DIRECTION('',(0.0,0.0,-1.0));
#1329=VECTOR('',#1328,20.800000000000001);
#1330=LINE('',#1327,#1329);
#1331=EDGE_CURVE('',#986,#1310,#1330,.T.);
#1332=ORIENTED_EDGE('',*,*,#1331,.T.);
#1333=EDGE_LOOP('',(#1319,#1325,#1326,#1332));
#1334=FACE_OUTER_BOUND('',#1333,.T.);
#1335=ADVANCED_FACE('',(#1334),#1308,.T.);
#1336=CARTESIAN_POINT('',(-13.750000000000004,15.750000000000000,0.0));
#1337=CARTESIAN_POINT('',(-13.750000000000004,15.750000000000000,20.800000000000001));
#1338=CARTESIAN_POINT('',(-13.750000000000005,-15.750000000000000,0.0));
#1339=CARTESIAN_POINT('',(-13.750000000000004,-15.750000000000000,20.800000000000001));
#1340=B_SPLINE_SURFACE_WITH_KNOTS('',1,1,((#1336,#1338),(#1337,#1339)),.UNSPECIFIED.,.F.,.F.,.U.,(2,2),(2,2),(0.0,20.800000000000001),(0.0,31.500000000000000),.UNSPECIFIED.);
#1341=ORIENTED_EDGE('',*,*,#1147,.F.);
#1342=ORIENTED_EDGE('',*,*,#1184,.F.);
#1343=ORIENTED_EDGE('',*,*,#1292,.F.);
#1344=CARTESIAN_POINT('',(-13.750000000000004,15.750000000000000,0.0));
#1345=DIRECTION('',(0.0,-1.0,0.0));
#1346=VECTOR('',#1345,31.500000000000000);
#1347=LINE('',#1344,#1346);
#1348=EDGE_CURVE('',#1280,#1126,#1347,.T.);
#1349=ORIENTED_EDGE('',*,*,#1348,.T.);
#1350=EDGE_LOOP('',(#1341,#1342,#1343,#1349));
#1351=FACE_OUTER_BOUND('',#1350,.T.);
#1352=ADVANCED_FACE('',(#1351),#1340,.F.);
#1353=CARTESIAN_POINT('',(13.250000000000004,16.250000000000000,0.0));
#1354=CARTESIAN_POINT('',(13.250000000000004,16.250000000000000,20.800000000000001));
#1355=CARTESIAN_POINT('',(-13.250000000000004,16.250000000000000,0.0));
#1356=CARTESIAN_POINT('',(-13.250000000000004,16.250000000000000,20.800000000000001));
#1357=B_SPLINE_SURFACE_WITH_KNOTS('',1,1,((#1353,#1355),(#1354,#1356)),.UNSPECIFIED.,.F.,.F.,.U.,(2,2),(2,2),(0.0,20.800000000000001),(0.0,26.500000000000007),.UNSPECIFIED.);
#1358=ORIENTED_EDGE('',*,*,#1299,.F.);
#1359=ORIENTED_EDGE('',*,*,#1260,.F.);
#1360=ORIENTED_EDGE('',*,*,#1324,.F.);
#1361=CARTESIAN_POINT('',(13.250000000000004,16.250000000000000,0.0));
#1362=DIRECTION('',(-1.0,0.0,0.0));
#1363=VECTOR('',#1362,26.500000000000007);
#1364=LINE('',#1361,#1363);
#1365=EDGE_CURVE('',#1312,#1278,#1364,.T.);
#1366=ORIENTED_EDGE('',*,*,#1365,.T.);
#1367=EDGE_LOOP('',(#1358,#1359,#1360,#1366));
#1368=FACE_OUTER_BOUND('',#1367,.T.);
#1369=ADVANCED_FACE('',(#1368),#1357,.F.);
#1370=CARTESIAN_POINT('',(13.250000000000004,-15.750000000000000,21.300000000000001));
#1371=CARTESIAN_POINT('',(13.250000000000005,15.750000000000000,21.300000000000001));
#1372=CARTESIAN_POINT('',(-13.250000000000011,-15.749999999999998,21.300000000000001));
#1373=CARTESIAN_POINT('',(-13.250000000000009,15.750000000000002,21.300000000000001));
#1374=B_SPLINE_SURFACE_WITH_KNOTS('',1,1,((#1370,#1372),(#1371,#1373)),.UNSPECIFIED.,.F.,.F.,.U.,(2,2),(2,2),(0.0,31.500000000000000),(0.0,26.500000000000014),.UNSPECIFIED.);
#1375=ORIENTED_EDGE('',*,*,#1169,.F.);
#1376=ORIENTED_EDGE('',*,*,#1213,.F.);
#1377=ORIENTED_EDGE('',*,*,#1267,.F.);
#1378=ORIENTED_EDGE('',*,*,#1191,.F.);
#1379=EDGE_LOOP('',(#1375,#1376,#1377,#1378));
#1380=FACE_OUTER_BOUND('',#1379,.T.);
#1381=ADVANCED_FACE('',(#1380),#1374,.T.);
#1382=CARTESIAN_POINT('',(13.750000000000004,-16.250000000000000,0.0));
#1383=CARTESIAN_POINT('',(13.750000000000005,16.250000000000000,0.0));
#1384=CARTESIAN_POINT('',(-13.750000000000011,-16.250000000000000,0.0));
#1385=CARTESIAN_POINT('',(-13.750000000000009,16.250000000000000,0.0));
#1386=B_SPLINE_SURFACE_WITH_KNOTS('',1,1,((#1382,#1384),(#1383,#1385)),.UNSPECIFIED.,.F.,.F.,.U.,(2,2),(2,2),(0.0,32.500000000000000),(0.0,27.500000000000014),.UNSPECIFIED.);
#1387=ORIENTED_EDGE('',*,*,#1134,.F.);
#1388=ORIENTED_EDGE('',*,*,#1348,.F.);
#1389=ORIENTED_EDGE('',*,*,#1286,.F.);
#1390=ORIENTED_EDGE('',*,*,#1365,.F.);
#1391=ORIENTED_EDGE('',*,*,#1318,.F.);
#1392=CARTESIAN_POINT('',(13.750000000000000,-15.750000000000000,0.0));
#1393=DIRECTION('',(0.0,1.0,0.0));
#1394=VECTOR('',#1393,31.500000000000000);
#1395=LINE('',#1392,#1394);
#1396=EDGE_CURVE('',#1226,#1310,#1395,.T.);
#1397=ORIENTED_EDGE('',*,*,#1396,.F.);
#1398=ORIENTED_EDGE('',*,*,#1232,.F.);
#1399=CARTESIAN_POINT('',(-13.250000000000007,-16.250000000000000,0.0));
#1400=DIRECTION('',(1.0,0.0,0.0));
#1401=VECTOR('',#1400,26.500000000000007);
#1402=LINE('',#1399,#1401);
#1403=EDGE_CURVE('',#1128,#1224,#1402,.T.);
#1404=ORIENTED_EDGE('',*,*,#1403,.F.);
#1405=EDGE_LOOP('',(#1387,#1388,#1389,#1390,#1391,#1397,#1398,#1404));
#1406=FACE_OUTER_BOUND('',#1405,.T.);
#1407=ADVANCED_FACE('',(#1406),#1386,.F.);
#1408=CARTESIAN_POINT('',(13.250000000000000,-16.250000000000000,20.800000000000001));
#1409=CARTESIAN_POINT('',(13.250000000000000,-16.250000000000000,0.0));
#1410=CARTESIAN_POINT('',(-13.250000000000007,-16.250000000000000,20.800000000000001));
#1411=CARTESIAN_POINT('',(-13.250000000000007,-16.250000000000000,0.0));
#1412=B_SPLINE_SURFACE_WITH_KNOTS('',1,1,((#1408,#1410),(#1409,#1411)),.UNSPECIFIED.,.F.,.F.,.U.,(2,2),(2,2),(0.0,20.800000000000001),(0.0,26.500000000000007),.UNSPECIFIED.);
#1413=ORIENTED_EDGE('',*,*,#1140,.F.);
#1414=ORIENTED_EDGE('',*,*,#1403,.T.);
#1415=ORIENTED_EDGE('',*,*,#1245,.F.);
#1416=ORIENTED_EDGE('',*,*,#1162,.F.);
#1417=EDGE_LOOP('',(#1413,#1414,#1415,#1416));
#1418=FACE_OUTER_BOUND('',#1417,.T.);
#1419=ADVANCED_FACE('',(#1418),#1412,.F.);
#1420=CARTESIAN_POINT('',(13.750000000000004,15.750000000000000,20.800000000000001));
#1421=CARTESIAN_POINT('',(13.750000000000004,15.750000000000000,0.0));
#1422=CARTESIAN_POINT('',(13.750000000000002,-15.750000000000000,20.800000000000001));
#1423=CARTESIAN_POINT('',(13.750000000000004,-15.750000000000000,0.0));
#1424=B_SPLINE_SURFACE_WITH_KNOTS('',1,1,((#1420,#1422),(#1421,#1423)),.UNSPECIFIED.,.F.,.F.,.U.,(2,2),(2,2),(0.0,20.800000000000001),(0.0,31.500000000000000),.UNSPECIFIED.);
#1425=ORIENTED_EDGE('',*,*,#1238,.F.);
#1426=ORIENTED_EDGE('',*,*,#1396,.T.);
#1427=ORIENTED_EDGE('',*,*,#1331,.F.);
#1428=ORIENTED_EDGE('',*,*,#1206,.F.);
#1429=EDGE_LOOP('',(#1425,#1426,#1427,#1428));
#1430=FACE_OUTER_BOUND('',#1429,.T.);
#1431=ADVANCED_FACE('',(#1430),#1424,.F.);
#1432=CLOSED_SHELL('',(#1014,#1049,#1084,#1119,#1151,#1173,#1195,#1217,#1249,#1271,#1303,#1335,#1352,#1369,#1381,#1407,#1419,#1431));
#1433=MANIFOLD_SOLID_BREP('C91',#1432);
#1434=COLOUR_RGB('150',0.0,0.500000000000000,1.0);
#1435=SURFACE_STYLE_USAGE(.BOTH.,#1436);
#1436=SURFACE_SIDE_STYLE('NONE',(#1437));
#1437=SURFACE_STYLE_FILL_AREA(#1438);
#1438=FILL_AREA_STYLE('NONE',(#1439));
#1439=FILL_AREA_STYLE_COLOUR('NONE',#1434);
#1440=PRESENTATION_STYLE_ASSIGNMENT((#1435));
#1441=STYLED_ITEM('NONE',(#1440),#1433);
#1442=ADVANCED_BREP_SHAPE_REPRESENTATION('ABSR1',(#214,#374,#525,#676,#827,#978,#1433),#28);
#1443=SHAPE_REPRESENTATION_RELATIONSHIP('SRRPL1','',#1442,#62);
ENDSEC;
END-ISO-10303-21;
