ISO-10303-21;
HEADER;
/****************************************************************
 * Generated by software with PDElib inside                    *
 * PDElib Version v51a, created Fri 09/10/2010                  *
 * ITI Transcendata (http://www.transcendata.com/)              *
 ****************************************************************/
FILE_DESCRIPTION((''),'2;1');
FILE_NAME('XFMR_BLOCK_VB1.5-2.stp','2012-07-02T12:46:12',(''),(''),'Mechanical Desktop 2011','Mechanical Desktop 2011',', , ');
FILE_SCHEMA(('AUTOMOTIVE_DESIGN { 1 2 10303 214 1 1 1 1 }'));
ENDSEC;
DATA;
#10=(NAMED_UNIT(*)PLANE_ANGLE_UNIT()SI_UNIT($,.RADIAN.));
#11=DIMENSIONAL_EXPONENTS(0.0,0.0,0.0,0.0,0.0,0.0,0.0);
#12=PLANE_ANGLE_MEASURE_WITH_UNIT(PLANE_ANGLE_MEASURE(0.0174532925),#10);
#16=(CONVERSION_BASED_UNIT('DEGREE',#12)NAMED_UNIT(#11)PLANE_ANGLE_UNIT());
#20=(NAMED_UNIT(*)SI_UNIT($,.STERADIAN.)SOLID_ANGLE_UNIT());
#24=(LENGTH_UNIT()NAMED_UNIT(*)SI_UNIT(.MILLI.,.METRE.));
#26=UNCERTAINTY_MEASURE_WITH_UNIT(LENGTH_MEASURE(0.000001),#24,'DISTANCE_ACCURACY_VALUE','');
#28=(GEOMETRIC_REPRESENTATION_CONTEXT(3)GLOBAL_UNCERTAINTY_ASSIGNED_CONTEXT((#26))GLOBAL_UNIT_ASSIGNED_CONTEXT((#16,#20,#24))REPRESENTATION_CONTEXT('','3D'));
#29=APPLICATION_CONTEXT('automotive design');
#30=APPLICATION_PROTOCOL_DEFINITION('INTERNATIONAL_STANDARD','automotive_design',1998,#29);
#31=PRODUCT_CONTEXT('3D Mechanical Parts',#29,'mechanical');
#32=PRODUCT('Product','Product','',(#31));
#33=PRODUCT_RELATED_PRODUCT_CATEGORY('part',$,(#32));
#34=PRODUCT_CATEGORY('part',$);
#35=PERSON('1','Design','Joe',$,$,$);
#36=ORGANIZATION($,'None','None');
#37=PERSON_AND_ORGANIZATION(#35,#36);
#38=PERSON_AND_ORGANIZATION_ROLE('design_owner');
#39=APPLIED_PERSON_AND_ORGANIZATION_ASSIGNMENT(#37,#38,(#32));
#40=PRODUCT_DEFINITION_FORMATION_WITH_SPECIFIED_SOURCE('None','',#32,.BOUGHT.);
#41=PERSON('2','Creator','Joe',$,$,$);
#42=ORGANIZATION($,'None','None');
#43=PERSON_AND_ORGANIZATION(#41,#42);
#44=PERSON_AND_ORGANIZATION_ROLE('creator');
#45=APPLIED_PERSON_AND_ORGANIZATION_ASSIGNMENT(#43,#44,(#40));
#46=PERSON('3','Supplier','Joe',$,$,$);
#47=ORGANIZATION($,'None','None');
#48=PERSON_AND_ORGANIZATION(#46,#47);
#49=PERSON_AND_ORGANIZATION_ROLE('design_supplier');
#50=APPLIED_PERSON_AND_ORGANIZATION_ASSIGNMENT(#48,#49,(#40));
#51=PRODUCT_DEFINITION_CONTEXT('part definition',#29,'design');
#52=PRODUCT_DEFINITION('None','',#40,#51);
#53=PERSON('4','Creator','Joe',$,$,$);
#54=ORGANIZATION($,'None','None');
#55=PERSON_AND_ORGANIZATION(#53,#54);
#56=PERSON_AND_ORGANIZATION_ROLE('creator');
#57=APPLIED_PERSON_AND_ORGANIZATION_ASSIGNMENT(#55,#56,(#52));
#58=CARTESIAN_POINT('NONE',(0.0,0.0,0.0));
#59=DIRECTION('NONE',(0.0,0.0,1.0));
#60=DIRECTION('NONE',(1.0,0.0,0.0));
#61=AXIS2_PLACEMENT_3D('NONE',#58,#59,#60);
#62=SHAPE_REPRESENTATION('SR1',(#61),#28);
#63=PRODUCT_DEFINITION_SHAPE('PDS1','Test Part',#52);
#64=SHAPE_DEFINITION_REPRESENTATION(#63,#62);
#65=CARTESIAN_POINT('',(10.000000000000002,-10.0,0.0));
#66=DIRECTION('',(0.0,0.0,-1.0));
#67=DIRECTION('',(1.0,0.0,0.0));
#68=AXIS2_PLACEMENT_3D('',#65,#66,#67);
#69=CYLINDRICAL_SURFACE('',#68,0.4);
#70=CARTESIAN_POINT('',(10.400000000000002,-10.0,-3.8));
#71=VERTEX_POINT('',#70);
#72=CARTESIAN_POINT('',(10.400000000000002,-10.0,0.0));
#73=VERTEX_POINT('',#72);
#74=CARTESIAN_POINT('',(10.400000000000002,-10.0,-3.799999999999999));
#75=DIRECTION('',(0.0,0.0,1.0));
#76=VECTOR('',#75,3.799999999999999);
#77=LINE('',#74,#76);
#78=EDGE_CURVE('',#71,#73,#77,.T.);
#79=ORIENTED_EDGE('',*,*,#78,.F.);
#80=CARTESIAN_POINT('',(9.600000000000001,-10.0,-3.799999999999999));
#81=VERTEX_POINT('',#80);
#82=CARTESIAN_POINT('',(10.000000000000002,-10.0,-3.8));
#83=DIRECTION('',(0.0,0.0,1.0));
#84=DIRECTION('',(1.0,0.0,0.0));
#85=AXIS2_PLACEMENT_3D('',#82,#83,#84);
#86=CIRCLE('',#85,0.4);
#87=EDGE_CURVE('',#71,#81,#86,.T.);
#88=ORIENTED_EDGE('',*,*,#87,.T.);
#89=CARTESIAN_POINT('',(9.600000000000001,-10.0,0.0));
#90=VERTEX_POINT('',#89);
#91=CARTESIAN_POINT('',(9.600000000000001,-10.0,-3.799999999999999));
#92=DIRECTION('',(0.0,0.0,1.0));
#93=VECTOR('',#92,3.799999999999999);
#94=LINE('',#91,#93);
#95=EDGE_CURVE('',#81,#90,#94,.T.);
#96=ORIENTED_EDGE('',*,*,#95,.T.);
#97=CARTESIAN_POINT('',(10.000000000000002,-10.0,0.0));
#98=DIRECTION('',(0.0,0.0,1.0));
#99=DIRECTION('',(1.0,0.0,0.0));
#100=AXIS2_PLACEMENT_3D('',#97,#98,#99);
#101=CIRCLE('',#100,0.4);
#102=EDGE_CURVE('',#73,#90,#101,.T.);
#103=ORIENTED_EDGE('',*,*,#102,.F.);
#104=EDGE_LOOP('',(#79,#88,#96,#103));
#105=FACE_OUTER_BOUND('',#104,.T.);
#106=ADVANCED_FACE('',(#105),#69,.T.);
#107=CARTESIAN_POINT('',(10.000000000000002,-10.0,0.0));
#108=DIRECTION('',(0.0,0.0,-1.0));
#109=DIRECTION('',(1.0,0.0,0.0));
#110=AXIS2_PLACEMENT_3D('',#107,#108,#109);
#111=CYLINDRICAL_SURFACE('',#110,0.4);
#112=ORIENTED_EDGE('',*,*,#78,.T.);
#113=CARTESIAN_POINT('',(10.000000000000002,-10.0,0.0));
#114=DIRECTION('',(0.0,0.0,1.0));
#115=DIRECTION('',(1.0,0.0,0.0));
#116=AXIS2_PLACEMENT_3D('',#113,#114,#115);
#117=CIRCLE('',#116,0.4);
#118=EDGE_CURVE('',#90,#73,#117,.T.);
#119=ORIENTED_EDGE('',*,*,#118,.F.);
#120=ORIENTED_EDGE('',*,*,#95,.F.);
#121=CARTESIAN_POINT('',(10.000000000000002,-10.0,-3.8));
#122=DIRECTION('',(0.0,0.0,1.0));
#123=DIRECTION('',(1.0,0.0,0.0));
#124=AXIS2_PLACEMENT_3D('',#121,#122,#123);
#125=CIRCLE('',#124,0.4);
#126=EDGE_CURVE('',#81,#71,#125,.T.);
#127=ORIENTED_EDGE('',*,*,#126,.T.);
#128=EDGE_LOOP('',(#112,#119,#120,#127));
#129=FACE_OUTER_BOUND('',#128,.T.);
#130=ADVANCED_FACE('',(#129),#111,.T.);
#131=CARTESIAN_POINT('',(10.000000000000002,-10.0,-3.8));
#132=DIRECTION('',(0.0,0.0,1.0));
#133=DIRECTION('',(1.0,0.0,0.0));
#134=AXIS2_PLACEMENT_3D('',#131,#132,#133);
#135=PLANE('',#134);
#136=ORIENTED_EDGE('',*,*,#87,.F.);
#137=ORIENTED_EDGE('',*,*,#126,.F.);
#138=EDGE_LOOP('',(#136,#137));
#139=FACE_OUTER_BOUND('',#138,.T.);
#140=ADVANCED_FACE('',(#139),#135,.F.);
#141=CARTESIAN_POINT('',(10.000000000000002,-10.0,0.0));
#142=DIRECTION('',(0.0,0.0,1.0));
#143=DIRECTION('',(1.0,0.0,0.0));
#144=AXIS2_PLACEMENT_3D('',#141,#142,#143);
#145=PLANE('',#144);
#146=ORIENTED_EDGE('',*,*,#102,.T.);
#147=ORIENTED_EDGE('',*,*,#118,.T.);
#148=EDGE_LOOP('',(#146,#147));
#149=FACE_OUTER_BOUND('',#148,.T.);
#150=ADVANCED_FACE('',(#149),#145,.T.);
#151=CLOSED_SHELL('',(#106,#130,#140,#150));
#152=MANIFOLD_SOLID_BREP('11E8',#151);
#153=COLOUR_RGB('254',0.866,0.866,0.866);
#154=SURFACE_STYLE_USAGE(.BOTH.,#155);
#155=SURFACE_SIDE_STYLE('NONE',(#156));
#156=SURFACE_STYLE_FILL_AREA(#157);
#157=FILL_AREA_STYLE('NONE',(#158));
#158=FILL_AREA_STYLE_COLOUR('NONE',#153);
#159=PRESENTATION_STYLE_ASSIGNMENT((#154));
#160=STYLED_ITEM('NONE',(#159),#152);
#161=MECHANICAL_DESIGN_GEOMETRIC_PRESENTATION_REPRESENTATION('NONE',(#160,#251,#340,#429,#518,#607,#1911),#28);
#162=PRESENTATION_LAYER_ASSIGNMENT('3D','None',(#152,#250,#339,#428,#517,#606,#1903));
#163=CARTESIAN_POINT('',(10.000000000000002,-5.000000000000002,0.0));
#164=DIRECTION('',(0.0,0.0,-1.0));
#165=DIRECTION('',(1.0,0.0,0.0));
#166=AXIS2_PLACEMENT_3D('',#163,#164,#165);
#167=CYLINDRICAL_SURFACE('',#166,0.4);
#168=CARTESIAN_POINT('',(10.400000000000002,-5.000000000000002,-3.8));
#169=VERTEX_POINT('',#168);
#170=CARTESIAN_POINT('',(10.400000000000002,-5.000000000000002,0.0));
#171=VERTEX_POINT('',#170);
#172=CARTESIAN_POINT('',(10.400000000000002,-5.000000000000002,-3.799999999999999));
#173=DIRECTION('',(0.0,0.0,1.0));
#174=VECTOR('',#173,3.799999999999999);
#175=LINE('',#172,#174);
#176=EDGE_CURVE('',#169,#171,#175,.T.);
#177=ORIENTED_EDGE('',*,*,#176,.F.);
#178=CARTESIAN_POINT('',(9.600000000000001,-5.000000000000002,-3.799999999999999));
#179=VERTEX_POINT('',#178);
#180=CARTESIAN_POINT('',(10.000000000000002,-5.000000000000002,-3.8));
#181=DIRECTION('',(0.0,0.0,1.0));
#182=DIRECTION('',(1.0,0.0,0.0));
#183=AXIS2_PLACEMENT_3D('',#180,#181,#182);
#184=CIRCLE('',#183,0.4);
#185=EDGE_CURVE('',#169,#179,#184,.T.);
#186=ORIENTED_EDGE('',*,*,#185,.T.);
#187=CARTESIAN_POINT('',(9.600000000000001,-5.000000000000002,0.0));
#188=VERTEX_POINT('',#187);
#189=CARTESIAN_POINT('',(9.600000000000001,-5.000000000000002,-3.799999999999999));
#190=DIRECTION('',(0.0,0.0,1.0));
#191=VECTOR('',#190,3.799999999999999);
#192=LINE('',#189,#191);
#193=EDGE_CURVE('',#179,#188,#192,.T.);
#194=ORIENTED_EDGE('',*,*,#193,.T.);
#195=CARTESIAN_POINT('',(10.000000000000002,-5.000000000000002,0.0));
#196=DIRECTION('',(0.0,0.0,1.0));
#197=DIRECTION('',(1.0,0.0,0.0));
#198=AXIS2_PLACEMENT_3D('',#195,#196,#197);
#199=CIRCLE('',#198,0.4);
#200=EDGE_CURVE('',#171,#188,#199,.T.);
#201=ORIENTED_EDGE('',*,*,#200,.F.);
#202=EDGE_LOOP('',(#177,#186,#194,#201));
#203=FACE_OUTER_BOUND('',#202,.T.);
#204=ADVANCED_FACE('',(#203),#167,.T.);
#205=CARTESIAN_POINT('',(10.000000000000002,-5.000000000000002,0.0));
#206=DIRECTION('',(0.0,0.0,-1.0));
#207=DIRECTION('',(1.0,0.0,0.0));
#208=AXIS2_PLACEMENT_3D('',#205,#206,#207);
#209=CYLINDRICAL_SURFACE('',#208,0.4);
#210=ORIENTED_EDGE('',*,*,#176,.T.);
#211=CARTESIAN_POINT('',(10.000000000000002,-5.000000000000002,0.0));
#212=DIRECTION('',(0.0,0.0,1.0));
#213=DIRECTION('',(1.0,0.0,0.0));
#214=AXIS2_PLACEMENT_3D('',#211,#212,#213);
#215=CIRCLE('',#214,0.4);
#216=EDGE_CURVE('',#188,#171,#215,.T.);
#217=ORIENTED_EDGE('',*,*,#216,.F.);
#218=ORIENTED_EDGE('',*,*,#193,.F.);
#219=CARTESIAN_POINT('',(10.000000000000002,-5.000000000000002,-3.8));
#220=DIRECTION('',(0.0,0.0,1.0));
#221=DIRECTION('',(1.0,0.0,0.0));
#222=AXIS2_PLACEMENT_3D('',#219,#220,#221);
#223=CIRCLE('',#222,0.4);
#224=EDGE_CURVE('',#179,#169,#223,.T.);
#225=ORIENTED_EDGE('',*,*,#224,.T.);
#226=EDGE_LOOP('',(#210,#217,#218,#225));
#227=FACE_OUTER_BOUND('',#226,.T.);
#228=ADVANCED_FACE('',(#227),#209,.T.);
#229=CARTESIAN_POINT('',(10.000000000000002,-5.000000000000002,-3.8));
#230=DIRECTION('',(0.0,0.0,1.0));
#231=DIRECTION('',(1.0,0.0,0.0));
#232=AXIS2_PLACEMENT_3D('',#229,#230,#231);
#233=PLANE('',#232);
#234=ORIENTED_EDGE('',*,*,#185,.F.);
#235=ORIENTED_EDGE('',*,*,#224,.F.);
#236=EDGE_LOOP('',(#234,#235));
#237=FACE_OUTER_BOUND('',#236,.T.);
#238=ADVANCED_FACE('',(#237),#233,.F.);
#239=CARTESIAN_POINT('',(10.000000000000002,-5.000000000000002,0.0));
#240=DIRECTION('',(0.0,0.0,1.0));
#241=DIRECTION('',(1.0,0.0,0.0));
#242=AXIS2_PLACEMENT_3D('',#239,#240,#241);
#243=PLANE('',#242);
#244=ORIENTED_EDGE('',*,*,#200,.T.);
#245=ORIENTED_EDGE('',*,*,#216,.T.);
#246=EDGE_LOOP('',(#244,#245));
#247=FACE_OUTER_BOUND('',#246,.T.);
#248=ADVANCED_FACE('',(#247),#243,.T.);
#249=CLOSED_SHELL('',(#204,#228,#238,#248));
#250=MANIFOLD_SOLID_BREP('11E4',#249);
#251=STYLED_ITEM('NONE',(#159),#250);
#252=CARTESIAN_POINT('',(10.000000000000002,5.0,0.0));
#253=DIRECTION('',(0.0,0.0,-1.0));
#254=DIRECTION('',(1.0,0.0,0.0));
#255=AXIS2_PLACEMENT_3D('',#252,#253,#254);
#256=CYLINDRICAL_SURFACE('',#255,0.4);
#257=CARTESIAN_POINT('',(10.400000000000002,5.0,-3.8));
#258=VERTEX_POINT('',#257);
#259=CARTESIAN_POINT('',(10.400000000000002,5.0,0.0));
#260=VERTEX_POINT('',#259);
#261=CARTESIAN_POINT('',(10.400000000000002,5.0,-3.799999999999999));
#262=DIRECTION('',(0.0,0.0,1.0));
#263=VECTOR('',#262,3.799999999999999);
#264=LINE('',#261,#263);
#265=EDGE_CURVE('',#258,#260,#264,.T.);
#266=ORIENTED_EDGE('',*,*,#265,.F.);
#267=CARTESIAN_POINT('',(9.600000000000001,5.0,-3.799999999999999));
#268=VERTEX_POINT('',#267);
#269=CARTESIAN_POINT('',(10.000000000000002,5.0,-3.8));
#270=DIRECTION('',(0.0,0.0,1.0));
#271=DIRECTION('',(1.0,0.0,0.0));
#272=AXIS2_PLACEMENT_3D('',#269,#270,#271);
#273=CIRCLE('',#272,0.4);
#274=EDGE_CURVE('',#258,#268,#273,.T.);
#275=ORIENTED_EDGE('',*,*,#274,.T.);
#276=CARTESIAN_POINT('',(9.600000000000001,5.0,0.0));
#277=VERTEX_POINT('',#276);
#278=CARTESIAN_POINT('',(9.600000000000001,5.0,-3.799999999999999));
#279=DIRECTION('',(0.0,0.0,1.0));
#280=VECTOR('',#279,3.799999999999999);
#281=LINE('',#278,#280);
#282=EDGE_CURVE('',#268,#277,#281,.T.);
#283=ORIENTED_EDGE('',*,*,#282,.T.);
#284=CARTESIAN_POINT('',(10.000000000000002,5.0,0.0));
#285=DIRECTION('',(0.0,0.0,1.0));
#286=DIRECTION('',(1.0,0.0,0.0));
#287=AXIS2_PLACEMENT_3D('',#284,#285,#286);
#288=CIRCLE('',#287,0.4);
#289=EDGE_CURVE('',#260,#277,#288,.T.);
#290=ORIENTED_EDGE('',*,*,#289,.F.);
#291=EDGE_LOOP('',(#266,#275,#283,#290));
#292=FACE_OUTER_BOUND('',#291,.T.);
#293=ADVANCED_FACE('',(#292),#256,.T.);
#294=CARTESIAN_POINT('',(10.000000000000002,5.0,0.0));
#295=DIRECTION('',(0.0,0.0,-1.0));
#296=DIRECTION('',(1.0,0.0,0.0));
#297=AXIS2_PLACEMENT_3D('',#294,#295,#296);
#298=CYLINDRICAL_SURFACE('',#297,0.4);
#299=ORIENTED_EDGE('',*,*,#265,.T.);
#300=CARTESIAN_POINT('',(10.000000000000002,5.0,0.0));
#301=DIRECTION('',(0.0,0.0,1.0));
#302=DIRECTION('',(1.0,0.0,0.0));
#303=AXIS2_PLACEMENT_3D('',#300,#301,#302);
#304=CIRCLE('',#303,0.4);
#305=EDGE_CURVE('',#277,#260,#304,.T.);
#306=ORIENTED_EDGE('',*,*,#305,.F.);
#307=ORIENTED_EDGE('',*,*,#282,.F.);
#308=CARTESIAN_POINT('',(10.000000000000002,5.0,-3.8));
#309=DIRECTION('',(0.0,0.0,1.0));
#310=DIRECTION('',(1.0,0.0,0.0));
#311=AXIS2_PLACEMENT_3D('',#308,#309,#310);
#312=CIRCLE('',#311,0.4);
#313=EDGE_CURVE('',#268,#258,#312,.T.);
#314=ORIENTED_EDGE('',*,*,#313,.T.);
#315=EDGE_LOOP('',(#299,#306,#307,#314));
#316=FACE_OUTER_BOUND('',#315,.T.);
#317=ADVANCED_FACE('',(#316),#298,.T.);
#318=CARTESIAN_POINT('',(10.000000000000002,5.0,-3.8));
#319=DIRECTION('',(0.0,0.0,1.0));
#320=DIRECTION('',(1.0,0.0,0.0));
#321=AXIS2_PLACEMENT_3D('',#318,#319,#320);
#322=PLANE('',#321);
#323=ORIENTED_EDGE('',*,*,#274,.F.);
#324=ORIENTED_EDGE('',*,*,#313,.F.);
#325=EDGE_LOOP('',(#323,#324));
#326=FACE_OUTER_BOUND('',#325,.T.);
#327=ADVANCED_FACE('',(#326),#322,.F.);
#328=CARTESIAN_POINT('',(10.000000000000002,5.0,0.0));
#329=DIRECTION('',(0.0,0.0,1.0));
#330=DIRECTION('',(1.0,0.0,0.0));
#331=AXIS2_PLACEMENT_3D('',#328,#329,#330);
#332=PLANE('',#331);
#333=ORIENTED_EDGE('',*,*,#289,.T.);
#334=ORIENTED_EDGE('',*,*,#305,.T.);
#335=EDGE_LOOP('',(#333,#334));
#336=FACE_OUTER_BOUND('',#335,.T.);
#337=ADVANCED_FACE('',(#336),#332,.T.);
#338=CLOSED_SHELL('',(#293,#317,#327,#337));
#339=MANIFOLD_SOLID_BREP('11E0',#338);
#340=STYLED_ITEM('NONE',(#159),#339);
#341=CARTESIAN_POINT('',(10.000000000000002,9.999999999999996,0.0));
#342=DIRECTION('',(0.0,0.0,-1.0));
#343=DIRECTION('',(1.0,0.0,0.0));
#344=AXIS2_PLACEMENT_3D('',#341,#342,#343);
#345=CYLINDRICAL_SURFACE('',#344,0.4);
#346=CARTESIAN_POINT('',(10.400000000000002,9.999999999999996,-3.8));
#347=VERTEX_POINT('',#346);
#348=CARTESIAN_POINT('',(10.400000000000002,9.999999999999996,0.0));
#349=VERTEX_POINT('',#348);
#350=CARTESIAN_POINT('',(10.400000000000002,9.999999999999996,-3.799999999999999));
#351=DIRECTION('',(0.0,0.0,1.0));
#352=VECTOR('',#351,3.799999999999999);
#353=LINE('',#350,#352);
#354=EDGE_CURVE('',#347,#349,#353,.T.);
#355=ORIENTED_EDGE('',*,*,#354,.F.);
#356=CARTESIAN_POINT('',(9.600000000000001,9.999999999999996,-3.799999999999999));
#357=VERTEX_POINT('',#356);
#358=CARTESIAN_POINT('',(10.000000000000002,9.999999999999996,-3.8));
#359=DIRECTION('',(0.0,0.0,1.0));
#360=DIRECTION('',(1.0,0.0,0.0));
#361=AXIS2_PLACEMENT_3D('',#358,#359,#360);
#362=CIRCLE('',#361,0.4);
#363=EDGE_CURVE('',#347,#357,#362,.T.);
#364=ORIENTED_EDGE('',*,*,#363,.T.);
#365=CARTESIAN_POINT('',(9.600000000000001,9.999999999999996,0.0));
#366=VERTEX_POINT('',#365);
#367=CARTESIAN_POINT('',(9.600000000000001,9.999999999999996,-3.799999999999999));
#368=DIRECTION('',(0.0,0.0,1.0));
#369=VECTOR('',#368,3.799999999999999);
#370=LINE('',#367,#369);
#371=EDGE_CURVE('',#357,#366,#370,.T.);
#372=ORIENTED_EDGE('',*,*,#371,.T.);
#373=CARTESIAN_POINT('',(10.000000000000002,9.999999999999996,0.0));
#374=DIRECTION('',(0.0,0.0,1.0));
#375=DIRECTION('',(1.0,0.0,0.0));
#376=AXIS2_PLACEMENT_3D('',#373,#374,#375);
#377=CIRCLE('',#376,0.4);
#378=EDGE_CURVE('',#349,#366,#377,.T.);
#379=ORIENTED_EDGE('',*,*,#378,.F.);
#380=EDGE_LOOP('',(#355,#364,#372,#379));
#381=FACE_OUTER_BOUND('',#380,.T.);
#382=ADVANCED_FACE('',(#381),#345,.T.);
#383=CARTESIAN_POINT('',(10.000000000000002,9.999999999999996,0.0));
#384=DIRECTION('',(0.0,0.0,-1.0));
#385=DIRECTION('',(1.0,0.0,0.0));
#386=AXIS2_PLACEMENT_3D('',#383,#384,#385);
#387=CYLINDRICAL_SURFACE('',#386,0.4);
#388=ORIENTED_EDGE('',*,*,#354,.T.);
#389=CARTESIAN_POINT('',(10.000000000000002,9.999999999999996,0.0));
#390=DIRECTION('',(0.0,0.0,1.0));
#391=DIRECTION('',(1.0,0.0,0.0));
#392=AXIS2_PLACEMENT_3D('',#389,#390,#391);
#393=CIRCLE('',#392,0.4);
#394=EDGE_CURVE('',#366,#349,#393,.T.);
#395=ORIENTED_EDGE('',*,*,#394,.F.);
#396=ORIENTED_EDGE('',*,*,#371,.F.);
#397=CARTESIAN_POINT('',(10.000000000000002,9.999999999999996,-3.8));
#398=DIRECTION('',(0.0,0.0,1.0));
#399=DIRECTION('',(1.0,0.0,0.0));
#400=AXIS2_PLACEMENT_3D('',#397,#398,#399);
#401=CIRCLE('',#400,0.4);
#402=EDGE_CURVE('',#357,#347,#401,.T.);
#403=ORIENTED_EDGE('',*,*,#402,.T.);
#404=EDGE_LOOP('',(#388,#395,#396,#403));
#405=FACE_OUTER_BOUND('',#404,.T.);
#406=ADVANCED_FACE('',(#405),#387,.T.);
#407=CARTESIAN_POINT('',(10.000000000000002,9.999999999999996,-3.8));
#408=DIRECTION('',(0.0,0.0,1.0));
#409=DIRECTION('',(1.0,0.0,0.0));
#410=AXIS2_PLACEMENT_3D('',#407,#408,#409);
#411=PLANE('',#410);
#412=ORIENTED_EDGE('',*,*,#363,.F.);
#413=ORIENTED_EDGE('',*,*,#402,.F.);
#414=EDGE_LOOP('',(#412,#413));
#415=FACE_OUTER_BOUND('',#414,.T.);
#416=ADVANCED_FACE('',(#415),#411,.F.);
#417=CARTESIAN_POINT('',(10.000000000000002,9.999999999999996,0.0));
#418=DIRECTION('',(0.0,0.0,1.0));
#419=DIRECTION('',(1.0,0.0,0.0));
#420=AXIS2_PLACEMENT_3D('',#417,#418,#419);
#421=PLANE('',#420);
#422=ORIENTED_EDGE('',*,*,#378,.T.);
#423=ORIENTED_EDGE('',*,*,#394,.T.);
#424=EDGE_LOOP('',(#422,#423));
#425=FACE_OUTER_BOUND('',#424,.T.);
#426=ADVANCED_FACE('',(#425),#421,.T.);
#427=CLOSED_SHELL('',(#382,#406,#416,#426));
#428=MANIFOLD_SOLID_BREP('11DC',#427);
#429=STYLED_ITEM('NONE',(#159),#428);
#430=CARTESIAN_POINT('',(-10.000000000000002,-10.0,0.0));
#431=DIRECTION('',(0.0,0.0,-1.0));
#432=DIRECTION('',(1.0,0.0,0.0));
#433=AXIS2_PLACEMENT_3D('',#430,#431,#432);
#434=CYLINDRICAL_SURFACE('',#433,0.4);
#435=CARTESIAN_POINT('',(-9.600000000000001,-10.0,-3.8));
#436=VERTEX_POINT('',#435);
#437=CARTESIAN_POINT('',(-9.600000000000001,-10.0,0.0));
#438=VERTEX_POINT('',#437);
#439=CARTESIAN_POINT('',(-9.600000000000001,-10.0,-3.799999999999999));
#440=DIRECTION('',(0.0,0.0,1.0));
#441=VECTOR('',#440,3.799999999999999);
#442=LINE('',#439,#441);
#443=EDGE_CURVE('',#436,#438,#442,.T.);
#444=ORIENTED_EDGE('',*,*,#443,.F.);
#445=CARTESIAN_POINT('',(-10.400000000000002,-10.0,-3.799999999999999));
#446=VERTEX_POINT('',#445);
#447=CARTESIAN_POINT('',(-10.000000000000002,-10.0,-3.8));
#448=DIRECTION('',(0.0,0.0,1.0));
#449=DIRECTION('',(1.0,0.0,0.0));
#450=AXIS2_PLACEMENT_3D('',#447,#448,#449);
#451=CIRCLE('',#450,0.4);
#452=EDGE_CURVE('',#436,#446,#451,.T.);
#453=ORIENTED_EDGE('',*,*,#452,.T.);
#454=CARTESIAN_POINT('',(-10.400000000000002,-10.0,0.0));
#455=VERTEX_POINT('',#454);
#456=CARTESIAN_POINT('',(-10.400000000000002,-10.0,-3.799999999999999));
#457=DIRECTION('',(0.0,0.0,1.0));
#458=VECTOR('',#457,3.799999999999999);
#459=LINE('',#456,#458);
#460=EDGE_CURVE('',#446,#455,#459,.T.);
#461=ORIENTED_EDGE('',*,*,#460,.T.);
#462=CARTESIAN_POINT('',(-10.000000000000002,-10.0,0.0));
#463=DIRECTION('',(0.0,0.0,1.0));
#464=DIRECTION('',(1.0,0.0,0.0));
#465=AXIS2_PLACEMENT_3D('',#462,#463,#464);
#466=CIRCLE('',#465,0.4);
#467=EDGE_CURVE('',#438,#455,#466,.T.);
#468=ORIENTED_EDGE('',*,*,#467,.F.);
#469=EDGE_LOOP('',(#444,#453,#461,#468));
#470=FACE_OUTER_BOUND('',#469,.T.);
#471=ADVANCED_FACE('',(#470),#434,.T.);
#472=CARTESIAN_POINT('',(-10.000000000000002,-10.0,0.0));
#473=DIRECTION('',(0.0,0.0,-1.0));
#474=DIRECTION('',(1.0,0.0,0.0));
#475=AXIS2_PLACEMENT_3D('',#472,#473,#474);
#476=CYLINDRICAL_SURFACE('',#475,0.4);
#477=ORIENTED_EDGE('',*,*,#443,.T.);
#478=CARTESIAN_POINT('',(-10.000000000000002,-10.0,0.0));
#479=DIRECTION('',(0.0,0.0,1.0));
#480=DIRECTION('',(1.0,0.0,0.0));
#481=AXIS2_PLACEMENT_3D('',#478,#479,#480);
#482=CIRCLE('',#481,0.4);
#483=EDGE_CURVE('',#455,#438,#482,.T.);
#484=ORIENTED_EDGE('',*,*,#483,.F.);
#485=ORIENTED_EDGE('',*,*,#460,.F.);
#486=CARTESIAN_POINT('',(-10.000000000000002,-10.0,-3.8));
#487=DIRECTION('',(0.0,0.0,1.0));
#488=DIRECTION('',(1.0,0.0,0.0));
#489=AXIS2_PLACEMENT_3D('',#486,#487,#488);
#490=CIRCLE('',#489,0.4);
#491=EDGE_CURVE('',#446,#436,#490,.T.);
#492=ORIENTED_EDGE('',*,*,#491,.T.);
#493=EDGE_LOOP('',(#477,#484,#485,#492));
#494=FACE_OUTER_BOUND('',#493,.T.);
#495=ADVANCED_FACE('',(#494),#476,.T.);
#496=CARTESIAN_POINT('',(-10.000000000000002,-10.0,-3.8));
#497=DIRECTION('',(0.0,0.0,1.0));
#498=DIRECTION('',(1.0,0.0,0.0));
#499=AXIS2_PLACEMENT_3D('',#496,#497,#498);
#500=PLANE('',#499);
#501=ORIENTED_EDGE('',*,*,#452,.F.);
#502=ORIENTED_EDGE('',*,*,#491,.F.);
#503=EDGE_LOOP('',(#501,#502));
#504=FACE_OUTER_BOUND('',#503,.T.);
#505=ADVANCED_FACE('',(#504),#500,.F.);
#506=CARTESIAN_POINT('',(-10.000000000000002,-10.0,0.0));
#507=DIRECTION('',(0.0,0.0,1.0));
#508=DIRECTION('',(1.0,0.0,0.0));
#509=AXIS2_PLACEMENT_3D('',#506,#507,#508);
#510=PLANE('',#509);
#511=ORIENTED_EDGE('',*,*,#467,.T.);
#512=ORIENTED_EDGE('',*,*,#483,.T.);
#513=EDGE_LOOP('',(#511,#512));
#514=FACE_OUTER_BOUND('',#513,.T.);
#515=ADVANCED_FACE('',(#514),#510,.T.);
#516=CLOSED_SHELL('',(#471,#495,#505,#515));
#517=MANIFOLD_SOLID_BREP('11D8',#516);
#518=STYLED_ITEM('NONE',(#159),#517);
#519=CARTESIAN_POINT('',(-10.000000000000002,10.0,0.0));
#520=DIRECTION('',(0.0,0.0,-1.0));
#521=DIRECTION('',(1.0,0.0,0.0));
#522=AXIS2_PLACEMENT_3D('',#519,#520,#521);
#523=CYLINDRICAL_SURFACE('',#522,0.4);
#524=CARTESIAN_POINT('',(-9.600000000000001,10.0,-3.8));
#525=VERTEX_POINT('',#524);
#526=CARTESIAN_POINT('',(-9.600000000000001,10.0,0.0));
#527=VERTEX_POINT('',#526);
#528=CARTESIAN_POINT('',(-9.600000000000001,10.0,-3.799999999999999));
#529=DIRECTION('',(0.0,0.0,1.0));
#530=VECTOR('',#529,3.799999999999999);
#531=LINE('',#528,#530);
#532=EDGE_CURVE('',#525,#527,#531,.T.);
#533=ORIENTED_EDGE('',*,*,#532,.F.);
#534=CARTESIAN_POINT('',(-10.400000000000002,10.0,-3.799999999999999));
#535=VERTEX_POINT('',#534);
#536=CARTESIAN_POINT('',(-10.000000000000002,10.0,-3.8));
#537=DIRECTION('',(0.0,0.0,1.0));
#538=DIRECTION('',(1.0,0.0,0.0));
#539=AXIS2_PLACEMENT_3D('',#536,#537,#538);
#540=CIRCLE('',#539,0.4);
#541=EDGE_CURVE('',#525,#535,#540,.T.);
#542=ORIENTED_EDGE('',*,*,#541,.T.);
#543=CARTESIAN_POINT('',(-10.400000000000002,10.0,0.0));
#544=VERTEX_POINT('',#543);
#545=CARTESIAN_POINT('',(-10.400000000000002,10.0,-3.799999999999999));
#546=DIRECTION('',(0.0,0.0,1.0));
#547=VECTOR('',#546,3.799999999999999);
#548=LINE('',#545,#547);
#549=EDGE_CURVE('',#535,#544,#548,.T.);
#550=ORIENTED_EDGE('',*,*,#549,.T.);
#551=CARTESIAN_POINT('',(-10.000000000000002,10.0,0.0));
#552=DIRECTION('',(0.0,0.0,1.0));
#553=DIRECTION('',(1.0,0.0,0.0));
#554=AXIS2_PLACEMENT_3D('',#551,#552,#553);
#555=CIRCLE('',#554,0.4);
#556=EDGE_CURVE('',#527,#544,#555,.T.);
#557=ORIENTED_EDGE('',*,*,#556,.F.);
#558=EDGE_LOOP('',(#533,#542,#550,#557));
#559=FACE_OUTER_BOUND('',#558,.T.);
#560=ADVANCED_FACE('',(#559),#523,.T.);
#561=CARTESIAN_POINT('',(-10.000000000000002,10.0,0.0));
#562=DIRECTION('',(0.0,0.0,-1.0));
#563=DIRECTION('',(1.0,0.0,0.0));
#564=AXIS2_PLACEMENT_3D('',#561,#562,#563);
#565=CYLINDRICAL_SURFACE('',#564,0.4);
#566=ORIENTED_EDGE('',*,*,#532,.T.);
#567=CARTESIAN_POINT('',(-10.000000000000002,10.0,0.0));
#568=DIRECTION('',(0.0,0.0,1.0));
#569=DIRECTION('',(1.0,0.0,0.0));
#570=AXIS2_PLACEMENT_3D('',#567,#568,#569);
#571=CIRCLE('',#570,0.4);
#572=EDGE_CURVE('',#544,#527,#571,.T.);
#573=ORIENTED_EDGE('',*,*,#572,.F.);
#574=ORIENTED_EDGE('',*,*,#549,.F.);
#575=CARTESIAN_POINT('',(-10.000000000000002,10.0,-3.8));
#576=DIRECTION('',(0.0,0.0,1.0));
#577=DIRECTION('',(1.0,0.0,0.0));
#578=AXIS2_PLACEMENT_3D('',#575,#576,#577);
#579=CIRCLE('',#578,0.4);
#580=EDGE_CURVE('',#535,#525,#579,.T.);
#581=ORIENTED_EDGE('',*,*,#580,.T.);
#582=EDGE_LOOP('',(#566,#573,#574,#581));
#583=FACE_OUTER_BOUND('',#582,.T.);
#584=ADVANCED_FACE('',(#583),#565,.T.);
#585=CARTESIAN_POINT('',(-10.000000000000002,10.0,-3.8));
#586=DIRECTION('',(0.0,0.0,1.0));
#587=DIRECTION('',(1.0,0.0,0.0));
#588=AXIS2_PLACEMENT_3D('',#585,#586,#587);
#589=PLANE('',#588);
#590=ORIENTED_EDGE('',*,*,#541,.F.);
#591=ORIENTED_EDGE('',*,*,#580,.F.);
#592=EDGE_LOOP('',(#590,#591));
#593=FACE_OUTER_BOUND('',#592,.T.);
#594=ADVANCED_FACE('',(#593),#589,.F.);
#595=CARTESIAN_POINT('',(-10.000000000000002,10.0,0.0));
#596=DIRECTION('',(0.0,0.0,1.0));
#597=DIRECTION('',(1.0,0.0,0.0));
#598=AXIS2_PLACEMENT_3D('',#595,#596,#597);
#599=PLANE('',#598);
#600=ORIENTED_EDGE('',*,*,#556,.T.);
#601=ORIENTED_EDGE('',*,*,#572,.T.);
#602=EDGE_LOOP('',(#600,#601));
#603=FACE_OUTER_BOUND('',#602,.T.);
#604=ADVANCED_FACE('',(#603),#599,.T.);
#605=CLOSED_SHELL('',(#560,#584,#594,#604));
#606=MANIFOLD_SOLID_BREP('11D4',#605);
#607=STYLED_ITEM('NONE',(#159),#606);
#608=CARTESIAN_POINT('',(-10.500000000000004,-6.000000000000001,20.599999999999998));
#609=DIRECTION('',(0.0,-1.0,0.0));
#610=DIRECTION('',(0.707106781186554,0.0,-0.707106781186541));
#611=AXIS2_PLACEMENT_3D('',#608,#609,#610);
#612=CYLINDRICAL_SURFACE('',#611,0.2);
#613=CARTESIAN_POINT('',(-10.300000000000004,11.799999999999997,20.599999999999998));
#614=VERTEX_POINT('',#613);
#615=CARTESIAN_POINT('',(-10.500000000000004,11.799999999999997,20.399999999999999));
#616=VERTEX_POINT('',#615);
#617=CARTESIAN_POINT('',(-10.500000000000004,11.799999999999997,20.599999999999998));
#618=DIRECTION('',(0.0,1.0,0.0));
#619=DIRECTION('',(1.0,0.0,0.0));
#620=AXIS2_PLACEMENT_3D('',#617,#618,#619);
#621=CIRCLE('',#620,0.199999999999999);
#622=EDGE_CURVE('',#614,#616,#621,.T.);
#623=ORIENTED_EDGE('',*,*,#622,.T.);
#624=CARTESIAN_POINT('',(-10.500000000000004,-11.800000000000001,20.399999999999999));
#625=VERTEX_POINT('',#624);
#626=CARTESIAN_POINT('',(-10.500000000000004,11.799999999999997,20.399999999999999));
#627=DIRECTION('',(0.0,-1.0,0.0));
#628=VECTOR('',#627,23.599999999999998);
#629=LINE('',#626,#628);
#630=EDGE_CURVE('',#616,#625,#629,.T.);
#631=ORIENTED_EDGE('',*,*,#630,.T.);
#632=CARTESIAN_POINT('',(-10.300000000000004,-11.800000000000001,20.599999999999998));
#633=VERTEX_POINT('',#632);
#634=CARTESIAN_POINT('',(-10.500000000000004,-11.800000000000001,20.599999999999998));
#635=DIRECTION('',(0.0,-1.0,0.0));
#636=DIRECTION('',(0.0,0.0,-1.0));
#637=AXIS2_PLACEMENT_3D('',#634,#635,#636);
#638=CIRCLE('',#637,0.199999999999999);
#639=EDGE_CURVE('',#625,#633,#638,.T.);
#640=ORIENTED_EDGE('',*,*,#639,.T.);
#641=CARTESIAN_POINT('',(-10.300000000000004,-11.800000000000001,20.599999999999998));
#642=DIRECTION('',(0.0,1.0,0.0));
#643=VECTOR('',#642,23.599999999999998);
#644=LINE('',#641,#643);
#645=EDGE_CURVE('',#633,#614,#644,.T.);
#646=ORIENTED_EDGE('',*,*,#645,.T.);
#647=EDGE_LOOP('',(#623,#631,#640,#646));
#648=FACE_OUTER_BOUND('',#647,.T.);
#649=ADVANCED_FACE('',(#648),#612,.F.);
#650=CARTESIAN_POINT('',(-10.300000000000006,11.799999999999997,20.599999999999998));
#651=CARTESIAN_POINT('',(-10.300000000000006,11.799999999999997,20.399999999999999));
#652=CARTESIAN_POINT('',(-10.500000000000005,11.799999999999997,20.399999999999999));
#653=CARTESIAN_POINT('',(-10.700000000000005,11.799999999999997,20.399999999999999));
#654=CARTESIAN_POINT('',(-10.700000000000005,11.799999999999997,20.599999999999998));
#655=CARTESIAN_POINT('',(-10.300000000000006,11.599999999999996,20.599999999999998));
#656=CARTESIAN_POINT('',(-10.300000000000006,11.599999999999996,20.399999999999999));
#657=CARTESIAN_POINT('',(-10.500000000000005,11.399999999999997,20.399999999999999));
#658=CARTESIAN_POINT('',(-10.700000000000005,11.199999999999998,20.399999999999999));
#659=CARTESIAN_POINT('',(-10.700000000000005,11.199999999999998,20.599999999999998));
#660=CARTESIAN_POINT('',(-10.100000000000005,11.599999999999996,20.599999999999998));
#661=CARTESIAN_POINT('',(-10.100000000000005,11.599999999999996,20.399999999999999));
#662=CARTESIAN_POINT('',(-10.100000000000005,11.399999999999997,20.399999999999999));
#663=CARTESIAN_POINT('',(-10.100000000000005,11.199999999999998,20.399999999999999));
#664=CARTESIAN_POINT('',(-10.100000000000005,11.199999999999998,20.599999999999998));
#665=CARTESIAN_POINT('',(-9.900000000000004,11.599999999999996,20.599999999999998));
#666=CARTESIAN_POINT('',(-9.900000000000004,11.599999999999996,20.399999999999999));
#667=CARTESIAN_POINT('',(-9.700000000000005,11.399999999999997,20.399999999999999));
#668=CARTESIAN_POINT('',(-9.500000000000005,11.199999999999998,20.399999999999999));
#669=CARTESIAN_POINT('',(-9.500000000000005,11.199999999999998,20.599999999999998));
#670=CARTESIAN_POINT('',(-9.900000000000004,11.799999999999997,20.599999999999998));
#671=CARTESIAN_POINT('',(-9.900000000000004,11.799999999999997,20.399999999999999));
#672=CARTESIAN_POINT('',(-9.700000000000005,11.799999999999997,20.399999999999999));
#673=CARTESIAN_POINT('',(-9.500000000000005,11.799999999999997,20.399999999999999));
#674=CARTESIAN_POINT('',(-9.500000000000005,11.799999999999997,20.599999999999998));
#675=CARTESIAN_POINT('',(-9.900000000000004,11.999999999999998,20.599999999999998));
#676=CARTESIAN_POINT('',(-9.900000000000004,11.999999999999998,20.399999999999999));
#677=CARTESIAN_POINT('',(-9.700000000000005,12.199999999999998,20.399999999999999));
#678=CARTESIAN_POINT('',(-9.500000000000005,12.399999999999997,20.399999999999999));
#679=CARTESIAN_POINT('',(-9.500000000000005,12.399999999999997,20.599999999999998));
#680=CARTESIAN_POINT('',(-10.100000000000005,11.999999999999998,20.599999999999998));
#681=CARTESIAN_POINT('',(-10.100000000000005,12.0,20.399999999999999));
#682=CARTESIAN_POINT('',(-10.100000000000005,12.199999999999998,20.399999999999999));
#683=CARTESIAN_POINT('',(-10.100000000000005,12.399999999999997,20.399999999999999));
#684=CARTESIAN_POINT('',(-10.100000000000005,12.399999999999997,20.599999999999998));
#685=CARTESIAN_POINT('',(-10.300000000000006,11.999999999999998,20.599999999999998));
#686=CARTESIAN_POINT('',(-10.300000000000006,11.999999999999998,20.399999999999999));
#687=CARTESIAN_POINT('',(-10.500000000000005,12.199999999999998,20.399999999999999));
#688=CARTESIAN_POINT('',(-10.700000000000005,12.399999999999997,20.399999999999999));
#689=CARTESIAN_POINT('',(-10.700000000000005,12.399999999999997,20.599999999999998));
#690=CARTESIAN_POINT('',(-10.300000000000006,11.799999999999997,20.599999999999998));
#691=CARTESIAN_POINT('',(-10.300000000000006,11.799999999999997,20.399999999999999));
#692=CARTESIAN_POINT('',(-10.500000000000005,11.799999999999997,20.399999999999999));
#693=CARTESIAN_POINT('',(-10.700000000000005,11.799999999999997,20.399999999999999));
#694=CARTESIAN_POINT('',(-10.700000000000005,11.799999999999997,20.599999999999998));
#702=(BOUNDED_SURFACE()B_SPLINE_SURFACE(2,2,((#650,#655,#660,#665,#670,#675,#680,#685,#690),(#651,#656,#661,#666,#671,#676,#681,#686,#691),(#652,#657,#662,#667,#672,#677,#682,#687,#692),(#653,#658,#663,#668,#673,#678,#683,#688,#693),(#654,#659,#664,#669,#674,#679,#684,#689,#694)),.UNSPECIFIED.,.F.,.T.,.U.)B_SPLINE_SURFACE_WITH_KNOTS((3,2,3),(3,2,2,2,3),(-3.141592653589793,-1.570796326794897,0.0),(0.0,1.570796326794897,3.141592653589793,4.71238898038469,6.283185307179586),.UNSPECIFIED.)GEOMETRIC_REPRESENTATION_ITEM()RATIONAL_B_SPLINE_SURFACE(((1.0,0.707106781186548,1.0,0.707106781186548,1.0,0.707106781186548,1.0,0.707106781186548,1.0),(0.707106781186554,0.500000000000005,0.707106781186554,0.500000000000005,0.707106781186554,0.500000000000005,0.707106781186554,0.500000000000005,0.707106781186554),(1.0,0.707106781186548,1.0,0.707106781186548,1.0,0.707106781186548,1.0,0.707106781186548,1.0),(0.707106781186554,0.500000000000005,0.707106781186554,0.500000000000005,0.707106781186554,0.500000000000005,0.707106781186554,0.500000000000005,0.707106781186554),(1.0,0.707106781186548,1.0,0.707106781186548,1.0,0.707106781186548,1.0,0.707106781186548,1.0)))REPRESENTATION_ITEM('')SURFACE());
#703=CARTESIAN_POINT('',(-10.100000000000005,11.999999999999996,20.599999999999998));
#704=VERTEX_POINT('',#703);
#705=CARTESIAN_POINT('',(-10.100000000000005,12.199999999999996,20.399999999999999));
#706=VERTEX_POINT('',#705);
#707=CARTESIAN_POINT('',(-10.100000000000005,12.199999999999996,20.599999999999998));
#708=DIRECTION('',(1.0,0.0,0.0));
#709=DIRECTION('',(0.0,-1.0,0.0));
#710=AXIS2_PLACEMENT_3D('',#707,#708,#709);
#711=CIRCLE('',#710,0.199999999999999);
#712=EDGE_CURVE('',#704,#706,#711,.T.);
#713=ORIENTED_EDGE('',*,*,#712,.T.);
#714=CARTESIAN_POINT('',(-10.100000000000005,11.799999999999997,20.399999999999999));
#715=DIRECTION('',(0.0,0.0,1.0));
#716=DIRECTION('',(-0.707106781186548,0.707106781186548,0.0));
#717=AXIS2_PLACEMENT_3D('',#714,#715,#716);
#718=CIRCLE('',#717,0.4);
#719=EDGE_CURVE('',#706,#616,#718,.T.);
#720=ORIENTED_EDGE('',*,*,#719,.T.);
#721=ORIENTED_EDGE('',*,*,#622,.F.);
#722=CARTESIAN_POINT('',(-10.100000000000005,11.799999999999997,20.599999999999998));
#723=DIRECTION('',(0.0,0.0,-1.0));
#724=DIRECTION('',(-0.707106781186548,0.707106781186548,0.0));
#725=AXIS2_PLACEMENT_3D('',#722,#723,#724);
#726=CIRCLE('',#725,0.2);
#727=EDGE_CURVE('',#614,#704,#726,.T.);
#728=ORIENTED_EDGE('',*,*,#727,.T.);
#729=EDGE_LOOP('',(#713,#720,#721,#728));
#730=FACE_OUTER_BOUND('',#729,.T.);
#731=ADVANCED_FACE('',(#730),#702,.T.);
#732=CARTESIAN_POINT('',(-10.300000000000006,-11.800000000000001,20.599999999999998));
#733=CARTESIAN_POINT('',(-10.300000000000006,-11.800000000000002,20.399999999999999));
#734=CARTESIAN_POINT('',(-10.500000000000005,-11.800000000000001,20.399999999999999));
#735=CARTESIAN_POINT('',(-10.700000000000005,-11.800000000000002,20.399999999999999));
#736=CARTESIAN_POINT('',(-10.700000000000005,-11.800000000000001,20.599999999999998));
#737=CARTESIAN_POINT('',(-10.300000000000006,-12.0,20.599999999999998));
#738=CARTESIAN_POINT('',(-10.300000000000006,-12.000000000000002,20.399999999999999));
#739=CARTESIAN_POINT('',(-10.500000000000005,-12.200000000000001,20.399999999999999));
#740=CARTESIAN_POINT('',(-10.700000000000005,-12.4,20.399999999999999));
#741=CARTESIAN_POINT('',(-10.700000000000005,-12.4,20.599999999999998));
#742=CARTESIAN_POINT('',(-10.100000000000005,-12.000000000000002,20.599999999999998));
#743=CARTESIAN_POINT('',(-10.100000000000005,-12.000000000000002,20.399999999999999));
#744=CARTESIAN_POINT('',(-10.100000000000005,-12.200000000000001,20.399999999999999));
#745=CARTESIAN_POINT('',(-10.100000000000005,-12.4,20.399999999999999));
#746=CARTESIAN_POINT('',(-10.100000000000005,-12.4,20.599999999999998));
#747=CARTESIAN_POINT('',(-9.900000000000004,-12.0,20.599999999999998));
#748=CARTESIAN_POINT('',(-9.900000000000004,-12.000000000000002,20.399999999999999));
#749=CARTESIAN_POINT('',(-9.700000000000005,-12.200000000000001,20.399999999999999));
#750=CARTESIAN_POINT('',(-9.500000000000005,-12.4,20.399999999999999));
#751=CARTESIAN_POINT('',(-9.500000000000005,-12.4,20.599999999999998));
#752=CARTESIAN_POINT('',(-9.900000000000004,-11.800000000000001,20.599999999999998));
#753=CARTESIAN_POINT('',(-9.900000000000004,-11.800000000000002,20.399999999999999));
#754=CARTESIAN_POINT('',(-9.700000000000005,-11.800000000000001,20.399999999999999));
#755=CARTESIAN_POINT('',(-9.500000000000005,-11.800000000000002,20.399999999999999));
#756=CARTESIAN_POINT('',(-9.500000000000005,-11.800000000000001,20.599999999999998));
#757=CARTESIAN_POINT('',(-9.900000000000004,-11.6,20.599999999999998));
#758=CARTESIAN_POINT('',(-9.900000000000004,-11.6,20.399999999999999));
#759=CARTESIAN_POINT('',(-9.700000000000005,-11.399999999999999,20.399999999999999));
#760=CARTESIAN_POINT('',(-9.500000000000005,-11.200000000000001,20.399999999999999));
#761=CARTESIAN_POINT('',(-9.500000000000005,-11.200000000000001,20.599999999999998));
#762=CARTESIAN_POINT('',(-10.100000000000005,-11.6,20.599999999999998));
#763=CARTESIAN_POINT('',(-10.100000000000005,-11.6,20.399999999999999));
#764=CARTESIAN_POINT('',(-10.100000000000005,-11.4,20.399999999999999));
#765=CARTESIAN_POINT('',(-10.100000000000005,-11.200000000000001,20.399999999999999));
#766=CARTESIAN_POINT('',(-10.100000000000005,-11.200000000000001,20.599999999999998));
#767=CARTESIAN_POINT('',(-10.300000000000006,-11.6,20.599999999999998));
#768=CARTESIAN_POINT('',(-10.300000000000006,-11.6,20.399999999999999));
#769=CARTESIAN_POINT('',(-10.500000000000005,-11.399999999999999,20.399999999999999));
#770=CARTESIAN_POINT('',(-10.700000000000005,-11.200000000000001,20.399999999999999));
#771=CARTESIAN_POINT('',(-10.700000000000005,-11.200000000000001,20.599999999999998));
#772=CARTESIAN_POINT('',(-10.300000000000006,-11.800000000000001,20.599999999999998));
#773=CARTESIAN_POINT('',(-10.300000000000006,-11.800000000000002,20.399999999999999));
#774=CARTESIAN_POINT('',(-10.500000000000005,-11.800000000000001,20.399999999999999));
#775=CARTESIAN_POINT('',(-10.700000000000005,-11.800000000000002,20.399999999999999));
#776=CARTESIAN_POINT('',(-10.700000000000005,-11.800000000000001,20.599999999999998));
#784=(BOUNDED_SURFACE()B_SPLINE_SURFACE(2,2,((#732,#737,#742,#747,#752,#757,#762,#767,#772),(#733,#738,#743,#748,#753,#758,#763,#768,#773),(#734,#739,#744,#749,#754,#759,#764,#769,#774),(#735,#740,#745,#750,#755,#760,#765,#770,#775),(#736,#741,#746,#751,#756,#761,#766,#771,#776)),.UNSPECIFIED.,.F.,.T.,.U.)B_SPLINE_SURFACE_WITH_KNOTS((3,2,3),(3,2,2,2,3),(-3.141592653589793,-1.570796326794897,0.0),(0.0,1.570796326794897,3.141592653589793,4.71238898038469,6.283185307179586),.UNSPECIFIED.)GEOMETRIC_REPRESENTATION_ITEM()RATIONAL_B_SPLINE_SURFACE(((1.0,0.707106781186548,1.0,0.707106781186548,1.0,0.707106781186548,1.0,0.707106781186548,1.0),(0.707106781186554,0.500000000000005,0.707106781186554,0.500000000000005,0.707106781186554,0.500000000000005,0.707106781186554,0.500000000000005,0.707106781186554),(1.0,0.707106781186548,1.0,0.707106781186548,1.0,0.707106781186548,1.0,0.707106781186548,1.0),(0.707106781186554,0.500000000000005,0.707106781186554,0.500000000000005,0.707106781186554,0.500000000000005,0.707106781186554,0.500000000000005,0.707106781186554),(1.0,0.707106781186548,1.0,0.707106781186548,1.0,0.707106781186548,1.0,0.707106781186548,1.0)))REPRESENTATION_ITEM('')SURFACE());
#785=CARTESIAN_POINT('',(-10.100000000000005,-12.199999999999999,20.399999999999999));
#786=VERTEX_POINT('',#785);
#787=CARTESIAN_POINT('',(-10.100000000000005,-12.0,20.599999999999998));
#788=VERTEX_POINT('',#787);
#789=CARTESIAN_POINT('',(-10.100000000000005,-12.199999999999999,20.599999999999998));
#790=DIRECTION('',(1.0,0.0,0.0));
#791=DIRECTION('',(0.0,0.0,-1.0));
#792=AXIS2_PLACEMENT_3D('',#789,#790,#791);
#793=CIRCLE('',#792,0.199999999999999);
#794=EDGE_CURVE('',#786,#788,#793,.T.);
#795=ORIENTED_EDGE('',*,*,#794,.T.);
#796=CARTESIAN_POINT('',(-10.100000000000005,-11.800000000000001,20.599999999999998));
#797=DIRECTION('',(0.0,0.0,-1.0));
#798=DIRECTION('',(-0.707106781186548,-0.707106781186548,0.0));
#799=AXIS2_PLACEMENT_3D('',#796,#797,#798);
#800=CIRCLE('',#799,0.2);
#801=EDGE_CURVE('',#788,#633,#800,.T.);
#802=ORIENTED_EDGE('',*,*,#801,.T.);
#803=ORIENTED_EDGE('',*,*,#639,.F.);
#804=CARTESIAN_POINT('',(-10.100000000000005,-11.800000000000001,20.399999999999999));
#805=DIRECTION('',(0.0,0.0,1.0));
#806=DIRECTION('',(-0.707106781186548,-0.707106781186548,0.0));
#807=AXIS2_PLACEMENT_3D('',#804,#805,#806);
#808=CIRCLE('',#807,0.4);
#809=EDGE_CURVE('',#625,#786,#808,.T.);
#810=ORIENTED_EDGE('',*,*,#809,.T.);
#811=EDGE_LOOP('',(#795,#802,#803,#810));
#812=FACE_OUTER_BOUND('',#811,.T.);
#813=ADVANCED_FACE('',(#812),#784,.T.);
#814=CARTESIAN_POINT('',(-5.150000000000004,12.199999999999996,20.599999999999998));
#815=DIRECTION('',(-1.0,-1.724618E-016,0.0));
#816=DIRECTION('',(0.0,-0.707106781186554,-0.707106781186541));
#817=AXIS2_PLACEMENT_3D('',#814,#815,#816);
#818=CYLINDRICAL_SURFACE('',#817,0.2);
#819=CARTESIAN_POINT('',(10.099999999999998,12.0,20.599999999999998));
#820=VERTEX_POINT('',#819);
#821=CARTESIAN_POINT('',(10.099999999999998,12.199999999999998,20.399999999999999));
#822=VERTEX_POINT('',#821);
#823=CARTESIAN_POINT('',(10.099999999999998,12.199999999999998,20.599999999999998));
#824=DIRECTION('',(1.0,0.0,0.0));
#825=DIRECTION('',(0.0,-1.0,0.0));
#826=AXIS2_PLACEMENT_3D('',#823,#824,#825);
#827=CIRCLE('',#826,0.199999999999998);
#828=EDGE_CURVE('',#820,#822,#827,.T.);
#829=ORIENTED_EDGE('',*,*,#828,.T.);
#830=CARTESIAN_POINT('',(10.099999999999998,12.199999999999998,20.399999999999999));
#831=DIRECTION('',(-1.0,0.0,0.0));
#832=VECTOR('',#831,20.200000000000003);
#833=LINE('',#830,#832);
#834=EDGE_CURVE('',#822,#706,#833,.T.);
#835=ORIENTED_EDGE('',*,*,#834,.T.);
#836=ORIENTED_EDGE('',*,*,#712,.F.);
#837=CARTESIAN_POINT('',(-10.100000000000005,11.999999999999996,20.599999999999998));
#838=DIRECTION('',(1.0,0.0,0.0));
#839=VECTOR('',#838,20.200000000000003);
#840=LINE('',#837,#839);
#841=EDGE_CURVE('',#704,#820,#840,.T.);
#842=ORIENTED_EDGE('',*,*,#841,.T.);
#843=EDGE_LOOP('',(#829,#835,#836,#842));
#844=FACE_OUTER_BOUND('',#843,.T.);
#845=ADVANCED_FACE('',(#844),#818,.F.);
#846=CARTESIAN_POINT('',(5.149999999999998,-12.199999999999999,20.599999999999998));
#847=DIRECTION('',(1.0,0.0,0.0));
#848=DIRECTION('',(0.0,0.707106781186554,-0.707106781186541));
#849=AXIS2_PLACEMENT_3D('',#846,#847,#848);
#850=CYLINDRICAL_SURFACE('',#849,0.2);
#851=CARTESIAN_POINT('',(10.099999999999998,-12.199999999999999,20.399999999999999));
#852=VERTEX_POINT('',#851);
#853=CARTESIAN_POINT('',(10.099999999999998,-12.0,20.599999999999998));
#854=VERTEX_POINT('',#853);
#855=CARTESIAN_POINT('',(10.099999999999998,-12.199999999999999,20.599999999999998));
#856=DIRECTION('',(1.0,0.0,0.0));
#857=DIRECTION('',(0.0,0.0,-1.0));
#858=AXIS2_PLACEMENT_3D('',#855,#856,#857);
#859=CIRCLE('',#858,0.199999999999999);
#860=EDGE_CURVE('',#852,#854,#859,.T.);
#861=ORIENTED_EDGE('',*,*,#860,.T.);
#862=CARTESIAN_POINT('',(10.099999999999998,-12.0,20.599999999999998));
#863=DIRECTION('',(-1.0,0.0,0.0));
#864=VECTOR('',#863,20.200000000000003);
#865=LINE('',#862,#864);
#866=EDGE_CURVE('',#854,#788,#865,.T.);
#867=ORIENTED_EDGE('',*,*,#866,.T.);
#868=ORIENTED_EDGE('',*,*,#794,.F.);
#869=CARTESIAN_POINT('',(-10.100000000000005,-12.199999999999999,20.399999999999999));
#870=DIRECTION('',(1.0,0.0,0.0));
#871=VECTOR('',#870,20.200000000000003);
#872=LINE('',#869,#871);
#873=EDGE_CURVE('',#786,#852,#872,.T.);
#874=ORIENTED_EDGE('',*,*,#873,.T.);
#875=EDGE_LOOP('',(#861,#867,#868,#874));
#876=FACE_OUTER_BOUND('',#875,.T.);
#877=ADVANCED_FACE('',(#876),#850,.F.);
#878=CARTESIAN_POINT('',(9.899999999999997,11.800000000000001,20.599999999999998));
#879=CARTESIAN_POINT('',(9.899999999999997,11.800000000000002,20.399999999999999));
#880=CARTESIAN_POINT('',(9.699999999999998,11.800000000000001,20.399999999999999));
#881=CARTESIAN_POINT('',(9.499999999999998,11.800000000000002,20.399999999999999));
#882=CARTESIAN_POINT('',(9.499999999999998,11.800000000000001,20.599999999999998));
#883=CARTESIAN_POINT('',(9.899999999999997,11.6,20.599999999999998));
#884=CARTESIAN_POINT('',(9.899999999999997,11.6,20.399999999999999));
#885=CARTESIAN_POINT('',(9.699999999999998,11.399999999999999,20.399999999999999));
#886=CARTESIAN_POINT('',(9.499999999999998,11.200000000000001,20.399999999999999));
#887=CARTESIAN_POINT('',(9.499999999999998,11.200000000000001,20.599999999999998));
#888=CARTESIAN_POINT('',(10.099999999999998,11.6,20.599999999999998));
#889=CARTESIAN_POINT('',(10.099999999999998,11.6,20.399999999999999));
#890=CARTESIAN_POINT('',(10.099999999999998,11.4,20.399999999999999));
#891=CARTESIAN_POINT('',(10.099999999999998,11.200000000000001,20.399999999999999));
#892=CARTESIAN_POINT('',(10.099999999999998,11.200000000000001,20.599999999999998));
#893=CARTESIAN_POINT('',(10.299999999999999,11.6,20.599999999999998));
#894=CARTESIAN_POINT('',(10.299999999999999,11.6,20.399999999999999));
#895=CARTESIAN_POINT('',(10.499999999999998,11.399999999999999,20.399999999999999));
#896=CARTESIAN_POINT('',(10.699999999999998,11.200000000000001,20.399999999999999));
#897=CARTESIAN_POINT('',(10.699999999999998,11.200000000000001,20.599999999999998));
#898=CARTESIAN_POINT('',(10.299999999999999,11.800000000000001,20.599999999999998));
#899=CARTESIAN_POINT('',(10.299999999999999,11.800000000000002,20.399999999999999));
#900=CARTESIAN_POINT('',(10.499999999999998,11.800000000000001,20.399999999999999));
#901=CARTESIAN_POINT('',(10.699999999999998,11.800000000000002,20.399999999999999));
#902=CARTESIAN_POINT('',(10.699999999999998,11.800000000000001,20.599999999999998));
#903=CARTESIAN_POINT('',(10.299999999999999,12.0,20.599999999999998));
#904=CARTESIAN_POINT('',(10.299999999999999,12.000000000000002,20.399999999999999));
#905=CARTESIAN_POINT('',(10.499999999999998,12.200000000000001,20.399999999999999));
#906=CARTESIAN_POINT('',(10.699999999999998,12.4,20.399999999999999));
#907=CARTESIAN_POINT('',(10.699999999999998,12.4,20.599999999999998));
#908=CARTESIAN_POINT('',(10.099999999999998,12.000000000000002,20.599999999999998));
#909=CARTESIAN_POINT('',(10.099999999999998,12.000000000000002,20.399999999999999));
#910=CARTESIAN_POINT('',(10.099999999999998,12.200000000000001,20.399999999999999));
#911=CARTESIAN_POINT('',(10.099999999999998,12.4,20.399999999999999));
#912=CARTESIAN_POINT('',(10.099999999999998,12.4,20.599999999999998));
#913=CARTESIAN_POINT('',(9.899999999999997,12.0,20.599999999999998));
#914=CARTESIAN_POINT('',(9.899999999999997,12.000000000000002,20.399999999999999));
#915=CARTESIAN_POINT('',(9.699999999999998,12.200000000000001,20.399999999999999));
#916=CARTESIAN_POINT('',(9.499999999999998,12.4,20.399999999999999));
#917=CARTESIAN_POINT('',(9.499999999999998,12.4,20.599999999999998));
#918=CARTESIAN_POINT('',(9.899999999999997,11.800000000000001,20.599999999999998));
#919=CARTESIAN_POINT('',(9.899999999999997,11.800000000000002,20.399999999999999));
#920=CARTESIAN_POINT('',(9.699999999999998,11.800000000000001,20.399999999999999));
#921=CARTESIAN_POINT('',(9.499999999999998,11.800000000000002,20.399999999999999));
#922=CARTESIAN_POINT('',(9.499999999999998,11.800000000000001,20.599999999999998));
#930=(BOUNDED_SURFACE()B_SPLINE_SURFACE(2,2,((#878,#883,#888,#893,#898,#903,#908,#913,#918),(#879,#884,#889,#894,#899,#904,#909,#914,#919),(#880,#885,#890,#895,#900,#905,#910,#915,#920),(#881,#886,#891,#896,#901,#906,#911,#916,#921),(#882,#887,#892,#897,#902,#907,#912,#917,#922)),.UNSPECIFIED.,.F.,.T.,.U.)B_SPLINE_SURFACE_WITH_KNOTS((3,2,3),(3,2,2,2,3),(-3.141592653589793,-1.570796326794897,0.0),(0.0,1.570796326794897,3.141592653589793,4.71238898038469,6.283185307179586),.UNSPECIFIED.)GEOMETRIC_REPRESENTATION_ITEM()RATIONAL_B_SPLINE_SURFACE(((1.0,0.707106781186548,1.0,0.707106781186548,1.0,0.707106781186548,1.0,0.707106781186548,1.0),(0.707106781186554,0.500000000000005,0.707106781186554,0.500000000000005,0.707106781186554,0.500000000000005,0.707106781186554,0.500000000000005,0.707106781186554),(1.0,0.707106781186548,1.0,0.707106781186548,1.0,0.707106781186548,1.0,0.707106781186548,1.0),(0.707106781186554,0.500000000000005,0.707106781186554,0.500000000000005,0.707106781186554,0.500000000000005,0.707106781186554,0.500000000000005,0.707106781186554),(1.0,0.707106781186548,1.0,0.707106781186548,1.0,0.707106781186548,1.0,0.707106781186548,1.0)))REPRESENTATION_ITEM('')SURFACE());
#931=CARTESIAN_POINT('',(10.299999999999997,11.800000000000001,20.599999999999998));
#932=VERTEX_POINT('',#931);
#933=CARTESIAN_POINT('',(10.499999999999996,11.800000000000001,20.399999999999999));
#934=VERTEX_POINT('',#933);
#935=CARTESIAN_POINT('',(10.499999999999996,11.800000000000001,20.599999999999998));
#936=DIRECTION('',(0.0,-1.0,0.0));
#937=DIRECTION('',(-1.0,0.0,0.0));
#938=AXIS2_PLACEMENT_3D('',#935,#936,#937);
#939=CIRCLE('',#938,0.199999999999999);
#940=EDGE_CURVE('',#932,#934,#939,.T.);
#941=ORIENTED_EDGE('',*,*,#940,.T.);
#942=CARTESIAN_POINT('',(10.099999999999998,11.800000000000001,20.399999999999999));
#943=DIRECTION('',(0.0,0.0,1.0));
#944=DIRECTION('',(0.707106781186548,0.707106781186548,0.0));
#945=AXIS2_PLACEMENT_3D('',#942,#943,#944);
#946=CIRCLE('',#945,0.4);
#947=EDGE_CURVE('',#934,#822,#946,.T.);
#948=ORIENTED_EDGE('',*,*,#947,.T.);
#949=ORIENTED_EDGE('',*,*,#828,.F.);
#950=CARTESIAN_POINT('',(10.099999999999998,11.800000000000001,20.599999999999998));
#951=DIRECTION('',(0.0,0.0,-1.0));
#952=DIRECTION('',(0.707106781186548,0.707106781186548,0.0));
#953=AXIS2_PLACEMENT_3D('',#950,#951,#952);
#954=CIRCLE('',#953,0.2);
#955=EDGE_CURVE('',#820,#932,#954,.T.);
#956=ORIENTED_EDGE('',*,*,#955,.T.);
#957=EDGE_LOOP('',(#941,#948,#949,#956));
#958=FACE_OUTER_BOUND('',#957,.T.);
#959=ADVANCED_FACE('',(#958),#930,.T.);
#960=CARTESIAN_POINT('',(9.899999999999997,-11.800000000000001,20.599999999999998));
#961=CARTESIAN_POINT('',(9.899999999999997,-11.800000000000002,20.399999999999999));
#962=CARTESIAN_POINT('',(9.699999999999998,-11.800000000000001,20.399999999999999));
#963=CARTESIAN_POINT('',(9.499999999999998,-11.800000000000002,20.399999999999999));
#964=CARTESIAN_POINT('',(9.499999999999998,-11.800000000000001,20.599999999999998));
#965=CARTESIAN_POINT('',(9.899999999999997,-12.0,20.599999999999998));
#966=CARTESIAN_POINT('',(9.899999999999997,-12.000000000000002,20.399999999999999));
#967=CARTESIAN_POINT('',(9.699999999999998,-12.200000000000001,20.399999999999999));
#968=CARTESIAN_POINT('',(9.499999999999998,-12.4,20.399999999999999));
#969=CARTESIAN_POINT('',(9.499999999999998,-12.4,20.599999999999998));
#970=CARTESIAN_POINT('',(10.099999999999998,-12.000000000000002,20.599999999999998));
#971=CARTESIAN_POINT('',(10.099999999999998,-12.000000000000002,20.399999999999999));
#972=CARTESIAN_POINT('',(10.099999999999998,-12.200000000000001,20.399999999999999));
#973=CARTESIAN_POINT('',(10.099999999999998,-12.4,20.399999999999999));
#974=CARTESIAN_POINT('',(10.099999999999998,-12.4,20.599999999999998));
#975=CARTESIAN_POINT('',(10.299999999999999,-12.0,20.599999999999998));
#976=CARTESIAN_POINT('',(10.299999999999999,-12.000000000000002,20.399999999999999));
#977=CARTESIAN_POINT('',(10.499999999999998,-12.200000000000001,20.399999999999999));
#978=CARTESIAN_POINT('',(10.699999999999998,-12.4,20.399999999999999));
#979=CARTESIAN_POINT('',(10.699999999999998,-12.4,20.599999999999998));
#980=CARTESIAN_POINT('',(10.299999999999999,-11.800000000000001,20.599999999999998));
#981=CARTESIAN_POINT('',(10.299999999999999,-11.800000000000002,20.399999999999999));
#982=CARTESIAN_POINT('',(10.499999999999998,-11.800000000000001,20.399999999999999));
#983=CARTESIAN_POINT('',(10.699999999999998,-11.800000000000002,20.399999999999999));
#984=CARTESIAN_POINT('',(10.699999999999998,-11.800000000000001,20.599999999999998));
#985=CARTESIAN_POINT('',(10.299999999999999,-11.6,20.599999999999998));
#986=CARTESIAN_POINT('',(10.299999999999999,-11.6,20.399999999999999));
#987=CARTESIAN_POINT('',(10.499999999999998,-11.399999999999999,20.399999999999999));
#988=CARTESIAN_POINT('',(10.699999999999998,-11.200000000000001,20.399999999999999));
#989=CARTESIAN_POINT('',(10.699999999999998,-11.200000000000001,20.599999999999998));
#990=CARTESIAN_POINT('',(10.099999999999998,-11.6,20.599999999999998));
#991=CARTESIAN_POINT('',(10.099999999999998,-11.6,20.399999999999999));
#992=CARTESIAN_POINT('',(10.099999999999998,-11.4,20.399999999999999));
#993=CARTESIAN_POINT('',(10.099999999999998,-11.200000000000001,20.399999999999999));
#994=CARTESIAN_POINT('',(10.099999999999998,-11.200000000000001,20.599999999999998));
#995=CARTESIAN_POINT('',(9.899999999999997,-11.6,20.599999999999998));
#996=CARTESIAN_POINT('',(9.899999999999997,-11.6,20.399999999999999));
#997=CARTESIAN_POINT('',(9.699999999999998,-11.399999999999999,20.399999999999999));
#998=CARTESIAN_POINT('',(9.499999999999998,-11.200000000000001,20.399999999999999));
#999=CARTESIAN_POINT('',(9.499999999999998,-11.200000000000001,20.599999999999998));
#1000=CARTESIAN_POINT('',(9.899999999999997,-11.800000000000001,20.599999999999998));
#1001=CARTESIAN_POINT('',(9.899999999999997,-11.800000000000002,20.399999999999999));
#1002=CARTESIAN_POINT('',(9.699999999999998,-11.800000000000001,20.399999999999999));
#1003=CARTESIAN_POINT('',(9.499999999999998,-11.800000000000002,20.399999999999999));
#1004=CARTESIAN_POINT('',(9.499999999999998,-11.800000000000001,20.599999999999998));
#1012=(BOUNDED_SURFACE()B_SPLINE_SURFACE(2,2,((#960,#965,#970,#975,#980,#985,#990,#995,#1000),(#961,#966,#971,#976,#981,#986,#991,#996,#1001),(#962,#967,#972,#977,#982,#987,#992,#997,#1002),(#963,#968,#973,#978,#983,#988,#993,#998,#1003),(#964,#969,#974,#979,#984,#989,#994,#999,#1004)),.UNSPECIFIED.,.F.,.T.,.U.)B_SPLINE_SURFACE_WITH_KNOTS((3,2,3),(3,2,2,2,3),(-3.141592653589793,-1.570796326794897,0.0),(0.0,1.570796326794897,3.141592653589793,4.71238898038469,6.283185307179586),.UNSPECIFIED.)GEOMETRIC_REPRESENTATION_ITEM()RATIONAL_B_SPLINE_SURFACE(((1.0,0.707106781186548,1.0,0.707106781186548,1.0,0.707106781186548,1.0,0.707106781186548,1.0),(0.707106781186554,0.500000000000005,0.707106781186554,0.500000000000005,0.707106781186554,0.500000000000005,0.707106781186554,0.500000000000005,0.707106781186554),(1.0,0.707106781186548,1.0,0.707106781186548,1.0,0.707106781186548,1.0,0.707106781186548,1.0),(0.707106781186554,0.500000000000005,0.707106781186554,0.500000000000005,0.707106781186554,0.500000000000005,0.707106781186554,0.500000000000005,0.707106781186554),(1.0,0.707106781186548,1.0,0.707106781186548,1.0,0.707106781186548,1.0,0.707106781186548,1.0)))REPRESENTATION_ITEM('')SURFACE());
#1013=CARTESIAN_POINT('',(10.499999999999996,-11.800000000000001,20.399999999999999));
#1014=VERTEX_POINT('',#1013);
#1015=CARTESIAN_POINT('',(10.299999999999997,-11.800000000000001,20.599999999999998));
#1016=VERTEX_POINT('',#1015);
#1017=CARTESIAN_POINT('',(10.499999999999996,-11.800000000000001,20.599999999999998));
#1018=DIRECTION('',(0.0,1.0,0.0));
#1019=DIRECTION('',(0.0,0.0,-1.0));
#1020=AXIS2_PLACEMENT_3D('',#1017,#1018,#1019);
#1021=CIRCLE('',#1020,0.199999999999999);
#1022=EDGE_CURVE('',#1014,#1016,#1021,.T.);
#1023=ORIENTED_EDGE('',*,*,#1022,.T.);
#1024=CARTESIAN_POINT('',(10.099999999999998,-11.800000000000001,20.599999999999998));
#1025=DIRECTION('',(0.0,0.0,-1.0));
#1026=DIRECTION('',(0.707106781186548,-0.707106781186548,0.0));
#1027=AXIS2_PLACEMENT_3D('',#1024,#1025,#1026);
#1028=CIRCLE('',#1027,0.2);
#1029=EDGE_CURVE('',#1016,#854,#1028,.T.);
#1030=ORIENTED_EDGE('',*,*,#1029,.T.);
#1031=ORIENTED_EDGE('',*,*,#860,.F.);
#1032=CARTESIAN_POINT('',(10.099999999999998,-11.800000000000001,20.399999999999999));
#1033=DIRECTION('',(0.0,0.0,1.0));
#1034=DIRECTION('',(0.707106781186548,-0.707106781186548,0.0));
#1035=AXIS2_PLACEMENT_3D('',#1032,#1033,#1034);
#1036=CIRCLE('',#1035,0.4);
#1037=EDGE_CURVE('',#852,#1014,#1036,.T.);
#1038=ORIENTED_EDGE('',*,*,#1037,.T.);
#1039=EDGE_LOOP('',(#1023,#1030,#1031,#1038));
#1040=FACE_OUTER_BOUND('',#1039,.T.);
#1041=ADVANCED_FACE('',(#1040),#1012,.T.);
#1042=CARTESIAN_POINT('',(10.499999999999996,5.999999999999999,20.599999999999998));
#1043=DIRECTION('',(0.0,1.0,0.0));
#1044=DIRECTION('',(-0.707106781186554,0.0,-0.707106781186541));
#1045=AXIS2_PLACEMENT_3D('',#1042,#1043,#1044);
#1046=CYLINDRICAL_SURFACE('',#1045,0.2);
#1047=ORIENTED_EDGE('',*,*,#940,.F.);
#1048=CARTESIAN_POINT('',(10.299999999999997,11.800000000000001,20.599999999999998));
#1049=DIRECTION('',(0.0,-1.0,0.0));
#1050=VECTOR('',#1049,23.600000000000001);
#1051=LINE('',#1048,#1050);
#1052=EDGE_CURVE('',#932,#1016,#1051,.T.);
#1053=ORIENTED_EDGE('',*,*,#1052,.T.);
#1054=ORIENTED_EDGE('',*,*,#1022,.F.);
#1055=CARTESIAN_POINT('',(10.499999999999996,-11.800000000000001,20.399999999999999));
#1056=DIRECTION('',(0.0,1.0,0.0));
#1057=VECTOR('',#1056,23.600000000000001);
#1058=LINE('',#1055,#1057);
#1059=EDGE_CURVE('',#1014,#934,#1058,.T.);
#1060=ORIENTED_EDGE('',*,*,#1059,.T.);
#1061=EDGE_LOOP('',(#1047,#1053,#1054,#1060));
#1062=FACE_OUTER_BOUND('',#1061,.T.);
#1063=ADVANCED_FACE('',(#1062),#1046,.F.);
#1064=CARTESIAN_POINT('',(10.099999999999998,11.800000000000001,20.399999999999999));
#1065=DIRECTION('',(0.0,0.0,1.0));
#1066=DIRECTION('',(0.707106781186548,0.707106781186548,0.0));
#1067=AXIS2_PLACEMENT_3D('',#1064,#1065,#1066);
#1068=CYLINDRICAL_SURFACE('',#1067,0.2);
#1069=ORIENTED_EDGE('',*,*,#955,.F.);
#1070=CARTESIAN_POINT('',(10.099999999999998,11.999999999999998,23.600000000000005));
#1071=VERTEX_POINT('',#1070);
#1072=CARTESIAN_POINT('',(10.099999999999998,12.0,20.599999999999998));
#1073=DIRECTION('',(0.0,0.0,1.0));
#1074=VECTOR('',#1073,3.000000000000007);
#1075=LINE('',#1072,#1074);
#1076=EDGE_CURVE('',#820,#1071,#1075,.T.);
#1077=ORIENTED_EDGE('',*,*,#1076,.T.);
#1078=CARTESIAN_POINT('',(10.299999999999997,11.800000000000001,23.600000000000005));
#1079=VERTEX_POINT('',#1078);
#1080=CARTESIAN_POINT('',(10.099999999999998,11.800000000000001,23.600000000000005));
#1081=DIRECTION('',(0.0,0.0,1.0));
#1082=DIRECTION('',(0.707106781186548,0.707106781186548,0.0));
#1083=AXIS2_PLACEMENT_3D('',#1080,#1081,#1082);
#1084=CIRCLE('',#1083,0.2);
#1085=EDGE_CURVE('',#1079,#1071,#1084,.T.);
#1086=ORIENTED_EDGE('',*,*,#1085,.F.);
#1087=CARTESIAN_POINT('',(10.299999999999997,11.800000000000001,23.600000000000005));
#1088=DIRECTION('',(0.0,0.0,-1.0));
#1089=VECTOR('',#1088,3.000000000000007);
#1090=LINE('',#1087,#1089);
#1091=EDGE_CURVE('',#1079,#932,#1090,.T.);
#1092=ORIENTED_EDGE('',*,*,#1091,.T.);
#1093=EDGE_LOOP('',(#1069,#1077,#1086,#1092));
#1094=FACE_OUTER_BOUND('',#1093,.T.);
#1095=ADVANCED_FACE('',(#1094),#1068,.T.);
#1096=CARTESIAN_POINT('',(-10.300000000000004,11.999999999999996,20.399999999999999));
#1097=DIRECTION('',(0.0,1.0,0.0));
#1098=DIRECTION('',(0.0,0.0,1.0));
#1099=AXIS2_PLACEMENT_3D('',#1096,#1097,#1098);
#1100=PLANE('',#1099);
#1101=ORIENTED_EDGE('',*,*,#841,.F.);
#1102=CARTESIAN_POINT('',(-10.100000000000005,11.999999999999996,23.600000000000005));
#1103=VERTEX_POINT('',#1102);
#1104=CARTESIAN_POINT('',(-10.100000000000005,11.999999999999996,23.600000000000005));
#1105=DIRECTION('',(0.0,0.0,-1.0));
#1106=VECTOR('',#1105,3.000000000000007);
#1107=LINE('',#1104,#1106);
#1108=EDGE_CURVE('',#1103,#704,#1107,.T.);
#1109=ORIENTED_EDGE('',*,*,#1108,.F.);
#1110=CARTESIAN_POINT('',(10.099999999999998,11.999999999999998,23.600000000000005));
#1111=DIRECTION('',(-1.0,0.0,0.0));
#1112=VECTOR('',#1111,20.200000000000003);
#1113=LINE('',#1110,#1112);
#1114=EDGE_CURVE('',#1071,#1103,#1113,.T.);
#1115=ORIENTED_EDGE('',*,*,#1114,.F.);
#1116=ORIENTED_EDGE('',*,*,#1076,.F.);
#1117=EDGE_LOOP('',(#1101,#1109,#1115,#1116));
#1118=FACE_OUTER_BOUND('',#1117,.T.);
#1119=ADVANCED_FACE('',(#1118),#1100,.T.);
#1120=CARTESIAN_POINT('',(-10.100000000000005,11.799999999999997,20.399999999999999));
#1121=DIRECTION('',(0.0,0.0,1.0));
#1122=DIRECTION('',(-0.707106781186548,0.707106781186548,0.0));
#1123=AXIS2_PLACEMENT_3D('',#1120,#1121,#1122);
#1124=CYLINDRICAL_SURFACE('',#1123,0.2);
#1125=ORIENTED_EDGE('',*,*,#727,.F.);
#1126=CARTESIAN_POINT('',(-10.300000000000004,11.799999999999997,23.600000000000005));
#1127=VERTEX_POINT('',#1126);
#1128=CARTESIAN_POINT('',(-10.300000000000004,11.799999999999997,20.599999999999998));
#1129=DIRECTION('',(0.0,0.0,1.0));
#1130=VECTOR('',#1129,3.000000000000007);
#1131=LINE('',#1128,#1130);
#1132=EDGE_CURVE('',#614,#1127,#1131,.T.);
#1133=ORIENTED_EDGE('',*,*,#1132,.T.);
#1134=CARTESIAN_POINT('',(-10.100000000000005,11.799999999999997,23.600000000000005));
#1135=DIRECTION('',(0.0,0.0,1.0));
#1136=DIRECTION('',(-0.707106781186548,0.707106781186548,0.0));
#1137=AXIS2_PLACEMENT_3D('',#1134,#1135,#1136);
#1138=CIRCLE('',#1137,0.2);
#1139=EDGE_CURVE('',#1103,#1127,#1138,.T.);
#1140=ORIENTED_EDGE('',*,*,#1139,.F.);
#1141=ORIENTED_EDGE('',*,*,#1108,.T.);
#1142=EDGE_LOOP('',(#1125,#1133,#1140,#1141));
#1143=FACE_OUTER_BOUND('',#1142,.T.);
#1144=ADVANCED_FACE('',(#1143),#1124,.T.);
#1145=CARTESIAN_POINT('',(-10.300000000000004,-12.0,20.399999999999999));
#1146=DIRECTION('',(-1.0,0.0,0.0));
#1147=DIRECTION('',(0.0,0.0,1.0));
#1148=AXIS2_PLACEMENT_3D('',#1145,#1146,#1147);
#1149=PLANE('',#1148);
#1150=ORIENTED_EDGE('',*,*,#645,.F.);
#1151=CARTESIAN_POINT('',(-10.300000000000004,-11.800000000000001,23.600000000000005));
#1152=VERTEX_POINT('',#1151);
#1153=CARTESIAN_POINT('',(-10.300000000000004,-11.800000000000001,23.600000000000005));
#1154=DIRECTION('',(0.0,0.0,-1.0));
#1155=VECTOR('',#1154,3.000000000000007);
#1156=LINE('',#1153,#1155);
#1157=EDGE_CURVE('',#1152,#633,#1156,.T.);
#1158=ORIENTED_EDGE('',*,*,#1157,.F.);
#1159=CARTESIAN_POINT('',(-10.300000000000004,11.799999999999997,23.600000000000005));
#1160=DIRECTION('',(0.0,-1.0,0.0));
#1161=VECTOR('',#1160,23.599999999999998);
#1162=LINE('',#1159,#1161);
#1163=EDGE_CURVE('',#1127,#1152,#1162,.T.);
#1164=ORIENTED_EDGE('',*,*,#1163,.F.);
#1165=ORIENTED_EDGE('',*,*,#1132,.F.);
#1166=EDGE_LOOP('',(#1150,#1158,#1164,#1165));
#1167=FACE_OUTER_BOUND('',#1166,.T.);
#1168=ADVANCED_FACE('',(#1167),#1149,.T.);
#1169=CARTESIAN_POINT('',(-1.184328E-015,-1.776357E-015,20.399999999999999));
#1170=DIRECTION('',(0.0,0.0,1.0));
#1171=DIRECTION('',(1.0,0.0,0.0));
#1172=AXIS2_PLACEMENT_3D('',#1169,#1170,#1171);
#1173=PLANE('',#1172);
#1174=CARTESIAN_POINT('',(-13.450000000000001,-15.950000000000003,20.399999999999999));
#1175=VERTEX_POINT('',#1174);
#1176=CARTESIAN_POINT('',(-13.450000000000001,15.950000000000006,20.399999999999999));
#1177=VERTEX_POINT('',#1176);
#1178=CARTESIAN_POINT('',(-13.450000000000001,-15.950000000000003,20.399999999999999));
#1179=DIRECTION('',(0.0,1.0,0.0));
#1180=VECTOR('',#1179,31.900000000000009);
#1181=LINE('',#1178,#1180);
#1182=EDGE_CURVE('',#1175,#1177,#1181,.T.);
#1183=ORIENTED_EDGE('',*,*,#1182,.F.);
#1184=CARTESIAN_POINT('',(13.450000000000001,-15.950000000000003,20.399999999999999));
#1185=VERTEX_POINT('',#1184);
#1186=CARTESIAN_POINT('',(13.450000000000001,-15.950000000000003,20.399999999999999));
#1187=DIRECTION('',(-1.0,0.0,0.0));
#1188=VECTOR('',#1187,26.899999999999999);
#1189=LINE('',#1186,#1188);
#1190=EDGE_CURVE('',#1185,#1175,#1189,.T.);
#1191=ORIENTED_EDGE('',*,*,#1190,.F.);
#1192=CARTESIAN_POINT('',(13.450000000000001,15.949999999999996,20.399999999999999));
#1193=VERTEX_POINT('',#1192);
#1194=CARTESIAN_POINT('',(13.450000000000001,15.949999999999996,20.399999999999999));
#1195=DIRECTION('',(0.0,-1.0,0.0));
#1196=VECTOR('',#1195,31.899999999999999);
#1197=LINE('',#1194,#1196);
#1198=EDGE_CURVE('',#1193,#1185,#1197,.T.);
#1199=ORIENTED_EDGE('',*,*,#1198,.F.);
#1200=CARTESIAN_POINT('',(-13.450000000000001,15.950000000000005,20.399999999999999));
#1201=DIRECTION('',(1.0,0.0,0.0));
#1202=VECTOR('',#1201,26.900000000000002);
#1203=LINE('',#1200,#1202);
#1204=EDGE_CURVE('',#1177,#1193,#1203,.T.);
#1205=ORIENTED_EDGE('',*,*,#1204,.F.);
#1206=EDGE_LOOP('',(#1183,#1191,#1199,#1205));
#1207=FACE_OUTER_BOUND('',#1206,.T.);
#1208=ORIENTED_EDGE('',*,*,#630,.F.);
#1209=ORIENTED_EDGE('',*,*,#719,.F.);
#1210=ORIENTED_EDGE('',*,*,#834,.F.);
#1211=ORIENTED_EDGE('',*,*,#947,.F.);
#1212=ORIENTED_EDGE('',*,*,#1059,.F.);
#1213=ORIENTED_EDGE('',*,*,#1037,.F.);
#1214=ORIENTED_EDGE('',*,*,#873,.F.);
#1215=ORIENTED_EDGE('',*,*,#809,.F.);
#1216=EDGE_LOOP('',(#1208,#1209,#1210,#1211,#1212,#1213,#1214,#1215));
#1217=FACE_BOUND('',#1216,.T.);
#1218=ADVANCED_FACE('',(#1207,#1217),#1173,.T.);
#1219=CARTESIAN_POINT('',(13.450000000000001,-15.950000000000001,20.199999999999999));
#1220=DIRECTION('',(0.0,0.0,1.0));
#1221=DIRECTION('',(1.0,0.0,0.0));
#1222=AXIS2_PLACEMENT_3D('',#1219,#1220,#1221);
#1223=SPHERICAL_SURFACE('',#1222,0.2);
#1224=CARTESIAN_POINT('',(13.450000000000001,-16.150000000000002,20.199999999999999));
#1225=VERTEX_POINT('',#1224);
#1226=CARTESIAN_POINT('',(13.65,-15.950000000000003,20.199999999999999));
#1227=VERTEX_POINT('',#1226);
#1228=CARTESIAN_POINT('',(13.450000000000001,-15.950000000000001,20.199999999999999));
#1229=DIRECTION('',(0.0,0.0,1.0));
#1230=DIRECTION('',(0.707106781186548,-0.707106781186548,0.0));
#1231=AXIS2_PLACEMENT_3D('',#1228,#1229,#1230);
#1232=CIRCLE('',#1231,0.2);
#1233=EDGE_CURVE('',#1225,#1227,#1232,.T.);
#1234=ORIENTED_EDGE('',*,*,#1233,.T.);
#1235=CARTESIAN_POINT('',(13.450000000000001,-15.950000000000003,20.199999999999999));
#1236=DIRECTION('',(0.0,-1.0,0.0));
#1237=DIRECTION('',(0.0,0.0,1.0));
#1238=AXIS2_PLACEMENT_3D('',#1235,#1236,#1237);
#1239=CIRCLE('',#1238,0.199999999999999);
#1240=EDGE_CURVE('',#1185,#1227,#1239,.F.);
#1241=ORIENTED_EDGE('',*,*,#1240,.F.);
#1242=CARTESIAN_POINT('',(13.450000000000001,-15.950000000000003,20.199999999999999));
#1243=DIRECTION('',(1.0,0.0,0.0));
#1244=DIRECTION('',(0.0,-1.0,0.0));
#1245=AXIS2_PLACEMENT_3D('',#1242,#1243,#1244);
#1246=CIRCLE('',#1245,0.199999999999999);
#1247=EDGE_CURVE('',#1225,#1185,#1246,.F.);
#1248=ORIENTED_EDGE('',*,*,#1247,.F.);
#1249=EDGE_LOOP('',(#1234,#1241,#1248));
#1250=FACE_OUTER_BOUND('',#1249,.T.);
#1251=ADVANCED_FACE('',(#1250),#1223,.T.);
#1252=CARTESIAN_POINT('',(13.450000000000001,15.949999999999996,20.199999999999999));
#1253=DIRECTION('',(0.0,0.0,1.0));
#1254=DIRECTION('',(1.0,0.0,0.0));
#1255=AXIS2_PLACEMENT_3D('',#1252,#1253,#1254);
#1256=SPHERICAL_SURFACE('',#1255,0.2);
#1257=CARTESIAN_POINT('',(13.65,15.949999999999996,20.199999999999999));
#1258=VERTEX_POINT('',#1257);
#1259=CARTESIAN_POINT('',(13.450000000000001,16.149999999999995,20.199999999999999));
#1260=VERTEX_POINT('',#1259);
#1261=CARTESIAN_POINT('',(13.450000000000001,15.949999999999996,20.199999999999999));
#1262=DIRECTION('',(0.0,0.0,1.0));
#1263=DIRECTION('',(0.707106781186541,0.707106781186554,0.0));
#1264=AXIS2_PLACEMENT_3D('',#1261,#1262,#1263);
#1265=CIRCLE('',#1264,0.2);
#1266=EDGE_CURVE('',#1258,#1260,#1265,.T.);
#1267=ORIENTED_EDGE('',*,*,#1266,.T.);
#1268=CARTESIAN_POINT('',(13.450000000000001,15.949999999999996,20.199999999999999));
#1269=DIRECTION('',(1.0,0.0,0.0));
#1270=DIRECTION('',(0.0,0.0,1.0));
#1271=AXIS2_PLACEMENT_3D('',#1268,#1269,#1270);
#1272=CIRCLE('',#1271,0.199999999999999);
#1273=EDGE_CURVE('',#1193,#1260,#1272,.F.);
#1274=ORIENTED_EDGE('',*,*,#1273,.F.);
#1275=CARTESIAN_POINT('',(13.450000000000001,15.949999999999996,20.199999999999999));
#1276=DIRECTION('',(0.0,1.0,0.0));
#1277=DIRECTION('',(0.707106781186554,0.0,0.707106781186541));
#1278=AXIS2_PLACEMENT_3D('',#1275,#1276,#1277);
#1279=CIRCLE('',#1278,0.2);
#1280=EDGE_CURVE('',#1193,#1258,#1279,.T.);
#1281=ORIENTED_EDGE('',*,*,#1280,.T.);
#1282=EDGE_LOOP('',(#1267,#1274,#1281));
#1283=FACE_OUTER_BOUND('',#1282,.T.);
#1284=ADVANCED_FACE('',(#1283),#1256,.T.);
#1285=CARTESIAN_POINT('',(-13.450000000000001,-15.950000000000003,20.199999999999999));
#1286=DIRECTION('',(0.0,0.0,1.0));
#1287=DIRECTION('',(1.0,0.0,0.0));
#1288=AXIS2_PLACEMENT_3D('',#1285,#1286,#1287);
#1289=SPHERICAL_SURFACE('',#1288,0.2);
#1290=CARTESIAN_POINT('',(-13.450000000000001,-16.150000000000002,20.199999999999999));
#1291=VERTEX_POINT('',#1290);
#1292=CARTESIAN_POINT('',(-13.449999999999999,-15.950000000000003,20.199999999999999));
#1293=DIRECTION('',(-1.0,0.0,0.0));
#1294=DIRECTION('',(0.0,-0.70710678118656,0.707106781186535));
#1295=AXIS2_PLACEMENT_3D('',#1292,#1293,#1294);
#1296=CIRCLE('',#1295,0.2);
#1297=EDGE_CURVE('',#1291,#1175,#1296,.T.);
#1298=ORIENTED_EDGE('',*,*,#1297,.T.);
#1299=CARTESIAN_POINT('',(-13.65,-15.950000000000003,20.199999999999999));
#1300=VERTEX_POINT('',#1299);
#1301=CARTESIAN_POINT('',(-13.450000000000001,-15.950000000000003,20.199999999999999));
#1302=DIRECTION('',(0.0,-1.0,0.0));
#1303=DIRECTION('',(-1.0,0.0,0.0));
#1304=AXIS2_PLACEMENT_3D('',#1301,#1302,#1303);
#1305=CIRCLE('',#1304,0.199999999999999);
#1306=EDGE_CURVE('',#1300,#1175,#1305,.F.);
#1307=ORIENTED_EDGE('',*,*,#1306,.F.);
#1308=CARTESIAN_POINT('',(-13.450000000000001,-15.950000000000003,20.199999999999999));
#1309=DIRECTION('',(0.0,0.0,1.0));
#1310=DIRECTION('',(-0.707106781186541,-0.707106781186554,0.0));
#1311=AXIS2_PLACEMENT_3D('',#1308,#1309,#1310);
#1312=CIRCLE('',#1311,0.2);
#1313=EDGE_CURVE('',#1300,#1291,#1312,.T.);
#1314=ORIENTED_EDGE('',*,*,#1313,.T.);
#1315=EDGE_LOOP('',(#1298,#1307,#1314));
#1316=FACE_OUTER_BOUND('',#1315,.T.);
#1317=ADVANCED_FACE('',(#1316),#1289,.T.);
#1318=CARTESIAN_POINT('',(-13.450000000000001,15.950000000000006,20.199999999999999));
#1319=DIRECTION('',(0.0,0.0,1.0));
#1320=DIRECTION('',(1.0,0.0,0.0));
#1321=AXIS2_PLACEMENT_3D('',#1318,#1319,#1320);
#1322=SPHERICAL_SURFACE('',#1321,0.199999999999999);
#1323=CARTESIAN_POINT('',(-13.450000000000001,16.150000000000006,20.199999999999999));
#1324=VERTEX_POINT('',#1323);
#1325=CARTESIAN_POINT('',(-13.450000000000001,15.950000000000005,20.199999999999999));
#1326=DIRECTION('',(-1.0,0.0,0.0));
#1327=DIRECTION('',(0.0,0.707106781186554,0.707106781186541));
#1328=AXIS2_PLACEMENT_3D('',#1325,#1326,#1327);
#1329=CIRCLE('',#1328,0.2);
#1330=EDGE_CURVE('',#1177,#1324,#1329,.T.);
#1331=ORIENTED_EDGE('',*,*,#1330,.T.);
#1332=CARTESIAN_POINT('',(-13.65,15.950000000000006,20.199999999999999));
#1333=VERTEX_POINT('',#1332);
#1334=CARTESIAN_POINT('',(-13.450000000000001,15.950000000000006,20.199999999999999));
#1335=DIRECTION('',(0.0,0.0,1.0));
#1336=DIRECTION('',(-1.0,0.0,0.0));
#1337=AXIS2_PLACEMENT_3D('',#1334,#1335,#1336);
#1338=CIRCLE('',#1337,0.199999999999999);
#1339=EDGE_CURVE('',#1333,#1324,#1338,.F.);
#1340=ORIENTED_EDGE('',*,*,#1339,.F.);
#1341=CARTESIAN_POINT('',(-13.450000000000001,15.950000000000006,20.199999999999999));
#1342=DIRECTION('',(0.0,1.0,0.0));
#1343=DIRECTION('',(-0.707106781186554,0.0,0.707106781186541));
#1344=AXIS2_PLACEMENT_3D('',#1341,#1342,#1343);
#1345=CIRCLE('',#1344,0.2);
#1346=EDGE_CURVE('',#1333,#1177,#1345,.T.);
#1347=ORIENTED_EDGE('',*,*,#1346,.T.);
#1348=EDGE_LOOP('',(#1331,#1340,#1347));
#1349=FACE_OUTER_BOUND('',#1348,.T.);
#1350=ADVANCED_FACE('',(#1349),#1322,.T.);
#1351=CARTESIAN_POINT('',(-13.450000000000001,15.950000000000006,0.0));
#1352=DIRECTION('',(0.0,0.0,1.0));
#1353=DIRECTION('',(-0.707106781186554,0.707106781186541,0.0));
#1354=AXIS2_PLACEMENT_3D('',#1351,#1352,#1353);
#1355=CYLINDRICAL_SURFACE('',#1354,0.2);
#1356=CARTESIAN_POINT('',(-13.450000000000001,16.150000000000006,0.0));
#1357=VERTEX_POINT('',#1356);
#1358=CARTESIAN_POINT('',(-13.65,15.950000000000006,0.0));
#1359=VERTEX_POINT('',#1358);
#1360=CARTESIAN_POINT('',(-13.450000000000001,15.950000000000006,0.0));
#1361=DIRECTION('',(0.0,0.0,1.0));
#1362=DIRECTION('',(-0.707106781186554,0.707106781186541,0.0));
#1363=AXIS2_PLACEMENT_3D('',#1360,#1361,#1362);
#1364=CIRCLE('',#1363,0.2);
#1365=EDGE_CURVE('',#1357,#1359,#1364,.T.);
#1366=ORIENTED_EDGE('',*,*,#1365,.T.);
#1367=CARTESIAN_POINT('',(-13.65,15.950000000000006,0.0));
#1368=DIRECTION('',(0.0,0.0,1.0));
#1369=VECTOR('',#1368,20.199999999999999);
#1370=LINE('',#1367,#1369);
#1371=EDGE_CURVE('',#1359,#1333,#1370,.T.);
#1372=ORIENTED_EDGE('',*,*,#1371,.T.);
#1373=ORIENTED_EDGE('',*,*,#1339,.T.);
#1374=CARTESIAN_POINT('',(-13.450000000000001,16.150000000000006,20.199999999999999));
#1375=DIRECTION('',(0.0,0.0,-1.0));
#1376=VECTOR('',#1375,20.199999999999999);
#1377=LINE('',#1374,#1376);
#1378=EDGE_CURVE('',#1324,#1357,#1377,.T.);
#1379=ORIENTED_EDGE('',*,*,#1378,.T.);
#1380=EDGE_LOOP('',(#1366,#1372,#1373,#1379));
#1381=FACE_OUTER_BOUND('',#1380,.T.);
#1382=ADVANCED_FACE('',(#1381),#1355,.T.);
#1383=CARTESIAN_POINT('',(-13.450000000000001,-8.075000000000003,20.199999999999999));
#1384=DIRECTION('',(0.0,1.0,0.0));
#1385=DIRECTION('',(-0.707106781186554,0.0,0.707106781186541));
#1386=AXIS2_PLACEMENT_3D('',#1383,#1384,#1385);
#1387=CYLINDRICAL_SURFACE('',#1386,0.2);
#1388=ORIENTED_EDGE('',*,*,#1346,.F.);
#1389=CARTESIAN_POINT('',(-13.65,15.950000000000006,20.199999999999999));
#1390=DIRECTION('',(0.0,-1.0,0.0));
#1391=VECTOR('',#1390,31.900000000000009);
#1392=LINE('',#1389,#1391);
#1393=EDGE_CURVE('',#1333,#1300,#1392,.T.);
#1394=ORIENTED_EDGE('',*,*,#1393,.T.);
#1395=ORIENTED_EDGE('',*,*,#1306,.T.);
#1396=ORIENTED_EDGE('',*,*,#1182,.T.);
#1397=EDGE_LOOP('',(#1388,#1394,#1395,#1396));
#1398=FACE_OUTER_BOUND('',#1397,.T.);
#1399=ADVANCED_FACE('',(#1398),#1387,.T.);
#1400=CARTESIAN_POINT('',(-6.824999999999998,15.950000000000003,20.199999999999999));
#1401=DIRECTION('',(1.0,-3.904081E-016,0.0));
#1402=DIRECTION('',(0.0,0.70710678118656,0.707106781186535));
#1403=AXIS2_PLACEMENT_3D('',#1400,#1401,#1402);
#1404=CYLINDRICAL_SURFACE('',#1403,0.2);
#1405=ORIENTED_EDGE('',*,*,#1273,.T.);
#1406=CARTESIAN_POINT('',(13.450000000000001,16.149999999999995,20.199999999999999));
#1407=DIRECTION('',(-1.0,0.0,0.0));
#1408=VECTOR('',#1407,26.900000000000002);
#1409=LINE('',#1406,#1408);
#1410=EDGE_CURVE('',#1260,#1324,#1409,.T.);
#1411=ORIENTED_EDGE('',*,*,#1410,.T.);
#1412=ORIENTED_EDGE('',*,*,#1330,.F.);
#1413=ORIENTED_EDGE('',*,*,#1204,.T.);
#1414=EDGE_LOOP('',(#1405,#1411,#1412,#1413));
#1415=FACE_OUTER_BOUND('',#1414,.T.);
#1416=ADVANCED_FACE('',(#1415),#1404,.T.);
#1417=CARTESIAN_POINT('',(-13.450000000000001,-15.950000000000003,0.0));
#1418=DIRECTION('',(0.0,0.0,1.0));
#1419=DIRECTION('',(-0.707106781186541,-0.707106781186554,0.0));
#1420=AXIS2_PLACEMENT_3D('',#1417,#1418,#1419);
#1421=CYLINDRICAL_SURFACE('',#1420,0.2);
#1422=CARTESIAN_POINT('',(-13.65,-15.950000000000003,0.0));
#1423=VERTEX_POINT('',#1422);
#1424=CARTESIAN_POINT('',(-13.450000000000001,-16.150000000000002,0.0));
#1425=VERTEX_POINT('',#1424);
#1426=CARTESIAN_POINT('',(-13.450000000000001,-15.950000000000003,0.0));
#1427=DIRECTION('',(0.0,0.0,1.0));
#1428=DIRECTION('',(-0.707106781186541,-0.707106781186554,0.0));
#1429=AXIS2_PLACEMENT_3D('',#1426,#1427,#1428);
#1430=CIRCLE('',#1429,0.2);
#1431=EDGE_CURVE('',#1423,#1425,#1430,.T.);
#1432=ORIENTED_EDGE('',*,*,#1431,.T.);
#1433=CARTESIAN_POINT('',(-13.450000000000001,-16.150000000000002,0.0));
#1434=DIRECTION('',(0.0,0.0,1.0));
#1435=VECTOR('',#1434,20.199999999999999);
#1436=LINE('',#1433,#1435);
#1437=EDGE_CURVE('',#1425,#1291,#1436,.T.);
#1438=ORIENTED_EDGE('',*,*,#1437,.T.);
#1439=ORIENTED_EDGE('',*,*,#1313,.F.);
#1440=CARTESIAN_POINT('',(-13.65,-15.950000000000003,20.199999999999999));
#1441=DIRECTION('',(0.0,0.0,-1.0));
#1442=VECTOR('',#1441,20.199999999999999);
#1443=LINE('',#1440,#1442);
#1444=EDGE_CURVE('',#1300,#1423,#1443,.T.);
#1445=ORIENTED_EDGE('',*,*,#1444,.T.);
#1446=EDGE_LOOP('',(#1432,#1438,#1439,#1445));
#1447=FACE_OUTER_BOUND('',#1446,.T.);
#1448=ADVANCED_FACE('',(#1447),#1421,.T.);
#1449=CARTESIAN_POINT('',(6.824999999999999,-15.950000000000003,20.199999999999999));
#1450=DIRECTION('',(-1.0,0.0,0.0));
#1451=DIRECTION('',(0.0,-0.70710678118656,0.707106781186535));
#1452=AXIS2_PLACEMENT_3D('',#1449,#1450,#1451);
#1453=CYLINDRICAL_SURFACE('',#1452,0.2);
#1454=ORIENTED_EDGE('',*,*,#1297,.F.);
#1455=CARTESIAN_POINT('',(-13.449999999999999,-16.150000000000002,20.199999999999999));
#1456=DIRECTION('',(1.0,0.0,0.0));
#1457=VECTOR('',#1456,26.899999999999999);
#1458=LINE('',#1455,#1457);
#1459=EDGE_CURVE('',#1291,#1225,#1458,.T.);
#1460=ORIENTED_EDGE('',*,*,#1459,.T.);
#1461=ORIENTED_EDGE('',*,*,#1247,.T.);
#1462=ORIENTED_EDGE('',*,*,#1190,.T.);
#1463=EDGE_LOOP('',(#1454,#1460,#1461,#1462));
#1464=FACE_OUTER_BOUND('',#1463,.T.);
#1465=ADVANCED_FACE('',(#1464),#1453,.T.);
#1466=CARTESIAN_POINT('',(13.450000000000001,15.949999999999996,0.0));
#1467=DIRECTION('',(0.0,0.0,1.0));
#1468=DIRECTION('',(0.707106781186541,0.707106781186554,0.0));
#1469=AXIS2_PLACEMENT_3D('',#1466,#1467,#1468);
#1470=CYLINDRICAL_SURFACE('',#1469,0.2);
#1471=CARTESIAN_POINT('',(13.65,15.949999999999992,0.0));
#1472=VERTEX_POINT('',#1471);
#1473=CARTESIAN_POINT('',(13.450000000000001,16.149999999999995,0.0));
#1474=VERTEX_POINT('',#1473);
#1475=CARTESIAN_POINT('',(13.450000000000001,15.949999999999996,0.0));
#1476=DIRECTION('',(0.0,0.0,1.0));
#1477=DIRECTION('',(0.707106781186541,0.707106781186554,0.0));
#1478=AXIS2_PLACEMENT_3D('',#1475,#1476,#1477);
#1479=CIRCLE('',#1478,0.2);
#1480=EDGE_CURVE('',#1472,#1474,#1479,.T.);
#1481=ORIENTED_EDGE('',*,*,#1480,.T.);
#1482=CARTESIAN_POINT('',(13.450000000000001,16.149999999999995,0.0));
#1483=DIRECTION('',(0.0,0.0,1.0));
#1484=VECTOR('',#1483,20.199999999999999);
#1485=LINE('',#1482,#1484);
#1486=EDGE_CURVE('',#1474,#1260,#1485,.T.);
#1487=ORIENTED_EDGE('',*,*,#1486,.T.);
#1488=ORIENTED_EDGE('',*,*,#1266,.F.);
#1489=CARTESIAN_POINT('',(13.65,15.949999999999996,20.199999999999999));
#1490=DIRECTION('',(0.0,0.0,-1.0));
#1491=VECTOR('',#1490,20.199999999999999);
#1492=LINE('',#1489,#1491);
#1493=EDGE_CURVE('',#1258,#1472,#1492,.T.);
#1494=ORIENTED_EDGE('',*,*,#1493,.T.);
#1495=EDGE_LOOP('',(#1481,#1487,#1488,#1494));
#1496=FACE_OUTER_BOUND('',#1495,.T.);
#1497=ADVANCED_FACE('',(#1496),#1470,.T.);
#1498=CARTESIAN_POINT('',(13.450000000000001,8.074999999999996,20.199999999999999));
#1499=DIRECTION('',(0.0,-1.0,0.0));
#1500=DIRECTION('',(0.707106781186554,0.0,0.707106781186541));
#1501=AXIS2_PLACEMENT_3D('',#1498,#1499,#1500);
#1502=CYLINDRICAL_SURFACE('',#1501,0.2);
#1503=ORIENTED_EDGE('',*,*,#1240,.T.);
#1504=CARTESIAN_POINT('',(13.65,-15.950000000000003,20.199999999999999));
#1505=DIRECTION('',(0.0,1.0,0.0));
#1506=VECTOR('',#1505,31.899999999999999);
#1507=LINE('',#1504,#1506);
#1508=EDGE_CURVE('',#1227,#1258,#1507,.T.);
#1509=ORIENTED_EDGE('',*,*,#1508,.T.);
#1510=ORIENTED_EDGE('',*,*,#1280,.F.);
#1511=ORIENTED_EDGE('',*,*,#1198,.T.);
#1512=EDGE_LOOP('',(#1503,#1509,#1510,#1511));
#1513=FACE_OUTER_BOUND('',#1512,.T.);
#1514=ADVANCED_FACE('',(#1513),#1502,.T.);
#1515=CARTESIAN_POINT('',(13.450000000000001,-15.950000000000001,0.0));
#1516=DIRECTION('',(0.0,0.0,1.0));
#1517=DIRECTION('',(0.707106781186548,-0.707106781186548,0.0));
#1518=AXIS2_PLACEMENT_3D('',#1515,#1516,#1517);
#1519=CYLINDRICAL_SURFACE('',#1518,0.2);
#1520=CARTESIAN_POINT('',(13.450000000000001,-16.150000000000002,0.0));
#1521=VERTEX_POINT('',#1520);
#1522=CARTESIAN_POINT('',(13.65,-15.950000000000001,0.0));
#1523=VERTEX_POINT('',#1522);
#1524=CARTESIAN_POINT('',(13.450000000000001,-15.950000000000001,0.0));
#1525=DIRECTION('',(0.0,0.0,1.0));
#1526=DIRECTION('',(0.707106781186548,-0.707106781186548,0.0));
#1527=AXIS2_PLACEMENT_3D('',#1524,#1525,#1526);
#1528=CIRCLE('',#1527,0.2);
#1529=EDGE_CURVE('',#1521,#1523,#1528,.T.);
#1530=ORIENTED_EDGE('',*,*,#1529,.T.);
#1531=CARTESIAN_POINT('',(13.65,-15.950000000000001,0.0));
#1532=DIRECTION('',(0.0,0.0,1.0));
#1533=VECTOR('',#1532,20.199999999999999);
#1534=LINE('',#1531,#1533);
#1535=EDGE_CURVE('',#1523,#1227,#1534,.T.);
#1536=ORIENTED_EDGE('',*,*,#1535,.T.);
#1537=ORIENTED_EDGE('',*,*,#1233,.F.);
#1538=CARTESIAN_POINT('',(13.450000000000001,-16.150000000000002,20.199999999999999));
#1539=DIRECTION('',(0.0,0.0,-1.0));
#1540=VECTOR('',#1539,20.199999999999999);
#1541=LINE('',#1538,#1540);
#1542=EDGE_CURVE('',#1225,#1521,#1541,.T.);
#1543=ORIENTED_EDGE('',*,*,#1542,.T.);
#1544=EDGE_LOOP('',(#1530,#1536,#1537,#1543));
#1545=FACE_OUTER_BOUND('',#1544,.T.);
#1546=ADVANCED_FACE('',(#1545),#1519,.T.);
#1547=CARTESIAN_POINT('',(-13.65,-16.150000000000002,0.0));
#1548=DIRECTION('',(-1.0,0.0,0.0));
#1549=DIRECTION('',(0.0,0.0,1.0));
#1550=AXIS2_PLACEMENT_3D('',#1547,#1548,#1549);
#1551=PLANE('',#1550);
#1552=ORIENTED_EDGE('',*,*,#1444,.F.);
#1553=ORIENTED_EDGE('',*,*,#1393,.F.);
#1554=ORIENTED_EDGE('',*,*,#1371,.F.);
#1555=CARTESIAN_POINT('',(-13.65,15.950000000000006,0.0));
#1556=DIRECTION('',(0.0,-1.0,0.0));
#1557=VECTOR('',#1556,31.900000000000009);
#1558=LINE('',#1555,#1557);
#1559=EDGE_CURVE('',#1359,#1423,#1558,.T.);
#1560=ORIENTED_EDGE('',*,*,#1559,.T.);
#1561=EDGE_LOOP('',(#1552,#1553,#1554,#1560));
#1562=FACE_OUTER_BOUND('',#1561,.T.);
#1563=ADVANCED_FACE('',(#1562),#1551,.T.);
#1564=CARTESIAN_POINT('',(-13.65,16.150000000000006,0.0));
#1565=DIRECTION('',(0.0,1.0,0.0));
#1566=DIRECTION('',(0.0,0.0,1.0));
#1567=AXIS2_PLACEMENT_3D('',#1564,#1565,#1566);
#1568=PLANE('',#1567);
#1569=ORIENTED_EDGE('',*,*,#1378,.F.);
#1570=ORIENTED_EDGE('',*,*,#1410,.F.);
#1571=ORIENTED_EDGE('',*,*,#1486,.F.);
#1572=CARTESIAN_POINT('',(13.450000000000001,16.149999999999995,0.0));
#1573=DIRECTION('',(-1.0,0.0,0.0));
#1574=VECTOR('',#1573,26.900000000000002);
#1575=LINE('',#1572,#1574);
#1576=EDGE_CURVE('',#1474,#1357,#1575,.T.);
#1577=ORIENTED_EDGE('',*,*,#1576,.T.);
#1578=EDGE_LOOP('',(#1569,#1570,#1571,#1577));
#1579=FACE_OUTER_BOUND('',#1578,.T.);
#1580=ADVANCED_FACE('',(#1579),#1568,.T.);
#1581=CARTESIAN_POINT('',(13.65,16.149999999999995,0.0));
#1582=DIRECTION('',(1.0,0.0,0.0));
#1583=DIRECTION('',(0.0,0.0,-1.0));
#1584=AXIS2_PLACEMENT_3D('',#1581,#1582,#1583);
#1585=PLANE('',#1584);
#1586=ORIENTED_EDGE('',*,*,#1535,.F.);
#1587=CARTESIAN_POINT('',(13.65,-15.950000000000001,0.0));
#1588=DIRECTION('',(0.0,1.0,0.0));
#1589=VECTOR('',#1588,31.899999999999991);
#1590=LINE('',#1587,#1589);
#1591=EDGE_CURVE('',#1523,#1472,#1590,.T.);
#1592=ORIENTED_EDGE('',*,*,#1591,.T.);
#1593=ORIENTED_EDGE('',*,*,#1493,.F.);
#1594=ORIENTED_EDGE('',*,*,#1508,.F.);
#1595=EDGE_LOOP('',(#1586,#1592,#1593,#1594));
#1596=FACE_OUTER_BOUND('',#1595,.T.);
#1597=ADVANCED_FACE('',(#1596),#1585,.T.);
#1598=CARTESIAN_POINT('',(13.65,-16.150000000000002,0.0));
#1599=DIRECTION('',(0.0,-1.0,0.0));
#1600=DIRECTION('',(0.0,0.0,-1.0));
#1601=AXIS2_PLACEMENT_3D('',#1598,#1599,#1600);
#1602=PLANE('',#1601);
#1603=ORIENTED_EDGE('',*,*,#1437,.F.);
#1604=CARTESIAN_POINT('',(-13.450000000000001,-16.150000000000002,0.0));
#1605=DIRECTION('',(1.0,0.0,0.0));
#1606=VECTOR('',#1605,26.900000000000002);
#1607=LINE('',#1604,#1606);
#1608=EDGE_CURVE('',#1425,#1521,#1607,.T.);
#1609=ORIENTED_EDGE('',*,*,#1608,.T.);
#1610=ORIENTED_EDGE('',*,*,#1542,.F.);
#1611=ORIENTED_EDGE('',*,*,#1459,.F.);
#1612=EDGE_LOOP('',(#1603,#1609,#1610,#1611));
#1613=FACE_OUTER_BOUND('',#1612,.T.);
#1614=ADVANCED_FACE('',(#1613),#1602,.T.);
#1615=CARTESIAN_POINT('',(-1.480207E-015,-1.776357E-015,0.0));
#1616=DIRECTION('',(0.0,0.0,1.0));
#1617=DIRECTION('',(1.0,0.0,0.0));
#1618=AXIS2_PLACEMENT_3D('',#1615,#1616,#1617);
#1619=PLANE('',#1618);
#1620=ORIENTED_EDGE('',*,*,#1431,.F.);
#1621=ORIENTED_EDGE('',*,*,#1559,.F.);
#1622=ORIENTED_EDGE('',*,*,#1365,.F.);
#1623=ORIENTED_EDGE('',*,*,#1576,.F.);
#1624=ORIENTED_EDGE('',*,*,#1480,.F.);
#1625=ORIENTED_EDGE('',*,*,#1591,.F.);
#1626=ORIENTED_EDGE('',*,*,#1529,.F.);
#1627=ORIENTED_EDGE('',*,*,#1608,.F.);
#1628=EDGE_LOOP('',(#1620,#1621,#1622,#1623,#1624,#1625,#1626,#1627));
#1629=FACE_OUTER_BOUND('',#1628,.T.);
#1630=ADVANCED_FACE('',(#1629),#1619,.F.);
#1631=CARTESIAN_POINT('',(10.099999999999998,11.800000000000001,23.600000000000005));
#1632=DIRECTION('',(0.0,0.0,1.0));
#1633=DIRECTION('',(1.0,0.0,0.0));
#1634=AXIS2_PLACEMENT_3D('',#1631,#1632,#1633);
#1635=SPHERICAL_SURFACE('',#1634,0.2);
#1636=ORIENTED_EDGE('',*,*,#1085,.T.);
#1637=CARTESIAN_POINT('',(10.099999999999998,11.799999999999999,23.800000000000004));
#1638=VERTEX_POINT('',#1637);
#1639=CARTESIAN_POINT('',(10.099999999999998,11.799999999999999,23.600000000000005));
#1640=DIRECTION('',(1.0,0.0,0.0));
#1641=DIRECTION('',(0.0,0.0,1.0));
#1642=AXIS2_PLACEMENT_3D('',#1639,#1640,#1641);
#1643=CIRCLE('',#1642,0.199999999999999);
#1644=EDGE_CURVE('',#1638,#1071,#1643,.F.);
#1645=ORIENTED_EDGE('',*,*,#1644,.F.);
#1646=CARTESIAN_POINT('',(10.099999999999998,11.800000000000001,23.600000000000005));
#1647=DIRECTION('',(0.0,1.0,0.0));
#1648=DIRECTION('',(1.0,0.0,0.0));
#1649=AXIS2_PLACEMENT_3D('',#1646,#1647,#1648);
#1650=CIRCLE('',#1649,0.199999999999999);
#1651=EDGE_CURVE('',#1079,#1638,#1650,.F.);
#1652=ORIENTED_EDGE('',*,*,#1651,.F.);
#1653=EDGE_LOOP('',(#1636,#1645,#1652));
#1654=FACE_OUTER_BOUND('',#1653,.T.);
#1655=ADVANCED_FACE('',(#1654),#1635,.T.);
#1656=CARTESIAN_POINT('',(-10.100000000000005,11.799999999999997,23.600000000000005));
#1657=DIRECTION('',(0.0,0.0,1.0));
#1658=DIRECTION('',(1.0,0.0,0.0));
#1659=AXIS2_PLACEMENT_3D('',#1656,#1657,#1658);
#1660=SPHERICAL_SURFACE('',#1659,0.2);
#1661=ORIENTED_EDGE('',*,*,#1139,.T.);
#1662=CARTESIAN_POINT('',(-10.100000000000005,11.799999999999997,23.800000000000004));
#1663=VERTEX_POINT('',#1662);
#1664=CARTESIAN_POINT('',(-10.100000000000005,11.799999999999997,23.600000000000005));
#1665=DIRECTION('',(0.0,1.0,0.0));
#1666=DIRECTION('',(0.0,0.0,1.0));
#1667=AXIS2_PLACEMENT_3D('',#1664,#1665,#1666);
#1668=CIRCLE('',#1667,0.199999999999999);
#1669=EDGE_CURVE('',#1663,#1127,#1668,.F.);
#1670=ORIENTED_EDGE('',*,*,#1669,.F.);
#1671=CARTESIAN_POINT('',(-10.100000000000005,11.799999999999997,23.600000000000005));
#1672=DIRECTION('',(-1.0,0.0,0.0));
#1673=DIRECTION('',(0.0,0.707106781186554,0.707106781186541));
#1674=AXIS2_PLACEMENT_3D('',#1671,#1672,#1673);
#1675=CIRCLE('',#1674,0.2);
#1676=EDGE_CURVE('',#1663,#1103,#1675,.T.);
#1677=ORIENTED_EDGE('',*,*,#1676,.T.);
#1678=EDGE_LOOP('',(#1661,#1670,#1677));
#1679=FACE_OUTER_BOUND('',#1678,.T.);
#1680=ADVANCED_FACE('',(#1679),#1660,.T.);
#1681=CARTESIAN_POINT('',(10.099999999999998,-11.800000000000001,23.600000000000005));
#1682=DIRECTION('',(0.0,0.0,1.0));
#1683=DIRECTION('',(1.0,0.0,0.0));
#1684=AXIS2_PLACEMENT_3D('',#1681,#1682,#1683);
#1685=SPHERICAL_SURFACE('',#1684,0.2);
#1686=CARTESIAN_POINT('',(10.299999999999997,-11.800000000000001,23.600000000000005));
#1687=VERTEX_POINT('',#1686);
#1688=CARTESIAN_POINT('',(10.099999999999998,-11.800000000000001,23.800000000000004));
#1689=VERTEX_POINT('',#1688);
#1690=CARTESIAN_POINT('',(10.099999999999998,-11.800000000000001,23.600000000000005));
#1691=DIRECTION('',(0.0,-1.0,0.0));
#1692=DIRECTION('',(0.707106781186554,0.0,0.707106781186541));
#1693=AXIS2_PLACEMENT_3D('',#1690,#1691,#1692);
#1694=CIRCLE('',#1693,0.2);
#1695=EDGE_CURVE('',#1687,#1689,#1694,.T.);
#1696=ORIENTED_EDGE('',*,*,#1695,.T.);
#1697=CARTESIAN_POINT('',(10.099999999999998,-12.0,23.600000000000005));
#1698=VERTEX_POINT('',#1697);
#1699=CARTESIAN_POINT('',(10.099999999999998,-11.800000000000001,23.600000000000005));
#1700=DIRECTION('',(1.0,0.0,0.0));
#1701=DIRECTION('',(0.0,-1.0,0.0));
#1702=AXIS2_PLACEMENT_3D('',#1699,#1700,#1701);
#1703=CIRCLE('',#1702,0.199999999999999);
#1704=EDGE_CURVE('',#1698,#1689,#1703,.F.);
#1705=ORIENTED_EDGE('',*,*,#1704,.F.);
#1706=CARTESIAN_POINT('',(10.099999999999998,-11.800000000000001,23.600000000000005));
#1707=DIRECTION('',(0.0,0.0,1.0));
#1708=DIRECTION('',(0.707106781186548,-0.707106781186548,0.0));
#1709=AXIS2_PLACEMENT_3D('',#1706,#1707,#1708);
#1710=CIRCLE('',#1709,0.2);
#1711=EDGE_CURVE('',#1698,#1687,#1710,.T.);
#1712=ORIENTED_EDGE('',*,*,#1711,.T.);
#1713=EDGE_LOOP('',(#1696,#1705,#1712));
#1714=FACE_OUTER_BOUND('',#1713,.T.);
#1715=ADVANCED_FACE('',(#1714),#1685,.T.);
#1716=CARTESIAN_POINT('',(-10.100000000000005,-11.800000000000001,23.600000000000005));
#1717=DIRECTION('',(0.0,0.0,1.0));
#1718=DIRECTION('',(1.0,0.0,0.0));
#1719=AXIS2_PLACEMENT_3D('',#1716,#1717,#1718);
#1720=SPHERICAL_SURFACE('',#1719,0.199999999999999);
#1721=CARTESIAN_POINT('',(-10.100000000000005,-11.800000000000001,23.800000000000004));
#1722=VERTEX_POINT('',#1721);
#1723=CARTESIAN_POINT('',(-10.100000000000005,-11.800000000000001,23.600000000000005));
#1724=DIRECTION('',(0.0,-1.0,0.0));
#1725=DIRECTION('',(-0.707106781186554,0.0,0.707106781186541));
#1726=AXIS2_PLACEMENT_3D('',#1723,#1724,#1725);
#1727=CIRCLE('',#1726,0.2);
#1728=EDGE_CURVE('',#1722,#1152,#1727,.T.);
#1729=ORIENTED_EDGE('',*,*,#1728,.T.);
#1730=CARTESIAN_POINT('',(-10.100000000000005,-12.0,23.600000000000005));
#1731=VERTEX_POINT('',#1730);
#1732=CARTESIAN_POINT('',(-10.100000000000005,-11.800000000000001,23.600000000000005));
#1733=DIRECTION('',(0.0,0.0,1.0));
#1734=DIRECTION('',(0.0,-1.0,0.0));
#1735=AXIS2_PLACEMENT_3D('',#1732,#1733,#1734);
#1736=CIRCLE('',#1735,0.199999999999999);
#1737=EDGE_CURVE('',#1731,#1152,#1736,.F.);
#1738=ORIENTED_EDGE('',*,*,#1737,.F.);
#1739=CARTESIAN_POINT('',(-10.100000000000005,-11.800000000000001,23.600000000000005));
#1740=DIRECTION('',(-1.0,0.0,0.0));
#1741=DIRECTION('',(0.0,-0.707106781186554,0.707106781186541));
#1742=AXIS2_PLACEMENT_3D('',#1739,#1740,#1741);
#1743=CIRCLE('',#1742,0.2);
#1744=EDGE_CURVE('',#1731,#1722,#1743,.T.);
#1745=ORIENTED_EDGE('',*,*,#1744,.T.);
#1746=EDGE_LOOP('',(#1729,#1738,#1745));
#1747=FACE_OUTER_BOUND('',#1746,.T.);
#1748=ADVANCED_FACE('',(#1747),#1720,.T.);
#1749=CARTESIAN_POINT('',(-10.100000000000005,-11.800000000000001,20.399999999999999));
#1750=DIRECTION('',(0.0,0.0,1.0));
#1751=DIRECTION('',(-0.707106781186548,-0.707106781186548,0.0));
#1752=AXIS2_PLACEMENT_3D('',#1749,#1750,#1751);
#1753=CYLINDRICAL_SURFACE('',#1752,0.2);
#1754=ORIENTED_EDGE('',*,*,#801,.F.);
#1755=CARTESIAN_POINT('',(-10.100000000000005,-12.0,20.599999999999998));
#1756=DIRECTION('',(0.0,0.0,1.0));
#1757=VECTOR('',#1756,3.000000000000007);
#1758=LINE('',#1755,#1757);
#1759=EDGE_CURVE('',#788,#1731,#1758,.T.);
#1760=ORIENTED_EDGE('',*,*,#1759,.T.);
#1761=ORIENTED_EDGE('',*,*,#1737,.T.);
#1762=ORIENTED_EDGE('',*,*,#1157,.T.);
#1763=EDGE_LOOP('',(#1754,#1760,#1761,#1762));
#1764=FACE_OUTER_BOUND('',#1763,.T.);
#1765=ADVANCED_FACE('',(#1764),#1753,.T.);
#1766=CARTESIAN_POINT('',(5.149999999999997,-11.800000000000001,23.600000000000005));
#1767=DIRECTION('',(-1.0,0.0,-1.242994E-031));
#1768=DIRECTION('',(0.0,-0.707106781186554,0.707106781186541));
#1769=AXIS2_PLACEMENT_3D('',#1766,#1767,#1768);
#1770=CYLINDRICAL_SURFACE('',#1769,0.2);
#1771=ORIENTED_EDGE('',*,*,#1744,.F.);
#1772=CARTESIAN_POINT('',(-10.100000000000005,-12.0,23.600000000000005));
#1773=DIRECTION('',(1.0,0.0,0.0));
#1774=VECTOR('',#1773,20.200000000000003);
#1775=LINE('',#1772,#1774);
#1776=EDGE_CURVE('',#1731,#1698,#1775,.T.);
#1777=ORIENTED_EDGE('',*,*,#1776,.T.);
#1778=ORIENTED_EDGE('',*,*,#1704,.T.);
#1779=CARTESIAN_POINT('',(10.099999999999998,-11.800000000000001,23.800000000000004));
#1780=DIRECTION('',(-1.0,0.0,0.0));
#1781=VECTOR('',#1780,20.200000000000003);
#1782=LINE('',#1779,#1781);
#1783=EDGE_CURVE('',#1689,#1722,#1782,.T.);
#1784=ORIENTED_EDGE('',*,*,#1783,.T.);
#1785=EDGE_LOOP('',(#1771,#1777,#1778,#1784));
#1786=FACE_OUTER_BOUND('',#1785,.T.);
#1787=ADVANCED_FACE('',(#1786),#1770,.T.);
#1788=CARTESIAN_POINT('',(-10.100000000000005,-6.0,23.600000000000005));
#1789=DIRECTION('',(0.0,1.0,-2.616454E-032));
#1790=DIRECTION('',(-0.707106781186554,0.0,0.707106781186541));
#1791=AXIS2_PLACEMENT_3D('',#1788,#1789,#1790);
#1792=CYLINDRICAL_SURFACE('',#1791,0.2);
#1793=ORIENTED_EDGE('',*,*,#1669,.T.);
#1794=ORIENTED_EDGE('',*,*,#1163,.T.);
#1795=ORIENTED_EDGE('',*,*,#1728,.F.);
#1796=CARTESIAN_POINT('',(-10.100000000000005,-11.800000000000001,23.800000000000004));
#1797=DIRECTION('',(0.0,1.0,0.0));
#1798=VECTOR('',#1797,23.599999999999998);
#1799=LINE('',#1796,#1798);
#1800=EDGE_CURVE('',#1722,#1663,#1799,.T.);
#1801=ORIENTED_EDGE('',*,*,#1800,.T.);
#1802=EDGE_LOOP('',(#1793,#1794,#1795,#1801));
#1803=FACE_OUTER_BOUND('',#1802,.T.);
#1804=ADVANCED_FACE('',(#1803),#1792,.T.);
#1805=CARTESIAN_POINT('',(10.099999999999998,-11.800000000000001,20.399999999999999));
#1806=DIRECTION('',(0.0,0.0,1.0));
#1807=DIRECTION('',(0.707106781186548,-0.707106781186548,0.0));
#1808=AXIS2_PLACEMENT_3D('',#1805,#1806,#1807);
#1809=CYLINDRICAL_SURFACE('',#1808,0.2);
#1810=ORIENTED_EDGE('',*,*,#1029,.F.);
#1811=CARTESIAN_POINT('',(10.299999999999997,-11.800000000000001,20.599999999999998));
#1812=DIRECTION('',(0.0,0.0,1.0));
#1813=VECTOR('',#1812,3.000000000000007);
#1814=LINE('',#1811,#1813);
#1815=EDGE_CURVE('',#1016,#1687,#1814,.T.);
#1816=ORIENTED_EDGE('',*,*,#1815,.T.);
#1817=ORIENTED_EDGE('',*,*,#1711,.F.);
#1818=CARTESIAN_POINT('',(10.099999999999998,-12.0,23.600000000000005));
#1819=DIRECTION('',(0.0,0.0,-1.0));
#1820=VECTOR('',#1819,3.000000000000007);
#1821=LINE('',#1818,#1820);
#1822=EDGE_CURVE('',#1698,#854,#1821,.T.);
#1823=ORIENTED_EDGE('',*,*,#1822,.T.);
#1824=EDGE_LOOP('',(#1810,#1816,#1817,#1823));
#1825=FACE_OUTER_BOUND('',#1824,.T.);
#1826=ADVANCED_FACE('',(#1825),#1809,.T.);
#1827=CARTESIAN_POINT('',(10.099999999999998,6.0,23.600000000000005));
#1828=DIRECTION('',(0.0,-1.0,2.616454E-032));
#1829=DIRECTION('',(0.707106781186554,0.0,0.707106781186541));
#1830=AXIS2_PLACEMENT_3D('',#1827,#1828,#1829);
#1831=CYLINDRICAL_SURFACE('',#1830,0.2);
#1832=ORIENTED_EDGE('',*,*,#1695,.F.);
#1833=CARTESIAN_POINT('',(10.299999999999997,-11.800000000000001,23.600000000000005));
#1834=DIRECTION('',(0.0,1.0,0.0));
#1835=VECTOR('',#1834,23.600000000000001);
#1836=LINE('',#1833,#1835);
#1837=EDGE_CURVE('',#1687,#1079,#1836,.T.);
#1838=ORIENTED_EDGE('',*,*,#1837,.T.);
#1839=ORIENTED_EDGE('',*,*,#1651,.T.);
#1840=CARTESIAN_POINT('',(10.099999999999998,11.799999999999999,23.800000000000004));
#1841=DIRECTION('',(0.0,-1.0,0.0));
#1842=VECTOR('',#1841,23.600000000000001);
#1843=LINE('',#1840,#1842);
#1844=EDGE_CURVE('',#1638,#1689,#1843,.T.);
#1845=ORIENTED_EDGE('',*,*,#1844,.T.);
#1846=EDGE_LOOP('',(#1832,#1838,#1839,#1845));
#1847=FACE_OUTER_BOUND('',#1846,.T.);
#1848=ADVANCED_FACE('',(#1847),#1831,.T.);
#1849=CARTESIAN_POINT('',(-5.150000000000005,11.799999999999997,23.600000000000005));
#1850=DIRECTION('',(1.0,1.724618E-016,1.242994E-031));
#1851=DIRECTION('',(0.0,0.707106781186554,0.707106781186541));
#1852=AXIS2_PLACEMENT_3D('',#1849,#1850,#1851);
#1853=CYLINDRICAL_SURFACE('',#1852,0.2);
#1854=ORIENTED_EDGE('',*,*,#1644,.T.);
#1855=ORIENTED_EDGE('',*,*,#1114,.T.);
#1856=ORIENTED_EDGE('',*,*,#1676,.F.);
#1857=CARTESIAN_POINT('',(-10.100000000000005,11.799999999999997,23.800000000000004));
#1858=DIRECTION('',(1.0,0.0,0.0));
#1859=VECTOR('',#1858,20.200000000000003);
#1860=LINE('',#1857,#1859);
#1861=EDGE_CURVE('',#1663,#1638,#1860,.T.);
#1862=ORIENTED_EDGE('',*,*,#1861,.T.);
#1863=EDGE_LOOP('',(#1854,#1855,#1856,#1862));
#1864=FACE_OUTER_BOUND('',#1863,.T.);
#1865=ADVANCED_FACE('',(#1864),#1853,.T.);
#1866=CARTESIAN_POINT('',(10.299999999999997,-12.0,20.399999999999999));
#1867=DIRECTION('',(0.0,-1.0,0.0));
#1868=DIRECTION('',(0.0,0.0,-1.0));
#1869=AXIS2_PLACEMENT_3D('',#1866,#1867,#1868);
#1870=PLANE('',#1869);
#1871=ORIENTED_EDGE('',*,*,#866,.F.);
#1872=ORIENTED_EDGE('',*,*,#1822,.F.);
#1873=ORIENTED_EDGE('',*,*,#1776,.F.);
#1874=ORIENTED_EDGE('',*,*,#1759,.F.);
#1875=EDGE_LOOP('',(#1871,#1872,#1873,#1874));
#1876=FACE_OUTER_BOUND('',#1875,.T.);
#1877=ADVANCED_FACE('',(#1876),#1870,.T.);
#1878=CARTESIAN_POINT('',(-3.335829E-015,-4.440892E-016,23.800000000000004));
#1879=DIRECTION('',(0.0,0.0,1.0));
#1880=DIRECTION('',(1.0,0.0,0.0));
#1881=AXIS2_PLACEMENT_3D('',#1878,#1879,#1880);
#1882=PLANE('',#1881);
#1883=ORIENTED_EDGE('',*,*,#1783,.F.);
#1884=ORIENTED_EDGE('',*,*,#1844,.F.);
#1885=ORIENTED_EDGE('',*,*,#1861,.F.);
#1886=ORIENTED_EDGE('',*,*,#1800,.F.);
#1887=EDGE_LOOP('',(#1883,#1884,#1885,#1886));
#1888=FACE_OUTER_BOUND('',#1887,.T.);
#1889=ADVANCED_FACE('',(#1888),#1882,.T.);
#1890=CARTESIAN_POINT('',(10.299999999999997,12.0,20.399999999999999));
#1891=DIRECTION('',(1.0,0.0,0.0));
#1892=DIRECTION('',(0.0,0.0,-1.0));
#1893=AXIS2_PLACEMENT_3D('',#1890,#1891,#1892);
#1894=PLANE('',#1893);
#1895=ORIENTED_EDGE('',*,*,#1052,.F.);
#1896=ORIENTED_EDGE('',*,*,#1091,.F.);
#1897=ORIENTED_EDGE('',*,*,#1837,.F.);
#1898=ORIENTED_EDGE('',*,*,#1815,.F.);
#1899=EDGE_LOOP('',(#1895,#1896,#1897,#1898));
#1900=FACE_OUTER_BOUND('',#1899,.T.);
#1901=ADVANCED_FACE('',(#1900),#1894,.T.);
#1902=CLOSED_SHELL('',(#649,#731,#813,#845,#877,#959,#1041,#1063,#1095,#1119,#1144,#1168,#1218,#1251,#1284,#1317,#1350,#1382,#1399,#1416,#1448,#1465,#1497,#1514,#1546,#1563,#1580,#1597,#1614,#1630,#1655,#1680,#1715,#1748,#1765,#1787,#1804,#1826,#1848,#1865,#1877,#1889,#1901));
#1903=MANIFOLD_SOLID_BREP('11BC',#1902);
#1904=DRAUGHTING_PRE_DEFINED_COLOUR('blue');
#1905=SURFACE_STYLE_USAGE(.BOTH.,#1906);
#1906=SURFACE_SIDE_STYLE('NONE',(#1907));
#1907=SURFACE_STYLE_FILL_AREA(#1908);
#1908=FILL_AREA_STYLE('NONE',(#1909));
#1909=FILL_AREA_STYLE_COLOUR('NONE',#1904);
#1910=PRESENTATION_STYLE_ASSIGNMENT((#1905));
#1911=STYLED_ITEM('NONE',(#1910),#1903);
#1912=ADVANCED_BREP_SHAPE_REPRESENTATION('ABSR1',(#152,#250,#339,#428,#517,#606,#1903),#28);
#1913=SHAPE_REPRESENTATION_RELATIONSHIP('SRRPL1','',#1912,#62);
ENDSEC;
END-ISO-10303-21;
