ISO-10303-21;
HEADER;
/****************************************************************
 * Generated by software with PDElib inside                    *
 * PDElib Version v51a, created Wed 11/30/2011                  *
 * ITI Transcendata (http://www.transcendata.com/)              *
 ****************************************************************/
FILE_DESCRIPTION((''),'2;1');
FILE_NAME('XTAL_CITIZEN_HCM49.stp','2014-07-22T15:42:29',(''),(''),'Mechanical Desktop 2011','Mechanical Desktop 2011',', , ');
FILE_SCHEMA(('AUTOMOTIVE_DESIGN { 1 2 10303 214 1 1 1 1 }'));
ENDSEC;
DATA;
#10=(NAMED_UNIT(*)PLANE_ANGLE_UNIT()SI_UNIT($,.RADIAN.));
#11=DIMENSIONAL_EXPONENTS(0.0,0.0,0.0,0.0,0.0,0.0,0.0);
#12=PLANE_ANGLE_MEASURE_WITH_UNIT(PLANE_ANGLE_MEASURE(0.0174532925),#10);
#16=(CONVERSION_BASED_UNIT('DEGREE',#12)NAMED_UNIT(#11)PLANE_ANGLE_UNIT());
#20=(NAMED_UNIT(*)SI_UNIT($,.STERADIAN.)SOLID_ANGLE_UNIT());
#24=(LENGTH_UNIT()NAMED_UNIT(*)SI_UNIT(.MILLI.,.METRE.));
#26=UNCERTAINTY_MEASURE_WITH_UNIT(LENGTH_MEASURE(0.000001),#24,'DISTANCE_ACCURACY_VALUE','');
#28=(GEOMETRIC_REPRESENTATION_CONTEXT(3)GLOBAL_UNCERTAINTY_ASSIGNED_CONTEXT((#26))GLOBAL_UNIT_ASSIGNED_CONTEXT((#16,#20,#24))REPRESENTATION_CONTEXT('','3D'));
#29=APPLICATION_CONTEXT('automotive design');
#30=APPLICATION_PROTOCOL_DEFINITION('INTERNATIONAL_STANDARD','automotive_design',1998,#29);
#31=PRODUCT_CONTEXT('3D Mechanical Parts',#29,'mechanical');
#32=PRODUCT('Product','Product','',(#31));
#33=PRODUCT_RELATED_PRODUCT_CATEGORY('part',$,(#32));
#34=PRODUCT_CATEGORY('part',$);
#35=PERSON('1','Design','Joe',$,$,$);
#36=ORGANIZATION($,'None','None');
#37=PERSON_AND_ORGANIZATION(#35,#36);
#38=PERSON_AND_ORGANIZATION_ROLE('design_owner');
#39=APPLIED_PERSON_AND_ORGANIZATION_ASSIGNMENT(#37,#38,(#32));
#40=PRODUCT_DEFINITION_FORMATION_WITH_SPECIFIED_SOURCE('None','',#32,.BOUGHT.);
#41=PERSON('2','Creator','Joe',$,$,$);
#42=ORGANIZATION($,'None','None');
#43=PERSON_AND_ORGANIZATION(#41,#42);
#44=PERSON_AND_ORGANIZATION_ROLE('creator');
#45=APPLIED_PERSON_AND_ORGANIZATION_ASSIGNMENT(#43,#44,(#40));
#46=PERSON('3','Supplier','Joe',$,$,$);
#47=ORGANIZATION($,'None','None');
#48=PERSON_AND_ORGANIZATION(#46,#47);
#49=PERSON_AND_ORGANIZATION_ROLE('design_supplier');
#50=APPLIED_PERSON_AND_ORGANIZATION_ASSIGNMENT(#48,#49,(#40));
#51=PRODUCT_DEFINITION_CONTEXT('part definition',#29,'design');
#52=PRODUCT_DEFINITION('None','',#40,#51);
#53=PERSON('4','Creator','Joe',$,$,$);
#54=ORGANIZATION($,'None','None');
#55=PERSON_AND_ORGANIZATION(#53,#54);
#56=PERSON_AND_ORGANIZATION_ROLE('creator');
#57=APPLIED_PERSON_AND_ORGANIZATION_ASSIGNMENT(#55,#56,(#52));
#58=CARTESIAN_POINT('NONE',(0.0,0.0,0.0));
#59=DIRECTION('NONE',(0.0,0.0,1.0));
#60=DIRECTION('NONE',(1.0,0.0,0.0));
#61=AXIS2_PLACEMENT_3D('NONE',#58,#59,#60);
#62=SHAPE_REPRESENTATION('SR1',(#61),#28);
#63=PRODUCT_DEFINITION_SHAPE('PDS1','Test Part',#52);
#64=SHAPE_DEFINITION_REPRESENTATION(#63,#62);
#65=CARTESIAN_POINT('',(-6.002025337008496,0.4,0.199989953852264));
#66=CARTESIAN_POINT('',(-5.99971067721339,0.4,0.000003348425718));
#67=CARTESIAN_POINT('',(-6.002025337008496,-0.399999999999999,0.199989953852264));
#68=CARTESIAN_POINT('',(-5.99971067721339,-0.399999999999999,0.000003348425718));
#69=B_SPLINE_SURFACE_WITH_KNOTS('',1,1,((#65,#67),(#66,#68)),.UNSPECIFIED.,.F.,.F.,.U.,(2,2),(2,2),(0.0,0.2),(0.0,0.8),.UNSPECIFIED.);
#70=CARTESIAN_POINT('',(-6.002025337008496,0.4,0.199989953852264));
#71=VERTEX_POINT('',#70);
#72=CARTESIAN_POINT('',(-6.002025337008496,-0.399999999999999,0.199989953852264));
#73=VERTEX_POINT('',#72);
#74=CARTESIAN_POINT('',(-6.002025337008496,0.4,0.199989953852264));
#75=DIRECTION('',(0.0,-1.0,0.0));
#76=VECTOR('',#75,0.8);
#77=LINE('',#74,#76);
#78=EDGE_CURVE('',#71,#73,#77,.T.);
#79=ORIENTED_EDGE('',*,*,#78,.F.);
#80=CARTESIAN_POINT('',(-5.99971067721339,0.4,0.000003348425718));
#81=VERTEX_POINT('',#80);
#82=CARTESIAN_POINT('',(-5.99971067721339,0.4,0.000003348425718));
#83=DIRECTION('',(-0.011573298975529,0.0,0.999933027132729));
#84=VECTOR('',#83,0.2);
#85=LINE('',#82,#84);
#86=EDGE_CURVE('',#81,#71,#85,.T.);
#87=ORIENTED_EDGE('',*,*,#86,.F.);
#88=CARTESIAN_POINT('',(-5.99971067721339,-0.399999999999999,0.000003348425718));
#89=VERTEX_POINT('',#88);
#90=CARTESIAN_POINT('',(-5.99971067721339,0.4,0.000003348425718));
#91=DIRECTION('',(0.0,-1.0,0.0));
#92=VECTOR('',#91,0.8);
#93=LINE('',#90,#92);
#94=EDGE_CURVE('',#81,#89,#93,.T.);
#95=ORIENTED_EDGE('',*,*,#94,.T.);
#96=CARTESIAN_POINT('',(-5.99971067721339,-0.399999999999999,0.000003348425718));
#97=DIRECTION('',(-0.011573298975529,0.0,0.999933027132729));
#98=VECTOR('',#97,0.2);
#99=LINE('',#96,#98);
#100=EDGE_CURVE('',#89,#73,#99,.T.);
#101=ORIENTED_EDGE('',*,*,#100,.T.);
#102=EDGE_LOOP('',(#79,#87,#95,#101));
#103=FACE_OUTER_BOUND('',#102,.T.);
#104=ADVANCED_FACE('',(#103),#69,.T.);
#105=CARTESIAN_POINT('',(-6.004918274219366,-0.399999999999999,0.24995312235683));
#106=CARTESIAN_POINT('',(-6.001446439535883,-0.399999999999999,-0.050013392990347));
#107=CARTESIAN_POINT('',(-1.680578897472613,-0.399999999999999,0.300003346842611));
#108=CARTESIAN_POINT('',(-1.67710706278913,-0.399999999999999,0.000036831495434));
#109=B_SPLINE_SURFACE_WITH_KNOTS('',1,1,((#105,#107),(#106,#108)),.UNSPECIFIED.,.F.,.F.,.U.,(2,2),(2,2),(0.0,0.299986606310345),(0.0,4.324629009551407),.UNSPECIFIED.);
#110=CARTESIAN_POINT('',(-1.682314659795105,-0.399999999999999,0.249986605426546));
#111=VERTEX_POINT('',#110);
#112=CARTESIAN_POINT('',(-6.002025337008496,-0.399999999999999,0.199989953852264));
#113=DIRECTION('',(0.999933027132729,0.0,0.011573298975528));
#114=VECTOR('',#113,4.32);
#115=LINE('',#112,#114);
#116=EDGE_CURVE('',#73,#111,#115,.T.);
#117=ORIENTED_EDGE('',*,*,#116,.F.);
#118=ORIENTED_EDGE('',*,*,#100,.F.);
#119=CARTESIAN_POINT('',(-1.68,-0.399999999999999,0.05));
#120=VERTEX_POINT('',#119);
#121=CARTESIAN_POINT('',(-5.99971067721339,-0.399999999999999,0.000003348425718));
#122=DIRECTION('',(0.999933027132729,0.0,0.011573298975528));
#123=VECTOR('',#122,4.32);
#124=LINE('',#121,#123);
#125=EDGE_CURVE('',#89,#120,#124,.T.);
#126=ORIENTED_EDGE('',*,*,#125,.T.);
#127=CARTESIAN_POINT('',(-1.68,-0.399999999999999,0.05));
#128=DIRECTION('',(-0.011573298975528,0.0,0.999933027132729));
#129=VECTOR('',#128,0.2);
#130=LINE('',#127,#129);
#131=EDGE_CURVE('',#120,#111,#130,.T.);
#132=ORIENTED_EDGE('',*,*,#131,.T.);
#133=EDGE_LOOP('',(#117,#118,#126,#132));
#134=FACE_OUTER_BOUND('',#133,.T.);
#135=ADVANCED_FACE('',(#134),#109,.T.);
#136=CARTESIAN_POINT('',(-1.68,0.4,0.05));
#137=CARTESIAN_POINT('',(-1.682314659795105,0.4,0.249986605426546));
#138=CARTESIAN_POINT('',(-1.68,-0.399999999999999,0.05));
#139=CARTESIAN_POINT('',(-1.682314659795106,-0.399999999999999,0.249986605426546));
#140=B_SPLINE_SURFACE_WITH_KNOTS('',1,1,((#136,#138),(#137,#139)),.UNSPECIFIED.,.F.,.F.,.U.,(2,2),(2,2),(0.0,0.2),(0.0,0.8),.UNSPECIFIED.);
#141=CARTESIAN_POINT('',(-1.682314659795105,0.4,0.249986605426546));
#142=VERTEX_POINT('',#141);
#143=CARTESIAN_POINT('',(-1.682314659795105,-0.399999999999999,0.249986605426546));
#144=DIRECTION('',(0.0,1.0,0.0));
#145=VECTOR('',#144,0.8);
#146=LINE('',#143,#145);
#147=EDGE_CURVE('',#111,#142,#146,.T.);
#148=ORIENTED_EDGE('',*,*,#147,.F.);
#149=ORIENTED_EDGE('',*,*,#131,.F.);
#150=CARTESIAN_POINT('',(-1.68,0.4,0.05));
#151=VERTEX_POINT('',#150);
#152=CARTESIAN_POINT('',(-1.68,-0.399999999999999,0.05));
#153=DIRECTION('',(0.0,1.0,0.0));
#154=VECTOR('',#153,0.8);
#155=LINE('',#152,#154);
#156=EDGE_CURVE('',#120,#151,#155,.T.);
#157=ORIENTED_EDGE('',*,*,#156,.T.);
#158=CARTESIAN_POINT('',(-1.68,0.4,0.05));
#159=DIRECTION('',(-0.011573298975528,0.0,0.999933027132729));
#160=VECTOR('',#159,0.2);
#161=LINE('',#158,#160);
#162=EDGE_CURVE('',#151,#142,#161,.T.);
#163=ORIENTED_EDGE('',*,*,#162,.T.);
#164=EDGE_LOOP('',(#148,#149,#157,#163));
#165=FACE_OUTER_BOUND('',#164,.T.);
#166=ADVANCED_FACE('',(#165),#140,.T.);
#167=CARTESIAN_POINT('',(-6.001446439535881,0.4,-0.050013392990347));
#168=CARTESIAN_POINT('',(-6.004918274219365,0.4,0.24995312235683));
#169=CARTESIAN_POINT('',(-1.677107062789129,0.4,0.000036831495434));
#170=CARTESIAN_POINT('',(-1.680578897472612,0.4,0.300003346842611));
#171=B_SPLINE_SURFACE_WITH_KNOTS('',1,1,((#167,#169),(#168,#170)),.UNSPECIFIED.,.F.,.F.,.U.,(2,2),(2,2),(0.0,0.299986606310345),(0.0,4.324629009551405),.UNSPECIFIED.);
#172=CARTESIAN_POINT('',(-1.682314659795105,0.4,0.249986605426546));
#173=DIRECTION('',(-0.999933027132729,0.0,-0.011573298975528));
#174=VECTOR('',#173,4.32);
#175=LINE('',#172,#174);
#176=EDGE_CURVE('',#142,#71,#175,.T.);
#177=ORIENTED_EDGE('',*,*,#176,.F.);
#178=ORIENTED_EDGE('',*,*,#162,.F.);
#179=CARTESIAN_POINT('',(-1.68,0.4,0.05));
#180=DIRECTION('',(-0.999933027132729,0.0,-0.011573298975528));
#181=VECTOR('',#180,4.32);
#182=LINE('',#179,#181);
#183=EDGE_CURVE('',#151,#81,#182,.T.);
#184=ORIENTED_EDGE('',*,*,#183,.T.);
#185=ORIENTED_EDGE('',*,*,#86,.T.);
#186=EDGE_LOOP('',(#177,#178,#184,#185));
#187=FACE_OUTER_BOUND('',#186,.T.);
#188=ADVANCED_FACE('',(#187),#171,.T.);
#189=CARTESIAN_POINT('',(-1.682314659795106,0.4,0.249986605426546));
#190=CARTESIAN_POINT('',(-6.002025337008496,0.4,0.199989953852264));
#191=CARTESIAN_POINT('',(-1.682314659795106,-0.399999999999999,0.249986605426546));
#192=CARTESIAN_POINT('',(-6.002025337008496,-0.399999999999999,0.199989953852264));
#193=B_SPLINE_SURFACE_WITH_KNOTS('',1,1,((#189,#191),(#190,#192)),.UNSPECIFIED.,.F.,.F.,.U.,(2,2),(2,2),(0.0,4.32),(0.0,0.8),.UNSPECIFIED.);
#194=ORIENTED_EDGE('',*,*,#78,.T.);
#195=ORIENTED_EDGE('',*,*,#116,.T.);
#196=ORIENTED_EDGE('',*,*,#147,.T.);
#197=ORIENTED_EDGE('',*,*,#176,.T.);
#198=EDGE_LOOP('',(#194,#195,#196,#197));
#199=FACE_OUTER_BOUND('',#198,.T.);
#200=ADVANCED_FACE('',(#199),#193,.T.);
#201=CARTESIAN_POINT('',(-1.679999999999999,0.4,0.05));
#202=CARTESIAN_POINT('',(-5.99971067721339,0.4,0.000003348425718));
#203=CARTESIAN_POINT('',(-1.679999999999999,-0.399999999999999,0.05));
#204=CARTESIAN_POINT('',(-5.99971067721339,-0.399999999999999,0.000003348425718));
#205=B_SPLINE_SURFACE_WITH_KNOTS('',1,1,((#201,#203),(#202,#204)),.UNSPECIFIED.,.F.,.F.,.U.,(2,2),(2,2),(0.0,4.32),(0.0,0.8),.UNSPECIFIED.);
#206=ORIENTED_EDGE('',*,*,#183,.F.);
#207=ORIENTED_EDGE('',*,*,#156,.F.);
#208=ORIENTED_EDGE('',*,*,#125,.F.);
#209=ORIENTED_EDGE('',*,*,#94,.F.);
#210=EDGE_LOOP('',(#206,#207,#208,#209));
#211=FACE_OUTER_BOUND('',#210,.T.);
#212=ADVANCED_FACE('',(#211),#205,.F.);
#213=CLOSED_SHELL('',(#104,#135,#166,#188,#200,#212));
#214=MANIFOLD_SOLID_BREP('2C4A',#213);
#215=COLOUR_RGB('254',0.866,0.866,0.866);
#216=SURFACE_STYLE_USAGE(.BOTH.,#217);
#217=SURFACE_SIDE_STYLE('NONE',(#218));
#218=SURFACE_STYLE_FILL_AREA(#219);
#219=FILL_AREA_STYLE('NONE',(#220));
#220=FILL_AREA_STYLE_COLOUR('NONE',#215);
#221=PRESENTATION_STYLE_ASSIGNMENT((#216));
#222=STYLED_ITEM('NONE',(#221),#214);
#223=MECHANICAL_DESIGN_GEOMETRIC_PRESENTATION_REPRESENTATION('NONE',(#222,#375,#537,#692,#851,#1108,#1523),#28);
#224=PRESENTATION_LAYER_ASSIGNMENT('3D','None',(#214,#374,#529,#691,#850,#1107,#1522));
#225=CARTESIAN_POINT('',(5.99971067721339,0.4,0.000003348425718));
#226=DIRECTION('',(0.999933027132729,8.032759E-036,-0.011573298975528));
#227=DIRECTION('',(-0.011573298975528,0.0,-0.999933027132729));
#228=AXIS2_PLACEMENT_3D('',#225,#226,#227);
#229=PLANE('',#228);
#230=CARTESIAN_POINT('',(6.002025337008496,0.4,0.199989953852264));
#231=VERTEX_POINT('',#230);
#232=CARTESIAN_POINT('',(6.002025337008496,-0.399999999999999,0.199989953852264));
#233=VERTEX_POINT('',#232);
#234=CARTESIAN_POINT('',(6.002025337008496,0.4,0.199989953852264));
#235=DIRECTION('',(0.0,-1.0,0.0));
#236=VECTOR('',#235,0.8);
#237=LINE('',#234,#236);
#238=EDGE_CURVE('',#231,#233,#237,.T.);
#239=ORIENTED_EDGE('',*,*,#238,.T.);
#240=CARTESIAN_POINT('',(5.99971067721339,-0.399999999999999,0.000003348425718));
#241=VERTEX_POINT('',#240);
#242=CARTESIAN_POINT('',(5.99971067721339,-0.399999999999999,0.000003348425718));
#243=DIRECTION('',(0.011573298975529,0.0,0.999933027132729));
#244=VECTOR('',#243,0.2);
#245=LINE('',#242,#244);
#246=EDGE_CURVE('',#241,#233,#245,.T.);
#247=ORIENTED_EDGE('',*,*,#246,.F.);
#248=CARTESIAN_POINT('',(5.99971067721339,0.4,0.000003348425718));
#249=VERTEX_POINT('',#248);
#250=CARTESIAN_POINT('',(5.99971067721339,0.4,0.000003348425718));
#251=DIRECTION('',(0.0,-1.0,0.0));
#252=VECTOR('',#251,0.8);
#253=LINE('',#250,#252);
#254=EDGE_CURVE('',#249,#241,#253,.T.);
#255=ORIENTED_EDGE('',*,*,#254,.F.);
#256=CARTESIAN_POINT('',(5.99971067721339,0.4,0.000003348425718));
#257=DIRECTION('',(0.011573298975529,0.0,0.999933027132729));
#258=VECTOR('',#257,0.2);
#259=LINE('',#256,#258);
#260=EDGE_CURVE('',#249,#231,#259,.T.);
#261=ORIENTED_EDGE('',*,*,#260,.T.);
#262=EDGE_LOOP('',(#239,#247,#255,#261));
#263=FACE_OUTER_BOUND('',#262,.T.);
#264=ADVANCED_FACE('',(#263),#229,.T.);
#265=CARTESIAN_POINT('',(5.99971067721339,-0.399999999999999,0.000003348425718));
#266=DIRECTION('',(0.0,-1.0,0.0));
#267=DIRECTION('',(-0.011573298975528,0.0,-0.999933027132729));
#268=AXIS2_PLACEMENT_3D('',#265,#266,#267);
#269=PLANE('',#268);
#270=CARTESIAN_POINT('',(1.682314659795105,-0.399999999999999,0.249986605426546));
#271=VERTEX_POINT('',#270);
#272=CARTESIAN_POINT('',(6.002025337008496,-0.399999999999999,0.199989953852264));
#273=DIRECTION('',(-0.999933027132729,0.0,0.011573298975528));
#274=VECTOR('',#273,4.32);
#275=LINE('',#272,#274);
#276=EDGE_CURVE('',#233,#271,#275,.T.);
#277=ORIENTED_EDGE('',*,*,#276,.T.);
#278=CARTESIAN_POINT('',(1.68,-0.399999999999999,0.05));
#279=VERTEX_POINT('',#278);
#280=CARTESIAN_POINT('',(1.68,-0.399999999999999,0.05));
#281=DIRECTION('',(0.011573298975528,0.0,0.999933027132729));
#282=VECTOR('',#281,0.2);
#283=LINE('',#280,#282);
#284=EDGE_CURVE('',#279,#271,#283,.T.);
#285=ORIENTED_EDGE('',*,*,#284,.F.);
#286=CARTESIAN_POINT('',(5.99971067721339,-0.399999999999999,0.000003348425718));
#287=DIRECTION('',(-0.999933027132729,0.0,0.011573298975528));
#288=VECTOR('',#287,4.32);
#289=LINE('',#286,#288);
#290=EDGE_CURVE('',#241,#279,#289,.T.);
#291=ORIENTED_EDGE('',*,*,#290,.F.);
#292=ORIENTED_EDGE('',*,*,#246,.T.);
#293=EDGE_LOOP('',(#277,#285,#291,#292));
#294=FACE_OUTER_BOUND('',#293,.T.);
#295=ADVANCED_FACE('',(#294),#269,.T.);
#296=CARTESIAN_POINT('',(1.68,-0.399999999999999,0.05));
#297=DIRECTION('',(-0.999933027132729,-8.032759E-036,0.011573298975528));
#298=DIRECTION('',(0.011573298975528,0.0,0.999933027132729));
#299=AXIS2_PLACEMENT_3D('',#296,#297,#298);
#300=PLANE('',#299);
#301=CARTESIAN_POINT('',(1.682314659795105,0.4,0.249986605426546));
#302=VERTEX_POINT('',#301);
#303=CARTESIAN_POINT('',(1.682314659795105,-0.399999999999999,0.249986605426546));
#304=DIRECTION('',(0.0,1.0,0.0));
#305=VECTOR('',#304,0.8);
#306=LINE('',#303,#305);
#307=EDGE_CURVE('',#271,#302,#306,.T.);
#308=ORIENTED_EDGE('',*,*,#307,.T.);
#309=CARTESIAN_POINT('',(1.68,0.4,0.05));
#310=VERTEX_POINT('',#309);
#311=CARTESIAN_POINT('',(1.68,0.4,0.05));
#312=DIRECTION('',(0.011573298975528,0.0,0.999933027132729));
#313=VECTOR('',#312,0.2);
#314=LINE('',#311,#313);
#315=EDGE_CURVE('',#310,#302,#314,.T.);
#316=ORIENTED_EDGE('',*,*,#315,.F.);
#317=CARTESIAN_POINT('',(1.68,-0.399999999999999,0.05));
#318=DIRECTION('',(0.0,1.0,0.0));
#319=VECTOR('',#318,0.8);
#320=LINE('',#317,#319);
#321=EDGE_CURVE('',#279,#310,#320,.T.);
#322=ORIENTED_EDGE('',*,*,#321,.F.);
#323=ORIENTED_EDGE('',*,*,#284,.T.);
#324=EDGE_LOOP('',(#308,#316,#322,#323));
#325=FACE_OUTER_BOUND('',#324,.T.);
#326=ADVANCED_FACE('',(#325),#300,.T.);
#327=CARTESIAN_POINT('',(1.68,0.4,0.05));
#328=DIRECTION('',(0.0,1.0,0.0));
#329=DIRECTION('',(0.011573298975528,0.0,0.999933027132729));
#330=AXIS2_PLACEMENT_3D('',#327,#328,#329);
#331=PLANE('',#330);
#332=CARTESIAN_POINT('',(1.682314659795105,0.4,0.249986605426546));
#333=DIRECTION('',(0.999933027132729,0.0,-0.011573298975528));
#334=VECTOR('',#333,4.32);
#335=LINE('',#332,#334);
#336=EDGE_CURVE('',#302,#231,#335,.T.);
#337=ORIENTED_EDGE('',*,*,#336,.T.);
#338=ORIENTED_EDGE('',*,*,#260,.F.);
#339=CARTESIAN_POINT('',(1.68,0.4,0.05));
#340=DIRECTION('',(0.999933027132729,0.0,-0.011573298975528));
#341=VECTOR('',#340,4.32);
#342=LINE('',#339,#341);
#343=EDGE_CURVE('',#310,#249,#342,.T.);
#344=ORIENTED_EDGE('',*,*,#343,.F.);
#345=ORIENTED_EDGE('',*,*,#315,.T.);
#346=EDGE_LOOP('',(#337,#338,#344,#345));
#347=FACE_OUTER_BOUND('',#346,.T.);
#348=ADVANCED_FACE('',(#347),#331,.T.);
#349=CARTESIAN_POINT('',(3.842169998401801,8.881784E-016,0.224988279639405));
#350=DIRECTION('',(0.011573298975528,0.0,0.999933027132729));
#351=DIRECTION('',(0.999933027132729,8.032759E-036,-0.011573298975528));
#352=AXIS2_PLACEMENT_3D('',#349,#350,#351);
#353=PLANE('',#352);
#354=ORIENTED_EDGE('',*,*,#238,.F.);
#355=ORIENTED_EDGE('',*,*,#336,.F.);
#356=ORIENTED_EDGE('',*,*,#307,.F.);
#357=ORIENTED_EDGE('',*,*,#276,.F.);
#358=EDGE_LOOP('',(#354,#355,#356,#357));
#359=FACE_OUTER_BOUND('',#358,.T.);
#360=ADVANCED_FACE('',(#359),#353,.T.);
#361=CARTESIAN_POINT('',(3.839855338606696,8.881784E-016,0.025001674212859));
#362=DIRECTION('',(0.011573298975528,0.0,0.999933027132729));
#363=DIRECTION('',(0.999933027132729,8.032759E-036,-0.011573298975528));
#364=AXIS2_PLACEMENT_3D('',#361,#362,#363);
#365=PLANE('',#364);
#366=ORIENTED_EDGE('',*,*,#343,.T.);
#367=ORIENTED_EDGE('',*,*,#254,.T.);
#368=ORIENTED_EDGE('',*,*,#290,.T.);
#369=ORIENTED_EDGE('',*,*,#321,.T.);
#370=EDGE_LOOP('',(#366,#367,#368,#369));
#371=FACE_OUTER_BOUND('',#370,.T.);
#372=ADVANCED_FACE('',(#371),#365,.F.);
#373=CLOSED_SHELL('',(#264,#295,#326,#348,#360,#372));
#374=MANIFOLD_SOLID_BREP('2BEB',#373);
#375=STYLED_ITEM('NONE',(#221),#374);
#376=CARTESIAN_POINT('',(-3.344999999999999,1.776357E-015,0.69));
#377=DIRECTION('',(0.0,0.0,1.0));
#378=DIRECTION('',(-1.0,0.0,0.0));
#379=AXIS2_PLACEMENT_3D('',#376,#377,#378);
#380=CYLINDRICAL_SURFACE('',#379,2.105);
#381=CARTESIAN_POINT('',(-3.345,-2.104999999999999,0.89));
#382=VERTEX_POINT('',#381);
#383=CARTESIAN_POINT('',(-3.345,2.105000000000002,0.89));
#384=VERTEX_POINT('',#383);
#385=CARTESIAN_POINT('',(-3.344999999999999,1.776357E-015,0.89));
#386=DIRECTION('',(0.0,0.0,-1.0));
#387=DIRECTION('',(-1.0,0.0,0.0));
#388=AXIS2_PLACEMENT_3D('',#385,#386,#387);
#389=CIRCLE('',#388,2.105);
#390=EDGE_CURVE('',#382,#384,#389,.T.);
#391=ORIENTED_EDGE('',*,*,#390,.T.);
#392=CARTESIAN_POINT('',(-3.345,2.105000000000002,0.69));
#393=VERTEX_POINT('',#392);
#394=CARTESIAN_POINT('',(-3.345,2.105000000000002,0.69));
#395=DIRECTION('',(0.0,0.0,1.0));
#396=VECTOR('',#395,0.2);
#397=LINE('',#394,#396);
#398=EDGE_CURVE('',#393,#384,#397,.T.);
#399=ORIENTED_EDGE('',*,*,#398,.F.);
#400=CARTESIAN_POINT('',(-3.345,-2.104999999999999,0.69));
#401=VERTEX_POINT('',#400);
#402=CARTESIAN_POINT('',(-3.344999999999999,1.776357E-015,0.69));
#403=DIRECTION('',(0.0,0.0,1.0));
#404=DIRECTION('',(-1.0,0.0,0.0));
#405=AXIS2_PLACEMENT_3D('',#402,#403,#404);
#406=CIRCLE('',#405,2.105);
#407=EDGE_CURVE('',#393,#401,#406,.T.);
#408=ORIENTED_EDGE('',*,*,#407,.T.);
#409=CARTESIAN_POINT('',(-3.345,-2.104999999999999,0.69));
#410=DIRECTION('',(0.0,0.0,1.0));
#411=VECTOR('',#410,0.2);
#412=LINE('',#409,#411);
#413=EDGE_CURVE('',#401,#382,#412,.T.);
#414=ORIENTED_EDGE('',*,*,#413,.T.);
#415=EDGE_LOOP('',(#391,#399,#408,#414));
#416=FACE_OUTER_BOUND('',#415,.T.);
#417=ADVANCED_FACE('',(#416),#380,.T.);
#418=CARTESIAN_POINT('',(-3.345,2.105000000000002,0.69));
#419=DIRECTION('',(0.0,1.0,0.0));
#420=DIRECTION('',(0.0,0.0,1.0));
#421=AXIS2_PLACEMENT_3D('',#418,#419,#420);
#422=PLANE('',#421);
#423=CARTESIAN_POINT('',(3.344999999999999,2.105000000000002,0.89));
#424=VERTEX_POINT('',#423);
#425=CARTESIAN_POINT('',(-3.345,2.105000000000002,0.89));
#426=DIRECTION('',(1.0,0.0,0.0));
#427=VECTOR('',#426,6.69);
#428=LINE('',#425,#427);
#429=EDGE_CURVE('',#384,#424,#428,.T.);
#430=ORIENTED_EDGE('',*,*,#429,.T.);
#431=CARTESIAN_POINT('',(3.344999999999999,2.105000000000002,0.69));
#432=VERTEX_POINT('',#431);
#433=CARTESIAN_POINT('',(3.344999999999999,2.105000000000002,0.69));
#434=DIRECTION('',(0.0,0.0,1.0));
#435=VECTOR('',#434,0.2);
#436=LINE('',#433,#435);
#437=EDGE_CURVE('',#432,#424,#436,.T.);
#438=ORIENTED_EDGE('',*,*,#437,.F.);
#439=CARTESIAN_POINT('',(3.344999999999999,2.105000000000002,0.69));
#440=DIRECTION('',(-1.0,0.0,0.0));
#441=VECTOR('',#440,6.69);
#442=LINE('',#439,#441);
#443=EDGE_CURVE('',#432,#393,#442,.T.);
#444=ORIENTED_EDGE('',*,*,#443,.T.);
#445=ORIENTED_EDGE('',*,*,#398,.T.);
#446=EDGE_LOOP('',(#430,#438,#444,#445));
#447=FACE_OUTER_BOUND('',#446,.T.);
#448=ADVANCED_FACE('',(#447),#422,.T.);
#449=CARTESIAN_POINT('',(3.344999999999998,1.776357E-015,0.69));
#450=DIRECTION('',(0.0,0.0,1.0));
#451=DIRECTION('',(1.0,0.0,0.0));
#452=AXIS2_PLACEMENT_3D('',#449,#450,#451);
#453=CYLINDRICAL_SURFACE('',#452,2.105);
#454=CARTESIAN_POINT('',(3.344999999999999,-2.104999999999999,0.89));
#455=VERTEX_POINT('',#454);
#456=CARTESIAN_POINT('',(3.344999999999998,1.776357E-015,0.89));
#457=DIRECTION('',(0.0,0.0,-1.0));
#458=DIRECTION('',(1.0,0.0,0.0));
#459=AXIS2_PLACEMENT_3D('',#456,#457,#458);
#460=CIRCLE('',#459,2.105);
#461=EDGE_CURVE('',#424,#455,#460,.T.);
#462=ORIENTED_EDGE('',*,*,#461,.T.);
#463=CARTESIAN_POINT('',(3.344999999999999,-2.104999999999999,0.69));
#464=VERTEX_POINT('',#463);
#465=CARTESIAN_POINT('',(3.344999999999999,-2.104999999999999,0.69));
#466=DIRECTION('',(0.0,0.0,1.0));
#467=VECTOR('',#466,0.2);
#468=LINE('',#465,#467);
#469=EDGE_CURVE('',#464,#455,#468,.T.);
#470=ORIENTED_EDGE('',*,*,#469,.F.);
#471=CARTESIAN_POINT('',(3.344999999999998,1.776357E-015,0.69));
#472=DIRECTION('',(0.0,0.0,1.0));
#473=DIRECTION('',(1.0,0.0,0.0));
#474=AXIS2_PLACEMENT_3D('',#471,#472,#473);
#475=CIRCLE('',#474,2.105);
#476=EDGE_CURVE('',#464,#432,#475,.T.);
#477=ORIENTED_EDGE('',*,*,#476,.T.);
#478=ORIENTED_EDGE('',*,*,#437,.T.);
#479=EDGE_LOOP('',(#462,#470,#477,#478));
#480=FACE_OUTER_BOUND('',#479,.T.);
#481=ADVANCED_FACE('',(#480),#453,.T.);
#482=CARTESIAN_POINT('',(3.344999999999999,-2.104999999999999,0.69));
#483=DIRECTION('',(0.0,-1.0,0.0));
#484=DIRECTION('',(0.0,0.0,-1.0));
#485=AXIS2_PLACEMENT_3D('',#482,#483,#484);
#486=PLANE('',#485);
#487=CARTESIAN_POINT('',(3.344999999999999,-2.104999999999999,0.89));
#488=DIRECTION('',(-1.0,0.0,0.0));
#489=VECTOR('',#488,6.689999999999999);
#490=LINE('',#487,#489);
#491=EDGE_CURVE('',#455,#382,#490,.T.);
#492=ORIENTED_EDGE('',*,*,#491,.T.);
#493=ORIENTED_EDGE('',*,*,#413,.F.);
#494=CARTESIAN_POINT('',(-3.345,-2.104999999999999,0.69));
#495=DIRECTION('',(1.0,0.0,0.0));
#496=VECTOR('',#495,6.689999999999999);
#497=LINE('',#494,#496);
#498=EDGE_CURVE('',#401,#464,#497,.T.);
#499=ORIENTED_EDGE('',*,*,#498,.T.);
#500=ORIENTED_EDGE('',*,*,#469,.T.);
#501=EDGE_LOOP('',(#492,#493,#499,#500));
#502=FACE_OUTER_BOUND('',#501,.T.);
#503=ADVANCED_FACE('',(#502),#486,.T.);
#504=CARTESIAN_POINT('',(-2.220446E-016,2.167705E-015,0.69));
#505=DIRECTION('',(0.0,0.0,1.0));
#506=DIRECTION('',(1.0,0.0,0.0));
#507=AXIS2_PLACEMENT_3D('',#504,#505,#506);
#508=PLANE('',#507);
#509=ORIENTED_EDGE('',*,*,#498,.F.);
#510=ORIENTED_EDGE('',*,*,#407,.F.);
#511=ORIENTED_EDGE('',*,*,#443,.F.);
#512=ORIENTED_EDGE('',*,*,#476,.F.);
#513=EDGE_LOOP('',(#509,#510,#511,#512));
#514=FACE_OUTER_BOUND('',#513,.T.);
#515=ADVANCED_FACE('',(#514),#508,.F.);
#516=CARTESIAN_POINT('',(-2.220446E-016,2.207843E-015,0.89));
#517=DIRECTION('',(0.0,0.0,1.0));
#518=DIRECTION('',(1.0,0.0,0.0));
#519=AXIS2_PLACEMENT_3D('',#516,#517,#518);
#520=PLANE('',#519);
#521=ORIENTED_EDGE('',*,*,#390,.F.);
#522=ORIENTED_EDGE('',*,*,#491,.F.);
#523=ORIENTED_EDGE('',*,*,#461,.F.);
#524=ORIENTED_EDGE('',*,*,#429,.F.);
#525=EDGE_LOOP('',(#521,#522,#523,#524));
#526=FACE_OUTER_BOUND('',#525,.T.);
#527=ADVANCED_FACE('',(#526),#520,.T.);
#528=CLOSED_SHELL('',(#417,#448,#481,#503,#515,#527));
#529=MANIFOLD_SOLID_BREP('2BCC',#528);
#530=COLOUR_RGB('250',0.33,0.33,0.33);
#531=SURFACE_STYLE_USAGE(.BOTH.,#532);
#532=SURFACE_SIDE_STYLE('NONE',(#533));
#533=SURFACE_STYLE_FILL_AREA(#534);
#534=FILL_AREA_STYLE('NONE',(#535));
#535=FILL_AREA_STYLE_COLOUR('NONE',#530);
#536=PRESENTATION_STYLE_ASSIGNMENT((#531));
#537=STYLED_ITEM('NONE',(#536),#529);
#538=CARTESIAN_POINT('',(3.344999999999998,1.776357E-015,1.09));
#539=DIRECTION('',(0.0,0.0,-1.0));
#540=DIRECTION('',(1.0,0.0,0.0));
#541=AXIS2_PLACEMENT_3D('',#538,#539,#540);
#542=CYLINDRICAL_SURFACE('',#541,2.105);
#543=CARTESIAN_POINT('',(3.344999999999999,-2.104999999999999,0.889999999999999));
#544=VERTEX_POINT('',#543);
#545=CARTESIAN_POINT('',(3.344999999999999,2.105000000000002,0.889999999999999));
#546=VERTEX_POINT('',#545);
#547=CARTESIAN_POINT('',(3.344999999999998,1.776357E-015,0.89));
#548=DIRECTION('',(0.0,0.0,1.0));
#549=DIRECTION('',(1.0,0.0,0.0));
#550=AXIS2_PLACEMENT_3D('',#547,#548,#549);
#551=CIRCLE('',#550,2.105);
#552=EDGE_CURVE('',#544,#546,#551,.T.);
#553=ORIENTED_EDGE('',*,*,#552,.T.);
#554=CARTESIAN_POINT('',(3.344999999999999,2.105000000000002,1.09));
#555=VERTEX_POINT('',#554);
#556=CARTESIAN_POINT('',(3.344999999999999,2.105000000000002,1.09));
#557=DIRECTION('',(0.0,0.0,-1.0));
#558=VECTOR('',#557,0.2);
#559=LINE('',#556,#558);
#560=EDGE_CURVE('',#555,#546,#559,.T.);
#561=ORIENTED_EDGE('',*,*,#560,.F.);
#562=CARTESIAN_POINT('',(3.344999999999999,-2.104999999999999,1.09));
#563=VERTEX_POINT('',#562);
#564=CARTESIAN_POINT('',(3.344999999999998,1.776357E-015,1.09));
#565=DIRECTION('',(0.0,0.0,1.0));
#566=DIRECTION('',(1.0,0.0,0.0));
#567=AXIS2_PLACEMENT_3D('',#564,#565,#566);
#568=CIRCLE('',#567,2.105);
#569=EDGE_CURVE('',#563,#555,#568,.T.);
#570=ORIENTED_EDGE('',*,*,#569,.F.);
#571=CARTESIAN_POINT('',(3.344999999999999,-2.104999999999999,1.09));
#572=DIRECTION('',(0.0,0.0,-1.0));
#573=VECTOR('',#572,0.2);
#574=LINE('',#571,#573);
#575=EDGE_CURVE('',#563,#544,#574,.T.);
#576=ORIENTED_EDGE('',*,*,#575,.T.);
#577=EDGE_LOOP('',(#553,#561,#570,#576));
#578=FACE_OUTER_BOUND('',#577,.T.);
#579=ADVANCED_FACE('',(#578),#542,.T.);
#580=CARTESIAN_POINT('',(3.344999999999999,2.105000000000002,1.09));
#581=DIRECTION('',(0.0,1.0,0.0));
#582=DIRECTION('',(0.0,0.0,1.0));
#583=AXIS2_PLACEMENT_3D('',#580,#581,#582);
#584=PLANE('',#583);
#585=CARTESIAN_POINT('',(-3.345,2.105000000000002,0.889999999999999));
#586=VERTEX_POINT('',#585);
#587=CARTESIAN_POINT('',(3.344999999999999,2.105000000000002,0.89));
#588=DIRECTION('',(-1.0,0.0,0.0));
#589=VECTOR('',#588,6.69);
#590=LINE('',#587,#589);
#591=EDGE_CURVE('',#546,#586,#590,.T.);
#592=ORIENTED_EDGE('',*,*,#591,.T.);
#593=CARTESIAN_POINT('',(-3.345,2.105000000000002,1.09));
#594=VERTEX_POINT('',#593);
#595=CARTESIAN_POINT('',(-3.345,2.105000000000002,1.09));
#596=DIRECTION('',(0.0,0.0,-1.0));
#597=VECTOR('',#596,0.2);
#598=LINE('',#595,#597);
#599=EDGE_CURVE('',#594,#586,#598,.T.);
#600=ORIENTED_EDGE('',*,*,#599,.F.);
#601=CARTESIAN_POINT('',(3.344999999999999,2.105000000000002,1.09));
#602=DIRECTION('',(-1.0,0.0,0.0));
#603=VECTOR('',#602,6.69);
#604=LINE('',#601,#603);
#605=EDGE_CURVE('',#555,#594,#604,.T.);
#606=ORIENTED_EDGE('',*,*,#605,.F.);
#607=ORIENTED_EDGE('',*,*,#560,.T.);
#608=EDGE_LOOP('',(#592,#600,#606,#607));
#609=FACE_OUTER_BOUND('',#608,.T.);
#610=ADVANCED_FACE('',(#609),#584,.T.);
#611=CARTESIAN_POINT('',(-3.344999999999999,1.776357E-015,1.09));
#612=DIRECTION('',(0.0,0.0,-1.0));
#613=DIRECTION('',(-1.0,0.0,0.0));
#614=AXIS2_PLACEMENT_3D('',#611,#612,#613);
#615=CYLINDRICAL_SURFACE('',#614,2.105);
#616=CARTESIAN_POINT('',(-3.345,-2.104999999999999,0.889999999999999));
#617=VERTEX_POINT('',#616);
#618=CARTESIAN_POINT('',(-3.344999999999999,1.776357E-015,0.89));
#619=DIRECTION('',(0.0,0.0,1.0));
#620=DIRECTION('',(-1.0,0.0,0.0));
#621=AXIS2_PLACEMENT_3D('',#618,#619,#620);
#622=CIRCLE('',#621,2.105);
#623=EDGE_CURVE('',#586,#617,#622,.T.);
#624=ORIENTED_EDGE('',*,*,#623,.T.);
#625=CARTESIAN_POINT('',(-3.345,-2.104999999999999,1.09));
#626=VERTEX_POINT('',#625);
#627=CARTESIAN_POINT('',(-3.345,-2.104999999999999,1.09));
#628=DIRECTION('',(0.0,0.0,-1.0));
#629=VECTOR('',#628,0.2);
#630=LINE('',#627,#629);
#631=EDGE_CURVE('',#626,#617,#630,.T.);
#632=ORIENTED_EDGE('',*,*,#631,.F.);
#633=CARTESIAN_POINT('',(-3.344999999999999,1.776357E-015,1.09));
#634=DIRECTION('',(0.0,0.0,1.0));
#635=DIRECTION('',(-1.0,0.0,0.0));
#636=AXIS2_PLACEMENT_3D('',#633,#634,#635);
#637=CIRCLE('',#636,2.105);
#638=EDGE_CURVE('',#594,#626,#637,.T.);
#639=ORIENTED_EDGE('',*,*,#638,.F.);
#640=ORIENTED_EDGE('',*,*,#599,.T.);
#641=EDGE_LOOP('',(#624,#632,#639,#640));
#642=FACE_OUTER_BOUND('',#641,.T.);
#643=ADVANCED_FACE('',(#642),#615,.T.);
#644=CARTESIAN_POINT('',(-3.345,-2.104999999999999,1.09));
#645=DIRECTION('',(0.0,-1.0,0.0));
#646=DIRECTION('',(0.0,0.0,-1.0));
#647=AXIS2_PLACEMENT_3D('',#644,#645,#646);
#648=PLANE('',#647);
#649=CARTESIAN_POINT('',(-3.345,-2.104999999999999,0.89));
#650=DIRECTION('',(1.0,0.0,0.0));
#651=VECTOR('',#650,6.689999999999999);
#652=LINE('',#649,#651);
#653=EDGE_CURVE('',#617,#544,#652,.T.);
#654=ORIENTED_EDGE('',*,*,#653,.T.);
#655=ORIENTED_EDGE('',*,*,#575,.F.);
#656=CARTESIAN_POINT('',(-3.345,-2.104999999999999,1.09));
#657=DIRECTION('',(1.0,0.0,0.0));
#658=VECTOR('',#657,6.689999999999999);
#659=LINE('',#656,#658);
#660=EDGE_CURVE('',#626,#563,#659,.T.);
#661=ORIENTED_EDGE('',*,*,#660,.F.);
#662=ORIENTED_EDGE('',*,*,#631,.T.);
#663=EDGE_LOOP('',(#654,#655,#661,#662));
#664=FACE_OUTER_BOUND('',#663,.T.);
#665=ADVANCED_FACE('',(#664),#648,.T.);
#666=CARTESIAN_POINT('',(-2.220446E-016,2.167705E-015,0.889999999999999));
#667=DIRECTION('',(0.0,0.0,1.0));
#668=DIRECTION('',(1.0,0.0,0.0));
#669=AXIS2_PLACEMENT_3D('',#666,#667,#668);
#670=PLANE('',#669);
#671=ORIENTED_EDGE('',*,*,#552,.F.);
#672=ORIENTED_EDGE('',*,*,#653,.F.);
#673=ORIENTED_EDGE('',*,*,#623,.F.);
#674=ORIENTED_EDGE('',*,*,#591,.F.);
#675=EDGE_LOOP('',(#671,#672,#673,#674));
#676=FACE_OUTER_BOUND('',#675,.T.);
#677=ADVANCED_FACE('',(#676),#670,.F.);
#678=CARTESIAN_POINT('',(-2.220446E-016,2.207843E-015,1.089999999999999));
#679=DIRECTION('',(0.0,0.0,1.0));
#680=DIRECTION('',(1.0,0.0,0.0));
#681=AXIS2_PLACEMENT_3D('',#678,#679,#680);
#682=PLANE('',#681);
#683=ORIENTED_EDGE('',*,*,#660,.T.);
#684=ORIENTED_EDGE('',*,*,#569,.T.);
#685=ORIENTED_EDGE('',*,*,#605,.T.);
#686=ORIENTED_EDGE('',*,*,#638,.T.);
#687=EDGE_LOOP('',(#683,#684,#685,#686));
#688=FACE_OUTER_BOUND('',#687,.T.);
#689=ADVANCED_FACE('',(#688),#682,.T.);
#690=CLOSED_SHELL('',(#579,#610,#643,#665,#677,#689));
#691=MANIFOLD_SOLID_BREP('2BC8',#690);
#692=STYLED_ITEM('NONE',(#221),#691);
#693=CARTESIAN_POINT('',(-3.345,0.0,1.09));
#694=DIRECTION('',(1.586782E-032,3.560625E-032,-1.0));
#695=DIRECTION('',(-1.0,0.0,0.0));
#696=AXIS2_PLACEMENT_3D('',#693,#694,#695);
#697=TOROIDAL_SURFACE('',#696,1.905000000000001,0.2);
#698=CARTESIAN_POINT('',(-3.345,-2.105,1.09));
#699=VERTEX_POINT('',#698);
#700=CARTESIAN_POINT('',(-3.345,-1.905000000000001,1.29));
#701=VERTEX_POINT('',#700);
#702=CARTESIAN_POINT('',(-3.345,-1.905000000000001,1.09));
#703=DIRECTION('',(-1.0,0.0,0.0));
#704=DIRECTION('',(0.0,-1.0,0.0));
#705=AXIS2_PLACEMENT_3D('',#702,#703,#704);
#706=CIRCLE('',#705,0.2);
#707=EDGE_CURVE('',#699,#701,#706,.T.);
#708=ORIENTED_EDGE('',*,*,#707,.T.);
#709=CARTESIAN_POINT('',(-3.345,1.905000000000001,1.29));
#710=VERTEX_POINT('',#709);
#711=CARTESIAN_POINT('',(-3.345,-7.121250E-033,1.29));
#712=DIRECTION('',(0.0,0.0,-1.0));
#713=DIRECTION('',(-1.0,0.0,0.0));
#714=AXIS2_PLACEMENT_3D('',#711,#712,#713);
#715=CIRCLE('',#714,1.905000000000001);
#716=EDGE_CURVE('',#701,#710,#715,.T.);
#717=ORIENTED_EDGE('',*,*,#716,.T.);
#718=CARTESIAN_POINT('',(-3.345,2.105,1.09));
#719=VERTEX_POINT('',#718);
#720=CARTESIAN_POINT('',(-3.345,1.905000000000001,1.09));
#721=DIRECTION('',(-1.0,0.0,0.0));
#722=DIRECTION('',(0.0,0.0,1.0));
#723=AXIS2_PLACEMENT_3D('',#720,#721,#722);
#724=CIRCLE('',#723,0.2);
#725=EDGE_CURVE('',#710,#719,#724,.T.);
#726=ORIENTED_EDGE('',*,*,#725,.T.);
#727=CARTESIAN_POINT('',(-3.345,0.0,1.09));
#728=DIRECTION('',(0.0,0.0,1.0));
#729=DIRECTION('',(-1.0,0.0,0.0));
#730=AXIS2_PLACEMENT_3D('',#727,#728,#729);
#731=CIRCLE('',#730,2.105);
#732=EDGE_CURVE('',#719,#699,#731,.T.);
#733=ORIENTED_EDGE('',*,*,#732,.T.);
#734=EDGE_LOOP('',(#708,#717,#726,#733));
#735=FACE_OUTER_BOUND('',#734,.T.);
#736=ADVANCED_FACE('',(#735),#697,.T.);
#737=CARTESIAN_POINT('',(1.672499999999999,-1.905000000000001,1.09));
#738=DIRECTION('',(-1.0,0.0,-1.586782E-032));
#739=DIRECTION('',(0.0,-0.707106781186547,0.707106781186548));
#740=AXIS2_PLACEMENT_3D('',#737,#738,#739);
#741=CYLINDRICAL_SURFACE('',#740,0.2);
#742=CARTESIAN_POINT('',(3.344999999999999,-2.105,1.09));
#743=VERTEX_POINT('',#742);
#744=CARTESIAN_POINT('',(3.344999999999999,-1.905000000000001,1.29));
#745=VERTEX_POINT('',#744);
#746=CARTESIAN_POINT('',(3.344999999999999,-1.905000000000001,1.09));
#747=DIRECTION('',(-1.0,0.0,0.0));
#748=DIRECTION('',(0.0,-1.0,0.0));
#749=AXIS2_PLACEMENT_3D('',#746,#747,#748);
#750=CIRCLE('',#749,0.2);
#751=EDGE_CURVE('',#743,#745,#750,.T.);
#752=ORIENTED_EDGE('',*,*,#751,.T.);
#753=CARTESIAN_POINT('',(3.344999999999999,-1.905000000000001,1.29));
#754=DIRECTION('',(-1.0,0.0,0.0));
#755=VECTOR('',#754,6.689999999999999);
#756=LINE('',#753,#755);
#757=EDGE_CURVE('',#745,#701,#756,.T.);
#758=ORIENTED_EDGE('',*,*,#757,.T.);
#759=ORIENTED_EDGE('',*,*,#707,.F.);
#760=CARTESIAN_POINT('',(-3.345,-2.105,1.09));
#761=DIRECTION('',(1.0,0.0,0.0));
#762=VECTOR('',#761,6.689999999999999);
#763=LINE('',#760,#762);
#764=EDGE_CURVE('',#699,#743,#763,.T.);
#765=ORIENTED_EDGE('',*,*,#764,.T.);
#766=EDGE_LOOP('',(#752,#758,#759,#765));
#767=FACE_OUTER_BOUND('',#766,.T.);
#768=ADVANCED_FACE('',(#767),#741,.T.);
#769=CARTESIAN_POINT('',(-1.6725,1.905000000000001,1.09));
#770=DIRECTION('',(1.0,0.0,1.586782E-032));
#771=DIRECTION('',(0.0,0.707106781186547,0.707106781186548));
#772=AXIS2_PLACEMENT_3D('',#769,#770,#771);
#773=CYLINDRICAL_SURFACE('',#772,0.2);
#774=ORIENTED_EDGE('',*,*,#725,.F.);
#775=CARTESIAN_POINT('',(3.344999999999999,1.905000000000001,1.29));
#776=VERTEX_POINT('',#775);
#777=CARTESIAN_POINT('',(-3.345,1.905000000000001,1.29));
#778=DIRECTION('',(1.0,0.0,0.0));
#779=VECTOR('',#778,6.689999999999999);
#780=LINE('',#777,#779);
#781=EDGE_CURVE('',#710,#776,#780,.T.);
#782=ORIENTED_EDGE('',*,*,#781,.T.);
#783=CARTESIAN_POINT('',(3.344999999999999,2.105,1.09));
#784=VERTEX_POINT('',#783);
#785=CARTESIAN_POINT('',(3.344999999999999,1.905000000000001,1.09));
#786=DIRECTION('',(-1.0,0.0,0.0));
#787=DIRECTION('',(0.0,0.0,1.0));
#788=AXIS2_PLACEMENT_3D('',#785,#786,#787);
#789=CIRCLE('',#788,0.2);
#790=EDGE_CURVE('',#776,#784,#789,.T.);
#791=ORIENTED_EDGE('',*,*,#790,.T.);
#792=CARTESIAN_POINT('',(3.344999999999999,2.105,1.09));
#793=DIRECTION('',(-1.0,0.0,0.0));
#794=VECTOR('',#793,6.69);
#795=LINE('',#792,#794);
#796=EDGE_CURVE('',#784,#719,#795,.T.);
#797=ORIENTED_EDGE('',*,*,#796,.T.);
#798=EDGE_LOOP('',(#774,#782,#791,#797));
#799=FACE_OUTER_BOUND('',#798,.T.);
#800=ADVANCED_FACE('',(#799),#773,.T.);
#801=CARTESIAN_POINT('',(3.344999999999999,0.0,1.09));
#802=DIRECTION('',(1.586782E-032,3.560625E-032,-1.0));
#803=DIRECTION('',(-1.0,0.0,0.0));
#804=AXIS2_PLACEMENT_3D('',#801,#802,#803);
#805=TOROIDAL_SURFACE('',#804,1.905000000000001,0.2);
#806=ORIENTED_EDGE('',*,*,#790,.F.);
#807=CARTESIAN_POINT('',(3.344999999999999,-7.121250E-033,1.29));
#808=DIRECTION('',(0.0,0.0,-1.0));
#809=DIRECTION('',(1.0,0.0,0.0));
#810=AXIS2_PLACEMENT_3D('',#807,#808,#809);
#811=CIRCLE('',#810,1.905000000000001);
#812=EDGE_CURVE('',#776,#745,#811,.T.);
#813=ORIENTED_EDGE('',*,*,#812,.T.);
#814=ORIENTED_EDGE('',*,*,#751,.F.);
#815=CARTESIAN_POINT('',(3.344999999999999,0.0,1.09));
#816=DIRECTION('',(0.0,0.0,1.0));
#817=DIRECTION('',(1.0,0.0,0.0));
#818=AXIS2_PLACEMENT_3D('',#815,#816,#817);
#819=CIRCLE('',#818,2.105);
#820=EDGE_CURVE('',#743,#784,#819,.T.);
#821=ORIENTED_EDGE('',*,*,#820,.T.);
#822=EDGE_LOOP('',(#806,#813,#814,#821));
#823=FACE_OUTER_BOUND('',#822,.T.);
#824=ADVANCED_FACE('',(#823),#805,.T.);
#825=CARTESIAN_POINT('',(-3.235578E-016,1.110223E-016,1.29));
#826=DIRECTION('',(0.0,0.0,1.0));
#827=DIRECTION('',(1.0,0.0,0.0));
#828=AXIS2_PLACEMENT_3D('',#825,#826,#827);
#829=PLANE('',#828);
#830=ORIENTED_EDGE('',*,*,#716,.F.);
#831=ORIENTED_EDGE('',*,*,#757,.F.);
#832=ORIENTED_EDGE('',*,*,#812,.F.);
#833=ORIENTED_EDGE('',*,*,#781,.F.);
#834=EDGE_LOOP('',(#830,#831,#832,#833));
#835=FACE_OUTER_BOUND('',#834,.T.);
#836=ADVANCED_FACE('',(#835),#829,.T.);
#837=CARTESIAN_POINT('',(-3.235578E-016,1.110223E-016,1.09));
#838=DIRECTION('',(0.0,0.0,1.0));
#839=DIRECTION('',(1.0,0.0,0.0));
#840=AXIS2_PLACEMENT_3D('',#837,#838,#839);
#841=PLANE('',#840);
#842=ORIENTED_EDGE('',*,*,#820,.F.);
#843=ORIENTED_EDGE('',*,*,#764,.F.);
#844=ORIENTED_EDGE('',*,*,#732,.F.);
#845=ORIENTED_EDGE('',*,*,#796,.F.);
#846=EDGE_LOOP('',(#842,#843,#844,#845));
#847=FACE_OUTER_BOUND('',#846,.T.);
#848=ADVANCED_FACE('',(#847),#841,.F.);
#849=CLOSED_SHELL('',(#736,#768,#800,#824,#836,#848));
#850=MANIFOLD_SOLID_BREP('2BAD',#849);
#851=STYLED_ITEM('NONE',(#221),#850);
#852=CARTESIAN_POINT('',(1.6725,1.105,3.499999999999999));
#853=DIRECTION('',(-1.0,0.0,-9.521811E-033));
#854=DIRECTION('',(0.0,0.707106781186548,0.707106781186547));
#855=AXIS2_PLACEMENT_3D('',#852,#853,#854);
#856=CYLINDRICAL_SURFACE('',#855,0.8);
#857=CARTESIAN_POINT('',(3.345,1.105,4.299999999999998));
#858=VERTEX_POINT('',#857);
#859=CARTESIAN_POINT('',(3.345,1.905,3.499999999999999));
#860=VERTEX_POINT('',#859);
#861=CARTESIAN_POINT('',(3.345,1.105,3.499999999999999));
#862=DIRECTION('',(-1.0,0.0,0.0));
#863=DIRECTION('',(0.0,0.0,1.0));
#864=AXIS2_PLACEMENT_3D('',#861,#862,#863);
#865=CIRCLE('',#864,0.8);
#866=EDGE_CURVE('',#858,#860,#865,.T.);
#867=ORIENTED_EDGE('',*,*,#866,.T.);
#868=CARTESIAN_POINT('',(-3.345,1.905,3.499999999999999));
#869=VERTEX_POINT('',#868);
#870=CARTESIAN_POINT('',(3.345,1.905,3.499999999999999));
#871=DIRECTION('',(-1.0,0.0,0.0));
#872=VECTOR('',#871,6.69);
#873=LINE('',#870,#872);
#874=EDGE_CURVE('',#860,#869,#873,.T.);
#875=ORIENTED_EDGE('',*,*,#874,.T.);
#876=CARTESIAN_POINT('',(-3.345,1.105,4.299999999999998));
#877=VERTEX_POINT('',#876);
#878=CARTESIAN_POINT('',(-3.345,1.105,3.499999999999999));
#879=DIRECTION('',(1.0,0.0,0.0));
#880=DIRECTION('',(0.0,1.0,0.0));
#881=AXIS2_PLACEMENT_3D('',#878,#879,#880);
#882=CIRCLE('',#881,0.8);
#883=EDGE_CURVE('',#869,#877,#882,.T.);
#884=ORIENTED_EDGE('',*,*,#883,.T.);
#885=CARTESIAN_POINT('',(-3.345,1.105,4.299999999999998));
#886=DIRECTION('',(1.0,0.0,0.0));
#887=VECTOR('',#886,6.69);
#888=LINE('',#885,#887);
#889=EDGE_CURVE('',#877,#858,#888,.T.);
#890=ORIENTED_EDGE('',*,*,#889,.T.);
#891=EDGE_LOOP('',(#867,#875,#884,#890));
#892=FACE_OUTER_BOUND('',#891,.T.);
#893=ADVANCED_FACE('',(#892),#856,.T.);
#894=CARTESIAN_POINT('',(3.344999999999999,3.697785E-032,3.499999999999999));
#895=DIRECTION('',(-9.521811E-033,-4.347509E-032,1.0));
#896=DIRECTION('',(1.0,0.0,0.0));
#897=AXIS2_PLACEMENT_3D('',#894,#895,#896);
#898=TOROIDAL_SURFACE('',#897,1.105,0.8);
#899=CARTESIAN_POINT('',(3.344999999999999,-1.105,4.299999999999998));
#900=VERTEX_POINT('',#899);
#901=CARTESIAN_POINT('',(3.344999999999999,-1.905,3.499999999999999));
#902=VERTEX_POINT('',#901);
#903=CARTESIAN_POINT('',(3.344999999999999,-1.105,3.499999999999999));
#904=DIRECTION('',(1.0,0.0,0.0));
#905=DIRECTION('',(0.0,0.0,1.0));
#906=AXIS2_PLACEMENT_3D('',#903,#904,#905);
#907=CIRCLE('',#906,0.8);
#908=EDGE_CURVE('',#900,#902,#907,.T.);
#909=ORIENTED_EDGE('',*,*,#908,.T.);
#910=CARTESIAN_POINT('',(3.344999999999999,3.697785E-032,3.499999999999999));
#911=DIRECTION('',(0.0,0.0,1.0));
#912=DIRECTION('',(1.0,0.0,0.0));
#913=AXIS2_PLACEMENT_3D('',#910,#911,#912);
#914=CIRCLE('',#913,1.905);
#915=EDGE_CURVE('',#902,#860,#914,.T.);
#916=ORIENTED_EDGE('',*,*,#915,.T.);
#917=ORIENTED_EDGE('',*,*,#866,.F.);
#918=CARTESIAN_POINT('',(3.344999999999999,2.197785E-033,4.299999999999998));
#919=DIRECTION('',(0.0,0.0,-1.0));
#920=DIRECTION('',(1.0,0.0,0.0));
#921=AXIS2_PLACEMENT_3D('',#918,#919,#920);
#922=CIRCLE('',#921,1.105);
#923=EDGE_CURVE('',#858,#900,#922,.T.);
#924=ORIENTED_EDGE('',*,*,#923,.T.);
#925=EDGE_LOOP('',(#909,#916,#917,#924));
#926=FACE_OUTER_BOUND('',#925,.T.);
#927=ADVANCED_FACE('',(#926),#898,.T.);
#928=CARTESIAN_POINT('',(-3.344999999999999,-1.110223E-016,3.499999999999999));
#929=DIRECTION('',(-9.521811E-033,-4.347509E-032,1.0));
#930=DIRECTION('',(1.0,0.0,0.0));
#931=AXIS2_PLACEMENT_3D('',#928,#929,#930);
#932=TOROIDAL_SURFACE('',#931,1.105,0.8);
#933=CARTESIAN_POINT('',(-3.345,-1.905000000000001,3.499999999999999));
#934=VERTEX_POINT('',#933);
#935=CARTESIAN_POINT('',(-3.345,-1.105,4.299999999999998));
#936=VERTEX_POINT('',#935);
#937=CARTESIAN_POINT('',(-3.345,-1.105,3.499999999999999));
#938=DIRECTION('',(-1.0,0.0,0.0));
#939=DIRECTION('',(0.0,-1.0,0.0));
#940=AXIS2_PLACEMENT_3D('',#937,#938,#939);
#941=CIRCLE('',#940,0.8);
#942=EDGE_CURVE('',#934,#936,#941,.T.);
#943=ORIENTED_EDGE('',*,*,#942,.T.);
#944=CARTESIAN_POINT('',(-3.344999999999999,-1.110223E-016,4.299999999999998));
#945=DIRECTION('',(0.0,0.0,-1.0));
#946=DIRECTION('',(-1.0,0.0,0.0));
#947=AXIS2_PLACEMENT_3D('',#944,#945,#946);
#948=CIRCLE('',#947,1.105);
#949=EDGE_CURVE('',#936,#877,#948,.T.);
#950=ORIENTED_EDGE('',*,*,#949,.T.);
#951=ORIENTED_EDGE('',*,*,#883,.F.);
#952=CARTESIAN_POINT('',(-3.344999999999999,-1.110223E-016,3.499999999999999));
#953=DIRECTION('',(0.0,0.0,1.0));
#954=DIRECTION('',(-1.0,0.0,0.0));
#955=AXIS2_PLACEMENT_3D('',#952,#953,#954);
#956=CIRCLE('',#955,1.905);
#957=EDGE_CURVE('',#869,#934,#956,.T.);
#958=ORIENTED_EDGE('',*,*,#957,.T.);
#959=EDGE_LOOP('',(#943,#950,#951,#958));
#960=FACE_OUTER_BOUND('',#959,.T.);
#961=ADVANCED_FACE('',(#960),#932,.T.);
#962=CARTESIAN_POINT('',(-1.6725,-1.105,3.499999999999999));
#963=DIRECTION('',(1.0,3.319052E-017,9.521811E-033));
#964=DIRECTION('',(0.0,-0.707106781186547,0.707106781186547));
#965=AXIS2_PLACEMENT_3D('',#962,#963,#964);
#966=CYLINDRICAL_SURFACE('',#965,0.8);
#967=ORIENTED_EDGE('',*,*,#908,.F.);
#968=CARTESIAN_POINT('',(3.344999999999999,-1.105,4.299999999999998));
#969=DIRECTION('',(-1.0,0.0,0.0));
#970=VECTOR('',#969,6.689999999999999);
#971=LINE('',#968,#970);
#972=EDGE_CURVE('',#900,#936,#971,.T.);
#973=ORIENTED_EDGE('',*,*,#972,.T.);
#974=ORIENTED_EDGE('',*,*,#942,.F.);
#975=CARTESIAN_POINT('',(-3.345,-1.905000000000001,3.499999999999999));
#976=DIRECTION('',(1.0,0.0,0.0));
#977=VECTOR('',#976,6.689999999999999);
#978=LINE('',#975,#977);
#979=EDGE_CURVE('',#934,#902,#978,.T.);
#980=ORIENTED_EDGE('',*,*,#979,.T.);
#981=EDGE_LOOP('',(#967,#973,#974,#980));
#982=FACE_OUTER_BOUND('',#981,.T.);
#983=ADVANCED_FACE('',(#982),#966,.T.);
#984=CARTESIAN_POINT('',(-3.344999999999999,-1.110223E-016,4.3));
#985=DIRECTION('',(0.0,0.0,-1.0));
#986=DIRECTION('',(-1.0,0.0,0.0));
#987=AXIS2_PLACEMENT_3D('',#984,#985,#986);
#988=CYLINDRICAL_SURFACE('',#987,1.905);
#989=ORIENTED_EDGE('',*,*,#957,.F.);
#990=CARTESIAN_POINT('',(-3.345,1.905,0.690000000000001));
#991=VERTEX_POINT('',#990);
#992=CARTESIAN_POINT('',(-3.345,1.905,3.499999999999999));
#993=DIRECTION('',(0.0,0.0,-1.0));
#994=VECTOR('',#993,2.809999999999999);
#995=LINE('',#992,#994);
#996=EDGE_CURVE('',#869,#991,#995,.T.);
#997=ORIENTED_EDGE('',*,*,#996,.T.);
#998=CARTESIAN_POINT('',(-3.345,-1.905000000000001,0.690000000000001));
#999=VERTEX_POINT('',#998);
#1000=CARTESIAN_POINT('',(-3.344999999999999,-1.110223E-016,0.690000000000001));
#1001=DIRECTION('',(0.0,0.0,1.0));
#1002=DIRECTION('',(-1.0,0.0,0.0));
#1003=AXIS2_PLACEMENT_3D('',#1000,#1001,#1002);
#1004=CIRCLE('',#1003,1.905);
#1005=EDGE_CURVE('',#991,#999,#1004,.T.);
#1006=ORIENTED_EDGE('',*,*,#1005,.T.);
#1007=CARTESIAN_POINT('',(-3.345,-1.905000000000001,3.499999999999999));
#1008=DIRECTION('',(0.0,0.0,-1.0));
#1009=VECTOR('',#1008,2.809999999999999);
#1010=LINE('',#1007,#1009);
#1011=EDGE_CURVE('',#934,#999,#1010,.T.);
#1012=ORIENTED_EDGE('',*,*,#1011,.F.);
#1013=EDGE_LOOP('',(#989,#997,#1006,#1012));
#1014=FACE_OUTER_BOUND('',#1013,.T.);
#1015=ADVANCED_FACE('',(#1014),#988,.T.);
#1016=CARTESIAN_POINT('',(3.345,1.905,4.350000000000001));
#1017=DIRECTION('',(0.0,1.0,0.0));
#1018=DIRECTION('',(0.0,0.0,1.0));
#1019=AXIS2_PLACEMENT_3D('',#1016,#1017,#1018);
#1020=PLANE('',#1019);
#1021=ORIENTED_EDGE('',*,*,#874,.F.);
#1022=CARTESIAN_POINT('',(3.345,1.905,0.690000000000001));
#1023=VERTEX_POINT('',#1022);
#1024=CARTESIAN_POINT('',(3.345,1.905,3.499999999999999));
#1025=DIRECTION('',(0.0,0.0,-1.0));
#1026=VECTOR('',#1025,2.809999999999999);
#1027=LINE('',#1024,#1026);
#1028=EDGE_CURVE('',#860,#1023,#1027,.T.);
#1029=ORIENTED_EDGE('',*,*,#1028,.T.);
#1030=CARTESIAN_POINT('',(3.345,1.905,0.690000000000001));
#1031=DIRECTION('',(-1.0,0.0,0.0));
#1032=VECTOR('',#1031,6.69);
#1033=LINE('',#1030,#1032);
#1034=EDGE_CURVE('',#1023,#991,#1033,.T.);
#1035=ORIENTED_EDGE('',*,*,#1034,.T.);
#1036=ORIENTED_EDGE('',*,*,#996,.F.);
#1037=EDGE_LOOP('',(#1021,#1029,#1035,#1036));
#1038=FACE_OUTER_BOUND('',#1037,.T.);
#1039=ADVANCED_FACE('',(#1038),#1020,.T.);
#1040=CARTESIAN_POINT('',(3.026284E-017,0.0,4.299999999999998));
#1041=DIRECTION('',(0.0,0.0,1.0));
#1042=DIRECTION('',(1.0,0.0,0.0));
#1043=AXIS2_PLACEMENT_3D('',#1040,#1041,#1042);
#1044=PLANE('',#1043);
#1045=ORIENTED_EDGE('',*,*,#889,.F.);
#1046=ORIENTED_EDGE('',*,*,#949,.F.);
#1047=ORIENTED_EDGE('',*,*,#972,.F.);
#1048=ORIENTED_EDGE('',*,*,#923,.F.);
#1049=EDGE_LOOP('',(#1045,#1046,#1047,#1048));
#1050=FACE_OUTER_BOUND('',#1049,.T.);
#1051=ADVANCED_FACE('',(#1050),#1044,.T.);
#1052=CARTESIAN_POINT('',(-3.345,-1.905000000000001,4.3));
#1053=DIRECTION('',(0.0,-1.0,0.0));
#1054=DIRECTION('',(0.0,0.0,-1.0));
#1055=AXIS2_PLACEMENT_3D('',#1052,#1053,#1054);
#1056=PLANE('',#1055);
#1057=ORIENTED_EDGE('',*,*,#979,.F.);
#1058=ORIENTED_EDGE('',*,*,#1011,.T.);
#1059=CARTESIAN_POINT('',(3.344999999999999,-1.905,0.690000000000001));
#1060=VERTEX_POINT('',#1059);
#1061=CARTESIAN_POINT('',(-3.345,-1.905000000000001,0.690000000000001));
#1062=DIRECTION('',(1.0,0.0,0.0));
#1063=VECTOR('',#1062,6.69);
#1064=LINE('',#1061,#1063);
#1065=EDGE_CURVE('',#999,#1060,#1064,.T.);
#1066=ORIENTED_EDGE('',*,*,#1065,.T.);
#1067=CARTESIAN_POINT('',(3.344999999999999,-1.905,3.499999999999999));
#1068=DIRECTION('',(0.0,0.0,-1.0));
#1069=VECTOR('',#1068,2.809999999999999);
#1070=LINE('',#1067,#1069);
#1071=EDGE_CURVE('',#902,#1060,#1070,.T.);
#1072=ORIENTED_EDGE('',*,*,#1071,.F.);
#1073=EDGE_LOOP('',(#1057,#1058,#1066,#1072));
#1074=FACE_OUTER_BOUND('',#1073,.T.);
#1075=ADVANCED_FACE('',(#1074),#1056,.T.);
#1076=CARTESIAN_POINT('',(3.344999999999999,3.697785E-032,4.3));
#1077=DIRECTION('',(0.0,0.0,-1.0));
#1078=DIRECTION('',(1.0,0.0,0.0));
#1079=AXIS2_PLACEMENT_3D('',#1076,#1077,#1078);
#1080=CYLINDRICAL_SURFACE('',#1079,1.905);
#1081=ORIENTED_EDGE('',*,*,#915,.F.);
#1082=ORIENTED_EDGE('',*,*,#1071,.T.);
#1083=CARTESIAN_POINT('',(3.344999999999999,3.697785E-032,0.690000000000001));
#1084=DIRECTION('',(0.0,0.0,1.0));
#1085=DIRECTION('',(1.0,0.0,0.0));
#1086=AXIS2_PLACEMENT_3D('',#1083,#1084,#1085);
#1087=CIRCLE('',#1086,1.905);
#1088=EDGE_CURVE('',#1060,#1023,#1087,.T.);
#1089=ORIENTED_EDGE('',*,*,#1088,.T.);
#1090=ORIENTED_EDGE('',*,*,#1028,.F.);
#1091=EDGE_LOOP('',(#1081,#1082,#1089,#1090));
#1092=FACE_OUTER_BOUND('',#1091,.T.);
#1093=ADVANCED_FACE('',(#1092),#1080,.T.);
#1094=CARTESIAN_POINT('',(0.0,0.0,0.690000000000001));
#1095=DIRECTION('',(0.0,0.0,1.0));
#1096=DIRECTION('',(1.0,0.0,0.0));
#1097=AXIS2_PLACEMENT_3D('',#1094,#1095,#1096);
#1098=PLANE('',#1097);
#1099=ORIENTED_EDGE('',*,*,#1034,.F.);
#1100=ORIENTED_EDGE('',*,*,#1088,.F.);
#1101=ORIENTED_EDGE('',*,*,#1065,.F.);
#1102=ORIENTED_EDGE('',*,*,#1005,.F.);
#1103=EDGE_LOOP('',(#1099,#1100,#1101,#1102));
#1104=FACE_OUTER_BOUND('',#1103,.T.);
#1105=ADVANCED_FACE('',(#1104),#1098,.F.);
#1106=CLOSED_SHELL('',(#893,#927,#961,#983,#1015,#1039,#1051,#1075,#1093,#1105));
#1107=MANIFOLD_SOLID_BREP('2BA9',#1106);
#1108=STYLED_ITEM('NONE',(#221),#1107);
#1109=CARTESIAN_POINT('',(-3.84,-8.881784E-016,0.25));
#1110=DIRECTION('',(0.0,0.0,1.0));
#1111=DIRECTION('',(1.0,0.0,0.0));
#1112=AXIS2_PLACEMENT_3D('',#1109,#1110,#1111);
#1113=PLANE('',#1112);
#1114=CARTESIAN_POINT('',(-5.7,0.600000000000001,0.25));
#1115=VERTEX_POINT('',#1114);
#1116=CARTESIAN_POINT('',(-5.7,-0.6,0.25));
#1117=VERTEX_POINT('',#1116);
#1118=CARTESIAN_POINT('',(-5.7,0.600000000000001,0.25));
#1119=DIRECTION('',(0.0,-1.0,0.0));
#1120=VECTOR('',#1119,1.2);
#1121=LINE('',#1118,#1120);
#1122=EDGE_CURVE('',#1115,#1117,#1121,.T.);
#1123=ORIENTED_EDGE('',*,*,#1122,.F.);
#1124=CARTESIAN_POINT('',(-1.48,0.600000000000001,0.25));
#1125=VERTEX_POINT('',#1124);
#1126=CARTESIAN_POINT('',(-5.7,0.600000000000001,0.25));
#1127=DIRECTION('',(1.0,0.0,0.0));
#1128=VECTOR('',#1127,4.220000000000001);
#1129=LINE('',#1126,#1128);
#1130=EDGE_CURVE('',#1115,#1125,#1129,.T.);
#1131=ORIENTED_EDGE('',*,*,#1130,.T.);
#1132=CARTESIAN_POINT('',(-1.48,-0.6,0.25));
#1133=VERTEX_POINT('',#1132);
#1134=CARTESIAN_POINT('',(-1.48,0.600000000000001,0.25));
#1135=DIRECTION('',(0.0,-1.0,0.0));
#1136=VECTOR('',#1135,1.2);
#1137=LINE('',#1134,#1136);
#1138=EDGE_CURVE('',#1125,#1133,#1137,.T.);
#1139=ORIENTED_EDGE('',*,*,#1138,.T.);
#1140=CARTESIAN_POINT('',(-1.48,-0.6,0.25));
#1141=DIRECTION('',(-1.0,0.0,0.0));
#1142=VECTOR('',#1141,4.220000000000001);
#1143=LINE('',#1140,#1142);
#1144=EDGE_CURVE('',#1133,#1117,#1143,.T.);
#1145=ORIENTED_EDGE('',*,*,#1144,.T.);
#1146=EDGE_LOOP('',(#1123,#1131,#1139,#1145));
#1147=FACE_OUTER_BOUND('',#1146,.T.);
#1148=ADVANCED_FACE('',(#1147),#1113,.F.);
#1149=CARTESIAN_POINT('',(-1.48,-0.6,0.05));
#1150=DIRECTION('',(0.0,-1.0,0.0));
#1151=DIRECTION('',(0.0,0.0,-1.0));
#1152=AXIS2_PLACEMENT_3D('',#1149,#1150,#1151);
#1153=PLANE('',#1152);
#1154=CARTESIAN_POINT('',(-5.7,-0.6,0.05));
#1155=VERTEX_POINT('',#1154);
#1156=CARTESIAN_POINT('',(-5.7,-0.6,0.25));
#1157=DIRECTION('',(0.0,0.0,-1.0));
#1158=VECTOR('',#1157,0.2);
#1159=LINE('',#1156,#1158);
#1160=EDGE_CURVE('',#1117,#1155,#1159,.T.);
#1161=ORIENTED_EDGE('',*,*,#1160,.F.);
#1162=ORIENTED_EDGE('',*,*,#1144,.F.);
#1163=CARTESIAN_POINT('',(-1.48,-0.6,0.05));
#1164=VERTEX_POINT('',#1163);
#1165=CARTESIAN_POINT('',(-1.48,-0.6,0.05));
#1166=DIRECTION('',(0.0,0.0,1.0));
#1167=VECTOR('',#1166,0.2);
#1168=LINE('',#1165,#1167);
#1169=EDGE_CURVE('',#1164,#1133,#1168,.T.);
#1170=ORIENTED_EDGE('',*,*,#1169,.F.);
#1171=CARTESIAN_POINT('',(-5.7,-0.6,0.05));
#1172=DIRECTION('',(1.0,0.0,0.0));
#1173=VECTOR('',#1172,4.220000000000001);
#1174=LINE('',#1171,#1173);
#1175=EDGE_CURVE('',#1155,#1164,#1174,.T.);
#1176=ORIENTED_EDGE('',*,*,#1175,.F.);
#1177=EDGE_LOOP('',(#1161,#1162,#1170,#1176));
#1178=FACE_OUTER_BOUND('',#1177,.T.);
#1179=ADVANCED_FACE('',(#1178),#1153,.F.);
#1180=CARTESIAN_POINT('',(-1.48,0.600000000000001,0.05));
#1181=DIRECTION('',(1.0,0.0,0.0));
#1182=DIRECTION('',(0.0,0.0,-1.0));
#1183=AXIS2_PLACEMENT_3D('',#1180,#1181,#1182);
#1184=PLANE('',#1183);
#1185=ORIENTED_EDGE('',*,*,#1138,.F.);
#1186=CARTESIAN_POINT('',(-1.48,0.600000000000001,0.05));
#1187=VERTEX_POINT('',#1186);
#1188=CARTESIAN_POINT('',(-1.48,0.600000000000001,0.05));
#1189=DIRECTION('',(0.0,0.0,1.0));
#1190=VECTOR('',#1189,0.2);
#1191=LINE('',#1188,#1190);
#1192=EDGE_CURVE('',#1187,#1125,#1191,.T.);
#1193=ORIENTED_EDGE('',*,*,#1192,.F.);
#1194=CARTESIAN_POINT('',(-1.48,-0.6,0.05));
#1195=DIRECTION('',(0.0,1.0,0.0));
#1196=VECTOR('',#1195,1.2);
#1197=LINE('',#1194,#1196);
#1198=EDGE_CURVE('',#1164,#1187,#1197,.T.);
#1199=ORIENTED_EDGE('',*,*,#1198,.F.);
#1200=ORIENTED_EDGE('',*,*,#1169,.T.);
#1201=EDGE_LOOP('',(#1185,#1193,#1199,#1200));
#1202=FACE_OUTER_BOUND('',#1201,.T.);
#1203=ADVANCED_FACE('',(#1202),#1184,.F.);
#1204=CARTESIAN_POINT('',(-6.2,0.600000000000001,0.05));
#1205=DIRECTION('',(0.0,1.0,0.0));
#1206=DIRECTION('',(0.0,0.0,1.0));
#1207=AXIS2_PLACEMENT_3D('',#1204,#1205,#1206);
#1208=PLANE('',#1207);
#1209=CARTESIAN_POINT('',(-5.7,0.600000000000001,0.05));
#1210=VERTEX_POINT('',#1209);
#1211=CARTESIAN_POINT('',(-5.7,0.600000000000001,0.05));
#1212=DIRECTION('',(0.0,0.0,1.0));
#1213=VECTOR('',#1212,0.2);
#1214=LINE('',#1211,#1213);
#1215=EDGE_CURVE('',#1210,#1115,#1214,.T.);
#1216=ORIENTED_EDGE('',*,*,#1215,.F.);
#1217=CARTESIAN_POINT('',(-1.48,0.600000000000001,0.05));
#1218=DIRECTION('',(-1.0,0.0,0.0));
#1219=VECTOR('',#1218,4.220000000000001);
#1220=LINE('',#1217,#1219);
#1221=EDGE_CURVE('',#1187,#1210,#1220,.T.);
#1222=ORIENTED_EDGE('',*,*,#1221,.F.);
#1223=ORIENTED_EDGE('',*,*,#1192,.T.);
#1224=ORIENTED_EDGE('',*,*,#1130,.F.);
#1225=EDGE_LOOP('',(#1216,#1222,#1223,#1224));
#1226=FACE_OUTER_BOUND('',#1225,.T.);
#1227=ADVANCED_FACE('',(#1226),#1208,.F.);
#1228=CARTESIAN_POINT('',(1.48,0.600000000000001,0.05));
#1229=DIRECTION('',(0.0,1.0,0.0));
#1230=DIRECTION('',(0.0,0.0,1.0));
#1231=AXIS2_PLACEMENT_3D('',#1228,#1229,#1230);
#1232=PLANE('',#1231);
#1233=CARTESIAN_POINT('',(5.7,0.600000000000001,0.25));
#1234=VERTEX_POINT('',#1233);
#1235=CARTESIAN_POINT('',(5.7,0.600000000000001,0.05));
#1236=VERTEX_POINT('',#1235);
#1237=CARTESIAN_POINT('',(5.7,0.600000000000001,0.25));
#1238=DIRECTION('',(0.0,0.0,-1.0));
#1239=VECTOR('',#1238,0.2);
#1240=LINE('',#1237,#1239);
#1241=EDGE_CURVE('',#1234,#1236,#1240,.T.);
#1242=ORIENTED_EDGE('',*,*,#1241,.F.);
#1243=CARTESIAN_POINT('',(1.48,0.600000000000001,0.25));
#1244=VERTEX_POINT('',#1243);
#1245=CARTESIAN_POINT('',(1.48,0.600000000000001,0.25));
#1246=DIRECTION('',(1.0,0.0,0.0));
#1247=VECTOR('',#1246,4.220000000000001);
#1248=LINE('',#1245,#1247);
#1249=EDGE_CURVE('',#1244,#1234,#1248,.T.);
#1250=ORIENTED_EDGE('',*,*,#1249,.F.);
#1251=CARTESIAN_POINT('',(1.48,0.600000000000001,0.05));
#1252=VERTEX_POINT('',#1251);
#1253=CARTESIAN_POINT('',(1.48,0.600000000000001,0.05));
#1254=DIRECTION('',(0.0,0.0,1.0));
#1255=VECTOR('',#1254,0.2);
#1256=LINE('',#1253,#1255);
#1257=EDGE_CURVE('',#1252,#1244,#1256,.T.);
#1258=ORIENTED_EDGE('',*,*,#1257,.F.);
#1259=CARTESIAN_POINT('',(5.700000000000001,0.600000000000001,0.05));
#1260=DIRECTION('',(-1.0,0.0,0.0));
#1261=VECTOR('',#1260,4.220000000000002);
#1262=LINE('',#1259,#1261);
#1263=EDGE_CURVE('',#1236,#1252,#1262,.T.);
#1264=ORIENTED_EDGE('',*,*,#1263,.F.);
#1265=EDGE_LOOP('',(#1242,#1250,#1258,#1264));
#1266=FACE_OUTER_BOUND('',#1265,.T.);
#1267=ADVANCED_FACE('',(#1266),#1232,.F.);
#1268=CARTESIAN_POINT('',(6.2,-0.6,0.05));
#1269=DIRECTION('',(0.0,-1.0,0.0));
#1270=DIRECTION('',(0.0,0.0,-1.0));
#1271=AXIS2_PLACEMENT_3D('',#1268,#1269,#1270);
#1272=PLANE('',#1271);
#1273=CARTESIAN_POINT('',(5.7,-0.6,0.05));
#1274=VERTEX_POINT('',#1273);
#1275=CARTESIAN_POINT('',(5.7,-0.6,0.25));
#1276=VERTEX_POINT('',#1275);
#1277=CARTESIAN_POINT('',(5.7,-0.6,0.05));
#1278=DIRECTION('',(0.0,0.0,1.0));
#1279=VECTOR('',#1278,0.2);
#1280=LINE('',#1277,#1279);
#1281=EDGE_CURVE('',#1274,#1276,#1280,.T.);
#1282=ORIENTED_EDGE('',*,*,#1281,.F.);
#1283=CARTESIAN_POINT('',(1.48,-0.6,0.05));
#1284=VERTEX_POINT('',#1283);
#1285=CARTESIAN_POINT('',(1.48,-0.6,0.05));
#1286=DIRECTION('',(1.0,0.0,0.0));
#1287=VECTOR('',#1286,4.220000000000001);
#1288=LINE('',#1285,#1287);
#1289=EDGE_CURVE('',#1284,#1274,#1288,.T.);
#1290=ORIENTED_EDGE('',*,*,#1289,.F.);
#1291=CARTESIAN_POINT('',(1.48,-0.6,0.25));
#1292=VERTEX_POINT('',#1291);
#1293=CARTESIAN_POINT('',(1.48,-0.6,0.05));
#1294=DIRECTION('',(0.0,0.0,1.0));
#1295=VECTOR('',#1294,0.2);
#1296=LINE('',#1293,#1295);
#1297=EDGE_CURVE('',#1284,#1292,#1296,.T.);
#1298=ORIENTED_EDGE('',*,*,#1297,.T.);
#1299=CARTESIAN_POINT('',(5.7,-0.6,0.25));
#1300=DIRECTION('',(-1.0,0.0,0.0));
#1301=VECTOR('',#1300,4.220000000000001);
#1302=LINE('',#1299,#1301);
#1303=EDGE_CURVE('',#1276,#1292,#1302,.T.);
#1304=ORIENTED_EDGE('',*,*,#1303,.F.);
#1305=EDGE_LOOP('',(#1282,#1290,#1298,#1304));
#1306=FACE_OUTER_BOUND('',#1305,.T.);
#1307=ADVANCED_FACE('',(#1306),#1272,.F.);
#1308=CARTESIAN_POINT('',(1.48,-0.6,0.05));
#1309=DIRECTION('',(-1.0,0.0,0.0));
#1310=DIRECTION('',(0.0,0.0,1.0));
#1311=AXIS2_PLACEMENT_3D('',#1308,#1309,#1310);
#1312=PLANE('',#1311);
#1313=CARTESIAN_POINT('',(1.48,-0.6,0.25));
#1314=DIRECTION('',(0.0,1.0,0.0));
#1315=VECTOR('',#1314,1.2);
#1316=LINE('',#1313,#1315);
#1317=EDGE_CURVE('',#1292,#1244,#1316,.T.);
#1318=ORIENTED_EDGE('',*,*,#1317,.F.);
#1319=ORIENTED_EDGE('',*,*,#1297,.F.);
#1320=CARTESIAN_POINT('',(1.48,0.600000000000001,0.05));
#1321=DIRECTION('',(0.0,-1.0,0.0));
#1322=VECTOR('',#1321,1.2);
#1323=LINE('',#1320,#1322);
#1324=EDGE_CURVE('',#1252,#1284,#1323,.T.);
#1325=ORIENTED_EDGE('',*,*,#1324,.F.);
#1326=ORIENTED_EDGE('',*,*,#1257,.T.);
#1327=EDGE_LOOP('',(#1318,#1319,#1325,#1326));
#1328=FACE_OUTER_BOUND('',#1327,.T.);
#1329=ADVANCED_FACE('',(#1328),#1312,.F.);
#1330=CARTESIAN_POINT('',(3.84,-8.881784E-016,0.25));
#1331=DIRECTION('',(0.0,0.0,1.0));
#1332=DIRECTION('',(1.0,0.0,0.0));
#1333=AXIS2_PLACEMENT_3D('',#1330,#1331,#1332);
#1334=PLANE('',#1333);
#1335=CARTESIAN_POINT('',(5.7,-0.6,0.25));
#1336=DIRECTION('',(0.0,1.0,0.0));
#1337=VECTOR('',#1336,1.2);
#1338=LINE('',#1335,#1337);
#1339=EDGE_CURVE('',#1276,#1234,#1338,.T.);
#1340=ORIENTED_EDGE('',*,*,#1339,.F.);
#1341=ORIENTED_EDGE('',*,*,#1303,.T.);
#1342=ORIENTED_EDGE('',*,*,#1317,.T.);
#1343=ORIENTED_EDGE('',*,*,#1249,.T.);
#1344=EDGE_LOOP('',(#1340,#1341,#1342,#1343));
#1345=FACE_OUTER_BOUND('',#1344,.T.);
#1346=ADVANCED_FACE('',(#1345),#1334,.F.);
#1347=CARTESIAN_POINT('',(-5.7,-2.35,0.69));
#1348=CARTESIAN_POINT('',(-5.7,-2.35,0.05));
#1349=CARTESIAN_POINT('',(-5.7,2.35,0.69));
#1350=CARTESIAN_POINT('',(-5.7,2.35,0.05));
#1351=B_SPLINE_SURFACE_WITH_KNOTS('',1,1,((#1347,#1349),(#1348,#1350)),.UNSPECIFIED.,.F.,.F.,.U.,(2,2),(2,2),(0.0,0.64),(0.0,4.7),.UNSPECIFIED.);
#1352=ORIENTED_EDGE('',*,*,#1215,.T.);
#1353=ORIENTED_EDGE('',*,*,#1122,.T.);
#1354=ORIENTED_EDGE('',*,*,#1160,.T.);
#1355=CARTESIAN_POINT('',(-5.7,-2.35,0.05));
#1356=VERTEX_POINT('',#1355);
#1357=CARTESIAN_POINT('',(-5.7,-0.6,0.05));
#1358=DIRECTION('',(0.0,-1.0,0.0));
#1359=VECTOR('',#1358,1.75);
#1360=LINE('',#1357,#1359);
#1361=EDGE_CURVE('',#1155,#1356,#1360,.T.);
#1362=ORIENTED_EDGE('',*,*,#1361,.T.);
#1363=CARTESIAN_POINT('',(-5.7,-2.35,0.69));
#1364=VERTEX_POINT('',#1363);
#1365=CARTESIAN_POINT('',(-5.7,-2.35,0.69));
#1366=DIRECTION('',(0.0,0.0,-1.0));
#1367=VECTOR('',#1366,0.64);
#1368=LINE('',#1365,#1367);
#1369=EDGE_CURVE('',#1364,#1356,#1368,.T.);
#1370=ORIENTED_EDGE('',*,*,#1369,.F.);
#1371=CARTESIAN_POINT('',(-5.7,2.35,0.69));
#1372=VERTEX_POINT('',#1371);
#1373=CARTESIAN_POINT('',(-5.7,-2.35,0.69));
#1374=DIRECTION('',(0.0,1.0,0.0));
#1375=VECTOR('',#1374,4.7);
#1376=LINE('',#1373,#1375);
#1377=EDGE_CURVE('',#1364,#1372,#1376,.T.);
#1378=ORIENTED_EDGE('',*,*,#1377,.T.);
#1379=CARTESIAN_POINT('',(-5.7,2.35,0.05));
#1380=VERTEX_POINT('',#1379);
#1381=CARTESIAN_POINT('',(-5.7,2.35,0.69));
#1382=DIRECTION('',(0.0,0.0,-1.0));
#1383=VECTOR('',#1382,0.64);
#1384=LINE('',#1381,#1383);
#1385=EDGE_CURVE('',#1372,#1380,#1384,.T.);
#1386=ORIENTED_EDGE('',*,*,#1385,.T.);
#1387=CARTESIAN_POINT('',(-5.7,2.35,0.05));
#1388=DIRECTION('',(0.0,-1.0,0.0));
#1389=VECTOR('',#1388,1.75);
#1390=LINE('',#1387,#1389);
#1391=EDGE_CURVE('',#1380,#1210,#1390,.T.);
#1392=ORIENTED_EDGE('',*,*,#1391,.T.);
#1393=EDGE_LOOP('',(#1352,#1353,#1354,#1362,#1370,#1378,#1386,#1392));
#1394=FACE_OUTER_BOUND('',#1393,.T.);
#1395=ADVANCED_FACE('',(#1394),#1351,.F.);
#1396=CARTESIAN_POINT('',(-5.7,-2.35,0.69));
#1397=CARTESIAN_POINT('',(5.7,-2.35,0.69));
#1398=CARTESIAN_POINT('',(-5.7,2.35,0.69));
#1399=CARTESIAN_POINT('',(5.7,2.35,0.69));
#1400=B_SPLINE_SURFACE_WITH_KNOTS('',1,1,((#1396,#1398),(#1397,#1399)),.UNSPECIFIED.,.F.,.F.,.U.,(2,2),(2,2),(0.0,11.4),(0.0,4.7),.UNSPECIFIED.);
#1401=CARTESIAN_POINT('',(5.7,2.35,0.69));
#1402=VERTEX_POINT('',#1401);
#1403=CARTESIAN_POINT('',(5.7,-2.35,0.69));
#1404=VERTEX_POINT('',#1403);
#1405=CARTESIAN_POINT('',(5.7,2.35,0.69));
#1406=DIRECTION('',(0.0,-1.0,0.0));
#1407=VECTOR('',#1406,4.7);
#1408=LINE('',#1405,#1407);
#1409=EDGE_CURVE('',#1402,#1404,#1408,.T.);
#1410=ORIENTED_EDGE('',*,*,#1409,.F.);
#1411=CARTESIAN_POINT('',(-5.7,2.35,0.69));
#1412=DIRECTION('',(1.0,0.0,0.0));
#1413=VECTOR('',#1412,11.4);
#1414=LINE('',#1411,#1413);
#1415=EDGE_CURVE('',#1372,#1402,#1414,.T.);
#1416=ORIENTED_EDGE('',*,*,#1415,.F.);
#1417=ORIENTED_EDGE('',*,*,#1377,.F.);
#1418=CARTESIAN_POINT('',(5.7,-2.35,0.69));
#1419=DIRECTION('',(-1.0,0.0,0.0));
#1420=VECTOR('',#1419,11.4);
#1421=LINE('',#1418,#1420);
#1422=EDGE_CURVE('',#1404,#1364,#1421,.T.);
#1423=ORIENTED_EDGE('',*,*,#1422,.F.);
#1424=EDGE_LOOP('',(#1410,#1416,#1417,#1423));
#1425=FACE_OUTER_BOUND('',#1424,.T.);
#1426=ADVANCED_FACE('',(#1425),#1400,.T.);
#1427=CARTESIAN_POINT('',(-5.7,-2.35,0.05));
#1428=CARTESIAN_POINT('',(5.700000000000002,-2.35,0.05));
#1429=CARTESIAN_POINT('',(-5.7,2.35,0.05));
#1430=CARTESIAN_POINT('',(5.700000000000002,2.35,0.05));
#1431=B_SPLINE_SURFACE_WITH_KNOTS('',1,1,((#1427,#1429),(#1428,#1430)),.UNSPECIFIED.,.F.,.F.,.U.,(2,2),(2,2),(0.0,11.400000000000002),(0.0,4.7),.UNSPECIFIED.);
#1432=ORIENTED_EDGE('',*,*,#1221,.T.);
#1433=ORIENTED_EDGE('',*,*,#1391,.F.);
#1434=CARTESIAN_POINT('',(5.7,2.35,0.05));
#1435=VERTEX_POINT('',#1434);
#1436=CARTESIAN_POINT('',(5.7,2.35,0.05));
#1437=DIRECTION('',(-1.0,0.0,0.0));
#1438=VECTOR('',#1437,11.4);
#1439=LINE('',#1436,#1438);
#1440=EDGE_CURVE('',#1435,#1380,#1439,.T.);
#1441=ORIENTED_EDGE('',*,*,#1440,.F.);
#1442=CARTESIAN_POINT('',(5.7,0.600000000000001,0.05));
#1443=DIRECTION('',(0.0,1.0,0.0));
#1444=VECTOR('',#1443,1.75);
#1445=LINE('',#1442,#1444);
#1446=EDGE_CURVE('',#1236,#1435,#1445,.T.);
#1447=ORIENTED_EDGE('',*,*,#1446,.F.);
#1448=ORIENTED_EDGE('',*,*,#1263,.T.);
#1449=ORIENTED_EDGE('',*,*,#1324,.T.);
#1450=ORIENTED_EDGE('',*,*,#1289,.T.);
#1451=CARTESIAN_POINT('',(5.7,-2.35,0.05));
#1452=VERTEX_POINT('',#1451);
#1453=CARTESIAN_POINT('',(5.7,-2.35,0.05));
#1454=DIRECTION('',(0.0,1.0,0.0));
#1455=VECTOR('',#1454,1.75);
#1456=LINE('',#1453,#1455);
#1457=EDGE_CURVE('',#1452,#1274,#1456,.T.);
#1458=ORIENTED_EDGE('',*,*,#1457,.F.);
#1459=CARTESIAN_POINT('',(-5.7,-2.35,0.05));
#1460=DIRECTION('',(1.0,0.0,0.0));
#1461=VECTOR('',#1460,11.4);
#1462=LINE('',#1459,#1461);
#1463=EDGE_CURVE('',#1356,#1452,#1462,.T.);
#1464=ORIENTED_EDGE('',*,*,#1463,.F.);
#1465=ORIENTED_EDGE('',*,*,#1361,.F.);
#1466=ORIENTED_EDGE('',*,*,#1175,.T.);
#1467=ORIENTED_EDGE('',*,*,#1198,.T.);
#1468=EDGE_LOOP('',(#1432,#1433,#1441,#1447,#1448,#1449,#1450,#1458,#1464,#1465,#1466,#1467));
#1469=FACE_OUTER_BOUND('',#1468,.T.);
#1470=ADVANCED_FACE('',(#1469),#1431,.F.);
#1471=CARTESIAN_POINT('',(5.7,2.35,0.05));
#1472=CARTESIAN_POINT('',(5.7,2.35,0.69));
#1473=CARTESIAN_POINT('',(-5.7,2.35,0.05));
#1474=CARTESIAN_POINT('',(-5.7,2.35,0.69));
#1475=B_SPLINE_SURFACE_WITH_KNOTS('',1,1,((#1471,#1473),(#1472,#1474)),.UNSPECIFIED.,.F.,.F.,.U.,(2,2),(2,2),(0.0,0.64),(0.0,11.4),.UNSPECIFIED.);
#1476=ORIENTED_EDGE('',*,*,#1385,.F.);
#1477=ORIENTED_EDGE('',*,*,#1415,.T.);
#1478=CARTESIAN_POINT('',(5.7,2.35,0.69));
#1479=DIRECTION('',(0.0,0.0,-1.0));
#1480=VECTOR('',#1479,0.64);
#1481=LINE('',#1478,#1480);
#1482=EDGE_CURVE('',#1402,#1435,#1481,.T.);
#1483=ORIENTED_EDGE('',*,*,#1482,.T.);
#1484=ORIENTED_EDGE('',*,*,#1440,.T.);
#1485=EDGE_LOOP('',(#1476,#1477,#1483,#1484));
#1486=FACE_OUTER_BOUND('',#1485,.T.);
#1487=ADVANCED_FACE('',(#1486),#1475,.F.);
#1488=CARTESIAN_POINT('',(5.7,-2.35,0.69));
#1489=CARTESIAN_POINT('',(5.7,-2.35,0.05));
#1490=CARTESIAN_POINT('',(-5.7,-2.35,0.69));
#1491=CARTESIAN_POINT('',(-5.7,-2.35,0.05));
#1492=B_SPLINE_SURFACE_WITH_KNOTS('',1,1,((#1488,#1490),(#1489,#1491)),.UNSPECIFIED.,.F.,.F.,.U.,(2,2),(2,2),(0.0,0.64),(0.0,11.4),.UNSPECIFIED.);
#1493=CARTESIAN_POINT('',(5.7,-2.35,0.69));
#1494=DIRECTION('',(0.0,0.0,-1.0));
#1495=VECTOR('',#1494,0.64);
#1496=LINE('',#1493,#1495);
#1497=EDGE_CURVE('',#1404,#1452,#1496,.T.);
#1498=ORIENTED_EDGE('',*,*,#1497,.F.);
#1499=ORIENTED_EDGE('',*,*,#1422,.T.);
#1500=ORIENTED_EDGE('',*,*,#1369,.T.);
#1501=ORIENTED_EDGE('',*,*,#1463,.T.);
#1502=EDGE_LOOP('',(#1498,#1499,#1500,#1501));
#1503=FACE_OUTER_BOUND('',#1502,.T.);
#1504=ADVANCED_FACE('',(#1503),#1492,.F.);
#1505=CARTESIAN_POINT('',(5.7,-2.35,0.05));
#1506=CARTESIAN_POINT('',(5.7,-2.35,0.69));
#1507=CARTESIAN_POINT('',(5.7,2.35,0.05));
#1508=CARTESIAN_POINT('',(5.7,2.35,0.69));
#1509=B_SPLINE_SURFACE_WITH_KNOTS('',1,1,((#1505,#1507),(#1506,#1508)),.UNSPECIFIED.,.F.,.F.,.U.,(2,2),(2,2),(0.0,0.64),(0.0,4.7),.UNSPECIFIED.);
#1510=ORIENTED_EDGE('',*,*,#1241,.T.);
#1511=ORIENTED_EDGE('',*,*,#1446,.T.);
#1512=ORIENTED_EDGE('',*,*,#1482,.F.);
#1513=ORIENTED_EDGE('',*,*,#1409,.T.);
#1514=ORIENTED_EDGE('',*,*,#1497,.T.);
#1515=ORIENTED_EDGE('',*,*,#1457,.T.);
#1516=ORIENTED_EDGE('',*,*,#1281,.T.);
#1517=ORIENTED_EDGE('',*,*,#1339,.T.);
#1518=EDGE_LOOP('',(#1510,#1511,#1512,#1513,#1514,#1515,#1516,#1517));
#1519=FACE_OUTER_BOUND('',#1518,.T.);
#1520=ADVANCED_FACE('',(#1519),#1509,.F.);
#1521=CLOSED_SHELL('',(#1148,#1179,#1203,#1227,#1267,#1307,#1329,#1346,#1395,#1426,#1470,#1487,#1504,#1520));
#1522=MANIFOLD_SOLID_BREP('2B9F',#1521);
#1523=STYLED_ITEM('NONE',(#536),#1522);
#1524=ADVANCED_BREP_SHAPE_REPRESENTATION('ABSR1',(#214,#374,#529,#691,#850,#1107,#1522),#28);
#1525=SHAPE_REPRESENTATION_RELATIONSHIP('SRRPL1','',#1524,#62);
ENDSEC;
END-ISO-10303-21;
