ISO-10303-21;
HEADER;
/****************************************************************
 * Generated by software with PDE/Lib inside                    *
 * PDElib Version v51a, created Mon 11/23/2009                  *
 * ITI Transcendata (http://www.transcendata.com/)              *
 ****************************************************************/
FILE_DESCRIPTION((''),'2;1');
FILE_NAME('XTAL_JAUCH_SMU5.stp','2011-10-03T12:23:34',(''),(''),'Mechanical Desktop 2011','Mechanical Desktop 2011',', , ');
FILE_SCHEMA(('AUTOMOTIVE_DESIGN { 1 2 10303 214 1 1 1 1 }'));
ENDSEC;
DATA;
#10=(NAMED_UNIT(*)PLANE_ANGLE_UNIT()SI_UNIT($,.RADIAN.));
#11=DIMENSIONAL_EXPONENTS(0.0,0.0,0.0,0.0,0.0,0.0,0.0);
#12=PLANE_ANGLE_MEASURE_WITH_UNIT(PLANE_ANGLE_MEASURE(0.017453292500000),#10);
#16=(CONVERSION_BASED_UNIT('DEGREE',#12)NAMED_UNIT(#11)PLANE_ANGLE_UNIT());
#20=(NAMED_UNIT(*)SI_UNIT($,.STERADIAN.)SOLID_ANGLE_UNIT());
#24=(LENGTH_UNIT()NAMED_UNIT(*)SI_UNIT(.MILLI.,.METRE.));
#26=UNCERTAINTY_MEASURE_WITH_UNIT(LENGTH_MEASURE(0.000001000000000),#24,'DISTANCE_ACCURACY_VALUE','');
#28=(GEOMETRIC_REPRESENTATION_CONTEXT(3)GLOBAL_UNCERTAINTY_ASSIGNED_CONTEXT((#26))GLOBAL_UNIT_ASSIGNED_CONTEXT((#16,#20,#24))REPRESENTATION_CONTEXT('','3D'));
#29=APPLICATION_CONTEXT('automotive design');
#30=APPLICATION_PROTOCOL_DEFINITION('INTERNATIONAL_STANDARD','automotive_design',1998,#29);
#31=PRODUCT_CONTEXT('3D Mechanical Parts',#29,'mechanical');
#32=PRODUCT('Product','Product','',(#31));
#33=PRODUCT_RELATED_PRODUCT_CATEGORY('part',$,(#32));
#34=PRODUCT_CATEGORY('part',$);
#35=PERSON('1','Design','Joe',$,$,$);
#36=ORGANIZATION($,'None','None');
#37=PERSON_AND_ORGANIZATION(#35,#36);
#38=PERSON_AND_ORGANIZATION_ROLE('design_owner');
#39=APPLIED_PERSON_AND_ORGANIZATION_ASSIGNMENT(#37,#38,(#32));
#40=PRODUCT_DEFINITION_FORMATION_WITH_SPECIFIED_SOURCE('None','',#32,.BOUGHT.);
#41=PERSON('2','Creator','Joe',$,$,$);
#42=ORGANIZATION($,'None','None');
#43=PERSON_AND_ORGANIZATION(#41,#42);
#44=PERSON_AND_ORGANIZATION_ROLE('creator');
#45=APPLIED_PERSON_AND_ORGANIZATION_ASSIGNMENT(#43,#44,(#40));
#46=PERSON('3','Supplier','Joe',$,$,$);
#47=ORGANIZATION($,'None','None');
#48=PERSON_AND_ORGANIZATION(#46,#47);
#49=PERSON_AND_ORGANIZATION_ROLE('design_supplier');
#50=APPLIED_PERSON_AND_ORGANIZATION_ASSIGNMENT(#48,#49,(#40));
#51=PRODUCT_DEFINITION_CONTEXT('part definition',#29,'design');
#52=PRODUCT_DEFINITION('None','',#40,#51);
#53=PERSON('4','Creator','Joe',$,$,$);
#54=ORGANIZATION($,'None','None');
#55=PERSON_AND_ORGANIZATION(#53,#54);
#56=PERSON_AND_ORGANIZATION_ROLE('creator');
#57=APPLIED_PERSON_AND_ORGANIZATION_ASSIGNMENT(#55,#56,(#52));
#58=CARTESIAN_POINT('NONE',(0.0,0.0,0.0));
#59=DIRECTION('NONE',(0.0,0.0,1.0));
#60=DIRECTION('NONE',(1.0,0.0,0.0));
#61=AXIS2_PLACEMENT_3D('NONE',#58,#59,#60);
#62=SHAPE_REPRESENTATION('SR1',(#61),#28);
#63=PRODUCT_DEFINITION_SHAPE('PDS1','Test Part',#52);
#64=SHAPE_DEFINITION_REPRESENTATION(#63,#62);
#65=CARTESIAN_POINT('',(2.025000000000003,-1.100000000000005,4.600000000000000));
#66=DIRECTION('',(-1.0,2.193033E-016,0.0));
#67=DIRECTION('',(0.0,-0.707106781186548,0.707106781186548));
#68=AXIS2_PLACEMENT_3D('',#65,#66,#67);
#69=CYLINDRICAL_SURFACE('',#68,0.500000000000000);
#70=CARTESIAN_POINT('',(4.050000000000003,-1.600000000000005,4.600000000000000));
#71=VERTEX_POINT('',#70);
#72=CARTESIAN_POINT('',(4.050000000000003,-1.100000000000005,5.100000000000000));
#73=VERTEX_POINT('',#72);
#74=CARTESIAN_POINT('',(4.050000000000003,-1.100000000000005,4.600000000000000));
#75=DIRECTION('',(-1.0,0.0,0.0));
#76=DIRECTION('',(0.0,-1.0,0.0));
#77=AXIS2_PLACEMENT_3D('',#74,#75,#76);
#78=CIRCLE('',#77,0.500000000000000);
#79=EDGE_CURVE('',#71,#73,#78,.T.);
#80=ORIENTED_EDGE('',*,*,#79,.T.);
#81=CARTESIAN_POINT('',(-4.049999999999999,-1.100000000000003,5.100000000000000));
#82=VERTEX_POINT('',#81);
#83=CARTESIAN_POINT('',(4.050000000000003,-1.100000000000005,5.100000000000000));
#84=DIRECTION('',(-1.0,0.0,0.0));
#85=VECTOR('',#84,8.100000000000001);
#86=LINE('',#83,#85);
#87=EDGE_CURVE('',#73,#82,#86,.T.);
#88=ORIENTED_EDGE('',*,*,#87,.T.);
#89=CARTESIAN_POINT('',(-4.049999999999999,-1.600000000000003,4.600000000000000));
#90=VERTEX_POINT('',#89);
#91=CARTESIAN_POINT('',(-4.049999999999999,-1.100000000000003,4.600000000000000));
#92=DIRECTION('',(1.0,0.0,0.0));
#93=DIRECTION('',(0.0,0.0,1.0));
#94=AXIS2_PLACEMENT_3D('',#91,#92,#93);
#95=CIRCLE('',#94,0.500000000000000);
#96=EDGE_CURVE('',#82,#90,#95,.T.);
#97=ORIENTED_EDGE('',*,*,#96,.T.);
#98=CARTESIAN_POINT('',(-4.049999999999999,-1.600000000000003,4.600000000000000));
#99=DIRECTION('',(1.0,0.0,0.0));
#100=VECTOR('',#99,8.100000000000001);
#101=LINE('',#98,#100);
#102=EDGE_CURVE('',#90,#71,#101,.T.);
#103=ORIENTED_EDGE('',*,*,#102,.T.);
#104=EDGE_LOOP('',(#80,#88,#97,#103));
#105=FACE_OUTER_BOUND('',#104,.T.);
#106=ADVANCED_FACE('',(#105),#69,.T.);
#107=CARTESIAN_POINT('',(4.050000000000003,-4.440892E-015,4.600000000000000));
#108=DIRECTION('',(0.0,0.0,-1.0));
#109=DIRECTION('',(-1.0,0.0,0.0));
#110=AXIS2_PLACEMENT_3D('',#107,#108,#109);
#111=TOROIDAL_SURFACE('',#110,1.100000000000001,0.500000000000000);
#112=CARTESIAN_POINT('',(4.050000000000003,1.599999999999996,4.600000000000000));
#113=VERTEX_POINT('',#112);
#114=CARTESIAN_POINT('',(4.050000000000003,1.099999999999996,5.100000000000000));
#115=VERTEX_POINT('',#114);
#116=CARTESIAN_POINT('',(4.050000000000003,1.099999999999996,4.600000000000000));
#117=DIRECTION('',(1.0,0.0,0.0));
#118=DIRECTION('',(0.0,1.0,0.0));
#119=AXIS2_PLACEMENT_3D('',#116,#117,#118);
#120=CIRCLE('',#119,0.500000000000000);
#121=EDGE_CURVE('',#113,#115,#120,.T.);
#122=ORIENTED_EDGE('',*,*,#121,.T.);
#123=CARTESIAN_POINT('',(4.050000000000003,-4.440892E-015,5.100000000000000));
#124=DIRECTION('',(0.0,0.0,-1.0));
#125=DIRECTION('',(1.0,0.0,0.0));
#126=AXIS2_PLACEMENT_3D('',#123,#124,#125);
#127=CIRCLE('',#126,1.100000000000001);
#128=EDGE_CURVE('',#115,#73,#127,.T.);
#129=ORIENTED_EDGE('',*,*,#128,.T.);
#130=ORIENTED_EDGE('',*,*,#79,.F.);
#131=CARTESIAN_POINT('',(4.050000000000003,-4.440892E-015,4.600000000000000));
#132=DIRECTION('',(0.0,0.0,1.0));
#133=DIRECTION('',(1.0,0.0,0.0));
#134=AXIS2_PLACEMENT_3D('',#131,#132,#133);
#135=CIRCLE('',#134,1.600000000000001);
#136=EDGE_CURVE('',#71,#113,#135,.T.);
#137=ORIENTED_EDGE('',*,*,#136,.T.);
#138=EDGE_LOOP('',(#122,#129,#130,#137));
#139=FACE_OUTER_BOUND('',#138,.T.);
#140=ADVANCED_FACE('',(#139),#111,.T.);
#141=CARTESIAN_POINT('',(-4.049999999999999,-3.552714E-015,4.600000000000000));
#142=DIRECTION('',(0.0,0.0,-1.0));
#143=DIRECTION('',(-1.0,0.0,0.0));
#144=AXIS2_PLACEMENT_3D('',#141,#142,#143);
#145=TOROIDAL_SURFACE('',#144,1.100000000000000,0.500000000000000);
#146=CARTESIAN_POINT('',(-4.049999999999999,1.099999999999996,5.100000000000000));
#147=VERTEX_POINT('',#146);
#148=CARTESIAN_POINT('',(-4.049999999999999,1.599999999999996,4.600000000000000));
#149=VERTEX_POINT('',#148);
#150=CARTESIAN_POINT('',(-4.049999999999999,1.099999999999996,4.600000000000000));
#151=DIRECTION('',(-1.0,0.0,0.0));
#152=DIRECTION('',(0.0,0.0,1.0));
#153=AXIS2_PLACEMENT_3D('',#150,#151,#152);
#154=CIRCLE('',#153,0.500000000000000);
#155=EDGE_CURVE('',#147,#149,#154,.T.);
#156=ORIENTED_EDGE('',*,*,#155,.T.);
#157=CARTESIAN_POINT('',(-4.049999999999999,-3.552714E-015,4.600000000000000));
#158=DIRECTION('',(0.0,0.0,1.0));
#159=DIRECTION('',(-1.0,0.0,0.0));
#160=AXIS2_PLACEMENT_3D('',#157,#158,#159);
#161=CIRCLE('',#160,1.600000000000000);
#162=EDGE_CURVE('',#149,#90,#161,.T.);
#163=ORIENTED_EDGE('',*,*,#162,.T.);
#164=ORIENTED_EDGE('',*,*,#96,.F.);
#165=CARTESIAN_POINT('',(-4.049999999999999,-3.552714E-015,5.100000000000000));
#166=DIRECTION('',(0.0,0.0,-1.0));
#167=DIRECTION('',(-1.0,0.0,0.0));
#168=AXIS2_PLACEMENT_3D('',#165,#166,#167);
#169=CIRCLE('',#168,1.100000000000000);
#170=EDGE_CURVE('',#82,#147,#169,.T.);
#171=ORIENTED_EDGE('',*,*,#170,.T.);
#172=EDGE_LOOP('',(#156,#163,#164,#171));
#173=FACE_OUTER_BOUND('',#172,.T.);
#174=ADVANCED_FACE('',(#173),#145,.T.);
#175=CARTESIAN_POINT('',(-2.024999999999998,1.099999999999996,4.600000000000000));
#176=DIRECTION('',(1.0,0.0,0.0));
#177=DIRECTION('',(0.0,0.707106781186548,0.707106781186548));
#178=AXIS2_PLACEMENT_3D('',#175,#176,#177);
#179=CYLINDRICAL_SURFACE('',#178,0.500000000000000);
#180=ORIENTED_EDGE('',*,*,#121,.F.);
#181=CARTESIAN_POINT('',(4.050000000000003,1.599999999999996,4.600000000000000));
#182=DIRECTION('',(-1.0,0.0,0.0));
#183=VECTOR('',#182,8.100000000000001);
#184=LINE('',#181,#183);
#185=EDGE_CURVE('',#113,#149,#184,.T.);
#186=ORIENTED_EDGE('',*,*,#185,.T.);
#187=ORIENTED_EDGE('',*,*,#155,.F.);
#188=CARTESIAN_POINT('',(-4.049999999999999,1.099999999999996,5.100000000000000));
#189=DIRECTION('',(1.0,0.0,0.0));
#190=VECTOR('',#189,8.100000000000001);
#191=LINE('',#188,#190);
#192=EDGE_CURVE('',#147,#115,#191,.T.);
#193=ORIENTED_EDGE('',*,*,#192,.T.);
#194=EDGE_LOOP('',(#180,#186,#187,#193));
#195=FACE_OUTER_BOUND('',#194,.T.);
#196=ADVANCED_FACE('',(#195),#179,.T.);
#197=CARTESIAN_POINT('',(4.050000000000003,-4.440892E-015,2.0));
#198=DIRECTION('',(0.0,0.0,1.0));
#199=DIRECTION('',(1.0,0.0,0.0));
#200=AXIS2_PLACEMENT_3D('',#197,#198,#199);
#201=CYLINDRICAL_SURFACE('',#200,1.600000000000001);
#202=ORIENTED_EDGE('',*,*,#136,.F.);
#203=CARTESIAN_POINT('',(4.050000000000003,-1.600000000000005,2.0));
#204=VERTEX_POINT('',#203);
#205=CARTESIAN_POINT('',(4.050000000000003,-1.600000000000005,2.0));
#206=DIRECTION('',(0.0,0.0,1.0));
#207=VECTOR('',#206,2.600000000000000);
#208=LINE('',#205,#207);
#209=EDGE_CURVE('',#204,#71,#208,.T.);
#210=ORIENTED_EDGE('',*,*,#209,.F.);
#211=CARTESIAN_POINT('',(4.050000000000003,1.599999999999996,2.0));
#212=VERTEX_POINT('',#211);
#213=CARTESIAN_POINT('',(4.050000000000003,-4.440892E-015,2.0));
#214=DIRECTION('',(0.0,0.0,-1.0));
#215=DIRECTION('',(1.0,0.0,0.0));
#216=AXIS2_PLACEMENT_3D('',#213,#214,#215);
#217=CIRCLE('',#216,1.600000000000001);
#218=EDGE_CURVE('',#212,#204,#217,.T.);
#219=ORIENTED_EDGE('',*,*,#218,.F.);
#220=CARTESIAN_POINT('',(4.050000000000003,1.599999999999996,2.0));
#221=DIRECTION('',(0.0,0.0,1.0));
#222=VECTOR('',#221,2.600000000000000);
#223=LINE('',#220,#222);
#224=EDGE_CURVE('',#212,#113,#223,.T.);
#225=ORIENTED_EDGE('',*,*,#224,.T.);
#226=EDGE_LOOP('',(#202,#210,#219,#225));
#227=FACE_OUTER_BOUND('',#226,.T.);
#228=ADVANCED_FACE('',(#227),#201,.T.);
#229=CARTESIAN_POINT('',(4.050000000000003,-1.600000000000005,2.0));
#230=DIRECTION('',(0.0,-1.0,0.0));
#231=DIRECTION('',(0.0,0.0,-1.0));
#232=AXIS2_PLACEMENT_3D('',#229,#230,#231);
#233=PLANE('',#232);
#234=ORIENTED_EDGE('',*,*,#102,.F.);
#235=CARTESIAN_POINT('',(-4.049999999999999,-1.600000000000003,2.0));
#236=VERTEX_POINT('',#235);
#237=CARTESIAN_POINT('',(-4.049999999999999,-1.600000000000003,2.0));
#238=DIRECTION('',(0.0,0.0,1.0));
#239=VECTOR('',#238,2.600000000000000);
#240=LINE('',#237,#239);
#241=EDGE_CURVE('',#236,#90,#240,.T.);
#242=ORIENTED_EDGE('',*,*,#241,.F.);
#243=CARTESIAN_POINT('',(4.050000000000003,-1.600000000000005,2.0));
#244=DIRECTION('',(-1.0,0.0,0.0));
#245=VECTOR('',#244,8.100000000000001);
#246=LINE('',#243,#245);
#247=EDGE_CURVE('',#204,#236,#246,.T.);
#248=ORIENTED_EDGE('',*,*,#247,.F.);
#249=ORIENTED_EDGE('',*,*,#209,.T.);
#250=EDGE_LOOP('',(#234,#242,#248,#249));
#251=FACE_OUTER_BOUND('',#250,.T.);
#252=ADVANCED_FACE('',(#251),#233,.T.);
#253=CARTESIAN_POINT('',(2.331468E-015,-3.896002E-015,5.100000000000000));
#254=DIRECTION('',(0.0,0.0,1.0));
#255=DIRECTION('',(1.0,0.0,0.0));
#256=AXIS2_PLACEMENT_3D('',#253,#254,#255);
#257=PLANE('',#256);
#258=ORIENTED_EDGE('',*,*,#87,.F.);
#259=ORIENTED_EDGE('',*,*,#128,.F.);
#260=ORIENTED_EDGE('',*,*,#192,.F.);
#261=ORIENTED_EDGE('',*,*,#170,.F.);
#262=EDGE_LOOP('',(#258,#259,#260,#261));
#263=FACE_OUTER_BOUND('',#262,.T.);
#264=ADVANCED_FACE('',(#263),#257,.T.);
#265=CARTESIAN_POINT('',(-4.049999999999999,-3.552714E-015,2.0));
#266=DIRECTION('',(0.0,0.0,1.0));
#267=DIRECTION('',(-1.0,0.0,0.0));
#268=AXIS2_PLACEMENT_3D('',#265,#266,#267);
#269=CYLINDRICAL_SURFACE('',#268,1.600000000000000);
#270=ORIENTED_EDGE('',*,*,#162,.F.);
#271=CARTESIAN_POINT('',(-4.049999999999999,1.599999999999996,2.0));
#272=VERTEX_POINT('',#271);
#273=CARTESIAN_POINT('',(-4.049999999999999,1.599999999999996,2.0));
#274=DIRECTION('',(0.0,0.0,1.0));
#275=VECTOR('',#274,2.600000000000000);
#276=LINE('',#273,#275);
#277=EDGE_CURVE('',#272,#149,#276,.T.);
#278=ORIENTED_EDGE('',*,*,#277,.F.);
#279=CARTESIAN_POINT('',(-4.049999999999999,-3.552714E-015,2.0));
#280=DIRECTION('',(0.0,0.0,-1.0));
#281=DIRECTION('',(-1.0,0.0,0.0));
#282=AXIS2_PLACEMENT_3D('',#279,#280,#281);
#283=CIRCLE('',#282,1.600000000000000);
#284=EDGE_CURVE('',#236,#272,#283,.T.);
#285=ORIENTED_EDGE('',*,*,#284,.F.);
#286=ORIENTED_EDGE('',*,*,#241,.T.);
#287=EDGE_LOOP('',(#270,#278,#285,#286));
#288=FACE_OUTER_BOUND('',#287,.T.);
#289=ADVANCED_FACE('',(#288),#269,.T.);
#290=CARTESIAN_POINT('',(-4.049999999999999,1.599999999999996,2.0));
#291=DIRECTION('',(0.0,1.0,0.0));
#292=DIRECTION('',(0.0,0.0,1.0));
#293=AXIS2_PLACEMENT_3D('',#290,#291,#292);
#294=PLANE('',#293);
#295=ORIENTED_EDGE('',*,*,#185,.F.);
#296=ORIENTED_EDGE('',*,*,#224,.F.);
#297=CARTESIAN_POINT('',(-4.049999999999999,1.599999999999996,2.0));
#298=DIRECTION('',(1.0,0.0,0.0));
#299=VECTOR('',#298,8.100000000000001);
#300=LINE('',#297,#299);
#301=EDGE_CURVE('',#272,#212,#300,.T.);
#302=ORIENTED_EDGE('',*,*,#301,.F.);
#303=ORIENTED_EDGE('',*,*,#277,.T.);
#304=EDGE_LOOP('',(#295,#296,#302,#303));
#305=FACE_OUTER_BOUND('',#304,.T.);
#306=ADVANCED_FACE('',(#305),#294,.T.);
#307=CARTESIAN_POINT('',(2.331468E-015,-3.899524E-015,2.0));
#308=DIRECTION('',(0.0,0.0,1.0));
#309=DIRECTION('',(1.0,0.0,0.0));
#310=AXIS2_PLACEMENT_3D('',#307,#308,#309);
#311=PLANE('',#310);
#312=ORIENTED_EDGE('',*,*,#247,.T.);
#313=ORIENTED_EDGE('',*,*,#284,.T.);
#314=ORIENTED_EDGE('',*,*,#301,.T.);
#315=ORIENTED_EDGE('',*,*,#218,.T.);
#316=EDGE_LOOP('',(#312,#313,#314,#315));
#317=FACE_OUTER_BOUND('',#316,.T.);
#318=ADVANCED_FACE('',(#317),#311,.F.);
#319=CLOSED_SHELL('',(#106,#140,#174,#196,#228,#252,#264,#289,#306,#318));
#320=MANIFOLD_SOLID_BREP('CDB',#319);
#321=COLOUR_RGB('254',0.866000000000000,0.866000000000000,0.866000000000000);
#322=SURFACE_STYLE_USAGE(.BOTH.,#323);
#323=SURFACE_SIDE_STYLE('NONE',(#324));
#324=SURFACE_STYLE_FILL_AREA(#325);
#325=FILL_AREA_STYLE('NONE',(#326));
#326=FILL_AREA_STYLE_COLOUR('NONE',#321);
#327=PRESENTATION_STYLE_ASSIGNMENT((#322));
#328=STYLED_ITEM('NONE',(#327),#320);
#329=MECHANICAL_DESIGN_GEOMETRIC_PRESENTATION_REPRESENTATION('NONE',(#328,#481,#632,#783,#934,#1894,#2049),#28);
#330=PRESENTATION_LAYER_ASSIGNMENT('3D','None',(#320,#480,#631,#782,#933,#1886,#2048));
#331=CARTESIAN_POINT('',(-5.850000000000000,-2.600000000000000,0.0));
#332=DIRECTION('',(-1.0,0.0,0.0));
#333=DIRECTION('',(0.0,0.0,1.0));
#334=AXIS2_PLACEMENT_3D('',#331,#332,#333);
#335=PLANE('',#334);
#336=CARTESIAN_POINT('',(-5.850000000000000,-2.600000000000000,1.500000000000000));
#337=VERTEX_POINT('',#336);
#338=CARTESIAN_POINT('',(-5.850000000000000,-1.400000000000000,1.500000000000000));
#339=VERTEX_POINT('',#338);
#340=CARTESIAN_POINT('',(-5.850000000000000,-2.600000000000000,1.500000000000000));
#341=DIRECTION('',(0.0,1.0,0.0));
#342=VECTOR('',#341,1.200000000000000);
#343=LINE('',#340,#342);
#344=EDGE_CURVE('',#337,#339,#343,.T.);
#345=ORIENTED_EDGE('',*,*,#344,.T.);
#346=CARTESIAN_POINT('',(-5.850000000000000,-1.400000000000000,0.0));
#347=VERTEX_POINT('',#346);
#348=CARTESIAN_POINT('',(-5.850000000000000,-1.400000000000000,0.0));
#349=DIRECTION('',(0.0,0.0,1.0));
#350=VECTOR('',#349,1.500000000000000);
#351=LINE('',#348,#350);
#352=EDGE_CURVE('',#347,#339,#351,.T.);
#353=ORIENTED_EDGE('',*,*,#352,.F.);
#354=CARTESIAN_POINT('',(-5.850000000000000,-2.600000000000000,0.0));
#355=VERTEX_POINT('',#354);
#356=CARTESIAN_POINT('',(-5.850000000000000,-1.400000000000000,0.0));
#357=DIRECTION('',(0.0,-1.0,0.0));
#358=VECTOR('',#357,1.200000000000000);
#359=LINE('',#356,#358);
#360=EDGE_CURVE('',#347,#355,#359,.T.);
#361=ORIENTED_EDGE('',*,*,#360,.T.);
#362=CARTESIAN_POINT('',(-5.850000000000000,-2.600000000000000,0.0));
#363=DIRECTION('',(0.0,0.0,1.0));
#364=VECTOR('',#363,1.500000000000000);
#365=LINE('',#362,#364);
#366=EDGE_CURVE('',#355,#337,#365,.T.);
#367=ORIENTED_EDGE('',*,*,#366,.T.);
#368=EDGE_LOOP('',(#345,#353,#361,#367));
#369=FACE_OUTER_BOUND('',#368,.T.);
#370=ADVANCED_FACE('',(#369),#335,.T.);
#371=CARTESIAN_POINT('',(-5.850000000000000,-1.400000000000000,0.0));
#372=DIRECTION('',(0.0,1.0,0.0));
#373=DIRECTION('',(0.0,0.0,1.0));
#374=AXIS2_PLACEMENT_3D('',#371,#372,#373);
#375=PLANE('',#374);
#376=CARTESIAN_POINT('',(-4.250000000000000,-1.400000000000000,1.500000000000000));
#377=VERTEX_POINT('',#376);
#378=CARTESIAN_POINT('',(-5.850000000000000,-1.400000000000000,1.500000000000000));
#379=DIRECTION('',(1.0,0.0,0.0));
#380=VECTOR('',#379,1.600000000000000);
#381=LINE('',#378,#380);
#382=EDGE_CURVE('',#339,#377,#381,.T.);
#383=ORIENTED_EDGE('',*,*,#382,.T.);
#384=CARTESIAN_POINT('',(-4.250000000000000,-1.400000000000000,0.0));
#385=VERTEX_POINT('',#384);
#386=CARTESIAN_POINT('',(-4.250000000000000,-1.400000000000000,0.0));
#387=DIRECTION('',(0.0,0.0,1.0));
#388=VECTOR('',#387,1.500000000000000);
#389=LINE('',#386,#388);
#390=EDGE_CURVE('',#385,#377,#389,.T.);
#391=ORIENTED_EDGE('',*,*,#390,.F.);
#392=CARTESIAN_POINT('',(-4.250000000000000,-1.400000000000000,0.0));
#393=DIRECTION('',(-1.0,0.0,0.0));
#394=VECTOR('',#393,1.600000000000000);
#395=LINE('',#392,#394);
#396=EDGE_CURVE('',#385,#347,#395,.T.);
#397=ORIENTED_EDGE('',*,*,#396,.T.);
#398=ORIENTED_EDGE('',*,*,#352,.T.);
#399=EDGE_LOOP('',(#383,#391,#397,#398));
#400=FACE_OUTER_BOUND('',#399,.T.);
#401=ADVANCED_FACE('',(#400),#375,.T.);
#402=CARTESIAN_POINT('',(-4.250000000000000,-1.400000000000000,0.0));
#403=DIRECTION('',(1.0,0.0,0.0));
#404=DIRECTION('',(0.0,0.0,-1.0));
#405=AXIS2_PLACEMENT_3D('',#402,#403,#404);
#406=PLANE('',#405);
#407=CARTESIAN_POINT('',(-4.250000000000000,-2.600000000000000,1.500000000000000));
#408=VERTEX_POINT('',#407);
#409=CARTESIAN_POINT('',(-4.250000000000000,-1.400000000000000,1.500000000000000));
#410=DIRECTION('',(0.0,-1.0,0.0));
#411=VECTOR('',#410,1.200000000000000);
#412=LINE('',#409,#411);
#413=EDGE_CURVE('',#377,#408,#412,.T.);
#414=ORIENTED_EDGE('',*,*,#413,.T.);
#415=CARTESIAN_POINT('',(-4.250000000000000,-2.600000000000000,0.0));
#416=VERTEX_POINT('',#415);
#417=CARTESIAN_POINT('',(-4.250000000000000,-2.600000000000000,0.0));
#418=DIRECTION('',(0.0,0.0,1.0));
#419=VECTOR('',#418,1.500000000000000);
#420=LINE('',#417,#419);
#421=EDGE_CURVE('',#416,#408,#420,.T.);
#422=ORIENTED_EDGE('',*,*,#421,.F.);
#423=CARTESIAN_POINT('',(-4.250000000000000,-2.600000000000000,0.0));
#424=DIRECTION('',(0.0,1.0,0.0));
#425=VECTOR('',#424,1.200000000000000);
#426=LINE('',#423,#425);
#427=EDGE_CURVE('',#416,#385,#426,.T.);
#428=ORIENTED_EDGE('',*,*,#427,.T.);
#429=ORIENTED_EDGE('',*,*,#390,.T.);
#430=EDGE_LOOP('',(#414,#422,#428,#429));
#431=FACE_OUTER_BOUND('',#430,.T.);
#432=ADVANCED_FACE('',(#431),#406,.T.);
#433=CARTESIAN_POINT('',(-4.250000000000000,-2.600000000000000,0.0));
#434=DIRECTION('',(0.0,-1.0,0.0));
#435=DIRECTION('',(0.0,0.0,-1.0));
#436=AXIS2_PLACEMENT_3D('',#433,#434,#435);
#437=PLANE('',#436);
#438=CARTESIAN_POINT('',(-4.250000000000000,-2.600000000000000,1.500000000000000));
#439=DIRECTION('',(-1.0,0.0,0.0));
#440=VECTOR('',#439,1.600000000000000);
#441=LINE('',#438,#440);
#442=EDGE_CURVE('',#408,#337,#441,.T.);
#443=ORIENTED_EDGE('',*,*,#442,.T.);
#444=ORIENTED_EDGE('',*,*,#366,.F.);
#445=CARTESIAN_POINT('',(-5.850000000000000,-2.600000000000000,0.0));
#446=DIRECTION('',(1.0,0.0,0.0));
#447=VECTOR('',#446,1.600000000000000);
#448=LINE('',#445,#447);
#449=EDGE_CURVE('',#355,#416,#448,.T.);
#450=ORIENTED_EDGE('',*,*,#449,.T.);
#451=ORIENTED_EDGE('',*,*,#421,.T.);
#452=EDGE_LOOP('',(#443,#444,#450,#451));
#453=FACE_OUTER_BOUND('',#452,.T.);
#454=ADVANCED_FACE('',(#453),#437,.T.);
#455=CARTESIAN_POINT('',(-5.049999999999999,-2.000000000000000,0.0));
#456=DIRECTION('',(0.0,0.0,1.0));
#457=DIRECTION('',(1.0,0.0,0.0));
#458=AXIS2_PLACEMENT_3D('',#455,#456,#457);
#459=PLANE('',#458);
#460=ORIENTED_EDGE('',*,*,#449,.F.);
#461=ORIENTED_EDGE('',*,*,#360,.F.);
#462=ORIENTED_EDGE('',*,*,#396,.F.);
#463=ORIENTED_EDGE('',*,*,#427,.F.);
#464=EDGE_LOOP('',(#460,#461,#462,#463));
#465=FACE_OUTER_BOUND('',#464,.T.);
#466=ADVANCED_FACE('',(#465),#459,.F.);
#467=CARTESIAN_POINT('',(-5.049999999999999,-2.000000000000000,1.500000000000000));
#468=DIRECTION('',(0.0,0.0,1.0));
#469=DIRECTION('',(1.0,0.0,0.0));
#470=AXIS2_PLACEMENT_3D('',#467,#468,#469);
#471=PLANE('',#470);
#472=ORIENTED_EDGE('',*,*,#344,.F.);
#473=ORIENTED_EDGE('',*,*,#442,.F.);
#474=ORIENTED_EDGE('',*,*,#413,.F.);
#475=ORIENTED_EDGE('',*,*,#382,.F.);
#476=EDGE_LOOP('',(#472,#473,#474,#475));
#477=FACE_OUTER_BOUND('',#476,.T.);
#478=ADVANCED_FACE('',(#477),#471,.T.);
#479=CLOSED_SHELL('',(#370,#401,#432,#454,#466,#478));
#480=MANIFOLD_SOLID_BREP('CB0',#479);
#481=STYLED_ITEM('NONE',(#327),#480);
#482=CARTESIAN_POINT('',(2.850000000000000,-1.400000000000000,0.0));
#483=DIRECTION('',(0.0,1.0,0.0));
#484=DIRECTION('',(0.0,0.0,1.0));
#485=AXIS2_PLACEMENT_3D('',#482,#483,#484);
#486=PLANE('',#485);
#487=CARTESIAN_POINT('',(2.850000000000000,-1.400000000000000,1.500000000000000));
#488=VERTEX_POINT('',#487);
#489=CARTESIAN_POINT('',(5.850000000000000,-1.400000000000000,1.500000000000000));
#490=VERTEX_POINT('',#489);
#491=CARTESIAN_POINT('',(2.850000000000000,-1.400000000000000,1.500000000000000));
#492=DIRECTION('',(1.0,0.0,0.0));
#493=VECTOR('',#492,3.000000000000000);
#494=LINE('',#491,#493);
#495=EDGE_CURVE('',#488,#490,#494,.T.);
#496=ORIENTED_EDGE('',*,*,#495,.T.);
#497=CARTESIAN_POINT('',(5.850000000000000,-1.400000000000000,0.0));
#498=VERTEX_POINT('',#497);
#499=CARTESIAN_POINT('',(5.850000000000000,-1.400000000000000,0.0));
#500=DIRECTION('',(0.0,0.0,1.0));
#501=VECTOR('',#500,1.500000000000000);
#502=LINE('',#499,#501);
#503=EDGE_CURVE('',#498,#490,#502,.T.);
#504=ORIENTED_EDGE('',*,*,#503,.F.);
#505=CARTESIAN_POINT('',(2.850000000000000,-1.400000000000000,0.0));
#506=VERTEX_POINT('',#505);
#507=CARTESIAN_POINT('',(2.850000000000000,-1.400000000000000,0.0));
#508=DIRECTION('',(1.0,0.0,0.0));
#509=VECTOR('',#508,3.000000000000000);
#510=LINE('',#507,#509);
#511=EDGE_CURVE('',#506,#498,#510,.T.);
#512=ORIENTED_EDGE('',*,*,#511,.F.);
#513=CARTESIAN_POINT('',(2.850000000000000,-1.400000000000000,0.0));
#514=DIRECTION('',(0.0,0.0,1.0));
#515=VECTOR('',#514,1.500000000000000);
#516=LINE('',#513,#515);
#517=EDGE_CURVE('',#506,#488,#516,.T.);
#518=ORIENTED_EDGE('',*,*,#517,.T.);
#519=EDGE_LOOP('',(#496,#504,#512,#518));
#520=FACE_OUTER_BOUND('',#519,.T.);
#521=ADVANCED_FACE('',(#520),#486,.T.);
#522=CARTESIAN_POINT('',(5.850000000000000,-1.400000000000000,0.0));
#523=DIRECTION('',(1.0,0.0,0.0));
#524=DIRECTION('',(0.0,0.0,-1.0));
#525=AXIS2_PLACEMENT_3D('',#522,#523,#524);
#526=PLANE('',#525);
#527=CARTESIAN_POINT('',(5.850000000000000,-2.600000000000000,1.500000000000000));
#528=VERTEX_POINT('',#527);
#529=CARTESIAN_POINT('',(5.850000000000000,-1.400000000000000,1.500000000000000));
#530=DIRECTION('',(0.0,-1.0,0.0));
#531=VECTOR('',#530,1.200000000000000);
#532=LINE('',#529,#531);
#533=EDGE_CURVE('',#490,#528,#532,.T.);
#534=ORIENTED_EDGE('',*,*,#533,.T.);
#535=CARTESIAN_POINT('',(5.850000000000000,-2.600000000000000,0.0));
#536=VERTEX_POINT('',#535);
#537=CARTESIAN_POINT('',(5.850000000000000,-2.600000000000000,0.0));
#538=DIRECTION('',(0.0,0.0,1.0));
#539=VECTOR('',#538,1.500000000000000);
#540=LINE('',#537,#539);
#541=EDGE_CURVE('',#536,#528,#540,.T.);
#542=ORIENTED_EDGE('',*,*,#541,.F.);
#543=CARTESIAN_POINT('',(5.850000000000000,-1.400000000000000,0.0));
#544=DIRECTION('',(0.0,-1.0,0.0));
#545=VECTOR('',#544,1.200000000000000);
#546=LINE('',#543,#545);
#547=EDGE_CURVE('',#498,#536,#546,.T.);
#548=ORIENTED_EDGE('',*,*,#547,.F.);
#549=ORIENTED_EDGE('',*,*,#503,.T.);
#550=EDGE_LOOP('',(#534,#542,#548,#549));
#551=FACE_OUTER_BOUND('',#550,.T.);
#552=ADVANCED_FACE('',(#551),#526,.T.);
#553=CARTESIAN_POINT('',(5.850000000000000,-2.600000000000000,0.0));
#554=DIRECTION('',(0.0,-1.0,0.0));
#555=DIRECTION('',(0.0,0.0,-1.0));
#556=AXIS2_PLACEMENT_3D('',#553,#554,#555);
#557=PLANE('',#556);
#558=CARTESIAN_POINT('',(2.850000000000000,-2.600000000000000,1.500000000000000));
#559=VERTEX_POINT('',#558);
#560=CARTESIAN_POINT('',(5.850000000000000,-2.600000000000000,1.500000000000000));
#561=DIRECTION('',(-1.0,0.0,0.0));
#562=VECTOR('',#561,3.0);
#563=LINE('',#560,#562);
#564=EDGE_CURVE('',#528,#559,#563,.T.);
#565=ORIENTED_EDGE('',*,*,#564,.T.);
#566=CARTESIAN_POINT('',(2.850000000000000,-2.600000000000000,0.0));
#567=VERTEX_POINT('',#566);
#568=CARTESIAN_POINT('',(2.850000000000000,-2.600000000000000,0.0));
#569=DIRECTION('',(0.0,0.0,1.0));
#570=VECTOR('',#569,1.500000000000000);
#571=LINE('',#568,#570);
#572=EDGE_CURVE('',#567,#559,#571,.T.);
#573=ORIENTED_EDGE('',*,*,#572,.F.);
#574=CARTESIAN_POINT('',(5.850000000000000,-2.600000000000000,0.0));
#575=DIRECTION('',(-1.0,0.0,0.0));
#576=VECTOR('',#575,3.0);
#577=LINE('',#574,#576);
#578=EDGE_CURVE('',#536,#567,#577,.T.);
#579=ORIENTED_EDGE('',*,*,#578,.F.);
#580=ORIENTED_EDGE('',*,*,#541,.T.);
#581=EDGE_LOOP('',(#565,#573,#579,#580));
#582=FACE_OUTER_BOUND('',#581,.T.);
#583=ADVANCED_FACE('',(#582),#557,.T.);
#584=CARTESIAN_POINT('',(2.850000000000000,-2.600000000000000,0.0));
#585=DIRECTION('',(-1.0,0.0,0.0));
#586=DIRECTION('',(0.0,0.0,1.0));
#587=AXIS2_PLACEMENT_3D('',#584,#585,#586);
#588=PLANE('',#587);
#589=CARTESIAN_POINT('',(2.850000000000000,-2.600000000000000,1.500000000000000));
#590=DIRECTION('',(0.0,1.0,0.0));
#591=VECTOR('',#590,1.200000000000000);
#592=LINE('',#589,#591);
#593=EDGE_CURVE('',#559,#488,#592,.T.);
#594=ORIENTED_EDGE('',*,*,#593,.T.);
#595=ORIENTED_EDGE('',*,*,#517,.F.);
#596=CARTESIAN_POINT('',(2.850000000000000,-2.600000000000000,0.0));
#597=DIRECTION('',(0.0,1.0,0.0));
#598=VECTOR('',#597,1.200000000000000);
#599=LINE('',#596,#598);
#600=EDGE_CURVE('',#567,#506,#599,.T.);
#601=ORIENTED_EDGE('',*,*,#600,.F.);
#602=ORIENTED_EDGE('',*,*,#572,.T.);
#603=EDGE_LOOP('',(#594,#595,#601,#602));
#604=FACE_OUTER_BOUND('',#603,.T.);
#605=ADVANCED_FACE('',(#604),#588,.T.);
#606=CARTESIAN_POINT('',(4.350000000000000,-2.000000000000000,1.500000000000000));
#607=DIRECTION('',(0.0,0.0,1.0));
#608=DIRECTION('',(1.0,0.0,0.0));
#609=AXIS2_PLACEMENT_3D('',#606,#607,#608);
#610=PLANE('',#609);
#611=ORIENTED_EDGE('',*,*,#495,.F.);
#612=ORIENTED_EDGE('',*,*,#593,.F.);
#613=ORIENTED_EDGE('',*,*,#564,.F.);
#614=ORIENTED_EDGE('',*,*,#533,.F.);
#615=EDGE_LOOP('',(#611,#612,#613,#614));
#616=FACE_OUTER_BOUND('',#615,.T.);
#617=ADVANCED_FACE('',(#616),#610,.T.);
#618=CARTESIAN_POINT('',(4.350000000000000,-2.000000000000000,0.0));
#619=DIRECTION('',(0.0,0.0,1.0));
#620=DIRECTION('',(1.0,0.0,0.0));
#621=AXIS2_PLACEMENT_3D('',#618,#619,#620);
#622=PLANE('',#621);
#623=ORIENTED_EDGE('',*,*,#600,.T.);
#624=ORIENTED_EDGE('',*,*,#511,.T.);
#625=ORIENTED_EDGE('',*,*,#547,.T.);
#626=ORIENTED_EDGE('',*,*,#578,.T.);
#627=EDGE_LOOP('',(#623,#624,#625,#626));
#628=FACE_OUTER_BOUND('',#627,.T.);
#629=ADVANCED_FACE('',(#628),#622,.F.);
#630=CLOSED_SHELL('',(#521,#552,#583,#605,#617,#629));
#631=MANIFOLD_SOLID_BREP('CAC',#630);
#632=STYLED_ITEM('NONE',(#327),#631);
#633=CARTESIAN_POINT('',(2.850000000000000,2.600000000000000,0.0));
#634=DIRECTION('',(0.0,1.0,0.0));
#635=DIRECTION('',(0.0,0.0,1.0));
#636=AXIS2_PLACEMENT_3D('',#633,#634,#635);
#637=PLANE('',#636);
#638=CARTESIAN_POINT('',(2.850000000000000,2.600000000000000,1.500000000000000));
#639=VERTEX_POINT('',#638);
#640=CARTESIAN_POINT('',(5.850000000000000,2.600000000000000,1.500000000000000));
#641=VERTEX_POINT('',#640);
#642=CARTESIAN_POINT('',(2.850000000000000,2.600000000000000,1.500000000000000));
#643=DIRECTION('',(1.0,0.0,0.0));
#644=VECTOR('',#643,3.000000000000000);
#645=LINE('',#642,#644);
#646=EDGE_CURVE('',#639,#641,#645,.T.);
#647=ORIENTED_EDGE('',*,*,#646,.T.);
#648=CARTESIAN_POINT('',(5.850000000000000,2.600000000000000,0.0));
#649=VERTEX_POINT('',#648);
#650=CARTESIAN_POINT('',(5.850000000000000,2.600000000000000,0.0));
#651=DIRECTION('',(0.0,0.0,1.0));
#652=VECTOR('',#651,1.500000000000000);
#653=LINE('',#650,#652);
#654=EDGE_CURVE('',#649,#641,#653,.T.);
#655=ORIENTED_EDGE('',*,*,#654,.F.);
#656=CARTESIAN_POINT('',(2.850000000000000,2.600000000000000,0.0));
#657=VERTEX_POINT('',#656);
#658=CARTESIAN_POINT('',(2.850000000000000,2.600000000000000,0.0));
#659=DIRECTION('',(1.0,0.0,0.0));
#660=VECTOR('',#659,3.000000000000000);
#661=LINE('',#658,#660);
#662=EDGE_CURVE('',#657,#649,#661,.T.);
#663=ORIENTED_EDGE('',*,*,#662,.F.);
#664=CARTESIAN_POINT('',(2.850000000000000,2.600000000000000,0.0));
#665=DIRECTION('',(0.0,0.0,1.0));
#666=VECTOR('',#665,1.500000000000000);
#667=LINE('',#664,#666);
#668=EDGE_CURVE('',#657,#639,#667,.T.);
#669=ORIENTED_EDGE('',*,*,#668,.T.);
#670=EDGE_LOOP('',(#647,#655,#663,#669));
#671=FACE_OUTER_BOUND('',#670,.T.);
#672=ADVANCED_FACE('',(#671),#637,.T.);
#673=CARTESIAN_POINT('',(5.850000000000000,2.600000000000000,0.0));
#674=DIRECTION('',(1.0,0.0,0.0));
#675=DIRECTION('',(0.0,0.0,-1.0));
#676=AXIS2_PLACEMENT_3D('',#673,#674,#675);
#677=PLANE('',#676);
#678=CARTESIAN_POINT('',(5.850000000000000,1.400000000000000,1.500000000000000));
#679=VERTEX_POINT('',#678);
#680=CARTESIAN_POINT('',(5.850000000000000,2.600000000000000,1.500000000000000));
#681=DIRECTION('',(0.0,-1.0,0.0));
#682=VECTOR('',#681,1.200000000000000);
#683=LINE('',#680,#682);
#684=EDGE_CURVE('',#641,#679,#683,.T.);
#685=ORIENTED_EDGE('',*,*,#684,.T.);
#686=CARTESIAN_POINT('',(5.850000000000000,1.400000000000000,0.0));
#687=VERTEX_POINT('',#686);
#688=CARTESIAN_POINT('',(5.850000000000000,1.400000000000000,0.0));
#689=DIRECTION('',(0.0,0.0,1.0));
#690=VECTOR('',#689,1.500000000000000);
#691=LINE('',#688,#690);
#692=EDGE_CURVE('',#687,#679,#691,.T.);
#693=ORIENTED_EDGE('',*,*,#692,.F.);
#694=CARTESIAN_POINT('',(5.850000000000000,2.600000000000000,0.0));
#695=DIRECTION('',(0.0,-1.0,0.0));
#696=VECTOR('',#695,1.200000000000000);
#697=LINE('',#694,#696);
#698=EDGE_CURVE('',#649,#687,#697,.T.);
#699=ORIENTED_EDGE('',*,*,#698,.F.);
#700=ORIENTED_EDGE('',*,*,#654,.T.);
#701=EDGE_LOOP('',(#685,#693,#699,#700));
#702=FACE_OUTER_BOUND('',#701,.T.);
#703=ADVANCED_FACE('',(#702),#677,.T.);
#704=CARTESIAN_POINT('',(5.850000000000000,1.400000000000000,0.0));
#705=DIRECTION('',(0.0,-1.0,0.0));
#706=DIRECTION('',(0.0,0.0,-1.0));
#707=AXIS2_PLACEMENT_3D('',#704,#705,#706);
#708=PLANE('',#707);
#709=CARTESIAN_POINT('',(2.850000000000000,1.400000000000000,1.500000000000000));
#710=VERTEX_POINT('',#709);
#711=CARTESIAN_POINT('',(5.850000000000000,1.400000000000000,1.500000000000000));
#712=DIRECTION('',(-1.0,0.0,0.0));
#713=VECTOR('',#712,3.0);
#714=LINE('',#711,#713);
#715=EDGE_CURVE('',#679,#710,#714,.T.);
#716=ORIENTED_EDGE('',*,*,#715,.T.);
#717=CARTESIAN_POINT('',(2.850000000000000,1.400000000000000,0.0));
#718=VERTEX_POINT('',#717);
#719=CARTESIAN_POINT('',(2.850000000000000,1.400000000000000,0.0));
#720=DIRECTION('',(0.0,0.0,1.0));
#721=VECTOR('',#720,1.500000000000000);
#722=LINE('',#719,#721);
#723=EDGE_CURVE('',#718,#710,#722,.T.);
#724=ORIENTED_EDGE('',*,*,#723,.F.);
#725=CARTESIAN_POINT('',(5.850000000000000,1.400000000000000,0.0));
#726=DIRECTION('',(-1.0,0.0,0.0));
#727=VECTOR('',#726,3.0);
#728=LINE('',#725,#727);
#729=EDGE_CURVE('',#687,#718,#728,.T.);
#730=ORIENTED_EDGE('',*,*,#729,.F.);
#731=ORIENTED_EDGE('',*,*,#692,.T.);
#732=EDGE_LOOP('',(#716,#724,#730,#731));
#733=FACE_OUTER_BOUND('',#732,.T.);
#734=ADVANCED_FACE('',(#733),#708,.T.);
#735=CARTESIAN_POINT('',(2.850000000000000,1.400000000000000,0.0));
#736=DIRECTION('',(-1.0,0.0,0.0));
#737=DIRECTION('',(0.0,0.0,1.0));
#738=AXIS2_PLACEMENT_3D('',#735,#736,#737);
#739=PLANE('',#738);
#740=CARTESIAN_POINT('',(2.850000000000000,1.400000000000000,1.500000000000000));
#741=DIRECTION('',(0.0,1.0,0.0));
#742=VECTOR('',#741,1.200000000000000);
#743=LINE('',#740,#742);
#744=EDGE_CURVE('',#710,#639,#743,.T.);
#745=ORIENTED_EDGE('',*,*,#744,.T.);
#746=ORIENTED_EDGE('',*,*,#668,.F.);
#747=CARTESIAN_POINT('',(2.850000000000000,1.400000000000000,0.0));
#748=DIRECTION('',(0.0,1.0,0.0));
#749=VECTOR('',#748,1.200000000000000);
#750=LINE('',#747,#749);
#751=EDGE_CURVE('',#718,#657,#750,.T.);
#752=ORIENTED_EDGE('',*,*,#751,.F.);
#753=ORIENTED_EDGE('',*,*,#723,.T.);
#754=EDGE_LOOP('',(#745,#746,#752,#753));
#755=FACE_OUTER_BOUND('',#754,.T.);
#756=ADVANCED_FACE('',(#755),#739,.T.);
#757=CARTESIAN_POINT('',(4.350000000000000,2.0,1.500000000000000));
#758=DIRECTION('',(0.0,0.0,1.0));
#759=DIRECTION('',(1.0,0.0,0.0));
#760=AXIS2_PLACEMENT_3D('',#757,#758,#759);
#761=PLANE('',#760);
#762=ORIENTED_EDGE('',*,*,#646,.F.);
#763=ORIENTED_EDGE('',*,*,#744,.F.);
#764=ORIENTED_EDGE('',*,*,#715,.F.);
#765=ORIENTED_EDGE('',*,*,#684,.F.);
#766=EDGE_LOOP('',(#762,#763,#764,#765));
#767=FACE_OUTER_BOUND('',#766,.T.);
#768=ADVANCED_FACE('',(#767),#761,.T.);
#769=CARTESIAN_POINT('',(4.350000000000000,2.0,0.0));
#770=DIRECTION('',(0.0,0.0,1.0));
#771=DIRECTION('',(1.0,0.0,0.0));
#772=AXIS2_PLACEMENT_3D('',#769,#770,#771);
#773=PLANE('',#772);
#774=ORIENTED_EDGE('',*,*,#751,.T.);
#775=ORIENTED_EDGE('',*,*,#662,.T.);
#776=ORIENTED_EDGE('',*,*,#698,.T.);
#777=ORIENTED_EDGE('',*,*,#729,.T.);
#778=EDGE_LOOP('',(#774,#775,#776,#777));
#779=FACE_OUTER_BOUND('',#778,.T.);
#780=ADVANCED_FACE('',(#779),#773,.F.);
#781=CLOSED_SHELL('',(#672,#703,#734,#756,#768,#780));
#782=MANIFOLD_SOLID_BREP('CA8',#781);
#783=STYLED_ITEM('NONE',(#327),#782);
#784=CARTESIAN_POINT('',(-5.850000000000000,1.400000000000000,0.0));
#785=DIRECTION('',(-1.0,0.0,0.0));
#786=DIRECTION('',(0.0,0.0,1.0));
#787=AXIS2_PLACEMENT_3D('',#784,#785,#786);
#788=PLANE('',#787);
#789=CARTESIAN_POINT('',(-5.850000000000000,1.400000000000000,1.500000000000000));
#790=VERTEX_POINT('',#789);
#791=CARTESIAN_POINT('',(-5.850000000000000,2.600000000000000,1.500000000000000));
#792=VERTEX_POINT('',#791);
#793=CARTESIAN_POINT('',(-5.850000000000000,1.400000000000000,1.500000000000000));
#794=DIRECTION('',(0.0,1.0,0.0));
#795=VECTOR('',#794,1.200000000000000);
#796=LINE('',#793,#795);
#797=EDGE_CURVE('',#790,#792,#796,.T.);
#798=ORIENTED_EDGE('',*,*,#797,.T.);
#799=CARTESIAN_POINT('',(-5.850000000000000,2.600000000000000,0.0));
#800=VERTEX_POINT('',#799);
#801=CARTESIAN_POINT('',(-5.850000000000000,2.600000000000000,0.0));
#802=DIRECTION('',(0.0,0.0,1.0));
#803=VECTOR('',#802,1.500000000000000);
#804=LINE('',#801,#803);
#805=EDGE_CURVE('',#800,#792,#804,.T.);
#806=ORIENTED_EDGE('',*,*,#805,.F.);
#807=CARTESIAN_POINT('',(-5.850000000000000,1.400000000000000,0.0));
#808=VERTEX_POINT('',#807);
#809=CARTESIAN_POINT('',(-5.850000000000000,2.600000000000000,0.0));
#810=DIRECTION('',(0.0,-1.0,0.0));
#811=VECTOR('',#810,1.200000000000000);
#812=LINE('',#809,#811);
#813=EDGE_CURVE('',#800,#808,#812,.T.);
#814=ORIENTED_EDGE('',*,*,#813,.T.);
#815=CARTESIAN_POINT('',(-5.850000000000000,1.400000000000000,0.0));
#816=DIRECTION('',(0.0,0.0,1.0));
#817=VECTOR('',#816,1.500000000000000);
#818=LINE('',#815,#817);
#819=EDGE_CURVE('',#808,#790,#818,.T.);
#820=ORIENTED_EDGE('',*,*,#819,.T.);
#821=EDGE_LOOP('',(#798,#806,#814,#820));
#822=FACE_OUTER_BOUND('',#821,.T.);
#823=ADVANCED_FACE('',(#822),#788,.T.);
#824=CARTESIAN_POINT('',(-5.850000000000000,2.600000000000000,0.0));
#825=DIRECTION('',(0.0,1.0,0.0));
#826=DIRECTION('',(0.0,0.0,1.0));
#827=AXIS2_PLACEMENT_3D('',#824,#825,#826);
#828=PLANE('',#827);
#829=CARTESIAN_POINT('',(-4.250000000000000,2.600000000000000,1.500000000000000));
#830=VERTEX_POINT('',#829);
#831=CARTESIAN_POINT('',(-5.850000000000000,2.600000000000000,1.500000000000000));
#832=DIRECTION('',(1.0,0.0,0.0));
#833=VECTOR('',#832,1.600000000000000);
#834=LINE('',#831,#833);
#835=EDGE_CURVE('',#792,#830,#834,.T.);
#836=ORIENTED_EDGE('',*,*,#835,.T.);
#837=CARTESIAN_POINT('',(-4.250000000000000,2.600000000000000,0.0));
#838=VERTEX_POINT('',#837);
#839=CARTESIAN_POINT('',(-4.250000000000000,2.600000000000000,0.0));
#840=DIRECTION('',(0.0,0.0,1.0));
#841=VECTOR('',#840,1.500000000000000);
#842=LINE('',#839,#841);
#843=EDGE_CURVE('',#838,#830,#842,.T.);
#844=ORIENTED_EDGE('',*,*,#843,.F.);
#845=CARTESIAN_POINT('',(-4.250000000000000,2.600000000000000,0.0));
#846=DIRECTION('',(-1.0,0.0,0.0));
#847=VECTOR('',#846,1.600000000000000);
#848=LINE('',#845,#847);
#849=EDGE_CURVE('',#838,#800,#848,.T.);
#850=ORIENTED_EDGE('',*,*,#849,.T.);
#851=ORIENTED_EDGE('',*,*,#805,.T.);
#852=EDGE_LOOP('',(#836,#844,#850,#851));
#853=FACE_OUTER_BOUND('',#852,.T.);
#854=ADVANCED_FACE('',(#853),#828,.T.);
#855=CARTESIAN_POINT('',(-4.250000000000000,2.600000000000000,0.0));
#856=DIRECTION('',(1.0,0.0,0.0));
#857=DIRECTION('',(0.0,0.0,-1.0));
#858=AXIS2_PLACEMENT_3D('',#855,#856,#857);
#859=PLANE('',#858);
#860=CARTESIAN_POINT('',(-4.250000000000000,1.400000000000000,1.500000000000000));
#861=VERTEX_POINT('',#860);
#862=CARTESIAN_POINT('',(-4.250000000000000,2.600000000000000,1.500000000000000));
#863=DIRECTION('',(0.0,-1.0,0.0));
#864=VECTOR('',#863,1.200000000000000);
#865=LINE('',#862,#864);
#866=EDGE_CURVE('',#830,#861,#865,.T.);
#867=ORIENTED_EDGE('',*,*,#866,.T.);
#868=CARTESIAN_POINT('',(-4.250000000000000,1.400000000000000,0.0));
#869=VERTEX_POINT('',#868);
#870=CARTESIAN_POINT('',(-4.250000000000000,1.400000000000000,0.0));
#871=DIRECTION('',(0.0,0.0,1.0));
#872=VECTOR('',#871,1.500000000000000);
#873=LINE('',#870,#872);
#874=EDGE_CURVE('',#869,#861,#873,.T.);
#875=ORIENTED_EDGE('',*,*,#874,.F.);
#876=CARTESIAN_POINT('',(-4.250000000000000,1.400000000000000,0.0));
#877=DIRECTION('',(0.0,1.0,0.0));
#878=VECTOR('',#877,1.200000000000000);
#879=LINE('',#876,#878);
#880=EDGE_CURVE('',#869,#838,#879,.T.);
#881=ORIENTED_EDGE('',*,*,#880,.T.);
#882=ORIENTED_EDGE('',*,*,#843,.T.);
#883=EDGE_LOOP('',(#867,#875,#881,#882));
#884=FACE_OUTER_BOUND('',#883,.T.);
#885=ADVANCED_FACE('',(#884),#859,.T.);
#886=CARTESIAN_POINT('',(-4.250000000000000,1.400000000000000,0.0));
#887=DIRECTION('',(0.0,-1.0,0.0));
#888=DIRECTION('',(0.0,0.0,-1.0));
#889=AXIS2_PLACEMENT_3D('',#886,#887,#888);
#890=PLANE('',#889);
#891=CARTESIAN_POINT('',(-4.250000000000000,1.400000000000000,1.500000000000000));
#892=DIRECTION('',(-1.0,0.0,0.0));
#893=VECTOR('',#892,1.600000000000000);
#894=LINE('',#891,#893);
#895=EDGE_CURVE('',#861,#790,#894,.T.);
#896=ORIENTED_EDGE('',*,*,#895,.T.);
#897=ORIENTED_EDGE('',*,*,#819,.F.);
#898=CARTESIAN_POINT('',(-5.850000000000000,1.400000000000000,0.0));
#899=DIRECTION('',(1.0,0.0,0.0));
#900=VECTOR('',#899,1.600000000000000);
#901=LINE('',#898,#900);
#902=EDGE_CURVE('',#808,#869,#901,.T.);
#903=ORIENTED_EDGE('',*,*,#902,.T.);
#904=ORIENTED_EDGE('',*,*,#874,.T.);
#905=EDGE_LOOP('',(#896,#897,#903,#904));
#906=FACE_OUTER_BOUND('',#905,.T.);
#907=ADVANCED_FACE('',(#906),#890,.T.);
#908=CARTESIAN_POINT('',(-5.049999999999999,2.0,0.0));
#909=DIRECTION('',(0.0,0.0,1.0));
#910=DIRECTION('',(1.0,0.0,0.0));
#911=AXIS2_PLACEMENT_3D('',#908,#909,#910);
#912=PLANE('',#911);
#913=ORIENTED_EDGE('',*,*,#902,.F.);
#914=ORIENTED_EDGE('',*,*,#813,.F.);
#915=ORIENTED_EDGE('',*,*,#849,.F.);
#916=ORIENTED_EDGE('',*,*,#880,.F.);
#917=EDGE_LOOP('',(#913,#914,#915,#916));
#918=FACE_OUTER_BOUND('',#917,.T.);
#919=ADVANCED_FACE('',(#918),#912,.F.);
#920=CARTESIAN_POINT('',(-5.049999999999999,2.000000000000000,1.500000000000000));
#921=DIRECTION('',(0.0,0.0,1.0));
#922=DIRECTION('',(1.0,0.0,0.0));
#923=AXIS2_PLACEMENT_3D('',#920,#921,#922);
#924=PLANE('',#923);
#925=ORIENTED_EDGE('',*,*,#797,.F.);
#926=ORIENTED_EDGE('',*,*,#895,.F.);
#927=ORIENTED_EDGE('',*,*,#866,.F.);
#928=ORIENTED_EDGE('',*,*,#835,.F.);
#929=EDGE_LOOP('',(#925,#926,#927,#928));
#930=FACE_OUTER_BOUND('',#929,.T.);
#931=ADVANCED_FACE('',(#930),#924,.T.);
#932=CLOSED_SHELL('',(#823,#854,#885,#907,#919,#931));
#933=MANIFOLD_SOLID_BREP('CA4',#932);
#934=STYLED_ITEM('NONE',(#327),#933);
#935=CARTESIAN_POINT('',(-4.250000000000000,1.400000000000000,0.0));
#936=DIRECTION('',(0.0,-1.0,0.0));
#937=DIRECTION('',(0.0,0.0,-1.0));
#938=AXIS2_PLACEMENT_3D('',#935,#936,#937);
#939=PLANE('',#938);
#940=CARTESIAN_POINT('',(-4.250000000000000,1.400000000000000,1.500000000000000));
#941=VERTEX_POINT('',#940);
#942=CARTESIAN_POINT('',(-5.850000000000000,1.400000000000000,1.500000000000000));
#943=VERTEX_POINT('',#942);
#944=CARTESIAN_POINT('',(-4.250000000000000,1.400000000000000,1.500000000000000));
#945=DIRECTION('',(-1.0,0.0,0.0));
#946=VECTOR('',#945,1.600000000000000);
#947=LINE('',#944,#946);
#948=EDGE_CURVE('',#941,#943,#947,.T.);
#949=ORIENTED_EDGE('',*,*,#948,.F.);
#950=CARTESIAN_POINT('',(-4.250000000000000,1.400000000000000,0.050000000000000));
#951=VERTEX_POINT('',#950);
#952=CARTESIAN_POINT('',(-4.250000000000000,1.400000000000000,0.050000000000000));
#953=DIRECTION('',(0.0,0.0,1.0));
#954=VECTOR('',#953,1.450000000000000);
#955=LINE('',#952,#954);
#956=EDGE_CURVE('',#951,#941,#955,.T.);
#957=ORIENTED_EDGE('',*,*,#956,.F.);
#958=CARTESIAN_POINT('',(-5.850000000000000,1.400000000000000,0.050000000000000));
#959=VERTEX_POINT('',#958);
#960=CARTESIAN_POINT('',(-5.850000000000000,1.400000000000000,0.050000000000000));
#961=DIRECTION('',(1.0,0.0,0.0));
#962=VECTOR('',#961,1.600000000000000);
#963=LINE('',#960,#962);
#964=EDGE_CURVE('',#959,#951,#963,.T.);
#965=ORIENTED_EDGE('',*,*,#964,.F.);
#966=CARTESIAN_POINT('',(-5.850000000000000,1.400000000000000,0.050000000000000));
#967=DIRECTION('',(0.0,0.0,1.0));
#968=VECTOR('',#967,1.450000000000000);
#969=LINE('',#966,#968);
#970=EDGE_CURVE('',#959,#943,#969,.T.);
#971=ORIENTED_EDGE('',*,*,#970,.T.);
#972=EDGE_LOOP('',(#949,#957,#965,#971));
#973=FACE_OUTER_BOUND('',#972,.T.);
#974=ADVANCED_FACE('',(#973),#939,.F.);
#975=CARTESIAN_POINT('',(-5.850000000000000,1.400000000000000,0.0));
#976=DIRECTION('',(-1.0,0.0,0.0));
#977=DIRECTION('',(0.0,0.0,1.0));
#978=AXIS2_PLACEMENT_3D('',#975,#976,#977);
#979=PLANE('',#978);
#980=CARTESIAN_POINT('',(-5.850000000000000,2.600000000000000,1.500000000000000));
#981=VERTEX_POINT('',#980);
#982=CARTESIAN_POINT('',(-5.850000000000000,1.400000000000000,1.500000000000000));
#983=DIRECTION('',(0.0,1.0,0.0));
#984=VECTOR('',#983,1.200000000000000);
#985=LINE('',#982,#984);
#986=EDGE_CURVE('',#943,#981,#985,.T.);
#987=ORIENTED_EDGE('',*,*,#986,.F.);
#988=ORIENTED_EDGE('',*,*,#970,.F.);
#989=CARTESIAN_POINT('',(-5.850000000000000,2.600000000000000,0.050000000000000));
#990=VERTEX_POINT('',#989);
#991=CARTESIAN_POINT('',(-5.850000000000000,2.600000000000000,0.050000000000000));
#992=DIRECTION('',(0.0,-1.0,0.0));
#993=VECTOR('',#992,1.200000000000000);
#994=LINE('',#991,#993);
#995=EDGE_CURVE('',#990,#959,#994,.T.);
#996=ORIENTED_EDGE('',*,*,#995,.F.);
#997=CARTESIAN_POINT('',(-5.850000000000000,2.600000000000000,1.500000000000000));
#998=DIRECTION('',(0.0,0.0,-1.0));
#999=VECTOR('',#998,1.450000000000000);
#1000=LINE('',#997,#999);
#1001=EDGE_CURVE('',#981,#990,#1000,.T.);
#1002=ORIENTED_EDGE('',*,*,#1001,.F.);
#1003=EDGE_LOOP('',(#987,#988,#996,#1002));
#1004=FACE_OUTER_BOUND('',#1003,.T.);
#1005=ADVANCED_FACE('',(#1004),#979,.F.);
#1006=CARTESIAN_POINT('',(-6.150000000000000,2.100000000000000,0.0));
#1007=DIRECTION('',(0.0,0.0,1.0));
#1008=DIRECTION('',(-0.707106781186548,0.707106781186548,0.0));
#1009=AXIS2_PLACEMENT_3D('',#1006,#1007,#1008);
#1010=CYLINDRICAL_SURFACE('',#1009,0.500000000000000);
#1011=CARTESIAN_POINT('',(-6.650000000000000,2.100000000000000,2.0));
#1012=VERTEX_POINT('',#1011);
#1013=CARTESIAN_POINT('',(-6.150000000000000,2.600000000000000,2.0));
#1014=VERTEX_POINT('',#1013);
#1015=CARTESIAN_POINT('',(-6.150000000000000,2.100000000000000,2.0));
#1016=DIRECTION('',(0.0,0.0,-1.000000000000000));
#1017=DIRECTION('',(-0.707106781186548,0.707106781186548,0.0));
#1018=AXIS2_PLACEMENT_3D('',#1015,#1016,#1017);
#1019=CIRCLE('',#1018,0.500000000000000);
#1020=EDGE_CURVE('',#1012,#1014,#1019,.T.);
#1021=ORIENTED_EDGE('',*,*,#1020,.T.);
#1022=CARTESIAN_POINT('',(-6.150000000000000,2.600000000000000,0.050000000000000));
#1023=VERTEX_POINT('',#1022);
#1024=CARTESIAN_POINT('',(-6.150000000000000,2.600000000000000,2.0));
#1025=DIRECTION('',(0.0,0.0,-1.0));
#1026=VECTOR('',#1025,1.950000000000000);
#1027=LINE('',#1024,#1026);
#1028=EDGE_CURVE('',#1014,#1023,#1027,.T.);
#1029=ORIENTED_EDGE('',*,*,#1028,.T.);
#1030=CARTESIAN_POINT('',(-6.650000000000000,2.100000000000000,0.050000000000000));
#1031=VERTEX_POINT('',#1030);
#1032=CARTESIAN_POINT('',(-6.150000000000000,2.100000000000000,0.050000000000000));
#1033=DIRECTION('',(0.0,0.0,1.000000000000000));
#1034=DIRECTION('',(-0.707106781186548,0.707106781186548,0.0));
#1035=AXIS2_PLACEMENT_3D('',#1032,#1033,#1034);
#1036=CIRCLE('',#1035,0.500000000000000);
#1037=EDGE_CURVE('',#1023,#1031,#1036,.T.);
#1038=ORIENTED_EDGE('',*,*,#1037,.T.);
#1039=CARTESIAN_POINT('',(-6.650000000000000,2.100000000000000,0.050000000000000));
#1040=DIRECTION('',(0.0,0.0,1.0));
#1041=VECTOR('',#1040,1.950000000000000);
#1042=LINE('',#1039,#1041);
#1043=EDGE_CURVE('',#1031,#1012,#1042,.T.);
#1044=ORIENTED_EDGE('',*,*,#1043,.T.);
#1045=EDGE_LOOP('',(#1021,#1029,#1038,#1044));
#1046=FACE_OUTER_BOUND('',#1045,.T.);
#1047=ADVANCED_FACE('',(#1046),#1010,.T.);
#1048=CARTESIAN_POINT('',(-6.650000000000000,-2.600000000000000,0.0));
#1049=DIRECTION('',(-1.0,0.0,0.0));
#1050=DIRECTION('',(0.0,0.0,1.0));
#1051=AXIS2_PLACEMENT_3D('',#1048,#1049,#1050);
#1052=PLANE('',#1051);
#1053=ORIENTED_EDGE('',*,*,#1043,.F.);
#1054=CARTESIAN_POINT('',(-6.650000000000000,-2.100000000000000,0.050000000000000));
#1055=VERTEX_POINT('',#1054);
#1056=CARTESIAN_POINT('',(-6.650000000000000,-2.100000000000000,0.050000000000000));
#1057=DIRECTION('',(0.0,1.0,0.0));
#1058=VECTOR('',#1057,4.200000000000000);
#1059=LINE('',#1056,#1058);
#1060=EDGE_CURVE('',#1055,#1031,#1059,.T.);
#1061=ORIENTED_EDGE('',*,*,#1060,.F.);
#1062=CARTESIAN_POINT('',(-6.650000000000000,-2.100000000000000,2.0));
#1063=VERTEX_POINT('',#1062);
#1064=CARTESIAN_POINT('',(-6.650000000000000,-2.100000000000000,2.0));
#1065=DIRECTION('',(0.0,0.0,-1.0));
#1066=VECTOR('',#1065,1.950000000000000);
#1067=LINE('',#1064,#1066);
#1068=EDGE_CURVE('',#1063,#1055,#1067,.T.);
#1069=ORIENTED_EDGE('',*,*,#1068,.F.);
#1070=CARTESIAN_POINT('',(-6.650000000000000,-2.100000000000000,2.0));
#1071=DIRECTION('',(0.0,1.0,0.0));
#1072=VECTOR('',#1071,4.200000000000000);
#1073=LINE('',#1070,#1072);
#1074=EDGE_CURVE('',#1063,#1012,#1073,.T.);
#1075=ORIENTED_EDGE('',*,*,#1074,.T.);
#1076=EDGE_LOOP('',(#1053,#1061,#1069,#1075));
#1077=FACE_OUTER_BOUND('',#1076,.T.);
#1078=ADVANCED_FACE('',(#1077),#1052,.T.);
#1079=CARTESIAN_POINT('',(-6.150000000000000,-2.100000000000000,0.0));
#1080=DIRECTION('',(0.0,0.0,1.0));
#1081=DIRECTION('',(-0.707106781186548,-0.707106781186548,0.0));
#1082=AXIS2_PLACEMENT_3D('',#1079,#1080,#1081);
#1083=CYLINDRICAL_SURFACE('',#1082,0.500000000000000);
#1084=CARTESIAN_POINT('',(-6.150000000000000,-2.600000000000000,2.0));
#1085=VERTEX_POINT('',#1084);
#1086=CARTESIAN_POINT('',(-6.150000000000000,-2.100000000000000,2.0));
#1087=DIRECTION('',(0.0,0.0,-1.000000000000000));
#1088=DIRECTION('',(-0.707106781186548,-0.707106781186548,0.0));
#1089=AXIS2_PLACEMENT_3D('',#1086,#1087,#1088);
#1090=CIRCLE('',#1089,0.500000000000000);
#1091=EDGE_CURVE('',#1085,#1063,#1090,.T.);
#1092=ORIENTED_EDGE('',*,*,#1091,.T.);
#1093=ORIENTED_EDGE('',*,*,#1068,.T.);
#1094=CARTESIAN_POINT('',(-6.150000000000000,-2.600000000000000,0.050000000000000));
#1095=VERTEX_POINT('',#1094);
#1096=CARTESIAN_POINT('',(-6.150000000000000,-2.100000000000000,0.050000000000000));
#1097=DIRECTION('',(0.0,0.0,1.000000000000000));
#1098=DIRECTION('',(-0.707106781186548,-0.707106781186548,0.0));
#1099=AXIS2_PLACEMENT_3D('',#1096,#1097,#1098);
#1100=CIRCLE('',#1099,0.500000000000000);
#1101=EDGE_CURVE('',#1055,#1095,#1100,.T.);
#1102=ORIENTED_EDGE('',*,*,#1101,.T.);
#1103=CARTESIAN_POINT('',(-6.150000000000000,-2.600000000000000,0.050000000000000));
#1104=DIRECTION('',(0.0,0.0,1.0));
#1105=VECTOR('',#1104,1.950000000000000);
#1106=LINE('',#1103,#1105);
#1107=EDGE_CURVE('',#1095,#1085,#1106,.T.);
#1108=ORIENTED_EDGE('',*,*,#1107,.T.);
#1109=EDGE_LOOP('',(#1092,#1093,#1102,#1108));
#1110=FACE_OUTER_BOUND('',#1109,.T.);
#1111=ADVANCED_FACE('',(#1110),#1083,.T.);
#1112=CARTESIAN_POINT('',(-5.850000000000000,-2.600000000000000,0.0));
#1113=DIRECTION('',(-1.0,0.0,0.0));
#1114=DIRECTION('',(0.0,0.0,1.0));
#1115=AXIS2_PLACEMENT_3D('',#1112,#1113,#1114);
#1116=PLANE('',#1115);
#1117=CARTESIAN_POINT('',(-5.850000000000000,-2.600000000000000,1.500000000000000));
#1118=VERTEX_POINT('',#1117);
#1119=CARTESIAN_POINT('',(-5.850000000000000,-1.400000000000000,1.500000000000000));
#1120=VERTEX_POINT('',#1119);
#1121=CARTESIAN_POINT('',(-5.850000000000000,-2.600000000000000,1.500000000000000));
#1122=DIRECTION('',(0.0,1.0,0.0));
#1123=VECTOR('',#1122,1.200000000000000);
#1124=LINE('',#1121,#1123);
#1125=EDGE_CURVE('',#1118,#1120,#1124,.T.);
#1126=ORIENTED_EDGE('',*,*,#1125,.F.);
#1127=CARTESIAN_POINT('',(-5.850000000000000,-2.600000000000000,0.050000000000000));
#1128=VERTEX_POINT('',#1127);
#1129=CARTESIAN_POINT('',(-5.850000000000000,-2.600000000000000,0.050000000000000));
#1130=DIRECTION('',(0.0,0.0,1.0));
#1131=VECTOR('',#1130,1.450000000000000);
#1132=LINE('',#1129,#1131);
#1133=EDGE_CURVE('',#1128,#1118,#1132,.T.);
#1134=ORIENTED_EDGE('',*,*,#1133,.F.);
#1135=CARTESIAN_POINT('',(-5.850000000000000,-1.400000000000000,0.050000000000000));
#1136=VERTEX_POINT('',#1135);
#1137=CARTESIAN_POINT('',(-5.850000000000000,-1.400000000000000,0.050000000000000));
#1138=DIRECTION('',(0.0,-1.0,0.0));
#1139=VECTOR('',#1138,1.200000000000000);
#1140=LINE('',#1137,#1139);
#1141=EDGE_CURVE('',#1136,#1128,#1140,.T.);
#1142=ORIENTED_EDGE('',*,*,#1141,.F.);
#1143=CARTESIAN_POINT('',(-5.850000000000000,-1.400000000000000,0.050000000000000));
#1144=DIRECTION('',(0.0,0.0,1.0));
#1145=VECTOR('',#1144,1.450000000000000);
#1146=LINE('',#1143,#1145);
#1147=EDGE_CURVE('',#1136,#1120,#1146,.T.);
#1148=ORIENTED_EDGE('',*,*,#1147,.T.);
#1149=EDGE_LOOP('',(#1126,#1134,#1142,#1148));
#1150=FACE_OUTER_BOUND('',#1149,.T.);
#1151=ADVANCED_FACE('',(#1150),#1116,.F.);
#1152=CARTESIAN_POINT('',(-5.850000000000000,-1.400000000000000,0.0));
#1153=DIRECTION('',(0.0,1.0,0.0));
#1154=DIRECTION('',(0.0,0.0,1.0));
#1155=AXIS2_PLACEMENT_3D('',#1152,#1153,#1154);
#1156=PLANE('',#1155);
#1157=CARTESIAN_POINT('',(-4.250000000000000,-1.400000000000000,1.500000000000000));
#1158=VERTEX_POINT('',#1157);
#1159=CARTESIAN_POINT('',(-5.850000000000000,-1.400000000000000,1.500000000000000));
#1160=DIRECTION('',(1.0,0.0,0.0));
#1161=VECTOR('',#1160,1.600000000000000);
#1162=LINE('',#1159,#1161);
#1163=EDGE_CURVE('',#1120,#1158,#1162,.T.);
#1164=ORIENTED_EDGE('',*,*,#1163,.F.);
#1165=ORIENTED_EDGE('',*,*,#1147,.F.);
#1166=CARTESIAN_POINT('',(-4.250000000000000,-1.400000000000000,0.050000000000000));
#1167=VERTEX_POINT('',#1166);
#1168=CARTESIAN_POINT('',(-4.250000000000000,-1.400000000000000,0.050000000000000));
#1169=DIRECTION('',(-1.0,0.0,0.0));
#1170=VECTOR('',#1169,1.600000000000000);
#1171=LINE('',#1168,#1170);
#1172=EDGE_CURVE('',#1167,#1136,#1171,.T.);
#1173=ORIENTED_EDGE('',*,*,#1172,.F.);
#1174=CARTESIAN_POINT('',(-4.250000000000000,-1.400000000000000,0.050000000000000));
#1175=DIRECTION('',(0.0,0.0,1.0));
#1176=VECTOR('',#1175,1.450000000000000);
#1177=LINE('',#1174,#1176);
#1178=EDGE_CURVE('',#1167,#1158,#1177,.T.);
#1179=ORIENTED_EDGE('',*,*,#1178,.T.);
#1180=EDGE_LOOP('',(#1164,#1165,#1173,#1179));
#1181=FACE_OUTER_BOUND('',#1180,.T.);
#1182=ADVANCED_FACE('',(#1181),#1156,.F.);
#1183=CARTESIAN_POINT('',(-4.250000000000000,-1.400000000000000,0.0));
#1184=DIRECTION('',(1.0,0.0,0.0));
#1185=DIRECTION('',(0.0,0.0,-1.0));
#1186=AXIS2_PLACEMENT_3D('',#1183,#1184,#1185);
#1187=PLANE('',#1186);
#1188=CARTESIAN_POINT('',(-4.250000000000000,-2.600000000000000,1.500000000000000));
#1189=VERTEX_POINT('',#1188);
#1190=CARTESIAN_POINT('',(-4.250000000000000,-1.400000000000000,1.500000000000000));
#1191=DIRECTION('',(0.0,-1.0,0.0));
#1192=VECTOR('',#1191,1.200000000000000);
#1193=LINE('',#1190,#1192);
#1194=EDGE_CURVE('',#1158,#1189,#1193,.T.);
#1195=ORIENTED_EDGE('',*,*,#1194,.F.);
#1196=ORIENTED_EDGE('',*,*,#1178,.F.);
#1197=CARTESIAN_POINT('',(-4.250000000000000,-2.600000000000000,0.050000000000000));
#1198=VERTEX_POINT('',#1197);
#1199=CARTESIAN_POINT('',(-4.250000000000000,-2.600000000000000,0.050000000000000));
#1200=DIRECTION('',(0.0,1.0,0.0));
#1201=VECTOR('',#1200,1.200000000000000);
#1202=LINE('',#1199,#1201);
#1203=EDGE_CURVE('',#1198,#1167,#1202,.T.);
#1204=ORIENTED_EDGE('',*,*,#1203,.F.);
#1205=CARTESIAN_POINT('',(-4.250000000000000,-2.600000000000000,1.500000000000000));
#1206=DIRECTION('',(0.0,0.0,-1.0));
#1207=VECTOR('',#1206,1.450000000000000);
#1208=LINE('',#1205,#1207);
#1209=EDGE_CURVE('',#1189,#1198,#1208,.T.);
#1210=ORIENTED_EDGE('',*,*,#1209,.F.);
#1211=EDGE_LOOP('',(#1195,#1196,#1204,#1210));
#1212=FACE_OUTER_BOUND('',#1211,.T.);
#1213=ADVANCED_FACE('',(#1212),#1187,.F.);
#1214=CARTESIAN_POINT('',(2.850000000000000,-2.600000000000000,0.0));
#1215=DIRECTION('',(-1.0,0.0,0.0));
#1216=DIRECTION('',(0.0,0.0,1.0));
#1217=AXIS2_PLACEMENT_3D('',#1214,#1215,#1216);
#1218=PLANE('',#1217);
#1219=CARTESIAN_POINT('',(2.850000000000000,-2.600000000000000,1.500000000000000));
#1220=VERTEX_POINT('',#1219);
#1221=CARTESIAN_POINT('',(2.850000000000000,-1.400000000000000,1.500000000000000));
#1222=VERTEX_POINT('',#1221);
#1223=CARTESIAN_POINT('',(2.850000000000000,-2.600000000000000,1.500000000000000));
#1224=DIRECTION('',(0.0,1.0,0.0));
#1225=VECTOR('',#1224,1.200000000000000);
#1226=LINE('',#1223,#1225);
#1227=EDGE_CURVE('',#1220,#1222,#1226,.T.);
#1228=ORIENTED_EDGE('',*,*,#1227,.F.);
#1229=CARTESIAN_POINT('',(2.850000000000000,-2.600000000000000,0.050000000000000));
#1230=VERTEX_POINT('',#1229);
#1231=CARTESIAN_POINT('',(2.850000000000000,-2.600000000000000,0.050000000000000));
#1232=DIRECTION('',(0.0,0.0,1.0));
#1233=VECTOR('',#1232,1.450000000000000);
#1234=LINE('',#1231,#1233);
#1235=EDGE_CURVE('',#1230,#1220,#1234,.T.);
#1236=ORIENTED_EDGE('',*,*,#1235,.F.);
#1237=CARTESIAN_POINT('',(2.850000000000000,-1.400000000000000,0.050000000000000));
#1238=VERTEX_POINT('',#1237);
#1239=CARTESIAN_POINT('',(2.850000000000000,-1.400000000000000,0.050000000000000));
#1240=DIRECTION('',(0.0,-1.0,0.0));
#1241=VECTOR('',#1240,1.200000000000000);
#1242=LINE('',#1239,#1241);
#1243=EDGE_CURVE('',#1238,#1230,#1242,.T.);
#1244=ORIENTED_EDGE('',*,*,#1243,.F.);
#1245=CARTESIAN_POINT('',(2.850000000000000,-1.400000000000000,0.050000000000000));
#1246=DIRECTION('',(0.0,0.0,1.0));
#1247=VECTOR('',#1246,1.450000000000000);
#1248=LINE('',#1245,#1247);
#1249=EDGE_CURVE('',#1238,#1222,#1248,.T.);
#1250=ORIENTED_EDGE('',*,*,#1249,.T.);
#1251=EDGE_LOOP('',(#1228,#1236,#1244,#1250));
#1252=FACE_OUTER_BOUND('',#1251,.T.);
#1253=ADVANCED_FACE('',(#1252),#1218,.F.);
#1254=CARTESIAN_POINT('',(2.850000000000000,-1.400000000000000,0.0));
#1255=DIRECTION('',(0.0,1.0,0.0));
#1256=DIRECTION('',(0.0,0.0,1.0));
#1257=AXIS2_PLACEMENT_3D('',#1254,#1255,#1256);
#1258=PLANE('',#1257);
#1259=CARTESIAN_POINT('',(5.850000000000000,-1.400000000000000,1.500000000000000));
#1260=VERTEX_POINT('',#1259);
#1261=CARTESIAN_POINT('',(2.850000000000000,-1.400000000000000,1.500000000000000));
#1262=DIRECTION('',(1.0,0.0,0.0));
#1263=VECTOR('',#1262,3.000000000000000);
#1264=LINE('',#1261,#1263);
#1265=EDGE_CURVE('',#1222,#1260,#1264,.T.);
#1266=ORIENTED_EDGE('',*,*,#1265,.F.);
#1267=ORIENTED_EDGE('',*,*,#1249,.F.);
#1268=CARTESIAN_POINT('',(5.850000000000000,-1.400000000000000,0.050000000000000));
#1269=VERTEX_POINT('',#1268);
#1270=CARTESIAN_POINT('',(5.850000000000000,-1.400000000000000,0.050000000000000));
#1271=DIRECTION('',(-1.0,0.0,0.0));
#1272=VECTOR('',#1271,3.000000000000000);
#1273=LINE('',#1270,#1272);
#1274=EDGE_CURVE('',#1269,#1238,#1273,.T.);
#1275=ORIENTED_EDGE('',*,*,#1274,.F.);
#1276=CARTESIAN_POINT('',(5.850000000000000,-1.400000000000000,0.050000000000000));
#1277=DIRECTION('',(0.0,0.0,1.0));
#1278=VECTOR('',#1277,1.450000000000000);
#1279=LINE('',#1276,#1278);
#1280=EDGE_CURVE('',#1269,#1260,#1279,.T.);
#1281=ORIENTED_EDGE('',*,*,#1280,.T.);
#1282=EDGE_LOOP('',(#1266,#1267,#1275,#1281));
#1283=FACE_OUTER_BOUND('',#1282,.T.);
#1284=ADVANCED_FACE('',(#1283),#1258,.F.);
#1285=CARTESIAN_POINT('',(5.850000000000000,-1.400000000000000,0.0));
#1286=DIRECTION('',(1.0,0.0,0.0));
#1287=DIRECTION('',(0.0,0.0,-1.0));
#1288=AXIS2_PLACEMENT_3D('',#1285,#1286,#1287);
#1289=PLANE('',#1288);
#1290=CARTESIAN_POINT('',(5.850000000000000,-2.600000000000000,1.500000000000000));
#1291=VERTEX_POINT('',#1290);
#1292=CARTESIAN_POINT('',(5.850000000000000,-1.400000000000000,1.500000000000000));
#1293=DIRECTION('',(0.0,-1.0,0.0));
#1294=VECTOR('',#1293,1.200000000000000);
#1295=LINE('',#1292,#1294);
#1296=EDGE_CURVE('',#1260,#1291,#1295,.T.);
#1297=ORIENTED_EDGE('',*,*,#1296,.F.);
#1298=ORIENTED_EDGE('',*,*,#1280,.F.);
#1299=CARTESIAN_POINT('',(5.850000000000000,-2.600000000000000,0.050000000000000));
#1300=VERTEX_POINT('',#1299);
#1301=CARTESIAN_POINT('',(5.850000000000000,-2.600000000000000,0.050000000000000));
#1302=DIRECTION('',(0.0,1.0,0.0));
#1303=VECTOR('',#1302,1.200000000000000);
#1304=LINE('',#1301,#1303);
#1305=EDGE_CURVE('',#1300,#1269,#1304,.T.);
#1306=ORIENTED_EDGE('',*,*,#1305,.F.);
#1307=CARTESIAN_POINT('',(5.850000000000000,-2.600000000000000,1.500000000000000));
#1308=DIRECTION('',(0.0,0.0,-1.0));
#1309=VECTOR('',#1308,1.450000000000000);
#1310=LINE('',#1307,#1309);
#1311=EDGE_CURVE('',#1291,#1300,#1310,.T.);
#1312=ORIENTED_EDGE('',*,*,#1311,.F.);
#1313=EDGE_LOOP('',(#1297,#1298,#1306,#1312));
#1314=FACE_OUTER_BOUND('',#1313,.T.);
#1315=ADVANCED_FACE('',(#1314),#1289,.F.);
#1316=CARTESIAN_POINT('',(6.650000000000000,-2.600000000000000,0.0));
#1317=DIRECTION('',(0.0,-1.0,0.0));
#1318=DIRECTION('',(0.0,0.0,-1.0));
#1319=AXIS2_PLACEMENT_3D('',#1316,#1317,#1318);
#1320=PLANE('',#1319);
#1321=ORIENTED_EDGE('',*,*,#1235,.T.);
#1322=CARTESIAN_POINT('',(2.850000000000000,-2.600000000000000,1.500000000000000));
#1323=DIRECTION('',(1.0,0.0,0.0));
#1324=VECTOR('',#1323,3.000000000000000);
#1325=LINE('',#1322,#1324);
#1326=EDGE_CURVE('',#1220,#1291,#1325,.T.);
#1327=ORIENTED_EDGE('',*,*,#1326,.T.);
#1328=ORIENTED_EDGE('',*,*,#1311,.T.);
#1329=CARTESIAN_POINT('',(6.200000000000000,-2.600000000000000,0.050000000000000));
#1330=VERTEX_POINT('',#1329);
#1331=CARTESIAN_POINT('',(6.200000000000000,-2.600000000000000,0.050000000000000));
#1332=DIRECTION('',(-1.0,0.0,0.0));
#1333=VECTOR('',#1332,0.350000000000001);
#1334=LINE('',#1331,#1333);
#1335=EDGE_CURVE('',#1330,#1300,#1334,.T.);
#1336=ORIENTED_EDGE('',*,*,#1335,.F.);
#1337=CARTESIAN_POINT('',(6.200000000000000,-2.600000000000000,1.500000000000000));
#1338=VERTEX_POINT('',#1337);
#1339=CARTESIAN_POINT('',(6.200000000000000,-2.600000000000000,0.050000000000000));
#1340=DIRECTION('',(0.0,0.0,1.0));
#1341=VECTOR('',#1340,1.450000000000000);
#1342=LINE('',#1339,#1341);
#1343=EDGE_CURVE('',#1330,#1338,#1342,.T.);
#1344=ORIENTED_EDGE('',*,*,#1343,.T.);
#1345=CARTESIAN_POINT('',(6.150000000000000,-2.600000000000000,1.500000000000000));
#1346=VERTEX_POINT('',#1345);
#1347=CARTESIAN_POINT('',(6.200000000000000,-2.600000000000000,1.500000000000000));
#1348=DIRECTION('',(-1.0,0.0,0.0));
#1349=VECTOR('',#1348,0.050000000000000);
#1350=LINE('',#1347,#1349);
#1351=EDGE_CURVE('',#1338,#1346,#1350,.T.);
#1352=ORIENTED_EDGE('',*,*,#1351,.T.);
#1353=CARTESIAN_POINT('',(6.150000000000000,-2.600000000000000,2.0));
#1354=VERTEX_POINT('',#1353);
#1355=CARTESIAN_POINT('',(6.150000000000000,-2.600000000000000,2.0));
#1356=DIRECTION('',(0.0,0.0,-1.0));
#1357=VECTOR('',#1356,0.500000000000000);
#1358=LINE('',#1355,#1357);
#1359=EDGE_CURVE('',#1354,#1346,#1358,.T.);
#1360=ORIENTED_EDGE('',*,*,#1359,.F.);
#1361=CARTESIAN_POINT('',(6.150000000000000,-2.600000000000000,2.0));
#1362=DIRECTION('',(-1.0,0.0,0.0));
#1363=VECTOR('',#1362,12.300000000000001);
#1364=LINE('',#1361,#1363);
#1365=EDGE_CURVE('',#1354,#1085,#1364,.T.);
#1366=ORIENTED_EDGE('',*,*,#1365,.T.);
#1367=ORIENTED_EDGE('',*,*,#1107,.F.);
#1368=CARTESIAN_POINT('',(-5.850000000000000,-2.600000000000000,0.050000000000000));
#1369=DIRECTION('',(-1.0,0.0,0.0));
#1370=VECTOR('',#1369,0.300000000000001);
#1371=LINE('',#1368,#1370);
#1372=EDGE_CURVE('',#1128,#1095,#1371,.T.);
#1373=ORIENTED_EDGE('',*,*,#1372,.F.);
#1374=ORIENTED_EDGE('',*,*,#1133,.T.);
#1375=CARTESIAN_POINT('',(-5.850000000000000,-2.600000000000000,1.500000000000000));
#1376=DIRECTION('',(1.0,0.0,0.0));
#1377=VECTOR('',#1376,1.600000000000000);
#1378=LINE('',#1375,#1377);
#1379=EDGE_CURVE('',#1118,#1189,#1378,.T.);
#1380=ORIENTED_EDGE('',*,*,#1379,.T.);
#1381=ORIENTED_EDGE('',*,*,#1209,.T.);
#1382=CARTESIAN_POINT('',(2.850000000000000,-2.600000000000000,0.050000000000000));
#1383=DIRECTION('',(-1.0,0.0,0.0));
#1384=VECTOR('',#1383,7.100000000000000);
#1385=LINE('',#1382,#1384);
#1386=EDGE_CURVE('',#1230,#1198,#1385,.T.);
#1387=ORIENTED_EDGE('',*,*,#1386,.F.);
#1388=EDGE_LOOP('',(#1321,#1327,#1328,#1336,#1344,#1352,#1360,#1366,#1367,#1373,#1374,#1380,#1381,#1387));
#1389=FACE_OUTER_BOUND('',#1388,.T.);
#1390=ADVANCED_FACE('',(#1389),#1320,.T.);
#1391=CARTESIAN_POINT('',(6.200000000000000,-1.400000000000000,0.0));
#1392=DIRECTION('',(1.0,0.0,0.0));
#1393=DIRECTION('',(0.0,0.0,-1.0));
#1394=AXIS2_PLACEMENT_3D('',#1391,#1392,#1393);
#1395=PLANE('',#1394);
#1396=CARTESIAN_POINT('',(6.200000000000000,-2.597493718553310,1.500000000000000));
#1397=VERTEX_POINT('',#1396);
#1398=CARTESIAN_POINT('',(6.200000000000000,-2.597493718553310,0.050000000000000));
#1399=VERTEX_POINT('',#1398);
#1400=CARTESIAN_POINT('',(6.200000000000000,-2.597493718553310,1.500000000000000));
#1401=DIRECTION('',(0.0,0.0,-1.0));
#1402=VECTOR('',#1401,1.450000000000000);
#1403=LINE('',#1400,#1402);
#1404=EDGE_CURVE('',#1397,#1399,#1403,.T.);
#1405=ORIENTED_EDGE('',*,*,#1404,.F.);
#1406=CARTESIAN_POINT('',(6.200000000000000,-2.597493718553310,1.500000000000000));
#1407=DIRECTION('',(0.0,-1.0,0.0));
#1408=VECTOR('',#1407,0.002506281446689);
#1409=LINE('',#1406,#1408);
#1410=EDGE_CURVE('',#1397,#1338,#1409,.T.);
#1411=ORIENTED_EDGE('',*,*,#1410,.T.);
#1412=ORIENTED_EDGE('',*,*,#1343,.F.);
#1413=CARTESIAN_POINT('',(6.200000000000000,-2.597493718553310,0.050000000000000));
#1414=DIRECTION('',(0.0,-1.0,0.0));
#1415=VECTOR('',#1414,0.002506281446689);
#1416=LINE('',#1413,#1415);
#1417=EDGE_CURVE('',#1399,#1330,#1416,.T.);
#1418=ORIENTED_EDGE('',*,*,#1417,.F.);
#1419=EDGE_LOOP('',(#1405,#1411,#1412,#1418));
#1420=FACE_OUTER_BOUND('',#1419,.T.);
#1421=ADVANCED_FACE('',(#1420),#1395,.T.);
#1422=CARTESIAN_POINT('',(6.150000000000000,-2.100000000000000,0.0));
#1423=DIRECTION('',(0.0,0.0,1.0));
#1424=DIRECTION('',(0.707106781186548,-0.707106781186548,0.0));
#1425=AXIS2_PLACEMENT_3D('',#1422,#1423,#1424);
#1426=CYLINDRICAL_SURFACE('',#1425,0.500000000000000);
#1427=ORIENTED_EDGE('',*,*,#1404,.T.);
#1428=CARTESIAN_POINT('',(6.650000000000000,-2.100000000000000,0.050000000000000));
#1429=VERTEX_POINT('',#1428);
#1430=CARTESIAN_POINT('',(6.150000000000000,-2.100000000000000,0.050000000000000));
#1431=DIRECTION('',(0.0,0.0,1.000000000000000));
#1432=DIRECTION('',(0.707106781186548,-0.707106781186548,0.0));
#1433=AXIS2_PLACEMENT_3D('',#1430,#1431,#1432);
#1434=CIRCLE('',#1433,0.500000000000000);
#1435=EDGE_CURVE('',#1399,#1429,#1434,.T.);
#1436=ORIENTED_EDGE('',*,*,#1435,.T.);
#1437=CARTESIAN_POINT('',(6.650000000000000,-2.100000000000000,2.0));
#1438=VERTEX_POINT('',#1437);
#1439=CARTESIAN_POINT('',(6.650000000000000,-2.100000000000000,0.050000000000000));
#1440=DIRECTION('',(0.0,0.0,1.0));
#1441=VECTOR('',#1440,1.950000000000000);
#1442=LINE('',#1439,#1441);
#1443=EDGE_CURVE('',#1429,#1438,#1442,.T.);
#1444=ORIENTED_EDGE('',*,*,#1443,.T.);
#1445=CARTESIAN_POINT('',(6.150000000000000,-2.100000000000000,2.0));
#1446=DIRECTION('',(0.0,0.0,-1.000000000000000));
#1447=DIRECTION('',(0.707106781186548,-0.707106781186548,0.0));
#1448=AXIS2_PLACEMENT_3D('',#1445,#1446,#1447);
#1449=CIRCLE('',#1448,0.500000000000000);
#1450=EDGE_CURVE('',#1438,#1354,#1449,.T.);
#1451=ORIENTED_EDGE('',*,*,#1450,.T.);
#1452=ORIENTED_EDGE('',*,*,#1359,.T.);
#1453=CARTESIAN_POINT('',(6.150000000000000,-2.100000000000000,1.500000000000000));
#1454=DIRECTION('',(0.0,0.0,1.000000000000000));
#1455=DIRECTION('',(0.707106781186548,-0.707106781186548,0.0));
#1456=AXIS2_PLACEMENT_3D('',#1453,#1454,#1455);
#1457=CIRCLE('',#1456,0.500000000000000);
#1458=EDGE_CURVE('',#1346,#1397,#1457,.T.);
#1459=ORIENTED_EDGE('',*,*,#1458,.T.);
#1460=EDGE_LOOP('',(#1427,#1436,#1444,#1451,#1452,#1459));
#1461=FACE_OUTER_BOUND('',#1460,.T.);
#1462=ADVANCED_FACE('',(#1461),#1426,.T.);
#1463=CARTESIAN_POINT('',(6.650000000000000,2.600000000000000,0.0));
#1464=DIRECTION('',(1.0,0.0,0.0));
#1465=DIRECTION('',(0.0,0.0,-1.0));
#1466=AXIS2_PLACEMENT_3D('',#1463,#1464,#1465);
#1467=PLANE('',#1466);
#1468=ORIENTED_EDGE('',*,*,#1443,.F.);
#1469=CARTESIAN_POINT('',(6.650000000000000,2.100000000000000,0.050000000000000));
#1470=VERTEX_POINT('',#1469);
#1471=CARTESIAN_POINT('',(6.650000000000000,2.100000000000000,0.050000000000000));
#1472=DIRECTION('',(0.0,-1.0,0.0));
#1473=VECTOR('',#1472,4.200000000000000);
#1474=LINE('',#1471,#1473);
#1475=EDGE_CURVE('',#1470,#1429,#1474,.T.);
#1476=ORIENTED_EDGE('',*,*,#1475,.F.);
#1477=CARTESIAN_POINT('',(6.650000000000000,2.100000000000000,2.0));
#1478=VERTEX_POINT('',#1477);
#1479=CARTESIAN_POINT('',(6.650000000000000,2.100000000000000,2.0));
#1480=DIRECTION('',(0.0,0.0,-1.0));
#1481=VECTOR('',#1480,1.950000000000000);
#1482=LINE('',#1479,#1481);
#1483=EDGE_CURVE('',#1478,#1470,#1482,.T.);
#1484=ORIENTED_EDGE('',*,*,#1483,.F.);
#1485=CARTESIAN_POINT('',(6.650000000000000,2.100000000000000,2.0));
#1486=DIRECTION('',(0.0,-1.0,0.0));
#1487=VECTOR('',#1486,4.200000000000000);
#1488=LINE('',#1485,#1487);
#1489=EDGE_CURVE('',#1478,#1438,#1488,.T.);
#1490=ORIENTED_EDGE('',*,*,#1489,.T.);
#1491=EDGE_LOOP('',(#1468,#1476,#1484,#1490));
#1492=FACE_OUTER_BOUND('',#1491,.T.);
#1493=ADVANCED_FACE('',(#1492),#1467,.T.);
#1494=CARTESIAN_POINT('',(6.150000000000000,2.100000000000000,0.0));
#1495=DIRECTION('',(0.0,0.0,1.0));
#1496=DIRECTION('',(0.707106781186548,0.707106781186548,0.0));
#1497=AXIS2_PLACEMENT_3D('',#1494,#1495,#1496);
#1498=CYLINDRICAL_SURFACE('',#1497,0.500000000000000);
#1499=CARTESIAN_POINT('',(6.200000000000000,2.597493718553310,1.500000000000000));
#1500=VERTEX_POINT('',#1499);
#1501=CARTESIAN_POINT('',(6.150000000000000,2.600000000000000,1.500000000000000));
#1502=VERTEX_POINT('',#1501);
#1503=CARTESIAN_POINT('',(6.150000000000000,2.100000000000000,1.500000000000000));
#1504=DIRECTION('',(0.0,0.0,1.000000000000000));
#1505=DIRECTION('',(0.707106781186548,0.707106781186548,0.0));
#1506=AXIS2_PLACEMENT_3D('',#1503,#1504,#1505);
#1507=CIRCLE('',#1506,0.500000000000000);
#1508=EDGE_CURVE('',#1500,#1502,#1507,.T.);
#1509=ORIENTED_EDGE('',*,*,#1508,.T.);
#1510=CARTESIAN_POINT('',(6.150000000000000,2.600000000000000,2.0));
#1511=VERTEX_POINT('',#1510);
#1512=CARTESIAN_POINT('',(6.150000000000000,2.600000000000000,1.500000000000000));
#1513=DIRECTION('',(0.0,0.0,1.0));
#1514=VECTOR('',#1513,0.500000000000000);
#1515=LINE('',#1512,#1514);
#1516=EDGE_CURVE('',#1502,#1511,#1515,.T.);
#1517=ORIENTED_EDGE('',*,*,#1516,.T.);
#1518=CARTESIAN_POINT('',(6.150000000000000,2.100000000000000,2.0));
#1519=DIRECTION('',(0.0,0.0,-1.000000000000000));
#1520=DIRECTION('',(0.707106781186548,0.707106781186548,0.0));
#1521=AXIS2_PLACEMENT_3D('',#1518,#1519,#1520);
#1522=CIRCLE('',#1521,0.500000000000000);
#1523=EDGE_CURVE('',#1511,#1478,#1522,.T.);
#1524=ORIENTED_EDGE('',*,*,#1523,.T.);
#1525=ORIENTED_EDGE('',*,*,#1483,.T.);
#1526=CARTESIAN_POINT('',(6.200000000000000,2.597493718553310,0.050000000000000));
#1527=VERTEX_POINT('',#1526);
#1528=CARTESIAN_POINT('',(6.150000000000000,2.100000000000000,0.050000000000000));
#1529=DIRECTION('',(0.0,0.0,1.000000000000000));
#1530=DIRECTION('',(0.707106781186548,0.707106781186548,0.0));
#1531=AXIS2_PLACEMENT_3D('',#1528,#1529,#1530);
#1532=CIRCLE('',#1531,0.500000000000000);
#1533=EDGE_CURVE('',#1470,#1527,#1532,.T.);
#1534=ORIENTED_EDGE('',*,*,#1533,.T.);
#1535=CARTESIAN_POINT('',(6.200000000000000,2.597493718553310,0.050000000000000));
#1536=DIRECTION('',(0.0,0.0,1.0));
#1537=VECTOR('',#1536,1.450000000000000);
#1538=LINE('',#1535,#1537);
#1539=EDGE_CURVE('',#1527,#1500,#1538,.T.);
#1540=ORIENTED_EDGE('',*,*,#1539,.T.);
#1541=EDGE_LOOP('',(#1509,#1517,#1524,#1525,#1534,#1540));
#1542=FACE_OUTER_BOUND('',#1541,.T.);
#1543=ADVANCED_FACE('',(#1542),#1498,.T.);
#1544=CARTESIAN_POINT('',(6.200000000000000,2.600000000000000,0.0));
#1545=DIRECTION('',(1.0,0.0,0.0));
#1546=DIRECTION('',(0.0,0.0,-1.0));
#1547=AXIS2_PLACEMENT_3D('',#1544,#1545,#1546);
#1548=PLANE('',#1547);
#1549=ORIENTED_EDGE('',*,*,#1539,.F.);
#1550=CARTESIAN_POINT('',(6.200000000000000,2.600000000000000,0.050000000000000));
#1551=VERTEX_POINT('',#1550);
#1552=CARTESIAN_POINT('',(6.200000000000000,2.600000000000000,0.050000000000000));
#1553=DIRECTION('',(0.0,-1.0,0.0));
#1554=VECTOR('',#1553,0.002506281446690);
#1555=LINE('',#1552,#1554);
#1556=EDGE_CURVE('',#1551,#1527,#1555,.T.);
#1557=ORIENTED_EDGE('',*,*,#1556,.F.);
#1558=CARTESIAN_POINT('',(6.200000000000000,2.600000000000000,1.500000000000000));
#1559=VERTEX_POINT('',#1558);
#1560=CARTESIAN_POINT('',(6.200000000000000,2.600000000000000,0.050000000000000));
#1561=DIRECTION('',(0.0,0.0,1.0));
#1562=VECTOR('',#1561,1.450000000000000);
#1563=LINE('',#1560,#1562);
#1564=EDGE_CURVE('',#1551,#1559,#1563,.T.);
#1565=ORIENTED_EDGE('',*,*,#1564,.T.);
#1566=CARTESIAN_POINT('',(6.200000000000000,2.600000000000000,1.500000000000000));
#1567=DIRECTION('',(0.0,-1.0,0.0));
#1568=VECTOR('',#1567,0.002506281446690);
#1569=LINE('',#1566,#1568);
#1570=EDGE_CURVE('',#1559,#1500,#1569,.T.);
#1571=ORIENTED_EDGE('',*,*,#1570,.T.);
#1572=EDGE_LOOP('',(#1549,#1557,#1565,#1571));
#1573=FACE_OUTER_BOUND('',#1572,.T.);
#1574=ADVANCED_FACE('',(#1573),#1548,.T.);
#1575=CARTESIAN_POINT('',(5.850000000000000,2.600000000000000,0.0));
#1576=DIRECTION('',(1.0,0.0,0.0));
#1577=DIRECTION('',(0.0,0.0,-1.0));
#1578=AXIS2_PLACEMENT_3D('',#1575,#1576,#1577);
#1579=PLANE('',#1578);
#1580=CARTESIAN_POINT('',(5.850000000000000,2.600000000000000,1.500000000000000));
#1581=VERTEX_POINT('',#1580);
#1582=CARTESIAN_POINT('',(5.850000000000000,1.400000000000000,1.500000000000000));
#1583=VERTEX_POINT('',#1582);
#1584=CARTESIAN_POINT('',(5.850000000000000,2.600000000000000,1.500000000000000));
#1585=DIRECTION('',(0.0,-1.0,0.0));
#1586=VECTOR('',#1585,1.200000000000000);
#1587=LINE('',#1584,#1586);
#1588=EDGE_CURVE('',#1581,#1583,#1587,.T.);
#1589=ORIENTED_EDGE('',*,*,#1588,.F.);
#1590=CARTESIAN_POINT('',(5.850000000000000,2.600000000000000,0.050000000000000));
#1591=VERTEX_POINT('',#1590);
#1592=CARTESIAN_POINT('',(5.850000000000000,2.600000000000000,0.050000000000000));
#1593=DIRECTION('',(0.0,0.0,1.0));
#1594=VECTOR('',#1593,1.450000000000000);
#1595=LINE('',#1592,#1594);
#1596=EDGE_CURVE('',#1591,#1581,#1595,.T.);
#1597=ORIENTED_EDGE('',*,*,#1596,.F.);
#1598=CARTESIAN_POINT('',(5.850000000000000,1.400000000000000,0.050000000000000));
#1599=VERTEX_POINT('',#1598);
#1600=CARTESIAN_POINT('',(5.850000000000000,1.400000000000000,0.050000000000000));
#1601=DIRECTION('',(0.0,1.0,0.0));
#1602=VECTOR('',#1601,1.200000000000000);
#1603=LINE('',#1600,#1602);
#1604=EDGE_CURVE('',#1599,#1591,#1603,.T.);
#1605=ORIENTED_EDGE('',*,*,#1604,.F.);
#1606=CARTESIAN_POINT('',(5.850000000000000,1.400000000000000,0.050000000000000));
#1607=DIRECTION('',(0.0,0.0,1.0));
#1608=VECTOR('',#1607,1.450000000000000);
#1609=LINE('',#1606,#1608);
#1610=EDGE_CURVE('',#1599,#1583,#1609,.T.);
#1611=ORIENTED_EDGE('',*,*,#1610,.T.);
#1612=EDGE_LOOP('',(#1589,#1597,#1605,#1611));
#1613=FACE_OUTER_BOUND('',#1612,.T.);
#1614=ADVANCED_FACE('',(#1613),#1579,.F.);
#1615=CARTESIAN_POINT('',(5.850000000000000,1.400000000000000,0.0));
#1616=DIRECTION('',(0.0,-1.0,0.0));
#1617=DIRECTION('',(0.0,0.0,-1.0));
#1618=AXIS2_PLACEMENT_3D('',#1615,#1616,#1617);
#1619=PLANE('',#1618);
#1620=CARTESIAN_POINT('',(2.850000000000000,1.400000000000000,1.500000000000000));
#1621=VERTEX_POINT('',#1620);
#1622=CARTESIAN_POINT('',(5.850000000000000,1.400000000000000,1.500000000000000));
#1623=DIRECTION('',(-1.0,0.0,0.0));
#1624=VECTOR('',#1623,2.999999999999999);
#1625=LINE('',#1622,#1624);
#1626=EDGE_CURVE('',#1583,#1621,#1625,.T.);
#1627=ORIENTED_EDGE('',*,*,#1626,.F.);
#1628=ORIENTED_EDGE('',*,*,#1610,.F.);
#1629=CARTESIAN_POINT('',(2.850000000000000,1.400000000000000,0.050000000000000));
#1630=VERTEX_POINT('',#1629);
#1631=CARTESIAN_POINT('',(2.850000000000000,1.400000000000000,0.050000000000000));
#1632=DIRECTION('',(1.0,0.0,0.0));
#1633=VECTOR('',#1632,3.000000000000000);
#1634=LINE('',#1631,#1633);
#1635=EDGE_CURVE('',#1630,#1599,#1634,.T.);
#1636=ORIENTED_EDGE('',*,*,#1635,.F.);
#1637=CARTESIAN_POINT('',(2.850000000000000,1.400000000000000,0.050000000000000));
#1638=DIRECTION('',(0.0,0.0,1.0));
#1639=VECTOR('',#1638,1.450000000000000);
#1640=LINE('',#1637,#1639);
#1641=EDGE_CURVE('',#1630,#1621,#1640,.T.);
#1642=ORIENTED_EDGE('',*,*,#1641,.T.);
#1643=EDGE_LOOP('',(#1627,#1628,#1636,#1642));
#1644=FACE_OUTER_BOUND('',#1643,.T.);
#1645=ADVANCED_FACE('',(#1644),#1619,.F.);
#1646=CARTESIAN_POINT('',(2.850000000000000,1.400000000000000,0.0));
#1647=DIRECTION('',(-1.0,0.0,0.0));
#1648=DIRECTION('',(0.0,0.0,1.0));
#1649=AXIS2_PLACEMENT_3D('',#1646,#1647,#1648);
#1650=PLANE('',#1649);
#1651=CARTESIAN_POINT('',(2.850000000000000,2.600000000000000,1.500000000000000));
#1652=VERTEX_POINT('',#1651);
#1653=CARTESIAN_POINT('',(2.850000000000000,1.400000000000000,1.500000000000000));
#1654=DIRECTION('',(0.0,1.0,0.0));
#1655=VECTOR('',#1654,1.200000000000000);
#1656=LINE('',#1653,#1655);
#1657=EDGE_CURVE('',#1621,#1652,#1656,.T.);
#1658=ORIENTED_EDGE('',*,*,#1657,.F.);
#1659=ORIENTED_EDGE('',*,*,#1641,.F.);
#1660=CARTESIAN_POINT('',(2.850000000000000,2.600000000000000,0.050000000000000));
#1661=VERTEX_POINT('',#1660);
#1662=CARTESIAN_POINT('',(2.850000000000000,2.600000000000000,0.050000000000000));
#1663=DIRECTION('',(0.0,-1.0,0.0));
#1664=VECTOR('',#1663,1.200000000000000);
#1665=LINE('',#1662,#1664);
#1666=EDGE_CURVE('',#1661,#1630,#1665,.T.);
#1667=ORIENTED_EDGE('',*,*,#1666,.F.);
#1668=CARTESIAN_POINT('',(2.850000000000000,2.600000000000000,1.500000000000000));
#1669=DIRECTION('',(0.0,0.0,-1.0));
#1670=VECTOR('',#1669,1.450000000000000);
#1671=LINE('',#1668,#1670);
#1672=EDGE_CURVE('',#1652,#1661,#1671,.T.);
#1673=ORIENTED_EDGE('',*,*,#1672,.F.);
#1674=EDGE_LOOP('',(#1658,#1659,#1667,#1673));
#1675=FACE_OUTER_BOUND('',#1674,.T.);
#1676=ADVANCED_FACE('',(#1675),#1650,.F.);
#1677=CARTESIAN_POINT('',(-6.650000000000000,2.600000000000000,0.0));
#1678=DIRECTION('',(0.0,1.0,0.0));
#1679=DIRECTION('',(0.0,0.0,1.0));
#1680=AXIS2_PLACEMENT_3D('',#1677,#1678,#1679);
#1681=PLANE('',#1680);
#1682=CARTESIAN_POINT('',(-4.250000000000000,2.600000000000000,0.050000000000000));
#1683=VERTEX_POINT('',#1682);
#1684=CARTESIAN_POINT('',(-4.250000000000000,2.600000000000000,1.500000000000000));
#1685=VERTEX_POINT('',#1684);
#1686=CARTESIAN_POINT('',(-4.250000000000000,2.600000000000000,0.050000000000000));
#1687=DIRECTION('',(0.0,0.0,1.0));
#1688=VECTOR('',#1687,1.450000000000000);
#1689=LINE('',#1686,#1688);
#1690=EDGE_CURVE('',#1683,#1685,#1689,.T.);
#1691=ORIENTED_EDGE('',*,*,#1690,.T.);
#1692=CARTESIAN_POINT('',(-4.250000000000000,2.600000000000000,1.500000000000000));
#1693=DIRECTION('',(-1.0,0.0,0.0));
#1694=VECTOR('',#1693,1.600000000000000);
#1695=LINE('',#1692,#1694);
#1696=EDGE_CURVE('',#1685,#981,#1695,.T.);
#1697=ORIENTED_EDGE('',*,*,#1696,.T.);
#1698=ORIENTED_EDGE('',*,*,#1001,.T.);
#1699=CARTESIAN_POINT('',(-6.150000000000001,2.600000000000000,0.050000000000000));
#1700=DIRECTION('',(1.0,0.0,0.0));
#1701=VECTOR('',#1700,0.300000000000001);
#1702=LINE('',#1699,#1701);
#1703=EDGE_CURVE('',#1023,#990,#1702,.T.);
#1704=ORIENTED_EDGE('',*,*,#1703,.F.);
#1705=ORIENTED_EDGE('',*,*,#1028,.F.);
#1706=CARTESIAN_POINT('',(-6.150000000000000,2.600000000000000,2.0));
#1707=DIRECTION('',(1.0,0.0,0.0));
#1708=VECTOR('',#1707,12.300000000000001);
#1709=LINE('',#1706,#1708);
#1710=EDGE_CURVE('',#1014,#1511,#1709,.T.);
#1711=ORIENTED_EDGE('',*,*,#1710,.T.);
#1712=ORIENTED_EDGE('',*,*,#1516,.F.);
#1713=CARTESIAN_POINT('',(6.150000000000000,2.600000000000000,1.500000000000000));
#1714=DIRECTION('',(1.0,0.0,0.0));
#1715=VECTOR('',#1714,0.050000000000000);
#1716=LINE('',#1713,#1715);
#1717=EDGE_CURVE('',#1502,#1559,#1716,.T.);
#1718=ORIENTED_EDGE('',*,*,#1717,.T.);
#1719=ORIENTED_EDGE('',*,*,#1564,.F.);
#1720=CARTESIAN_POINT('',(5.850000000000000,2.600000000000000,0.050000000000000));
#1721=DIRECTION('',(1.0,0.0,0.0));
#1722=VECTOR('',#1721,0.350000000000001);
#1723=LINE('',#1720,#1722);
#1724=EDGE_CURVE('',#1591,#1551,#1723,.T.);
#1725=ORIENTED_EDGE('',*,*,#1724,.F.);
#1726=ORIENTED_EDGE('',*,*,#1596,.T.);
#1727=CARTESIAN_POINT('',(5.850000000000000,2.600000000000000,1.500000000000000));
#1728=DIRECTION('',(-1.0,0.0,0.0));
#1729=VECTOR('',#1728,3.0);
#1730=LINE('',#1727,#1729);
#1731=EDGE_CURVE('',#1581,#1652,#1730,.T.);
#1732=ORIENTED_EDGE('',*,*,#1731,.T.);
#1733=ORIENTED_EDGE('',*,*,#1672,.T.);
#1734=CARTESIAN_POINT('',(-4.250000000000000,2.600000000000000,0.050000000000000));
#1735=DIRECTION('',(1.0,0.0,0.0));
#1736=VECTOR('',#1735,7.100000000000000);
#1737=LINE('',#1734,#1736);
#1738=EDGE_CURVE('',#1683,#1661,#1737,.T.);
#1739=ORIENTED_EDGE('',*,*,#1738,.F.);
#1740=EDGE_LOOP('',(#1691,#1697,#1698,#1704,#1705,#1711,#1712,#1718,#1719,#1725,#1726,#1732,#1733,#1739));
#1741=FACE_OUTER_BOUND('',#1740,.T.);
#1742=ADVANCED_FACE('',(#1741),#1681,.T.);
#1743=CARTESIAN_POINT('',(-4.250000000000000,2.600000000000000,0.0));
#1744=DIRECTION('',(1.0,0.0,0.0));
#1745=DIRECTION('',(0.0,0.0,-1.0));
#1746=AXIS2_PLACEMENT_3D('',#1743,#1744,#1745);
#1747=PLANE('',#1746);
#1748=CARTESIAN_POINT('',(-4.250000000000000,2.600000000000000,1.500000000000000));
#1749=DIRECTION('',(0.0,-1.0,0.0));
#1750=VECTOR('',#1749,1.200000000000000);
#1751=LINE('',#1748,#1750);
#1752=EDGE_CURVE('',#1685,#941,#1751,.T.);
#1753=ORIENTED_EDGE('',*,*,#1752,.F.);
#1754=ORIENTED_EDGE('',*,*,#1690,.F.);
#1755=CARTESIAN_POINT('',(-4.250000000000000,1.400000000000000,0.050000000000000));
#1756=DIRECTION('',(0.0,1.0,0.0));
#1757=VECTOR('',#1756,1.200000000000000);
#1758=LINE('',#1755,#1757);
#1759=EDGE_CURVE('',#951,#1683,#1758,.T.);
#1760=ORIENTED_EDGE('',*,*,#1759,.F.);
#1761=ORIENTED_EDGE('',*,*,#956,.T.);
#1762=EDGE_LOOP('',(#1753,#1754,#1760,#1761));
#1763=FACE_OUTER_BOUND('',#1762,.T.);
#1764=ADVANCED_FACE('',(#1763),#1747,.F.);
#1765=CARTESIAN_POINT('',(-5.049999999999999,2.000000000000000,1.500000000000000));
#1766=DIRECTION('',(0.0,0.0,1.0));
#1767=DIRECTION('',(1.0,0.0,0.0));
#1768=AXIS2_PLACEMENT_3D('',#1765,#1766,#1767);
#1769=PLANE('',#1768);
#1770=ORIENTED_EDGE('',*,*,#986,.T.);
#1771=ORIENTED_EDGE('',*,*,#1696,.F.);
#1772=ORIENTED_EDGE('',*,*,#1752,.T.);
#1773=ORIENTED_EDGE('',*,*,#948,.T.);
#1774=EDGE_LOOP('',(#1770,#1771,#1772,#1773));
#1775=FACE_OUTER_BOUND('',#1774,.T.);
#1776=ADVANCED_FACE('',(#1775),#1769,.F.);
#1777=CARTESIAN_POINT('',(4.350000000000000,2.000000000000000,1.500000000000000));
#1778=DIRECTION('',(0.0,0.0,1.0));
#1779=DIRECTION('',(1.0,0.0,0.0));
#1780=AXIS2_PLACEMENT_3D('',#1777,#1778,#1779);
#1781=PLANE('',#1780);
#1782=ORIENTED_EDGE('',*,*,#1731,.F.);
#1783=ORIENTED_EDGE('',*,*,#1588,.T.);
#1784=ORIENTED_EDGE('',*,*,#1626,.T.);
#1785=ORIENTED_EDGE('',*,*,#1657,.T.);
#1786=EDGE_LOOP('',(#1782,#1783,#1784,#1785));
#1787=FACE_OUTER_BOUND('',#1786,.T.);
#1788=ADVANCED_FACE('',(#1787),#1781,.F.);
#1789=CARTESIAN_POINT('',(4.350000000000000,-2.000000000000000,1.500000000000000));
#1790=DIRECTION('',(0.0,0.0,1.0));
#1791=DIRECTION('',(1.0,0.0,0.0));
#1792=AXIS2_PLACEMENT_3D('',#1789,#1790,#1791);
#1793=PLANE('',#1792);
#1794=ORIENTED_EDGE('',*,*,#1265,.T.);
#1795=ORIENTED_EDGE('',*,*,#1296,.T.);
#1796=ORIENTED_EDGE('',*,*,#1326,.F.);
#1797=ORIENTED_EDGE('',*,*,#1227,.T.);
#1798=EDGE_LOOP('',(#1794,#1795,#1796,#1797));
#1799=FACE_OUTER_BOUND('',#1798,.T.);
#1800=ADVANCED_FACE('',(#1799),#1793,.F.);
#1801=CARTESIAN_POINT('',(-5.049999999999999,-2.000000000000000,1.500000000000000));
#1802=DIRECTION('',(0.0,0.0,1.0));
#1803=DIRECTION('',(1.0,0.0,0.0));
#1804=AXIS2_PLACEMENT_3D('',#1801,#1802,#1803);
#1805=PLANE('',#1804);
#1806=ORIENTED_EDGE('',*,*,#1125,.T.);
#1807=ORIENTED_EDGE('',*,*,#1163,.T.);
#1808=ORIENTED_EDGE('',*,*,#1194,.T.);
#1809=ORIENTED_EDGE('',*,*,#1379,.F.);
#1810=EDGE_LOOP('',(#1806,#1807,#1808,#1809));
#1811=FACE_OUTER_BOUND('',#1810,.T.);
#1812=ADVANCED_FACE('',(#1811),#1805,.F.);
#1813=CARTESIAN_POINT('',(4.700000000000000,2.000000000000000,1.500000000000000));
#1814=DIRECTION('',(0.0,0.0,1.0));
#1815=DIRECTION('',(1.0,0.0,0.0));
#1816=AXIS2_PLACEMENT_3D('',#1813,#1814,#1815);
#1817=PLANE('',#1816);
#1818=ORIENTED_EDGE('',*,*,#1508,.F.);
#1819=ORIENTED_EDGE('',*,*,#1570,.F.);
#1820=ORIENTED_EDGE('',*,*,#1717,.F.);
#1821=EDGE_LOOP('',(#1818,#1819,#1820));
#1822=FACE_OUTER_BOUND('',#1821,.T.);
#1823=ADVANCED_FACE('',(#1822),#1817,.T.);
#1824=CARTESIAN_POINT('',(4.700000000000000,-2.000000000000000,1.500000000000000));
#1825=DIRECTION('',(0.0,0.0,1.0));
#1826=DIRECTION('',(1.0,0.0,0.0));
#1827=AXIS2_PLACEMENT_3D('',#1824,#1825,#1826);
#1828=PLANE('',#1827);
#1829=ORIENTED_EDGE('',*,*,#1458,.F.);
#1830=ORIENTED_EDGE('',*,*,#1351,.F.);
#1831=ORIENTED_EDGE('',*,*,#1410,.F.);
#1832=EDGE_LOOP('',(#1829,#1830,#1831));
#1833=FACE_OUTER_BOUND('',#1832,.T.);
#1834=ADVANCED_FACE('',(#1833),#1828,.T.);
#1835=CARTESIAN_POINT('',(-5.073747E-018,0.0,2.0));
#1836=DIRECTION('',(0.0,0.0,1.0));
#1837=DIRECTION('',(1.0,0.0,0.0));
#1838=AXIS2_PLACEMENT_3D('',#1835,#1836,#1837);
#1839=PLANE('',#1838);
#1840=ORIENTED_EDGE('',*,*,#1450,.F.);
#1841=ORIENTED_EDGE('',*,*,#1489,.F.);
#1842=ORIENTED_EDGE('',*,*,#1523,.F.);
#1843=ORIENTED_EDGE('',*,*,#1710,.F.);
#1844=ORIENTED_EDGE('',*,*,#1020,.F.);
#1845=ORIENTED_EDGE('',*,*,#1074,.F.);
#1846=ORIENTED_EDGE('',*,*,#1091,.F.);
#1847=ORIENTED_EDGE('',*,*,#1365,.F.);
#1848=EDGE_LOOP('',(#1840,#1841,#1842,#1843,#1844,#1845,#1846,#1847));
#1849=FACE_OUTER_BOUND('',#1848,.T.);
#1850=ADVANCED_FACE('',(#1849),#1839,.T.);
#1851=CARTESIAN_POINT('',(5.073747E-018,0.0,0.050000000000000));
#1852=DIRECTION('',(0.0,0.0,1.0));
#1853=DIRECTION('',(1.0,0.0,0.0));
#1854=AXIS2_PLACEMENT_3D('',#1851,#1852,#1853);
#1855=PLANE('',#1854);
#1856=ORIENTED_EDGE('',*,*,#1759,.T.);
#1857=ORIENTED_EDGE('',*,*,#1738,.T.);
#1858=ORIENTED_EDGE('',*,*,#1666,.T.);
#1859=ORIENTED_EDGE('',*,*,#1635,.T.);
#1860=ORIENTED_EDGE('',*,*,#1604,.T.);
#1861=ORIENTED_EDGE('',*,*,#1724,.T.);
#1862=ORIENTED_EDGE('',*,*,#1556,.T.);
#1863=ORIENTED_EDGE('',*,*,#1533,.F.);
#1864=ORIENTED_EDGE('',*,*,#1475,.T.);
#1865=ORIENTED_EDGE('',*,*,#1435,.F.);
#1866=ORIENTED_EDGE('',*,*,#1417,.T.);
#1867=ORIENTED_EDGE('',*,*,#1335,.T.);
#1868=ORIENTED_EDGE('',*,*,#1305,.T.);
#1869=ORIENTED_EDGE('',*,*,#1274,.T.);
#1870=ORIENTED_EDGE('',*,*,#1243,.T.);
#1871=ORIENTED_EDGE('',*,*,#1386,.T.);
#1872=ORIENTED_EDGE('',*,*,#1203,.T.);
#1873=ORIENTED_EDGE('',*,*,#1172,.T.);
#1874=ORIENTED_EDGE('',*,*,#1141,.T.);
#1875=ORIENTED_EDGE('',*,*,#1372,.T.);
#1876=ORIENTED_EDGE('',*,*,#1101,.F.);
#1877=ORIENTED_EDGE('',*,*,#1060,.T.);
#1878=ORIENTED_EDGE('',*,*,#1037,.F.);
#1879=ORIENTED_EDGE('',*,*,#1703,.T.);
#1880=ORIENTED_EDGE('',*,*,#995,.T.);
#1881=ORIENTED_EDGE('',*,*,#964,.T.);
#1882=EDGE_LOOP('',(#1856,#1857,#1858,#1859,#1860,#1861,#1862,#1863,#1864,#1865,#1866,#1867,#1868,#1869,#1870,#1871,#1872,#1873,#1874,#1875,#1876,#1877,#1878,#1879,#1880,#1881));
#1883=FACE_OUTER_BOUND('',#1882,.T.);
#1884=ADVANCED_FACE('',(#1883),#1855,.F.);
#1885=CLOSED_SHELL('',(#974,#1005,#1047,#1078,#1111,#1151,#1182,#1213,#1253,#1284,#1315,#1390,#1421,#1462,#1493,#1543,#1574,#1614,#1645,#1676,#1742,#1764,#1776,#1788,#1800,#1812,#1823,#1834,#1850,#1884));
#1886=MANIFOLD_SOLID_BREP('C9C',#1885);
#1887=COLOUR_RGB('250',0.330000000000000,0.330000000000000,0.330000000000000);
#1888=SURFACE_STYLE_USAGE(.BOTH.,#1889);
#1889=SURFACE_SIDE_STYLE('NONE',(#1890));
#1890=SURFACE_STYLE_FILL_AREA(#1891);
#1891=FILL_AREA_STYLE('NONE',(#1892));
#1892=FILL_AREA_STYLE_COLOUR('NONE',#1887);
#1893=PRESENTATION_STYLE_ASSIGNMENT((#1888));
#1894=STYLED_ITEM('NONE',(#1893),#1886);
#1895=CARTESIAN_POINT('',(-4.050000000000001,2.100000000000000,2.0));
#1896=DIRECTION('',(0.0,1.0,0.0));
#1897=DIRECTION('',(0.0,0.0,1.0));
#1898=AXIS2_PLACEMENT_3D('',#1895,#1896,#1897);
#1899=PLANE('',#1898);
#1900=CARTESIAN_POINT('',(-4.050000000000001,2.100000000000000,2.299999999999999));
#1901=VERTEX_POINT('',#1900);
#1902=CARTESIAN_POINT('',(4.050000000000001,2.100000000000000,2.299999999999999));
#1903=VERTEX_POINT('',#1902);
#1904=CARTESIAN_POINT('',(-4.050000000000001,2.100000000000000,2.299999999999999));
#1905=DIRECTION('',(1.0,0.0,0.0));
#1906=VECTOR('',#1905,8.100000000000001);
#1907=LINE('',#1904,#1906);
#1908=EDGE_CURVE('',#1901,#1903,#1907,.T.);
#1909=ORIENTED_EDGE('',*,*,#1908,.T.);
#1910=CARTESIAN_POINT('',(4.050000000000001,2.100000000000000,2.0));
#1911=VERTEX_POINT('',#1910);
#1912=CARTESIAN_POINT('',(4.050000000000001,2.100000000000000,2.0));
#1913=DIRECTION('',(0.0,0.0,1.0));
#1914=VECTOR('',#1913,0.299999999999999);
#1915=LINE('',#1912,#1914);
#1916=EDGE_CURVE('',#1911,#1903,#1915,.T.);
#1917=ORIENTED_EDGE('',*,*,#1916,.F.);
#1918=CARTESIAN_POINT('',(-4.050000000000001,2.100000000000000,2.0));
#1919=VERTEX_POINT('',#1918);
#1920=CARTESIAN_POINT('',(-4.050000000000001,2.100000000000000,2.0));
#1921=DIRECTION('',(1.0,0.0,0.0));
#1922=VECTOR('',#1921,8.100000000000001);
#1923=LINE('',#1920,#1922);
#1924=EDGE_CURVE('',#1919,#1911,#1923,.T.);
#1925=ORIENTED_EDGE('',*,*,#1924,.F.);
#1926=CARTESIAN_POINT('',(-4.050000000000001,2.100000000000000,2.0));
#1927=DIRECTION('',(0.0,0.0,1.0));
#1928=VECTOR('',#1927,0.299999999999999);
#1929=LINE('',#1926,#1928);
#1930=EDGE_CURVE('',#1919,#1901,#1929,.T.);
#1931=ORIENTED_EDGE('',*,*,#1930,.T.);
#1932=EDGE_LOOP('',(#1909,#1917,#1925,#1931));
#1933=FACE_OUTER_BOUND('',#1932,.T.);
#1934=ADVANCED_FACE('',(#1933),#1899,.T.);
#1935=CARTESIAN_POINT('',(4.050000000000001,0.0,2.0));
#1936=DIRECTION('',(0.0,0.0,1.0));
#1937=DIRECTION('',(1.0,0.0,0.0));
#1938=AXIS2_PLACEMENT_3D('',#1935,#1936,#1937);
#1939=CYLINDRICAL_SURFACE('',#1938,2.100000000000000);
#1940=CARTESIAN_POINT('',(4.050000000000001,-2.100000000000000,2.299999999999999));
#1941=VERTEX_POINT('',#1940);
#1942=CARTESIAN_POINT('',(4.050000000000001,0.0,2.299999999999999));
#1943=DIRECTION('',(0.0,0.0,-1.0));
#1944=DIRECTION('',(1.0,0.0,0.0));
#1945=AXIS2_PLACEMENT_3D('',#1942,#1943,#1944);
#1946=CIRCLE('',#1945,2.100000000000000);
#1947=EDGE_CURVE('',#1903,#1941,#1946,.T.);
#1948=ORIENTED_EDGE('',*,*,#1947,.T.);
#1949=CARTESIAN_POINT('',(4.050000000000001,-2.100000000000000,2.0));
#1950=VERTEX_POINT('',#1949);
#1951=CARTESIAN_POINT('',(4.050000000000001,-2.100000000000000,2.0));
#1952=DIRECTION('',(0.0,0.0,1.0));
#1953=VECTOR('',#1952,0.299999999999999);
#1954=LINE('',#1951,#1953);
#1955=EDGE_CURVE('',#1950,#1941,#1954,.T.);
#1956=ORIENTED_EDGE('',*,*,#1955,.F.);
#1957=CARTESIAN_POINT('',(4.050000000000001,0.0,2.0));
#1958=DIRECTION('',(0.0,0.0,-1.0));
#1959=DIRECTION('',(1.0,0.0,0.0));
#1960=AXIS2_PLACEMENT_3D('',#1957,#1958,#1959);
#1961=CIRCLE('',#1960,2.100000000000000);
#1962=EDGE_CURVE('',#1911,#1950,#1961,.T.);
#1963=ORIENTED_EDGE('',*,*,#1962,.F.);
#1964=ORIENTED_EDGE('',*,*,#1916,.T.);
#1965=EDGE_LOOP('',(#1948,#1956,#1963,#1964));
#1966=FACE_OUTER_BOUND('',#1965,.T.);
#1967=ADVANCED_FACE('',(#1966),#1939,.T.);
#1968=CARTESIAN_POINT('',(4.050000000000001,-2.100000000000000,2.0));
#1969=DIRECTION('',(0.0,-1.0,0.0));
#1970=DIRECTION('',(0.0,0.0,-1.0));
#1971=AXIS2_PLACEMENT_3D('',#1968,#1969,#1970);
#1972=PLANE('',#1971);
#1973=CARTESIAN_POINT('',(-4.050000000000001,-2.100000000000000,2.299999999999999));
#1974=VERTEX_POINT('',#1973);
#1975=CARTESIAN_POINT('',(4.050000000000001,-2.100000000000000,2.299999999999999));
#1976=DIRECTION('',(-1.0,0.0,0.0));
#1977=VECTOR('',#1976,8.100000000000001);
#1978=LINE('',#1975,#1977);
#1979=EDGE_CURVE('',#1941,#1974,#1978,.T.);
#1980=ORIENTED_EDGE('',*,*,#1979,.T.);
#1981=CARTESIAN_POINT('',(-4.050000000000001,-2.100000000000000,2.0));
#1982=VERTEX_POINT('',#1981);
#1983=CARTESIAN_POINT('',(-4.050000000000001,-2.100000000000000,2.0));
#1984=DIRECTION('',(0.0,0.0,1.0));
#1985=VECTOR('',#1984,0.299999999999999);
#1986=LINE('',#1983,#1985);
#1987=EDGE_CURVE('',#1982,#1974,#1986,.T.);
#1988=ORIENTED_EDGE('',*,*,#1987,.F.);
#1989=CARTESIAN_POINT('',(4.050000000000001,-2.100000000000000,2.0));
#1990=DIRECTION('',(-1.0,0.0,0.0));
#1991=VECTOR('',#1990,8.100000000000001);
#1992=LINE('',#1989,#1991);
#1993=EDGE_CURVE('',#1950,#1982,#1992,.T.);
#1994=ORIENTED_EDGE('',*,*,#1993,.F.);
#1995=ORIENTED_EDGE('',*,*,#1955,.T.);
#1996=EDGE_LOOP('',(#1980,#1988,#1994,#1995));
#1997=FACE_OUTER_BOUND('',#1996,.T.);
#1998=ADVANCED_FACE('',(#1997),#1972,.T.);
#1999=CARTESIAN_POINT('',(-4.050000000000001,2.220446E-016,-0.600000000000000));
#2000=DIRECTION('',(0.0,0.0,1.0));
#2001=DIRECTION('',(-1.0,0.0,0.0));
#2002=AXIS2_PLACEMENT_3D('',#1999,#2000,#2001);
#2003=CYLINDRICAL_SURFACE('',#2002,2.100000000000000);
#2004=CARTESIAN_POINT('',(-4.050000000000001,2.220446E-016,2.299999999999999));
#2005=DIRECTION('',(0.0,0.0,-1.0));
#2006=DIRECTION('',(-1.0,0.0,0.0));
#2007=AXIS2_PLACEMENT_3D('',#2004,#2005,#2006);
#2008=CIRCLE('',#2007,2.100000000000000);
#2009=EDGE_CURVE('',#1974,#1901,#2008,.T.);
#2010=ORIENTED_EDGE('',*,*,#2009,.T.);
#2011=ORIENTED_EDGE('',*,*,#1930,.F.);
#2012=CARTESIAN_POINT('',(-4.050000000000001,2.220446E-016,2.0));
#2013=DIRECTION('',(0.0,0.0,-1.0));
#2014=DIRECTION('',(-1.0,0.0,0.0));
#2015=AXIS2_PLACEMENT_3D('',#2012,#2013,#2014);
#2016=CIRCLE('',#2015,2.100000000000000);
#2017=EDGE_CURVE('',#1982,#1919,#2016,.T.);
#2018=ORIENTED_EDGE('',*,*,#2017,.F.);
#2019=ORIENTED_EDGE('',*,*,#1987,.T.);
#2020=EDGE_LOOP('',(#2010,#2011,#2018,#2019));
#2021=FACE_OUTER_BOUND('',#2020,.T.);
#2022=ADVANCED_FACE('',(#2021),#2003,.T.);
#2023=CARTESIAN_POINT('',(2.220446E-016,1.291444E-016,2.299999999999999));
#2024=DIRECTION('',(0.0,0.0,1.0));
#2025=DIRECTION('',(1.0,0.0,0.0));
#2026=AXIS2_PLACEMENT_3D('',#2023,#2024,#2025);
#2027=PLANE('',#2026);
#2028=ORIENTED_EDGE('',*,*,#2009,.F.);
#2029=ORIENTED_EDGE('',*,*,#1979,.F.);
#2030=ORIENTED_EDGE('',*,*,#1947,.F.);
#2031=ORIENTED_EDGE('',*,*,#1908,.F.);
#2032=EDGE_LOOP('',(#2028,#2029,#2030,#2031));
#2033=FACE_OUTER_BOUND('',#2032,.T.);
#2034=ADVANCED_FACE('',(#2033),#2027,.T.);
#2035=CARTESIAN_POINT('',(0.0,1.019613E-016,2.0));
#2036=DIRECTION('',(0.0,0.0,1.0));
#2037=DIRECTION('',(1.0,0.0,0.0));
#2038=AXIS2_PLACEMENT_3D('',#2035,#2036,#2037);
#2039=PLANE('',#2038);
#2040=ORIENTED_EDGE('',*,*,#1993,.T.);
#2041=ORIENTED_EDGE('',*,*,#2017,.T.);
#2042=ORIENTED_EDGE('',*,*,#1924,.T.);
#2043=ORIENTED_EDGE('',*,*,#1962,.T.);
#2044=EDGE_LOOP('',(#2040,#2041,#2042,#2043));
#2045=FACE_OUTER_BOUND('',#2044,.T.);
#2046=ADVANCED_FACE('',(#2045),#2039,.F.);
#2047=CLOSED_SHELL('',(#1934,#1967,#1998,#2022,#2034,#2046));
#2048=MANIFOLD_SOLID_BREP('C98',#2047);
#2049=STYLED_ITEM('NONE',(#327),#2048);
#2050=ADVANCED_BREP_SHAPE_REPRESENTATION('ABSR1',(#320,#480,#631,#782,#933,#1886,#2048),#28);
#2051=SHAPE_REPRESENTATION_RELATIONSHIP('SRRPL1','',#2050,#62);
ENDSEC;
END-ISO-10303-21;
