ISO-10303-21;
HEADER;
/****************************************************************
 * Generated by software with PDElib inside                    *
 * PDElib Version v51a, created Fri 09/10/2010                  *
 * ITI Transcendata (http://www.transcendata.com/)              *
 ****************************************************************/
FILE_DESCRIPTION((''),'2;1');
FILE_NAME('XTAL_ABRACON_ABS06.stp','2015-08-12T11:33:11',(''),(''),'Mechanical Desktop 2011','Mechanical Desktop 2011',', , ');
FILE_SCHEMA(('AUTOMOTIVE_DESIGN { 1 2 10303 214 1 1 1 1 }'));
ENDSEC;
DATA;
#10=(NAMED_UNIT(*)PLANE_ANGLE_UNIT()SI_UNIT($,.RADIAN.));
#11=DIMENSIONAL_EXPONENTS(0.0,0.0,0.0,0.0,0.0,0.0,0.0);
#12=PLANE_ANGLE_MEASURE_WITH_UNIT(PLANE_ANGLE_MEASURE(0.0174532925),#10);
#16=(CONVERSION_BASED_UNIT('DEGREE',#12)NAMED_UNIT(#11)PLANE_ANGLE_UNIT());
#20=(NAMED_UNIT(*)SI_UNIT($,.STERADIAN.)SOLID_ANGLE_UNIT());
#24=(LENGTH_UNIT()NAMED_UNIT(*)SI_UNIT(.MILLI.,.METRE.));
#26=UNCERTAINTY_MEASURE_WITH_UNIT(LENGTH_MEASURE(0.000001),#24,'DISTANCE_ACCURACY_VALUE','');
#28=(GEOMETRIC_REPRESENTATION_CONTEXT(3)GLOBAL_UNCERTAINTY_ASSIGNED_CONTEXT((#26))GLOBAL_UNIT_ASSIGNED_CONTEXT((#16,#20,#24))REPRESENTATION_CONTEXT('','3D'));
#29=APPLICATION_CONTEXT('automotive design');
#30=APPLICATION_PROTOCOL_DEFINITION('INTERNATIONAL_STANDARD','automotive_design',1998,#29);
#31=PRODUCT_CONTEXT('3D Mechanical Parts',#29,'mechanical');
#32=PRODUCT('Product','Product','',(#31));
#33=PRODUCT_RELATED_PRODUCT_CATEGORY('part',$,(#32));
#34=PRODUCT_CATEGORY('part',$);
#35=PERSON('1','Design','Joe',$,$,$);
#36=ORGANIZATION($,'None','None');
#37=PERSON_AND_ORGANIZATION(#35,#36);
#38=PERSON_AND_ORGANIZATION_ROLE('design_owner');
#39=APPLIED_PERSON_AND_ORGANIZATION_ASSIGNMENT(#37,#38,(#32));
#40=PRODUCT_DEFINITION_FORMATION_WITH_SPECIFIED_SOURCE('None','',#32,.BOUGHT.);
#41=PERSON('2','Creator','Joe',$,$,$);
#42=ORGANIZATION($,'None','None');
#43=PERSON_AND_ORGANIZATION(#41,#42);
#44=PERSON_AND_ORGANIZATION_ROLE('creator');
#45=APPLIED_PERSON_AND_ORGANIZATION_ASSIGNMENT(#43,#44,(#40));
#46=PERSON('3','Supplier','Joe',$,$,$);
#47=ORGANIZATION($,'None','None');
#48=PERSON_AND_ORGANIZATION(#46,#47);
#49=PERSON_AND_ORGANIZATION_ROLE('design_supplier');
#50=APPLIED_PERSON_AND_ORGANIZATION_ASSIGNMENT(#48,#49,(#40));
#51=PRODUCT_DEFINITION_CONTEXT('part definition',#29,'design');
#52=PRODUCT_DEFINITION('None','',#40,#51);
#53=PERSON('4','Creator','Joe',$,$,$);
#54=ORGANIZATION($,'None','None');
#55=PERSON_AND_ORGANIZATION(#53,#54);
#56=PERSON_AND_ORGANIZATION_ROLE('creator');
#57=APPLIED_PERSON_AND_ORGANIZATION_ASSIGNMENT(#55,#56,(#52));
#58=CARTESIAN_POINT('NONE',(0.0,0.0,0.0));
#59=DIRECTION('NONE',(0.0,0.0,1.0));
#60=DIRECTION('NONE',(1.0,0.0,0.0));
#61=AXIS2_PLACEMENT_3D('NONE',#58,#59,#60);
#62=SHAPE_REPRESENTATION('SR1',(#61),#28);
#63=PRODUCT_DEFINITION_SHAPE('PDS1','Test Part',#52);
#64=SHAPE_DEFINITION_REPRESENTATION(#63,#62);
#65=CARTESIAN_POINT('',(0.425,-0.550000000000001,0.1));
#66=CARTESIAN_POINT('',(1.025,-0.55,0.1));
#67=CARTESIAN_POINT('',(0.424999999999999,0.55,0.1));
#68=CARTESIAN_POINT('',(1.025,0.550000000000001,0.1));
#69=B_SPLINE_SURFACE_WITH_KNOTS('',1,1,((#65,#67),(#66,#68)),.UNSPECIFIED.,.F.,.F.,.U.,(2,2),(2,2),(0.0,0.600000000000001),(0.0,1.100000000000001),.UNSPECIFIED.);
#70=CARTESIAN_POINT('',(1.025,0.55,0.1));
#71=VERTEX_POINT('',#70);
#72=CARTESIAN_POINT('',(1.025,-0.55,0.1));
#73=VERTEX_POINT('',#72);
#74=CARTESIAN_POINT('',(1.025,0.55,0.1));
#75=DIRECTION('',(0.0,-1.0,0.0));
#76=VECTOR('',#75,1.100000000000001);
#77=LINE('',#74,#76);
#78=EDGE_CURVE('',#71,#73,#77,.T.);
#79=ORIENTED_EDGE('',*,*,#78,.F.);
#80=CARTESIAN_POINT('',(0.425,0.55,0.1));
#81=VERTEX_POINT('',#80);
#82=CARTESIAN_POINT('',(0.425,0.55,0.1));
#83=DIRECTION('',(1.0,0.0,0.0));
#84=VECTOR('',#83,0.6);
#85=LINE('',#82,#84);
#86=EDGE_CURVE('',#81,#71,#85,.T.);
#87=ORIENTED_EDGE('',*,*,#86,.F.);
#88=CARTESIAN_POINT('',(0.425,-0.55,0.1));
#89=VERTEX_POINT('',#88);
#90=CARTESIAN_POINT('',(0.425,-0.55,0.1));
#91=DIRECTION('',(0.0,1.0,0.0));
#92=VECTOR('',#91,1.100000000000001);
#93=LINE('',#90,#92);
#94=EDGE_CURVE('',#89,#81,#93,.T.);
#95=ORIENTED_EDGE('',*,*,#94,.F.);
#96=CARTESIAN_POINT('',(1.025,-0.55,0.1));
#97=DIRECTION('',(-1.0,0.0,0.0));
#98=VECTOR('',#97,0.6);
#99=LINE('',#96,#98);
#100=EDGE_CURVE('',#73,#89,#99,.T.);
#101=ORIENTED_EDGE('',*,*,#100,.F.);
#102=EDGE_LOOP('',(#79,#87,#95,#101));
#103=FACE_OUTER_BOUND('',#102,.T.);
#104=ADVANCED_FACE('',(#103),#69,.T.);
#105=CARTESIAN_POINT('',(0.425,-0.550000000000001,0.0));
#106=CARTESIAN_POINT('',(1.025,-0.55,0.0));
#107=CARTESIAN_POINT('',(0.424999999999999,0.55,0.0));
#108=CARTESIAN_POINT('',(1.025,0.550000000000001,0.0));
#109=B_SPLINE_SURFACE_WITH_KNOTS('',1,1,((#105,#107),(#106,#108)),.UNSPECIFIED.,.F.,.F.,.U.,(2,2),(2,2),(0.0,0.600000000000001),(0.0,1.100000000000001),.UNSPECIFIED.);
#110=CARTESIAN_POINT('',(1.025,-0.55,0.0));
#111=VERTEX_POINT('',#110);
#112=CARTESIAN_POINT('',(1.025,0.55,0.0));
#113=VERTEX_POINT('',#112);
#114=CARTESIAN_POINT('',(1.025,-0.55,0.0));
#115=DIRECTION('',(0.0,1.0,0.0));
#116=VECTOR('',#115,1.100000000000001);
#117=LINE('',#114,#116);
#118=EDGE_CURVE('',#111,#113,#117,.T.);
#119=ORIENTED_EDGE('',*,*,#118,.F.);
#120=CARTESIAN_POINT('',(0.425,-0.55,0.0));
#121=VERTEX_POINT('',#120);
#122=CARTESIAN_POINT('',(0.425,-0.55,0.0));
#123=DIRECTION('',(1.0,0.0,0.0));
#124=VECTOR('',#123,0.6);
#125=LINE('',#122,#124);
#126=EDGE_CURVE('',#121,#111,#125,.T.);
#127=ORIENTED_EDGE('',*,*,#126,.F.);
#128=CARTESIAN_POINT('',(0.425,0.55,0.0));
#129=VERTEX_POINT('',#128);
#130=CARTESIAN_POINT('',(0.425,0.55,0.0));
#131=DIRECTION('',(0.0,-1.0,0.0));
#132=VECTOR('',#131,1.100000000000001);
#133=LINE('',#130,#132);
#134=EDGE_CURVE('',#129,#121,#133,.T.);
#135=ORIENTED_EDGE('',*,*,#134,.F.);
#136=CARTESIAN_POINT('',(1.025,0.55,0.0));
#137=DIRECTION('',(-1.0,0.0,0.0));
#138=VECTOR('',#137,0.6);
#139=LINE('',#136,#138);
#140=EDGE_CURVE('',#113,#129,#139,.T.);
#141=ORIENTED_EDGE('',*,*,#140,.F.);
#142=EDGE_LOOP('',(#119,#127,#135,#141));
#143=FACE_OUTER_BOUND('',#142,.T.);
#144=ADVANCED_FACE('',(#143),#109,.F.);
#145=CARTESIAN_POINT('',(1.025,0.55,0.0));
#146=CARTESIAN_POINT('',(1.025,0.55,0.1));
#147=CARTESIAN_POINT('',(0.425,0.55,0.0));
#148=CARTESIAN_POINT('',(0.425,0.55,0.1));
#149=B_SPLINE_SURFACE_WITH_KNOTS('',1,1,((#145,#147),(#146,#148)),.UNSPECIFIED.,.F.,.F.,.U.,(2,2),(2,2),(0.0,0.1),(0.0,0.6),.UNSPECIFIED.);
#150=CARTESIAN_POINT('',(0.425,0.55,0.1));
#151=DIRECTION('',(0.0,0.0,-1.0));
#152=VECTOR('',#151,0.1);
#153=LINE('',#150,#152);
#154=EDGE_CURVE('',#81,#129,#153,.T.);
#155=ORIENTED_EDGE('',*,*,#154,.F.);
#156=ORIENTED_EDGE('',*,*,#86,.T.);
#157=CARTESIAN_POINT('',(1.025,0.55,0.1));
#158=DIRECTION('',(0.0,0.0,-1.0));
#159=VECTOR('',#158,0.1);
#160=LINE('',#157,#159);
#161=EDGE_CURVE('',#71,#113,#160,.T.);
#162=ORIENTED_EDGE('',*,*,#161,.T.);
#163=ORIENTED_EDGE('',*,*,#140,.T.);
#164=EDGE_LOOP('',(#155,#156,#162,#163));
#165=FACE_OUTER_BOUND('',#164,.T.);
#166=ADVANCED_FACE('',(#165),#149,.F.);
#167=CARTESIAN_POINT('',(0.425,-0.55,0.1));
#168=CARTESIAN_POINT('',(0.425,-0.55,0.0));
#169=CARTESIAN_POINT('',(0.425,0.55,0.1));
#170=CARTESIAN_POINT('',(0.425,0.55,0.0));
#171=B_SPLINE_SURFACE_WITH_KNOTS('',1,1,((#167,#169),(#168,#170)),.UNSPECIFIED.,.F.,.F.,.U.,(2,2),(2,2),(0.0,0.1),(0.0,1.100000000000001),.UNSPECIFIED.);
#172=CARTESIAN_POINT('',(0.425,-0.55,0.1));
#173=DIRECTION('',(0.0,0.0,-1.0));
#174=VECTOR('',#173,0.1);
#175=LINE('',#172,#174);
#176=EDGE_CURVE('',#89,#121,#175,.T.);
#177=ORIENTED_EDGE('',*,*,#176,.F.);
#178=ORIENTED_EDGE('',*,*,#94,.T.);
#179=ORIENTED_EDGE('',*,*,#154,.T.);
#180=ORIENTED_EDGE('',*,*,#134,.T.);
#181=EDGE_LOOP('',(#177,#178,#179,#180));
#182=FACE_OUTER_BOUND('',#181,.T.);
#183=ADVANCED_FACE('',(#182),#171,.F.);
#184=CARTESIAN_POINT('',(1.025,-0.55,0.1));
#185=CARTESIAN_POINT('',(1.025,-0.55,0.0));
#186=CARTESIAN_POINT('',(0.425,-0.55,0.1));
#187=CARTESIAN_POINT('',(0.425,-0.55,0.0));
#188=B_SPLINE_SURFACE_WITH_KNOTS('',1,1,((#184,#186),(#185,#187)),.UNSPECIFIED.,.F.,.F.,.U.,(2,2),(2,2),(0.0,0.1),(0.0,0.6),.UNSPECIFIED.);
#189=CARTESIAN_POINT('',(1.025,-0.55,0.1));
#190=DIRECTION('',(0.0,0.0,-1.0));
#191=VECTOR('',#190,0.1);
#192=LINE('',#189,#191);
#193=EDGE_CURVE('',#73,#111,#192,.T.);
#194=ORIENTED_EDGE('',*,*,#193,.F.);
#195=ORIENTED_EDGE('',*,*,#100,.T.);
#196=ORIENTED_EDGE('',*,*,#176,.T.);
#197=ORIENTED_EDGE('',*,*,#126,.T.);
#198=EDGE_LOOP('',(#194,#195,#196,#197));
#199=FACE_OUTER_BOUND('',#198,.T.);
#200=ADVANCED_FACE('',(#199),#188,.F.);
#201=CARTESIAN_POINT('',(1.025,-0.55,0.0));
#202=CARTESIAN_POINT('',(1.025,-0.55,0.1));
#203=CARTESIAN_POINT('',(1.025,0.55,0.0));
#204=CARTESIAN_POINT('',(1.025,0.55,0.1));
#205=B_SPLINE_SURFACE_WITH_KNOTS('',1,1,((#201,#203),(#202,#204)),.UNSPECIFIED.,.F.,.F.,.U.,(2,2),(2,2),(0.0,0.1),(0.0,1.100000000000001),.UNSPECIFIED.);
#206=ORIENTED_EDGE('',*,*,#161,.F.);
#207=ORIENTED_EDGE('',*,*,#78,.T.);
#208=ORIENTED_EDGE('',*,*,#193,.T.);
#209=ORIENTED_EDGE('',*,*,#118,.T.);
#210=EDGE_LOOP('',(#206,#207,#208,#209));
#211=FACE_OUTER_BOUND('',#210,.T.);
#212=ADVANCED_FACE('',(#211),#205,.F.);
#213=CLOSED_SHELL('',(#104,#144,#166,#183,#200,#212));
#214=MANIFOLD_SOLID_BREP('AB2',#213);
#215=COLOUR_RGB('40',1.0,0.75,0.0);
#216=SURFACE_STYLE_USAGE(.BOTH.,#217);
#217=SURFACE_SIDE_STYLE('NONE',(#218));
#218=SURFACE_STYLE_FILL_AREA(#219);
#219=FILL_AREA_STYLE('NONE',(#220));
#220=FILL_AREA_STYLE_COLOUR('NONE',#215);
#221=PRESENTATION_STYLE_ASSIGNMENT((#216));
#222=STYLED_ITEM('NONE',(#221),#214);
#223=MECHANICAL_DESIGN_GEOMETRIC_PRESENTATION_REPRESENTATION('NONE',(#222,#408,#1006,#1905),#28);
#224=PRESENTATION_LAYER_ASSIGNMENT('3D','None',(#214,#407,#998,#1897));
#225=CARTESIAN_POINT('',(-0.525,0.45,0.05));
#226=DIRECTION('',(0.707106781186548,0.707106781186547,0.0));
#227=DIRECTION('',(0.0,0.0,1.0));
#228=AXIS2_PLACEMENT_3D('',#225,#226,#227);
#229=PLANE('',#228);
#230=CARTESIAN_POINT('',(-0.425,0.35,0.0));
#231=VERTEX_POINT('',#230);
#232=CARTESIAN_POINT('',(-0.625,0.55,0.0));
#233=VERTEX_POINT('',#232);
#234=CARTESIAN_POINT('',(-0.425,0.35,0.0));
#235=DIRECTION('',(-0.707106781186547,0.707106781186548,0.0));
#236=VECTOR('',#235,0.282842712474619);
#237=LINE('',#234,#236);
#238=EDGE_CURVE('',#231,#233,#237,.T.);
#239=ORIENTED_EDGE('',*,*,#238,.T.);
#240=CARTESIAN_POINT('',(-0.625,0.55,0.1));
#241=VERTEX_POINT('',#240);
#242=CARTESIAN_POINT('',(-0.625,0.55,0.0));
#243=DIRECTION('',(0.0,0.0,1.0));
#244=VECTOR('',#243,0.1);
#245=LINE('',#242,#244);
#246=EDGE_CURVE('',#233,#241,#245,.T.);
#247=ORIENTED_EDGE('',*,*,#246,.T.);
#248=CARTESIAN_POINT('',(-0.425,0.35,0.1));
#249=VERTEX_POINT('',#248);
#250=CARTESIAN_POINT('',(-0.625,0.55,0.1));
#251=DIRECTION('',(0.707106781186547,-0.707106781186548,0.0));
#252=VECTOR('',#251,0.282842712474619);
#253=LINE('',#250,#252);
#254=EDGE_CURVE('',#241,#249,#253,.T.);
#255=ORIENTED_EDGE('',*,*,#254,.T.);
#256=CARTESIAN_POINT('',(-0.425,0.35,0.1));
#257=DIRECTION('',(0.0,0.0,-1.0));
#258=VECTOR('',#257,0.1);
#259=LINE('',#256,#258);
#260=EDGE_CURVE('',#249,#231,#259,.T.);
#261=ORIENTED_EDGE('',*,*,#260,.T.);
#262=EDGE_LOOP('',(#239,#247,#255,#261));
#263=FACE_OUTER_BOUND('',#262,.T.);
#264=ADVANCED_FACE('',(#263),#229,.T.);
#265=CARTESIAN_POINT('',(-0.725,0.55,0.05));
#266=DIRECTION('',(0.0,-1.0,0.0));
#267=DIRECTION('',(0.0,0.0,1.0));
#268=AXIS2_PLACEMENT_3D('',#265,#266,#267);
#269=PLANE('',#268);
#270=ORIENTED_EDGE('',*,*,#246,.F.);
#271=CARTESIAN_POINT('',(-1.025,0.55,0.0));
#272=VERTEX_POINT('',#271);
#273=CARTESIAN_POINT('',(-1.025,0.55,0.0));
#274=DIRECTION('',(1.0,0.0,0.0));
#275=VECTOR('',#274,0.4);
#276=LINE('',#273,#275);
#277=EDGE_CURVE('',#272,#233,#276,.T.);
#278=ORIENTED_EDGE('',*,*,#277,.F.);
#279=CARTESIAN_POINT('',(-1.025,0.55,0.1));
#280=VERTEX_POINT('',#279);
#281=CARTESIAN_POINT('',(-1.025,0.55,0.1));
#282=DIRECTION('',(0.0,0.0,-1.0));
#283=VECTOR('',#282,0.1);
#284=LINE('',#281,#283);
#285=EDGE_CURVE('',#280,#272,#284,.T.);
#286=ORIENTED_EDGE('',*,*,#285,.F.);
#287=CARTESIAN_POINT('',(-0.625,0.55,0.1));
#288=DIRECTION('',(-1.0,0.0,0.0));
#289=VECTOR('',#288,0.4);
#290=LINE('',#287,#289);
#291=EDGE_CURVE('',#241,#280,#290,.T.);
#292=ORIENTED_EDGE('',*,*,#291,.F.);
#293=EDGE_LOOP('',(#270,#278,#286,#292));
#294=FACE_OUTER_BOUND('',#293,.T.);
#295=ADVANCED_FACE('',(#294),#269,.F.);
#296=CARTESIAN_POINT('',(-0.725,0.0,0.0));
#297=DIRECTION('',(0.0,0.0,1.0));
#298=DIRECTION('',(-1.0,0.0,0.0));
#299=AXIS2_PLACEMENT_3D('',#296,#297,#298);
#300=PLANE('',#299);
#301=ORIENTED_EDGE('',*,*,#238,.F.);
#302=CARTESIAN_POINT('',(-0.425,-0.55,0.0));
#303=VERTEX_POINT('',#302);
#304=CARTESIAN_POINT('',(-0.425,0.35,0.0));
#305=DIRECTION('',(0.0,-1.0,0.0));
#306=VECTOR('',#305,0.900000000000001);
#307=LINE('',#304,#306);
#308=EDGE_CURVE('',#231,#303,#307,.T.);
#309=ORIENTED_EDGE('',*,*,#308,.T.);
#310=CARTESIAN_POINT('',(-1.025,-0.55,0.0));
#311=VERTEX_POINT('',#310);
#312=CARTESIAN_POINT('',(-0.425,-0.55,0.0));
#313=DIRECTION('',(-1.0,0.0,0.0));
#314=VECTOR('',#313,0.6);
#315=LINE('',#312,#314);
#316=EDGE_CURVE('',#303,#311,#315,.T.);
#317=ORIENTED_EDGE('',*,*,#316,.T.);
#318=CARTESIAN_POINT('',(-1.025,-0.55,0.0));
#319=DIRECTION('',(0.0,1.0,0.0));
#320=VECTOR('',#319,1.100000000000001);
#321=LINE('',#318,#320);
#322=EDGE_CURVE('',#311,#272,#321,.T.);
#323=ORIENTED_EDGE('',*,*,#322,.T.);
#324=ORIENTED_EDGE('',*,*,#277,.T.);
#325=EDGE_LOOP('',(#301,#309,#317,#323,#324));
#326=FACE_OUTER_BOUND('',#325,.T.);
#327=ADVANCED_FACE('',(#326),#300,.F.);
#328=CARTESIAN_POINT('',(-0.725,0.0,0.1));
#329=DIRECTION('',(0.0,0.0,1.0));
#330=DIRECTION('',(-1.0,0.0,0.0));
#331=AXIS2_PLACEMENT_3D('',#328,#329,#330);
#332=PLANE('',#331);
#333=ORIENTED_EDGE('',*,*,#254,.F.);
#334=ORIENTED_EDGE('',*,*,#291,.T.);
#335=CARTESIAN_POINT('',(-1.025,-0.55,0.1));
#336=VERTEX_POINT('',#335);
#337=CARTESIAN_POINT('',(-1.025,0.55,0.1));
#338=DIRECTION('',(0.0,-1.0,0.0));
#339=VECTOR('',#338,1.100000000000001);
#340=LINE('',#337,#339);
#341=EDGE_CURVE('',#280,#336,#340,.T.);
#342=ORIENTED_EDGE('',*,*,#341,.T.);
#343=CARTESIAN_POINT('',(-0.425,-0.55,0.1));
#344=VERTEX_POINT('',#343);
#345=CARTESIAN_POINT('',(-1.025,-0.55,0.1));
#346=DIRECTION('',(1.0,0.0,0.0));
#347=VECTOR('',#346,0.6);
#348=LINE('',#345,#347);
#349=EDGE_CURVE('',#336,#344,#348,.T.);
#350=ORIENTED_EDGE('',*,*,#349,.T.);
#351=CARTESIAN_POINT('',(-0.425,-0.55,0.1));
#352=DIRECTION('',(0.0,1.0,0.0));
#353=VECTOR('',#352,0.900000000000001);
#354=LINE('',#351,#353);
#355=EDGE_CURVE('',#344,#249,#354,.T.);
#356=ORIENTED_EDGE('',*,*,#355,.T.);
#357=EDGE_LOOP('',(#333,#334,#342,#350,#356));
#358=FACE_OUTER_BOUND('',#357,.T.);
#359=ADVANCED_FACE('',(#358),#332,.T.);
#360=CARTESIAN_POINT('',(-0.425,-1.217225E-016,0.05));
#361=DIRECTION('',(-1.0,0.0,0.0));
#362=DIRECTION('',(0.0,0.0,-1.0));
#363=AXIS2_PLACEMENT_3D('',#360,#361,#362);
#364=PLANE('',#363);
#365=ORIENTED_EDGE('',*,*,#260,.F.);
#366=ORIENTED_EDGE('',*,*,#355,.F.);
#367=CARTESIAN_POINT('',(-0.425,-0.55,0.1));
#368=DIRECTION('',(0.0,0.0,-1.0));
#369=VECTOR('',#368,0.1);
#370=LINE('',#367,#369);
#371=EDGE_CURVE('',#344,#303,#370,.T.);
#372=ORIENTED_EDGE('',*,*,#371,.T.);
#373=ORIENTED_EDGE('',*,*,#308,.F.);
#374=EDGE_LOOP('',(#365,#366,#372,#373));
#375=FACE_OUTER_BOUND('',#374,.T.);
#376=ADVANCED_FACE('',(#375),#364,.F.);
#377=CARTESIAN_POINT('',(-0.725,-0.55,0.05));
#378=DIRECTION('',(0.0,1.0,0.0));
#379=DIRECTION('',(0.0,0.0,-1.0));
#380=AXIS2_PLACEMENT_3D('',#377,#378,#379);
#381=PLANE('',#380);
#382=CARTESIAN_POINT('',(-1.025,-0.55,0.1));
#383=DIRECTION('',(0.0,0.0,-1.0));
#384=VECTOR('',#383,0.1);
#385=LINE('',#382,#384);
#386=EDGE_CURVE('',#336,#311,#385,.T.);
#387=ORIENTED_EDGE('',*,*,#386,.T.);
#388=ORIENTED_EDGE('',*,*,#316,.F.);
#389=ORIENTED_EDGE('',*,*,#371,.F.);
#390=ORIENTED_EDGE('',*,*,#349,.F.);
#391=EDGE_LOOP('',(#387,#388,#389,#390));
#392=FACE_OUTER_BOUND('',#391,.T.);
#393=ADVANCED_FACE('',(#392),#381,.F.);
#394=CARTESIAN_POINT('',(-1.025,1.217225E-016,0.05));
#395=DIRECTION('',(1.0,0.0,0.0));
#396=DIRECTION('',(0.0,0.0,1.0));
#397=AXIS2_PLACEMENT_3D('',#394,#395,#396);
#398=PLANE('',#397);
#399=ORIENTED_EDGE('',*,*,#285,.T.);
#400=ORIENTED_EDGE('',*,*,#322,.F.);
#401=ORIENTED_EDGE('',*,*,#386,.F.);
#402=ORIENTED_EDGE('',*,*,#341,.F.);
#403=EDGE_LOOP('',(#399,#400,#401,#402));
#404=FACE_OUTER_BOUND('',#403,.T.);
#405=ADVANCED_FACE('',(#404),#398,.F.);
#406=CLOSED_SHELL('',(#264,#295,#327,#359,#376,#393,#405));
#407=MANIFOLD_SOLID_BREP('AA8',#406);
#408=STYLED_ITEM('NONE',(#221),#407);
#409=CARTESIAN_POINT('',(-0.85,3.448804E-016,0.55));
#410=DIRECTION('',(4.057416E-016,1.0,0.0));
#411=DIRECTION('',(-0.707106781186548,2.869027E-016,0.707106781186547));
#412=AXIS2_PLACEMENT_3D('',#409,#410,#411);
#413=CYLINDRICAL_SURFACE('',#412,0.05);
#414=CARTESIAN_POINT('',(-0.9,-0.4,0.55));
#415=VERTEX_POINT('',#414);
#416=CARTESIAN_POINT('',(-0.85,-0.4,0.6));
#417=VERTEX_POINT('',#416);
#418=CARTESIAN_POINT('',(-0.85,-0.4,0.55));
#419=DIRECTION('',(0.0,1.0,0.0));
#420=DIRECTION('',(-1.0,0.0,0.0));
#421=AXIS2_PLACEMENT_3D('',#418,#419,#420);
#422=CIRCLE('',#421,0.05);
#423=EDGE_CURVE('',#415,#417,#422,.T.);
#424=ORIENTED_EDGE('',*,*,#423,.T.);
#425=CARTESIAN_POINT('',(-0.85,0.4,0.6));
#426=VERTEX_POINT('',#425);
#427=CARTESIAN_POINT('',(-0.85,-0.4,0.6));
#428=DIRECTION('',(0.0,1.0,0.0));
#429=VECTOR('',#428,0.8);
#430=LINE('',#427,#429);
#431=EDGE_CURVE('',#417,#426,#430,.T.);
#432=ORIENTED_EDGE('',*,*,#431,.T.);
#433=CARTESIAN_POINT('',(-0.9,0.4,0.55));
#434=VERTEX_POINT('',#433);
#435=CARTESIAN_POINT('',(-0.85,0.4,0.55));
#436=DIRECTION('',(0.0,-1.0,0.0));
#437=DIRECTION('',(0.0,0.0,1.0));
#438=AXIS2_PLACEMENT_3D('',#435,#436,#437);
#439=CIRCLE('',#438,0.05);
#440=EDGE_CURVE('',#426,#434,#439,.T.);
#441=ORIENTED_EDGE('',*,*,#440,.T.);
#442=CARTESIAN_POINT('',(-0.9,0.4,0.55));
#443=DIRECTION('',(0.0,-1.0,0.0));
#444=VECTOR('',#443,0.8);
#445=LINE('',#442,#444);
#446=EDGE_CURVE('',#434,#415,#445,.T.);
#447=ORIENTED_EDGE('',*,*,#446,.T.);
#448=EDGE_LOOP('',(#424,#432,#441,#447));
#449=FACE_OUTER_BOUND('',#448,.T.);
#450=ADVANCED_FACE('',(#449),#413,.T.);
#451=CARTESIAN_POINT('',(-0.8,-0.4,0.55));
#452=DIRECTION('',(0.0,0.0,-1.0));
#453=DIRECTION('',(-1.0,0.0,0.0));
#454=AXIS2_PLACEMENT_3D('',#451,#452,#453);
#455=TOROIDAL_SURFACE('',#454,0.05,0.05);
#456=CARTESIAN_POINT('',(-0.8,-0.5,0.55));
#457=VERTEX_POINT('',#456);
#458=CARTESIAN_POINT('',(-0.8,-0.45,0.6));
#459=VERTEX_POINT('',#458);
#460=CARTESIAN_POINT('',(-0.8,-0.45,0.55));
#461=DIRECTION('',(-1.0,0.0,0.0));
#462=DIRECTION('',(0.0,-1.0,0.0));
#463=AXIS2_PLACEMENT_3D('',#460,#461,#462);
#464=CIRCLE('',#463,0.05);
#465=EDGE_CURVE('',#457,#459,#464,.T.);
#466=ORIENTED_EDGE('',*,*,#465,.T.);
#467=CARTESIAN_POINT('',(-0.8,-0.4,0.6));
#468=DIRECTION('',(0.0,0.0,-1.0));
#469=DIRECTION('',(-0.707106781186547,-0.707106781186548,0.0));
#470=AXIS2_PLACEMENT_3D('',#467,#468,#469);
#471=CIRCLE('',#470,0.05);
#472=EDGE_CURVE('',#459,#417,#471,.T.);
#473=ORIENTED_EDGE('',*,*,#472,.T.);
#474=ORIENTED_EDGE('',*,*,#423,.F.);
#475=CARTESIAN_POINT('',(-0.8,-0.4,0.55));
#476=DIRECTION('',(0.0,0.0,1.0));
#477=DIRECTION('',(-0.707106781186547,-0.707106781186548,0.0));
#478=AXIS2_PLACEMENT_3D('',#475,#476,#477);
#479=CIRCLE('',#478,0.1);
#480=EDGE_CURVE('',#415,#457,#479,.T.);
#481=ORIENTED_EDGE('',*,*,#480,.T.);
#482=EDGE_LOOP('',(#466,#473,#474,#481));
#483=FACE_OUTER_BOUND('',#482,.T.);
#484=ADVANCED_FACE('',(#483),#455,.T.);
#485=CARTESIAN_POINT('',(-0.799999750001875,0.4,0.550158113092445));
#486=CARTESIAN_POINT('',(-0.799841886709915,0.4,0.600078869245074));
#487=CARTESIAN_POINT('',(-0.749920943354957,0.4,0.59999993750043));
#488=CARTESIAN_POINT('',(-0.7,0.4,0.599921005755786));
#489=CARTESIAN_POINT('',(-0.7,0.4,0.55));
#490=CARTESIAN_POINT('',(-0.799999750001875,0.400000249998125,0.550158113092445));
#491=CARTESIAN_POINT('',(-0.799841886709915,0.400158113290086,0.600078869245074));
#492=CARTESIAN_POINT('',(-0.749920943354957,0.450079056645043,0.59999993750043));
#493=CARTESIAN_POINT('',(-0.7,0.5,0.599921005755786));
#494=CARTESIAN_POINT('',(-0.7,0.5,0.55));
#495=CARTESIAN_POINT('',(-0.8,0.400000249998125,0.550158113092445));
#496=CARTESIAN_POINT('',(-0.8,0.400158113290086,0.600078869245074));
#497=CARTESIAN_POINT('',(-0.8,0.450079056645043,0.59999993750043));
#498=CARTESIAN_POINT('',(-0.8,0.5,0.599921005755786));
#499=CARTESIAN_POINT('',(-0.8,0.5,0.55));
#500=CARTESIAN_POINT('',(-0.800000249998125,0.400000249998125,0.550158113092445));
#501=CARTESIAN_POINT('',(-0.800158113290085,0.400158113290086,0.600078869245074));
#502=CARTESIAN_POINT('',(-0.850079056645042,0.450079056645043,0.59999993750043));
#503=CARTESIAN_POINT('',(-0.9,0.5,0.599921005755786));
#504=CARTESIAN_POINT('',(-0.9,0.5,0.55));
#505=CARTESIAN_POINT('',(-0.800000249998125,0.4,0.550158113092445));
#506=CARTESIAN_POINT('',(-0.800158113290085,0.4,0.600078869245074));
#507=CARTESIAN_POINT('',(-0.850079056645042,0.4,0.59999993750043));
#508=CARTESIAN_POINT('',(-0.9,0.4,0.599921005755786));
#509=CARTESIAN_POINT('',(-0.9,0.4,0.55));
#510=CARTESIAN_POINT('',(-0.800000249998125,0.399999750001875,0.550158113092445));
#511=CARTESIAN_POINT('',(-0.800158113290085,0.399841886709915,0.600078869245074));
#512=CARTESIAN_POINT('',(-0.850079056645042,0.349920943354958,0.59999993750043));
#513=CARTESIAN_POINT('',(-0.9,0.3,0.599921005755786));
#514=CARTESIAN_POINT('',(-0.9,0.3,0.55));
#515=CARTESIAN_POINT('',(-0.8,0.399999750001875,0.550158113092445));
#516=CARTESIAN_POINT('',(-0.8,0.399841886709915,0.600078869245074));
#517=CARTESIAN_POINT('',(-0.8,0.349920943354958,0.59999993750043));
#518=CARTESIAN_POINT('',(-0.8,0.3,0.599921005755786));
#519=CARTESIAN_POINT('',(-0.8,0.3,0.55));
#520=CARTESIAN_POINT('',(-0.799999750001875,0.399999750001875,0.550158113092445));
#521=CARTESIAN_POINT('',(-0.799841886709915,0.399841886709915,0.600078869245074));
#522=CARTESIAN_POINT('',(-0.749920943354957,0.349920943354958,0.59999993750043));
#523=CARTESIAN_POINT('',(-0.7,0.3,0.599921005755786));
#524=CARTESIAN_POINT('',(-0.7,0.3,0.55));
#525=CARTESIAN_POINT('',(-0.799999750001875,0.4,0.550158113092445));
#526=CARTESIAN_POINT('',(-0.799841886709915,0.4,0.600078869245074));
#527=CARTESIAN_POINT('',(-0.749920943354957,0.4,0.59999993750043));
#528=CARTESIAN_POINT('',(-0.7,0.4,0.599921005755786));
#529=CARTESIAN_POINT('',(-0.7,0.4,0.55));
#537=(BOUNDED_SURFACE()B_SPLINE_SURFACE(2,2,((#485,#490,#495,#500,#505,#510,#515,#520,#525),(#486,#491,#496,#501,#506,#511,#516,#521,#526),(#487,#492,#497,#502,#507,#512,#517,#522,#527),(#488,#493,#498,#503,#508,#513,#518,#523,#528),(#489,#494,#499,#504,#509,#514,#519,#524,#529)),.UNSPECIFIED.,.F.,.T.,.U.)B_SPLINE_SURFACE_WITH_KNOTS((3,2,3),(3,2,2,2,3),(-3.138430386470487,-1.569215193235244,0.0),(0.0,1.570796326794897,3.141592653589793,4.71238898038469,6.283185307179586),.UNSPECIFIED.)GEOMETRIC_REPRESENTATION_ITEM()RATIONAL_B_SPLINE_SURFACE(((1.0,0.707106781186548,1.0,0.707106781186548,1.0,0.707106781186548,1.0,0.707106781186548,1.0),(0.707665575289932,0.500395127099791,0.707665575289932,0.500395127099791,0.707665575289932,0.500395127099791,0.707665575289932,0.500395127099791,0.707665575289932),(1.0,0.707106781186548,1.0,0.707106781186548,1.0,0.707106781186548,1.0,0.707106781186548,1.0),(0.70766557528993,0.500395127099789,0.70766557528993,0.500395127099789,0.70766557528993,0.500395127099789,0.70766557528993,0.500395127099789,0.70766557528993),(1.0,0.707106781186548,1.0,0.707106781186548,1.0,0.707106781186548,1.0,0.707106781186548,1.0)))REPRESENTATION_ITEM('')SURFACE());
#538=CARTESIAN_POINT('',(-0.8,0.45,0.6));
#539=VERTEX_POINT('',#538);
#540=CARTESIAN_POINT('',(-0.8,0.5,0.55));
#541=VERTEX_POINT('',#540);
#542=CARTESIAN_POINT('',(-0.8,0.45,0.55));
#543=DIRECTION('',(-1.0,0.0,0.0));
#544=DIRECTION('',(0.0,0.0,1.0));
#545=AXIS2_PLACEMENT_3D('',#542,#543,#544);
#546=CIRCLE('',#545,0.05);
#547=EDGE_CURVE('',#539,#541,#546,.T.);
#548=ORIENTED_EDGE('',*,*,#547,.T.);
#549=CARTESIAN_POINT('',(-0.8,0.4,0.55));
#550=DIRECTION('',(0.0,0.0,1.0));
#551=DIRECTION('',(-0.707106781186548,0.707106781186547,0.0));
#552=AXIS2_PLACEMENT_3D('',#549,#550,#551);
#553=CIRCLE('',#552,0.1);
#554=EDGE_CURVE('',#541,#434,#553,.T.);
#555=ORIENTED_EDGE('',*,*,#554,.T.);
#556=ORIENTED_EDGE('',*,*,#440,.F.);
#557=CARTESIAN_POINT('',(-0.8,0.4,0.6));
#558=DIRECTION('',(0.0,0.0,-1.0));
#559=DIRECTION('',(-0.707106781186548,0.707106781186547,0.0));
#560=AXIS2_PLACEMENT_3D('',#557,#558,#559);
#561=CIRCLE('',#560,0.05);
#562=EDGE_CURVE('',#426,#539,#561,.T.);
#563=ORIENTED_EDGE('',*,*,#562,.T.);
#564=EDGE_LOOP('',(#548,#555,#556,#563));
#565=FACE_OUTER_BOUND('',#564,.T.);
#566=ADVANCED_FACE('',(#565),#537,.T.);
#567=CARTESIAN_POINT('',(-1.942890E-016,-0.45,0.55));
#568=DIRECTION('',(-1.0,4.057416E-016,0.0));
#569=DIRECTION('',(0.0,-0.707106781186547,0.707106781186548));
#570=AXIS2_PLACEMENT_3D('',#567,#568,#569);
#571=CYLINDRICAL_SURFACE('',#570,0.05);
#572=CARTESIAN_POINT('',(0.8,-0.5,0.55));
#573=VERTEX_POINT('',#572);
#574=CARTESIAN_POINT('',(0.8,-0.45,0.6));
#575=VERTEX_POINT('',#574);
#576=CARTESIAN_POINT('',(0.8,-0.45,0.55));
#577=DIRECTION('',(-1.0,0.0,0.0));
#578=DIRECTION('',(0.0,-1.0,0.0));
#579=AXIS2_PLACEMENT_3D('',#576,#577,#578);
#580=CIRCLE('',#579,0.05);
#581=EDGE_CURVE('',#573,#575,#580,.T.);
#582=ORIENTED_EDGE('',*,*,#581,.T.);
#583=CARTESIAN_POINT('',(0.8,-0.45,0.6));
#584=DIRECTION('',(-1.0,0.0,0.0));
#585=VECTOR('',#584,1.6);
#586=LINE('',#583,#585);
#587=EDGE_CURVE('',#575,#459,#586,.T.);
#588=ORIENTED_EDGE('',*,*,#587,.T.);
#589=ORIENTED_EDGE('',*,*,#465,.F.);
#590=CARTESIAN_POINT('',(-0.8,-0.5,0.55));
#591=DIRECTION('',(1.0,0.0,0.0));
#592=VECTOR('',#591,1.6);
#593=LINE('',#590,#592);
#594=EDGE_CURVE('',#457,#573,#593,.T.);
#595=ORIENTED_EDGE('',*,*,#594,.T.);
#596=EDGE_LOOP('',(#582,#588,#589,#595));
#597=FACE_OUTER_BOUND('',#596,.T.);
#598=ADVANCED_FACE('',(#597),#571,.T.);
#599=CARTESIAN_POINT('',(1.942890E-016,0.45,0.55));
#600=DIRECTION('',(1.0,-4.057416E-016,0.0));
#601=DIRECTION('',(0.0,0.707106781186547,0.707106781186548));
#602=AXIS2_PLACEMENT_3D('',#599,#600,#601);
#603=CYLINDRICAL_SURFACE('',#602,0.05);
#604=CARTESIAN_POINT('',(0.8,0.45,0.6));
#605=VERTEX_POINT('',#604);
#606=CARTESIAN_POINT('',(0.8,0.5,0.55));
#607=VERTEX_POINT('',#606);
#608=CARTESIAN_POINT('',(0.8,0.45,0.55));
#609=DIRECTION('',(-1.0,0.0,0.0));
#610=DIRECTION('',(0.0,0.0,1.0));
#611=AXIS2_PLACEMENT_3D('',#608,#609,#610);
#612=CIRCLE('',#611,0.05);
#613=EDGE_CURVE('',#605,#607,#612,.T.);
#614=ORIENTED_EDGE('',*,*,#613,.T.);
#615=CARTESIAN_POINT('',(0.8,0.5,0.55));
#616=DIRECTION('',(-1.0,0.0,0.0));
#617=VECTOR('',#616,1.6);
#618=LINE('',#615,#617);
#619=EDGE_CURVE('',#607,#541,#618,.T.);
#620=ORIENTED_EDGE('',*,*,#619,.T.);
#621=ORIENTED_EDGE('',*,*,#547,.F.);
#622=CARTESIAN_POINT('',(-0.8,0.45,0.6));
#623=DIRECTION('',(1.0,0.0,0.0));
#624=VECTOR('',#623,1.6);
#625=LINE('',#622,#624);
#626=EDGE_CURVE('',#539,#605,#625,.T.);
#627=ORIENTED_EDGE('',*,*,#626,.T.);
#628=EDGE_LOOP('',(#614,#620,#621,#627));
#629=FACE_OUTER_BOUND('',#628,.T.);
#630=ADVANCED_FACE('',(#629),#603,.T.);
#631=CARTESIAN_POINT('',(0.800000249998125,-0.4,0.550158113092445));
#632=CARTESIAN_POINT('',(0.800158113290085,-0.4,0.600078869245074));
#633=CARTESIAN_POINT('',(0.850079056645042,-0.4,0.59999993750043));
#634=CARTESIAN_POINT('',(0.9,-0.4,0.599921005755786));
#635=CARTESIAN_POINT('',(0.9,-0.4,0.55));
#636=CARTESIAN_POINT('',(0.800000249998125,-0.399999750001875,0.550158113092445));
#637=CARTESIAN_POINT('',(0.800158113290085,-0.399841886709915,0.600078869245074));
#638=CARTESIAN_POINT('',(0.850079056645042,-0.349920943354958,0.59999993750043));
#639=CARTESIAN_POINT('',(0.9,-0.3,0.599921005755786));
#640=CARTESIAN_POINT('',(0.9,-0.3,0.55));
#641=CARTESIAN_POINT('',(0.8,-0.399999750001875,0.550158113092445));
#642=CARTESIAN_POINT('',(0.8,-0.399841886709915,0.600078869245074));
#643=CARTESIAN_POINT('',(0.8,-0.349920943354958,0.59999993750043));
#644=CARTESIAN_POINT('',(0.8,-0.3,0.599921005755786));
#645=CARTESIAN_POINT('',(0.8,-0.3,0.55));
#646=CARTESIAN_POINT('',(0.799999750001875,-0.399999750001875,0.550158113092445));
#647=CARTESIAN_POINT('',(0.799841886709915,-0.399841886709915,0.600078869245074));
#648=CARTESIAN_POINT('',(0.749920943354957,-0.349920943354958,0.59999993750043));
#649=CARTESIAN_POINT('',(0.7,-0.3,0.599921005755786));
#650=CARTESIAN_POINT('',(0.7,-0.3,0.55));
#651=CARTESIAN_POINT('',(0.799999750001875,-0.4,0.550158113092445));
#652=CARTESIAN_POINT('',(0.799841886709915,-0.4,0.600078869245074));
#653=CARTESIAN_POINT('',(0.749920943354957,-0.4,0.59999993750043));
#654=CARTESIAN_POINT('',(0.7,-0.4,0.599921005755786));
#655=CARTESIAN_POINT('',(0.7,-0.4,0.55));
#656=CARTESIAN_POINT('',(0.799999750001875,-0.400000249998125,0.550158113092445));
#657=CARTESIAN_POINT('',(0.799841886709915,-0.400158113290086,0.600078869245074));
#658=CARTESIAN_POINT('',(0.749920943354957,-0.450079056645043,0.59999993750043));
#659=CARTESIAN_POINT('',(0.7,-0.5,0.599921005755786));
#660=CARTESIAN_POINT('',(0.7,-0.5,0.55));
#661=CARTESIAN_POINT('',(0.8,-0.400000249998125,0.550158113092445));
#662=CARTESIAN_POINT('',(0.8,-0.400158113290086,0.600078869245074));
#663=CARTESIAN_POINT('',(0.8,-0.450079056645043,0.59999993750043));
#664=CARTESIAN_POINT('',(0.8,-0.5,0.599921005755786));
#665=CARTESIAN_POINT('',(0.8,-0.5,0.55));
#666=CARTESIAN_POINT('',(0.800000249998125,-0.400000249998125,0.550158113092445));
#667=CARTESIAN_POINT('',(0.800158113290085,-0.400158113290086,0.600078869245074));
#668=CARTESIAN_POINT('',(0.850079056645042,-0.450079056645043,0.59999993750043));
#669=CARTESIAN_POINT('',(0.9,-0.5,0.599921005755786));
#670=CARTESIAN_POINT('',(0.9,-0.5,0.55));
#671=CARTESIAN_POINT('',(0.800000249998125,-0.4,0.550158113092445));
#672=CARTESIAN_POINT('',(0.800158113290085,-0.4,0.600078869245074));
#673=CARTESIAN_POINT('',(0.850079056645042,-0.4,0.59999993750043));
#674=CARTESIAN_POINT('',(0.9,-0.4,0.599921005755786));
#675=CARTESIAN_POINT('',(0.9,-0.4,0.55));
#683=(BOUNDED_SURFACE()B_SPLINE_SURFACE(2,2,((#631,#636,#641,#646,#651,#656,#661,#666,#671),(#632,#637,#642,#647,#652,#657,#662,#667,#672),(#633,#638,#643,#648,#653,#658,#663,#668,#673),(#634,#639,#644,#649,#654,#659,#664,#669,#674),(#635,#640,#645,#650,#655,#660,#665,#670,#675)),.UNSPECIFIED.,.F.,.T.,.U.)B_SPLINE_SURFACE_WITH_KNOTS((3,2,3),(3,2,2,2,3),(-3.138430386470487,-1.569215193235244,0.0),(0.0,1.570796326794897,3.141592653589793,4.71238898038469,6.283185307179586),.UNSPECIFIED.)GEOMETRIC_REPRESENTATION_ITEM()RATIONAL_B_SPLINE_SURFACE(((1.0,0.707106781186548,1.0,0.707106781186548,1.0,0.707106781186548,1.0,0.707106781186548,1.0),(0.707665575289932,0.500395127099791,0.707665575289932,0.500395127099791,0.707665575289932,0.500395127099791,0.707665575289932,0.500395127099791,0.707665575289932),(1.0,0.707106781186548,1.0,0.707106781186548,1.0,0.707106781186548,1.0,0.707106781186548,1.0),(0.70766557528993,0.500395127099789,0.70766557528993,0.500395127099789,0.70766557528993,0.500395127099789,0.70766557528993,0.500395127099789,0.70766557528993),(1.0,0.707106781186548,1.0,0.707106781186548,1.0,0.707106781186548,1.0,0.707106781186548,1.0)))REPRESENTATION_ITEM('')SURFACE());
#684=CARTESIAN_POINT('',(0.9,-0.4,0.55));
#685=VERTEX_POINT('',#684);
#686=CARTESIAN_POINT('',(0.85,-0.4,0.6));
#687=VERTEX_POINT('',#686);
#688=CARTESIAN_POINT('',(0.85,-0.4,0.55));
#689=DIRECTION('',(0.0,-1.0,0.0));
#690=DIRECTION('',(1.0,0.0,0.0));
#691=AXIS2_PLACEMENT_3D('',#688,#689,#690);
#692=CIRCLE('',#691,0.05);
#693=EDGE_CURVE('',#685,#687,#692,.T.);
#694=ORIENTED_EDGE('',*,*,#693,.T.);
#695=CARTESIAN_POINT('',(0.8,-0.4,0.6));
#696=DIRECTION('',(0.0,0.0,-1.0));
#697=DIRECTION('',(0.707106781186548,-0.707106781186547,0.0));
#698=AXIS2_PLACEMENT_3D('',#695,#696,#697);
#699=CIRCLE('',#698,0.05);
#700=EDGE_CURVE('',#687,#575,#699,.T.);
#701=ORIENTED_EDGE('',*,*,#700,.T.);
#702=ORIENTED_EDGE('',*,*,#581,.F.);
#703=CARTESIAN_POINT('',(0.8,-0.4,0.55));
#704=DIRECTION('',(0.0,0.0,1.0));
#705=DIRECTION('',(0.707106781186548,-0.707106781186547,0.0));
#706=AXIS2_PLACEMENT_3D('',#703,#704,#705);
#707=CIRCLE('',#706,0.1);
#708=EDGE_CURVE('',#573,#685,#707,.T.);
#709=ORIENTED_EDGE('',*,*,#708,.T.);
#710=EDGE_LOOP('',(#694,#701,#702,#709));
#711=FACE_OUTER_BOUND('',#710,.T.);
#712=ADVANCED_FACE('',(#711),#683,.T.);
#713=CARTESIAN_POINT('',(0.8,0.4,0.55));
#714=DIRECTION('',(0.0,0.0,-1.0));
#715=DIRECTION('',(-1.0,0.0,0.0));
#716=AXIS2_PLACEMENT_3D('',#713,#714,#715);
#717=TOROIDAL_SURFACE('',#716,0.05,0.05);
#718=CARTESIAN_POINT('',(0.85,0.4,0.6));
#719=VERTEX_POINT('',#718);
#720=CARTESIAN_POINT('',(0.9,0.4,0.55));
#721=VERTEX_POINT('',#720);
#722=CARTESIAN_POINT('',(0.85,0.4,0.55));
#723=DIRECTION('',(0.0,1.0,0.0));
#724=DIRECTION('',(0.0,0.0,1.0));
#725=AXIS2_PLACEMENT_3D('',#722,#723,#724);
#726=CIRCLE('',#725,0.05);
#727=EDGE_CURVE('',#719,#721,#726,.T.);
#728=ORIENTED_EDGE('',*,*,#727,.T.);
#729=CARTESIAN_POINT('',(0.8,0.4,0.55));
#730=DIRECTION('',(0.0,0.0,1.0));
#731=DIRECTION('',(0.707106781186547,0.707106781186548,0.0));
#732=AXIS2_PLACEMENT_3D('',#729,#730,#731);
#733=CIRCLE('',#732,0.1);
#734=EDGE_CURVE('',#721,#607,#733,.T.);
#735=ORIENTED_EDGE('',*,*,#734,.T.);
#736=ORIENTED_EDGE('',*,*,#613,.F.);
#737=CARTESIAN_POINT('',(0.8,0.4,0.6));
#738=DIRECTION('',(0.0,0.0,-1.0));
#739=DIRECTION('',(0.707106781186547,0.707106781186548,0.0));
#740=AXIS2_PLACEMENT_3D('',#737,#738,#739);
#741=CIRCLE('',#740,0.05);
#742=EDGE_CURVE('',#605,#719,#741,.T.);
#743=ORIENTED_EDGE('',*,*,#742,.T.);
#744=EDGE_LOOP('',(#728,#735,#736,#743));
#745=FACE_OUTER_BOUND('',#744,.T.);
#746=ADVANCED_FACE('',(#745),#717,.T.);
#747=CARTESIAN_POINT('',(0.85,-3.448804E-016,0.55));
#748=DIRECTION('',(-4.057416E-016,-1.0,0.0));
#749=DIRECTION('',(0.707106781186548,-2.869027E-016,0.707106781186547));
#750=AXIS2_PLACEMENT_3D('',#747,#748,#749);
#751=CYLINDRICAL_SURFACE('',#750,0.05);
#752=ORIENTED_EDGE('',*,*,#693,.F.);
#753=CARTESIAN_POINT('',(0.9,-0.4,0.55));
#754=DIRECTION('',(0.0,1.0,0.0));
#755=VECTOR('',#754,0.8);
#756=LINE('',#753,#755);
#757=EDGE_CURVE('',#685,#721,#756,.T.);
#758=ORIENTED_EDGE('',*,*,#757,.T.);
#759=ORIENTED_EDGE('',*,*,#727,.F.);
#760=CARTESIAN_POINT('',(0.85,0.4,0.6));
#761=DIRECTION('',(0.0,-1.0,0.0));
#762=VECTOR('',#761,0.8);
#763=LINE('',#760,#762);
#764=EDGE_CURVE('',#719,#687,#763,.T.);
#765=ORIENTED_EDGE('',*,*,#764,.T.);
#766=EDGE_LOOP('',(#752,#758,#759,#765));
#767=FACE_OUTER_BOUND('',#766,.T.);
#768=ADVANCED_FACE('',(#767),#751,.T.);
#769=CARTESIAN_POINT('',(0.8,-0.4,0.55));
#770=DIRECTION('',(0.0,0.0,-1.0));
#771=DIRECTION('',(0.707106781186547,-0.707106781186548,0.0));
#772=AXIS2_PLACEMENT_3D('',#769,#770,#771);
#773=CYLINDRICAL_SURFACE('',#772,0.1);
#774=ORIENTED_EDGE('',*,*,#708,.F.);
#775=CARTESIAN_POINT('',(0.8,-0.5,0.5));
#776=VERTEX_POINT('',#775);
#777=CARTESIAN_POINT('',(0.8,-0.5,0.55));
#778=DIRECTION('',(0.0,0.0,-1.0));
#779=VECTOR('',#778,0.05);
#780=LINE('',#777,#779);
#781=EDGE_CURVE('',#573,#776,#780,.T.);
#782=ORIENTED_EDGE('',*,*,#781,.T.);
#783=CARTESIAN_POINT('',(0.9,-0.4,0.5));
#784=VERTEX_POINT('',#783);
#785=CARTESIAN_POINT('',(0.8,-0.4,0.5));
#786=DIRECTION('',(0.0,0.0,1.0));
#787=DIRECTION('',(0.707106781186547,-0.707106781186548,0.0));
#788=AXIS2_PLACEMENT_3D('',#785,#786,#787);
#789=CIRCLE('',#788,0.1);
#790=EDGE_CURVE('',#776,#784,#789,.T.);
#791=ORIENTED_EDGE('',*,*,#790,.T.);
#792=CARTESIAN_POINT('',(0.9,-0.4,0.5));
#793=DIRECTION('',(0.0,0.0,1.0));
#794=VECTOR('',#793,0.05);
#795=LINE('',#792,#794);
#796=EDGE_CURVE('',#784,#685,#795,.T.);
#797=ORIENTED_EDGE('',*,*,#796,.T.);
#798=EDGE_LOOP('',(#774,#782,#791,#797));
#799=FACE_OUTER_BOUND('',#798,.T.);
#800=ADVANCED_FACE('',(#799),#773,.T.);
#801=CARTESIAN_POINT('',(-0.8,-0.5,0.5));
#802=CARTESIAN_POINT('',(-0.8,-0.5,0.55));
#803=CARTESIAN_POINT('',(0.8,-0.5,0.5));
#804=CARTESIAN_POINT('',(0.8,-0.5,0.55));
#805=B_SPLINE_SURFACE_WITH_KNOTS('',1,1,((#801,#803),(#802,#804)),.UNSPECIFIED.,.F.,.F.,.U.,(2,2),(2,2),(0.0,0.05),(0.0,1.6),.UNSPECIFIED.);
#806=ORIENTED_EDGE('',*,*,#594,.F.);
#807=CARTESIAN_POINT('',(-0.8,-0.5,0.5));
#808=VERTEX_POINT('',#807);
#809=CARTESIAN_POINT('',(-0.8,-0.5,0.5));
#810=DIRECTION('',(0.0,0.0,1.0));
#811=VECTOR('',#810,0.05);
#812=LINE('',#809,#811);
#813=EDGE_CURVE('',#808,#457,#812,.T.);
#814=ORIENTED_EDGE('',*,*,#813,.F.);
#815=CARTESIAN_POINT('',(-0.8,-0.5,0.5));
#816=DIRECTION('',(1.0,0.0,0.0));
#817=VECTOR('',#816,1.6);
#818=LINE('',#815,#817);
#819=EDGE_CURVE('',#808,#776,#818,.T.);
#820=ORIENTED_EDGE('',*,*,#819,.T.);
#821=ORIENTED_EDGE('',*,*,#781,.F.);
#822=EDGE_LOOP('',(#806,#814,#820,#821));
#823=FACE_OUTER_BOUND('',#822,.T.);
#824=ADVANCED_FACE('',(#823),#805,.F.);
#825=CARTESIAN_POINT('',(-0.8,-0.4,0.55));
#826=DIRECTION('',(0.0,0.0,-1.0));
#827=DIRECTION('',(-0.707106781186548,-0.707106781186548,0.0));
#828=AXIS2_PLACEMENT_3D('',#825,#826,#827);
#829=CYLINDRICAL_SURFACE('',#828,0.1);
#830=ORIENTED_EDGE('',*,*,#480,.F.);
#831=CARTESIAN_POINT('',(-0.9,-0.4,0.5));
#832=VERTEX_POINT('',#831);
#833=CARTESIAN_POINT('',(-0.9,-0.4,0.55));
#834=DIRECTION('',(0.0,0.0,-1.0));
#835=VECTOR('',#834,0.05);
#836=LINE('',#833,#835);
#837=EDGE_CURVE('',#415,#832,#836,.T.);
#838=ORIENTED_EDGE('',*,*,#837,.T.);
#839=CARTESIAN_POINT('',(-0.8,-0.4,0.5));
#840=DIRECTION('',(0.0,0.0,1.0));
#841=DIRECTION('',(-0.707106781186548,-0.707106781186548,0.0));
#842=AXIS2_PLACEMENT_3D('',#839,#840,#841);
#843=CIRCLE('',#842,0.1);
#844=EDGE_CURVE('',#832,#808,#843,.T.);
#845=ORIENTED_EDGE('',*,*,#844,.T.);
#846=ORIENTED_EDGE('',*,*,#813,.T.);
#847=EDGE_LOOP('',(#830,#838,#845,#846));
#848=FACE_OUTER_BOUND('',#847,.T.);
#849=ADVANCED_FACE('',(#848),#829,.T.);
#850=CARTESIAN_POINT('',(-0.9,0.4,0.5));
#851=CARTESIAN_POINT('',(-0.9,0.4,0.55));
#852=CARTESIAN_POINT('',(-0.9,-0.4,0.5));
#853=CARTESIAN_POINT('',(-0.9,-0.4,0.55));
#854=B_SPLINE_SURFACE_WITH_KNOTS('',1,1,((#850,#852),(#851,#853)),.UNSPECIFIED.,.F.,.F.,.U.,(2,2),(2,2),(0.0,0.05),(0.0,0.8),.UNSPECIFIED.);
#855=ORIENTED_EDGE('',*,*,#446,.F.);
#856=CARTESIAN_POINT('',(-0.9,0.4,0.5));
#857=VERTEX_POINT('',#856);
#858=CARTESIAN_POINT('',(-0.9,0.4,0.5));
#859=DIRECTION('',(0.0,0.0,1.0));
#860=VECTOR('',#859,0.05);
#861=LINE('',#858,#860);
#862=EDGE_CURVE('',#857,#434,#861,.T.);
#863=ORIENTED_EDGE('',*,*,#862,.F.);
#864=CARTESIAN_POINT('',(-0.9,0.4,0.5));
#865=DIRECTION('',(0.0,-1.0,0.0));
#866=VECTOR('',#865,0.8);
#867=LINE('',#864,#866);
#868=EDGE_CURVE('',#857,#832,#867,.T.);
#869=ORIENTED_EDGE('',*,*,#868,.T.);
#870=ORIENTED_EDGE('',*,*,#837,.F.);
#871=EDGE_LOOP('',(#855,#863,#869,#870));
#872=FACE_OUTER_BOUND('',#871,.T.);
#873=ADVANCED_FACE('',(#872),#854,.F.);
#874=CARTESIAN_POINT('',(0.850000000000001,0.45,0.6));
#875=CARTESIAN_POINT('',(-0.85,0.450000000000001,0.6));
#876=CARTESIAN_POINT('',(0.85,-0.450000000000001,0.6));
#877=CARTESIAN_POINT('',(-0.850000000000001,-0.45,0.6));
#878=B_SPLINE_SURFACE_WITH_KNOTS('',1,1,((#874,#876),(#875,#877)),.UNSPECIFIED.,.F.,.F.,.U.,(2,2),(2,2),(0.0,1.700000000000001),(0.0,0.900000000000001),.UNSPECIFIED.);
#879=ORIENTED_EDGE('',*,*,#431,.F.);
#880=ORIENTED_EDGE('',*,*,#472,.F.);
#881=ORIENTED_EDGE('',*,*,#587,.F.);
#882=ORIENTED_EDGE('',*,*,#700,.F.);
#883=ORIENTED_EDGE('',*,*,#764,.F.);
#884=ORIENTED_EDGE('',*,*,#742,.F.);
#885=ORIENTED_EDGE('',*,*,#626,.F.);
#886=ORIENTED_EDGE('',*,*,#562,.F.);
#887=EDGE_LOOP('',(#879,#880,#881,#882,#883,#884,#885,#886));
#888=FACE_OUTER_BOUND('',#887,.T.);
#889=ADVANCED_FACE('',(#888),#878,.T.);
#890=CARTESIAN_POINT('',(0.8,0.4,0.55));
#891=DIRECTION('',(0.0,0.0,-1.0));
#892=DIRECTION('',(0.707106781186548,0.707106781186548,0.0));
#893=AXIS2_PLACEMENT_3D('',#890,#891,#892);
#894=CYLINDRICAL_SURFACE('',#893,0.1);
#895=ORIENTED_EDGE('',*,*,#734,.F.);
#896=CARTESIAN_POINT('',(0.9,0.4,0.5));
#897=VERTEX_POINT('',#896);
#898=CARTESIAN_POINT('',(0.9,0.4,0.55));
#899=DIRECTION('',(0.0,0.0,-1.0));
#900=VECTOR('',#899,0.05);
#901=LINE('',#898,#900);
#902=EDGE_CURVE('',#721,#897,#901,.T.);
#903=ORIENTED_EDGE('',*,*,#902,.T.);
#904=CARTESIAN_POINT('',(0.8,0.5,0.5));
#905=VERTEX_POINT('',#904);
#906=CARTESIAN_POINT('',(0.8,0.4,0.5));
#907=DIRECTION('',(0.0,0.0,1.0));
#908=DIRECTION('',(0.707106781186548,0.707106781186548,0.0));
#909=AXIS2_PLACEMENT_3D('',#906,#907,#908);
#910=CIRCLE('',#909,0.1);
#911=EDGE_CURVE('',#897,#905,#910,.T.);
#912=ORIENTED_EDGE('',*,*,#911,.T.);
#913=CARTESIAN_POINT('',(0.8,0.5,0.5));
#914=DIRECTION('',(0.0,0.0,1.0));
#915=VECTOR('',#914,0.05);
#916=LINE('',#913,#915);
#917=EDGE_CURVE('',#905,#607,#916,.T.);
#918=ORIENTED_EDGE('',*,*,#917,.T.);
#919=EDGE_LOOP('',(#895,#903,#912,#918));
#920=FACE_OUTER_BOUND('',#919,.T.);
#921=ADVANCED_FACE('',(#920),#894,.T.);
#922=CARTESIAN_POINT('',(-0.8,0.5,0.55));
#923=CARTESIAN_POINT('',(-0.8,0.5,0.5));
#924=CARTESIAN_POINT('',(0.8,0.5,0.55));
#925=CARTESIAN_POINT('',(0.8,0.5,0.5));
#926=B_SPLINE_SURFACE_WITH_KNOTS('',1,1,((#922,#924),(#923,#925)),.UNSPECIFIED.,.F.,.F.,.U.,(2,2),(2,2),(0.0,0.05),(0.0,1.6),.UNSPECIFIED.);
#927=ORIENTED_EDGE('',*,*,#619,.F.);
#928=ORIENTED_EDGE('',*,*,#917,.F.);
#929=CARTESIAN_POINT('',(-0.8,0.5,0.5));
#930=VERTEX_POINT('',#929);
#931=CARTESIAN_POINT('',(0.8,0.5,0.5));
#932=DIRECTION('',(-1.0,0.0,0.0));
#933=VECTOR('',#932,1.6);
#934=LINE('',#931,#933);
#935=EDGE_CURVE('',#905,#930,#934,.T.);
#936=ORIENTED_EDGE('',*,*,#935,.T.);
#937=CARTESIAN_POINT('',(-0.8,0.5,0.55));
#938=DIRECTION('',(0.0,0.0,-1.0));
#939=VECTOR('',#938,0.05);
#940=LINE('',#937,#939);
#941=EDGE_CURVE('',#541,#930,#940,.T.);
#942=ORIENTED_EDGE('',*,*,#941,.F.);
#943=EDGE_LOOP('',(#927,#928,#936,#942));
#944=FACE_OUTER_BOUND('',#943,.T.);
#945=ADVANCED_FACE('',(#944),#926,.F.);
#946=CARTESIAN_POINT('',(0.900000000000001,0.5,0.5));
#947=CARTESIAN_POINT('',(-0.9,0.500000000000001,0.5));
#948=CARTESIAN_POINT('',(0.9,-0.500000000000001,0.5));
#949=CARTESIAN_POINT('',(-0.900000000000001,-0.5,0.5));
#950=B_SPLINE_SURFACE_WITH_KNOTS('',1,1,((#946,#948),(#947,#949)),.UNSPECIFIED.,.F.,.F.,.U.,(2,2),(2,2),(0.0,1.800000000000001),(0.0,1.000000000000001),.UNSPECIFIED.);
#951=ORIENTED_EDGE('',*,*,#911,.F.);
#952=CARTESIAN_POINT('',(0.9,-0.4,0.5));
#953=DIRECTION('',(0.0,1.0,0.0));
#954=VECTOR('',#953,0.8);
#955=LINE('',#952,#954);
#956=EDGE_CURVE('',#784,#897,#955,.T.);
#957=ORIENTED_EDGE('',*,*,#956,.F.);
#958=ORIENTED_EDGE('',*,*,#790,.F.);
#959=ORIENTED_EDGE('',*,*,#819,.F.);
#960=ORIENTED_EDGE('',*,*,#844,.F.);
#961=ORIENTED_EDGE('',*,*,#868,.F.);
#962=CARTESIAN_POINT('',(-0.8,0.4,0.5));
#963=DIRECTION('',(0.0,0.0,1.0));
#964=DIRECTION('',(-0.707106781186547,0.707106781186548,0.0));
#965=AXIS2_PLACEMENT_3D('',#962,#963,#964);
#966=CIRCLE('',#965,0.1);
#967=EDGE_CURVE('',#930,#857,#966,.T.);
#968=ORIENTED_EDGE('',*,*,#967,.F.);
#969=ORIENTED_EDGE('',*,*,#935,.F.);
#970=EDGE_LOOP('',(#951,#957,#958,#959,#960,#961,#968,#969));
#971=FACE_OUTER_BOUND('',#970,.T.);
#972=ADVANCED_FACE('',(#971),#950,.F.);
#973=CARTESIAN_POINT('',(-0.8,0.4,0.55));
#974=DIRECTION('',(0.0,0.0,-1.0));
#975=DIRECTION('',(-0.707106781186547,0.707106781186548,0.0));
#976=AXIS2_PLACEMENT_3D('',#973,#974,#975);
#977=CYLINDRICAL_SURFACE('',#976,0.1);
#978=ORIENTED_EDGE('',*,*,#554,.F.);
#979=ORIENTED_EDGE('',*,*,#941,.T.);
#980=ORIENTED_EDGE('',*,*,#967,.T.);
#981=ORIENTED_EDGE('',*,*,#862,.T.);
#982=EDGE_LOOP('',(#978,#979,#980,#981));
#983=FACE_OUTER_BOUND('',#982,.T.);
#984=ADVANCED_FACE('',(#983),#977,.T.);
#985=CARTESIAN_POINT('',(0.9,0.4,0.55));
#986=CARTESIAN_POINT('',(0.9,0.4,0.5));
#987=CARTESIAN_POINT('',(0.9,-0.4,0.55));
#988=CARTESIAN_POINT('',(0.9,-0.4,0.5));
#989=B_SPLINE_SURFACE_WITH_KNOTS('',1,1,((#985,#987),(#986,#988)),.UNSPECIFIED.,.F.,.F.,.U.,(2,2),(2,2),(0.0,0.05),(0.0,0.8),.UNSPECIFIED.);
#990=ORIENTED_EDGE('',*,*,#757,.F.);
#991=ORIENTED_EDGE('',*,*,#796,.F.);
#992=ORIENTED_EDGE('',*,*,#956,.T.);
#993=ORIENTED_EDGE('',*,*,#902,.F.);
#994=EDGE_LOOP('',(#990,#991,#992,#993));
#995=FACE_OUTER_BOUND('',#994,.T.);
#996=ADVANCED_FACE('',(#995),#989,.F.);
#997=CLOSED_SHELL('',(#450,#484,#566,#598,#630,#712,#746,#768,#800,#824,#849,#873,#889,#921,#945,#972,#984,#996));
#998=MANIFOLD_SOLID_BREP('A99',#997);
#999=COLOUR_RGB('254',0.866,0.866,0.866);
#1000=SURFACE_STYLE_USAGE(.BOTH.,#1001);
#1001=SURFACE_SIDE_STYLE('NONE',(#1002));
#1002=SURFACE_STYLE_FILL_AREA(#1003);
#1003=FILL_AREA_STYLE('NONE',(#1004));
#1004=FILL_AREA_STYLE_COLOUR('NONE',#999);
#1005=PRESENTATION_STYLE_ASSIGNMENT((#1000));
#1006=STYLED_ITEM('NONE',(#1005),#998);
#1007=CARTESIAN_POINT('',(-0.525,0.45,0.05));
#1008=DIRECTION('',(0.707106781186548,0.707106781186547,0.0));
#1009=DIRECTION('',(0.0,0.0,1.0));
#1010=AXIS2_PLACEMENT_3D('',#1007,#1008,#1009);
#1011=PLANE('',#1010);
#1012=CARTESIAN_POINT('',(-0.425,0.35,0.0));
#1013=VERTEX_POINT('',#1012);
#1014=CARTESIAN_POINT('',(-0.625,0.55,0.0));
#1015=VERTEX_POINT('',#1014);
#1016=CARTESIAN_POINT('',(-0.425,0.35,0.0));
#1017=DIRECTION('',(-0.707106781186547,0.707106781186548,0.0));
#1018=VECTOR('',#1017,0.282842712474619);
#1019=LINE('',#1016,#1018);
#1020=EDGE_CURVE('',#1013,#1015,#1019,.T.);
#1021=ORIENTED_EDGE('',*,*,#1020,.F.);
#1022=CARTESIAN_POINT('',(-0.425,0.35,0.1));
#1023=VERTEX_POINT('',#1022);
#1024=CARTESIAN_POINT('',(-0.425,0.35,0.1));
#1025=DIRECTION('',(0.0,0.0,-1.0));
#1026=VECTOR('',#1025,0.1);
#1027=LINE('',#1024,#1026);
#1028=EDGE_CURVE('',#1023,#1013,#1027,.T.);
#1029=ORIENTED_EDGE('',*,*,#1028,.F.);
#1030=CARTESIAN_POINT('',(-0.625,0.55,0.1));
#1031=VERTEX_POINT('',#1030);
#1032=CARTESIAN_POINT('',(-0.625,0.55,0.1));
#1033=DIRECTION('',(0.707106781186547,-0.707106781186548,0.0));
#1034=VECTOR('',#1033,0.282842712474619);
#1035=LINE('',#1032,#1034);
#1036=EDGE_CURVE('',#1031,#1023,#1035,.T.);
#1037=ORIENTED_EDGE('',*,*,#1036,.F.);
#1038=CARTESIAN_POINT('',(-0.625,0.55,-1.387779E-017));
#1039=DIRECTION('',(0.0,0.0,1.0));
#1040=VECTOR('',#1039,0.1);
#1041=LINE('',#1038,#1040);
#1042=EDGE_CURVE('',#1015,#1031,#1041,.T.);
#1043=ORIENTED_EDGE('',*,*,#1042,.F.);
#1044=EDGE_LOOP('',(#1021,#1029,#1037,#1043));
#1045=FACE_OUTER_BOUND('',#1044,.T.);
#1046=ADVANCED_FACE('',(#1045),#1011,.F.);
#1047=CARTESIAN_POINT('',(-0.725,0.55,0.05));
#1048=DIRECTION('',(0.0,-1.0,0.0));
#1049=DIRECTION('',(0.0,0.0,1.0));
#1050=AXIS2_PLACEMENT_3D('',#1047,#1048,#1049);
#1051=PLANE('',#1050);
#1052=ORIENTED_EDGE('',*,*,#1042,.T.);
#1053=CARTESIAN_POINT('',(-1.025,0.55,0.1));
#1054=VERTEX_POINT('',#1053);
#1055=CARTESIAN_POINT('',(-0.625,0.55,0.1));
#1056=DIRECTION('',(-1.0,0.0,0.0));
#1057=VECTOR('',#1056,0.4);
#1058=LINE('',#1055,#1057);
#1059=EDGE_CURVE('',#1031,#1054,#1058,.T.);
#1060=ORIENTED_EDGE('',*,*,#1059,.T.);
#1061=CARTESIAN_POINT('',(-1.025,0.55,0.0));
#1062=VERTEX_POINT('',#1061);
#1063=CARTESIAN_POINT('',(-1.025,0.55,0.1));
#1064=DIRECTION('',(0.0,0.0,-1.0));
#1065=VECTOR('',#1064,0.1);
#1066=LINE('',#1063,#1065);
#1067=EDGE_CURVE('',#1054,#1062,#1066,.T.);
#1068=ORIENTED_EDGE('',*,*,#1067,.T.);
#1069=CARTESIAN_POINT('',(-0.625,0.55,0.0));
#1070=DIRECTION('',(-1.0,0.0,0.0));
#1071=VECTOR('',#1070,0.4);
#1072=LINE('',#1069,#1071);
#1073=EDGE_CURVE('',#1015,#1062,#1072,.T.);
#1074=ORIENTED_EDGE('',*,*,#1073,.F.);
#1075=EDGE_LOOP('',(#1052,#1060,#1068,#1074));
#1076=FACE_OUTER_BOUND('',#1075,.T.);
#1077=ADVANCED_FACE('',(#1076),#1051,.T.);
#1078=CARTESIAN_POINT('',(-0.725,0.0,0.1));
#1079=DIRECTION('',(0.0,0.0,1.0));
#1080=DIRECTION('',(-1.0,0.0,0.0));
#1081=AXIS2_PLACEMENT_3D('',#1078,#1079,#1080);
#1082=PLANE('',#1081);
#1083=ORIENTED_EDGE('',*,*,#1036,.T.);
#1084=CARTESIAN_POINT('',(-0.425,-0.55,0.1));
#1085=VERTEX_POINT('',#1084);
#1086=CARTESIAN_POINT('',(-0.425,-0.55,0.1));
#1087=DIRECTION('',(0.0,1.0,0.0));
#1088=VECTOR('',#1087,0.900000000000001);
#1089=LINE('',#1086,#1088);
#1090=EDGE_CURVE('',#1085,#1023,#1089,.T.);
#1091=ORIENTED_EDGE('',*,*,#1090,.F.);
#1092=CARTESIAN_POINT('',(-1.025,-0.55,0.1));
#1093=VERTEX_POINT('',#1092);
#1094=CARTESIAN_POINT('',(-1.025,-0.55,0.1));
#1095=DIRECTION('',(1.0,0.0,0.0));
#1096=VECTOR('',#1095,0.6);
#1097=LINE('',#1094,#1096);
#1098=EDGE_CURVE('',#1093,#1085,#1097,.T.);
#1099=ORIENTED_EDGE('',*,*,#1098,.F.);
#1100=CARTESIAN_POINT('',(-1.025,0.55,0.1));
#1101=DIRECTION('',(0.0,-1.0,0.0));
#1102=VECTOR('',#1101,1.100000000000001);
#1103=LINE('',#1100,#1102);
#1104=EDGE_CURVE('',#1054,#1093,#1103,.T.);
#1105=ORIENTED_EDGE('',*,*,#1104,.F.);
#1106=ORIENTED_EDGE('',*,*,#1059,.F.);
#1107=EDGE_LOOP('',(#1083,#1091,#1099,#1105,#1106));
#1108=FACE_OUTER_BOUND('',#1107,.T.);
#1109=ADVANCED_FACE('',(#1108),#1082,.F.);
#1110=CARTESIAN_POINT('',(-0.425,-1.217225E-016,0.05));
#1111=DIRECTION('',(-1.0,0.0,0.0));
#1112=DIRECTION('',(0.0,0.0,-1.0));
#1113=AXIS2_PLACEMENT_3D('',#1110,#1111,#1112);
#1114=PLANE('',#1113);
#1115=ORIENTED_EDGE('',*,*,#1028,.T.);
#1116=CARTESIAN_POINT('',(-0.425,-0.55,0.0));
#1117=VERTEX_POINT('',#1116);
#1118=CARTESIAN_POINT('',(-0.425,-0.55,0.0));
#1119=DIRECTION('',(0.0,1.0,0.0));
#1120=VECTOR('',#1119,0.900000000000001);
#1121=LINE('',#1118,#1120);
#1122=EDGE_CURVE('',#1117,#1013,#1121,.T.);
#1123=ORIENTED_EDGE('',*,*,#1122,.F.);
#1124=CARTESIAN_POINT('',(-0.425,-0.55,0.1));
#1125=DIRECTION('',(0.0,0.0,-1.0));
#1126=VECTOR('',#1125,0.1);
#1127=LINE('',#1124,#1126);
#1128=EDGE_CURVE('',#1085,#1117,#1127,.T.);
#1129=ORIENTED_EDGE('',*,*,#1128,.F.);
#1130=ORIENTED_EDGE('',*,*,#1090,.T.);
#1131=EDGE_LOOP('',(#1115,#1123,#1129,#1130));
#1132=FACE_OUTER_BOUND('',#1131,.T.);
#1133=ADVANCED_FACE('',(#1132),#1114,.T.);
#1134=CARTESIAN_POINT('',(-0.725,-0.55,0.05));
#1135=DIRECTION('',(0.0,1.0,0.0));
#1136=DIRECTION('',(0.0,0.0,-1.0));
#1137=AXIS2_PLACEMENT_3D('',#1134,#1135,#1136);
#1138=PLANE('',#1137);
#1139=CARTESIAN_POINT('',(-1.025,-0.55,0.0));
#1140=VERTEX_POINT('',#1139);
#1141=CARTESIAN_POINT('',(-1.025,-0.55,0.1));
#1142=DIRECTION('',(0.0,0.0,-1.0));
#1143=VECTOR('',#1142,0.1);
#1144=LINE('',#1141,#1143);
#1145=EDGE_CURVE('',#1093,#1140,#1144,.T.);
#1146=ORIENTED_EDGE('',*,*,#1145,.F.);
#1147=ORIENTED_EDGE('',*,*,#1098,.T.);
#1148=ORIENTED_EDGE('',*,*,#1128,.T.);
#1149=CARTESIAN_POINT('',(-1.025,-0.55,0.0));
#1150=DIRECTION('',(1.0,0.0,0.0));
#1151=VECTOR('',#1150,0.6);
#1152=LINE('',#1149,#1151);
#1153=EDGE_CURVE('',#1140,#1117,#1152,.T.);
#1154=ORIENTED_EDGE('',*,*,#1153,.F.);
#1155=EDGE_LOOP('',(#1146,#1147,#1148,#1154));
#1156=FACE_OUTER_BOUND('',#1155,.T.);
#1157=ADVANCED_FACE('',(#1156),#1138,.T.);
#1158=CARTESIAN_POINT('',(-1.025,1.217225E-016,0.05));
#1159=DIRECTION('',(1.0,0.0,0.0));
#1160=DIRECTION('',(0.0,0.0,1.0));
#1161=AXIS2_PLACEMENT_3D('',#1158,#1159,#1160);
#1162=PLANE('',#1161);
#1163=ORIENTED_EDGE('',*,*,#1067,.F.);
#1164=ORIENTED_EDGE('',*,*,#1104,.T.);
#1165=ORIENTED_EDGE('',*,*,#1145,.T.);
#1166=CARTESIAN_POINT('',(-1.025,0.55,0.0));
#1167=DIRECTION('',(0.0,-1.0,0.0));
#1168=VECTOR('',#1167,1.100000000000001);
#1169=LINE('',#1166,#1168);
#1170=EDGE_CURVE('',#1062,#1140,#1169,.T.);
#1171=ORIENTED_EDGE('',*,*,#1170,.F.);
#1172=EDGE_LOOP('',(#1163,#1164,#1165,#1171));
#1173=FACE_OUTER_BOUND('',#1172,.T.);
#1174=ADVANCED_FACE('',(#1173),#1162,.T.);
#1175=CARTESIAN_POINT('',(0.425,-0.550000000000001,0.1));
#1176=CARTESIAN_POINT('',(1.025,-0.55,0.1));
#1177=CARTESIAN_POINT('',(0.424999999999999,0.55,0.1));
#1178=CARTESIAN_POINT('',(1.025,0.550000000000001,0.1));
#1179=B_SPLINE_SURFACE_WITH_KNOTS('',1,1,((#1175,#1177),(#1176,#1178)),.UNSPECIFIED.,.F.,.F.,.U.,(2,2),(2,2),(0.0,0.600000000000001),(0.0,1.100000000000001),.UNSPECIFIED.);
#1180=CARTESIAN_POINT('',(1.025,0.55,0.1));
#1181=VERTEX_POINT('',#1180);
#1182=CARTESIAN_POINT('',(1.025,-0.55,0.1));
#1183=VERTEX_POINT('',#1182);
#1184=CARTESIAN_POINT('',(1.025,0.55,0.1));
#1185=DIRECTION('',(0.0,-1.0,0.0));
#1186=VECTOR('',#1185,1.100000000000001);
#1187=LINE('',#1184,#1186);
#1188=EDGE_CURVE('',#1181,#1183,#1187,.T.);
#1189=ORIENTED_EDGE('',*,*,#1188,.T.);
#1190=CARTESIAN_POINT('',(0.425,-0.55,0.1));
#1191=VERTEX_POINT('',#1190);
#1192=CARTESIAN_POINT('',(1.025,-0.55,0.1));
#1193=DIRECTION('',(-1.0,0.0,0.0));
#1194=VECTOR('',#1193,0.6);
#1195=LINE('',#1192,#1194);
#1196=EDGE_CURVE('',#1183,#1191,#1195,.T.);
#1197=ORIENTED_EDGE('',*,*,#1196,.T.);
#1198=CARTESIAN_POINT('',(0.425,0.55,0.1));
#1199=VERTEX_POINT('',#1198);
#1200=CARTESIAN_POINT('',(0.425,-0.55,0.1));
#1201=DIRECTION('',(0.0,1.0,0.0));
#1202=VECTOR('',#1201,1.100000000000001);
#1203=LINE('',#1200,#1202);
#1204=EDGE_CURVE('',#1191,#1199,#1203,.T.);
#1205=ORIENTED_EDGE('',*,*,#1204,.T.);
#1206=CARTESIAN_POINT('',(0.425,0.55,0.1));
#1207=DIRECTION('',(1.0,0.0,0.0));
#1208=VECTOR('',#1207,0.6);
#1209=LINE('',#1206,#1208);
#1210=EDGE_CURVE('',#1199,#1181,#1209,.T.);
#1211=ORIENTED_EDGE('',*,*,#1210,.T.);
#1212=EDGE_LOOP('',(#1189,#1197,#1205,#1211));
#1213=FACE_OUTER_BOUND('',#1212,.T.);
#1214=ADVANCED_FACE('',(#1213),#1179,.F.);
#1215=CARTESIAN_POINT('',(1.025,0.55,-1.387779E-017));
#1216=CARTESIAN_POINT('',(1.025,0.55,0.1));
#1217=CARTESIAN_POINT('',(0.425,0.55,-1.387779E-017));
#1218=CARTESIAN_POINT('',(0.425,0.55,0.1));
#1219=B_SPLINE_SURFACE_WITH_KNOTS('',1,1,((#1215,#1217),(#1216,#1218)),.UNSPECIFIED.,.F.,.F.,.U.,(2,2),(2,2),(0.0,0.1),(0.0,0.6),.UNSPECIFIED.);
#1220=CARTESIAN_POINT('',(0.425,0.55,0.0));
#1221=VERTEX_POINT('',#1220);
#1222=CARTESIAN_POINT('',(0.425,0.55,0.1));
#1223=DIRECTION('',(0.0,0.0,-1.0));
#1224=VECTOR('',#1223,0.1);
#1225=LINE('',#1222,#1224);
#1226=EDGE_CURVE('',#1199,#1221,#1225,.T.);
#1227=ORIENTED_EDGE('',*,*,#1226,.T.);
#1228=CARTESIAN_POINT('',(1.025,0.55,0.0));
#1229=VERTEX_POINT('',#1228);
#1230=CARTESIAN_POINT('',(1.025,0.55,0.0));
#1231=DIRECTION('',(-1.0,0.0,0.0));
#1232=VECTOR('',#1231,0.6);
#1233=LINE('',#1230,#1232);
#1234=EDGE_CURVE('',#1229,#1221,#1233,.T.);
#1235=ORIENTED_EDGE('',*,*,#1234,.F.);
#1236=CARTESIAN_POINT('',(1.025,0.55,0.1));
#1237=DIRECTION('',(0.0,0.0,-1.0));
#1238=VECTOR('',#1237,0.1);
#1239=LINE('',#1236,#1238);
#1240=EDGE_CURVE('',#1181,#1229,#1239,.T.);
#1241=ORIENTED_EDGE('',*,*,#1240,.F.);
#1242=ORIENTED_EDGE('',*,*,#1210,.F.);
#1243=EDGE_LOOP('',(#1227,#1235,#1241,#1242));
#1244=FACE_OUTER_BOUND('',#1243,.T.);
#1245=ADVANCED_FACE('',(#1244),#1219,.T.);
#1246=CARTESIAN_POINT('',(0.425,-0.55,0.1));
#1247=CARTESIAN_POINT('',(0.425,-0.55,-1.387779E-017));
#1248=CARTESIAN_POINT('',(0.425,0.55,0.1));
#1249=CARTESIAN_POINT('',(0.425,0.55,-1.387779E-017));
#1250=B_SPLINE_SURFACE_WITH_KNOTS('',1,1,((#1246,#1248),(#1247,#1249)),.UNSPECIFIED.,.F.,.F.,.U.,(2,2),(2,2),(0.0,0.1),(0.0,1.100000000000001),.UNSPECIFIED.);
#1251=CARTESIAN_POINT('',(0.425,-0.55,0.0));
#1252=VERTEX_POINT('',#1251);
#1253=CARTESIAN_POINT('',(0.425,-0.55,0.1));
#1254=DIRECTION('',(0.0,0.0,-1.0));
#1255=VECTOR('',#1254,0.1);
#1256=LINE('',#1253,#1255);
#1257=EDGE_CURVE('',#1191,#1252,#1256,.T.);
#1258=ORIENTED_EDGE('',*,*,#1257,.T.);
#1259=CARTESIAN_POINT('',(0.425,0.55,0.0));
#1260=DIRECTION('',(0.0,-1.0,0.0));
#1261=VECTOR('',#1260,1.100000000000001);
#1262=LINE('',#1259,#1261);
#1263=EDGE_CURVE('',#1221,#1252,#1262,.T.);
#1264=ORIENTED_EDGE('',*,*,#1263,.F.);
#1265=ORIENTED_EDGE('',*,*,#1226,.F.);
#1266=ORIENTED_EDGE('',*,*,#1204,.F.);
#1267=EDGE_LOOP('',(#1258,#1264,#1265,#1266));
#1268=FACE_OUTER_BOUND('',#1267,.T.);
#1269=ADVANCED_FACE('',(#1268),#1250,.T.);
#1270=CARTESIAN_POINT('',(1.025,-0.55,0.1));
#1271=CARTESIAN_POINT('',(1.025,-0.55,-1.387779E-017));
#1272=CARTESIAN_POINT('',(0.425,-0.55,0.1));
#1273=CARTESIAN_POINT('',(0.425,-0.55,-1.387779E-017));
#1274=B_SPLINE_SURFACE_WITH_KNOTS('',1,1,((#1270,#1272),(#1271,#1273)),.UNSPECIFIED.,.F.,.F.,.U.,(2,2),(2,2),(0.0,0.1),(0.0,0.6),.UNSPECIFIED.);
#1275=CARTESIAN_POINT('',(1.025,-0.55,0.0));
#1276=VERTEX_POINT('',#1275);
#1277=CARTESIAN_POINT('',(1.025,-0.55,0.1));
#1278=DIRECTION('',(0.0,0.0,-1.0));
#1279=VECTOR('',#1278,0.1);
#1280=LINE('',#1277,#1279);
#1281=EDGE_CURVE('',#1183,#1276,#1280,.T.);
#1282=ORIENTED_EDGE('',*,*,#1281,.T.);
#1283=CARTESIAN_POINT('',(0.425,-0.55,0.0));
#1284=DIRECTION('',(1.0,0.0,0.0));
#1285=VECTOR('',#1284,0.6);
#1286=LINE('',#1283,#1285);
#1287=EDGE_CURVE('',#1252,#1276,#1286,.T.);
#1288=ORIENTED_EDGE('',*,*,#1287,.F.);
#1289=ORIENTED_EDGE('',*,*,#1257,.F.);
#1290=ORIENTED_EDGE('',*,*,#1196,.F.);
#1291=EDGE_LOOP('',(#1282,#1288,#1289,#1290));
#1292=FACE_OUTER_BOUND('',#1291,.T.);
#1293=ADVANCED_FACE('',(#1292),#1274,.T.);
#1294=CARTESIAN_POINT('',(1.025,-0.55,-1.387779E-017));
#1295=CARTESIAN_POINT('',(1.025,-0.55,0.1));
#1296=CARTESIAN_POINT('',(1.025,0.55,-1.387779E-017));
#1297=CARTESIAN_POINT('',(1.025,0.55,0.1));
#1298=B_SPLINE_SURFACE_WITH_KNOTS('',1,1,((#1294,#1296),(#1295,#1297)),.UNSPECIFIED.,.F.,.F.,.U.,(2,2),(2,2),(0.0,0.1),(0.0,1.100000000000001),.UNSPECIFIED.);
#1299=ORIENTED_EDGE('',*,*,#1240,.T.);
#1300=CARTESIAN_POINT('',(1.025,-0.55,0.0));
#1301=DIRECTION('',(0.0,1.0,0.0));
#1302=VECTOR('',#1301,1.100000000000001);
#1303=LINE('',#1300,#1302);
#1304=EDGE_CURVE('',#1276,#1229,#1303,.T.);
#1305=ORIENTED_EDGE('',*,*,#1304,.F.);
#1306=ORIENTED_EDGE('',*,*,#1281,.F.);
#1307=ORIENTED_EDGE('',*,*,#1188,.F.);
#1308=EDGE_LOOP('',(#1299,#1305,#1306,#1307));
#1309=FACE_OUTER_BOUND('',#1308,.T.);
#1310=ADVANCED_FACE('',(#1309),#1298,.T.);
#1311=CARTESIAN_POINT('',(1.025,0.0,0.45));
#1312=DIRECTION('',(0.0,-1.0,0.0));
#1313=DIRECTION('',(0.707106781186546,0.0,0.707106781186549));
#1314=AXIS2_PLACEMENT_3D('',#1311,#1312,#1313);
#1315=CYLINDRICAL_SURFACE('',#1314,0.05);
#1316=CARTESIAN_POINT('',(1.075,-0.55,0.45));
#1317=VERTEX_POINT('',#1316);
#1318=CARTESIAN_POINT('',(1.075,0.55,0.45));
#1319=VERTEX_POINT('',#1318);
#1320=CARTESIAN_POINT('',(1.075,-0.55,0.45));
#1321=DIRECTION('',(0.0,1.0,0.0));
#1322=VECTOR('',#1321,1.100000000000001);
#1323=LINE('',#1320,#1322);
#1324=EDGE_CURVE('',#1317,#1319,#1323,.T.);
#1325=ORIENTED_EDGE('',*,*,#1324,.T.);
#1326=CARTESIAN_POINT('',(1.025,0.508578643762691,0.5));
#1327=VERTEX_POINT('',#1326);
#1328=CARTESIAN_POINT('',(1.075,0.55,0.45));
#1329=CARTESIAN_POINT('',(1.075,0.55,0.454669036677345));
#1330=CARTESIAN_POINT('',(1.074348685273218,0.549343615005005,0.45922333002801));
#1331=CARTESIAN_POINT('',(1.071712290989076,0.546755322152594,0.468575358557117));
#1332=CARTESIAN_POINT('',(1.069580522402775,0.544691876501191,0.473146511768011));
#1333=CARTESIAN_POINT('',(1.063449565034325,0.539001270578984,0.482609311949281));
#1334=CARTESIAN_POINT('',(1.059045172277974,0.535074993238782,0.487107748783259));
#1335=CARTESIAN_POINT('',(1.04995374289774,0.527436597955602,0.493637495915982));
#1336=CARTESIAN_POINT('',(1.045341132415047,0.523724263018999,0.49595670306114));
#1337=CARTESIAN_POINT('',(1.035631111959467,0.516254383758274,0.4991260166962));
#1338=CARTESIAN_POINT('',(1.03050355255969,0.512476112430769,0.49996687380273));
#1339=CARTESIAN_POINT('',(1.025206466726488,0.508724694318025,0.499999680203758));
#1340=CARTESIAN_POINT('',(1.025103246678404,0.508651650189126,0.5));
#1341=CARTESIAN_POINT('',(1.025,0.508578643762691,0.5));
#1342=B_SPLINE_CURVE_WITH_KNOTS('',3,(#1328,#1329,#1330,#1331,#1332,#1333,#1334,#1335,#1336,#1337,#1338,#1339,#1340,#1341),.UNSPECIFIED.,.F.,.U.,(4,2,2,2,2,2,4),(-0.090206090542942,-0.076089691513143,-0.0598099030241,-0.037966938982382,-0.019093705585593,0.0,0.000379352519592),.UNSPECIFIED.);
#1343=EDGE_CURVE('',#1319,#1327,#1342,.T.);
#1344=ORIENTED_EDGE('',*,*,#1343,.T.);
#1345=CARTESIAN_POINT('',(1.025,-0.508578643762691,0.5));
#1346=VERTEX_POINT('',#1345);
#1347=CARTESIAN_POINT('',(1.025,0.508578643762691,0.5));
#1348=DIRECTION('',(0.0,-1.0,0.0));
#1349=VECTOR('',#1348,1.017157287525381);
#1350=LINE('',#1347,#1349);
#1351=EDGE_CURVE('',#1327,#1346,#1350,.T.);
#1352=ORIENTED_EDGE('',*,*,#1351,.T.);
#1353=CARTESIAN_POINT('',(1.025,-0.508578643762691,0.5));
#1354=CARTESIAN_POINT('',(1.025103246677865,-0.508651650188744,0.5));
#1355=CARTESIAN_POINT('',(1.025206466727024,-0.508724694318442,0.499999680203754));
#1356=CARTESIAN_POINT('',(1.030503552553608,-0.51247611242601,0.499966873802768));
#1357=CARTESIAN_POINT('',(1.035631111953731,-0.516254383753862,0.499126016698074));
#1358=CARTESIAN_POINT('',(1.045341132415054,-0.523724263019004,0.495956703061136));
#1359=CARTESIAN_POINT('',(1.049953742897744,-0.527436597955605,0.49363749591598));
#1360=CARTESIAN_POINT('',(1.059045172277974,-0.535074993238782,0.487107748783259));
#1361=CARTESIAN_POINT('',(1.063449565034325,-0.539001270578984,0.482609311949281));
#1362=CARTESIAN_POINT('',(1.069580522402776,-0.544691876501192,0.473146511768009));
#1363=CARTESIAN_POINT('',(1.071712290989075,-0.546755322152595,0.468575358557116));
#1364=CARTESIAN_POINT('',(1.074348685273217,-0.549343615005004,0.459223330028012));
#1365=CARTESIAN_POINT('',(1.075,-0.55,0.454669036677346));
#1366=CARTESIAN_POINT('',(1.075,-0.55,0.45));
#1367=B_SPLINE_CURVE_WITH_KNOTS('',3,(#1353,#1354,#1355,#1356,#1357,#1358,#1359,#1360,#1361,#1362,#1363,#1364,#1365,#1366),.UNSPECIFIED.,.F.,.U.,(4,2,2,2,2,2,4),(-0.089884131632924,-0.08950771605721,-0.070561833696772,-0.051834716654327,-0.03016086058719,-0.014007110032037,0.0),.UNSPECIFIED.);
#1368=EDGE_CURVE('',#1346,#1317,#1367,.T.);
#1369=ORIENTED_EDGE('',*,*,#1368,.T.);
#1370=EDGE_LOOP('',(#1325,#1344,#1352,#1369));
#1371=FACE_OUTER_BOUND('',#1370,.T.);
#1372=ADVANCED_FACE('',(#1371),#1315,.T.);
#1373=CARTESIAN_POINT('',(0.0,0.6,0.45));
#1374=DIRECTION('',(1.0,0.0,0.0));
#1375=DIRECTION('',(0.0,0.707106781186547,0.707106781186547));
#1376=AXIS2_PLACEMENT_3D('',#1373,#1374,#1375);
#1377=CYLINDRICAL_SURFACE('',#1376,0.05);
#1378=CARTESIAN_POINT('',(0.975,0.65,0.45));
#1379=VERTEX_POINT('',#1378);
#1380=CARTESIAN_POINT('',(-0.975,0.65,0.45));
#1381=VERTEX_POINT('',#1380);
#1382=CARTESIAN_POINT('',(0.975,0.65,0.45));
#1383=DIRECTION('',(-1.0,0.0,0.0));
#1384=VECTOR('',#1383,1.95);
#1385=LINE('',#1382,#1384);
#1386=EDGE_CURVE('',#1379,#1381,#1385,.T.);
#1387=ORIENTED_EDGE('',*,*,#1386,.T.);
#1388=CARTESIAN_POINT('',(-0.933578643762691,0.6,0.5));
#1389=VERTEX_POINT('',#1388);
#1390=CARTESIAN_POINT('',(-0.975,0.65,0.45));
#1391=CARTESIAN_POINT('',(-0.975,0.65,0.454669036677345));
#1392=CARTESIAN_POINT('',(-0.974343615005004,0.649348685273218,0.459223330028011));
#1393=CARTESIAN_POINT('',(-0.971755322152594,0.646712290989075,0.468575358557117));
#1394=CARTESIAN_POINT('',(-0.969691876501191,0.644580522402775,0.473146511768011));
#1395=CARTESIAN_POINT('',(-0.964001270578984,0.638449565034325,0.482609311949281));
#1396=CARTESIAN_POINT('',(-0.960074993238782,0.634045172277974,0.487107748783259));
#1397=CARTESIAN_POINT('',(-0.952436597955602,0.62495374289774,0.493637495915982));
#1398=CARTESIAN_POINT('',(-0.948724263018998,0.620341132415047,0.49595670306114));
#1399=CARTESIAN_POINT('',(-0.941254383758241,0.610631111959424,0.499126016696214));
#1400=CARTESIAN_POINT('',(-0.937476112430735,0.605503552559644,0.49996687380273));
#1401=CARTESIAN_POINT('',(-0.933724694318027,0.600206466726492,0.499999680203758));
#1402=CARTESIAN_POINT('',(-0.933651650189123,0.600103246678401,0.5));
#1403=CARTESIAN_POINT('',(-0.933578643762691,0.6,0.5));
#1404=B_SPLINE_CURVE_WITH_KNOTS('',3,(#1390,#1391,#1392,#1393,#1394,#1395,#1396,#1397,#1398,#1399,#1400,#1401,#1402,#1403),.UNSPECIFIED.,.F.,.U.,(4,2,2,2,2,2,4),(-0.090206090541513,-0.076089691511964,-0.059809903023208,-0.037966938981877,-0.019093705585423,0.0,0.000379352519578),.UNSPECIFIED.);
#1405=EDGE_CURVE('',#1381,#1389,#1404,.T.);
#1406=ORIENTED_EDGE('',*,*,#1405,.T.);
#1407=CARTESIAN_POINT('',(0.933578643762691,0.6,0.5));
#1408=VERTEX_POINT('',#1407);
#1409=CARTESIAN_POINT('',(-0.933578643762691,0.6,0.5));
#1410=DIRECTION('',(1.0,0.0,0.0));
#1411=VECTOR('',#1410,1.867157287525381);
#1412=LINE('',#1409,#1411);
#1413=EDGE_CURVE('',#1389,#1408,#1412,.T.);
#1414=ORIENTED_EDGE('',*,*,#1413,.T.);
#1415=CARTESIAN_POINT('',(0.933578643762691,0.6,0.5));
#1416=CARTESIAN_POINT('',(0.933651650189123,0.600103246678401,0.5));
#1417=CARTESIAN_POINT('',(0.933724694318027,0.600206466726491,0.499999680203758));
#1418=CARTESIAN_POINT('',(0.93747611243074,0.605503552559652,0.49996687380273));
#1419=CARTESIAN_POINT('',(0.941254383758247,0.610631111959432,0.499126016696212));
#1420=CARTESIAN_POINT('',(0.948724263018999,0.620341132415047,0.49595670306114));
#1421=CARTESIAN_POINT('',(0.952436597955602,0.62495374289774,0.493637495915982));
#1422=CARTESIAN_POINT('',(0.960074993238782,0.634045172277974,0.48710774878326));
#1423=CARTESIAN_POINT('',(0.964001270578984,0.638449565034325,0.482609311949281));
#1424=CARTESIAN_POINT('',(0.969691876501192,0.644580522402776,0.473146511768009));
#1425=CARTESIAN_POINT('',(0.971755322152594,0.646712290989075,0.468575358557116));
#1426=CARTESIAN_POINT('',(0.974343615005004,0.649348685273218,0.459223330028011));
#1427=CARTESIAN_POINT('',(0.975,0.65,0.454669036677346));
#1428=CARTESIAN_POINT('',(0.975,0.65,0.45));
#1429=B_SPLINE_CURVE_WITH_KNOTS('',3,(#1415,#1416,#1417,#1418,#1419,#1420,#1421,#1422,#1423,#1424,#1425,#1426,#1427,#1428),.UNSPECIFIED.,.F.,.U.,(4,2,2,2,2,2,4),(-0.089884131611822,-0.08950771603505,-0.070561833696782,-0.051834716654322,-0.030160860587187,-0.014007110032037,0.0),.UNSPECIFIED.);
#1430=EDGE_CURVE('',#1408,#1379,#1429,.T.);
#1431=ORIENTED_EDGE('',*,*,#1430,.T.);
#1432=EDGE_LOOP('',(#1387,#1406,#1414,#1431));
#1433=FACE_OUTER_BOUND('',#1432,.T.);
#1434=ADVANCED_FACE('',(#1433),#1377,.T.);
#1435=CARTESIAN_POINT('',(0.0,-0.6,0.45));
#1436=DIRECTION('',(-1.0,0.0,0.0));
#1437=DIRECTION('',(0.0,-0.707106781186547,0.707106781186547));
#1438=AXIS2_PLACEMENT_3D('',#1435,#1436,#1437);
#1439=CYLINDRICAL_SURFACE('',#1438,0.05);
#1440=CARTESIAN_POINT('',(0.933578643762691,-0.6,0.5));
#1441=VERTEX_POINT('',#1440);
#1442=CARTESIAN_POINT('',(-0.933578643762691,-0.6,0.5));
#1443=VERTEX_POINT('',#1442);
#1444=CARTESIAN_POINT('',(0.933578643762691,-0.6,0.5));
#1445=DIRECTION('',(-1.0,0.0,0.0));
#1446=VECTOR('',#1445,1.867157287525381);
#1447=LINE('',#1444,#1446);
#1448=EDGE_CURVE('',#1441,#1443,#1447,.T.);
#1449=ORIENTED_EDGE('',*,*,#1448,.T.);
#1450=CARTESIAN_POINT('',(-0.975,-0.65,0.45));
#1451=VERTEX_POINT('',#1450);
#1452=CARTESIAN_POINT('',(-0.933578643762691,-0.6,0.5));
#1453=CARTESIAN_POINT('',(-0.933651650188745,-0.600103246677867,0.5));
#1454=CARTESIAN_POINT('',(-0.93372469431844,-0.600206466727022,0.499999680203754));
#1455=CARTESIAN_POINT('',(-0.93747611242603,-0.605503552553634,0.499966873802767));
#1456=CARTESIAN_POINT('',(-0.94125438375388,-0.610631111953755,0.499126016698066));
#1457=CARTESIAN_POINT('',(-0.948724263019005,-0.620341132415054,0.495956703061136));
#1458=CARTESIAN_POINT('',(-0.952436597955605,-0.624953742897744,0.49363749591598));
#1459=CARTESIAN_POINT('',(-0.960074993238782,-0.634045172277974,0.487107748783259));
#1460=CARTESIAN_POINT('',(-0.964001270578984,-0.638449565034325,0.482609311949281));
#1461=CARTESIAN_POINT('',(-0.969691876501192,-0.644580522402776,0.47314651176801));
#1462=CARTESIAN_POINT('',(-0.971755322152594,-0.646712290989075,0.468575358557117));
#1463=CARTESIAN_POINT('',(-0.974343615005004,-0.649348685273217,0.459223330028013));
#1464=CARTESIAN_POINT('',(-0.975,-0.65,0.454669036677346));
#1465=CARTESIAN_POINT('',(-0.975,-0.65,0.45));
#1466=B_SPLINE_CURVE_WITH_KNOTS('',3,(#1452,#1453,#1454,#1455,#1456,#1457,#1458,#1459,#1460,#1461,#1462,#1463,#1464,#1465),.UNSPECIFIED.,.F.,.U.,(4,2,2,2,2,2,4),(-0.089884131632868,-0.089507716057151,-0.0705618336968,-0.051834716654345,-0.030160860587197,-0.014007110032039,0.0),.UNSPECIFIED.);
#1467=EDGE_CURVE('',#1443,#1451,#1466,.T.);
#1468=ORIENTED_EDGE('',*,*,#1467,.T.);
#1469=CARTESIAN_POINT('',(0.975,-0.65,0.45));
#1470=VERTEX_POINT('',#1469);
#1471=CARTESIAN_POINT('',(-0.975,-0.65,0.45));
#1472=DIRECTION('',(1.0,0.0,0.0));
#1473=VECTOR('',#1472,1.95);
#1474=LINE('',#1471,#1473);
#1475=EDGE_CURVE('',#1451,#1470,#1474,.T.);
#1476=ORIENTED_EDGE('',*,*,#1475,.T.);
#1477=CARTESIAN_POINT('',(0.975,-0.65,0.45));
#1478=CARTESIAN_POINT('',(0.975,-0.65,0.454669036677346));
#1479=CARTESIAN_POINT('',(0.974343615005004,-0.649348685273218,0.459223330028011));
#1480=CARTESIAN_POINT('',(0.971755322152594,-0.646712290989075,0.468575358557117));
#1481=CARTESIAN_POINT('',(0.969691876501192,-0.644580522402776,0.47314651176801));
#1482=CARTESIAN_POINT('',(0.964001270578984,-0.638449565034325,0.482609311949281));
#1483=CARTESIAN_POINT('',(0.960074993238782,-0.634045172277974,0.487107748783259));
#1484=CARTESIAN_POINT('',(0.952436597955605,-0.624953742897744,0.49363749591598));
#1485=CARTESIAN_POINT('',(0.948724263019005,-0.620341132415054,0.495956703061136));
#1486=CARTESIAN_POINT('',(0.941254383753842,-0.610631111953706,0.499126016698082));
#1487=CARTESIAN_POINT('',(0.937476112425989,-0.605503552553582,0.499966873802768));
#1488=CARTESIAN_POINT('',(0.933724694318444,-0.600206466727026,0.499999680203754));
#1489=CARTESIAN_POINT('',(0.933651650188742,-0.600103246677862,0.5));
#1490=CARTESIAN_POINT('',(0.933578643762691,-0.6,0.5));
#1491=B_SPLINE_CURVE_WITH_KNOTS('',3,(#1477,#1478,#1479,#1480,#1481,#1482,#1483,#1484,#1485,#1486,#1487,#1488,#1489,#1490),.UNSPECIFIED.,.F.,.U.,(4,2,2,2,2,2,4),(-0.090206090348815,-0.076089691352925,-0.059809902902984,-0.037966938913737,-0.0190937055623,0.0,0.0003793525176),.UNSPECIFIED.);
#1492=EDGE_CURVE('',#1470,#1441,#1491,.T.);
#1493=ORIENTED_EDGE('',*,*,#1492,.T.);
#1494=EDGE_LOOP('',(#1449,#1468,#1476,#1493));
#1495=FACE_OUTER_BOUND('',#1494,.T.);
#1496=ADVANCED_FACE('',(#1495),#1439,.T.);
#1497=CARTESIAN_POINT('',(-1.025,0.0,0.45));
#1498=DIRECTION('',(0.0,1.0,0.0));
#1499=DIRECTION('',(-0.707106781186546,0.0,0.707106781186549));
#1500=AXIS2_PLACEMENT_3D('',#1497,#1498,#1499);
#1501=CYLINDRICAL_SURFACE('',#1500,0.05);
#1502=CARTESIAN_POINT('',(-1.075,0.55,0.45));
#1503=VERTEX_POINT('',#1502);
#1504=CARTESIAN_POINT('',(-1.075,-0.55,0.45));
#1505=VERTEX_POINT('',#1504);
#1506=CARTESIAN_POINT('',(-1.075,0.55,0.45));
#1507=DIRECTION('',(0.0,-1.0,0.0));
#1508=VECTOR('',#1507,1.100000000000001);
#1509=LINE('',#1506,#1508);
#1510=EDGE_CURVE('',#1503,#1505,#1509,.T.);
#1511=ORIENTED_EDGE('',*,*,#1510,.T.);
#1512=CARTESIAN_POINT('',(-1.025,-0.508578643762691,0.5));
#1513=VERTEX_POINT('',#1512);
#1514=CARTESIAN_POINT('',(-1.075,-0.55,0.45));
#1515=CARTESIAN_POINT('',(-1.075,-0.55,0.454669036677346));
#1516=CARTESIAN_POINT('',(-1.074348685273217,-0.549343615005004,0.459223330028012));
#1517=CARTESIAN_POINT('',(-1.071712290989075,-0.546755322152595,0.468575358557116));
#1518=CARTESIAN_POINT('',(-1.069580522402776,-0.544691876501192,0.47314651176801));
#1519=CARTESIAN_POINT('',(-1.063449565034325,-0.539001270578984,0.482609311949281));
#1520=CARTESIAN_POINT('',(-1.059045172277974,-0.535074993238782,0.487107748783259));
#1521=CARTESIAN_POINT('',(-1.049953742897744,-0.527436597955605,0.49363749591598));
#1522=CARTESIAN_POINT('',(-1.045341132415054,-0.523724263019005,0.495956703061136));
#1523=CARTESIAN_POINT('',(-1.035631111954661,-0.516254383754577,0.49912601669777));
#1524=CARTESIAN_POINT('',(-1.030503552554595,-0.512476112426781,0.499966873802761));
#1525=CARTESIAN_POINT('',(-1.025206466726939,-0.508724694318376,0.499999680203755));
#1526=CARTESIAN_POINT('',(-1.025103246677955,-0.508651650188808,0.5));
#1527=CARTESIAN_POINT('',(-1.025,-0.508578643762691,0.5));
#1528=B_SPLINE_CURVE_WITH_KNOTS('',3,(#1514,#1515,#1516,#1517,#1518,#1519,#1520,#1521,#1522,#1523,#1524,#1525,#1526,#1527),.UNSPECIFIED.,.F.,.U.,(4,2,2,2,2,2,4),(-0.090206090380885,-0.076089691379393,-0.05980990292299,-0.037966938925074,-0.019093705566146,0.0,0.000379352517939),.UNSPECIFIED.);
#1529=EDGE_CURVE('',#1505,#1513,#1528,.T.);
#1530=ORIENTED_EDGE('',*,*,#1529,.T.);
#1531=CARTESIAN_POINT('',(-1.025,0.508578643762691,0.5));
#1532=VERTEX_POINT('',#1531);
#1533=CARTESIAN_POINT('',(-1.025,-0.508578643762691,0.5));
#1534=DIRECTION('',(0.0,1.0,0.0));
#1535=VECTOR('',#1534,1.017157287525381);
#1536=LINE('',#1533,#1535);
#1537=EDGE_CURVE('',#1513,#1532,#1536,.T.);
#1538=ORIENTED_EDGE('',*,*,#1537,.T.);
#1539=CARTESIAN_POINT('',(-1.025,0.508578643762691,0.5));
#1540=CARTESIAN_POINT('',(-1.025103246678404,0.508651650189125,0.5));
#1541=CARTESIAN_POINT('',(-1.025206466726488,0.508724694318025,0.499999680203758));
#1542=CARTESIAN_POINT('',(-1.030503552559684,0.512476112430764,0.49996687380273));
#1543=CARTESIAN_POINT('',(-1.035631111959461,0.516254383758269,0.499126016696202));
#1544=CARTESIAN_POINT('',(-1.045341132415047,0.523724263018999,0.49595670306114));
#1545=CARTESIAN_POINT('',(-1.049953742897741,0.527436597955602,0.493637495915982));
#1546=CARTESIAN_POINT('',(-1.059045172277974,0.535074993238783,0.487107748783259));
#1547=CARTESIAN_POINT('',(-1.063449565034325,0.539001270578984,0.482609311949281));
#1548=CARTESIAN_POINT('',(-1.069580522402775,0.544691876501191,0.473146511768011));
#1549=CARTESIAN_POINT('',(-1.071712290989075,0.546755322152594,0.468575358557117));
#1550=CARTESIAN_POINT('',(-1.074348685273218,0.549343615005005,0.45922333002801));
#1551=CARTESIAN_POINT('',(-1.075,0.55,0.454669036677345));
#1552=CARTESIAN_POINT('',(-1.075,0.55,0.45));
#1553=B_SPLINE_CURVE_WITH_KNOTS('',3,(#1539,#1540,#1541,#1542,#1543,#1544,#1545,#1546,#1547,#1548,#1549,#1550,#1551,#1552),.UNSPECIFIED.,.F.,.U.,(4,2,2,2,2,2,4),(-0.089884131611715,-0.089507716034936,-0.070561833696781,-0.051834716654321,-0.030160860587183,-0.014007110032035,0.0),.UNSPECIFIED.);
#1554=EDGE_CURVE('',#1532,#1503,#1553,.T.);
#1555=ORIENTED_EDGE('',*,*,#1554,.T.);
#1556=EDGE_LOOP('',(#1511,#1530,#1538,#1555));
#1557=FACE_OUTER_BOUND('',#1556,.T.);
#1558=ADVANCED_FACE('',(#1557),#1501,.T.);
#1559=CARTESIAN_POINT('',(-1.075,-0.65,0.45));
#1560=DIRECTION('',(0.0,0.0,-1.0));
#1561=DIRECTION('',(-1.0,0.0,0.0));
#1562=AXIS2_PLACEMENT_3D('',#1559,#1560,#1561);
#1563=TOROIDAL_SURFACE('',#1562,0.15,0.05);
#1564=CARTESIAN_POINT('',(-1.075,-0.65,0.5));
#1565=DIRECTION('',(0.0,0.0,1.0));
#1566=DIRECTION('',(0.707106781186547,0.707106781186547,0.0));
#1567=AXIS2_PLACEMENT_3D('',#1564,#1565,#1566);
#1568=CIRCLE('',#1567,0.15);
#1569=EDGE_CURVE('',#1443,#1513,#1568,.T.);
#1570=ORIENTED_EDGE('',*,*,#1569,.T.);
#1571=ORIENTED_EDGE('',*,*,#1529,.F.);
#1572=CARTESIAN_POINT('',(-1.075,-0.65,0.45));
#1573=DIRECTION('',(0.0,0.0,-1.0));
#1574=DIRECTION('',(0.707106781186548,0.707106781186548,0.0));
#1575=AXIS2_PLACEMENT_3D('',#1572,#1573,#1574);
#1576=CIRCLE('',#1575,0.1);
#1577=EDGE_CURVE('',#1505,#1451,#1576,.T.);
#1578=ORIENTED_EDGE('',*,*,#1577,.T.);
#1579=ORIENTED_EDGE('',*,*,#1467,.F.);
#1580=EDGE_LOOP('',(#1570,#1571,#1578,#1579));
#1581=FACE_OUTER_BOUND('',#1580,.T.);
#1582=ADVANCED_FACE('',(#1581),#1563,.T.);
#1583=CARTESIAN_POINT('',(-1.075,0.65,0.45));
#1584=DIRECTION('',(0.0,0.0,-1.0));
#1585=DIRECTION('',(-1.0,0.0,0.0));
#1586=AXIS2_PLACEMENT_3D('',#1583,#1584,#1585);
#1587=TOROIDAL_SURFACE('',#1586,0.15,0.05);
#1588=CARTESIAN_POINT('',(-1.075,0.65,0.45));
#1589=DIRECTION('',(0.0,0.0,-1.0));
#1590=DIRECTION('',(0.707106781186548,-0.707106781186548,0.0));
#1591=AXIS2_PLACEMENT_3D('',#1588,#1589,#1590);
#1592=CIRCLE('',#1591,0.1);
#1593=EDGE_CURVE('',#1381,#1503,#1592,.T.);
#1594=ORIENTED_EDGE('',*,*,#1593,.T.);
#1595=ORIENTED_EDGE('',*,*,#1554,.F.);
#1596=CARTESIAN_POINT('',(-1.075,0.65,0.5));
#1597=DIRECTION('',(0.0,0.0,1.0));
#1598=DIRECTION('',(0.707106781186547,-0.707106781186547,0.0));
#1599=AXIS2_PLACEMENT_3D('',#1596,#1597,#1598);
#1600=CIRCLE('',#1599,0.15);
#1601=EDGE_CURVE('',#1532,#1389,#1600,.T.);
#1602=ORIENTED_EDGE('',*,*,#1601,.T.);
#1603=ORIENTED_EDGE('',*,*,#1405,.F.);
#1604=EDGE_LOOP('',(#1594,#1595,#1602,#1603));
#1605=FACE_OUTER_BOUND('',#1604,.T.);
#1606=ADVANCED_FACE('',(#1605),#1587,.T.);
#1607=CARTESIAN_POINT('',(1.075,-0.65,0.45));
#1608=DIRECTION('',(0.0,0.0,-1.0));
#1609=DIRECTION('',(-1.0,0.0,0.0));
#1610=AXIS2_PLACEMENT_3D('',#1607,#1608,#1609);
#1611=TOROIDAL_SURFACE('',#1610,0.15,0.05);
#1612=CARTESIAN_POINT('',(1.075,-0.65,0.5));
#1613=DIRECTION('',(0.0,0.0,1.0));
#1614=DIRECTION('',(-0.707106781186546,0.707106781186549,0.0));
#1615=AXIS2_PLACEMENT_3D('',#1612,#1613,#1614);
#1616=CIRCLE('',#1615,0.15);
#1617=EDGE_CURVE('',#1346,#1441,#1616,.T.);
#1618=ORIENTED_EDGE('',*,*,#1617,.T.);
#1619=ORIENTED_EDGE('',*,*,#1492,.F.);
#1620=CARTESIAN_POINT('',(1.075,-0.65,0.45));
#1621=DIRECTION('',(0.0,0.0,-1.0));
#1622=DIRECTION('',(-0.707106781186546,0.707106781186549,0.0));
#1623=AXIS2_PLACEMENT_3D('',#1620,#1621,#1622);
#1624=CIRCLE('',#1623,0.1);
#1625=EDGE_CURVE('',#1470,#1317,#1624,.T.);
#1626=ORIENTED_EDGE('',*,*,#1625,.T.);
#1627=ORIENTED_EDGE('',*,*,#1368,.F.);
#1628=EDGE_LOOP('',(#1618,#1619,#1626,#1627));
#1629=FACE_OUTER_BOUND('',#1628,.T.);
#1630=ADVANCED_FACE('',(#1629),#1611,.T.);
#1631=CARTESIAN_POINT('',(1.075,0.65,0.45));
#1632=DIRECTION('',(0.0,0.0,-1.0));
#1633=DIRECTION('',(-1.0,0.0,0.0));
#1634=AXIS2_PLACEMENT_3D('',#1631,#1632,#1633);
#1635=TOROIDAL_SURFACE('',#1634,0.15,0.05);
#1636=CARTESIAN_POINT('',(1.075,0.65,0.45));
#1637=DIRECTION('',(0.0,0.0,-1.0));
#1638=DIRECTION('',(-0.707106781186546,-0.707106781186549,0.0));
#1639=AXIS2_PLACEMENT_3D('',#1636,#1637,#1638);
#1640=CIRCLE('',#1639,0.1);
#1641=EDGE_CURVE('',#1319,#1379,#1640,.T.);
#1642=ORIENTED_EDGE('',*,*,#1641,.T.);
#1643=ORIENTED_EDGE('',*,*,#1430,.F.);
#1644=CARTESIAN_POINT('',(1.075,0.65,0.5));
#1645=DIRECTION('',(0.0,0.0,1.0));
#1646=DIRECTION('',(-0.707106781186546,-0.707106781186549,0.0));
#1647=AXIS2_PLACEMENT_3D('',#1644,#1645,#1646);
#1648=CIRCLE('',#1647,0.15);
#1649=EDGE_CURVE('',#1408,#1327,#1648,.T.);
#1650=ORIENTED_EDGE('',*,*,#1649,.T.);
#1651=ORIENTED_EDGE('',*,*,#1343,.F.);
#1652=EDGE_LOOP('',(#1642,#1643,#1650,#1651));
#1653=FACE_OUTER_BOUND('',#1652,.T.);
#1654=ADVANCED_FACE('',(#1653),#1635,.T.);
#1655=CARTESIAN_POINT('',(1.075,-0.65,0.239883327499635));
#1656=DIRECTION('',(0.0,-1.224647E-016,-1.0));
#1657=DIRECTION('',(1.0,0.0,0.0));
#1658=AXIS2_PLACEMENT_3D('',#1655,#1656,#1657);
#1659=CYLINDRICAL_SURFACE('',#1658,0.1);
#1660=ORIENTED_EDGE('',*,*,#1625,.F.);
#1661=CARTESIAN_POINT('',(0.975,-0.65,0.0));
#1662=VERTEX_POINT('',#1661);
#1663=CARTESIAN_POINT('',(0.975,-0.65,0.0));
#1664=DIRECTION('',(0.0,0.0,1.0));
#1665=VECTOR('',#1664,0.45);
#1666=LINE('',#1663,#1665);
#1667=EDGE_CURVE('',#1662,#1470,#1666,.T.);
#1668=ORIENTED_EDGE('',*,*,#1667,.F.);
#1669=CARTESIAN_POINT('',(1.075,-0.55,0.0));
#1670=VERTEX_POINT('',#1669);
#1671=CARTESIAN_POINT('',(1.075,-0.65,5.551115E-017));
#1672=DIRECTION('',(0.0,0.0,1.0));
#1673=DIRECTION('',(1.0,0.0,0.0));
#1674=AXIS2_PLACEMENT_3D('',#1671,#1672,#1673);
#1675=CIRCLE('',#1674,0.1);
#1676=EDGE_CURVE('',#1670,#1662,#1675,.T.);
#1677=ORIENTED_EDGE('',*,*,#1676,.F.);
#1678=CARTESIAN_POINT('',(1.075,-0.55,0.45));
#1679=DIRECTION('',(0.0,0.0,-1.0));
#1680=VECTOR('',#1679,0.45);
#1681=LINE('',#1678,#1680);
#1682=EDGE_CURVE('',#1317,#1670,#1681,.T.);
#1683=ORIENTED_EDGE('',*,*,#1682,.F.);
#1684=EDGE_LOOP('',(#1660,#1668,#1677,#1683));
#1685=FACE_OUTER_BOUND('',#1684,.T.);
#1686=ADVANCED_FACE('',(#1685),#1659,.F.);
#1687=CARTESIAN_POINT('',(0.975,-0.65,0.45));
#1688=CARTESIAN_POINT('',(0.975,-0.65,0.0));
#1689=CARTESIAN_POINT('',(-0.975,-0.65,0.45));
#1690=CARTESIAN_POINT('',(-0.975,-0.65,0.0));
#1691=B_SPLINE_SURFACE_WITH_KNOTS('',1,1,((#1687,#1689),(#1688,#1690)),.UNSPECIFIED.,.F.,.F.,.U.,(2,2),(2,2),(0.0,0.45),(0.0,1.95),.UNSPECIFIED.);
#1692=ORIENTED_EDGE('',*,*,#1475,.F.);
#1693=CARTESIAN_POINT('',(-0.975,-0.65,0.0));
#1694=VERTEX_POINT('',#1693);
#1695=CARTESIAN_POINT('',(-0.975,-0.65,0.45));
#1696=DIRECTION('',(0.0,0.0,-1.0));
#1697=VECTOR('',#1696,0.45);
#1698=LINE('',#1695,#1697);
#1699=EDGE_CURVE('',#1451,#1694,#1698,.T.);
#1700=ORIENTED_EDGE('',*,*,#1699,.T.);
#1701=CARTESIAN_POINT('',(-0.975,-0.65,0.0));
#1702=DIRECTION('',(1.0,0.0,0.0));
#1703=VECTOR('',#1702,1.95);
#1704=LINE('',#1701,#1703);
#1705=EDGE_CURVE('',#1694,#1662,#1704,.T.);
#1706=ORIENTED_EDGE('',*,*,#1705,.T.);
#1707=ORIENTED_EDGE('',*,*,#1667,.T.);
#1708=EDGE_LOOP('',(#1692,#1700,#1706,#1707));
#1709=FACE_OUTER_BOUND('',#1708,.T.);
#1710=ADVANCED_FACE('',(#1709),#1691,.F.);
#1711=CARTESIAN_POINT('',(-1.075,-0.65,0.239883327499635));
#1712=DIRECTION('',(0.0,-1.224647E-016,-1.0));
#1713=DIRECTION('',(1.0,0.0,0.0));
#1714=AXIS2_PLACEMENT_3D('',#1711,#1712,#1713);
#1715=CYLINDRICAL_SURFACE('',#1714,0.1);
#1716=ORIENTED_EDGE('',*,*,#1577,.F.);
#1717=CARTESIAN_POINT('',(-1.075,-0.55,0.0));
#1718=VERTEX_POINT('',#1717);
#1719=CARTESIAN_POINT('',(-1.075,-0.55,0.0));
#1720=DIRECTION('',(0.0,0.0,1.0));
#1721=VECTOR('',#1720,0.45);
#1722=LINE('',#1719,#1721);
#1723=EDGE_CURVE('',#1718,#1505,#1722,.T.);
#1724=ORIENTED_EDGE('',*,*,#1723,.F.);
#1725=CARTESIAN_POINT('',(-1.075,-0.65,5.551115E-017));
#1726=DIRECTION('',(0.0,0.0,1.0));
#1727=DIRECTION('',(1.0,0.0,0.0));
#1728=AXIS2_PLACEMENT_3D('',#1725,#1726,#1727);
#1729=CIRCLE('',#1728,0.1);
#1730=EDGE_CURVE('',#1694,#1718,#1729,.T.);
#1731=ORIENTED_EDGE('',*,*,#1730,.F.);
#1732=ORIENTED_EDGE('',*,*,#1699,.F.);
#1733=EDGE_LOOP('',(#1716,#1724,#1731,#1732));
#1734=FACE_OUTER_BOUND('',#1733,.T.);
#1735=ADVANCED_FACE('',(#1734),#1715,.F.);
#1736=CARTESIAN_POINT('',(-1.075,-0.55,0.45));
#1737=CARTESIAN_POINT('',(-1.075,-0.55,0.0));
#1738=CARTESIAN_POINT('',(-1.075,0.55,0.45));
#1739=CARTESIAN_POINT('',(-1.075,0.55,0.0));
#1740=B_SPLINE_SURFACE_WITH_KNOTS('',1,1,((#1736,#1738),(#1737,#1739)),.UNSPECIFIED.,.F.,.F.,.U.,(2,2),(2,2),(0.0,0.45),(0.0,1.100000000000001),.UNSPECIFIED.);
#1741=ORIENTED_EDGE('',*,*,#1510,.F.);
#1742=CARTESIAN_POINT('',(-1.075,0.55,0.0));
#1743=VERTEX_POINT('',#1742);
#1744=CARTESIAN_POINT('',(-1.075,0.55,0.45));
#1745=DIRECTION('',(0.0,0.0,-1.0));
#1746=VECTOR('',#1745,0.45);
#1747=LINE('',#1744,#1746);
#1748=EDGE_CURVE('',#1503,#1743,#1747,.T.);
#1749=ORIENTED_EDGE('',*,*,#1748,.T.);
#1750=CARTESIAN_POINT('',(-1.075,0.55,0.0));
#1751=DIRECTION('',(0.0,-1.0,0.0));
#1752=VECTOR('',#1751,1.100000000000001);
#1753=LINE('',#1750,#1752);
#1754=EDGE_CURVE('',#1743,#1718,#1753,.T.);
#1755=ORIENTED_EDGE('',*,*,#1754,.T.);
#1756=ORIENTED_EDGE('',*,*,#1723,.T.);
#1757=EDGE_LOOP('',(#1741,#1749,#1755,#1756));
#1758=FACE_OUTER_BOUND('',#1757,.T.);
#1759=ADVANCED_FACE('',(#1758),#1740,.F.);
#1760=CARTESIAN_POINT('',(-1.025,-0.6,0.5));
#1761=CARTESIAN_POINT('',(1.025,-0.6,0.5));
#1762=CARTESIAN_POINT('',(-1.025,0.6,0.5));
#1763=CARTESIAN_POINT('',(1.025,0.6,0.5));
#1764=B_SPLINE_SURFACE_WITH_KNOTS('',1,1,((#1760,#1762),(#1761,#1763)),.UNSPECIFIED.,.F.,.F.,.U.,(2,2),(2,2),(0.0,2.05),(0.0,1.2),.UNSPECIFIED.);
#1765=ORIENTED_EDGE('',*,*,#1537,.F.);
#1766=ORIENTED_EDGE('',*,*,#1569,.F.);
#1767=ORIENTED_EDGE('',*,*,#1448,.F.);
#1768=ORIENTED_EDGE('',*,*,#1617,.F.);
#1769=ORIENTED_EDGE('',*,*,#1351,.F.);
#1770=ORIENTED_EDGE('',*,*,#1649,.F.);
#1771=ORIENTED_EDGE('',*,*,#1413,.F.);
#1772=ORIENTED_EDGE('',*,*,#1601,.F.);
#1773=EDGE_LOOP('',(#1765,#1766,#1767,#1768,#1769,#1770,#1771,#1772));
#1774=FACE_OUTER_BOUND('',#1773,.T.);
#1775=ADVANCED_FACE('',(#1774),#1764,.T.);
#1776=CARTESIAN_POINT('',(1.075,0.65,0.239883327499635));
#1777=DIRECTION('',(0.0,-1.224647E-016,-1.0));
#1778=DIRECTION('',(1.0,0.0,0.0));
#1779=AXIS2_PLACEMENT_3D('',#1776,#1777,#1778);
#1780=CYLINDRICAL_SURFACE('',#1779,0.1);
#1781=ORIENTED_EDGE('',*,*,#1641,.F.);
#1782=CARTESIAN_POINT('',(1.075,0.55,0.0));
#1783=VERTEX_POINT('',#1782);
#1784=CARTESIAN_POINT('',(1.075,0.55,0.0));
#1785=DIRECTION('',(0.0,0.0,1.0));
#1786=VECTOR('',#1785,0.45);
#1787=LINE('',#1784,#1786);
#1788=EDGE_CURVE('',#1783,#1319,#1787,.T.);
#1789=ORIENTED_EDGE('',*,*,#1788,.F.);
#1790=CARTESIAN_POINT('',(0.975,0.65,0.0));
#1791=VERTEX_POINT('',#1790);
#1792=CARTESIAN_POINT('',(1.075,0.65,-5.551115E-017));
#1793=DIRECTION('',(0.0,0.0,1.0));
#1794=DIRECTION('',(1.0,0.0,0.0));
#1795=AXIS2_PLACEMENT_3D('',#1792,#1793,#1794);
#1796=CIRCLE('',#1795,0.1);
#1797=EDGE_CURVE('',#1791,#1783,#1796,.T.);
#1798=ORIENTED_EDGE('',*,*,#1797,.F.);
#1799=CARTESIAN_POINT('',(0.975,0.65,0.45));
#1800=DIRECTION('',(0.0,0.0,-1.0));
#1801=VECTOR('',#1800,0.45);
#1802=LINE('',#1799,#1801);
#1803=EDGE_CURVE('',#1379,#1791,#1802,.T.);
#1804=ORIENTED_EDGE('',*,*,#1803,.F.);
#1805=EDGE_LOOP('',(#1781,#1789,#1798,#1804));
#1806=FACE_OUTER_BOUND('',#1805,.T.);
#1807=ADVANCED_FACE('',(#1806),#1780,.F.);
#1808=CARTESIAN_POINT('',(-1.075,0.65,0.239883327499635));
#1809=DIRECTION('',(0.0,-1.224647E-016,-1.0));
#1810=DIRECTION('',(1.0,0.0,0.0));
#1811=AXIS2_PLACEMENT_3D('',#1808,#1809,#1810);
#1812=CYLINDRICAL_SURFACE('',#1811,0.1);
#1813=ORIENTED_EDGE('',*,*,#1593,.F.);
#1814=CARTESIAN_POINT('',(-0.975,0.65,0.0));
#1815=VERTEX_POINT('',#1814);
#1816=CARTESIAN_POINT('',(-0.975,0.65,0.0));
#1817=DIRECTION('',(0.0,0.0,1.0));
#1818=VECTOR('',#1817,0.45);
#1819=LINE('',#1816,#1818);
#1820=EDGE_CURVE('',#1815,#1381,#1819,.T.);
#1821=ORIENTED_EDGE('',*,*,#1820,.F.);
#1822=CARTESIAN_POINT('',(-1.075,0.65,-5.551115E-017));
#1823=DIRECTION('',(0.0,0.0,1.0));
#1824=DIRECTION('',(1.0,0.0,0.0));
#1825=AXIS2_PLACEMENT_3D('',#1822,#1823,#1824);
#1826=CIRCLE('',#1825,0.1);
#1827=EDGE_CURVE('',#1743,#1815,#1826,.T.);
#1828=ORIENTED_EDGE('',*,*,#1827,.F.);
#1829=ORIENTED_EDGE('',*,*,#1748,.F.);
#1830=EDGE_LOOP('',(#1813,#1821,#1828,#1829));
#1831=FACE_OUTER_BOUND('',#1830,.T.);
#1832=ADVANCED_FACE('',(#1831),#1812,.F.);
#1833=CARTESIAN_POINT('',(0.975,0.65,0.0));
#1834=CARTESIAN_POINT('',(0.975,0.65,0.45));
#1835=CARTESIAN_POINT('',(-0.975,0.65,0.0));
#1836=CARTESIAN_POINT('',(-0.975,0.65,0.45));
#1837=B_SPLINE_SURFACE_WITH_KNOTS('',1,1,((#1833,#1835),(#1834,#1836)),.UNSPECIFIED.,.F.,.F.,.U.,(2,2),(2,2),(0.0,0.45),(0.0,1.95),.UNSPECIFIED.);
#1838=ORIENTED_EDGE('',*,*,#1386,.F.);
#1839=ORIENTED_EDGE('',*,*,#1803,.T.);
#1840=CARTESIAN_POINT('',(0.975,0.65,0.0));
#1841=DIRECTION('',(-1.0,0.0,0.0));
#1842=VECTOR('',#1841,1.95);
#1843=LINE('',#1840,#1842);
#1844=EDGE_CURVE('',#1791,#1815,#1843,.T.);
#1845=ORIENTED_EDGE('',*,*,#1844,.T.);
#1846=ORIENTED_EDGE('',*,*,#1820,.T.);
#1847=EDGE_LOOP('',(#1838,#1839,#1845,#1846));
#1848=FACE_OUTER_BOUND('',#1847,.T.);
#1849=ADVANCED_FACE('',(#1848),#1837,.F.);
#1850=CARTESIAN_POINT('',(-1.075,-0.65,0.0));
#1851=CARTESIAN_POINT('',(1.075,-0.65,0.0));
#1852=CARTESIAN_POINT('',(-1.075,0.65,0.0));
#1853=CARTESIAN_POINT('',(1.075,0.65,0.0));
#1854=B_SPLINE_SURFACE_WITH_KNOTS('',1,1,((#1850,#1852),(#1851,#1853)),.UNSPECIFIED.,.F.,.F.,.U.,(2,2),(2,2),(0.0,2.15),(0.0,1.3),.UNSPECIFIED.);
#1855=ORIENTED_EDGE('',*,*,#1730,.T.);
#1856=ORIENTED_EDGE('',*,*,#1754,.F.);
#1857=ORIENTED_EDGE('',*,*,#1827,.T.);
#1858=ORIENTED_EDGE('',*,*,#1844,.F.);
#1859=ORIENTED_EDGE('',*,*,#1797,.T.);
#1860=CARTESIAN_POINT('',(1.075,-0.55,0.0));
#1861=DIRECTION('',(0.0,1.0,0.0));
#1862=VECTOR('',#1861,1.100000000000001);
#1863=LINE('',#1860,#1862);
#1864=EDGE_CURVE('',#1670,#1783,#1863,.T.);
#1865=ORIENTED_EDGE('',*,*,#1864,.F.);
#1866=ORIENTED_EDGE('',*,*,#1676,.T.);
#1867=ORIENTED_EDGE('',*,*,#1705,.F.);
#1868=EDGE_LOOP('',(#1855,#1856,#1857,#1858,#1859,#1865,#1866,#1867));
#1869=FACE_OUTER_BOUND('',#1868,.T.);
#1870=ORIENTED_EDGE('',*,*,#1020,.T.);
#1871=ORIENTED_EDGE('',*,*,#1073,.T.);
#1872=ORIENTED_EDGE('',*,*,#1170,.T.);
#1873=ORIENTED_EDGE('',*,*,#1153,.T.);
#1874=ORIENTED_EDGE('',*,*,#1122,.T.);
#1875=EDGE_LOOP('',(#1870,#1871,#1872,#1873,#1874));
#1876=FACE_BOUND('',#1875,.T.);
#1877=ORIENTED_EDGE('',*,*,#1234,.T.);
#1878=ORIENTED_EDGE('',*,*,#1263,.T.);
#1879=ORIENTED_EDGE('',*,*,#1287,.T.);
#1880=ORIENTED_EDGE('',*,*,#1304,.T.);
#1881=EDGE_LOOP('',(#1877,#1878,#1879,#1880));
#1882=FACE_BOUND('',#1881,.T.);
#1883=ADVANCED_FACE('',(#1869,#1876,#1882),#1854,.F.);
#1884=CARTESIAN_POINT('',(1.075,-0.55,0.0));
#1885=CARTESIAN_POINT('',(1.075,-0.55,0.45));
#1886=CARTESIAN_POINT('',(1.075,0.55,0.0));
#1887=CARTESIAN_POINT('',(1.075,0.55,0.45));
#1888=B_SPLINE_SURFACE_WITH_KNOTS('',1,1,((#1884,#1886),(#1885,#1887)),.UNSPECIFIED.,.F.,.F.,.U.,(2,2),(2,2),(0.0,0.45),(0.0,1.100000000000001),.UNSPECIFIED.);
#1889=ORIENTED_EDGE('',*,*,#1324,.F.);
#1890=ORIENTED_EDGE('',*,*,#1682,.T.);
#1891=ORIENTED_EDGE('',*,*,#1864,.T.);
#1892=ORIENTED_EDGE('',*,*,#1788,.T.);
#1893=EDGE_LOOP('',(#1889,#1890,#1891,#1892));
#1894=FACE_OUTER_BOUND('',#1893,.T.);
#1895=ADVANCED_FACE('',(#1894),#1888,.F.);
#1896=CLOSED_SHELL('',(#1046,#1077,#1109,#1133,#1157,#1174,#1214,#1245,#1269,#1293,#1310,#1372,#1434,#1496,#1558,#1582,#1606,#1630,#1654,#1686,#1710,#1735,#1759,#1775,#1807,#1832,#1849,#1883,#1895));
#1897=MANIFOLD_SOLID_BREP('A77',#1896);
#1898=COLOUR_RGB('250',0.33,0.33,0.33);
#1899=SURFACE_STYLE_USAGE(.BOTH.,#1900);
#1900=SURFACE_SIDE_STYLE('NONE',(#1901));
#1901=SURFACE_STYLE_FILL_AREA(#1902);
#1902=FILL_AREA_STYLE('NONE',(#1903));
#1903=FILL_AREA_STYLE_COLOUR('NONE',#1898);
#1904=PRESENTATION_STYLE_ASSIGNMENT((#1899));
#1905=STYLED_ITEM('NONE',(#1904),#1897);
#1906=ADVANCED_BREP_SHAPE_REPRESENTATION('ABSR1',(#214,#407,#998,#1897),#28);
#1907=SHAPE_REPRESENTATION_RELATIONSHIP('SRRPL1','',#1906,#62);
ENDSEC;
END-ISO-10303-21;
